{
    "goal": {
        "global_pose": {
            "orientation": {
                "w": 0.7031023502349854,
                "x": -0.7110244035720825,
                "y": 0.007748599164187908,
                "z": 0.005598929710686207
            },
            "position": {
                "x": 0.11585023208521307,
                "y": 0.44412534475326537,
                "z": 0.3711530566215515
            }
        },
        "name": "move_to_auspresseinheit"
    },
    "id": "BFMT_move_to_auspresseinheit_4",
    "joint_names": [
        "shoulder_pan_joint",
        "shoulder_lift_joint",
        "elbow_joint",
        "wrist_1_joint",
        "wrist_2_joint",
        "wrist_3_joint"
    ],
    "metrics": {
        "cart_traj_len": 2.154417711678886,
        "distance_elbow_joint": 0.04430716051385497,
        "distance_shoulder_lift_joint": 0.5362786694733412,
        "distance_shoulder_pan_joint": 3.6058607043649915,
        "distance_wrist_1_joint": 1.4590808195763387,
        "distance_wrist_2_joint": 0.5159226430938625,
        "distance_wrist_3_joint": 0.13462551363539887,
        "smoothness": 1.748754774055967,
        "time": 0.486955302,
        "traj_len": 2.5091981808254578,
        "weighted_distance": 2.922384300635149
    },
    "planner": "BFMT",
    "start": {
        "state": {
            "elbow_joint": 2.4225745326682886,
            "shoulder_lift_joint": -1.3736534990239282,
            "shoulder_pan_joint": -0.3378633610955803,
            "wrist_1_joint": -1.02885917317252,
            "wrist_2_joint": 1.233022905420004,
            "wrist_3_joint": -3.09402240754724
        }
    },
    "waypoints": [
        {
            "positions": [
                -0.3378633610955803,
                -1.3736534990239282,
                2.4225745326682886,
                -1.02885917317252,
                1.233022905420004,
                -3.09402240754724
            ]
        },
        {
            "positions": [
                -0.5511391372015443,
                -1.3918993613057664,
                2.4166979334512533,
                -1.1047075255982906,
                1.2206266961470091,
                -3.085316481701698
            ]
        },
        {
            "positions": [
                -0.7644149133075082,
                -1.4101452235876049,
                2.4108213342342175,
                -1.180555878024061,
                1.2082304868740141,
                -3.0766105558561554
            ]
        },
        {
            "positions": [
                -0.9776906894134723,
                -1.428391085869443,
                2.4049447350171818,
                -1.2564042304498315,
                1.1958342776010193,
                -3.067904630010613
            ]
        },
        {
            "positions": [
                -1.190966465519436,
                -1.4466369481512813,
                2.3990681358001464,
                -1.332252582875602,
                1.1834380683280246,
                -3.059198704165071
            ]
        },
        {
            "positions": [
                -1.4042422416254003,
                -1.4648828104331197,
                2.393191536583111,
                -1.4081009353013725,
                1.1710418590550296,
                -3.050492778319529
            ]
        },
        {
            "positions": [
                -1.6175180177313642,
                -1.483128672714958,
                2.3873149373660754,
                -1.483949287727143,
                1.1586456497820348,
                -3.0417868524739866
            ]
        },
        {
            "positions": [
                -1.4060447406650725,
                -1.52192899051335,
                2.3881374432944065,
                -1.3926774054524416,
                1.1185051600133171,
                -3.049276848706909
            ]
        },
        {
            "positions": [
                -1.194571463598781,
                -1.560729308311742,
                2.3889599492227376,
                -1.3014055231777402,
                1.0783646702445997,
                -3.056766844939831
            ]
        },
        {
            "positions": [
                -0.9830981865324893,
                -1.5995296261101337,
                2.3897824551510687,
                -1.2101336409030385,
                1.038224180475882,
                -3.0642568411727535
            ]
        },
        {
            "positions": [
                -0.7716249094661976,
                -1.6383299439085257,
                2.3906049610794,
                -1.1188617586283371,
                0.9980836907071644,
                -3.071746837405676
            ]
        },
        {
            "positions": [
                -0.5601516323999061,
                -1.6771302617069177,
                2.391427467007731,
                -1.0275898763536357,
                0.9579432009384469,
                -3.0792368336385985
            ]
        },
        {
            "positions": [
                -0.34867835533361435,
                -1.7159305795053097,
                2.3922499729360616,
                -0.9363179940789343,
                0.9178027111697293,
                -3.0867268298715205
            ]
        },
        {
            "positions": [
                -0.13720507826732264,
                -1.7547308973037017,
                2.3930724788643927,
                -0.845046111804233,
                0.8776622214010117,
                -3.094216826104443
            ]
        },
        {
            "positions": [
                0.07426819879896907,
                -1.7935312151020937,
                2.393894984792724,
                -0.7537742295295314,
                0.8375217316322942,
                -3.1017068223373654
            ]
        },
        {
            "positions": [
                0.2857414758652608,
                -1.8323315329004854,
                2.394717490721055,
                -0.6625023472548299,
                0.7973812418635766,
                -3.109196818570288
            ]
        },
        {
            "positions": [
                0.49721475293155204,
                -1.8711318506988774,
                2.395539996649386,
                -0.5712304649801286,
                0.757240752094859,
                -3.11668681480321
            ]
        },
        {
            "positions": [
                0.7086880299978441,
                -1.9099321684972694,
                2.396362502577717,
                -0.4799585827054272,
                0.7171002623261414,
                -3.1241768110361323
            ]
        }
    ]
}