{
    "goal": {
        "global_pose": {
            "orientation": {
                "w": 0.7031023502349854,
                "x": -0.7110244035720825,
                "y": 0.007748599164187908,
                "z": 0.005598929710686207
            },
            "position": {
                "x": 0.11585023208521307,
                "y": 0.44412534475326537,
                "z": 0.3711530566215515
            }
        },
        "name": "move_to_auspresseinheit"
    },
    "id": "BFMT_move_to_auspresseinheit_9",
    "joint_names": [
        "shoulder_pan_joint",
        "shoulder_lift_joint",
        "elbow_joint",
        "wrist_1_joint",
        "wrist_2_joint",
        "wrist_3_joint"
    ],
    "metrics": {
        "cart_traj_len": 0.7954433511454497,
        "distance_elbow_joint": 0.026233712983689816,
        "distance_shoulder_lift_joint": 0.5353640882609436,
        "distance_shoulder_pan_joint": 1.086444538806135,
        "distance_wrist_1_joint": 1.1032202573357077,
        "distance_wrist_2_joint": 0.5123642336960972,
        "distance_wrist_3_joint": 0.23620659117311504,
        "smoothness": 1.1679444345850685,
        "time": 0.397959266,
        "traj_len": 1.870784173082424,
        "weighted_distance": 2.363859364605628
    },
    "planner": "BFMT",
    "start": {
        "state": {
            "elbow_joint": 2.4225745326682886,
            "shoulder_lift_joint": -1.3736534990239282,
            "shoulder_pan_joint": -0.3378633610955803,
            "wrist_1_joint": -1.02885917317252,
            "wrist_2_joint": 1.233022905420004,
            "wrist_3_joint": -3.09402240754724
        }
    },
    "waypoints": [
        {
            "positions": [
                -0.3378633610955803,
                -1.3736534990239282,
                2.4225745326682886,
                -1.02885917317252,
                1.233022905420004,
                -3.09402240754724
            ]
        },
        {
            "positions": [
                -0.34754831946594233,
                -1.4328305773856678,
                2.414633974981961,
                -1.167594830503861,
                1.1573096904772118,
                -3.0444149830640406
            ]
        },
        {
            "positions": [
                -0.3572332778363043,
                -1.4920076557474073,
                2.4066934172956334,
                -1.306330487835202,
                1.0815964755344196,
                -2.994807558580841
            ]
        },
        {
            "positions": [
                -0.22384895007812794,
                -1.5441338971895904,
                2.405399342594254,
                -1.2031118700010737,
                1.0364792500581055,
                -3.0119315263566806
            ]
        },
        {
            "positions": [
                -0.09046462231995156,
                -1.5962601386317734,
                2.4041052678928745,
                -1.0998932521669456,
                0.9913620245817913,
                -3.02905549413252
            ]
        },
        {
            "positions": [
                0.04291970543822482,
                -1.6483863800739564,
                2.4028111931914955,
                -0.9966746343328173,
                0.9462447991054773,
                -3.0461794619083595
            ]
        },
        {
            "positions": [
                0.1763040331964012,
                -1.7005126215161397,
                2.401517118490116,
                -0.8934560164986891,
                0.9011275736291632,
                -3.0633034296841988
            ]
        },
        {
            "positions": [
                0.3096883609545775,
                -1.7526388629583227,
                2.4002230437887366,
                -0.7902373986645609,
                0.856010348152849,
                -3.0804273974600385
            ]
        },
        {
            "positions": [
                0.44307268871275396,
                -1.8047651044005057,
                2.3989289690873576,
                -0.6870187808304327,
                0.810893122676535,
                -3.097551365235878
            ]
        },
        {
            "positions": [
                0.5764570164709304,
                -1.8568913458426888,
                2.397634894385978,
                -0.5838001629963044,
                0.7657758972002209,
                -3.1146753330117174
            ]
        },
        {
            "positions": [
                0.7098413442291066,
                -1.9090175872848718,
                2.3963408196845988,
                -0.48058154516217616,
                0.7206586717239067,
                -3.131799300787557
            ]
        }
    ]
}