{
    "goal": {
        "global_pose": {
            "orientation": {
                "w": 0.7031023502349854,
                "x": -0.7110244035720825,
                "y": 0.007748599164187908,
                "z": 0.005598929710686207
            },
            "position": {
                "x": 0.11585023208521307,
                "y": 0.44412534475326537,
                "z": 0.3711530566215515
            }
        },
        "name": "move_to_auspresseinheit"
    },
    "id": "BFMT_move_to_auspresseinheit_7",
    "joint_names": [
        "shoulder_pan_joint",
        "shoulder_lift_joint",
        "elbow_joint",
        "wrist_1_joint",
        "wrist_2_joint",
        "wrist_3_joint"
    ],
    "metrics": {
        "cart_traj_len": 0.6632915421881894,
        "distance_elbow_joint": 0.036888898433558914,
        "distance_shoulder_lift_joint": 0.5381633516619673,
        "distance_shoulder_pan_joint": 1.0480114871186732,
        "distance_wrist_1_joint": 1.1914372202140386,
        "distance_wrist_2_joint": 1.2809802307128517,
        "distance_wrist_3_joint": 0.03471802130011037,
        "smoothness": 0.9746233557561705,
        "time": 0.362216992,
        "traj_len": 2.0322891549780016,
        "weighted_distance": 2.583031688339946
    },
    "planner": "BFMT",
    "start": {
        "state": {
            "elbow_joint": 2.4225745326682886,
            "shoulder_lift_joint": -1.3736534990239282,
            "shoulder_pan_joint": -0.3378633610955803,
            "wrist_1_joint": -1.02885917317252,
            "wrist_2_joint": 1.233022905420004,
            "wrist_3_joint": -3.09402240754724
        }
    },
    "waypoints": [
        {
            "positions": [
                -0.3378633610955803,
                -1.3736534990239282,
                2.4225745326682886,
                -1.02885917317252,
                1.233022905420004,
                -3.09402240754724
            ]
        },
        {
            "positions": [
                -0.2597907124713969,
                -1.449660780578076,
                2.4235415330674464,
                -0.884036346238474,
                1.2967992751649369,
                -3.0988402170354776
            ]
        },
        {
            "positions": [
                -0.1817180638472135,
                -1.5256680621322238,
                2.424508533466604,
                -0.739213519304428,
                1.36057564490987,
                -3.1036580265237155
            ]
        },
        {
            "positions": [
                -0.10364541522303009,
                -1.6016753436863715,
                2.425475533865762,
                -0.594390692370382,
                1.424352014654803,
                -3.1084758360119533
            ]
        },
        {
            "positions": [
                -0.02557276659884672,
                -1.6776826252405193,
                2.426442534264919,
                -0.449567865436336,
                1.488128384399736,
                -3.1132936455001907
            ]
        },
        {
            "positions": [
                0.05249988202533673,
                -1.7536899067946672,
                2.427409534664077,
                -0.30474503850228996,
                1.551904754144669,
                -3.1181114549884286
            ]
        },
        {
            "positions": [
                0.13057253064952012,
                -1.829697188348815,
                2.4283765350632347,
                -0.15992221156824396,
                1.615681123889602,
                -3.1229292644766664
            ]
        },
        {
            "positions": [
                0.24648764972423468,
                -1.846121120816231,
                2.4221591558555122,
                -0.22442226329019643,
                1.4360167214409514,
                -3.124091497350803
            ]
        },
        {
            "positions": [
                0.3624027687989492,
                -1.8625450532836472,
                2.4159417766477898,
                -0.28892231501214893,
                1.2563523189923007,
                -3.12525373022494
            ]
        },
        {
            "positions": [
                0.47831788787366375,
                -1.8789689857510632,
                2.409724397440067,
                -0.3534223667341014,
                1.07668791654365,
                -3.1264159630990767
            ]
        },
        {
            "positions": [
                0.5942330069483783,
                -1.8953929182184794,
                2.4035070182323444,
                -0.41792241845605393,
                0.8970235140949991,
                -3.1275781959732134
            ]
        },
        {
            "positions": [
                0.7101481260230929,
                -1.9118168506858955,
                2.397289639024622,
                -0.4824224701780063,
                0.7173591116463485,
                -3.12874042884735
            ]
        }
    ]
}