{
    "goal": {
        "global_pose": {
            "orientation": {
                "w": 0.7031023502349854,
                "x": -0.7110244035720825,
                "y": 0.007748599164187908,
                "z": 0.005598929710686207
            },
            "position": {
                "x": 0.11585023208521307,
                "y": 0.44412534475326537,
                "z": 0.3711530566215515
            }
        },
        "name": "move_to_auspresseinheit"
    },
    "id": "BFMT_move_to_auspresseinheit_2",
    "joint_names": [
        "shoulder_pan_joint",
        "shoulder_lift_joint",
        "elbow_joint",
        "wrist_1_joint",
        "wrist_2_joint",
        "wrist_3_joint"
    ],
    "metrics": {
        "cart_traj_len": 0.9759842688169899,
        "distance_elbow_joint": 0.2578244763672992,
        "distance_shoulder_lift_joint": 0.589955867762562,
        "distance_shoulder_pan_joint": 2.2390616387556985,
        "distance_wrist_1_joint": 0.5571954993441574,
        "distance_wrist_2_joint": 0.5269764087353449,
        "distance_wrist_3_joint": 0.24357269462057385,
        "smoothness": 1.0099706686070868,
        "time": 0.533694959,
        "traj_len": 2.1010917603916393,
        "weighted_distance": 2.4466106929600153
    },
    "planner": "BFMT",
    "start": {
        "state": {
            "elbow_joint": 2.4225745326682886,
            "shoulder_lift_joint": -1.3736534990239282,
            "shoulder_pan_joint": -0.3378633610955803,
            "wrist_1_joint": -1.02885917317252,
            "wrist_2_joint": 1.233022905420004,
            "wrist_3_joint": -3.09402240754724
        }
    },
    "waypoints": [
        {
            "positions": [
                -0.3378633610955803,
                -1.3736534990239282,
                2.4225745326682886,
                -1.02885917317252,
                1.233022905420004,
                -3.09402240754724
            ]
        },
        {
            "positions": [
                -0.4374775530013168,
                -1.4674455448588728,
                2.441710368849204,
                -0.9607089926884992,
                1.162038944085801,
                -3.076410487486679
            ]
        },
        {
            "positions": [
                -0.5370917449070534,
                -1.5612375906938174,
                2.4608462050301196,
                -0.8925588122044783,
                1.0910549827515978,
                -3.0587985674261184
            ]
        },
        {
            "positions": [
                -0.6367059368127899,
                -1.655029636528762,
                2.479982041211035,
                -0.8244086317204574,
                1.020071021417395,
                -3.0411866473655573
            ]
        },
        {
            "positions": [
                -0.7363201287185264,
                -1.7488216823637066,
                2.4991178773919502,
                -0.7562584512364365,
                0.949087060083192,
                -3.0235747273049967
            ]
        },
        {
            "positions": [
                -0.8359343206242629,
                -1.8426137281986512,
                2.5182537135728658,
                -0.6881082707524157,
                0.8781030987489888,
                -3.005962807244436
            ]
        },
        {
            "positions": [
                -0.9355485125299993,
                -1.9364057740335958,
                2.5373895497537813,
                -0.6199580902683948,
                0.8071191374147859,
                -2.9883508871838753
            ]
        },
        {
            "positions": [
                -0.6619857646431193,
                -1.9318718419081133,
                2.51355463987348,
                -0.5952423541950561,
                0.7902736972930982,
                -3.0113344162267435
            ]
        },
        {
            "positions": [
                -0.38842301675623947,
                -1.927337909782631,
                2.4897197299931793,
                -0.5705266181217175,
                0.7734282571714103,
                -3.0343179452696116
            ]
        },
        {
            "positions": [
                -0.11486026886935952,
                -1.9228039776571486,
                2.465884820112878,
                -0.5458108820483787,
                0.7565828170497224,
                -3.05730147431248
            ]
        },
        {
            "positions": [
                0.15870247901752033,
                -1.9182700455316661,
                2.442049910232577,
                -0.52109514597504,
                0.7397373769280347,
                -3.0802850033553484
            ]
        },
        {
            "positions": [
                0.4322652269044004,
                -1.9137361134061839,
                2.418215000352276,
                -0.4963794099017014,
                0.7228919368063469,
                -3.1032685323982165
            ]
        },
        {
            "positions": [
                0.7058279747912802,
                -1.9092021812807014,
                2.3943800904719748,
                -0.4716636738283627,
                0.706046496684659,
                -3.1262520614410847
            ]
        }
    ]
}