{
    "goal": {
        "global_pose": {
            "orientation": {
                "w": 0.7047431468963623,
                "x": -0.7094548344612122,
                "y": 0.0024358443915843964,
                "z": -0.0022348060738295317
            },
            "position": {
                "x": 0.6094750761985779,
                "y": 0.3671506643295288,
                "z": 0.19426114857196808
            }
        },
        "name": "move_to_magneteinheit_target"
    },
    "id": "BFMT_move_to_magneteinheit_target_2",
    "joint_names": [
        "shoulder_pan_joint",
        "shoulder_lift_joint",
        "elbow_joint",
        "wrist_1_joint",
        "wrist_2_joint",
        "wrist_3_joint"
    ],
    "metrics": {
        "cart_traj_len": 3.87951444008547,
        "distance_elbow_joint": 3.903874684393249,
        "distance_shoulder_lift_joint": 0.6523254149912514,
        "distance_shoulder_pan_joint": 2.8607775964687088,
        "distance_wrist_1_joint": 0.9746195720973113,
        "distance_wrist_2_joint": 2.0525169044149387,
        "distance_wrist_3_joint": 3.5838703907280616,
        "smoothness": 0.24026148367922504,
        "time": 0.790779196,
        "traj_len": 3.7453951144163047,
        "weighted_distance": 4.921672664964818
    },
    "planner": "BFMT",
    "start": {
        "state": {
            "elbow_joint": -1.9196185737098679,
            "shoulder_lift_joint": -1.2443395971259867,
            "shoulder_pan_joint": 2.6996025301141957,
            "wrist_1_joint": -1.548550951469146,
            "wrist_2_joint": -1.5709469089955597,
            "wrist_3_joint": 0.4420197730596999
        }
    },
    "waypoints": [
        {
            "positions": [
                2.6996025301141957,
                -1.2443395971259867,
                -1.9196185737098679,
                -1.548550951469146,
                -1.5709469089955597,
                0.4420197730596999
            ]
        },
        {
            "positions": [
                2.6062994136315982,
                -1.232734960038506,
                -1.8496642090711628,
                -1.53714473379949,
                -1.4987370554033157,
                0.31912408115609203
            ]
        },
        {
            "positions": [
                2.512996297149001,
                -1.2211303229510253,
                -1.7797098444324577,
                -1.525738516129834,
                -1.4265272018110715,
                0.19622838925248415
            ]
        },
        {
            "positions": [
                2.4196931806664037,
                -1.2095256858635446,
                -1.7097554797937526,
                -1.514332298460178,
                -1.3543173482188275,
                0.07333269734887626
            ]
        },
        {
            "positions": [
                2.3263900641838067,
                -1.1979210487760639,
                -1.6398011151550476,
                -1.5029260807905218,
                -1.2821074946265836,
                -0.04956299455473162
            ]
        },
        {
            "positions": [
                2.233086947701209,
                -1.1863164116885832,
                -1.5698467505163423,
                -1.4915198631208657,
                -1.2098976410343394,
                -0.17245868645833945
            ]
        },
        {
            "positions": [
                2.1397838312186117,
                -1.1747117746011024,
                -1.4998923858776372,
                -1.4801136454512098,
                -1.1376877874420954,
                -0.2953543783619474
            ]
        },
        {
            "positions": [
                2.0464807147360147,
                -1.1631071375136217,
                -1.429938021238932,
                -1.4687074277815537,
                -1.0654779338498515,
                -0.4182500702655551
            ]
        },
        {
            "positions": [
                1.9531775982534172,
                -1.151502500426141,
                -1.359983656600227,
                -1.4573012101118976,
                -0.9932680802576074,
                -0.5411457621691631
            ]
        },
        {
            "positions": [
                1.85987448177082,
                -1.1398978633386603,
                -1.290029291961522,
                -1.4458949924422415,
                -0.9210582266653634,
                -0.6640414540727708
            ]
        },
        {
            "positions": [
                1.7665713652882227,
                -1.1282932262511796,
                -1.2200749273228166,
                -1.4344887747725856,
                -0.8488483730731192,
                -0.7869371459763788
            ]
        },
        {
            "positions": [
                1.6732682488056254,
                -1.1166885891636988,
                -1.1501205626841118,
                -1.4230825571029295,
                -0.7766385194808753,
                -0.9098328378799867
            ]
        },
        {
            "positions": [
                1.579965132323028,
                -1.105083952076218,
                -1.0801661980454065,
                -1.4116763394332734,
                -0.7044286658886312,
                -1.0327285297835946
            ]
        },
        {
            "positions": [
                1.4866620158404307,
                -1.0934793149887372,
                -1.0102118334067014,
                -1.4002701217636173,
                -0.6322188122963872,
                -1.1556242216872024
            ]
        },
        {
            "positions": [
                1.3933588993578334,
                -1.0818746779012565,
                -0.9402574687679964,
                -1.3888639040939614,
                -0.5600089587041432,
                -1.27851991359081
            ]
        },
        {
            "positions": [
                1.3000557828752362,
                -1.0702700408137757,
                -0.8703031041292915,
                -1.3774576864243053,
                -0.4877991051118993,
                -1.401415605494418
            ]
        },
        {
            "positions": [
                1.2067526663926387,
                -1.058665403726295,
                -0.8003487394905862,
                -1.3660514687546492,
                -0.4155892515196551,
                -1.5243112973980262
            ]
        },
        {
            "positions": [
                1.1134495499100414,
                -1.0470607666388143,
                -0.7303943748518811,
                -1.3546452510849933,
                -0.3433793979274111,
                -1.6472069893016337
            ]
        },
        {
            "positions": [
                1.0201464334274442,
                -1.0354561295513336,
                -0.660440010213176,
                -1.3432390334153372,
                -0.27116954433516716,
                -1.7701026812052416
            ]
        },
        {
            "positions": [
                0.9268433169448469,
                -1.0238514924638529,
                -0.5904856455744709,
                -1.3318328157456811,
                -0.1989596907429232,
                -1.8929983731088496
            ]
        },
        {
            "positions": [
                0.8335402004622494,
                -1.0122468553763722,
                -0.5205312809357656,
                -1.320426598076025,
                -0.12674983715067878,
                -2.0158940650124575
            ]
        },
        {
            "positions": [
                0.7402370839796522,
                -1.0006422182888914,
                -0.45057691629706054,
                -1.3090203804063691,
                -0.05453998355843481,
                -2.1387897569160654
            ]
        },
        {
            "positions": [
                0.6469339674970551,
                -0.9890375812014107,
                -0.3806225516583557,
                -1.297614162736713,
                0.017669870033809154,
                -2.2616854488196734
            ]
        },
        {
            "positions": [
                0.5536308510144576,
                -0.97743294411393,
                -0.3106681870196506,
                -1.286207945067057,
                0.08987972362605312,
                -2.384581140723281
            ]
        },
        {
            "positions": [
                0.46032773453186016,
                -0.9658283070264493,
                -0.2407138223809453,
                -1.274801727397401,
                0.1620895772182973,
                -2.5074768326268893
            ]
        },
        {
            "positions": [
                0.3670246180492627,
                -0.9542236699389686,
                -0.17075945774224022,
                -1.263395509727745,
                0.23429943081054128,
                -2.6303725245304967
            ]
        },
        {
            "positions": [
                0.2737215015666657,
                -0.9426190328514878,
                -0.10080509310353522,
                -1.2519892920580888,
                0.30650928440278513,
                -2.7532682164341047
            ]
        },
        {
            "positions": [
                0.2371215140179755,
                -0.9333667311242594,
                0.12413357732224445,
                -1.1841090614523848,
                0.29891043567658593,
                -2.7968402754028943
            ]
        },
        {
            "positions": [
                0.20052152646928528,
                -0.924114429397031,
                0.34907224774802414,
                -1.1162288308466808,
                0.2913115869503868,
                -2.840412334371684
            ]
        },
        {
            "positions": [
                0.1639215389205951,
                -0.9148621276698026,
                0.5740109181738038,
                -1.0483486002409765,
                0.2837127382241876,
                -2.883984393340474
            ]
        },
        {
            "positions": [
                0.1273215513719049,
                -0.9056098259425742,
                0.7989495885995834,
                -0.9804683696352725,
                0.27611388949798843,
                -2.9275564523092634
            ]
        },
        {
            "positions": [
                0.0907215638232147,
                -0.8963575242153458,
                1.0238882590253633,
                -0.9125881390295685,
                0.2685150407717892,
                -2.971128511278053
            ]
        },
        {
            "positions": [
                0.05412157627452452,
                -0.8871052224881173,
                1.248826929451143,
                -0.8447079084238643,
                0.2609161920455901,
                -3.014700570246843
            ]
        },
        {
            "positions": [
                0.017521588725834314,
                -0.8778529207608889,
                1.4737655998769226,
                -0.7768276778181602,
                0.2533173433193909,
                -3.0582726292156326
            ]
        },
        {
            "positions": [
                -0.01907839882285589,
                -0.8686006190336605,
                1.6987042703027022,
                -0.7089474472124562,
                0.2457184945931917,
                -3.101844688184422
            ]
        },
        {
            "positions": [
                0.0282871570210297,
                -0.9607960979999689,
                1.7938882170962616,
                -0.75395280315933,
                0.20762852085752465,
                -3.115179998012402
            ]
        },
        {
            "positions": [
                0.07565271286491529,
                -1.0529915769662772,
                1.889072163889821,
                -0.7989581591062038,
                0.16953854712185762,
                -3.128515307840382
            ]
        },
        {
            "positions": [
                0.1230182687088009,
                -1.1451870559325856,
                1.9842561106833803,
                -0.8439635150530777,
                0.13144857338619056,
                -3.1418506176683616
            ]
        }
    ]
}