{
    "goal": {
        "global_pose": {
            "orientation": {
                "w": 0.5084816217422485,
                "x": -0.49083608388900757,
                "y": 0.5182115435600281,
                "z": -0.4816462993621826
            },
            "position": {
                "x": 0.5540239810943604,
                "y": 0.030875300988554955,
                "z": 0.16403168439865112
            }
        },
        "name": "move_to_storage"
    },
    "id": "BiEST_move_to_storage_8",
    "joint_names": [
        "shoulder_pan_joint",
        "shoulder_lift_joint",
        "elbow_joint",
        "wrist_1_joint",
        "wrist_2_joint",
        "wrist_3_joint"
    ],
    "metrics": {
        "cart_traj_len": 0.3526143219981005,
        "distance_elbow_joint": 0.44858510446393396,
        "distance_shoulder_lift_joint": 0.23300789179597814,
        "distance_shoulder_pan_joint": 0.4567447727681054,
        "distance_wrist_1_joint": 0.24273472372290095,
        "distance_wrist_2_joint": 1.115537832056058,
        "distance_wrist_3_joint": 0.10187495645887745,
        "smoothness": 6.661338165333112e-16,
        "time": 0.061419006,
        "traj_len": 1.6119817868902409,
        "weighted_distance": 2.03973227408956
    },
    "planner": "BiEST",
    "start": {
        "state": {
            "elbow_joint": 1.9715474092553085,
            "shoulder_lift_joint": -1.1394846673180945,
            "shoulder_pan_joint": 0.1228115366877952,
            "wrist_1_joint": -0.7804686583030105,
            "wrist_2_joint": 0.12958649594027716,
            "wrist_3_joint": -3.192492341365726
        }
    },
    "waypoints": [
        {
            "positions": [
                0.1228115366877952,
                -1.1394846673180945,
                1.9715474092553085,
                -0.7804686583030105,
                0.12958649594027716,
                -3.192492341365726
            ]
        },
        {
            "positions": [
                0.05756228343520872,
                -1.1727715090032342,
                2.035630995607299,
                -0.815145047406282,
                0.2889490433768569,
                -3.177938776157315
            ]
        },
        {
            "positions": [
                -0.007686969817377751,
                -1.206058350688374,
                2.0997145819592897,
                -0.8498214365095536,
                0.4483115908134366,
                -3.163385210948904
            ]
        },
        {
            "positions": [
                -0.07293622306996424,
                -1.2393451923735137,
                2.1637981683112804,
                -0.8844978256128252,
                0.6076741382500164,
                -3.148831645740493
            ]
        },
        {
            "positions": [
                -0.13818547632255068,
                -1.2726320340586534,
                2.2278817546632705,
                -0.9191742147160967,
                0.767036685686596,
                -3.1342780805320816
            ]
        },
        {
            "positions": [
                -0.2034347295751372,
                -1.3059188757437932,
                2.291965341015261,
                -0.9538506038193684,
                0.9263992331231757,
                -3.1197245153236706
            ]
        },
        {
            "positions": [
                -0.26868398282772366,
                -1.339205717428933,
                2.356048927367252,
                -0.9885269929226399,
                1.0857617805597555,
                -3.1051709501152596
            ]
        },
        {
            "positions": [
                -0.33393323608031017,
                -1.3724925591140726,
                2.4201325137192424,
                -1.0232033820259114,
                1.245124327996335,
                -3.0906173849068486
            ]
        }
    ]
}