{
    "goal": {
        "global_pose": {
            "orientation": {
                "w": 0.7047431468963623,
                "x": -0.7094548344612122,
                "y": 0.0024358443915843964,
                "z": -0.0022348060738295317
            },
            "position": {
                "x": 0.6094750761985779,
                "y": 0.3671506643295288,
                "z": 0.19426114857196808
            }
        },
        "name": "move_to_magneteinheit_target"
    },
    "id": "BiEST_move_to_magneteinheit_target_3",
    "joint_names": [
        "shoulder_pan_joint",
        "shoulder_lift_joint",
        "elbow_joint",
        "wrist_1_joint",
        "wrist_2_joint",
        "wrist_3_joint"
    ],
    "metrics": {
        "cart_traj_len": 3.5146422135350432,
        "distance_elbow_joint": 3.879774900430264,
        "distance_shoulder_lift_joint": 0.8841365384203481,
        "distance_shoulder_pan_joint": 2.6627260396244927,
        "distance_wrist_1_joint": 4.355984202106451,
        "distance_wrist_2_joint": 2.295677700247704,
        "distance_wrist_3_joint": 5.729731664139549,
        "smoothness": 0.46938735231169443,
        "time": 0.121465978,
        "traj_len": 4.450621422337424,
        "weighted_distance": 6.15785321971887
    },
    "planner": "BiEST",
    "start": {
        "state": {
            "elbow_joint": -1.9196185737098679,
            "shoulder_lift_joint": -1.2443395971259867,
            "shoulder_pan_joint": 2.6996025301141957,
            "wrist_1_joint": -1.548550951469146,
            "wrist_2_joint": -1.5709469089955597,
            "wrist_3_joint": 0.4420197730596999
        }
    },
    "waypoints": [
        {
            "positions": [
                2.6996025301141957,
                -1.2443395971259867,
                -1.9196185737098679,
                -1.548550951469146,
                -1.5709469089955597,
                0.4420197730596999
            ]
        },
        {
            "positions": [
                2.602526821798246,
                -1.2537073748966943,
                -1.8709720699083703,
                -1.4543809834219594,
                -1.494080506836033,
                0.3838568353519109
            ]
        },
        {
            "positions": [
                2.5054511134822963,
                -1.2630751526674018,
                -1.8223255661068725,
                -1.3602110153747728,
                -1.417214104676506,
                0.32569389764412193
            ]
        },
        {
            "positions": [
                2.408375405166346,
                -1.2724429304381093,
                -1.7736790623053749,
                -1.2660410473275863,
                -1.3403477025169792,
                0.2675309599363329
            ]
        },
        {
            "positions": [
                2.3112996968503965,
                -1.2818107082088168,
                -1.725032558503877,
                -1.1718710792804,
                -1.2634813003574525,
                0.2093680222285439
            ]
        },
        {
            "positions": [
                2.214223988534447,
                -1.2911784859795246,
                -1.6763860547023794,
                -1.0777011112332133,
                -1.1866148981979259,
                0.15120508452075487
            ]
        },
        {
            "positions": [
                2.117148280218497,
                -1.300546263750232,
                -1.6277395509008818,
                -0.9835311431860267,
                -1.109748496038399,
                0.09304214681296585
            ]
        },
        {
            "positions": [
                2.0200725719025474,
                -1.3099140415209396,
                -1.5790930470993843,
                -0.8893611751388404,
                -1.0328820938788723,
                0.034879209105176945
            ]
        },
        {
            "positions": [
                1.9229968635865973,
                -1.3192818192916471,
                -1.5304465432978864,
                -0.7951912070916537,
                -0.9560156917193454,
                -0.02328372860261213
            ]
        },
        {
            "positions": [
                1.8259211552706476,
                -1.3286495970623546,
                -1.4818000394963886,
                -0.7010212390444672,
                -0.8791492895598187,
                -0.08144666631040104
            ]
        },
        {
            "positions": [
                1.7288454469546979,
                -1.3380173748330622,
                -1.433153535694891,
                -0.6068512709972806,
                -0.8022828874002919,
                -0.13960960401819017
            ]
        },
        {
            "positions": [
                1.6317697386387482,
                -1.3473851526037697,
                -1.3845070318933934,
                -0.5126813029500943,
                -0.7254164852407652,
                -0.19777254172597908
            ]
        },
        {
            "positions": [
                1.5346940303227983,
                -1.3567529303744772,
                -1.3358605280918956,
                -0.4185113349029075,
                -0.6485500830812383,
                -0.2559354794337682
            ]
        },
        {
            "positions": [
                1.4376183220068486,
                -1.3661207081451847,
                -1.287214024290398,
                -0.3243413668557211,
                -0.5716836809217116,
                -0.3140984171415571
            ]
        },
        {
            "positions": [
                1.3405426136908989,
                -1.3754884859158925,
                -1.2385675204889004,
                -0.23017139880853477,
                -0.49481727876218495,
                -0.372261354849346
            ]
        },
        {
            "positions": [
                1.2434669053749492,
                -1.3848562636866,
                -1.1899210166874026,
                -0.13600143076134819,
                -0.4179508766026583,
                -0.43042429255713505
            ]
        },
        {
            "positions": [
                1.146391197058999,
                -1.3942240414573075,
                -1.141274512885905,
                -0.04183146271416138,
                -0.34108447444313117,
                -0.4885872302649242
            ]
        },
        {
            "positions": [
                1.0493154887430494,
                -1.403591819228015,
                -1.0926280090844074,
                0.052338505333024976,
                -0.2642180722836045,
                -0.5467501679727131
            ]
        },
        {
            "positions": [
                0.9522397804270997,
                -1.4129595969987225,
                -1.0439815052829096,
                0.14650847338021156,
                -0.18735167012407783,
                -0.6049131056805019
            ]
        },
        {
            "positions": [
                0.85516407211115,
                -1.42232737476943,
                -0.995335001481412,
                0.24067844142739792,
                -0.11048526796455116,
                -0.663076043388291
            ]
        },
        {
            "positions": [
                0.7580883637952001,
                -1.4316951525401376,
                -0.9466884976799141,
                0.3348484094745847,
                -0.033618865805024045,
                -0.7212389810960802
            ]
        },
        {
            "positions": [
                0.6610126554792504,
                -1.4410629303108453,
                -0.8980419938784165,
                0.4290183775217711,
                0.043247536354502625,
                -0.7794019188038692
            ]
        },
        {
            "positions": [
                0.5639369471633007,
                -1.4504307080815528,
                -0.849395490076919,
                0.5231883455689574,
                0.1201139385140293,
                -0.837564856511658
            ]
        },
        {
            "positions": [
                0.466861238847351,
                -1.4597984858522604,
                -0.8007489862754211,
                0.6173583136161442,
                0.19698034067355596,
                -0.895727794219447
            ]
        },
        {
            "positions": [
                0.36978553053140084,
                -1.4691662636229679,
                -0.7521024824739233,
                0.711528281663331,
                0.2738467428330831,
                -0.9538907319272363
            ]
        },
        {
            "positions": [
                0.27270982221545115,
                -1.4785340413936754,
                -0.7034559786724257,
                0.8056982497105174,
                0.35071314499260975,
                -1.012053669635025
            ]
        },
        {
            "positions": [
                0.1756341138995014,
                -1.487901819164383,
                -0.6548094748709281,
                0.899868217757704,
                0.4275795471521363,
                -1.070216607342814
            ]
        },
        {
            "positions": [
                0.1774172105507138,
                -1.4671736678252765,
                -0.5500425085490355,
                0.826323161376905,
                0.4217340622587716,
                -0.8969447061981446
            ]
        },
        {
            "positions": [
                0.1792003072019262,
                -1.44644551648617,
                -0.4452755422271427,
                0.7527781049961061,
                0.41588857736540685,
                -0.7236728050534752
            ]
        },
        {
            "positions": [
                0.1809834038531386,
                -1.4257173651470636,
                -0.34050857590525,
                0.6792330486153071,
                0.4100430924720421,
                -0.5504009039088057
            ]
        },
        {
            "positions": [
                0.182766500504351,
                -1.404989213807957,
                -0.23574160958335733,
                0.6056879922345082,
                0.4041976075786774,
                -0.3771290027641363
            ]
        },
        {
            "positions": [
                0.1845495971555634,
                -1.3842610624688505,
                -0.13097464326146457,
                0.5321429358537091,
                0.39835212268531267,
                -0.20385710161946669
            ]
        },
        {
            "positions": [
                0.1863326938067758,
                -1.363532911129744,
                -0.026207676939571933,
                0.4585978794729102,
                0.39250663779194794,
                -0.03058520047479729
            ]
        },
        {
            "positions": [
                0.18811579045798824,
                -1.3428047597906376,
                0.07855928938232082,
                0.3850528230921112,
                0.38666115289858327,
                0.1426867006698722
            ]
        },
        {
            "positions": [
                0.18989888710920064,
                -1.3220766084515312,
                0.18332625570421346,
                0.3115077667113123,
                0.38081566800521854,
                0.3159586018145415
            ]
        },
        {
            "positions": [
                0.19168198376041304,
                -1.3013484571124248,
                0.2880932220261061,
                0.2379627103305133,
                0.3749701831118538,
                0.4892305029592112
            ]
        },
        {
            "positions": [
                0.19346508041162544,
                -1.280620305773318,
                0.39286018834799896,
                0.1644176539497143,
                0.3691246982184891,
                0.6625024041038807
            ]
        },
        {
            "positions": [
                0.19524817706283784,
                -1.2598921544342117,
                0.4976271546698916,
                0.09087259756891541,
                0.36327921332512436,
                0.83577430524855
            ]
        },
        {
            "positions": [
                0.19703127371405024,
                -1.2391640030951052,
                0.6023941209917842,
                0.017327541188116413,
                0.35743372843175963,
                1.0090462063932195
            ]
        },
        {
            "positions": [
                0.19881437036526264,
                -1.2184358517559988,
                0.7071610873136769,
                -0.05621751519268248,
                0.3515882435383949,
                1.1823181075378888
            ]
        },
        {
            "positions": [
                0.20059746701647505,
                -1.1977077004168923,
                0.8119280536355697,
                -0.1297625715734816,
                0.3457427586450302,
                1.3555900086825585
            ]
        },
        {
            "positions": [
                0.20238056366768745,
                -1.176979549077786,
                0.9166950199574624,
                -0.20330762795428048,
                0.33989727375166545,
                1.5288619098272278
            ]
        },
        {
            "positions": [
                0.20416366031889985,
                -1.1562513977386795,
                1.021461986279355,
                -0.27685268433507937,
                0.3340517888583008,
                1.702133810971897
            ]
        },
        {
            "positions": [
                0.20594675697011228,
                -1.1355232463995728,
                1.126228952601248,
                -0.3503977407158785,
                0.328206303964936,
                1.8754057121165668
            ]
        },
        {
            "positions": [
                0.20772985362132468,
                -1.1147950950604666,
                1.2309959189231403,
                -0.42394279709667737,
                0.3223608190715713,
                2.0486776132612365
            ]
        },
        {
            "positions": [
                0.20951295027253708,
                -1.09406694372136,
                1.335762885245033,
                -0.49748785347747626,
                0.3165153341782066,
                2.221949514405906
            ]
        },
        {
            "positions": [
                0.21129604692374948,
                -1.0733387923822535,
                1.440529851566926,
                -0.5710329098582754,
                0.31066984928484187,
                2.3952214155505755
            ]
        },
        {
            "positions": [
                0.21307914357496188,
                -1.052610641043147,
                1.5452968178888185,
                -0.6445779662390743,
                0.30482436439147714,
                2.568493316695245
            ]
        },
        {
            "positions": [
                0.21486224022617428,
                -1.0318824897040406,
                1.6500637842107113,
                -0.7181230226198732,
                0.2989788794981124,
                2.741765217839914
            ]
        },
        {
            "positions": [
                0.21664533687738668,
                -1.0111543383649342,
                1.7548307505326042,
                -0.7916680790006723,
                0.2931333946047477,
                2.915037118984584
            ]
        },
        {
            "positions": [
                0.2184284335285991,
                -0.9904261870258276,
                1.8595977168544966,
                -0.865213135381471,
                0.28728790971138296,
                3.088309020129253
            ]
        },
        {
            "positions": [
                0.1704467816382492,
                -1.061975529147526,
                1.9098770217874463,
                -0.7939712955112569,
                0.20885810638175778,
                3.05882419199677
            ]
        },
        {
            "positions": [
                0.12246512974789932,
                -1.1335248712692243,
                1.9601563267203959,
                -0.7227294556410427,
                0.13042830305213263,
                3.0293393638642874
            ]
        }
    ]
}