{
    "goal": {
        "global_pose": {
            "orientation": {
                "w": 0.5084816217422485,
                "x": -0.49083608388900757,
                "y": 0.5182115435600281,
                "z": -0.4816462993621826
            },
            "position": {
                "x": 0.5540239810943604,
                "y": 0.030875300988554955,
                "z": 0.16403168439865112
            }
        },
        "name": "move_to_storage"
    },
    "id": "BiEST_move_to_storage_1",
    "joint_names": [
        "shoulder_pan_joint",
        "shoulder_lift_joint",
        "elbow_joint",
        "wrist_1_joint",
        "wrist_2_joint",
        "wrist_3_joint"
    ],
    "metrics": {
        "cart_traj_len": 0.3525621841802798,
        "distance_elbow_joint": 0.4478464110669771,
        "distance_shoulder_lift_joint": 0.2332193620141223,
        "distance_shoulder_pan_joint": 0.46002887962012556,
        "distance_wrist_1_joint": 0.23955856021986,
        "distance_wrist_2_joint": 1.1009706335554528,
        "distance_wrist_3_joint": 0.09853342150871569,
        "smoothness": 1.5543122185068514e-15,
        "time": 0.042039752,
        "traj_len": 1.606286795060351,
        "weighted_distance": 2.029224803903697
    },
    "planner": "BiEST",
    "start": {
        "state": {
            "elbow_joint": 1.9715474092553085,
            "shoulder_lift_joint": -1.1394846673180945,
            "shoulder_pan_joint": 0.1228115366877952,
            "wrist_1_joint": -0.7804686583030105,
            "wrist_2_joint": 0.12958649594027716,
            "wrist_3_joint": -3.192492341365726
        }
    },
    "waypoints": [
        {
            "positions": [
                0.1228115366877952,
                -1.1394846673180945,
                1.9715474092553085,
                -0.7804686583030105,
                0.12958649594027716,
                -3.192492341365726
            ]
        },
        {
            "positions": [
                0.05709312531349155,
                -1.1728017190343978,
                2.0355254679791623,
                -0.8146913097629905,
                0.28686801501962755,
                -3.1784161382930525
            ]
        },
        {
            "positions": [
                -0.008625286060812101,
                -1.2061187707507008,
                2.099503526703016,
                -0.8489139612229705,
                0.44414953409897795,
                -3.1643399352203785
            ]
        },
        {
            "positions": [
                -0.07434369743511575,
                -1.2394358224670041,
                2.16348158542687,
                -0.8831366126829505,
                0.6014310531783283,
                -3.150263732147705
            ]
        },
        {
            "positions": [
                -0.14006210880941938,
                -1.2727528741833072,
                2.227459644150724,
                -0.9173592641429305,
                0.7587125722576787,
                -3.1361875290750314
            ]
        },
        {
            "positions": [
                -0.20578052018372306,
                -1.3060699258996105,
                2.291437702874578,
                -0.9515819156029105,
                0.9159940913370291,
                -3.122111326002358
            ]
        },
        {
            "positions": [
                -0.2714989315580267,
                -1.3393869776159135,
                2.3554157615984317,
                -0.9858045670628904,
                1.0732756104163794,
                -3.108035122929684
            ]
        },
        {
            "positions": [
                -0.33721734293233036,
                -1.3727040293322168,
                2.4193938203222856,
                -1.0200272185228705,
                1.23055712949573,
                -3.0939589198570103
            ]
        }
    ]
}