{
    "goal": {
        "global_pose": {
            "orientation": {
                "w": 0.5084816217422485,
                "x": -0.49083608388900757,
                "y": 0.5182115435600281,
                "z": -0.4816462993621826
            },
            "position": {
                "x": 0.5540239810943604,
                "y": 0.030875300988554955,
                "z": 0.16403168439865112
            }
        },
        "name": "move_to_storage"
    },
    "id": "BiEST_move_to_storage_4",
    "joint_names": [
        "shoulder_pan_joint",
        "shoulder_lift_joint",
        "elbow_joint",
        "wrist_1_joint",
        "wrist_2_joint",
        "wrist_3_joint"
    ],
    "metrics": {
        "cart_traj_len": 0.353813964123192,
        "distance_elbow_joint": 0.4482962301019078,
        "distance_shoulder_lift_joint": 0.2348887890642739,
        "distance_shoulder_pan_joint": 0.46217829736535965,
        "distance_wrist_1_joint": 0.23541469377637747,
        "distance_wrist_2_joint": 1.1023221081121317,
        "distance_wrist_3_joint": 0.10260455929547208,
        "smoothness": 6.661338200497456e-16,
        "time": 0.063518985,
        "traj_len": 1.6080126484936377,
        "weighted_distance": 2.0319081175572324
    },
    "planner": "BiEST",
    "start": {
        "state": {
            "elbow_joint": 1.9715474092553085,
            "shoulder_lift_joint": -1.1394846673180945,
            "shoulder_pan_joint": 0.1228115366877952,
            "wrist_1_joint": -0.7804686583030105,
            "wrist_2_joint": 0.12958649594027716,
            "wrist_3_joint": -3.192492341365726
        }
    },
    "waypoints": [
        {
            "positions": [
                0.1228115366877952,
                -1.1394846673180945,
                1.9715474092553085,
                -0.7804686583030105,
                0.12958649594027716,
                -3.192492341365726
            ]
        },
        {
            "positions": [
                0.05678606563560096,
                -1.1730402086129907,
                2.035589727841295,
                -0.814099328842493,
                0.2870610828134388,
                -3.1778345471806584
            ]
        },
        {
            "positions": [
                -0.00923940541659328,
                -1.206595749907887,
                2.099632046427282,
                -0.8477299993819755,
                0.44453566968660047,
                -3.163176752995591
            ]
        },
        {
            "positions": [
                -0.0752648764687875,
                -1.2401512912027832,
                2.163674365013269,
                -0.881360669921458,
                0.6020102565597621,
                -3.1485189588105236
            ]
        },
        {
            "positions": [
                -0.14129034752098174,
                -1.2737068324976795,
                2.227716683599256,
                -0.9149913404609404,
                0.7594848434329238,
                -3.1338611646254564
            ]
        },
        {
            "positions": [
                -0.207315818573176,
                -1.307262373792576,
                2.2917590021852425,
                -0.948622011000423,
                0.9169594303060855,
                -3.1192033704403888
            ]
        },
        {
            "positions": [
                -0.2733412896253702,
                -1.3408179150874722,
                2.3558013207712296,
                -0.9822526815399054,
                1.074434017179247,
                -3.1045455762553216
            ]
        },
        {
            "positions": [
                -0.33936676067756444,
                -1.3743734563823684,
                2.4198436393572162,
                -1.015883352079388,
                1.231908604052409,
                -3.089887782070254
            ]
        }
    ]
}