{
    "goal": {
        "global_pose": {
            "orientation": {
                "w": 0.5084816217422485,
                "x": -0.49083608388900757,
                "y": 0.5182115435600281,
                "z": -0.4816462993621826
            },
            "position": {
                "x": 0.5540239810943604,
                "y": 0.030875300988554955,
                "z": 0.16403168439865112
            }
        },
        "name": "move_to_storage"
    },
    "id": "BiEST_move_to_storage_10",
    "joint_names": [
        "shoulder_pan_joint",
        "shoulder_lift_joint",
        "elbow_joint",
        "wrist_1_joint",
        "wrist_2_joint",
        "wrist_3_joint"
    ],
    "metrics": {
        "cart_traj_len": 0.3530798617963902,
        "distance_elbow_joint": 0.45304827695398187,
        "distance_shoulder_lift_joint": 0.23573076925437264,
        "distance_shoulder_pan_joint": 0.4615060364612078,
        "distance_wrist_1_joint": 0.25248641642792724,
        "distance_wrist_2_joint": 1.1007653414157432,
        "distance_wrist_3_joint": 0.10817508660005304,
        "smoothness": 8.881784197001252e-16,
        "time": 0.057710567,
        "traj_len": 1.6160791834292296,
        "weighted_distance": 2.04482611929647
    },
    "planner": "BiEST",
    "start": {
        "state": {
            "elbow_joint": 1.9715474092553085,
            "shoulder_lift_joint": -1.1394846673180945,
            "shoulder_pan_joint": 0.1228115366877952,
            "wrist_1_joint": -0.7804686583030105,
            "wrist_2_joint": 0.12958649594027716,
            "wrist_3_joint": -3.192492341365726
        }
    },
    "waypoints": [
        {
            "positions": [
                0.1228115366877952,
                -1.1394846673180945,
                1.9715474092553085,
                -0.7804686583030105,
                0.12958649594027716,
                -3.192492341365726
            ]
        },
        {
            "positions": [
                0.05688210290762266,
                -1.1731604914972906,
                2.036268591677306,
                -0.8165381463641429,
                0.28683868757109765,
                -3.1770387575657186
            ]
        },
        {
            "positions": [
                -0.009047330872549872,
                -1.2068363156764867,
                2.100989774099303,
                -0.8526076344252754,
                0.4440908792019181,
                -3.161585173765711
            ]
        },
        {
            "positions": [
                -0.07497676465272242,
                -1.2405121398556829,
                2.1657109565213006,
                -0.8886771224864078,
                0.6013430708327385,
                -3.1461315899657034
            ]
        },
        {
            "positions": [
                -0.14090619843289492,
                -1.2741879640348788,
                2.230432138943298,
                -0.9247466105475404,
                0.758595262463559,
                -3.1306780061656956
            ]
        },
        {
            "positions": [
                -0.2068356322130675,
                -1.307863788214075,
                2.2951533213652957,
                -0.9608160986086728,
                0.9158474540943795,
                -3.115224422365688
            ]
        },
        {
            "positions": [
                -0.27276506599324,
                -1.341539612393271,
                2.359874503787293,
                -0.9968855866698052,
                1.0730996457252,
                -3.0997708385656804
            ]
        },
        {
            "positions": [
                -0.3386944997734126,
                -1.3752154365724671,
                2.4245956862092903,
                -1.0329550747309377,
                1.2303518373560203,
                -3.084317254765673
            ]
        }
    ]
}