{
    "goal": {
        "global_pose": {
            "orientation": {
                "w": 0.7047431468963623,
                "x": -0.7094548344612122,
                "y": 0.0024358443915843964,
                "z": -0.0022348060738295317
            },
            "position": {
                "x": 0.6094750761985779,
                "y": 0.3671506643295288,
                "z": 0.19426114857196808
            }
        },
        "name": "move_to_magneteinheit_target"
    },
    "id": "BiEST_move_to_magneteinheit_target_6",
    "joint_names": [
        "shoulder_pan_joint",
        "shoulder_lift_joint",
        "elbow_joint",
        "wrist_1_joint",
        "wrist_2_joint",
        "wrist_3_joint"
    ],
    "metrics": {
        "cart_traj_len": 3.213048296760658,
        "distance_elbow_joint": 3.925070996122714,
        "distance_shoulder_lift_joint": 0.4613885395869487,
        "distance_shoulder_pan_joint": 3.1349585322409124,
        "distance_wrist_1_joint": 3.5158438230611067,
        "distance_wrist_2_joint": 1.9298157346310678,
        "distance_wrist_3_joint": 0.693941035325057,
        "smoothness": 0.1680380109872588,
        "time": 0.08391201400000001,
        "traj_len": 3.6960815279113914,
        "weighted_distance": 4.5270918136603
    },
    "planner": "BiEST",
    "start": {
        "state": {
            "elbow_joint": -1.9196185737098679,
            "shoulder_lift_joint": -1.2443395971259867,
            "shoulder_pan_joint": 2.6996025301141957,
            "wrist_1_joint": -1.548550951469146,
            "wrist_2_joint": -1.5709469089955597,
            "wrist_3_joint": 0.4420197730596999
        }
    },
    "waypoints": [
        {
            "positions": [
                2.6996025301141957,
                -1.2443395971259867,
                -1.9196185737098679,
                -1.548550951469146,
                -1.5709469089955597,
                0.4420197730596999
            ]
        },
        {
            "positions": [
                2.5975899460507965,
                -1.2415592605050838,
                -1.811685221837441,
                -1.4347864203185778,
                -1.5105981586027526,
                0.4456451348631774
            ]
        },
        {
            "positions": [
                2.4955773619873973,
                -1.2387789238841809,
                -1.703751869965014,
                -1.3210218891680097,
                -1.4502494082099453,
                0.4492704966666549
            ]
        },
        {
            "positions": [
                2.3935647779239986,
                -1.2359985872632777,
                -1.5958185180925872,
                -1.2072573580174415,
                -1.389900657817138,
                0.4528958584701324
            ]
        },
        {
            "positions": [
                2.2915521938605994,
                -1.2332182506423748,
                -1.4878851662201604,
                -1.0934928268668733,
                -1.329551907424331,
                0.4565212202736099
            ]
        },
        {
            "positions": [
                2.1895396097972,
                -1.2304379140214718,
                -1.3799518143477334,
                -0.9797282957163052,
                -1.2692031570315239,
                0.46014658207708736
            ]
        },
        {
            "positions": [
                2.087527025733801,
                -1.227657577400569,
                -1.2720184624753066,
                -0.865963764565737,
                -1.2088544066387166,
                0.46377194388056486
            ]
        },
        {
            "positions": [
                1.9855144416704018,
                -1.224877240779666,
                -1.1640851106028798,
                -0.7521992334151688,
                -1.1485056562459093,
                0.46739730568404236
            ]
        },
        {
            "positions": [
                1.8835018576070028,
                -1.222096904158763,
                -1.056151758730453,
                -0.6384347022646006,
                -1.0881569058531022,
                0.47102266748751986
            ]
        },
        {
            "positions": [
                1.7814892735436036,
                -1.2193165675378599,
                -0.9482184068580258,
                -0.5246701711140325,
                -1.0278081554602951,
                0.47464802929099736
            ]
        },
        {
            "positions": [
                1.6794766894802045,
                -1.216536230916957,
                -0.8402850549855989,
                -0.4109056399634643,
                -0.9674594050674878,
                0.47827339109447486
            ]
        },
        {
            "positions": [
                1.5774641054168055,
                -1.213755894296054,
                -0.7323517031131721,
                -0.2971411088128961,
                -0.9071106546746807,
                0.48189875289795236
            ]
        },
        {
            "positions": [
                1.4754515213534065,
                -1.210975557675151,
                -0.6244183512407453,
                -0.18337657766232796,
                -0.8467619042818735,
                0.48552411470142987
            ]
        },
        {
            "positions": [
                1.373438937290007,
                -1.2081952210542481,
                -0.5164849993683183,
                -0.06961204651175978,
                -0.7864131538890663,
                0.48914947650490737
            ]
        },
        {
            "positions": [
                1.2714263532266081,
                -1.205414884433345,
                -0.40855164749589146,
                0.04415248463880839,
                -0.7260644034962591,
                0.49277483830838487
            ]
        },
        {
            "positions": [
                1.1694137691632092,
                -1.202634547812442,
                -0.30061829562346465,
                0.15791701578937656,
                -0.6657156531034519,
                0.4964002001118623
            ]
        },
        {
            "positions": [
                1.06740118509981,
                -1.1998542111915391,
                -0.19268494375103784,
                0.27168154693994473,
                -0.6053669027106447,
                0.5000255619153399
            ]
        },
        {
            "positions": [
                0.965388601036411,
                -1.1970738745706362,
                -0.08475159187861103,
                0.3854460780905127,
                -0.5450181523178377,
                0.5036509237188174
            ]
        },
        {
            "positions": [
                0.8633760169730116,
                -1.1942935379497333,
                0.02318175999381622,
                0.49921060924108107,
                -0.4846694019250304,
                0.5072762855222949
            ]
        },
        {
            "positions": [
                0.7613634329096124,
                -1.1915132013288303,
                0.13111511186624325,
                0.6129751403916492,
                -0.4243206515322231,
                0.5109016473257724
            ]
        },
        {
            "positions": [
                0.6593508488462132,
                -1.1887328647079272,
                0.23904846373867006,
                0.7267396715422174,
                -0.363971901139416,
                0.5145270091292498
            ]
        },
        {
            "positions": [
                0.5573382647828145,
                -1.1859525280870242,
                0.34698181561109687,
                0.8405042026927856,
                -0.3036231507466087,
                0.5181523709327273
            ]
        },
        {
            "positions": [
                0.45532568071941526,
                -1.1831721914661213,
                0.4549151674835237,
                0.9542687338433538,
                -0.24327440035380166,
                0.5217777327362048
            ]
        },
        {
            "positions": [
                0.35331309665601607,
                -1.1803918548452184,
                0.5628485193559505,
                1.068033264993922,
                -0.18292564996099459,
                0.5254030945396823
            ]
        },
        {
            "positions": [
                0.2513005125926173,
                -1.1776115182243154,
                0.6707818712283773,
                1.18179779614449,
                -0.12257689956818729,
                0.5290284563431598
            ]
        },
        {
            "positions": [
                0.14928792852921768,
                -1.1748311816034125,
                0.7787152231008045,
                1.2955623272950583,
                -0.06222814917538,
                0.5326538181466373
            ]
        },
        {
            "positions": [
                0.04727534446581849,
                -1.1720508449825093,
                0.8866485749732314,
                1.4093268584456264,
                -0.0018793987825729275,
                0.5362791799501148
            ]
        },
        {
            "positions": [
                -0.054737239597580256,
                -1.1692705083616064,
                0.9945819268456582,
                1.5230913895961946,
                0.058469351610234366,
                0.5399045417535923
            ]
        },
        {
            "positions": [
                -0.15674982366097953,
                -1.1664901717407035,
                1.102515278718085,
                1.636855920746763,
                0.11881810200304145,
                0.5435299035570698
            ]
        },
        {
            "positions": [
                -0.12260029056886268,
                -1.1158254571770347,
                1.224350590771976,
                1.6808246216126985,
                0.08578828982376091,
                0.46366005667313137
            ]
        },
        {
            "positions": [
                -0.08845075747674581,
                -1.0651607426133662,
                1.346185902825867,
                1.7247933224786338,
                0.052758477644480356,
                0.383790209789193
            ]
        },
        {
            "positions": [
                -0.05430122438462896,
                -1.0144960280496975,
                1.4680212148797578,
                1.7687620233445693,
                0.0197286654651998,
                0.3039203629052546
            ]
        },
        {
            "positions": [
                -0.020151691292512097,
                -0.9638313134860288,
                1.5898565269336489,
                1.8127307242105049,
                -0.013301146714080739,
                0.2240505160213162
            ]
        },
        {
            "positions": [
                0.013997841799604782,
                -0.9131665989223602,
                1.71169183898754,
                1.8566994250764404,
                -0.04633095889336129,
                0.14418066913737781
            ]
        },
        {
            "positions": [
                0.048147374891721606,
                -0.8625018843586916,
                1.8335271510414308,
                1.9006681259423757,
                -0.07936077107264185,
                0.06431082225343943
            ]
        },
        {
            "positions": [
                0.08229690798383849,
                -0.8118371697950229,
                1.955362463095322,
                1.9446368268083112,
                -0.11239058325192239,
                -0.015559024630498922
            ]
        },
        {
            "positions": [
                0.12185635480475761,
                -0.782951057539038,
                2.0054524224128456,
                1.9672928715919606,
                -0.12123262162942572,
                -0.048901001270617306
            ]
        }
    ]
}