{
    "goal": {
        "global_pose": {
            "orientation": {
                "w": 0.7031023502349854,
                "x": -0.7110244035720825,
                "y": 0.007748599164187908,
                "z": 0.005598929710686207
            },
            "position": {
                "x": 0.11585023208521307,
                "y": 0.44412534475326537,
                "z": 0.3711530566215515
            }
        },
        "name": "move_to_auspresseinheit"
    },
    "id": "BiEST_move_to_auspresseinheit_10",
    "joint_names": [
        "shoulder_pan_joint",
        "shoulder_lift_joint",
        "elbow_joint",
        "wrist_1_joint",
        "wrist_2_joint",
        "wrist_3_joint"
    ],
    "metrics": {
        "cart_traj_len": 2.6518012258231556,
        "distance_elbow_joint": 2.559632431941882,
        "distance_shoulder_lift_joint": 1.2469802477400336,
        "distance_shoulder_pan_joint": 1.6454009434193537,
        "distance_wrist_1_joint": 1.911224394553682,
        "distance_wrist_2_joint": 0.8979736053688521,
        "distance_wrist_3_joint": 4.401722999691497,
        "smoothness": 0.8829483895870254,
        "time": 0.148114509,
        "traj_len": 3.558501738472991,
        "weighted_distance": 4.927025331984892
    },
    "planner": "BiEST",
    "start": {
        "state": {
            "elbow_joint": 2.4225745326682886,
            "shoulder_lift_joint": -1.3736534990239282,
            "shoulder_pan_joint": -0.3378633610955803,
            "wrist_1_joint": -1.02885917317252,
            "wrist_2_joint": 1.233022905420004,
            "wrist_3_joint": -3.09402240754724
        }
    },
    "waypoints": [
        {
            "positions": [
                -0.3378633610955803,
                -1.3736534990239282,
                2.4225745326682886,
                -1.02885917317252,
                1.233022905420004,
                -3.09402240754724
            ]
        },
        {
            "positions": [
                -0.2753125334603072,
                -1.4177952372410398,
                2.358386628115889,
                -0.9637168557235956,
                1.2048065093579998,
                -2.979224104639289
            ]
        },
        {
            "positions": [
                -0.2127617058250341,
                -1.4619369754581515,
                2.2941987235634893,
                -0.898574538274671,
                1.176590113295996,
                -2.8644258017313384
            ]
        },
        {
            "positions": [
                -0.15021087818976098,
                -1.5060787136752631,
                2.2300108190110897,
                -0.8334322208257465,
                1.148373717233992,
                -2.7496274988233878
            ]
        },
        {
            "positions": [
                -0.08766005055448789,
                -1.5502204518923748,
                2.16582291445869,
                -0.768289903376822,
                1.120157321171988,
                -2.634829195915437
            ]
        },
        {
            "positions": [
                -0.025109222919214746,
                -1.5943621901094864,
                2.1016350099062904,
                -0.7031475859278975,
                1.0919409251099839,
                -2.520030893007486
            ]
        },
        {
            "positions": [
                0.03744160471605834,
                -1.638503928326598,
                2.0374471053538907,
                -0.638005268478973,
                1.06372452904798,
                -2.4052325900995353
            ]
        },
        {
            "positions": [
                0.09999243235133148,
                -1.6826456665437097,
                1.973259200801491,
                -0.5728629510300485,
                1.035508132985976,
                -2.2904342871915846
            ]
        },
        {
            "positions": [
                0.16254325998660452,
                -1.7267874047608214,
                1.9090712962490914,
                -0.5077206335811238,
                1.007291736923972,
                -2.175635984283634
            ]
        },
        {
            "positions": [
                0.22509408762187771,
                -1.770929142977933,
                1.8448833916966918,
                -0.44257831613219933,
                0.979075340861968,
                -2.0608376813756832
            ]
        },
        {
            "positions": [
                0.2876449152571508,
                -1.815070881195045,
                1.7806954871442922,
                -0.3774359986832748,
                0.950858944799964,
                -1.9460393784677326
            ]
        },
        {
            "positions": [
                0.350195742892424,
                -1.8592126194121565,
                1.7165075825918925,
                -0.3122936812343503,
                0.92264254873796,
                -1.8312410755597817
            ]
        },
        {
            "positions": [
                0.412746570527697,
                -1.9033543576292682,
                1.6523196780394929,
                -0.2471513637854258,
                0.894426152675956,
                -1.7164427726518312
            ]
        },
        {
            "positions": [
                0.4752973981629702,
                -1.9474960958463798,
                1.588131773487093,
                -0.18200904633650117,
                0.866209756613952,
                -1.6016444697438803
            ]
        },
        {
            "positions": [
                0.5378482257982433,
                -1.9916378340634915,
                1.5239438689346936,
                -0.11686672888757677,
                0.8379933605519481,
                -1.4868461668359296
            ]
        },
        {
            "positions": [
                0.6003990534335164,
                -2.035779572280603,
                1.4597559643822937,
                -0.05172441143865214,
                0.8097769644899441,
                -1.372047863927979
            ]
        },
        {
            "positions": [
                0.6629498810687893,
                -2.079921310497715,
                1.395568059829894,
                0.013417906010272374,
                0.7815605684279401,
                -1.2572495610200283
            ]
        },
        {
            "positions": [
                0.7255007087040626,
                -2.1240630487148264,
                1.3313801552774944,
                0.07856022345919689,
                0.7533441723659361,
                -1.1424512581120774
            ]
        },
        {
            "positions": [
                0.7880515363393357,
                -2.168204786931938,
                1.2671922507250948,
                0.1437025409081214,
                0.7251277763039321,
                -1.0276529552041267
            ]
        },
        {
            "positions": [
                0.8506023639746088,
                -2.2123465251490497,
                1.2030043461726951,
                0.20884485835704583,
                0.6969113802419281,
                -0.9128546522961759
            ]
        },
        {
            "positions": [
                0.8635242252096702,
                -2.1826192246361544,
                1.3083639809692742,
                0.16709125491638857,
                0.681935992243285,
                -1.0839916490249657
            ]
        },
        {
            "positions": [
                0.8764460864447315,
                -2.152891924123259,
                1.4137236157658535,
                0.1253376514757313,
                0.6669606042446421,
                -1.2551286457537554
            ]
        },
        {
            "positions": [
                0.8893679476797929,
                -2.1231646236103634,
                1.5190832505624325,
                0.08358404803507405,
                0.651985216245999,
                -1.4262656424825453
            ]
        },
        {
            "positions": [
                0.9022898089148543,
                -2.093437323097468,
                1.6244428853590116,
                0.04183044459441679,
                0.637009828247356,
                -1.5974026392113352
            ]
        },
        {
            "positions": [
                0.9152116701499158,
                -2.063710022584573,
                1.7298025201555909,
                7.684115375952705e-05,
                0.622034440248713,
                -1.7685396359401249
            ]
        },
        {
            "positions": [
                0.9281335313849771,
                -2.0339827220716775,
                1.8351621549521702,
                -0.041676762286897734,
                0.60705905225007,
                -1.9396766326689145
            ]
        },
        {
            "positions": [
                0.9410553926200385,
                -2.0042554215587822,
                1.9405217897487492,
                -0.083430365727555,
                0.5920836642514269,
                -2.1108136293977044
            ]
        },
        {
            "positions": [
                0.9539772538550999,
                -1.9745281210458867,
                2.0458814245453283,
                -0.12518396916821226,
                0.5771082762527839,
                -2.2819506261264944
            ]
        },
        {
            "positions": [
                0.9668991150901614,
                -1.9448008205329912,
                2.1512410593419076,
                -0.16693757260886952,
                0.5621328882541409,
                -2.4530876228552843
            ]
        },
        {
            "positions": [
                0.9798209763252227,
                -1.915073520020096,
                2.256600694138487,
                -0.20869117604952678,
                0.5471575002554978,
                -2.6242246195840737
            ]
        },
        {
            "positions": [
                0.992742837560284,
                -1.8853462195072006,
                2.3619603289350657,
                -0.25044477949018407,
                0.5321821122568549,
                -2.7953616163128636
            ]
        },
        {
            "positions": [
                1.0056646987953455,
                -1.855618918994305,
                2.467319963731645,
                -0.29219838293084127,
                0.5172067242582118,
                -2.9664986130416535
            ]
        },
        {
            "positions": [
                0.9050404042858696,
                -1.8728054574810276,
                2.442071087769199,
                -0.3496907568429172,
                0.5779258656605651,
                -3.0221357076066386
            ]
        },
        {
            "positions": [
                0.8044161097763938,
                -1.88999199596775,
                2.4168222118067524,
                -0.4071831307549932,
                0.6386450070629184,
                -3.0777728021716237
            ]
        },
        {
            "positions": [
                0.7037918152669179,
                -1.9071785344544725,
                2.3915733358443063,
                -0.46467550466706914,
                0.6993641484652717,
                -3.133409896736609
            ]
        }
    ]
}