{
    "goal": {
        "global_pose": {
            "orientation": {
                "w": 0.7047431468963623,
                "x": -0.7094548344612122,
                "y": 0.0024358443915843964,
                "z": -0.0022348060738295317
            },
            "position": {
                "x": 0.6094750761985779,
                "y": 0.3671506643295288,
                "z": 0.19426114857196808
            }
        },
        "name": "move_to_magneteinheit_target"
    },
    "id": "BiEST_move_to_magneteinheit_target_1",
    "joint_names": [
        "shoulder_pan_joint",
        "shoulder_lift_joint",
        "elbow_joint",
        "wrist_1_joint",
        "wrist_2_joint",
        "wrist_3_joint"
    ],
    "metrics": {
        "cart_traj_len": 3.211709659989484,
        "distance_elbow_joint": 3.884032250025041,
        "distance_shoulder_lift_joint": 0.8256701943789064,
        "distance_shoulder_pan_joint": 3.118784599604597,
        "distance_wrist_1_joint": 0.9217616247927375,
        "distance_wrist_2_joint": 1.69216807681264,
        "distance_wrist_3_joint": 2.6306614186554427,
        "smoothness": 0.11982049352491814,
        "time": 0.08378287400000001,
        "traj_len": 3.6156711913930124,
        "weighted_distance": 4.5769346404756135
    },
    "planner": "BiEST",
    "start": {
        "state": {
            "elbow_joint": -1.9196185737098679,
            "shoulder_lift_joint": -1.2443395971259867,
            "shoulder_pan_joint": 2.6996025301141957,
            "wrist_1_joint": -1.548550951469146,
            "wrist_2_joint": -1.5709469089955597,
            "wrist_3_joint": 0.4420197730596999
        }
    },
    "waypoints": [
        {
            "positions": [
                2.6996025301141957,
                -1.2443395971259867,
                -1.9196185737098679,
                -1.548550951469146,
                -1.5709469089955597,
                0.4420197730596999
            ]
        },
        {
            "positions": [
                2.575804851800244,
                -1.2599368398548407,
                -1.7790940139081748,
                -1.5113580113416256,
                -1.523555493345483,
                0.4736641575437504
            ]
        },
        {
            "positions": [
                2.452007173486292,
                -1.2755340825836947,
                -1.6385694541064817,
                -1.4741650712141052,
                -1.4761640776954061,
                0.505308542027801
            ]
        },
        {
            "positions": [
                2.32820949517234,
                -1.2911313253125487,
                -1.4980448943047886,
                -1.436972131086585,
                -1.4287726620453296,
                0.5369529265118514
            ]
        },
        {
            "positions": [
                2.2044118168583884,
                -1.3067285680414025,
                -1.3575203345030955,
                -1.3997791909590647,
                -1.3813812463952528,
                0.5685973109959019
            ]
        },
        {
            "positions": [
                2.080614138544436,
                -1.3223258107702565,
                -1.2169957747014024,
                -1.3625862508315443,
                -1.333989830745176,
                0.6002416954799524
            ]
        },
        {
            "positions": [
                1.9568164602304843,
                -1.3379230534991104,
                -1.0764712148997093,
                -1.3253933107040239,
                -1.2865984150950993,
                0.6318860799640029
            ]
        },
        {
            "positions": [
                1.8330187819165324,
                -1.3535202962279644,
                -0.9359466550980161,
                -1.2882003705765035,
                -1.2392069994450226,
                0.6635304644480535
            ]
        },
        {
            "positions": [
                1.7092211036025806,
                -1.3691175389568184,
                -0.7954220952963231,
                -1.251007430448983,
                -1.1918155837949458,
                0.6951748489321039
            ]
        },
        {
            "positions": [
                1.5854234252886286,
                -1.3847147816856724,
                -0.65489753549463,
                -1.2138144903214627,
                -1.144424168144869,
                0.7268192334161545
            ]
        },
        {
            "positions": [
                1.461625746974677,
                -1.4003120244145264,
                -0.5143729756929369,
                -1.1766215501939425,
                -1.0970327524947925,
                0.7584636179002049
            ]
        },
        {
            "positions": [
                1.337828068660725,
                -1.4159092671433804,
                -0.37384841589124385,
                -1.1394286100664222,
                -1.0496413368447157,
                0.7901080023842555
            ]
        },
        {
            "positions": [
                1.214030390346773,
                -1.4315065098722342,
                -0.23332385608955075,
                -1.1022356699389018,
                -1.002249921194639,
                0.821752386868306
            ]
        },
        {
            "positions": [
                1.0902327120328212,
                -1.4471037526010881,
                -0.09279929628785788,
                -1.0650427298113816,
                -0.9548585055445623,
                0.8533967713523565
            ]
        },
        {
            "positions": [
                0.9664350337188692,
                -1.4627009953299421,
                0.04772526351383566,
                -1.0278497896838612,
                -0.9074670898944854,
                0.8850411558364071
            ]
        },
        {
            "positions": [
                0.8426373554049174,
                -1.4782982380587961,
                0.18824982331552853,
                -0.9906568495563407,
                -0.8600756742444088,
                0.9166855403204575
            ]
        },
        {
            "positions": [
                0.7188396770909655,
                -1.49389548078765,
                0.3287743831172216,
                -0.9534639094288204,
                -0.8126842585943321,
                0.9483299248045081
            ]
        },
        {
            "positions": [
                0.5950419987770137,
                -1.509492723516504,
                0.4692989429189147,
                -0.9162709693013,
                -0.7652928429442554,
                0.9799743092885584
            ]
        },
        {
            "positions": [
                0.4712443204630614,
                -1.525089966245358,
                0.6098235027206078,
                -0.8790780291737796,
                -0.7179014272941786,
                1.011618693772609
            ]
        },
        {
            "positions": [
                0.3474466421491096,
                -1.5406872089742119,
                0.7503480625223009,
                -0.8418850890462594,
                -0.670510011644102,
                1.0432630782566596
            ]
        },
        {
            "positions": [
                0.2236489638351582,
                -1.5562844517030658,
                0.890872622323994,
                -0.804692148918739,
                -0.6231185959940252,
                1.07490746274071
            ]
        },
        {
            "positions": [
                0.09985128552120637,
                -1.5718816944319198,
                1.031397182125687,
                -0.7674992087912187,
                -0.5757271803439485,
                1.1065518472247604
            ]
        },
        {
            "positions": [
                -0.023946392792745907,
                -1.5874789371607738,
                1.1719217419273802,
                -0.7303062686636982,
                -0.5283357646938718,
                1.138196231708811
            ]
        },
        {
            "positions": [
                -0.14774407110669793,
                -1.6030761798896278,
                1.312446301729073,
                -0.6931133285361779,
                -0.480944349043795,
                1.1698406161928616
            ]
        },
        {
            "positions": [
                -0.12060027126832759,
                -1.5563828187281012,
                1.377643039187683,
                -0.6997457287221549,
                -0.42072779735770743,
                1.3601246737450898
            ]
        },
        {
            "positions": [
                -0.09345647142995724,
                -1.5096894575665747,
                1.4428397766462933,
                -0.7063781289081318,
                -0.3605112456716199,
                1.5504087312973178
            ]
        },
        {
            "positions": [
                -0.0663126715915869,
                -1.4629960964050481,
                1.5080365141049032,
                -0.7130105290941087,
                -0.3002946939855323,
                1.7406927888495458
            ]
        },
        {
            "positions": [
                -0.03916887175321654,
                -1.4163027352435216,
                1.5732332515635132,
                -0.7196429292800857,
                -0.24007814229944477,
                1.930976846401774
            ]
        },
        {
            "positions": [
                -0.012025071914846197,
                -1.3696093740819952,
                1.6384299890221232,
                -0.7262753294660627,
                -0.17986159061335721,
                2.1212609039540022
            ]
        },
        {
            "positions": [
                0.015118727923524145,
                -1.3229160129204687,
                1.7036267264807334,
                -0.7329077296520395,
                -0.11964503892726969,
                2.3115449615062302
            ]
        },
        {
            "positions": [
                0.042262527761894486,
                -1.2762226517589421,
                1.7688234639393434,
                -0.7395401298380164,
                -0.059428487241182104,
                2.5018290190584582
            ]
        },
        {
            "positions": [
                0.06940632760026486,
                -1.2295292905974156,
                1.8340202013979536,
                -0.7461725300239934,
                0.0007880644449054786,
                2.6921130766106867
            ]
        },
        {
            "positions": [
                0.0965501274386352,
                -1.182835929435889,
                1.8992169388565636,
                -0.7528049302099704,
                0.06100461613099306,
                2.8823971341629147
            ]
        },
        {
            "positions": [
                0.12369392727700552,
                -1.1361425682743624,
                1.9644136763151736,
                -0.7594373303959473,
                0.12122116781708059,
                3.0726811917151426
            ]
        }
    ]
}