{
    "goal": {
        "global_pose": {
            "orientation": {
                "w": 0.7031023502349854,
                "x": -0.7110244035720825,
                "y": 0.007748599164187908,
                "z": 0.005598929710686207
            },
            "position": {
                "x": 0.11585023208521307,
                "y": 0.44412534475326537,
                "z": 0.3711530566215515
            }
        },
        "name": "move_to_auspresseinheit"
    },
    "id": "BiEST_move_to_auspresseinheit_5",
    "joint_names": [
        "shoulder_pan_joint",
        "shoulder_lift_joint",
        "elbow_joint",
        "wrist_1_joint",
        "wrist_2_joint",
        "wrist_3_joint"
    ],
    "metrics": {
        "cart_traj_len": 2.3480416367511823,
        "distance_elbow_joint": 3.2444489818867694,
        "distance_shoulder_lift_joint": 0.7918794772667053,
        "distance_shoulder_pan_joint": 1.042405733407708,
        "distance_wrist_1_joint": 1.5388906058221319,
        "distance_wrist_2_joint": 0.6118964660496348,
        "distance_wrist_3_joint": 5.386843542067046,
        "smoothness": 0.8697928191632122,
        "time": 0.152194354,
        "traj_len": 3.5519522528463128,
        "weighted_distance": 5.053794511305921
    },
    "planner": "BiEST",
    "start": {
        "state": {
            "elbow_joint": 2.4225745326682886,
            "shoulder_lift_joint": -1.3736534990239282,
            "shoulder_pan_joint": -0.3378633610955803,
            "wrist_1_joint": -1.02885917317252,
            "wrist_2_joint": 1.233022905420004,
            "wrist_3_joint": -3.09402240754724
        }
    },
    "waypoints": [
        {
            "positions": [
                -0.3378633610955803,
                -1.3736534990239282,
                2.4225745326682886,
                -1.02885917317252,
                1.233022905420004,
                -3.09402240754724
            ]
        },
        {
            "positions": [
                -0.31362915646353223,
                -1.3974464425646387,
                2.3262467149925397,
                -0.9667973563287038,
                1.2045275151869645,
                -2.937230262416738
            ]
        },
        {
            "positions": [
                -0.28939495183148417,
                -1.4212393861053492,
                2.2299188973167903,
                -0.9047355394848876,
                1.1760321249539252,
                -2.780438117286237
            ]
        },
        {
            "positions": [
                -0.26516074719943616,
                -1.4450323296460597,
                2.1335910796410413,
                -0.8426737226410713,
                1.1475367347208858,
                -2.6236459721557353
            ]
        },
        {
            "positions": [
                -0.2409265425673881,
                -1.4688252731867701,
                2.0372632619652924,
                -0.7806119057972551,
                1.1190413444878464,
                -2.4668538270252336
            ]
        },
        {
            "positions": [
                -0.21669233793534004,
                -1.4926182167274806,
                1.9409354442895432,
                -0.7185500889534389,
                1.0905459542548073,
                -2.3100616818947324
            ]
        },
        {
            "positions": [
                -0.19245813330329198,
                -1.5164111602681911,
                1.844607626613794,
                -0.6564882721096226,
                1.062050564021768,
                -2.1532695367642307
            ]
        },
        {
            "positions": [
                -0.16822392867124394,
                -1.5402041038089016,
                1.7482798089380451,
                -0.5944264552658063,
                1.0335551737887285,
                -1.9964773916337293
            ]
        },
        {
            "positions": [
                -0.14398972403919588,
                -1.563997047349612,
                1.6519519912622962,
                -0.5323646384219901,
                1.0050597835556891,
                -1.8396852465032278
            ]
        },
        {
            "positions": [
                -0.11975551940714782,
                -1.5877899908903226,
                1.5556241735865468,
                -0.4703028215781738,
                0.9765643933226498,
                -1.6828931013727262
            ]
        },
        {
            "positions": [
                -0.09552131477509976,
                -1.611582934431033,
                1.4592963559107979,
                -0.40824100473435754,
                0.9480690030896104,
                -1.5261009562422247
            ]
        },
        {
            "positions": [
                -0.07128711014305172,
                -1.6353758779717436,
                1.3629685382350487,
                -0.34617918789054136,
                0.919573612856571,
                -1.369308811111723
            ]
        },
        {
            "positions": [
                -0.04705290551100366,
                -1.659168821512454,
                1.2666407205592998,
                -0.2841173710467251,
                0.8910782226235316,
                -1.2125166659812217
            ]
        },
        {
            "positions": [
                -0.022818700878955656,
                -1.6829617650531645,
                1.1703129028835508,
                -0.2220555542029089,
                0.8625828323904925,
                -1.0557245208507204
            ]
        },
        {
            "positions": [
                0.0014155037530924064,
                -1.706754708593875,
                1.0739850852078017,
                -0.1599937373590926,
                0.8340874421574531,
                -0.8989323757202188
            ]
        },
        {
            "positions": [
                0.02564970838514047,
                -1.7305476521345855,
                0.9776572675320525,
                -0.09793192051527644,
                0.8055920519244137,
                -0.7421402305897171
            ]
        },
        {
            "positions": [
                0.04988391301718853,
                -1.754340595675296,
                0.8813294498563036,
                -0.03587010367146015,
                0.7770966616913744,
                -0.5853480854592159
            ]
        },
        {
            "positions": [
                0.07411811764923659,
                -1.7781335392160065,
                0.7850016321805544,
                0.026191713172356204,
                0.748601271458335,
                -0.42855594032871414
            ]
        },
        {
            "positions": [
                0.09908342853351225,
                -1.799202713255946,
                0.9006801448706205,
                0.007965286298289707,
                0.749192020468907,
                -0.6246830090671918
            ]
        },
        {
            "positions": [
                0.1240487394177879,
                -1.8202718872958854,
                1.0163586575606867,
                -0.01026114057577679,
                0.749782769479479,
                -0.8208100778056695
            ]
        },
        {
            "positions": [
                0.14901405030206358,
                -1.841341061335825,
                1.1320371702507526,
                -0.028487567449843293,
                0.7503735184900511,
                -1.016937146544147
            ]
        },
        {
            "positions": [
                0.17397936118633922,
                -1.8624102353757646,
                1.2477156829408187,
                -0.04671399432390978,
                0.7509642675006231,
                -1.2130642152826248
            ]
        },
        {
            "positions": [
                0.1989446720706149,
                -1.883479409415704,
                1.3633941956308848,
                -0.0649404211979763,
                0.751555016511195,
                -1.4091912840211025
            ]
        },
        {
            "positions": [
                0.22390998295489056,
                -1.9045485834556435,
                1.479072708320951,
                -0.08316684807204279,
                0.752145765521767,
                -1.6053183527595802
            ]
        },
        {
            "positions": [
                0.24887529383916623,
                -1.925617757495583,
                1.594751221011017,
                -0.1013932749461093,
                0.752736514532339,
                -1.801445421498058
            ]
        },
        {
            "positions": [
                0.27384060472344185,
                -1.9466869315355224,
                1.710429733701083,
                -0.11961970182017577,
                0.753327263542911,
                -1.9975724902365353
            ]
        },
        {
            "positions": [
                0.2988059156077175,
                -1.967756105575462,
                1.8261082463911493,
                -0.1378461286942423,
                0.753918012553483,
                -2.193699558975013
            ]
        },
        {
            "positions": [
                0.3237712264919932,
                -1.9888252796154016,
                1.9417867590812155,
                -0.1560725555683088,
                0.7545087615640551,
                -2.3898266277134907
            ]
        },
        {
            "positions": [
                0.34873653737626886,
                -2.009894453655341,
                2.0574652717712816,
                -0.1742989824423753,
                0.7550995105746271,
                -2.5859536964519685
            ]
        },
        {
            "positions": [
                0.37370184826054453,
                -2.0309636276952805,
                2.1731437844613475,
                -0.1925254093164418,
                0.7556902595851991,
                -2.7820807651904462
            ]
        },
        {
            "positions": [
                0.4526046277595226,
                -1.9880248766107214,
                2.2392384690009575,
                -0.2636822723393534,
                0.7270933185222829,
                -2.8211673391499428
            ]
        },
        {
            "positions": [
                0.5315074072585007,
                -1.9450861255261624,
                2.3053331535405674,
                -0.33483913536226495,
                0.6984963774593665,
                -2.8602539131094393
            ]
        },
        {
            "positions": [
                0.6104101867574788,
                -1.9021473744416033,
                2.3714278380801774,
                -0.4059959983851765,
                0.6698994363964503,
                -2.899340487068936
            ]
        },
        {
            "positions": [
                0.6574762795348033,
                -1.9050239221124412,
                2.3816527758298833,
                -0.4318220023450379,
                0.6871969467826269,
                -3.0246367511230856
            ]
        },
        {
            "positions": [
                0.7045423723121276,
                -1.907900469783279,
                2.3918777135795892,
                -0.4576480063048993,
                0.7044944571688033,
                -3.149933015177235
            ]
        }
    ]
}