{
    "goal": {
        "global_pose": {
            "orientation": {
                "w": 0.7031023502349854,
                "x": -0.7110244035720825,
                "y": 0.007748599164187908,
                "z": 0.005598929710686207
            },
            "position": {
                "x": 0.11585023208521307,
                "y": 0.44412534475326537,
                "z": 0.3711530566215515
            }
        },
        "name": "move_to_auspresseinheit"
    },
    "id": "BiTRRT_move_to_auspresseinheit_6",
    "joint_names": [
        "shoulder_pan_joint",
        "shoulder_lift_joint",
        "elbow_joint",
        "wrist_1_joint",
        "wrist_2_joint",
        "wrist_3_joint"
    ],
    "metrics": {
        "cart_traj_len": 0.6756967767948989,
        "distance_elbow_joint": 0.03170863799147039,
        "distance_shoulder_lift_joint": 0.5372538326573801,
        "distance_shoulder_pan_joint": 1.0462134384432353,
        "distance_wrist_1_joint": 0.5478136662803894,
        "distance_wrist_2_joint": 0.5170845815129358,
        "distance_wrist_3_joint": 0.3271280210080967,
        "smoothness": 0.29673640546343205,
        "time": 0.048355639,
        "traj_len": 1.734128650906128,
        "weighted_distance": 2.174018506752651
    },
    "planner": "BiTRRT",
    "start": {
        "state": {
            "elbow_joint": 2.4225745326682886,
            "shoulder_lift_joint": -1.3736534990239282,
            "shoulder_pan_joint": -0.3378633610955803,
            "wrist_1_joint": -1.02885917317252,
            "wrist_2_joint": 1.233022905420004,
            "wrist_3_joint": -3.09402240754724
        }
    },
    "waypoints": [
        {
            "positions": [
                -0.3378633610955803,
                -1.3736534990239282,
                2.4225745326682886,
                -1.02885917317252,
                1.233022905420004,
                -3.09402240754724
            ]
        },
        {
            "positions": [
                -0.21842245047461845,
                -1.4554975549371647,
                2.4231535013977847,
                -0.9494141857640556,
                1.163686505394131,
                -3.063809815932961
            ]
        },
        {
            "positions": [
                -0.09898153985365662,
                -1.537341610850401,
                2.423732470127281,
                -0.8699691983555911,
                1.094350105368258,
                -3.033597224318683
            ]
        },
        {
            "positions": [
                0.020459370767305196,
                -1.6191856667636375,
                2.4243114388567766,
                -0.7905242109471267,
                1.0250137053423851,
                -3.0033846327044045
            ]
        },
        {
            "positions": [
                0.13990028138826704,
                -1.701029722676874,
                2.4248904075862727,
                -0.711079223538662,
                0.9556773053165122,
                -2.9731720410901263
            ]
        },
        {
            "positions": [
                0.2593411920092289,
                -1.7828737785901103,
                2.425469376315769,
                -0.6316342361301976,
                0.8863409052906392,
                -2.9429594494758478
            ]
        },
        {
            "positions": [
                0.40901082045537096,
                -1.8255516296205097,
                2.4158647782011053,
                -0.581437993050842,
                0.8295400448294489,
                -3.0016478037880825
            ]
        },
        {
            "positions": [
                0.558680448901513,
                -1.868229480650909,
                2.4062601800864423,
                -0.5312417499714863,
                0.7727391843682585,
                -3.0603361581003177
            ]
        },
        {
            "positions": [
                0.7083500773476551,
                -1.9109073316813083,
                2.3966555819717787,
                -0.48104550689213066,
                0.7159383239070681,
                -3.1190245124125524
            ]
        }
    ]
}