{
    "goal": {
        "global_pose": {
            "orientation": {
                "w": 0.7031023502349854,
                "x": -0.7110244035720825,
                "y": 0.007748599164187908,
                "z": 0.005598929710686207
            },
            "position": {
                "x": 0.11585023208521307,
                "y": 0.44412534475326537,
                "z": 0.3711530566215515
            }
        },
        "name": "move_to_auspresseinheit"
    },
    "id": "BiTRRT_move_to_auspresseinheit_9",
    "joint_names": [
        "shoulder_pan_joint",
        "shoulder_lift_joint",
        "elbow_joint",
        "wrist_1_joint",
        "wrist_2_joint",
        "wrist_3_joint"
    ],
    "metrics": {
        "cart_traj_len": 0.6797927531973535,
        "distance_elbow_joint": 0.0413138460002096,
        "distance_shoulder_lift_joint": 0.5325650401134905,
        "distance_shoulder_pan_joint": 1.0461231109574494,
        "distance_wrist_1_joint": 0.5689545329325889,
        "distance_wrist_2_joint": 0.7283308443013685,
        "distance_wrist_3_joint": 0.21705941615881885,
        "smoothness": 0.37706870112591784,
        "time": 0.065608414,
        "traj_len": 1.770408650697326,
        "weighted_distance": 2.205844736153368
    },
    "planner": "BiTRRT",
    "start": {
        "state": {
            "elbow_joint": 2.4225745326682886,
            "shoulder_lift_joint": -1.3736534990239282,
            "shoulder_pan_joint": -0.3378633610955803,
            "wrist_1_joint": -1.02885917317252,
            "wrist_2_joint": 1.233022905420004,
            "wrist_3_joint": -3.09402240754724
        }
    },
    "waypoints": [
        {
            "positions": [
                -0.3378633610955803,
                -1.3736534990239282,
                2.4225745326682886,
                -1.02885917317252,
                1.233022905420004,
                -3.09402240754724
            ]
        },
        {
            "positions": [
                -0.29498522461303994,
                -1.4142861956493233,
                2.4135824928405167,
                -0.9572266815812112,
                1.0961351332653282,
                -3.073214238810644
            ]
        },
        {
            "positions": [
                -0.25210708813049965,
                -1.4549188922747183,
                2.4045904530127444,
                -0.8855941899899024,
                0.9592473611106525,
                -3.0524060700740483
            ]
        },
        {
            "positions": [
                -0.2092289516479593,
                -1.4955515889001134,
                2.3955984131849726,
                -0.8139616983985936,
                0.8223595889559767,
                -3.0315979013374523
            ]
        },
        {
            "positions": [
                -0.16635081516541897,
                -1.5361842855255086,
                2.3866063733572007,
                -0.7423292068072846,
                0.685471816801301,
                -3.0107897326008564
            ]
        },
        {
            "positions": [
                0.02418289892044259,
                -1.6163167496581743,
                2.3864997400532375,
                -0.6718316817663967,
                0.6657445596332598,
                -3.0319633391084126
            ]
        },
        {
            "positions": [
                0.21471661300630415,
                -1.69644921379084,
                2.3863931067492743,
                -0.6013341567255088,
                0.6460173024652186,
                -3.0531369456159685
            ]
        },
        {
            "positions": [
                0.4052503270921657,
                -1.776581677923506,
                2.386286473445311,
                -0.5308366316846209,
                0.6262900452971774,
                -3.0743105521235243
            ]
        },
        {
            "positions": [
                0.5957840411780273,
                -1.8567141420561717,
                2.386179840141348,
                -0.46033910664373295,
                0.6065627881291362,
                -3.0954841586310806
            ]
        },
        {
            "positions": [
                0.7082597498618691,
                -1.9062185391374187,
                2.3910989936146168,
                -0.45990464023993116,
                0.708433515139637,
                -3.144616473813292
            ]
        }
    ]
}