{
    "goal": {
        "global_pose": {
            "orientation": {
                "w": 0.7047431468963623,
                "x": -0.7094548344612122,
                "y": 0.0024358443915843964,
                "z": -0.0022348060738295317
            },
            "position": {
                "x": 0.6094750761985779,
                "y": 0.3671506643295288,
                "z": 0.19426114857196808
            }
        },
        "name": "move_to_magneteinheit_target"
    },
    "id": "BiTRRT_move_to_magneteinheit_target_8",
    "joint_names": [
        "shoulder_pan_joint",
        "shoulder_lift_joint",
        "elbow_joint",
        "wrist_1_joint",
        "wrist_2_joint",
        "wrist_3_joint"
    ],
    "metrics": {
        "cart_traj_len": 7.7292559168941555,
        "distance_elbow_joint": 3.893178054294182,
        "distance_shoulder_lift_joint": 1.7190849538611521,
        "distance_shoulder_pan_joint": 7.0111372248679515,
        "distance_wrist_1_joint": 0.7547688471091054,
        "distance_wrist_2_joint": 3.8033498742848084,
        "distance_wrist_3_joint": 5.5728996171956755,
        "smoothness": 0.29992384064793437,
        "time": 0.16716177799999998,
        "traj_len": 4.770159176758451,
        "weighted_distance": 6.201478575904148
    },
    "planner": "BiTRRT",
    "start": {
        "state": {
            "elbow_joint": -1.9196185737098679,
            "shoulder_lift_joint": -1.2443395971259867,
            "shoulder_pan_joint": 2.6996025301141957,
            "wrist_1_joint": -1.548550951469146,
            "wrist_2_joint": -1.5709469089955597,
            "wrist_3_joint": 0.4420197730596999
        }
    },
    "waypoints": [
        {
            "positions": [
                2.6996025301141957,
                -1.2443395971259867,
                -1.9196185737098679,
                -1.548550951469146,
                -1.5709469089955597,
                0.4420197730596999
            ]
        },
        {
            "positions": [
                2.554343746248902,
                -1.2167310977289396,
                -1.847127147196021,
                -1.535801722170012,
                -1.4874909948796171,
                0.39797190245285124
            ]
        },
        {
            "positions": [
                2.409084962383608,
                -1.1891225983318925,
                -1.7746357206821737,
                -1.5230524928708777,
                -1.4040350807636746,
                0.35392403184600263
            ]
        },
        {
            "positions": [
                2.2638261785183142,
                -1.1615140989348451,
                -1.7021442941683267,
                -1.5103032635717437,
                -1.320579166647732,
                0.30987616123915396
            ]
        },
        {
            "positions": [
                2.1185673946530206,
                -1.133905599537798,
                -1.6296528676544797,
                -1.4975540342726095,
                -1.2371232525317892,
                0.2658282906323053
            ]
        },
        {
            "positions": [
                1.9733086107877267,
                -1.1062971001407509,
                -1.5571614411406327,
                -1.4848048049734754,
                -1.1536673384158467,
                0.22178042002545667
            ]
        },
        {
            "positions": [
                1.8280498269224328,
                -1.0786886007437038,
                -1.4846700146267855,
                -1.4720555756743412,
                -1.0702114242999041,
                0.177732549418608
            ]
        },
        {
            "positions": [
                1.6827910430571391,
                -1.0510801013466566,
                -1.4121785881129385,
                -1.4593063463752072,
                -0.9867555101839616,
                0.13368467881175938
            ]
        },
        {
            "positions": [
                1.5375322591918452,
                -1.0234716019496093,
                -1.3396871615990915,
                -1.446557117076073,
                -0.9032995960680189,
                0.08963680820491071
            ]
        },
        {
            "positions": [
                1.3922734753265515,
                -0.9958631025525622,
                -1.2671957350852445,
                -1.433807887776939,
                -0.8198436819520765,
                0.045588937598062096
            ]
        },
        {
            "positions": [
                1.2470146914612577,
                -0.968254603155515,
                -1.1947043085713973,
                -1.4210586584778047,
                -0.7363877678361338,
                0.0015410669912134245
            ]
        },
        {
            "positions": [
                1.101755907595964,
                -0.9406461037584679,
                -1.1222128820575503,
                -1.4083094291786706,
                -0.6529318537201912,
                -0.04250680361563519
            ]
        },
        {
            "positions": [
                0.9564971237306701,
                -0.9130376043614207,
                -1.049721455543703,
                -1.3955601998795364,
                -0.5694759396042486,
                -0.08655467422248392
            ]
        },
        {
            "positions": [
                0.8112383398653762,
                -0.8854291049643734,
                -0.9772300290298562,
                -1.3828109705804024,
                -0.48602002548830603,
                -0.13060254482933248
            ]
        },
        {
            "positions": [
                0.6659795560000825,
                -0.8578206055673263,
                -0.9047386025160091,
                -1.3700617412812681,
                -0.4025641113723635,
                -0.17465041543618115
            ]
        },
        {
            "positions": [
                0.5207207721347888,
                -0.8302121061702792,
                -0.8322471760021621,
                -1.357312511982134,
                -0.3191081972564209,
                -0.21869828604302982
            ]
        },
        {
            "positions": [
                0.37546198826949473,
                -0.802603606773232,
                -0.7597557494883149,
                -1.3445632826829998,
                -0.23565228314047815,
                -0.2627461566498785
            ]
        },
        {
            "positions": [
                0.23020320440420106,
                -0.7749951073761848,
                -0.6872643229744682,
                -1.3318140533838658,
                -0.15219636902453582,
                -0.30679402725672705
            ]
        },
        {
            "positions": [
                0.08494442053890738,
                -0.7473866079791376,
                -0.6147728964606212,
                -1.3190648240847316,
                -0.06874045490859326,
                -0.3508418978635757
            ]
        },
        {
            "positions": [
                -0.06031436332638673,
                -0.7197781085820905,
                -0.5422814699467737,
                -1.3063155947855976,
                0.014715459207349513,
                -0.3948897684704245
            ]
        },
        {
            "positions": [
                -0.2055731471916804,
                -0.6921696091850432,
                -0.46979004343292674,
                -1.2935663654864633,
                0.09817137332329207,
                -0.43893763907727307
            ]
        },
        {
            "positions": [
                -0.3508319310569741,
                -0.6645611097879961,
                -0.39729861691907975,
                -1.2808171361873293,
                0.18162728743923462,
                -0.48298550968412163
            ]
        },
        {
            "positions": [
                -0.49609071492226775,
                -0.636952610390949,
                -0.32480719040523276,
                -1.268067906888195,
                0.2650832015551772,
                -0.5270333802909704
            ]
        },
        {
            "positions": [
                -0.6413494987875619,
                -0.6093441109939017,
                -0.25231576389138555,
                -1.255318677589061,
                0.34853911567111995,
                -0.5710812508978189
            ]
        },
        {
            "positions": [
                -0.7866082826528555,
                -0.5817356115968546,
                -0.17982433737753856,
                -1.2425694482899268,
                0.4319950297870625,
                -0.6151291215046677
            ]
        },
        {
            "positions": [
                -0.9318670665181497,
                -0.5541271121998074,
                -0.10733291086369157,
                -1.2298202189907927,
                0.5154509439030048,
                -0.6591769921115163
            ]
        },
        {
            "positions": [
                -1.0771258503834433,
                -0.5265186128027602,
                -0.034841484349844576,
                -1.2170709896916585,
                0.5989068580189476,
                -0.7032248627183648
            ]
        },
        {
            "positions": [
                -1.2223846342487374,
                -0.498910113405713,
                0.03764994216400264,
                -1.2043217603925245,
                0.6823627721348904,
                -0.7472727333252136
            ]
        },
        {
            "positions": [
                -1.3676434181140307,
                -0.4713016140086659,
                0.11014136867784963,
                -1.1915725310933905,
                0.7658186862508327,
                -0.7913206039320622
            ]
        },
        {
            "positions": [
                -1.5129022019793243,
                -0.44369311461161876,
                0.1826327951916964,
                -1.1788233017942562,
                0.8492746003667755,
                -0.8353684745389107
            ]
        },
        {
            "positions": [
                -1.658160985844618,
                -0.41608461521457163,
                0.2551242217055436,
                -1.166074072495122,
                0.9327305144827178,
                -0.8794163451457595
            ]
        },
        {
            "positions": [
                -1.8034197697099126,
                -0.3884761158175243,
                0.3276156482193908,
                -1.153324843195988,
                1.0161864285986606,
                -0.9234642157526083
            ]
        },
        {
            "positions": [
                -1.9486785535752063,
                -0.36086761642047716,
                0.40010707473323803,
                -1.140575613896854,
                1.0996423427146034,
                -0.9675120863594568
            ]
        },
        {
            "positions": [
                -2.0939373374405,
                -0.33325911702343003,
                0.4725985012470848,
                -1.1278263845977197,
                1.183098256830546,
                -1.0115599569663054
            ]
        },
        {
            "positions": [
                -2.00864513138999,
                -0.3643362121679914,
                0.530327769683132,
                -1.1149785276655013,
                1.142740383428288,
                -0.8531245766905488
            ]
        },
        {
            "positions": [
                -1.9233529253394805,
                -0.39541330731255275,
                0.5880570381191793,
                -1.1021306707332827,
                1.1023825100260305,
                -0.6946891964147921
            ]
        },
        {
            "positions": [
                -1.8380607192889706,
                -0.4264904024571141,
                0.6457863065552265,
                -1.0892828138010644,
                1.0620246366237727,
                -0.5362538161390356
            ]
        },
        {
            "positions": [
                -1.752768513238461,
                -0.4575674976016755,
                0.7035155749912738,
                -1.076434956868846,
                1.0216667632215148,
                -0.3778184358632789
            ]
        },
        {
            "positions": [
                -1.6674763071879513,
                -0.48864459274623684,
                0.761244843427321,
                -1.0635870999366275,
                0.9813088898192571,
                -0.21938305558752236
            ]
        },
        {
            "positions": [
                -1.5821841011374413,
                -0.5197216878907982,
                0.8189741118633682,
                -1.0507392430044091,
                0.9409510164169994,
                -0.0609476753117657
            ]
        },
        {
            "positions": [
                -1.4968918950869319,
                -0.5507987830353596,
                0.8767033802994155,
                -1.0378913860721908,
                0.9005931430147417,
                0.09748770496399084
            ]
        },
        {
            "positions": [
                -1.411599689036422,
                -0.5818758781799209,
                0.9344326487354628,
                -1.0250435291399722,
                0.860235269612484,
                0.2559230852397476
            ]
        },
        {
            "positions": [
                -1.3263074829859123,
                -0.6129529733244823,
                0.9921619171715099,
                -1.0121956722077539,
                0.8198773962102262,
                0.41435846551550415
            ]
        },
        {
            "positions": [
                -1.2410152769354026,
                -0.6440300684690436,
                1.0498911856075572,
                -0.9993478152755354,
                0.7795195228079683,
                0.5727938457912607
            ]
        },
        {
            "positions": [
                -1.1557230708848927,
                -0.675107163613605,
                1.1076204540436043,
                -0.9864999583433169,
                0.7391616494057107,
                0.7312292260670172
            ]
        },
        {
            "positions": [
                -1.070430864834383,
                -0.7061842587581664,
                1.1653497224796516,
                -0.9736521014110986,
                0.6988037760034529,
                0.889664606342774
            ]
        },
        {
            "positions": [
                -0.9851386587838733,
                -0.7372613539027277,
                1.223078990915699,
                -0.9608042444788801,
                0.6584459026011952,
                1.0480999866185305
            ]
        },
        {
            "positions": [
                -0.8998464527333636,
                -0.7683384490472891,
                1.2808082593517462,
                -0.9479563875466617,
                0.6180880291989375,
                1.206535366894287
            ]
        },
        {
            "positions": [
                -0.8145542466828539,
                -0.7994155441918505,
                1.3385375277877933,
                -0.9351085306144433,
                0.5777301557966797,
                1.3649707471700436
            ]
        },
        {
            "positions": [
                -0.729262040632344,
                -0.8304926393364118,
                1.3962667962238409,
                -0.9222606736822249,
                0.5373722823944219,
                1.5234061274458006
            ]
        },
        {
            "positions": [
                -0.6439698345818343,
                -0.8615697344809732,
                1.453996064659888,
                -0.9094128167500064,
                0.4970144089921642,
                1.6818415077215572
            ]
        },
        {
            "positions": [
                -0.5586776285313246,
                -0.8926468296255345,
                1.511725333095935,
                -0.896564959817788,
                0.4566565355899065,
                1.8402768879973137
            ]
        },
        {
            "positions": [
                -0.47338542248081494,
                -0.9237239247700959,
                1.5694546015319824,
                -0.8837171028855696,
                0.41629866218764877,
                1.9987122682730702
            ]
        },
        {
            "positions": [
                -0.38809321643030503,
                -0.9548010199146573,
                1.6271838699680297,
                -0.8708692459533511,
                0.37594078878539083,
                2.157147648548827
            ]
        },
        {
            "positions": [
                -0.30280101037979534,
                -0.9858781150592186,
                1.684913138404077,
                -0.8580213890211328,
                0.3355829153831331,
                2.3155830288245833
            ]
        },
        {
            "positions": [
                -0.21750880432928565,
                -1.01695521020378,
                1.742642406840124,
                -0.8451735320889143,
                0.2952250419808754,
                2.47401840910034
            ]
        },
        {
            "positions": [
                -0.13221659827877597,
                -1.0480323053483414,
                1.8003716752761714,
                -0.8323256751566959,
                0.2548671685786177,
                2.6324537893760964
            ]
        },
        {
            "positions": [
                -0.046924392228266054,
                -1.0791094004929027,
                1.8581009437122187,
                -0.8194778182244774,
                0.21450929517635986,
                2.7908891696518534
            ]
        },
        {
            "positions": [
                0.03836781382224386,
                -1.110186495637464,
                1.9158302121482658,
                -0.806629961292259,
                0.17415142177410226,
                2.94932454992761
            ]
        },
        {
            "positions": [
                0.12366001987275323,
                -1.1412635907820254,
                1.973559480584313,
                -0.7937821043600406,
                0.13379354837184446,
                3.107759930203367
            ]
        }
    ]
}