{
    "goal": {
        "global_pose": {
            "orientation": {
                "w": 0.7031023502349854,
                "x": -0.7110244035720825,
                "y": 0.007748599164187908,
                "z": 0.005598929710686207
            },
            "position": {
                "x": 0.11585023208521307,
                "y": 0.44412534475326537,
                "z": 0.3711530566215515
            }
        },
        "name": "move_to_auspresseinheit"
    },
    "id": "BiTRRT_move_to_auspresseinheit_4",
    "joint_names": [
        "shoulder_pan_joint",
        "shoulder_lift_joint",
        "elbow_joint",
        "wrist_1_joint",
        "wrist_2_joint",
        "wrist_3_joint"
    ],
    "metrics": {
        "cart_traj_len": 0.6855198441704655,
        "distance_elbow_joint": 0.03129438167021892,
        "distance_shoulder_lift_joint": 0.5338809200400454,
        "distance_shoulder_pan_joint": 1.0462593031104621,
        "distance_wrist_1_joint": 0.5655305690295742,
        "distance_wrist_2_joint": 0.521273484642555,
        "distance_wrist_3_joint": 0.04135921104453155,
        "smoothness": 7.894919315216079e-16,
        "time": 0.042432829,
        "traj_len": 1.6551730633191766,
        "weighted_distance": 1.9771495505647971
    },
    "planner": "BiTRRT",
    "start": {
        "state": {
            "elbow_joint": 2.4225745326682886,
            "shoulder_lift_joint": -1.3736534990239282,
            "shoulder_pan_joint": -0.3378633610955803,
            "wrist_1_joint": -1.02885917317252,
            "wrist_2_joint": 1.233022905420004,
            "wrist_3_joint": -3.09402240754724
        }
    },
    "waypoints": [
        {
            "positions": [
                -0.3378633610955803,
                -1.3736534990239282,
                2.4225745326682886,
                -1.02885917317252,
                1.233022905420004,
                -3.09402240754724
            ]
        },
        {
            "positions": [
                -0.28311317223799054,
                -1.441964185432876,
                2.4149420419069596,
                -0.948086792424795,
                1.139322925000405,
                -3.0981347203222636
            ]
        },
        {
            "positions": [
                -0.2283629833804008,
                -1.510274871841824,
                2.40730955114563,
                -0.8673144116770699,
                1.0456229445808063,
                -3.102247033097287
            ]
        },
        {
            "positions": [
                -0.1736127945228111,
                -1.5785855582507717,
                2.3996770603843007,
                -0.7865420309293449,
                0.9519229641612073,
                -3.1063593458723107
            ]
        },
        {
            "positions": [
                -0.11886260566522133,
                -1.6468962446597195,
                2.3920445696229717,
                -0.7057696501816199,
                0.8582229837416084,
                -3.1104716586473344
            ]
        },
        {
            "positions": [
                0.08795203125480444,
                -1.712055788260783,
                2.3918534649667462,
                -0.6451593886719513,
                0.8216045930005685,
                -3.116699148633444
            ]
        },
        {
            "positions": [
                0.2947666681748302,
                -1.7772153318618464,
                2.3916623603105207,
                -0.5845491271622829,
                0.7849862022595286,
                -3.122926638619553
            ]
        },
        {
            "positions": [
                0.501581305094856,
                -1.8423748754629101,
                2.391471255654295,
                -0.5239388656526144,
                0.7483678115184889,
                -3.129154128605662
            ]
        },
        {
            "positions": [
                0.7083959420148818,
                -1.9075344190639736,
                2.3912801509980697,
                -0.46332860414294585,
                0.711749420777449,
                -3.1353816185917713
            ]
        }
    ]
}