{
    "goal": {
        "global_pose": {
            "orientation": {
                "w": 0.5084816217422485,
                "x": -0.49083608388900757,
                "y": 0.5182115435600281,
                "z": -0.4816462993621826
            },
            "position": {
                "x": 0.5540239810943604,
                "y": 0.030875300988554955,
                "z": 0.16403168439865112
            }
        },
        "name": "move_to_storage"
    },
    "id": "BiTRRT_move_to_storage_7",
    "joint_names": [
        "shoulder_pan_joint",
        "shoulder_lift_joint",
        "elbow_joint",
        "wrist_1_joint",
        "wrist_2_joint",
        "wrist_3_joint"
    ],
    "metrics": {
        "cart_traj_len": 0.35269575164265904,
        "distance_elbow_joint": 0.4513136494339043,
        "distance_shoulder_lift_joint": 0.23369463894727094,
        "distance_shoulder_pan_joint": 0.46012385108708376,
        "distance_wrist_1_joint": 0.25236704820052136,
        "distance_wrist_2_joint": 1.1022609263290803,
        "distance_wrist_3_joint": 0.10640306233907593,
        "smoothness": 4.440892098500626e-16,
        "time": 0.037018981,
        "traj_len": 1.6143615382983256,
        "weighted_distance": 2.042938392498582
    },
    "planner": "BiTRRT",
    "start": {
        "state": {
            "elbow_joint": 1.9715474092553085,
            "shoulder_lift_joint": -1.1394846673180945,
            "shoulder_pan_joint": 0.1228115366877952,
            "wrist_1_joint": -0.7804686583030105,
            "wrist_2_joint": 0.12958649594027716,
            "wrist_3_joint": -3.192492341365726
        }
    },
    "waypoints": [
        {
            "positions": [
                0.1228115366877952,
                -1.1394846673180945,
                1.9715474092553085,
                -0.7804686583030105,
                0.12958649594027716,
                -3.192492341365726
            ]
        },
        {
            "positions": [
                0.05707955796106895,
                -1.1728696157391332,
                2.036020787745866,
                -0.8165210937602279,
                0.2870523425587172,
                -3.1772919038887153
            ]
        },
        {
            "positions": [
                -0.008652420765657295,
                -1.2062545641601718,
                2.100494166236424,
                -0.8525735292174451,
                0.44451818917715724,
                -3.162091466411704
            ]
        },
        {
            "positions": [
                -0.07438439949238355,
                -1.2396395125812105,
                2.1649675447269816,
                -0.8886259646746625,
                0.6019840357955972,
                -3.1468910289346934
            ]
        },
        {
            "positions": [
                -0.14011637821910977,
                -1.2730244610022492,
                2.2294409232175396,
                -0.9246784001318799,
                0.7594498824140373,
                -3.1316905914576827
            ]
        },
        {
            "positions": [
                -0.20584835694583603,
                -1.306409409423288,
                2.293914301708097,
                -0.9607308355890971,
                0.9169157290324774,
                -3.116490153980672
            ]
        },
        {
            "positions": [
                -0.2715803356725623,
                -1.3397943578443268,
                2.358387680198655,
                -0.9967832710463145,
                1.0743815756509174,
                -3.101289716503661
            ]
        },
        {
            "positions": [
                -0.33731231439928855,
                -1.3731793062653654,
                2.4228610586892128,
                -1.0328357065035318,
                1.2318474222693576,
                -3.08608927902665
            ]
        }
    ]
}