{
    "goal": {
        "global_pose": {
            "orientation": {
                "w": 0.5084816217422485,
                "x": -0.49083608388900757,
                "y": 0.5182115435600281,
                "z": -0.4816462993621826
            },
            "position": {
                "x": 0.5540239810943604,
                "y": 0.030875300988554955,
                "z": 0.16403168439865112
            }
        },
        "name": "move_to_storage"
    },
    "id": "BiTRRT_move_to_storage_3",
    "joint_names": [
        "shoulder_pan_joint",
        "shoulder_lift_joint",
        "elbow_joint",
        "wrist_1_joint",
        "wrist_2_joint",
        "wrist_3_joint"
    ],
    "metrics": {
        "cart_traj_len": 0.35296142936306885,
        "distance_elbow_joint": 0.45053820027243274,
        "distance_shoulder_lift_joint": 0.23254314918239904,
        "distance_shoulder_pan_joint": 0.4622548288223101,
        "distance_wrist_1_joint": 0.24858567514454744,
        "distance_wrist_2_joint": 1.0946175898938622,
        "distance_wrist_3_joint": 0.10588485201118747,
        "smoothness": 4.440892133664971e-16,
        "time": 0.031117462,
        "traj_len": 1.6107216691057271,
        "weighted_distance": 2.037006937736719
    },
    "planner": "BiTRRT",
    "start": {
        "state": {
            "elbow_joint": 1.9715474092553085,
            "shoulder_lift_joint": -1.1394846673180945,
            "shoulder_pan_joint": 0.1228115366877952,
            "wrist_1_joint": -0.7804686583030105,
            "wrist_2_joint": 0.12958649594027716,
            "wrist_3_joint": -3.192492341365726
        }
    },
    "waypoints": [
        {
            "positions": [
                0.1228115366877952,
                -1.1394846673180945,
                1.9715474092553085,
                -0.7804686583030105,
                0.12958649594027716,
                -3.192492341365726
            ]
        },
        {
            "positions": [
                0.05677513257032232,
                -1.1727051172012943,
                2.0359100092942275,
                -0.8159808976093744,
                0.28596043735368604,
                -3.1773659339355564
            ]
        },
        {
            "positions": [
                -0.009261271547150549,
                -1.2059255670844942,
                2.1002726093331465,
                -0.8514931369157384,
                0.4423343787670949,
                -3.162239526505387
            ]
        },
        {
            "positions": [
                -0.0752976756646234,
                -1.239146016967694,
                2.1646352093720655,
                -0.8870053762221022,
                0.5987083201805038,
                -3.1471131190752173
            ]
        },
        {
            "positions": [
                -0.14133407978209628,
                -1.2723664668508938,
                2.228997809410984,
                -0.9225176155284661,
                0.7550822615939127,
                -3.1319867116450473
            ]
        },
        {
            "positions": [
                -0.2073704838995692,
                -1.3055869167340939,
                2.293360409449903,
                -0.95802985483483,
                0.9114562030073216,
                -3.1168603042148777
            ]
        },
        {
            "positions": [
                -0.273406888017042,
                -1.3388073666172937,
                2.357723009488822,
                -0.993542094141194,
                1.0678301444207303,
                -3.101733896784708
            ]
        },
        {
            "positions": [
                -0.3394432921345149,
                -1.3720278165004935,
                2.422085609527741,
                -1.029054333447558,
                1.2242040858341394,
                -3.0866074893545385
            ]
        }
    ]
}