{
    "goal": {
        "global_pose": {
            "orientation": {
                "w": 0.5084816217422485,
                "x": -0.49083608388900757,
                "y": 0.5182115435600281,
                "z": -0.4816462993621826
            },
            "position": {
                "x": 0.5540239810943604,
                "y": 0.030875300988554955,
                "z": 0.16403168439865112
            }
        },
        "name": "move_to_storage"
    },
    "id": "BiTRRT_move_to_storage_1",
    "joint_names": [
        "shoulder_pan_joint",
        "shoulder_lift_joint",
        "elbow_joint",
        "wrist_1_joint",
        "wrist_2_joint",
        "wrist_3_joint"
    ],
    "metrics": {
        "cart_traj_len": 0.35248001689542086,
        "distance_elbow_joint": 0.45422731055176246,
        "distance_shoulder_lift_joint": 0.23338060387938442,
        "distance_shoulder_pan_joint": 0.46173601834778355,
        "distance_wrist_1_joint": 0.26212240362938233,
        "distance_wrist_2_joint": 1.0941033484506169,
        "distance_wrist_3_joint": 0.10489054086028649,
        "smoothness": 2.2204460668324854e-16,
        "time": 0.027934187,
        "traj_len": 1.6156918721461764,
        "weighted_distance": 2.043640638546755
    },
    "planner": "BiTRRT",
    "start": {
        "state": {
            "elbow_joint": 1.9715474092553085,
            "shoulder_lift_joint": -1.1394846673180945,
            "shoulder_pan_joint": 0.1228115366877952,
            "wrist_1_joint": -0.7804686583030105,
            "wrist_2_joint": 0.12958649594027716,
            "wrist_3_joint": -3.192492341365726
        }
    },
    "waypoints": [
        {
            "positions": [
                0.1228115366877952,
                -1.1394846673180945,
                1.9715474092553085,
                -0.7804686583030105,
                0.12958649594027716,
                -3.192492341365726
            ]
        },
        {
            "positions": [
                0.05684924835239755,
                -1.172824753586578,
                2.0364370250484174,
                -0.8179147159643508,
                0.28588697429036525,
                -3.177507978385685
            ]
        },
        {
            "positions": [
                -0.009113039983000101,
                -1.2061648398550615,
                2.1013266408415263,
                -0.8553607736256912,
                0.4421874526404534,
                -3.162523615405644
            ]
        },
        {
            "positions": [
                -0.07507532831839774,
                -1.239504926123545,
                2.1662162566346352,
                -0.8928068312870314,
                0.5984879309905415,
                -3.147539252425603
            ]
        },
        {
            "positions": [
                -0.14103761665379538,
                -1.2728450123920285,
                2.231105872427744,
                -0.9302528889483718,
                0.7547884093406296,
                -3.1325548894455624
            ]
        },
        {
            "positions": [
                -0.20699990498919307,
                -1.306185098660512,
                2.295995488220853,
                -0.9676989466097121,
                0.9110888876907178,
                -3.1175705264655216
            ]
        },
        {
            "positions": [
                -0.27296219332459065,
                -1.3395251849289953,
                2.360885104013962,
                -1.0051450042710526,
                1.0673893660408058,
                -3.1025861634854803
            ]
        },
        {
            "positions": [
                -0.33892448165998834,
                -1.372865271197479,
                2.425774719807071,
                -1.0425910619323928,
                1.2236898443908941,
                -3.0876018005054395
            ]
        }
    ]
}