{
    "goal": {
        "global_pose": {
            "orientation": {
                "w": 0.7047431468963623,
                "x": -0.7094548344612122,
                "y": 0.0024358443915843964,
                "z": -0.0022348060738295317
            },
            "position": {
                "x": 0.6094750761985779,
                "y": 0.3671506643295288,
                "z": 0.19426114857196808
            }
        },
        "name": "move_to_magneteinheit_target"
    },
    "id": "BiTRRT_move_to_magneteinheit_target_2",
    "joint_names": [
        "shoulder_pan_joint",
        "shoulder_lift_joint",
        "elbow_joint",
        "wrist_1_joint",
        "wrist_2_joint",
        "wrist_3_joint"
    ],
    "metrics": {
        "cart_traj_len": 5.8903281379179555,
        "distance_elbow_joint": 4.473070337335731,
        "distance_shoulder_lift_joint": 0.24613165683742277,
        "distance_shoulder_pan_joint": 5.945787448180889,
        "distance_wrist_1_joint": 2.3405833411401598,
        "distance_wrist_2_joint": 6.364894935067883,
        "distance_wrist_3_joint": 7.640405658880228,
        "smoothness": 0.2795041487767475,
        "time": 0.13463591,
        "traj_len": 5.197198608620062,
        "weighted_distance": 7.141229794048837
    },
    "planner": "BiTRRT",
    "start": {
        "state": {
            "elbow_joint": -1.9196185737098679,
            "shoulder_lift_joint": -1.2443395971259867,
            "shoulder_pan_joint": 2.6996025301141957,
            "wrist_1_joint": -1.548550951469146,
            "wrist_2_joint": -1.5709469089955597,
            "wrist_3_joint": 0.4420197730596999
        }
    },
    "waypoints": [
        {
            "positions": [
                2.6996025301141957,
                -1.2443395971259867,
                -1.9196185737098679,
                -1.548550951469146,
                -1.5709469089955597,
                0.4420197730596999
            ]
        },
        {
            "positions": [
                2.590330081704624,
                -1.2396982530027219,
                -1.81260895326013,
                -1.567705944137709,
                -1.4676231601142022,
                0.49243982688291765
            ]
        },
        {
            "positions": [
                2.4810576332950522,
                -1.235056908879457,
                -1.705599332810392,
                -1.586860936806272,
                -1.3642994112328448,
                0.5428598807061353
            ]
        },
        {
            "positions": [
                2.3717851848854807,
                -1.230415564756192,
                -1.5985897123606543,
                -1.606015929474835,
                -1.2609756623514874,
                0.5932799345293531
            ]
        },
        {
            "positions": [
                2.2625127364759092,
                -1.2257742206329274,
                -1.4915800919109163,
                -1.625170922143398,
                -1.1576519134701302,
                0.6436999883525709
            ]
        },
        {
            "positions": [
                2.1532402880663373,
                -1.2211328765096625,
                -1.3845704714611786,
                -1.6443259148119609,
                -1.0543281645887728,
                0.6941200421757885
            ]
        },
        {
            "positions": [
                2.0439678396567658,
                -1.2164915323863976,
                -1.2775608510114407,
                -1.663480907480524,
                -0.9510044157074152,
                0.7445400959990063
            ]
        },
        {
            "positions": [
                1.9346953912471943,
                -1.2118501882631327,
                -1.1705512305617027,
                -1.682635900149087,
                -0.8476806668260578,
                0.7949601498222241
            ]
        },
        {
            "positions": [
                1.8254229428376225,
                -1.2072088441398678,
                -1.0635416101119648,
                -1.70179089281765,
                -0.7443569179447005,
                0.8453802036454419
            ]
        },
        {
            "positions": [
                1.7161504944280508,
                -1.202567500016603,
                -0.9565319896622269,
                -1.720945885486213,
                -0.641033169063343,
                0.8958002574686595
            ]
        },
        {
            "positions": [
                1.6068780460184793,
                -1.197926155893338,
                -0.8495223692124891,
                -1.740100878154776,
                -0.5377094201819856,
                0.9462203112918772
            ]
        },
        {
            "positions": [
                1.4976055976089075,
                -1.1932848117700732,
                -0.7425127487627512,
                -1.759255870823339,
                -0.4343856713006282,
                0.996640365115095
            ]
        },
        {
            "positions": [
                1.3883331491993358,
                -1.1886434676468085,
                -0.6355031283130133,
                -1.778410863491902,
                -0.3310619224192708,
                1.0470604189383128
            ]
        },
        {
            "positions": [
                1.2790607007897643,
                -1.1840021235235436,
                -0.5284935078632755,
                -1.797565856160465,
                -0.2277381735379136,
                1.0974804727615304
            ]
        },
        {
            "positions": [
                1.1697882523801926,
                -1.1793607794002787,
                -0.4214838874135376,
                -1.816720848829028,
                -0.12441442465655594,
                1.1479005265847482
            ]
        },
        {
            "positions": [
                1.0605158039706208,
                -1.1747194352770138,
                -0.31447426696379943,
                -1.8358758414975909,
                -0.02109067577519852,
                1.198320580407966
            ]
        },
        {
            "positions": [
                0.9512433555610493,
                -1.170078091153749,
                -0.2074646465140617,
                -1.8550308341661539,
                0.08223307310615868,
                1.2487406342311838
            ]
        },
        {
            "positions": [
                0.8419709071514776,
                -1.165436747030484,
                -0.10045502606432377,
                -1.874185826834717,
                0.1855568219875161,
                1.2991606880544013
            ]
        },
        {
            "positions": [
                0.7326984587419059,
                -1.1607954029072192,
                0.00655459438541417,
                -1.89334081950328,
                0.28888057086887375,
                1.3495807418776191
            ]
        },
        {
            "positions": [
                0.6234260103323344,
                -1.1561540587839543,
                0.11356421483515167,
                -1.912495812171843,
                0.39220431975023096,
                1.400000795700837
            ]
        },
        {
            "positions": [
                0.5141535619227628,
                -1.1515127146606896,
                0.2205738352848896,
                -1.931650804840406,
                0.4955280686315884,
                1.4504208495240545
            ]
        },
        {
            "positions": [
                0.40488111351319134,
                -1.1468713705374247,
                0.32758345573462755,
                -1.950805797508969,
                0.5988518175129458,
                1.5008409033472723
            ]
        },
        {
            "positions": [
                0.2956086651036194,
                -1.1422300264141598,
                0.4345930761843655,
                -1.969960790177532,
                0.7021755663943032,
                1.55126095717049
            ]
        },
        {
            "positions": [
                0.18633621669404787,
                -1.137588682290895,
                0.5416026966341034,
                -1.989115782846095,
                0.8054993152756607,
                1.6016810109937079
            ]
        },
        {
            "positions": [
                0.07706376828447592,
                -1.13294733816763,
                0.6486123170838414,
                -2.008270775514658,
                0.9088230641570181,
                1.6521010648169256
            ]
        },
        {
            "positions": [
                -0.03220868012509559,
                -1.1283059940443652,
                0.7556219375335793,
                -2.027425768183221,
                1.0121468130383755,
                1.7025211186401434
            ]
        },
        {
            "positions": [
                -0.1414811285346671,
                -1.1236646499211003,
                0.8626315579833168,
                -2.046580760851784,
                1.1154705619197325,
                1.752941172463361
            ]
        },
        {
            "positions": [
                -0.2507535769442386,
                -1.1190233057978354,
                0.9696411784330548,
                -2.0657357535203467,
                1.21879431080109,
                1.8033612262865788
            ]
        },
        {
            "positions": [
                -0.36002602535381056,
                -1.1143819616745707,
                1.0766507988827927,
                -2.08489074618891,
                1.3221180596824478,
                1.8537812801097966
            ]
        },
        {
            "positions": [
                -0.4692984737633821,
                -1.1097406175513058,
                1.1836604193325306,
                -2.104045738857473,
                1.4254418085638052,
                1.9042013339330144
            ]
        },
        {
            "positions": [
                -0.578570922172954,
                -1.105099273428041,
                1.290670039782269,
                -2.123200731526036,
                1.5287655574451626,
                1.9546213877562322
            ]
        },
        {
            "positions": [
                -0.6878433705825251,
                -1.100457929304776,
                1.3976796602320065,
                -2.1423557241945987,
                1.6320893063265196,
                2.0050414415794497
            ]
        },
        {
            "positions": [
                -0.797115818992097,
                -1.0958165851815111,
                1.5046892806817445,
                -2.161510716863162,
                1.735413055207877,
                2.0554614954026675
            ]
        },
        {
            "positions": [
                -0.9063882674016686,
                -1.0911752410582463,
                1.6116989011314824,
                -2.180665709531725,
                1.8387368040892345,
                2.105881549225885
            ]
        },
        {
            "positions": [
                -1.0156607158112405,
                -1.0865338969349814,
                1.7187085215812203,
                -2.199820702200288,
                1.9420605529705919,
                2.1563016030491027
            ]
        },
        {
            "positions": [
                -1.124933164220812,
                -1.0818925528117167,
                1.8257181420309583,
                -2.218975694868851,
                2.045384301851949,
                2.2067216568723205
            ]
        },
        {
            "positions": [
                -1.234205612630384,
                -1.0772512086884518,
                1.9327277624806962,
                -2.238130687537414,
                2.1487080507333074,
                2.2571417106955383
            ]
        },
        {
            "positions": [
                -1.3434780610399555,
                -1.072609864565187,
                2.0397373829304337,
                -2.257285680205977,
                2.252031799614664,
                2.307561764518756
            ]
        },
        {
            "positions": [
                -1.452750509449527,
                -1.067968520441922,
                2.146747003380171,
                -2.27644067287454,
                2.3553555484960214,
                2.357981818341974
            ]
        },
        {
            "positions": [
                -1.5620229578590985,
                -1.0633271763186571,
                2.2537566238299096,
                -2.295595665543103,
                2.4586792973773792,
                2.4084018721651916
            ]
        },
        {
            "positions": [
                -1.5058842258521783,
                -1.0654978175196603,
                2.243766785836711,
                -2.2424777113075627,
                2.3808370064208813,
                2.219267753506034
            ]
        },
        {
            "positions": [
                -1.4497454938452583,
                -1.0676684587206633,
                2.2337769478435128,
                -2.189359757072023,
                2.3029947154643833,
                2.030133634846876
            ]
        },
        {
            "positions": [
                -1.393606761838338,
                -1.0698390999216665,
                2.223787109850314,
                -2.1362418028364827,
                2.2251524245078853,
                1.8409995161877184
            ]
        },
        {
            "positions": [
                -1.3374680298314179,
                -1.0720097411226697,
                2.2137972718571155,
                -2.0831238486009425,
                2.1473101335513873,
                1.6518653975285607
            ]
        },
        {
            "positions": [
                -1.281329297824498,
                -1.0741803823236726,
                2.203807433863917,
                -2.0300058943654022,
                2.0694678425948894,
                1.462731278869403
            ]
        },
        {
            "positions": [
                -1.2251905658175777,
                -1.0763510235246758,
                2.1938175958707187,
                -1.9768879401298622,
                1.9916255516383914,
                1.273597160210245
            ]
        },
        {
            "positions": [
                -1.1690518338106575,
                -1.0785216647256788,
                2.18382775787752,
                -1.9237699858943222,
                1.9137832606818934,
                1.0844630415510872
            ]
        },
        {
            "positions": [
                -1.1129131018037375,
                -1.080692305926682,
                2.1738379198843214,
                -1.870652031658782,
                1.8359409697253954,
                0.8953289228919294
            ]
        },
        {
            "positions": [
                -1.0567743697968173,
                -1.0828629471276852,
                2.163848081891123,
                -1.817534077423242,
                1.7580986787688975,
                0.7061948042327717
            ]
        },
        {
            "positions": [
                -1.0006356377898973,
                -1.0850335883286881,
                2.1538582438979246,
                -1.764416123187702,
                1.6802563878123997,
                0.517060685573614
            ]
        },
        {
            "positions": [
                -0.9444969057829771,
                -1.0872042295296913,
                2.1438684059047257,
                -1.7112981689521618,
                1.6024140968559017,
                0.32792656691445643
            ]
        },
        {
            "positions": [
                -0.8883581737760569,
                -1.0893748707306945,
                2.1338785679115273,
                -1.6581802147166216,
                1.5245718058994036,
                0.13879244825529824
            ]
        },
        {
            "positions": [
                -0.8322194417691366,
                -1.0915455119316975,
                2.123888729918329,
                -1.6050622604810816,
                1.4467295149429058,
                -0.050341670403859506
            ]
        },
        {
            "positions": [
                -0.7760807097622165,
                -1.0937161531327007,
                2.1138988919251305,
                -1.5519443062455416,
                1.3688872239864078,
                -0.23947578906301725
            ]
        },
        {
            "positions": [
                -0.7199419777552964,
                -1.0958867943337038,
                2.1039090539319316,
                -1.4988263520100014,
                1.2910449330299099,
                -0.428609907722175
            ]
        },
        {
            "positions": [
                -0.6638032457483763,
                -1.0980574355347068,
                2.093919215938733,
                -1.4457083977744611,
                1.2132026420734119,
                -0.6177440263813327
            ]
        },
        {
            "positions": [
                -0.6076645137414562,
                -1.10022807673571,
                2.083929377945535,
                -1.3925904435389211,
                1.135360351116914,
                -0.8068781450404905
            ]
        },
        {
            "positions": [
                -0.551525781734536,
                -1.102398717936713,
                2.0739395399523364,
                -1.3394724893033811,
                1.057518060160416,
                -0.9960122636996482
            ]
        },
        {
            "positions": [
                -0.49538704972761605,
                -1.1045693591377161,
                2.063949701959138,
                -1.286354535067841,
                0.9796757692039182,
                -1.185146382358806
            ]
        },
        {
            "positions": [
                -0.43924831772069584,
                -1.1067400003387193,
                2.053959863965939,
                -1.233236580832301,
                0.9018334782474202,
                -1.3742805010179637
            ]
        },
        {
            "positions": [
                -0.3831095857137756,
                -1.1089106415397223,
                2.0439700259727407,
                -1.180118626596761,
                0.8239911872909222,
                -1.5634146196771215
            ]
        },
        {
            "positions": [
                -0.32697085370685564,
                -1.1110812827407255,
                2.0339801879795423,
                -1.1270006723612207,
                0.7461488963344243,
                -1.7525487383362788
            ]
        },
        {
            "positions": [
                -0.2708321216999352,
                -1.1132519239417287,
                2.023990349986344,
                -1.0738827181256805,
                0.6683066053779261,
                -1.9416828569954379
            ]
        },
        {
            "positions": [
                -0.2146933896930152,
                -1.1154225651427316,
                2.014000511993145,
                -1.0207647638901403,
                0.5904643144214281,
                -2.130816975654595
            ]
        },
        {
            "positions": [
                -0.158554657686095,
                -1.1175932063437348,
                2.0040106739999466,
                -0.9676468096546003,
                0.5126220234649301,
                -2.3199510943137533
            ]
        },
        {
            "positions": [
                -0.10241592567917479,
                -1.1197638475447378,
                1.9940208360067482,
                -0.9145288554190603,
                0.4347797325084324,
                -2.5090852129729107
            ]
        },
        {
            "positions": [
                -0.0462771936722548,
                -1.121934488745741,
                1.9840309980135495,
                -0.86141090118352,
                0.3569374415519344,
                -2.698219331632069
            ]
        },
        {
            "positions": [
                0.00986153833466541,
                -1.1241051299467442,
                1.9740411600203511,
                -0.80829294694798,
                0.27909515059543644,
                -2.887353450291226
            ]
        },
        {
            "positions": [
                0.0660002703415854,
                -1.1262757711477471,
                1.9640513220271525,
                -0.7551749927124398,
                0.20125285963893846,
                -3.0764875689503843
            ]
        },
        {
            "positions": [
                0.12213900234850553,
                -1.1284464123487503,
                1.954061484033954,
                -0.7020570384768999,
                0.12341056868244057,
                -3.265621687609541
            ]
        }
    ]
}