{
    "goal": {
        "global_pose": {
            "orientation": {
                "w": 0.7047431468963623,
                "x": -0.7094548344612122,
                "y": 0.0024358443915843964,
                "z": -0.0022348060738295317
            },
            "position": {
                "x": 0.6094750761985779,
                "y": 0.3671506643295288,
                "z": 0.19426114857196808
            }
        },
        "name": "move_to_magneteinheit_target"
    },
    "id": "BiTRRT_move_to_magneteinheit_target_7",
    "joint_names": [
        "shoulder_pan_joint",
        "shoulder_lift_joint",
        "elbow_joint",
        "wrist_1_joint",
        "wrist_2_joint",
        "wrist_3_joint"
    ],
    "metrics": {
        "cart_traj_len": 4.357678718989652,
        "distance_elbow_joint": 5.501190503906853,
        "distance_shoulder_lift_joint": 0.17360777634981073,
        "distance_shoulder_pan_joint": 4.266438769352676,
        "distance_wrist_1_joint": 2.3076220356590866,
        "distance_wrist_2_joint": 3.3712432693069965,
        "distance_wrist_3_joint": 3.4978125035649406,
        "smoothness": 0.6990783474898521,
        "time": 0.087578379,
        "traj_len": 4.372403784892283,
        "weighted_distance": 5.638475429602963
    },
    "planner": "BiTRRT",
    "start": {
        "state": {
            "elbow_joint": -1.9196185737098679,
            "shoulder_lift_joint": -1.2443395971259867,
            "shoulder_pan_joint": 2.6996025301141957,
            "wrist_1_joint": -1.548550951469146,
            "wrist_2_joint": -1.5709469089955597,
            "wrist_3_joint": 0.4420197730596999
        }
    },
    "waypoints": [
        {
            "positions": [
                2.6996025301141957,
                -1.2443395971259867,
                -1.9196185737098679,
                -1.548550951469146,
                -1.5709469089955597,
                0.4420197730596999
            ]
        },
        {
            "positions": [
                2.602972776951968,
                -1.244857170585496,
                -1.8129452926430802,
                -1.5114307273054641,
                -1.4905407304087352,
                0.5115464435145568
            ]
        },
        {
            "positions": [
                2.50634302378974,
                -1.2453747440450051,
                -1.7062720115762926,
                -1.4743105031417822,
                -1.4101345518219108,
                0.5810731139694136
            ]
        },
        {
            "positions": [
                2.4097132706275124,
                -1.2458923175045145,
                -1.5995987305095052,
                -1.4371902789781004,
                -1.3297283732350864,
                0.6505997844242705
            ]
        },
        {
            "positions": [
                2.3130835174652846,
                -1.2464098909640238,
                -1.4929254494427175,
                -1.4000700548144183,
                -1.249322194648262,
                0.7201264548791273
            ]
        },
        {
            "positions": [
                2.216453764303057,
                -1.246927464423533,
                -1.38625216837593,
                -1.3629498306507364,
                -1.1689160160614376,
                0.7896531253339841
            ]
        },
        {
            "positions": [
                2.119824011140829,
                -1.2474450378830422,
                -1.2795788873091425,
                -1.3258296064870545,
                -1.0885098374746132,
                0.859179795788841
            ]
        },
        {
            "positions": [
                2.0231942579786013,
                -1.2479626113425515,
                -1.1729056062423546,
                -1.2887093823233726,
                -1.0081036588877887,
                0.9287064662436978
            ]
        },
        {
            "positions": [
                1.9265645048163735,
                -1.2484801848020608,
                -1.0662323251755672,
                -1.2515891581596907,
                -0.9276974803009643,
                0.9982331366985546
            ]
        },
        {
            "positions": [
                1.8299347516541458,
                -1.2489977582615701,
                -0.9595590441087795,
                -1.2144689339960086,
                -0.8472913017141399,
                1.0677598071534116
            ]
        },
        {
            "positions": [
                1.733304998491918,
                -1.2495153317210792,
                -0.8528857630419919,
                -1.1773487098323268,
                -0.7668851231273155,
                1.1372864776082683
            ]
        },
        {
            "positions": [
                1.6366752453296902,
                -1.2500329051805885,
                -0.7462124819752043,
                -1.1402284856686449,
                -0.6864789445404911,
                1.2068131480631252
            ]
        },
        {
            "positions": [
                1.5400454921674624,
                -1.2505504786400978,
                -0.6395392009084169,
                -1.103108261504963,
                -0.6060727659536668,
                1.276339818517982
            ]
        },
        {
            "positions": [
                1.4434157390052347,
                -1.251068052099607,
                -0.532865919841629,
                -1.0659880373412811,
                -0.5256665873668422,
                1.345866488972839
            ]
        },
        {
            "positions": [
                1.346785985843007,
                -1.2515856255591162,
                -0.4261926387748416,
                -1.028867813177599,
                -0.4452604087800178,
                1.4153931594276956
            ]
        },
        {
            "positions": [
                1.2501562326807791,
                -1.2521031990186255,
                -0.31951935770805395,
                -0.9917475890139172,
                -0.3648542301931934,
                1.4849198298825526
            ]
        },
        {
            "positions": [
                1.1535264795185514,
                -1.2526207724781349,
                -0.2128460766412663,
                -0.9546273648502352,
                -0.284448051606369,
                1.5544465003374095
            ]
        },
        {
            "positions": [
                1.0568967263563236,
                -1.253138345937644,
                -0.10617279557447867,
                -0.9175071406865534,
                -0.20404187301954457,
                1.6239731707922662
            ]
        },
        {
            "positions": [
                0.9602669731940958,
                -1.2536559193971533,
                0.0005004854923089663,
                -0.8803869165228714,
                -0.12363569443272016,
                1.6934998412471232
            ]
        },
        {
            "positions": [
                0.863637220031868,
                -1.2541734928566626,
                0.1071737665590966,
                -0.8432666923591895,
                -0.04322951584589574,
                1.7630265117019799
            ]
        },
        {
            "positions": [
                0.7670074668696403,
                -1.2546910663161719,
                0.21384704762588402,
                -0.8061464681955076,
                0.03717666274092868,
                1.8325531821568368
            ]
        },
        {
            "positions": [
                0.6703777137074125,
                -1.255208639775681,
                0.3205203286926719,
                -0.7690262440318256,
                0.1175828413277531,
                1.9020798526116938
            ]
        },
        {
            "positions": [
                0.5737479605451845,
                -1.2557262132351903,
                0.4271936097594594,
                -0.7319060198681437,
                0.19798901991457757,
                1.9716065230665505
            ]
        },
        {
            "positions": [
                0.5017652281824653,
                -1.2568672925958722,
                0.5574246549258408,
                -0.77321421918492,
                0.15161199703285888,
                2.055810641900584
            ]
        },
        {
            "positions": [
                0.429782495819746,
                -1.258008371956554,
                0.6876557000922223,
                -0.8145224185016962,
                0.10523497415114018,
                2.140014760734617
            ]
        },
        {
            "positions": [
                0.3577997634570267,
                -1.2591494513172359,
                0.8178867452586037,
                -0.8558306178184725,
                0.058857951269421505,
                2.2242188795686504
            ]
        },
        {
            "positions": [
                0.28581703109430745,
                -1.2602905306779177,
                0.9481177904249851,
                -0.8971388171352487,
                0.012480928387702789,
                2.308422998402684
            ]
        },
        {
            "positions": [
                0.2138342987315881,
                -1.2614316100385996,
                1.0783488355913666,
                -0.9384470164520249,
                -0.0338960944940159,
                2.392627117236717
            ]
        },
        {
            "positions": [
                0.14185156636886886,
                -1.2625726893992815,
                1.208579880757748,
                -0.9797552157688011,
                -0.08027311737573456,
                2.4768312360707503
            ]
        },
        {
            "positions": [
                0.06986883400614963,
                -1.2637137687599633,
                1.3388109259241294,
                -1.0210634150855773,
                -0.1266501402574533,
                2.5610353549047837
            ]
        },
        {
            "positions": [
                -0.00211389835656961,
                -1.2648548481206452,
                1.469041971090511,
                -1.0623716144023536,
                -0.173027163139172,
                2.6452394737388167
            ]
        },
        {
            "positions": [
                -0.07409663071928896,
                -1.265995927481327,
                1.5992730162568924,
                -1.10367981371913,
                -0.21940418602089068,
                2.72944359257285
            ]
        },
        {
            "positions": [
                -0.1460793630820083,
                -1.267137006842009,
                1.729504061423274,
                -1.144988013035906,
                -0.26578120890260937,
                2.8136477114068836
            ]
        },
        {
            "positions": [
                -0.21806209544472754,
                -1.2682780862026908,
                1.8597351065896555,
                -1.1862962123526823,
                -0.31215823178432806,
                2.897851830240917
            ]
        },
        {
            "positions": [
                -0.2900448278074468,
                -1.2694191655633726,
                1.9899661517560365,
                -1.2276044116694584,
                -0.3585352546660467,
                2.98205594907495
            ]
        },
        {
            "positions": [
                -0.362027560170166,
                -1.2705602449240545,
                2.120197196922418,
                -1.2689126109862348,
                -0.40491227754776543,
                3.066260067908983
            ]
        },
        {
            "positions": [
                -0.43401029253288526,
                -1.2717013242847364,
                2.2504282420887995,
                -1.310220810303011,
                -0.4512893004294842,
                3.150464186743017
            ]
        },
        {
            "positions": [
                -0.5059930248956046,
                -1.2728424036454182,
                2.380659287255181,
                -1.3515290096197874,
                -0.4976663233112029,
                3.23466830557705
            ]
        },
        {
            "positions": [
                -0.5779757572583237,
                -1.2739834830061,
                2.510890332421562,
                -1.3928372089365633,
                -0.5440433461929215,
                3.318872424411083
            ]
        },
        {
            "positions": [
                -0.6499584896210431,
                -1.275124562366782,
                2.6411213775879436,
                -1.4341454082533396,
                -0.5904203690746401,
                3.4030765432451164
            ]
        },
        {
            "positions": [
                -0.7219412219837623,
                -1.2762656417274638,
                2.771352422754325,
                -1.475453607570116,
                -0.636797391956359,
                3.48728066207915
            ]
        },
        {
            "positions": [
                -0.6374517202582903,
                -1.2620974685526305,
                2.690330472010059,
                -1.4007106559345046,
                -0.560045299103767,
                3.442025500624601
            ]
        },
        {
            "positions": [
                -0.5529622185328185,
                -1.2479292953777972,
                2.6093085212657927,
                -1.3259677042988935,
                -0.48329320625117494,
                3.3967703391700517
            ]
        },
        {
            "positions": [
                -0.46847271680734653,
                -1.2337611222029636,
                2.5282865705215265,
                -1.2512247526632825,
                -0.40654111339858295,
                3.351515177715503
            ]
        },
        {
            "positions": [
                -0.3839832150818746,
                -1.2195929490281303,
                2.4472646197772603,
                -1.1764818010276712,
                -0.3297890205459909,
                3.3062600162609534
            ]
        },
        {
            "positions": [
                -0.2994937133564027,
                -1.205424775853297,
                2.366242669032994,
                -1.10173884939206,
                -0.2530369276933989,
                3.2610048548064046
            ]
        },
        {
            "positions": [
                -0.21500421163093075,
                -1.1912566026784637,
                2.285220718288728,
                -1.0269958977564488,
                -0.17628483484080693,
                3.2157496933518557
            ]
        },
        {
            "positions": [
                -0.13051470990545888,
                -1.1770884295036304,
                2.2041987675444616,
                -0.9522529461208377,
                -0.09953274198821493,
                3.1704945318973063
            ]
        },
        {
            "positions": [
                -0.0460252081799869,
                -1.1629202563287968,
                2.1231768168001954,
                -0.8775099944852265,
                -0.022780649135622832,
                3.1252393704427575
            ]
        },
        {
            "positions": [
                0.038464293545485084,
                -1.1487520831539635,
                2.042154866055929,
                -0.8027670428496153,
                0.05397144371696916,
                3.079984208988208
            ]
        },
        {
            "positions": [
                0.122953795270957,
                -1.1345839099791302,
                1.9611329153116628,
                -0.7280240912140041,
                0.13072353656956112,
                3.0347290475336592
            ]
        }
    ]
}