{
    "goal": {
        "global_pose": {
            "orientation": {
                "w": 0.5084816217422485,
                "x": -0.49083608388900757,
                "y": 0.5182115435600281,
                "z": -0.4816462993621826
            },
            "position": {
                "x": 0.5540239810943604,
                "y": 0.030875300988554955,
                "z": 0.16403168439865112
            }
        },
        "name": "move_to_storage"
    },
    "id": "BiTRRT_move_to_storage_8",
    "joint_names": [
        "shoulder_pan_joint",
        "shoulder_lift_joint",
        "elbow_joint",
        "wrist_1_joint",
        "wrist_2_joint",
        "wrist_3_joint"
    ],
    "metrics": {
        "cart_traj_len": 0.3537714593380665,
        "distance_elbow_joint": 0.4520014318720813,
        "distance_shoulder_lift_joint": 0.23441433886178786,
        "distance_shoulder_pan_joint": 0.46267166314461877,
        "distance_wrist_1_joint": 0.2537032277767024,
        "distance_wrist_2_joint": 1.0998162228727484,
        "distance_wrist_3_joint": 0.10626346571466883,
        "smoothness": 8.881784197001252e-16,
        "time": 0.019517885999999998,
        "traj_len": 1.6151997864792478,
        "weighted_distance": 2.043261298101982
    },
    "planner": "BiTRRT",
    "start": {
        "state": {
            "elbow_joint": 1.9715474092553085,
            "shoulder_lift_joint": -1.1394846673180945,
            "shoulder_pan_joint": 0.1228115366877952,
            "wrist_1_joint": -0.7804686583030105,
            "wrist_2_joint": 0.12958649594027716,
            "wrist_3_joint": -3.192492341365726
        }
    },
    "waypoints": [
        {
            "positions": [
                0.1228115366877952,
                -1.1394846673180945,
                1.9715474092553085,
                -0.7804686583030105,
                0.12958649594027716,
                -3.192492341365726
            ]
        },
        {
            "positions": [
                0.05671558480999252,
                -1.1729724300126356,
                2.0361190423798914,
                -0.8167119765568251,
                0.2867030992078127,
                -3.1773118462636303
            ]
        },
        {
            "positions": [
                -0.00938036706781016,
                -1.2064601927071767,
                2.1006906755044747,
                -0.8529552948106397,
                0.44381970247534813,
                -3.162131351161535
            ]
        },
        {
            "positions": [
                -0.07547631894561284,
                -1.2399479554017179,
                2.1652623086290577,
                -0.8891986130644544,
                0.6009363057428836,
                -3.1469508560594392
            ]
        },
        {
            "positions": [
                -0.1415722708234155,
                -1.273435718096259,
                2.2298339417536406,
                -0.925441931318269,
                0.7580529090104191,
                -3.131770360957344
            ]
        },
        {
            "positions": [
                -0.2076682227012182,
                -1.3069234807908001,
                2.2944055748782235,
                -0.9616852495720836,
                0.9151695122779546,
                -3.116589865855248
            ]
        },
        {
            "positions": [
                -0.27376417457902086,
                -1.3404112434853412,
                2.358977208002807,
                -0.9979285678258982,
                1.0722861155454901,
                -3.101409370753153
            ]
        },
        {
            "positions": [
                -0.33986012645682356,
                -1.3738990061798824,
                2.4235488411273898,
                -1.0341718860797129,
                1.2294027188130254,
                -3.086228875651057
            ]
        }
    ]
}