{
    "goal": {
        "global_pose": {
            "orientation": {
                "w": 0.5084816217422485,
                "x": -0.49083608388900757,
                "y": 0.5182115435600281,
                "z": -0.4816462993621826
            },
            "position": {
                "x": 0.5540239810943604,
                "y": 0.030875300988554955,
                "z": 0.16403168439865112
            }
        },
        "name": "move_to_storage"
    },
    "id": "BiTRRT_move_to_storage_5",
    "joint_names": [
        "shoulder_pan_joint",
        "shoulder_lift_joint",
        "elbow_joint",
        "wrist_1_joint",
        "wrist_2_joint",
        "wrist_3_joint"
    ],
    "metrics": {
        "cart_traj_len": 0.35336473137351887,
        "distance_elbow_joint": 0.4510213065170272,
        "distance_shoulder_lift_joint": 0.23208170095991232,
        "distance_shoulder_pan_joint": 0.4581688064146854,
        "distance_wrist_1_joint": 0.25464740148983833,
        "distance_wrist_2_joint": 1.1147869788070515,
        "distance_wrist_3_joint": 0.10019993154492912,
        "smoothness": 2.2204460668324854e-16,
        "time": 0.035565035999999994,
        "traj_len": 1.6158298566784326,
        "weighted_distance": 2.044685885196108
    },
    "planner": "BiTRRT",
    "start": {
        "state": {
            "elbow_joint": 1.9715474092553085,
            "shoulder_lift_joint": -1.1394846673180945,
            "shoulder_pan_joint": 0.1228115366877952,
            "wrist_1_joint": -0.7804686583030105,
            "wrist_2_joint": 0.12958649594027716,
            "wrist_3_joint": -3.192492341365726
        }
    },
    "waypoints": [
        {
            "positions": [
                0.1228115366877952,
                -1.1394846673180945,
                1.9715474092553085,
                -0.7804686583030105,
                0.12958649594027716,
                -3.192492341365726
            ]
        },
        {
            "positions": [
                0.05735885005712586,
                -1.1726391960266533,
                2.035979024472027,
                -0.8168468585158445,
                0.2888417786269988,
                -3.1781780654307363
            ]
        },
        {
            "positions": [
                -0.00809383657354347,
                -1.2057937247352124,
                2.1004106396887448,
                -0.8532250587286786,
                0.4480970613137204,
                -3.163863789495746
            ]
        },
        {
            "positions": [
                -0.0735465232042128,
                -1.2389482534437712,
                2.164842254905463,
                -0.8896032589415126,
                0.607352344000442,
                -3.1495495135607565
            ]
        },
        {
            "positions": [
                -0.13899920983488212,
                -1.27210278215233,
                2.229273870122181,
                -0.9259814591543467,
                0.7666076266871636,
                -3.1352352376257664
            ]
        },
        {
            "positions": [
                -0.2044518964655515,
                -1.3052573108608891,
                2.2937054853388994,
                -0.9623596593671807,
                0.9258629093738854,
                -3.1209209616907767
            ]
        },
        {
            "positions": [
                -0.2699045830962208,
                -1.338411839569448,
                2.3581371005556173,
                -0.9987378595800147,
                1.085118192060607,
                -3.1066066857557866
            ]
        },
        {
            "positions": [
                -0.3353572697268902,
                -1.3715663682780068,
                2.4225687157723357,
                -1.0351160597928488,
                1.2443734747473285,
                -3.092292409820797
            ]
        }
    ]
}