{
    "goal": {
        "global_pose": {
            "orientation": {
                "w": 0.5084816217422485,
                "x": -0.49083608388900757,
                "y": 0.5182115435600281,
                "z": -0.4816462993621826
            },
            "position": {
                "x": 0.5540239810943604,
                "y": 0.030875300988554955,
                "z": 0.16403168439865112
            }
        },
        "name": "move_to_storage"
    },
    "id": "BiTRRT_move_to_storage_2",
    "joint_names": [
        "shoulder_pan_joint",
        "shoulder_lift_joint",
        "elbow_joint",
        "wrist_1_joint",
        "wrist_2_joint",
        "wrist_3_joint"
    ],
    "metrics": {
        "cart_traj_len": 0.35336017255818997,
        "distance_elbow_joint": 0.44905077021249795,
        "distance_shoulder_lift_joint": 0.23578119495772576,
        "distance_shoulder_pan_joint": 0.46385307647754986,
        "distance_wrist_1_joint": 0.236599276498775,
        "distance_wrist_2_joint": 1.0922456160493041,
        "distance_wrist_3_joint": 0.08842415586190677,
        "smoothness": 1.2212453226199226e-15,
        "time": 0.034780168,
        "traj_len": 1.601859572514944,
        "weighted_distance": 2.017832325623131
    },
    "planner": "BiTRRT",
    "start": {
        "state": {
            "elbow_joint": 1.9715474092553085,
            "shoulder_lift_joint": -1.1394846673180945,
            "shoulder_pan_joint": 0.1228115366877952,
            "wrist_1_joint": -0.7804686583030105,
            "wrist_2_joint": 0.12958649594027716,
            "wrist_3_joint": -3.192492341365726
        }
    },
    "waypoints": [
        {
            "positions": [
                0.1228115366877952,
                -1.1394846673180945,
                1.9715474092553085,
                -0.7804686583030105,
                0.12958649594027716,
                -3.192492341365726
            ]
        },
        {
            "positions": [
                0.05654681147671664,
                -1.1731676951691983,
                2.0356975192856654,
                -0.8142685549456926,
                0.2856215839473206,
                -3.179860319099739
            ]
        },
        {
            "positions": [
                -0.009717913734361913,
                -1.2068507230203018,
                2.099847629316022,
                -0.8480684515883747,
                0.44165667195436403,
                -3.167228296833753
            ]
        },
        {
            "positions": [
                -0.07598263894544045,
                -1.2405337508714056,
                2.163997739346379,
                -0.8818683482310569,
                0.5976917599614076,
                -3.154596274567766
            ]
        },
        {
            "positions": [
                -0.142247364156519,
                -1.2742167787225092,
                2.228147849376736,
                -0.915668244873739,
                0.7537268479684509,
                -3.1419642523017792
            ]
        },
        {
            "positions": [
                -0.20851208936759758,
                -1.307899806573613,
                2.292297959407093,
                -0.9494681415164212,
                0.9097619359754944,
                -3.1293322300357924
            ]
        },
        {
            "positions": [
                -0.2747768145786761,
                -1.3415828344247165,
                2.3564480694374494,
                -0.9832680381591034,
                1.0657970239825378,
                -3.116700207769806
            ]
        },
        {
            "positions": [
                -0.34104153978975466,
                -1.3752658622758203,
                2.4205981794678064,
                -1.0170679348017855,
                1.2218321119895814,
                -3.1040681855038192
            ]
        }
    ]
}