{
    "goal": {
        "global_pose": {
            "orientation": {
                "w": 0.7047431468963623,
                "x": -0.7094548344612122,
                "y": 0.0024358443915843964,
                "z": -0.0022348060738295317
            },
            "position": {
                "x": 0.6094750761985779,
                "y": 0.3671506643295288,
                "z": 0.19426114857196808
            }
        },
        "name": "move_to_magneteinheit_target"
    },
    "id": "BKPIECE_move_to_magneteinheit_target_9",
    "joint_names": [
        "shoulder_pan_joint",
        "shoulder_lift_joint",
        "elbow_joint",
        "wrist_1_joint",
        "wrist_2_joint",
        "wrist_3_joint"
    ],
    "metrics": {
        "cart_traj_len": 3.251109449182063,
        "distance_elbow_joint": 4.49479160932829,
        "distance_shoulder_lift_joint": 1.983059051323419,
        "distance_shoulder_pan_joint": 4.828627721142013,
        "distance_wrist_1_joint": 1.0164164813135783,
        "distance_wrist_2_joint": 1.704818238617575,
        "distance_wrist_3_joint": 2.6024522840470103,
        "smoothness": 0.32036672156429963,
        "time": 0.708580996,
        "traj_len": 4.078009978625835,
        "weighted_distance": 4.955431835248776
    },
    "planner": "BKPIECE",
    "start": {
        "state": {
            "elbow_joint": -1.9196185737098679,
            "shoulder_lift_joint": -1.2443395971259867,
            "shoulder_pan_joint": 2.6996025301141957,
            "wrist_1_joint": -1.548550951469146,
            "wrist_2_joint": -1.5709469089955597,
            "wrist_3_joint": 0.4420197730596999
        }
    },
    "waypoints": [
        {
            "positions": [
                2.6996025301141957,
                -1.2443395971259867,
                -1.9196185737098679,
                -1.548550951469146,
                -1.5709469089955597,
                0.4420197730596999
            ]
        },
        {
            "positions": [
                2.5801788093929185,
                -1.2745588192622193,
                -1.7844993901071087,
                -1.5191062633929489,
                -1.568398833924918,
                0.5119525247648611
            ]
        },
        {
            "positions": [
                2.460755088671641,
                -1.3047780413984518,
                -1.6493802065043495,
                -1.489661575316752,
                -1.5658507588542763,
                0.5818852764700222
            ]
        },
        {
            "positions": [
                2.341331367950364,
                -1.3349972635346843,
                -1.5142610229015903,
                -1.4602168872405548,
                -1.5633026837836346,
                0.6518180281751833
            ]
        },
        {
            "positions": [
                2.2219076472290866,
                -1.3652164856709168,
                -1.379141839298831,
                -1.4307721991643578,
                -1.5607546087129929,
                0.7217507798803444
            ]
        },
        {
            "positions": [
                2.102483926507809,
                -1.3954357078071493,
                -1.2440226556960718,
                -1.401327511088161,
                -1.5582065336423512,
                0.7916835315855055
            ]
        },
        {
            "positions": [
                1.9830602057865319,
                -1.4256549299433818,
                -1.1089034720933126,
                -1.3718828230119637,
                -1.5556584585717095,
                0.8616162832906666
            ]
        },
        {
            "positions": [
                1.8636364850652545,
                -1.4558741520796143,
                -0.9737842884905532,
                -1.3424381349357666,
                -1.5531103835010678,
                0.9315490349958278
            ]
        },
        {
            "positions": [
                1.744212764343977,
                -1.486093374215847,
                -0.838665104887794,
                -1.3129934468595696,
                -1.550562308430426,
                1.0014817867009889
            ]
        },
        {
            "positions": [
                1.6247890436226997,
                -1.5163125963520796,
                -0.7035459212850346,
                -1.2835487587833725,
                -1.5480142333597844,
                1.0714145384061502
            ]
        },
        {
            "positions": [
                1.5053653229014226,
                -1.5465318184883121,
                -0.5684267376822756,
                -1.2541040707071756,
                -1.5454661582891427,
                1.1413472901113113
            ]
        },
        {
            "positions": [
                1.3859416021801452,
                -1.5767510406245446,
                -0.43330755407951616,
                -1.2246593826309784,
                -1.542918083218501,
                1.2112800418164724
            ]
        },
        {
            "positions": [
                1.266517881458868,
                -1.6069702627607771,
                -0.29818837047675717,
                -1.1952146945547815,
                -1.5403700081478593,
                1.2812127935216335
            ]
        },
        {
            "positions": [
                1.1470941607375906,
                -1.6371894848970097,
                -0.16306918687399774,
                -1.1657700064785843,
                -1.5378219330772176,
                1.3511455452267946
            ]
        },
        {
            "positions": [
                1.0276704400163132,
                -1.6674087070332422,
                -0.027950003271238533,
                -1.1363253184023874,
                -1.535273858006576,
                1.4210782969319558
            ]
        },
        {
            "positions": [
                0.9082467192950359,
                -1.6976279291694747,
                0.10716918033152067,
                -1.1068806303261902,
                -1.5327257829359342,
                1.491011048637117
            ]
        },
        {
            "positions": [
                0.7888229985737587,
                -1.7278471513057072,
                0.24228836393427988,
                -1.0774359422499933,
                -1.5301777078652927,
                1.560943800342278
            ]
        },
        {
            "positions": [
                0.6693992778524813,
                -1.7580663734419397,
                0.3774075475370391,
                -1.0479912541737963,
                -1.527629632794651,
                1.630876552047439
            ]
        },
        {
            "positions": [
                0.5499755571312037,
                -1.7882855955781722,
                0.5125267311397987,
                -1.0185465660975992,
                -1.5250815577240093,
                1.7008093037526004
            ]
        },
        {
            "positions": [
                0.43055183640992656,
                -1.818504817714405,
                0.6476459147425575,
                -0.989101878021402,
                -1.5225334826533676,
                1.7707420554577615
            ]
        },
        {
            "positions": [
                0.3111281156886494,
                -1.8487240398506373,
                0.7827650983453167,
                -0.9596571899452051,
                -1.519985407582726,
                1.8406748071629226
            ]
        },
        {
            "positions": [
                0.19170439496737224,
                -1.8789432619868698,
                0.9178842819480759,
                -0.9302125018690081,
                -1.5174373325120842,
                1.9106075588680838
            ]
        },
        {
            "positions": [
                0.07228067424609463,
                -1.9091624841231023,
                1.0530034655508356,
                -0.9007678137928109,
                -1.5148892574414425,
                1.9805403105732449
            ]
        },
        {
            "positions": [
                -0.047143046475182526,
                -1.939381706259335,
                1.1881226491535948,
                -0.8713231257166139,
                -1.5123411823708008,
                2.0504730622784058
            ]
        },
        {
            "positions": [
                -0.1665667671964597,
                -1.9696009283955673,
                1.3232418327563535,
                -0.8418784376404168,
                -1.5097931073001591,
                2.120405813983567
            ]
        },
        {
            "positions": [
                -0.28599048791773685,
                -1.9998201505318,
                1.4583610163591127,
                -0.8124337495642199,
                -1.5072450322295174,
                2.190338565688728
            ]
        },
        {
            "positions": [
                -0.40541420863901445,
                -2.030039372668033,
                1.5934801999618724,
                -0.7829890614880227,
                -1.5046969571588757,
                2.2602713173938893
            ]
        },
        {
            "positions": [
                -0.524837929360292,
                -2.060258594804265,
                1.7285993835646316,
                -0.7535443734118257,
                -1.502148882088234,
                2.3302040690990506
            ]
        },
        {
            "positions": [
                -0.6442616500815692,
                -2.0904778169404974,
                1.8637185671673908,
                -0.7240996853356286,
                -1.4996008070175924,
                2.4001368208042115
            ]
        },
        {
            "positions": [
                -0.7636853708028464,
                -2.12069703907673,
                1.9988377507701496,
                -0.6946549972594317,
                -1.4970527319469507,
                2.470069572509373
            ]
        },
        {
            "positions": [
                -0.883109091524124,
                -2.150916261212963,
                2.1339569343729092,
                -0.6652103091832345,
                -1.494504656876309,
                2.540002324214534
            ]
        },
        {
            "positions": [
                -1.0025328122454011,
                -2.181135483349195,
                2.2690761179756684,
                -0.6357656211070375,
                -1.4919565818056673,
                2.609935075919695
            ]
        },
        {
            "positions": [
                -0.9086584473468666,
                -2.093946886257511,
                2.243568041505439,
                -0.6444015503529933,
                -1.356470922520027,
                2.646146491018613
            ]
        },
        {
            "positions": [
                -0.8147840824483321,
                -2.006758289165827,
                2.2180599650352097,
                -0.6530374795989491,
                -1.220985263234387,
                2.682357906117531
            ]
        },
        {
            "positions": [
                -0.7209097175497975,
                -1.9195696920741425,
                2.19255188856498,
                -0.661673408844905,
                -1.0854996039487466,
                2.718569321216449
            ]
        },
        {
            "positions": [
                -0.627035352651263,
                -1.8323810949824584,
                2.1670438120947506,
                -0.6703093380908608,
                -0.9500139446631064,
                2.7547807363153667
            ]
        },
        {
            "positions": [
                -0.5331609877527284,
                -1.745192497890774,
                2.141535735624521,
                -0.6789452673368166,
                -0.814528285377466,
                2.790992151414285
            ]
        },
        {
            "positions": [
                -0.43928662285419384,
                -1.6580039007990899,
                2.116027659154292,
                -0.6875811965827724,
                -0.6790426260918259,
                2.8272035665132025
            ]
        },
        {
            "positions": [
                -0.3454122579556592,
                -1.5708153037074055,
                2.0905195826840623,
                -0.6962171258287282,
                -0.5435569668061856,
                2.8634149816121206
            ]
        },
        {
            "positions": [
                -0.2515378930571248,
                -1.4836267066157216,
                2.065011506213833,
                -0.704853055074684,
                -0.40807130752054555,
                2.8996263967110387
            ]
        },
        {
            "positions": [
                -0.1576635281585902,
                -1.3964381095240372,
                2.0395034297436037,
                -0.7134889843206398,
                -0.27258564823490516,
                2.9358378118099564
            ]
        },
        {
            "positions": [
                -0.06378916326005557,
                -1.3092495124323529,
                2.013995353273374,
                -0.7221249135665957,
                -0.13709998894926478,
                2.9720492269088745
            ]
        },
        {
            "positions": [
                0.030085201638478942,
                -1.222060915340669,
                1.9884872768031445,
                -0.7307608428125515,
                -0.0016143296636248472,
                3.008260642007792
            ]
        },
        {
            "positions": [
                0.1239595665370134,
                -1.1348723182489846,
                1.9629792003329152,
                -0.7393967720585073,
                0.13387132962201545,
                3.0444720571067103
            ]
        }
    ]
}