{
    "goal": {
        "global_pose": {
            "orientation": {
                "w": 0.7047431468963623,
                "x": -0.7094548344612122,
                "y": 0.0024358443915843964,
                "z": -0.0022348060738295317
            },
            "position": {
                "x": 0.6094750761985779,
                "y": 0.3671506643295288,
                "z": 0.19426114857196808
            }
        },
        "name": "move_to_magneteinheit_target"
    },
    "id": "BKPIECE_move_to_magneteinheit_target_6",
    "joint_names": [
        "shoulder_pan_joint",
        "shoulder_lift_joint",
        "elbow_joint",
        "wrist_1_joint",
        "wrist_2_joint",
        "wrist_3_joint"
    ],
    "metrics": {
        "cart_traj_len": 3.3614129938728157,
        "distance_elbow_joint": 3.903240870842366,
        "distance_shoulder_lift_joint": 0.1502858761789707,
        "distance_shoulder_pan_joint": 2.784944731982787,
        "distance_wrist_1_joint": 1.253974280472217,
        "distance_wrist_2_joint": 1.696624714636938,
        "distance_wrist_3_joint": 3.578526843942512,
        "smoothness": 0.08370208798118729,
        "time": 0.161006772,
        "traj_len": 3.6561724956648027,
        "weighted_distance": 4.84512641744774
    },
    "planner": "BKPIECE",
    "start": {
        "state": {
            "elbow_joint": -1.9196185737098679,
            "shoulder_lift_joint": -1.2443395971259867,
            "shoulder_pan_joint": 2.6996025301141957,
            "wrist_1_joint": -1.548550951469146,
            "wrist_2_joint": -1.5709469089955597,
            "wrist_3_joint": 0.4420197730596999
        }
    },
    "waypoints": [
        {
            "positions": [
                2.6996025301141957,
                -1.2443395971259867,
                -1.9196185737098679,
                -1.548550951469146,
                -1.5709469089955597,
                0.4420197730596999
            ]
        },
        {
            "positions": [
                2.561221318910947,
                -1.2413213974755928,
                -1.8605624062640111,
                -1.4907624939162027,
                -1.5108369067244485,
                0.3830353775736191
            ]
        },
        {
            "positions": [
                2.422840107707699,
                -1.2383031978251988,
                -1.8015062388181544,
                -1.4329740363632597,
                -1.4507269044533375,
                0.3240509820875383
            ]
        },
        {
            "positions": [
                2.2844588965044506,
                -1.235284998174805,
                -1.7424500713722977,
                -1.3751855788103164,
                -1.3906169021822263,
                0.26506658660145743
            ]
        },
        {
            "positions": [
                2.1460776853012025,
                -1.2322667985244111,
                -1.683393903926441,
                -1.3173971212573732,
                -1.3305068999111154,
                0.20608219111537665
            ]
        },
        {
            "positions": [
                2.007696474097954,
                -1.2292485988740172,
                -1.624337736480584,
                -1.2596086637044301,
                -1.2703968976400042,
                0.1470977956292958
            ]
        },
        {
            "positions": [
                1.8693152628947054,
                -1.2262303992236232,
                -1.5652815690347273,
                -1.2018202061514869,
                -1.2102868953688932,
                0.088113400143215
            ]
        },
        {
            "positions": [
                1.7309340516914573,
                -1.2232121995732292,
                -1.5062254015888705,
                -1.1440317485985436,
                -1.150176893097782,
                0.02912900465713425
            ]
        },
        {
            "positions": [
                1.592552840488209,
                -1.2201939999228353,
                -1.4471692341430138,
                -1.0862432910456006,
                -1.090066890826671,
                -0.029855390828946615
            ]
        },
        {
            "positions": [
                1.4541716292849605,
                -1.2171758002724415,
                -1.388113066697157,
                -1.0284548334926573,
                -1.02995688855556,
                -0.08883978631502748
            ]
        },
        {
            "positions": [
                1.3157904180817122,
                -1.2141576006220476,
                -1.3290568992513,
                -0.9706663759397142,
                -0.9698468862844488,
                -0.1478241818011083
            ]
        },
        {
            "positions": [
                1.1774092068784638,
                -1.2111394009716536,
                -1.2700007318054434,
                -0.9128779183867709,
                -0.9097368840133377,
                -0.2068085772871891
            ]
        },
        {
            "positions": [
                1.0390279956752153,
                -1.2081212013212597,
                -1.2109445643595866,
                -0.8550894608338278,
                -0.8496268817422267,
                -0.2657929727732699
            ]
        },
        {
            "positions": [
                0.9006467844719672,
                -1.2051030016708657,
                -1.15188839691373,
                -0.7973010032808847,
                -0.7895168794711157,
                -0.3247773682593506
            ]
        },
        {
            "positions": [
                0.7622655732687189,
                -1.2020848020204717,
                -1.0928322294678732,
                -0.7395125457279415,
                -0.7294068772000046,
                -0.3837617637454314
            ]
        },
        {
            "positions": [
                0.6238843620654704,
                -1.199066602370078,
                -1.0337760620220164,
                -0.6817240881749983,
                -0.6692968749288934,
                -0.44274615923151234
            ]
        },
        {
            "positions": [
                0.4855031508622223,
                -1.196048402719684,
                -0.9747198945761597,
                -0.623935630622055,
                -0.6091868726577824,
                -0.5017305547175932
            ]
        },
        {
            "positions": [
                0.3471219396589736,
                -1.19303020306929,
                -0.915663727130303,
                -0.5661471730691119,
                -0.5490768703866712,
                -0.560714950203674
            ]
        },
        {
            "positions": [
                0.32657538831174304,
                -1.1884288633807236,
                -0.7542711370936126,
                -0.577135883795767,
                -0.5087340988316648,
                -0.7080529904509298
            ]
        },
        {
            "positions": [
                0.3060288369645125,
                -1.183827523692157,
                -0.5928785470569221,
                -0.5881245945224222,
                -0.4683913272766583,
                -0.8553910306981856
            ]
        },
        {
            "positions": [
                0.28548228561728195,
                -1.1792261840035905,
                -0.4314859570202317,
                -0.5991133052490774,
                -0.4280485557216518,
                -1.0027290709454413
            ]
        },
        {
            "positions": [
                0.2649357342700514,
                -1.174624844315024,
                -0.27009336698354125,
                -0.6101020159757324,
                -0.38770578416664536,
                -1.1500671111926972
            ]
        },
        {
            "positions": [
                0.24438918292282086,
                -1.1700235046264573,
                -0.10870077694685087,
                -0.6210907267023875,
                -0.3473630126116389,
                -1.297405151439953
            ]
        },
        {
            "positions": [
                0.2238426315755903,
                -1.1654221649378909,
                0.05269181308983961,
                -0.6320794374290427,
                -0.3070202410566324,
                -1.4447431916872087
            ]
        },
        {
            "positions": [
                0.20329608022835977,
                -1.1608208252493244,
                0.2140844031265301,
                -0.6430681481556979,
                -0.26667746950162596,
                -1.5920812319344644
            ]
        },
        {
            "positions": [
                0.18274952888112922,
                -1.156219485560758,
                0.3754769931632205,
                -0.654056858882353,
                -0.22633469794661948,
                -1.73941927218172
            ]
        },
        {
            "positions": [
                0.16220297753389867,
                -1.1516181458721912,
                0.5368695831999108,
                -0.6650455696090081,
                -0.185991926391613,
                -1.8867573124289758
            ]
        },
        {
            "positions": [
                0.14165642618666813,
                -1.1470168061836248,
                0.6982621732366012,
                -0.6760342803356633,
                -0.14564915483660656,
                -2.0340953526762315
            ]
        },
        {
            "positions": [
                0.12110987483943758,
                -1.1424154664950583,
                0.8596547632732918,
                -0.6870229910623185,
                -0.10530638328160008,
                -2.1814333929234877
            ]
        },
        {
            "positions": [
                0.10056332349220704,
                -1.1378141268064916,
                1.0210473533099822,
                -0.6980117017889735,
                -0.0649636117265936,
                -2.3287714331707434
            ]
        },
        {
            "positions": [
                0.08001677214497649,
                -1.1332127871179252,
                1.1824399433466728,
                -0.7090004125156286,
                -0.024620840171587166,
                -2.476109473417999
            ]
        },
        {
            "positions": [
                0.05947022079774594,
                -1.1286114474293587,
                1.3438325333833632,
                -0.7199891232422838,
                0.015721931383419263,
                -2.623447513665255
            ]
        },
        {
            "positions": [
                0.0389236694505154,
                -1.124010107740792,
                1.5052251234200535,
                -0.730977833968939,
                0.0560647029384258,
                -2.7707855539125106
            ]
        },
        {
            "positions": [
                0.018377118103284865,
                -1.1194087680522256,
                1.6666177134567437,
                -0.7419665446955941,
                0.0964074744934322,
                -2.9181235941597663
            ]
        },
        {
            "positions": [
                0.07023677808922366,
                -1.1320862916048302,
                1.8251200052946213,
                -0.7898421099184447,
                0.11104264006740565,
                -3.0273153325212894
            ]
        },
        {
            "positions": [
                0.12209643807516243,
                -1.144763815157435,
                1.9836222971324986,
                -0.8377176751412952,
                0.1256778056413791,
                -3.1365070708828124
            ]
        }
    ]
}