{
    "goal": {
        "global_pose": {
            "orientation": {
                "w": 0.5084816217422485,
                "x": -0.49083608388900757,
                "y": 0.5182115435600281,
                "z": -0.4816462993621826
            },
            "position": {
                "x": 0.5540239810943604,
                "y": 0.030875300988554955,
                "z": 0.16403168439865112
            }
        },
        "name": "move_to_storage"
    },
    "id": "BKPIECE_move_to_storage_7",
    "joint_names": [
        "shoulder_pan_joint",
        "shoulder_lift_joint",
        "elbow_joint",
        "wrist_1_joint",
        "wrist_2_joint",
        "wrist_3_joint"
    ],
    "metrics": {
        "cart_traj_len": 0.3531608780479418,
        "distance_elbow_joint": 0.4482739736394379,
        "distance_shoulder_lift_joint": 0.23257331649445323,
        "distance_shoulder_pan_joint": 0.4617961771963077,
        "distance_wrist_1_joint": 0.2377189478696753,
        "distance_wrist_2_joint": 1.0980158564092557,
        "distance_wrist_3_joint": 0.0962633678089233,
        "smoothness": 4.440892098500626e-16,
        "time": 0.387552479,
        "traj_len": 1.6045689886751686,
        "weighted_distance": 2.0255624353040393
    },
    "planner": "BKPIECE",
    "start": {
        "state": {
            "elbow_joint": 1.9715474092553085,
            "shoulder_lift_joint": -1.1394846673180945,
            "shoulder_pan_joint": 0.1228115366877952,
            "wrist_1_joint": -0.7804686583030105,
            "wrist_2_joint": 0.12958649594027716,
            "wrist_3_joint": -3.192492341365726
        }
    },
    "waypoints": [
        {
            "positions": [
                0.1228115366877952,
                -1.1394846673180945,
                1.9715474092553085,
                -0.7804686583030105,
                0.12958649594027716,
                -3.192492341365726
            ]
        },
        {
            "positions": [
                0.056840654231179816,
                -1.1727094268173022,
                2.035586548346657,
                -0.8144285079986784,
                0.28644590399874226,
                -3.178740431678737
            ]
        },
        {
            "positions": [
                -0.009130228225435563,
                -1.2059341863165096,
                2.099625687438005,
                -0.8483883576943463,
                0.44330531205720736,
                -3.1649885219917477
            ]
        },
        {
            "positions": [
                -0.07510111068205096,
                -1.2391589458157173,
                2.163664826529353,
                -0.8823482073900142,
                0.6001647201156725,
                -3.151236612304759
            ]
        },
        {
            "positions": [
                -0.1410719931386663,
                -1.272383705314925,
                2.2277039656207016,
                -0.9163080570856821,
                0.7570241281741376,
                -3.13748470261777
            ]
        },
        {
            "positions": [
                -0.20704287559528173,
                -1.3056084648141326,
                2.29174310471205,
                -0.95026790678135,
                0.9138835362326027,
                -3.123732792930781
            ]
        },
        {
            "positions": [
                -0.2730137580518971,
                -1.33883322431334,
                2.355782243803398,
                -0.9842277564770179,
                1.0707429442910676,
                -3.1099808832437916
            ]
        },
        {
            "positions": [
                -0.3389846405085125,
                -1.3720579838125477,
                2.4198213828947464,
                -1.0181876061726858,
                1.227602352349533,
                -3.0962289735568027
            ]
        }
    ]
}