{
    "goal": {
        "global_pose": {
            "orientation": {
                "w": 0.7031023502349854,
                "x": -0.7110244035720825,
                "y": 0.007748599164187908,
                "z": 0.005598929710686207
            },
            "position": {
                "x": 0.11585023208521307,
                "y": 0.44412534475326537,
                "z": 0.3711530566215515
            }
        },
        "name": "move_to_auspresseinheit"
    },
    "id": "BKPIECE_move_to_auspresseinheit_2",
    "joint_names": [
        "shoulder_pan_joint",
        "shoulder_lift_joint",
        "elbow_joint",
        "wrist_1_joint",
        "wrist_2_joint",
        "wrist_3_joint"
    ],
    "metrics": {
        "cart_traj_len": 1.2820858670389483,
        "distance_elbow_joint": 1.1407627252252337,
        "distance_shoulder_lift_joint": 0.7292838175347327,
        "distance_shoulder_pan_joint": 1.0416411789417837,
        "distance_wrist_1_joint": 1.8583184917900804,
        "distance_wrist_2_joint": 1.0512132607392068,
        "distance_wrist_3_joint": 2.2218738892603644,
        "smoothness": 0.5744618692671751,
        "time": 0.426653678,
        "traj_len": 2.83603479588869,
        "weighted_distance": 3.9238212108277075
    },
    "planner": "BKPIECE",
    "start": {
        "state": {
            "elbow_joint": 2.4225745326682886,
            "shoulder_lift_joint": -1.3736534990239282,
            "shoulder_pan_joint": -0.3378633610955803,
            "wrist_1_joint": -1.02885917317252,
            "wrist_2_joint": 1.233022905420004,
            "wrist_3_joint": -3.09402240754724
        }
    },
    "waypoints": [
        {
            "positions": [
                -0.3378633610955803,
                -1.3736534990239282,
                2.4225745326682886,
                -1.02885917317252,
                1.233022905420004,
                -3.09402240754724
            ]
        },
        {
            "positions": [
                -0.3314388103802021,
                -1.3829487948463766,
                2.356505239247631,
                -0.9345934610486245,
                1.1741243069959453,
                -2.9582046745337243
            ]
        },
        {
            "positions": [
                -0.325014259664824,
                -1.3922440906688252,
                2.2904359458269736,
                -0.840327748924729,
                1.1152257085718866,
                -2.822386941520209
            ]
        },
        {
            "positions": [
                -0.3185897089494458,
                -1.4015393864912735,
                2.2243666524063164,
                -0.7460620368008335,
                1.056327110147828,
                -2.6865692085066937
            ]
        },
        {
            "positions": [
                -0.31216515823406765,
                -1.4108346823137219,
                2.1582973589856587,
                -0.6517963246769378,
                0.9974285117237695,
                -2.550751475493178
            ]
        },
        {
            "positions": [
                -0.30574060751868953,
                -1.4201299781361705,
                2.092228065565001,
                -0.5575306125530424,
                0.9385299132997108,
                -2.4149337424796626
            ]
        },
        {
            "positions": [
                -0.29931605680331136,
                -1.4294252739586188,
                2.0261587721443437,
                -0.4632649004291468,
                0.8796313148756523,
                -2.279116009466147
            ]
        },
        {
            "positions": [
                -0.29289150608793324,
                -1.4387205697810674,
                1.9600894787236862,
                -0.36899918830525125,
                0.8207327164515936,
                -2.143298276452632
            ]
        },
        {
            "positions": [
                -0.28646695537255507,
                -1.4480158656035158,
                1.8940201853030287,
                -0.2747334761813557,
                0.761834118027535,
                -2.0074805434391165
            ]
        },
        {
            "positions": [
                -0.1804301393146915,
                -1.5247734665081034,
                1.928516997337745,
                -0.20771041404265164,
                0.7085494981441425,
                -2.008278308015493
            ]
        },
        {
            "positions": [
                -0.07439332325682796,
                -1.6015310674126912,
                1.9630138093724614,
                -0.1406873519039476,
                0.6552648782607499,
                -2.009076072591869
            ]
        },
        {
            "positions": [
                0.03164349280103562,
                -1.678288668317279,
                1.9975106214071776,
                -0.07366428976524353,
                0.6019802583773574,
                -2.009873837168245
            ]
        },
        {
            "positions": [
                0.13768030885889915,
                -1.7550462692218667,
                2.032007433441894,
                -0.006641227626539514,
                0.5486956384939649,
                -2.0106716017446216
            ]
        },
        {
            "positions": [
                0.24371712491676278,
                -1.8318038701264543,
                2.0665042454766103,
                0.06038183451216461,
                0.49541101861057224,
                -2.0114693663209975
            ]
        },
        {
            "positions": [
                0.34975394097462637,
                -1.9085614710310421,
                2.1010010575113265,
                0.12740489665086865,
                0.44212639872717974,
                -2.012267130897374
            ]
        },
        {
            "positions": [
                0.4173648225792824,
                -1.95697166645938,
                2.1836462613738905,
                0.08233513735251272,
                0.4452067263006297,
                -2.144598077723037
            ]
        },
        {
            "positions": [
                0.4849757041839384,
                -2.0053818618877175,
                2.2662914652364545,
                0.037265378054156764,
                0.44828705387407963,
                -2.2769290245487
            ]
        },
        {
            "positions": [
                0.5482030093841166,
                -1.9950420579583363,
                2.327001952961901,
                0.0568734573096138,
                0.4678861202333367,
                -2.436171493123027
            ]
        },
        {
            "positions": [
                0.6114303145842948,
                -1.984702254028955,
                2.3877124406873476,
                0.07648153656507084,
                0.4874851865925938,
                -2.595413961697355
            ]
        },
        {
            "positions": [
                0.6746576197844729,
                -1.9743624500995738,
                2.448422928412794,
                0.09608961582052788,
                0.5070842529518509,
                -2.754656430271682
            ]
        },
        {
            "positions": [
                0.6819376692999055,
                -1.9577284393788739,
                2.433971519725242,
                -0.04218305058037425,
                0.5559239779072788,
                -2.851695464851601
            ]
        },
        {
            "positions": [
                0.6892177188153382,
                -1.941094428658174,
                2.4195201110376896,
                -0.18045571698127638,
                0.6047637028627066,
                -2.94873449943152
            ]
        },
        {
            "positions": [
                0.6964977683307709,
                -1.924460417937474,
                2.4050687023501376,
                -0.3187283833821785,
                0.6536034278181345,
                -3.0457735340114387
            ]
        },
        {
            "positions": [
                0.7037778178462035,
                -1.907826407216774,
                2.3906172936625856,
                -0.4570010497830807,
                0.7024431527735624,
                -3.1428125685913577
            ]
        }
    ]
}