{
    "goal": {
        "global_pose": {
            "orientation": {
                "w": 0.5084816217422485,
                "x": -0.49083608388900757,
                "y": 0.5182115435600281,
                "z": -0.4816462993621826
            },
            "position": {
                "x": 0.5540239810943604,
                "y": 0.030875300988554955,
                "z": 0.16403168439865112
            }
        },
        "name": "move_to_storage"
    },
    "id": "EST_move_to_storage_10",
    "joint_names": [
        "shoulder_pan_joint",
        "shoulder_lift_joint",
        "elbow_joint",
        "wrist_1_joint",
        "wrist_2_joint",
        "wrist_3_joint"
    ],
    "metrics": {
        "cart_traj_len": 0.35333412654067836,
        "distance_elbow_joint": 0.44829991505753997,
        "distance_shoulder_lift_joint": 0.23595968291766312,
        "distance_shoulder_pan_joint": 0.46388707732305545,
        "distance_wrist_1_joint": 0.23669451637944428,
        "distance_wrist_2_joint": 1.0915448204014173,
        "distance_wrist_3_joint": 0.09965995544420503,
        "smoothness": 4.440892098500626e-16,
        "time": 0.049488423000000004,
        "traj_len": 1.605006531925439,
        "weighted_distance": 2.025735721952051
    },
    "planner": "EST",
    "start": {
        "state": {
            "elbow_joint": 1.9715474092553085,
            "shoulder_lift_joint": -1.1394846673180945,
            "shoulder_pan_joint": 0.1228115366877952,
            "wrist_1_joint": -0.7804686583030105,
            "wrist_2_joint": 0.12958649594027716,
            "wrist_3_joint": -3.192492341365726
        }
    },
    "waypoints": [
        {
            "positions": [
                0.1228115366877952,
                -1.1394846673180945,
                1.9715474092553085,
                -0.7804686583030105,
                0.12958649594027716,
                -3.192492341365726
            ]
        },
        {
            "positions": [
                0.056541954213072995,
                -1.1731931934491893,
                2.0355902542635285,
                -0.8142821606429311,
                0.28552147028333674,
                -3.1782552048736967
            ]
        },
        {
            "positions": [
                -0.009727628261649204,
                -1.206901719580284,
                2.0996330992717485,
                -0.8480956629828517,
                0.4414564446263964,
                -3.1640180683816674
            ]
        },
        {
            "positions": [
                -0.0759972107363714,
                -1.2406102457113788,
                2.1636759442799685,
                -0.8819091653227723,
                0.597391418969456,
                -3.149780931889638
            ]
        },
        {
            "positions": [
                -0.1422667932110936,
                -1.2743187718424733,
                2.2277187892881885,
                -0.915722667662693,
                0.7533263933125156,
                -3.135543795397609
            ]
        },
        {
            "positions": [
                -0.20853637568581584,
                -1.308027297973568,
                2.2917616342964084,
                -0.9495361700026135,
                0.9092613676555753,
                -3.1213066589055796
            ]
        },
        {
            "positions": [
                -0.274805958160538,
                -1.3417358241046629,
                2.3558044793046284,
                -0.9833496723425341,
                1.0651963419986348,
                -3.1070695224135503
            ]
        },
        {
            "positions": [
                -0.34107554063526024,
                -1.3754443502357576,
                2.4198473243128484,
                -1.0171631746824548,
                1.2211313163416946,
                -3.092832385921521
            ]
        }
    ]
}