{
    "goal": {
        "global_pose": {
            "orientation": {
                "w": 0.7031023502349854,
                "x": -0.7110244035720825,
                "y": 0.007748599164187908,
                "z": 0.005598929710686207
            },
            "position": {
                "x": 0.11585023208521307,
                "y": 0.44412534475326537,
                "z": 0.3711530566215515
            }
        },
        "name": "move_to_auspresseinheit"
    },
    "id": "EST_move_to_auspresseinheit_2",
    "joint_names": [
        "shoulder_pan_joint",
        "shoulder_lift_joint",
        "elbow_joint",
        "wrist_1_joint",
        "wrist_2_joint",
        "wrist_3_joint"
    ],
    "metrics": {
        "cart_traj_len": 0.7410119623465132,
        "distance_elbow_joint": 0.4413925067966069,
        "distance_shoulder_lift_joint": 0.5335783913963086,
        "distance_shoulder_pan_joint": 1.0435551005593764,
        "distance_wrist_1_joint": 1.3772527696771082,
        "distance_wrist_2_joint": 0.9323501622140202,
        "distance_wrist_3_joint": 1.352789923390333,
        "smoothness": 1.127834795816796,
        "time": 0.597321863,
        "traj_len": 2.3834678210611013,
        "weighted_distance": 3.270489509646155
    },
    "planner": "EST",
    "start": {
        "state": {
            "elbow_joint": 2.4225745326682886,
            "shoulder_lift_joint": -1.3736534990239282,
            "shoulder_pan_joint": -0.3378633610955803,
            "wrist_1_joint": -1.02885917317252,
            "wrist_2_joint": 1.233022905420004,
            "wrist_3_joint": -3.09402240754724
        }
    },
    "waypoints": [
        {
            "positions": [
                -0.3378633610955803,
                -1.3736534990239282,
                2.4225745326682886,
                -1.02885917317252,
                1.233022905420004,
                -3.09402240754724
            ]
        },
        {
            "positions": [
                -0.2792011515139049,
                -1.4162078812980996,
                2.399080899248574,
                -0.9318790332805972,
                1.160118099785577,
                -3.028099788642248
            ]
        },
        {
            "positions": [
                -0.2205389419322295,
                -1.458762263572271,
                2.3755872658288593,
                -0.8348988933886743,
                1.0872132941511499,
                -2.9621771697372563
            ]
        },
        {
            "positions": [
                -0.16187673235055414,
                -1.5013166458464424,
                2.352093632409144,
                -0.7379187534967515,
                1.0143084885167226,
                -2.8962545508322646
            ]
        },
        {
            "positions": [
                -0.10321452276887874,
                -1.5438710281206138,
                2.3285999989894295,
                -0.6409386136048286,
                0.9414036828822956,
                -2.830331931927273
            ]
        },
        {
            "positions": [
                -0.044552313187203374,
                -1.586425410394785,
                2.305106365569715,
                -0.5439584737129057,
                0.8684988772478686,
                -2.764409313022281
            ]
        },
        {
            "positions": [
                0.014109896394472021,
                -1.6289797926689564,
                2.28161273215,
                -0.44697833382098295,
                0.7955940716134415,
                -2.6984866941172894
            ]
        },
        {
            "positions": [
                0.07277210597614736,
                -1.6715341749431278,
                2.2581190987302855,
                -0.34999819392906006,
                0.7226892659790144,
                -2.6325640752122976
            ]
        },
        {
            "positions": [
                0.1314343155578228,
                -1.7140885572172992,
                2.2346254653105704,
                -0.2530180540371372,
                0.6497844603445874,
                -2.566641456307306
            ]
        },
        {
            "positions": [
                0.1900965251394982,
                -1.7566429394914707,
                2.2111318318908557,
                -0.1560379141452144,
                0.5768796547101602,
                -2.500718837402314
            ]
        },
        {
            "positions": [
                0.2487587347211735,
                -1.799197321765642,
                2.187638198471141,
                -0.059057774253291534,
                0.5039748490757332,
                -2.4347962184973224
            ]
        },
        {
            "positions": [
                0.3249142355116106,
                -1.8172030832080746,
                2.222047560571051,
                -0.12696633604627144,
                0.5378585333873581,
                -2.550390174220725
            ]
        },
        {
            "positions": [
                0.4010697363020477,
                -1.835208844650507,
                2.256456922670961,
                -0.19487489783925135,
                0.571742217698983,
                -2.665984129944128
            ]
        },
        {
            "positions": [
                0.47722523709248477,
                -1.8532146060929393,
                2.2908662847708707,
                -0.26278345963223126,
                0.605625902010608,
                -2.7815780856675305
            ]
        },
        {
            "positions": [
                0.5533807378829219,
                -1.8712203675353718,
                2.3252756468707805,
                -0.33069202142521115,
                0.6395095863222329,
                -2.8971720413909328
            ]
        },
        {
            "positions": [
                0.629536238673359,
                -1.8892261289778043,
                2.3596850089706907,
                -0.39860058321819114,
                0.6733932706338578,
                -3.0127659971143355
            ]
        },
        {
            "positions": [
                0.705691739463796,
                -1.9072318904202368,
                2.3940943710706004,
                -0.4665091450111711,
                0.7072769549454827,
                -3.128359952837738
            ]
        }
    ]
}