{
    "goal": {
        "global_pose": {
            "orientation": {
                "w": 0.5084816217422485,
                "x": -0.49083608388900757,
                "y": 0.5182115435600281,
                "z": -0.4816462993621826
            },
            "position": {
                "x": 0.5540239810943604,
                "y": 0.030875300988554955,
                "z": 0.16403168439865112
            }
        },
        "name": "move_to_storage"
    },
    "id": "EST_move_to_storage_7",
    "joint_names": [
        "shoulder_pan_joint",
        "shoulder_lift_joint",
        "elbow_joint",
        "wrist_1_joint",
        "wrist_2_joint",
        "wrist_3_joint"
    ],
    "metrics": {
        "cart_traj_len": 0.3528361784835431,
        "distance_elbow_joint": 0.45314667112594265,
        "distance_shoulder_lift_joint": 0.23581757587427732,
        "distance_shoulder_pan_joint": 0.4625243688103864,
        "distance_wrist_1_joint": 0.25575489034347143,
        "distance_wrist_2_joint": 1.0942806983077737,
        "distance_wrist_3_joint": 0.09442217610098513,
        "smoothness": 2.2204460668324854e-16,
        "time": 0.054757754,
        "traj_len": 1.61119408531773,
        "weighted_distance": 2.0334272353384204
    },
    "planner": "EST",
    "start": {
        "state": {
            "elbow_joint": 1.9715474092553085,
            "shoulder_lift_joint": -1.1394846673180945,
            "shoulder_pan_joint": 0.1228115366877952,
            "wrist_1_joint": -0.7804686583030105,
            "wrist_2_joint": 0.12958649594027716,
            "wrist_3_joint": -3.192492341365726
        }
    },
    "waypoints": [
        {
            "positions": [
                0.1228115366877952,
                -1.1394846673180945,
                1.9715474092553085,
                -0.7804686583030105,
                0.12958649594027716,
                -3.192492341365726
            ]
        },
        {
            "positions": [
                0.05673662685774,
                -1.1731728924429912,
                2.036282647987586,
                -0.8170050712092207,
                0.28591230998424483,
                -3.1790034590655853
            ]
        },
        {
            "positions": [
                -0.00933828297231519,
                -1.206861117567888,
                2.1010178867198634,
                -0.8535414841154308,
                0.4422381240282125,
                -3.1655145767654447
            ]
        },
        {
            "positions": [
                -0.0754131928023704,
                -1.2405493426927847,
                2.165753125452141,
                -0.8900778970216411,
                0.5985639380721801,
                -3.152025694465304
            ]
        },
        {
            "positions": [
                -0.14148810263242556,
                -1.2742375678176816,
                2.2304883641844184,
                -0.9266143099278513,
                0.7548897521161478,
                -3.138536812165163
            ]
        },
        {
            "positions": [
                -0.20756301246248077,
                -1.3079257929425783,
                2.295223602916696,
                -0.9631507228340614,
                0.9112155661601156,
                -3.1250479298650222
            ]
        },
        {
            "positions": [
                -0.273637922292536,
                -1.341614018067475,
                2.3599588416489734,
                -0.9996871357402717,
                1.0675413802040832,
                -3.1115590475648816
            ]
        },
        {
            "positions": [
                -0.3397128321225912,
                -1.3753022431923718,
                2.424694080381251,
                -1.036223548646482,
                1.223867194248051,
                -3.098070165264741
            ]
        }
    ]
}