{
    "goal": {
        "global_pose": {
            "orientation": {
                "w": 0.7031023502349854,
                "x": -0.7110244035720825,
                "y": 0.007748599164187908,
                "z": 0.005598929710686207
            },
            "position": {
                "x": 0.11585023208521307,
                "y": 0.44412534475326537,
                "z": 0.3711530566215515
            }
        },
        "name": "move_to_auspresseinheit"
    },
    "id": "EST_move_to_auspresseinheit_5",
    "joint_names": [
        "shoulder_pan_joint",
        "shoulder_lift_joint",
        "elbow_joint",
        "wrist_1_joint",
        "wrist_2_joint",
        "wrist_3_joint"
    ],
    "metrics": {
        "cart_traj_len": 6.672269927815022,
        "distance_elbow_joint": 2.2377208272990554,
        "distance_shoulder_lift_joint": 4.139947848974613,
        "distance_shoulder_pan_joint": 9.730367667960417,
        "distance_wrist_1_joint": 2.434867903934687,
        "distance_wrist_2_joint": 2.0790655874159443,
        "distance_wrist_3_joint": 12.043025287688845,
        "smoothness": 0.4280422797586442,
        "time": 0.39969682900000003,
        "traj_len": 5.7153298350378305,
        "weighted_distance": 7.827194848092256
    },
    "planner": "EST",
    "start": {
        "state": {
            "elbow_joint": 2.4225745326682886,
            "shoulder_lift_joint": -1.3736534990239282,
            "shoulder_pan_joint": -0.3378633610955803,
            "wrist_1_joint": -1.02885917317252,
            "wrist_2_joint": 1.233022905420004,
            "wrist_3_joint": -3.09402240754724
        }
    },
    "waypoints": [
        {
            "positions": [
                -0.3378633610955803,
                -1.3736534990239282,
                2.4225745326682886,
                -1.02885917317252,
                1.233022905420004,
                -3.09402240754724
            ]
        },
        {
            "positions": [
                -0.4218911810850078,
                -1.3373421373472756,
                2.3881748820335615,
                -0.9986697732041857,
                1.2564419617230556,
                -2.9122360107930523
            ]
        },
        {
            "positions": [
                -0.5059190010744353,
                -1.3010307756706232,
                2.353775231398835,
                -0.9684803732358513,
                1.2798610180261074,
                -2.7304496140388648
            ]
        },
        {
            "positions": [
                -0.5899468210638628,
                -1.2647194139939706,
                2.319375580764108,
                -0.938290973267517,
                1.303280074329159,
                -2.548663217284677
            ]
        },
        {
            "positions": [
                -0.6739746410532903,
                -1.228408052317318,
                2.2849759301293813,
                -0.9081015732991826,
                1.326699130632211,
                -2.3668768205304893
            ]
        },
        {
            "positions": [
                -0.7580024610427178,
                -1.1920966906406656,
                2.250576279494654,
                -0.8779121733308484,
                1.3501181869352625,
                -2.185090423776302
            ]
        },
        {
            "positions": [
                -0.8420302810321454,
                -1.155785328964013,
                2.2161766288599276,
                -0.8477227733625139,
                1.3735372432383144,
                -2.0033040270221143
            ]
        },
        {
            "positions": [
                -0.9260581010215727,
                -1.1194739672873604,
                2.1817769782252006,
                -0.8175333733941796,
                1.396956299541366,
                -1.8215176302679266
            ]
        },
        {
            "positions": [
                -1.0100859210110003,
                -1.083162605610708,
                2.147377327590474,
                -0.7873439734258453,
                1.4203753558444177,
                -1.639731233513739
            ]
        },
        {
            "positions": [
                -1.0941137410004278,
                -1.0468512439340554,
                2.112977676955747,
                -0.7571545734575109,
                1.4437944121474695,
                -1.4579448367595516
            ]
        },
        {
            "positions": [
                -1.1781415609898553,
                -1.0105398822574028,
                2.0785780263210203,
                -0.7269651734891766,
                1.4672134684505211,
                -1.2761584400053638
            ]
        },
        {
            "positions": [
                -1.2621693809792827,
                -0.9742285205807504,
                2.0441783756862932,
                -0.6967757735208422,
                1.4906325247535728,
                -1.0943720432511763
            ]
        },
        {
            "positions": [
                -1.3461972009687104,
                -0.9379171589040978,
                2.009778725051566,
                -0.6665863735525078,
                1.5140515810566246,
                -0.9125856464969888
            ]
        },
        {
            "positions": [
                -1.4302250209581377,
                -0.9016057972274453,
                1.9753790744168396,
                -0.6363969735841735,
                1.5374706373596765,
                -0.7307992497428013
            ]
        },
        {
            "positions": [
                -1.5142528409475653,
                -0.8652944355507927,
                1.9409794237821127,
                -0.6062075736158391,
                1.5608896936627281,
                -0.5490128529886134
            ]
        },
        {
            "positions": [
                -1.5982806609369928,
                -0.8289830738741402,
                1.906579773147386,
                -0.5760181736475047,
                1.5843087499657798,
                -0.36722645623442585
            ]
        },
        {
            "positions": [
                -1.6823084809264204,
                -0.7926717121974877,
                1.8721801225126589,
                -0.5458287736791705,
                1.6077278062688316,
                -0.18544005948023834
            ]
        },
        {
            "positions": [
                -1.7663363009158477,
                -0.7563603505208351,
                1.8377804718779323,
                -0.5156393737108361,
                1.6311468625718832,
                -0.0036536627260508325
            ]
        },
        {
            "positions": [
                -1.8503641209052752,
                -0.7200489888441826,
                1.8033808212432052,
                -0.48544997374250176,
                1.654565918874935,
                0.17813273402813667
            ]
        },
        {
            "positions": [
                -1.934391940894703,
                -0.68373762716753,
                1.7689811706084784,
                -0.4552605737741673,
                1.6779849751779867,
                0.3599191307823246
            ]
        },
        {
            "positions": [
                -2.01841976088413,
                -0.6474262654908775,
                1.7345815199737515,
                -0.42507117380583304,
                1.7014040314810384,
                0.5417055275365121
            ]
        },
        {
            "positions": [
                -2.1024475808735574,
                -0.611114903814225,
                1.7001818693390247,
                -0.3948817738374987,
                1.7248230877840902,
                0.7234919242906996
            ]
        },
        {
            "positions": [
                -2.186475400862985,
                -0.5748035421375725,
                1.6657822187042979,
                -0.3646923738691643,
                1.7482421440871418,
                0.9052783210448871
            ]
        },
        {
            "positions": [
                -2.270503220852413,
                -0.5384921804609198,
                1.6313825680695708,
                -0.33450297390082995,
                1.7716612003901937,
                1.0870647177990747
            ]
        },
        {
            "positions": [
                -2.3545310408418403,
                -0.5021808187842673,
                1.5969829174348442,
                -0.3043135739324956,
                1.7950802566932453,
                1.2688511145532622
            ]
        },
        {
            "positions": [
                -2.4385588608312676,
                -0.46586945710761485,
                1.5625832668001174,
                -0.2741241739641612,
                1.818499312996297,
                1.4506375113074497
            ]
        },
        {
            "positions": [
                -2.522586680820695,
                -0.42955809543096235,
                1.5281836161653906,
                -0.24393477399582697,
                1.8419183692993488,
                1.6324239080616372
            ]
        },
        {
            "positions": [
                -2.6066145008101227,
                -0.39324673375430963,
                1.4937839655306635,
                -0.2137453740274925,
                1.8653374256024007,
                1.8142103048158256
            ]
        },
        {
            "positions": [
                -2.69064232079955,
                -0.35693537207765713,
                1.459384314895937,
                -0.18355597405915813,
                1.8887564819054523,
                1.995996701570013
            ]
        },
        {
            "positions": [
                -2.7746701407889773,
                -0.32062401040100474,
                1.4249846642612098,
                -0.15336657409082388,
                1.912175538208504,
                2.1777830983242006
            ]
        },
        {
            "positions": [
                -2.858697960778405,
                -0.28431264872435213,
                1.390585013626483,
                -0.12317717412248952,
                1.9355945945115556,
                2.359569495078388
            ]
        },
        {
            "positions": [
                -2.942725780767833,
                -0.24800128704769953,
                1.3561853629917562,
                -0.09298777415415505,
                1.9590136508146077,
                2.5413558918325756
            ]
        },
        {
            "positions": [
                -3.02675360075726,
                -0.21168992537104714,
                1.3217857123570294,
                -0.0627983741858208,
                1.9824327071176593,
                2.723142288586763
            ]
        },
        {
            "positions": [
                -3.1107814207466875,
                -0.17537856369439453,
                1.2873860617223025,
                -0.03260897421748643,
                2.005851763420711,
                2.9049286853409506
            ]
        },
        {
            "positions": [
                -2.9475459811926275,
                -0.2461902583012222,
                1.3186992207805146,
                -0.017206032830532212,
                2.00548511661836,
                2.795397259036418
            ]
        },
        {
            "positions": [
                -2.784310541638567,
                -0.3170019529080499,
                1.3500123798387267,
                -0.0018030914435779935,
                2.0051184698160087,
                2.685865832731886
            ]
        },
        {
            "positions": [
                -2.621075102084507,
                -0.38781364751487757,
                1.3813255388969388,
                0.013599849943376222,
                2.004751823013658,
                2.5763344064273532
            ]
        },
        {
            "positions": [
                -2.4578396625304464,
                -0.4586253421217053,
                1.4126386979551508,
                0.029002791330330444,
                2.0043851762113065,
                2.4668029801228206
            ]
        },
        {
            "positions": [
                -2.2946042229763863,
                -0.529437036728533,
                1.443951857013363,
                0.044405732717284666,
                2.0040185294089556,
                2.357271553818288
            ]
        },
        {
            "positions": [
                -2.1313687834223263,
                -0.6002487313353606,
                1.475265016071575,
                0.059808674104238874,
                2.0036518826066043,
                2.2477401275137554
            ]
        },
        {
            "positions": [
                -1.9681333438682658,
                -0.6710604259421884,
                1.506578175129787,
                0.0752116154911931,
                2.0032852358042534,
                2.1382087012092232
            ]
        },
        {
            "positions": [
                -1.8048979043142055,
                -0.7418721205490161,
                1.5378913341879992,
                0.09061455687814732,
                2.0029185890019026,
                2.0286772749046906
            ]
        },
        {
            "positions": [
                -1.6416624647601454,
                -0.8126838151558436,
                1.5692044932462113,
                0.10601749826510151,
                2.0025519421995512,
                1.919145848600158
            ]
        },
        {
            "positions": [
                -1.478427025206085,
                -0.8834955097626714,
                1.6005176523044233,
                0.12142043965205576,
                2.0021852953972004,
                1.8096144222956256
            ]
        },
        {
            "positions": [
                -1.3151915856520249,
                -0.9543072043694991,
                1.6318308113626352,
                0.13682338103900996,
                2.001818648594849,
                1.7000829959910932
            ]
        },
        {
            "positions": [
                -1.1519561460979646,
                -1.0251188989763267,
                1.6631439704208475,
                0.15222632242596418,
                2.001452001792498,
                1.5905515696865606
            ]
        },
        {
            "positions": [
                -0.9887207065439045,
                -1.0959305935831545,
                1.6944571294790594,
                0.1676292638129184,
                2.001085354990147,
                1.4810201433820283
            ]
        },
        {
            "positions": [
                -0.825485266989844,
                -1.1667422881899823,
                1.7257702885372717,
                0.18303220519987262,
                2.000718708187796,
                1.3714887170774956
            ]
        },
        {
            "positions": [
                -0.662249827435784,
                -1.2375539827968098,
                1.7570834475954835,
                0.19843514658682682,
                2.000352061385445,
                1.2619572907729633
            ]
        },
        {
            "positions": [
                -0.4990143878817235,
                -1.3083656774036376,
                1.7883966066536958,
                0.21383808797378107,
                1.9999854145830938,
                1.1524258644684306
            ]
        },
        {
            "positions": [
                -0.3357789483276634,
                -1.3791773720104652,
                1.8197097657119077,
                0.22924102936073526,
                1.9996187677807429,
                1.042894438163898
            ]
        },
        {
            "positions": [
                -0.17254350877360336,
                -1.4499890666172928,
                1.85102292477012,
                0.24464397074768945,
                1.9992521209783918,
                0.9333630118593657
            ]
        },
        {
            "positions": [
                -0.009308069219542414,
                -1.5208007612241208,
                1.8823360838283318,
                0.2600469121346437,
                1.9988854741760407,
                0.8238315855548328
            ]
        },
        {
            "positions": [
                0.15392737033451764,
                -1.5916124558309483,
                1.9136492428865441,
                0.27544985352159795,
                1.9985188273736896,
                0.7143001592503007
            ]
        },
        {
            "positions": [
                0.3171628098885777,
                -1.662424150437776,
                1.944962401944756,
                0.29085279490855215,
                1.9981521805713385,
                0.604768732945768
            ]
        },
        {
            "positions": [
                0.48039824944263776,
                -1.7332358450446037,
                1.976275561002968,
                0.30625573629550634,
                1.9977855337689874,
                0.4952373066412359
            ]
        },
        {
            "positions": [
                0.6436336889966983,
                -1.8040475396514315,
                2.00758872006118,
                0.3216586776824606,
                1.9974188869666363,
                0.38570588033670283
            ]
        },
        {
            "positions": [
                0.8068691285507583,
                -1.874859234258259,
                2.0389018791193925,
                0.3370616190694148,
                1.9970522401642854,
                0.27617445403217067
            ]
        },
        {
            "positions": [
                0.9701045681048184,
                -1.9456709288650869,
                2.0702150381776043,
                0.35246456045636904,
                1.9966855933619343,
                0.16664302772763806
            ]
        },
        {
            "positions": [
                1.1333400076588784,
                -2.0164826234719144,
                2.101528197235816,
                0.36786750184332323,
                1.9963189465595832,
                0.057111601423105895
            ]
        },
        {
            "positions": [
                1.2965754472129394,
                -2.087294318078742,
                2.1328413562940285,
                0.3832704432302775,
                1.995952299757232,
                -0.05241982488142716
            ]
        },
        {
            "positions": [
                1.4598108867669994,
                -2.15810601268557,
                2.164154515352241,
                0.3986733846172317,
                1.995585652954881,
                -0.16195125118595932
            ]
        },
        {
            "positions": [
                1.6230463263210595,
                -2.2289177072923976,
                2.1954676744104527,
                0.41407632600418587,
                1.99521900615253,
                -0.27148267749049193
            ]
        },
        {
            "positions": [
                1.7862817658751196,
                -2.299729401899225,
                2.2267808334686645,
                0.42947926739114006,
                1.994852359350179,
                -0.3810141037950241
            ]
        },
        {
            "positions": [
                1.9495172054291805,
                -2.370541096506053,
                2.258093992526877,
                0.44488220877809437,
                1.994485712547828,
                -0.49054553009955715
            ]
        },
        {
            "positions": [
                2.1127526449832406,
                -2.4413527911128807,
                2.289407151585089,
                0.46028515016504856,
                1.9941190657454768,
                -0.6000769564040893
            ]
        },
        {
            "positions": [
                2.2759880845373006,
                -2.5121644857197083,
                2.320720310643301,
                0.47568809155200276,
                1.9937524189431257,
                -0.7096083827086219
            ]
        },
        {
            "positions": [
                2.1887280788136714,
                -2.4785596528519434,
                2.3245646499450827,
                0.4240036115958825,
                1.9218558975577005,
                -0.8445826675281267
            ]
        },
        {
            "positions": [
                2.101468073090042,
                -2.444954819984179,
                2.3284089892468645,
                0.3723191316397623,
                1.8499593761722755,
                -0.9795569523476315
            ]
        },
        {
            "positions": [
                2.014208067366413,
                -2.411349987116414,
                2.332253328548646,
                0.32063465168364214,
                1.7780628547868504,
                -1.1145312371671363
            ]
        },
        {
            "positions": [
                1.9269480616427836,
                -2.3777451542486494,
                2.336097667850428,
                0.2689501717275219,
                1.7061663334014252,
                -1.249505521986641
            ]
        },
        {
            "positions": [
                1.8396880559191542,
                -2.3441403213808845,
                2.3399420071522097,
                0.21726569177140165,
                1.634269812016,
                -1.384479806806146
            ]
        },
        {
            "positions": [
                1.7524280501955252,
                -2.3105354885131195,
                2.3437863464539914,
                0.16558121181528146,
                1.562373290630575,
                -1.5194540916256507
            ]
        },
        {
            "positions": [
                1.6651680444718957,
                -2.276930655645355,
                2.347630685755773,
                0.11389673185916122,
                1.49047676924515,
                -1.6544283764451555
            ]
        },
        {
            "positions": [
                1.5779080387482667,
                -2.24332582277759,
                2.351475025057555,
                0.06221225190304103,
                1.4185802478597247,
                -1.7894026612646603
            ]
        },
        {
            "positions": [
                1.4906480330246372,
                -2.2097209899098256,
                2.355319364359336,
                0.010527771946920783,
                1.3466837264742995,
                -1.924376946084165
            ]
        },
        {
            "positions": [
                1.4033880273010078,
                -2.1761161570420606,
                2.359163703661118,
                -0.04115670800919946,
                1.2747872050888744,
                -2.05935123090367
            ]
        },
        {
            "positions": [
                1.3161280215773785,
                -2.142511324174296,
                2.3630080429628997,
                -0.0928411879653197,
                1.2028906837034492,
                -2.194325515723175
            ]
        },
        {
            "positions": [
                1.2288680158537495,
                -2.108906491306531,
                2.3668523822646814,
                -0.14452566792143984,
                1.1309941623180242,
                -2.3292998005426795
            ]
        },
        {
            "positions": [
                1.1416080101301203,
                -2.0753016584387662,
                2.370696721566463,
                -0.19621014787756008,
                1.059097640932599,
                -2.4642740853621845
            ]
        },
        {
            "positions": [
                1.0543480044064908,
                -2.0416968255710017,
                2.374541060868245,
                -0.24789462783368033,
                0.9872011195471739,
                -2.599248370181689
            ]
        },
        {
            "positions": [
                0.9670879986828615,
                -2.008091992703237,
                2.3783854001700266,
                -0.29957910778980057,
                0.9153045981617487,
                -2.734222655001194
            ]
        },
        {
            "positions": [
                0.8798279929592325,
                -1.9744871598354723,
                2.3822297394718084,
                -0.3512635877459207,
                0.8434080767763237,
                -2.8691969398206987
            ]
        },
        {
            "positions": [
                0.7925679872356031,
                -1.9408823269677073,
                2.38607407877359,
                -0.40294806770204095,
                0.7715115553908987,
                -3.0041712246402033
            ]
        },
        {
            "positions": [
                0.7053079815119739,
                -1.9072774940999426,
                2.389918418075372,
                -0.45463254765816125,
                0.6996150340054734,
                -3.1391455094597083
            ]
        }
    ]
}