{
    "goal": {
        "global_pose": {
            "orientation": {
                "w": 0.7031023502349854,
                "x": -0.7110244035720825,
                "y": 0.007748599164187908,
                "z": 0.005598929710686207
            },
            "position": {
                "x": 0.11585023208521307,
                "y": 0.44412534475326537,
                "z": 0.3711530566215515
            }
        },
        "name": "move_to_auspresseinheit"
    },
    "id": "EST_move_to_auspresseinheit_4",
    "joint_names": [
        "shoulder_pan_joint",
        "shoulder_lift_joint",
        "elbow_joint",
        "wrist_1_joint",
        "wrist_2_joint",
        "wrist_3_joint"
    ],
    "metrics": {
        "cart_traj_len": 2.8104158580755714,
        "distance_elbow_joint": 6.21201528050225,
        "distance_shoulder_lift_joint": 1.2899853188634849,
        "distance_shoulder_pan_joint": 1.165993940297661,
        "distance_wrist_1_joint": 3.3005582423448496,
        "distance_wrist_2_joint": 1.37413129690797,
        "distance_wrist_3_joint": 3.373927258838482,
        "smoothness": 0.7484942646850236,
        "time": 0.169827285,
        "traj_len": 4.0885952768346625,
        "weighted_distance": 5.304635274425988
    },
    "planner": "EST",
    "start": {
        "state": {
            "elbow_joint": 2.4225745326682886,
            "shoulder_lift_joint": -1.3736534990239282,
            "shoulder_pan_joint": -0.3378633610955803,
            "wrist_1_joint": -1.02885917317252,
            "wrist_2_joint": 1.233022905420004,
            "wrist_3_joint": -3.09402240754724
        }
    },
    "waypoints": [
        {
            "positions": [
                -0.3378633610955803,
                -1.3736534990239282,
                2.4225745326682886,
                -1.02885917317252,
                1.233022905420004,
                -3.09402240754724
            ]
        },
        {
            "positions": [
                -0.3407526298287573,
                -1.3556705982556554,
                2.273980122725479,
                -0.9367841919453267,
                1.1903225765339418,
                -3.014598136853479
            ]
        },
        {
            "positions": [
                -0.34364189856193433,
                -1.3376876974873826,
                2.125385712782669,
                -0.8447092107181334,
                1.1476222476478797,
                -2.9351738661597184
            ]
        },
        {
            "positions": [
                -0.3465311672951114,
                -1.3197047967191098,
                1.9767913028398596,
                -0.75263422949094,
                1.1049219187618176,
                -2.8557495954659577
            ]
        },
        {
            "positions": [
                -0.34942043602828843,
                -1.301721895950837,
                1.8281968928970498,
                -0.6605592482637468,
                1.0622215898757554,
                -2.776325324772197
            ]
        },
        {
            "positions": [
                -0.35230970476146545,
                -1.2837389951825644,
                1.6796024829542402,
                -0.5684842670365534,
                1.0195212609896933,
                -2.6969010540784364
            ]
        },
        {
            "positions": [
                -0.35519897349464247,
                -1.2657560944142916,
                1.5310080730114306,
                -0.47640928580936004,
                0.9768209321036312,
                -2.6174767833846757
            ]
        },
        {
            "positions": [
                -0.3580882422278195,
                -1.2477731936460188,
                1.3824136630686208,
                -0.3843343045821668,
                0.9341206032175692,
                -2.538052512690915
            ]
        },
        {
            "positions": [
                -0.3609775109609965,
                -1.229790292877746,
                1.233819253125811,
                -0.2922593233549734,
                0.8914202743315071,
                -2.4586282419971544
            ]
        },
        {
            "positions": [
                -0.3638667796941736,
                -1.2118073921094732,
                1.0852248431830014,
                -0.20018434212778002,
                0.8487199454454449,
                -2.3792039713033937
            ]
        },
        {
            "positions": [
                -0.3667560484273506,
                -1.1938244913412004,
                0.9366304332401918,
                -0.10810936090058676,
                0.8060196165593828,
                -2.2997797006096325
            ]
        },
        {
            "positions": [
                -0.3696453171605276,
                -1.1758415905729276,
                0.7880360232973818,
                -0.016034379673393273,
                0.7633192876733207,
                -2.2203554299158723
            ]
        },
        {
            "positions": [
                -0.37253458589370464,
                -1.1578586898046548,
                0.6394416133545724,
                0.07604060155379999,
                0.7206189587872586,
                -2.140931159222111
            ]
        },
        {
            "positions": [
                -0.37542385462688166,
                -1.139875789036382,
                0.4908472034117626,
                0.16811558278099348,
                0.6779186299011964,
                -2.061506888528351
            ]
        },
        {
            "positions": [
                -0.37831312336005873,
                -1.1218928882681092,
                0.342252793468953,
                0.2601905640081865,
                0.6352183010151344,
                -1.98208261783459
            ]
        },
        {
            "positions": [
                -0.38120239209323575,
                -1.1039099874998364,
                0.19365838352614295,
                0.35226554523538,
                0.5925179721290722,
                -1.9026583471408292
            ]
        },
        {
            "positions": [
                -0.3840916608264128,
                -1.0859270867315636,
                0.04506397358333336,
                0.44434052646257327,
                0.5498176432430102,
                -1.8232340764470687
            ]
        },
        {
            "positions": [
                -0.3869809295595898,
                -1.0679441859632908,
                -0.10353043635947623,
                0.5364155076897668,
                0.5071173143569481,
                -1.7438098057533078
            ]
        },
        {
            "positions": [
                -0.3898701982927668,
                -1.0499612851950182,
                -0.2521248463022858,
                0.62849048891696,
                0.46441698547088595,
                -1.6643855350595473
            ]
        },
        {
            "positions": [
                -0.3927594670259439,
                -1.0319783844267454,
                -0.40071925624509586,
                0.7205654701441533,
                0.4217166565848238,
                -1.5849612643657864
            ]
        },
        {
            "positions": [
                -0.3956487357591209,
                -1.0139954836584726,
                -0.549313666187905,
                0.8126404513713466,
                0.3790163276987617,
                -1.5055369936720258
            ]
        },
        {
            "positions": [
                -0.3985380044922979,
                -0.9960125828901998,
                -0.697908076130715,
                0.90471543259854,
                0.3363159988126996,
                -1.426112722978265
            ]
        },
        {
            "positions": [
                -0.361512835854439,
                -1.042462203382972,
                -0.5447823678481213,
                0.851717278229389,
                0.35886996708007735,
                -1.5075831594014488
            ]
        },
        {
            "positions": [
                -0.32448766721658007,
                -1.0889118238757443,
                -0.3916566595655275,
                0.798719123860238,
                0.38142393534745517,
                -1.5890535958246328
            ]
        },
        {
            "positions": [
                -0.2874624985787212,
                -1.1353614443685165,
                -0.23853095128293372,
                0.7457209694910869,
                0.40397790361483293,
                -1.6705240322478165
            ]
        },
        {
            "positions": [
                -0.25043732994086226,
                -1.1818110648612887,
                -0.08540524300033991,
                0.6927228151219359,
                0.4265318718822107,
                -1.7519944686710003
            ]
        },
        {
            "positions": [
                -0.21341216130300333,
                -1.228260685354061,
                0.06772046528225384,
                0.6397246607527849,
                0.4490858401495885,
                -1.8334649050941842
            ]
        },
        {
            "positions": [
                -0.1763869926651444,
                -1.274710305846833,
                0.2208461735648476,
                0.5867265063836338,
                0.4716398084169663,
                -1.914935341517368
            ]
        },
        {
            "positions": [
                -0.13936182402728547,
                -1.3211599263396052,
                0.37397188184744135,
                0.5337283520144829,
                0.49419377668434405,
                -1.9964057779405517
            ]
        },
        {
            "positions": [
                -0.1023366553894266,
                -1.3676095468323775,
                0.5270975901300352,
                0.48073019764533176,
                0.5167477449517218,
                -2.0778762143637355
            ]
        },
        {
            "positions": [
                -0.06531148675156767,
                -1.4140591673251497,
                0.6802232984126289,
                0.42773204327618075,
                0.5393017132190996,
                -2.1593466507869192
            ]
        },
        {
            "positions": [
                -0.02828631811370874,
                -1.460508787817922,
                0.8333490066952227,
                0.37473388890702974,
                0.5618556814864775,
                -2.240817087210103
            ]
        },
        {
            "positions": [
                0.008738850524150243,
                -1.5069584083106942,
                0.9864747149778166,
                0.3217357345378786,
                0.5844096497538552,
                -2.322287523633287
            ]
        },
        {
            "positions": [
                0.04576401916200912,
                -1.5534080288034664,
                1.1396004232604102,
                0.2687375801687276,
                0.606963618021233,
                -2.403757960056471
            ]
        },
        {
            "positions": [
                0.08278918779986805,
                -1.5998576492962386,
                1.292726131543004,
                0.2157394257995765,
                0.6295175862886108,
                -2.4852283964796547
            ]
        },
        {
            "positions": [
                0.11981435643772698,
                -1.6463072697890109,
                1.4458518398255977,
                0.1627412714304256,
                0.6520715545559885,
                -2.5666988329028384
            ]
        },
        {
            "positions": [
                0.15683952507558585,
                -1.6927568902817831,
                1.5989775481081918,
                0.10974311706127449,
                0.6746255228233664,
                -2.648169269326022
            ]
        },
        {
            "positions": [
                0.19386469371344472,
                -1.7392065107745553,
                1.7521032563907855,
                0.05674496269212348,
                0.6971794910907441,
                -2.7296397057492063
            ]
        },
        {
            "positions": [
                0.2308898623513037,
                -1.7856561312673276,
                1.905228964673379,
                0.0037468083229723614,
                0.7197334593581219,
                -2.8111101421723896
            ]
        },
        {
            "positions": [
                0.2679150309891626,
                -1.8321057517600998,
                2.0583546729559727,
                -0.049251346046178535,
                0.7422874276254996,
                -2.892580578595574
            ]
        },
        {
            "positions": [
                0.3049401996270216,
                -1.878555372252872,
                2.211480381238567,
                -0.10224950041532962,
                0.7648413958928775,
                -2.9740510150187576
            ]
        },
        {
            "positions": [
                0.4388872305542295,
                -1.8884892433752334,
                2.272195119349889,
                -0.22225573493530387,
                0.748541731486048,
                -3.026744109095096
            ]
        },
        {
            "positions": [
                0.5728342614814375,
                -1.898423114497595,
                2.3329098574612113,
                -0.3422619694552781,
                0.7322420670792186,
                -3.079437203171434
            ]
        },
        {
            "positions": [
                0.7067812924086453,
                -1.9083569856199563,
                2.3936245955725335,
                -0.4622682039752523,
                0.7159424026723891,
                -3.1321302972477723
            ]
        }
    ]
}