{
    "goal": {
        "global_pose": {
            "orientation": {
                "w": 0.5084816217422485,
                "x": -0.49083608388900757,
                "y": 0.5182115435600281,
                "z": -0.4816462993621826
            },
            "position": {
                "x": 0.5540239810943604,
                "y": 0.030875300988554955,
                "z": 0.16403168439865112
            }
        },
        "name": "move_to_storage"
    },
    "id": "EST_move_to_storage_2",
    "joint_names": [
        "shoulder_pan_joint",
        "shoulder_lift_joint",
        "elbow_joint",
        "wrist_1_joint",
        "wrist_2_joint",
        "wrist_3_joint"
    ],
    "metrics": {
        "cart_traj_len": 0.35306116965539674,
        "distance_elbow_joint": 0.44941032179250007,
        "distance_shoulder_lift_joint": 0.2336697701564603,
        "distance_shoulder_pan_joint": 0.4622426854078101,
        "distance_wrist_1_joint": 0.24234978235487326,
        "distance_wrist_2_joint": 1.0958466603051806,
        "distance_wrist_3_joint": 0.09801460501549197,
        "smoothness": 4.440892098500626e-16,
        "time": 0.169521295,
        "traj_len": 1.6067152283563868,
        "weighted_distance": 2.028733466407885
    },
    "planner": "EST",
    "start": {
        "state": {
            "elbow_joint": 1.9715474092553085,
            "shoulder_lift_joint": -1.1394846673180945,
            "shoulder_pan_joint": 0.1228115366877952,
            "wrist_1_joint": -0.7804686583030105,
            "wrist_2_joint": 0.12958649594027716,
            "wrist_3_joint": -3.192492341365726
        }
    },
    "waypoints": [
        {
            "positions": [
                0.1228115366877952,
                -1.1394846673180945,
                1.9715474092553085,
                -0.7804686583030105,
                0.12958649594027716,
                -3.192492341365726
            ]
        },
        {
            "positions": [
                0.056776867343822326,
                -1.1728660630547316,
                2.035748883797094,
                -0.8150900557822781,
                0.28613601884101725,
                -3.1784902549349416
            ]
        },
        {
            "positions": [
                -0.009257802000150542,
                -1.206247458791369,
                2.09995035833888,
                -0.8497114532615457,
                0.44268554174175734,
                -3.164488168504157
            ]
        },
        {
            "positions": [
                -0.07529247134412341,
                -1.239628854528006,
                2.1641518328806657,
                -0.8843328507408132,
                0.5992350646424974,
                -3.1504860820733724
            ]
        },
        {
            "positions": [
                -0.14132714068809626,
                -1.2730102502646432,
                2.2283533074224513,
                -0.9189542482200809,
                0.7557845875432375,
                -3.1364839956425876
            ]
        },
        {
            "positions": [
                -0.20736181003206916,
                -1.3063916460012805,
                2.2925547819642373,
                -0.9535756456993485,
                0.9123341104439776,
                -3.1224819092118032
            ]
        },
        {
            "positions": [
                -0.273396479376042,
                -1.3397730417379177,
                2.356756256506023,
                -0.9881970431786161,
                1.0688836333447176,
                -3.1084798227810184
            ]
        },
        {
            "positions": [
                -0.3394311487200149,
                -1.3731544374745548,
                2.4209577310478085,
                -1.0228184406578837,
                1.2254331562454577,
                -3.094477736350234
            ]
        }
    ]
}