{
    "goal": {
        "global_pose": {
            "orientation": {
                "w": 0.7047431468963623,
                "x": -0.7094548344612122,
                "y": 0.0024358443915843964,
                "z": -0.0022348060738295317
            },
            "position": {
                "x": 0.6094750761985779,
                "y": 0.3671506643295288,
                "z": 0.19426114857196808
            }
        },
        "name": "move_to_magneteinheit_target"
    },
    "id": "EST_move_to_magneteinheit_target_8",
    "joint_names": [
        "shoulder_pan_joint",
        "shoulder_lift_joint",
        "elbow_joint",
        "wrist_1_joint",
        "wrist_2_joint",
        "wrist_3_joint"
    ],
    "metrics": {
        "cart_traj_len": 3.5062092835069008,
        "distance_elbow_joint": 3.9195449391808976,
        "distance_shoulder_lift_joint": 0.46358390518574855,
        "distance_shoulder_pan_joint": 4.063415470509282,
        "distance_wrist_1_joint": 3.492493586396763,
        "distance_wrist_2_joint": 1.4500622819609985,
        "distance_wrist_3_joint": 0.47256546575127784,
        "smoothness": 0.1529021611797617,
        "time": 0.10590954,
        "traj_len": 3.72312579011037,
        "weighted_distance": 4.444024352863662
    },
    "planner": "EST",
    "start": {
        "state": {
            "elbow_joint": -1.9196185737098679,
            "shoulder_lift_joint": -1.2443395971259867,
            "shoulder_pan_joint": 2.6996025301141957,
            "wrist_1_joint": -1.548550951469146,
            "wrist_2_joint": -1.5709469089955597,
            "wrist_3_joint": 0.4420197730596999
        }
    },
    "waypoints": [
        {
            "positions": [
                2.6996025301141957,
                -1.2443395971259867,
                -1.9196185737098679,
                -1.548550951469146,
                -1.5709469089955597,
                0.4420197730596999
            ]
        },
        {
            "positions": [
                2.5552388951937086,
                -1.2371148550464053,
                -1.8445350994276573,
                -1.4662754667735525,
                -1.5110796212838289,
                0.4234678659447568
            ]
        },
        {
            "positions": [
                2.4108752602732215,
                -1.2298901129668238,
                -1.7694516251454464,
                -1.383999982077959,
                -1.4512123335720981,
                0.4049159588298138
            ]
        },
        {
            "positions": [
                2.266511625352734,
                -1.2226653708872424,
                -1.6943681508632358,
                -1.3017244973823652,
                -1.3913450458603673,
                0.38636405171487076
            ]
        },
        {
            "positions": [
                2.122147990432247,
                -1.215440628807661,
                -1.6192846765810252,
                -1.2194490126867716,
                -1.3314777581486366,
                0.36781214459992767
            ]
        },
        {
            "positions": [
                1.9777843555117598,
                -1.2082158867280794,
                -1.5442012022988143,
                -1.137173527991178,
                -1.2716104704369058,
                0.3492602374849846
            ]
        },
        {
            "positions": [
                1.8334207205912725,
                -1.2009911446484978,
                -1.4691177280166037,
                -1.0548980432955846,
                -1.211743182725175,
                0.33070833037004155
            ]
        },
        {
            "positions": [
                1.6890570856707852,
                -1.1937664025689163,
                -1.394034253734393,
                -0.9726225585999909,
                -1.1518758950134442,
                0.31215642325509846
            ]
        },
        {
            "positions": [
                1.544693450750298,
                -1.1865416604893348,
                -1.3189507794521824,
                -0.8903470739043974,
                -1.0920086073017137,
                0.2936045161401554
            ]
        },
        {
            "positions": [
                1.4003298158298108,
                -1.1793169184097534,
                -1.2438673051699713,
                -0.8080715892088038,
                -1.0321413195899827,
                0.27505260902521234
            ]
        },
        {
            "positions": [
                1.2559661809093237,
                -1.172092176330172,
                -1.1687838308877607,
                -0.7257961045132103,
                -0.972274031878252,
                0.2565007019102693
            ]
        },
        {
            "positions": [
                1.1116025459888363,
                -1.1648674342505905,
                -1.09370035660555,
                -0.6435206198176167,
                -0.9124067441665212,
                0.2379487947953262
            ]
        },
        {
            "positions": [
                0.9672389110683492,
                -1.157642692171009,
                -1.0186168823233395,
                -0.5612451351220231,
                -0.8525394564547905,
                0.21939688768038318
            ]
        },
        {
            "positions": [
                0.8228752761478622,
                -1.1504179500914276,
                -0.9435334080411288,
                -0.4789696504264296,
                -0.7926721687430598,
                0.20084498056544012
            ]
        },
        {
            "positions": [
                0.6785116412273746,
                -1.143193208011846,
                -0.868449933758918,
                -0.3966941657308358,
                -0.7328048810313289,
                0.182293073450497
            ]
        },
        {
            "positions": [
                0.5341480063068875,
                -1.1359684659322646,
                -0.7933664594767074,
                -0.3144186810352423,
                -0.6729375933195981,
                0.16374116633555397
            ]
        },
        {
            "positions": [
                0.38978437138640043,
                -1.1287437238526832,
                -0.7182829851944967,
                -0.23214319633964875,
                -0.6130703056078675,
                0.14518925922061093
            ]
        },
        {
            "positions": [
                0.24542073646591334,
                -1.1215189817731017,
                -0.6431995109122859,
                -0.1498677116440552,
                -0.5532030178961367,
                0.1266373521056679
            ]
        },
        {
            "positions": [
                0.1010571015454258,
                -1.11429423969352,
                -0.568116036630075,
                -0.06759222694846168,
                -0.4933357301844059,
                0.10808544499072475
            ]
        },
        {
            "positions": [
                -0.043306533375061296,
                -1.1070694976139386,
                -0.4930325623478644,
                0.014683257747131861,
                -0.43346844247267513,
                0.08953353787578172
            ]
        },
        {
            "positions": [
                -0.1876701682955484,
                -1.0998447555343571,
                -0.4179490880656538,
                0.0969587424427254,
                -0.37360115476094435,
                0.07098163076083869
            ]
        },
        {
            "positions": [
                -0.3320338032160355,
                -1.0926200134547757,
                -0.34286561378344316,
                0.17923422713831894,
                -0.3137338670492136,
                0.0524297236458956
            ]
        },
        {
            "positions": [
                -0.476397438136523,
                -1.0853952713751942,
                -0.2677821395012323,
                0.2615097118339127,
                -0.2538665793374828,
                0.03387781653095251
            ]
        },
        {
            "positions": [
                -0.6207610730570103,
                -1.0781705292956127,
                -0.1926986652190217,
                0.34378519652950634,
                -0.19399929162575213,
                0.015325909416009476
            ]
        },
        {
            "positions": [
                -0.5649107401497692,
                -1.0557843145992285,
                -0.02751286705153219,
                0.4645941345469824,
                -0.18851272061651544,
                0.012133939972946707
            ]
        },
        {
            "positions": [
                -0.509060407242528,
                -1.033398099902844,
                0.13767293111595733,
                0.5854030725644584,
                -0.18302614960727875,
                0.00894197052988394
            ]
        },
        {
            "positions": [
                -0.4532100743352868,
                -1.0110118852064598,
                0.3028587292834468,
                0.7062120105819345,
                -0.17753957859804206,
                0.005750001086821169
            ]
        },
        {
            "positions": [
                -0.3973597414280456,
                -0.9886256705100754,
                0.4680445274509364,
                0.8270209485994106,
                -0.17205300758880537,
                0.0025580316437584013
            ]
        },
        {
            "positions": [
                -0.3415094085208044,
                -0.9662394558136911,
                0.6332303256184258,
                0.9478298866168866,
                -0.16656643657956868,
                -0.0006339377993043668
            ]
        },
        {
            "positions": [
                -0.28565907561356324,
                -0.9438532411173067,
                0.7984161237859154,
                1.0686388246343625,
                -0.161079865570332,
                -0.0038259072423671367
            ]
        },
        {
            "positions": [
                -0.22980874270632207,
                -0.9214670264209225,
                0.9636019219534049,
                1.1894477626518385,
                -0.1555932945610953,
                -0.0070178766854299
            ]
        },
        {
            "positions": [
                -0.17395840979908084,
                -0.8990808117245381,
                1.1287877201208945,
                1.3102567006693149,
                -0.1501067235518586,
                -0.010209846128492673
            ]
        },
        {
            "positions": [
                -0.11810807689183966,
                -0.8766945970281538,
                1.2939735182883838,
                1.4310656386867908,
                -0.14462015254262192,
                -0.01340181557155544
            ]
        },
        {
            "positions": [
                -0.06225774398459849,
                -0.8543083823317694,
                1.4591593164558734,
                1.5518745767042668,
                -0.13913358153338523,
                -0.01659378501461821
            ]
        },
        {
            "positions": [
                -0.006407411077357317,
                -0.8319221676353852,
                1.624345114623363,
                1.6726835147217427,
                -0.13364701052414854,
                -0.019785754457680972
            ]
        },
        {
            "positions": [
                0.04944292182988386,
                -0.8095359529390007,
                1.7895309127908525,
                1.793492452739219,
                -0.12816043951491185,
                -0.02297772390074375
            ]
        },
        {
            "positions": [
                0.10529325473712503,
                -0.7871497382426165,
                1.9547167109583419,
                1.914301390756695,
                -0.12267386850567516,
                -0.026169693343806512
            ]
        },
        {
            "positions": [
                0.12229079428106528,
                -0.7807556919402382,
                1.9999263654710293,
                1.9439426349276179,
                -0.12446310997678935,
                -0.0217936939960351
            ]
        }
    ]
}