{
    "goal": {
        "global_pose": {
            "orientation": {
                "w": 0.7047431468963623,
                "x": -0.7094548344612122,
                "y": 0.0024358443915843964,
                "z": -0.0022348060738295317
            },
            "position": {
                "x": 0.6094750761985779,
                "y": 0.3671506643295288,
                "z": 0.19426114857196808
            }
        },
        "name": "move_to_magneteinheit_target"
    },
    "id": "FMT_move_to_magneteinheit_target_1",
    "joint_names": [
        "shoulder_pan_joint",
        "shoulder_lift_joint",
        "elbow_joint",
        "wrist_1_joint",
        "wrist_2_joint",
        "wrist_3_joint"
    ],
    "metrics": {
        "cart_traj_len": 3.510258811732713,
        "distance_elbow_joint": 3.9078591520293084,
        "distance_shoulder_lift_joint": 0.5939922361546579,
        "distance_shoulder_pan_joint": 3.460540704455211,
        "distance_wrist_1_joint": 0.6870279722205638,
        "distance_wrist_2_joint": 1.70256890990653,
        "distance_wrist_3_joint": 3.571245803643328,
        "smoothness": 0.10143920616922004,
        "time": 0.9938234509999999,
        "traj_len": 3.731385101863596,
        "weighted_distance": 4.843069612118263
    },
    "planner": "FMT",
    "start": {
        "state": {
            "elbow_joint": -1.9196185737098679,
            "shoulder_lift_joint": -1.2443395971259867,
            "shoulder_pan_joint": 2.6996025301141957,
            "wrist_1_joint": -1.548550951469146,
            "wrist_2_joint": -1.5709469089955597,
            "wrist_3_joint": 0.4420197730596999
        }
    },
    "waypoints": [
        {
            "positions": [
                2.6996025301141957,
                -1.2443395971259867,
                -1.9196185737098679,
                -1.548550951469146,
                -1.5709469089955597,
                0.4420197730596999
            ]
        },
        {
            "positions": [
                2.5835032468075103,
                -1.25391649983417,
                -1.8231524684235414,
                -1.5357183510961117,
                -1.5193642786945394,
                0.34484459001272416
            ]
        },
        {
            "positions": [
                2.4674039635008254,
                -1.2634934025423532,
                -1.7266863631372151,
                -1.5228857507230773,
                -1.4677816483935193,
                0.24766940696574843
            ]
        },
        {
            "positions": [
                2.35130468019414,
                -1.2730703052505365,
                -1.6302202578508886,
                -1.510053150350043,
                -1.4161990180924993,
                0.15049422391877265
            ]
        },
        {
            "positions": [
                2.2352053968874546,
                -1.28264720795872,
                -1.5337541525645624,
                -1.4972205499770086,
                -1.364616387791479,
                0.05331904087179695
            ]
        },
        {
            "positions": [
                2.1191061135807696,
                -1.292224110666903,
                -1.437288047278236,
                -1.4843879496039742,
                -1.3130337574904587,
                -0.0438561421751788
            ]
        },
        {
            "positions": [
                2.003006830274084,
                -1.3018010133750864,
                -1.3408219419919094,
                -1.4715553492309397,
                -1.2614511271894386,
                -0.1410313252221546
            ]
        },
        {
            "positions": [
                1.886907546967399,
                -1.3113779160832697,
                -1.2443558367055831,
                -1.4587227488579053,
                -1.2098684968884186,
                -0.2382065082691302
            ]
        },
        {
            "positions": [
                1.7708082636607139,
                -1.3209548187914528,
                -1.1478897314192569,
                -1.445890148484871,
                -1.1582858665873983,
                -0.335381691316106
            ]
        },
        {
            "positions": [
                1.6547089803540285,
                -1.3305317214996362,
                -1.0514236261329306,
                -1.4330575481118366,
                -1.106703236286378,
                -0.4325568743630817
            ]
        },
        {
            "positions": [
                1.5386096970473433,
                -1.3401086242078195,
                -0.954957520846604,
                -1.4202249477388023,
                -1.055120605985358,
                -0.5297320574100575
            ]
        },
        {
            "positions": [
                1.4225104137406581,
                -1.3496855269160026,
                -0.8584914155602776,
                -1.407392347365768,
                -1.003537975684338,
                -0.6269072404570333
            ]
        },
        {
            "positions": [
                1.3064111304339727,
                -1.359262429624186,
                -0.7620253102739512,
                -1.3945597469927336,
                -0.9519553453833176,
                -0.7240824235040091
            ]
        },
        {
            "positions": [
                1.1903118471272875,
                -1.368839332332369,
                -0.6655592049876249,
                -1.3817271466196992,
                -0.9003727150822974,
                -0.8212576065509847
            ]
        },
        {
            "positions": [
                1.0742125638206024,
                -1.3784162350405524,
                -0.5690930997012986,
                -1.3688945462466648,
                -0.8487900847812773,
                -0.9184327895979603
            ]
        },
        {
            "positions": [
                0.9581132805139172,
                -1.3879931377487358,
                -0.47262699441497236,
                -1.3560619458736305,
                -0.7972074544802572,
                -1.015607972644936
            ]
        },
        {
            "positions": [
                0.8420139972072318,
                -1.3975700404569191,
                -0.37616088912864565,
                -1.3432293455005961,
                -0.7456248241792369,
                -1.1127831556919119
            ]
        },
        {
            "positions": [
                0.7259147139005466,
                -1.4071469431651022,
                -0.2796947838423194,
                -1.3303967451275618,
                -0.6940421938782168,
                -1.2099583387388877
            ]
        },
        {
            "positions": [
                0.6098154305938612,
                -1.4167238458732856,
                -0.18322867855599312,
                -1.3175641447545274,
                -0.6424595635771966,
                -1.3071335217858633
            ]
        },
        {
            "positions": [
                0.4937161472871763,
                -1.4263007485814687,
                -0.08676257326966663,
                -1.304731544381493,
                -0.5908769332761765,
                -1.404308704832839
            ]
        },
        {
            "positions": [
                0.3776168639804909,
                -1.435877651289652,
                0.009703532016659855,
                -1.2918989440084587,
                -0.5392943029751562,
                -1.501483887879815
            ]
        },
        {
            "positions": [
                0.2615175806738055,
                -1.4454545539978354,
                0.10616963730298634,
                -1.2790663436354242,
                -0.48771167267413595,
                -1.5986590709267907
            ]
        },
        {
            "positions": [
                0.14541829736712053,
                -1.4550314567060185,
                0.2026357425893126,
                -1.2662337432623898,
                -0.4361290423731159,
                -1.6958342539737665
            ]
        },
        {
            "positions": [
                0.029319014060435133,
                -1.4646083594142019,
                0.29910184787563887,
                -1.2534011428893554,
                -0.38454641207209583,
                -1.793009437020742
            ]
        },
        {
            "positions": [
                -0.08678026924625026,
                -1.4741852621223852,
                0.3955679531619656,
                -1.240568542516321,
                -0.33296378177107555,
                -1.8901846200677181
            ]
        },
        {
            "positions": [
                -0.20287955255293566,
                -1.4837621648305683,
                0.49203405844829184,
                -1.2277359421432867,
                -0.28138115147005527,
                -1.9873598031146935
            ]
        },
        {
            "positions": [
                -0.3189788358596206,
                -1.4933390675387517,
                0.5885001637346181,
                -1.2149033417702524,
                -0.22979852116903515,
                -2.0845349861616693
            ]
        },
        {
            "positions": [
                -0.28425269144190657,
                -1.4681568150662696,
                0.7243811347802153,
                -1.179769264911598,
                -0.1974622911918429,
                -2.1884496612569166
            ]
        },
        {
            "positions": [
                -0.24952654702419247,
                -1.4429745625937875,
                0.8602621058258124,
                -1.1446351880529437,
                -0.16512606121465062,
                -2.2923643363521644
            ]
        },
        {
            "positions": [
                -0.2148004026064784,
                -1.4177923101213055,
                0.9961430768714096,
                -1.1095011111942894,
                -0.13278983123745836,
                -2.3962790114474117
            ]
        },
        {
            "positions": [
                -0.18007425818876432,
                -1.3926100576488234,
                1.1320240479170067,
                -1.074367034335635,
                -0.10045360126026606,
                -2.500193686542659
            ]
        },
        {
            "positions": [
                -0.14534811377105025,
                -1.3674278051763413,
                1.2679050189626038,
                -1.039232957476981,
                -0.0681173712830738,
                -2.6041083616379064
            ]
        },
        {
            "positions": [
                -0.11062196935333618,
                -1.342245552703859,
                1.403785990008201,
                -1.0040988806183266,
                -0.03578114130588153,
                -2.708023036733154
            ]
        },
        {
            "positions": [
                -0.07589582493562214,
                -1.317063300231377,
                1.539666961053798,
                -0.9689648037596723,
                -0.003444911328689265,
                -2.8119377118284015
            ]
        },
        {
            "positions": [
                -0.041169680517908036,
                -1.291881047758895,
                1.6755479320993953,
                -0.933830726901018,
                0.028891318648503028,
                -2.915852386923649
            ]
        },
        {
            "positions": [
                -0.006443536100193936,
                -1.2666987952864128,
                1.8114289031449926,
                -0.8986966500423637,
                0.061227548625695294,
                -3.0197670620188966
            ]
        },
        {
            "positions": [
                0.028282608317520094,
                -1.2415165428139308,
                1.9473098741905897,
                -0.8635625731837093,
                0.09356377860288756,
                -3.123681737114144
            ]
        },
        {
            "positions": [
                0.12298050262177299,
                -1.1483463017968587,
                1.988240578319441,
                -0.8615229792485822,
                0.13162200091096987,
                -3.129226030583628
            ]
        }
    ]
}