{
    "goal": {
        "global_pose": {
            "orientation": {
                "w": 0.7031023502349854,
                "x": -0.7110244035720825,
                "y": 0.007748599164187908,
                "z": 0.005598929710686207
            },
            "position": {
                "x": 0.11585023208521307,
                "y": 0.44412534475326537,
                "z": 0.3711530566215515
            }
        },
        "name": "move_to_auspresseinheit"
    },
    "id": "FMT_move_to_auspresseinheit_2",
    "joint_names": [
        "shoulder_pan_joint",
        "shoulder_lift_joint",
        "elbow_joint",
        "wrist_1_joint",
        "wrist_2_joint",
        "wrist_3_joint"
    ],
    "metrics": {
        "cart_traj_len": 0.6808047434176683,
        "distance_elbow_joint": 0.10657886584690113,
        "distance_shoulder_lift_joint": 0.5337869476153612,
        "distance_shoulder_pan_joint": 1.0436425532583877,
        "distance_wrist_1_joint": 1.075725958758741,
        "distance_wrist_2_joint": 1.6267840158352893,
        "distance_wrist_3_joint": 0.6399839290485039,
        "smoothness": 1.4665767875105138,
        "time": 1.003501512,
        "traj_len": 2.241986233312592,
        "weighted_distance": 3.0014963106847596
    },
    "planner": "FMT",
    "start": {
        "state": {
            "elbow_joint": 2.4225745326682886,
            "shoulder_lift_joint": -1.3736534990239282,
            "shoulder_pan_joint": -0.3378633610955803,
            "wrist_1_joint": -1.02885917317252,
            "wrist_2_joint": 1.233022905420004,
            "wrist_3_joint": -3.09402240754724
        }
    },
    "waypoints": [
        {
            "positions": [
                -0.3378633610955803,
                -1.3736534990239282,
                2.4225745326682886,
                -1.02885917317252,
                1.233022905420004,
                -3.09402240754724
            ]
        },
        {
            "positions": [
                -0.25111931111261604,
                -1.4190571125834264,
                2.414928541035049,
                -0.9375055702741848,
                1.113246318729897,
                -3.061179463932333
            ]
        },
        {
            "positions": [
                -0.16437526112965176,
                -1.4644607261429243,
                2.4072825494018097,
                -0.8461519673758495,
                0.9934697320397903,
                -3.0283365203174264
            ]
        },
        {
            "positions": [
                -0.07763121114668753,
                -1.5098643397024225,
                2.39963655776857,
                -0.7547983644775142,
                0.8736931453496835,
                -2.9954935767025197
            ]
        },
        {
            "positions": [
                0.009112838836276782,
                -1.5552679532619207,
                2.3919905661353305,
                -0.663444761579179,
                0.7539165586595766,
                -2.962650633087613
            ]
        },
        {
            "positions": [
                0.09585688881924104,
                -1.6006715668214186,
                2.3843445745020913,
                -0.5720911586808435,
                0.6341399719694697,
                -2.929807689472706
            ]
        },
        {
            "positions": [
                0.18260093880220524,
                -1.6460751803809168,
                2.3766985828688516,
                -0.4807375557825083,
                0.5143633852793629,
                -2.896964745857799
            ]
        },
        {
            "positions": [
                0.2693449887851696,
                -1.691478793940415,
                2.369052591235612,
                -0.38938395288417293,
                0.39458679858925594,
                -2.8641218022428925
            ]
        },
        {
            "positions": [
                0.35608903876813386,
                -1.736882407499913,
                2.3614065996023728,
                -0.2980303499858378,
                0.2748102118991492,
                -2.831278858627986
            ]
        },
        {
            "positions": [
                0.44283308875109817,
                -1.7822860210594111,
                2.353760607969133,
                -0.2066767470875024,
                0.15503362520904235,
                -2.798435915013079
            ]
        },
        {
            "positions": [
                0.5085696146040255,
                -1.8135746274543807,
                2.3632018432560695,
                -0.27006263025593324,
                0.2922323091151242,
                -2.884535274141665
            ]
        },
        {
            "positions": [
                0.5743061404569529,
                -1.8448632338493502,
                2.372643078543006,
                -0.3334485134243641,
                0.4294309930212061,
                -2.970634633270251
            ]
        },
        {
            "positions": [
                0.6400426663098803,
                -1.8761518402443198,
                2.3820843138299423,
                -0.39683439659279496,
                0.5666296769272879,
                -3.0567339923988364
            ]
        },
        {
            "positions": [
                0.7057791921628076,
                -1.9074404466392894,
                2.3915255491168788,
                -0.4602202797612258,
                0.7038283608333697,
                -3.1428333515274223
            ]
        }
    ]
}