{
    "goal": {
        "global_pose": {
            "orientation": {
                "w": 0.7031023502349854,
                "x": -0.7110244035720825,
                "y": 0.007748599164187908,
                "z": 0.005598929710686207
            },
            "position": {
                "x": 0.11585023208521307,
                "y": 0.44412534475326537,
                "z": 0.3711530566215515
            }
        },
        "name": "move_to_auspresseinheit"
    },
    "id": "FMT_move_to_auspresseinheit_5",
    "joint_names": [
        "shoulder_pan_joint",
        "shoulder_lift_joint",
        "elbow_joint",
        "wrist_1_joint",
        "wrist_2_joint",
        "wrist_3_joint"
    ],
    "metrics": {
        "cart_traj_len": 0.7330050335199497,
        "distance_elbow_joint": 0.6557422395745283,
        "distance_shoulder_lift_joint": 1.624381003573452,
        "distance_shoulder_pan_joint": 1.0455092187406132,
        "distance_wrist_1_joint": 0.5509337489342092,
        "distance_wrist_2_joint": 0.5267189940810272,
        "distance_wrist_3_joint": 0.04677699158236681,
        "smoothness": 1.0344547135947126,
        "time": 0.8584917710000001,
        "traj_len": 2.10951705290244,
        "weighted_distance": 2.37092153448109
    },
    "planner": "FMT",
    "start": {
        "state": {
            "elbow_joint": 2.4225745326682886,
            "shoulder_lift_joint": -1.3736534990239282,
            "shoulder_pan_joint": -0.3378633610955803,
            "wrist_1_joint": -1.02885917317252,
            "wrist_2_joint": 1.233022905420004,
            "wrist_3_joint": -3.09402240754724
        }
    },
    "waypoints": [
        {
            "positions": [
                -0.3378633610955803,
                -1.3736534990239282,
                2.4225745326682886,
                -1.02885917317252,
                1.233022905420004,
                -3.09402240754724
            ]
        },
        {
            "positions": [
                -0.2249994415907321,
                -1.5535655816476162,
                2.474846486435907,
                -1.0281314010247193,
                1.229548540727446,
                -3.1000181252729564
            ]
        },
        {
            "positions": [
                -0.1121355220858839,
                -1.7334776642713041,
                2.527118440203526,
                -1.0274036288769184,
                1.226074176034888,
                -3.1060138429986734
            ]
        },
        {
            "positions": [
                0.0007283974189642994,
                -1.913389746894992,
                2.5793903939711442,
                -1.0266758567291177,
                1.2225998113423304,
                -3.11200956072439
            ]
        },
        {
            "positions": [
                0.1135923169238125,
                -2.0933018295186803,
                2.6316623477387626,
                -1.025948084581317,
                1.2191254466497725,
                -3.1180052784501067
            ]
        },
        {
            "positions": [
                0.2264562364286607,
                -2.273213912142368,
                2.6839343015063815,
                -1.025220312433516,
                1.2156510819572146,
                -3.1240009961758237
            ]
        },
        {
            "positions": [
                0.33932015593350895,
                -2.453125994766056,
                2.736206255274,
                -1.0244925402857152,
                1.2121767172646567,
                -3.1299967139015403
            ]
        },
        {
            "positions": [
                0.4007077728854296,
                -2.362307910127502,
                2.679187835779197,
                -0.9333980209444812,
                1.12786458294371,
                -3.1281962663635294
            ]
        },
        {
            "positions": [
                0.4620953898373502,
                -2.271489825488948,
                2.622169416284394,
                -0.8423035016032472,
                1.0435524486227634,
                -3.126395818825518
            ]
        },
        {
            "positions": [
                0.5234830067892708,
                -2.180671740850394,
                2.5651509967895914,
                -0.751208982262013,
                0.9592403143018167,
                -3.124595371287507
            ]
        },
        {
            "positions": [
                0.5848706237411916,
                -2.08985365621184,
                2.5081325772947887,
                -0.660114462920779,
                0.8749281799808701,
                -3.1227949237494963
            ]
        },
        {
            "positions": [
                0.6462582406931122,
                -1.9990355715732862,
                2.4511141577999855,
                -0.5690199435795449,
                0.7906160456599234,
                -3.120994476211485
            ]
        },
        {
            "positions": [
                0.7076458576450328,
                -1.9082174869347321,
                2.394095738305183,
                -0.47792542423831086,
                0.7063039113389767,
                -3.119194028673474
            ]
        }
    ]
}