{
    "goal": {
        "global_pose": {
            "orientation": {
                "w": 0.7047431468963623,
                "x": -0.7094548344612122,
                "y": 0.0024358443915843964,
                "z": -0.0022348060738295317
            },
            "position": {
                "x": 0.6094750761985779,
                "y": 0.3671506643295288,
                "z": 0.19426114857196808
            }
        },
        "name": "move_to_magneteinheit_target"
    },
    "id": "FMT_move_to_magneteinheit_target_3",
    "joint_names": [
        "shoulder_pan_joint",
        "shoulder_lift_joint",
        "elbow_joint",
        "wrist_1_joint",
        "wrist_2_joint",
        "wrist_3_joint"
    ],
    "metrics": {
        "cart_traj_len": 3.2048736925337695,
        "distance_elbow_joint": 3.911728296525165,
        "distance_shoulder_lift_joint": 0.46836608405634517,
        "distance_shoulder_pan_joint": 3.0732551178701457,
        "distance_wrist_1_joint": 3.467790844909478,
        "distance_wrist_2_joint": 1.4349465525862257,
        "distance_wrist_3_joint": 0.9568777471971409,
        "smoothness": 0.10934586316945531,
        "time": 1.04230081,
        "traj_len": 3.64869355292336,
        "weighted_distance": 4.486586401155613
    },
    "planner": "FMT",
    "start": {
        "state": {
            "elbow_joint": -1.9196185737098679,
            "shoulder_lift_joint": -1.2443395971259867,
            "shoulder_pan_joint": 2.6996025301141957,
            "wrist_1_joint": -1.548550951469146,
            "wrist_2_joint": -1.5709469089955597,
            "wrist_3_joint": 0.4420197730596999
        }
    },
    "waypoints": [
        {
            "positions": [
                2.6996025301141957,
                -1.2443395971259867,
                -1.9196185737098679,
                -1.548550951469146,
                -1.5709469089955597,
                0.4420197730596999
            ]
        },
        {
            "positions": [
                2.5568023934122905,
                -1.2315181754906257,
                -1.8217458546088714,
                -1.4648132602083475,
                -1.5537973205997127,
                0.4678022488627398
            ]
        },
        {
            "positions": [
                2.414002256710385,
                -1.2186967538552647,
                -1.7238731355078751,
                -1.381075568947549,
                -1.5366477322038656,
                0.4935847246657797
            ]
        },
        {
            "positions": [
                2.2712021200084793,
                -1.2058753322199036,
                -1.6260004164068786,
                -1.2973378776867504,
                -1.5194981438080186,
                0.5193672004688196
            ]
        },
        {
            "positions": [
                2.128401983306574,
                -1.1930539105845426,
                -1.5281276973058822,
                -1.2136001864259518,
                -1.5023485554121716,
                0.5451496762718595
            ]
        },
        {
            "positions": [
                1.9856018466046688,
                -1.1802324889491813,
                -1.430254978204886,
                -1.1298624951651535,
                -1.4851989670163244,
                0.5709321520748993
            ]
        },
        {
            "positions": [
                1.8428017099027634,
                -1.1674110673138203,
                -1.3323822591038894,
                -1.046124803904355,
                -1.4680493786204774,
                0.5967146278779393
            ]
        },
        {
            "positions": [
                1.7000015732008582,
                -1.1545896456784592,
                -1.2345095400028931,
                -0.9623871126435564,
                -1.4508997902246303,
                0.6224971036809791
            ]
        },
        {
            "positions": [
                1.5572014364989526,
                -1.1417682240430982,
                -1.1366368209018964,
                -0.8786494213827577,
                -1.4337502018287833,
                0.648279579484019
            ]
        },
        {
            "positions": [
                1.4144012997970472,
                -1.1289468024077371,
                -1.0387641018009002,
                -0.7949117301219593,
                -1.4166006134329363,
                0.6740620552870589
            ]
        },
        {
            "positions": [
                1.2716011630951418,
                -1.116125380772376,
                -0.9408913826999038,
                -0.7111740388611607,
                -1.3994510250370893,
                0.6998445310900988
            ]
        },
        {
            "positions": [
                1.1843056325134282,
                -1.1021506793242373,
                -0.8129071694209913,
                -0.6255417043822541,
                -1.3630838668911054,
                0.6756863532533921
            ]
        },
        {
            "positions": [
                1.0970101019317149,
                -1.0881759778760982,
                -0.6849229561420787,
                -0.5399093699033475,
                -1.3267167087451217,
                0.6515281754166854
            ]
        },
        {
            "positions": [
                1.0097145713500013,
                -1.0742012764279594,
                -0.5569387428631661,
                -0.4542770354244408,
                -1.2903495505991378,
                0.6273699975799787
            ]
        },
        {
            "positions": [
                0.9224190407682877,
                -1.0602265749798205,
                -0.4289545295842536,
                -0.3686447009455342,
                -1.2539823924531541,
                0.6032118197432721
            ]
        },
        {
            "positions": [
                0.8351235101865743,
                -1.0462518735316815,
                -0.3009703163053411,
                -0.2830123664666276,
                -1.2176152343071702,
                0.5790536419065654
            ]
        },
        {
            "positions": [
                0.7478279796048608,
                -1.0322771720835426,
                -0.17298610302642847,
                -0.19738003198772092,
                -1.1812480761611865,
                0.5548954640698587
            ]
        },
        {
            "positions": [
                0.6605324490231472,
                -1.0183024706354038,
                -0.045001889747515955,
                -0.1117476975088143,
                -1.1448809180152026,
                0.530737286233152
            ]
        },
        {
            "positions": [
                0.5732369184414338,
                -1.0043277691872647,
                0.08298232353139656,
                -0.02611536302990769,
                -1.108513759869219,
                0.5065791083964453
            ]
        },
        {
            "positions": [
                0.4859413878597203,
                -0.9903530677391259,
                0.2109665368103092,
                0.05951697144899892,
                -1.072146601723235,
                0.4824209305597386
            ]
        },
        {
            "positions": [
                0.3986458572780067,
                -0.976378366290987,
                0.3389507500892216,
                0.14514930592790554,
                -1.0357794435772512,
                0.4582627527230319
            ]
        },
        {
            "positions": [
                0.31135032669629326,
                -0.962403664842848,
                0.4669349633681342,
                0.23078164040681215,
                -0.9994122854312675,
                0.4341045748863252
            ]
        },
        {
            "positions": [
                0.2240547961145798,
                -0.9484289633947092,
                0.5949191766470469,
                0.3164139748857189,
                -0.9630451272852836,
                0.40994639704961855
            ]
        },
        {
            "positions": [
                0.13675926553286621,
                -0.9344542619465702,
                0.7229033899259593,
                0.4020463093646254,
                -0.9266779691392999,
                0.38578821921291184
            ]
        },
        {
            "positions": [
                0.04946373495115264,
                -0.9204795604984313,
                0.8508876032048719,
                0.4876786438435321,
                -0.890310810993316,
                0.36163004137620514
            ]
        },
        {
            "positions": [
                -0.037831795630560716,
                -0.9065048590502924,
                0.9788718164837843,
                0.5733109783224386,
                -0.8539436528473322,
                0.3374718635394985
            ]
        },
        {
            "positions": [
                -0.12512732621227435,
                -0.8925301576021535,
                1.106856029762697,
                0.6589433128013453,
                -0.8175764947013484,
                0.3133136857027918
            ]
        },
        {
            "positions": [
                -0.10272675388355165,
                -0.8805082167589023,
                1.2008226833590738,
                0.7850619269406527,
                -0.7489072905894456,
                0.27887352346595384
            ]
        },
        {
            "positions": [
                -0.08032618155482896,
                -0.8684862759156511,
                1.2947893369554506,
                0.9111805410799602,
                -0.6802380864775429,
                0.2444333612291159
            ]
        },
        {
            "positions": [
                -0.05792560922610625,
                -0.8564643350723999,
                1.3887559905518274,
                1.0372991552192676,
                -0.6115688823656402,
                0.20999319899227797
            ]
        },
        {
            "positions": [
                -0.03552503689738355,
                -0.8444423942291487,
                1.4827226441482042,
                1.163417769358575,
                -0.5428996782537374,
                0.17555303675544
            ]
        },
        {
            "positions": [
                -0.013124464568660829,
                -0.8324204533858975,
                1.576689297744581,
                1.2895363834978826,
                -0.4742304741418346,
                0.14111287451860208
            ]
        },
        {
            "positions": [
                0.009276107760061852,
                -0.8203985125426463,
                1.6706559513409578,
                1.41565499763719,
                -0.4055612700299319,
                0.10667271228176414
            ]
        },
        {
            "positions": [
                0.031676680088784576,
                -0.8083765716993951,
                1.7646226049373346,
                1.5417736117764975,
                -0.3368920659180291,
                0.07223255004492618
            ]
        },
        {
            "positions": [
                0.05407725241750724,
                -0.796354630856144,
                1.8585892585337114,
                1.6678922259158047,
                -0.2682228618061264,
                0.037792387808088246
            ]
        },
        {
            "positions": [
                0.07647782474622997,
                -0.7843326900128927,
                1.9525559121300882,
                1.7940108400551122,
                -0.19955365769422362,
                0.003352225571250299
            ]
        },
        {
            "positions": [
                0.1233979353314,
                -0.7759735130696416,
                1.9921097228152962,
                1.9192398934403316,
                -0.136000356409334,
                0.0007915419233570879
            ]
        }
    ]
}