{
    "goal": {
        "global_pose": {
            "orientation": {
                "w": 0.5084816217422485,
                "x": -0.49083608388900757,
                "y": 0.5182115435600281,
                "z": -0.4816462993621826
            },
            "position": {
                "x": 0.5540239810943604,
                "y": 0.030875300988554955,
                "z": 0.16403168439865112
            }
        },
        "name": "move_to_storage"
    },
    "id": "FMT_move_to_storage_5",
    "joint_names": [
        "shoulder_pan_joint",
        "shoulder_lift_joint",
        "elbow_joint",
        "wrist_1_joint",
        "wrist_2_joint",
        "wrist_3_joint"
    ],
    "metrics": {
        "cart_traj_len": 0.35257423250949993,
        "distance_elbow_joint": 0.4474831650947664,
        "distance_shoulder_lift_joint": 0.23571343235151287,
        "distance_shoulder_pan_joint": 0.4594700628663684,
        "distance_wrist_1_joint": 0.23302187162552523,
        "distance_wrist_2_joint": 1.1047915506849466,
        "distance_wrist_3_joint": 0.09491222881939843,
        "smoothness": 0.0,
        "time": 0.372655397,
        "traj_len": 1.6048028886572077,
        "weighted_distance": 2.0255937873600884
    },
    "planner": "FMT",
    "start": {
        "state": {
            "elbow_joint": 1.9715474092553085,
            "shoulder_lift_joint": -1.1394846673180945,
            "shoulder_pan_joint": 0.1228115366877952,
            "wrist_1_joint": -0.7804686583030105,
            "wrist_2_joint": 0.12958649594027716,
            "wrist_3_joint": -3.192492341365726
        }
    },
    "waypoints": [
        {
            "positions": [
                0.1228115366877952,
                -1.1394846673180945,
                1.9715474092553085,
                -0.7804686583030105,
                0.12958649594027716,
                -3.192492341365726
            ]
        },
        {
            "positions": [
                0.05717295627831401,
                -1.173158014796882,
                2.035473575697418,
                -0.8137574971066569,
                0.287413860323841,
                -3.1789334515343834
            ]
        },
        {
            "positions": [
                -0.00846562413116718,
                -1.2068313622756697,
                2.0993997421395276,
                -0.8470463359103034,
                0.44524122470740474,
                -3.165374561703041
            ]
        },
        {
            "positions": [
                -0.07410420454064838,
                -1.2405047097544573,
                2.163325908581637,
                -0.8803351747139498,
                0.6030685890909686,
                -3.1518156718716983
            ]
        },
        {
            "positions": [
                -0.13974278495012954,
                -1.2741780572332446,
                2.2272520750237463,
                -0.9136240135175964,
                0.7608959534745323,
                -3.1382567820403553
            ]
        },
        {
            "positions": [
                -0.20538136535961077,
                -1.3078514047120322,
                2.2911782414658557,
                -0.9469128523212428,
                0.9187233178580961,
                -3.1246978922090127
            ]
        },
        {
            "positions": [
                -0.27101994576909194,
                -1.3415247521908198,
                2.3551044079079655,
                -0.9802016911248892,
                1.07655068224166,
                -3.11113900237767
            ]
        },
        {
            "positions": [
                -0.33665852617857317,
                -1.3751980996696074,
                2.419030574350075,
                -1.0134905299285357,
                1.2343780466252237,
                -3.0975801125463276
            ]
        }
    ]
}