{
    "goal": {
        "global_pose": {
            "orientation": {
                "w": 0.7031023502349854,
                "x": -0.7110244035720825,
                "y": 0.007748599164187908,
                "z": 0.005598929710686207
            },
            "position": {
                "x": 0.11585023208521307,
                "y": 0.44412534475326537,
                "z": 0.3711530566215515
            }
        },
        "name": "move_to_auspresseinheit"
    },
    "id": "FMT_move_to_auspresseinheit_3",
    "joint_names": [
        "shoulder_pan_joint",
        "shoulder_lift_joint",
        "elbow_joint",
        "wrist_1_joint",
        "wrist_2_joint",
        "wrist_3_joint"
    ],
    "metrics": {
        "cart_traj_len": 0.6612349731809896,
        "distance_elbow_joint": 0.26233747746362246,
        "distance_shoulder_lift_joint": 0.7508469249609897,
        "distance_shoulder_pan_joint": 1.0436317928541212,
        "distance_wrist_1_joint": 0.544115581311213,
        "distance_wrist_2_joint": 0.915168628914908,
        "distance_wrist_3_joint": 0.09681617103977525,
        "smoothness": 0.8704117875497162,
        "time": 0.835392446,
        "traj_len": 1.9007673651829753,
        "weighted_distance": 2.294740318391234
    },
    "planner": "FMT",
    "start": {
        "state": {
            "elbow_joint": 2.4225745326682886,
            "shoulder_lift_joint": -1.3736534990239282,
            "shoulder_pan_joint": -0.3378633610955803,
            "wrist_1_joint": -1.02885917317252,
            "wrist_2_joint": 1.233022905420004,
            "wrist_3_joint": -3.09402240754724
        }
    },
    "waypoints": [
        {
            "positions": [
                -0.3378633610955803,
                -1.3736534990239282,
                2.4225745326682886,
                -1.02885917317252,
                1.233022905420004,
                -3.09402240754724
            ]
        },
        {
            "positions": [
                -0.27832597381071833,
                -1.480938998148893,
                2.442298309738617,
                -0.9720866209058302,
                1.1122848834207455,
                -3.10526910234121
            ]
        },
        {
            "positions": [
                -0.21878858652585634,
                -1.5882244972738577,
                2.462022086808945,
                -0.9153140686391403,
                0.9915468614214871,
                -3.1165157971351807
            ]
        },
        {
            "positions": [
                -0.15925119924099435,
                -1.6955099963988225,
                2.481745863879273,
                -0.8585415163724505,
                0.8708088394222286,
                -3.1277624919291513
            ]
        },
        {
            "positions": [
                -0.09971381195613238,
                -1.8027954955237875,
                2.5014696409496016,
                -0.8017689641057606,
                0.7500708174229702,
                -3.1390091867231216
            ]
        },
        {
            "positions": [
                -0.04017642467127036,
                -1.9100809946487523,
                2.52119341801993,
                -0.7449964118390707,
                0.6293327954237117,
                -3.150255881517092
            ]
        },
        {
            "positions": [
                0.019360962613591576,
                -2.017366493773717,
                2.540917195090258,
                -0.6882238595723809,
                0.5085947734244533,
                -3.1615025763110625
            ]
        },
        {
            "positions": [
                0.1909628298998289,
                -1.9905830112209169,
                2.504918491329845,
                -0.6373537926446124,
                0.5562798976542926,
                -3.1541685757420743
            ]
        },
        {
            "positions": [
                0.3625646971860662,
                -1.9637995286681167,
                2.4689197875694315,
                -0.586483725716844,
                0.6039650218841319,
                -3.146834575173086
            ]
        },
        {
            "positions": [
                0.5341665644723035,
                -1.9370160461153163,
                2.4329210838090183,
                -0.5356136587890755,
                0.6516501461139712,
                -3.139500574604098
            ]
        },
        {
            "positions": [
                0.7057684317585409,
                -1.9102325635625161,
                2.396922380048605,
                -0.4847435918613071,
                0.6993352703438106,
                -3.13216657403511
            ]
        }
    ]
}