{
    "goal": {
        "global_pose": {
            "orientation": {
                "w": 0.7031023502349854,
                "x": -0.7110244035720825,
                "y": 0.007748599164187908,
                "z": 0.005598929710686207
            },
            "position": {
                "x": 0.11585023208521307,
                "y": 0.44412534475326537,
                "z": 0.3711530566215515
            }
        },
        "name": "move_to_auspresseinheit"
    },
    "id": "KPIECE_move_to_auspresseinheit_7",
    "joint_names": [
        "shoulder_pan_joint",
        "shoulder_lift_joint",
        "elbow_joint",
        "wrist_1_joint",
        "wrist_2_joint",
        "wrist_3_joint"
    ],
    "metrics": {
        "cart_traj_len": 0.7090840770143427,
        "distance_elbow_joint": 0.2746672400166861,
        "distance_shoulder_lift_joint": 0.5386875481595752,
        "distance_shoulder_pan_joint": 1.0418525682476796,
        "distance_wrist_1_joint": 1.5513889536126233,
        "distance_wrist_2_joint": 0.6794932005126575,
        "distance_wrist_3_joint": 1.514382653571344,
        "smoothness": 1.217037669993606,
        "time": 0.27071955400000003,
        "traj_len": 2.3665316740159144,
        "weighted_distance": 3.2954695606830504
    },
    "planner": "KPIECE",
    "start": {
        "state": {
            "elbow_joint": 2.4225745326682886,
            "shoulder_lift_joint": -1.3736534990239282,
            "shoulder_pan_joint": -0.3378633610955803,
            "wrist_1_joint": -1.02885917317252,
            "wrist_2_joint": 1.233022905420004,
            "wrist_3_joint": -3.09402240754724
        }
    },
    "waypoints": [
        {
            "positions": [
                -0.3378633610955803,
                -1.3736534990239282,
                2.4225745326682886,
                -1.02885917317252,
                1.233022905420004,
                -3.09402240754724
            ]
        },
        {
            "positions": [
                -0.27147182328890995,
                -1.4273659512417498,
                2.407477471472052,
                -0.9237187055245809,
                1.1725683006865864,
                -3.019811902893302
            ]
        },
        {
            "positions": [
                -0.20508028548223958,
                -1.4810784034595712,
                2.3923804102758153,
                -0.8185782378766417,
                1.112113695953169,
                -2.9456013982393645
            ]
        },
        {
            "positions": [
                -0.13868874767556924,
                -1.5347908556773928,
                2.377283349079579,
                -0.7134377702287027,
                1.0516590912197517,
                -2.871390893585427
            ]
        },
        {
            "positions": [
                -0.07229720986889887,
                -1.5885033078952144,
                2.3621862878833424,
                -0.6082973025807634,
                0.9912044864863341,
                -2.7971803889314892
            ]
        },
        {
            "positions": [
                -0.005905672062228529,
                -1.6422157601130358,
                2.347089226687106,
                -0.5031568349328244,
                0.9307498817529166,
                -2.7229698842775516
            ]
        },
        {
            "positions": [
                0.060485865744441814,
                -1.6959282123308574,
                2.331992165490869,
                -0.3980163672848852,
                0.8702952770194992,
                -2.6487593796236135
            ]
        },
        {
            "positions": [
                0.12687740355111216,
                -1.749640664548679,
                2.3168951042946326,
                -0.29287589963694616,
                0.8098406722860817,
                -2.574548874969676
            ]
        },
        {
            "positions": [
                0.19326894135778255,
                -1.8033531167665007,
                2.301798043098396,
                -0.18773543198900688,
                0.7493860675526642,
                -2.5003383703157382
            ]
        },
        {
            "positions": [
                0.25966047916445295,
                -1.857065568984322,
                2.2867009819021593,
                -0.08259496434106783,
                0.6889314628192468,
                -2.4261278656618006
            ]
        },
        {
            "positions": [
                0.32605201697112324,
                -1.9107780212021437,
                2.271603920705923,
                0.022545503306871217,
                0.6284768580858293,
                -2.351917361007863
            ]
        },
        {
            "positions": [
                0.40163945500731846,
                -1.9104654160058718,
                2.2963432463167868,
                -0.07745135211977523,
                0.6434662887215259,
                -2.5063728824142566
            ]
        },
        {
            "positions": [
                0.47722689304351373,
                -1.9101528108095998,
                2.321082571927651,
                -0.17744820754642168,
                0.6584557193572225,
                -2.66082840382065
            ]
        },
        {
            "positions": [
                0.5528143310797089,
                -1.909840205613328,
                2.345821897538515,
                -0.2774450629730681,
                0.673445149992919,
                -2.8152839252270434
            ]
        },
        {
            "positions": [
                0.6284017691159043,
                -1.9095276004170558,
                2.3705612231493793,
                -0.3774419183997146,
                0.6884345806286156,
                -2.9697394466334366
            ]
        },
        {
            "positions": [
                0.7039892071520994,
                -1.909214995220784,
                2.3953005487602432,
                -0.477438773826361,
                0.7034240112643122,
                -3.12419496803983
            ]
        }
    ]
}