{
    "goal": {
        "global_pose": {
            "orientation": {
                "w": 0.7047431468963623,
                "x": -0.7094548344612122,
                "y": 0.0024358443915843964,
                "z": -0.0022348060738295317
            },
            "position": {
                "x": 0.6094750761985779,
                "y": 0.3671506643295288,
                "z": 0.19426114857196808
            }
        },
        "name": "move_to_magneteinheit_target"
    },
    "id": "KPIECE_move_to_magneteinheit_target_1",
    "joint_names": [
        "shoulder_pan_joint",
        "shoulder_lift_joint",
        "elbow_joint",
        "wrist_1_joint",
        "wrist_2_joint",
        "wrist_3_joint"
    ],
    "metrics": {
        "cart_traj_len": 4.475988638506233,
        "distance_elbow_joint": 3.9055595986170206,
        "distance_shoulder_lift_joint": 2.230514420542436,
        "distance_shoulder_pan_joint": 3.842936391024233,
        "distance_wrist_1_joint": 1.3538386837605452,
        "distance_wrist_2_joint": 2.490440241363784,
        "distance_wrist_3_joint": 3.6577991107546604,
        "smoothness": 0.3251145785949648,
        "time": 0.13130667,
        "traj_len": 4.181039158637798,
        "weighted_distance": 5.351725478076796
    },
    "planner": "KPIECE",
    "start": {
        "state": {
            "elbow_joint": -1.9196185737098679,
            "shoulder_lift_joint": -1.2443395971259867,
            "shoulder_pan_joint": 2.6996025301141957,
            "wrist_1_joint": -1.548550951469146,
            "wrist_2_joint": -1.5709469089955597,
            "wrist_3_joint": 0.4420197730596999
        }
    },
    "waypoints": [
        {
            "positions": [
                2.6996025301141957,
                -1.2443395971259867,
                -1.9196185737098679,
                -1.548550951469146,
                -1.5709469089955597,
                0.4420197730596999
            ]
        },
        {
            "positions": [
                2.571227688983021,
                -1.2113889345390925,
                -1.8497320442605412,
                -1.51136419276718,
                -1.4890217326935036,
                0.4071985271979735
            ]
        },
        {
            "positions": [
                2.442852847851846,
                -1.1784382719521982,
                -1.7798455148112144,
                -1.474177434065214,
                -1.4070965563914475,
                0.37237728133624715
            ]
        },
        {
            "positions": [
                2.3144780067206705,
                -1.145487609365304,
                -1.7099589853618877,
                -1.436990675363248,
                -1.3251713800893914,
                0.33755603547452073
            ]
        },
        {
            "positions": [
                2.1861031655894956,
                -1.1125369467784099,
                -1.640072455912561,
                -1.3998039166612821,
                -1.2432462037873353,
                0.3027347896127943
            ]
        },
        {
            "positions": [
                2.0577283244583207,
                -1.0795862841915156,
                -1.5701859264632343,
                -1.362617157959316,
                -1.1613210274852792,
                0.2679135437510679
            ]
        },
        {
            "positions": [
                1.9293534833271457,
                -1.0466356216046213,
                -1.5002993970139076,
                -1.32543039925735,
                -1.0793958511832231,
                0.23309229788934152
            ]
        },
        {
            "positions": [
                1.8009786421959708,
                -1.013684959017727,
                -1.4304128675645809,
                -1.288243640555384,
                -0.997470674881167,
                0.1982710520276151
            ]
        },
        {
            "positions": [
                1.6726038010647957,
                -0.9807342964308328,
                -1.3605263381152541,
                -1.251056881853418,
                -0.9155454985791109,
                0.16344980616588872
            ]
        },
        {
            "positions": [
                1.5442289599336207,
                -0.9477836338439385,
                -1.2906398086659274,
                -1.2138701231514522,
                -0.8336203222770548,
                0.1286285603041623
            ]
        },
        {
            "positions": [
                1.4158541188024456,
                -0.9148329712570442,
                -1.2207532792166007,
                -1.176683364449486,
                -0.7516951459749988,
                0.0938073144424359
            ]
        },
        {
            "positions": [
                1.2874792776712707,
                -0.8818823086701499,
                -1.150866749767274,
                -1.13949660574752,
                -0.6697699696729427,
                0.05898606858070954
            ]
        },
        {
            "positions": [
                1.1591044365400958,
                -0.8489316460832558,
                -1.0809802203179473,
                -1.1023098470455541,
                -0.5878447933708866,
                0.024164822718983126
            ]
        },
        {
            "positions": [
                1.0307295954089208,
                -0.8159809834963615,
                -1.0110936908686206,
                -1.065123088343588,
                -0.5059196170688305,
                -0.010656423142743288
            ]
        },
        {
            "positions": [
                0.9023547542777457,
                -0.7830303209094672,
                -0.9412071614192937,
                -1.027936329641622,
                -0.4239944407667744,
                -0.0454776690044697
            ]
        },
        {
            "positions": [
                0.773979913146571,
                -0.7500796583225731,
                -0.8713206319699671,
                -0.9907495709396561,
                -0.3420692644647183,
                -0.08029891486619606
            ]
        },
        {
            "positions": [
                0.6456050720153956,
                -0.7171289957356788,
                -0.8014341025206404,
                -0.9535628122376901,
                -0.2601440881626622,
                -0.11512016072792247
            ]
        },
        {
            "positions": [
                0.5172302308842207,
                -0.6841783331487845,
                -0.7315475730713137,
                -0.916376053535724,
                -0.17821891186060612,
                -0.14994140658964888
            ]
        },
        {
            "positions": [
                0.3888553897530458,
                -0.6512276705618903,
                -0.661661043621987,
                -0.8791892948337582,
                -0.09629373555855003,
                -0.1847626524513753
            ]
        },
        {
            "positions": [
                0.26048054862187087,
                -0.618277007974996,
                -0.5917745141726602,
                -0.8420025361317921,
                -0.01436855925649394,
                -0.2195838983131017
            ]
        },
        {
            "positions": [
                0.1321057074906955,
                -0.5853263453881017,
                -0.5218879847233335,
                -0.8048157774298261,
                0.06755661704556215,
                -0.2544051441748281
            ]
        },
        {
            "positions": [
                0.0037308663595210234,
                -0.5523756828012075,
                -0.4520014552740068,
                -0.7676290187278602,
                0.14948179334761824,
                -0.2892263900365544
            ]
        },
        {
            "positions": [
                -0.12464397477165434,
                -0.5194250202143132,
                -0.3821149258246801,
                -0.7304422600258942,
                0.23140696964967433,
                -0.32404763589828084
            ]
        },
        {
            "positions": [
                -0.25301881590282926,
                -0.486474357627419,
                -0.3122283963753534,
                -0.6932555013239281,
                0.3133321459517304,
                -0.35886888176000736
            ]
        },
        {
            "positions": [
                -0.3813936570340042,
                -0.4535236950405248,
                -0.24234186692602666,
                -0.6560687426219621,
                0.3952573222537865,
                -0.39369012762173367
            ]
        },
        {
            "positions": [
                -0.5097684981651791,
                -0.4205730324536305,
                -0.17245533747669992,
                -0.6188819839199962,
                0.47718249855584244,
                -0.42851137348346
            ]
        },
        {
            "positions": [
                -0.48999403941444464,
                -0.4832855525056602,
                -0.05085827482622707,
                -0.6132076815350077,
                0.45384759790850765,
                -0.5898157081323968
            ]
        },
        {
            "positions": [
                -0.47021958066371017,
                -0.54599807255769,
                0.07073878782424578,
                -0.6075333791500193,
                0.4305126972611728,
                -0.7511200427813336
            ]
        },
        {
            "positions": [
                -0.4504451219129757,
                -0.6087105926097196,
                0.19233585047471866,
                -0.6018590767650309,
                0.407177796613838,
                -0.9124243774302704
            ]
        },
        {
            "positions": [
                -0.43067066316224123,
                -0.6714231126617494,
                0.31393291312519145,
                -0.5961847743800425,
                0.3838428959665032,
                -1.0737287120792072
            ]
        },
        {
            "positions": [
                -0.4108962044115067,
                -0.7341356327137791,
                0.4355299757756643,
                -0.590510471995054,
                0.36050799531916833,
                -1.2350330467281438
            ]
        },
        {
            "positions": [
                -0.39112174566077224,
                -0.7968481527658089,
                0.5571270384261372,
                -0.5848361696100656,
                0.33717309467183354,
                -1.3963373813770807
            ]
        },
        {
            "positions": [
                -0.3713472869100378,
                -0.8595606728178385,
                0.67872410107661,
                -0.5791618672250771,
                0.31383819402449875,
                -1.5576417160260174
            ]
        },
        {
            "positions": [
                -0.3515728281593033,
                -0.9222731928698682,
                0.8003211637270828,
                -0.5734875648400887,
                0.29050329337716396,
                -1.718946050674954
            ]
        },
        {
            "positions": [
                -0.3317983694085688,
                -0.984985712921898,
                0.9219182263775556,
                -0.5678132624551003,
                0.26716839272982906,
                -1.880250385323891
            ]
        },
        {
            "positions": [
                -0.3120239106578343,
                -1.0476982329739277,
                1.0435152890280286,
                -0.5621389600701119,
                0.24383349208249427,
                -2.0415547199728277
            ]
        },
        {
            "positions": [
                -0.29224945190709983,
                -1.1104107530259575,
                1.1651123516785014,
                -0.5564646576851234,
                0.22049859143515949,
                -2.2028590546217646
            ]
        },
        {
            "positions": [
                -0.27247499315636536,
                -1.1731232730779872,
                1.2867094143289743,
                -0.550790355300135,
                0.19716369078782464,
                -2.3641633892707015
            ]
        },
        {
            "positions": [
                -0.25270053440563095,
                -1.2358357931300168,
                1.4083064769794469,
                -0.5451160529151465,
                0.17382879014048985,
                -2.525467723919638
            ]
        },
        {
            "positions": [
                -0.23292607565489648,
                -1.2985483131820466,
                1.5299035396299199,
                -0.5394417505301581,
                0.15049388949315506,
                -2.686772058568575
            ]
        },
        {
            "positions": [
                -0.21315161690416196,
                -1.3612608332340763,
                1.6515006022803926,
                -0.5337674481451697,
                0.12715898884582022,
                -2.8480763932175113
            ]
        },
        {
            "positions": [
                -0.1933771581534275,
                -1.423973353286106,
                1.7730976649308656,
                -0.5280931457601813,
                0.10382408819848543,
                -3.009380727866448
            ]
        },
        {
            "positions": [
                -0.17360269940269304,
                -1.4866858733381358,
                1.8946947275813386,
                -0.5224188433751928,
                0.08048918755115059,
                -3.170685062515385
            ]
        },
        {
            "positions": [
                -0.0744695114085692,
                -1.3731408683429445,
                1.925110160023277,
                -0.6316543685973901,
                0.09569502848704783,
                -3.155653637455527
            ]
        },
        {
            "positions": [
                0.024663676585554656,
                -1.259595863347753,
                1.955525592465215,
                -0.7408898938195873,
                0.11090086942294508,
                -3.1406222123956686
            ]
        },
        {
            "positions": [
                0.12379686457967848,
                -1.1460508583525617,
                1.9859410249071534,
                -0.8501254190417845,
                0.12610671035884233,
                -3.1255907873358106
            ]
        }
    ]
}