{
    "goal": {
        "global_pose": {
            "orientation": {
                "w": 0.5084816217422485,
                "x": -0.49083608388900757,
                "y": 0.5182115435600281,
                "z": -0.4816462993621826
            },
            "position": {
                "x": 0.5540239810943604,
                "y": 0.030875300988554955,
                "z": 0.16403168439865112
            }
        },
        "name": "move_to_storage"
    },
    "id": "KPIECE_move_to_storage_8",
    "joint_names": [
        "shoulder_pan_joint",
        "shoulder_lift_joint",
        "elbow_joint",
        "wrist_1_joint",
        "wrist_2_joint",
        "wrist_3_joint"
    ],
    "metrics": {
        "cart_traj_len": 0.35350206348033536,
        "distance_elbow_joint": 0.45165472464796164,
        "distance_shoulder_lift_joint": 0.23353816206887457,
        "distance_shoulder_pan_joint": 0.463203469200037,
        "distance_wrist_1_joint": 0.250801940907424,
        "distance_wrist_2_joint": 1.0952996405115782,
        "distance_wrist_3_joint": 0.09135882513056437,
        "smoothness": 0.0,
        "time": 0.098178284,
        "traj_len": 1.6080599374608024,
        "weighted_distance": 2.028466414350154
    },
    "planner": "KPIECE",
    "start": {
        "state": {
            "elbow_joint": 1.9715474092553085,
            "shoulder_lift_joint": -1.1394846673180945,
            "shoulder_pan_joint": 0.1228115366877952,
            "wrist_1_joint": -0.7804686583030105,
            "wrist_2_joint": 0.12958649594027716,
            "wrist_3_joint": -3.192492341365726
        }
    },
    "waypoints": [
        {
            "positions": [
                0.1228115366877952,
                -1.1394846673180945,
                1.9715474092553085,
                -0.7804686583030105,
                0.12958649594027716,
                -3.192492341365726
            ]
        },
        {
            "positions": [
                0.056639612516361335,
                -1.1728472618993624,
                2.0360695127764457,
                -0.8162975070040711,
                0.2860578731562169,
                -3.179441080632788
            ]
        },
        {
            "positions": [
                -0.009532311655072526,
                -1.20620985648063,
                2.1005916162975833,
                -0.8521263557051316,
                0.4425292503721566,
                -3.1663898198998504
            ]
        },
        {
            "positions": [
                -0.07570423582650639,
                -1.239572451061898,
                2.1651137198187205,
                -0.8879552044061922,
                0.5990006275880964,
                -3.1533385591669125
            ]
        },
        {
            "positions": [
                -0.14187615999794023,
                -1.2729350456431656,
                2.229635823339858,
                -0.9237840531072528,
                0.7554720048040361,
                -3.140287298433975
            ]
        },
        {
            "positions": [
                -0.2080480841693741,
                -1.3062976402244335,
                2.2941579268609953,
                -0.9596129018083134,
                0.9119433820199759,
                -3.1272360377010373
            ]
        },
        {
            "positions": [
                -0.27422000834080795,
                -1.3396602348057012,
                2.358680030382133,
                -0.9954417505093739,
                1.0684147592359157,
                -3.1141847769680995
            ]
        },
        {
            "positions": [
                -0.3403919325122418,
                -1.373022829386969,
                2.42320213390327,
                -1.0312705992104345,
                1.2248861364518555,
                -3.1011335162351616
            ]
        }
    ]
}