{
    "goal": {
        "global_pose": {
            "orientation": {
                "w": 0.5084816217422485,
                "x": -0.49083608388900757,
                "y": 0.5182115435600281,
                "z": -0.4816462993621826
            },
            "position": {
                "x": 0.5540239810943604,
                "y": 0.030875300988554955,
                "z": 0.16403168439865112
            }
        },
        "name": "move_to_storage"
    },
    "id": "KPIECE_move_to_storage_4",
    "joint_names": [
        "shoulder_pan_joint",
        "shoulder_lift_joint",
        "elbow_joint",
        "wrist_1_joint",
        "wrist_2_joint",
        "wrist_3_joint"
    ],
    "metrics": {
        "cart_traj_len": 0.3528718681008779,
        "distance_elbow_joint": 0.44928179050731076,
        "distance_shoulder_lift_joint": 0.23602011555611413,
        "distance_shoulder_pan_joint": 0.4629737997510816,
        "distance_wrist_1_joint": 0.23663391873714956,
        "distance_wrist_2_joint": 1.0925684551761465,
        "distance_wrist_3_joint": 0.1016261820568225,
        "smoothness": 4.440892098500626e-16,
        "time": 0.061846241999999996,
        "traj_len": 1.605958985087921,
        "weighted_distance": 2.0276979557645083
    },
    "planner": "KPIECE",
    "start": {
        "state": {
            "elbow_joint": 1.9715474092553085,
            "shoulder_lift_joint": -1.1394846673180945,
            "shoulder_pan_joint": 0.1228115366877952,
            "wrist_1_joint": -0.7804686583030105,
            "wrist_2_joint": 0.12958649594027716,
            "wrist_3_joint": -3.192492341365726
        }
    },
    "waypoints": [
        {
            "positions": [
                0.1228115366877952,
                -1.1394846673180945,
                1.9715474092553085,
                -0.7804686583030105,
                0.12958649594027716,
                -3.192492341365726
            ]
        },
        {
            "positions": [
                0.05667242243764069,
                -1.1732018266832536,
                2.0357305221849242,
                -0.814273503836889,
                0.2856677038225838,
                -3.1779743153576083
            ]
        },
        {
            "positions": [
                -0.00946669181251382,
                -1.2069189860484129,
                2.09991363511454,
                -0.8480783493707675,
                0.44174891170489045,
                -3.163456289349491
            ]
        },
        {
            "positions": [
                -0.07560580606266833,
                -1.240636145413572,
                2.1640967480441557,
                -0.881883194904646,
                0.5978301195871971,
                -3.1489382633413734
            ]
        },
        {
            "positions": [
                -0.14174492031282282,
                -1.2743533047787312,
                2.228279860973772,
                -0.9156880404385245,
                0.7539113274695037,
                -3.134420237333256
            ]
        },
        {
            "positions": [
                -0.20788403456297738,
                -1.3080704641438903,
                2.2924629739033877,
                -0.949492885972403,
                0.9099925353518105,
                -3.1199022113251385
            ]
        },
        {
            "positions": [
                -0.27402314881313183,
                -1.3417876235090493,
                2.3566460868330035,
                -0.9832977315062815,
                1.066073743234117,
                -3.105384185317021
            ]
        },
        {
            "positions": [
                -0.3401622630632864,
                -1.3755047828742086,
                2.4208291997626192,
                -1.01710257704016,
                1.2221549511164238,
                -3.0908661593089035
            ]
        }
    ]
}