{
    "goal": {
        "global_pose": {
            "orientation": {
                "w": 0.7031023502349854,
                "x": -0.7110244035720825,
                "y": 0.007748599164187908,
                "z": 0.005598929710686207
            },
            "position": {
                "x": 0.11585023208521307,
                "y": 0.44412534475326537,
                "z": 0.3711530566215515
            }
        },
        "name": "move_to_auspresseinheit"
    },
    "id": "KPIECE_move_to_auspresseinheit_8",
    "joint_names": [
        "shoulder_pan_joint",
        "shoulder_lift_joint",
        "elbow_joint",
        "wrist_1_joint",
        "wrist_2_joint",
        "wrist_3_joint"
    ],
    "metrics": {
        "cart_traj_len": 2.0003737386244005,
        "distance_elbow_joint": 2.239685906109087,
        "distance_shoulder_lift_joint": 0.7521286228651634,
        "distance_shoulder_pan_joint": 1.1229648056666337,
        "distance_wrist_1_joint": 0.6227922908513028,
        "distance_wrist_2_joint": 0.8231562726924178,
        "distance_wrist_3_joint": 1.8477120196196926,
        "smoothness": 1.090672406185654,
        "time": 0.444210134,
        "traj_len": 2.7218449474215642,
        "weighted_distance": 3.542571455960685
    },
    "planner": "KPIECE",
    "start": {
        "state": {
            "elbow_joint": 2.4225745326682886,
            "shoulder_lift_joint": -1.3736534990239282,
            "shoulder_pan_joint": -0.3378633610955803,
            "wrist_1_joint": -1.02885917317252,
            "wrist_2_joint": 1.233022905420004,
            "wrist_3_joint": -3.09402240754724
        }
    },
    "waypoints": [
        {
            "positions": [
                -0.3378633610955803,
                -1.3736534990239282,
                2.4225745326682886,
                -1.02885917317252,
                1.233022905420004,
                -3.09402240754724
            ]
        },
        {
            "positions": [
                -0.2924590291559821,
                -1.422327994303544,
                2.319269118428403,
                -1.0015082652250549,
                1.171481709164797,
                -3.0119540254118116
            ]
        },
        {
            "positions": [
                -0.24705469721638396,
                -1.4710024895831597,
                2.2159637041885167,
                -0.9741573572775897,
                1.1099405129095905,
                -2.929885643276384
            ]
        },
        {
            "positions": [
                -0.20165036527678581,
                -1.5196769848627756,
                2.112658289948631,
                -0.9468064493301245,
                1.0483993166543837,
                -2.8478172611409556
            ]
        },
        {
            "positions": [
                -0.15624603333718762,
                -1.5683514801423915,
                2.0093528757087453,
                -0.9194555413826593,
                0.986858120399177,
                -2.7657488790055273
            ]
        },
        {
            "positions": [
                -0.11084170139758948,
                -1.617025975422007,
                1.9060474614688594,
                -0.8921046334351941,
                0.9253169241439703,
                -2.6836804968700996
            ]
        },
        {
            "positions": [
                -0.06543736945799133,
                -1.665700470701623,
                1.8027420472289735,
                -0.8647537254877289,
                0.8637757278887636,
                -2.6016121147346714
            ]
        },
        {
            "positions": [
                -0.020033037518393138,
                -1.7143749659812388,
                1.6994366329890878,
                -0.8374028175402637,
                0.8022345316335568,
                -2.519543732599243
            ]
        },
        {
            "positions": [
                0.02537129442120506,
                -1.7630494612608545,
                1.5961312187492018,
                -0.8100519095927985,
                0.74069333537835,
                -2.4374753504638154
            ]
        },
        {
            "positions": [
                0.07077562636080326,
                -1.8117239565404704,
                1.492825804509316,
                -0.7827010016453333,
                0.6791521391231433,
                -2.355406968328387
            ]
        },
        {
            "positions": [
                0.11617995830040134,
                -1.860398451820086,
                1.3895203902694302,
                -0.7553500936978681,
                0.6176109428679366,
                -2.2733385861929594
            ]
        },
        {
            "positions": [
                0.16158429023999954,
                -1.9090729470997019,
                1.2862149760295443,
                -0.7279991857504029,
                0.5560697466127299,
                -2.191270204057531
            ]
        },
        {
            "positions": [
                0.2449297000059708,
                -1.9244314683329062,
                1.387593249914927,
                -0.6853283238367255,
                0.5697487007400505,
                -2.308260193740561
            ]
        },
        {
            "positions": [
                0.3282751097719421,
                -1.9397899895661104,
                1.4889715238003098,
                -0.642657461923048,
                0.5834276548673711,
                -2.4252501834235916
            ]
        },
        {
            "positions": [
                0.41162051953791334,
                -1.9551485107993147,
                1.5903497976856926,
                -0.5999866000093705,
                0.5971066089946917,
                -2.5422401731066215
            ]
        },
        {
            "positions": [
                0.4949659293038846,
                -1.9705070320325189,
                1.6917280715710756,
                -0.557315738095693,
                0.6107855631220123,
                -2.659230162789652
            ]
        },
        {
            "positions": [
                0.5783113390698559,
                -1.9858655532657232,
                1.7931063454564584,
                -0.5146448761820156,
                0.6244645172493328,
                -2.776220152472682
            ]
        },
        {
            "positions": [
                0.6616567488358271,
                -2.0012240744989276,
                1.8944846193418412,
                -0.4719740142683381,
                0.6381434713766535,
                -2.893210142155712
            ]
        },
        {
            "positions": [
                0.7450021586017984,
                -2.0165825957321317,
                1.995862893227224,
                -0.42930315235466066,
                0.6518224255039741,
                -3.0102001318387424
            ]
        },
        {
            "positions": [
                0.7249525156171709,
                -1.9619828326536517,
                2.1927021093635553,
                -0.4409212873713823,
                0.6770476430009238,
                -3.0732150760131285
            ]
        },
        {
            "positions": [
                0.7049028726325434,
                -1.907383069575172,
                2.389541325499887,
                -0.45253942238810396,
                0.7022728604978736,
                -3.136230020187515
            ]
        }
    ]
}