{
    "goal": {
        "global_pose": {
            "orientation": {
                "w": 0.5084816217422485,
                "x": -0.49083608388900757,
                "y": 0.5182115435600281,
                "z": -0.4816462993621826
            },
            "position": {
                "x": 0.5540239810943604,
                "y": 0.030875300988554955,
                "z": 0.16403168439865112
            }
        },
        "name": "move_to_storage"
    },
    "id": "KPIECE_move_to_storage_2",
    "joint_names": [
        "shoulder_pan_joint",
        "shoulder_lift_joint",
        "elbow_joint",
        "wrist_1_joint",
        "wrist_2_joint",
        "wrist_3_joint"
    ],
    "metrics": {
        "cart_traj_len": 0.35330457091139106,
        "distance_elbow_joint": 0.45093992231659774,
        "distance_shoulder_lift_joint": 0.2337561801346173,
        "distance_shoulder_pan_joint": 0.45821594715232644,
        "distance_wrist_1_joint": 0.24846784812537237,
        "distance_wrist_2_joint": 1.1152724392129882,
        "distance_wrist_3_joint": 0.10812331424028976,
        "smoothness": 1.7763568441654007e-15,
        "time": 0.044236567,
        "traj_len": 1.6170267935882174,
        "weighted_distance": 2.0481119517743975
    },
    "planner": "KPIECE",
    "start": {
        "state": {
            "elbow_joint": 1.9715474092553085,
            "shoulder_lift_joint": -1.1394846673180945,
            "shoulder_pan_joint": 0.1228115366877952,
            "wrist_1_joint": -0.7804686583030105,
            "wrist_2_joint": 0.12958649594027716,
            "wrist_3_joint": -3.192492341365726
        }
    },
    "waypoints": [
        {
            "positions": [
                0.1228115366877952,
                -1.1394846673180945,
                1.9715474092553085,
                -0.7804686583030105,
                0.12958649594027716,
                -3.192492341365726
            ]
        },
        {
            "positions": [
                0.05735211566603428,
                -1.1728784073373255,
                2.0359673981576796,
                -0.8159640651780636,
                0.2889111301135612,
                -3.177046153617113
            ]
        },
        {
            "positions": [
                -0.008107305355726638,
                -1.2062721473565565,
                2.1003873870600507,
                -0.8514594720531169,
                0.4482357642868452,
                -3.1615999658685006
            ]
        },
        {
            "positions": [
                -0.07356672637748755,
                -1.2396658873757875,
                2.164807375962422,
                -0.88695487892817,
                0.6075603984601292,
                -3.1461537781198876
            ]
        },
        {
            "positions": [
                -0.13902614739924846,
                -1.2730596273950185,
                2.229227364864793,
                -0.9224502858032233,
                0.7668850326334132,
                -3.1307075903712747
            ]
        },
        {
            "positions": [
                -0.2044855684210094,
                -1.3064533674142498,
                2.293647353767164,
                -0.9579456926782765,
                0.9262096668066974,
                -3.1152614026226617
            ]
        },
        {
            "positions": [
                -0.2699449894427703,
                -1.3398471074334808,
                2.358067342669535,
                -0.9934410995533296,
                1.0855343009799814,
                -3.099815214874049
            ]
        },
        {
            "positions": [
                -0.33540441046453123,
                -1.3732408474527118,
                2.422487331571906,
                -1.0289365064283829,
                1.2448589351532653,
                -3.0843690271254363
            ]
        }
    ]
}