{
    "goal": {
        "global_pose": {
            "orientation": {
                "w": 0.7031023502349854,
                "x": -0.7110244035720825,
                "y": 0.007748599164187908,
                "z": 0.005598929710686207
            },
            "position": {
                "x": 0.11585023208521307,
                "y": 0.44412534475326537,
                "z": 0.3711530566215515
            }
        },
        "name": "move_to_auspresseinheit"
    },
    "id": "LazyPRMstar_move_to_auspresseinheit_7",
    "joint_names": [
        "shoulder_pan_joint",
        "shoulder_lift_joint",
        "elbow_joint",
        "wrist_1_joint",
        "wrist_2_joint",
        "wrist_3_joint"
    ],
    "metrics": {
        "cart_traj_len": 3.4395179928035198,
        "distance_elbow_joint": 1.0978029183162588,
        "distance_shoulder_lift_joint": 1.3823077852671393,
        "distance_shoulder_pan_joint": 5.306374462295533,
        "distance_wrist_1_joint": 4.078844342204759,
        "distance_wrist_2_joint": 5.278054102039584,
        "distance_wrist_3_joint": 1.489474450179535,
        "smoothness": 0.7760353773767166,
        "time": 3.022850238,
        "traj_len": 4.316579439823019,
        "weighted_distance": 5.564953315608874
    },
    "planner": "LazyPRMstar",
    "start": {
        "state": {
            "elbow_joint": 2.4225745326682886,
            "shoulder_lift_joint": -1.3736534990239282,
            "shoulder_pan_joint": -0.3378633610955803,
            "wrist_1_joint": -1.02885917317252,
            "wrist_2_joint": 1.233022905420004,
            "wrist_3_joint": -3.09402240754724
        }
    },
    "waypoints": [
        {
            "positions": [
                -0.3378633610955803,
                -1.3736534990239282,
                2.4225745326682886,
                -1.02885917317252,
                1.233022905420004,
                -3.09402240754724
            ]
        },
        {
            "positions": [
                -0.31438270943154517,
                -1.5045041164989685,
                2.32885310858003,
                -1.076808566414734,
                1.1890189499791395,
                -3.0763683249777625
            ]
        },
        {
            "positions": [
                -0.29090205776751005,
                -1.6353547339740089,
                2.235131684491771,
                -1.1247579596569481,
                1.145014994538275,
                -3.0587142424082847
            ]
        },
        {
            "positions": [
                -0.26742140610347487,
                -1.7662053514490492,
                2.141410260403512,
                -1.172707352899162,
                1.1010110390974106,
                -3.041060159838807
            ]
        },
        {
            "positions": [
                -0.24394075443943977,
                -1.8970559689240898,
                2.047688836315253,
                -1.220656746141376,
                1.0570070836565462,
                -3.0234060772693296
            ]
        },
        {
            "positions": [
                -0.22046010277540462,
                -2.02790658639913,
                1.9539674122269943,
                -1.2686061393835901,
                1.0130031282156817,
                -3.0057519946998523
            ]
        },
        {
            "positions": [
                -0.1969794511113695,
                -2.1587572038741705,
                1.8602459881387354,
                -1.316555532625804,
                0.9689991727748174,
                -2.9880979121303746
            ]
        },
        {
            "positions": [
                -0.06506641339833183,
                -2.1663608747271588,
                1.87029704790246,
                -1.2158856380007819,
                0.8542407526788927,
                -2.961025723633277
            ]
        },
        {
            "positions": [
                0.06684662431470584,
                -2.1739645455801475,
                1.8803481076661848,
                -1.1152157433757595,
                0.7394823325829679,
                -2.93395353513618
            ]
        },
        {
            "positions": [
                0.19875966202774348,
                -2.181568216433136,
                1.8903991674299097,
                -1.0145458487507373,
                0.6247239124870432,
                -2.9068813466390826
            ]
        },
        {
            "positions": [
                0.3306726997407812,
                -2.1891718872861246,
                1.9004502271936343,
                -0.913875954125715,
                0.5099654923911185,
                -2.879809158141985
            ]
        },
        {
            "positions": [
                0.4625857374538188,
                -2.196775558139113,
                1.910501286957359,
                -0.8132060595006927,
                0.3952070722951937,
                -2.852736969644888
            ]
        },
        {
            "positions": [
                0.5944987751668565,
                -2.2043792289921016,
                1.9205523467210837,
                -0.7125361648756704,
                0.28044865219926896,
                -2.8256647811477906
            ]
        },
        {
            "positions": [
                0.7264118128798942,
                -2.21198289984509,
                1.9306034064848083,
                -0.6118662702506481,
                0.16569023210334421,
                -2.798592592650693
            ]
        },
        {
            "positions": [
                0.8583248505929318,
                -2.2195865706980786,
                1.940654466248533,
                -0.5111963756256259,
                0.050931812007419586,
                -2.771520404153596
            ]
        },
        {
            "positions": [
                0.9902378883059696,
                -2.227190241551067,
                1.9507055260122579,
                -0.4105264810006036,
                -0.06382660808850538,
                -2.7444482156564987
            ]
        },
        {
            "positions": [
                1.1221509260190072,
                -2.2347939124040557,
                1.9607565857759826,
                -0.30985658637558133,
                -0.17858502818443,
                -2.7173760271594016
            ]
        },
        {
            "positions": [
                1.2540639637320448,
                -2.242397583257044,
                1.9708076455397072,
                -0.20918669175055915,
                -0.29334344828035464,
                -2.690303838662304
            ]
        },
        {
            "positions": [
                1.3859770014450823,
                -2.2500012541100327,
                1.9808587053034319,
                -0.10851679712553675,
                -0.4081018683762795,
                -2.6632316501652067
            ]
        },
        {
            "positions": [
                1.5178900391581198,
                -2.257604924963021,
                1.9909097650671566,
                -0.007846902500514563,
                -0.5228602884722041,
                -2.6361594616681097
            ]
        },
        {
            "positions": [
                1.6498030768711578,
                -2.2652085958160098,
                2.0009608248308814,
                0.09282299212450784,
                -0.637618708568129,
                -2.609087273171012
            ]
        },
        {
            "positions": [
                1.7817161145841953,
                -2.272812266668998,
                2.011011884594606,
                0.19349288674953002,
                -0.7523771286640536,
                -2.5820150846739147
            ]
        },
        {
            "positions": [
                1.9136291522972333,
                -2.280415937521987,
                2.021062944358331,
                0.2941627813745522,
                -0.8671355487599782,
                -2.5549428961768177
            ]
        },
        {
            "positions": [
                2.045542190010271,
                -2.288019608374975,
                2.0311140041220552,
                0.3948326759995744,
                -0.9818939688559031,
                -2.52787070767972
            ]
        },
        {
            "positions": [
                2.177455227723309,
                -2.295623279227964,
                2.04116506388578,
                0.4955025706245968,
                -1.0966523889518283,
                -2.5007985191826227
            ]
        },
        {
            "positions": [
                2.3093682654363463,
                -2.303226950080952,
                2.051216123649505,
                0.596172465249619,
                -1.2114108090477527,
                -2.4737263306855253
            ]
        },
        {
            "positions": [
                2.441281303149384,
                -2.310830620933941,
                2.0612671834132295,
                0.6968423598746414,
                -1.3261692291436775,
                -2.4466541421884282
            ]
        },
        {
            "positions": [
                2.5731943408624214,
                -2.318434291786929,
                2.0713182431769543,
                0.7975122544996633,
                -1.440927649239602,
                -2.4195819536913312
            ]
        },
        {
            "positions": [
                2.7051073785754594,
                -2.326037962639918,
                2.081369302940679,
                0.8981821491246857,
                -1.5556860693355268,
                -2.3925097651942338
            ]
        },
        {
            "positions": [
                2.837020416288497,
                -2.333641633492906,
                2.0914203627044037,
                0.9988520437497082,
                -1.6704444894314516,
                -2.3654375766971363
            ]
        },
        {
            "positions": [
                2.7248366960299992,
                -2.3114142834508975,
                2.10743615213709,
                0.9211814960457102,
                -1.5454662416847083,
                -2.4054843987671064
            ]
        },
        {
            "positions": [
                2.6126529757715016,
                -2.2891869334088892,
                2.123451941569776,
                0.8435109483417121,
                -1.4204879939379647,
                -2.4455312208370765
            ]
        },
        {
            "positions": [
                2.500469255513004,
                -2.266959583366881,
                2.1394677310024623,
                0.7658404006377142,
                -1.2955097461912213,
                -2.4855780429070466
            ]
        },
        {
            "positions": [
                2.3882855352545063,
                -2.2447322333248723,
                2.1554835204351486,
                0.6881698529337161,
                -1.1705314984444777,
                -2.5256248649770168
            ]
        },
        {
            "positions": [
                2.2761018149960086,
                -2.2225048832828636,
                2.1714993098678343,
                0.6104993052297182,
                -1.0455532506977343,
                -2.5656716870469864
            ]
        },
        {
            "positions": [
                2.163918094737511,
                -2.2002775332408553,
                2.1875150993005206,
                0.5328287575257202,
                -0.9205750029509908,
                -2.6057185091169566
            ]
        },
        {
            "positions": [
                2.0517343744790137,
                -2.178050183198847,
                2.203530888733207,
                0.45515820982172217,
                -0.7955967552042473,
                -2.6457653311869267
            ]
        },
        {
            "positions": [
                1.9395506542205159,
                -2.1558228331568383,
                2.219546678165893,
                0.3774876621177242,
                -0.6706185074575038,
                -2.685812153256897
            ]
        },
        {
            "positions": [
                1.8273669339620182,
                -2.1335954831148296,
                2.2355624675985792,
                0.29981711441372616,
                -0.5456402597107604,
                -2.725858975326867
            ]
        },
        {
            "positions": [
                1.7151832137035206,
                -2.1113681330728213,
                2.2515782570312655,
                0.2221465667097282,
                -0.420662011964017,
                -2.765905797396837
            ]
        },
        {
            "positions": [
                1.602999493445023,
                -2.089140783030813,
                2.2675940464639517,
                0.14447601900573004,
                -0.2956837642172734,
                -2.805952619466807
            ]
        },
        {
            "positions": [
                1.4908157731865255,
                -2.0669134329888044,
                2.283609835896638,
                0.0668054713017322,
                -0.17070551647053,
                -2.8459994415367773
            ]
        },
        {
            "positions": [
                1.3786320529280276,
                -2.0446860829467957,
                2.299625625329324,
                -0.010865076402265972,
                -0.04572726872378641,
                -2.8860462636067474
            ]
        },
        {
            "positions": [
                1.2664483326695302,
                -2.0224587329047874,
                2.31564141476201,
                -0.08853562410626381,
                0.07925097902295697,
                -2.926093085676717
            ]
        },
        {
            "positions": [
                1.1542646124110323,
                -2.000231382862779,
                2.331657204194696,
                -0.16620617181026187,
                0.20422922676970057,
                -2.9661399077466877
            ]
        },
        {
            "positions": [
                1.0420808921525349,
                -1.9780040328207704,
                2.3476729936273824,
                -0.2438767195142597,
                0.32920747451644394,
                -3.0061867298166574
            ]
        },
        {
            "positions": [
                0.9298971718940372,
                -1.955776682778762,
                2.3636887830600686,
                -0.321547267218258,
                0.45418572226318776,
                -3.0462335518866275
            ]
        },
        {
            "positions": [
                0.8177134516355395,
                -1.9335493327367534,
                2.379704572492755,
                -0.39921781492225583,
                0.5791639700099309,
                -3.0862803739565976
            ]
        },
        {
            "positions": [
                0.7055297313770419,
                -1.911321982694745,
                2.395720361925441,
                -0.47688836262625384,
                0.7041422177566744,
                -3.1263271960265677
            ]
        }
    ]
}