{
    "goal": {
        "global_pose": {
            "orientation": {
                "w": 0.7047431468963623,
                "x": -0.7094548344612122,
                "y": 0.0024358443915843964,
                "z": -0.0022348060738295317
            },
            "position": {
                "x": 0.6094750761985779,
                "y": 0.3671506643295288,
                "z": 0.19426114857196808
            }
        },
        "name": "move_to_magneteinheit_target"
    },
    "id": "LazyPRM_move_to_magneteinheit_target_8",
    "joint_names": [
        "shoulder_pan_joint",
        "shoulder_lift_joint",
        "elbow_joint",
        "wrist_1_joint",
        "wrist_2_joint",
        "wrist_3_joint"
    ],
    "metrics": {
        "cart_traj_len": 3.8202539017379684,
        "distance_elbow_joint": 3.9031291796056617,
        "distance_shoulder_lift_joint": 1.3628996649510738,
        "distance_shoulder_pan_joint": 4.296080079654347,
        "distance_wrist_1_joint": 1.447839508985251,
        "distance_wrist_2_joint": 3.0937764642435646,
        "distance_wrist_3_joint": 3.22220056312445,
        "smoothness": 0.40608089660002167,
        "time": 0.10804530100000001,
        "traj_len": 4.16244224711459,
        "weighted_distance": 5.320896781562491
    },
    "planner": "LazyPRM",
    "start": {
        "state": {
            "elbow_joint": -1.9196185737098679,
            "shoulder_lift_joint": -1.2443395971259867,
            "shoulder_pan_joint": 2.6996025301141957,
            "wrist_1_joint": -1.548550951469146,
            "wrist_2_joint": -1.5709469089955597,
            "wrist_3_joint": 0.4420197730596999
        }
    },
    "waypoints": [
        {
            "positions": [
                2.6996025301141957,
                -1.2443395971259867,
                -1.9196185737098679,
                -1.548550951469146,
                -1.5709469089955597,
                0.4420197730596999
            ]
        },
        {
            "positions": [
                2.595452840503743,
                -1.2634939574919295,
                -1.848697546567639,
                -1.5158509356096241,
                -1.4983040674265444,
                0.531607504250094
            ]
        },
        {
            "positions": [
                2.49130315089329,
                -1.2826483178578723,
                -1.7777765194254103,
                -1.4831509197501023,
                -1.425661225857529,
                0.6211952354404879
            ]
        },
        {
            "positions": [
                2.3871534612828373,
                -1.3018026782238148,
                -1.7068554922831813,
                -1.4504509038905804,
                -1.3530183842885137,
                0.710782966630882
            ]
        },
        {
            "positions": [
                2.2830037716723846,
                -1.3209570385897575,
                -1.6359344651409526,
                -1.4177508880310585,
                -1.2803755427194985,
                0.8003706978212761
            ]
        },
        {
            "positions": [
                2.1788540820619318,
                -1.3401113989557003,
                -1.5650134379987237,
                -1.3850508721715364,
                -1.207732701150483,
                0.8899584290116701
            ]
        },
        {
            "positions": [
                2.074704392451479,
                -1.359265759321643,
                -1.4940924108564948,
                -1.3523508563120146,
                -1.1350898595814678,
                0.9795461602020641
            ]
        },
        {
            "positions": [
                1.9705547028410262,
                -1.3784201196875856,
                -1.423171383714266,
                -1.3196508404524927,
                -1.0624470180124526,
                1.0691338913924582
            ]
        },
        {
            "positions": [
                1.8664050132305734,
                -1.3975744800535284,
                -1.3522503565720372,
                -1.2869508245929708,
                -0.9898041764434372,
                1.1587216225828523
            ]
        },
        {
            "positions": [
                1.7622553236201206,
                -1.4167288404194711,
                -1.2813293294298085,
                -1.254250808733449,
                -0.9171613348744221,
                1.2483093537732461
            ]
        },
        {
            "positions": [
                1.6581056340096678,
                -1.4358832007854139,
                -1.2104083022875796,
                -1.221550792873927,
                -0.8445184933054066,
                1.3378970849636402
            ]
        },
        {
            "positions": [
                1.553955944399215,
                -1.4550375611513564,
                -1.1394872751453509,
                -1.1888507770144052,
                -0.7718756517363914,
                1.4274848161540343
            ]
        },
        {
            "positions": [
                1.4498062547887622,
                -1.4741919215172992,
                -1.0685662480031217,
                -1.1561507611548834,
                -0.699232810167376,
                1.5170725473444284
            ]
        },
        {
            "positions": [
                1.3456565651783094,
                -1.493346281883242,
                -0.9976452208608931,
                -1.1234507452953615,
                -0.6265899685983608,
                1.6066602785348223
            ]
        },
        {
            "positions": [
                1.2415068755678567,
                -1.5125006422491847,
                -0.9267241937186642,
                -1.0907507294358396,
                -0.5539471270293455,
                1.6962480097252164
            ]
        },
        {
            "positions": [
                1.1373571859574039,
                -1.5316550026151272,
                -0.8558031665764354,
                -1.0580507135763177,
                -0.4813042854603302,
                1.7858357409156105
            ]
        },
        {
            "positions": [
                1.033207496346951,
                -1.55080936298107,
                -0.7848821394342065,
                -1.0253506977167959,
                -0.40866144389131476,
                1.8754234721060046
            ]
        },
        {
            "positions": [
                0.9290578067364983,
                -1.5699637233470127,
                -0.7139611122919778,
                -0.9926506818572739,
                -0.33601860232229974,
                1.9650112032963984
            ]
        },
        {
            "positions": [
                0.8249081171260457,
                -1.5891180837129553,
                -0.6430400851497491,
                -0.959950665997752,
                -0.2633757607532845,
                2.0545989344867923
            ]
        },
        {
            "positions": [
                0.7207584275155925,
                -1.608272444078898,
                -0.5721190580075199,
                -0.92725065013823,
                -0.19073291918426882,
                2.1441866656771866
            ]
        },
        {
            "positions": [
                0.6166087379051399,
                -1.6274268044448408,
                -0.5011980308652912,
                -0.8945506342787082,
                -0.11809007761525359,
                2.2337743968675805
            ]
        },
        {
            "positions": [
                0.5124590482946871,
                -1.6465811648107835,
                -0.4302770037230623,
                -0.8618506184191863,
                -0.04544723604623835,
                2.3233621280579744
            ]
        },
        {
            "positions": [
                0.40830935868423435,
                -1.6657355251767263,
                -0.3593559765808336,
                -0.8291506025596644,
                0.02719560552277689,
                2.4129498592483687
            ]
        },
        {
            "positions": [
                0.30415966907378156,
                -1.684889885542669,
                -0.2884349494386047,
                -0.7964505867001425,
                0.09983844709179235,
                2.502537590438763
            ]
        },
        {
            "positions": [
                0.20000997946332877,
                -1.7040442459086116,
                -0.21751392229637578,
                -0.7637505708406206,
                0.17248128866080759,
                2.592125321629157
            ]
        },
        {
            "positions": [
                0.09586028985287598,
                -1.7231986062745543,
                -0.14659289515414708,
                -0.7310505549810988,
                0.24512413022982282,
                2.6817130528195507
            ]
        },
        {
            "positions": [
                -0.00828939975757681,
                -1.7423529666404969,
                -0.07567186801191839,
                -0.698350539121577,
                0.31776697179883806,
                2.7713007840099446
            ]
        },
        {
            "positions": [
                -0.1124390893680296,
                -1.7615073270064396,
                -0.0047508408696892435,
                -0.665650523262055,
                0.3904098133678535,
                2.860888515200339
            ]
        },
        {
            "positions": [
                -0.2165887789784824,
                -1.7806616873723824,
                0.06617018627253946,
                -0.6329505074025331,
                0.46305265493686876,
                2.950476246390733
            ]
        },
        {
            "positions": [
                -0.3207384685889352,
                -1.7998160477383252,
                0.13709121341476838,
                -0.6002504915430112,
                0.5356954965058838,
                3.040063977581127
            ]
        },
        {
            "positions": [
                -0.42488815819938797,
                -1.818970408104268,
                0.20801224055699707,
                -0.5675504756834894,
                0.6083383380748992,
                3.129651708771521
            ]
        },
        {
            "positions": [
                -0.5290378478098408,
                -1.8381247684702107,
                0.2789332676992262,
                -0.5348504598239674,
                0.6809811796439147,
                3.2192394399619153
            ]
        },
        {
            "positions": [
                -0.6331875374202935,
                -1.8572791288361534,
                0.3498542948414549,
                -0.5021504439644455,
                0.7536240212129302,
                3.308827171152309
            ]
        },
        {
            "positions": [
                -0.7373372270307466,
                -1.876433489202096,
                0.42077532198368356,
                -0.46945042810492366,
                0.8262668627819449,
                3.398414902342703
            ]
        },
        {
            "positions": [
                -0.6657422001549627,
                -1.8155330081291823,
                0.5510032623096928,
                -0.5001786769066761,
                0.7682199717431066,
                3.3762644495225826
            ]
        },
        {
            "positions": [
                -0.5941471732791788,
                -1.7546325270562686,
                0.6812312026357019,
                -0.5309069257084283,
                0.7101730807042683,
                3.354113996702462
            ]
        },
        {
            "positions": [
                -0.5225521464033949,
                -1.6937320459833547,
                0.8114591429617112,
                -0.5616351745101807,
                0.65212618966543,
                3.3319635438823414
            ]
        },
        {
            "positions": [
                -0.4509571195276109,
                -1.632831564910441,
                0.9416870832877204,
                -0.592363423311933,
                0.5940792986265917,
                3.3098130910622205
            ]
        },
        {
            "positions": [
                -0.37936209265182697,
                -1.5719310838375273,
                1.0719150236137296,
                -0.6230916721136854,
                0.5360324075877534,
                3.2876626382421
            ]
        },
        {
            "positions": [
                -0.30776706577604307,
                -1.5110306027646137,
                1.2021429639397387,
                -0.6538199209154378,
                0.4779855165489151,
                3.2655121854219793
            ]
        },
        {
            "positions": [
                -0.23617203890025917,
                -1.4501301216917,
                1.3323709042657481,
                -0.6845481697171901,
                0.41993862551007677,
                3.243361732601859
            ]
        },
        {
            "positions": [
                -0.16457701202447528,
                -1.3892296406187863,
                1.4625988445917573,
                -0.7152764185189424,
                0.36189173447123846,
                3.2212112797817385
            ]
        },
        {
            "positions": [
                -0.09298198514869127,
                -1.3283291595458726,
                1.5928267849177664,
                -0.7460046673206948,
                0.30384484343240015,
                3.1990608269616176
            ]
        },
        {
            "positions": [
                -0.021386958272907375,
                -1.2674286784729587,
                1.7230547252437758,
                -0.7767329161224472,
                0.24579795239356184,
                3.1769103741414972
            ]
        },
        {
            "positions": [
                0.05020806860287652,
                -1.2065281974000452,
                1.8532826655697847,
                -0.8074611649241996,
                0.18775106135472353,
                3.1547599213213764
            ]
        },
        {
            "positions": [
                0.12180309547866036,
                -1.1456277163271313,
                1.983510605895794,
                -0.8381894137259519,
                0.12970417031588527,
                3.132609468501256
            ]
        }
    ]
}