{
    "goal": {
        "global_pose": {
            "orientation": {
                "w": 0.5084816217422485,
                "x": -0.49083608388900757,
                "y": 0.5182115435600281,
                "z": -0.4816462993621826
            },
            "position": {
                "x": 0.5540239810943604,
                "y": 0.030875300988554955,
                "z": 0.16403168439865112
            }
        },
        "name": "move_to_storage"
    },
    "id": "LazyPRMstar_move_to_storage_1",
    "joint_names": [
        "shoulder_pan_joint",
        "shoulder_lift_joint",
        "elbow_joint",
        "wrist_1_joint",
        "wrist_2_joint",
        "wrist_3_joint"
    ],
    "metrics": {
        "cart_traj_len": 0.35387273569687056,
        "distance_elbow_joint": 0.4537524822075554,
        "distance_shoulder_lift_joint": 0.23395343485994857,
        "distance_shoulder_pan_joint": 0.46270612030659886,
        "distance_wrist_1_joint": 0.2590205985248668,
        "distance_wrist_2_joint": 1.1006621870567006,
        "distance_wrist_3_joint": 0.10818071027232401,
        "smoothness": 4.440892098500626e-16,
        "time": 3.000358113,
        "traj_len": 1.6181086283769686,
        "weighted_distance": 2.048003842612169
    },
    "planner": "LazyPRMstar",
    "start": {
        "state": {
            "elbow_joint": 1.9715474092553085,
            "shoulder_lift_joint": -1.1394846673180945,
            "shoulder_pan_joint": 0.1228115366877952,
            "wrist_1_joint": -0.7804686583030105,
            "wrist_2_joint": 0.12958649594027716,
            "wrist_3_joint": -3.192492341365726
        }
    },
    "waypoints": [
        {
            "positions": [
                0.1228115366877952,
                -1.1394846673180945,
                1.9715474092553085,
                -0.7804686583030105,
                0.12958649594027716,
                -3.192492341365726
            ]
        },
        {
            "positions": [
                0.05671066235828108,
                -1.1729065865838015,
                2.0363691924278164,
                -0.8174716009494201,
                0.28682395123409155,
                -3.1770379541839655
            ]
        },
        {
            "positions": [
                -0.009390211971233034,
                -1.2063285058495083,
                2.1011909756003244,
                -0.8544745435958295,
                0.4440614065279059,
                -3.161583567002205
            ]
        },
        {
            "positions": [
                -0.07549108630074715,
                -1.2397504251152154,
                2.1660127587728324,
                -0.8914774862422391,
                0.6012988618217203,
                -3.1461291798204445
            ]
        },
        {
            "positions": [
                -0.14159196063026125,
                -1.2731723443809222,
                2.23083454194534,
                -0.9284804288886487,
                0.7585363171155346,
                -3.1306747926386835
            ]
        },
        {
            "positions": [
                -0.20769283495977542,
                -1.3065942636466292,
                2.295656325117848,
                -0.9654833715350581,
                0.915773772409349,
                -3.115220405456923
            ]
        },
        {
            "positions": [
                -0.2737937092892895,
                -1.340016182912336,
                2.360478108290356,
                -1.0024863141814677,
                1.0730112277031634,
                -3.0997660182751625
            ]
        },
        {
            "positions": [
                -0.33989458361880365,
                -1.373438102178043,
                2.425299891462864,
                -1.0394892568278773,
                1.2302486829969776,
                -3.084311631093402
            ]
        }
    ]
}