{
    "goal": {
        "global_pose": {
            "orientation": {
                "w": 0.7031023502349854,
                "x": -0.7110244035720825,
                "y": 0.007748599164187908,
                "z": 0.005598929710686207
            },
            "position": {
                "x": 0.11585023208521307,
                "y": 0.44412534475326537,
                "z": 0.3711530566215515
            }
        },
        "name": "move_to_auspresseinheit"
    },
    "id": "LazyPRMstar_move_to_auspresseinheit_5",
    "joint_names": [
        "shoulder_pan_joint",
        "shoulder_lift_joint",
        "elbow_joint",
        "wrist_1_joint",
        "wrist_2_joint",
        "wrist_3_joint"
    ],
    "metrics": {
        "cart_traj_len": 0.6895994403202315,
        "distance_elbow_joint": 0.07832707056963706,
        "distance_shoulder_lift_joint": 0.5959503223835094,
        "distance_shoulder_pan_joint": 1.0428120424858456,
        "distance_wrist_1_joint": 1.0670494425840256,
        "distance_wrist_2_joint": 0.5270538566684548,
        "distance_wrist_3_joint": 0.6532263197584571,
        "smoothness": 0.9093863189754753,
        "time": 3.005344281,
        "traj_len": 1.9910848938329901,
        "weighted_distance": 2.620109729232599
    },
    "planner": "LazyPRMstar",
    "start": {
        "state": {
            "elbow_joint": 2.4225745326682886,
            "shoulder_lift_joint": -1.3736534990239282,
            "shoulder_pan_joint": -0.3378633610955803,
            "wrist_1_joint": -1.02885917317252,
            "wrist_2_joint": 1.233022905420004,
            "wrist_3_joint": -3.09402240754724
        }
    },
    "waypoints": [
        {
            "positions": [
                -0.3378633610955803,
                -1.3736534990239282,
                2.4225745326682886,
                -1.02885917317252,
                1.233022905420004,
                -3.09402240754724
            ]
        },
        {
            "positions": [
                -0.27593925178300777,
                -1.468008497420952,
                2.4137334223534483,
                -0.8938763919616546,
                1.2031825716417723,
                -3.0417407406554884
            ]
        },
        {
            "positions": [
                -0.2140151424704352,
                -1.5623634958179757,
                2.404892312038608,
                -0.7588936107507891,
                1.1733422378635407,
                -2.989459073763737
            ]
        },
        {
            "positions": [
                -0.15209103315786265,
                -1.6567184942149995,
                2.396051201723768,
                -0.6239108295399235,
                1.1435019040853094,
                -2.937177406871986
            ]
        },
        {
            "positions": [
                -0.09016692384529013,
                -1.7510734926120233,
                2.3872100914089276,
                -0.488928048329058,
                1.1136615703070778,
                -2.8848957399802346
            ]
        },
        {
            "positions": [
                -0.02824281453271754,
                -1.845428491009047,
                2.3783689810940873,
                -0.3539452671181924,
                1.0838212365288462,
                -2.8326140730884832
            ]
        },
        {
            "positions": [
                0.03368129477985497,
                -1.9397834894060708,
                2.369527870779247,
                -0.21896248590732698,
                1.0539809027506146,
                -2.780332406196732
            ]
        },
        {
            "positions": [
                0.16793477210193702,
                -1.9338194230057975,
                2.374583952515366,
                -0.27039303697109346,
                0.9843785319508015,
                -2.8482396698783217
            ]
        },
        {
            "positions": [
                0.3021882494240191,
                -1.927855356605524,
                2.3796400342514854,
                -0.32182358803485994,
                0.9147761611509884,
                -2.9161469335599115
            ]
        },
        {
            "positions": [
                0.43644172674610116,
                -1.9218912902052507,
                2.3846961159876043,
                -0.3732541390986264,
                0.8451737903511753,
                -2.9840541972415013
            ]
        },
        {
            "positions": [
                0.5706952040681832,
                -1.9159272238049774,
                2.3897521977237237,
                -0.4246846901623929,
                0.7755714195513621,
                -3.051961460923091
            ]
        },
        {
            "positions": [
                0.7049486813902652,
                -1.909963157404704,
                2.3948082794598426,
                -0.4761152412261594,
                0.7059690487515491,
                -3.119868724604681
            ]
        }
    ]
}