{
    "goal": {
        "global_pose": {
            "orientation": {
                "w": 0.7031023502349854,
                "x": -0.7110244035720825,
                "y": 0.007748599164187908,
                "z": 0.005598929710686207
            },
            "position": {
                "x": 0.11585023208521307,
                "y": 0.44412534475326537,
                "z": 0.3711530566215515
            }
        },
        "name": "move_to_auspresseinheit"
    },
    "id": "LazyPRMstar_move_to_auspresseinheit_8",
    "joint_names": [
        "shoulder_pan_joint",
        "shoulder_lift_joint",
        "elbow_joint",
        "wrist_1_joint",
        "wrist_2_joint",
        "wrist_3_joint"
    ],
    "metrics": {
        "cart_traj_len": 0.6565702921030081,
        "distance_elbow_joint": 0.048074940109072095,
        "distance_shoulder_lift_joint": 0.5344531129657006,
        "distance_shoulder_pan_joint": 1.0439326743517932,
        "distance_wrist_1_joint": 0.7356561994496132,
        "distance_wrist_2_joint": 0.5165873076186167,
        "distance_wrist_3_joint": 0.04598385833817087,
        "smoothness": 0.221017006459946,
        "time": 3.01430737,
        "traj_len": 1.7101719483236082,
        "weighted_distance": 2.066131485791148
    },
    "planner": "LazyPRMstar",
    "start": {
        "state": {
            "elbow_joint": 2.4225745326682886,
            "shoulder_lift_joint": -1.3736534990239282,
            "shoulder_pan_joint": -0.3378633610955803,
            "wrist_1_joint": -1.02885917317252,
            "wrist_2_joint": 1.233022905420004,
            "wrist_3_joint": -3.09402240754724
        }
    },
    "waypoints": [
        {
            "positions": [
                -0.3378633610955803,
                -1.3736534990239282,
                2.4225745326682886,
                -1.02885917317252,
                1.233022905420004,
                -3.09402240754724
            ]
        },
        {
            "positions": [
                -0.23869082946377274,
                -1.45373664238716,
                2.424769798179555,
                -0.8651476877287629,
                1.19052523827315,
                -3.095071468043303
            ]
        },
        {
            "positions": [
                -0.1395182978319652,
                -1.5338197857503917,
                2.4269650636908215,
                -0.7014362022850058,
                1.148027571126296,
                -3.096120528539367
            ]
        },
        {
            "positions": [
                -0.04034576620015767,
                -1.6139029291136233,
                2.429160329202088,
                -0.5377247168412487,
                1.1055299039794422,
                -3.0971695890354303
            ]
        },
        {
            "positions": [
                0.058826765431649886,
                -1.6939860724768552,
                2.431355594713354,
                -0.37401323139749154,
                1.0630322368325882,
                -3.0982186495314936
            ]
        },
        {
            "positions": [
                0.22063740238779062,
                -1.7475162073550485,
                2.4215321251973525,
                -0.39421579581613775,
                0.9763830770747879,
                -3.1086655536199728
            ]
        },
        {
            "positions": [
                0.38244803934393135,
                -1.8010463422332421,
                2.411708655681351,
                -0.41441836023478396,
                0.8897339173169877,
                -3.119112457708452
            ]
        },
        {
            "positions": [
                0.5442586763000721,
                -1.8545764771114355,
                2.401885186165349,
                -0.4346209246534301,
                0.8030847575591875,
                -3.1295593617969315
            ]
        },
        {
            "positions": [
                0.7060693132562128,
                -1.9081066119896288,
                2.3920617166493474,
                -0.4548234890720763,
                0.7164355978013872,
                -3.1400062658854107
            ]
        }
    ]
}