{
    "goal": {
        "global_pose": {
            "orientation": {
                "w": 0.7031023502349854,
                "x": -0.7110244035720825,
                "y": 0.007748599164187908,
                "z": 0.005598929710686207
            },
            "position": {
                "x": 0.11585023208521307,
                "y": 0.44412534475326537,
                "z": 0.3711530566215515
            }
        },
        "name": "move_to_auspresseinheit"
    },
    "id": "LazyPRM_move_to_auspresseinheit_10",
    "joint_names": [
        "shoulder_pan_joint",
        "shoulder_lift_joint",
        "elbow_joint",
        "wrist_1_joint",
        "wrist_2_joint",
        "wrist_3_joint"
    ],
    "metrics": {
        "cart_traj_len": 0.6711729015193162,
        "distance_elbow_joint": 0.23176236752366108,
        "distance_shoulder_lift_joint": 0.5341827547626272,
        "distance_shoulder_pan_joint": 1.0420297806084482,
        "distance_wrist_1_joint": 1.2166476506287172,
        "distance_wrist_2_joint": 0.5232172438293082,
        "distance_wrist_3_joint": 1.8088059162028887,
        "smoothness": 1.0315114829566812,
        "time": 0.050555435999999995,
        "traj_len": 2.3144428516504036,
        "weighted_distance": 3.2732434129498302
    },
    "planner": "LazyPRM",
    "start": {
        "state": {
            "elbow_joint": 2.4225745326682886,
            "shoulder_lift_joint": -1.3736534990239282,
            "shoulder_pan_joint": -0.3378633610955803,
            "wrist_1_joint": -1.02885917317252,
            "wrist_2_joint": 1.233022905420004,
            "wrist_3_joint": -3.09402240754724
        }
    },
    "waypoints": [
        {
            "positions": [
                -0.3378633610955803,
                -1.3736534990239282,
                2.4225745326682886,
                -1.02885917317252,
                1.233022905420004,
                -3.09402240754724
            ]
        },
        {
            "positions": [
                -0.31324292721119934,
                -1.3913982495200714,
                2.403825675018389,
                -0.9009896394194146,
                1.196333597904837,
                -2.968089858973928
            ]
        },
        {
            "positions": [
                -0.28862249332681844,
                -1.4091430000162148,
                2.385076817368489,
                -0.7731201056663091,
                1.1596442903896704,
                -2.8421573104006166
            ]
        },
        {
            "positions": [
                -0.2640020594424375,
                -1.426887750512358,
                2.3663279597185896,
                -0.6452505719132036,
                1.1229549828745036,
                -2.7162247618273048
            ]
        },
        {
            "positions": [
                -0.23938162555805656,
                -1.4446325010085013,
                2.34757910206869,
                -0.517381038160098,
                1.0862656753593367,
                -2.5902922132539934
            ]
        },
        {
            "positions": [
                -0.21476119167367563,
                -1.4623772515046445,
                2.3288302444187905,
                -0.38951150440699234,
                1.0495763678441699,
                -2.4643596646806816
            ]
        },
        {
            "positions": [
                -0.1901407577892947,
                -1.480122002000788,
                2.3100813867688905,
                -0.26164197065388695,
                1.0128870603290032,
                -2.33842711610737
            ]
        },
        {
            "positions": [
                -0.16552032390491375,
                -1.4978667524969311,
                2.291332529118991,
                -0.13377243690078133,
                0.9761977528138364,
                -2.2124945675340584
            ]
        },
        {
            "positions": [
                -0.05680948097769105,
                -1.549112940158134,
                2.3038975746157866,
                -0.17396755119540364,
                0.9428987414109438,
                -2.328404327057772
            ]
        },
        {
            "positions": [
                0.051901361949531655,
                -1.6003591278193372,
                2.3164626201125817,
                -0.21416266549002594,
                0.9095997300080512,
                -2.4443140865814854
            ]
        },
        {
            "positions": [
                0.16061220487675434,
                -1.6516053154805403,
                2.3290276656093774,
                -0.25435777978464824,
                0.8763007186051586,
                -2.5602238461051985
            ]
        },
        {
            "positions": [
                0.2693230478039771,
                -1.7028515031417433,
                2.3415927111061725,
                -0.29455289407927054,
                0.843001707202266,
                -2.676133605628912
            ]
        },
        {
            "positions": [
                0.37803389073119975,
                -1.7540976908029462,
                2.354157756602968,
                -0.33474800837389285,
                0.8097026957993734,
                -2.7920433651526255
            ]
        },
        {
            "positions": [
                0.4867447336584224,
                -1.8053438784641493,
                2.3667228020997637,
                -0.3749431226685151,
                0.7764036843964809,
                -2.9079531246763386
            ]
        },
        {
            "positions": [
                0.5954555765856452,
                -1.8565900661253525,
                2.379287847596559,
                -0.4151382369631374,
                0.7431046729935883,
                -3.023862884200052
            ]
        },
        {
            "positions": [
                0.7041664195128678,
                -1.9078362537865554,
                2.3918528930933545,
                -0.4553333512577597,
                0.7098056615906957,
                -3.1397726437237656
            ]
        }
    ]
}