{
    "goal": {
        "global_pose": {
            "orientation": {
                "w": 0.7047431468963623,
                "x": -0.7094548344612122,
                "y": 0.0024358443915843964,
                "z": -0.0022348060738295317
            },
            "position": {
                "x": 0.6094750761985779,
                "y": 0.3671506643295288,
                "z": 0.19426114857196808
            }
        },
        "name": "move_to_magneteinheit_target"
    },
    "id": "LazyPRMstar_move_to_magneteinheit_target_7",
    "joint_names": [
        "shoulder_pan_joint",
        "shoulder_lift_joint",
        "elbow_joint",
        "wrist_1_joint",
        "wrist_2_joint",
        "wrist_3_joint"
    ],
    "metrics": {
        "cart_traj_len": 6.667930564484474,
        "distance_elbow_joint": 4.385564749017754,
        "distance_shoulder_lift_joint": 0.9174392006715106,
        "distance_shoulder_pan_joint": 8.996988321479565,
        "distance_wrist_1_joint": 5.811227081876474,
        "distance_wrist_2_joint": 1.7068806445223834,
        "distance_wrist_3_joint": 3.5216930861320277,
        "smoothness": 0.3375697275806265,
        "time": 3.059166782,
        "traj_len": 5.033864627073287,
        "weighted_distance": 6.316746550429468
    },
    "planner": "LazyPRMstar",
    "start": {
        "state": {
            "elbow_joint": -1.9196185737098679,
            "shoulder_lift_joint": -1.2443395971259867,
            "shoulder_pan_joint": 2.6996025301141957,
            "wrist_1_joint": -1.548550951469146,
            "wrist_2_joint": -1.5709469089955597,
            "wrist_3_joint": 0.4420197730596999
        }
    },
    "waypoints": [
        {
            "positions": [
                2.6996025301141957,
                -1.2443395971259867,
                -1.9196185737098679,
                -1.548550951469146,
                -1.5709469089955597,
                0.4420197730596999
            ]
        },
        {
            "positions": [
                2.5512193667668077,
                -1.2312952164720372,
                -1.8134235034074275,
                -1.4644336641326432,
                -1.5416070813007223,
                0.4310393916697236
            ]
        },
        {
            "positions": [
                2.4028362034194197,
                -1.2182508358180877,
                -1.707228433104987,
                -1.3803163767961404,
                -1.5122672536058848,
                0.4200590102797473
            ]
        },
        {
            "positions": [
                2.2544530400720313,
                -1.2052064551641382,
                -1.6010333628025464,
                -1.2961990894596376,
                -1.4829274259110474,
                0.409078628889771
            ]
        },
        {
            "positions": [
                2.1060698767246433,
                -1.1921620745101886,
                -1.494838292500106,
                -1.212081802123135,
                -1.4535875982162099,
                0.3980982474997947
            ]
        },
        {
            "positions": [
                1.9576867133772553,
                -1.179117693856239,
                -1.3886432221976657,
                -1.1279645147866322,
                -1.4242477705213725,
                0.3871178661098184
            ]
        },
        {
            "positions": [
                1.8093035500298673,
                -1.1660733132022896,
                -1.282448151895225,
                -1.0438472274501294,
                -1.394907942826535,
                0.3761374847198421
            ]
        },
        {
            "positions": [
                1.660920386682479,
                -1.15302893254834,
                -1.1762530815927847,
                -0.9597299401136266,
                -1.3655681151316976,
                0.3651571033298658
            ]
        },
        {
            "positions": [
                1.512537223335091,
                -1.1399845518943905,
                -1.0700580112903442,
                -0.8756126527771237,
                -1.3362282874368603,
                0.35417672193988947
            ]
        },
        {
            "positions": [
                1.364154059987703,
                -1.126940171240441,
                -0.9638629409879037,
                -0.7914953654406209,
                -1.3068884597420227,
                0.34319634054991316
            ]
        },
        {
            "positions": [
                1.215770896640315,
                -1.1138957905864915,
                -0.8576678706854635,
                -0.7073780781041182,
                -1.2775486320471854,
                0.33221595915993685
            ]
        },
        {
            "positions": [
                1.067387733292927,
                -1.100851409932542,
                -0.7514728003830229,
                -0.6232607907676154,
                -1.2482088043523478,
                0.32123557776996053
            ]
        },
        {
            "positions": [
                0.9190045699455387,
                -1.0878070292785924,
                -0.6452777300805823,
                -0.5391435034311125,
                -1.2188689766575105,
                0.3102551963799842
            ]
        },
        {
            "positions": [
                0.7706214065981507,
                -1.0747626486246429,
                -0.539082659778142,
                -0.4550262160946099,
                -1.1895291489626731,
                0.29927481499000796
            ]
        },
        {
            "positions": [
                0.6222382432507625,
                -1.0617182679706934,
                -0.4328875894757016,
                -0.3709089287581071,
                -1.1601893212678356,
                0.2882944336000316
            ]
        },
        {
            "positions": [
                0.4738550799033745,
                -1.0486738873167438,
                -0.32669251917326103,
                -0.2867916414216043,
                -1.130849493572998,
                0.27731405221005534
            ]
        },
        {
            "positions": [
                0.3254719165559865,
                -1.0356295066627943,
                -0.22049744887082068,
                -0.20267435408510148,
                -1.1015096658781607,
                0.266333670820079
            ]
        },
        {
            "positions": [
                0.17708875320859807,
                -1.0225851260088445,
                -0.1143023785683801,
                -0.11855706674859867,
                -1.0721698381833233,
                0.2553532894301027
            ]
        },
        {
            "positions": [
                0.02870558986121008,
                -1.009540745354895,
                -0.008107308265939528,
                -0.03443977941209586,
                -1.0428300104884858,
                0.24437290804012637
            ]
        },
        {
            "positions": [
                -0.11967757348617791,
                -0.9964963647009456,
                0.0980877620365006,
                0.04967750792440673,
                -1.0134901827936484,
                0.2333925266501501
            ]
        },
        {
            "positions": [
                -0.2680607368335659,
                -0.9834519840469961,
                0.20428283233894096,
                0.13379479526090954,
                -0.984150355098811,
                0.2224121452601738
            ]
        },
        {
            "positions": [
                -0.4164439001809539,
                -0.9704076033930465,
                0.31047790264138175,
                0.21791208259741235,
                -0.9548105274039735,
                0.2114317638701975
            ]
        },
        {
            "positions": [
                -0.5648270635283419,
                -0.957363222739097,
                0.4166729729438221,
                0.30202936993391516,
                -0.9254706997091361,
                0.20045138248022118
            ]
        },
        {
            "positions": [
                -0.7132102268757303,
                -0.9443188420851475,
                0.5228680432462625,
                0.38614665727041797,
                -0.8961308720142986,
                0.18947100109024484
            ]
        },
        {
            "positions": [
                -0.8615933902231183,
                -0.9312744614311979,
                0.6290631135487033,
                0.470263944606921,
                -0.8667910443194612,
                0.17849061970026853
            ]
        },
        {
            "positions": [
                -1.0099765535705068,
                -0.9182300807772483,
                0.7352581838511436,
                0.5543812319434236,
                -0.8374512166246237,
                0.16751023831029221
            ]
        },
        {
            "positions": [
                -1.1583597169178943,
                -0.9051857001232989,
                0.841453254153584,
                0.6384985192799262,
                -0.8081113889297864,
                0.15652985692031596
            ]
        },
        {
            "positions": [
                -1.3067428802652827,
                -0.8921413194693493,
                0.9476483244560243,
                0.7226158066164292,
                -0.778771561234949,
                0.14554947553033964
            ]
        },
        {
            "positions": [
                -1.4551260436126707,
                -0.8790969388153997,
                1.0538433947584647,
                0.8067330939529318,
                -0.7494317335401115,
                0.13456909414036333
            ]
        },
        {
            "positions": [
                -1.6035092069600587,
                -0.8660525581614502,
                1.1600384650609055,
                0.8908503812894348,
                -0.7200919058452739,
                0.12358871275038702
            ]
        },
        {
            "positions": [
                -1.7518923703074467,
                -0.8530081775075007,
                1.2662335353633458,
                0.9749676686259374,
                -0.6907520781504365,
                0.11260833136041071
            ]
        },
        {
            "positions": [
                -1.9002755336548347,
                -0.8399637968535512,
                1.3724286056657862,
                1.05908495596244,
                -0.6614122504555991,
                0.10162794997043445
            ]
        },
        {
            "positions": [
                -2.0486586970022227,
                -0.8269194161996016,
                1.4786236759682265,
                1.143202243298943,
                -0.6320724227607617,
                0.09064756858045814
            ]
        },
        {
            "positions": [
                -2.1970418603496107,
                -0.8138750355456521,
                1.5848187462706673,
                1.2273195306354456,
                -0.6027325950659242,
                0.07966718719048177
            ]
        },
        {
            "positions": [
                -2.3454250236969996,
                -0.8008306548917026,
                1.6910138165731077,
                1.3114368179719487,
                -0.5733927673710868,
                0.06868680580050546
            ]
        },
        {
            "positions": [
                -2.4938081870443876,
                -0.787786274237753,
                1.797208886875548,
                1.3955541053084513,
                -0.5440529396762495,
                0.057706424410529145
            ]
        },
        {
            "positions": [
                -2.6421913503917756,
                -0.7747418935838035,
                1.9034039571779888,
                1.4796713926449543,
                -0.5147131119814119,
                0.04672604302055283
            ]
        },
        {
            "positions": [
                -2.7905745137391635,
                -0.761697512929854,
                2.0095990274804287,
                1.5637886799814569,
                -0.48537328428657456,
                0.035745661630576575
            ]
        },
        {
            "positions": [
                -2.9389576770865515,
                -0.7486531322759045,
                2.115794097782869,
                1.6479059673179595,
                -0.4560334565917372,
                0.024765280240600263
            ]
        },
        {
            "positions": [
                -3.0873408404339395,
                -0.7356087516219549,
                2.22198916808531,
                1.7320232546544623,
                -0.42669362889689966,
                0.01378489885062395
            ]
        },
        {
            "positions": [
                -2.963877573090423,
                -0.751328303743781,
                2.212606206269057,
                1.6346904517408907,
                -0.4050541148806026,
                0.13276406084766057
            ]
        },
        {
            "positions": [
                -2.840414305746907,
                -0.7670478558656072,
                2.203223244452804,
                1.537357648827319,
                -0.3834146008643055,
                0.2517432228446972
            ]
        },
        {
            "positions": [
                -2.7169510384033906,
                -0.7827674079874333,
                2.1938402826365513,
                1.4400248459137477,
                -0.3617750868480084,
                0.37072238484173375
            ]
        },
        {
            "positions": [
                -2.5934877710598743,
                -0.7984869601092593,
                2.184457320820298,
                1.3426920430001759,
                -0.34013557283171136,
                0.4897015468387704
            ]
        },
        {
            "positions": [
                -2.470024503716358,
                -0.8142065122310855,
                2.175074359004045,
                1.2453592400866045,
                -0.3184960588154143,
                0.608680708835807
            ]
        },
        {
            "positions": [
                -2.3465612363728416,
                -0.8299260643529116,
                2.1656913971877922,
                1.1480264371730329,
                -0.2968565447991172,
                0.7276598708328436
            ]
        },
        {
            "positions": [
                -2.2230979690293253,
                -0.8456456164747377,
                2.1563084353715394,
                1.0506936342594613,
                -0.27521703078282017,
                0.8466390328298802
            ]
        },
        {
            "positions": [
                -2.0996347016858086,
                -0.8613651685965638,
                2.1469254735552865,
                0.9533608313458897,
                -0.25357751676652307,
                0.9656181948269168
            ]
        },
        {
            "positions": [
                -1.9761714343422925,
                -0.8770847207183899,
                2.1375425117390336,
                0.8560280284323182,
                -0.23193800275022602,
                1.0845973568239533
            ]
        },
        {
            "positions": [
                -1.852708166998776,
                -0.892804272840216,
                2.128159549922781,
                0.7586952255187466,
                -0.21029848873392892,
                1.2035765188209901
            ]
        },
        {
            "positions": [
                -1.7292448996552596,
                -0.9085238249620421,
                2.118776588106528,
                0.6613624226051751,
                -0.18865897471763188,
                1.3225556808180265
            ]
        },
        {
            "positions": [
                -1.6057816323117433,
                -0.9242433770838683,
                2.1093936262902746,
                0.5640296196916035,
                -0.16701946070133478,
                1.4415348428150632
            ]
        },
        {
            "positions": [
                -1.482318364968227,
                -0.9399629292056944,
                2.1000106644740217,
                0.4666968167780319,
                -0.14537994668503773,
                1.5605140048120998
            ]
        },
        {
            "positions": [
                -1.3588550976247107,
                -0.9556824813275204,
                2.090627702657769,
                0.36936401386446027,
                -0.12374043266874069,
                1.6794931668091364
            ]
        },
        {
            "positions": [
                -1.2353918302811944,
                -0.9714020334493465,
                2.081244740841516,
                0.2720312109508889,
                -0.10210091865244364,
                1.7984723288061728
            ]
        },
        {
            "positions": [
                -1.1119285629376778,
                -0.9871215855711727,
                2.071861779025263,
                0.17469840803731707,
                -0.08046140463614648,
                1.9174514908032096
            ]
        },
        {
            "positions": [
                -0.9884652955941617,
                -1.0028411376929989,
                2.0624788172090103,
                0.07736560512374568,
                -0.05882189061984944,
                2.036430652800246
            ]
        },
        {
            "positions": [
                -0.8650020282506454,
                -1.018560689814825,
                2.0530958553927574,
                -0.01996719778982592,
                -0.03718237660355239,
                2.1554098147972827
            ]
        },
        {
            "positions": [
                -0.7415387609071291,
                -1.034280241936651,
                2.043712893576504,
                -0.11730000070339752,
                -0.015542862587255346,
                2.2743889767943193
            ]
        },
        {
            "positions": [
                -0.6180754935636124,
                -1.049999794058477,
                2.0343299317602512,
                -0.21463280361696913,
                0.0060966514290418106,
                2.3933681387913563
            ]
        },
        {
            "positions": [
                -0.49461222622009604,
                -1.0657193461803032,
                2.0249469699439984,
                -0.31196560653054073,
                0.027736165445338856,
                2.5123473007883925
            ]
        },
        {
            "positions": [
                -0.3711489588765797,
                -1.0814388983021292,
                2.0155640081277455,
                -0.4092984094441121,
                0.0493756794616359,
                2.631326462785429
            ]
        },
        {
            "positions": [
                -0.2476856915330634,
                -1.0971584504239553,
                2.0061810463114926,
                -0.5066312123576839,
                0.07101519347793295,
                2.7503056247824658
            ]
        },
        {
            "positions": [
                -0.1242224241895471,
                -1.1128780025457816,
                1.9967980844952398,
                -0.6039640152712553,
                0.0926547074942301,
                2.8692847867795024
            ]
        },
        {
            "positions": [
                -0.000759156846030784,
                -1.1285975546676077,
                1.9874151226789867,
                -0.7012968181848271,
                0.11429422151052715,
                2.988263948776539
            ]
        },
        {
            "positions": [
                0.12270411049748547,
                -1.1443171067894338,
                1.9780321608627338,
                -0.7986296210983986,
                0.13593373552682414,
                3.1072431107735756
            ]
        }
    ]
}