{
    "goal": {
        "global_pose": {
            "orientation": {
                "w": 0.7047431468963623,
                "x": -0.7094548344612122,
                "y": 0.0024358443915843964,
                "z": -0.0022348060738295317
            },
            "position": {
                "x": 0.6094750761985779,
                "y": 0.3671506643295288,
                "z": 0.19426114857196808
            }
        },
        "name": "move_to_magneteinheit_target"
    },
    "id": "LazyPRM_move_to_magneteinheit_target_2",
    "joint_names": [
        "shoulder_pan_joint",
        "shoulder_lift_joint",
        "elbow_joint",
        "wrist_1_joint",
        "wrist_2_joint",
        "wrist_3_joint"
    ],
    "metrics": {
        "cart_traj_len": 3.1519519973484367,
        "distance_elbow_joint": 3.9113025856500965,
        "distance_shoulder_lift_joint": 0.46779066728360996,
        "distance_shoulder_pan_joint": 2.756336571670213,
        "distance_wrist_1_joint": 3.5248973725682418,
        "distance_wrist_2_joint": 1.9162245982094135,
        "distance_wrist_3_joint": 2.1565188423136106,
        "smoothness": 0.15889035884033317,
        "time": 0.109801398,
        "traj_len": 3.838368225912566,
        "weighted_distance": 4.948457364987604
    },
    "planner": "LazyPRM",
    "start": {
        "state": {
            "elbow_joint": -1.9196185737098679,
            "shoulder_lift_joint": -1.2443395971259867,
            "shoulder_pan_joint": 2.6996025301141957,
            "wrist_1_joint": -1.548550951469146,
            "wrist_2_joint": -1.5709469089955597,
            "wrist_3_joint": 0.4420197730596999
        }
    },
    "waypoints": [
        {
            "positions": [
                2.6996025301141957,
                -1.2443395971259867,
                -1.9196185737098679,
                -1.548550951469146,
                -1.5709469089955597,
                0.4420197730596999
            ]
        },
        {
            "positions": [
                2.600838670668556,
                -1.2386484908332605,
                -1.8394486117244737,
                -1.4400350659088816,
                -1.5086474600866977,
                0.47392895466123797
            ]
        },
        {
            "positions": [
                2.5020748112229154,
                -1.2329573845405342,
                -1.7592786497390795,
                -1.3315191803486173,
                -1.4463480111778357,
                0.5058381362627761
            ]
        },
        {
            "positions": [
                2.4033109517772755,
                -1.2272662782478079,
                -1.6791086877536854,
                -1.223003294788353,
                -1.3840485622689738,
                0.5377473178643142
            ]
        },
        {
            "positions": [
                2.304547092331635,
                -1.2215751719550816,
                -1.5989387257682912,
                -1.1144874092280885,
                -1.3217491133601118,
                0.5696564994658522
            ]
        },
        {
            "positions": [
                2.205783232885995,
                -1.2158840656623553,
                -1.5187687637828968,
                -1.0059715236678242,
                -1.2594496644512496,
                0.6015656810673903
            ]
        },
        {
            "positions": [
                2.1070193734403553,
                -1.210192959369629,
                -1.4385988017975027,
                -0.8974556381075597,
                -1.1971502155423877,
                0.6334748626689284
            ]
        },
        {
            "positions": [
                2.008255513994715,
                -1.2045018530769027,
                -1.3584288398121085,
                -0.7889397525472953,
                -1.1348507666335257,
                0.6653840442704664
            ]
        },
        {
            "positions": [
                1.909491654549075,
                -1.1988107467841764,
                -1.2782588778267143,
                -0.680423866987031,
                -1.0725513177246637,
                0.6972932258720046
            ]
        },
        {
            "positions": [
                1.8107277951034348,
                -1.1931196404914501,
                -1.1980889158413202,
                -0.5719079814267666,
                -1.0102518688158018,
                0.7292024074735426
            ]
        },
        {
            "positions": [
                1.7119639356577947,
                -1.1874285341987239,
                -1.1179189538559258,
                -0.4633920958665023,
                -0.9479524199069398,
                0.7611115890750806
            ]
        },
        {
            "positions": [
                1.6132000762121546,
                -1.1817374279059976,
                -1.0377489918705316,
                -0.3548762103062377,
                -0.8856529709980778,
                0.7930207706766188
            ]
        },
        {
            "positions": [
                1.5144362167665146,
                -1.1760463216132713,
                -0.9575790298851375,
                -0.24636032474597336,
                -0.8233535220892159,
                0.8249299522781568
            ]
        },
        {
            "positions": [
                1.4156723573208745,
                -1.1703552153205452,
                -0.8774090678997433,
                -0.137844439185709,
                -0.7610540731803539,
                0.8568391338796949
            ]
        },
        {
            "positions": [
                1.3169084978752343,
                -1.164664109027819,
                -0.7972391059143491,
                -0.02932855362544462,
                -0.6987546242714918,
                0.888748315481233
            ]
        },
        {
            "positions": [
                1.218144638429594,
                -1.1589730027350926,
                -0.7170691439289549,
                0.07918733193481975,
                -0.6364551753626297,
                0.9206574970827711
            ]
        },
        {
            "positions": [
                1.119380778983954,
                -1.1532818964423663,
                -0.6368991819435608,
                0.18770321749508412,
                -0.5741557264537679,
                0.9525666786843092
            ]
        },
        {
            "positions": [
                1.020616919538314,
                -1.14759079014964,
                -0.5567292199581664,
                0.2962191030553487,
                -0.5118562775449058,
                0.9844758602858472
            ]
        },
        {
            "positions": [
                0.921853060092674,
                -1.1418996838569138,
                -0.47655925797277243,
                0.40473498861561286,
                -0.44955682863604385,
                1.0163850418873852
            ]
        },
        {
            "positions": [
                0.8230892006470336,
                -1.1362085775641875,
                -0.39638929598737804,
                0.5132508741758774,
                -0.3872573797271819,
                1.0482942234889234
            ]
        },
        {
            "positions": [
                0.7243253412013937,
                -1.1305174712714612,
                -0.3162193340019839,
                0.6217667597361414,
                -0.3249579308183199,
                1.0802034050904614
            ]
        },
        {
            "positions": [
                0.6255614817557533,
                -1.124826364978735,
                -0.2360493720165897,
                0.7302826452964062,
                -0.26265848190945795,
                1.1121125866919996
            ]
        },
        {
            "positions": [
                0.5267976223101134,
                -1.1191352586860086,
                -0.15587941003119554,
                0.8387985308566706,
                -0.200359033000596,
                1.1440217682935376
            ]
        },
        {
            "positions": [
                0.4280337628644735,
                -1.1134441523932823,
                -0.07570944804580138,
                0.9473144164169349,
                -0.1380595840917338,
                1.1759309498950756
            ]
        },
        {
            "positions": [
                0.32926990341883355,
                -1.107753046100556,
                0.004460513939592792,
                1.0558303019771993,
                -0.07576013518287206,
                1.2078401314966136
            ]
        },
        {
            "positions": [
                0.2305060439731932,
                -1.1020619398078297,
                0.08463047592498718,
                1.1643461875374637,
                -0.01346068627400987,
                1.2397493130981518
            ]
        },
        {
            "positions": [
                0.13174218452755326,
                -1.0963708335151034,
                0.16480043791038135,
                1.272862073097728,
                0.04883876263485187,
                1.2716584946996898
            ]
        },
        {
            "positions": [
                0.03297832508191303,
                -1.0906797272223772,
                0.24497039989577535,
                1.3813779586579926,
                0.11113821154371405,
                1.303567676301228
            ]
        },
        {
            "positions": [
                0.03464383305431445,
                -1.0606613795516504,
                0.4061254783552536,
                1.4379948564459406,
                0.08922040056042252,
                1.193600896308655
            ]
        },
        {
            "positions": [
                0.036309341026715874,
                -1.0306430318809234,
                0.5672805568147319,
                1.4946117542338888,
                0.067302589577131,
                1.0836341163160819
            ]
        },
        {
            "positions": [
                0.037974848999117294,
                -1.0006246842101967,
                0.7284356352742101,
                1.5512286520218368,
                0.04538477859383949,
                0.9736673363235089
            ]
        },
        {
            "positions": [
                0.039640356971518714,
                -0.9706063365394699,
                0.8895907137336885,
                1.6078455498097848,
                0.023466967610547965,
                0.8637005563309359
            ]
        },
        {
            "positions": [
                0.041305864943920134,
                -0.9405879888687431,
                1.0507457921931667,
                1.664462447597733,
                0.001549156627256451,
                0.7537337763383628
            ]
        },
        {
            "positions": [
                0.04297137291632156,
                -0.9105696411980162,
                1.2119008706526448,
                1.721079345385681,
                -0.020368654356035062,
                0.6437669963457898
            ]
        },
        {
            "positions": [
                0.04463688088872298,
                -0.8805512935272894,
                1.373055949112123,
                1.777696243173629,
                -0.042286465339326576,
                0.5338002163532167
            ]
        },
        {
            "positions": [
                0.04630238886112441,
                -0.8505329458565626,
                1.5342110275716014,
                1.834313140961577,
                -0.06420427632261812,
                0.42383343636064363
            ]
        },
        {
            "positions": [
                0.04796789683352583,
                -0.8205145981858357,
                1.6953661060310796,
                1.8909300387495251,
                -0.08612208730590963,
                0.31386665636807054
            ]
        },
        {
            "positions": [
                0.04963340480592725,
                -0.790496250515109,
                1.8565211844905578,
                1.9475469365374731,
                -0.10803989828920113,
                0.2038998763754976
            ]
        },
        {
            "positions": [
                0.086162048262885,
                -0.7835225901787428,
                1.9241025982153932,
                1.9331471942566614,
                -0.11552058220781306,
                0.10624830680232167
            ]
        },
        {
            "positions": [
                0.12269069171984275,
                -0.7765489298423768,
                1.9916840119402286,
                1.9187474519758498,
                -0.12300126612642498,
                0.008596737229145736
            ]
        }
    ]
}