{
    "goal": {
        "global_pose": {
            "orientation": {
                "w": 0.5084816217422485,
                "x": -0.49083608388900757,
                "y": 0.5182115435600281,
                "z": -0.4816462993621826
            },
            "position": {
                "x": 0.5540239810943604,
                "y": 0.030875300988554955,
                "z": 0.16403168439865112
            }
        },
        "name": "move_to_storage"
    },
    "id": "LazyPRM_move_to_storage_10",
    "joint_names": [
        "shoulder_pan_joint",
        "shoulder_lift_joint",
        "elbow_joint",
        "wrist_1_joint",
        "wrist_2_joint",
        "wrist_3_joint"
    ],
    "metrics": {
        "cart_traj_len": 0.3531010480016628,
        "distance_elbow_joint": 0.45438653230710013,
        "distance_shoulder_lift_joint": 0.23418159486210866,
        "distance_shoulder_pan_joint": 0.4578350075974449,
        "distance_wrist_1_joint": 0.2588427800824358,
        "distance_wrist_2_joint": 1.116267905034984,
        "distance_wrist_3_joint": 0.10316461050509362,
        "smoothness": 1.7763568394002505e-15,
        "time": 0.011932553,
        "traj_len": 1.6200859330261363,
        "weighted_distance": 2.0508823312215583
    },
    "planner": "LazyPRM",
    "start": {
        "state": {
            "elbow_joint": 1.9715474092553085,
            "shoulder_lift_joint": -1.1394846673180945,
            "shoulder_pan_joint": 0.1228115366877952,
            "wrist_1_joint": -0.7804686583030105,
            "wrist_2_joint": 0.12958649594027716,
            "wrist_3_joint": -3.192492341365726
        }
    },
    "waypoints": [
        {
            "positions": [
                0.1228115366877952,
                -1.1394846673180945,
                1.9715474092553085,
                -0.7804686583030105,
                0.12958649594027716,
                -3.192492341365726
            ]
        },
        {
            "positions": [
                0.057406535602445935,
                -1.1729391808698244,
                2.0364597710134658,
                -0.817446198314787,
                0.2890533395167034,
                -3.1777545398649982
            ]
        },
        {
            "positions": [
                -0.007998465482903325,
                -1.206393694421554,
                2.1013721327716226,
                -0.8544237383265636,
                0.4485201830931297,
                -3.163016738364271
            ]
        },
        {
            "positions": [
                -0.0734034665682526,
                -1.239848207973284,
                2.16628449452978,
                -0.89140127833834,
                0.607987026669556,
                -3.148278936863543
            ]
        },
        {
            "positions": [
                -0.13880846765360183,
                -1.2733027215250137,
                2.231196856287937,
                -0.9283788183501166,
                0.7674538702459822,
                -3.1335411353628153
            ]
        },
        {
            "positions": [
                -0.20421346873895113,
                -1.3067572350767436,
                2.2961092180460945,
                -0.9653563583618932,
                0.9269207138224086,
                -3.1188033338620875
            ]
        },
        {
            "positions": [
                -0.2696184698243004,
                -1.3402117486284733,
                2.3610215798042513,
                -1.0023338983736698,
                1.0863875573988349,
                -3.10406553236136
            ]
        },
        {
            "positions": [
                -0.3350234709096497,
                -1.3736662621802032,
                2.4259339415624086,
                -1.0393114383854463,
                1.245854400975261,
                -3.0893277308606324
            ]
        }
    ]
}