{
    "goal": {
        "global_pose": {
            "orientation": {
                "w": 0.7031023502349854,
                "x": -0.7110244035720825,
                "y": 0.007748599164187908,
                "z": 0.005598929710686207
            },
            "position": {
                "x": 0.11585023208521307,
                "y": 0.44412534475326537,
                "z": 0.3711530566215515
            }
        },
        "name": "move_to_auspresseinheit"
    },
    "id": "LazyPRM_move_to_auspresseinheit_3",
    "joint_names": [
        "shoulder_pan_joint",
        "shoulder_lift_joint",
        "elbow_joint",
        "wrist_1_joint",
        "wrist_2_joint",
        "wrist_3_joint"
    ],
    "metrics": {
        "cart_traj_len": 2.170835310836114,
        "distance_elbow_joint": 1.6411592168262485,
        "distance_shoulder_lift_joint": 1.0438519084901594,
        "distance_shoulder_pan_joint": 1.9625427370677055,
        "distance_wrist_1_joint": 0.5522816412072151,
        "distance_wrist_2_joint": 0.7007788596762428,
        "distance_wrist_3_joint": 2.0572357687833076,
        "smoothness": 0.9520346776297045,
        "time": 0.084557565,
        "traj_len": 2.8209661699585977,
        "weighted_distance": 3.650394796525569
    },
    "planner": "LazyPRM",
    "start": {
        "state": {
            "elbow_joint": 2.4225745326682886,
            "shoulder_lift_joint": -1.3736534990239282,
            "shoulder_pan_joint": -0.3378633610955803,
            "wrist_1_joint": -1.02885917317252,
            "wrist_2_joint": 1.233022905420004,
            "wrist_3_joint": -3.09402240754724
        }
    },
    "waypoints": [
        {
            "positions": [
                -0.3378633610955803,
                -1.3736534990239282,
                2.4225745326682886,
                -1.02885917317252,
                1.233022905420004,
                -3.09402240754724
            ]
        },
        {
            "positions": [
                -0.2350215323757592,
                -1.4527416798456456,
                2.3391920304557416,
                -1.024067160829129,
                1.2419280695155728,
                -2.9924238936372176
            ]
        },
        {
            "positions": [
                -0.13217970365593812,
                -1.5318298606673633,
                2.2558095282431943,
                -1.0192751484857379,
                1.2508332336111416,
                -2.8908253797271954
            ]
        },
        {
            "positions": [
                -0.02933787493611706,
                -1.610918041489081,
                2.1724270260306473,
                -1.014483136142347,
                1.2597383977067105,
                -2.789226865817173
            ]
        },
        {
            "positions": [
                0.07350395378370406,
                -1.6900062223107983,
                2.0890445238181,
                -1.0096911237989559,
                1.2686435618022793,
                -2.6876283519071507
            ]
        },
        {
            "positions": [
                0.17634578250352512,
                -1.7690944031325158,
                2.005662021605553,
                -1.0048991114555648,
                1.2775487258978484,
                -2.5860298379971285
            ]
        },
        {
            "positions": [
                0.2791876112233462,
                -1.8481825839542334,
                1.922279519393006,
                -1.0001070991121737,
                1.2864538899934173,
                -2.4844313240871063
            ]
        },
        {
            "positions": [
                0.38202943994316724,
                -1.927270764775951,
                1.8388970171804586,
                -0.9953150867687827,
                1.295359054088986,
                -2.382832810177084
            ]
        },
        {
            "positions": [
                0.4848712686629884,
                -2.0063589455976683,
                1.7555145149679117,
                -0.9905230744253916,
                1.304264218184555,
                -2.2812342962670615
            ]
        },
        {
            "positions": [
                0.5877130973828095,
                -2.085447126419386,
                1.6721320127553643,
                -0.9857310620820006,
                1.3131693822801238,
                -2.1796357823570394
            ]
        },
        {
            "positions": [
                0.6905549261026305,
                -2.1645353072411035,
                1.5887495105428173,
                -0.9809390497386095,
                1.3220745463756927,
                -2.078037268447017
            ]
        },
        {
            "positions": [
                0.7584287518562198,
                -2.159672148692061,
                1.6856785460224766,
                -0.9248062540237854,
                1.2563148757228322,
                -2.145582394323523
            ]
        },
        {
            "positions": [
                0.8263025776098093,
                -2.1548089901430183,
                1.7826075815021358,
                -0.8686734583089613,
                1.190555205069972,
                -2.213127520200029
            ]
        },
        {
            "positions": [
                0.8941764033633988,
                -2.1499458315939757,
                1.879536616981795,
                -0.812540662594137,
                1.1247955344171114,
                -2.2806726460765345
            ]
        },
        {
            "positions": [
                0.9620502291169881,
                -2.1450826730449326,
                1.9764656524614543,
                -0.7564078668793129,
                1.0590358637642512,
                -2.3482177719530406
            ]
        },
        {
            "positions": [
                1.0299240548705777,
                -2.14021951449589,
                2.073394687941114,
                -0.7002750711644887,
                0.9932761931113907,
                -2.4157628978295462
            ]
        },
        {
            "positions": [
                1.0977978806241668,
                -2.1353563559468474,
                2.170323723420773,
                -0.6441422754496646,
                0.9275165224585304,
                -2.4833080237060523
            ]
        },
        {
            "positions": [
                1.1656717063777564,
                -2.1304931973978047,
                2.2672527589004323,
                -0.5880094797348405,
                0.86175685180567,
                -2.550853149582558
            ]
        },
        {
            "positions": [
                1.0871439708669086,
                -2.089979137650133,
                2.3034239480653835,
                -0.5578096933777594,
                0.8265158699291172,
                -2.6710461195661055
            ]
        },
        {
            "positions": [
                1.0086162353560608,
                -2.049465077902461,
                2.3395951372303347,
                -0.5276099070206784,
                0.7912748880525643,
                -2.7912390895496535
            ]
        },
        {
            "positions": [
                0.930088499845213,
                -2.0089510181547894,
                2.375766326395286,
                -0.49741012066359735,
                0.7560339061760115,
                -2.911432059533201
            ]
        },
        {
            "positions": [
                0.8017314555084065,
                -1.9525904209110108,
                2.390956376278962,
                -0.4820350154406755,
                0.7273690129012724,
                -3.0374551140350423
            ]
        },
        {
            "positions": [
                0.7066640367833875,
                -1.9115652069681195,
                2.3960837052435946,
                -0.47657753196530495,
                0.7103473276551386,
                -3.119287898130102
            ]
        }
    ]
}