{
    "goal": {
        "global_pose": {
            "orientation": {
                "w": 0.5084816217422485,
                "x": -0.49083608388900757,
                "y": 0.5182115435600281,
                "z": -0.4816462993621826
            },
            "position": {
                "x": 0.5540239810943604,
                "y": 0.030875300988554955,
                "z": 0.16403168439865112
            }
        },
        "name": "move_to_storage"
    },
    "id": "LazyPRMstar_move_to_storage_3",
    "joint_names": [
        "shoulder_pan_joint",
        "shoulder_lift_joint",
        "elbow_joint",
        "wrist_1_joint",
        "wrist_2_joint",
        "wrist_3_joint"
    ],
    "metrics": {
        "cart_traj_len": 0.3532724143951585,
        "distance_elbow_joint": 0.45402681622864627,
        "distance_shoulder_lift_joint": 0.23301131095432637,
        "distance_shoulder_pan_joint": 0.4604078804390585,
        "distance_wrist_1_joint": 0.26172810226558174,
        "distance_wrist_2_joint": 1.1056153446801287,
        "distance_wrist_3_joint": 0.09608769651841742,
        "smoothness": 6.661338165333112e-16,
        "time": 3.00125645,
        "traj_len": 1.6158208907815739,
        "weighted_distance": 2.0421547421947985
    },
    "planner": "LazyPRMstar",
    "start": {
        "state": {
            "elbow_joint": 1.9715474092553085,
            "shoulder_lift_joint": -1.1394846673180945,
            "shoulder_pan_joint": 0.1228115366877952,
            "wrist_1_joint": -0.7804686583030105,
            "wrist_2_joint": 0.12958649594027716,
            "wrist_3_joint": -3.192492341365726
        }
    },
    "waypoints": [
        {
            "positions": [
                0.1228115366877952,
                -1.1394846673180945,
                1.9715474092553085,
                -0.7804686583030105,
                0.12958649594027716,
                -3.192492341365726
            ]
        },
        {
            "positions": [
                0.057038982339358266,
                -1.1727719974544268,
                2.036408383002258,
                -0.8178583871980936,
                0.28753154518029556,
                -3.1787655275773807
            ]
        },
        {
            "positions": [
                -0.008733572009078663,
                -1.2060593275907592,
                2.1012693567492073,
                -0.8552481160931766,
                0.4454765944203139,
                -3.1650387137890355
            ]
        },
        {
            "positions": [
                -0.07450612635751559,
                -1.2393466577270915,
                2.166130330496157,
                -0.8926378449882598,
                0.6034216436603324,
                -3.15131190000069
            ]
        },
        {
            "positions": [
                -0.1402786807059525,
                -1.2726339878634239,
                2.230991304243106,
                -0.9300275738833429,
                0.7613666929003506,
                -3.1375850862123444
            ]
        },
        {
            "positions": [
                -0.20605123505438944,
                -1.3059213179997562,
                2.295852277990056,
                -0.9674173027784261,
                0.919311742140369,
                -3.123858272423999
            ]
        },
        {
            "positions": [
                -0.27182378940282637,
                -1.3392086481360885,
                2.360713251737005,
                -1.0048070316735092,
                1.0772567913803874,
                -3.110131458635654
            ]
        },
        {
            "positions": [
                -0.3375963437512633,
                -1.3724959782724209,
                2.4255742254839547,
                -1.0421967605685922,
                1.2352018406204057,
                -3.0964046448473086
            ]
        }
    ]
}