{
    "goal": {
        "global_pose": {
            "orientation": {
                "w": 0.5084816217422485,
                "x": -0.49083608388900757,
                "y": 0.5182115435600281,
                "z": -0.4816462993621826
            },
            "position": {
                "x": 0.5540239810943604,
                "y": 0.030875300988554955,
                "z": 0.16403168439865112
            }
        },
        "name": "move_to_storage"
    },
    "id": "LazyPRM_move_to_storage_5",
    "joint_names": [
        "shoulder_pan_joint",
        "shoulder_lift_joint",
        "elbow_joint",
        "wrist_1_joint",
        "wrist_2_joint",
        "wrist_3_joint"
    ],
    "metrics": {
        "cart_traj_len": 0.352783017364459,
        "distance_elbow_joint": 0.4516412745636278,
        "distance_shoulder_lift_joint": 0.23254279605792338,
        "distance_shoulder_pan_joint": 0.45682183408414623,
        "distance_wrist_1_joint": 0.2540069192070138,
        "distance_wrist_2_joint": 1.1167658332060468,
        "distance_wrist_3_joint": 0.09885050887552671,
        "smoothness": 8.881784267329941e-16,
        "time": 0.011885361,
        "traj_len": 1.615744152393653,
        "weighted_distance": 2.0442854341207832
    },
    "planner": "LazyPRM",
    "start": {
        "state": {
            "elbow_joint": 1.9715474092553085,
            "shoulder_lift_joint": -1.1394846673180945,
            "shoulder_pan_joint": 0.1228115366877952,
            "wrist_1_joint": -0.7804686583030105,
            "wrist_2_joint": 0.12958649594027716,
            "wrist_3_joint": -3.192492341365726
        }
    },
    "waypoints": [
        {
            "positions": [
                0.1228115366877952,
                -1.1394846673180945,
                1.9715474092553085,
                -0.7804686583030105,
                0.12958649594027716,
                -3.192492341365726
            ]
        },
        {
            "positions": [
                0.05755127467577431,
                -1.1727050667549408,
                2.0360675913358266,
                -0.8167553610468696,
                0.28912447211256953,
                -3.1783708400977937
            ]
        },
        {
            "positions": [
                -0.007708987336246573,
                -1.2059254661917869,
                2.100587773416345,
                -0.8530420637907287,
                0.44866244828486196,
                -3.1642493388298614
            ]
        },
        {
            "positions": [
                -0.07296924934826747,
                -1.2391458656286332,
                2.1651079554968633,
                -0.8893287665345878,
                0.6082004244571544,
                -3.150127837561929
            ]
        },
        {
            "positions": [
                -0.13822951136028833,
                -1.2723662650654792,
                2.2296281375773814,
                -0.925615469278447,
                0.7677384006294468,
                -3.1360063362939963
            ]
        },
        {
            "positions": [
                -0.20348977337230922,
                -1.3055866645023255,
                2.2941483196579,
                -0.961902172022306,
                0.9272763768017392,
                -3.121884835026064
            ]
        },
        {
            "positions": [
                -0.2687500353843301,
                -1.3388070639391716,
                2.358668501738418,
                -0.9981888747661651,
                1.0868143529740315,
                -3.1077633337581316
            ]
        },
        {
            "positions": [
                -0.334010297396351,
                -1.3720274633760179,
                2.4231886838189363,
                -1.0344755775100243,
                1.246352329146324,
                -3.0936418324901993
            ]
        }
    ]
}