{
    "goal": {
        "global_pose": {
            "orientation": {
                "w": 0.7031023502349854,
                "x": -0.7110244035720825,
                "y": 0.007748599164187908,
                "z": 0.005598929710686207
            },
            "position": {
                "x": 0.11585023208521307,
                "y": 0.44412534475326537,
                "z": 0.3711530566215515
            }
        },
        "name": "move_to_auspresseinheit"
    },
    "id": "LazyPRM_move_to_auspresseinheit_5",
    "joint_names": [
        "shoulder_pan_joint",
        "shoulder_lift_joint",
        "elbow_joint",
        "wrist_1_joint",
        "wrist_2_joint",
        "wrist_3_joint"
    ],
    "metrics": {
        "cart_traj_len": 1.6153920962594825,
        "distance_elbow_joint": 0.7983042585493418,
        "distance_shoulder_lift_joint": 0.8953331036745409,
        "distance_shoulder_pan_joint": 1.7323338364092797,
        "distance_wrist_1_joint": 4.026793570279036,
        "distance_wrist_2_joint": 0.5213109181248997,
        "distance_wrist_3_joint": 0.5798767309238695,
        "smoothness": 0.6665120856979112,
        "time": 0.225666178,
        "traj_len": 2.924714074565404,
        "weighted_distance": 3.776481215127733
    },
    "planner": "LazyPRM",
    "start": {
        "state": {
            "elbow_joint": 2.4225745326682886,
            "shoulder_lift_joint": -1.3736534990239282,
            "shoulder_pan_joint": -0.3378633610955803,
            "wrist_1_joint": -1.02885917317252,
            "wrist_2_joint": 1.233022905420004,
            "wrist_3_joint": -3.09402240754724
        }
    },
    "waypoints": [
        {
            "positions": [
                -0.3378633610955803,
                -1.3736534990239282,
                2.4225745326682886,
                -1.02885917317252,
                1.233022905420004,
                -3.09402240754724
            ]
        },
        {
            "positions": [
                -0.24657455762037828,
                -1.4009893139748129,
                2.3923722810566956,
                -1.2016348690589014,
                1.1999815946962022,
                -3.0702774286144883
            ]
        },
        {
            "positions": [
                -0.15528575414517626,
                -1.4283251289256975,
                2.3621700294451027,
                -1.3744105649452827,
                1.1669402839724006,
                -3.0465324496817368
            ]
        },
        {
            "positions": [
                -0.0639969506699743,
                -1.4556609438765822,
                2.3319677778335097,
                -1.5471862608316642,
                1.133898973248599,
                -3.0227874707489852
            ]
        },
        {
            "positions": [
                0.02729185280522778,
                -1.4829967588274668,
                2.3017655262219168,
                -1.7199619567180455,
                1.1008576625247972,
                -2.9990424918162337
            ]
        },
        {
            "positions": [
                0.11858065628042974,
                -1.5103325737783515,
                2.2715632746103243,
                -1.8927376526044268,
                1.0678163518009955,
                -2.9752975128834818
            ]
        },
        {
            "positions": [
                0.2098694597556317,
                -1.5376683887292364,
                2.2413610229987313,
                -2.065513348490808,
                1.034775041077194,
                -2.9515525339507303
            ]
        },
        {
            "positions": [
                0.30115826323083367,
                -1.565004203680121,
                2.2111587713871383,
                -2.2382890443771895,
                1.0017337303533924,
                -2.9278075550179787
            ]
        },
        {
            "positions": [
                0.39244706670603585,
                -1.5923400186310057,
                2.1809565197755454,
                -2.411064740263571,
                0.9686924196295907,
                -2.904062576085227
            ]
        },
        {
            "positions": [
                0.4837358701812378,
                -1.6196758335818904,
                2.1507542681639524,
                -2.583840436149952,
                0.9356511089057891,
                -2.8803175971524757
            ]
        },
        {
            "positions": [
                0.5750246736564397,
                -1.647011648532775,
                2.1205520165523595,
                -2.7566161320363336,
                0.9026097981819874,
                -2.856572618219724
            ]
        },
        {
            "positions": [
                0.6980915785010632,
                -1.6785197197458146,
                2.1252644125451057,
                -2.701587566193327,
                0.870794352904272,
                -2.84244729436306
            ]
        },
        {
            "positions": [
                0.8211584833456866,
                -1.7100277909588544,
                2.129976808537852,
                -2.6465590003503197,
                0.8389789076265566,
                -2.828321970506396
            ]
        },
        {
            "positions": [
                0.8787723693531799,
                -1.7387313778766362,
                2.152011016653895,
                -2.459159255599458,
                0.8083228048783211,
                -2.8254217380258266
            ]
        },
        {
            "positions": [
                0.9363862553606732,
                -1.7674349647944179,
                2.1740452247699387,
                -2.2717595108485966,
                0.7776667021300855,
                -2.8225215055452573
            ]
        },
        {
            "positions": [
                0.9940001413681665,
                -1.7961385517121997,
                2.1960794328859823,
                -2.0843597660977355,
                0.7470105993818499,
                -2.819621273064688
            ]
        },
        {
            "positions": [
                1.0516140273756598,
                -1.8248421386299816,
                2.2181136410020255,
                -1.896960021346874,
                0.7163544966336144,
                -2.8167210405841185
            ]
        },
        {
            "positions": [
                1.0390763121741542,
                -1.8689738200744523,
                2.266104599614259,
                -1.6587560621497124,
                0.7164664505827374,
                -2.8346561318278423
            ]
        },
        {
            "positions": [
                1.0265385969726486,
                -1.9131055015189233,
                2.314095558226493,
                -1.4205521029525505,
                0.7165784045318605,
                -2.8525912230715664
            ]
        },
        {
            "positions": [
                1.014000881771143,
                -1.957237182963394,
                2.362086516838727,
                -1.1823481437553887,
                0.7166903584809835,
                -2.87052631431529
            ]
        },
        {
            "positions": [
                1.0014631665696374,
                -2.001368864407865,
                2.4100774754509606,
                -0.944144184558227,
                0.7168023124301065,
                -2.888461405559014
            ]
        },
        {
            "positions": [
                0.9889254513681318,
                -2.045500545852336,
                2.458068434063194,
                -0.7059402253610652,
                0.7169142663792296,
                -2.906396496802738
            ]
        },
        {
            "positions": [
                0.9763877361666262,
                -2.0896322272968066,
                2.506059392675428,
                -0.4677362661639035,
                0.7170262203283526,
                -2.9243315880464618
            ]
        },
        {
            "positions": [
                0.8425726578021231,
                -1.9999550395959753,
                2.450672209520256,
                -0.4728146389352994,
                0.7150408275064666,
                -3.0218139962956645
            ]
        },
        {
            "positions": [
                0.70875757943762,
                -1.9102778518951442,
                2.3952850263650842,
                -0.4778930117066953,
                0.7130554346845807,
                -3.119296404544867
            ]
        }
    ]
}