{
    "goal": {
        "global_pose": {
            "orientation": {
                "w": 0.7047431468963623,
                "x": -0.7094548344612122,
                "y": 0.0024358443915843964,
                "z": -0.0022348060738295317
            },
            "position": {
                "x": 0.6094750761985779,
                "y": 0.3671506643295288,
                "z": 0.19426114857196808
            }
        },
        "name": "move_to_magneteinheit_target"
    },
    "id": "LBKPIECE_move_to_magneteinheit_target_10",
    "joint_names": [
        "shoulder_pan_joint",
        "shoulder_lift_joint",
        "elbow_joint",
        "wrist_1_joint",
        "wrist_2_joint",
        "wrist_3_joint"
    ],
    "metrics": {
        "cart_traj_len": 4.303089705560482,
        "distance_elbow_joint": 3.86971145396938,
        "distance_shoulder_lift_joint": 1.9777239216474671,
        "distance_shoulder_pan_joint": 4.552627484106676,
        "distance_wrist_1_joint": 1.6081451810889331,
        "distance_wrist_2_joint": 3.1648368076462763,
        "distance_wrist_3_joint": 3.075681344471953,
        "smoothness": 0.5509782381706957,
        "time": 0.8434838960000001,
        "traj_len": 4.271852782216482,
        "weighted_distance": 5.401210130203213
    },
    "planner": "LBKPIECE",
    "start": {
        "state": {
            "elbow_joint": -1.9196185737098679,
            "shoulder_lift_joint": -1.2443395971259867,
            "shoulder_pan_joint": 2.6996025301141957,
            "wrist_1_joint": -1.548550951469146,
            "wrist_2_joint": -1.5709469089955597,
            "wrist_3_joint": 0.4420197730596999
        }
    },
    "waypoints": [
        {
            "positions": [
                2.6996025301141957,
                -1.2443395971259867,
                -1.9196185737098679,
                -1.548550951469146,
                -1.5709469089955597,
                0.4420197730596999
            ]
        },
        {
            "positions": [
                2.5691425071493055,
                -1.278561038460766,
                -1.8332437613572632,
                -1.5114642085688164,
                -1.5031659211641781,
                0.47364354583966145
            ]
        },
        {
            "positions": [
                2.438682484184415,
                -1.312782479795545,
                -1.7468689490046585,
                -1.4743774656684865,
                -1.4353849333327968,
                0.5052673186196229
            ]
        },
        {
            "positions": [
                2.3082224612195246,
                -1.3470039211303242,
                -1.660494136652054,
                -1.4372907227681568,
                -1.3676039455014153,
                0.5368910913995845
            ]
        },
        {
            "positions": [
                2.177762438254634,
                -1.3812253624651034,
                -1.5741193242994493,
                -1.4002039798678272,
                -1.2998229576700338,
                0.568514864179546
            ]
        },
        {
            "positions": [
                2.0473024152897437,
                -1.4154468037998824,
                -1.4877445119468446,
                -1.3631172369674975,
                -1.2320419698386522,
                0.6001386369595074
            ]
        },
        {
            "positions": [
                1.9168423923248532,
                -1.4496682451346616,
                -1.4013696995942402,
                -1.3260304940671677,
                -1.164260982007271,
                0.631762409739469
            ]
        },
        {
            "positions": [
                1.786382369359963,
                -1.4838896864694409,
                -1.3149948872416353,
                -1.288943751166838,
                -1.0964799941758894,
                0.6633861825194305
            ]
        },
        {
            "positions": [
                1.6559223463950725,
                -1.5181111278042199,
                -1.2286200748890308,
                -1.2518570082665084,
                -1.028699006344508,
                0.695009955299392
            ]
        },
        {
            "positions": [
                1.525462323430182,
                -1.552332569138999,
                -1.142245262536426,
                -1.2147702653661785,
                -0.9609180185131265,
                0.7266337280793536
            ]
        },
        {
            "positions": [
                1.3950023004652916,
                -1.5865540104737783,
                -1.0558704501838214,
                -1.1776835224658488,
                -0.893137030681745,
                0.7582575008593151
            ]
        },
        {
            "positions": [
                1.2645422775004014,
                -1.6207754518085573,
                -0.9694956378312168,
                -1.1405967795655192,
                -0.8253560428503636,
                0.7898812736392765
            ]
        },
        {
            "positions": [
                1.1340822545355107,
                -1.6549968931433365,
                -0.8831208254786123,
                -1.1035100366651895,
                -0.757575055018982,
                0.821505046419238
            ]
        },
        {
            "positions": [
                1.0036222315706205,
                -1.6892183344781158,
                -0.7967460131260076,
                -1.06642329376486,
                -0.6897940671876006,
                0.8531288191991995
            ]
        },
        {
            "positions": [
                0.8731622086057302,
                -1.7234397758128948,
                -0.7103712007734029,
                -1.0293365508645302,
                -0.6220130793562192,
                0.884752591979161
            ]
        },
        {
            "positions": [
                0.7427021856408398,
                -1.7576612171476738,
                -0.6239963884207984,
                -0.9922498079642004,
                -0.5542320915248378,
                0.9163763647591225
            ]
        },
        {
            "positions": [
                0.6122421626759493,
                -1.7918826584824532,
                -0.5376215760681935,
                -0.9551630650638706,
                -0.48645110369345623,
                0.9480001375390841
            ]
        },
        {
            "positions": [
                0.48178213971105865,
                -1.8261040998172322,
                -0.451246763715589,
                -0.918076322163541,
                -0.4186701158620747,
                0.9796239103190456
            ]
        },
        {
            "positions": [
                0.3513221167461684,
                -1.8603255411520112,
                -0.36487195136298434,
                -0.8809895792632112,
                -0.3508891280306934,
                1.0112476830990071
            ]
        },
        {
            "positions": [
                0.2208620937812782,
                -1.8945469824867907,
                -0.27849713901037987,
                -0.8439028363628815,
                -0.28310814019931185,
                1.0428714558789685
            ]
        },
        {
            "positions": [
                0.09040207081638751,
                -1.9287684238215697,
                -0.19212232665777496,
                -0.8068160934625518,
                -0.21532715236793032,
                1.0744952286589302
            ]
        },
        {
            "positions": [
                -0.04005795214850272,
                -1.9629898651563489,
                -0.10574751430517049,
                -0.7697293505622221,
                -0.14754616453654879,
                1.1061190014388915
            ]
        },
        {
            "positions": [
                -0.17051797511339295,
                -1.997211306491128,
                -0.019372701952565796,
                -0.7326426076618924,
                -0.07976517670516747,
                1.137742774218853
            ]
        },
        {
            "positions": [
                -0.3009779980782836,
                -2.031432747825907,
                0.06700211040003867,
                -0.6955558647615627,
                -0.01198418887378594,
                1.1693665469988146
            ]
        },
        {
            "positions": [
                -0.4314380210431743,
                -2.0656541891606865,
                0.15337692275264336,
                -0.658469121861233,
                0.055796798957595595,
                1.2009903197787761
            ]
        },
        {
            "positions": [
                -0.5618980440080645,
                -2.0998756304954656,
                0.23975173510524828,
                -0.6213823789609032,
                0.12357778678897713,
                1.2326140925587377
            ]
        },
        {
            "positions": [
                -0.6923580669729545,
                -2.1340970718302446,
                0.32612654745785297,
                -0.5842956360605736,
                0.19135877462035844,
                1.2642378653386992
            ]
        },
        {
            "positions": [
                -0.6100130348278813,
                -2.046794364662969,
                0.41487924097667017,
                -0.6157007521742632,
                0.2470512031328157,
                1.243078831762755
            ]
        },
        {
            "positions": [
                -0.527668002682808,
                -1.9594916574956938,
                0.5036319344954874,
                -0.6471058682879529,
                0.30274363164527296,
                1.2219197981868108
            ]
        },
        {
            "positions": [
                -0.44532297053773473,
                -1.8721889503284181,
                0.5923846280143046,
                -0.6785109844016427,
                0.3584360601577303,
                1.2007607646108667
            ]
        },
        {
            "positions": [
                -0.36297793839266146,
                -1.784886243161143,
                0.6811373215331218,
                -0.7099161005153324,
                0.41412848867018753,
                1.1796017310349225
            ]
        },
        {
            "positions": [
                -0.28063290624758813,
                -1.6975835359938674,
                0.769890015051939,
                -0.7413212166290221,
                0.46982091718264485,
                1.1584426974589783
            ]
        },
        {
            "positions": [
                -0.19828787410251486,
                -1.610280828826592,
                0.8586427085707562,
                -0.7727263327427119,
                0.5255133456951021,
                1.137283663883034
            ]
        },
        {
            "positions": [
                -0.11594284195744153,
                -1.5229781216593166,
                0.9473954020895734,
                -0.8041314488564015,
                0.5812057742075594,
                1.1161246303070897
            ]
        },
        {
            "positions": [
                -0.03359780981236837,
                -1.4356754144920412,
                1.0361480956083906,
                -0.8355365649700912,
                0.6368982027200166,
                1.0949655967311456
            ]
        },
        {
            "positions": [
                0.04874722233270501,
                -1.3483727073247658,
                1.1249007891272078,
                -0.8669416810837809,
                0.6925906312324739,
                1.0738065631552014
            ]
        },
        {
            "positions": [
                0.13109225447777828,
                -1.2610700001574902,
                1.213653482646025,
                -0.8983467971974706,
                0.7482830597449313,
                1.0526475295792572
            ]
        },
        {
            "positions": [
                0.21343728662285155,
                -1.173767292990215,
                1.3024061761648422,
                -0.9297519133111602,
                0.8039754882573885,
                1.031488496003313
            ]
        },
        {
            "positions": [
                0.2957823187679248,
                -1.0864645858229394,
                1.3911588696836594,
                -0.96115702942485,
                0.8596679167698458,
                1.0103294624273689
            ]
        },
        {
            "positions": [
                0.27852966864006,
                -1.0904979819165297,
                1.447052270741245,
                -0.9344541821932416,
                0.7862457185817587,
                1.2102849473555313
            ]
        },
        {
            "positions": [
                0.2612770185121952,
                -1.0945313780101202,
                1.5029456717988305,
                -0.9077513349616331,
                0.7128235203936717,
                1.4102404322836937
            ]
        },
        {
            "positions": [
                0.24402436838433036,
                -1.0985647741037106,
                1.558839072856416,
                -0.8810484877300246,
                0.6394013222055845,
                1.6101959172118558
            ]
        },
        {
            "positions": [
                0.22677171825646553,
                -1.102598170197301,
                1.6147324739140019,
                -0.8543456404984162,
                0.5659791240174975,
                1.8101514021400185
            ]
        },
        {
            "positions": [
                0.20951906812860072,
                -1.1066315662908914,
                1.6706258749715874,
                -0.8276427932668078,
                0.49255692582941046,
                2.0101068870681806
            ]
        },
        {
            "positions": [
                0.1922664180007359,
                -1.1106649623844818,
                1.726519276029173,
                -0.8009399460351992,
                0.4191347276413234,
                2.210062371996343
            ]
        },
        {
            "positions": [
                0.1750137678728711,
                -1.1146983584780723,
                1.7824126770867585,
                -0.7742370988035908,
                0.3457125294532364,
                2.4100178569245054
            ]
        },
        {
            "positions": [
                0.15776111774500626,
                -1.1187317545716626,
                1.838306078144344,
                -0.7475342515719823,
                0.27229033126514923,
                2.609973341852668
            ]
        },
        {
            "positions": [
                0.14050846761714145,
                -1.1227651506652532,
                1.8941994792019297,
                -0.7208314043403738,
                0.1988681330770622,
                2.80992882678083
            ]
        },
        {
            "positions": [
                0.12325581748927664,
                -1.1267985467588435,
                1.9500928802595152,
                -0.6941285571087654,
                0.1254459348889752,
                3.0098843117089924
            ]
        }
    ]
}