{
    "goal": {
        "global_pose": {
            "orientation": {
                "w": 0.7031023502349854,
                "x": -0.7110244035720825,
                "y": 0.007748599164187908,
                "z": 0.005598929710686207
            },
            "position": {
                "x": 0.11585023208521307,
                "y": 0.44412534475326537,
                "z": 0.3711530566215515
            }
        },
        "name": "move_to_auspresseinheit"
    },
    "id": "LBKPIECE_move_to_auspresseinheit_2",
    "joint_names": [
        "shoulder_pan_joint",
        "shoulder_lift_joint",
        "elbow_joint",
        "wrist_1_joint",
        "wrist_2_joint",
        "wrist_3_joint"
    ],
    "metrics": {
        "cart_traj_len": 1.9765249452424467,
        "distance_elbow_joint": 1.7566652313623812,
        "distance_shoulder_lift_joint": 0.6711016969090655,
        "distance_shoulder_pan_joint": 1.3213686947564547,
        "distance_wrist_1_joint": 1.2348064727788968,
        "distance_wrist_2_joint": 1.4696224003524578,
        "distance_wrist_3_joint": 1.3441405235984378,
        "smoothness": 0.31640234513214244,
        "time": 0.222729755,
        "traj_len": 2.79243711115536,
        "weighted_distance": 3.631861084910314
    },
    "planner": "LBKPIECE",
    "start": {
        "state": {
            "elbow_joint": 2.4225745326682886,
            "shoulder_lift_joint": -1.3736534990239282,
            "shoulder_pan_joint": -0.3378633610955803,
            "wrist_1_joint": -1.02885917317252,
            "wrist_2_joint": 1.233022905420004,
            "wrist_3_joint": -3.09402240754724
        }
    },
    "waypoints": [
        {
            "positions": [
                -0.3378633610955803,
                -1.3736534990239282,
                2.4225745326682886,
                -1.02885917317252,
                1.233022905420004,
                -3.09402240754724
            ]
        },
        {
            "positions": [
                -0.2521313219606228,
                -1.3781353762708688,
                2.282284827368339,
                -0.9793031540133607,
                1.2091902537446053,
                -3.048501973370638
            ]
        },
        {
            "positions": [
                -0.1663992828256654,
                -1.3826172535178094,
                2.1419951220683893,
                -0.9297471348542011,
                1.1853576020692067,
                -3.002981539194036
            ]
        },
        {
            "positions": [
                -0.08066724369070793,
                -1.3870991307647502,
                2.0017054167684396,
                -0.8801911156950417,
                1.161524950393808,
                -2.9574611050174346
            ]
        },
        {
            "positions": [
                0.005064795444249481,
                -1.3915810080116908,
                1.8614157114684904,
                -0.8306350965358823,
                1.1376922987184093,
                -2.911940670840833
            ]
        },
        {
            "positions": [
                0.09079683457920701,
                -1.3960628852586314,
                1.7211260061685407,
                -0.7810790773767228,
                1.1138596470430107,
                -2.866420236664231
            ]
        },
        {
            "positions": [
                0.17652887371416437,
                -1.400544762505572,
                1.580836300868591,
                -0.7315230582175634,
                1.090026995367612,
                -2.8208998024876295
            ]
        },
        {
            "positions": [
                0.2707241295388238,
                -1.469523785107047,
                1.5733228068414482,
                -0.6603777758326941,
                0.9926048069832609,
                -2.7680392909603646
            ]
        },
        {
            "positions": [
                0.36491938536348323,
                -1.5385028077085219,
                1.5658093128143051,
                -0.5892324934478248,
                0.8951826185989097,
                -2.7151787794330997
            ]
        },
        {
            "positions": [
                0.4591146411881427,
                -1.607481830309997,
                1.5582958187871623,
                -0.5180872110629554,
                0.7977604302145584,
                -2.662318267905835
            ]
        },
        {
            "positions": [
                0.5533098970128021,
                -1.6764608529114717,
                1.5507823247600192,
                -0.44694192867808613,
                0.7003382418302073,
                -2.60945775637857
            ]
        },
        {
            "positions": [
                0.6475051528374616,
                -1.7454398755129468,
                1.5432688307328764,
                -0.3757966462932168,
                0.6029160534458561,
                -2.556597244851305
            ]
        },
        {
            "positions": [
                0.7417004086621211,
                -1.8144188981144216,
                1.5357553367057333,
                -0.3046513639083475,
                0.505493865061505,
                -2.50373673332404
            ]
        },
        {
            "positions": [
                0.8358956644867805,
                -1.8833979207158966,
                1.5282418426785904,
                -0.23350608152347818,
                0.4080716766771537,
                -2.4508762217967752
            ]
        },
        {
            "positions": [
                0.8385855047835585,
                -1.9133467029822597,
                1.6415434770042074,
                -0.1972596292548686,
                0.34999762861146344,
                -2.5042926217552295
            ]
        },
        {
            "positions": [
                0.8412753450803366,
                -1.9432954852486226,
                1.7548451113298242,
                -0.161013176986259,
                0.29192358054577316,
                -2.557709021713684
            ]
        },
        {
            "positions": [
                0.8439651853771146,
                -1.9732442675149857,
                1.8681467456554413,
                -0.1247667247176494,
                0.23384953248008286,
                -2.6111254216721385
            ]
        },
        {
            "positions": [
                0.8225569382196951,
                -1.9740169618711554,
                2.0018456115720262,
                -0.13154108050682348,
                0.23506454794093545,
                -2.706075434946773
            ]
        },
        {
            "positions": [
                0.8011486910622755,
                -1.9747896562273248,
                2.1355444774886116,
                -0.13831543629599755,
                0.23627956340178807,
                -2.801025448221408
            ]
        },
        {
            "positions": [
                0.7768667002048459,
                -1.9602875183694257,
                2.2252067329423895,
                -0.20979346337403837,
                0.3361135450001653,
                -2.894179669505421
            ]
        },
        {
            "positions": [
                0.7525847093474164,
                -1.9457853805115266,
                2.314868988396167,
                -0.2812714904520792,
                0.4359475265985425,
                -2.987333890789434
            ]
        },
        {
            "positions": [
                0.7285048732203857,
                -1.9253047485165913,
                2.3527216862237204,
                -0.36837611974687734,
                0.570123043245581,
                -3.069602225217091
            ]
        },
        {
            "positions": [
                0.704425037093355,
                -1.904824116521656,
                2.3905743840512734,
                -0.4554807490416755,
                0.7042985598926197,
                -3.1518705596447485
            ]
        }
    ]
}