{
    "goal": {
        "global_pose": {
            "orientation": {
                "w": 0.7047431468963623,
                "x": -0.7094548344612122,
                "y": 0.0024358443915843964,
                "z": -0.0022348060738295317
            },
            "position": {
                "x": 0.6094750761985779,
                "y": 0.3671506643295288,
                "z": 0.19426114857196808
            }
        },
        "name": "move_to_magneteinheit_target"
    },
    "id": "LBKPIECE_move_to_magneteinheit_target_9",
    "joint_names": [
        "shoulder_pan_joint",
        "shoulder_lift_joint",
        "elbow_joint",
        "wrist_1_joint",
        "wrist_2_joint",
        "wrist_3_joint"
    ],
    "metrics": {
        "cart_traj_len": 3.3885493372280973,
        "distance_elbow_joint": 3.916335827033523,
        "distance_shoulder_lift_joint": 0.5626563344962464,
        "distance_shoulder_pan_joint": 3.1724952956640666,
        "distance_wrist_1_joint": 3.4814417615824693,
        "distance_wrist_2_joint": 2.0126922303432138,
        "distance_wrist_3_joint": 0.9162796832508895,
        "smoothness": 0.3212698919741022,
        "time": 0.613200145,
        "traj_len": 3.7499201501325867,
        "weighted_distance": 4.62478048028205
    },
    "planner": "LBKPIECE",
    "start": {
        "state": {
            "elbow_joint": -1.9196185737098679,
            "shoulder_lift_joint": -1.2443395971259867,
            "shoulder_pan_joint": 2.6996025301141957,
            "wrist_1_joint": -1.548550951469146,
            "wrist_2_joint": -1.5709469089955597,
            "wrist_3_joint": 0.4420197730596999
        }
    },
    "waypoints": [
        {
            "positions": [
                2.6996025301141957,
                -1.2443395971259867,
                -1.9196185737098679,
                -1.548550951469146,
                -1.5709469089955597,
                0.4420197730596999
            ]
        },
        {
            "positions": [
                2.578822180010376,
                -1.231881187113659,
                -1.815168040941038,
                -1.477840360436187,
                -1.5347093993220668,
                0.40708471039006877
            ]
        },
        {
            "positions": [
                2.4580418299065565,
                -1.2194227771013315,
                -1.710717508172208,
                -1.4071297694032279,
                -1.4984718896485738,
                0.3721496477204377
            ]
        },
        {
            "positions": [
                2.337261479802737,
                -1.2069643670890038,
                -1.606266975403378,
                -1.3364191783702688,
                -1.462234379975081,
                0.3372145850508066
            ]
        },
        {
            "positions": [
                2.216481129698917,
                -1.194505957076676,
                -1.5018164426345482,
                -1.2657085873373097,
                -1.4259968703015882,
                0.30227952238117545
            ]
        },
        {
            "positions": [
                2.0957007795950973,
                -1.1820475470643486,
                -1.397365909865718,
                -1.1949979963043507,
                -1.3897593606280951,
                0.2673444597115443
            ]
        },
        {
            "positions": [
                1.9749204294912777,
                -1.1695891370520208,
                -1.2929153770968882,
                -1.1242874052713918,
                -1.3535218509546023,
                0.2324093970419132
            ]
        },
        {
            "positions": [
                1.854140079387458,
                -1.1571307270396933,
                -1.1884648443280583,
                -1.0535768142384327,
                -1.3172843412811095,
                0.1974743343722821
            ]
        },
        {
            "positions": [
                1.7333597292836385,
                -1.1446723170273656,
                -1.0840143115592284,
                -0.9828662232054736,
                -1.2810468316076165,
                0.16253927170265098
            ]
        },
        {
            "positions": [
                1.6125793791798186,
                -1.1322139070150379,
                -0.9795637787903984,
                -0.9121556321725145,
                -1.2448093219341236,
                0.1276042090330199
            ]
        },
        {
            "positions": [
                1.491799029075999,
                -1.1197554970027104,
                -0.8751132460215685,
                -0.8414450411395554,
                -1.2085718122606308,
                0.09266914636338874
            ]
        },
        {
            "positions": [
                1.3710186789721792,
                -1.1072970869903827,
                -0.7706627132527384,
                -0.7707344501065964,
                -1.1723343025871378,
                0.0577340836937576
            ]
        },
        {
            "positions": [
                1.2502383288683598,
                -1.0948386769780551,
                -0.6662121804839085,
                -0.7000238590736374,
                -1.136096792913645,
                0.02279902102412651
            ]
        },
        {
            "positions": [
                1.12945797876454,
                -1.0823802669657274,
                -0.5617616477150784,
                -0.6293132680406782,
                -1.0998592832401521,
                -0.012136041645504636
            ]
        },
        {
            "positions": [
                1.0086776286607204,
                -1.0699218569533997,
                -0.45731111494624854,
                -0.5586026770077193,
                -1.063621773566659,
                -0.047071104315135726
            ]
        },
        {
            "positions": [
                0.8878972785569006,
                -1.057463446941072,
                -0.35286058217741845,
                -0.4878920859747602,
                -1.0273842638931663,
                -0.08200616698476687
            ]
        },
        {
            "positions": [
                0.767116928453081,
                -1.0450050369287445,
                -0.2484100494085888,
                -0.4171814949418011,
                -0.9911467542196734,
                -0.11694122965439796
            ]
        },
        {
            "positions": [
                0.6463365783492612,
                -1.0325466269164167,
                -0.1439595166397587,
                -0.34647090390884205,
                -0.9549092445461804,
                -0.15187629232402916
            ]
        },
        {
            "positions": [
                0.5255562282454416,
                -1.0200882169040892,
                -0.03950898387092883,
                -0.275760312875883,
                -0.9186717348726876,
                -0.18681135499366014
            ]
        },
        {
            "positions": [
                0.40477587814162197,
                -1.0076298068917615,
                0.06494154889790117,
                -0.20504972184292386,
                -0.8824342251991947,
                -0.22174641766329128
            ]
        },
        {
            "positions": [
                0.36745761164226687,
                -0.9923903621732989,
                0.18540787242779766,
                -0.07839578678268175,
                -0.8348642295033792,
                -0.21894966636775104
            ]
        },
        {
            "positions": [
                0.33013934514291177,
                -0.9771509174548363,
                0.30587419595769416,
                0.048258148277560364,
                -0.7872942338075639,
                -0.2161529150722108
            ]
        },
        {
            "positions": [
                0.29282107864355666,
                -0.9619114727363738,
                0.4263405194875906,
                0.1749120833378025,
                -0.7397242381117485,
                -0.21335616377667055
            ]
        },
        {
            "positions": [
                0.25550281214420156,
                -0.9466720280179112,
                0.5468068430174872,
                0.3015660183980446,
                -0.692154242415933,
                -0.2105594124811303
            ]
        },
        {
            "positions": [
                0.21818454564484643,
                -0.9314325832994486,
                0.6672731665473836,
                0.4282199534582867,
                -0.6445842467201177,
                -0.20776266118559006
            ]
        },
        {
            "positions": [
                0.17879679810272167,
                -0.9113401296349003,
                0.7885896126869671,
                0.5419742481741623,
                -0.5643728092993026,
                -0.21010625607151026
            ]
        },
        {
            "positions": [
                0.1394090505605969,
                -0.8912476759703521,
                0.9099060588265507,
                0.655728542890038,
                -0.4841613718784875,
                -0.21244985095743046
            ]
        },
        {
            "positions": [
                0.10002130301847217,
                -0.8711552223058039,
                1.0312225049661343,
                0.7694828376059136,
                -0.40394993445767247,
                -0.2147934458433507
            ]
        },
        {
            "positions": [
                0.060633555476347384,
                -0.8510627686412556,
                1.1525389511057178,
                0.8832371323217894,
                -0.3237384970368573,
                -0.2171370407292709
            ]
        },
        {
            "positions": [
                0.02124580793422265,
                -0.8309703149767074,
                1.2738553972453013,
                0.996991427037665,
                -0.24352705961604226,
                -0.2194806356151911
            ]
        },
        {
            "positions": [
                -0.018141939607902086,
                -0.8108778613121592,
                1.395171843384885,
                1.1107457217535406,
                -0.16331562219522722,
                -0.2218242305011113
            ]
        },
        {
            "positions": [
                -0.05752968715002685,
                -0.790785407647611,
                1.5164882895244685,
                1.2245000164694162,
                -0.08310418477441217,
                -0.2241678253870315
            ]
        },
        {
            "positions": [
                -0.09691743469215167,
                -0.7706929539830627,
                1.6378047356640522,
                1.338254311185292,
                -0.002892747353596903,
                -0.22651142027295174
            ]
        },
        {
            "positions": [
                -0.13630518223427637,
                -0.7506005003185146,
                1.7591211818036356,
                1.4520086059011676,
                0.07731869006721814,
                -0.22885501515887194
            ]
        },
        {
            "positions": [
                -0.17569292977640114,
                -0.7305080466539663,
                1.8804376279432193,
                1.5657629006170433,
                0.1575301274880332,
                -0.23119861004479214
            ]
        },
        {
            "positions": [
                -0.1013929708330334,
                -0.7427142426600228,
                1.9095075342883279,
                1.657544877991113,
                0.08647632902312774,
                -0.17742516324704338
            ]
        },
        {
            "positions": [
                -0.027093011889665675,
                -0.7549204386660793,
                1.9385774406334366,
                1.7493268553651828,
                0.015422530558222292,
                -0.12365171644929465
            ]
        },
        {
            "positions": [
                0.04720694705370207,
                -0.7671266346721357,
                1.9676473469785454,
                1.8411088327392526,
                -0.05563126790668316,
                -0.06987826965154592
            ]
        },
        {
            "positions": [
                0.12150690599706977,
                -0.7793328306781923,
                1.996717253323654,
                1.9328908101133224,
                -0.1266850663715886,
                -0.01610482285379716
            ]
        }
    ]
}