{
    "goal": {
        "global_pose": {
            "orientation": {
                "w": 0.7047431468963623,
                "x": -0.7094548344612122,
                "y": 0.0024358443915843964,
                "z": -0.0022348060738295317
            },
            "position": {
                "x": 0.6094750761985779,
                "y": 0.3671506643295288,
                "z": 0.19426114857196808
            }
        },
        "name": "move_to_magneteinheit_target"
    },
    "id": "LBKPIECE_move_to_magneteinheit_target_3",
    "joint_names": [
        "shoulder_pan_joint",
        "shoulder_lift_joint",
        "elbow_joint",
        "wrist_1_joint",
        "wrist_2_joint",
        "wrist_3_joint"
    ],
    "metrics": {
        "cart_traj_len": 4.063927485276205,
        "distance_elbow_joint": 3.911673214721209,
        "distance_shoulder_lift_joint": 1.5188489706414183,
        "distance_shoulder_pan_joint": 3.459531803561581,
        "distance_wrist_1_joint": 3.4664558250996986,
        "distance_wrist_2_joint": 1.8407385072612952,
        "distance_wrist_3_joint": 0.7963346159739517,
        "smoothness": 0.519422214527453,
        "time": 0.371391361,
        "traj_len": 3.8721548183484553,
        "weighted_distance": 4.6790433318754445
    },
    "planner": "LBKPIECE",
    "start": {
        "state": {
            "elbow_joint": -1.9196185737098679,
            "shoulder_lift_joint": -1.2443395971259867,
            "shoulder_pan_joint": 2.6996025301141957,
            "wrist_1_joint": -1.548550951469146,
            "wrist_2_joint": -1.5709469089955597,
            "wrist_3_joint": 0.4420197730596999
        }
    },
    "waypoints": [
        {
            "positions": [
                2.6996025301141957,
                -1.2443395971259867,
                -1.9196185737098679,
                -1.548550951469146,
                -1.5709469089955597,
                0.4420197730596999
            ]
        },
        {
            "positions": [
                2.5929229059723298,
                -1.2422554781631543,
                -1.8007760520486884,
                -1.4707652575751753,
                -1.4962809378863764,
                0.42993149046552703
            ]
        },
        {
            "positions": [
                2.4862432818304643,
                -1.2401713592003218,
                -1.681933530387509,
                -1.3929795636812048,
                -1.4216149667771931,
                0.41784320787135415
            ]
        },
        {
            "positions": [
                2.3795636576885983,
                -1.2380872402374894,
                -1.5630910087263297,
                -1.315193869787234,
                -1.3469489956680099,
                0.40575492527718127
            ]
        },
        {
            "positions": [
                2.2728840335467324,
                -1.2360031212746572,
                -1.4442484870651502,
                -1.2374081758932634,
                -1.2722830245588266,
                0.3936666426830083
            ]
        },
        {
            "positions": [
                2.166204409404867,
                -1.2339190023118247,
                -1.325405965403971,
                -1.1596224819992926,
                -1.1976170534496433,
                0.38157836008883544
            ]
        },
        {
            "positions": [
                2.059524785263001,
                -1.2318348833489923,
                -1.2065634437427915,
                -1.0818367881053221,
                -1.12295108234046,
                0.36949007749466256
            ]
        },
        {
            "positions": [
                1.952845161121135,
                -1.2297507643861598,
                -1.087720922081612,
                -1.0040510942113514,
                -1.0482851112312765,
                0.3574017949004897
            ]
        },
        {
            "positions": [
                1.8461655369792693,
                -1.2276666454233274,
                -0.9688784004204325,
                -0.9262654003173807,
                -0.9736191401220934,
                0.3453135123063168
            ]
        },
        {
            "positions": [
                1.7394859128374036,
                -1.225582526460495,
                -0.850035878759253,
                -0.8484797064234101,
                -0.8989531690129101,
                0.3332252297121439
            ]
        },
        {
            "positions": [
                1.632806288695538,
                -1.2234984074976625,
                -0.7311933570980738,
                -0.7706940125294395,
                -0.8242871979037268,
                0.32113694711797103
            ]
        },
        {
            "positions": [
                1.526126664553672,
                -1.22141428853483,
                -0.6123508354368943,
                -0.6929083186354688,
                -0.7496212267945436,
                0.3090486645237981
            ]
        },
        {
            "positions": [
                1.4194470404118062,
                -1.2193301695719978,
                -0.493508313775715,
                -0.6151226247414981,
                -0.6749552556853604,
                0.29696038192962526
            ]
        },
        {
            "positions": [
                1.3127674162699403,
                -1.2172460506091654,
                -0.3746657921145353,
                -0.5373369308475273,
                -0.6002892845761769,
                0.2848720993354523
            ]
        },
        {
            "positions": [
                1.2060877921280746,
                -1.215161931646333,
                -0.25582327045335607,
                -0.4595512369535568,
                -0.5256233134669936,
                0.27278381674127944
            ]
        },
        {
            "positions": [
                1.0994081679862089,
                -1.2130778126835005,
                -0.1369807487921768,
                -0.3817655430595861,
                -0.4509573423578106,
                0.26069553414710656
            ]
        },
        {
            "positions": [
                0.992728543844343,
                -1.210993693720668,
                -0.01813822713099711,
                -0.3039798491656154,
                -0.3762913712486271,
                0.24860725155293364
            ]
        },
        {
            "positions": [
                0.8860489197024772,
                -1.2089095747578356,
                0.10070429453018237,
                -0.22619415527164488,
                -0.30162540013944383,
                0.2365189689587608
            ]
        },
        {
            "positions": [
                0.7793692955606113,
                -1.206825455795003,
                0.21954681619136185,
                -0.14840846137767416,
                -0.22695942903026056,
                0.22443068636458788
            ]
        },
        {
            "positions": [
                0.6726896714187456,
                -1.2047413368321709,
                0.3383893378525409,
                -0.07062276748370344,
                -0.1522934579210773,
                0.212342403770415
            ]
        },
        {
            "positions": [
                0.5660100472768801,
                -1.2026572178693384,
                0.45723185951372036,
                0.0071629264102670565,
                -0.07762748681189402,
                0.2002541211762421
            ]
        },
        {
            "positions": [
                0.4593304231350137,
                -1.200573098906506,
                0.5760743811748998,
                0.084948620304238,
                -0.0029615157027107486,
                0.1881658385820692
            ]
        },
        {
            "positions": [
                0.3526507989931481,
                -1.1984889799436735,
                0.6949169028360793,
                0.16273431419820847,
                0.07170445540647248,
                0.17607755598789632
            ]
        },
        {
            "positions": [
                0.28550228429604113,
                -1.1250078545544748,
                0.7553127950309468,
                0.2912256208223315,
                0.0673089962868799,
                0.1499270407675582
            ]
        },
        {
            "positions": [
                0.21835376959893416,
                -1.0515267291652761,
                0.8157086872258144,
                0.4197169274464545,
                0.06291353716728734,
                0.12377652554722007
            ]
        },
        {
            "positions": [
                0.15120525490182718,
                -0.9780456037760774,
                0.8761045794206819,
                0.5482082340705775,
                0.058518078047694766,
                0.09762601032688195
            ]
        },
        {
            "positions": [
                0.0840567402047202,
                -0.9045644783868787,
                0.9365004716155495,
                0.6766995406947006,
                0.05412261892810219,
                0.07147549510654383
            ]
        },
        {
            "positions": [
                0.016908225507613228,
                -0.83108335299768,
                0.996896363810417,
                0.8051908473188236,
                0.04972715980850962,
                0.04532497988620571
            ]
        },
        {
            "positions": [
                -0.05024028918949375,
                -0.7576022276084813,
                1.0572922560052844,
                0.9336821539429466,
                0.04533170068891705,
                0.019174464665867585
            ]
        },
        {
            "positions": [
                -0.11738880388660067,
                -0.6841211022192826,
                1.117688148200152,
                1.0621734605670696,
                0.040936241569324475,
                -0.0069760505544705365
            ]
        },
        {
            "positions": [
                -0.1845373185837077,
                -0.6106399768300839,
                1.1780840403950197,
                1.1906647671911927,
                0.036540782449731905,
                -0.03312656577480866
            ]
        },
        {
            "positions": [
                -0.25168583328081473,
                -0.5371588514408852,
                1.2384799325898872,
                1.3191560738153159,
                0.03214532333013933,
                -0.05927708099514678
            ]
        },
        {
            "positions": [
                -0.31883434797792165,
                -0.46367772605168645,
                1.2988758247847547,
                1.4476473804394387,
                0.02774986421054676,
                -0.0854275962154849
            ]
        },
        {
            "positions": [
                -0.2673803888889073,
                -0.5686515911494634,
                1.4208597220339652,
                1.4769735191781184,
                0.02498388423030975,
                -0.10303162287201625
            ]
        },
        {
            "positions": [
                -0.21592642979989293,
                -0.6736254562472405,
                1.5428436192831754,
                1.506299657916798,
                0.02221790425007274,
                -0.1206356495285476
            ]
        },
        {
            "positions": [
                -0.1644724707108786,
                -0.7785993213450174,
                1.6648275165323858,
                1.5356257966554776,
                0.019451924269835733,
                -0.13823967618507893
            ]
        },
        {
            "positions": [
                -0.11301851162186421,
                -0.8835731864427945,
                1.7868114137815962,
                1.5649519353941572,
                0.01668594428959872,
                -0.1558437028416103
            ]
        },
        {
            "positions": [
                -0.061564552532849884,
                -0.9885470515405714,
                1.9087953110308065,
                1.5942780741328368,
                0.01391996430936171,
                -0.17344772949814163
            ]
        },
        {
            "positions": [
                -0.00028950919138617803,
                -0.9174411268478271,
                1.9365484210243182,
                1.7021536739654095,
                -0.032847586278022534,
                -0.11315869169277165
            ]
        },
        {
            "positions": [
                0.06098553415007753,
                -0.8463352021550827,
                1.96430153101783,
                1.810029273797982,
                -0.07961513686540678,
                -0.05286965388740167
            ]
        },
        {
            "positions": [
                0.12226057749154125,
                -0.7752292774623384,
                1.9920546410113418,
                1.9179048736305546,
                -0.12638268745279102,
                0.007419383917968309
            ]
        }
    ]
}