{
    "goal": {
        "global_pose": {
            "orientation": {
                "w": 0.5084816217422485,
                "x": -0.49083608388900757,
                "y": 0.5182115435600281,
                "z": -0.4816462993621826
            },
            "position": {
                "x": 0.5540239810943604,
                "y": 0.030875300988554955,
                "z": 0.16403168439865112
            }
        },
        "name": "move_to_storage"
    },
    "id": "LBTRRT_move_to_storage_10",
    "joint_names": [
        "shoulder_pan_joint",
        "shoulder_lift_joint",
        "elbow_joint",
        "wrist_1_joint",
        "wrist_2_joint",
        "wrist_3_joint"
    ],
    "metrics": {
        "cart_traj_len": 0.3528800956644085,
        "distance_elbow_joint": 0.45414456394924185,
        "distance_shoulder_lift_joint": 0.23273188576188675,
        "distance_shoulder_pan_joint": 0.45851796844853693,
        "distance_wrist_1_joint": 0.26041074379996965,
        "distance_wrist_2_joint": 1.1109008726602974,
        "distance_wrist_3_joint": 0.09239987982014819,
        "smoothness": 0.0,
        "time": 3.003647746,
        "traj_len": 1.6152727059045109,
        "weighted_distance": 2.040886398244803
    },
    "planner": "LBTRRT",
    "start": {
        "state": {
            "elbow_joint": 1.9715474092553085,
            "shoulder_lift_joint": -1.1394846673180945,
            "shoulder_pan_joint": 0.1228115366877952,
            "wrist_1_joint": -0.7804686583030105,
            "wrist_2_joint": 0.12958649594027716,
            "wrist_3_joint": -3.192492341365726
        }
    },
    "waypoints": [
        {
            "positions": [
                0.1228115366877952,
                -1.1394846673180945,
                1.9715474092553085,
                -0.7804686583030105,
                0.12958649594027716,
                -3.192492341365726
            ]
        },
        {
            "positions": [
                0.05730896976657564,
                -1.1727320795697926,
                2.0364252041052002,
                -0.8176701931315776,
                0.28828662060603394,
                -3.1792923585342763
            ]
        },
        {
            "positions": [
                -0.00819359715464392,
                -1.2059794918214908,
                2.101302998955092,
                -0.8548717279601447,
                0.44698674527179066,
                -3.1660923757028265
            ]
        },
        {
            "positions": [
                -0.07369616407586348,
                -1.239226904073189,
                2.1661807938049837,
                -0.8920732627887118,
                0.6056868699375475,
                -3.152892392871377
            ]
        },
        {
            "positions": [
                -0.13919873099708302,
                -1.2724743163248868,
                2.231058588654875,
                -0.9292747976172788,
                0.7643869946033042,
                -3.139692410039927
            ]
        },
        {
            "positions": [
                -0.2047012979183026,
                -1.305721728576585,
                2.295936383504767,
                -0.966476332445846,
                0.923087119269061,
                -3.1264924272084773
            ]
        },
        {
            "positions": [
                -0.27020386483952213,
                -1.3389691408282831,
                2.3608141783546586,
                -1.003677867274413,
                1.0817872439348177,
                -3.1132924443770276
            ]
        },
        {
            "positions": [
                -0.3357064317607417,
                -1.3722165530799812,
                2.4256919732045503,
                -1.0408794021029801,
                1.2404873686005744,
                -3.100092461545578
            ]
        }
    ]
}