{
    "goal": {
        "global_pose": {
            "orientation": {
                "w": 0.5084816217422485,
                "x": -0.49083608388900757,
                "y": 0.5182115435600281,
                "z": -0.4816462993621826
            },
            "position": {
                "x": 0.5540239810943604,
                "y": 0.030875300988554955,
                "z": 0.16403168439865112
            }
        },
        "name": "move_to_storage"
    },
    "id": "LBTRRT_move_to_storage_6",
    "joint_names": [
        "shoulder_pan_joint",
        "shoulder_lift_joint",
        "elbow_joint",
        "wrist_1_joint",
        "wrist_2_joint",
        "wrist_3_joint"
    ],
    "metrics": {
        "cart_traj_len": 0.3535590902766451,
        "distance_elbow_joint": 0.4510774314795847,
        "distance_shoulder_lift_joint": 0.23494716143100813,
        "distance_shoulder_pan_joint": 0.4617269752203745,
        "distance_wrist_1_joint": 0.251466090351232,
        "distance_wrist_2_joint": 1.1022159240537999,
        "distance_wrist_3_joint": 0.0962051963888313,
        "smoothness": 2.2204460668324854e-16,
        "time": 3.003693038,
        "traj_len": 1.611719199775454,
        "weighted_distance": 2.035615677407581
    },
    "planner": "LBTRRT",
    "start": {
        "state": {
            "elbow_joint": 1.9715474092553085,
            "shoulder_lift_joint": -1.1394846673180945,
            "shoulder_pan_joint": 0.1228115366877952,
            "wrist_1_joint": -0.7804686583030105,
            "wrist_2_joint": 0.12958649594027716,
            "wrist_3_joint": -3.192492341365726
        }
    },
    "waypoints": [
        {
            "positions": [
                0.1228115366877952,
                -1.1394846673180945,
                1.9715474092553085,
                -0.7804686583030105,
                0.12958649594027716,
                -3.192492341365726
            ]
        },
        {
            "positions": [
                0.056850540227741705,
                -1.1730485475225243,
                2.0359870423238204,
                -0.8163923854960436,
                0.2870459136622485,
                -3.1787487418816074
            ]
        },
        {
            "positions": [
                -0.009110456232311784,
                -1.2066124277269539,
                2.100426675392333,
                -0.8523161126890768,
                0.44450533138421994,
                -3.1650051423974883
            ]
        },
        {
            "positions": [
                -0.07507145269236527,
                -1.2401763079313837,
                2.164866308460845,
                -0.8882398398821099,
                0.6019647491061914,
                -3.1512615429133697
            ]
        },
        {
            "positions": [
                -0.14103244915241875,
                -1.2737401881358135,
                2.229305941529357,
                -0.924163567075143,
                0.7594241668281627,
                -3.137517943429251
            ]
        },
        {
            "positions": [
                -0.2069934456124723,
                -1.3073040683402433,
                2.293745574597869,
                -0.9600872942681762,
                0.9168835845501342,
                -3.1237743439451324
            ]
        },
        {
            "positions": [
                -0.2729544420725257,
                -1.3408679485446728,
                2.358185207666381,
                -0.9960110214612093,
                1.0743430022721054,
                -3.1100307444610134
            ]
        },
        {
            "positions": [
                -0.33891543853257927,
                -1.3744318287491026,
                2.422624840734893,
                -1.0319347486542425,
                1.231802419994077,
                -3.0962871449768947
            ]
        }
    ]
}