{
    "goal": {
        "global_pose": {
            "orientation": {
                "w": 0.7047431468963623,
                "x": -0.7094548344612122,
                "y": 0.0024358443915843964,
                "z": -0.0022348060738295317
            },
            "position": {
                "x": 0.6094750761985779,
                "y": 0.3671506643295288,
                "z": 0.19426114857196808
            }
        },
        "name": "move_to_magneteinheit_target"
    },
    "id": "LBTRRT_move_to_magneteinheit_target_1",
    "joint_names": [
        "shoulder_pan_joint",
        "shoulder_lift_joint",
        "elbow_joint",
        "wrist_1_joint",
        "wrist_2_joint",
        "wrist_3_joint"
    ],
    "metrics": {
        "cart_traj_len": 4.036328646557339,
        "distance_elbow_joint": 3.938900296794712,
        "distance_shoulder_lift_joint": 0.45706628702417906,
        "distance_shoulder_pan_joint": 4.146763291025089,
        "distance_wrist_1_joint": 3.5563236085908785,
        "distance_wrist_2_joint": 1.4401534573438173,
        "distance_wrist_3_joint": 0.5443116329376739,
        "smoothness": 0.2293074592861435,
        "time": 3.033052803,
        "traj_len": 3.7528014300941037,
        "weighted_distance": 4.490948552981473
    },
    "planner": "LBTRRT",
    "start": {
        "state": {
            "elbow_joint": -1.9196185737098679,
            "shoulder_lift_joint": -1.2443395971259867,
            "shoulder_pan_joint": 2.6996025301141957,
            "wrist_1_joint": -1.548550951469146,
            "wrist_2_joint": -1.5709469089955597,
            "wrist_3_joint": 0.4420197730596999
        }
    },
    "waypoints": [
        {
            "positions": [
                2.6996025301141957,
                -1.2443395971259867,
                -1.9196185737098679,
                -1.548550951469146,
                -1.5709469089955597,
                0.4420197730596999
            ]
        },
        {
            "positions": [
                2.5836742020555197,
                -1.2306447118401462,
                -1.8065809486449735,
                -1.461422791204586,
                -1.5321748308461125,
                0.42732778146085726
            ]
        },
        {
            "positions": [
                2.4677458739968436,
                -1.2169498265543057,
                -1.6935433235800794,
                -1.3742946309400261,
                -1.4934027526966653,
                0.41263578986201466
            ]
        },
        {
            "positions": [
                2.3518175459381676,
                -1.2032549412684654,
                -1.5805056985151853,
                -1.2871664706754662,
                -1.4546306745472182,
                0.397943798263172
            ]
        },
        {
            "positions": [
                2.2358892178794916,
                -1.189560055982625,
                -1.467468073450291,
                -1.200038310410906,
                -1.4158585963977712,
                0.38325180666432934
            ]
        },
        {
            "positions": [
                2.119960889820816,
                -1.1758651706967844,
                -1.3544304483853966,
                -1.112910150146346,
                -1.377086518248324,
                0.36855981506548674
            ]
        },
        {
            "positions": [
                2.00403256176214,
                -1.162170285410944,
                -1.2413928233205025,
                -1.0257819898817861,
                -1.338314440098877,
                0.3538678234666441
            ]
        },
        {
            "positions": [
                1.888104233703464,
                -1.1484754001251036,
                -1.1283551982556081,
                -0.9386538296172261,
                -1.2995423619494297,
                0.3391758318678014
            ]
        },
        {
            "positions": [
                1.7721759056447879,
                -1.1347805148392631,
                -1.015317573190714,
                -0.8515256693526662,
                -1.2607702837999826,
                0.3244838402689588
            ]
        },
        {
            "positions": [
                1.6562475775861119,
                -1.1210856295534226,
                -0.9022799481258197,
                -0.7643975090881062,
                -1.2219982056505354,
                0.3097918486701162
            ]
        },
        {
            "positions": [
                1.5403192495274358,
                -1.107390744267582,
                -0.7892423230609253,
                -0.6772693488235462,
                -1.1832261275010882,
                0.2950998570712735
            ]
        },
        {
            "positions": [
                1.42439092146876,
                -1.0936958589817418,
                -0.6762046979960314,
                -0.5901411885589863,
                -1.144454049351641,
                0.2804078654724309
            ]
        },
        {
            "positions": [
                1.308462593410084,
                -1.0800009736959013,
                -0.5631670729311371,
                -0.5030130282944263,
                -1.1056819712021941,
                0.2657158738735883
            ]
        },
        {
            "positions": [
                1.192534265351408,
                -1.0663060884100608,
                -0.45012944786624276,
                -0.41588486802986635,
                -1.066909893052747,
                0.25102388227474565
            ]
        },
        {
            "positions": [
                1.076605937292732,
                -1.0526112031242203,
                -0.3370918228013484,
                -0.3287567077653062,
                -1.0281378149032998,
                0.236331890675903
            ]
        },
        {
            "positions": [
                0.9606776092340559,
                -1.03891631783838,
                -0.2240541977364543,
                -0.24162854750074625,
                -0.9893657367538526,
                0.22163989907706036
            ]
        },
        {
            "positions": [
                0.8447492811753798,
                -1.0252214325525395,
                -0.11101657267156018,
                -0.1545003872361863,
                -0.9505936586044055,
                0.20694790747821773
            ]
        },
        {
            "positions": [
                0.728820953116704,
                -1.011526547266699,
                0.002021052393333944,
                -0.06737222697162659,
                -0.9118215804549584,
                0.19225591587937513
            ]
        },
        {
            "positions": [
                0.612892625058028,
                -0.9978316619808585,
                0.11505867745822851,
                0.01975593329293357,
                -0.8730495023055113,
                0.17756392428053247
            ]
        },
        {
            "positions": [
                0.49696429699935196,
                -0.9841367766950182,
                0.2280963025231224,
                0.10688409355749351,
                -0.8342774241560641,
                0.1628719326816898
            ]
        },
        {
            "positions": [
                0.38103596894067593,
                -0.9704418914091777,
                0.3411339275880172,
                0.19401225382205367,
                -0.7955053460066169,
                0.14817994108284716
            ]
        },
        {
            "positions": [
                0.2651076408819999,
                -0.9567470061233372,
                0.4541715526529111,
                0.2811404140866136,
                -0.7567332678571699,
                0.13348794948400455
            ]
        },
        {
            "positions": [
                0.1491793128233243,
                -0.9430521208374968,
                0.567209177717805,
                0.36826857435117333,
                -0.7179611897077227,
                0.11879595788516195
            ]
        },
        {
            "positions": [
                0.03325098476464783,
                -0.9293572355516563,
                0.6802468027826998,
                0.4553967346157337,
                -0.6791891115582755,
                0.10410396628631924
            ]
        },
        {
            "positions": [
                -0.08267734329402776,
                -0.9156623502658159,
                0.7932844278475937,
                0.5425248948802934,
                -0.6404170334088285,
                0.08941197468747664
            ]
        },
        {
            "positions": [
                -0.1986056713527038,
                -0.9019674649799754,
                0.906322052912488,
                0.6296530551448531,
                -0.6016449552593813,
                0.07471998308863403
            ]
        },
        {
            "positions": [
                -0.3145339994113798,
                -0.8882725796941349,
                1.0193596779773824,
                0.7167812154094133,
                -0.5628728771099343,
                0.06002799148979138
            ]
        },
        {
            "positions": [
                -0.43046232747005586,
                -0.8745776944082945,
                1.1323973030422763,
                0.8039093756739735,
                -0.5241007989604871,
                0.04533599989094872
            ]
        },
        {
            "positions": [
                -0.5463906555287319,
                -0.8608828091224541,
                1.245434928107171,
                0.8910375359385336,
                -0.48532872081103995,
                0.030644008292106062
            ]
        },
        {
            "positions": [
                -0.6623189835874081,
                -0.8471879238366136,
                1.358472553172065,
                0.9781656962030933,
                -0.4465566426615929,
                0.015952016693263463
            ]
        },
        {
            "positions": [
                -0.5642137614219724,
                -0.8396985971197628,
                1.4410736994111621,
                1.1068665663179231,
                -0.4070862437853615,
                0.0011715321218587968
            ]
        },
        {
            "positions": [
                -0.46610853925653667,
                -0.832209270402912,
                1.5236748456502596,
                1.2355674364327531,
                -0.36761584490913013,
                -0.01360895244954587
            ]
        },
        {
            "positions": [
                -0.3680033170911009,
                -0.8247199436860614,
                1.606275991889357,
                1.364268306547583,
                -0.32814544603289875,
                -0.028389437020950533
            ]
        },
        {
            "positions": [
                -0.2698980949256652,
                -0.8172306169692106,
                1.6888771381284542,
                1.4929691766624127,
                -0.28867504715666736,
                -0.04316992159235521
            ]
        },
        {
            "positions": [
                -0.17179287276022948,
                -0.8097412902523599,
                1.7714782843675514,
                1.6216700467772427,
                -0.24920464828043598,
                -0.05795040616375988
            ]
        },
        {
            "positions": [
                -0.07368765059479365,
                -0.8022519635355092,
                1.8540794306066488,
                1.7503709168920725,
                -0.2097342494042046,
                -0.07273089073516453
            ]
        },
        {
            "positions": [
                0.02441757157064206,
                -0.7947626368186584,
                1.9366805768457462,
                1.8790717870069025,
                -0.17026385052797322,
                -0.0875113753065692
            ]
        },
        {
            "positions": [
                0.12252279373607779,
                -0.7872733101018077,
                2.0192817230848434,
                2.0077726571217323,
                -0.1307934516517418,
                -0.10229185987797387
            ]
        }
    ]
}