{
    "goal": {
        "global_pose": {
            "orientation": {
                "w": 0.5084816217422485,
                "x": -0.49083608388900757,
                "y": 0.5182115435600281,
                "z": -0.4816462993621826
            },
            "position": {
                "x": 0.5540239810943604,
                "y": 0.030875300988554955,
                "z": 0.16403168439865112
            }
        },
        "name": "move_to_storage"
    },
    "id": "LBTRRT_move_to_storage_7",
    "joint_names": [
        "shoulder_pan_joint",
        "shoulder_lift_joint",
        "elbow_joint",
        "wrist_1_joint",
        "wrist_2_joint",
        "wrist_3_joint"
    ],
    "metrics": {
        "cart_traj_len": 0.3541579903839042,
        "distance_elbow_joint": 0.45245612030042315,
        "distance_shoulder_lift_joint": 0.23476899300057386,
        "distance_shoulder_pan_joint": 0.4617649272073062,
        "distance_wrist_1_joint": 0.25270278713870864,
        "distance_wrist_2_joint": 1.107097479019255,
        "distance_wrist_3_joint": 0.09945295303157975,
        "smoothness": 1.665334528953551e-15,
        "time": 3.002787039,
        "traj_len": 1.6150056531473338,
        "weighted_distance": 2.0413107142027567
    },
    "planner": "LBTRRT",
    "start": {
        "state": {
            "elbow_joint": 1.9715474092553085,
            "shoulder_lift_joint": -1.1394846673180945,
            "shoulder_pan_joint": 0.1228115366877952,
            "wrist_1_joint": -0.7804686583030105,
            "wrist_2_joint": 0.12958649594027716,
            "wrist_3_joint": -3.192492341365726
        }
    },
    "waypoints": [
        {
            "positions": [
                0.1228115366877952,
                -1.1394846673180945,
                1.9715474092553085,
                -0.7804686583030105,
                0.12958649594027716,
                -3.192492341365726
            ]
        },
        {
            "positions": [
                0.05684511851532288,
                -1.173023094889605,
                2.0361839978696548,
                -0.8165690564656831,
                0.28774327865731353,
                -3.178284776646929
            ]
        },
        {
            "positions": [
                -0.009121299657149431,
                -1.2065615224611157,
                2.1008205864840006,
                -0.8526694546283557,
                0.44590006137434995,
                -3.1640772119281317
            ]
        },
        {
            "positions": [
                -0.07508771782962174,
                -1.2400999500326262,
                2.165457175098347,
                -0.8887698527910285,
                0.6040568440913864,
                -3.149869647209335
            ]
        },
        {
            "positions": [
                -0.14105413600209404,
                -1.2736383776041367,
                2.230093763712693,
                -0.9248702509537011,
                0.7622136268084228,
                -3.1356620824905375
            ]
        },
        {
            "positions": [
                -0.20702055417456638,
                -1.3071768051756472,
                2.2947303523270395,
                -0.9609706491163739,
                0.9203704095254592,
                -3.1214545177717405
            ]
        },
        {
            "positions": [
                -0.27298697234703867,
                -1.3407152327471579,
                2.3593669409413853,
                -0.9970710472790465,
                1.0785271922424955,
                -3.107246953052943
            ]
        },
        {
            "positions": [
                -0.338953390519511,
                -1.3742536603186684,
                2.4240035295557316,
                -1.0331714454417191,
                1.236683974959532,
                -3.0930393883341463
            ]
        }
    ]
}