{
    "goal": {
        "global_pose": {
            "orientation": {
                "w": 0.7031023502349854,
                "x": -0.7110244035720825,
                "y": 0.007748599164187908,
                "z": 0.005598929710686207
            },
            "position": {
                "x": 0.11585023208521307,
                "y": 0.44412534475326537,
                "z": 0.3711530566215515
            }
        },
        "name": "move_to_auspresseinheit"
    },
    "id": "PRM_move_to_auspresseinheit_2",
    "joint_names": [
        "shoulder_pan_joint",
        "shoulder_lift_joint",
        "elbow_joint",
        "wrist_1_joint",
        "wrist_2_joint",
        "wrist_3_joint"
    ],
    "metrics": {
        "cart_traj_len": 1.6869642377910319,
        "distance_elbow_joint": 0.7338231232091719,
        "distance_shoulder_lift_joint": 0.6105547515467487,
        "distance_shoulder_pan_joint": 3.024225594450076,
        "distance_wrist_1_joint": 1.170216347056706,
        "distance_wrist_2_joint": 0.5284770466026162,
        "distance_wrist_3_joint": 1.7251604414828492,
        "smoothness": 1.0451893596253283,
        "time": 0.077801959,
        "traj_len": 2.791497323005732,
        "weighted_distance": 3.597425688040434
    },
    "planner": "PRM",
    "start": {
        "state": {
            "elbow_joint": 2.4225745326682886,
            "shoulder_lift_joint": -1.3736534990239282,
            "shoulder_pan_joint": -0.3378633610955803,
            "wrist_1_joint": -1.02885917317252,
            "wrist_2_joint": 1.233022905420004,
            "wrist_3_joint": -3.09402240754724
        }
    },
    "waypoints": [
        {
            "positions": [
                -0.3378633610955803,
                -1.3736534990239282,
                2.4225745326682886,
                -1.02885917317252,
                1.233022905420004,
                -3.09402240754724
            ]
        },
        {
            "positions": [
                -0.4278271881440834,
                -1.4256535309013467,
                2.3879781991736824,
                -0.9506989975413724,
                1.1864163452700858,
                -3.0176535427971056
            ]
        },
        {
            "positions": [
                -0.5177910151925864,
                -1.4776535627787653,
                2.353381865679076,
                -0.8725388219102248,
                1.1398097851201674,
                -2.941284678046972
            ]
        },
        {
            "positions": [
                -0.6077548422410894,
                -1.5296535946561838,
                2.3187855321844704,
                -0.7943786462790772,
                1.0932032249702492,
                -2.8649158132968378
            ]
        },
        {
            "positions": [
                -0.6977186692895925,
                -1.5816536265336023,
                2.284189198689864,
                -0.7162184706479295,
                1.046596664820331,
                -2.7885469485467036
            ]
        },
        {
            "positions": [
                -0.7876824963380955,
                -1.633653658411021,
                2.249592865195258,
                -0.6380582950167819,
                0.9999901046704128,
                -2.71217808379657
            ]
        },
        {
            "positions": [
                -0.8776463233865985,
                -1.6856536902884396,
                2.2149965317006517,
                -0.5598981193856343,
                0.9533835445204947,
                -2.6358092190464357
            ]
        },
        {
            "positions": [
                -0.9676101504351016,
                -1.7376537221658581,
                2.1804001982060455,
                -0.48173794375448653,
                0.9067769843705764,
                -2.559440354296302
            ]
        },
        {
            "positions": [
                -1.0575739774836048,
                -1.7896537540432766,
                2.1458038647114392,
                -0.4035777681233389,
                0.8601704242206583,
                -2.483071489546168
            ]
        },
        {
            "positions": [
                -1.1475378045321079,
                -1.8416537859206952,
                2.1112075312168335,
                -0.32541759249219127,
                0.81356386407074,
                -2.4067026247960337
            ]
        },
        {
            "positions": [
                -1.2375016315806109,
                -1.8936538177981137,
                2.0766111977222272,
                -0.24725741686104363,
                0.7669573039208217,
                -2.3303337600459
            ]
        },
        {
            "positions": [
                -1.327465458629114,
                -1.9456538496755322,
                2.042014864227621,
                -0.169097241229896,
                0.7203507437709036,
                -2.253964895295766
            ]
        },
        {
            "positions": [
                -1.1240031089374596,
                -1.9417984095860177,
                2.0773412097044712,
                -0.20014268274130423,
                0.7187702552755519,
                -2.3424751882189034
            ]
        },
        {
            "positions": [
                -0.9205407592458053,
                -1.9379429694965034,
                2.112667555181322,
                -0.23118812425271243,
                0.7171897667802004,
                -2.430985481142041
            ]
        },
        {
            "positions": [
                -0.717078409554151,
                -1.9340875294069888,
                2.1479939006581725,
                -0.26223356576412066,
                0.7156092782848489,
                -2.519495774065178
            ]
        },
        {
            "positions": [
                -0.5136160598624967,
                -1.9302320893174745,
                2.1833202461350227,
                -0.29327900727552886,
                0.7140287897894972,
                -2.608006066988316
            ]
        },
        {
            "positions": [
                -0.3101537101708425,
                -1.92637664922796,
                2.218646591611873,
                -0.3243244487869371,
                0.7124483012941456,
                -2.6965163599114534
            ]
        },
        {
            "positions": [
                -0.10669136047918815,
                -1.9225212091384454,
                2.2539729370887236,
                -0.3553698902983453,
                0.7108678127987941,
                -2.785026652834591
            ]
        },
        {
            "positions": [
                0.09677098921246596,
                -1.918665769048931,
                2.289299282565574,
                -0.3864153318097535,
                0.7092873243034425,
                -2.8735369457577287
            ]
        },
        {
            "positions": [
                0.3002333389041205,
                -1.9148103289594165,
                2.3246256280424245,
                -0.4174607733211617,
                0.7077068358080909,
                -2.9620472386808663
            ]
        },
        {
            "positions": [
                0.5036956885957746,
                -1.9109548888699022,
                2.3599519735192747,
                -0.44850621483256997,
                0.7061263473127393,
                -3.0505575316040034
            ]
        },
        {
            "positions": [
                0.707158038287429,
                -1.9070994487803876,
                2.3952783189961253,
                -0.47955165634397817,
                0.7045458588173877,
                -3.139067824527141
            ]
        }
    ]
}