{
    "goal": {
        "global_pose": {
            "orientation": {
                "w": 0.7031023502349854,
                "x": -0.7110244035720825,
                "y": 0.007748599164187908,
                "z": 0.005598929710686207
            },
            "position": {
                "x": 0.11585023208521307,
                "y": 0.44412534475326537,
                "z": 0.3711530566215515
            }
        },
        "name": "move_to_auspresseinheit"
    },
    "id": "PRM_move_to_auspresseinheit_7",
    "joint_names": [
        "shoulder_pan_joint",
        "shoulder_lift_joint",
        "elbow_joint",
        "wrist_1_joint",
        "wrist_2_joint",
        "wrist_3_joint"
    ],
    "metrics": {
        "cart_traj_len": 2.619921110512096,
        "distance_elbow_joint": 3.2086189244949708,
        "distance_shoulder_lift_joint": 0.5302239760885465,
        "distance_shoulder_pan_joint": 1.7982035579797278,
        "distance_wrist_1_joint": 2.7494114425171414,
        "distance_wrist_2_joint": 3.0973733731382547,
        "distance_wrist_3_joint": 2.0253579285071104,
        "smoothness": 0.7717647557827966,
        "time": 0.154228228,
        "traj_len": 3.6618559778786692,
        "weighted_distance": 4.8277002677667715
    },
    "planner": "PRM",
    "start": {
        "state": {
            "elbow_joint": 2.4225745326682886,
            "shoulder_lift_joint": -1.3736534990239282,
            "shoulder_pan_joint": -0.3378633610955803,
            "wrist_1_joint": -1.02885917317252,
            "wrist_2_joint": 1.233022905420004,
            "wrist_3_joint": -3.09402240754724
        }
    },
    "waypoints": [
        {
            "positions": [
                -0.3378633610955803,
                -1.3736534990239282,
                2.4225745326682886,
                -1.02885917317252,
                1.233022905420004,
                -3.09402240754724
            ]
        },
        {
            "positions": [
                -0.3594167780236108,
                -1.4043151839597918,
                2.248051161241898,
                -1.0470493891496433,
                1.2751129066874867,
                -3.086186723578245
            ]
        },
        {
            "positions": [
                -0.38097019495164125,
                -1.4349768688956552,
                2.0735277898155067,
                -1.0652396051267667,
                1.3172029079549696,
                -3.07835103960925
            ]
        },
        {
            "positions": [
                -0.40252361187967173,
                -1.4656385538315189,
                1.899004418389116,
                -1.08342982110389,
                1.3592929092224524,
                -3.0705153556402554
            ]
        },
        {
            "positions": [
                -0.34414159703702,
                -1.481511519318767,
                1.8380589961678735,
                -0.9910880421631371,
                1.2586587392251407,
                -3.017057456938398
            ]
        },
        {
            "positions": [
                -0.2857595821943683,
                -1.4973844848060147,
                1.777113573946631,
                -0.8987462632223842,
                1.1580245692278288,
                -2.9635995582365404
            ]
        },
        {
            "positions": [
                -0.2273775673517166,
                -1.5132574502932625,
                1.7161681517253888,
                -0.8064044842816311,
                1.057390399230517,
                -2.910141659534683
            ]
        },
        {
            "positions": [
                -0.1689955525090649,
                -1.5291304157805106,
                1.6552227295041464,
                -0.7140627053408782,
                0.9567562292332052,
                -2.8566837608328255
            ]
        },
        {
            "positions": [
                -0.11061353766641319,
                -1.5450033812677586,
                1.594277307282904,
                -0.6217209264001252,
                0.8561220592358935,
                -2.8032258621309682
            ]
        },
        {
            "positions": [
                -0.05223152282376148,
                -1.5608763467550064,
                1.5333318850616617,
                -0.5293791474593723,
                0.7554878892385817,
                -2.7497679634291106
            ]
        },
        {
            "positions": [
                0.00615049201889023,
                -1.5767493122422542,
                1.472386462840419,
                -0.4370373685186194,
                0.6548537192412699,
                -2.6963100647272533
            ]
        },
        {
            "positions": [
                0.06453250686154194,
                -1.5926222777295023,
                1.4114410406191769,
                -0.3446955895778665,
                0.5542195492439581,
                -2.6428521660253956
            ]
        },
        {
            "positions": [
                0.12291452170419365,
                -1.6084952432167503,
                1.3504956183979344,
                -0.2523538106371135,
                0.4535853792466463,
                -2.5893942673235384
            ]
        },
        {
            "positions": [
                0.18129653654684535,
                -1.6243682087039981,
                1.289550196176692,
                -0.16001203169636047,
                0.35295120924933454,
                -2.535936368621681
            ]
        },
        {
            "positions": [
                0.23967855138949706,
                -1.6402411741912462,
                1.2286047739554495,
                -0.06767025275560745,
                0.25231703925202265,
                -2.4824784699198235
            ]
        },
        {
            "positions": [
                0.29806056623214877,
                -1.656114139678494,
                1.1676593517342073,
                0.024671526185145343,
                0.15168286925471097,
                -2.429020571217966
            ]
        },
        {
            "positions": [
                0.3564425810748005,
                -1.671987105165742,
                1.1067139295129649,
                0.11701330512589836,
                0.0510486992573993,
                -2.3755626725161085
            ]
        },
        {
            "positions": [
                0.4148245959174522,
                -1.6878600706529898,
                1.0457685072917224,
                0.20935508406665115,
                -0.049585470739912596,
                -2.3221047738142513
            ]
        },
        {
            "positions": [
                0.4732066107601039,
                -1.7037330361402376,
                0.98482308507048,
                0.30169686300740417,
                -0.1502196407372245,
                -2.2686468751123936
            ]
        },
        {
            "positions": [
                0.5315886256027555,
                -1.7196060016274857,
                0.9238776628492378,
                0.39403864194815696,
                -0.25085381073453616,
                -2.2151889764105364
            ]
        },
        {
            "positions": [
                0.5899706404454073,
                -1.7354789671147337,
                0.8629322406279953,
                0.48638042088891,
                -0.35148798073184784,
                -2.161731077708679
            ]
        },
        {
            "positions": [
                0.648352655288059,
                -1.7513519326019815,
                0.801986818406753,
                0.578722199829663,
                -0.4521221507291598,
                -2.1082731790068214
            ]
        },
        {
            "positions": [
                0.7012865576531195,
                -1.7678233891432333,
                0.9549261407724566,
                0.5389506836167595,
                -0.410082123046279,
                -2.1545053667000675
            ]
        },
        {
            "positions": [
                0.75422046001818,
                -1.7842948456844854,
                1.1078654631381601,
                0.499179167403856,
                -0.36804209536339816,
                -2.200737554393313
            ]
        },
        {
            "positions": [
                0.8071543623832406,
                -1.8007663022257372,
                1.2608047855038638,
                0.45940765119095245,
                -0.3260020676805174,
                -2.2469697420865593
            ]
        },
        {
            "positions": [
                0.8600882647483011,
                -1.8172377587669892,
                1.4137441078695674,
                0.41963613497804897,
                -0.2839620399976366,
                -2.293201929779805
            ]
        },
        {
            "positions": [
                0.9130221671133616,
                -1.833709215308241,
                1.566683430235271,
                0.37986461876514543,
                -0.24192201231475577,
                -2.339434117473051
            ]
        },
        {
            "positions": [
                0.9659560694784222,
                -1.850180671849493,
                1.7196227526009746,
                0.3400931025522419,
                -0.199881984631875,
                -2.3856663051662967
            ]
        },
        {
            "positions": [
                1.0188899718434827,
                -1.866652128390745,
                1.872562074966678,
                0.30032158633933836,
                -0.15784195694899417,
                -2.431898492859543
            ]
        },
        {
            "positions": [
                0.9866876180514773,
                -1.8714784494367056,
                1.9444551564993715,
                0.21000837828313665,
                -0.05397251823398286,
                -2.514243134208934
            ]
        },
        {
            "positions": [
                0.9544852642594719,
                -1.8763047704826665,
                2.016348238032065,
                0.11969517022693493,
                0.04989692048102845,
                -2.596587775558326
            ]
        },
        {
            "positions": [
                0.9222829104674665,
                -1.8811310915286272,
                2.0882413195647587,
                0.029381962170733245,
                0.15376635919603976,
                -2.6789324169077173
            ]
        },
        {
            "positions": [
                0.890080556675461,
                -1.8859574125745882,
                2.160134401097452,
                -0.0609312458854685,
                0.25763579791105107,
                -2.7612770582571087
            ]
        },
        {
            "positions": [
                0.8578782028834556,
                -1.8907837336205489,
                2.2320274826301456,
                -0.15124445394167024,
                0.3615052366260624,
                -2.8436216996065005
            ]
        },
        {
            "positions": [
                0.8256758490914502,
                -1.8956100546665098,
                2.303920564162839,
                -0.24155766199787188,
                0.4653746753410737,
                -2.925966340955892
            ]
        },
        {
            "positions": [
                0.7934734952994448,
                -1.9004363757124705,
                2.3758136456955325,
                -0.3318708700540737,
                0.569244114056085,
                -3.008310982305283
            ]
        },
        {
            "positions": [
                0.7501168718352224,
                -1.9021569254124726,
                2.38291583716786,
                -0.3929187219383147,
                0.6384051363555592,
                -3.0780964306393983
            ]
        },
        {
            "positions": [
                0.7067602483709999,
                -1.9038774751124747,
                2.3900180286401875,
                -0.4539665738225557,
                0.7075661586550333,
                -3.1478818789735135
            ]
        }
    ]
}