{
    "goal": {
        "global_pose": {
            "orientation": {
                "w": 0.5084816217422485,
                "x": -0.49083608388900757,
                "y": 0.5182115435600281,
                "z": -0.4816462993621826
            },
            "position": {
                "x": 0.5540239810943604,
                "y": 0.030875300988554955,
                "z": 0.16403168439865112
            }
        },
        "name": "move_to_storage"
    },
    "id": "PRM_move_to_storage_1",
    "joint_names": [
        "shoulder_pan_joint",
        "shoulder_lift_joint",
        "elbow_joint",
        "wrist_1_joint",
        "wrist_2_joint",
        "wrist_3_joint"
    ],
    "metrics": {
        "cart_traj_len": 0.35311875533564063,
        "distance_elbow_joint": 0.45135653223784633,
        "distance_shoulder_lift_joint": 0.23475947763792848,
        "distance_shoulder_pan_joint": 0.4625994725116005,
        "distance_wrist_1_joint": 0.25324944317086473,
        "distance_wrist_2_joint": 1.0950299441456135,
        "distance_wrist_3_joint": 0.1019499576513998,
        "smoothness": 1.1102230263833737e-15,
        "time": 0.027707148,
        "traj_len": 1.6121243213087673,
        "weighted_distance": 2.0374307669156595
    },
    "planner": "PRM",
    "start": {
        "state": {
            "elbow_joint": 1.9715474092553085,
            "shoulder_lift_joint": -1.1394846673180945,
            "shoulder_pan_joint": 0.1228115366877952,
            "wrist_1_joint": -0.7804686583030105,
            "wrist_2_joint": 0.12958649594027716,
            "wrist_3_joint": -3.192492341365726
        }
    },
    "waypoints": [
        {
            "positions": [
                0.1228115366877952,
                -1.1394846673180945,
                1.9715474092553085,
                -0.7804686583030105,
                0.12958649594027716,
                -3.192492341365726
            ]
        },
        {
            "positions": [
                0.05672589775756656,
                -1.1730217355520842,
                2.036026913860715,
                -0.8166471501845626,
                0.28601934510393623,
                -3.17792806170124
            ]
        },
        {
            "positions": [
                -0.00935974117266207,
                -1.2065588037860742,
                2.1005064184661215,
                -0.8528256420661147,
                0.4424521942675953,
                -3.163363782036755
            ]
        },
        {
            "positions": [
                -0.07544538010289072,
                -1.2400958720200639,
                2.1649859230715283,
                -0.8890041339476668,
                0.5988850434312544,
                -3.148799502372269
            ]
        },
        {
            "positions": [
                -0.14153101903311932,
                -1.2736329402540536,
                2.229465427676935,
                -0.9251826258292188,
                0.7553178925949134,
                -3.134235222707783
            ]
        },
        {
            "positions": [
                -0.207616657963348,
                -1.3071700084880433,
                2.2939449322823418,
                -0.961361117710771,
                0.9117507417585725,
                -3.1196709430432974
            ]
        },
        {
            "positions": [
                -0.2737022968935766,
                -1.3407070767220333,
                2.358424436887748,
                -0.9975396095923231,
                1.0681835909222315,
                -3.105106663378812
            ]
        },
        {
            "positions": [
                -0.3397879358238053,
                -1.374244144956023,
                2.422903941493155,
                -1.0337181014738752,
                1.2246164400858908,
                -3.090542383714326
            ]
        }
    ]
}