{
    "goal": {
        "global_pose": {
            "orientation": {
                "w": 0.5084816217422485,
                "x": -0.49083608388900757,
                "y": 0.5182115435600281,
                "z": -0.4816462993621826
            },
            "position": {
                "x": 0.5540239810943604,
                "y": 0.030875300988554955,
                "z": 0.16403168439865112
            }
        },
        "name": "move_to_storage"
    },
    "id": "PRM_move_to_storage_5",
    "joint_names": [
        "shoulder_pan_joint",
        "shoulder_lift_joint",
        "elbow_joint",
        "wrist_1_joint",
        "wrist_2_joint",
        "wrist_3_joint"
    ],
    "metrics": {
        "cart_traj_len": 0.3535022578508649,
        "distance_elbow_joint": 0.45140062678761694,
        "distance_shoulder_lift_joint": 0.23455676762967603,
        "distance_shoulder_pan_joint": 0.46134576987033676,
        "distance_wrist_1_joint": 0.25394753425283545,
        "distance_wrist_2_joint": 1.1032233017816222,
        "distance_wrist_3_joint": 0.09850617580937282,
        "smoothness": 4.440892133664971e-16,
        "time": 0.033833065999999995,
        "traj_len": 1.6133753983904242,
        "weighted_distance": 2.03891229918912
    },
    "planner": "PRM",
    "start": {
        "state": {
            "elbow_joint": 1.9715474092553085,
            "shoulder_lift_joint": -1.1394846673180945,
            "shoulder_pan_joint": 0.1228115366877952,
            "wrist_1_joint": -0.7804686583030105,
            "wrist_2_joint": 0.12958649594027716,
            "wrist_3_joint": -3.192492341365726
        }
    },
    "waypoints": [
        {
            "positions": [
                0.1228115366877952,
                -1.1394846673180945,
                1.9715474092553085,
                -0.7804686583030105,
                0.12958649594027716,
                -3.192492341365726
            ]
        },
        {
            "positions": [
                0.056904998134889945,
                -1.1729927769794768,
                2.036033213082111,
                -0.8167468774819869,
                0.2871898247662232,
                -3.1784200305358157
            ]
        },
        {
            "positions": [
                -0.009001540418015305,
                -1.206500886640859,
                2.100519016908913,
                -0.8530250966609635,
                0.4447931535921692,
                -3.1643477197059053
            ]
        },
        {
            "positions": [
                -0.07490807897092054,
                -1.2400089963022414,
                2.1650048207357155,
                -0.8893033158399399,
                0.6023964824181152,
                -3.150275408875995
            ]
        },
        {
            "positions": [
                -0.1408146175238258,
                -1.2735171059636237,
                2.2294906245625183,
                -0.9255815350189165,
                0.7599998112440612,
                -3.136203098046084
            ]
        },
        {
            "positions": [
                -0.20672115607673108,
                -1.307025215625006,
                2.2939764283893207,
                -0.9618597541978929,
                0.9176031400700073,
                -3.122130787216174
            ]
        },
        {
            "positions": [
                -0.27262769462963626,
                -1.3405333252863882,
                2.358462232216123,
                -0.9981379733768694,
                1.0752064688959533,
                -3.1080584763862635
            ]
        },
        {
            "positions": [
                -0.33853423318254156,
                -1.3740414349477705,
                2.4229480360429254,
                -1.034416192555846,
                1.2328097977218992,
                -3.093986165556353
            ]
        }
    ]
}