{
    "goal": {
        "global_pose": {
            "orientation": {
                "w": 0.5084816217422485,
                "x": -0.49083608388900757,
                "y": 0.5182115435600281,
                "z": -0.4816462993621826
            },
            "position": {
                "x": 0.5540239810943604,
                "y": 0.030875300988554955,
                "z": 0.16403168439865112
            }
        },
        "name": "move_to_storage"
    },
    "id": "PRM_move_to_storage_7",
    "joint_names": [
        "shoulder_pan_joint",
        "shoulder_lift_joint",
        "elbow_joint",
        "wrist_1_joint",
        "wrist_2_joint",
        "wrist_3_joint"
    ],
    "metrics": {
        "cart_traj_len": 0.35315682500900086,
        "distance_elbow_joint": 0.4524752100245699,
        "distance_shoulder_lift_joint": 0.23617955843663796,
        "distance_shoulder_pan_joint": 0.4637090923202328,
        "distance_wrist_1_joint": 0.25162236414430716,
        "distance_wrist_2_joint": 1.0917584141832681,
        "distance_wrist_3_joint": 0.09530185866809004,
        "smoothness": 8.881784197001252e-16,
        "time": 0.024013824,
        "traj_len": 1.609672792146623,
        "weighted_distance": 2.03101723120235
    },
    "planner": "PRM",
    "start": {
        "state": {
            "elbow_joint": 1.9715474092553085,
            "shoulder_lift_joint": -1.1394846673180945,
            "shoulder_pan_joint": 0.1228115366877952,
            "wrist_1_joint": -0.7804686583030105,
            "wrist_2_joint": 0.12958649594027716,
            "wrist_3_joint": -3.192492341365726
        }
    },
    "waypoints": [
        {
            "positions": [
                0.1228115366877952,
                -1.1394846673180945,
                1.9715474092553085,
                -0.7804686583030105,
                0.12958649594027716,
                -3.192492341365726
            ]
        },
        {
            "positions": [
                0.056567380642047665,
                -1.1732246042376142,
                2.036186724973104,
                -0.8164147103236258,
                0.285551983680744,
                -3.1788777901274274
            ]
        },
        {
            "positions": [
                -0.009676775403699864,
                -1.206964541157134,
                2.1008260406909,
                -0.8523607623442411,
                0.4415174714212109,
                -3.165263238889129
            ]
        },
        {
            "positions": [
                -0.0759209314494474,
                -1.2407044780766536,
                2.1654653564086956,
                -0.8883068143648564,
                0.5974829591616777,
                -3.1516486876508303
            ]
        },
        {
            "positions": [
                -0.1421650874951949,
                -1.2744444149961733,
                2.230104672126491,
                -0.9242528663854717,
                0.7534484469021446,
                -3.1380341364125317
            ]
        },
        {
            "positions": [
                -0.20840924354094248,
                -1.308184351915693,
                2.294743987844287,
                -0.9601989184060871,
                0.9094139346426116,
                -3.124419585174233
            ]
        },
        {
            "positions": [
                -0.27465339958669,
                -1.3419242888352128,
                2.359383303562083,
                -0.9961449704267024,
                1.0653794223830784,
                -3.1108050339359345
            ]
        },
        {
            "positions": [
                -0.34089755563243757,
                -1.3756642257547325,
                2.4240226192798784,
                -1.0320910224473177,
                1.2213449101235452,
                -3.097190482697636
            ]
        }
    ]
}