{
    "goal": {
        "global_pose": {
            "orientation": {
                "w": 0.7047431468963623,
                "x": -0.7094548344612122,
                "y": 0.0024358443915843964,
                "z": -0.0022348060738295317
            },
            "position": {
                "x": 0.6094750761985779,
                "y": 0.3671506643295288,
                "z": 0.19426114857196808
            }
        },
        "name": "move_to_magneteinheit_target"
    },
    "id": "PRMstar_move_to_magneteinheit_target_2",
    "joint_names": [
        "shoulder_pan_joint",
        "shoulder_lift_joint",
        "elbow_joint",
        "wrist_1_joint",
        "wrist_2_joint",
        "wrist_3_joint"
    ],
    "metrics": {
        "cart_traj_len": 3.9267934287986552,
        "distance_elbow_joint": 3.901598390825467,
        "distance_shoulder_lift_joint": 0.5281506776742908,
        "distance_shoulder_pan_joint": 3.71608705805819,
        "distance_wrist_1_joint": 0.7233586846105539,
        "distance_wrist_2_joint": 1.6961037461922737,
        "distance_wrist_3_joint": 3.595234581592386,
        "smoothness": 0.09739759798956318,
        "time": 3.04519941,
        "traj_len": 3.763048383817721,
        "weighted_distance": 4.875496357596913
    },
    "planner": "PRMstar",
    "start": {
        "state": {
            "elbow_joint": -1.9196185737098679,
            "shoulder_lift_joint": -1.2443395971259867,
            "shoulder_pan_joint": 2.6996025301141957,
            "wrist_1_joint": -1.548550951469146,
            "wrist_2_joint": -1.5709469089955597,
            "wrist_3_joint": 0.4420197730596999
        }
    },
    "waypoints": [
        {
            "positions": [
                2.6996025301141957,
                -1.2443395971259867,
                -1.9196185737098679,
                -1.548550951469146,
                -1.5709469089955597,
                0.4420197730596999
            ]
        },
        {
            "positions": [
                2.568473186886491,
                -1.2312741558754674,
                -1.8439341980281376,
                -1.5326900750015806,
                -1.5444102958016706,
                0.31088887186037495
            ]
        },
        {
            "positions": [
                2.4373438436587866,
                -1.2182087146249478,
                -1.7682498223464074,
                -1.5168291985340152,
                -1.5178736826077814,
                0.17975797066104998
            ]
        },
        {
            "positions": [
                2.306214500431082,
                -1.2051432733744285,
                -1.6925654466646773,
                -1.5009683220664498,
                -1.4913370694138923,
                0.04862706946172496
            ]
        },
        {
            "positions": [
                2.1750851572033776,
                -1.192077832123909,
                -1.616881070982947,
                -1.4851074455988842,
                -1.4648004562200032,
                -0.08250383173759995
            ]
        },
        {
            "positions": [
                2.043955813975673,
                -1.1790123908733896,
                -1.5411966953012168,
                -1.4692465691313188,
                -1.438263843026114,
                -0.2136347329369251
            ]
        },
        {
            "positions": [
                1.9128264707479687,
                -1.16594694962287,
                -1.4655123196194868,
                -1.4533856926637534,
                -1.411727229832225,
                -0.34476563413625
            ]
        },
        {
            "positions": [
                1.7816971275202642,
                -1.1528815083723507,
                -1.3898279439377563,
                -1.437524816196188,
                -1.3851906166383359,
                -0.475896535335575
            ]
        },
        {
            "positions": [
                1.65056778429256,
                -1.1398160671218311,
                -1.3141435682560263,
                -1.4216639397286226,
                -1.3586540034444468,
                -0.6070274365348998
            ]
        },
        {
            "positions": [
                1.5194384410648554,
                -1.1267506258713118,
                -1.238459192574296,
                -1.4058030632610572,
                -1.3321173902505576,
                -0.7381583377342249
            ]
        },
        {
            "positions": [
                1.3883090978371506,
                -1.1136851846207922,
                -1.1627748168925658,
                -1.3899421867934918,
                -1.3055807770566683,
                -0.86928923893355
            ]
        },
        {
            "positions": [
                1.2571797546094463,
                -1.100619743370273,
                -1.0870904412108358,
                -1.3740813103259264,
                -1.2790441638627792,
                -1.0004201401328747
            ]
        },
        {
            "positions": [
                1.1260504113817418,
                -1.0875543021197533,
                -1.0114060655291055,
                -1.358220433858361,
                -1.25250755066889,
                -1.1315510413321999
            ]
        },
        {
            "positions": [
                0.9949210681540375,
                -1.074488860869234,
                -0.9357216898473754,
                -1.3423595573907954,
                -1.225970937475001,
                -1.2626819425315248
            ]
        },
        {
            "positions": [
                0.8637917249263327,
                -1.0614234196187144,
                -0.860037314165645,
                -1.32649868092323,
                -1.1994343242811119,
                -1.39381284373085
            ]
        },
        {
            "positions": [
                0.7326623816986282,
                -1.048357978368195,
                -0.784352938483915,
                -1.3106378044556646,
                -1.1728977110872227,
                -1.5249437449301748
            ]
        },
        {
            "positions": [
                0.6015330384709241,
                -1.0352925371176755,
                -0.7086685628021847,
                -1.2947769279880992,
                -1.1463610978933336,
                -1.6560746461294995
            ]
        },
        {
            "positions": [
                0.4704036952432191,
                -1.0222270958671562,
                -0.6329841871204545,
                -1.2789160515205338,
                -1.1198244846994445,
                -1.787205547328825
            ]
        },
        {
            "positions": [
                0.33927435201551503,
                -1.0091616546166366,
                -0.5572998114387242,
                -1.2630551750529684,
                -1.0932878715055554,
                -1.9183364485281498
            ]
        },
        {
            "positions": [
                0.2081450087878105,
                -0.9960962133661173,
                -0.48161543575699417,
                -1.247194298585403,
                -1.0667512583116663,
                -2.0494673497274745
            ]
        },
        {
            "positions": [
                0.07701566556010553,
                -0.9830307721155978,
                -0.4059310600752639,
                -1.2313334221178374,
                -1.0402146451177772,
                -2.1805982509268
            ]
        },
        {
            "positions": [
                -0.05411367766759856,
                -0.9699653308650784,
                -0.33024668439353366,
                -1.2154725456502722,
                -1.013678031923888,
                -2.3117291521261247
            ]
        },
        {
            "positions": [
                -0.1852430208953031,
                -0.956899889614559,
                -0.25456230871180363,
                -1.1996116691827066,
                -0.9871414187299989,
                -2.4428600533254494
            ]
        },
        {
            "positions": [
                -0.3163723641230076,
                -0.9438344483640395,
                -0.17887793303007316,
                -1.1837507927151412,
                -0.9606048055361098,
                -2.573990954524775
            ]
        },
        {
            "positions": [
                -0.44750170735071193,
                -0.9307690071135201,
                -0.10319355734834323,
                -1.1678899162475758,
                -0.9340681923422207,
                -2.7051218557240997
            ]
        },
        {
            "positions": [
                -0.41014006772174294,
                -0.9375707751480749,
                0.08856196523426074,
                -1.1424174068300403,
                -0.8497515060371623,
                -2.7446687237616287
            ]
        },
        {
            "positions": [
                -0.37277842809277395,
                -0.9443725431826295,
                0.2803174878168647,
                -1.1169448974125047,
                -0.765434819732104,
                -2.784215591799158
            ]
        },
        {
            "positions": [
                -0.33541678846380496,
                -0.9511743112171843,
                0.4720730103994687,
                -1.0914723879949693,
                -0.6811181334270457,
                -2.823762459836687
            ]
        },
        {
            "positions": [
                -0.29805514883483597,
                -0.9579760792517391,
                0.6638285329820727,
                -1.0659998785774338,
                -0.5968014471219873,
                -2.863309327874216
            ]
        },
        {
            "positions": [
                -0.260693509205867,
                -0.9647778472862938,
                0.8555840555646766,
                -1.0405273691598982,
                -0.5124847608169291,
                -2.902856195911745
            ]
        },
        {
            "positions": [
                -0.22333186957689802,
                -0.9715796153208486,
                1.0473395781472807,
                -1.0150548597423628,
                -0.4281680745118708,
                -2.942403063949274
            ]
        },
        {
            "positions": [
                -0.18597022994792906,
                -0.9783813833554034,
                1.2390951007298847,
                -0.9895823503248272,
                -0.3438513882068125,
                -2.981949931986803
            ]
        },
        {
            "positions": [
                -0.14860859031896007,
                -0.9851831513899582,
                1.4308506233124887,
                -0.9641098409072917,
                -0.259534701901754,
                -3.021496800024332
            ]
        },
        {
            "positions": [
                -0.11124695068999108,
                -0.9919849194245128,
                1.6226061458950927,
                -0.9386373314897563,
                -0.1752180155966957,
                -3.061043668061861
            ]
        },
        {
            "positions": [
                -0.0738853110610221,
                -0.9987866874590676,
                1.8143616684776966,
                -0.9131648220722207,
                -0.09090132929163736,
                -3.10059053609939
            ]
        },
        {
            "positions": [
                -0.008763169626491693,
                -1.0476408232311598,
                1.8702343846903307,
                -0.8838406370010112,
                -0.01888194046218701,
                -3.118131960243822
            ]
        },
        {
            "positions": [
                0.05635897180803871,
                -1.096494959003252,
                1.9261071009029649,
                -0.8545164519298016,
                0.053137448367263335,
                -3.135673384388254
            ]
        },
        {
            "positions": [
                0.12148111324256916,
                -1.1453490947753442,
                1.981979817115599,
                -0.8251922668585921,
                0.1251568371967137,
                -3.153214808532686
            ]
        }
    ]
}