{
    "goal": {
        "global_pose": {
            "orientation": {
                "w": 0.7031023502349854,
                "x": -0.7110244035720825,
                "y": 0.007748599164187908,
                "z": 0.005598929710686207
            },
            "position": {
                "x": 0.11585023208521307,
                "y": 0.44412534475326537,
                "z": 0.3711530566215515
            }
        },
        "name": "move_to_auspresseinheit"
    },
    "id": "PRMstar_move_to_auspresseinheit_9",
    "joint_names": [
        "shoulder_pan_joint",
        "shoulder_lift_joint",
        "elbow_joint",
        "wrist_1_joint",
        "wrist_2_joint",
        "wrist_3_joint"
    ],
    "metrics": {
        "cart_traj_len": 0.68781347867451,
        "distance_elbow_joint": 0.031824054351260234,
        "distance_shoulder_lift_joint": 0.531724912532743,
        "distance_shoulder_pan_joint": 1.0417339301902007,
        "distance_wrist_1_joint": 0.5738756084249831,
        "distance_wrist_2_joint": 0.5350103749117545,
        "distance_wrist_3_joint": 0.060811377943927436,
        "smoothness": 4.93432458514678e-16,
        "time": 3.008581085,
        "traj_len": 1.6658271994282206,
        "weighted_distance": 2.0013717789504932
    },
    "planner": "PRMstar",
    "start": {
        "state": {
            "elbow_joint": 2.4225745326682886,
            "shoulder_lift_joint": -1.3736534990239282,
            "shoulder_pan_joint": -0.3378633610955803,
            "wrist_1_joint": -1.02885917317252,
            "wrist_2_joint": 1.233022905420004,
            "wrist_3_joint": -3.09402240754724
        }
    },
    "waypoints": [
        {
            "positions": [
                -0.3378633610955803,
                -1.3736534990239282,
                2.4225745326682886,
                -1.02885917317252,
                1.233022905420004,
                -3.09402240754724
            ]
        },
        {
            "positions": [
                -0.2076466198218052,
                -1.440119113090521,
                2.418596525874381,
                -0.9571247221193971,
                1.1661466085560346,
                -3.1016238297902308
            ]
        },
        {
            "positions": [
                -0.07742987854803013,
                -1.506584727157114,
                2.4146185190804736,
                -0.8853902710662743,
                1.0992703116920652,
                -3.1092252520332218
            ]
        },
        {
            "positions": [
                0.052786862725744954,
                -1.573050341223707,
                2.410640512286566,
                -0.8136558200131514,
                1.032394014828096,
                -3.1168266742762127
            ]
        },
        {
            "positions": [
                0.18300360399952004,
                -1.6395159552902996,
                2.4066625054926583,
                -0.7419213689600286,
                0.9655177179641267,
                -3.1244280965192033
            ]
        },
        {
            "positions": [
                0.3132203452732952,
                -1.7059815693568927,
                2.402684498698751,
                -0.6701869179069057,
                0.8986414211001573,
                -3.1320295187621943
            ]
        },
        {
            "positions": [
                0.4434370865470702,
                -1.7724471834234854,
                2.3987064919048433,
                -0.5984524668537827,
                0.8317651242361881,
                -3.1396309410051852
            ]
        },
        {
            "positions": [
                0.5736538278208452,
                -1.8389127974900783,
                2.394728485110936,
                -0.5267180158006599,
                0.7648888273722187,
                -3.1472323632481762
            ]
        },
        {
            "positions": [
                0.7038705690946203,
                -1.9053784115566712,
                2.3907504783170284,
                -0.454983564747537,
                0.6980125305082494,
                -3.154833785491167
            ]
        }
    ]
}