{
    "goal": {
        "global_pose": {
            "orientation": {
                "w": 0.7047431468963623,
                "x": -0.7094548344612122,
                "y": 0.0024358443915843964,
                "z": -0.0022348060738295317
            },
            "position": {
                "x": 0.6094750761985779,
                "y": 0.3671506643295288,
                "z": 0.19426114857196808
            }
        },
        "name": "move_to_magneteinheit_target"
    },
    "id": "PRMstar_move_to_magneteinheit_target_8",
    "joint_names": [
        "shoulder_pan_joint",
        "shoulder_lift_joint",
        "elbow_joint",
        "wrist_1_joint",
        "wrist_2_joint",
        "wrist_3_joint"
    ],
    "metrics": {
        "cart_traj_len": 3.941258476349931,
        "distance_elbow_joint": 3.929228211817691,
        "distance_shoulder_lift_joint": 0.987966933857606,
        "distance_shoulder_pan_joint": 3.3497480389800947,
        "distance_wrist_1_joint": 3.527159351390125,
        "distance_wrist_2_joint": 2.0338893388422328,
        "distance_wrist_3_joint": 1.0573085629704455,
        "smoothness": 0.19593654974476737,
        "time": 3.028364237,
        "traj_len": 3.858147280477793,
        "weighted_distance": 4.74983855031215
    },
    "planner": "PRMstar",
    "start": {
        "state": {
            "elbow_joint": -1.9196185737098679,
            "shoulder_lift_joint": -1.2443395971259867,
            "shoulder_pan_joint": 2.6996025301141957,
            "wrist_1_joint": -1.548550951469146,
            "wrist_2_joint": -1.5709469089955597,
            "wrist_3_joint": 0.4420197730596999
        }
    },
    "waypoints": [
        {
            "positions": [
                2.6996025301141957,
                -1.2443395971259867,
                -1.9196185737098679,
                -1.548550951469146,
                -1.5709469089955597,
                0.4420197730596999
            ]
        },
        {
            "positions": [
                2.601037467865685,
                -1.2663354973929815,
                -1.8462763814356131,
                -1.539929724296893,
                -1.4340836886887507,
                0.41084038324222355
            ]
        },
        {
            "positions": [
                2.5024724056171745,
                -1.288331397659976,
                -1.7729341891613584,
                -1.5313084971246398,
                -1.2972204683819415,
                0.37966099342474713
            ]
        },
        {
            "positions": [
                2.4039073433686644,
                -1.3103272979269707,
                -1.6995919968871038,
                -1.5226872699523868,
                -1.1603572480751325,
                0.34848160360727076
            ]
        },
        {
            "positions": [
                2.305342281120154,
                -1.3323231981939652,
                -1.626249804612849,
                -1.5140660427801336,
                -1.0234940277683235,
                0.3173022137897944
            ]
        },
        {
            "positions": [
                2.2067772188716432,
                -1.3543190984609599,
                -1.5529076123385943,
                -1.5054448156078806,
                -0.8866308074615143,
                0.286122823972318
            ]
        },
        {
            "positions": [
                2.108212156623133,
                -1.3763149987279544,
                -1.4795654200643398,
                -1.4968235884356274,
                -0.7497675871547054,
                0.2549434341548416
            ]
        },
        {
            "positions": [
                2.0096470943746225,
                -1.398310898994949,
                -1.4062232277900848,
                -1.4882023612633744,
                -0.6129043668478963,
                0.22376404433736521
            ]
        },
        {
            "positions": [
                1.911082032126112,
                -1.4203067992619438,
                -1.3328810355158303,
                -1.4795811340911214,
                -0.4760411465410874,
                0.19258465451988885
            ]
        },
        {
            "positions": [
                1.8125169698776014,
                -1.4423026995289383,
                -1.2595388432415755,
                -1.4709599069188681,
                -0.3391779262342782,
                0.16140526470241245
            ]
        },
        {
            "positions": [
                1.713951907629091,
                -1.464298599795933,
                -1.1861966509673207,
                -1.4623386797466151,
                -0.20231470592746903,
                0.13022587488493603
            ]
        },
        {
            "positions": [
                1.6153868453805806,
                -1.4862945000629275,
                -1.1128544586930662,
                -1.453717452574362,
                -0.06545148562066028,
                0.09904648506745972
            ]
        },
        {
            "positions": [
                1.51682178313207,
                -1.5082904003299222,
                -1.0395122664188114,
                -1.445096225402109,
                0.07141173468614892,
                0.06786709524998333
            ]
        },
        {
            "positions": [
                1.4178794987337797,
                -1.4882221412673544,
                -0.890987697965873,
                -1.347848428301397,
                0.07693794599764445,
                0.0451052033182501
            ]
        },
        {
            "positions": [
                1.3189372143354894,
                -1.4681538822047866,
                -0.7424631295129345,
                -1.2506006312006852,
                0.08246415730913997,
                0.02234331138651687
            ]
        },
        {
            "positions": [
                1.219994929937199,
                -1.448085623142219,
                -0.593938561059996,
                -1.1533528340999735,
                0.0879903686206355,
                -0.0004185805452163599
            ]
        },
        {
            "positions": [
                1.1210526455389087,
                -1.4280173640796512,
                -0.4454139926070575,
                -1.0561050369992615,
                0.09351657993213103,
                -0.023180472476949585
            ]
        },
        {
            "positions": [
                1.0221103611406182,
                -1.4079491050170834,
                -0.2968894241541189,
                -0.9588572398985495,
                0.09904279124362655,
                -0.04594236440868284
            ]
        },
        {
            "positions": [
                0.9231680767423279,
                -1.3878808459545156,
                -0.14836485570118052,
                -0.8616094427978378,
                0.10456900255512208,
                -0.06870425634041605
            ]
        },
        {
            "positions": [
                0.8242257923440375,
                -1.3678125868919477,
                0.00015971275175807875,
                -0.7643616456971258,
                0.11009521386661761,
                -0.0914661482721493
            ]
        },
        {
            "positions": [
                0.7252835079457473,
                -1.3477443278293801,
                0.14868428120469646,
                -0.6671138485964141,
                0.11562142517811314,
                -0.1142280402038825
            ]
        },
        {
            "positions": [
                0.6263412235474568,
                -1.3276760687668123,
                0.29720884965763505,
                -0.5698660514957021,
                0.12114763648960866,
                -0.13698993213561575
            ]
        },
        {
            "positions": [
                0.5273989391491664,
                -1.3076078097042445,
                0.44573341811057365,
                -0.47261825439499017,
                0.1266738478011042,
                -0.159751824067349
            ]
        },
        {
            "positions": [
                0.4284566547508759,
                -1.2875395506416767,
                0.5942579865635123,
                -0.3753704572942782,
                0.13220005911259972,
                -0.18251371599908225
            ]
        },
        {
            "positions": [
                0.3295143703525858,
                -1.267471291579109,
                0.7427825550164504,
                -0.2781226601935667,
                0.13772627042409524,
                -0.20527560793081542
            ]
        },
        {
            "positions": [
                0.23057208595429546,
                -1.2474030325165413,
                0.891307123469389,
                -0.18087486309285472,
                0.14325248173559077,
                -0.22803749986254865
            ]
        },
        {
            "positions": [
                0.1316298015560049,
                -1.2273347734539735,
                1.0398316919223276,
                -0.08362706599214276,
                0.1487786930470863,
                -0.2507993917942819
            ]
        },
        {
            "positions": [
                0.03268751715771456,
                -1.2072665143914056,
                1.1883562603752662,
                0.013620731108569206,
                0.15430490435858182,
                -0.2735612837260152
            ]
        },
        {
            "positions": [
                -0.06625476724057555,
                -1.187198255328838,
                1.3368808288282044,
                0.11086852820928073,
                0.15983111567007735,
                -0.29632317565774835
            ]
        },
        {
            "positions": [
                -0.1651970516388661,
                -1.1671299962662702,
                1.485405397281143,
                0.2081163253099927,
                0.16535732698157288,
                -0.31908506758948163
            ]
        },
        {
            "positions": [
                -0.26413933603715645,
                -1.1470617372037024,
                1.6339299657340813,
                0.30536412241070476,
                0.1708835382930684,
                -0.3418469595212148
            ]
        },
        {
            "positions": [
                -0.22124976127840723,
                -1.1067520185895412,
                1.675672151553386,
                0.4912801532451797,
                0.13843255034266788,
                -0.31146453392237805
            ]
        },
        {
            "positions": [
                -0.17836018651965801,
                -1.06644229997538,
                1.7174143373726907,
                0.6771961840796545,
                0.10598156239226733,
                -0.2810821083235413
            ]
        },
        {
            "positions": [
                -0.13547061176090883,
                -1.0261325813612188,
                1.7591565231919952,
                0.8631122149141295,
                0.07353057444186681,
                -0.2506996827247046
            ]
        },
        {
            "positions": [
                -0.09258103700215961,
                -0.9858228627470577,
                1.8008987090113,
                1.0490282457486044,
                0.04107958649146626,
                -0.22031725712586786
            ]
        },
        {
            "positions": [
                -0.049691462243410395,
                -0.9455131441328964,
                1.8426408948306046,
                1.2349442765830794,
                0.008628598541065735,
                -0.1899348315270311
            ]
        },
        {
            "positions": [
                -0.0068018874846612065,
                -0.9052034255187353,
                1.8843830806499091,
                1.4208603074175543,
                -0.023822389409334788,
                -0.1595524059281944
            ]
        },
        {
            "positions": [
                0.03608768727408801,
                -0.8648937069045741,
                1.926125266469214,
                1.606776338252029,
                -0.05627337735973534,
                -0.12916998032935764
            ]
        },
        {
            "positions": [
                0.07897726203283723,
                -0.8245839882904129,
                1.9678674522885187,
                1.7926923690865042,
                -0.08872436531013589,
                -0.09878755473052092
            ]
        },
        {
            "positions": [
                0.12186683679158644,
                -0.7842742696762517,
                2.0096096381078232,
                1.978608399920979,
                -0.12117535326053643,
                -0.0684051291316842
            ]
        }
    ]
}