{
    "goal": {
        "global_pose": {
            "orientation": {
                "w": 0.5084816217422485,
                "x": -0.49083608388900757,
                "y": 0.5182115435600281,
                "z": -0.4816462993621826
            },
            "position": {
                "x": 0.5540239810943604,
                "y": 0.030875300988554955,
                "z": 0.16403168439865112
            }
        },
        "name": "move_to_storage"
    },
    "id": "PRMstar_move_to_storage_3",
    "joint_names": [
        "shoulder_pan_joint",
        "shoulder_lift_joint",
        "elbow_joint",
        "wrist_1_joint",
        "wrist_2_joint",
        "wrist_3_joint"
    ],
    "metrics": {
        "cart_traj_len": 0.35305526463422754,
        "distance_elbow_joint": 0.4468453476461933,
        "distance_shoulder_lift_joint": 0.23289949430912427,
        "distance_shoulder_pan_joint": 0.45740017715901377,
        "distance_wrist_1_joint": 0.23449720519035533,
        "distance_wrist_2_joint": 1.115895366005987,
        "distance_wrist_3_joint": 0.08813727388463377,
        "smoothness": 0.0,
        "time": 3.0088443529999997,
        "traj_len": 1.6048909197186292,
        "weighted_distance": 2.025423902090848
    },
    "planner": "PRMstar",
    "start": {
        "state": {
            "elbow_joint": 1.9715474092553085,
            "shoulder_lift_joint": -1.1394846673180945,
            "shoulder_pan_joint": 0.1228115366877952,
            "wrist_1_joint": -0.7804686583030105,
            "wrist_2_joint": 0.12958649594027716,
            "wrist_3_joint": -3.192492341365726
        }
    },
    "waypoints": [
        {
            "positions": [
                0.1228115366877952,
                -1.1394846673180945,
                1.9715474092553085,
                -0.7804686583030105,
                0.12958649594027716,
                -3.192492341365726
            ]
        },
        {
            "positions": [
                0.057468654236507516,
                -1.1727560236479695,
                2.0353824589190506,
                -0.8139682590444898,
                0.28900011965541816,
                -3.1799013022393496
            ]
        },
        {
            "positions": [
                -0.007874228214780163,
                -1.2060273799778443,
                2.099217508582792,
                -0.8474678597859692,
                0.4484137433705591,
                -3.1673102631129737
            ]
        },
        {
            "positions": [
                -0.07321711066606783,
                -1.2392987363077193,
                2.1630525582465343,
                -0.8809674605274485,
                0.6078273670857002,
                -3.1547192239865973
            ]
        },
        {
            "positions": [
                -0.1385599931173555,
                -1.272570092637594,
                2.226887607910276,
                -0.9144670612689278,
                0.7672409908008411,
                -3.142128184860221
            ]
        },
        {
            "positions": [
                -0.20390287556864323,
                -1.305841448967469,
                2.290722657574018,
                -0.9479666620104071,
                0.9266546145159821,
                -3.1295371457338446
            ]
        },
        {
            "positions": [
                -0.26924575801993084,
                -1.3391128052973438,
                2.3545577072377597,
                -0.9814662627518864,
                1.086068238231123,
                -3.1169461066074686
            ]
        },
        {
            "positions": [
                -0.33458864047121856,
                -1.3723841616272188,
                2.418392756901502,
                -1.0149658634933658,
                1.2454818619462642,
                -3.1043550674810922
            ]
        }
    ]
}