{
    "goal": {
        "global_pose": {
            "orientation": {
                "w": 0.7031023502349854,
                "x": -0.7110244035720825,
                "y": 0.007748599164187908,
                "z": 0.005598929710686207
            },
            "position": {
                "x": 0.11585023208521307,
                "y": 0.44412534475326537,
                "z": 0.3711530566215515
            }
        },
        "name": "move_to_auspresseinheit"
    },
    "id": "PRMstar_move_to_auspresseinheit_5",
    "joint_names": [
        "shoulder_pan_joint",
        "shoulder_lift_joint",
        "elbow_joint",
        "wrist_1_joint",
        "wrist_2_joint",
        "wrist_3_joint"
    ],
    "metrics": {
        "cart_traj_len": 0.6885696658902511,
        "distance_elbow_joint": 0.033501700181697736,
        "distance_shoulder_lift_joint": 0.5334217293290078,
        "distance_shoulder_pan_joint": 1.0420734009990649,
        "distance_wrist_1_joint": 0.5786342824880748,
        "distance_wrist_2_joint": 0.5352445106665993,
        "distance_wrist_3_joint": 0.06226094373931268,
        "smoothness": 3.947459638719018e-16,
        "time": 3.0150270740000003,
        "traj_len": 1.6688728433897404,
        "weighted_distance": 2.0058756811021605
    },
    "planner": "PRMstar",
    "start": {
        "state": {
            "elbow_joint": 2.4225745326682886,
            "shoulder_lift_joint": -1.3736534990239282,
            "shoulder_pan_joint": -0.3378633610955803,
            "wrist_1_joint": -1.02885917317252,
            "wrist_2_joint": 1.233022905420004,
            "wrist_3_joint": -3.09402240754724
        }
    },
    "waypoints": [
        {
            "positions": [
                -0.3378633610955803,
                -1.3736534990239282,
                2.4225745326682886,
                -1.02885917317252,
                1.233022905420004,
                -3.09402240754724
            ]
        },
        {
            "positions": [
                -0.2076041859706972,
                -1.4403312151900542,
                2.4183868201455763,
                -0.9565298878615107,
                1.166117341586679,
                -3.101805025514654
            ]
        },
        {
            "positions": [
                -0.07734501084581413,
                -1.50700893135618,
                2.4141991076228644,
                -0.8842006025505014,
                1.099211777753354,
                -3.109587643482068
            ]
        },
        {
            "positions": [
                0.052914164279068976,
                -1.5736866475223061,
                2.410011395100152,
                -0.811871317239492,
                1.0323062139200292,
                -3.117370261449482
            ]
        },
        {
            "positions": [
                0.18317333940395203,
                -1.6403643636884322,
                2.4058236825774397,
                -0.7395420319284827,
                0.9654006500867043,
                -3.125152879416896
            ]
        },
        {
            "positions": [
                0.3134325145288351,
                -1.707042079854558,
                2.4016359700547274,
                -0.6672127466174733,
                0.8984950862533794,
                -3.1329354973843104
            ]
        },
        {
            "positions": [
                0.44369168965371825,
                -1.773719796020684,
                2.397448257532015,
                -0.594883461306464,
                0.8315895224200545,
                -3.1407181153517243
            ]
        },
        {
            "positions": [
                0.5739508647786014,
                -1.8403975121868101,
                2.393260545009303,
                -0.5225541759954546,
                0.7646839585867296,
                -3.148500733319138
            ]
        },
        {
            "positions": [
                0.7042100399034844,
                -1.907075228352936,
                2.389072832486591,
                -0.4502248906844452,
                0.6977783947534046,
                -3.1562833512865525
            ]
        }
    ]
}