{
    "goal": {
        "global_pose": {
            "orientation": {
                "w": 0.7031023502349854,
                "x": -0.7110244035720825,
                "y": 0.007748599164187908,
                "z": 0.005598929710686207
            },
            "position": {
                "x": 0.11585023208521307,
                "y": 0.44412534475326537,
                "z": 0.3711530566215515
            }
        },
        "name": "move_to_auspresseinheit"
    },
    "id": "PRMstar_move_to_auspresseinheit_2",
    "joint_names": [
        "shoulder_pan_joint",
        "shoulder_lift_joint",
        "elbow_joint",
        "wrist_1_joint",
        "wrist_2_joint",
        "wrist_3_joint"
    ],
    "metrics": {
        "cart_traj_len": 0.7226603520952205,
        "distance_elbow_joint": 0.09132628384420682,
        "distance_shoulder_lift_joint": 0.5349414400254677,
        "distance_shoulder_pan_joint": 1.1357223554319045,
        "distance_wrist_1_joint": 0.597419808106274,
        "distance_wrist_2_joint": 0.511105905224449,
        "distance_wrist_3_joint": 0.28398894077049297,
        "smoothness": 0.7345068561467112,
        "time": 3.007964506,
        "traj_len": 1.7760925464070827,
        "weighted_distance": 2.197955488237763
    },
    "planner": "PRMstar",
    "start": {
        "state": {
            "elbow_joint": 2.4225745326682886,
            "shoulder_lift_joint": -1.3736534990239282,
            "shoulder_pan_joint": -0.3378633610955803,
            "wrist_1_joint": -1.02885917317252,
            "wrist_2_joint": 1.233022905420004,
            "wrist_3_joint": -3.09402240754724
        }
    },
    "waypoints": [
        {
            "positions": [
                -0.3378633610955803,
                -1.3736534990239282,
                2.4225745326682886,
                -1.02885917317252,
                1.233022905420004,
                -3.09402240754724
            ]
        },
        {
            "positions": [
                -0.2014377584546617,
                -1.4306772696190553,
                2.4148623410288192,
                -0.9556709101542057,
                1.1745775650561787,
                -3.078749146998037
            ]
        },
        {
            "positions": [
                -0.06501215581374309,
                -1.4877010402141826,
                2.40715014938935,
                -0.8824826471358913,
                1.1161322246923535,
                -3.063475886448834
            ]
        },
        {
            "positions": [
                0.07141344682717549,
                -1.5447248108093097,
                2.3994379577498806,
                -0.8092943841175768,
                1.0576868843285283,
                -3.0482026258996306
            ]
        },
        {
            "positions": [
                0.20783904946809412,
                -1.6017485814044368,
                2.3917257661104117,
                -0.7361061210992625,
                0.9992415439647031,
                -3.032929365350428
            ]
        },
        {
            "positions": [
                0.34426465210901275,
                -1.658772351999564,
                2.3840135744709423,
                -0.662917858080948,
                0.9407962036008779,
                -3.017656104801225
            ]
        },
        {
            "positions": [
                0.48069025474993127,
                -1.7157961225946912,
                2.376301382831473,
                -0.5897295950626337,
                0.8823508632370526,
                -3.002382844252022
            ]
        },
        {
            "positions": [
                0.61711585739085,
                -1.7728198931898183,
                2.3685891911920036,
                -0.5165413320443193,
                0.8239055228732274,
                -2.9871095837028188
            ]
        },
        {
            "positions": [
                0.7535414600317685,
                -1.8298436637849456,
                2.3608769995525343,
                -0.4433530690260049,
                0.7654601825094022,
                -2.971836323153616
            ]
        },
        {
            "positions": [
                0.7092239257272128,
                -1.908594939049396,
                2.3905057502809868,
                -0.45526677298576385,
                0.7219170001955549,
                -3.133639179530485
            ]
        }
    ]
}