{
    "goal": {
        "global_pose": {
            "orientation": {
                "w": 0.5084816217422485,
                "x": -0.49083608388900757,
                "y": 0.5182115435600281,
                "z": -0.4816462993621826
            },
            "position": {
                "x": 0.5540239810943604,
                "y": 0.030875300988554955,
                "z": 0.16403168439865112
            }
        },
        "name": "move_to_storage"
    },
    "id": "PRMstar_move_to_storage_2",
    "joint_names": [
        "shoulder_pan_joint",
        "shoulder_lift_joint",
        "elbow_joint",
        "wrist_1_joint",
        "wrist_2_joint",
        "wrist_3_joint"
    ],
    "metrics": {
        "cart_traj_len": 0.3525365930436658,
        "distance_elbow_joint": 0.4495495707130699,
        "distance_shoulder_lift_joint": 0.23434866451577574,
        "distance_shoulder_pan_joint": 0.46100655088624154,
        "distance_wrist_1_joint": 0.23733098526150176,
        "distance_wrist_2_joint": 1.0980454074187995,
        "distance_wrist_3_joint": 0.09617262534470106,
        "smoothness": 4.440892098500626e-16,
        "time": 3.0018822760000003,
        "traj_len": 1.6051335782856484,
        "weighted_distance": 2.025876464029777
    },
    "planner": "PRMstar",
    "start": {
        "state": {
            "elbow_joint": 1.9715474092553085,
            "shoulder_lift_joint": -1.1394846673180945,
            "shoulder_pan_joint": 0.1228115366877952,
            "wrist_1_joint": -0.7804686583030105,
            "wrist_2_joint": 0.12958649594027716,
            "wrist_3_joint": -3.192492341365726
        }
    },
    "waypoints": [
        {
            "positions": [
                0.1228115366877952,
                -1.1394846673180945,
                1.9715474092553085,
                -0.7804686583030105,
                0.12958649594027716,
                -3.192492341365726
            ]
        },
        {
            "positions": [
                0.05695345798976069,
                -1.1729630479632054,
                2.0357687765000327,
                -0.8143730847689393,
                0.28645012557153426,
                -3.1787533948879116
            ]
        },
        {
            "positions": [
                -0.008904620708273817,
                -1.206441428608316,
                2.099990143744757,
                -0.8482775112348682,
                0.4433137552027913,
                -3.1650144484100973
            ]
        },
        {
            "positions": [
                -0.07476269940630832,
                -1.239919809253427,
                2.1642115109894813,
                -0.8821819377007969,
                0.6001773848340484,
                -3.151275501932283
            ]
        },
        {
            "positions": [
                -0.14062077810434281,
                -1.2733981898985378,
                2.2284328782342055,
                -0.9160863641667257,
                0.7570410144653055,
                -3.137536555454468
            ]
        },
        {
            "positions": [
                -0.20647885680237732,
                -1.3068765705436487,
                2.29265424547893,
                -0.9499907906326546,
                0.9139046440965626,
                -3.1237976089766537
            ]
        },
        {
            "positions": [
                -0.2723369355004118,
                -1.3403549511887594,
                2.356875612723654,
                -0.9838952170985834,
                1.0707682737278197,
                -3.1100586624988393
            ]
        },
        {
            "positions": [
                -0.33819501419844633,
                -1.3738333318338702,
                2.4210969799683784,
                -1.0177996435645122,
                1.2276319033590766,
                -3.096319716021025
            ]
        }
    ]
}