{
    "goal": {
        "global_pose": {
            "orientation": {
                "w": 0.5084816217422485,
                "x": -0.49083608388900757,
                "y": 0.5182115435600281,
                "z": -0.4816462993621826
            },
            "position": {
                "x": 0.5540239810943604,
                "y": 0.030875300988554955,
                "z": 0.16403168439865112
            }
        },
        "name": "move_to_storage"
    },
    "id": "ProjEST_move_to_storage_3",
    "joint_names": [
        "shoulder_pan_joint",
        "shoulder_lift_joint",
        "elbow_joint",
        "wrist_1_joint",
        "wrist_2_joint",
        "wrist_3_joint"
    ],
    "metrics": {
        "cart_traj_len": 0.3529343719743829,
        "distance_elbow_joint": 0.4541795922119478,
        "distance_shoulder_lift_joint": 0.2344460221796314,
        "distance_shoulder_pan_joint": 0.45830344207499085,
        "distance_wrist_1_joint": 0.26107366073470506,
        "distance_wrist_2_joint": 1.112778255104565,
        "distance_wrist_3_joint": 0.10498905430536931,
        "smoothness": 8.881784197001252e-16,
        "time": 0.053024432999999996,
        "traj_len": 1.6204227925486634,
        "weighted_distance": 2.051730988960594
    },
    "planner": "ProjEST",
    "start": {
        "state": {
            "elbow_joint": 1.9715474092553085,
            "shoulder_lift_joint": -1.1394846673180945,
            "shoulder_pan_joint": 0.1228115366877952,
            "wrist_1_joint": -0.7804686583030105,
            "wrist_2_joint": 0.12958649594027716,
            "wrist_3_joint": -3.192492341365726
        }
    },
    "waypoints": [
        {
            "positions": [
                0.1228115366877952,
                -1.1394846673180945,
                1.9715474092553085,
                -0.7804686583030105,
                0.12958649594027716,
                -3.192492341365726
            ]
        },
        {
            "positions": [
                0.057339616391367934,
                -1.172976956200899,
                2.0364302081427295,
                -0.8177648955508255,
                0.28855481809807215,
                -3.1774939050363877
            ]
        },
        {
            "positions": [
                -0.008132303905059327,
                -1.2064692450837036,
                2.101313007030151,
                -0.8550611327986405,
                0.44752314025586715,
                -3.162495468707049
            ]
        },
        {
            "positions": [
                -0.07360422420148659,
                -1.239961533966508,
                2.166195805917572,
                -0.8923573700464555,
                0.6064914624136621,
                -3.1474970323777107
            ]
        },
        {
            "positions": [
                -0.13907614449791383,
                -1.2734538228493124,
                2.231078604804993,
                -0.9296536072942705,
                0.7654597845714571,
                -3.132498596048372
            ]
        },
        {
            "positions": [
                -0.20454806479434112,
                -1.3069461117321168,
                2.295961403692414,
                -0.9669498445420855,
                0.9244281067292522,
                -3.1175001597190337
            ]
        },
        {
            "positions": [
                -0.27001998509076836,
                -1.3404384006149215,
                2.3608442025798353,
                -1.0042460817899006,
                1.0833964288870472,
                -3.102501723389695
            ]
        },
        {
            "positions": [
                -0.33549190538719564,
                -1.373930689497726,
                2.4257270014672563,
                -1.0415423190377155,
                1.2423647510448421,
                -3.0875032870603567
            ]
        }
    ]
}