{
    "goal": {
        "global_pose": {
            "orientation": {
                "w": 0.7031023502349854,
                "x": -0.7110244035720825,
                "y": 0.007748599164187908,
                "z": 0.005598929710686207
            },
            "position": {
                "x": 0.11585023208521307,
                "y": 0.44412534475326537,
                "z": 0.3711530566215515
            }
        },
        "name": "move_to_auspresseinheit"
    },
    "id": "ProjEST_move_to_auspresseinheit_9",
    "joint_names": [
        "shoulder_pan_joint",
        "shoulder_lift_joint",
        "elbow_joint",
        "wrist_1_joint",
        "wrist_2_joint",
        "wrist_3_joint"
    ],
    "metrics": {
        "cart_traj_len": 2.2078245919820434,
        "distance_elbow_joint": 2.66789971992446,
        "distance_shoulder_lift_joint": 0.9484443171413122,
        "distance_shoulder_pan_joint": 1.6882797277939727,
        "distance_wrist_1_joint": 2.4679036415836397,
        "distance_wrist_2_joint": 1.1097289874205991,
        "distance_wrist_3_joint": 8.232923517730383,
        "smoothness": 0.3009285592073202,
        "time": 1.00525743,
        "traj_len": 4.137049662693737,
        "weighted_distance": 6.095790315952426
    },
    "planner": "ProjEST",
    "start": {
        "state": {
            "elbow_joint": 2.4225745326682886,
            "shoulder_lift_joint": -1.3736534990239282,
            "shoulder_pan_joint": -0.3378633610955803,
            "wrist_1_joint": -1.02885917317252,
            "wrist_2_joint": 1.233022905420004,
            "wrist_3_joint": -3.09402240754724
        }
    },
    "waypoints": [
        {
            "positions": [
                -0.3378633610955803,
                -1.3736534990239282,
                2.4225745326682886,
                -1.02885917317252,
                1.233022905420004,
                -3.09402240754724
            ]
        },
        {
            "positions": [
                -0.36595769684195484,
                -1.3317575065765996,
                2.317203495513695,
                -0.9591863309548668,
                1.227087401750749,
                -2.998515813879426
            ]
        },
        {
            "positions": [
                -0.39405203258832944,
                -1.2898615141292709,
                2.211832458359101,
                -0.8895134887372136,
                1.221151898081494,
                -2.9030092202116116
            ]
        },
        {
            "positions": [
                -0.422146368334704,
                -1.2479655216819423,
                2.1064614212045076,
                -0.8198406465195602,
                1.215216394412239,
                -2.8075026265437977
            ]
        },
        {
            "positions": [
                -0.38019633708536477,
                -1.2601551856095894,
                2.0547343469652994,
                -0.7640620862093752,
                1.186756218359999,
                -2.617066885090531
            ]
        },
        {
            "positions": [
                -0.3382463058360255,
                -1.2723448495372367,
                2.0030072727260912,
                -0.7082835258991901,
                1.1582960423077586,
                -2.426631143637264
            ]
        },
        {
            "positions": [
                -0.2962962745866863,
                -1.2845345134648838,
                1.951280198486883,
                -0.652504965589005,
                1.1298358662555186,
                -2.2361954021839967
            ]
        },
        {
            "positions": [
                -0.254346243337347,
                -1.296724177392531,
                1.8995531242476749,
                -0.5967264052788199,
                1.1013756902032783,
                -2.04575966073073
            ]
        },
        {
            "positions": [
                -0.21239621208800782,
                -1.3089138413201782,
                1.8478260500084667,
                -0.5409478449686349,
                1.0729155141510383,
                -1.855323919277463
            ]
        },
        {
            "positions": [
                -0.17044618083866858,
                -1.3211035052478255,
                1.7960989757692585,
                -0.4851692846584498,
                1.0444553380987982,
                -1.6648881778241962
            ]
        },
        {
            "positions": [
                -0.12849614958932937,
                -1.3332931691754726,
                1.7443719015300503,
                -0.4293907243482647,
                1.015995162046558,
                -1.4744524363709293
            ]
        },
        {
            "positions": [
                -0.0865461183399901,
                -1.34548283310312,
                1.692644827290842,
                -0.3736121640380796,
                0.9875349859943179,
                -1.2840166949176623
            ]
        },
        {
            "positions": [
                -0.04459608709065088,
                -1.357672497030767,
                1.640917753051634,
                -0.3178336037278945,
                0.9590748099420776,
                -1.0935809534643954
            ]
        },
        {
            "positions": [
                -0.0026460558413116675,
                -1.369862160958414,
                1.5891906788124257,
                -0.26205504341770947,
                0.9306146338898376,
                -0.9031452120111285
            ]
        },
        {
            "positions": [
                0.0393039754080276,
                -1.3820518248860614,
                1.5374636045732173,
                -0.20627648310752433,
                0.9021544578375974,
                -0.7127094705578614
            ]
        },
        {
            "positions": [
                0.08125400665736682,
                -1.3942414888137085,
                1.4857365303340093,
                -0.1504979227973393,
                0.8736942817853572,
                -0.5222737291045947
            ]
        },
        {
            "positions": [
                0.12320403790670609,
                -1.4064311527413558,
                1.434009456094801,
                -0.09471936248715418,
                0.8452341057331172,
                -0.33183798765132755
            ]
        },
        {
            "positions": [
                0.16515406915604525,
                -1.4186208166690029,
                1.382282381855593,
                -0.03894080217696916,
                0.816773929680877,
                -0.14140224619806085
            ]
        },
        {
            "positions": [
                0.20710410040538452,
                -1.4308104805966502,
                1.3305553076163845,
                0.016837758133215974,
                0.7883137536286369,
                0.04903349525520628
            ]
        },
        {
            "positions": [
                0.2490541316547238,
                -1.4430001445242973,
                1.2788282333771763,
                0.072616318443401,
                0.7598535775763967,
                0.23946923670847298
            ]
        },
        {
            "positions": [
                0.29100416290406295,
                -1.4551898084519446,
                1.2271011591379684,
                0.12839487875358602,
                0.7313934015241566,
                0.42990497816173967
            ]
        },
        {
            "positions": [
                0.3329541941534022,
                -1.4673794723795917,
                1.17537408489876,
                0.18417343906377126,
                0.7029332254719164,
                0.6203407196150068
            ]
        },
        {
            "positions": [
                0.3749042254027414,
                -1.479569136307239,
                1.123647010659552,
                0.23995199937395628,
                0.6744730494196763,
                0.8107764610682735
            ]
        },
        {
            "positions": [
                0.41685425665208065,
                -1.491758800234886,
                1.0719199364203436,
                0.29573055968414125,
                0.6460128733674362,
                1.0012122025215406
            ]
        },
        {
            "positions": [
                0.5017618548886746,
                -1.5634080573792233,
                1.1612580002977735,
                0.334973745699078,
                0.6016343047169117,
                0.9777116586201461
            ]
        },
        {
            "positions": [
                0.5866694531252685,
                -1.6350573145235605,
                1.2505960641752036,
                0.3742169317140148,
                0.5572557360663872,
                0.9542111147187515
            ]
        },
        {
            "positions": [
                0.6715770513618624,
                -1.7067065716678975,
                1.3399341280526336,
                0.4134601177289516,
                0.5128771674158629,
                0.9307105708173569
            ]
        },
        {
            "positions": [
                0.7564846495984565,
                -1.7783558288122348,
                1.4292721919300637,
                0.4527033037438884,
                0.4684985987653384,
                0.9072100269159623
            ]
        },
        {
            "positions": [
                0.8413922478350504,
                -1.850005085956572,
                1.5186102558074936,
                0.49194648975882516,
                0.4241200301148139,
                0.8837094830145678
            ]
        },
        {
            "positions": [
                0.8617000234064194,
                -1.8768830988883398,
                1.5908929166259864,
                0.46512548507746765,
                0.42145906172383824,
                0.671077727246629
            ]
        },
        {
            "positions": [
                0.8820077989777885,
                -1.9037611118201077,
                1.663175577444479,
                0.4383044803961102,
                0.41879809333286255,
                0.4584459714786901
            ]
        },
        {
            "positions": [
                0.9023155745491575,
                -1.9306391247518757,
                1.7354582382629717,
                0.4114834757147527,
                0.4161371249418869,
                0.24581421571075135
            ]
        },
        {
            "positions": [
                0.9226233501205265,
                -1.9575171376836435,
                1.8077408990814643,
                0.38466247103339524,
                0.41347615655091124,
                0.03318245994281244
            ]
        },
        {
            "positions": [
                0.9429311256918955,
                -1.9843951506154114,
                1.880023559899957,
                0.35784146635203773,
                0.41081518815993556,
                -0.17944929582512648
            ]
        },
        {
            "positions": [
                0.9317062389661349,
                -1.9848491383678362,
                1.9262345619839691,
                0.30157688607209193,
                0.4285004757510373,
                -0.4087823130265218
            ]
        },
        {
            "positions": [
                0.9204813522403743,
                -1.9853031261202607,
                1.972445564067981,
                0.2453123057921461,
                0.446185763342139,
                -0.638115330227917
            ]
        },
        {
            "positions": [
                0.9092564655146137,
                -1.9857571138726855,
                2.0186565661519933,
                0.1890477255122003,
                0.46387105093324066,
                -0.8674483474293123
            ]
        },
        {
            "positions": [
                0.898031578788853,
                -1.9862111016251103,
                2.064867568236005,
                0.13278314523225448,
                0.4815563385243424,
                -1.0967813646307076
            ]
        },
        {
            "positions": [
                0.8868066920630924,
                -1.986665089377535,
                2.111078570320017,
                0.07651856495230863,
                0.4992416261154441,
                -1.3261143818321028
            ]
        },
        {
            "positions": [
                0.8755818053373318,
                -1.9871190771299596,
                2.157289572404029,
                0.02025398467236289,
                0.5169269137065458,
                -1.5554473990334983
            ]
        },
        {
            "positions": [
                0.8643569186115712,
                -1.9875730648823844,
                2.203500574488041,
                -0.03601059560758296,
                0.5346122012976475,
                -1.7847804162348935
            ]
        },
        {
            "positions": [
                0.8376327487035838,
                -1.9737149321159038,
                2.234444655422844,
                -0.10586741115523088,
                0.5618995774681174,
                -2.010063131052421
            ]
        },
        {
            "positions": [
                0.8109085787955965,
                -1.959856799349423,
                2.2653887363576466,
                -0.1757242267028788,
                0.5891869536385872,
                -2.235345845869949
            ]
        },
        {
            "positions": [
                0.7841844088876092,
                -1.9459986665829423,
                2.2963328172924493,
                -0.2455810422505267,
                0.6164743298090569,
                -2.4606285606874767
            ]
        },
        {
            "positions": [
                0.7574602389796219,
                -1.9321405338164617,
                2.3272768982272525,
                -0.3154378577981746,
                0.6437617059795268,
                -2.6859112755050045
            ]
        },
        {
            "positions": [
                0.7307360690716346,
                -1.9182824010499808,
                2.358220979162055,
                -0.38529467334582257,
                0.6710490821499966,
                -2.9111939903225323
            ]
        },
        {
            "positions": [
                0.7040118991636473,
                -1.9044242682835002,
                2.389165060096858,
                -0.45515148889347046,
                0.6983364583204664,
                -3.13647670514006
            ]
        }
    ]
}