{
    "goal": {
        "global_pose": {
            "orientation": {
                "w": 0.5084816217422485,
                "x": -0.49083608388900757,
                "y": 0.5182115435600281,
                "z": -0.4816462993621826
            },
            "position": {
                "x": 0.5540239810943604,
                "y": 0.030875300988554955,
                "z": 0.16403168439865112
            }
        },
        "name": "move_to_storage"
    },
    "id": "ProjEST_move_to_storage_6",
    "joint_names": [
        "shoulder_pan_joint",
        "shoulder_lift_joint",
        "elbow_joint",
        "wrist_1_joint",
        "wrist_2_joint",
        "wrist_3_joint"
    ],
    "metrics": {
        "cart_traj_len": 0.35348561620626756,
        "distance_elbow_joint": 0.45161118747643014,
        "distance_shoulder_lift_joint": 0.23313203753908396,
        "distance_shoulder_pan_joint": 0.459558501940497,
        "distance_wrist_1_joint": 0.25862535082148086,
        "distance_wrist_2_joint": 1.1099711360319393,
        "distance_wrist_3_joint": 0.09408712790012252,
        "smoothness": 8.881784197001252e-16,
        "time": 0.071334546,
        "traj_len": 1.6146161592494837,
        "weighted_distance": 2.0405283836210706
    },
    "planner": "ProjEST",
    "start": {
        "state": {
            "elbow_joint": 1.9715474092553085,
            "shoulder_lift_joint": -1.1394846673180945,
            "shoulder_pan_joint": 0.1228115366877952,
            "wrist_1_joint": -0.7804686583030105,
            "wrist_2_joint": 0.12958649594027716,
            "wrist_3_joint": -3.192492341365726
        }
    },
    "waypoints": [
        {
            "positions": [
                0.1228115366877952,
                -1.1394846673180945,
                1.9715474092553085,
                -0.7804686583030105,
                0.12958649594027716,
                -3.192492341365726
            ]
        },
        {
            "positions": [
                0.05716032212486705,
                -1.1727892441093921,
                2.0360632931805127,
                -0.8174151369917935,
                0.28815380108769706,
                -3.17905132309428
            ]
        },
        {
            "positions": [
                -0.008490892438061101,
                -1.20609382090069,
                2.100579177105717,
                -0.8543616156805764,
                0.44672110623511696,
                -3.1656103048228337
            ]
        },
        {
            "positions": [
                -0.07414210700098924,
                -1.2393983976919876,
                2.165095061030921,
                -0.8913080943693594,
                0.6052884113825369,
                -3.1521692865513877
            ]
        },
        {
            "positions": [
                -0.13979332156391738,
                -1.2727029744832854,
                2.229610944956126,
                -0.9282545730581424,
                0.7638557165299568,
                -3.138728268279942
            ]
        },
        {
            "positions": [
                -0.20544453612684554,
                -1.306007551274583,
                2.29412682888133,
                -0.9652010517469254,
                0.9224230216773767,
                -3.125287250008496
            ]
        },
        {
            "positions": [
                -0.27109575068977365,
                -1.3393121280658806,
                2.3586427128065344,
                -1.0021475304357084,
                1.0809903268247965,
                -3.1118462317370494
            ]
        },
        {
            "positions": [
                -0.3367469652527018,
                -1.3726167048571785,
                2.4231585967317386,
                -1.0390940091244913,
                1.2395576319722166,
                -3.0984052134656035
            ]
        }
    ]
}