{
    "goal": {
        "global_pose": {
            "orientation": {
                "w": 0.7047431468963623,
                "x": -0.7094548344612122,
                "y": 0.0024358443915843964,
                "z": -0.0022348060738295317
            },
            "position": {
                "x": 0.6094750761985779,
                "y": 0.3671506643295288,
                "z": 0.19426114857196808
            }
        },
        "name": "move_to_magneteinheit_target"
    },
    "id": "ProjEST_move_to_magneteinheit_target_5",
    "joint_names": [
        "shoulder_pan_joint",
        "shoulder_lift_joint",
        "elbow_joint",
        "wrist_1_joint",
        "wrist_2_joint",
        "wrist_3_joint"
    ],
    "metrics": {
        "cart_traj_len": 3.126897510799675,
        "distance_elbow_joint": 3.9060895806436395,
        "distance_shoulder_lift_joint": 1.2834902006766402,
        "distance_shoulder_pan_joint": 2.938815907440931,
        "distance_wrist_1_joint": 0.7358847284965764,
        "distance_wrist_2_joint": 1.7072463116128305,
        "distance_wrist_3_joint": 3.581044396691017,
        "smoothness": 0.1311941965046622,
        "time": 0.075768014,
        "traj_len": 3.761990314389663,
        "weighted_distance": 4.874196442394693
    },
    "planner": "ProjEST",
    "start": {
        "state": {
            "elbow_joint": -1.9196185737098679,
            "shoulder_lift_joint": -1.2443395971259867,
            "shoulder_pan_joint": 2.6996025301141957,
            "wrist_1_joint": -1.548550951469146,
            "wrist_2_joint": -1.5709469089955597,
            "wrist_3_joint": 0.4420197730596999
        }
    },
    "waypoints": [
        {
            "positions": [
                2.6996025301141957,
                -1.2443395971259867,
                -1.9196185737098679,
                -1.548550951469146,
                -1.5709469089955597,
                0.4420197730596999
            ]
        },
        {
            "positions": [
                2.61065029649592,
                -1.2634744798129964,
                -1.8030668870288913,
                -1.5280477203619622,
                -1.5214016359305147,
                0.3470875021928771
            ]
        },
        {
            "positions": [
                2.5216980628776446,
                -1.282609362500006,
                -1.6865152003479147,
                -1.5075444892547785,
                -1.4718563628654695,
                0.2521552313260543
            ]
        },
        {
            "positions": [
                2.432745829259369,
                -1.3017442451870156,
                -1.569963513666938,
                -1.4870412581475947,
                -1.4223110898004245,
                0.15722296045923145
            ]
        },
        {
            "positions": [
                2.343793595641093,
                -1.320879127874025,
                -1.4534118269859615,
                -1.466538027040411,
                -1.3727658167353796,
                0.06229068959240863
            ]
        },
        {
            "positions": [
                2.254841362022818,
                -1.3400140105610348,
                -1.336860140304985,
                -1.4460347959332271,
                -1.3232205436703346,
                -0.03264158127441419
            ]
        },
        {
            "positions": [
                2.165889128404542,
                -1.3591488932480442,
                -1.2203084536240083,
                -1.4255315648260434,
                -1.2736752706052894,
                -0.127573852141237
            ]
        },
        {
            "positions": [
                2.0769368947862663,
                -1.378283775935054,
                -1.1037567669430317,
                -1.4050283337188596,
                -1.2241299975402444,
                -0.22250612300805978
            ]
        },
        {
            "positions": [
                1.9879846611679906,
                -1.3974186586220636,
                -0.9872050802620551,
                -1.3845251026116756,
                -1.1745847244751995,
                -0.31743839387488265
            ]
        },
        {
            "positions": [
                1.899032427549715,
                -1.416553541309073,
                -0.8706533935810783,
                -1.3640218715044918,
                -1.1250394514101543,
                -0.41237066474170553
            ]
        },
        {
            "positions": [
                1.8100801939314395,
                -1.4356884239960828,
                -0.7541017069001019,
                -1.343518640397308,
                -1.0754941783451093,
                -0.5073029356085283
            ]
        },
        {
            "positions": [
                1.7211279603131637,
                -1.4548233066830922,
                -0.6375500202191251,
                -1.3230154092901243,
                -1.0259489052800643,
                -0.6022352064753511
            ]
        },
        {
            "positions": [
                1.6321757266948882,
                -1.473958189370102,
                -0.5209983335381487,
                -1.3025121781829405,
                -0.9764036322150192,
                -0.6971674773421739
            ]
        },
        {
            "positions": [
                1.5432234930766124,
                -1.4930930720571116,
                -0.4044466468571719,
                -1.2820089470757567,
                -0.9268583591499742,
                -0.7920997482089969
            ]
        },
        {
            "positions": [
                1.454271259458337,
                -1.512227954744121,
                -0.28789496017619554,
                -1.261505715968573,
                -0.8773130860849292,
                -0.8870320190758194
            ]
        },
        {
            "positions": [
                1.3653190258400614,
                -1.5313628374311308,
                -0.17134327349521872,
                -1.2410024848613892,
                -0.8277678130198841,
                -0.9819642899426424
            ]
        },
        {
            "positions": [
                1.2763667922217856,
                -1.5504977201181402,
                -0.05479158681424234,
                -1.2204992537542054,
                -0.7782225399548391,
                -1.0768965608094652
            ]
        },
        {
            "positions": [
                1.18741455860351,
                -1.56963260280515,
                0.06176009986673425,
                -1.1999960226470217,
                -0.7286772668897942,
                -1.171828831676288
            ]
        },
        {
            "positions": [
                1.0984623249852343,
                -1.5887674854921596,
                0.1783117865477113,
                -1.1794927915398379,
                -0.679131993824749,
                -1.266761102543111
            ]
        },
        {
            "positions": [
                1.0095100913669588,
                -1.607902368179169,
                0.29486347322868767,
                -1.158989560432654,
                -0.629586720759704,
                -1.3616933734099337
            ]
        },
        {
            "positions": [
                0.9205578577486833,
                -1.6270372508661786,
                0.41141515990966404,
                -1.1384863293254703,
                -0.580041447694659,
                -1.4566256442767564
            ]
        },
        {
            "positions": [
                0.8316056241304077,
                -1.6461721335531883,
                0.5279668465906404,
                -1.1179830982182866,
                -0.530496174629614,
                -1.5515579151435792
            ]
        },
        {
            "positions": [
                0.7426533905121318,
                -1.665307016240198,
                0.6445185332716177,
                -1.0974798671111028,
                -0.48095090156456877,
                -1.6464901860104022
            ]
        },
        {
            "positions": [
                0.6537011568938564,
                -1.6844418989272074,
                0.761070219952594,
                -1.076976636003919,
                -0.4314056284995238,
                -1.741422456877225
            ]
        },
        {
            "positions": [
                0.5647489232755807,
                -1.703576781614217,
                0.8776219066335704,
                -1.0564734048967352,
                -0.3818603554344788,
                -1.8363547277440477
            ]
        },
        {
            "positions": [
                0.47579668965730537,
                -1.7227116643012268,
                0.9941735933145468,
                -1.0359701737895515,
                -0.33231508236943386,
                -1.9312869986108705
            ]
        },
        {
            "positions": [
                0.38684445603902917,
                -1.7418465469882363,
                1.110725279995524,
                -1.0154669426823675,
                -0.28276980930438866,
                -2.0262192694776937
            ]
        },
        {
            "positions": [
                0.29789222242075386,
                -1.7609814296752457,
                1.2272769666765004,
                -0.9949637115751837,
                -0.2332245362393437,
                -2.1211515403445165
            ]
        },
        {
            "positions": [
                0.2089399888024781,
                -1.7801163123622554,
                1.3438286533574768,
                -0.974460480468,
                -0.18367926317429872,
                -2.216083811211339
            ]
        },
        {
            "positions": [
                0.1199877551842028,
                -1.7992511950492651,
                1.4603803400384536,
                -0.9539572493608163,
                -0.13413399010925375,
                -2.3110160820781616
            ]
        },
        {
            "positions": [
                0.031035521565927038,
                -1.8183860777362746,
                1.5769320267194304,
                -0.9334540182536324,
                -0.08458871704420856,
                -2.4059483529449848
            ]
        },
        {
            "positions": [
                -0.05791671205234879,
                -1.8375209604232843,
                1.6934837134004066,
                -0.9129507871464486,
                -0.03504344397916358,
                -2.5008806238118075
            ]
        },
        {
            "positions": [
                -0.03407263175871879,
                -1.7242003509062094,
                1.7445651993798301,
                -0.8966911860605998,
                -0.006719199295190843,
                -2.600100372391007
            ]
        },
        {
            "positions": [
                -0.010228551465088796,
                -1.6108797413891343,
                1.7956466853592534,
                -0.880431584974751,
                0.021605045388781892,
                -2.699320120970207
            ]
        },
        {
            "positions": [
                0.013615528828541196,
                -1.4975591318720594,
                1.846728171338677,
                -0.8641719838889024,
                0.04992929007275462,
                -2.7985398695494066
            ]
        },
        {
            "positions": [
                0.037459609122171195,
                -1.3842385223549845,
                1.8978096573181005,
                -0.8479123828030536,
                0.07825353475672736,
                -2.8977596181286063
            ]
        },
        {
            "positions": [
                0.06130368941580117,
                -1.2709179128379096,
                1.9488911432975238,
                -0.8316527817172048,
                0.10657777944070009,
                -2.996979366707806
            ]
        },
        {
            "positions": [
                0.0923418213189197,
                -1.2090650179409255,
                1.9676810751156473,
                -0.8411460610895224,
                0.12143859102898574,
                -3.0680019951695616
            ]
        },
        {
            "positions": [
                0.12337995322203824,
                -1.1472121230439416,
                1.986471006933771,
                -0.85063934046184,
                0.1362994026172714,
                -3.139024623631317
            ]
        }
    ]
}