{
    "goal": {
        "global_pose": {
            "orientation": {
                "w": 0.7047431468963623,
                "x": -0.7094548344612122,
                "y": 0.0024358443915843964,
                "z": -0.0022348060738295317
            },
            "position": {
                "x": 0.6094750761985779,
                "y": 0.3671506643295288,
                "z": 0.19426114857196808
            }
        },
        "name": "move_to_magneteinheit_target"
    },
    "id": "ProjEST_move_to_magneteinheit_target_3",
    "joint_names": [
        "shoulder_pan_joint",
        "shoulder_lift_joint",
        "elbow_joint",
        "wrist_1_joint",
        "wrist_2_joint",
        "wrist_3_joint"
    ],
    "metrics": {
        "cart_traj_len": 4.065439346324562,
        "distance_elbow_joint": 3.8831424091995785,
        "distance_shoulder_lift_joint": 0.7985724072488736,
        "distance_shoulder_pan_joint": 3.859179498000278,
        "distance_wrist_1_joint": 1.2727395073599028,
        "distance_wrist_2_joint": 1.7088742611902212,
        "distance_wrist_3_joint": 3.41342151489386,
        "smoothness": 0.18863525484259186,
        "time": 0.059268531,
        "traj_len": 3.864703041359416,
        "weighted_distance": 4.974372965131442
    },
    "planner": "ProjEST",
    "start": {
        "state": {
            "elbow_joint": -1.9196185737098679,
            "shoulder_lift_joint": -1.2443395971259867,
            "shoulder_pan_joint": 2.6996025301141957,
            "wrist_1_joint": -1.548550951469146,
            "wrist_2_joint": -1.5709469089955597,
            "wrist_3_joint": 0.4420197730596999
        }
    },
    "waypoints": [
        {
            "positions": [
                2.6996025301141957,
                -1.2443395971259867,
                -1.9196185737098679,
                -1.548550951469146,
                -1.5709469089955597,
                0.4420197730596999
            ]
        },
        {
            "positions": [
                2.546384407608963,
                -1.2227288002540262,
                -1.8127664339879828,
                -1.4988377509891289,
                -1.543456531523154,
                0.42264518460790546
            ]
        },
        {
            "positions": [
                2.3931662851037303,
                -1.2011180033820656,
                -1.7059142942660976,
                -1.4491245505091117,
                -1.5159661540507485,
                0.40327059615611094
            ]
        },
        {
            "positions": [
                2.2399481625984974,
                -1.179507206510105,
                -1.5990621545442125,
                -1.3994113500290943,
                -1.4884757765783432,
                0.3838960077043165
            ]
        },
        {
            "positions": [
                2.0867300400932645,
                -1.1578964096381443,
                -1.4922100148223274,
                -1.3496981495490772,
                -1.4609853991059376,
                0.364521419252522
            ]
        },
        {
            "positions": [
                1.9335119175880318,
                -1.1362856127661838,
                -1.3853578751004423,
                -1.29998494906906,
                -1.433495021633532,
                0.3451468308007275
            ]
        },
        {
            "positions": [
                1.780293795082799,
                -1.1146748158942232,
                -1.2785057353785572,
                -1.2502717485890429,
                -1.4060046441611265,
                0.32577224234893304
            ]
        },
        {
            "positions": [
                1.6270756725775661,
                -1.0930640190222627,
                -1.171653595656672,
                -1.2005585481090257,
                -1.378514266688721,
                0.3063976538971386
            ]
        },
        {
            "positions": [
                1.4738575500723334,
                -1.0714532221503021,
                -1.064801455934787,
                -1.1508453476290084,
                -1.3510238892163153,
                0.28702306544534406
            ]
        },
        {
            "positions": [
                1.3206394275671005,
                -1.0498424252783414,
                -0.9579493162129017,
                -1.1011321471489912,
                -1.3235335117439098,
                0.2676484769935496
            ]
        },
        {
            "positions": [
                1.1674213050618678,
                -1.0282316284063808,
                -0.8510971764910165,
                -1.051418946668974,
                -1.2960431342715044,
                0.24827388854175514
            ]
        },
        {
            "positions": [
                1.0142031825566349,
                -1.0066208315344203,
                -0.7442450367691313,
                -1.0017057461889567,
                -1.2685527567990988,
                0.22889930008996062
            ]
        },
        {
            "positions": [
                0.8609850600514022,
                -0.9850100346624597,
                -0.6373928970472462,
                -0.9519925457089397,
                -1.2410623793266933,
                0.20952471163816616
            ]
        },
        {
            "positions": [
                0.7077669375461693,
                -0.9633992377904992,
                -0.5305407573253611,
                -0.9022793452289224,
                -1.2135720018542877,
                0.1901501231863717
            ]
        },
        {
            "positions": [
                0.5545488150409366,
                -0.9417884409185386,
                -0.423688617603476,
                -0.8525661447489052,
                -1.1860816243818824,
                0.17077553473457724
            ]
        },
        {
            "positions": [
                0.40133069253570364,
                -0.920177644046578,
                -0.31683647788159064,
                -0.802852944268888,
                -1.1585912469094768,
                0.15140094628278272
            ]
        },
        {
            "positions": [
                0.24811257003047116,
                -0.8985668471746174,
                -0.20998433815970574,
                -0.7531397437888708,
                -1.1311008694370712,
                0.13202635783098826
            ]
        },
        {
            "positions": [
                0.09489444752523823,
                -0.8769560503026568,
                -0.1031321984378204,
                -0.7034265433088536,
                -1.1036104919646657,
                0.11265176937919374
            ]
        },
        {
            "positions": [
                -0.05832367497999469,
                -0.8553452534306962,
                0.0037199412840644985,
                -0.6537133428288364,
                -1.07612011449226,
                0.09327718092739928
            ]
        },
        {
            "positions": [
                -0.2115417974852276,
                -0.8337344565587357,
                0.11057208100594984,
                -0.6040001423488192,
                -1.0486297370198545,
                0.07390259247560482
            ]
        },
        {
            "positions": [
                -0.3647599199904601,
                -0.8121236596867751,
                0.21742422072783496,
                -0.554286941868802,
                -1.021139359547449,
                0.05452800402381036
            ]
        },
        {
            "positions": [
                -0.5179780424956931,
                -0.7905128628148145,
                0.32427636044971986,
                -0.5045737413887847,
                -0.9936489820750435,
                0.035153415572015845
            ]
        },
        {
            "positions": [
                -0.4823336577517825,
                -0.8096654002002424,
                0.4153456646186081,
                -0.5172827579043149,
                -0.9307836301711709,
                0.20218425765013676
            ]
        },
        {
            "positions": [
                -0.44668927300787187,
                -0.8288179375856701,
                0.5064149687874964,
                -0.5299917744198449,
                -0.8679182782672985,
                0.36921509972825767
            ]
        },
        {
            "positions": [
                -0.4110448882639612,
                -0.847970474971098,
                0.5974842729563847,
                -0.542700790935375,
                -0.805052926363426,
                0.5362459418063785
            ]
        },
        {
            "positions": [
                -0.37540050352005055,
                -0.8671230123565259,
                0.688553577125273,
                -0.5554098074509051,
                -0.7421875744595534,
                0.7032767838844995
            ]
        },
        {
            "positions": [
                -0.33975611877613987,
                -0.8862755497419538,
                0.7796228812941614,
                -0.5681188239664352,
                -0.679322222555681,
                0.8703076259626206
            ]
        },
        {
            "positions": [
                -0.30411173403222924,
                -0.9054280871273815,
                0.8706921854630496,
                -0.5808278404819652,
                -0.6164568706518084,
                1.0373384680407414
            ]
        },
        {
            "positions": [
                -0.2684673492883186,
                -0.9245806245128094,
                0.9617614896319379,
                -0.5935368569974954,
                -0.5535915187479359,
                1.2043693101188624
            ]
        },
        {
            "positions": [
                -0.23282296454440798,
                -0.9437331618982373,
                1.0528307938008261,
                -0.6062458735130254,
                -0.49072616684406345,
                1.3714001521969832
            ]
        },
        {
            "positions": [
                -0.1971785798004973,
                -0.9628856992836652,
                1.1439000979697145,
                -0.6189548900285555,
                -0.4278608149401909,
                1.5384309942751042
            ]
        },
        {
            "positions": [
                -0.16153419505658662,
                -0.982038236669093,
                1.2349694021386028,
                -0.6316639065440857,
                -0.36499546303631836,
                1.7054618363532252
            ]
        },
        {
            "positions": [
                -0.125889810312676,
                -1.0011907740545207,
                1.3260387063074912,
                -0.6443729230596157,
                -0.3021301111324458,
                1.8724926784313463
            ]
        },
        {
            "positions": [
                -0.09024542556876536,
                -1.0203433114399487,
                1.4171080104763794,
                -0.6570819395751457,
                -0.23926475922857338,
                2.0395235205094666
            ]
        },
        {
            "positions": [
                -0.05460104082485473,
                -1.0394958488253765,
                1.5081773146452677,
                -0.6697909560906758,
                -0.17639940732470083,
                2.2065543625875876
            ]
        },
        {
            "positions": [
                -0.018956656080944045,
                -1.0586483862108045,
                1.5992466188141559,
                -0.682499972606206,
                -0.1135340554208284,
                2.3735852046657087
            ]
        },
        {
            "positions": [
                0.01668772866296664,
                -1.0778009235962323,
                1.6903159229830442,
                -0.6952089891217361,
                -0.05066870351695585,
                2.5406160467438297
            ]
        },
        {
            "positions": [
                0.052332113406877157,
                -1.09695346098166,
                1.7813852271519324,
                -0.7079180056372661,
                0.012196648386916586,
                2.7076468888219503
            ]
        },
        {
            "positions": [
                0.0879764981507879,
                -1.1161059983670878,
                1.8724545313208207,
                -0.7206270221527962,
                0.07506200029078924,
                2.8746777309000713
            ]
        },
        {
            "positions": [
                0.12362088289469855,
                -1.1352585357525158,
                1.963523835489709,
                -0.7333360386683263,
                0.1379273521946617,
                3.0417085729781923
            ]
        }
    ]
}