{
    "goal": {
        "global_pose": {
            "orientation": {
                "w": 0.7047431468963623,
                "x": -0.7094548344612122,
                "y": 0.0024358443915843964,
                "z": -0.0022348060738295317
            },
            "position": {
                "x": 0.6094750761985779,
                "y": 0.3671506643295288,
                "z": 0.19426114857196808
            }
        },
        "name": "move_to_magneteinheit_target"
    },
    "id": "RRT_move_to_magneteinheit_target_9",
    "joint_names": [
        "shoulder_pan_joint",
        "shoulder_lift_joint",
        "elbow_joint",
        "wrist_1_joint",
        "wrist_2_joint",
        "wrist_3_joint"
    ],
    "metrics": {
        "cart_traj_len": 3.548618827835526,
        "distance_elbow_joint": 3.8808231206872508,
        "distance_shoulder_lift_joint": 0.46689004413545665,
        "distance_shoulder_pan_joint": 3.0011501493538866,
        "distance_wrist_1_joint": 0.9235283661025213,
        "distance_wrist_2_joint": 2.0255844104788956,
        "distance_wrist_3_joint": 2.8338223163234457,
        "smoothness": 0.6176589707376311,
        "time": 0.11235057500000001,
        "traj_len": 3.623782334396129,
        "weighted_distance": 4.663534691230438
    },
    "planner": "RRT",
    "start": {
        "state": {
            "elbow_joint": -1.9196185737098679,
            "shoulder_lift_joint": -1.2443395971259867,
            "shoulder_pan_joint": 2.6996025301141957,
            "wrist_1_joint": -1.548550951469146,
            "wrist_2_joint": -1.5709469089955597,
            "wrist_3_joint": 0.4420197730596999
        }
    },
    "waypoints": [
        {
            "positions": [
                2.6996025301141957,
                -1.2443395971259867,
                -1.9196185737098679,
                -1.548550951469146,
                -1.5709469089955597,
                0.4420197730596999
            ]
        },
        {
            "positions": [
                2.606570399798852,
                -1.2502236593399894,
                -1.7971202209281842,
                -1.5308115420514525,
                -1.5054810674083832,
                0.529919199336876
            ]
        },
        {
            "positions": [
                2.5135382694835076,
                -1.2561077215539922,
                -1.6746218681465006,
                -1.5130721326337593,
                -1.4400152258212067,
                0.6178186256140521
            ]
        },
        {
            "positions": [
                2.4205061391681637,
                -1.2619917837679948,
                -1.552123515364817,
                -1.4953327232160658,
                -1.3745493842340302,
                0.7057180518912283
            ]
        },
        {
            "positions": [
                2.32747400885282,
                -1.2678758459819977,
                -1.4296251625831333,
                -1.4775933137983723,
                -1.309083542646854,
                0.7936174781684042
            ]
        },
        {
            "positions": [
                2.2344418785374756,
                -1.2737599081960003,
                -1.3071268098014497,
                -1.459853904380679,
                -1.2436177010596774,
                0.8815169044455804
            ]
        },
        {
            "positions": [
                2.1414097482221317,
                -1.2796439704100029,
                -1.184628457019766,
                -1.4421144949629856,
                -1.178151859472501,
                0.9694163307227566
            ]
        },
        {
            "positions": [
                2.0483776179067874,
                -1.2855280326240057,
                -1.0621301042380824,
                -1.4243750855452924,
                -1.1126860178853244,
                1.0573157569999325
            ]
        },
        {
            "positions": [
                1.9553454875914436,
                -1.2914120948380083,
                -0.9396317514563987,
                -1.4066356761275989,
                -1.047220176298148,
                1.1452151832771087
            ]
        },
        {
            "positions": [
                1.8623133572760997,
                -1.2972961570520112,
                -0.8171333986747151,
                -1.3888962667099054,
                -0.9817543347109714,
                1.2331146095542849
            ]
        },
        {
            "positions": [
                1.7692812269607556,
                -1.3031802192660138,
                -0.6946350458930315,
                -1.3711568572922122,
                -0.916288493123795,
                1.3210140358314608
            ]
        },
        {
            "positions": [
                1.6762490966454116,
                -1.3090642814800164,
                -0.5721366931113478,
                -1.3534174478745187,
                -0.8508226515366185,
                1.408913462108637
            ]
        },
        {
            "positions": [
                1.5832169663300675,
                -1.3149483436940193,
                -0.449638340329664,
                -1.3356780384568254,
                -0.785356809949442,
                1.4968128883858132
            ]
        },
        {
            "positions": [
                1.4901848360147236,
                -1.3208324059080219,
                -0.32713998754798035,
                -1.317938629039132,
                -0.7198909683622655,
                1.5847123146629891
            ]
        },
        {
            "positions": [
                1.3971527056993795,
                -1.3267164681220247,
                -0.2046416347662967,
                -1.3001992196214385,
                -0.6544251267750891,
                1.6726117409401653
            ]
        },
        {
            "positions": [
                1.3041205753840355,
                -1.3326005303360273,
                -0.08214328198461307,
                -1.2824598102037452,
                -0.5889592851879125,
                1.7605111672173415
            ]
        },
        {
            "positions": [
                1.2110884450686916,
                -1.3384845925500302,
                0.04035507079707057,
                -1.2647204007860517,
                -0.5234934436007361,
                1.8484105934945174
            ]
        },
        {
            "positions": [
                1.1180563147533473,
                -1.3443686547640328,
                0.16285342357875443,
                -1.2469809913683583,
                -0.45802760201355963,
                1.9363100197716938
            ]
        },
        {
            "positions": [
                1.0250241844380035,
                -1.3502527169780354,
                0.2853517763604376,
                -1.229241581950665,
                -0.39256176042638313,
                2.0242094460488698
            ]
        },
        {
            "positions": [
                0.9319920541226594,
                -1.3561367791920382,
                0.4078501291421217,
                -1.2115021725329715,
                -0.32709591883920663,
                2.1121088723260457
            ]
        },
        {
            "positions": [
                0.8389599238073155,
                -1.3620208414060408,
                0.5303484819238049,
                -1.193762763115278,
                -0.26163007725203036,
                2.2000082986032217
            ]
        },
        {
            "positions": [
                0.7459277934919712,
                -1.3679049036200437,
                0.652846834705489,
                -1.1760233536975848,
                -0.19616423566485364,
                2.287907724880398
            ]
        },
        {
            "positions": [
                0.6528956631766274,
                -1.3737889658340463,
                0.7753451874871722,
                -1.1582839442798913,
                -0.13069839407767736,
                2.375807151157574
            ]
        },
        {
            "positions": [
                0.5598635328612831,
                -1.379673028048049,
                0.8978435402688563,
                -1.1405445348621979,
                -0.06523255249050064,
                2.4637065774347504
            ]
        },
        {
            "positions": [
                0.46683140254593924,
                -1.3855570902620518,
                1.02034189305054,
                -1.1228051254445046,
                0.00023328909667563735,
                2.5516060037119264
            ]
        },
        {
            "positions": [
                0.3737992722305954,
                -1.3914411524760544,
                1.1428402458322235,
                -1.1050657160268111,
                0.06569913068385214,
                2.6395054299891023
            ]
        },
        {
            "positions": [
                0.28076714191525154,
                -1.3973252146900572,
                1.2653385986139072,
                -1.0873263066091179,
                0.13116497227102863,
                2.7274048562662783
            ]
        },
        {
            "positions": [
                0.1877350115999072,
                -1.4032092769040598,
                1.3878369513955908,
                -1.0695868971914244,
                0.19663081385820508,
                2.8153042825434547
            ]
        },
        {
            "positions": [
                0.11831643109549826,
                -1.3310070532277245,
                1.4404451009559007,
                -0.9709256082663578,
                0.15667285096564787,
                2.7847023676202602
            ]
        },
        {
            "positions": [
                0.04889785059108934,
                -1.2588048295513894,
                1.4930532505162106,
                -0.8722643193412911,
                0.11671488807309063,
                2.754100452697066
            ]
        },
        {
            "positions": [
                -0.020520729913319602,
                -1.186602605875054,
                1.5456614000765203,
                -0.7736030304162245,
                0.07675692518053341,
                2.7234985377738714
            ]
        },
        {
            "positions": [
                -0.0899393104177285,
                -1.1144003821987187,
                1.5982695496368302,
                -0.6749417414911578,
                0.03679896228797619,
                2.692896622850677
            ]
        },
        {
            "positions": [
                -0.019403207477074164,
                -1.1208042054160663,
                1.719247882083681,
                -0.6915814601993355,
                0.06952390763961011,
                2.805606671899648
            ]
        },
        {
            "positions": [
                0.05113289546358017,
                -1.1272080286334136,
                1.840226214530532,
                -0.7082211789075132,
                0.10224885299124405,
                2.9183167209486194
            ]
        },
        {
            "positions": [
                0.12166899840423451,
                -1.1336118518507612,
                1.9612045469773827,
                -0.724860897615691,
                0.13497379834287798,
                3.0310267699975904
            ]
        }
    ]
}