{
    "goal": {
        "global_pose": {
            "orientation": {
                "w": 0.7031023502349854,
                "x": -0.7110244035720825,
                "y": 0.007748599164187908,
                "z": 0.005598929710686207
            },
            "position": {
                "x": 0.11585023208521307,
                "y": 0.44412534475326537,
                "z": 0.3711530566215515
            }
        },
        "name": "move_to_auspresseinheit"
    },
    "id": "RRT_move_to_auspresseinheit_10",
    "joint_names": [
        "shoulder_pan_joint",
        "shoulder_lift_joint",
        "elbow_joint",
        "wrist_1_joint",
        "wrist_2_joint",
        "wrist_3_joint"
    ],
    "metrics": {
        "cart_traj_len": 0.7499359169582375,
        "distance_elbow_joint": 0.6204618038670806,
        "distance_shoulder_lift_joint": 1.3271189284065683,
        "distance_shoulder_pan_joint": 1.0447452629500151,
        "distance_wrist_1_joint": 0.5509211543614796,
        "distance_wrist_2_joint": 1.1978804077755987,
        "distance_wrist_3_joint": 0.23693941921301054,
        "smoothness": 1.2933940886345658,
        "time": 2.933167648,
        "traj_len": 2.231158214151061,
        "weighted_distance": 2.6834208348928152
    },
    "planner": "RRT",
    "start": {
        "state": {
            "elbow_joint": 2.4225745326682886,
            "shoulder_lift_joint": -1.3736534990239282,
            "shoulder_pan_joint": -0.3378633610955803,
            "wrist_1_joint": -1.02885917317252,
            "wrist_2_joint": 1.233022905420004,
            "wrist_3_joint": -3.09402240754724
        }
    },
    "waypoints": [
        {
            "positions": [
                -0.3378633610955803,
                -1.3736534990239282,
                2.4225745326682886,
                -1.02885917317252,
                1.233022905420004,
                -3.09402240754724
            ]
        },
        {
            "positions": [
                -0.26764467291680055,
                -1.4772888430695439,
                2.4555543494025263,
                -0.9879302844056823,
                1.1374713348592311,
                -3.1086825363427333
            ]
        },
        {
            "positions": [
                -0.19742598473802078,
                -1.5809241871151594,
                2.488534166136764,
                -0.9470013956388447,
                1.0419197642984583,
                -3.123342665138227
            ]
        },
        {
            "positions": [
                -0.12720729655924104,
                -1.684559531160775,
                2.521513982871002,
                -0.9060725068720069,
                0.9463681937376857,
                -3.1380027939337203
            ]
        },
        {
            "positions": [
                -0.05698860838046127,
                -1.7881948752063908,
                2.5544937996052397,
                -0.8651436181051693,
                0.850816623176913,
                -3.152662922729214
            ]
        },
        {
            "positions": [
                0.013230079798318473,
                -1.8918302192520065,
                2.5874736163394774,
                -0.8242147293383315,
                0.7552650526161402,
                -3.1673230515247077
            ]
        },
        {
            "positions": [
                0.08344876797709821,
                -1.995465563297622,
                2.620453433073715,
                -0.7832858405714939,
                0.6597134820553674,
                -3.181983180320201
            ]
        },
        {
            "positions": [
                0.153667456155878,
                -2.0991009073432374,
                2.653433249807953,
                -0.7423569518046561,
                0.5641619114945946,
                -3.1966433091156947
            ]
        },
        {
            "positions": [
                0.22388614433465776,
                -2.202736251388853,
                2.686413066542191,
                -0.7014280630378185,
                0.4686103409338219,
                -3.211303437911188
            ]
        },
        {
            "positions": [
                0.29410483251343744,
                -2.306371595434469,
                2.7193928832764285,
                -0.6604991742709807,
                0.37305877037304913,
                -3.2259635667066817
            ]
        },
        {
            "positions": [
                0.3766602463816369,
                -2.2274914290352634,
                2.65466419262464,
                -0.6239869431789926,
                0.4406420249187779,
                -3.204963914695968
            ]
        },
        {
            "positions": [
                0.4592156602498364,
                -2.1486112626360576,
                2.5899355019728523,
                -0.5874747120870046,
                0.5082252794645068,
                -3.1839642626852545
            ]
        },
        {
            "positions": [
                0.5417710741180359,
                -2.0697310962368523,
                2.525206811321064,
                -0.5509624809950165,
                0.5758085340102355,
                -3.1629646106745404
            ]
        },
        {
            "positions": [
                0.6243264879862354,
                -1.9908509298376467,
                2.460478120669276,
                -0.5144502499030285,
                0.6433917885559644,
                -3.1419649586638267
            ]
        },
        {
            "positions": [
                0.7068819018544349,
                -1.911970763438441,
                2.3957494300174877,
                -0.4779380188110404,
                0.7109750431016931,
                -3.120965306653113
            ]
        }
    ]
}