{
    "goal": {
        "global_pose": {
            "orientation": {
                "w": 0.7047431468963623,
                "x": -0.7094548344612122,
                "y": 0.0024358443915843964,
                "z": -0.0022348060738295317
            },
            "position": {
                "x": 0.6094750761985779,
                "y": 0.3671506643295288,
                "z": 0.19426114857196808
            }
        },
        "name": "move_to_magneteinheit_target"
    },
    "id": "RRT_move_to_magneteinheit_target_2",
    "joint_names": [
        "shoulder_pan_joint",
        "shoulder_lift_joint",
        "elbow_joint",
        "wrist_1_joint",
        "wrist_2_joint",
        "wrist_3_joint"
    ],
    "metrics": {
        "cart_traj_len": 3.3344681465710257,
        "distance_elbow_joint": 5.023786398802245,
        "distance_shoulder_lift_joint": 1.1153725713109872,
        "distance_shoulder_pan_joint": 3.90395402599312,
        "distance_wrist_1_joint": 3.5451458826916857,
        "distance_wrist_2_joint": 2.6589364066117316,
        "distance_wrist_3_joint": 4.4600553957613265,
        "smoothness": 0.49535699953958046,
        "time": 0.106266747,
        "traj_len": 4.550522022930018,
        "weighted_distance": 5.985937166559397
    },
    "planner": "RRT",
    "start": {
        "state": {
            "elbow_joint": -1.9196185737098679,
            "shoulder_lift_joint": -1.2443395971259867,
            "shoulder_pan_joint": 2.6996025301141957,
            "wrist_1_joint": -1.548550951469146,
            "wrist_2_joint": -1.5709469089955597,
            "wrist_3_joint": 0.4420197730596999
        }
    },
    "waypoints": [
        {
            "positions": [
                2.6996025301141957,
                -1.2443395971259867,
                -1.9196185737098679,
                -1.548550951469146,
                -1.5709469089955597,
                0.4420197730596999
            ]
        },
        {
            "positions": [
                2.6132795025842506,
                -1.2569803333065133,
                -1.8525669141270482,
                -1.4462812844016766,
                -1.5101521359166559,
                0.38265029965190933
            ]
        },
        {
            "positions": [
                2.526956475054305,
                -1.2696210694870398,
                -1.7855152545442285,
                -1.344011617334207,
                -1.449357362837752,
                0.3232808262441187
            ]
        },
        {
            "positions": [
                2.44063344752436,
                -1.282261805667566,
                -1.7184635949614087,
                -1.2417419502667375,
                -1.388562589758848,
                0.2639113528363281
            ]
        },
        {
            "positions": [
                2.3543104199944147,
                -1.2949025418480926,
                -1.651411935378589,
                -1.1394722831992679,
                -1.3277678166799443,
                0.20454187942853752
            ]
        },
        {
            "positions": [
                2.267987392464469,
                -1.3075432780286191,
                -1.5843602757957693,
                -1.0372026161317984,
                -1.2669730436010405,
                0.14517240602074694
            ]
        },
        {
            "positions": [
                2.181664364934524,
                -1.3201840142091457,
                -1.5173086162129494,
                -0.9349329490643289,
                -1.2061782705221367,
                0.0858029326129563
            ]
        },
        {
            "positions": [
                2.095341337404579,
                -1.3328247503896722,
                -1.4502569566301298,
                -0.8326632819968595,
                -1.1453834974432329,
                0.026433459205165766
            ]
        },
        {
            "positions": [
                2.0090183098746333,
                -1.3454654865701987,
                -1.38320529704731,
                -0.7303936149293898,
                -1.0845887243643288,
                -0.032936014202624875
            ]
        },
        {
            "positions": [
                1.9226952823446881,
                -1.358106222750725,
                -1.3161536374644904,
                -0.6281239478619204,
                -1.023793951285425,
                -0.0923054876104154
            ]
        },
        {
            "positions": [
                1.8363722548147428,
                -1.3707469589312515,
                -1.2491019778816708,
                -0.5258542807944508,
                -0.9629991782065213,
                -0.15167496101820604
            ]
        },
        {
            "positions": [
                1.7500492272847974,
                -1.383387695111778,
                -1.182050318298851,
                -0.4235846137269814,
                -0.9022044051276175,
                -0.21104443442599669
            ]
        },
        {
            "positions": [
                1.663726199754852,
                -1.3960284312923046,
                -1.1149986587160312,
                -0.32131494665951177,
                -0.8414096320487136,
                -0.2704139078337873
            ]
        },
        {
            "positions": [
                1.577403172224907,
                -1.4086691674728309,
                -1.0479469991332115,
                -0.21904527959204234,
                -0.7806148589698098,
                -0.32978338124157786
            ]
        },
        {
            "positions": [
                1.4910801446949618,
                -1.4213099036533574,
                -0.9808953395503919,
                -0.11677561252457291,
                -0.719820085890906,
                -0.3891528546493684
            ]
        },
        {
            "positions": [
                1.4047571171650164,
                -1.433950639833884,
                -0.9138436799675722,
                -0.014505945457103486,
                -0.6590253128120022,
                -0.448522328057159
            ]
        },
        {
            "positions": [
                1.318434089635071,
                -1.4465913760144105,
                -0.8467920203847523,
                0.08776372161036639,
                -0.5982305397330981,
                -0.5078918014649496
            ]
        },
        {
            "positions": [
                1.2321110621051257,
                -1.459232112194937,
                -0.7797403608019327,
                0.1900333886778358,
                -0.5374357666541945,
                -0.5672612748727401
            ]
        },
        {
            "positions": [
                1.1457880345751805,
                -1.4718728483754635,
                -0.712688701219113,
                0.29230305574530524,
                -0.47664099357529066,
                -0.6266307482805307
            ]
        },
        {
            "positions": [
                1.0594650070452352,
                -1.4845135845559898,
                -0.6456370416362933,
                0.39457272281277467,
                -0.41584622049638686,
                -0.6860002216883214
            ]
        },
        {
            "positions": [
                0.9731419795152898,
                -1.4971543207365163,
                -0.5785853820534734,
                0.4968423898802443,
                -0.35505144741748285,
                -0.745369695096112
            ]
        },
        {
            "positions": [
                0.8868189519853444,
                -1.5097950569170429,
                -0.5115337224706538,
                0.5991120569477137,
                -0.29425667433857905,
                -0.8047391685039027
            ]
        },
        {
            "positions": [
                0.8004959244553993,
                -1.5224357930975694,
                -0.4444820628878341,
                0.7013817240151832,
                -0.23346190125967525,
                -0.8641086419116932
            ]
        },
        {
            "positions": [
                0.7141728969254539,
                -1.5350765292780957,
                -0.37743040330501443,
                0.8036513910826526,
                -0.17266712818077146,
                -0.9234781153194838
            ]
        },
        {
            "positions": [
                0.6278498693955084,
                -1.5477172654586222,
                -0.31037874372219454,
                0.9059210581501225,
                -0.11187235510186744,
                -0.9828475887272745
            ]
        },
        {
            "positions": [
                0.5415268418655632,
                -1.5603580016391487,
                -0.24332708413937487,
                1.008190725217592,
                -0.05107758202296364,
                -1.042217062135065
            ]
        },
        {
            "positions": [
                0.4552038143356179,
                -1.5729987378196753,
                -0.17627542455655512,
                1.1104603922850613,
                0.009717191055940114,
                -1.1015865355428556
            ]
        },
        {
            "positions": [
                0.3966198776437664,
                -1.5598259614548262,
                -0.015286517783509423,
                1.1222990119985277,
                0.03712845396573969,
                -0.9859915943955639
            ]
        },
        {
            "positions": [
                0.3380359409519149,
                -1.5466531850899772,
                0.14570238898953627,
                1.1341376317119938,
                0.06453971687553928,
                -0.8703966532482723
            ]
        },
        {
            "positions": [
                0.27945200426006345,
                -1.5334804087251281,
                0.30669129576258203,
                1.1459762514254601,
                0.09195097978533885,
                -0.7548017121009807
            ]
        },
        {
            "positions": [
                0.22086806756821192,
                -1.520307632360279,
                0.4676802025356277,
                1.1578148711389262,
                0.11936224269513843,
                -0.639206770953689
            ]
        },
        {
            "positions": [
                0.1622841308763604,
                -1.50713485599543,
                0.6286691093086734,
                1.1696534908523926,
                0.14677350560493801,
                -0.5236118298063974
            ]
        },
        {
            "positions": [
                0.10370019418450893,
                -1.493962079630581,
                0.7896580160817191,
                1.1814921105658587,
                0.17418476851473758,
                -0.4080168886591058
            ]
        },
        {
            "positions": [
                0.04511625749265746,
                -1.480789303265732,
                0.9506469228547648,
                1.193330730279325,
                0.20159603142453714,
                -0.2924219475118143
            ]
        },
        {
            "positions": [
                -0.01346767919919406,
                -1.467616526900883,
                1.1116358296278104,
                1.2051693499927911,
                0.22900729433433675,
                -0.17682700636452264
            ]
        },
        {
            "positions": [
                -0.07205161589104553,
                -1.4544437505360337,
                1.272624736400856,
                1.2170079697062575,
                0.2564185572441363,
                -0.0612320652172309
            ]
        },
        {
            "positions": [
                -0.1306355525828971,
                -1.4412709741711847,
                1.4336136431739017,
                1.2288465894197236,
                0.2838298201539359,
                0.05436287593006073
            ]
        },
        {
            "positions": [
                -0.18921948927474858,
                -1.4280981978063356,
                1.5946025499469476,
                1.24068520913319,
                0.3112410830637355,
                0.16995781707735236
            ]
        },
        {
            "positions": [
                -0.24780342596660004,
                -1.4149254214414866,
                1.7555914567199933,
                1.252523828846656,
                0.33865234597353505,
                0.285552758224644
            ]
        },
        {
            "positions": [
                -0.3063873626584515,
                -1.4017526450766375,
                1.9165803634930385,
                1.2643624485601224,
                0.36606360888333456,
                0.4011476993719354
            ]
        },
        {
            "positions": [
                -0.364971299350303,
                -1.3885798687117885,
                2.0775692702660846,
                1.2762010682735885,
                0.3934748717931342,
                0.516742640519227
            ]
        },
        {
            "positions": [
                -0.42355523604215445,
                -1.3754070923469395,
                2.2385581770391303,
                1.2880396879870548,
                0.42088613470293373,
                0.6323375816665187
            ]
        },
        {
            "positions": [
                -0.482139172734006,
                -1.3622343159820904,
                2.399547083812176,
                1.2998783077005212,
                0.44829739761273335,
                0.7479325228138103
            ]
        },
        {
            "positions": [
                -0.5407231094258574,
                -1.3490615396172414,
                2.5605359905852216,
                1.3117169274139873,
                0.4757086605225329,
                0.8635274639611019
            ]
        },
        {
            "positions": [
                -0.48039325611194256,
                -1.2979000639431628,
                2.5111149147209346,
                1.3739785641238558,
                0.42004676624129317,
                0.7770424559924822
            ]
        },
        {
            "positions": [
                -0.42006340279802773,
                -1.246738588269084,
                2.461693838856648,
                1.436240200833724,
                0.3643848719600534,
                0.6905574480238625
            ]
        },
        {
            "positions": [
                -0.35973354948411285,
                -1.1955771125950054,
                2.412272762992361,
                1.4985018375435926,
                0.3087229776788137,
                0.6040724400552429
            ]
        },
        {
            "positions": [
                -0.299403696170198,
                -1.1444156369209268,
                2.362851687128074,
                1.560763474253461,
                0.25306108339757394,
                0.5175874320866232
            ]
        },
        {
            "positions": [
                -0.23907384285628314,
                -1.0932541612468483,
                2.3134306112637875,
                1.6230251109633294,
                0.1973991891163342,
                0.4311024241180036
            ]
        },
        {
            "positions": [
                -0.1787439895423683,
                -1.0420926855727695,
                2.2640095353995005,
                1.6852867476731979,
                0.14173729483509445,
                0.3446174161493839
            ]
        },
        {
            "positions": [
                -0.11841413622845343,
                -0.9909312098986909,
                2.2145884595352134,
                1.7475483843830664,
                0.08607540055385465,
                0.2581324081807642
            ]
        },
        {
            "positions": [
                -0.05808428291453854,
                -0.9397697342246123,
                2.165167383670927,
                1.8098100210929347,
                0.03041350627261491,
                0.17164740021214453
            ]
        },
        {
            "positions": [
                0.00224557039937634,
                -0.8886082585505336,
                2.11574630780664,
                1.8720716578028032,
                -0.025248388008624834,
                0.08516239224352484
            ]
        },
        {
            "positions": [
                0.06257542371329117,
                -0.837446782876455,
                2.0663252319423533,
                1.9343332945126717,
                -0.08091028228986452,
                -0.0013226157250947335
            ]
        },
        {
            "positions": [
                0.12290527702720604,
                -0.7862853072023763,
                2.0169041560780663,
                1.99659493122254,
                -0.13657217657110426,
                -0.08780762369371439
            ]
        }
    ]
}