{
    "goal": {
        "global_pose": {
            "orientation": {
                "w": 0.5084816217422485,
                "x": -0.49083608388900757,
                "y": 0.5182115435600281,
                "z": -0.4816462993621826
            },
            "position": {
                "x": 0.5540239810943604,
                "y": 0.030875300988554955,
                "z": 0.16403168439865112
            }
        },
        "name": "move_to_storage"
    },
    "id": "RRT_move_to_storage_9",
    "joint_names": [
        "shoulder_pan_joint",
        "shoulder_lift_joint",
        "elbow_joint",
        "wrist_1_joint",
        "wrist_2_joint",
        "wrist_3_joint"
    ],
    "metrics": {
        "cart_traj_len": 0.35284392465213793,
        "distance_elbow_joint": 0.4503433061893962,
        "distance_shoulder_lift_joint": 0.23309832702647526,
        "distance_shoulder_pan_joint": 0.46029241922763514,
        "distance_wrist_1_joint": 0.24927279497080757,
        "distance_wrist_2_joint": 1.1022442109900505,
        "distance_wrist_3_joint": 0.09988958480150822,
        "smoothness": 2.2204460668324854e-16,
        "time": 0.016746508,
        "traj_len": 1.6109440223688323,
        "weighted_distance": 2.0362801425073487
    },
    "planner": "RRT",
    "start": {
        "state": {
            "elbow_joint": 1.9715474092553085,
            "shoulder_lift_joint": -1.1394846673180945,
            "shoulder_pan_joint": 0.1228115366877952,
            "wrist_1_joint": -0.7804686583030105,
            "wrist_2_joint": 0.12958649594027716,
            "wrist_3_joint": -3.192492341365726
        }
    },
    "waypoints": [
        {
            "positions": [
                0.1228115366877952,
                -1.1394846673180945,
                1.9715474092553085,
                -0.7804686583030105,
                0.12958649594027716,
                -3.192492341365726
            ]
        },
        {
            "positions": [
                0.05705547679813304,
                -1.1727844283218767,
                2.0358821672823653,
                -0.8160790575845545,
                0.28704995465314154,
                -3.1782224006797963
            ]
        },
        {
            "positions": [
                -0.008700583091529115,
                -1.2060841893256589,
                2.1002169253094216,
                -0.8516894568660983,
                0.44451341336600586,
                -3.1639524599938667
            ]
        },
        {
            "positions": [
                -0.07445664298119127,
                -1.239383950329441,
                2.1645516833364784,
                -0.8872998561476423,
                0.6019768720788703,
                -3.149682519307937
            ]
        },
        {
            "positions": [
                -0.1402127028708534,
                -1.2726837113332232,
                2.2288864413635348,
                -0.9229102554291863,
                0.7594403307917346,
                -3.135412578622007
            ]
        },
        {
            "positions": [
                -0.20596876276051562,
                -1.3059834723370054,
                2.2932211993905915,
                -0.9585206547107301,
                0.9169037895045989,
                -3.121142637936077
            ]
        },
        {
            "positions": [
                -0.2717248226501777,
                -1.3392832333407876,
                2.357555957417648,
                -0.9941310539922741,
                1.0743672482174633,
                -3.1068726972501475
            ]
        },
        {
            "positions": [
                -0.33748088253983993,
                -1.3725829943445698,
                2.4218907154447047,
                -1.029741453273818,
                1.2318307069303278,
                -3.092602756564218
            ]
        }
    ]
}