{
    "goal": {
        "global_pose": {
            "orientation": {
                "w": 0.5084816217422485,
                "x": -0.49083608388900757,
                "y": 0.5182115435600281,
                "z": -0.4816462993621826
            },
            "position": {
                "x": 0.5540239810943604,
                "y": 0.030875300988554955,
                "z": 0.16403168439865112
            }
        },
        "name": "move_to_storage"
    },
    "id": "RRTConnect_move_to_storage_7",
    "joint_names": [
        "shoulder_pan_joint",
        "shoulder_lift_joint",
        "elbow_joint",
        "wrist_1_joint",
        "wrist_2_joint",
        "wrist_3_joint"
    ],
    "metrics": {
        "cart_traj_len": 0.3534026409821047,
        "distance_elbow_joint": 0.4503755763836197,
        "distance_shoulder_lift_joint": 0.23267772806324505,
        "distance_shoulder_pan_joint": 0.46310112990185787,
        "distance_wrist_1_joint": 0.25129801024082,
        "distance_wrist_2_joint": 1.0939601569359714,
        "distance_wrist_3_joint": 0.10534423402768622,
        "smoothness": 2.2204460668324854e-16,
        "time": 0.037196809,
        "traj_len": 1.6114455732519173,
        "weighted_distance": 2.0378183115246964
    },
    "planner": "RRTConnect",
    "start": {
        "state": {
            "elbow_joint": 1.9715474092553085,
            "shoulder_lift_joint": -1.1394846673180945,
            "shoulder_pan_joint": 0.1228115366877952,
            "wrist_1_joint": -0.7804686583030105,
            "wrist_2_joint": 0.12958649594027716,
            "wrist_3_joint": -3.192492341365726
        }
    },
    "waypoints": [
        {
            "positions": [
                0.1228115366877952,
                -1.1394846673180945,
                1.9715474092553085,
                -0.7804686583030105,
                0.12958649594027716,
                -3.192492341365726
            ]
        },
        {
            "positions": [
                0.05665423241610122,
                -1.172724342755701,
                2.0358867773101115,
                -0.816368374051699,
                0.28586651835970167,
                -3.1774431650760566
            ]
        },
        {
            "positions": [
                -0.009503071855592751,
                -1.2059640181933073,
                2.100226145364914,
                -0.8522680898003876,
                0.44214654077912613,
                -3.1623939887863872
            ]
        },
        {
            "positions": [
                -0.07566037612728672,
                -1.2392036936309139,
                2.164565513419717,
                -0.8881678055490762,
                0.5984265631985506,
                -3.147344812496718
            ]
        },
        {
            "positions": [
                -0.14181768039898068,
                -1.2724433690685202,
                2.2289048814745196,
                -0.9240675212977647,
                0.7547065856179751,
                -3.132295636207048
            ]
        },
        {
            "positions": [
                -0.2079749846706747,
                -1.3056830445061267,
                2.2932442495293226,
                -0.9599672370464534,
                0.9109866080373996,
                -3.1172464599173786
            ]
        },
        {
            "positions": [
                -0.27413228894236863,
                -1.338922719943733,
                2.357583617584125,
                -0.9958669527951419,
                1.0672666304568241,
                -3.102197283627709
            ]
        },
        {
            "positions": [
                -0.34028959321406266,
                -1.3721623953813396,
                2.421922985638928,
                -1.0317666685438305,
                1.2235466528762486,
                -3.08714810733804
            ]
        }
    ]
}