{
    "goal": {
        "global_pose": {
            "orientation": {
                "w": 0.7031023502349854,
                "x": -0.7110244035720825,
                "y": 0.007748599164187908,
                "z": 0.005598929710686207
            },
            "position": {
                "x": 0.11585023208521307,
                "y": 0.44412534475326537,
                "z": 0.3711530566215515
            }
        },
        "name": "move_to_auspresseinheit"
    },
    "id": "RRTConnect_move_to_auspresseinheit_10",
    "joint_names": [
        "shoulder_pan_joint",
        "shoulder_lift_joint",
        "elbow_joint",
        "wrist_1_joint",
        "wrist_2_joint",
        "wrist_3_joint"
    ],
    "metrics": {
        "cart_traj_len": 1.8209505343347625,
        "distance_elbow_joint": 1.0334796720291783,
        "distance_shoulder_lift_joint": 1.1537540618749393,
        "distance_shoulder_pan_joint": 3.498065124974292,
        "distance_wrist_1_joint": 1.750469997193254,
        "distance_wrist_2_joint": 0.5880305704429084,
        "distance_wrist_3_joint": 4.7080024018956514,
        "smoothness": 0.8292641537961819,
        "time": 0.100365416,
        "traj_len": 3.5681650506121807,
        "weighted_distance": 4.9483640932976725
    },
    "planner": "RRTConnect",
    "start": {
        "state": {
            "elbow_joint": 2.4225745326682886,
            "shoulder_lift_joint": -1.3736534990239282,
            "shoulder_pan_joint": -0.3378633610955803,
            "wrist_1_joint": -1.02885917317252,
            "wrist_2_joint": 1.233022905420004,
            "wrist_3_joint": -3.09402240754724
        }
    },
    "waypoints": [
        {
            "positions": [
                -0.3378633610955803,
                -1.3736534990239282,
                2.4225745326682886,
                -1.02885917317252,
                1.233022905420004,
                -3.09402240754724
            ]
        },
        {
            "positions": [
                -0.4101391759567445,
                -1.4233116951330251,
                2.391346133845882,
                -0.9608841630942053,
                1.1999786168957651,
                -2.9569103069058333
            ]
        },
        {
            "positions": [
                -0.4824149908179086,
                -1.4729698912421219,
                2.360117735023475,
                -0.8929091530158906,
                1.1669343283715263,
                -2.819798206264427
            ]
        },
        {
            "positions": [
                -0.5546908056790728,
                -1.5226280873512188,
                2.3288893362010685,
                -0.8249341429375758,
                1.1338900398472875,
                -2.68268610562302
            ]
        },
        {
            "positions": [
                -0.626966620540237,
                -1.5722862834603155,
                2.297660937378662,
                -0.7569591328592612,
                1.1008457513230487,
                -2.5455740049816136
            ]
        },
        {
            "positions": [
                -0.6992424354014012,
                -1.6219444795694125,
                2.2664325385562547,
                -0.6889841227809465,
                1.06780146279881,
                -2.408461904340207
            ]
        },
        {
            "positions": [
                -0.7715182502625654,
                -1.6716026756785092,
                2.235204139733848,
                -0.6210091127026317,
                1.0347571742745711,
                -2.2713498036988007
            ]
        },
        {
            "positions": [
                -0.8437940651237295,
                -1.7212608717876061,
                2.2039757409114413,
                -0.5530341026243171,
                1.0017128857503323,
                -2.1342377030573942
            ]
        },
        {
            "positions": [
                -0.9160698799848936,
                -1.770919067896703,
                2.1727473420890346,
                -0.4850590925460023,
                0.9686685972260936,
                -1.9971256024159876
            ]
        },
        {
            "positions": [
                -0.9883456948460578,
                -1.8205772640057998,
                2.141518943266628,
                -0.4170840824676876,
                0.9356243087018548,
                -1.8600135017745811
            ]
        },
        {
            "positions": [
                -1.060621509707222,
                -1.8702354601148967,
                2.1102905444442213,
                -0.34910907238937283,
                0.902580020177616,
                -1.7229014011331745
            ]
        },
        {
            "positions": [
                -1.1328973245683862,
                -1.9198936562239934,
                2.0790621456218146,
                -0.2811340623110581,
                0.8695357316533772,
                -1.585789300491768
            ]
        },
        {
            "positions": [
                -1.2051731394295504,
                -1.9695518523330904,
                2.047833746799408,
                -0.21315905223274334,
                0.8364914431291384,
                -1.4486771998503614
            ]
        },
        {
            "positions": [
                -1.2774489542907146,
                -2.0192100484421873,
                2.016605347977001,
                -0.14518404215442882,
                0.8034471546048997,
                -1.3115650992089551
            ]
        },
        {
            "positions": [
                -1.3497247691518788,
                -2.0688682445512843,
                1.9853769491545943,
                -0.07720903207611407,
                0.7704028660806609,
                -1.1744529985675485
            ]
        },
        {
            "positions": [
                -1.422000584013043,
                -2.1185264406603808,
                1.9541485503321874,
                -0.009234021997799324,
                0.7373585775564221,
                -1.0373408979261418
            ]
        },
        {
            "positions": [
                -1.4942763988742072,
                -2.1681846367694777,
                1.9229201515097807,
                0.05874098808051542,
                0.7043142890321833,
                -0.9002287972847354
            ]
        },
        {
            "positions": [
                -1.5665522137353713,
                -2.2178428328785746,
                1.891691752687374,
                0.12671599815883025,
                0.6712700005079445,
                -0.7631166966433289
            ]
        },
        {
            "positions": [
                -1.4283881025435954,
                -2.19979879085661,
                1.9252793837421172,
                0.0898674925157367,
                0.6727425177013663,
                -0.9083799566969605
            ]
        },
        {
            "positions": [
                -1.2902239913518192,
                -2.181754748834645,
                1.95886701479686,
                0.05301898687264313,
                0.6742150348947881,
                -1.053643216750592
            ]
        },
        {
            "positions": [
                -1.1520598801600432,
                -2.163710706812681,
                1.9924546458516033,
                0.016170481229549574,
                0.67568755208821,
                -1.1989064768042235
            ]
        },
        {
            "positions": [
                -1.013895768968267,
                -2.145666664790716,
                2.026042276906346,
                -0.020678024413543994,
                0.6771600692816317,
                -1.3441697368578551
            ]
        },
        {
            "positions": [
                -0.8757316577764911,
                -2.1276226227687514,
                2.0596299079610896,
                -0.057526530056637576,
                0.6786325864750535,
                -1.4894329969114866
            ]
        },
        {
            "positions": [
                -0.737567546584715,
                -2.1095785807467866,
                2.0932175390158325,
                -0.0943750356997311,
                0.6801051036684753,
                -1.634696256965118
            ]
        },
        {
            "positions": [
                -0.5994034353929389,
                -2.0915345387248223,
                2.1268051700705755,
                -0.13122354134282468,
                0.6815776208618971,
                -1.7799595170187497
            ]
        },
        {
            "positions": [
                -0.461239324201163,
                -2.0734904967028576,
                2.160392801125319,
                -0.16807204698591824,
                0.683050138055319,
                -1.925222777072381
            ]
        },
        {
            "positions": [
                -0.3230752130093868,
                -2.055446454680893,
                2.193980432180062,
                -0.20492055262901185,
                0.6845226552487408,
                -2.0704860371260128
            ]
        },
        {
            "positions": [
                -0.18491110181761083,
                -2.037402412658928,
                2.227568063234805,
                -0.2417690582721054,
                0.6859951724421626,
                -2.215749297179644
            ]
        },
        {
            "positions": [
                -0.04674699062583465,
                -2.0193583706369633,
                2.261155694289548,
                -0.2786175639151989,
                0.6874676896355844,
                -2.361012557233276
            ]
        },
        {
            "positions": [
                0.09141712056594131,
                -2.001314328614999,
                2.294743325344291,
                -0.3154660695582925,
                0.6889402068290063,
                -2.506275817286907
            ]
        },
        {
            "positions": [
                0.2295812317577175,
                -1.9832702865930343,
                2.3283309563990344,
                -0.3523145752013861,
                0.690412724022428,
                -2.651539077340539
            ]
        },
        {
            "positions": [
                0.36774534294949346,
                -1.9652262445710695,
                2.3619185874537774,
                -0.3891630808444796,
                0.6918852412158498,
                -2.7968023373941704
            ]
        },
        {
            "positions": [
                0.4794382481660387,
                -1.9462435313334736,
                2.372708606547731,
                -0.41550166313067743,
                0.693772716156831,
                -2.9112726874744705
            ]
        },
        {
            "positions": [
                0.5911311533825839,
                -1.9272608180958777,
                2.383498625641684,
                -0.4418402454168752,
                0.6956601910978123,
                -3.0257430375547707
            ]
        },
        {
            "positions": [
                0.7028240585991292,
                -1.9082781048582818,
                2.3942886447356377,
                -0.46817882770307306,
                0.6975476660387935,
                -3.140213387635071
            ]
        }
    ]
}