{
    "goal": {
        "global_pose": {
            "orientation": {
                "w": 0.7047431468963623,
                "x": -0.7094548344612122,
                "y": 0.0024358443915843964,
                "z": -0.0022348060738295317
            },
            "position": {
                "x": 0.6094750761985779,
                "y": 0.3671506643295288,
                "z": 0.19426114857196808
            }
        },
        "name": "move_to_magneteinheit_target"
    },
    "id": "RRTConnect_move_to_magneteinheit_target_2",
    "joint_names": [
        "shoulder_pan_joint",
        "shoulder_lift_joint",
        "elbow_joint",
        "wrist_1_joint",
        "wrist_2_joint",
        "wrist_3_joint"
    ],
    "metrics": {
        "cart_traj_len": 3.5874262693571826,
        "distance_elbow_joint": 3.8735520059399446,
        "distance_shoulder_lift_joint": 0.11549554716035915,
        "distance_shoulder_pan_joint": 2.9985882713953713,
        "distance_wrist_1_joint": 0.8459453468572381,
        "distance_wrist_2_joint": 1.7041579731078829,
        "distance_wrist_3_joint": 2.573752133777037,
        "smoothness": 0.0817837836686491,
        "time": 0.079046319,
        "traj_len": 3.480156789318239,
        "weighted_distance": 4.450741383832252
    },
    "planner": "RRTConnect",
    "start": {
        "state": {
            "elbow_joint": -1.9196185737098679,
            "shoulder_lift_joint": -1.2443395971259867,
            "shoulder_pan_joint": 2.6996025301141957,
            "wrist_1_joint": -1.548550951469146,
            "wrist_2_joint": -1.5709469089955597,
            "wrist_3_joint": 0.4420197730596999
        }
    },
    "waypoints": [
        {
            "positions": [
                2.6996025301141957,
                -1.2443395971259867,
                -1.9196185737098679,
                -1.548550951469146,
                -1.5709469089955597,
                0.4420197730596999
            ]
        },
        {
            "positions": [
                2.58270639526369,
                -1.2401210035946706,
                -1.8363788938141297,
                -1.5398505210573075,
                -1.5552072526272205,
                0.5031098321847507
            ]
        },
        {
            "positions": [
                2.4658102604131846,
                -1.2359024100633547,
                -1.7531392139183914,
                -1.531150090645469,
                -1.5394675962588813,
                0.5641998913098014
            ]
        },
        {
            "positions": [
                2.3594169150348687,
                -1.231572624790174,
                -1.6237790674786186,
                -1.497669703308468,
                -1.4820955521924641,
                0.6161172407415628
            ]
        },
        {
            "positions": [
                2.2530235696565533,
                -1.2272428395169934,
                -1.4944189210388454,
                -1.464189315971467,
                -1.424723508126047,
                0.6680345901733242
            ]
        },
        {
            "positions": [
                2.1466302242782374,
                -1.2229130542438127,
                -1.3650587745990725,
                -1.4307089286344659,
                -1.3673514640596296,
                0.7199519396050856
            ]
        },
        {
            "positions": [
                2.040236878899922,
                -1.2185832689706322,
                -1.2356986281592994,
                -1.397228541297465,
                -1.3099794199932124,
                0.771869289036847
            ]
        },
        {
            "positions": [
                1.933843533521606,
                -1.2142534836974515,
                -1.1063384817195265,
                -1.363748153960464,
                -1.2526073759267953,
                0.8237866384686084
            ]
        },
        {
            "positions": [
                1.8274501881432905,
                -1.2099236984242707,
                -0.9769783352797535,
                -1.330267766623463,
                -1.1952353318603781,
                0.8757039879003699
            ]
        },
        {
            "positions": [
                1.7210568427649746,
                -1.2055939131510902,
                -0.8476181888399805,
                -1.296787379286462,
                -1.137863287793961,
                0.9276213373321313
            ]
        },
        {
            "positions": [
                1.6146634973866592,
                -1.2012641278779095,
                -0.7182580424002076,
                -1.263306991949461,
                -1.0804912437275438,
                0.9795386867638927
            ]
        },
        {
            "positions": [
                1.5082701520083432,
                -1.196934342604729,
                -0.5888978959604345,
                -1.22982660461246,
                -1.0231191996611266,
                1.031456036195654
            ]
        },
        {
            "positions": [
                1.4018768066300276,
                -1.1926045573315482,
                -0.4595377495206616,
                -1.196346217275459,
                -0.9657471555947093,
                1.0833733856274155
            ]
        },
        {
            "positions": [
                1.2954834612517119,
                -1.1882747720583677,
                -0.3301776030808887,
                -1.162865829938458,
                -0.9083751115282922,
                1.135290735059177
            ]
        },
        {
            "positions": [
                1.1890901158733962,
                -1.183944986785187,
                -0.2008174566411156,
                -1.1293854426014571,
                -0.8510030674618749,
                1.1872080844909383
            ]
        },
        {
            "positions": [
                1.0826967704950805,
                -1.1796152015120063,
                -0.07145731020134272,
                -1.095905055264456,
                -0.7936310233954578,
                1.2391254339226996
            ]
        },
        {
            "positions": [
                0.9763034251167646,
                -1.1752854162388258,
                0.0579028362384304,
                -1.0624246679274552,
                -0.7362589793290405,
                1.291042783354461
            ]
        },
        {
            "positions": [
                0.8699100797384491,
                -1.170955630965645,
                0.1872629826782033,
                -1.028944280590454,
                -0.6788869352626233,
                1.3429601327862226
            ]
        },
        {
            "positions": [
                0.7635167343601335,
                -1.1666258456924645,
                0.3166231291179762,
                -0.9954638932534532,
                -0.6215148911962062,
                1.394877482217984
            ]
        },
        {
            "positions": [
                0.6571233889818175,
                -1.1622960604192838,
                0.4459832755577495,
                -0.9619835059164521,
                -0.5641428471297889,
                1.4467948316497452
            ]
        },
        {
            "positions": [
                0.5507300436035019,
                -1.1579662751461033,
                0.5753434219975224,
                -0.9285031185794511,
                -0.5067708030633717,
                1.4987121810815067
            ]
        },
        {
            "positions": [
                0.4443366982251864,
                -1.1536364898729226,
                0.7047035684372953,
                -0.8950227312424501,
                -0.4493987589969546,
                1.5506295305132682
            ]
        },
        {
            "positions": [
                0.3379433528468705,
                -1.1493067045997418,
                0.8340637148770682,
                -0.8615423439054491,
                -0.3920267149305372,
                1.6025468799450295
            ]
        },
        {
            "positions": [
                0.23155000746855503,
                -1.1449769193265613,
                0.9634238613168411,
                -0.8280619565684482,
                -0.33465467086412004,
                1.6544642293767908
            ]
        },
        {
            "positions": [
                0.12515666209023912,
                -1.1406471340533806,
                1.092784007756614,
                -0.7945815692314472,
                -0.2772826267977031,
                1.7063815788085523
            ]
        },
        {
            "positions": [
                0.018763316711923217,
                -1.1363173487802,
                1.2221441541963873,
                -0.7611011818944462,
                -0.21991058273128572,
                1.7582989282403139
            ]
        },
        {
            "positions": [
                -0.08763002866639216,
                -1.1319875635070193,
                1.3515043006361602,
                -0.7276207945574452,
                -0.16253853866486845,
                1.8102162776720752
            ]
        },
        {
            "positions": [
                -0.05715045999726623,
                -1.131510461752129,
                1.4442951866700193,
                -0.7235835476868048,
                -0.1168340765720711,
                1.9915274445755804
            ]
        },
        {
            "positions": [
                -0.026670891328140288,
                -1.1310333599972384,
                1.5370860727038782,
                -0.7195463008161643,
                -0.07112961447927374,
                2.1728386114790856
            ]
        },
        {
            "positions": [
                0.003808677340985653,
                -1.130556258242348,
                1.6298769587377373,
                -0.715509053945524,
                -0.025425152386476385,
                2.354149778382591
            ]
        },
        {
            "positions": [
                0.03428824601011159,
                -1.1300791564874577,
                1.7226678447715962,
                -0.7114718070748836,
                0.02027930970632097,
                2.535460945286096
            ]
        },
        {
            "positions": [
                0.06476781467923753,
                -1.1296020547325671,
                1.8154587308054553,
                -0.7074345602042431,
                0.06598377179911832,
                2.7167721121896014
            ]
        },
        {
            "positions": [
                0.09524738334836347,
                -1.1291249529776768,
                1.9082496168393144,
                -0.7033973133336027,
                0.11168823389191566,
                2.8980832790931066
            ]
        },
        {
            "positions": [
                0.1237256839483904,
                -1.1288440499656276,
                1.9539334322300765,
                -0.7041890220552974,
                0.13321106411232345,
                3.015771906836737
            ]
        }
    ]
}