{
    "goal": {
        "global_pose": {
            "orientation": {
                "w": 0.7031023502349854,
                "x": -0.7110244035720825,
                "y": 0.007748599164187908,
                "z": 0.005598929710686207
            },
            "position": {
                "x": 0.11585023208521307,
                "y": 0.44412534475326537,
                "z": 0.3711530566215515
            }
        },
        "name": "move_to_auspresseinheit"
    },
    "id": "RRTConnect_move_to_auspresseinheit_3",
    "joint_names": [
        "shoulder_pan_joint",
        "shoulder_lift_joint",
        "elbow_joint",
        "wrist_1_joint",
        "wrist_2_joint",
        "wrist_3_joint"
    ],
    "metrics": {
        "cart_traj_len": 3.3401591360591714,
        "distance_elbow_joint": 8.129973942365593,
        "distance_shoulder_lift_joint": 2.4040405046531483,
        "distance_shoulder_pan_joint": 1.2264842629939054,
        "distance_wrist_1_joint": 5.424701412694358,
        "distance_wrist_2_joint": 3.446388381267267,
        "distance_wrist_3_joint": 0.7472168734180094,
        "smoothness": 0.729172521740793,
        "time": 0.107049981,
        "traj_len": 4.62372202639738,
        "weighted_distance": 5.6342105851831565
    },
    "planner": "RRTConnect",
    "start": {
        "state": {
            "elbow_joint": 2.4225745326682886,
            "shoulder_lift_joint": -1.3736534990239282,
            "shoulder_pan_joint": -0.3378633610955803,
            "wrist_1_joint": -1.02885917317252,
            "wrist_2_joint": 1.233022905420004,
            "wrist_3_joint": -3.09402240754724
        }
    },
    "waypoints": [
        {
            "positions": [
                -0.3378633610955803,
                -1.3736534990239282,
                2.4225745326682886,
                -1.02885917317252,
                1.233022905420004,
                -3.09402240754724
            ]
        },
        {
            "positions": [
                -0.3037470231250367,
                -1.3403374823624468,
                2.2783192137842336,
                -0.9274213563119146,
                1.1630775521662653,
                -3.0814892791544684
            ]
        },
        {
            "positions": [
                -0.26963068515449307,
                -1.3070214657009653,
                2.1340638949001782,
                -0.8259835394513091,
                1.0931321989125267,
                -3.068956150761697
            ]
        },
        {
            "positions": [
                -0.23551434718394948,
                -1.273705449039484,
                1.9898085760161233,
                -0.7245457225907037,
                1.023186845658788,
                -3.0564230223689255
            ]
        },
        {
            "positions": [
                -0.20139800921340587,
                -1.2403894323780025,
                1.8455532571320683,
                -0.6231079057300982,
                0.9532414924050494,
                -3.043889893976154
            ]
        },
        {
            "positions": [
                -0.16728167124286225,
                -1.207073415716521,
                1.701297938248013,
                -0.5216700888694927,
                0.8832961391513107,
                -3.0313567655833826
            ]
        },
        {
            "positions": [
                -0.13316533327231864,
                -1.1737573990550394,
                1.557042619363958,
                -0.42023227200888724,
                0.8133507858975721,
                -3.018823637190611
            ]
        },
        {
            "positions": [
                -0.09904899530177502,
                -1.140441382393558,
                1.4127873004799028,
                -0.31879445514828175,
                0.7434054326438334,
                -3.0062905087978398
            ]
        },
        {
            "positions": [
                -0.06493265733123144,
                -1.1071253657320765,
                1.2685319815958478,
                -0.21735663828767637,
                0.6734600793900948,
                -2.9937573804050683
            ]
        },
        {
            "positions": [
                -0.030816319360687794,
                -1.073809349070595,
                1.1242766627117924,
                -0.11591882142707077,
                0.603514726136356,
                -2.981224252012297
            ]
        },
        {
            "positions": [
                0.0033000186098557927,
                -1.0404933324091137,
                0.9800213438277374,
                -0.014481004566465394,
                0.5335693728826174,
                -2.9686911236195255
            ]
        },
        {
            "positions": [
                0.037416356580399435,
                -1.0071773157476323,
                0.8357660249436822,
                0.0869568122941402,
                0.4636240196288789,
                -2.956157995226754
            ]
        },
        {
            "positions": [
                0.07153269455094302,
                -0.9738612990861508,
                0.6915107060596273,
                0.18839462915474559,
                0.39367866637514026,
                -2.9436248668339826
            ]
        },
        {
            "positions": [
                0.10564903252148666,
                -0.9405452824246693,
                0.5472553871755719,
                0.2898324460153512,
                0.3237333131214015,
                -2.9310917384412107
            ]
        },
        {
            "positions": [
                0.13976537049203025,
                -0.9072292657631879,
                0.4030000682915169,
                0.39127026287595656,
                0.2537879598676629,
                -2.9185586100484393
            ]
        },
        {
            "positions": [
                0.17388170846257384,
                -0.8739132491017064,
                0.25874474940746195,
                0.49270807973656194,
                0.18384260661392426,
                -2.906025481655668
            ]
        },
        {
            "positions": [
                0.20799804643311742,
                -0.840597232440225,
                0.11448943052340699,
                0.5941458965971673,
                0.11389725336018564,
                -2.8934923532628964
            ]
        },
        {
            "positions": [
                0.242114384403661,
                -0.8072812157787436,
                -0.029765888360648418,
                0.6955837134577729,
                0.043951900106447006,
                -2.880959224870125
            ]
        },
        {
            "positions": [
                0.2762307223742047,
                -0.773965199117262,
                -0.17402120724470382,
                0.7970215303183785,
                -0.025993453147291845,
                -2.8684260964773536
            ]
        },
        {
            "positions": [
                0.3103470603447483,
                -0.7406491824557806,
                -0.3182765261287588,
                0.8984593471789841,
                -0.09593880640103047,
                -2.855892968084582
            ]
        },
        {
            "positions": [
                0.3444633983152919,
                -0.7073331657942992,
                -0.46253184501281375,
                0.9998971640395893,
                -0.1658841596547691,
                -2.8433598396918107
            ]
        },
        {
            "positions": [
                0.37857973628583547,
                -0.6740171491328177,
                -0.6067871638968687,
                1.1013349809001949,
                -0.2358295129085075,
                -2.8308267112990393
            ]
        },
        {
            "positions": [
                0.41269607425637916,
                -0.6407011324713362,
                -0.7510424827809241,
                1.2027727977608005,
                -0.30577486616224614,
                -2.818293582906268
            ]
        },
        {
            "positions": [
                0.44681241222692275,
                -0.6073851158098548,
                -0.8952978016649791,
                1.3042106146214056,
                -0.37572021941598477,
                -2.8057604545134964
            ]
        },
        {
            "positions": [
                0.48092875019746634,
                -0.5740690991483733,
                -1.039553120549034,
                1.4056484314820112,
                -0.4456655726697234,
                -2.793227326120725
            ]
        },
        {
            "positions": [
                0.51504508816801,
                -0.5407530824868918,
                -1.1838084394330894,
                1.5070862483426168,
                -0.5156109259234622,
                -2.7806941977279536
            ]
        },
        {
            "positions": [
                0.5491614261385536,
                -0.5074370658254104,
                -1.3280637583171448,
                1.6085240652032224,
                -0.5855562791772009,
                -2.768161069335182
            ]
        },
        {
            "positions": [
                0.5832777641090972,
                -0.47412104916392894,
                -1.4723190772011998,
                1.7099618820638276,
                -0.6555016324309395,
                -2.7556279409424107
            ]
        },
        {
            "positions": [
                0.6173941020796407,
                -0.4408050325024475,
                -1.6165743960852548,
                1.8113996989244332,
                -0.7254469856846781,
                -2.7430948125496393
            ]
        },
        {
            "positions": [
                0.6136048145265393,
                -0.5010976943091249,
                -1.4477380988263528,
                1.7098089095950435,
                -0.6643603522615943,
                -2.742747042370259
            ]
        },
        {
            "positions": [
                0.6098155269734379,
                -0.5613903561158022,
                -1.2789018015674511,
                1.608218120265654,
                -0.6032737188385104,
                -2.742399272190878
            ]
        },
        {
            "positions": [
                0.6060262394203364,
                -0.6216830179224797,
                -1.1100655043085492,
                1.5066273309362646,
                -0.5421870854154267,
                -2.7420515020114977
            ]
        },
        {
            "positions": [
                0.6022369518672349,
                -0.681975679729157,
                -0.9412292070496474,
                1.4050365416068749,
                -0.48110045199234286,
                -2.741703731832117
            ]
        },
        {
            "positions": [
                0.5984476643141334,
                -0.7422683415358344,
                -0.7723929097907455,
                1.3034457522774852,
                -0.420013818569259,
                -2.7413559616527365
            ]
        },
        {
            "positions": [
                0.5946583767610321,
                -0.8025610033425118,
                -0.6035566125318437,
                1.2018549629480957,
                -0.3589271851461752,
                -2.7410081914733557
            ]
        },
        {
            "positions": [
                0.5908690892079306,
                -0.8628536651491892,
                -0.43472031527294175,
                1.1002641736187062,
                -0.2978405517230914,
                -2.7406604212939754
            ]
        },
        {
            "positions": [
                0.5870798016548291,
                -0.9231463269558665,
                -0.26588401801404005,
                0.9986733842893165,
                -0.23675391830000758,
                -2.7403126511145945
            ]
        },
        {
            "positions": [
                0.5832905141017277,
                -0.9834389887625439,
                -0.09704772075513812,
                0.8970825949599269,
                -0.17566728487692373,
                -2.739964880935214
            ]
        },
        {
            "positions": [
                0.5795012265486262,
                -1.0437316505692213,
                0.0717885765037638,
                0.7954918056305373,
                -0.11458065145383989,
                -2.7396171107558334
            ]
        },
        {
            "positions": [
                0.5757119389955248,
                -1.1040243123758988,
                0.2406248737626655,
                0.6939010163011479,
                -0.05349401803075615,
                -2.739269340576453
            ]
        },
        {
            "positions": [
                0.5719226514424234,
                -1.164316974182576,
                0.4094611710215674,
                0.5923102269717582,
                0.007592615392327695,
                -2.738921570397072
            ]
        },
        {
            "positions": [
                0.5681333638893219,
                -1.2246096359892533,
                0.5782974682804691,
                0.4907194376423687,
                0.06867924881541143,
                -2.738573800217692
            ]
        },
        {
            "positions": [
                0.5643440763362204,
                -1.2849022977959308,
                0.7471337655393713,
                0.389128648312979,
                0.1297658822384954,
                -2.7382260300383114
            ]
        },
        {
            "positions": [
                0.5605547887831189,
                -1.3451949596026083,
                0.915970062798273,
                0.2875378589835895,
                0.19085251566157913,
                -2.7378782598589306
            ]
        },
        {
            "positions": [
                0.5567655012300176,
                -1.4054876214092855,
                1.0848063600571747,
                0.18594706965419983,
                0.25193914908466297,
                -2.7375304896795503
            ]
        },
        {
            "positions": [
                0.5529762136769161,
                -1.465780283215963,
                1.2536426573160768,
                0.08435628032481013,
                0.31302578250774693,
                -2.7371827195001694
            ]
        },
        {
            "positions": [
                0.5491869261238146,
                -1.5260729450226402,
                1.4224789545749785,
                -0.017234509004579346,
                0.37411241593083067,
                -2.736834949320789
            ]
        },
        {
            "positions": [
                0.5453976385707132,
                -1.5863656068293177,
                1.5913152518338802,
                -0.11882529833396882,
                0.4351990493539144,
                -2.7364871791414083
            ]
        },
        {
            "positions": [
                0.5416083510176117,
                -1.6466582686359952,
                1.7601515490927824,
                -0.22041608766335852,
                0.49628568277699836,
                -2.736139408962028
            ]
        },
        {
            "positions": [
                0.5378190634645102,
                -1.7069509304426724,
                1.928987846351684,
                -0.3220068769927482,
                0.5573723162000821,
                -2.735791638782647
            ]
        },
        {
            "positions": [
                0.5340297759114088,
                -1.76724359224935,
                2.097824143610586,
                -0.42359766632213747,
                0.6184589496231658,
                -2.7354438686032667
            ]
        },
        {
            "positions": [
                0.5302404883583074,
                -1.8275362540560274,
                2.266660440869488,
                -0.5251884556515272,
                0.6795455830462498,
                -2.735096098423886
            ]
        },
        {
            "positions": [
                0.5264512008052059,
                -1.8878289158627046,
                2.4354967381283896,
                -0.626779244980917,
                0.7406322164693335,
                -2.7347483282445055
            ]
        },
        {
            "positions": [
                0.586545833653289,
                -1.8958849674531746,
                2.4225787783289214,
                -0.578024712750231,
                0.733352453799809,
                -2.864062592949597
            ]
        },
        {
            "positions": [
                0.6466404665013721,
                -1.9039410190436443,
                2.4096608185294532,
                -0.5292701805195451,
                0.7260726911302845,
                -2.993376857654689
            ]
        },
        {
            "positions": [
                0.7067350993494552,
                -1.9119970706341143,
                2.396742858729985,
                -0.48051564828885923,
                0.7187929284607599,
                -3.1226911223597806
            ]
        }
    ]
}