{
    "goal": {
        "global_pose": {
            "orientation": {
                "w": 0.7047431468963623,
                "x": -0.7094548344612122,
                "y": 0.0024358443915843964,
                "z": -0.0022348060738295317
            },
            "position": {
                "x": 0.6094750761985779,
                "y": 0.3671506643295288,
                "z": 0.19426114857196808
            }
        },
        "name": "move_to_magneteinheit_target"
    },
    "id": "RRTConnect_move_to_magneteinheit_target_8",
    "joint_names": [
        "shoulder_pan_joint",
        "shoulder_lift_joint",
        "elbow_joint",
        "wrist_1_joint",
        "wrist_2_joint",
        "wrist_3_joint"
    ],
    "metrics": {
        "cart_traj_len": 3.022819959475604,
        "distance_elbow_joint": 3.88076530166357,
        "distance_shoulder_lift_joint": 2.258330147537703,
        "distance_shoulder_pan_joint": 2.857462947241173,
        "distance_wrist_1_joint": 1.9709315000688692,
        "distance_wrist_2_joint": 2.020598679024698,
        "distance_wrist_3_joint": 2.602892692940277,
        "smoothness": 0.16437987542258678,
        "time": 0.079747524,
        "traj_len": 3.94854166351025,
        "weighted_distance": 4.9787846743407576
    },
    "planner": "RRTConnect",
    "start": {
        "state": {
            "elbow_joint": -1.9196185737098679,
            "shoulder_lift_joint": -1.2443395971259867,
            "shoulder_pan_joint": 2.6996025301141957,
            "wrist_1_joint": -1.548550951469146,
            "wrist_2_joint": -1.5709469089955597,
            "wrist_3_joint": 0.4420197730596999
        }
    },
    "waypoints": [
        {
            "positions": [
                2.6996025301141957,
                -1.2443395971259867,
                -1.9196185737098679,
                -1.548550951469146,
                -1.5709469089955597,
                0.4420197730596999
            ]
        },
        {
            "positions": [
                2.6107175269608356,
                -1.2813814056415669,
                -1.7990885795155827,
                -1.5003903268953904,
                -1.5066315849927376,
                0.4700953560152204
            ]
        },
        {
            "positions": [
                2.5218325238074755,
                -1.3184232141571468,
                -1.6785585853212974,
                -1.4522297023216348,
                -1.4423162609899156,
                0.4981709389707409
            ]
        },
        {
            "positions": [
                2.4329475206541153,
                -1.355465022672727,
                -1.5580285911270124,
                -1.4040690777478795,
                -1.3780009369870936,
                0.5262465219262614
            ]
        },
        {
            "positions": [
                2.3440625175007552,
                -1.392506831188307,
                -1.4374985969327272,
                -1.355908453174124,
                -1.3136856129842713,
                0.5543221048817819
            ]
        },
        {
            "positions": [
                2.2551775143473956,
                -1.4295486397038872,
                -1.316968602738442,
                -1.3077478286003683,
                -1.2493702889814493,
                0.5823976878373024
            ]
        },
        {
            "positions": [
                2.1662925111940354,
                -1.4665904482194674,
                -1.196438608544157,
                -1.2595872040266127,
                -1.1850549649786273,
                0.6104732707928229
            ]
        },
        {
            "positions": [
                2.0774075080406753,
                -1.5036322567350473,
                -1.0759086143498715,
                -1.2114265794528571,
                -1.1207396409758053,
                0.6385488537483434
            ]
        },
        {
            "positions": [
                1.9885225048873152,
                -1.5406740652506274,
                -0.9553786201555865,
                -1.1632659548791018,
                -1.0564243169729832,
                0.6666244367038638
            ]
        },
        {
            "positions": [
                1.899637501733955,
                -1.5777158737662076,
                -0.8348486259613013,
                -1.1151053303053462,
                -0.9921089929701611,
                0.6947000196593843
            ]
        },
        {
            "positions": [
                1.810752498580595,
                -1.6147576822817877,
                -0.714318631767016,
                -1.0669447057315906,
                -0.9277936689673391,
                0.7227756026149048
            ]
        },
        {
            "positions": [
                1.7218674954272348,
                -1.6517994907973677,
                -0.593788637572731,
                -1.0187840811578353,
                -0.863478344964517,
                0.7508511855704252
            ]
        },
        {
            "positions": [
                1.632982492273875,
                -1.6888412993129478,
                -0.4732586433784458,
                -0.9706234565840796,
                -0.799163020961695,
                0.7789267685259458
            ]
        },
        {
            "positions": [
                1.5440974891205148,
                -1.725883107828528,
                -0.3527286491841606,
                -0.922462832010324,
                -0.7348476969588729,
                0.8070023514814663
            ]
        },
        {
            "positions": [
                1.4552124859671547,
                -1.762924916344108,
                -0.23219865498987535,
                -0.8743022074365685,
                -0.6705323729560508,
                0.8350779344369867
            ]
        },
        {
            "positions": [
                1.3663274828137946,
                -1.7999667248596882,
                -0.11166866079559012,
                -0.8261415828628129,
                -0.6062170489532287,
                0.8631535173925073
            ]
        },
        {
            "positions": [
                1.2774424796604344,
                -1.8370085333752681,
                0.008861333398694882,
                -0.7779809582890574,
                -0.5419017249504068,
                0.8912291003480277
            ]
        },
        {
            "positions": [
                1.1885574765070746,
                -1.874050341890848,
                0.1293913275929799,
                -0.729820333715302,
                -0.47758640094758475,
                0.9193046833035481
            ]
        },
        {
            "positions": [
                1.0996724733537144,
                -1.9110921504064282,
                0.24992132178726534,
                -0.6816597091415463,
                -0.4132710769447625,
                0.9473802662590687
            ]
        },
        {
            "positions": [
                1.0107874702003543,
                -1.9481339589220084,
                0.37045131598155034,
                -0.6334990845677908,
                -0.3489557529419407,
                0.975455849214589
            ]
        },
        {
            "positions": [
                0.9219024670469942,
                -1.9851757674375885,
                0.4909813101758358,
                -0.5853384599940352,
                -0.28464042893911845,
                1.0035314321701096
            ]
        },
        {
            "positions": [
                0.8330174638936341,
                -2.0222175759531686,
                0.6115113043701208,
                -0.5371778354202796,
                -0.22032510493629642,
                1.0316070151256302
            ]
        },
        {
            "positions": [
                0.7441324607402742,
                -2.059259384468749,
                0.7320412985644058,
                -0.4890172108465243,
                -0.1560097809334744,
                1.0596825980811506
            ]
        },
        {
            "positions": [
                0.6552474575869138,
                -2.096301192984329,
                0.8525712927586913,
                -0.4408565862727687,
                -0.09169445693065237,
                1.0877581810366712
            ]
        },
        {
            "positions": [
                0.5663624544335542,
                -2.1333430014999086,
                0.9731012869529763,
                -0.3926959616990131,
                -0.02737913292783034,
                1.1158337639921916
            ]
        },
        {
            "positions": [
                0.47747745128019403,
                -2.1703848100154888,
                1.0936312811472613,
                -0.34453533712525775,
                0.03693619107499169,
                1.143909346947712
            ]
        },
        {
            "positions": [
                0.3885924481268339,
                -2.207426618531069,
                1.2141612753415467,
                -0.29637471255150194,
                0.10125151507781394,
                1.1719849299032326
            ]
        },
        {
            "positions": [
                0.2997074449734738,
                -2.244468427046649,
                1.3346912695358317,
                -0.24821408797774658,
                0.16556683908063574,
                1.2000605128587531
            ]
        },
        {
            "positions": [
                0.21082244182011367,
                -2.281510235562229,
                1.4552212637301172,
                -0.200053463403991,
                0.229882163083458,
                1.2281360958142735
            ]
        },
        {
            "positions": [
                0.12193743866675366,
                -2.3185520440778093,
                1.5757512579244022,
                -0.1518928388302353,
                0.29419748708628,
                1.2562116787697941
            ]
        },
        {
            "positions": [
                0.10211065064704213,
                -2.182828841639363,
                1.5992260722289884,
                -0.15441474555534654,
                0.2755441147419312,
                1.412290814679155
            ]
        },
        {
            "positions": [
                0.08228386262733059,
                -2.0471056392009164,
                1.6227008865335748,
                -0.15693665228045778,
                0.25689074239758236,
                1.568369950588516
            ]
        },
        {
            "positions": [
                0.06245707460761904,
                -1.9113824367624697,
                1.646175700838161,
                -0.15945855900556902,
                0.23823737005323348,
                1.724449086497877
            ]
        },
        {
            "positions": [
                0.042630286587907504,
                -1.7756592343240232,
                1.6696505151427472,
                -0.16198046573068023,
                0.21958399770888465,
                1.880528222407238
            ]
        },
        {
            "positions": [
                0.022803498568195954,
                -1.6399360318855765,
                1.6931253294473334,
                -0.16450237245579147,
                0.2009306253645358,
                2.036607358316599
            ]
        },
        {
            "positions": [
                0.002976710548484418,
                -1.50421282944713,
                1.7166001437519198,
                -0.1670242791809027,
                0.18227725302018696,
                2.19268649422596
            ]
        },
        {
            "positions": [
                -0.01685007747122713,
                -1.3684896270086835,
                1.740074958056506,
                -0.16954618590601395,
                0.1636238806758381,
                2.348765630135321
            ]
        },
        {
            "positions": [
                0.005976083708939338,
                -1.328743667546408,
                1.7776909770377365,
                -0.2629771512958953,
                0.15783081200945706,
                2.4667151867745396
            ]
        },
        {
            "positions": [
                0.028802244889105807,
                -1.2889977080841324,
                1.815306996018967,
                -0.35640811668577654,
                0.15203774334307602,
                2.584664743413758
            ]
        },
        {
            "positions": [
                0.05162840606927227,
                -1.2492517486218568,
                1.8529230150001974,
                -0.44983908207565787,
                0.14624467467669497,
                2.702614300052977
            ]
        },
        {
            "positions": [
                0.07445456724943875,
                -1.2095057891595813,
                1.8905390339814279,
                -0.5432700474655392,
                0.14045160601031392,
                2.820563856692196
            ]
        },
        {
            "positions": [
                0.09930741471698167,
                -1.1719700663257555,
                1.925842880967565,
                -0.6347181368628667,
                0.13959740507686827,
                2.9327381613460863
            ]
        },
        {
            "positions": [
                0.12416026218452458,
                -1.1344343434919295,
                1.961146727953702,
                -0.7261662262601943,
                0.13874320414342262,
                3.044912465999977
            ]
        }
    ]
}