{
    "goal": {
        "global_pose": {
            "orientation": {
                "w": 0.7047431468963623,
                "x": -0.7094548344612122,
                "y": 0.0024358443915843964,
                "z": -0.0022348060738295317
            },
            "position": {
                "x": 0.6094750761985779,
                "y": 0.3671506643295288,
                "z": 0.19426114857196808
            }
        },
        "name": "move_to_magneteinheit_target"
    },
    "id": "RRTConnect_move_to_magneteinheit_target_5",
    "joint_names": [
        "shoulder_pan_joint",
        "shoulder_lift_joint",
        "elbow_joint",
        "wrist_1_joint",
        "wrist_2_joint",
        "wrist_3_joint"
    ],
    "metrics": {
        "cart_traj_len": 3.3238328518981235,
        "distance_elbow_joint": 4.144556201746661,
        "distance_shoulder_lift_joint": 2.8074683324546257,
        "distance_shoulder_pan_joint": 4.909720635167165,
        "distance_wrist_1_joint": 1.3319209230479048,
        "distance_wrist_2_joint": 2.112205332149757,
        "distance_wrist_3_joint": 6.045003463668133,
        "smoothness": 0.2881119628490082,
        "time": 0.059449472,
        "traj_len": 4.620700692344641,
        "weighted_distance": 6.073302896346287
    },
    "planner": "RRTConnect",
    "start": {
        "state": {
            "elbow_joint": -1.9196185737098679,
            "shoulder_lift_joint": -1.2443395971259867,
            "shoulder_pan_joint": 2.6996025301141957,
            "wrist_1_joint": -1.548550951469146,
            "wrist_2_joint": -1.5709469089955597,
            "wrist_3_joint": 0.4420197730596999
        }
    },
    "waypoints": [
        {
            "positions": [
                2.6996025301141957,
                -1.2443395971259867,
                -1.9196185737098679,
                -1.548550951469146,
                -1.5709469089955597,
                0.4420197730596999
            ]
        },
        {
            "positions": [
                2.59265299398857,
                -1.282804815294539,
                -1.8050754287935746,
                -1.517384474655234,
                -1.516459795934125,
                0.39232677935938265
            ]
        },
        {
            "positions": [
                2.485703457862944,
                -1.3212700334630914,
                -1.6905322838772812,
                -1.4862179978413221,
                -1.4619726828726904,
                0.3426337856590653
            ]
        },
        {
            "positions": [
                2.3787539217373177,
                -1.3597352516316437,
                -1.575989138960988,
                -1.4550515210274102,
                -1.407485569811256,
                0.29294079195874806
            ]
        },
        {
            "positions": [
                2.271804385611692,
                -1.398200469800196,
                -1.4614459940446944,
                -1.4238850442134985,
                -1.3529984567498214,
                0.24324779825843076
            ]
        },
        {
            "positions": [
                2.164854849486066,
                -1.4366656879687483,
                -1.3469028491284012,
                -1.3927185673995865,
                -1.2985113436883868,
                0.1935548045581135
            ]
        },
        {
            "positions": [
                2.0579053133604397,
                -1.4751309061373006,
                -1.232359704212108,
                -1.3615520905856746,
                -1.2440242306269522,
                0.1438618108577962
            ]
        },
        {
            "positions": [
                1.9509557772348138,
                -1.5135961243058529,
                -1.1178165592958145,
                -1.3303856137717627,
                -1.1895371175655176,
                0.09416881715747888
            ]
        },
        {
            "positions": [
                1.844006241109188,
                -1.5520613424744054,
                -1.003273414379521,
                -1.2992191369578507,
                -1.1350500045040832,
                0.04447582345716161
            ]
        },
        {
            "positions": [
                1.7370567049835621,
                -1.5905265606429575,
                -0.888730269463228,
                -1.2680526601439388,
                -1.0805628914426486,
                -0.0052171702431556555
            ]
        },
        {
            "positions": [
                1.6301071688579363,
                -1.62899177881151,
                -0.7741871245469345,
                -1.2368861833300269,
                -1.026075778381214,
                -0.05491016394347292
            ]
        },
        {
            "positions": [
                1.5231576327323102,
                -1.6674569969800621,
                -0.659643979630641,
                -1.205719706516115,
                -0.9715886653197795,
                -0.10460315764379019
            ]
        },
        {
            "positions": [
                1.4162080966066841,
                -1.7059222151486146,
                -0.5451008347143478,
                -1.174553229702203,
                -0.9171015522583449,
                -0.1542961513441075
            ]
        },
        {
            "positions": [
                1.3092585604810583,
                -1.744387433317167,
                -0.4305576897980543,
                -1.1433867528882913,
                -0.8626144391969103,
                -0.20398914504442484
            ]
        },
        {
            "positions": [
                1.2023090243554322,
                -1.7828526514857193,
                -0.31601454488176106,
                -1.1122202760743791,
                -0.8081273261354757,
                -0.25368213874474216
            ]
        },
        {
            "positions": [
                1.0953594882298066,
                -1.8213178696542713,
                -0.2014713999654678,
                -1.0810537992604674,
                -0.7536402130740412,
                -0.30337513244505937
            ]
        },
        {
            "positions": [
                0.9884099521041805,
                -1.8597830878228239,
                -0.08692825504917434,
                -1.0498873224465555,
                -0.6991531000126067,
                -0.3530681261453767
            ]
        },
        {
            "positions": [
                0.8814604159785544,
                -1.8982483059913762,
                0.027614889867118908,
                -1.0187208456326435,
                -0.644665986951172,
                -0.402761119845694
            ]
        },
        {
            "positions": [
                0.7745108798529288,
                -1.9367135241599285,
                0.14215803478341194,
                -0.9875543688187317,
                -0.5901788738897376,
                -0.4524541135460112
            ]
        },
        {
            "positions": [
                0.6675613437273027,
                -1.9751787423284808,
                0.2567011796997054,
                -0.9563878920048198,
                -0.5356917608283029,
                -0.5021471072463284
            ]
        },
        {
            "positions": [
                0.5606118076016768,
                -2.013643960497033,
                0.3712443246159989,
                -0.9252214151909078,
                -0.48120464776686833,
                -0.5518401009466458
            ]
        },
        {
            "positions": [
                0.45366227147605054,
                -2.052109178665585,
                0.48578746953229235,
                -0.8940549383769959,
                -0.4267175347054337,
                -0.601533094646963
            ]
        },
        {
            "positions": [
                0.3467127353504247,
                -2.0905743968341377,
                0.6003306144485858,
                -0.862888461563084,
                -0.37223042164399933,
                -0.6512260883472802
            ]
        },
        {
            "positions": [
                0.23976319922479883,
                -2.1290396150026902,
                0.7148737593648788,
                -0.831721984749172,
                -0.3177433085825647,
                -0.7009190820475977
            ]
        },
        {
            "positions": [
                0.13281366309917253,
                -2.1675048331712423,
                0.8294169042811723,
                -0.8005555079352601,
                -0.2632561955211301,
                -0.7506120757479149
            ]
        },
        {
            "positions": [
                0.025864126973546675,
                -2.205970051339795,
                0.9439600491974658,
                -0.7693890311213483,
                -0.2087690824596955,
                -0.8003050694482323
            ]
        },
        {
            "positions": [
                -0.08108540915207918,
                -2.2444352695083474,
                1.0585031941137593,
                -0.7382225543074363,
                -0.1542819693982609,
                -0.8499980631485495
            ]
        },
        {
            "positions": [
                -0.18803494527770503,
                -2.2829004876768995,
                1.1730463390300527,
                -0.7070560774935244,
                -0.09979485633682628,
                -0.899691056848867
            ]
        },
        {
            "positions": [
                -0.29498448140333133,
                -2.3213657058454515,
                1.2875894839463458,
                -0.6758896006796125,
                -0.045307743275391665,
                -0.9493840505491842
            ]
        },
        {
            "positions": [
                -0.4019340175289572,
                -2.359830924014004,
                1.4021326288626392,
                -0.6447231238657005,
                0.009179369786042946,
                -0.9990770442495014
            ]
        },
        {
            "positions": [
                -0.5088835536545826,
                -2.398296142182556,
                1.5166757737789323,
                -0.6135566470517887,
                0.06366648284747733,
                -1.0487700379498186
            ]
        },
        {
            "positions": [
                -0.6158330897802089,
                -2.4367613603511087,
                1.6312189186952257,
                -0.5823901702378768,
                0.11815359590891172,
                -1.0984630316501358
            ]
        },
        {
            "positions": [
                -0.7227826259058348,
                -2.4752265785196608,
                1.7457620636115192,
                -0.5512236934239649,
                0.17264070897034633,
                -1.1481560253504532
            ]
        },
        {
            "positions": [
                -0.8297321620314606,
                -2.5136917966882133,
                1.8603052085278122,
                -0.520057216610053,
                0.22712782203178095,
                -1.1978490190507705
            ]
        },
        {
            "positions": [
                -0.9366816981570869,
                -2.552157014856766,
                1.9748483534441057,
                -0.48889073979614106,
                0.28161493509321556,
                -1.247542012751088
            ]
        },
        {
            "positions": [
                -1.043631234282713,
                -2.590622233025318,
                2.089391498360399,
                -0.4577242629822291,
                0.33610204815465017,
                -1.297235006451405
            ]
        },
        {
            "positions": [
                -0.9822371884526995,
                -2.5137177226803025,
                2.082257491535326,
                -0.47041343322228113,
                0.32530434420730564,
                -1.0706166546536668
            ]
        },
        {
            "positions": [
                -0.9208431426226861,
                -2.436813212335287,
                2.0751234847102524,
                -0.4831026034623331,
                0.31450664025996117,
                -0.8439983028559285
            ]
        },
        {
            "positions": [
                -0.8594490967926726,
                -2.359908701990271,
                2.0679894778851793,
                -0.4957917737023851,
                0.30370893631261664,
                -0.6173799510581901
            ]
        },
        {
            "positions": [
                -0.7980550509626592,
                -2.2830041916452557,
                2.060855471060106,
                -0.508480943942437,
                0.2929112323652721,
                -0.39076159926045184
            ]
        },
        {
            "positions": [
                -0.7366610051326457,
                -2.2060996813002403,
                2.0537214642350325,
                -0.521170114182489,
                0.28211352841792764,
                -0.16414324746271358
            ]
        },
        {
            "positions": [
                -0.6752669593026321,
                -2.129195170955225,
                2.0465874574099594,
                -0.533859284422541,
                0.2713158244705831,
                0.0624751043350249
            ]
        },
        {
            "positions": [
                -0.6138729134726187,
                -2.0522906606102094,
                2.0394534505848863,
                -0.546548454662593,
                0.2605181205232386,
                0.28909345613276316
            ]
        },
        {
            "positions": [
                -0.5524788676426053,
                -1.9753861502651937,
                2.0323194437598127,
                -0.5592376249026451,
                0.24972041657589408,
                0.5157118079305014
            ]
        },
        {
            "positions": [
                -0.49108482181259183,
                -1.8984816399201783,
                2.0251854369347395,
                -0.571926795142697,
                0.23892271262854958,
                0.7423301597282397
            ]
        },
        {
            "positions": [
                -0.42969077598257843,
                -1.8215771295751626,
                2.0180514301096664,
                -0.584615965382749,
                0.22812500868120505,
                0.9689485115259779
            ]
        },
        {
            "positions": [
                -0.3682967301525648,
                -1.7446726192301472,
                2.010917423284593,
                -0.597305135622801,
                0.21732730473386055,
                1.1955668633237166
            ]
        },
        {
            "positions": [
                -0.3069026843225514,
                -1.6677681088851317,
                2.0037834164595196,
                -0.609994305862853,
                0.20652960078651605,
                1.422185215121455
            ]
        },
        {
            "positions": [
                -0.2455086384925379,
                -1.590863598540116,
                1.9966494096344465,
                -0.622683476102905,
                0.19573189683917153,
                1.6488035669191932
            ]
        },
        {
            "positions": [
                -0.1841145926625245,
                -1.5139590881951006,
                1.9895154028093731,
                -0.635372646342957,
                0.18493419289182703,
                1.8754219187169314
            ]
        },
        {
            "positions": [
                -0.12272054683251099,
                -1.437054577850085,
                1.9823813959842997,
                -0.648061816583009,
                0.1741364889444825,
                2.10204027051467
            ]
        },
        {
            "positions": [
                -0.06132650100249759,
                -1.3601500675050695,
                1.9752473891592266,
                -0.6607509868230609,
                0.163338784997138,
                2.3286586223124077
            ]
        },
        {
            "positions": [
                6.754482751580859e-05,
                -1.283245557160054,
                1.9681133823341532,
                -0.6734401570631129,
                0.1525410810497935,
                2.5552769741101464
            ]
        },
        {
            "positions": [
                0.06146159065752932,
                -1.2063410468150386,
                1.96097937550908,
                -0.6861293273031649,
                0.141743377102449,
                2.7818953259078842
            ]
        },
        {
            "positions": [
                0.12285563648754289,
                -1.129436536470023,
                1.9538453686840067,
                -0.6988184975432169,
                0.13094567315510447,
                3.0085136777056234
            ]
        }
    ]
}