{
    "goal": {
        "global_pose": {
            "orientation": {
                "w": 0.7047431468963623,
                "x": -0.7094548344612122,
                "y": 0.0024358443915843964,
                "z": -0.0022348060738295317
            },
            "position": {
                "x": 0.6094750761985779,
                "y": 0.3671506643295288,
                "z": 0.19426114857196808
            }
        },
        "name": "move_to_magneteinheit_target"
    },
    "id": "RRTConnect_move_to_magneteinheit_target_4",
    "joint_names": [
        "shoulder_pan_joint",
        "shoulder_lift_joint",
        "elbow_joint",
        "wrist_1_joint",
        "wrist_2_joint",
        "wrist_3_joint"
    ],
    "metrics": {
        "cart_traj_len": 3.6782753732648965,
        "distance_elbow_joint": 3.8946073187590686,
        "distance_shoulder_lift_joint": 0.1330913867663177,
        "distance_shoulder_pan_joint": 3.0349577654973725,
        "distance_wrist_1_joint": 0.7466405111328508,
        "distance_wrist_2_joint": 1.6965314619430658,
        "distance_wrist_3_joint": 3.6211985762983585,
        "smoothness": 0.09936354476775046,
        "time": 0.07965971499999999,
        "traj_len": 3.6231239311396775,
        "weighted_distance": 4.77625335865568
    },
    "planner": "RRTConnect",
    "start": {
        "state": {
            "elbow_joint": -1.9196185737098679,
            "shoulder_lift_joint": -1.2443395971259867,
            "shoulder_pan_joint": 2.6996025301141957,
            "wrist_1_joint": -1.548550951469146,
            "wrist_2_joint": -1.5709469089955597,
            "wrist_3_joint": 0.4420197730596999
        }
    },
    "waypoints": [
        {
            "positions": [
                2.6996025301141957,
                -1.2443395971259867,
                -1.9196185737098679,
                -1.548550951469146,
                -1.5709469089955597,
                0.4420197730596999
            ]
        },
        {
            "positions": [
                2.5994135769614983,
                -1.2401274426881663,
                -1.8200155134100569,
                -1.5324600946597393,
                -1.523803671566601,
                0.3211624679076222
            ]
        },
        {
            "positions": [
                2.499224623808801,
                -1.2359152882503461,
                -1.7204124531102458,
                -1.5163692378503326,
                -1.4766604341376424,
                0.20030516275554447
            ]
        },
        {
            "positions": [
                2.3990356706561036,
                -1.2317031338125257,
                -1.6208093928104348,
                -1.500278381040926,
                -1.4295171967086837,
                0.07944785760346679
            ]
        },
        {
            "positions": [
                2.298846717503406,
                -1.2274909793747053,
                -1.5212063325106238,
                -1.4841875242315192,
                -1.382373959279725,
                -0.04140944754861098
            ]
        },
        {
            "positions": [
                2.198657764350709,
                -1.2232788249368851,
                -1.4216032722108125,
                -1.4680966674221125,
                -1.3352307218507664,
                -0.16226675270068874
            ]
        },
        {
            "positions": [
                2.0984688111980114,
                -1.2190666704990647,
                -1.3220002119110017,
                -1.4520058106127058,
                -1.2880874844218078,
                -0.28312405785276634
            ]
        },
        {
            "positions": [
                1.9982798580453138,
                -1.2148545160612443,
                -1.2223971516111904,
                -1.4359149538032991,
                -1.240944246992849,
                -0.40398136300484416
            ]
        },
        {
            "positions": [
                1.8980909048926164,
                -1.210642361623424,
                -1.1227940913113794,
                -1.4198240969938924,
                -1.1938010095638905,
                -0.5248386681569219
            ]
        },
        {
            "positions": [
                1.7979019517399188,
                -1.2064302071856037,
                -1.0231910310115682,
                -1.4037332401844858,
                -1.1466577721349318,
                -0.6456959733089997
            ]
        },
        {
            "positions": [
                1.6977129985872215,
                -1.2022180527477833,
                -0.9235879707117572,
                -1.387642383375079,
                -1.0995145347059732,
                -0.7665532784610773
            ]
        },
        {
            "positions": [
                1.5975240454345243,
                -1.198005898309963,
                -0.8239849104119463,
                -1.3715515265656724,
                -1.0523712972770145,
                -0.887410583613155
            ]
        },
        {
            "positions": [
                1.497335092281827,
                -1.1937937438721427,
                -0.7243818501121353,
                -1.3554606697562657,
                -1.0052280598480559,
                -1.0082678887652325
            ]
        },
        {
            "positions": [
                1.3971461391291293,
                -1.1895815894343222,
                -0.624778789812324,
                -1.3393698129468588,
                -0.9580848224190972,
                -1.1291251939173106
            ]
        },
        {
            "positions": [
                1.296957185976432,
                -1.185369434996502,
                -0.525175729512513,
                -1.323278956137452,
                -0.9109415849901386,
                -1.2499824990693882
            ]
        },
        {
            "positions": [
                1.1967682328237346,
                -1.1811572805586816,
                -0.425572669212702,
                -1.3071880993280454,
                -0.8637983475611799,
                -1.3708398042214658
            ]
        },
        {
            "positions": [
                1.0965792796710372,
                -1.1769451261208612,
                -0.32596960891289095,
                -1.2910972425186387,
                -0.8166551101322213,
                -1.4916971093735436
            ]
        },
        {
            "positions": [
                0.9963903265183398,
                -1.172732971683041,
                -0.22636654861307992,
                -1.275006385709232,
                -0.7695118727032627,
                -1.6125544145256212
            ]
        },
        {
            "positions": [
                0.8962013733656422,
                -1.1685208172452206,
                -0.12676348831326867,
                -1.2589155288998253,
                -0.7223686352743038,
                -1.7334117196776995
            ]
        },
        {
            "positions": [
                0.7960124202129448,
                -1.1643086628074002,
                -0.027160428013457638,
                -1.2428246720904186,
                -0.6752253978453453,
                -1.8542690248297768
            ]
        },
        {
            "positions": [
                0.6958234670602472,
                -1.1600965083695798,
                0.07244263228635339,
                -1.2267338152810119,
                -0.6280821604163866,
                -1.9751263299818547
            ]
        },
        {
            "positions": [
                0.5956345139075498,
                -1.1558843539317596,
                0.1720456925861642,
                -1.2106429584716052,
                -0.580938922987428,
                -2.0959836351339325
            ]
        },
        {
            "positions": [
                0.4954455607548529,
                -1.1516721994939392,
                0.27164875288597523,
                -1.1945521016621985,
                -0.5337956855584693,
                -2.21684094028601
            ]
        },
        {
            "positions": [
                0.39525660760215553,
                -1.1474600450561188,
                0.37125181318578626,
                -1.1784612448527918,
                -0.4866524481295107,
                -2.3376982454380877
            ]
        },
        {
            "positions": [
                0.29506765444945815,
                -1.1432478906182986,
                0.4708548734855973,
                -1.162370388043385,
                -0.43950921070055204,
                -2.458555550590165
            ]
        },
        {
            "positions": [
                0.19487870129676033,
                -1.1390357361804782,
                0.5704579337854088,
                -1.1462795312339784,
                -0.3923659732715934,
                -2.5794128557422433
            ]
        },
        {
            "positions": [
                0.09468974814406295,
                -1.1348235817426577,
                0.6700609940852198,
                -1.1301886744245717,
                -0.34522273584263474,
                -2.700270160894321
            ]
        },
        {
            "positions": [
                -0.0054992050086344335,
                -1.1306114273048375,
                0.7696640543850308,
                -1.114097817615165,
                -0.2980794984136761,
                -2.8211274660463985
            ]
        },
        {
            "positions": [
                -0.10568815816133198,
                -1.1263992728670171,
                0.8692671146848416,
                -1.0980069608057583,
                -0.25093626098471733,
                -2.9419847711984763
            ]
        },
        {
            "positions": [
                -0.06741031195769136,
                -1.1289244499515751,
                1.0535540530789014,
                -1.0486575407275145,
                -0.18818279199601345,
                -2.98151710987184
            ]
        },
        {
            "positions": [
                -0.029132465754050735,
                -1.1314496270361332,
                1.2378409914729613,
                -0.9993081206492707,
                -0.12542932300730958,
                -3.0210494485452037
            ]
        },
        {
            "positions": [
                0.009145380449589888,
                -1.1339748041206912,
                1.422127929867021,
                -0.9499587005710268,
                -0.0626758540186057,
                -3.0605817872185677
            ]
        },
        {
            "positions": [
                0.04742322665323051,
                -1.1364999812052492,
                1.6064148682610808,
                -0.900609280492783,
                7.761497009817209e-05,
                -3.100114125891931
            ]
        },
        {
            "positions": [
                0.08570107285687115,
                -1.1390251582898072,
                1.7907018066551408,
                -0.851259860414539,
                0.06283108395880205,
                -3.1396464645652946
            ]
        },
        {
            "positions": [
                0.12397891906051176,
                -1.1415503353743652,
                1.9749887450492005,
                -0.8019104403362952,
                0.1255845529475059,
                -3.1791788032386585
            ]
        }
    ]
}