{
    "goal": {
        "global_pose": {
            "orientation": {
                "w": 0.5084816217422485,
                "x": -0.49083608388900757,
                "y": 0.5182115435600281,
                "z": -0.4816462993621826
            },
            "position": {
                "x": 0.5540239810943604,
                "y": 0.030875300988554955,
                "z": 0.16403168439865112
            }
        },
        "name": "move_to_storage"
    },
    "id": "RRTConnect_move_to_storage_2",
    "joint_names": [
        "shoulder_pan_joint",
        "shoulder_lift_joint",
        "elbow_joint",
        "wrist_1_joint",
        "wrist_2_joint",
        "wrist_3_joint"
    ],
    "metrics": {
        "cart_traj_len": 0.35252855615007533,
        "distance_elbow_joint": 0.4492119209599399,
        "distance_shoulder_lift_joint": 0.23612836541997284,
        "distance_shoulder_pan_joint": 0.4602177705593736,
        "distance_wrist_1_joint": 0.23548308433192644,
        "distance_wrist_2_joint": 1.1020098879678724,
        "distance_wrist_3_joint": 0.1004701210937462,
        "smoothness": 8.881784197001252e-16,
        "time": 0.051161397,
        "traj_len": 1.607333552917014,
        "weighted_distance": 2.0302596791593244
    },
    "planner": "RRTConnect",
    "start": {
        "state": {
            "elbow_joint": 1.9715474092553085,
            "shoulder_lift_joint": -1.1394846673180945,
            "shoulder_pan_joint": 0.1228115366877952,
            "wrist_1_joint": -0.7804686583030105,
            "wrist_2_joint": 0.12958649594027716,
            "wrist_3_joint": -3.192492341365726
        }
    },
    "waypoints": [
        {
            "positions": [
                0.1228115366877952,
                -1.1394846673180945,
                1.9715474092553085,
                -0.7804686583030105,
                0.12958649594027716,
                -3.192492341365726
            ]
        },
        {
            "positions": [
                0.057066140893598974,
                -1.173217290949519,
                2.035720540821014,
                -0.8141090989218571,
                0.28701647993568746,
                -3.178139466923762
            ]
        },
        {
            "positions": [
                -0.008679254900597247,
                -1.206949914580944,
                2.09989367238672,
                -0.8477495395407038,
                0.4444464639310978,
                -3.1637865924817987
            ]
        },
        {
            "positions": [
                -0.07442465069479347,
                -1.2406825382123685,
                2.1640668039524256,
                -0.8813899801595504,
                0.6018764479265082,
                -3.149433718039835
            ]
        },
        {
            "positions": [
                -0.14017004648898967,
                -1.2744151618437933,
                2.2282399355181313,
                -0.915030420778397,
                0.7593064319219185,
                -3.135080843597871
            ]
        },
        {
            "positions": [
                -0.20591544228318592,
                -1.308147785475218,
                2.292413067083837,
                -0.9486708613972437,
                0.9167364159173289,
                -3.120727969155907
            ]
        },
        {
            "positions": [
                -0.2716608380773821,
                -1.3418804091066425,
                2.3565861986495427,
                -0.9823113020160903,
                1.074166399912739,
                -3.1063750947139437
            ]
        },
        {
            "positions": [
                -0.33740623387157836,
                -1.3756130327380673,
                2.4207593302152484,
                -1.015951742634937,
                1.2315963839081496,
                -3.09202222027198
            ]
        }
    ]
}