{
    "goal": {
        "global_pose": {
            "orientation": {
                "w": 0.7031023502349854,
                "x": -0.7110244035720825,
                "y": 0.007748599164187908,
                "z": 0.005598929710686207
            },
            "position": {
                "x": 0.11585023208521307,
                "y": 0.44412534475326537,
                "z": 0.3711530566215515
            }
        },
        "name": "move_to_auspresseinheit"
    },
    "id": "RRTConnect_move_to_auspresseinheit_7",
    "joint_names": [
        "shoulder_pan_joint",
        "shoulder_lift_joint",
        "elbow_joint",
        "wrist_1_joint",
        "wrist_2_joint",
        "wrist_3_joint"
    ],
    "metrics": {
        "cart_traj_len": 0.683975376047404,
        "distance_elbow_joint": 0.19235466345339836,
        "distance_shoulder_lift_joint": 0.8856123857471232,
        "distance_shoulder_pan_joint": 1.0429882255797078,
        "distance_wrist_1_joint": 0.5531992239607729,
        "distance_wrist_2_joint": 1.1301356854559819,
        "distance_wrist_3_joint": 0.38774254946145437,
        "smoothness": 1.4392138980295532,
        "time": 0.120844533,
        "traj_len": 2.0474454165272484,
        "weighted_distance": 2.5789247259270875
    },
    "planner": "RRTConnect",
    "start": {
        "state": {
            "elbow_joint": 2.4225745326682886,
            "shoulder_lift_joint": -1.3736534990239282,
            "shoulder_pan_joint": -0.3378633610955803,
            "wrist_1_joint": -1.02885917317252,
            "wrist_2_joint": 1.233022905420004,
            "wrist_3_joint": -3.09402240754724
        }
    },
    "waypoints": [
        {
            "positions": [
                -0.3378633610955803,
                -1.3736534990239282,
                2.4225745326682886,
                -1.02885917317252,
                1.233022905420004,
                -3.09402240754724
            ]
        },
        {
            "positions": [
                -0.24876009945535313,
                -1.4626156851850933,
                2.4329031265735104,
                -0.9656707469178637,
                1.1291527816679654,
                -3.0725986796405014
            ]
        },
        {
            "positions": [
                -0.15965683781512596,
                -1.5515778713462585,
                2.4432317204787317,
                -0.9024823206632073,
                1.0252826579159267,
                -3.0511749517337634
            ]
        },
        {
            "positions": [
                -0.07055357617489882,
                -1.6405400575074238,
                2.4535603143839535,
                -0.8392938944085508,
                0.921412534163888,
                -3.029751223827025
            ]
        },
        {
            "positions": [
                0.01854968546532837,
                -1.729502243668589,
                2.4638889082891753,
                -0.7761054681538945,
                0.8175424104118494,
                -3.0083274959202866
            ]
        },
        {
            "positions": [
                0.10765294710555556,
                -1.818464429829754,
                2.474217502194397,
                -0.7129170418992381,
                0.7136722866598108,
                -2.986903768013548
            ]
        },
        {
            "positions": [
                0.19675620874578265,
                -1.9074266159909192,
                2.484546096099619,
                -0.6497286156445816,
                0.6098021629077721,
                -2.9654800401068098
            ]
        },
        {
            "positions": [
                0.28585947038600984,
                -1.9963888021520844,
                2.49487469000484,
                -0.5865401893899252,
                0.5059320391557335,
                -2.944056312200072
            ]
        },
        {
            "positions": [
                0.37496273202623703,
                -2.0853509883132495,
                2.505203283910062,
                -0.5233517631352689,
                0.40206191540369485,
                -2.9226325842933334
            ]
        },
        {
            "positions": [
                0.4850167761788672,
                -2.027379356160649,
                2.4686279798395203,
                -0.5074544918274283,
                0.5017868138835858,
                -2.9947501596958492
            ]
        },
        {
            "positions": [
                0.5950708203314974,
                -1.9694077240080483,
                2.4320526757689787,
                -0.49155722051958767,
                0.6015117123634768,
                -3.0668677350983655
            ]
        },
        {
            "positions": [
                0.7051248644841276,
                -1.9114360918554476,
                2.395477371698437,
                -0.4756599492117471,
                0.7012366108433677,
                -3.1389853105008814
            ]
        }
    ]
}