{
    "goal": {
        "global_pose": {
            "orientation": {
                "w": 0.7031023502349854,
                "x": -0.7110244035720825,
                "y": 0.007748599164187908,
                "z": 0.005598929710686207
            },
            "position": {
                "x": 0.11585023208521307,
                "y": 0.44412534475326537,
                "z": 0.3711530566215515
            }
        },
        "name": "move_to_auspresseinheit"
    },
    "id": "RRTConnect_move_to_auspresseinheit_2",
    "joint_names": [
        "shoulder_pan_joint",
        "shoulder_lift_joint",
        "elbow_joint",
        "wrist_1_joint",
        "wrist_2_joint",
        "wrist_3_joint"
    ],
    "metrics": {
        "cart_traj_len": 0.7709100162376709,
        "distance_elbow_joint": 0.4117069579435251,
        "distance_shoulder_lift_joint": 2.0694200495408035,
        "distance_shoulder_pan_joint": 1.223762002779023,
        "distance_wrist_1_joint": 0.5741855257818391,
        "distance_wrist_2_joint": 1.0603512171656644,
        "distance_wrist_3_joint": 1.3971439645996777,
        "smoothness": 1.1135669793871183,
        "time": 0.071007729,
        "traj_len": 2.595490265404695,
        "weighted_distance": 3.3414659043535657
    },
    "planner": "RRTConnect",
    "start": {
        "state": {
            "elbow_joint": 2.4225745326682886,
            "shoulder_lift_joint": -1.3736534990239282,
            "shoulder_pan_joint": -0.3378633610955803,
            "wrist_1_joint": -1.02885917317252,
            "wrist_2_joint": 1.233022905420004,
            "wrist_3_joint": -3.09402240754724
        }
    },
    "waypoints": [
        {
            "positions": [
                -0.3378633610955803,
                -1.3736534990239282,
                2.4225745326682886,
                -1.02885917317252,
                1.233022905420004,
                -3.09402240754724
            ]
        },
        {
            "positions": [
                -0.347757904175649,
                -1.5182186237357773,
                2.443699593978376,
                -0.9784442548831528,
                1.145141225931512,
                -3.0195342452155094
            ]
        },
        {
            "positions": [
                -0.35765244725571765,
                -1.6627837484476262,
                2.4648246552884636,
                -0.9280293365937855,
                1.05725954644302,
                -2.945046082883779
            ]
        },
        {
            "positions": [
                -0.36754699033578636,
                -1.8073488731594751,
                2.485949716598551,
                -0.8776144183044183,
                0.9693778669545279,
                -2.870557920552049
            ]
        },
        {
            "positions": [
                -0.377441533415855,
                -1.9519139978713242,
                2.507074777908638,
                -0.827199500015051,
                0.8814961874660359,
                -2.7960697582203187
            ]
        },
        {
            "positions": [
                -0.3873360764959237,
                -2.0964791225831734,
                2.528199839218726,
                -0.7767845817256838,
                0.7936145079775436,
                -2.7215815958885883
            ]
        },
        {
            "positions": [
                -0.39723061957599237,
                -2.2410442472950223,
                2.549324900528813,
                -0.7263696634363166,
                0.7057328284890517,
                -2.647093433556858
            ]
        },
        {
            "positions": [
                -0.4071251626560611,
                -2.385609372006871,
                2.5704499618389005,
                -0.6759547451469492,
                0.6178511490005596,
                -2.572605271225128
            ]
        },
        {
            "positions": [
                -0.41701970573612973,
                -2.53017449671872,
                2.5915750231489882,
                -0.625539826857582,
                0.5299694695120677,
                -2.4981171088933976
            ]
        },
        {
            "positions": [
                -0.42691424881619844,
                -2.6747396214305694,
                2.6127000844590755,
                -0.5751249085682147,
                0.44208779002357557,
                -2.423628946561667
            ]
        },
        {
            "positions": [
                -0.30083523603193124,
                -2.589369185082329,
                2.5880799282198823,
                -0.5617414351040443,
                0.47202291244237954,
                -2.5043790025187898
            ]
        },
        {
            "positions": [
                -0.17475622324766404,
                -2.5039987487340887,
                2.563459771980689,
                -0.5483579616398739,
                0.5019580348611835,
                -2.585129058475913
            ]
        },
        {
            "positions": [
                -0.04867721046339685,
                -2.4186283123858487,
                2.5388396157414963,
                -0.5349744881757035,
                0.5318931572799875,
                -2.6658791144330354
            ]
        },
        {
            "positions": [
                0.07740180232087035,
                -2.3332578760376084,
                2.514219459502303,
                -0.5215910147115331,
                0.5618282796987916,
                -2.7466291703901584
            ]
        },
        {
            "positions": [
                0.2034808151051376,
                -2.247887439689368,
                2.48959930326311,
                -0.5082075412473627,
                0.5917634021175955,
                -2.827379226347281
            ]
        },
        {
            "positions": [
                0.32955982788940474,
                -2.1625170033411276,
                2.4649791470239166,
                -0.49482406778319227,
                0.6216985245363995,
                -2.908129282304404
            ]
        },
        {
            "positions": [
                0.455638840673672,
                -2.0771465669928872,
                2.440358990784724,
                -0.48144059431902186,
                0.6516336469552035,
                -2.9888793382615266
            ]
        },
        {
            "positions": [
                0.5817178534579391,
                -1.9917761306446473,
                2.4157388345455306,
                -0.4680571208548514,
                0.6815687693740075,
                -3.0696293942186497
            ]
        },
        {
            "positions": [
                0.7077968662422064,
                -1.906405694296407,
                2.3911186783063374,
                -0.454673647390681,
                0.7115038917928115,
                -3.1503794501757723
            ]
        }
    ]
}