{
    "goal": {
        "global_pose": {
            "orientation": {
                "w": 0.5084816217422485,
                "x": -0.49083608388900757,
                "y": 0.5182115435600281,
                "z": -0.4816462993621826
            },
            "position": {
                "x": 0.5540239810943604,
                "y": 0.030875300988554955,
                "z": 0.16403168439865112
            }
        },
        "name": "move_to_storage"
    },
    "id": "RRTstar_move_to_storage_1",
    "joint_names": [
        "shoulder_pan_joint",
        "shoulder_lift_joint",
        "elbow_joint",
        "wrist_1_joint",
        "wrist_2_joint",
        "wrist_3_joint"
    ],
    "metrics": {
        "cart_traj_len": 0.35301101601890705,
        "distance_elbow_joint": 0.448363759582147,
        "distance_shoulder_lift_joint": 0.23561900223770826,
        "distance_shoulder_pan_joint": 0.4612719227337794,
        "distance_wrist_1_joint": 0.23919589760169124,
        "distance_wrist_2_joint": 1.1000948623769045,
        "distance_wrist_3_joint": 0.08807147015188033,
        "smoothness": 6.661338165333112e-16,
        "time": 3.017639135,
        "traj_len": 1.6039379397857358,
        "weighted_distance": 2.021892829743077
    },
    "planner": "RRTstar",
    "start": {
        "state": {
            "elbow_joint": 1.9715474092553085,
            "shoulder_lift_joint": -1.1394846673180945,
            "shoulder_pan_joint": 0.1228115366877952,
            "wrist_1_joint": -0.7804686583030105,
            "wrist_2_joint": 0.12958649594027716,
            "wrist_3_joint": -3.192492341365726
        }
    },
    "waypoints": [
        {
            "positions": [
                0.1228115366877952,
                -1.1394846673180945,
                1.9715474092553085,
                -0.7804686583030105,
                0.12958649594027716,
                -3.192492341365726
            ]
        },
        {
            "positions": [
                0.056915547725826715,
                -1.1731445247806243,
                2.035599374909901,
                -0.8146395008175378,
                0.2867429048512635,
                -3.1799107027726
            ]
        },
        {
            "positions": [
                -0.008980441236141765,
                -1.206804382243154,
                2.099651340564493,
                -0.8488103433320651,
                0.44389931376224984,
                -3.1673290641794747
            ]
        },
        {
            "positions": [
                -0.07487643019811026,
                -1.2404642397056838,
                2.1637033062190856,
                -0.8829811858465925,
                0.6010557226732363,
                -3.154747425586349
            ]
        },
        {
            "positions": [
                -0.1407724191600787,
                -1.2741240971682135,
                2.2277552718736784,
                -0.9171520283611198,
                0.7582121315842225,
                -3.142165786993223
            ]
        },
        {
            "positions": [
                -0.20666840812204723,
                -1.3077839546307433,
                2.2918072375282708,
                -0.9513228708756472,
                0.9153685404952089,
                -3.129584148400097
            ]
        },
        {
            "positions": [
                -0.2725643970840157,
                -1.341443812093273,
                2.355859203182863,
                -0.9854937133901744,
                1.0725249494061952,
                -3.1170025098069716
            ]
        },
        {
            "positions": [
                -0.3384603860459842,
                -1.3751036695558028,
                2.4199111688374555,
                -1.0196645559047017,
                1.2296813583171817,
                -3.1044208712138457
            ]
        }
    ]
}