{
    "goal": {
        "global_pose": {
            "orientation": {
                "w": 0.7047431468963623,
                "x": -0.7094548344612122,
                "y": 0.0024358443915843964,
                "z": -0.0022348060738295317
            },
            "position": {
                "x": 0.6094750761985779,
                "y": 0.3671506643295288,
                "z": 0.19426114857196808
            }
        },
        "name": "move_to_magneteinheit_target"
    },
    "id": "RRTstar_move_to_magneteinheit_target_5",
    "joint_names": [
        "shoulder_pan_joint",
        "shoulder_lift_joint",
        "elbow_joint",
        "wrist_1_joint",
        "wrist_2_joint",
        "wrist_3_joint"
    ],
    "metrics": {
        "cart_traj_len": 3.4056369328511797,
        "distance_elbow_joint": 3.881087894441837,
        "distance_shoulder_lift_joint": 0.1100370213766737,
        "distance_shoulder_pan_joint": 2.577446086656931,
        "distance_wrist_1_joint": 0.8218017413420851,
        "distance_wrist_2_joint": 1.7086380163167703,
        "distance_wrist_3_joint": 3.690838699795601,
        "smoothness": 6.269494748029196e-16,
        "time": 3.039718702,
        "traj_len": 3.5762899015501945,
        "weighted_distance": 4.76465807977655
    },
    "planner": "RRTstar",
    "start": {
        "state": {
            "elbow_joint": -1.9196185737098679,
            "shoulder_lift_joint": -1.2443395971259867,
            "shoulder_pan_joint": 2.6996025301141957,
            "wrist_1_joint": -1.548550951469146,
            "wrist_2_joint": -1.5709469089955597,
            "wrist_3_joint": 0.4420197730596999
        }
    },
    "waypoints": [
        {
            "positions": [
                2.6996025301141957,
                -1.2443395971259867,
                -1.9196185737098679,
                -1.548550951469146,
                -1.5709469089955597,
                0.4420197730596999
            ]
        },
        {
            "positions": [
                2.605047406050137,
                -1.244020337202612,
                -1.8441663535532131,
                -1.5184311588141675,
                -1.5110364448911264,
                0.31108434402398977
            ]
        },
        {
            "positions": [
                2.510492281986078,
                -1.2437010772792372,
                -1.7687141333965586,
                -1.4883113661591891,
                -1.4511259807866934,
                0.18014891498827967
            ]
        },
        {
            "positions": [
                2.4159371579220195,
                -1.2433818173558624,
                -1.6932619132399038,
                -1.4581915735042106,
                -1.3912155166822602,
                0.04921348595256958
            ]
        },
        {
            "positions": [
                2.3213820338579607,
                -1.2430625574324876,
                -1.6178096930832493,
                -1.4280717808492323,
                -1.331305052577827,
                -0.08172194308314057
            ]
        },
        {
            "positions": [
                2.226826909793902,
                -1.2427432975091128,
                -1.5423574729265945,
                -1.3979519881942537,
                -1.271394588473394,
                -0.21265737211885066
            ]
        },
        {
            "positions": [
                2.132271785729843,
                -1.242424037585738,
                -1.4669052527699398,
                -1.3678321955392754,
                -1.2114841243689607,
                -0.34359280115456076
            ]
        },
        {
            "positions": [
                2.037716661665785,
                -1.242104777662363,
                -1.3914530326132852,
                -1.3377124028842968,
                -1.1515736602645275,
                -0.47452823019027096
            ]
        },
        {
            "positions": [
                1.9431615376017262,
                -1.2417855177389883,
                -1.3160008124566305,
                -1.3075926102293185,
                -1.0916631961600944,
                -0.605463659225981
            ]
        },
        {
            "positions": [
                1.8486064135376674,
                -1.2414662578156135,
                -1.2405485922999757,
                -1.27747281757434,
                -1.0317527320556612,
                -0.7363990882616911
            ]
        },
        {
            "positions": [
                1.7540512894736087,
                -1.2411469978922387,
                -1.1650963721433212,
                -1.2473530249193616,
                -0.9718422679512281,
                -0.8673345172974012
            ]
        },
        {
            "positions": [
                1.65949616540955,
                -1.240827737968864,
                -1.0896441519866664,
                -1.217233232264383,
                -0.911931803846795,
                -0.9982699463331113
            ]
        },
        {
            "positions": [
                1.5649410413454912,
                -1.2405084780454891,
                -1.0141919318300117,
                -1.1871134396094045,
                -0.8520213397423617,
                -1.1292053753688214
            ]
        },
        {
            "positions": [
                1.4703859172814324,
                -1.2401892181221144,
                -0.938739711673357,
                -1.1569936469544262,
                -0.7921108756379286,
                -1.2601408044045317
            ]
        },
        {
            "positions": [
                1.3758307932173737,
                -1.2398699581987396,
                -0.8632874915167024,
                -1.1268738542994476,
                -0.7322004115334955,
                -1.3910762334402418
            ]
        },
        {
            "positions": [
                1.281275669153315,
                -1.2395506982753648,
                -0.7878352713600476,
                -1.0967540616444693,
                -0.6722899474290622,
                -1.522011662475952
            ]
        },
        {
            "positions": [
                1.1867205450892564,
                -1.23923143835199,
                -0.7123830512033931,
                -1.0666342689894908,
                -0.6123794833246291,
                -1.652947091511662
            ]
        },
        {
            "positions": [
                1.0921654210251974,
                -1.2389121784286152,
                -0.6369308310467381,
                -1.0365144763345122,
                -0.552469019220196,
                -1.783882520547372
            ]
        },
        {
            "positions": [
                0.9976102969611389,
                -1.2385929185052404,
                -0.5614786108900836,
                -1.0063946836795339,
                -0.49255855511576274,
                -1.9148179495830822
            ]
        },
        {
            "positions": [
                0.9030551728970801,
                -1.2382736585818657,
                -0.4860263907334288,
                -0.9762748910245554,
                -0.4326480910113295,
                -2.0457533786187927
            ]
        },
        {
            "positions": [
                0.8085000488330214,
                -1.2379543986584909,
                -0.41057417057677426,
                -0.946155098369577,
                -0.3727376269068965,
                -2.1766888076545023
            ]
        },
        {
            "positions": [
                0.7139449247689627,
                -1.2376351387351159,
                -0.3351219504201195,
                -0.9160353057145986,
                -0.31282716280246325,
                -2.307624236690213
            ]
        },
        {
            "positions": [
                0.6193898007049041,
                -1.237315878811741,
                -0.25966973026346496,
                -0.8859155130596201,
                -0.25291669869803024,
                -2.4385596657259225
            ]
        },
        {
            "positions": [
                0.5248346766408454,
                -1.2369966188883663,
                -0.1842175101068102,
                -0.8557957204046416,
                -0.193006234593597,
                -2.569495094761633
            ]
        },
        {
            "positions": [
                0.43027955257678663,
                -1.2366773589649915,
                -0.10876528995015544,
                -0.8256759277496633,
                -0.13309577048916377,
                -2.7004305237973427
            ]
        },
        {
            "positions": [
                0.3357244285127279,
                -1.2363580990416168,
                -0.03331306979350068,
                -0.7955561350946847,
                -0.07318530638473053,
                -2.8313659528330533
            ]
        },
        {
            "positions": [
                0.24116930444866913,
                -1.236038839118242,
                0.042139150363153854,
                -0.7654363424397064,
                -0.013274842280297516,
                -2.9623013818687634
            ]
        },
        {
            "positions": [
                0.14661418038461038,
                -1.2357195791948672,
                0.11759137051980867,
                -0.7353165497847278,
                0.046635621824135706,
                -3.0932368109044734
            ]
        },
        {
            "positions": [
                0.1425378908967193,
                -1.218816745287275,
                0.42490436222183553,
                -0.7338886598417833,
                0.061811536073648116,
                -3.119167163543045
            ]
        },
        {
            "positions": [
                0.13846160140882824,
                -1.2019139113796824,
                0.7322173539238623,
                -0.7324607698988389,
                0.07698745032316051,
                -3.145097516181616
            ]
        },
        {
            "positions": [
                0.13438531192093717,
                -1.1850110774720901,
                1.0395303456258893,
                -0.7310328799558944,
                0.09216336457267293,
                -3.171027868820187
            ]
        },
        {
            "positions": [
                0.13030902243304607,
                -1.1681082435644978,
                1.346843337327916,
                -0.7296049900129499,
                0.10733927882218533,
                -3.1969582214587584
            ]
        },
        {
            "positions": [
                0.126232732945155,
                -1.1512054096569053,
                1.654156329029943,
                -0.7281771000700055,
                0.12251519307169774,
                -3.22288857409733
            ]
        },
        {
            "positions": [
                0.12215644345726392,
                -1.134302575749313,
                1.9614693207319698,
                -0.726749210127061,
                0.13769110732121015,
                -3.248818926735901
            ]
        }
    ]
}