{
    "goal": {
        "global_pose": {
            "orientation": {
                "w": 0.7031023502349854,
                "x": -0.7110244035720825,
                "y": 0.007748599164187908,
                "z": 0.005598929710686207
            },
            "position": {
                "x": 0.11585023208521307,
                "y": 0.44412534475326537,
                "z": 0.3711530566215515
            }
        },
        "name": "move_to_auspresseinheit"
    },
    "id": "RRTstar_move_to_auspresseinheit_4",
    "joint_names": [
        "shoulder_pan_joint",
        "shoulder_lift_joint",
        "elbow_joint",
        "wrist_1_joint",
        "wrist_2_joint",
        "wrist_3_joint"
    ],
    "metrics": {
        "cart_traj_len": 0.6878128085353015,
        "distance_elbow_joint": 0.03230562962269046,
        "distance_shoulder_lift_joint": 0.5320699615090965,
        "distance_shoulder_pan_joint": 1.042508298624958,
        "distance_wrist_1_joint": 0.5768932319814533,
        "distance_wrist_2_joint": 0.5304333720889315,
        "distance_wrist_3_joint": 0.06145500014464789,
        "smoothness": 1.4802973690661495e-15,
        "time": 3.00175408,
        "traj_len": 1.6660328610119843,
        "weighted_distance": 2.001474980690855
    },
    "planner": "RRTstar",
    "start": {
        "state": {
            "elbow_joint": 2.4225745326682886,
            "shoulder_lift_joint": -1.3736534990239282,
            "shoulder_pan_joint": -0.3378633610955803,
            "wrist_1_joint": -1.02885917317252,
            "wrist_2_joint": 1.233022905420004,
            "wrist_3_joint": -3.09402240754724
        }
    },
    "waypoints": [
        {
            "positions": [
                -0.3378633610955803,
                -1.3736534990239282,
                2.4225745326682886,
                -1.02885917317252,
                1.233022905420004,
                -3.09402240754724
            ]
        },
        {
            "positions": [
                -0.20754982376746053,
                -1.4401622442125652,
                2.4185363289654522,
                -0.9567475191748385,
                1.1667187339088876,
                -3.1017042825653207
            ]
        },
        {
            "positions": [
                -0.07723628643934077,
                -1.5066709894012023,
                2.414498125262616,
                -0.8846358651771568,
                1.100414562397771,
                -3.1093861575834016
            ]
        },
        {
            "positions": [
                0.05307725088877896,
                -1.5731797345898393,
                2.4104599215597795,
                -0.812524211179475,
                1.0341103908866547,
                -3.1170680326014826
            ]
        },
        {
            "positions": [
                0.18339078821689875,
                -1.6396884797784765,
                2.4064217178569436,
                -0.7404125571817934,
                0.9678062193755381,
                -3.124749907619564
            ]
        },
        {
            "positions": [
                0.31370432554501854,
                -1.7061972249671133,
                2.4023835141541072,
                -0.6683009031841118,
                0.9015020478644218,
                -3.132431782637645
            ]
        },
        {
            "positions": [
                0.4440178628731382,
                -1.7727059701557506,
                2.398345310451271,
                -0.5961892491864301,
                0.8351978763533053,
                -3.140113657655726
            ]
        },
        {
            "positions": [
                0.5743314002012581,
                -1.8392147153443876,
                2.3943071067484345,
                -0.5240775951887484,
                0.7688937048421889,
                -3.1477955326738067
            ]
        },
        {
            "positions": [
                0.7046449375293777,
                -1.9057234605330247,
                2.390268903045598,
                -0.4519659411910668,
                0.7025895333310724,
                -3.1554774076918877
            ]
        }
    ]
}