{
    "goal": {
        "global_pose": {
            "orientation": {
                "w": 0.7047431468963623,
                "x": -0.7094548344612122,
                "y": 0.0024358443915843964,
                "z": -0.0022348060738295317
            },
            "position": {
                "x": 0.6094750761985779,
                "y": 0.3671506643295288,
                "z": 0.19426114857196808
            }
        },
        "name": "move_to_magneteinheit_target"
    },
    "id": "RRTstar_move_to_magneteinheit_target_10",
    "joint_names": [
        "shoulder_pan_joint",
        "shoulder_lift_joint",
        "elbow_joint",
        "wrist_1_joint",
        "wrist_2_joint",
        "wrist_3_joint"
    ],
    "metrics": {
        "cart_traj_len": 3.574075733811938,
        "distance_elbow_joint": 3.8761479416847733,
        "distance_shoulder_lift_joint": 0.14901850172728603,
        "distance_shoulder_pan_joint": 2.8302154054106374,
        "distance_wrist_1_joint": 0.9188787795345769,
        "distance_wrist_2_joint": 1.7009542036870882,
        "distance_wrist_3_joint": 3.6910449406267527,
        "smoothness": 0.11074636896828705,
        "time": 3.01605655,
        "traj_len": 3.6285341079657933,
        "weighted_distance": 4.813333838115354
    },
    "planner": "RRTstar",
    "start": {
        "state": {
            "elbow_joint": -1.9196185737098679,
            "shoulder_lift_joint": -1.2443395971259867,
            "shoulder_pan_joint": 2.6996025301141957,
            "wrist_1_joint": -1.548550951469146,
            "wrist_2_joint": -1.5709469089955597,
            "wrist_3_joint": 0.4420197730596999
        }
    },
    "waypoints": [
        {
            "positions": [
                2.6996025301141957,
                -1.2443395971259867,
                -1.9196185737098679,
                -1.548550951469146,
                -1.5709469089955597,
                0.4420197730596999
            ]
        },
        {
            "positions": [
                2.609478213327278,
                -1.2399789252950946,
                -1.819086393008296,
                -1.5192677168671227,
                -1.5203239206715757,
                0.32998826866933445
            ]
        },
        {
            "positions": [
                2.51935389654036,
                -1.2356182534642026,
                -1.7185542123067243,
                -1.4899844822650992,
                -1.4697009323475918,
                0.21795676427896898
            ]
        },
        {
            "positions": [
                2.429229579753442,
                -1.2312575816333104,
                -1.6180220316051523,
                -1.4607012476630759,
                -1.4190779440236079,
                0.10592525988860352
            ]
        },
        {
            "positions": [
                2.339105262966524,
                -1.2268969098024183,
                -1.5174898509035806,
                -1.4314180130610525,
                -1.368454955699624,
                -0.006106244501761948
            ]
        },
        {
            "positions": [
                2.2489809461796066,
                -1.222536237971526,
                -1.4169576702020088,
                -1.402134778459029,
                -1.31783196737564,
                -0.11813774889212741
            ]
        },
        {
            "positions": [
                2.1588566293926887,
                -1.2181755661406342,
                -1.3164254895004368,
                -1.3728515438570057,
                -1.2672089790516559,
                -0.23016925328249288
            ]
        },
        {
            "positions": [
                2.068732312605771,
                -1.213814894309742,
                -1.215893308798865,
                -1.3435683092549822,
                -1.216585990727672,
                -0.34220075767285835
            ]
        },
        {
            "positions": [
                1.978607995818853,
                -1.2094542224788498,
                -1.1153611280972933,
                -1.3142850746529589,
                -1.165963002403688,
                -0.4542322620632238
            ]
        },
        {
            "positions": [
                1.888483679031935,
                -1.2050935506479576,
                -1.0148289473957215,
                -1.2850018400509355,
                -1.115340014079704,
                -0.5662637664535892
            ]
        },
        {
            "positions": [
                1.7983593622450174,
                -1.2007328788170657,
                -0.9142967666941497,
                -1.2557186054489122,
                -1.0647170257557201,
                -0.6782952708439547
            ]
        },
        {
            "positions": [
                1.7082350454580995,
                -1.1963722069861735,
                -0.8137645859925777,
                -1.2264353708468887,
                -1.0140940374317362,
                -0.7903267752343202
            ]
        },
        {
            "positions": [
                1.6181107286711816,
                -1.1920115351552814,
                -0.7132324052910057,
                -1.1971521362448652,
                -0.9634710491077522,
                -0.9023582796246856
            ]
        },
        {
            "positions": [
                1.5279864118842637,
                -1.1876508633243892,
                -0.612700224589434,
                -1.1678689016428419,
                -0.9128480607837682,
                -1.014389784015051
            ]
        },
        {
            "positions": [
                1.437862095097346,
                -1.1832901914934972,
                -0.5121680438878622,
                -1.1385856670408185,
                -0.8622250724597843,
                -1.1264212884054166
            ]
        },
        {
            "positions": [
                1.347737778310428,
                -1.178929519662605,
                -0.4116358631862904,
                -1.109302432438795,
                -0.8116020841358004,
                -1.238452792795782
            ]
        },
        {
            "positions": [
                1.2576134615235102,
                -1.174568847831713,
                -0.31110368248471865,
                -1.0800191978367717,
                -0.7609790958118164,
                -1.3504842971861475
            ]
        },
        {
            "positions": [
                1.1674891447365925,
                -1.170208176000821,
                -0.21057150178314687,
                -1.0507359632347484,
                -0.7103561074878325,
                -1.462515801576513
            ]
        },
        {
            "positions": [
                1.0773648279496746,
                -1.1658475041699288,
                -0.1100393210815751,
                -1.0214527286327248,
                -0.6597331191638486,
                -1.5745473059668784
            ]
        },
        {
            "positions": [
                0.9872405111627567,
                -1.1614868323390366,
                -0.00950714038000311,
                -0.9921694940307015,
                -0.6091101308398646,
                -1.6865788103572439
            ]
        },
        {
            "positions": [
                0.897116194375839,
                -1.1571261605081444,
                0.09102504032156844,
                -0.9628862594286782,
                -0.5584871425158806,
                -1.7986103147476094
            ]
        },
        {
            "positions": [
                0.8069918775889211,
                -1.1527654886772525,
                0.1915572210231402,
                -0.9336030248266548,
                -0.5078641541918967,
                -1.9106418191379748
            ]
        },
        {
            "positions": [
                0.7168675608020032,
                -1.1484048168463603,
                0.2920894017247124,
                -0.9043197902246314,
                -0.45724116586791275,
                -2.0226733235283403
            ]
        },
        {
            "positions": [
                0.6267432440150853,
                -1.1440441450154681,
                0.3926215824262842,
                -0.875036555622608,
                -0.4066181775439286,
                -2.1347048279187057
            ]
        },
        {
            "positions": [
                0.5366189272281674,
                -1.139683473184576,
                0.4931537631278564,
                -0.8457533210205845,
                -0.35599518921994466,
                -2.246736332309071
            ]
        },
        {
            "positions": [
                0.4464946104412495,
                -1.135322801353684,
                0.5936859438294282,
                -0.8164700864185611,
                -0.30537220089596073,
                -2.3587678366994367
            ]
        },
        {
            "positions": [
                0.3563702936543316,
                -1.1309621295227918,
                0.694218124531,
                -0.7871868518165378,
                -0.2547492125719768,
                -2.470799341089802
            ]
        },
        {
            "positions": [
                0.2662459768674137,
                -1.1266014576918997,
                0.7947503052325717,
                -0.7579036172145144,
                -0.20412622424799287,
                -2.5828308454801676
            ]
        },
        {
            "positions": [
                0.17612166008049623,
                -1.1222407858610075,
                0.8952824859341435,
                -0.728620382612491,
                -0.15350323592400894,
                -2.694862349870533
            ]
        },
        {
            "positions": [
                0.08599734329357833,
                -1.1178801140301156,
                0.9958146666357153,
                -0.6993371480104676,
                -0.10288024760002501,
                -2.8068938542608985
            ]
        },
        {
            "positions": [
                -0.004126973493339417,
                -1.1135194421992234,
                1.0963468473372873,
                -0.6700539134084442,
                -0.0522572592760411,
                -2.918925358651264
            ]
        },
        {
            "positions": [
                0.027494501957436045,
                -1.118069028899354,
                1.3113924774966916,
                -0.680149348776913,
                -0.006691120784148734,
                -3.001450310880211
            ]
        },
        {
            "positions": [
                0.059115977408211506,
                -1.1226186155994848,
                1.526438107656096,
                -0.6902447841453818,
                0.03887501770774363,
                -3.083975263109158
            ]
        },
        {
            "positions": [
                0.09073745285898697,
                -1.1271682022996155,
                1.7414837378155004,
                -0.7003402195138505,
                0.08444115619963599,
                -3.1665002153381057
            ]
        },
        {
            "positions": [
                0.12235892830976243,
                -1.131717788999746,
                1.9565293679749047,
                -0.7104356548823193,
                0.13000729469152836,
                -3.2490251675670527
            ]
        }
    ]
}