{
    "goal": {
        "global_pose": {
            "orientation": {
                "w": 0.7031023502349854,
                "x": -0.7110244035720825,
                "y": 0.007748599164187908,
                "z": 0.005598929710686207
            },
            "position": {
                "x": 0.11585023208521307,
                "y": 0.44412534475326537,
                "z": 0.3711530566215515
            }
        },
        "name": "move_to_auspresseinheit"
    },
    "id": "RRTstar_move_to_auspresseinheit_1",
    "joint_names": [
        "shoulder_pan_joint",
        "shoulder_lift_joint",
        "elbow_joint",
        "wrist_1_joint",
        "wrist_2_joint",
        "wrist_3_joint"
    ],
    "metrics": {
        "cart_traj_len": 3.0564236644567955,
        "distance_elbow_joint": 4.818662129059163,
        "distance_shoulder_lift_joint": 0.8414007002435597,
        "distance_shoulder_pan_joint": 1.0431459827240368,
        "distance_wrist_1_joint": 1.6385784133520427,
        "distance_wrist_2_joint": 2.602219869137103,
        "distance_wrist_3_joint": 0.22418660370985055,
        "smoothness": 0.07608903557232195,
        "time": 3.0182636720000002,
        "traj_len": 3.3418847523853588,
        "weighted_distance": 3.982130734686469
    },
    "planner": "RRTstar",
    "start": {
        "state": {
            "elbow_joint": 2.4225745326682886,
            "shoulder_lift_joint": -1.3736534990239282,
            "shoulder_pan_joint": -0.3378633610955803,
            "wrist_1_joint": -1.02885917317252,
            "wrist_2_joint": 1.233022905420004,
            "wrist_3_joint": -3.09402240754724
        }
    },
    "waypoints": [
        {
            "positions": [
                -0.3378633610955803,
                -1.3736534990239282,
                2.4225745326682886,
                -1.02885917317252,
                1.233022905420004,
                -3.09402240754724
            ]
        },
        {
            "positions": [
                -0.36955718848201663,
                -1.3512497501071823,
                2.2386179942328406,
                -1.0886714815753051,
                1.1494611136006283,
                -3.08935517741497
            ]
        },
        {
            "positions": [
                -0.4012510158684529,
                -1.3288460011904364,
                2.054661455797393,
                -1.14848378997809,
                1.0658993217812527,
                -3.0846879472827
            ]
        },
        {
            "positions": [
                -0.43294484325488924,
                -1.3064422522736905,
                1.8707049173619452,
                -1.208296098380875,
                0.9823375299618771,
                -3.0800207171504304
            ]
        },
        {
            "positions": [
                -0.4646386706413256,
                -1.2840385033569446,
                1.6867483789264974,
                -1.2681084067836599,
                0.8987757381425014,
                -3.0753534870181602
            ]
        },
        {
            "positions": [
                -0.49633249802776186,
                -1.2616347544401987,
                1.5027918404910494,
                -1.327920715186445,
                0.8152139463231258,
                -3.0706862568858906
            ]
        },
        {
            "positions": [
                -0.5280263254141981,
                -1.2392310055234528,
                1.3188353020556018,
                -1.3877330235892298,
                0.7316521545037503,
                -3.0660190267536205
            ]
        },
        {
            "positions": [
                -0.5597201528006345,
                -1.2168272566067069,
                1.1348787636201538,
                -1.4475453319920148,
                0.6480903626843747,
                -3.061351796621351
            ]
        },
        {
            "positions": [
                -0.5914139801870708,
                -1.194423507689961,
                0.950922225184706,
                -1.5073576403947997,
                0.5645285708649991,
                -3.0566845664890807
            ]
        },
        {
            "positions": [
                -0.6231078075735071,
                -1.172019758773215,
                0.7669656867492582,
                -1.5671699487975848,
                0.48096677904562335,
                -3.052017336356811
            ]
        },
        {
            "positions": [
                -0.6548016349599435,
                -1.1496160098564694,
                0.5830091483138105,
                -1.6269822572003698,
                0.39740498722624784,
                -3.047350106224541
            ]
        },
        {
            "positions": [
                -0.6864954623463797,
                -1.1272122609397233,
                0.39905260987836266,
                -1.6867945656031547,
                0.3138431954068722,
                -3.0426828760922713
            ]
        },
        {
            "positions": [
                -0.718189289732816,
                -1.1048085120229776,
                0.2150960714429151,
                -1.7466068740059395,
                0.2302814035874967,
                -3.0380156459600016
            ]
        },
        {
            "positions": [
                -0.7498831171192524,
                -1.0824047631062315,
                0.03113953300746708,
                -1.8064191824087246,
                0.14671961176812087,
                -3.0333484158277315
            ]
        },
        {
            "positions": [
                -0.7815769445056887,
                -1.0600010141894858,
                -0.15281700542798093,
                -1.8662314908115096,
                0.06315781994874548,
                -3.028681185695462
            ]
        },
        {
            "positions": [
                -0.813270771892125,
                -1.0375972652727399,
                -0.3367735438634285,
                -1.9260437992142945,
                -0.020403971870630144,
                -3.0240139555631917
            ]
        },
        {
            "positions": [
                -0.8449645992785613,
                -1.015193516355994,
                -0.5207300822988765,
                -1.9858561076170795,
                -0.10396576369000576,
                -3.019346725430922
            ]
        },
        {
            "positions": [
                -0.8766584266649977,
                -0.9927897674392481,
                -0.7046866207343241,
                -2.0456684160198644,
                -0.18752755550938138,
                -3.014679495298652
            ]
        },
        {
            "positions": [
                -0.9083522540514339,
                -0.9703860185225022,
                -0.8886431591697721,
                -2.1054807244226494,
                -0.2710893473287572,
                -3.0100122651663823
            ]
        },
        {
            "positions": [
                -0.9400460814378704,
                -0.9479822696057563,
                -1.0725996976052197,
                -2.165293032825434,
                -0.3546511391481326,
                -3.005345035034112
            ]
        },
        {
            "positions": [
                -0.9717399088243066,
                -0.9255785206890104,
                -1.2565562360406677,
                -2.225105341228219,
                -0.43821293096750824,
                -3.0006778049018425
            ]
        },
        {
            "positions": [
                -1.0034337362107428,
                -0.9031747717722645,
                -1.4405127744761157,
                -2.284917649631004,
                -0.5217747227868839,
                -2.9960105747695724
            ]
        },
        {
            "positions": [
                -1.0351275635971793,
                -0.8807710228555186,
                -1.6244693129115628,
                -2.3447299580337893,
                -0.6053365146062595,
                -2.991343344637303
            ]
        },
        {
            "positions": [
                -1.084539246486099,
                -0.93055934058054,
                -1.73470049626575,
                -2.3908310478181853,
                -0.7144594359078079,
                -3.008701564751576
            ]
        },
        {
            "positions": [
                -1.1339509293750187,
                -0.9803476583055615,
                -1.844931679619937,
                -2.436932137602582,
                -0.8235823572093564,
                -3.0260597848658497
            ]
        },
        {
            "positions": [
                -1.1833626122639385,
                -1.0301359760305828,
                -1.9551628629741244,
                -2.483033227386978,
                -0.9327052785109049,
                -3.043418004980123
            ]
        },
        {
            "positions": [
                -1.232774295152858,
                -1.0799242937556044,
                -2.0653940463283114,
                -2.529134317171374,
                -1.0418281998124532,
                -3.060776225094396
            ]
        },
        {
            "positions": [
                -1.2821859780417777,
                -1.1297126114806257,
                -2.175625229682499,
                -2.57523540695577,
                -1.1509511211140018,
                -3.0781344452086694
            ]
        },
        {
            "positions": [
                -1.3315976609306974,
                -1.179500929205647,
                -2.285856413036686,
                -2.6213364967401667,
                -1.26007404241555,
                -3.095492665322943
            ]
        },
        {
            "positions": [
                -1.3810093438196172,
                -1.2292892469306687,
                -2.396087596390873,
                -2.6674375865245628,
                -1.3691969637170986,
                -3.1128508854372163
            ]
        }
    ]
}