{
    "goal": {
        "global_pose": {
            "orientation": {
                "w": 0.7031023502349854,
                "x": -0.7110244035720825,
                "y": 0.007748599164187908,
                "z": 0.005598929710686207
            },
            "position": {
                "x": 0.11585023208521307,
                "y": 0.44412534475326537,
                "z": 0.3711530566215515
            }
        },
        "name": "move_to_auspresseinheit"
    },
    "id": "SBL_move_to_auspresseinheit_8",
    "joint_names": [
        "shoulder_pan_joint",
        "shoulder_lift_joint",
        "elbow_joint",
        "wrist_1_joint",
        "wrist_2_joint",
        "wrist_3_joint"
    ],
    "metrics": {
        "cart_traj_len": 5.339812189232484,
        "distance_elbow_joint": 7.5844950609829525,
        "distance_shoulder_lift_joint": 0.7722807797188036,
        "distance_shoulder_pan_joint": 1.6358357373027106,
        "distance_wrist_1_joint": 3.4572627186938663,
        "distance_wrist_2_joint": 0.806590902915124,
        "distance_wrist_3_joint": 0.7533366904182013,
        "smoothness": 0.9599046903267269,
        "time": 0.24912220899999998,
        "traj_len": 3.8742485581118378,
        "weighted_distance": 4.558544602444628
    },
    "planner": "SBL",
    "start": {
        "state": {
            "elbow_joint": 2.4225745326682886,
            "shoulder_lift_joint": -1.3736534990239282,
            "shoulder_pan_joint": -0.3378633610955803,
            "wrist_1_joint": -1.02885917317252,
            "wrist_2_joint": 1.233022905420004,
            "wrist_3_joint": -3.09402240754724
        }
    },
    "waypoints": [
        {
            "positions": [
                -0.3378633610955803,
                -1.3736534990239282,
                2.4225745326682886,
                -1.02885917317252,
                1.233022905420004,
                -3.09402240754724
            ]
        },
        {
            "positions": [
                -0.3529792685059222,
                -1.409953718424919,
                2.2111297340735923,
                -0.9288618913481991,
                1.2136961913278828,
                -3.095854693645761
            ]
        },
        {
            "positions": [
                -0.3680951759162641,
                -1.4462539378259096,
                1.9996849354788957,
                -0.8288646095238781,
                1.1943694772357618,
                -3.0976869797442816
            ]
        },
        {
            "positions": [
                -0.38321108332660603,
                -1.4825541572269003,
                1.7882401368841994,
                -0.7288673276995572,
                1.1750427631436406,
                -3.099519265842803
            ]
        },
        {
            "positions": [
                -0.39832699073694794,
                -1.518854376627891,
                1.5767953382895028,
                -0.6288700458752361,
                1.1557160490515197,
                -3.1013515519413235
            ]
        },
        {
            "positions": [
                -0.41344289814728985,
                -1.5551545960288817,
                1.3653505396948065,
                -0.5288727640509152,
                1.1363893349593985,
                -3.1031838380398447
            ]
        },
        {
            "positions": [
                -0.4285588055576317,
                -1.5914548154298724,
                1.1539057411001101,
                -0.4288754822265942,
                1.1170626208672776,
                -3.1050161241383654
            ]
        },
        {
            "positions": [
                -0.4436747129679737,
                -1.6277550348308631,
                0.9424609425054136,
                -0.3288782004022732,
                1.0977359067751564,
                -3.1068484102368865
            ]
        },
        {
            "positions": [
                -0.45879062037831553,
                -1.6640552542318539,
                0.7310161439107172,
                -0.22888091857795223,
                1.0784091926830355,
                -3.1086806963354072
            ]
        },
        {
            "positions": [
                -0.4739065277886575,
                -1.7003554736328446,
                0.5195713453160207,
                -0.12888363675363124,
                1.0590824785909143,
                -3.1105129824339284
            ]
        },
        {
            "positions": [
                -0.48902243519899935,
                -1.7366556930338355,
                0.30812654672132433,
                -0.028886354929310243,
                1.0397557644987931,
                -3.1123452685324495
            ]
        },
        {
            "positions": [
                -0.5041383426093413,
                -1.7729559124348262,
                0.09668174812662755,
                0.07111092689501075,
                1.0204290504066722,
                -3.1141775546309702
            ]
        },
        {
            "positions": [
                -0.5192542500196832,
                -1.809256131835817,
                -0.11476305046806834,
                0.17110820871933163,
                1.001102336314551,
                -3.1160098407294914
            ]
        },
        {
            "positions": [
                -0.534370157430025,
                -1.8455563512368076,
                -0.3262078490627651,
                0.27110549054365274,
                0.9817756222224301,
                -3.117842126828012
            ]
        },
        {
            "positions": [
                -0.549486064840367,
                -1.8818565706377983,
                -0.5376526476574615,
                0.3711027723679736,
                0.9624489081303089,
                -3.1196744129265332
            ]
        },
        {
            "positions": [
                -0.564601972250709,
                -1.918156790038789,
                -0.7490974462521582,
                0.4711000541922947,
                0.9431221940381879,
                -3.121506699025054
            ]
        },
        {
            "positions": [
                -0.5797178796610508,
                -1.9544570094397797,
                -0.9605422448468541,
                0.5710973360166156,
                0.9237954799460668,
                -3.123338985123575
            ]
        },
        {
            "positions": [
                -0.5948337870713927,
                -1.9907572288407704,
                -1.171987043441551,
                0.6710946178409365,
                0.9044687658539458,
                -3.125171271222096
            ]
        },
        {
            "positions": [
                -0.6099496944817346,
                -2.027057448241761,
                -1.3834318420362475,
                0.7710918996652576,
                0.8851420517618247,
                -3.127003557320617
            ]
        },
        {
            "positions": [
                -0.5354599287364648,
                -2.0240848196611445,
                -1.1900450181132909,
                0.690256524849422,
                0.8673693116513583,
                -3.1071089857541216
            ]
        },
        {
            "positions": [
                -0.46097016299119487,
                -2.021112191080528,
                -0.9966581941903341,
                0.6094211500335864,
                0.8495965715408921,
                -3.0872144141876268
            ]
        },
        {
            "positions": [
                -0.386480397245925,
                -2.0181395624999108,
                -0.8032713702673774,
                0.5285857752177509,
                0.8318238314304258,
                -3.0673198426211314
            ]
        },
        {
            "positions": [
                -0.31199063150065504,
                -2.015166933919294,
                -0.6098845463444207,
                0.44775040040191527,
                0.8140510913199595,
                -3.0474252710546366
            ]
        },
        {
            "positions": [
                -0.23750086575538515,
                -2.0121943053386775,
                -0.4164977224214639,
                0.3669150255860797,
                0.7962783512094931,
                -3.0275306994881412
            ]
        },
        {
            "positions": [
                -0.16301110001011526,
                -2.009221676758061,
                -0.2231108984985073,
                0.2860796507702441,
                0.7785056110990268,
                -3.007636127921646
            ]
        },
        {
            "positions": [
                -0.08852133426484532,
                -2.0062490481774438,
                -0.029724074575550485,
                0.20524427595440853,
                0.7607328709885606,
                -2.987741556355151
            ]
        },
        {
            "positions": [
                -0.014031568519575432,
                -2.003276419596827,
                0.1636627493474061,
                0.12440890113857295,
                0.7429601308780942,
                -2.9678469847886557
            ]
        },
        {
            "positions": [
                0.060458197225694454,
                -2.0003037910162105,
                0.3570495732703629,
                0.043573526322737366,
                0.7251873907676278,
                -2.9479524132221604
            ]
        },
        {
            "positions": [
                0.13494796297096434,
                -1.9973311624355938,
                0.5504363971933197,
                -0.037261848493098215,
                0.7074146506571616,
                -2.9280578416556655
            ]
        },
        {
            "positions": [
                0.20943772871623434,
                -1.994358533854977,
                0.7438232211162765,
                -0.11809722330893391,
                0.6896419105466952,
                -2.90816327008917
            ]
        },
        {
            "positions": [
                0.2839274944615041,
                -1.9913859052743603,
                0.9372100450392329,
                -0.19893259812476938,
                0.671869170436229,
                -2.8882686985226753
            ]
        },
        {
            "positions": [
                0.358417260206774,
                -1.9884132766937435,
                1.1305968689621897,
                -0.27976797294060485,
                0.6540964303257626,
                -2.86837412695618
            ]
        },
        {
            "positions": [
                0.432907025952044,
                -1.9854406481131268,
                1.3239836928851465,
                -0.36060334775644054,
                0.6363236902152963,
                -2.8484795553896847
            ]
        },
        {
            "positions": [
                0.5073967916973139,
                -1.98246801953251,
                1.5173705168081033,
                -0.44143872257227623,
                0.6185509501048301,
                -2.82858498382319
            ]
        },
        {
            "positions": [
                0.5818865574425838,
                -1.9794953909518933,
                1.7107573407310597,
                -0.5222740973881117,
                0.6007782099943637,
                -2.8086904122566945
            ]
        },
        {
            "positions": [
                0.6563763231878537,
                -1.9765227623712764,
                1.9041441646540165,
                -0.6031094722039472,
                0.5830054698838973,
                -2.7887958406901996
            ]
        },
        {
            "positions": [
                0.7308660889331235,
                -1.9735501337906598,
                2.0975309885769735,
                -0.6839448470197829,
                0.5652327297734311,
                -2.7689012691237043
            ]
        },
        {
            "positions": [
                0.7232215487658908,
                -1.95176029510737,
                2.1967062737987044,
                -0.6165198806294341,
                0.6114996388629481,
                -2.889652353273008
            ]
        },
        {
            "positions": [
                0.7155770085986582,
                -1.9299704564240803,
                2.2958815590204353,
                -0.5490949142390854,
                0.6577665479524653,
                -3.010403437422312
            ]
        },
        {
            "positions": [
                0.7079324684314255,
                -1.9081806177407905,
                2.3950568442421662,
                -0.4816699478487366,
                0.7040334570419823,
                -3.1311545215716157
            ]
        }
    ]
}