{
    "goal": {
        "global_pose": {
            "orientation": {
                "w": 0.7047431468963623,
                "x": -0.7094548344612122,
                "y": 0.0024358443915843964,
                "z": -0.0022348060738295317
            },
            "position": {
                "x": 0.6094750761985779,
                "y": 0.3671506643295288,
                "z": 0.19426114857196808
            }
        },
        "name": "move_to_magneteinheit_target"
    },
    "id": "SBL_move_to_magneteinheit_target_2",
    "joint_names": [
        "shoulder_pan_joint",
        "shoulder_lift_joint",
        "elbow_joint",
        "wrist_1_joint",
        "wrist_2_joint",
        "wrist_3_joint"
    ],
    "metrics": {
        "cart_traj_len": 3.3556917336327916,
        "distance_elbow_joint": 3.8821866696745637,
        "distance_shoulder_lift_joint": 0.23241416588831232,
        "distance_shoulder_pan_joint": 2.9005875234408203,
        "distance_wrist_1_joint": 1.8029445907469128,
        "distance_wrist_2_joint": 1.9779593244914377,
        "distance_wrist_3_joint": 2.6044215600914074,
        "smoothness": 0.2911917898241138,
        "time": 0.144641179,
        "traj_len": 3.6606712272933564,
        "weighted_distance": 4.731834831199693
    },
    "planner": "SBL",
    "start": {
        "state": {
            "elbow_joint": -1.9196185737098679,
            "shoulder_lift_joint": -1.2443395971259867,
            "shoulder_pan_joint": 2.6996025301141957,
            "wrist_1_joint": -1.548550951469146,
            "wrist_2_joint": -1.5709469089955597,
            "wrist_3_joint": 0.4420197730596999
        }
    },
    "waypoints": [
        {
            "positions": [
                2.6996025301141957,
                -1.2443395971259867,
                -1.9196185737098679,
                -1.548550951469146,
                -1.5709469089955597,
                0.4420197730596999
            ]
        },
        {
            "positions": [
                2.56805496693237,
                -1.2330458442626135,
                -1.8760678046911092,
                -1.4404322693636962,
                -1.495128914532642,
                0.4669296456434099
            ]
        },
        {
            "positions": [
                2.436507403750544,
                -1.2217520913992403,
                -1.8325170356723508,
                -1.3323135872582463,
                -1.4193109200697243,
                0.49183951822711985
            ]
        },
        {
            "positions": [
                2.304959840568718,
                -1.2104583385358672,
                -1.7889662666535922,
                -1.2241949051527965,
                -1.3434929256068067,
                0.5167493908108298
            ]
        },
        {
            "positions": [
                2.173412277386892,
                -1.199164585672494,
                -1.7454154976348335,
                -1.1160762230473467,
                -1.2676749311438889,
                0.5416592633945397
            ]
        },
        {
            "positions": [
                2.041864714205066,
                -1.1878708328091208,
                -1.701864728616075,
                -1.0079575409418968,
                -1.1918569366809713,
                0.5665691359782498
            ]
        },
        {
            "positions": [
                1.9103171510232406,
                -1.1765770799457473,
                -1.6583139595973164,
                -0.8998388588364469,
                -1.1160389422180534,
                0.5914790085619597
            ]
        },
        {
            "positions": [
                1.7787695878414147,
                -1.1652833270823741,
                -1.6147631905785578,
                -0.7917201767309969,
                -1.0402209477551358,
                0.6163888811456697
            ]
        },
        {
            "positions": [
                1.6472220246595888,
                -1.153989574219001,
                -1.5712124215597993,
                -0.6836014946255472,
                -0.9644029532922181,
                0.6412987537293796
            ]
        },
        {
            "positions": [
                1.5156744614777629,
                -1.1426958213556277,
                -1.5276616525410407,
                -0.5754828125200973,
                -0.8885849588293004,
                0.6662086263130895
            ]
        },
        {
            "positions": [
                1.384126898295937,
                -1.1314020684922546,
                -1.484110883522282,
                -0.4673641304146474,
                -0.8127669643663827,
                0.6911184988967995
            ]
        },
        {
            "positions": [
                1.2525793351141112,
                -1.1201083156288814,
                -1.4405601145035236,
                -0.3592454483091976,
                -0.736948969903465,
                0.7160283714805096
            ]
        },
        {
            "positions": [
                1.1210317719322853,
                -1.1088145627655082,
                -1.397009345484765,
                -0.2511267662037477,
                -0.6611309754405473,
                0.7409382440642195
            ]
        },
        {
            "positions": [
                1.0599569803445674,
                -1.1120768188897034,
                -1.2325383555289569,
                -0.27432234489195684,
                -0.6120172154633973,
                0.8347005991963631
            ]
        },
        {
            "positions": [
                0.9988821887568494,
                -1.1153390750138987,
                -1.0680673655731485,
                -0.297517923580166,
                -0.5629034554862472,
                0.9284629543285067
            ]
        },
        {
            "positions": [
                0.9378073971691315,
                -1.118601331138094,
                -0.9035963756173404,
                -0.32071350226837514,
                -0.5137896955090973,
                1.0222253094606504
            ]
        },
        {
            "positions": [
                0.8767326055814135,
                -1.1218635872622893,
                -0.7391253856615322,
                -0.3439090809565843,
                -0.46467593553194714,
                1.115987664592794
            ]
        },
        {
            "positions": [
                0.8156578139936956,
                -1.1251258433864846,
                -0.574654395705724,
                -0.36710465964479344,
                -0.41556217555479713,
                1.2097500197249376
            ]
        },
        {
            "positions": [
                0.7545830224059777,
                -1.1283880995106799,
                -0.41018340574991574,
                -0.3903002383330026,
                -0.36644841557764707,
                1.3035123748570812
            ]
        },
        {
            "positions": [
                0.6935082308182599,
                -1.1316503556348751,
                -0.24571241579410752,
                -0.41349581702121174,
                -0.317334655600497,
                1.3972747299892248
            ]
        },
        {
            "positions": [
                0.6324334392305418,
                -1.1349126117590704,
                -0.08124142583829941,
                -0.4366913957094209,
                -0.26822089562334694,
                1.4910370851213683
            ]
        },
        {
            "positions": [
                0.5713586476428238,
                -1.1381748678832657,
                0.0832295641175087,
                -0.45988697439763004,
                -0.21910713564619688,
                1.584799440253512
            ]
        },
        {
            "positions": [
                0.510283856055106,
                -1.141437124007461,
                0.24770055407331704,
                -0.4830825530858392,
                -0.16999337566904688,
                1.6785617953856558
            ]
        },
        {
            "positions": [
                0.44920906446738795,
                -1.1446993801316563,
                0.41217154402912537,
                -0.5062781317740483,
                -0.12087961569189676,
                1.7723241505177993
            ]
        },
        {
            "positions": [
                0.38813427287967006,
                -1.1479616362558516,
                0.5766425339849335,
                -0.5294737104622576,
                -0.0717658557147468,
                1.866086505649943
            ]
        },
        {
            "positions": [
                0.32705948129195206,
                -1.1512238923800469,
                0.7411135239407418,
                -0.5526692891504666,
                -0.022652095737596634,
                1.9598488607820865
            ]
        },
        {
            "positions": [
                0.2659846897042343,
                -1.1544861485042421,
                0.9055845138965499,
                -0.5758648678386757,
                0.026461664239553317,
                2.05361121591423
            ]
        },
        {
            "positions": [
                0.20490989811651628,
                -1.1577484046284374,
                1.070055503852358,
                -0.599060446526885,
                0.07557542421670349,
                2.1473735710463737
            ]
        },
        {
            "positions": [
                0.14383510652879838,
                -1.1610106607526327,
                1.2345264938081661,
                -0.6222560252150942,
                0.12468918419385344,
                2.2411359261785173
            ]
        },
        {
            "positions": [
                0.08276031494108027,
                -1.164272916876828,
                1.3989974837639747,
                -0.6454516039033033,
                0.1738029441710035,
                2.334898281310661
            ]
        },
        {
            "positions": [
                0.02168552335336238,
                -1.1675351730010233,
                1.5634684737197824,
                -0.6686471825915123,
                0.22291670414815357,
                2.4286606364428045
            ]
        },
        {
            "positions": [
                -0.039389268234355485,
                -1.1707974291252186,
                1.727939463675591,
                -0.6918427612797216,
                0.2720304641253037,
                2.522422991574948
            ]
        },
        {
            "positions": [
                0.005567568086083635,
                -1.166149455687771,
                1.8043312132406122,
                -0.7178622080043094,
                0.23684010905068445,
                2.6773937740775695
            ]
        },
        {
            "positions": [
                0.050524404406522755,
                -1.1615014822503236,
                1.8807229628056337,
                -0.7438816547288973,
                0.20164975397606522,
                2.8323645565801914
            ]
        },
        {
            "positions": [
                0.08636543063221819,
                -1.1486963231037093,
                1.9216455293851649,
                -0.7374988962507152,
                0.16934913336539723,
                2.939402944865649
            ]
        },
        {
            "positions": [
                0.12220645685791363,
                -1.1358911639570952,
                1.962568095964696,
                -0.7311161377725329,
                0.13704851275472923,
                3.0464413331511073
            ]
        }
    ]
}