{
    "goal": {
        "global_pose": {
            "orientation": {
                "w": 0.7047431468963623,
                "x": -0.7094548344612122,
                "y": 0.0024358443915843964,
                "z": -0.0022348060738295317
            },
            "position": {
                "x": 0.6094750761985779,
                "y": 0.3671506643295288,
                "z": 0.19426114857196808
            }
        },
        "name": "move_to_magneteinheit_target"
    },
    "id": "SBL_move_to_magneteinheit_target_6",
    "joint_names": [
        "shoulder_pan_joint",
        "shoulder_lift_joint",
        "elbow_joint",
        "wrist_1_joint",
        "wrist_2_joint",
        "wrist_3_joint"
    ],
    "metrics": {
        "cart_traj_len": 3.9213246551035215,
        "distance_elbow_joint": 3.9055268687259357,
        "distance_shoulder_lift_joint": 0.48273140957062366,
        "distance_shoulder_pan_joint": 3.058433968511901,
        "distance_wrist_1_joint": 0.6942908472089772,
        "distance_wrist_2_joint": 1.6908678893740243,
        "distance_wrist_3_joint": 3.5707540045227395,
        "smoothness": 0.09939102494119881,
        "time": 0.14259280000000002,
        "traj_len": 3.6609568404877706,
        "weighted_distance": 4.7884519140890065
    },
    "planner": "SBL",
    "start": {
        "state": {
            "elbow_joint": -1.9196185737098679,
            "shoulder_lift_joint": -1.2443395971259867,
            "shoulder_pan_joint": 2.6996025301141957,
            "wrist_1_joint": -1.548550951469146,
            "wrist_2_joint": -1.5709469089955597,
            "wrist_3_joint": 0.4420197730596999
        }
    },
    "waypoints": [
        {
            "positions": [
                2.6996025301141957,
                -1.2443395971259867,
                -1.9196185737098679,
                -1.548550951469146,
                -1.5709469089955597,
                0.4420197730596999
            ]
        },
        {
            "positions": [
                2.5989606672770913,
                -1.233993857640017,
                -1.8094636990942097,
                -1.5307335250640046,
                -1.5116861503940633,
                0.3548507414460291
            ]
        },
        {
            "positions": [
                2.498318804439987,
                -1.2236481181540468,
                -1.6993088244785517,
                -1.5129160986588635,
                -1.4524253917925671,
                0.2676817098323584
            ]
        },
        {
            "positions": [
                2.397676941602883,
                -1.213302378668077,
                -1.5891539498628935,
                -1.495098672253722,
                -1.3931646331910708,
                0.18051267821868766
            ]
        },
        {
            "positions": [
                2.2970350787657785,
                -1.2029566391821072,
                -1.4789990752472353,
                -1.4772812458485807,
                -1.3339038745895744,
                0.09334364660501687
            ]
        },
        {
            "positions": [
                2.196393215928674,
                -1.192610899696137,
                -1.3688442006315773,
                -1.4594638194434393,
                -1.2746431159880782,
                0.0061746149913460835
            ]
        },
        {
            "positions": [
                2.0957513530915697,
                -1.1822651602101673,
                -1.258689326015919,
                -1.441646393038298,
                -1.2153823573865818,
                -0.0809944166223246
            ]
        },
        {
            "positions": [
                1.9951094902544655,
                -1.1719194207241974,
                -1.148534451400261,
                -1.4238289666331567,
                -1.1561215987850857,
                -0.16816344823599544
            ]
        },
        {
            "positions": [
                1.8944676274173613,
                -1.1615736812382274,
                -1.0383795767846027,
                -1.4060115402280153,
                -1.0968608401835893,
                -0.25533247984966617
            ]
        },
        {
            "positions": [
                1.7938257645802569,
                -1.1512279417522575,
                -0.9282247021689445,
                -1.388194113822874,
                -1.037600081582093,
                -0.342501511463337
            ]
        },
        {
            "positions": [
                1.6931839017431525,
                -1.1408822022662877,
                -0.8180698275532865,
                -1.3703766874177328,
                -0.9783393229805967,
                -0.42967054307700775
            ]
        },
        {
            "positions": [
                1.5925420389060483,
                -1.1305364627803178,
                -0.7079149529376283,
                -1.3525592610125914,
                -0.9190785643791004,
                -0.5168395746906784
            ]
        },
        {
            "positions": [
                1.4919001760689439,
                -1.1201907232943478,
                -0.5977600783219703,
                -1.33474183460745,
                -0.8598178057776041,
                -0.604008606304349
            ]
        },
        {
            "positions": [
                1.3912583132318395,
                -1.109844983808378,
                -0.4876052037063119,
                -1.3169244082023086,
                -0.8005570471761078,
                -0.6911776379180201
            ]
        },
        {
            "positions": [
                1.2906164503947353,
                -1.0994992443224079,
                -0.3774503290906539,
                -1.2991069817971672,
                -0.7412962885746115,
                -0.7783466695316907
            ]
        },
        {
            "positions": [
                1.189974587557631,
                -1.089153504836438,
                -0.2672954544749959,
                -1.281289555392026,
                -0.6820355299731152,
                -0.8655157011453614
            ]
        },
        {
            "positions": [
                1.0893327247205267,
                -1.0788077653504682,
                -0.15714057985933771,
                -1.2634721289868847,
                -0.622774771371619,
                -0.9526847327590322
            ]
        },
        {
            "positions": [
                0.9886908618834225,
                -1.0684620258644983,
                -0.04698570524367973,
                -1.2456547025817433,
                -0.5635140127701226,
                -1.0398537643727028
            ]
        },
        {
            "positions": [
                0.8880489990463178,
                -1.0581162863785283,
                0.06316916937197892,
                -1.227837276176602,
                -0.5042532541686262,
                -1.127022795986374
            ]
        },
        {
            "positions": [
                0.7874071362092137,
                -1.0477705468925584,
                0.17332404398763712,
                -1.2100198497714607,
                -0.44499249556713005,
                -1.2141918276000447
            ]
        },
        {
            "positions": [
                0.6867652733721092,
                -1.0374248074065884,
                0.2834789186032949,
                -1.1922024233663193,
                -0.3857317369656337,
                -1.3013608592137154
            ]
        },
        {
            "positions": [
                0.5861234105350048,
                -1.0270790679206185,
                0.3936337932189531,
                -1.174384996961178,
                -0.3264709783641375,
                -1.3885298908273862
            ]
        },
        {
            "positions": [
                0.48548154769790086,
                -1.0167333284346487,
                0.5037886678346113,
                -1.1565675705560365,
                -0.26721021976264114,
                -1.4756989224410568
            ]
        },
        {
            "positions": [
                0.38483968486079645,
                -1.0063875889486789,
                0.613943542450269,
                -1.1387501441508954,
                -0.20794946116114477,
                -1.5628679540547274
            ]
        },
        {
            "positions": [
                0.28419782202369204,
                -0.9960418494627089,
                0.7240984170659273,
                -1.120932717745754,
                -0.1486887025596486,
                -1.650036985668398
            ]
        },
        {
            "positions": [
                0.18355595918658762,
                -0.985696109976739,
                0.8342532916815859,
                -1.1031152913406126,
                -0.08942794395815223,
                -1.7372060172820691
            ]
        },
        {
            "positions": [
                0.08291409634948321,
                -0.975350370490769,
                0.9444081662972441,
                -1.0852978649354714,
                -0.030167185356655857,
                -1.8243750488957402
            ]
        },
        {
            "positions": [
                -0.017727766487620755,
                -0.965004631004799,
                1.0545630409129019,
                -1.06748043853033,
                0.0290935732448403,
                -1.9115440805094108
            ]
        },
        {
            "positions": [
                -0.11836962932472508,
                -0.9546588915188292,
                1.1647179155285603,
                -1.0496630121251886,
                0.08835433184633656,
                -1.9987131121230817
            ]
        },
        {
            "positions": [
                -0.0873442747487462,
                -0.9804934730438143,
                1.2767783452369987,
                -1.023304918427748,
                0.09285030231167493,
                -2.151968260288365
            ]
        },
        {
            "positions": [
                -0.056318920172767316,
                -1.0063280545687994,
                1.3888387749454372,
                -0.9969468247303074,
                0.0973462727770133,
                -2.3052234084536485
            ]
        },
        {
            "positions": [
                -0.025293565596788442,
                -1.0321626360937846,
                1.5008992046538756,
                -0.9705887310328667,
                0.10184224324235168,
                -2.4584785566189318
            ]
        },
        {
            "positions": [
                0.0057317889791904525,
                -1.0579972176187697,
                1.612959634362314,
                -0.9442306373354261,
                0.10633821370769005,
                -2.611733704784215
            ]
        },
        {
            "positions": [
                0.03675714355516935,
                -1.083831799143755,
                1.7250200640707525,
                -0.9178725436379854,
                0.11083418417302843,
                -2.7649888529494984
            ]
        },
        {
            "positions": [
                0.0677824981311482,
                -1.10966638066874,
                1.837080493779191,
                -0.8915144499405449,
                0.1153301546383668,
                -2.9182440011147817
            ]
        },
        {
            "positions": [
                0.09880785270712711,
                -1.135500962193725,
                1.9491409234876294,
                -0.8651563562431042,
                0.11982612510370516,
                -3.071499149280065
            ]
        },
        {
            "positions": [
                0.12209217974825497,
                -1.1477095954822953,
                1.9859082950160694,
                -0.8542601042601689,
                0.11973126982894639,
                -3.1287342314630395
            ]
        }
    ]
}