{
    "goal": {
        "global_pose": {
            "orientation": {
                "w": 0.5084816217422485,
                "x": -0.49083608388900757,
                "y": 0.5182115435600281,
                "z": -0.4816462993621826
            },
            "position": {
                "x": 0.5540239810943604,
                "y": 0.030875300988554955,
                "z": 0.16403168439865112
            }
        },
        "name": "move_to_storage"
    },
    "id": "SBL_move_to_storage_7",
    "joint_names": [
        "shoulder_pan_joint",
        "shoulder_lift_joint",
        "elbow_joint",
        "wrist_1_joint",
        "wrist_2_joint",
        "wrist_3_joint"
    ],
    "metrics": {
        "cart_traj_len": 0.3535019816294043,
        "distance_elbow_joint": 0.4521991181362046,
        "distance_shoulder_lift_joint": 0.23455417518602362,
        "distance_shoulder_pan_joint": 0.4614300811319191,
        "distance_wrist_1_joint": 0.24747470130188054,
        "distance_wrist_2_joint": 1.1039230116607524,
        "distance_wrist_3_joint": 0.10782111769704716,
        "smoothness": 6.661338165333112e-16,
        "time": 0.133253409,
        "traj_len": 1.6147452446481543,
        "weighted_distance": 2.043145162114174
    },
    "planner": "SBL",
    "start": {
        "state": {
            "elbow_joint": 1.9715474092553085,
            "shoulder_lift_joint": -1.1394846673180945,
            "shoulder_pan_joint": 0.1228115366877952,
            "wrist_1_joint": -0.7804686583030105,
            "wrist_2_joint": 0.12958649594027716,
            "wrist_3_joint": -3.192492341365726
        }
    },
    "waypoints": [
        {
            "positions": [
                0.1228115366877952,
                -1.1394846673180945,
                1.9715474092553085,
                -0.7804686583030105,
                0.12958649594027716,
                -3.192492341365726
            ]
        },
        {
            "positions": [
                0.056892953668949614,
                -1.1729924066303836,
                2.0361472832747665,
                -0.815822187060422,
                0.28728978332038463,
                -3.1770893245518623
            ]
        },
        {
            "positions": [
                -0.009025629349895967,
                -1.2065001459426727,
                2.100747157294224,
                -0.8511757158178335,
                0.4449930707004921,
                -3.161686307737998
            ]
        },
        {
            "positions": [
                -0.07494421236874153,
                -1.2400078852549619,
                2.165347031313682,
                -0.886529244575245,
                0.6026963580805995,
                -3.1462832909241345
            ]
        },
        {
            "positions": [
                -0.14086279538758711,
                -1.2735156245672508,
                2.2299469053331396,
                -0.9218827733326564,
                0.760399645460707,
                -3.1308802741102704
            ]
        },
        {
            "positions": [
                -0.20678137840643274,
                -1.3070233638795399,
                2.2945467793525975,
                -0.957236302090068,
                0.9181029328408146,
                -3.1154772572964067
            ]
        },
        {
            "positions": [
                -0.27269996142527825,
                -1.340531103191829,
                2.359146653372055,
                -0.9925898308474795,
                1.075806220220922,
                -3.1000742404825425
            ]
        },
        {
            "positions": [
                -0.33861854444412387,
                -1.3740388425041181,
                2.423746527391513,
                -1.027943359604891,
                1.2335095076010294,
                -3.084671223668679
            ]
        }
    ]
}