{
    "goal": {
        "global_pose": {
            "orientation": {
                "w": 0.7031023502349854,
                "x": -0.7110244035720825,
                "y": 0.007748599164187908,
                "z": 0.005598929710686207
            },
            "position": {
                "x": 0.11585023208521307,
                "y": 0.44412534475326537,
                "z": 0.3711530566215515
            }
        },
        "name": "move_to_auspresseinheit"
    },
    "id": "SBL_move_to_auspresseinheit_3",
    "joint_names": [
        "shoulder_pan_joint",
        "shoulder_lift_joint",
        "elbow_joint",
        "wrist_1_joint",
        "wrist_2_joint",
        "wrist_3_joint"
    ],
    "metrics": {
        "cart_traj_len": 0.6877269182109964,
        "distance_elbow_joint": 0.26587478855076174,
        "distance_shoulder_lift_joint": 0.5345528009176681,
        "distance_shoulder_pan_joint": 1.04374709650839,
        "distance_wrist_1_joint": 1.5125484735697894,
        "distance_wrist_2_joint": 1.1937084181109832,
        "distance_wrist_3_joint": 2.5327229719156135,
        "smoothness": 1.1232630134903065,
        "time": 0.243157796,
        "traj_len": 2.661419649279911,
        "weighted_distance": 3.8541999669302585
    },
    "planner": "SBL",
    "start": {
        "state": {
            "elbow_joint": 2.4225745326682886,
            "shoulder_lift_joint": -1.3736534990239282,
            "shoulder_pan_joint": -0.3378633610955803,
            "wrist_1_joint": -1.02885917317252,
            "wrist_2_joint": 1.233022905420004,
            "wrist_3_joint": -3.09402240754724
        }
    },
    "waypoints": [
        {
            "positions": [
                -0.3378633610955803,
                -1.3736534990239282,
                2.4225745326682886,
                -1.02885917317252,
                1.233022905420004,
                -3.09402240754724
            ]
        },
        {
            "positions": [
                -0.3198851966236898,
                -1.3881258493224966,
                2.406185892920986,
                -0.9142530071511131,
                1.1442989031373538,
                -2.9550356770779844
            ]
        },
        {
            "positions": [
                -0.3019070321517993,
                -1.402598199621065,
                2.389797253173683,
                -0.7996468411297062,
                1.0555749008547035,
                -2.816048946608729
            ]
        },
        {
            "positions": [
                -0.2839288676799088,
                -1.4170705499196334,
                2.3734086134263803,
                -0.6850406751082992,
                0.9668508985720534,
                -2.6770622161394737
            ]
        },
        {
            "positions": [
                -0.2659507032080184,
                -1.4315429002182019,
                2.3570199736790776,
                -0.5704345090868923,
                0.8781268962894032,
                -2.538075485670219
            ]
        },
        {
            "positions": [
                -0.24797253873612787,
                -1.44601525051677,
                2.3406313339317752,
                -0.45582834306548525,
                0.789402894006753,
                -2.3990887552009634
            ]
        },
        {
            "positions": [
                -0.2299943742642374,
                -1.4604876008153385,
                2.3242426941844725,
                -0.3412221770440784,
                0.7006788917241029,
                -2.260102024731708
            ]
        },
        {
            "positions": [
                -0.2120162097923469,
                -1.4749599511139069,
                2.3078540544371697,
                -0.22661601102267137,
                0.6119548894414526,
                -2.1211152942624527
            ]
        },
        {
            "positions": [
                -0.19403804532045643,
                -1.4894323014124753,
                2.291465414689867,
                -0.11200984500126454,
                0.5232308871588025,
                -1.9821285637931976
            ]
        },
        {
            "positions": [
                -0.17605988084856594,
                -1.5039046517110437,
                2.275076774942564,
                0.0025963210201425113,
                0.4345068848761523,
                -1.8431418333239422
            ]
        },
        {
            "positions": [
                -0.08584911002156505,
                -1.5625812611291694,
                2.2847841300575715,
                -0.09330045478534632,
                0.4215636175593793,
                -1.9710207373677924
            ]
        },
        {
            "positions": [
                0.004361660805435846,
                -1.6212578705472949,
                2.294491485172579,
                -0.18919723059083515,
                0.40862035024260634,
                -2.0988996414116428
            ]
        },
        {
            "positions": [
                0.09457243163243673,
                -1.6799344799654206,
                2.3041988402875866,
                -0.285094006396324,
                0.39567708292583337,
                -2.226778545455493
            ]
        },
        {
            "positions": [
                0.18478320245943763,
                -1.738611089383546,
                2.313906195402594,
                -0.3809907822018128,
                0.3827338156090604,
                -2.354657449499343
            ]
        },
        {
            "positions": [
                0.2749939732864385,
                -1.7972876988016717,
                2.323613550517601,
                -0.47688755800730165,
                0.3697905482922874,
                -2.4825363535431935
            ]
        },
        {
            "positions": [
                0.36117192571171275,
                -1.8194714190296566,
                2.337581601567601,
                -0.4765657379373651,
                0.4358857604889407,
                -2.6110259290378064
            ]
        },
        {
            "positions": [
                0.447349878136987,
                -1.8416551392576415,
                2.351549652617601,
                -0.4762439178674286,
                0.5019809726855939,
                -2.7395155045324193
            ]
        },
        {
            "positions": [
                0.5335278305622613,
                -1.8638388594856266,
                2.3655177036676016,
                -0.47592209779749206,
                0.5680761848822472,
                -2.8680050800270322
            ]
        },
        {
            "positions": [
                0.6197057829875354,
                -1.8860225797136114,
                2.3794857547176016,
                -0.47560027772755553,
                0.6341713970789005,
                -2.996494655521645
            ]
        },
        {
            "positions": [
                0.7058837354128097,
                -1.9082062999415963,
                2.3934538057676016,
                -0.475278457657619,
                0.7002666092755537,
                -3.124984231016258
            ]
        }
    ]
}