{
    "goal": {
        "global_pose": {
            "orientation": {
                "w": 0.7031023502349854,
                "x": -0.7110244035720825,
                "y": 0.007748599164187908,
                "z": 0.005598929710686207
            },
            "position": {
                "x": 0.11585023208521307,
                "y": 0.44412534475326537,
                "z": 0.3711530566215515
            }
        },
        "name": "move_to_auspresseinheit"
    },
    "id": "SBL_move_to_auspresseinheit_4",
    "joint_names": [
        "shoulder_pan_joint",
        "shoulder_lift_joint",
        "elbow_joint",
        "wrist_1_joint",
        "wrist_2_joint",
        "wrist_3_joint"
    ],
    "metrics": {
        "cart_traj_len": 2.794721235796653,
        "distance_elbow_joint": 3.8591802971380353,
        "distance_shoulder_lift_joint": 0.8853208136722592,
        "distance_shoulder_pan_joint": 1.8914501626883378,
        "distance_wrist_1_joint": 1.7021800957489233,
        "distance_wrist_2_joint": 0.7676773940617939,
        "distance_wrist_3_joint": 2.430232871687641,
        "smoothness": 0.8283425285980273,
        "time": 0.296171557,
        "traj_len": 3.3964748836105048,
        "weighted_distance": 4.343542893558552
    },
    "planner": "SBL",
    "start": {
        "state": {
            "elbow_joint": 2.4225745326682886,
            "shoulder_lift_joint": -1.3736534990239282,
            "shoulder_pan_joint": -0.3378633610955803,
            "wrist_1_joint": -1.02885917317252,
            "wrist_2_joint": 1.233022905420004,
            "wrist_3_joint": -3.09402240754724
        }
    },
    "waypoints": [
        {
            "positions": [
                -0.3378633610955803,
                -1.3736534990239282,
                2.4225745326682886,
                -1.02885917317252,
                1.233022905420004,
                -3.09402240754724
            ]
        },
        {
            "positions": [
                -0.28145774766000786,
                -1.3704658050053575,
                2.272906368058985,
                -1.0593437335981033,
                1.1966707113982458,
                -3.002204912212784
            ]
        },
        {
            "positions": [
                -0.22505213422443543,
                -1.3672781109867869,
                2.1232382034496813,
                -1.0898282940236863,
                1.1603185173764878,
                -2.9103874168783284
            ]
        },
        {
            "positions": [
                -0.16864652078886297,
                -1.3640904169682164,
                1.9735700388403776,
                -1.1203128544492695,
                1.1239663233547297,
                -2.8185699215438724
            ]
        },
        {
            "positions": [
                -0.11224090735329054,
                -1.3609027229496458,
                1.823901874231074,
                -1.1507974148748528,
                1.0876141293329717,
                -2.726752426209417
            ]
        },
        {
            "positions": [
                -0.055835293917718076,
                -1.357715028931075,
                1.6742337096217703,
                -1.1812819753004358,
                1.0512619353112136,
                -2.634934930874961
            ]
        },
        {
            "positions": [
                0.0005703195178543563,
                -1.3545273349125044,
                1.5245655450124667,
                -1.211766535726019,
                1.0149097412894557,
                -2.5431174355405055
            ]
        },
        {
            "positions": [
                0.05697593295342673,
                -1.351339640893934,
                1.3748973804031632,
                -1.2422510961516022,
                0.9785575472676975,
                -2.4512999402060496
            ]
        },
        {
            "positions": [
                0.11338154638899922,
                -1.3481519468753633,
                1.2252292157938596,
                -1.2727356565771855,
                0.9422053532459395,
                -2.3594824448715936
            ]
        },
        {
            "positions": [
                0.16978715982457165,
                -1.3449642528567927,
                1.0755610511845561,
                -1.3032202170027685,
                0.9058531592241814,
                -2.267664949537138
            ]
        },
        {
            "positions": [
                0.22619277326014414,
                -1.341776558838222,
                0.9258928865752523,
                -1.3337047774283517,
                0.8695009652024234,
                -2.1758474542026827
            ]
        },
        {
            "positions": [
                0.2825983866957165,
                -1.3385888648196516,
                0.7762247219659488,
                -1.3641893378539347,
                0.8331487711806653,
                -2.0840299588682267
            ]
        },
        {
            "positions": [
                0.339004000131289,
                -1.335401170801081,
                0.626556557356645,
                -1.394673898279518,
                0.7967965771589073,
                -1.992212463533771
            ]
        },
        {
            "positions": [
                0.3954096135668614,
                -1.3322134767825102,
                0.47688839274734157,
                -1.4251584587051012,
                0.7604443831371492,
                -1.9003949681993153
            ]
        },
        {
            "positions": [
                0.45190868835344034,
                -1.38675532499719,
                0.5959274450570848,
                -1.3376174199712798,
                0.7468203896297463,
                -1.9359051211035414
            ]
        },
        {
            "positions": [
                0.5084077631400192,
                -1.4412971732118696,
                0.714966497366828,
                -1.2500763812374582,
                0.7331963961223434,
                -1.9714152740077677
            ]
        },
        {
            "positions": [
                0.5649068379265982,
                -1.4958390214265493,
                0.8340055496765713,
                -1.1625353425036367,
                0.7195724026149405,
                -2.0069254269119936
            ]
        },
        {
            "positions": [
                0.6214059127131771,
                -1.5503808696412291,
                0.9530446019863146,
                -1.0749943037698153,
                0.7059484091075375,
                -2.04243557981622
            ]
        },
        {
            "positions": [
                0.677904987499756,
                -1.6049227178559087,
                1.0720836542960577,
                -0.9874532650359938,
                0.6923244156001347,
                -2.0779457327204462
            ]
        },
        {
            "positions": [
                0.734404062286335,
                -1.6594645660705885,
                1.191122706605801,
                -0.8999122263021724,
                0.6787004220927317,
                -2.1134558856246723
            ]
        },
        {
            "positions": [
                0.7909031370729139,
                -1.7140064142852682,
                1.310161758915544,
                -0.812371187568351,
                0.6650764285853288,
                -2.1489660385288984
            ]
        },
        {
            "positions": [
                0.8474022118594929,
                -1.768548262499948,
                1.4292008112252874,
                -0.7248301488345295,
                0.6514524350779258,
                -2.1844761914331245
            ]
        },
        {
            "positions": [
                0.9039012866460718,
                -1.8230901107146276,
                1.5482398635350305,
                -0.6372891101007081,
                0.637828441570523,
                -2.2199863443373506
            ]
        },
        {
            "positions": [
                0.9604003614326508,
                -1.8776319589293073,
                1.6672789158447738,
                -0.5497480713668865,
                0.62420444806312,
                -2.255496497241577
            ]
        },
        {
            "positions": [
                1.0168994362192296,
                -1.932173807143987,
                1.7863179681545172,
                -0.4622070326330652,
                0.6105804545557172,
                -2.2910066501458033
            ]
        },
        {
            "positions": [
                1.0733985110058086,
                -1.9867156553586667,
                1.9053570204642605,
                -0.3746659938992436,
                0.5969564610483142,
                -2.3265168030500294
            ]
        },
        {
            "positions": [
                1.1298975857923876,
                -2.0412575035733465,
                2.0243960727740036,
                -0.28712495516542225,
                0.5833324675409113,
                -2.3620269559542555
            ]
        },
        {
            "positions": [
                1.063157539352551,
                -2.028387792810148,
                2.1055136191070876,
                -0.2983606688533064,
                0.6110155617164861,
                -2.4800395314800014
            ]
        },
        {
            "positions": [
                0.9964174929127144,
                -2.01551808204695,
                2.186631165440172,
                -0.3095963825411906,
                0.6386986558920609,
                -2.5980521070057474
            ]
        },
        {
            "positions": [
                0.9296774464728779,
                -2.002648371283752,
                2.2677487117732564,
                -0.3208320962290748,
                0.6663817500676358,
                -2.716064682531494
            ]
        },
        {
            "positions": [
                0.8629374000330412,
                -1.9897786605205536,
                2.3488662581063404,
                -0.332067809916959,
                0.6940648442432106,
                -2.8340772580572398
            ]
        },
        {
            "positions": [
                0.7845728850125294,
                -1.9480996997269475,
                2.369624404035386,
                -0.3935200358795221,
                0.6976921339834116,
                -2.985538829298136
            ]
        },
        {
            "positions": [
                0.7062083699920176,
                -1.9064207389333414,
                2.3903825499644316,
                -0.4549722618420852,
                0.7013194237236126,
                -3.1370004005390317
            ]
        }
    ]
}