{
    "goal": {
        "global_pose": {
            "orientation": {
                "w": 0.7047431468963623,
                "x": -0.7094548344612122,
                "y": 0.0024358443915843964,
                "z": -0.0022348060738295317
            },
            "position": {
                "x": 0.6094750761985779,
                "y": 0.3671506643295288,
                "z": 0.19426114857196808
            }
        },
        "name": "move_to_magneteinheit_target"
    },
    "id": "SBL_move_to_magneteinheit_target_10",
    "joint_names": [
        "shoulder_pan_joint",
        "shoulder_lift_joint",
        "elbow_joint",
        "wrist_1_joint",
        "wrist_2_joint",
        "wrist_3_joint"
    ],
    "metrics": {
        "cart_traj_len": 3.646430135099812,
        "distance_elbow_joint": 3.9349661432494933,
        "distance_shoulder_lift_joint": 0.45789855153374015,
        "distance_shoulder_pan_joint": 2.5773865705808565,
        "distance_wrist_1_joint": 3.557984559657091,
        "distance_wrist_2_joint": 2.906127021666039,
        "distance_wrist_3_joint": 1.6409320037025357,
        "smoothness": 0.21320722246486667,
        "time": 0.225154585,
        "traj_len": 3.882691701692236,
        "weighted_distance": 4.982094984955421
    },
    "planner": "SBL",
    "start": {
        "state": {
            "elbow_joint": -1.9196185737098679,
            "shoulder_lift_joint": -1.2443395971259867,
            "shoulder_pan_joint": 2.6996025301141957,
            "wrist_1_joint": -1.548550951469146,
            "wrist_2_joint": -1.5709469089955597,
            "wrist_3_joint": 0.4420197730596999
        }
    },
    "waypoints": [
        {
            "positions": [
                2.6996025301141957,
                -1.2443395971259867,
                -1.9196185737098679,
                -1.548550951469146,
                -1.5709469089955597,
                0.4420197730596999
            ]
        },
        {
            "positions": [
                2.604086899295454,
                -1.2267874456773533,
                -1.8291993625762613,
                -1.486862676709485,
                -1.4871454646122917,
                0.40003869410702647
            ]
        },
        {
            "positions": [
                2.508571268476712,
                -1.20923529422872,
                -1.7387801514426549,
                -1.4251744019498238,
                -1.403344020229024,
                0.358057615154353
            ]
        },
        {
            "positions": [
                2.41305563765797,
                -1.1916831427800865,
                -1.6483609403090482,
                -1.3634861271901628,
                -1.319542575845756,
                0.3160765362016796
            ]
        },
        {
            "positions": [
                2.3175400068392276,
                -1.174130991331453,
                -1.5579417291754418,
                -1.3017978524305018,
                -1.235741131462488,
                0.27409545724900614
            ]
        },
        {
            "positions": [
                2.2220243760204856,
                -1.1565788398828196,
                -1.4675225180418352,
                -1.2401095776708406,
                -1.1519396870792202,
                0.2321143782963327
            ]
        },
        {
            "positions": [
                2.1265087452017437,
                -1.1390266884341862,
                -1.3771033069082286,
                -1.1784213029111796,
                -1.0681382426959523,
                0.19013329934365925
            ]
        },
        {
            "positions": [
                2.030993114383002,
                -1.121474536985553,
                -1.2866840957746222,
                -1.1167330281515186,
                -0.9843367983126845,
                0.1481522203909858
            ]
        },
        {
            "positions": [
                1.9354774835642599,
                -1.1039223855369196,
                -1.1962648846410155,
                -1.0550447533918574,
                -0.9005353539294165,
                0.10617114143831236
            ]
        },
        {
            "positions": [
                1.839961852745518,
                -1.0863702340882861,
                -1.105845673507409,
                -0.9933564786321964,
                -0.8167339095461487,
                0.06419006248563891
            ]
        },
        {
            "positions": [
                1.7444462219267756,
                -1.0688180826396527,
                -1.0154264623738025,
                -0.9316682038725353,
                -0.7329324651628807,
                0.022208983532965465
            ]
        },
        {
            "positions": [
                1.6489305911080339,
                -1.0512659311910193,
                -0.925007251240196,
                -0.8699799291128743,
                -0.6491310207796129,
                -0.01977209541970798
            ]
        },
        {
            "positions": [
                1.5534149602892917,
                -1.0337137797423859,
                -0.8345880401065893,
                -0.8082916543532132,
                -0.5653295763963448,
                -0.061753174372381425
            ]
        },
        {
            "positions": [
                1.4578993294705498,
                -1.0161616282937525,
                -0.7441688289729829,
                -0.7466033795935522,
                -0.4815281320130771,
                -0.10373425332505487
            ]
        },
        {
            "positions": [
                1.3623836986518079,
                -0.998609476845119,
                -0.6537496178393765,
                -0.6849151048338912,
                -0.39772668762980934,
                -0.14571533227772832
            ]
        },
        {
            "positions": [
                1.266868067833066,
                -0.9810573253964856,
                -0.5633304067057698,
                -0.6232268300742301,
                -0.31392524324654136,
                -0.18769641123040165
            ]
        },
        {
            "positions": [
                1.1713524370143238,
                -0.9635051739478522,
                -0.4729111955721632,
                -0.5615385553145689,
                -0.2301237988632734,
                -0.2296774901830752
            ]
        },
        {
            "positions": [
                1.0758368061955819,
                -0.9459530224992188,
                -0.3824919844385566,
                -0.4998502805549079,
                -0.1463223544800054,
                -0.27165856913574865
            ]
        },
        {
            "positions": [
                0.9803211753768399,
                -0.9284008710505854,
                -0.2920727733049502,
                -0.4381620057952469,
                -0.06252091009673766,
                -0.3136396480884221
            ]
        },
        {
            "positions": [
                0.884805544558098,
                -0.910848719601952,
                -0.20165356217134378,
                -0.3764737310355859,
                0.021280534286530095,
                -0.35562072704109554
            ]
        },
        {
            "positions": [
                0.7892899137393556,
                -0.8932965681533186,
                -0.11123435103773693,
                -0.3147854562759247,
                0.10508197866979829,
                -0.397601805993769
            ]
        },
        {
            "positions": [
                0.6937742829206139,
                -0.8757444167046852,
                -0.02081513990413053,
                -0.2530971815162637,
                0.18888342305306605,
                -0.43958288494644243
            ]
        },
        {
            "positions": [
                0.598258652101872,
                -0.8581922652560519,
                0.06960407122947587,
                -0.1914089067566025,
                0.2726848674363338,
                -0.4815639638991159
            ]
        },
        {
            "positions": [
                0.5027430212831301,
                -0.8406401138074184,
                0.1600232823630825,
                -0.1297206319969415,
                0.3564863118196018,
                -0.5235450428517894
            ]
        },
        {
            "positions": [
                0.4072273904643877,
                -0.823087962358785,
                0.25044249349668934,
                -0.0680323572372803,
                0.44028775620287,
                -0.5655261218044627
            ]
        },
        {
            "positions": [
                0.3117117596456458,
                -0.8055358109101516,
                0.34086170463029575,
                -0.006344082477619306,
                0.5240892005861377,
                -0.6075072007571363
            ]
        },
        {
            "positions": [
                0.21619612882690367,
                -0.7879836594615182,
                0.43128091576390226,
                0.05534419228204163,
                0.6078906449694055,
                -0.6494882797098097
            ]
        },
        {
            "positions": [
                0.20896688503509106,
                -0.7878649968561896,
                0.5531321968235734,
                0.20565876273634184,
                0.551945301300092,
                -0.6072248988688077
            ]
        },
        {
            "positions": [
                0.20173764124327845,
                -0.787746334250861,
                0.6749834778832444,
                0.35597333319064206,
                0.49599995763077864,
                -0.5649615180278058
            ]
        },
        {
            "positions": [
                0.1945083974514658,
                -0.7876276716455324,
                0.7968347589429156,
                0.5062879036449424,
                0.44005461396146517,
                -0.5226981371868038
            ]
        },
        {
            "positions": [
                0.1872791536596532,
                -0.7875090090402038,
                0.9186860400025867,
                0.6566024740992424,
                0.3841092702921518,
                -0.4804347563458019
            ]
        },
        {
            "positions": [
                0.18004990986784059,
                -0.7873903464348753,
                1.0405373210622577,
                0.8069170445535427,
                0.32816392662283833,
                -0.4381713755047999
            ]
        },
        {
            "positions": [
                0.17282066607602797,
                -0.7872716838295467,
                1.1623886021219287,
                0.957231615007843,
                0.2722185829535249,
                -0.39590799466379795
            ]
        },
        {
            "positions": [
                0.16559142228421536,
                -0.787153021224218,
                1.2842398831815998,
                1.1075461854621431,
                0.21627323928421155,
                -0.35364461382279605
            ]
        },
        {
            "positions": [
                0.15836217849240275,
                -0.7870343586188895,
                1.406091164241271,
                1.2578607559164434,
                0.16032789561489807,
                -0.31138123298179404
            ]
        },
        {
            "positions": [
                0.15113293470059014,
                -0.7869156960135609,
                1.5279424453009423,
                1.4081753263707435,
                0.10438255194558466,
                -0.2691178521407921
            ]
        },
        {
            "positions": [
                0.14390369090877753,
                -0.7867970334082324,
                1.6497937263606133,
                1.558489896825044,
                0.04843720827627118,
                -0.22685447129979014
            ]
        },
        {
            "positions": [
                0.13667444711696491,
                -0.7866783708029037,
                1.7716450074202843,
                1.708804467279344,
                -0.007508135393042181,
                -0.1845910904587882
            ]
        },
        {
            "positions": [
                0.12944520332515227,
                -0.7865597081975751,
                1.8934962884799553,
                1.8591190377336444,
                -0.06345347906235566,
                -0.14232770961778618
            ]
        },
        {
            "positions": [
                0.12221595953333966,
                -0.7864410455922466,
                2.0153475695396263,
                2.0094336081879445,
                -0.11939882273166905,
                -0.10006432877678431
            ]
        }
    ]
}