{
    "goal": {
        "global_pose": {
            "orientation": {
                "w": 0.5084816217422485,
                "x": -0.49083608388900757,
                "y": 0.5182115435600281,
                "z": -0.4816462993621826
            },
            "position": {
                "x": 0.5540239810943604,
                "y": 0.030875300988554955,
                "z": 0.16403168439865112
            }
        },
        "name": "move_to_storage"
    },
    "id": "SPARStwo_move_to_storage_4",
    "joint_names": [
        "shoulder_pan_joint",
        "shoulder_lift_joint",
        "elbow_joint",
        "wrist_1_joint",
        "wrist_2_joint",
        "wrist_3_joint"
    ],
    "metrics": {
        "cart_traj_len": 0.35358453312133997,
        "distance_elbow_joint": 0.45221295701500663,
        "distance_shoulder_lift_joint": 0.23492510495420071,
        "distance_shoulder_pan_joint": 0.4605941835952388,
        "distance_wrist_1_joint": 0.2550842432963225,
        "distance_wrist_2_joint": 1.107525400614957,
        "distance_wrist_3_joint": 0.10852542026113321,
        "smoothness": 4.440892098500626e-16,
        "time": 3.006222706,
        "traj_len": 1.6182914786084919,
        "weighted_distance": 2.049030940266741
    },
    "planner": "SPARStwo",
    "start": {
        "state": {
            "elbow_joint": 1.9715474092553085,
            "shoulder_lift_joint": -1.1394846673180945,
            "shoulder_pan_joint": 0.1228115366877952,
            "wrist_1_joint": -0.7804686583030105,
            "wrist_2_joint": 0.12958649594027716,
            "wrist_3_joint": -3.192492341365726
        }
    },
    "waypoints": [
        {
            "positions": [
                0.1228115366877952,
                -1.1394846673180945,
                1.9715474092553085,
                -0.7804686583030105,
                0.12958649594027716,
                -3.192492341365726
            ]
        },
        {
            "positions": [
                0.057012367602761085,
                -1.173045396597266,
                2.0361492602574525,
                -0.8169092644881994,
                0.2878044103138424,
                -3.1769887098998497
            ]
        },
        {
            "positions": [
                -0.008786801482273024,
                -1.2066061258764376,
                2.100751111259596,
                -0.8533498706733883,
                0.4460223246874077,
                -3.161485078433974
            ]
        },
        {
            "positions": [
                -0.07458597056730713,
                -1.240166855155609,
                2.16535296226174,
                -0.8897904768585773,
                0.604240239060973,
                -3.1459814469680976
            ]
        },
        {
            "positions": [
                -0.14038513965234123,
                -1.2737275844347806,
                2.2299548132638836,
                -0.9262310830437662,
                0.7624581534345383,
                -3.1304778155022213
            ]
        },
        {
            "positions": [
                -0.20618430873737537,
                -1.3072883137139522,
                2.2945566642660276,
                -0.9626716892289551,
                0.9206760678081036,
                -3.114974184036345
            ]
        },
        {
            "positions": [
                -0.27198347782240945,
                -1.3408490429931237,
                2.359158515268171,
                -0.999112295414144,
                1.0788939821816688,
                -3.099470552570469
            ]
        },
        {
            "positions": [
                -0.3377826469074436,
                -1.3744097722722952,
                2.423760366270315,
                -1.035552901599333,
                1.2371118965552343,
                -3.083966921104593
            ]
        }
    ]
}