{
    "goal": {
        "global_pose": {
            "orientation": {
                "w": 0.7047431468963623,
                "x": -0.7094548344612122,
                "y": 0.0024358443915843964,
                "z": -0.0022348060738295317
            },
            "position": {
                "x": 0.6094750761985779,
                "y": 0.3671506643295288,
                "z": 0.19426114857196808
            }
        },
        "name": "move_to_magneteinheit_target"
    },
    "id": "SPARStwo_move_to_magneteinheit_target_7",
    "joint_names": [
        "shoulder_pan_joint",
        "shoulder_lift_joint",
        "elbow_joint",
        "wrist_1_joint",
        "wrist_2_joint",
        "wrist_3_joint"
    ],
    "metrics": {
        "cart_traj_len": 4.390906265025444,
        "distance_elbow_joint": 4.855781569733482,
        "distance_shoulder_lift_joint": 1.6060473557880202,
        "distance_shoulder_pan_joint": 5.941266566901729,
        "distance_wrist_1_joint": 4.326787338441214,
        "distance_wrist_2_joint": 1.980659527549001,
        "distance_wrist_3_joint": 2.5959276613950313,
        "smoothness": 0.2995366348375294,
        "time": 3.0300546809999997,
        "traj_len": 4.615893198483743,
        "weighted_distance": 5.72763233881058
    },
    "planner": "SPARStwo",
    "start": {
        "state": {
            "elbow_joint": -1.9196185737098679,
            "shoulder_lift_joint": -1.2443395971259867,
            "shoulder_pan_joint": 2.6996025301141957,
            "wrist_1_joint": -1.548550951469146,
            "wrist_2_joint": -1.5709469089955597,
            "wrist_3_joint": 0.4420197730596999
        }
    },
    "waypoints": [
        {
            "positions": [
                2.6996025301141957,
                -1.2443395971259867,
                -1.9196185737098679,
                -1.548550951469146,
                -1.5709469089955597,
                0.4420197730596999
            ]
        },
        {
            "positions": [
                2.555470299580641,
                -1.2533340572193052,
                -1.944035902797696,
                -1.4554344829905512,
                -1.5500983863708786,
                0.5278508500135088
            ]
        },
        {
            "positions": [
                2.411338069047086,
                -1.2623285173126237,
                -1.968453231885524,
                -1.3623180145119564,
                -1.5292498637461973,
                0.6136819269673178
            ]
        },
        {
            "positions": [
                2.267205838513531,
                -1.2713229774059422,
                -1.992870560973352,
                -1.2692015460333617,
                -1.5084013411215162,
                0.6995130039211268
            ]
        },
        {
            "positions": [
                2.1230736079799764,
                -1.2803174374992605,
                -2.01728789006118,
                -1.1760850775547669,
                -1.487552818496835,
                0.7853440808749358
            ]
        },
        {
            "positions": [
                1.9789413774464215,
                -1.289311897592579,
                -2.041705219149008,
                -1.082968609076172,
                -1.466704295872154,
                0.8711751578287448
            ]
        },
        {
            "positions": [
                1.8348091469128667,
                -1.2983063576858975,
                -2.066122548236836,
                -0.9898521405975773,
                -1.4458557732474726,
                0.9570062347825536
            ]
        },
        {
            "positions": [
                1.6906769163793118,
                -1.307300817779216,
                -2.090539877324664,
                -0.8967356721189825,
                -1.4250072506227915,
                1.0428373117363625
            ]
        },
        {
            "positions": [
                1.5465446858457568,
                -1.3162952778725345,
                -2.114957206412492,
                -0.8036192036403877,
                -1.4041587279981103,
                1.1286683886901716
            ]
        },
        {
            "positions": [
                1.402412455312202,
                -1.325289737965853,
                -2.13937453550032,
                -0.710502735161793,
                -1.3833102053734292,
                1.2144994656439805
            ]
        },
        {
            "positions": [
                1.258280224778647,
                -1.3342841980591715,
                -2.1637918645881484,
                -0.6173862666831982,
                -1.362461682748748,
                1.3003305425977896
            ]
        },
        {
            "positions": [
                1.114147994245092,
                -1.3432786581524898,
                -2.188209193675976,
                -0.5242697982046034,
                -1.3416131601240668,
                1.3861616195515984
            ]
        },
        {
            "positions": [
                0.9700157637115374,
                -1.3522731182458083,
                -2.2126265227638044,
                -0.4311533297260086,
                -1.3207646374993858,
                1.4719926965054075
            ]
        },
        {
            "positions": [
                0.8258835331779824,
                -1.3612675783391268,
                -2.2370438518516322,
                -0.33803686124741383,
                -1.2999161148747045,
                1.5578237734592164
            ]
        },
        {
            "positions": [
                0.681751302644428,
                -1.3702620384324453,
                -2.2614611809394605,
                -0.24492039276881905,
                -1.2790675922500234,
                1.6436548504130253
            ]
        },
        {
            "positions": [
                0.5376190721108727,
                -1.3792564985257638,
                -2.2858785100272883,
                -0.15180392429022427,
                -1.2582190696253421,
                1.7294859273668344
            ]
        },
        {
            "positions": [
                0.39348684157731784,
                -1.3882509586190823,
                -2.3102958391151165,
                -0.058687455811629485,
                -1.237370547000661,
                1.8153170043206435
            ]
        },
        {
            "positions": [
                0.249354611043763,
                -1.3972454187124006,
                -2.3347131682029443,
                0.0344290126669653,
                -1.2165220243759798,
                1.9011480812744523
            ]
        },
        {
            "positions": [
                0.10522238051020816,
                -1.406239878805719,
                -2.3591304972907725,
                0.12754548114556008,
                -1.1956735017512987,
                1.9869791582282612
            ]
        },
        {
            "positions": [
                -0.03890985002334668,
                -1.4152343388990376,
                -2.3835478263786003,
                0.22066194962415486,
                -1.1748249791266177,
                2.07281023518207
            ]
        },
        {
            "positions": [
                -0.1830420805569014,
                -1.424228798992356,
                -2.4079651554664285,
                0.3137784181027497,
                -1.1539764565019364,
                2.158641312135879
            ]
        },
        {
            "positions": [
                -0.3039482404693876,
                -1.3908855834044571,
                -2.3817778504768166,
                0.38792472228976743,
                -1.1525106727997863,
                2.225209234688691
            ]
        },
        {
            "positions": [
                -0.4248544003818739,
                -1.3575423678165581,
                -2.355590545487204,
                0.4620710264767852,
                -1.1510448890976361,
                2.2917771572415027
            ]
        },
        {
            "positions": [
                -0.54576056029436,
                -1.3241991522286591,
                -2.329403240497592,
                0.536217330663803,
                -1.1495791053954862,
                2.3583450797943146
            ]
        },
        {
            "positions": [
                -0.6666667202068464,
                -1.2908559366407601,
                -2.3032159355079798,
                0.6103636348508207,
                -1.1481133216933361,
                2.424913002347126
            ]
        },
        {
            "positions": [
                -0.7875728801193326,
                -1.2575127210528612,
                -2.277028630518368,
                0.6845099390378384,
                -1.146647537991186,
                2.491480924899938
            ]
        },
        {
            "positions": [
                -0.8840547861724144,
                -1.1709144737646455,
                -2.1862217519551113,
                0.7271647574053454,
                -1.1644455741082331,
                2.527674999853985
            ]
        },
        {
            "positions": [
                -0.9805366922254962,
                -1.08431622647643,
                -2.0954148733918547,
                0.7698195757728523,
                -1.1822436102252805,
                2.563869074808032
            ]
        },
        {
            "positions": [
                -1.077018598278578,
                -0.9977179791882144,
                -2.0046079948285986,
                0.8124743941403594,
                -1.2000416463423278,
                2.600063149762079
            ]
        },
        {
            "positions": [
                -1.1735005043316598,
                -0.9111197318999988,
                -1.913801116265342,
                0.8551292125078663,
                -1.217839682459375,
                2.6362572247161262
            ]
        },
        {
            "positions": [
                -1.2699824103847417,
                -0.8245214846117832,
                -1.8229942377020856,
                0.8977840308753733,
                -1.235637718576422,
                2.6724512996701733
            ]
        },
        {
            "positions": [
                -1.3664643164378234,
                -0.7379232373235676,
                -1.7321873591388293,
                0.9404388492428803,
                -1.2534357546934694,
                2.7086453746242203
            ]
        },
        {
            "positions": [
                -1.4629462224909053,
                -0.651324990035352,
                -1.641380480575573,
                0.9830936676103873,
                -1.2712337908105167,
                2.7448394495782673
            ]
        },
        {
            "positions": [
                -1.559428128543987,
                -0.5647267427471364,
                -1.5505736020123164,
                1.0257484859778943,
                -1.2890318269275638,
                2.7810335245323143
            ]
        },
        {
            "positions": [
                -1.4893349657005057,
                -0.5883374134836543,
                -1.4043217922405327,
                0.9527281567698037,
                -1.23011616577722,
                2.791738270779082
            ]
        },
        {
            "positions": [
                -1.4192418028570244,
                -0.6119480842201722,
                -1.258069982468749,
                0.8797078275617132,
                -1.1712005046268763,
                2.802443017025849
            ]
        },
        {
            "positions": [
                -1.349148640013543,
                -0.6355587549566902,
                -1.1118181726969651,
                0.8066874983536226,
                -1.1122848434765324,
                2.8131477632726165
            ]
        },
        {
            "positions": [
                -1.2790554771700617,
                -0.6591694256932081,
                -0.9655663629251813,
                0.7336671691455321,
                -1.0533691823261888,
                2.8238525095193836
            ]
        },
        {
            "positions": [
                -1.2089623143265804,
                -0.682780096429726,
                -0.8193145531533974,
                0.6606468399374416,
                -0.994453521175845,
                2.834557255766151
            ]
        },
        {
            "positions": [
                -1.138869151483099,
                -0.7063907671662439,
                -0.6730627433816136,
                0.587626510729351,
                -0.9355378600255013,
                2.8452620020129187
            ]
        },
        {
            "positions": [
                -1.0687759886396178,
                -0.730001437902762,
                -0.5268109336098299,
                0.5146061815212605,
                -0.8766221988751575,
                2.8559667482596858
            ]
        },
        {
            "positions": [
                -0.9986828257961365,
                -0.7536121086392797,
                -0.38055912383804613,
                0.44158585231316994,
                -0.8177065377248138,
                2.8666714945064533
            ]
        },
        {
            "positions": [
                -0.9285896629526552,
                -0.7772227793757978,
                -0.23430731406626215,
                0.3685655231050794,
                -0.75879087657447,
                2.877376240753221
            ]
        },
        {
            "positions": [
                -0.8584965001091739,
                -0.8008334501123157,
                -0.08805550429447839,
                0.29554519389698886,
                -0.6998752154241262,
                2.888080986999988
            ]
        },
        {
            "positions": [
                -0.7884033372656926,
                -0.8244441208488336,
                0.058196305477305366,
                0.22252486468889832,
                -0.6409595542737825,
                2.8987857332467555
            ]
        },
        {
            "positions": [
                -0.7183101744222112,
                -0.8480547915853516,
                0.20444811524908912,
                0.14950453548080778,
                -0.5820438931234387,
                2.909490479493523
            ]
        },
        {
            "positions": [
                -0.64821701157873,
                -0.8716654623218694,
                0.3506999250208729,
                0.07648420627271735,
                -0.523128231973095,
                2.92019522574029
            ]
        },
        {
            "positions": [
                -0.5781238487352486,
                -0.8952761330583874,
                0.49695173479265664,
                0.003463877064626697,
                -0.46421257082275114,
                2.9308999719870577
            ]
        },
        {
            "positions": [
                -0.5080306858917674,
                -0.9188868037949053,
                0.6432035445644404,
                -0.06955645214346373,
                -0.4052969096724075,
                2.9416047182338247
            ]
        },
        {
            "positions": [
                -0.43793752304828604,
                -0.9424974745314232,
                0.7894553543362242,
                -0.14257678135155438,
                -0.34638124852206376,
                2.9523094644805923
            ]
        },
        {
            "positions": [
                -0.3678443602048045,
                -0.9661081452679412,
                0.9357071641080084,
                -0.21559711055964503,
                -0.28746558737172,
                2.96301421072736
            ]
        },
        {
            "positions": [
                -0.2977511973613234,
                -0.9897188160044591,
                1.0819589738797921,
                -0.28861743976773546,
                -0.22854992622137615,
                2.973718956974127
            ]
        },
        {
            "positions": [
                -0.22765803451784206,
                -1.013329486740977,
                1.2282107836515754,
                -0.3616377689758259,
                -0.16963426507103252,
                2.9844237032208945
            ]
        },
        {
            "positions": [
                -0.15756487167436073,
                -1.036940157477495,
                1.3744625934233596,
                -0.43465809818391654,
                -0.11071860392068866,
                2.9951284494676615
            ]
        },
        {
            "positions": [
                -0.0874717088308794,
                -1.0605508282140128,
                1.5207144031951434,
                -0.5076784273920072,
                -0.05180294277034503,
                3.005833195714429
            ]
        },
        {
            "positions": [
                -0.017378545987398075,
                -1.0841614989505306,
                1.6669662129669272,
                -0.5806987566000976,
                0.007112718379998828,
                3.0165379419611966
            ]
        },
        {
            "positions": [
                0.05271461685608325,
                -1.1077721696870486,
                1.813218022738711,
                -0.6537190858081883,
                0.06602837953034268,
                3.0272426882079637
            ]
        },
        {
            "positions": [
                0.12280777969956466,
                -1.1313828404235666,
                1.9594698325104947,
                -0.7267394150162786,
                0.12494404068068642,
                3.0379474344547313
            ]
        }
    ]
}