{
    "goal": {
        "global_pose": {
            "orientation": {
                "w": 0.7031023502349854,
                "x": -0.7110244035720825,
                "y": 0.007748599164187908,
                "z": 0.005598929710686207
            },
            "position": {
                "x": 0.11585023208521307,
                "y": 0.44412534475326537,
                "z": 0.3711530566215515
            }
        },
        "name": "move_to_auspresseinheit"
    },
    "id": "SPARStwo_move_to_auspresseinheit_6",
    "joint_names": [
        "shoulder_pan_joint",
        "shoulder_lift_joint",
        "elbow_joint",
        "wrist_1_joint",
        "wrist_2_joint",
        "wrist_3_joint"
    ],
    "metrics": {
        "cart_traj_len": 0.7600984674838176,
        "distance_elbow_joint": 0.18873610309214683,
        "distance_shoulder_lift_joint": 0.5841887300130493,
        "distance_shoulder_pan_joint": 1.0458081384979159,
        "distance_wrist_1_joint": 0.5696731310956771,
        "distance_wrist_2_joint": 0.5147540936462315,
        "distance_wrist_3_joint": 0.39899946031117484,
        "smoothness": 0.5063830906466362,
        "time": 3.006914886,
        "traj_len": 1.8171845411669656,
        "weighted_distance": 2.2769685553429264
    },
    "planner": "SPARStwo",
    "start": {
        "state": {
            "elbow_joint": 2.4225745326682886,
            "shoulder_lift_joint": -1.3736534990239282,
            "shoulder_pan_joint": -0.3378633610955803,
            "wrist_1_joint": -1.02885917317252,
            "wrist_2_joint": 1.233022905420004,
            "wrist_3_joint": -3.09402240754724
        }
    },
    "waypoints": [
        {
            "positions": [
                -0.3378633610955803,
                -1.3736534990239282,
                2.4225745326682886,
                -1.02885917317252,
                1.233022905420004,
                -3.09402240754724
            ]
        },
        {
            "positions": [
                -0.2299363137525379,
                -1.4669002993617808,
                2.4043724901623094,
                -0.9648733769144584,
                1.1778450335559876,
                -3.064041671761532
            ]
        },
        {
            "positions": [
                -0.1220092664094955,
                -1.5601470996996334,
                2.38617044765633,
                -0.9008875806563966,
                1.1226671616919714,
                -3.0340609359758246
            ]
        },
        {
            "positions": [
                -0.014082219066453072,
                -1.6533939000374862,
                2.367968405150351,
                -0.8369017843983348,
                1.067489289827955,
                -3.004080200190117
            ]
        },
        {
            "positions": [
                0.0938448282765893,
                -1.7466407003753388,
                2.349766362644371,
                -0.7729159881402732,
                1.0123114179639388,
                -2.97409946440441
            ]
        },
        {
            "positions": [
                0.20177187561963178,
                -1.8398875007131914,
                2.331564320138392,
                -0.7089301918822115,
                0.9571335460999225,
                -2.9441187286187023
            ]
        },
        {
            "positions": [
                0.30969892296267415,
                -1.933134301051044,
                2.3133622776324128,
                -0.6449443956241497,
                0.9019556742359063,
                -2.9141379928329947
            ]
        },
        {
            "positions": [
                0.4424475411092279,
                -1.9248983250557328,
                2.339870226984503,
                -0.5830249444417142,
                0.8407267200818617,
                -2.9871763413653047
            ]
        },
        {
            "positions": [
                0.5751961592557817,
                -1.9166623490604218,
                2.3663781763365934,
                -0.5211054932592786,
                0.779497765927817,
                -3.0602146898976144
            ]
        },
        {
            "positions": [
                0.7079447774023355,
                -1.9084263730651105,
                2.3928861256886838,
                -0.45918604207684305,
                0.7182688117737724,
                -3.1332530384299244
            ]
        }
    ]
}