{
    "goal": {
        "global_pose": {
            "orientation": {
                "w": 0.7047431468963623,
                "x": -0.7094548344612122,
                "y": 0.0024358443915843964,
                "z": -0.0022348060738295317
            },
            "position": {
                "x": 0.6094750761985779,
                "y": 0.3671506643295288,
                "z": 0.19426114857196808
            }
        },
        "name": "move_to_magneteinheit_target"
    },
    "id": "SPARS_move_to_magneteinheit_target_5",
    "joint_names": [
        "shoulder_pan_joint",
        "shoulder_lift_joint",
        "elbow_joint",
        "wrist_1_joint",
        "wrist_2_joint",
        "wrist_3_joint"
    ],
    "metrics": {
        "cart_traj_len": 4.736926178255112,
        "distance_elbow_joint": 3.8767536241108713,
        "distance_shoulder_lift_joint": 0.5790218839529493,
        "distance_shoulder_pan_joint": 4.251410497056382,
        "distance_wrist_1_joint": 1.0089559467555738,
        "distance_wrist_2_joint": 1.6933155826420134,
        "distance_wrist_3_joint": 2.600879551439252,
        "smoothness": 0.23658769937810653,
        "time": 3.038863169,
        "traj_len": 3.7430384830985965,
        "weighted_distance": 4.68127842776235
    },
    "planner": "SPARS",
    "start": {
        "state": {
            "elbow_joint": -1.9196185737098679,
            "shoulder_lift_joint": -1.2443395971259867,
            "shoulder_pan_joint": 2.6996025301141957,
            "wrist_1_joint": -1.548550951469146,
            "wrist_2_joint": -1.5709469089955597,
            "wrist_3_joint": 0.4420197730596999
        }
    },
    "waypoints": [
        {
            "positions": [
                2.6996025301141957,
                -1.2443395971259867,
                -1.9196185737098679,
                -1.548550951469146,
                -1.5709469089955597,
                0.4420197730596999
            ]
        },
        {
            "positions": [
                2.568265527976795,
                -1.2310289685385603,
                -1.8004330018320838,
                -1.5520681387091877,
                -1.5242293342985436,
                0.5225182302916488
            ]
        },
        {
            "positions": [
                2.436928525839394,
                -1.2177183399511338,
                -1.6812474299542997,
                -1.5555853259492294,
                -1.4775117596015275,
                0.6030166875235976
            ]
        },
        {
            "positions": [
                2.305591523701993,
                -1.2044077113637073,
                -1.5620618580765158,
                -1.559102513189271,
                -1.4307941849045114,
                0.6835151447555464
            ]
        },
        {
            "positions": [
                2.1742545215645923,
                -1.1910970827762808,
                -1.4428762861987317,
                -1.5626197004293128,
                -1.3840766102074955,
                0.7640136019874952
            ]
        },
        {
            "positions": [
                2.042917519427191,
                -1.177786454188854,
                -1.3236907143209478,
                -1.5661368876693542,
                -1.3373590355104794,
                0.8445120592194442
            ]
        },
        {
            "positions": [
                1.9115805172897904,
                -1.1644758256014276,
                -1.2045051424431636,
                -1.569654074909396,
                -1.2906414608134633,
                0.925010516451393
            ]
        },
        {
            "positions": [
                1.7802435151523897,
                -1.151165197014001,
                -1.0853195705653795,
                -1.5731712621494376,
                -1.2439238861164474,
                1.0055089736833418
            ]
        },
        {
            "positions": [
                1.6489065130149887,
                -1.1378545684265746,
                -0.9661339986875954,
                -1.5766884493894793,
                -1.1972063114194311,
                1.0860074309152907
            ]
        },
        {
            "positions": [
                1.517569510877588,
                -1.1245439398391481,
                -0.8469484268098115,
                -1.580205636629521,
                -1.1504887367224153,
                1.1665058881472394
            ]
        },
        {
            "positions": [
                1.386232508740187,
                -1.1112333112517216,
                -0.7277628549320274,
                -1.5837228238695626,
                -1.1037711620253992,
                1.2470043453791884
            ]
        },
        {
            "positions": [
                1.254895506602786,
                -1.0979226826642952,
                -0.6085772830542433,
                -1.5872400111096043,
                -1.057053587328383,
                1.327502802611137
            ]
        },
        {
            "positions": [
                1.123558504465385,
                -1.0846120540768687,
                -0.4893917111764592,
                -1.590757198349646,
                -1.010336012631367,
                1.408001259843086
            ]
        },
        {
            "positions": [
                0.9922215023279843,
                -1.071301425489442,
                -0.3702061392986753,
                -1.5942743855896877,
                -0.963618437934351,
                1.488499717075035
            ]
        },
        {
            "positions": [
                0.8608845001905836,
                -1.0579907969020155,
                -0.2510205674208914,
                -1.5977915728297292,
                -0.916900863237335,
                1.5689981743069836
            ]
        },
        {
            "positions": [
                0.7295474980531829,
                -1.044680168314589,
                -0.1318349955431073,
                -1.6013087600697709,
                -0.8701832885403189,
                1.6494966315389326
            ]
        },
        {
            "positions": [
                0.5982104959157817,
                -1.0313695397271625,
                -0.012649423665322956,
                -1.6048259473098125,
                -0.8234657138433028,
                1.7299950887708815
            ]
        },
        {
            "positions": [
                0.46687349377838094,
                -1.018058911139736,
                0.10653614821246071,
                -1.6083431345498542,
                -0.7767481391462867,
                1.8104935460028304
            ]
        },
        {
            "positions": [
                0.3355364916409802,
                -1.0047482825523095,
                0.22572172009024483,
                -1.611860321789896,
                -0.7300305644492707,
                1.8909920032347791
            ]
        },
        {
            "positions": [
                0.20419948950357902,
                -0.991437653964883,
                0.34490729196802894,
                -1.6153775090299376,
                -0.6833129897522547,
                1.9714904604667278
            ]
        },
        {
            "positions": [
                0.07286248736617829,
                -0.9781270253774565,
                0.46409286384581305,
                -1.6188946962699793,
                -0.6365954150552385,
                2.0519889176986768
            ]
        },
        {
            "positions": [
                -0.058474514771222896,
                -0.96481639679003,
                0.5832784357235972,
                -1.622411883510021,
                -0.5898778403582225,
                2.1324873749306255
            ]
        },
        {
            "positions": [
                -0.18981151690862363,
                -0.9515057682026035,
                0.7024640076013813,
                -1.6259290707500624,
                -0.5431602656612065,
                2.212985832162574
            ]
        },
        {
            "positions": [
                -0.32114851904602437,
                -0.938195139615177,
                0.821649579479165,
                -1.6294462579901041,
                -0.4964426909641906,
                2.2934842893945233
            ]
        },
        {
            "positions": [
                -0.45248552118342555,
                -0.9248845110277504,
                0.9408351513569495,
                -1.6329634452301458,
                -0.44972511626717426,
                2.373982746626472
            ]
        },
        {
            "positions": [
                -0.5838225233208263,
                -0.9115738824403239,
                1.0600207232347332,
                -1.6364806324701875,
                -0.4030075415701584,
                2.454481203858421
            ]
        },
        {
            "positions": [
                -0.7151595254582273,
                -0.8982632538528974,
                1.179206295112517,
                -1.6399978197102292,
                -0.35628996687314224,
                2.53497966109037
            ]
        },
        {
            "positions": [
                -0.6314946813098314,
                -0.9215578079208834,
                1.2569991706413657,
                -1.54824691185878,
                -0.3084241028211826,
                2.585771627431228
            ]
        },
        {
            "positions": [
                -0.5478298371614356,
                -0.9448523619888693,
                1.3347920461702145,
                -1.4564960040073311,
                -0.26055823876922296,
                2.6365635937720864
            ]
        },
        {
            "positions": [
                -0.46416499301303976,
                -0.9681469160568554,
                1.4125849216990631,
                -1.364745096155882,
                -0.21269237471726335,
                2.6873555601129446
            ]
        },
        {
            "positions": [
                -0.3805001488646439,
                -0.9914414701248414,
                1.4903777972279117,
                -1.272994188304433,
                -0.1648265106653037,
                2.738147526453803
            ]
        },
        {
            "positions": [
                -0.2968353047162481,
                -1.0147360241928274,
                1.5681706727567604,
                -1.181243280452984,
                -0.1169606466133441,
                2.788939492794661
            ]
        },
        {
            "positions": [
                -0.21317046056785227,
                -1.0380305782608135,
                1.6459635482856092,
                -1.0894923726015349,
                -0.06909478256138446,
                2.839731459135519
            ]
        },
        {
            "positions": [
                -0.12950561641945646,
                -1.0613251323287993,
                1.7237564238144578,
                -0.9977414647500858,
                -0.021228918509424877,
                2.890523425476377
            ]
        },
        {
            "positions": [
                -0.04584077227106054,
                -1.0846196863967854,
                1.8015492993433067,
                -0.9059905568986367,
                0.026636945542534818,
                2.9413153918172354
            ]
        },
        {
            "positions": [
                0.037824071877335275,
                -1.1079142404647713,
                1.8793421748721553,
                -0.8142396490471877,
                0.0745028095944944,
                2.9921073581580937
            ]
        },
        {
            "positions": [
                0.12148891602573114,
                -1.1312087945327574,
                1.9571350504010039,
                -0.7224887411957387,
                0.12236867364645401,
                3.042899324498952
            ]
        }
    ]
}