{
    "goal": {
        "global_pose": {
            "orientation": {
                "w": 0.5084816217422485,
                "x": -0.49083608388900757,
                "y": 0.5182115435600281,
                "z": -0.4816462993621826
            },
            "position": {
                "x": 0.5540239810943604,
                "y": 0.030875300988554955,
                "z": 0.16403168439865112
            }
        },
        "name": "move_to_storage"
    },
    "id": "SPARStwo_move_to_storage_1",
    "joint_names": [
        "shoulder_pan_joint",
        "shoulder_lift_joint",
        "elbow_joint",
        "wrist_1_joint",
        "wrist_2_joint",
        "wrist_3_joint"
    ],
    "metrics": {
        "cart_traj_len": 0.3522230304781236,
        "distance_elbow_joint": 0.4497459620691253,
        "distance_shoulder_lift_joint": 0.23323720489850075,
        "distance_shoulder_pan_joint": 0.45994284927783413,
        "distance_wrist_1_joint": 0.2483210714454489,
        "distance_wrist_2_joint": 1.0989126713028639,
        "distance_wrist_3_joint": 0.10517952955836618,
        "smoothness": 8.881784197001252e-16,
        "time": 3.021002236,
        "traj_len": 1.6110056761390195,
        "weighted_distance": 2.037874404966406
    },
    "planner": "SPARStwo",
    "start": {
        "state": {
            "elbow_joint": 1.9715474092553085,
            "shoulder_lift_joint": -1.1394846673180945,
            "shoulder_pan_joint": 0.1228115366877952,
            "wrist_1_joint": -0.7804686583030105,
            "wrist_2_joint": 0.12958649594027716,
            "wrist_3_joint": -3.192492341365726
        }
    },
    "waypoints": [
        {
            "positions": [
                0.1228115366877952,
                -1.1394846673180945,
                1.9715474092553085,
                -0.7804686583030105,
                0.12958649594027716,
                -3.192492341365726
            ]
        },
        {
            "positions": [
                0.05710541536239032,
                -1.1728042680178803,
                2.0357968324080407,
                -0.8159430970809317,
                0.2865740204121149,
                -3.1774666942859593
            ]
        },
        {
            "positions": [
                -0.008600705963014557,
                -1.206123868717666,
                2.100046255560773,
                -0.851417535858853,
                0.44356154488395255,
                -3.162441047206193
            ]
        },
        {
            "positions": [
                -0.07430682728841943,
                -1.2394434694174519,
                2.164295678713505,
                -0.8868919746367743,
                0.6005490693557902,
                -3.1474154001264263
            ]
        },
        {
            "positions": [
                -0.1400129486138243,
                -1.2727630701172377,
                2.228545101866237,
                -0.9223664134146956,
                0.757536593827628,
                -3.1323897530466596
            ]
        },
        {
            "positions": [
                -0.20571906993922917,
                -1.3060826708170237,
                2.2927945250189694,
                -0.9578408521926168,
                0.9145241182994657,
                -3.117364105966893
            ]
        },
        {
            "positions": [
                -0.27142519126463405,
                -1.3394022715168095,
                2.3570439481717016,
                -0.9933152909705381,
                1.0715116427713034,
                -3.1023384588871266
            ]
        },
        {
            "positions": [
                -0.3371313125900389,
                -1.3727218722165953,
                2.421293371324434,
                -1.0287897297484594,
                1.2284991672431411,
                -3.08731281180736
            ]
        }
    ]
}