{
    "goal": {
        "global_pose": {
            "orientation": {
                "w": 0.7031023502349854,
                "x": -0.7110244035720825,
                "y": 0.007748599164187908,
                "z": 0.005598929710686207
            },
            "position": {
                "x": 0.11585023208521307,
                "y": 0.44412534475326537,
                "z": 0.3711530566215515
            }
        },
        "name": "move_to_auspresseinheit"
    },
    "id": "SPARStwo_move_to_auspresseinheit_5",
    "joint_names": [
        "shoulder_pan_joint",
        "shoulder_lift_joint",
        "elbow_joint",
        "wrist_1_joint",
        "wrist_2_joint",
        "wrist_3_joint"
    ],
    "metrics": {
        "cart_traj_len": 0.7590394639033136,
        "distance_elbow_joint": 0.25653913664167316,
        "distance_shoulder_lift_joint": 0.5386718258460093,
        "distance_shoulder_pan_joint": 1.043195423196595,
        "distance_wrist_1_joint": 0.5460942158596468,
        "distance_wrist_2_joint": 0.7869905165619869,
        "distance_wrist_3_joint": 6.243579974607896,
        "smoothness": 0.08831720150417269,
        "time": 3.0199111050000003,
        "traj_len": 3.068398783195204,
        "weighted_distance": 4.820302456729373
    },
    "planner": "SPARStwo",
    "start": {
        "state": {
            "elbow_joint": 2.4225745326682886,
            "shoulder_lift_joint": -1.3736534990239282,
            "shoulder_pan_joint": -0.3378633610955803,
            "wrist_1_joint": -1.02885917317252,
            "wrist_2_joint": 1.233022905420004,
            "wrist_3_joint": -3.09402240754724
        }
    },
    "waypoints": [
        {
            "positions": [
                -0.3378633610955803,
                -1.3736534990239282,
                2.4225745326682886,
                -1.02885917317252,
                1.233022905420004,
                -3.09402240754724
            ]
        },
        {
            "positions": [
                -0.3269992546703544,
                -1.396481536000938,
                2.4142758210473176,
                -1.0061284421785752,
                1.194278034142668,
                -2.8026695766345266
            ]
        },
        {
            "positions": [
                -0.31613514824512845,
                -1.419309572977948,
                2.405977109426347,
                -0.9833977111846304,
                1.1555331628653318,
                -2.511316745721813
            ]
        },
        {
            "positions": [
                -0.30527104181990256,
                -1.4421376099549577,
                2.397678397805376,
                -0.9606669801906855,
                1.1167882915879959,
                -2.2199639148090995
            ]
        },
        {
            "positions": [
                -0.29440693539467666,
                -1.4649656469319674,
                2.3893796861844057,
                -0.9379362491967407,
                1.07804342031066,
                -1.9286110838963864
            ]
        },
        {
            "positions": [
                -0.2835428289694507,
                -1.4877936839089774,
                2.3810809745634347,
                -0.9152055182027958,
                1.0392985490333237,
                -1.6372582529836728
            ]
        },
        {
            "positions": [
                -0.2726787225442248,
                -1.5106217208859871,
                2.3727822629424637,
                -0.8924747872088511,
                1.0005536777559878,
                -1.3459054220709594
            ]
        },
        {
            "positions": [
                -0.2618146161189989,
                -1.5334497578629969,
                2.3644835513214932,
                -0.8697440562149062,
                0.9618088064786519,
                -1.0545525911582465
            ]
        },
        {
            "positions": [
                -0.25095050969377297,
                -1.5562777948400068,
                2.3561848397005223,
                -0.8470133252209614,
                0.9230639352013159,
                -0.7631997602455329
            ]
        },
        {
            "positions": [
                -0.24008640326854705,
                -1.5791058318170166,
                2.3478861280795518,
                -0.8242825942270166,
                0.8843190639239797,
                -0.47184692933281935
            ]
        },
        {
            "positions": [
                -0.22922229684332113,
                -1.6019338687940265,
                2.339587416458581,
                -0.8015518632330717,
                0.8455741926466438,
                -0.18049409842010578
            ]
        },
        {
            "positions": [
                -0.21835819041809523,
                -1.6247619057710363,
                2.3312887048376103,
                -0.7788211322391269,
                0.8068293213693079,
                0.11085873249260736
            ]
        },
        {
            "positions": [
                -0.2074940839928693,
                -1.647589942748046,
                2.3229899932166393,
                -0.7560904012451821,
                0.7680844500919717,
                0.40221156340532094
            ]
        },
        {
            "positions": [
                -0.1966299775676434,
                -1.6704179797250558,
                2.3146912815956684,
                -0.7333596702512373,
                0.7293395788146358,
                0.6935643943180336
            ]
        },
        {
            "positions": [
                -0.1857658711424175,
                -1.6932460167020658,
                2.306392569974698,
                -0.7106289392572924,
                0.6905947075372998,
                0.9849172252307468
            ]
        },
        {
            "positions": [
                -0.17490176471719157,
                -1.7160740536790755,
                2.298093858353727,
                -0.6878982082633476,
                0.6518498362599637,
                1.2762700561434603
            ]
        },
        {
            "positions": [
                -0.16403765829196565,
                -1.7389020906560853,
                2.2897951467327564,
                -0.6651674772694027,
                0.6131049649826278,
                1.567622887056174
            ]
        },
        {
            "positions": [
                -0.15317355186673973,
                -1.7617301276330952,
                2.2814964351117855,
                -0.6424367462754579,
                0.5743600937052917,
                1.8589757179688877
            ]
        },
        {
            "positions": [
                -0.030529892728489105,
                -1.7832437272383583,
                2.2979908692668096,
                -0.6196264907093744,
                0.5926926229691881,
                2.043344553553426
            ]
        },
        {
            "positions": [
                0.09211376640976152,
                -1.8047573268436217,
                2.3144853034218342,
                -0.5968162351432909,
                0.6110251522330845,
                2.2277133891379646
            ]
        },
        {
            "positions": [
                0.2147574255480121,
                -1.8262709264488848,
                2.3309797375768584,
                -0.5740059795772073,
                0.6293576814969809,
                2.412082224722503
            ]
        },
        {
            "positions": [
                0.33740108468626273,
                -1.847784526054148,
                2.3474741717318826,
                -0.5511957240111238,
                0.6476902107608773,
                2.596451060307041
            ]
        },
        {
            "positions": [
                0.46004474382451344,
                -1.869298125659411,
                2.3639686058869067,
                -0.5283854684450403,
                0.6660227400247737,
                2.7808198958915797
            ]
        },
        {
            "positions": [
                0.5826884029627639,
                -1.8908117252646743,
                2.3804630400419313,
                -0.5055752128789568,
                0.6843552692886701,
                2.9651887314761183
            ]
        },
        {
            "positions": [
                0.7053320621010146,
                -1.9123253248699374,
                2.3969574741969555,
                -0.4827649573128733,
                0.7026877985525665,
                3.149557567060657
            ]
        }
    ]
}