{
    "goal": {
        "global_pose": {
            "orientation": {
                "w": 0.5084816217422485,
                "x": -0.49083608388900757,
                "y": 0.5182115435600281,
                "z": -0.4816462993621826
            },
            "position": {
                "x": 0.5540239810943604,
                "y": 0.030875300988554955,
                "z": 0.16403168439865112
            }
        },
        "name": "move_to_storage"
    },
    "id": "SPARStwo_move_to_storage_9",
    "joint_names": [
        "shoulder_pan_joint",
        "shoulder_lift_joint",
        "elbow_joint",
        "wrist_1_joint",
        "wrist_2_joint",
        "wrist_3_joint"
    ],
    "metrics": {
        "cart_traj_len": 0.3533854343887479,
        "distance_elbow_joint": 0.45314774162165783,
        "distance_shoulder_lift_joint": 0.2340025620147277,
        "distance_shoulder_pan_joint": 0.46343817023331624,
        "distance_wrist_1_joint": 0.25574182162887893,
        "distance_wrist_2_joint": 1.093856205711646,
        "distance_wrist_3_joint": 0.10819312881269028,
        "smoothness": 0.0,
        "time": 3.008989647,
        "traj_len": 1.6150478723625863,
        "weighted_distance": 2.0431260154451616
    },
    "planner": "SPARStwo",
    "start": {
        "state": {
            "elbow_joint": 1.9715474092553085,
            "shoulder_lift_joint": -1.1394846673180945,
            "shoulder_pan_joint": 0.1228115366877952,
            "wrist_1_joint": -0.7804686583030105,
            "wrist_2_joint": 0.12958649594027716,
            "wrist_3_joint": -3.192492341365726
        }
    },
    "waypoints": [
        {
            "positions": [
                0.1228115366877952,
                -1.1394846673180945,
                1.9715474092553085,
                -0.7804686583030105,
                0.12958649594027716,
                -3.192492341365726
            ]
        },
        {
            "positions": [
                0.056606083797321446,
                -1.1729136047487698,
                2.0362828009155454,
                -0.8170032042499932,
                0.285851668184798,
                -3.17703618010677
            ]
        },
        {
            "positions": [
                -0.009599369093152302,
                -1.2063425421794454,
                2.1010181925757823,
                -0.8535377501969759,
                0.44211684042931887,
                -3.1615800188478147
            ]
        },
        {
            "positions": [
                -0.07580482198362605,
                -1.2397714796101207,
                2.165753584236019,
                -0.8900722961439586,
                0.5983820126738397,
                -3.146123857588859
            ]
        },
        {
            "positions": [
                -0.14201027487409978,
                -1.273200417040796,
                2.2304889758962556,
                -0.9266068420909412,
                0.7546471849183606,
                -3.130667696329903
            ]
        },
        {
            "positions": [
                -0.20821572776457353,
                -1.3066293544714713,
                2.2952243675564925,
                -0.963141388037924,
                0.9109123571628815,
                -3.115211535070947
            ]
        },
        {
            "positions": [
                -0.2744211806550473,
                -1.3400582919021469,
                2.3599597592167294,
                -0.9996759339849067,
                1.0671775294074024,
                -3.0997553738119916
            ]
        },
        {
            "positions": [
                -0.34062663354552103,
                -1.3734872293328222,
                2.4246951508769663,
                -1.0362104799318894,
                1.2234427016519234,
                -3.0842992125530357
            ]
        }
    ]
}