{
    "goal": {
        "global_pose": {
            "orientation": {
                "w": 0.7031023502349854,
                "x": -0.7110244035720825,
                "y": 0.007748599164187908,
                "z": 0.005598929710686207
            },
            "position": {
                "x": 0.11585023208521307,
                "y": 0.44412534475326537,
                "z": 0.3711530566215515
            }
        },
        "name": "move_to_auspresseinheit"
    },
    "id": "STRIDE_move_to_auspresseinheit_10",
    "joint_names": [
        "shoulder_pan_joint",
        "shoulder_lift_joint",
        "elbow_joint",
        "wrist_1_joint",
        "wrist_2_joint",
        "wrist_3_joint"
    ],
    "metrics": {
        "cart_traj_len": 1.6600828266417293,
        "distance_elbow_joint": 1.30310032987303,
        "distance_shoulder_lift_joint": 1.34410784823355,
        "distance_shoulder_pan_joint": 1.0445329528463665,
        "distance_wrist_1_joint": 0.6438161943204335,
        "distance_wrist_2_joint": 0.5250723105535128,
        "distance_wrist_3_joint": 1.1388499164623016,
        "smoothness": 1.1466189406665805,
        "time": 0.458320099,
        "traj_len": 2.4493835045352115,
        "weighted_distance": 3.0734456055196
    },
    "planner": "STRIDE",
    "start": {
        "state": {
            "elbow_joint": 2.4225745326682886,
            "shoulder_lift_joint": -1.3736534990239282,
            "shoulder_pan_joint": -0.3378633610955803,
            "wrist_1_joint": -1.02885917317252,
            "wrist_2_joint": 1.233022905420004,
            "wrist_3_joint": -3.09402240754724
        }
    },
    "waypoints": [
        {
            "positions": [
                -0.3378633610955803,
                -1.3736534990239282,
                2.4225745326682886,
                -1.02885917317252,
                1.233022905420004,
                -3.09402240754724
            ]
        },
        {
            "positions": [
                -0.3068491120882461,
                -1.4766632525026049,
                2.348348740294015,
                -0.9633630795733055,
                1.2129284044381796,
                -3.0332683951636423
            ]
        },
        {
            "positions": [
                -0.2758348630809119,
                -1.5796730059812814,
                2.2741229479197416,
                -0.8978669859740908,
                1.192833903456355,
                -2.9725143827800453
            ]
        },
        {
            "positions": [
                -0.2448206140735777,
                -1.6826827594599578,
                2.199897155545468,
                -0.832370892374876,
                1.1727394024745308,
                -2.911760370396448
            ]
        },
        {
            "positions": [
                -0.21380636506624345,
                -1.7856925129386345,
                2.125671363171195,
                -0.7668747987756614,
                1.1526449014927065,
                -2.8510063580128504
            ]
        },
        {
            "positions": [
                -0.18279211605890924,
                -1.8887022664173112,
                2.051445570796921,
                -0.7013787051764467,
                1.132550400510882,
                -2.7902523456292534
            ]
        },
        {
            "positions": [
                -0.15177786705157506,
                -1.9917120198959877,
                1.977219778422648,
                -0.6358826115772321,
                1.1124558995290577,
                -2.729498333245656
            ]
        },
        {
            "positions": [
                -0.12076361804424085,
                -2.0947217733746646,
                1.9029939860483744,
                -0.5703865179780174,
                1.0923613985472334,
                -2.6687443208620585
            ]
        },
        {
            "positions": [
                -0.08974936903690664,
                -2.1977315268533406,
                1.828768193674101,
                -0.5048904243788028,
                1.0722668975654088,
                -2.6079903084784615
            ]
        },
        {
            "positions": [
                -0.05873512002957243,
                -2.3007412803320175,
                1.7545424012998274,
                -0.4393943307795881,
                1.0521723965835845,
                -2.547236296094864
            ]
        },
        {
            "positions": [
                0.04312356870609607,
                -2.2428701048062374,
                1.8430172312864634,
                -0.4363107312810093,
                1.0051803909618653,
                -2.6227360333865763
            ]
        },
        {
            "positions": [
                0.14498225744176457,
                -2.184998929280457,
                1.9314920612730995,
                -0.43322713178243044,
                0.9581883853401462,
                -2.6982357706782887
            ]
        },
        {
            "positions": [
                0.24684094617743307,
                -2.1271277537546767,
                2.0199668912597355,
                -0.4301435322838516,
                0.9111963797184269,
                -2.773735507970001
            ]
        },
        {
            "positions": [
                0.3486996349131016,
                -2.0692565782288965,
                2.1084417212463715,
                -0.42705993278527277,
                0.8642043740967077,
                -2.849235245261713
            ]
        },
        {
            "positions": [
                0.4505583236487701,
                -2.011385402703116,
                2.1969165512330076,
                -0.42397633328669393,
                0.8172123684749886,
                -2.9247349825534252
            ]
        },
        {
            "positions": [
                0.5524170123844385,
                -1.9535142271773358,
                2.2853913812196436,
                -0.4208927337881151,
                0.7702203628532693,
                -3.0002347198451376
            ]
        },
        {
            "positions": [
                0.6542757011201071,
                -1.8956430516515554,
                2.3738662112062796,
                -0.41780913428953625,
                0.7232283572315501,
                -3.07573445713685
            ]
        },
        {
            "positions": [
                0.7066695917507861,
                -1.907564889896554,
                2.389610599804396,
                -0.4505752897269859,
                0.7079505948664911,
                -3.13930010110479
            ]
        }
    ]
}