{
    "goal": {
        "global_pose": {
            "orientation": {
                "w": 0.7047431468963623,
                "x": -0.7094548344612122,
                "y": 0.0024358443915843964,
                "z": -0.0022348060738295317
            },
            "position": {
                "x": 0.6094750761985779,
                "y": 0.3671506643295288,
                "z": 0.19426114857196808
            }
        },
        "name": "move_to_magneteinheit_target"
    },
    "id": "STRIDE_move_to_magneteinheit_target_8",
    "joint_names": [
        "shoulder_pan_joint",
        "shoulder_lift_joint",
        "elbow_joint",
        "wrist_1_joint",
        "wrist_2_joint",
        "wrist_3_joint"
    ],
    "metrics": {
        "cart_traj_len": 4.469276219006818,
        "distance_elbow_joint": 3.9068351865339777,
        "distance_shoulder_lift_joint": 0.5399181854193916,
        "distance_shoulder_pan_joint": 6.435183304255175,
        "distance_wrist_1_joint": 3.457994896490007,
        "distance_wrist_2_joint": 1.443323583479705,
        "distance_wrist_3_joint": 4.561886869712559,
        "smoothness": 0.24561714666531512,
        "time": 0.086242864,
        "traj_len": 4.510558948278009,
        "weighted_distance": 5.862613260763975
    },
    "planner": "STRIDE",
    "start": {
        "state": {
            "elbow_joint": -1.9196185737098679,
            "shoulder_lift_joint": -1.2443395971259867,
            "shoulder_pan_joint": 2.6996025301141957,
            "wrist_1_joint": -1.548550951469146,
            "wrist_2_joint": -1.5709469089955597,
            "wrist_3_joint": 0.4420197730596999
        }
    },
    "waypoints": [
        {
            "positions": [
                2.6996025301141957,
                -1.2443395971259867,
                -1.9196185737098679,
                -1.548550951469146,
                -1.5709469089955597,
                0.4420197730596999
            ]
        },
        {
            "positions": [
                2.494782927185973,
                -1.245945800190396,
                -1.8398681595125375,
                -1.5447134361914414,
                -1.5595085748855029,
                0.5362580051194831
            ]
        },
        {
            "positions": [
                2.28996332425775,
                -1.247552003254805,
                -1.760117745315207,
                -1.5408759209137366,
                -1.548070240775446,
                0.6304962371792662
            ]
        },
        {
            "positions": [
                2.0851437213295276,
                -1.2491582063192144,
                -1.6803673311178764,
                -1.537038405636032,
                -1.5366319066653895,
                0.7247344692390492
            ]
        },
        {
            "positions": [
                1.880324118401305,
                -1.2507644093836237,
                -1.600616916920546,
                -1.5332008903583274,
                -1.5251935725553327,
                0.8189727012988324
            ]
        },
        {
            "positions": [
                1.6755045154730823,
                -1.252370612448033,
                -1.5208665027232156,
                -1.5293633750806226,
                -1.513755238445276,
                0.9132109333586155
            ]
        },
        {
            "positions": [
                1.4706849125448598,
                -1.253976815512442,
                -1.4411160885258851,
                -1.525525859802918,
                -1.5023169043352191,
                1.0074491654183986
            ]
        },
        {
            "positions": [
                1.265865309616637,
                -1.2555830185768513,
                -1.3613656743285545,
                -1.5216883445252134,
                -1.4908785702251626,
                1.1016873974781818
            ]
        },
        {
            "positions": [
                1.0610457066884142,
                -1.2571892216412606,
                -1.281615260131224,
                -1.5178508292475086,
                -1.4794402361151058,
                1.1959256295379648
            ]
        },
        {
            "positions": [
                0.8562261037601917,
                -1.2587954247056699,
                -1.2018648459338936,
                -1.514013313969804,
                -1.468001902005049,
                1.290163861597748
            ]
        },
        {
            "positions": [
                0.6514065008319689,
                -1.260401627770079,
                -1.1221144317365632,
                -1.5101757986920994,
                -1.4565635678949922,
                1.384402093657531
            ]
        },
        {
            "positions": [
                0.4465868979037464,
                -1.2620078308344882,
                -1.0423640175392328,
                -1.5063382834143946,
                -1.4451252337849354,
                1.4786403257173142
            ]
        },
        {
            "positions": [
                0.24176729497552385,
                -1.2636140338988975,
                -0.9626136033419023,
                -1.50250076813669,
                -1.4336868996748788,
                1.5728785577770972
            ]
        },
        {
            "positions": [
                0.03694769204730086,
                -1.2652202369633065,
                -0.8828631891445717,
                -1.4986632528589854,
                -1.422248565564822,
                1.6671167898368804
            ]
        },
        {
            "positions": [
                -0.16787191088092168,
                -1.2668264400277158,
                -0.8031127749472413,
                -1.4948257375812808,
                -1.4108102314547653,
                1.7613550218966636
            ]
        },
        {
            "positions": [
                -0.3726915138091442,
                -1.2684326430921251,
                -0.7233623607499109,
                -1.490988222303576,
                -1.3993718973447087,
                1.8555932539564466
            ]
        },
        {
            "positions": [
                -0.5775111167373672,
                -1.2700388461565344,
                -0.6436119465525802,
                -1.4871507070258714,
                -1.387933563234652,
                1.9498314860162298
            ]
        },
        {
            "positions": [
                -0.7823307196655893,
                -1.2716450492209435,
                -0.5638615323552498,
                -1.4833131917481668,
                -1.376495229124595,
                2.044069718076013
            ]
        },
        {
            "positions": [
                -0.9871503225938123,
                -1.2732512522853527,
                -0.4841111181579194,
                -1.479475676470462,
                -1.3650568950145383,
                2.138307950135796
            ]
        },
        {
            "positions": [
                -1.1919699255220348,
                -1.274857455349762,
                -0.404360703960589,
                -1.4756381611927574,
                -1.3536185609044815,
                2.2325461821955788
            ]
        },
        {
            "positions": [
                -1.3967895284502578,
                -1.2764636584141713,
                -0.32461028976325856,
                -1.4718006459150528,
                -1.342180226794425,
                2.326784414255362
            ]
        },
        {
            "positions": [
                -1.6016091313784804,
                -1.2780698614785804,
                -0.24485987556592792,
                -1.467963130637348,
                -1.3307418926843682,
                2.421022646315145
            ]
        },
        {
            "positions": [
                -1.8064287343067027,
                -1.2796760645429897,
                -0.1651094613685975,
                -1.4641256153596434,
                -1.3193035585743114,
                2.5152608783749284
            ]
        },
        {
            "positions": [
                -1.742123666312227,
                -1.2628566739429101,
                -0.09336525889550724,
                -1.3516732966802933,
                -1.2795808841390295,
                2.4323060195616844
            ]
        },
        {
            "positions": [
                -1.6778185983177512,
                -1.2460372833428304,
                -0.02162105642241699,
                -1.239220978000943,
                -1.2398582097037476,
                2.34935116074844
            ]
        },
        {
            "positions": [
                -1.6135135303232755,
                -1.2292178927427508,
                0.05012314605067325,
                -1.126768659321593,
                -1.2001355352684657,
                2.266396301935196
            ]
        },
        {
            "positions": [
                -1.5492084623287998,
                -1.212398502142671,
                0.12186734852376352,
                -1.0143163406422429,
                -1.1604128608331838,
                2.1834414431219513
            ]
        },
        {
            "positions": [
                -1.484903394334324,
                -1.1955791115425916,
                0.19361155099685373,
                -0.9018640219628928,
                -1.120690186397902,
                2.1004865843087073
            ]
        },
        {
            "positions": [
                -1.4205983263398483,
                -1.1787597209425118,
                0.265355753469944,
                -0.7894117032835426,
                -1.08096751196262,
                2.017531725495463
            ]
        },
        {
            "positions": [
                -1.3562932583453726,
                -1.1619403303424323,
                0.3370999559430342,
                -0.6769593846041925,
                -1.041244837527338,
                1.9345768666822187
            ]
        },
        {
            "positions": [
                -1.2919881903508967,
                -1.1451209397423527,
                0.40884415841612454,
                -0.5645070659248425,
                -1.0015221630920563,
                1.8516220078689742
            ]
        },
        {
            "positions": [
                -1.227683122356421,
                -1.128301549142273,
                0.48058836088921475,
                -0.4520547472454923,
                -0.9617994886567743,
                1.7686671490557302
            ]
        },
        {
            "positions": [
                -1.1633780543619454,
                -1.1114821585421935,
                0.552332563362305,
                -0.3396024285661423,
                -0.9220768142214925,
                1.685712290242486
            ]
        },
        {
            "positions": [
                -1.0990729863674695,
                -1.094662767942114,
                0.6240767658353952,
                -0.22715010988679207,
                -0.8823541397862106,
                1.6027574314292417
            ]
        },
        {
            "positions": [
                -1.0347679183729936,
                -1.0778433773420342,
                0.6958209683084855,
                -0.11469779120744183,
                -0.8426314653509286,
                1.5198025726159972
            ]
        },
        {
            "positions": [
                -0.970462850378518,
                -1.0610239867419544,
                0.7675651707815758,
                -0.0022454725280918186,
                -0.8029087909156467,
                1.4368477138027531
            ]
        },
        {
            "positions": [
                -0.9061577823840423,
                -1.0442045961418749,
                0.8393093732546659,
                0.11020684615125842,
                -0.7631861164803648,
                1.3538928549895088
            ]
        },
        {
            "positions": [
                -0.8418527143895665,
                -1.0273852055417954,
                0.9110535757277562,
                0.22265916483060844,
                -0.723463442045083,
                1.2709379961762646
            ]
        },
        {
            "positions": [
                -0.7775476463950908,
                -1.0105658149417156,
                0.9827977782008466,
                0.33511148350995845,
                -0.6837407676098011,
                1.1879831373630203
            ]
        },
        {
            "positions": [
                -0.7132425784006151,
                -0.9937464243416361,
                1.0545419806739367,
                0.4475638021893087,
                -0.6440180931745192,
                1.105028278549776
            ]
        },
        {
            "positions": [
                -0.6489375104061395,
                -0.9769270337415564,
                1.126286183147027,
                0.5600161208686587,
                -0.6042954187392373,
                1.0220734197365318
            ]
        },
        {
            "positions": [
                -0.5846324424116636,
                -0.9601076431414768,
                1.198030385620117,
                0.672468439548009,
                -0.5645727443039554,
                0.9391185609232877
            ]
        },
        {
            "positions": [
                -0.5203273744171879,
                -0.9432882525413973,
                1.2697745880932074,
                0.7849207582273587,
                -0.5248500698686736,
                0.8561637021100434
            ]
        },
        {
            "positions": [
                -0.45602230642271224,
                -0.9264688619413175,
                1.3415187905662977,
                0.897373076906709,
                -0.4851273954333917,
                0.7732088432967992
            ]
        },
        {
            "positions": [
                -0.39171723842823636,
                -0.909649471341238,
                1.4132629930393878,
                1.0098253955860592,
                -0.4454047209981098,
                0.6902539844835549
            ]
        },
        {
            "positions": [
                -0.3274121704337605,
                -0.8928300807411582,
                1.4850071955124784,
                1.1222777142654095,
                -0.4056820465628277,
                0.6072991256703104
            ]
        },
        {
            "positions": [
                -0.2631071024392848,
                -0.8760106901410787,
                1.5567513979855685,
                1.2347300329447597,
                -0.3659593721275458,
                0.5243442668570661
            ]
        },
        {
            "positions": [
                -0.19880203444480915,
                -0.859191299540999,
                1.6284956004586588,
                1.34718235162411,
                -0.32623669769226393,
                0.4413894080438219
            ]
        },
        {
            "positions": [
                -0.13449696645033327,
                -0.8423719089409194,
                1.7002398029317491,
                1.4596346703034597,
                -0.28651402325698205,
                0.3584345492305778
            ]
        },
        {
            "positions": [
                -0.0701918984558576,
                -0.8255525183408399,
                1.7719840054048392,
                1.57208698898281,
                -0.24679134882170017,
                0.27547969041733333
            ]
        },
        {
            "positions": [
                -0.005886830461381942,
                -0.8087331277407601,
                1.8437282078779293,
                1.6845393076621602,
                -0.2070686743864183,
                0.19252483160408929
            ]
        },
        {
            "positions": [
                0.05841823753309394,
                -0.7919137371406806,
                1.91547241035102,
                1.79699162634151,
                -0.16734599995113641,
                0.1095699727908448
            ]
        },
        {
            "positions": [
                0.12272330552756963,
                -0.7750943465406009,
                1.9872166128241102,
                1.9094439450208605,
                -0.12762332551585465,
                0.02661511397760073
            ]
        }
    ]
}