{
    "goal": {
        "global_pose": {
            "orientation": {
                "w": 0.7047431468963623,
                "x": -0.7094548344612122,
                "y": 0.0024358443915843964,
                "z": -0.0022348060738295317
            },
            "position": {
                "x": 0.6094750761985779,
                "y": 0.3671506643295288,
                "z": 0.19426114857196808
            }
        },
        "name": "move_to_magneteinheit_target"
    },
    "id": "STRIDE_move_to_magneteinheit_target_2",
    "joint_names": [
        "shoulder_pan_joint",
        "shoulder_lift_joint",
        "elbow_joint",
        "wrist_1_joint",
        "wrist_2_joint",
        "wrist_3_joint"
    ],
    "metrics": {
        "cart_traj_len": 3.7702106175514936,
        "distance_elbow_joint": 3.9019667346830618,
        "distance_shoulder_lift_joint": 1.1245649705601444,
        "distance_shoulder_pan_joint": 5.048533795782616,
        "distance_wrist_1_joint": 3.1465821289205183,
        "distance_wrist_2_joint": 2.3769395735308927,
        "distance_wrist_3_joint": 2.7029262713482094,
        "smoothness": 0.3631790526390147,
        "time": 0.11070847,
        "traj_len": 4.278026820255508,
        "weighted_distance": 5.406559693554976
    },
    "planner": "STRIDE",
    "start": {
        "state": {
            "elbow_joint": -1.9196185737098679,
            "shoulder_lift_joint": -1.2443395971259867,
            "shoulder_pan_joint": 2.6996025301141957,
            "wrist_1_joint": -1.548550951469146,
            "wrist_2_joint": -1.5709469089955597,
            "wrist_3_joint": 0.4420197730596999
        }
    },
    "waypoints": [
        {
            "positions": [
                2.6996025301141957,
                -1.2443395971259867,
                -1.9196185737098679,
                -1.548550951469146,
                -1.5709469089955597,
                0.4420197730596999
            ]
        },
        {
            "positions": [
                2.5874567988821306,
                -1.2594127480145685,
                -1.8185696187776526,
                -1.4918041777459354,
                -1.5110388897069194,
                0.4877896617082951
            ]
        },
        {
            "positions": [
                2.475311067650065,
                -1.2744858989031502,
                -1.7175206638454372,
                -1.435057404022725,
                -1.451130870418279,
                0.5335595503568903
            ]
        },
        {
            "positions": [
                2.363165336418,
                -1.2895590497917322,
                -1.616471708913222,
                -1.3783106302995145,
                -1.3912228511296387,
                0.5793294390054855
            ]
        },
        {
            "positions": [
                2.251019605185935,
                -1.304632200680314,
                -1.5154227539810066,
                -1.3215638565763042,
                -1.3313148318409984,
                0.6250993276540806
            ]
        },
        {
            "positions": [
                2.1388738739538695,
                -1.3197053515688957,
                -1.4143737990487912,
                -1.2648170828530936,
                -1.271406812552358,
                0.6708692163026758
            ]
        },
        {
            "positions": [
                2.0267281427218045,
                -1.3347785024574774,
                -1.313324844116576,
                -1.2080703091298832,
                -1.2114987932637178,
                0.716639104951271
            ]
        },
        {
            "positions": [
                1.9145824114897394,
                -1.3498516533460594,
                -1.2122758891843608,
                -1.1513235354066729,
                -1.1515907739750775,
                0.7624089935998661
            ]
        },
        {
            "positions": [
                1.8024366802576743,
                -1.3649248042346411,
                -1.1112269342521452,
                -1.0945767616834623,
                -1.0916827546864372,
                0.8081788822484613
            ]
        },
        {
            "positions": [
                1.690290949025609,
                -1.3799979551232229,
                -1.0101779793199301,
                -1.0378299879602517,
                -1.0317747353977968,
                0.8539487708970566
            ]
        },
        {
            "positions": [
                1.5781452177935438,
                -1.3950711060118046,
                -0.9091290243877146,
                -0.9810832142370413,
                -0.9718667161091565,
                0.8997186595456517
            ]
        },
        {
            "positions": [
                1.4659994865614785,
                -1.4101442569003866,
                -0.8080800694554993,
                -0.9243364405138308,
                -0.9119586968205162,
                0.945488548194247
            ]
        },
        {
            "positions": [
                1.3538537553294134,
                -1.4252174077889683,
                -0.7070311145232839,
                -0.8675896667906203,
                -0.8520506775318759,
                0.9912584368428421
            ]
        },
        {
            "positions": [
                1.2417080240973484,
                -1.44029055867755,
                -0.6059821595910688,
                -0.81084289306741,
                -0.7921426582432356,
                1.0370283254914372
            ]
        },
        {
            "positions": [
                1.129562292865283,
                -1.4553637095661318,
                -0.5049332046588535,
                -0.7540961193441995,
                -0.7322346389545953,
                1.0827982141400325
            ]
        },
        {
            "positions": [
                1.0174165616332178,
                -1.4704368604547136,
                -0.40388424972663817,
                -0.6973493456209889,
                -0.672326619665955,
                1.1285681027886276
            ]
        },
        {
            "positions": [
                0.9052708304011527,
                -1.4855100113432955,
                -0.30283529479442284,
                -0.6406025718977785,
                -0.6124186003773147,
                1.1743379914372227
            ]
        },
        {
            "positions": [
                0.7931250991690875,
                -1.5005831622318773,
                -0.2017863398622075,
                -0.583855798174568,
                -0.5525105810886743,
                1.220107880085818
            ]
        },
        {
            "positions": [
                0.6809793679370224,
                -1.515656313120459,
                -0.10073738492999218,
                -0.5271090244513574,
                -0.49260256180003403,
                1.2658777687344132
            ]
        },
        {
            "positions": [
                0.5688336367049569,
                -1.530729464009041,
                0.00031157000222314934,
                -0.4703622507281471,
                -0.4326945425113937,
                1.3116476573830085
            ]
        },
        {
            "positions": [
                0.45668790547289184,
                -1.5458026148976227,
                0.1013605249344387,
                -0.4136154770049365,
                -0.3727865232227534,
                1.3574175460316036
            ]
        },
        {
            "positions": [
                0.3445421742408268,
                -1.5608757657862045,
                0.2024094798666538,
                -0.35686870328172615,
                -0.3128785039341131,
                1.4031874346801987
            ]
        },
        {
            "positions": [
                0.23239644300876128,
                -1.5759489166747862,
                0.30345843479886936,
                -0.3001219295585156,
                -0.2529704846454728,
                1.448957323328794
            ]
        },
        {
            "positions": [
                0.12025071177669622,
                -1.591022067563368,
                0.40450738973108447,
                -0.243375155835305,
                -0.19306246535683247,
                1.4947272119773891
            ]
        },
        {
            "positions": [
                0.008104980544631157,
                -1.60609521845195,
                0.5055563446633,
                -0.18662838211209465,
                -0.13315444606819216,
                1.5404971006259844
            ]
        },
        {
            "positions": [
                -0.10404075068743435,
                -1.6211683693405317,
                0.6066052995955151,
                -0.12988160838888407,
                -0.07324642677955184,
                1.5862669892745795
            ]
        },
        {
            "positions": [
                -0.21618648191949896,
                -1.6362415202291134,
                0.7076542545277302,
                -0.07313483466567394,
                -0.01333840749091153,
                1.6320368779231746
            ]
        },
        {
            "positions": [
                -0.32833221315156447,
                -1.6513146711176951,
                0.8087032094599453,
                -0.016388060942463367,
                0.04656961179772878,
                1.6778067665717697
            ]
        },
        {
            "positions": [
                -0.4404779443836295,
                -1.666387822006277,
                0.9097521643921609,
                0.040358712780746986,
                0.1064776310863691,
                1.723576655220365
            ]
        },
        {
            "positions": [
                -0.5526236756156946,
                -1.6814609728948589,
                1.010801119324376,
                0.09710548650395756,
                0.1663856503750094,
                1.7693465438689602
            ]
        },
        {
            "positions": [
                -0.6647694068477601,
                -1.6965341237834406,
                1.1118500742565915,
                0.15385226022716814,
                0.22629366966364972,
                1.8151164325175553
            ]
        },
        {
            "positions": [
                -0.7769151380798252,
                -1.7116072746720223,
                1.2128990291888067,
                0.2105990339503785,
                0.28620168895229003,
                1.8608863211661506
            ]
        },
        {
            "positions": [
                -0.8890608693118902,
                -1.726680425560604,
                1.3139479841210222,
                0.26734580767358906,
                0.34610970824093035,
                1.9066562098147457
            ]
        },
        {
            "positions": [
                -1.0012066005439557,
                -1.741753576449186,
                1.4149969390532373,
                0.3240925813967994,
                0.40601772752957066,
                1.952426098463341
            ]
        },
        {
            "positions": [
                -1.113352331776021,
                -1.7568267273377678,
                1.5160458939854529,
                0.38083935512001005,
                0.4659257468182111,
                1.9981959871119361
            ]
        },
        {
            "positions": [
                -1.0183077983996824,
                -1.7097438165417398,
                1.551915299138356,
                0.28720921494067453,
                0.4397667531476631,
                2.0864075299808573
            ]
        },
        {
            "positions": [
                -0.9232632650233438,
                -1.6626609057457118,
                1.5877847042912592,
                0.19357907476133895,
                0.4136077594771152,
                2.174619072849778
            ]
        },
        {
            "positions": [
                -0.8282187316470051,
                -1.615577994949684,
                1.623654109444162,
                0.09994893458200343,
                0.38744876580656723,
                2.2628306157186993
            ]
        },
        {
            "positions": [
                -0.7331741982706665,
                -1.568495084153656,
                1.6595235145970653,
                0.00631879440266786,
                0.3612897721360193,
                2.35104215858762
            ]
        },
        {
            "positions": [
                -0.638129664894328,
                -1.521412173357628,
                1.6953929197499684,
                -0.08731134577666766,
                0.33513077846547135,
                2.439253701456541
            ]
        },
        {
            "positions": [
                -0.5430851315179893,
                -1.4743292625616,
                1.7312623249028716,
                -0.18094148595600318,
                0.3089717847949234,
                2.5274652443254624
            ]
        },
        {
            "positions": [
                -0.44804059814165076,
                -1.4272463517655722,
                1.7671317300557745,
                -0.27457162613533875,
                0.28281279112437546,
                2.615676787194383
            ]
        },
        {
            "positions": [
                -0.3529960647653121,
                -1.3801634409695442,
                1.8030011352086777,
                -0.36820176631467433,
                0.2566537974538275,
                2.7038883300633043
            ]
        },
        {
            "positions": [
                -0.25795153138897353,
                -1.3330805301735162,
                1.8388705403615808,
                -0.4618319064940098,
                0.23049480378327955,
                2.7920998729322255
            ]
        },
        {
            "positions": [
                -0.16290699801263486,
                -1.2859976193774882,
                1.874739945514484,
                -0.5554620466733453,
                0.2043358101127316,
                2.8803114158011462
            ]
        },
        {
            "positions": [
                -0.06786246463629642,
                -1.2389147085814605,
                1.9106093506673871,
                -0.6490921868526809,
                0.17817681644218364,
                2.9685229586700674
            ]
        },
        {
            "positions": [
                0.027182068740042364,
                -1.1918317977854325,
                1.94647875582029,
                -0.7427223270320165,
                0.15201782277163567,
                3.0567345015389886
            ]
        },
        {
            "positions": [
                0.1222266021163809,
                -1.1447488869894045,
                1.9823481609731932,
                -0.836352467211352,
                0.12585882910108775,
                3.1449460444079094
            ]
        }
    ]
}