{
    "goal": {
        "global_pose": {
            "orientation": {
                "w": 0.5084816217422485,
                "x": -0.49083608388900757,
                "y": 0.5182115435600281,
                "z": -0.4816462993621826
            },
            "position": {
                "x": 0.5540239810943604,
                "y": 0.030875300988554955,
                "z": 0.16403168439865112
            }
        },
        "name": "move_to_storage"
    },
    "id": "STRIDE_move_to_storage_7",
    "joint_names": [
        "shoulder_pan_joint",
        "shoulder_lift_joint",
        "elbow_joint",
        "wrist_1_joint",
        "wrist_2_joint",
        "wrist_3_joint"
    ],
    "metrics": {
        "cart_traj_len": 0.3534958839484838,
        "distance_elbow_joint": 0.4510681735054347,
        "distance_shoulder_lift_joint": 0.23361178787365877,
        "distance_shoulder_pan_joint": 0.45866432775920885,
        "distance_wrist_1_joint": 0.25120551760529763,
        "distance_wrist_2_joint": 1.1145243505888014,
        "distance_wrist_3_joint": 0.10598938545012171,
        "smoothness": 0.0,
        "time": 0.060702121000000005,
        "traj_len": 1.6171158099476126,
        "weighted_distance": 2.0476259868142095
    },
    "planner": "STRIDE",
    "start": {
        "state": {
            "elbow_joint": 1.9715474092553085,
            "shoulder_lift_joint": -1.1394846673180945,
            "shoulder_pan_joint": 0.1228115366877952,
            "wrist_1_joint": -0.7804686583030105,
            "wrist_2_joint": 0.12958649594027716,
            "wrist_3_joint": -3.192492341365726
        }
    },
    "waypoints": [
        {
            "positions": [
                0.1228115366877952,
                -1.1394846673180945,
                1.9715474092553085,
                -0.7804686583030105,
                0.12958649594027716,
                -3.192492341365726
            ]
        },
        {
            "positions": [
                0.0572880612936225,
                -1.1728577798714743,
                2.0359857197560847,
                -0.816355160818053,
                0.2888042603101059,
                -3.1773510005871373
            ]
        },
        {
            "positions": [
                -0.00823541410055019,
                -1.2062308924248542,
                2.1004240302568613,
                -0.8522416633330955,
                0.4480220246799347,
                -3.1622096598085485
            ]
        },
        {
            "positions": [
                -0.07375888949472288,
                -1.239604004978234,
                2.1648623407576375,
                -0.888128165848138,
                0.6072397890497634,
                -3.1470683190299598
            ]
        },
        {
            "positions": [
                -0.13928236488889556,
                -1.2729771175316138,
                2.229300651258414,
                -0.9240146683631806,
                0.7664575534195922,
                -3.1319269782513706
            ]
        },
        {
            "positions": [
                -0.20480584028306825,
                -1.3063502300849936,
                2.2937389617591903,
                -0.959901170878223,
                0.925675317789421,
                -3.116785637472782
            ]
        },
        {
            "positions": [
                -0.27032931567724094,
                -1.3397233426383734,
                2.358177272259967,
                -0.9957876733932656,
                1.0848930821592497,
                -3.101644296694193
            ]
        },
        {
            "positions": [
                -0.33585279107141364,
                -1.3730964551917533,
                2.422615582760743,
                -1.0316741759083081,
                1.2441108465290784,
                -3.0865029559156043
            ]
        }
    ]
}