{
    "goal": {
        "global_pose": {
            "orientation": {
                "w": 0.7047431468963623,
                "x": -0.7094548344612122,
                "y": 0.0024358443915843964,
                "z": -0.0022348060738295317
            },
            "position": {
                "x": 0.6094750761985779,
                "y": 0.3671506643295288,
                "z": 0.19426114857196808
            }
        },
        "name": "move_to_magneteinheit_target"
    },
    "id": "TRRT_move_to_magneteinheit_target_1",
    "joint_names": [
        "shoulder_pan_joint",
        "shoulder_lift_joint",
        "elbow_joint",
        "wrist_1_joint",
        "wrist_2_joint",
        "wrist_3_joint"
    ],
    "metrics": {
        "cart_traj_len": 3.2738719338742954,
        "distance_elbow_joint": 3.9358178451018055,
        "distance_shoulder_lift_joint": 0.6837230167195089,
        "distance_shoulder_pan_joint": 2.722939483134424,
        "distance_wrist_1_joint": 3.553716603326179,
        "distance_wrist_2_joint": 1.9374762593898727,
        "distance_wrist_3_joint": 0.8778316371284753,
        "smoothness": 0.11336789295609079,
        "time": 0.128390329,
        "traj_len": 3.702904919762357,
        "weighted_distance": 4.578030251295122
    },
    "planner": "TRRT",
    "start": {
        "state": {
            "elbow_joint": -1.9196185737098679,
            "shoulder_lift_joint": -1.2443395971259867,
            "shoulder_pan_joint": 2.6996025301141957,
            "wrist_1_joint": -1.548550951469146,
            "wrist_2_joint": -1.5709469089955597,
            "wrist_3_joint": 0.4420197730596999
        }
    },
    "waypoints": [
        {
            "positions": [
                2.6996025301141957,
                -1.2443395971259867,
                -1.9196185737098679,
                -1.548550951469146,
                -1.5709469089955597,
                0.4420197730596999
            ]
        },
        {
            "positions": [
                2.5968257729703748,
                -1.2230364272094845,
                -1.8317275110827005,
                -1.4625619505957062,
                -1.508987697013484,
                0.41009702285730576
            ]
        },
        {
            "positions": [
                2.4940490158265542,
                -1.2017332572929824,
                -1.743836448455533,
                -1.376572949722266,
                -1.447028485031408,
                0.37817427265491155
            ]
        },
        {
            "positions": [
                2.3912722586827333,
                -1.1804300873764801,
                -1.6559453858283657,
                -1.2905839488488262,
                -1.3850692730493321,
                0.3462515224525174
            ]
        },
        {
            "positions": [
                2.2884955015389123,
                -1.159126917459978,
                -1.5680543232011983,
                -1.2045949479753861,
                -1.3231100610672564,
                0.31432877225012323
            ]
        },
        {
            "positions": [
                2.185718744395092,
                -1.1378237475434758,
                -1.4801632605740311,
                -1.1186059471019463,
                -1.2611508490851806,
                0.282406022047729
            ]
        },
        {
            "positions": [
                2.082941987251271,
                -1.1165205776269738,
                -1.3922721979468637,
                -1.0326169462285062,
                -1.1991916371031048,
                0.2504832718453349
            ]
        },
        {
            "positions": [
                1.98016523010745,
                -1.0952174077104715,
                -1.3043811353196963,
                -0.9466279453550663,
                -1.1372324251210288,
                0.2185605216429407
            ]
        },
        {
            "positions": [
                1.8773884729636292,
                -1.0739142377939692,
                -1.216490072692529,
                -0.8606389444816264,
                -1.075273213138953,
                0.18663777144054655
            ]
        },
        {
            "positions": [
                1.7746117158198085,
                -1.0526110678774672,
                -1.1285990100653616,
                -0.7746499436081864,
                -1.013314001156877,
                0.15471502123815234
            ]
        },
        {
            "positions": [
                1.6718349586759877,
                -1.031307897960965,
                -1.0407079474381944,
                -0.6886609427347465,
                -0.9513547891748014,
                0.12279227103575818
            ]
        },
        {
            "positions": [
                1.5690582015321668,
                -1.0100047280444628,
                -0.9528168848110269,
                -0.6026719418613066,
                -0.8893955771927256,
                0.09086952083336403
            ]
        },
        {
            "positions": [
                1.466281444388346,
                -0.9887015581279606,
                -0.8649258221838596,
                -0.5166829409878666,
                -0.8274363652106498,
                0.05894677063096987
            ]
        },
        {
            "positions": [
                1.3635046872445251,
                -0.9673983882114583,
                -0.7770347595566922,
                -0.4306939401144265,
                -0.7654771532285739,
                0.027024020428575657
            ]
        },
        {
            "positions": [
                1.2607279301007044,
                -0.9460952182949562,
                -0.6891436969295248,
                -0.34470493924098666,
                -0.703517941246498,
                -0.0048987297738185
            ]
        },
        {
            "positions": [
                1.1579511729568837,
                -0.924792048378454,
                -0.6012526343023574,
                -0.2587159383675468,
                -0.6415587292644223,
                -0.0368214799762126
            ]
        },
        {
            "positions": [
                1.0551744158130627,
                -0.9034888784619518,
                -0.51336157167519,
                -0.17272693749410672,
                -0.5795995172823464,
                -0.06874423017860681
            ]
        },
        {
            "positions": [
                0.952397658669242,
                -0.8821857085454496,
                -0.42547050904802264,
                -0.08673793662066687,
                -0.5176403053002705,
                -0.10066698038100103
            ]
        },
        {
            "positions": [
                0.849620901525421,
                -0.8608825386289474,
                -0.33757944642085524,
                -0.0007489357472267866,
                -0.45568109331819473,
                -0.13258973058339524
            ]
        },
        {
            "positions": [
                0.7468441443816003,
                -0.8395793687124453,
                -0.24968838379368807,
                0.08524006512621307,
                -0.39372188133611896,
                -0.16451248078578934
            ]
        },
        {
            "positions": [
                0.6440673872377798,
                -0.818276198795943,
                -0.16179732116652068,
                0.17122906599965293,
                -0.3317626693540432,
                -0.19643523098818355
            ]
        },
        {
            "positions": [
                0.5412906300939584,
                -0.7969730288794409,
                -0.07390625853935329,
                0.257218066873093,
                -0.2698034573719672,
                -0.22835798119057776
            ]
        },
        {
            "positions": [
                0.4385138729501378,
                -0.7756698589629387,
                0.013984804087814107,
                0.3432070677465329,
                -0.20784424538989146,
                -0.2602807313929718
            ]
        },
        {
            "positions": [
                0.3947724611367287,
                -0.7888132556235393,
                0.1363227916446792,
                0.4487053206172038,
                -0.16046847294828473,
                -0.2611981926128643
            ]
        },
        {
            "positions": [
                0.35103104932331963,
                -0.80195665228414,
                0.2586607792015443,
                0.5542035734878747,
                -0.113092700506678,
                -0.2621156538327568
            ]
        },
        {
            "positions": [
                0.30728963750991056,
                -0.8151000489447406,
                0.3809987667584093,
                0.6597018263585456,
                -0.06571692806507129,
                -0.26303311505264926
            ]
        },
        {
            "positions": [
                0.26354822569650144,
                -0.8282434456053414,
                0.5033367543152745,
                0.7652000792292165,
                -0.018341155623464528,
                -0.26395057627254176
            ]
        },
        {
            "positions": [
                0.21980681388309237,
                -0.841386842265942,
                0.6256747418721395,
                0.8706983320998875,
                0.029034616818142185,
                -0.26486803749243426
            ]
        },
        {
            "positions": [
                0.1857287583043062,
                -0.8552411739404471,
                0.7785911220525272,
                0.9976513983071171,
                0.05993434495251486,
                -0.25774149478956737
            ]
        },
        {
            "positions": [
                0.15165070272552006,
                -0.8690955056149521,
                0.931507502232915,
                1.1246044645143467,
                0.09083407308688754,
                -0.2506149520867005
            ]
        },
        {
            "positions": [
                0.12616993860180156,
                -0.8740680411686075,
                1.1084242674855491,
                1.2709531764004023,
                0.09872574882913858,
                -0.2364635049344367
            ]
        },
        {
            "positions": [
                0.10068917447808307,
                -0.8790405767222628,
                1.2853410327381833,
                1.417301888286458,
                0.10661742457138962,
                -0.22231205778217294
            ]
        },
        {
            "positions": [
                0.07520841035436457,
                -0.8840131122759181,
                1.4622577979908176,
                1.563650600172514,
                0.11450910031364064,
                -0.20816061062990918
            ]
        },
        {
            "positions": [
                0.04972764623064607,
                -0.8889856478295735,
                1.6391745632434516,
                1.7099993120585695,
                0.12240077605589168,
                -0.1940091634776454
            ]
        },
        {
            "positions": [
                0.06799379604336472,
                -0.863551275407117,
                1.733430740280573,
                1.7837908970081855,
                0.06136863247128643,
                -0.16898792533725734
            ]
        },
        {
            "positions": [
                0.08625994585608338,
                -0.8381169029846605,
                1.8276869173176948,
                1.8575824819578015,
                0.0003364888866811827,
                -0.14396668719686928
            ]
        },
        {
            "positions": [
                0.10452609566880201,
                -0.8126825305622039,
                1.9219430943548166,
                1.9313740669074175,
                -0.06069565469792408,
                -0.1189454490564812
            ]
        },
        {
            "positions": [
                0.12279224548152066,
                -0.7872481581397474,
                2.016199271391938,
                2.0051656518570335,
                -0.1217277982825293,
                -0.09392421091609314
            ]
        }
    ]
}