{
    "goal": {
        "global_pose": {
            "orientation": {
                "w": 0.5084816217422485,
                "x": -0.49083608388900757,
                "y": 0.5182115435600281,
                "z": -0.4816462993621826
            },
            "position": {
                "x": 0.5540239810943604,
                "y": 0.030875300988554955,
                "z": 0.16403168439865112
            }
        },
        "name": "move_to_storage"
    },
    "id": "TRRT_move_to_storage_1",
    "joint_names": [
        "shoulder_pan_joint",
        "shoulder_lift_joint",
        "elbow_joint",
        "wrist_1_joint",
        "wrist_2_joint",
        "wrist_3_joint"
    ],
    "metrics": {
        "cart_traj_len": 0.3531067978408205,
        "distance_elbow_joint": 0.4474074342597629,
        "distance_shoulder_lift_joint": 0.2342482725371362,
        "distance_shoulder_pan_joint": 0.459783307196881,
        "distance_wrist_1_joint": 0.23578437535015406,
        "distance_wrist_2_joint": 1.106628246070783,
        "distance_wrist_3_joint": 0.09378966991937965,
        "smoothness": 1.1102230263833737e-15,
        "time": 0.017791704999999998,
        "traj_len": 1.6055034429530497,
        "weighted_distance": 2.0267296974667817
    },
    "planner": "TRRT",
    "start": {
        "state": {
            "elbow_joint": 1.9715474092553085,
            "shoulder_lift_joint": -1.1394846673180945,
            "shoulder_pan_joint": 0.1228115366877952,
            "wrist_1_joint": -0.7804686583030105,
            "wrist_2_joint": 0.12958649594027716,
            "wrist_3_joint": -3.192492341365726
        }
    },
    "waypoints": [
        {
            "positions": [
                0.1228115366877952,
                -1.1394846673180945,
                1.9715474092553085,
                -0.7804686583030105,
                0.12958649594027716,
                -3.192492341365726
            ]
        },
        {
            "positions": [
                0.057128207088240776,
                -1.172948706251971,
                2.035462757006703,
                -0.8141521404958897,
                0.2876762453789604,
                -3.179093817091529
            ]
        },
        {
            "positions": [
                -0.008555122511313643,
                -1.2064127451858477,
                2.099378104758098,
                -0.8478356226887688,
                0.44576599481764373,
                -3.1656952928173316
            ]
        },
        {
            "positions": [
                -0.07423845211086806,
                -1.2398767841197242,
                2.1632934525094925,
                -0.881519104881648,
                0.603855744256327,
                -3.1522967685431347
            ]
        },
        {
            "positions": [
                -0.13992178171042247,
                -1.273340823053601,
                2.2272088002608874,
                -0.9152025870745271,
                0.7619454936950103,
                -3.1388982442689377
            ]
        },
        {
            "positions": [
                -0.20560511130997694,
                -1.3068048619874775,
                2.291124148012282,
                -0.9488860692674063,
                0.9200352431336937,
                -3.1254997199947407
            ]
        },
        {
            "positions": [
                -0.2712884409095313,
                -1.340268900921354,
                2.355039495763677,
                -0.9825695514602854,
                1.0781249925723768,
                -3.1121011957205433
            ]
        },
        {
            "positions": [
                -0.3369717705090858,
                -1.3737329398552307,
                2.4189548435150714,
                -1.0162530336531646,
                1.23621474201106,
                -3.0987026714463464
            ]
        }
    ]
}