{
    "goal": {
        "global_pose": {
            "orientation": {
                "w": 0.7047431468963623,
                "x": -0.7094548344612122,
                "y": 0.0024358443915843964,
                "z": -0.0022348060738295317
            },
            "position": {
                "x": 0.6094750761985779,
                "y": 0.3671506643295288,
                "z": 0.19426114857196808
            }
        },
        "name": "move_to_magneteinheit_target"
    },
    "id": "TRRT_move_to_magneteinheit_target_6",
    "joint_names": [
        "shoulder_pan_joint",
        "shoulder_lift_joint",
        "elbow_joint",
        "wrist_1_joint",
        "wrist_2_joint",
        "wrist_3_joint"
    ],
    "metrics": {
        "cart_traj_len": 3.589135232624615,
        "distance_elbow_joint": 3.870906117630105,
        "distance_shoulder_lift_joint": 0.12070326019590194,
        "distance_shoulder_pan_joint": 2.5959960597717453,
        "distance_wrist_1_joint": 0.8690024925634829,
        "distance_wrist_2_joint": 3.406902339329103,
        "distance_wrist_3_joint": 2.577414119727395,
        "smoothness": 0.2793251209894265,
        "time": 0.090748888,
        "traj_len": 3.6661866277124706,
        "weighted_distance": 4.78243216999103
    },
    "planner": "TRRT",
    "start": {
        "state": {
            "elbow_joint": -1.9196185737098679,
            "shoulder_lift_joint": -1.2443395971259867,
            "shoulder_pan_joint": 2.6996025301141957,
            "wrist_1_joint": -1.548550951469146,
            "wrist_2_joint": -1.5709469089955597,
            "wrist_3_joint": 0.4420197730596999
        }
    },
    "waypoints": [
        {
            "positions": [
                2.6996025301141957,
                -1.2443395971259867,
                -1.9196185737098679,
                -1.548550951469146,
                -1.5709469089955597,
                0.4420197730596999
            ]
        },
        {
            "positions": [
                2.615973034074316,
                -1.2407852562886785,
                -1.8084398354560693,
                -1.51947968027343,
                -1.4798324287464917,
                0.5170388115389642
            ]
        },
        {
            "positions": [
                2.532343538034437,
                -1.2372309154513705,
                -1.697261097202271,
                -1.490408409077714,
                -1.3887179484974237,
                0.5920578500182286
            ]
        },
        {
            "positions": [
                2.4487140419945574,
                -1.2336765746140623,
                -1.5860823589484725,
                -1.4613371378819984,
                -1.2976034682483557,
                0.667076888497493
            ]
        },
        {
            "positions": [
                2.3650845459546783,
                -1.2301222337767541,
                -1.474903620694674,
                -1.4322658666862824,
                -1.2064889879992875,
                0.7420959269767574
            ]
        },
        {
            "positions": [
                2.2814550499147987,
                -1.2265678929394461,
                -1.3637248824408754,
                -1.4031945954905665,
                -1.1153745077502195,
                0.8171149654560218
            ]
        },
        {
            "positions": [
                2.197825553874919,
                -1.223013552102138,
                -1.252546144187077,
                -1.3741233242948505,
                -1.0242600275011515,
                0.8921340039352861
            ]
        },
        {
            "positions": [
                2.11419605783504,
                -1.2194592112648297,
                -1.1413674059332786,
                -1.3450520530991348,
                -0.9331455472520834,
                0.9671530424145505
            ]
        },
        {
            "positions": [
                2.0305665617951605,
                -1.2159048704275217,
                -1.03018866767948,
                -1.3159807819034188,
                -0.8420310670030154,
                1.0421720808938149
            ]
        },
        {
            "positions": [
                1.9469370657552811,
                -1.2123505295902135,
                -0.9190099294256815,
                -1.2869095107077029,
                -0.7509165867539473,
                1.1171911193730792
            ]
        },
        {
            "positions": [
                1.8633075697154018,
                -1.2087961887529055,
                -0.8078311911718832,
                -1.257838239511987,
                -0.6598021065048794,
                1.1922101578523436
            ]
        },
        {
            "positions": [
                1.7796780736755222,
                -1.2052418479155973,
                -0.6966524529180846,
                -1.228766968316271,
                -0.5686876262558114,
                1.267229196331608
            ]
        },
        {
            "positions": [
                1.696048577635643,
                -1.201687507078289,
                -0.5854737146642863,
                -1.1996956971205552,
                -0.4775731460067434,
                1.3422482348108724
            ]
        },
        {
            "positions": [
                1.6124190815957635,
                -1.198133166240981,
                -0.47429497641048757,
                -1.1706244259248393,
                -0.3864586657576752,
                1.4172672732901368
            ]
        },
        {
            "positions": [
                1.5287895855558842,
                -1.1945788254036729,
                -0.36311623815668925,
                -1.1415531547291233,
                -0.2953441855086072,
                1.4922863117694012
            ]
        },
        {
            "positions": [
                1.4451600895160048,
                -1.1910244845663647,
                -0.25193749990289094,
                -1.1124818835334074,
                -0.2042297052595392,
                1.5673053502486656
            ]
        },
        {
            "positions": [
                1.3615305934761255,
                -1.1874701437290567,
                -0.1407587616490924,
                -1.0834106123376914,
                -0.11311522501047122,
                1.64232438872793
            ]
        },
        {
            "positions": [
                1.2779010974362461,
                -1.1839158028917485,
                -0.029580023395294086,
                -1.0543393411419757,
                -0.022000744761403235,
                1.7173434272071941
            ]
        },
        {
            "positions": [
                1.1942716013963666,
                -1.1803614620544403,
                0.0815987148585049,
                -1.0252680699462595,
                0.06911373548766497,
                1.7923624656864587
            ]
        },
        {
            "positions": [
                1.1106421053564872,
                -1.1768071212171323,
                0.1927774531123032,
                -0.9961967987505438,
                0.16022821573673296,
                1.8673815041657231
            ]
        },
        {
            "positions": [
                1.0270126093166079,
                -1.173252780379824,
                0.3039561913661015,
                -0.9671255275548278,
                0.25134269598580095,
                1.9424005426449875
            ]
        },
        {
            "positions": [
                0.9433831132767283,
                -1.169698439542516,
                0.4151349296199003,
                -0.938054256359112,
                0.34245717623486915,
                2.0174195811242517
            ]
        },
        {
            "positions": [
                0.859753617236849,
                -1.1661440987052079,
                0.5263136678736986,
                -0.9089829851633962,
                0.4335716564839369,
                2.092438619603516
            ]
        },
        {
            "positions": [
                0.7761241211969696,
                -1.1625897578678996,
                0.6374924061274969,
                -0.8799117139676802,
                0.5246861367330051,
                2.1674576580827805
            ]
        },
        {
            "positions": [
                0.6924946251570905,
                -1.1590354170305917,
                0.7486711443812952,
                -0.8508404427719644,
                0.6158006169820729,
                2.242476696562045
            ]
        },
        {
            "positions": [
                0.6088651291172109,
                -1.1554810761932834,
                0.859849882635094,
                -0.8217691715762483,
                0.7069150972311411,
                2.3174957350413092
            ]
        },
        {
            "positions": [
                0.5252356330773313,
                -1.1519267353559752,
                0.9710286208888927,
                -0.7926979003805324,
                0.7980295774802093,
                2.3925147735205736
            ]
        },
        {
            "positions": [
                0.4416061370374522,
                -1.1483723945186672,
                1.082207359142691,
                -0.7636266291848165,
                0.8891440577292771,
                2.467533811999838
            ]
        },
        {
            "positions": [
                0.35797664099757276,
                -1.144818053681359,
                1.1933860973964892,
                -0.7345553579891007,
                0.9802585379783454,
                2.5425528504791024
            ]
        },
        {
            "positions": [
                0.31712942931533644,
                -1.141693559212693,
                1.3104633001601873,
                -0.7264243569905231,
                0.8600327624458919,
                2.6165180292897667
            ]
        },
        {
            "positions": [
                0.2762822176331001,
                -1.138569064744027,
                1.4275405029238855,
                -0.7182933559919454,
                0.7398069869134383,
                2.690483208100431
            ]
        },
        {
            "positions": [
                0.23543500595086378,
                -1.1354445702753608,
                1.5446177056875836,
                -0.7101623549933679,
                0.6195812113809847,
                2.764448386911095
            ]
        },
        {
            "positions": [
                0.19458779426862746,
                -1.132320075806695,
                1.661694908451282,
                -0.7020313539947903,
                0.49935543584853115,
                2.8384135657217593
            ]
        },
        {
            "positions": [
                0.15374058258639112,
                -1.129195581338029,
                1.7787721112149801,
                -0.6939003529962127,
                0.37912966031607753,
                2.9123787445324236
            ]
        },
        {
            "positions": [
                0.1128933709041548,
                -1.1260710868693629,
                1.8958493139786783,
                -0.6857693519976351,
                0.258903884783624,
                2.986343923343088
            ]
        },
        {
            "positions": [
                0.12218027146585796,
                -1.128505836808641,
                1.9512875439202357,
                -0.6919902450896072,
                0.12456164562314698,
                3.019433892787095
            ]
        }
    ]
}