{
    "goal": {
        "global_pose": {
            "orientation": {
                "w": 0.5084816217422485,
                "x": -0.49083608388900757,
                "y": 0.5182115435600281,
                "z": -0.4816462993621826
            },
            "position": {
                "x": 0.5540239810943604,
                "y": 0.030875300988554955,
                "z": 0.16403168439865112
            }
        },
        "name": "move_to_storage"
    },
    "id": "TRRT_move_to_storage_5",
    "joint_names": [
        "shoulder_pan_joint",
        "shoulder_lift_joint",
        "elbow_joint",
        "wrist_1_joint",
        "wrist_2_joint",
        "wrist_3_joint"
    ],
    "metrics": {
        "cart_traj_len": 0.35266559119653373,
        "distance_elbow_joint": 0.4504801918316672,
        "distance_shoulder_lift_joint": 0.23659115601150393,
        "distance_shoulder_pan_joint": 0.4615399143662336,
        "distance_wrist_1_joint": 0.24044329871963277,
        "distance_wrist_2_joint": 1.097652159194257,
        "distance_wrist_3_joint": 0.10328161519421597,
        "smoothness": 1.1102230263833737e-15,
        "time": 0.019116884,
        "traj_len": 1.6093440698985133,
        "weighted_distance": 2.0333831472744706
    },
    "planner": "TRRT",
    "start": {
        "state": {
            "elbow_joint": 1.9715474092553085,
            "shoulder_lift_joint": -1.1394846673180945,
            "shoulder_pan_joint": 0.1228115366877952,
            "wrist_1_joint": -0.7804686583030105,
            "wrist_2_joint": 0.12958649594027716,
            "wrist_3_joint": -3.192492341365726
        }
    },
    "waypoints": [
        {
            "positions": [
                0.1228115366877952,
                -1.1394846673180945,
                1.9715474092553085,
                -0.7804686583030105,
                0.12958649594027716,
                -3.192492341365726
            ]
        },
        {
            "positions": [
                0.056877263206904685,
                -1.1732834038911666,
                2.0359017223741183,
                -0.8148177009772437,
                0.28639394725374245,
                -3.1777378249094093
            ]
        },
        {
            "positions": [
                -0.009057010273985824,
                -1.2070821404642385,
                2.1002560354929276,
                -0.8491667436514769,
                0.4432013985672077,
                -3.162983308453093
            ]
        },
        {
            "positions": [
                -0.07499128375487633,
                -1.2408808770373105,
                2.1646103486117374,
                -0.8835157863257103,
                0.600008849880673,
                -3.148228791996776
            ]
        },
        {
            "positions": [
                -0.14092555723576683,
                -1.2746796136103824,
                2.2289646617305467,
                -0.9178648289999435,
                0.7568163011941382,
                -3.13347427554046
            ]
        },
        {
            "positions": [
                -0.20685983071665737,
                -1.3084783501834545,
                2.2933189748493565,
                -0.9522138716741768,
                0.9136237525076035,
                -3.118719759084143
            ]
        },
        {
            "positions": [
                -0.27279410419754785,
                -1.3422770867565263,
                2.357673287968166,
                -0.98656291434841,
                1.0704312038210688,
                -3.103965242627827
            ]
        },
        {
            "positions": [
                -0.3387283776784384,
                -1.3760758233295984,
                2.4220276010869757,
                -1.0209119570226433,
                1.227238655134534,
                -3.08921072617151
            ]
        }
    ]
}