{
    "goal": {
        "global_pose": {
            "orientation": {
                "w": 0.5084816217422485,
                "x": -0.49083608388900757,
                "y": 0.5182115435600281,
                "z": -0.4816462993621826
            },
            "position": {
                "x": 0.5540239810943604,
                "y": 0.030875300988554955,
                "z": 0.16403168439865112
            }
        },
        "name": "move_to_storage"
    },
    "id": "TRRT_move_to_storage_2",
    "joint_names": [
        "shoulder_pan_joint",
        "shoulder_lift_joint",
        "elbow_joint",
        "wrist_1_joint",
        "wrist_2_joint",
        "wrist_3_joint"
    ],
    "metrics": {
        "cart_traj_len": 0.35277669102221826,
        "distance_elbow_joint": 0.4544800365932562,
        "distance_shoulder_lift_joint": 0.23409038435428964,
        "distance_shoulder_pan_joint": 0.4599866958002166,
        "distance_wrist_1_joint": 0.2622907219509083,
        "distance_wrist_2_joint": 1.1042542017586143,
        "distance_wrist_3_joint": 0.09625418958207366,
        "smoothness": 0.0,
        "time": 0.020425377,
        "traj_len": 1.6159691302866397,
        "weighted_distance": 2.0421580577695324
    },
    "planner": "TRRT",
    "start": {
        "state": {
            "elbow_joint": 1.9715474092553085,
            "shoulder_lift_joint": -1.1394846673180945,
            "shoulder_pan_joint": 0.1228115366877952,
            "wrist_1_joint": -0.7804686583030105,
            "wrist_2_joint": 0.12958649594027716,
            "wrist_3_joint": -3.192492341365726
        }
    },
    "waypoints": [
        {
            "positions": [
                0.1228115366877952,
                -1.1394846673180945,
                1.9715474092553085,
                -0.7804686583030105,
                0.12958649594027716,
                -3.192492341365726
            ]
        },
        {
            "positions": [
                0.05709915157347854,
                -1.1729261507972788,
                2.036473128768631,
                -0.8179387614388546,
                0.28733709619150777,
                -3.178741742854001
            ]
        },
        {
            "positions": [
                -0.008613233540838108,
                -1.2063676342764629,
                2.1013988482819532,
                -0.8554088645746986,
                0.4450876964427384,
                -3.1649911443422765
            ]
        },
        {
            "positions": [
                -0.07432561865515476,
                -1.2398091177556472,
                2.1663245677952756,
                -0.8928789677105426,
                0.6028382966939689,
                -3.1512405458305515
            ]
        },
        {
            "positions": [
                -0.1400380037694714,
                -1.2732506012348315,
                2.2312502873085975,
                -0.9303490708463866,
                0.7605888969451996,
                -3.137489947318827
            ]
        },
        {
            "positions": [
                -0.2057503888837881,
                -1.3066920847140158,
                2.29617600682192,
                -0.9678191739822307,
                0.9183394971964303,
                -3.123739348807102
            ]
        },
        {
            "positions": [
                -0.2714627739981047,
                -1.3401335681931998,
                2.3611017263352423,
                -1.0052892771180748,
                1.0760900974476608,
                -3.1099887502953774
            ]
        },
        {
            "positions": [
                -0.3371751591124214,
                -1.3735750516723841,
                2.4260274458485647,
                -1.0427593802539188,
                1.2338406976988914,
                -3.0962381517836524
            ]
        }
    ]
}