{
    "goal": {
        "global_pose": {
            "orientation": {
                "w": 0.7047431468963623,
                "x": -0.7094548344612122,
                "y": 0.0024358443915843964,
                "z": -0.0022348060738295317
            },
            "position": {
                "x": 0.6094750761985779,
                "y": 0.3671506643295288,
                "z": 0.19426114857196808
            }
        },
        "name": "move_to_magneteinheit_target"
    },
    "id": "TRRT_move_to_magneteinheit_target_8",
    "joint_names": [
        "shoulder_pan_joint",
        "shoulder_lift_joint",
        "elbow_joint",
        "wrist_1_joint",
        "wrist_2_joint",
        "wrist_3_joint"
    ],
    "metrics": {
        "cart_traj_len": 3.4624984503431784,
        "distance_elbow_joint": 3.886279283937587,
        "distance_shoulder_lift_joint": 0.3060887487882822,
        "distance_shoulder_pan_joint": 2.7653741946237775,
        "distance_wrist_1_joint": 0.7948599793535318,
        "distance_wrist_2_joint": 1.7177912581513974,
        "distance_wrist_3_joint": 2.619289844548102,
        "smoothness": 0.08911749032803283,
        "time": 0.185820093,
        "traj_len": 3.47702218994971,
        "weighted_distance": 4.4543141151027745
    },
    "planner": "TRRT",
    "start": {
        "state": {
            "elbow_joint": -1.9196185737098679,
            "shoulder_lift_joint": -1.2443395971259867,
            "shoulder_pan_joint": 2.6996025301141957,
            "wrist_1_joint": -1.548550951469146,
            "wrist_2_joint": -1.5709469089955597,
            "wrist_3_joint": 0.4420197730596999
        }
    },
    "waypoints": [
        {
            "positions": [
                2.6996025301141957,
                -1.2443395971259867,
                -1.9196185737098679,
                -1.548550951469146,
                -1.5709469089955597,
                0.4420197730596999
            ]
        },
        {
            "positions": [
                2.591292537662024,
                -1.2486382637534406,
                -1.7896712675240023,
                -1.5376890407447963,
                -1.4997271512116233,
                0.501259608521203
            ]
        },
        {
            "positions": [
                2.482982545209852,
                -1.2529369303808944,
                -1.6597239613381365,
                -1.5268271300204466,
                -1.4285073934276866,
                0.560499443982706
            ]
        },
        {
            "positions": [
                2.37467255275768,
                -1.257235597008348,
                -1.529776655152271,
                -1.5159652192960968,
                -1.3572876356437502,
                0.619739279444209
            ]
        },
        {
            "positions": [
                2.266362560305508,
                -1.2615342636358018,
                -1.399829348966405,
                -1.5051033085717471,
                -1.2860678778598136,
                0.6789791149057122
            ]
        },
        {
            "positions": [
                2.1580525678533364,
                -1.2658329302632556,
                -1.2698820427805395,
                -1.4942413978473974,
                -1.2148481200758772,
                0.7382189503672152
            ]
        },
        {
            "positions": [
                2.0497425754011642,
                -1.2701315968907094,
                -1.139934736594674,
                -1.4833794871230477,
                -1.1436283622919405,
                0.7974587858287182
            ]
        },
        {
            "positions": [
                1.9414325829489925,
                -1.2744302635181632,
                -1.0099874304088083,
                -1.472517576398698,
                -1.072408604508004,
                0.8566986212902213
            ]
        },
        {
            "positions": [
                1.8331225904968207,
                -1.278728930145617,
                -0.8800401242229425,
                -1.4616556656743482,
                -1.0011888467240675,
                0.9159384567517244
            ]
        },
        {
            "positions": [
                1.7248125980446487,
                -1.2830275967730707,
                -0.750092818037077,
                -1.4507937549499985,
                -0.929969088940131,
                0.9751782922132275
            ]
        },
        {
            "positions": [
                1.616502605592477,
                -1.2873262634005245,
                -0.6201455118512114,
                -1.4399318442256488,
                -0.8587493311561946,
                1.0344181276747304
            ]
        },
        {
            "positions": [
                1.508192613140305,
                -1.2916249300279783,
                -0.49019820566534555,
                -1.429069933501299,
                -0.7875295733722579,
                1.0936579631362335
            ]
        },
        {
            "positions": [
                1.3998826206881332,
                -1.295923596655432,
                -0.36025089947947997,
                -1.4182080227769494,
                -0.7163098155883215,
                1.1528977985977364
            ]
        },
        {
            "positions": [
                1.2915726282359614,
                -1.300222263282886,
                -0.23030359329361438,
                -1.4073461120525996,
                -0.645090057804385,
                1.2121376340592396
            ]
        },
        {
            "positions": [
                1.1832626357837892,
                -1.3045209299103397,
                -0.10035628710774858,
                -1.39648420132825,
                -0.5738703000204484,
                1.2713774695207427
            ]
        },
        {
            "positions": [
                1.0749526433316174,
                -1.3088195965377933,
                0.02959101907811701,
                -1.3856222906039002,
                -0.502650542236512,
                1.3306173049822458
            ]
        },
        {
            "positions": [
                0.9666426508794457,
                -1.3131182631652472,
                0.15953832526398282,
                -1.3747603798795505,
                -0.4314307844525753,
                1.3898571404437488
            ]
        },
        {
            "positions": [
                0.8583326584272739,
                -1.317416929792701,
                0.2894856314498484,
                -1.3638984691552007,
                -0.3602110266686389,
                1.4490969759052519
            ]
        },
        {
            "positions": [
                0.7500226659751017,
                -1.3217155964201548,
                0.419432937635714,
                -1.353036558430851,
                -0.2889912688847023,
                1.508336811366755
            ]
        },
        {
            "positions": [
                0.6417126735229299,
                -1.3260142630476086,
                0.5493802438215796,
                -1.3421746477065013,
                -0.21777151110076587,
                1.567576646828258
            ]
        },
        {
            "positions": [
                0.5334026810707582,
                -1.3303129296750624,
                0.6793275500074452,
                -1.3313127369821516,
                -0.14655175331682946,
                1.626816482289761
            ]
        },
        {
            "positions": [
                0.4250926886185864,
                -1.334611596302516,
                0.8092748561933107,
                -1.3204508262578019,
                -0.07533199553289283,
                1.686056317751264
            ]
        },
        {
            "positions": [
                0.3167826961664142,
                -1.3389102629299698,
                0.9392221623791768,
                -1.3095889155334521,
                -0.004112237748956193,
                1.7452961532127673
            ]
        },
        {
            "positions": [
                0.2084727037142424,
                -1.3432089295574237,
                1.0691694685650424,
                -1.2987270048091024,
                0.06710752003498029,
                1.8045359886742702
            ]
        },
        {
            "positions": [
                0.18284368086323194,
                -1.3217239075976825,
                1.187092257313395,
                -1.247463112216017,
                0.07776483162684897,
                1.9451113455147901
            ]
        },
        {
            "positions": [
                0.15721465801222148,
                -1.3002388856379414,
                1.3050150460617476,
                -1.1961992196229314,
                0.08842214321871766,
                2.0856867023553103
            ]
        },
        {
            "positions": [
                0.13158563516121102,
                -1.2787538636782003,
                1.4229378348101003,
                -1.144935327029846,
                0.09907945481058636,
                2.22626205919583
            ]
        },
        {
            "positions": [
                0.10595661231020055,
                -1.2572688417184594,
                1.5408606235584528,
                -1.0936714344367604,
                0.10973676640245504,
                2.36683741603635
            ]
        },
        {
            "positions": [
                0.08032758945919008,
                -1.2357838197587183,
                1.6587834123068055,
                -1.042407541843675,
                0.12039407799432374,
                2.5074127728768705
            ]
        },
        {
            "positions": [
                0.05469856660817962,
                -1.2142987977989772,
                1.7767062010551582,
                -0.9911436492505894,
                0.13105138958619242,
                2.6479881297173904
            ]
        },
        {
            "positions": [
                0.029069543757169164,
                -1.192813775839236,
                1.8946289898035107,
                -0.9398797566575039,
                0.14170870117806111,
                2.7885634865579103
            ]
        },
        {
            "positions": [
                0.07649014789054505,
                -1.1644016445199072,
                1.9306448500156148,
                -0.846785364386559,
                0.13914087718917276,
                2.924936552082856
            ]
        },
        {
            "positions": [
                0.12391075202392093,
                -1.1359895132005784,
                1.966660710227719,
                -0.7536909721156142,
                0.1365730532002844,
                3.061309617607802
            ]
        }
    ]
}