{
    "goal": {
        "global_pose": {
            "orientation": {
                "w": 0.005598929693374612,
                "x": 0.007748599140229565,
                "y": 0.7110244013736278,
                "z": -0.7031023480610252
            },
            "position": {
                "x": 0.1141497679147869,
                "y": -0.7141253447532654,
                "z": 0.3711530566215515
            }
        },
        "name": "move_to_auspresseinheit_B"
    },
    "id": "BFMT_move_to_auspresseinheit_B_118",
    "joint_names": [
        "shoulder_pan_joint",
        "shoulder_lift_joint",
        "elbow_joint",
        "wrist_1_joint",
        "wrist_2_joint",
        "wrist_3_joint"
    ],
    "metrics": {
        "cart_traj_len": 0.5647562292092637,
        "distance_elbow_joint": 0.063227037043734,
        "distance_shoulder_lift_joint": 0.29519634163903463,
        "distance_shoulder_pan_joint": 0.5769959976214276,
        "distance_wrist_1_joint": 0.33118709181726136,
        "distance_wrist_2_joint": 0.9954750892278836,
        "distance_wrist_3_joint": 0.003577567731886777,
        "smoothness": 5.075305255429287e-16,
        "time": 0.5148034420000001,
        "traj_len": 1.5052106580413347,
        "weighted_distance": 1.8972286213290548
    },
    "planner": "BFMT",
    "start": {
        "state": {
            "elbow_joint": 2.0193083361928714,
            "shoulder_lift_joint": -1.1220246554650708,
            "shoulder_pan_joint": -1.0952077554168747,
            "wrist_1_joint": -0.8559753972642168,
            "wrist_2_joint": 0.4759566250798843,
            "wrist_3_joint": -3.1240929996934557
        }
    },
    "waypoints": [
        {
            "positions": [
                -1.0952077554168747,
                -1.1220246554650708,
                2.0193083361928714,
                -0.8559753972642168,
                0.4759566250798843,
                -3.1240929996934557
            ]
        },
        {
            "positions": [
                -1.191373755020446,
                -1.1712240457382432,
                2.0087704966855826,
                -0.8007775486280065,
                0.6418691399511982,
                -3.123496738404808
            ]
        },
        {
            "positions": [
                -1.2875397546240173,
                -1.2204234360114157,
                1.9982326571782933,
                -0.7455796999917963,
                0.8077816548225121,
                -3.12290047711616
            ]
        },
        {
            "positions": [
                -1.3837057542275883,
                -1.2696228262845881,
                1.9876948176710045,
                -0.6903818513555862,
                0.9736941696938262,
                -3.122304215827512
            ]
        },
        {
            "positions": [
                -1.4798717538311597,
                -1.3188222165577606,
                1.9771569781637155,
                -0.6351840027193759,
                1.13960668456514,
                -3.1217079545388646
            ]
        },
        {
            "positions": [
                -1.576037753434731,
                -1.368021606830933,
                1.9666191386564265,
                -0.5799861540831657,
                1.3055191994364541,
                -3.1211116932502168
            ]
        },
        {
            "positions": [
                -1.6722037530383023,
                -1.4172209971041054,
                1.9560812991491374,
                -0.5247883054469554,
                1.471431714307768,
                -3.120515431961569
            ]
        }
    ]
}