{
    "goal": {
        "global_pose": {
            "orientation": {
                "w": -0.00223480608172531,
                "x": 0.0024358444001904467,
                "y": 0.7094548369677653,
                "z": -0.704743149386269
            },
            "position": {
                "x": -0.37947507619857795,
                "y": -0.6371506643295288,
                "z": 0.19426114857196808
            }
        },
        "name": "move_to_magneteinheit_C"
    },
    "id": "BFMT_move_to_magneteinheit_C_126",
    "joint_names": [
        "shoulder_pan_joint",
        "shoulder_lift_joint",
        "elbow_joint",
        "wrist_1_joint",
        "wrist_2_joint",
        "wrist_3_joint"
    ],
    "metrics": {
        "cart_traj_len": 0.5984191479029336,
        "distance_elbow_joint": 0.11304899187045025,
        "distance_shoulder_lift_joint": 0.2546737608733509,
        "distance_shoulder_pan_joint": 0.8018853296313602,
        "distance_wrist_1_joint": 1.4599963051823657,
        "distance_wrist_2_joint": 0.8010229189799549,
        "distance_wrist_3_joint": 0.20887962531447535,
        "smoothness": 1.2013095473323476,
        "time": 0.5474568479999999,
        "traj_len": 1.9077491794918842,
        "weighted_distance": 2.5136199805545845
    },
    "planner": "BFMT",
    "start": {
        "state": {
            "elbow_joint": 1.9565354010623817,
            "shoulder_lift_joint": -1.4165861575791021,
            "shoulder_pan_joint": -1.6717766225146293,
            "wrist_1_joint": -0.5286633292919765,
            "wrist_2_joint": 1.472756589071564,
            "wrist_3_joint": -3.1238370188695823
        }
    },
    "waypoints": [
        {
            "positions": [
                -1.6717766225146293,
                -1.4165861575791021,
                1.9565354010623817,
                -0.5286633292919765,
                1.472756589071564,
                -3.1238370188695823
            ]
        },
        {
            "positions": [
                -1.8108677090507102,
                -1.3960952961141024,
                1.9728132527089888,
                -0.41209138003974777,
                1.445981692870762,
                -3.1488285349029597
            ]
        },
        {
            "positions": [
                -1.9499587955867912,
                -1.375604434649103,
                1.989091104355596,
                -0.295519430787519,
                1.4192067966699602,
                -3.173820050936337
            ]
        },
        {
            "positions": [
                -2.0890498821228722,
                -1.3551135731841033,
                2.0053689560022034,
                -0.17894748153529033,
                1.3924319004691583,
                -3.198811566969715
            ]
        },
        {
            "positions": [
                -2.228140968658953,
                -1.3346227117191038,
                2.0216468076488106,
                -0.062375532283061585,
                1.3656570042683565,
                -3.223803083003092
            ]
        },
        {
            "positions": [
                -2.367232055195034,
                -1.3141318502541042,
                2.0379246592954177,
                0.05419641696916713,
                1.3388821080675546,
                -3.2487945990364695
            ]
        },
        {
            "positions": [
                -2.388518034585225,
                -1.2836879595444335,
                2.0315927125679347,
                -0.12123089481507732,
                1.2054524204723656,
                -3.2320101900069518
            ]
        },
        {
            "positions": [
                -2.409804013975416,
                -1.253244068834763,
                2.025260765840452,
                -0.29665820659932174,
                1.0720227328771763,
                -3.215225780977434
            ]
        },
        {
            "positions": [
                -2.431089993365607,
                -1.2228001781250923,
                2.0189288191129693,
                -0.47208551838356616,
                0.9385930452819873,
                -3.1984413719479168
            ]
        },
        {
            "positions": [
                -2.4523759727557985,
                -1.1923562874154219,
                2.0125968723854863,
                -0.6475128301678107,
                0.8051633576867981,
                -3.181656962918399
            ]
        },
        {
            "positions": [
                -2.4736619521459895,
                -1.1619123967057512,
                2.0062649256580034,
                -0.8229401419520551,
                0.671733670091609,
                -3.1648725538888813
            ]
        }
    ]
}