{
    "goal": {
        "global_pose": {
            "orientation": {
                "w": 0.7031023480610252,
                "x": -0.7110244013736278,
                "y": 0.0077485991402295624,
                "z": 0.005598929693374583
            },
            "position": {
                "x": -0.8841497679147869,
                "y": 0.44412534475326537,
                "z": 0.3711530566215515
            }
        },
        "name": "move_to_auspresseinheit_D"
    },
    "id": "BFMT_move_to_auspresseinheit_D_142",
    "joint_names": [
        "shoulder_pan_joint",
        "shoulder_lift_joint",
        "elbow_joint",
        "wrist_1_joint",
        "wrist_2_joint",
        "wrist_3_joint"
    ],
    "metrics": {
        "cart_traj_len": 0.34386834085748996,
        "distance_elbow_joint": 0.6392560557162306,
        "distance_shoulder_lift_joint": 0.12090321932321313,
        "distance_shoulder_pan_joint": 0.13421698404617102,
        "distance_wrist_1_joint": 0.5339808323579662,
        "distance_wrist_2_joint": 1.4314662241914766,
        "distance_wrist_3_joint": 0.006595043763924835,
        "smoothness": 3.947459674368863e-16,
        "time": 0.474235051,
        "traj_len": 1.6930500168036922,
        "weighted_distance": 2.2011486781851595
    },
    "planner": "BFMT",
    "start": {
        "state": {
            "elbow_joint": -1.8275523626775212,
            "shoulder_lift_joint": -2.126789852344167,
            "shoulder_pan_joint": -0.03513704404078235,
            "wrist_1_joint": -2.347782403156801,
            "wrist_2_joint": -1.6058999987535132,
            "wrist_3_joint": -3.0880379163319196
        }
    },
    "waypoints": [
        {
            "positions": [
                -0.03513704404078235,
                -2.126789852344167,
                -1.8275523626775212,
                -2.347782403156801,
                -1.6058999987535132,
                -3.0880379163319196
            ]
        },
        {
            "positions": [
                -0.05191416704655373,
                -2.1419027547595686,
                -1.7476453557129923,
                -2.4145300072015465,
                -1.4269667207295786,
                -3.08886229680241
            ]
        },
        {
            "positions": [
                -0.0686912900523251,
                -2.15701565717497,
                -1.6677383487484636,
                -2.481277611246292,
                -1.248033442705644,
                -3.089686677272901
            ]
        },
        {
            "positions": [
                -0.08546841305809649,
                -2.1721285595903717,
                -1.5878313417839347,
                -2.5480252152910383,
                -1.0691001646817093,
                -3.0905110577433916
            ]
        },
        {
            "positions": [
                -0.10224553606386785,
                -2.1872414620057734,
                -1.507924334819406,
                -2.614772819335784,
                -0.8901668866577749,
                -3.091335438213882
            ]
        },
        {
            "positions": [
                -0.11902265906963924,
                -2.202354364421175,
                -1.4280173278548771,
                -2.6815204233805296,
                -0.7112336086338403,
                -3.0921598186843724
            ]
        },
        {
            "positions": [
                -0.13579978207541063,
                -2.217467266836577,
                -1.3481103208903482,
                -2.7482680274252758,
                -0.5323003306099057,
                -3.0929841991548632
            ]
        },
        {
            "positions": [
                -0.152576905081182,
                -2.232580169251978,
                -1.2682033139258193,
                -2.8150156314700214,
                -0.3533670525859711,
                -3.093808579625354
            ]
        },
        {
            "positions": [
                -0.16935402808695338,
                -2.24769307166738,
                -1.1882963069612906,
                -2.881763235514767,
                -0.17443377456203665,
                -3.0946329600958444
            ]
        }
    ]
}