{
    "goal": {
        "global_pose": {
            "orientation": {
                "w": 0.7031023502349854,
                "x": -0.7110244035720825,
                "y": 0.007748599164187908,
                "z": 0.005598929710686207
            },
            "position": {
                "x": 0.11585023208521307,
                "y": 0.44412534475326537,
                "z": 0.3711530566215515
            }
        },
        "name": "move_to_auspresseinheit_A"
    },
    "id": "BFMT_move_to_auspresseinheit_A_122",
    "joint_names": [
        "shoulder_pan_joint",
        "shoulder_lift_joint",
        "elbow_joint",
        "wrist_1_joint",
        "wrist_2_joint",
        "wrist_3_joint"
    ],
    "metrics": {
        "cart_traj_len": 0.6603293292622959,
        "distance_elbow_joint": 0.052556812206453696,
        "distance_shoulder_lift_joint": 0.5353558510019858,
        "distance_shoulder_pan_joint": 1.046622383442964,
        "distance_wrist_1_joint": 1.126435650845098,
        "distance_wrist_2_joint": 0.5114402274475334,
        "distance_wrist_3_joint": 1.0793231005946398,
        "smoothness": 0.9868086366145211,
        "time": 0.692877775,
        "traj_len": 2.0860810208471467,
        "weighted_distance": 2.8545150384996374
    },
    "planner": "BFMT",
    "start": {
        "state": {
            "elbow_joint": 2.4225746658250005,
            "shoulder_lift_joint": -1.3736534386056498,
            "shoulder_pan_joint": -0.3378633547517467,
            "wrist_1_joint": -1.0288598680537169,
            "wrist_2_joint": 1.233022673432363,
            "wrist_3_joint": -3.0940220416140027
        }
    },
    "waypoints": [
        {
            "positions": [
                -0.3378633547517467,
                -1.3736534386056498,
                2.4225746658250005,
                -1.0288598680537169,
                1.233022673432363,
                -3.0940220416140027
            ]
        },
        {
            "positions": [
                -0.24400544314960743,
                -1.4363435123354993,
                2.4156993288657205,
                -0.8874044937489509,
                1.229935615474755,
                -3.007615199440413
            ]
        },
        {
            "positions": [
                -0.15014753154746813,
                -1.4990335860653488,
                2.4088239919064405,
                -0.7459491194441848,
                1.226848557517147,
                -2.921208357266823
            ]
        },
        {
            "positions": [
                -0.05628961994532883,
                -1.5617236597951982,
                2.4019486549471605,
                -0.6044937451394188,
                1.2237614995595392,
                -2.8348015150932326
            ]
        },
        {
            "positions": [
                0.03756829165681047,
                -1.624413733525048,
                2.39507331798788,
                -0.4630383708346528,
                1.220674441601931,
                -2.748394672919643
            ]
        },
        {
            "positions": [
                0.13142620325894977,
                -1.6871038072548974,
                2.3881979810286,
                -0.32158299652988676,
                1.217587383644323,
                -2.661987830746053
            ]
        },
        {
            "positions": [
                0.225284114861089,
                -1.7497938809847469,
                2.38132264406932,
                -0.18012762222512083,
                1.214500325686715,
                -2.575580988572463
            ]
        },
        {
            "positions": [
                0.30586326716611034,
                -1.7763297824218949,
                2.3832067758111157,
                -0.2264115230612045,
                1.1323473457364008,
                -2.669061329831313
            ]
        },
        {
            "positions": [
                0.3864424194711317,
                -1.8028656838590431,
                2.385090907552911,
                -0.2726954238972881,
                1.0501943657860866,
                -2.762541671090163
            ]
        },
        {
            "positions": [
                0.4670215717761531,
                -1.8294015852961913,
                2.3869750392947067,
                -0.31897932473337176,
                0.9680413858357724,
                -2.8560220123490128
            ]
        },
        {
            "positions": [
                0.5476007240811744,
                -1.8559374867333394,
                2.3888591710365024,
                -0.36526322556945545,
                0.8858884058854581,
                -2.949502353607863
            ]
        },
        {
            "positions": [
                0.6281798763861959,
                -1.8824733881704874,
                2.3907433027782976,
                -0.41154712640553914,
                0.8037354259351439,
                -3.042982694866713
            ]
        },
        {
            "positions": [
                0.7087590286912172,
                -1.9090092896076356,
                2.3926274345200933,
                -0.4578310272416228,
                0.7215824459848297,
                -3.136463036125563
            ]
        }
    ]
}