{
    "goal": {
        "global_pose": {
            "orientation": {
                "w": -0.00223480608172531,
                "x": 0.0024358444001904467,
                "y": 0.7094548369677653,
                "z": -0.704743149386269
            },
            "position": {
                "x": -0.37947507619857795,
                "y": -0.6371506643295288,
                "z": 0.19426114857196808
            }
        },
        "name": "move_to_magneteinheit_C"
    },
    "id": "BFMT_move_to_magneteinheit_C_104",
    "joint_names": [
        "shoulder_pan_joint",
        "shoulder_lift_joint",
        "elbow_joint",
        "wrist_1_joint",
        "wrist_2_joint",
        "wrist_3_joint"
    ],
    "metrics": {
        "cart_traj_len": 0.7699768997346353,
        "distance_elbow_joint": 0.7439567731729202,
        "distance_shoulder_lift_joint": 0.3015190577309472,
        "distance_shoulder_pan_joint": 1.3704072266005805,
        "distance_wrist_1_joint": 0.73847542152208,
        "distance_wrist_2_joint": 2.0623274547835706,
        "distance_wrist_3_joint": 0.3411497477335059,
        "smoothness": 1.761417862717007,
        "time": 0.5412908439999999,
        "traj_len": 2.357506242100666,
        "weighted_distance": 3.006815267574027
    },
    "planner": "BFMT",
    "start": {
        "state": {
            "elbow_joint": 1.9565354010623817,
            "shoulder_lift_joint": -1.4165861575791021,
            "shoulder_pan_joint": -1.6717766225146293,
            "wrist_1_joint": -0.5286633292919765,
            "wrist_2_joint": 1.472756589071564,
            "wrist_3_joint": -3.1238370188695823
        }
    },
    "waypoints": [
        {
            "positions": [
                -1.6717766225146293,
                -1.4165861575791021,
                1.9565354010623817,
                -0.5286633292919765,
                1.472756589071564,
                -3.1238370188695823
            ]
        },
        {
            "positions": [
                -1.7819053432179213,
                -1.4213942844933307,
                2.005357728679167,
                -0.5847339415650946,
                1.3181864728195443,
                -3.1027837076281437
            ]
        },
        {
            "positions": [
                -1.8920340639212134,
                -1.4262024114075593,
                2.054180056295952,
                -0.6408045538382128,
                1.1636163565675246,
                -3.081730396386705
            ]
        },
        {
            "positions": [
                -2.0021627846245056,
                -1.4310105383217882,
                2.1030023839127368,
                -0.6968751661113308,
                1.009046240315505,
                -3.060677085145266
            ]
        },
        {
            "positions": [
                -2.1122915053277973,
                -1.4358186652360168,
                2.151824711529522,
                -0.752945778384449,
                0.854476124063485,
                -3.0396237739038274
            ]
        },
        {
            "positions": [
                -2.2224202260310895,
                -1.4406267921502454,
                2.200647039146307,
                -0.8090163906575671,
                0.6999060078114654,
                -3.018570462662389
            ]
        },
        {
            "positions": [
                -2.3295740417408073,
                -1.429470064441895,
                2.231772801278245,
                -0.8587936892453771,
                0.5678434839301175,
                -3.0071525968790707
            ]
        },
        {
            "positions": [
                -2.4367278574505247,
                -1.4183133367335445,
                2.2628985634101833,
                -0.9085709878331871,
                0.4357809600487696,
                -2.9957347310957525
            ]
        },
        {
            "positions": [
                -2.5438816731602425,
                -1.407156609025194,
                2.294024325542121,
                -0.9583482864209971,
                0.3037184361674217,
                -2.984316865312435
            ]
        },
        {
            "positions": [
                -2.65103548886996,
                -1.3959998813168435,
                2.3251500876740594,
                -1.0081255850088071,
                0.1716559122860738,
                -2.9728989995291166
            ]
        },
        {
            "positions": [
                -2.7581893045796777,
                -1.384843153608493,
                2.3562758498059972,
                -1.057902883596617,
                0.03959338840472593,
                -2.9614811337457985
            ]
        },
        {
            "positions": [
                -2.701390395672571,
                -1.3405041966848827,
                2.2874325849201362,
                -1.0160557101531293,
                0.1654262392280724,
                -2.997239906267743
            ]
        },
        {
            "positions": [
                -2.644591486765465,
                -1.2961652397612724,
                2.2185893200342752,
                -0.9742085367096414,
                0.29125909005141887,
                -3.032998678789687
            ]
        },
        {
            "positions": [
                -2.5877925778583584,
                -1.251826282837662,
                2.1497460551484147,
                -0.9323613632661535,
                0.41709194087476525,
                -3.068757451311632
            ]
        },
        {
            "positions": [
                -2.530993668951252,
                -1.2074873259140517,
                2.0809027902625536,
                -0.8905141898226656,
                0.5429247916981118,
                -3.104516223833576
            ]
        },
        {
            "positions": [
                -2.4741947600441456,
                -1.1631483689904414,
                2.0120595253766926,
                -0.8486670163791777,
                0.6687576425214582,
                -3.1402749963555205
            ]
        }
    ]
}