{
    "goal": {
        "global_pose": {
            "orientation": {
                "w": -0.00223480608172531,
                "x": 0.0024358444001904467,
                "y": 0.7094548369677653,
                "z": -0.704743149386269
            },
            "position": {
                "x": 0.6205249238014221,
                "y": -0.6371506643295288,
                "z": 0.19426114857196808
            }
        },
        "name": "move_to_magneteinheit_B"
    },
    "id": "BFMT_move_to_magneteinheit_B_11",
    "joint_names": [
        "shoulder_pan_joint",
        "shoulder_lift_joint",
        "elbow_joint",
        "wrist_1_joint",
        "wrist_2_joint",
        "wrist_3_joint"
    ],
    "metrics": {
        "cart_traj_len": 1.6975967712809847,
        "distance_elbow_joint": 1.1280711148762015,
        "distance_shoulder_lift_joint": 1.455338349471739,
        "distance_shoulder_pan_joint": 1.669830915731431,
        "distance_wrist_1_joint": 0.2851972969829708,
        "distance_wrist_2_joint": 1.5151810775307186,
        "distance_wrist_3_joint": 0.44892095188127484,
        "smoothness": 1.1189378848801017,
        "time": 0.761516143,
        "traj_len": 2.5500077855713177,
        "weighted_distance": 3.033275454809631
    },
    "planner": "BFMT",
    "start": {
        "state": {
            "elbow_joint": 2.6216224122426386,
            "shoulder_lift_joint": -1.4174107377796124,
            "shoulder_pan_joint": 0.7066234856936794,
            "wrist_1_joint": 1.9546482284002225,
            "wrist_2_joint": -0.7096286983471962,
            "wrist_3_joint": 0.005740856962016249
        }
    },
    "waypoints": [
        {
            "positions": [
                0.7066234856936794,
                -1.4174107377796124,
                2.6216224122426386,
                1.9546482284002225,
                -0.7096286983471962,
                0.005740856962016249
            ]
        },
        {
            "positions": [
                0.7305892117125853,
                -1.5190076579962686,
                2.5900997851861063,
                1.923472765338863,
                -0.7602306988153693,
                0.02450157120857352
            ]
        },
        {
            "positions": [
                0.7177277296734456,
                -1.643404471397833,
                2.633927643084954,
                1.9164629205533874,
                -0.7806910274322519,
                -0.08576285675883422
            ]
        },
        {
            "positions": [
                0.7048662476343058,
                -1.7678012847993976,
                2.6777555009838023,
                1.9094530757679118,
                -0.8011513560491346,
                -0.19602728472624195
            ]
        },
        {
            "positions": [
                0.5968567659253561,
                -1.6941380979692673,
                2.610495982849004,
                1.9254532187246225,
                -0.8960619173710532,
                -0.1820518592795818
            ]
        },
        {
            "positions": [
                0.48884728421640644,
                -1.6204749111391372,
                2.543236464714206,
                1.9414533616813332,
                -0.9909724786929719,
                -0.16807643383292167
            ]
        },
        {
            "positions": [
                0.3808378025074567,
                -1.546811724309007,
                2.475976946579408,
                1.957453504638044,
                -1.0858830400148907,
                -0.1541010083862615
            ]
        },
        {
            "positions": [
                0.272828320798507,
                -1.4731485374788766,
                2.4087174284446093,
                1.9734536475947544,
                -1.1807936013368092,
                -0.14012558293960137
            ]
        },
        {
            "positions": [
                0.1648188390895573,
                -1.3994853506487464,
                2.341457910309811,
                1.989453790551465,
                -1.275704162658728,
                -0.12615015749294123
            ]
        },
        {
            "positions": [
                0.05680935738060755,
                -1.325822163818616,
                2.274198392175013,
                2.005453933508176,
                -1.3706147239806468,
                -0.11217473204628108
            ]
        },
        {
            "positions": [
                -0.0512001243283422,
                -1.252158976988486,
                2.206938874040215,
                2.0214540764648867,
                -1.4655252853025653,
                -0.09819930659962094
            ]
        },
        {
            "positions": [
                -0.15920960603729184,
                -1.1784957901583557,
                2.139679355905417,
                2.037454219421597,
                -1.560435846624484,
                -0.0842238811529608
            ]
        },
        {
            "positions": [
                -0.2672190877462416,
                -1.1048326033282256,
                2.0724198377706182,
                2.0534543623783077,
                -1.6553464079464026,
                -0.07024845570630064
            ]
        },
        {
            "positions": [
                -0.37522856945519123,
                -1.0311694164980953,
                2.00516031963582,
                2.0694545053350186,
                -1.7502569692683214,
                -0.056273030259640505
            ]
        },
        {
            "positions": [
                -0.48323805116414087,
                -0.9575062296679651,
                1.937900801501022,
                2.085454648291729,
                -1.84516753059024,
                -0.042297604812980366
            ]
        },
        {
            "positions": [
                -0.5912475328730907,
                -0.8838430428378348,
                1.8706412833662238,
                2.10145479124844,
                -1.9400780919121587,
                -0.0283221793663202
            ]
        },
        {
            "positions": [
                -0.6992570145820406,
                -0.8101798560077046,
                1.8033817652314257,
                2.1174549342051505,
                -2.0349886532340777,
                -0.01434675391966006
            ]
        },
        {
            "positions": [
                -0.8072664962909902,
                -0.7365166691775744,
                1.7361222470966275,
                2.1334550771618614,
                -2.129899214555996,
                -0.0003713284729999211
            ]
        },
        {
            "positions": [
                -0.9152759779999399,
                -0.6628534823474441,
                1.6688627289618292,
                2.149455220118572,
                -2.224809775877915,
                0.013604096973660211
            ]
        }
    ]
}