{
    "goal": {
        "global_pose": {
            "orientation": {
                "w": 0.7047431493862688,
                "x": -0.7094548369677653,
                "y": 0.0024358444001904,
                "z": -0.0022348060817251984
            },
            "position": {
                "x": -0.39052492380142206,
                "y": 0.3671506643295288,
                "z": 0.19426114857196808
            }
        },
        "name": "move_to_magneteinheit_D"
    },
    "id": "BFMT_move_to_magneteinheit_D_80",
    "joint_names": [
        "shoulder_pan_joint",
        "shoulder_lift_joint",
        "elbow_joint",
        "wrist_1_joint",
        "wrist_2_joint",
        "wrist_3_joint"
    ],
    "metrics": {
        "cart_traj_len": 5.354534530368377,
        "distance_elbow_joint": 3.4429139390552645,
        "distance_shoulder_lift_joint": 1.6343257385250178,
        "distance_shoulder_pan_joint": 7.217889924080379,
        "distance_wrist_1_joint": 2.299035100347089,
        "distance_wrist_2_joint": 1.3618118984555276,
        "distance_wrist_3_joint": 3.1537420348423653,
        "smoothness": 0.46697079087643173,
        "time": 1.255474017,
        "traj_len": 4.371466417039668,
        "weighted_distance": 5.392406670846793
    },
    "planner": "BFMT",
    "start": {
        "state": {
            "elbow_joint": 0.749534889911806,
            "shoulder_lift_joint": -0.6476975780787326,
            "shoulder_pan_joint": -2.711696901376241,
            "wrist_1_joint": -0.07506478083263063,
            "wrist_2_joint": 0.43296659715538205,
            "wrist_3_joint": -3.14703540197715
        }
    },
    "waypoints": [
        {
            "positions": [
                -2.711696901376241,
                -0.6476975780787326,
                0.749534889911806,
                -0.07506478083263063,
                0.43296659715538205,
                -3.14703540197715
            ]
        },
        {
            "positions": [
                -2.7116132008542584,
                -0.7015601732504954,
                0.5459055618448985,
                -0.006719903138946465,
                0.43942994445879413,
                -3.1408124298761013
            ]
        },
        {
            "positions": [
                -2.7115295003322757,
                -0.7554227684222581,
                0.3422762337779911,
                0.0616249745547377,
                0.44589329176220627,
                -3.1345894577750526
            ]
        },
        {
            "positions": [
                -2.7114457998102925,
                -0.8092853635940207,
                0.13864690571108373,
                0.12996985224842186,
                0.45235663906561835,
                -3.128366485674004
            ]
        },
        {
            "positions": [
                -2.71136209928831,
                -0.8631479587657834,
                -0.06498242235582374,
                0.19831472994210603,
                0.45881998636903043,
                -3.122143513572955
            ]
        },
        {
            "positions": [
                -2.5256018342268627,
                -0.8893949732510789,
                -0.15328133306683916,
                0.26646447707525117,
                0.4808776802095435,
                -3.1207701273893407
            ]
        },
        {
            "positions": [
                -2.339841569165415,
                -0.9156419877363743,
                -0.24158024377785461,
                0.3346142242083963,
                0.5029353740500566,
                -3.119396741205726
            ]
        },
        {
            "positions": [
                -2.1540813041039675,
                -0.9418890022216698,
                -0.32987915448887006,
                0.4027639713415415,
                0.5249930678905697,
                -3.1180233550221117
            ]
        },
        {
            "positions": [
                -1.9683210390425203,
                -0.9681360167069653,
                -0.4181780651998855,
                0.4709137184746866,
                0.5470507617310827,
                -3.116649968838497
            ]
        },
        {
            "positions": [
                -1.782560773981073,
                -0.9943830311922607,
                -0.5064769759109009,
                0.5390634656078318,
                0.5691084555715958,
                -3.1152765826548827
            ]
        },
        {
            "positions": [
                -1.5968005089196255,
                -1.020630045677556,
                -0.5947758866219164,
                0.607213212740977,
                0.5911661494121089,
                -3.1139031964712682
            ]
        },
        {
            "positions": [
                -1.4110402438581782,
                -1.0468770601628516,
                -0.6830747973329319,
                0.6753629598741222,
                0.613223843252622,
                -3.1125298102876533
            ]
        },
        {
            "positions": [
                -1.2252799787967308,
                -1.073124074648147,
                -0.7713737080439472,
                0.7435127070072671,
                0.6352815370931351,
                -3.111156424104039
            ]
        },
        {
            "positions": [
                -1.0395197137352834,
                -1.0993710891334425,
                -0.8596726187549627,
                0.8116624541404125,
                0.6573392309336481,
                -3.1097830379204243
            ]
        },
        {
            "positions": [
                -0.853759448673836,
                -1.1256181036187378,
                -0.9479715294659782,
                0.8798122012735576,
                0.6793969247741612,
                -3.10840965173681
            ]
        },
        {
            "positions": [
                -0.6679991836123889,
                -1.1518651181040334,
                -1.0362704401769935,
                0.9479619484067028,
                0.7014546186146743,
                -3.1070362655531953
            ]
        },
        {
            "positions": [
                -0.48223891855094125,
                -1.178112132589329,
                -1.124569350888009,
                1.016111695539848,
                0.7235123124551874,
                -3.105662879369581
            ]
        },
        {
            "positions": [
                -0.2964786534894941,
                -1.2043591470746242,
                -1.2128682615990243,
                1.084261442672993,
                0.7455700062957005,
                -3.1042894931859664
            ]
        },
        {
            "positions": [
                -0.11071838842804649,
                -1.2306061615599198,
                -1.30116717231004,
                1.1524111898061382,
                0.7676277001362135,
                -3.102916107002352
            ]
        },
        {
            "positions": [
                0.07504187663340067,
                -1.2568531760452153,
                -1.3894660830210555,
                1.2205609369392834,
                0.7896853939767265,
                -3.1015427208187374
            ]
        },
        {
            "positions": [
                0.2608021416948483,
                -1.2831001905305106,
                -1.4777649937320707,
                1.2887106840724283,
                0.8117430878172397,
                -3.100169334635123
            ]
        },
        {
            "positions": [
                0.4465624067562959,
                -1.3093472050158061,
                -1.5660639044430864,
                1.3568604312055736,
                0.8338007816577528,
                -3.0987959484515084
            ]
        },
        {
            "positions": [
                0.632322671817743,
                -1.3355942195011017,
                -1.6543628151541017,
                1.4250101783387188,
                0.8558584754982659,
                -3.0974225622678935
            ]
        },
        {
            "positions": [
                0.8180829368791902,
                -1.361841233986397,
                -1.742661725865117,
                1.493159925471864,
                0.8779161693387789,
                -3.096049176084279
            ]
        },
        {
            "positions": [
                1.0038432019406378,
                -1.3880882484716923,
                -1.8309606365761326,
                1.561309672605009,
                0.899973863179292,
                -3.0946757899006645
            ]
        },
        {
            "positions": [
                1.1896034670020854,
                -1.4143352629569879,
                -1.9192595472871479,
                1.6294594197381542,
                0.9220315570198051,
                -3.09330240371705
            ]
        },
        {
            "positions": [
                1.3753637320635321,
                -1.4405822774422834,
                -2.0075584579981633,
                1.6976091668712994,
                0.9440892508603181,
                -3.0919290175334355
            ]
        },
        {
            "positions": [
                1.5611239971249797,
                -1.4668292919275787,
                -2.095857368709179,
                1.7657589140044445,
                0.9661469447008313,
                -3.090555631349821
            ]
        },
        {
            "positions": [
                1.7468842621864278,
                -1.4930763064128743,
                -2.1841562794201943,
                1.8339086611375897,
                0.9882046385413443,
                -3.0891822451662065
            ]
        },
        {
            "positions": [
                1.533647534139186,
                -1.5417082297198468,
                -2.2161390153605893,
                1.8367515944658188,
                0.9243685700794348,
                -3.0706742114594
            ]
        },
        {
            "positions": [
                1.3204108060919442,
                -1.590340153026819,
                -2.2481217513009844,
                1.8395945277940478,
                0.8605325016175255,
                -3.0521661777525937
            ]
        },
        {
            "positions": [
                1.1071740780447024,
                -1.6389720763337916,
                -2.2801044872413794,
                1.842437461122277,
                0.796696433155616,
                -3.0336581440457873
            ]
        },
        {
            "positions": [
                0.8939373499974603,
                -1.687603999640764,
                -2.3120872231817744,
                1.845280394450506,
                0.7328603646937066,
                -3.015150110338981
            ]
        },
        {
            "positions": [
                0.6807006219502185,
                -1.7362359229477364,
                -2.3440699591221694,
                1.848123327778735,
                0.6690242962317972,
                -2.9966420766321744
            ]
        },
        {
            "positions": [
                0.4674638939029767,
                -1.7848678462547087,
                -2.3760526950625644,
                1.8509662611069642,
                0.6051882277698877,
                -2.9781340429253675
            ]
        },
        {
            "positions": [
                0.2542271658557349,
                -1.8334997695616813,
                -2.4080354310029595,
                1.853809194435193,
                0.5413521593079782,
                -2.959626009218561
            ]
        },
        {
            "positions": [
                0.040990437808492874,
                -1.8821316928686538,
                -2.4400181669433545,
                1.8566521277634223,
                0.47751609084606883,
                -2.9411179755117547
            ]
        },
        {
            "positions": [
                -0.17224629023874893,
                -1.930763616175626,
                -2.4720009028837495,
                1.8594950610916514,
                0.41368002238415935,
                -2.9226099418049483
            ]
        },
        {
            "positions": [
                -0.38548301828599074,
                -1.9793955394825984,
                -2.5039836388241445,
                1.8623379944198803,
                0.34984395392225,
                -2.904101908098142
            ]
        },
        {
            "positions": [
                -0.5987197463332327,
                -2.028027462789571,
                -2.5359663747645396,
                1.8651809277481095,
                0.28600788546034056,
                -2.8855938743913354
            ]
        },
        {
            "positions": [
                -0.5611102234243196,
                -2.051117994954496,
                -2.5216561316391832,
                1.832563710314805,
                0.27651905782501673,
                -2.62265746464074
            ]
        },
        {
            "positions": [
                -0.5235007005154066,
                -2.074208527119422,
                -2.507345888513827,
                1.7999464928815005,
                0.2670302301896929,
                -2.3597210548901444
            ]
        },
        {
            "positions": [
                -0.4858911776064936,
                -2.0972990592843472,
                -2.4930356453884706,
                1.767329275448196,
                0.2575414025543691,
                -2.096784645139549
            ]
        },
        {
            "positions": [
                -0.4482816546975806,
                -2.1203895914492725,
                -2.478725402263114,
                1.7347120580148916,
                0.24805257491904523,
                -1.8338482353889534
            ]
        },
        {
            "positions": [
                -0.41067213178866757,
                -2.143480123614198,
                -2.464415159137758,
                1.702094840581587,
                0.2385637472837214,
                -1.5709118256383579
            ]
        },
        {
            "positions": [
                -0.3730626088797545,
                -2.1665706557791236,
                -2.450104916012402,
                1.6694776231482826,
                0.22907491964839757,
                -1.3079754158877626
            ]
        },
        {
            "positions": [
                -0.3354530859708415,
                -2.189661187944049,
                -2.4357946728870457,
                1.636860405714978,
                0.21958609201307375,
                -1.0450390061371668
            ]
        },
        {
            "positions": [
                -0.2978435630619285,
                -2.212751720108974,
                -2.4214844297616893,
                1.6042431882816737,
                0.2100972643777499,
                -0.7821025963865713
            ]
        },
        {
            "positions": [
                -0.26023404015301543,
                -2.2358422522738994,
                -2.407174186636333,
                1.571625970848369,
                0.20060843674242607,
                -0.5191661866359758
            ]
        },
        {
            "positions": [
                -0.22262451724410243,
                -2.258932784438825,
                -2.3928639435109766,
                1.5390087534150645,
                0.19111960910710224,
                -0.2562297768853803
            ]
        },
        {
            "positions": [
                -0.18501499433518945,
                -2.2820233166037505,
                -2.3785537003856203,
                1.5063915359817601,
                0.1816307814717784,
                0.006706632865215206
            ]
        }
    ]
}