{
    "goal": {
        "global_pose": {
            "orientation": {
                "w": 0.005598929693374612,
                "x": 0.007748599140229565,
                "y": 0.7110244013736278,
                "z": -0.7031023480610252
            },
            "position": {
                "x": 0.1141497679147869,
                "y": -0.7141253447532654,
                "z": 0.3711530566215515
            }
        },
        "name": "move_to_auspresseinheit_B"
    },
    "id": "BFMT_move_to_auspresseinheit_B_63",
    "joint_names": [
        "shoulder_pan_joint",
        "shoulder_lift_joint",
        "elbow_joint",
        "wrist_1_joint",
        "wrist_2_joint",
        "wrist_3_joint"
    ],
    "metrics": {
        "cart_traj_len": 0.565421641214338,
        "distance_elbow_joint": 0.06260222038092955,
        "distance_shoulder_lift_joint": 0.29515107727588097,
        "distance_shoulder_pan_joint": 0.5782821873756046,
        "distance_wrist_1_joint": 0.3275757663486518,
        "distance_wrist_2_joint": 0.9929170380817722,
        "distance_wrist_3_joint": 0.009555648451143206,
        "smoothness": 0.0,
        "time": 0.486935351,
        "traj_len": 1.5053517655066482,
        "weighted_distance": 1.8988649344402284
    },
    "planner": "BFMT",
    "start": {
        "state": {
            "elbow_joint": 2.0193083361928714,
            "shoulder_lift_joint": -1.1220246554650708,
            "shoulder_pan_joint": -1.0952077554168747,
            "wrist_1_joint": -0.8559753972642168,
            "wrist_2_joint": 0.4759566250798843,
            "wrist_3_joint": -3.1240929996934557
        }
    },
    "waypoints": [
        {
            "positions": [
                -1.0952077554168747,
                -1.1220246554650708,
                2.0193083361928714,
                -0.8559753972642168,
                0.4759566250798843,
                -3.1240929996934557
            ]
        },
        {
            "positions": [
                -1.1915881199794753,
                -1.1712165016777176,
                2.00887463279605,
                -0.8013794362061082,
                0.641442798093513,
                -3.1256856077686463
            ]
        },
        {
            "positions": [
                -1.2879684845420762,
                -1.2204083478903645,
                1.9984409293992282,
                -0.7467834751479995,
                0.8069289711071417,
                -3.1272782158438366
            ]
        },
        {
            "positions": [
                -1.384348849104677,
                -1.2696001941030113,
                1.9880072260024066,
                -0.6921875140898909,
                0.9724151441207705,
                -3.1288708239190273
            ]
        },
        {
            "positions": [
                -1.4807292136672776,
                -1.318792040315658,
                1.977573522605585,
                -0.6375915530317823,
                1.137901317134399,
                -3.130463431994218
            ]
        },
        {
            "positions": [
                -1.5771095782298785,
                -1.367983886528305,
                1.9671398192087635,
                -0.5829955919736736,
                1.3033874901480278,
                -3.132056040069408
            ]
        },
        {
            "positions": [
                -1.6734899427924792,
                -1.4171757327409518,
                1.9567061158119419,
                -0.528399630915565,
                1.4688736631616566,
                -3.133648648144599
            ]
        }
    ]
}