{
    "goal": {
        "global_pose": {
            "orientation": {
                "w": -0.00223480608172531,
                "x": 0.0024358444001904467,
                "y": 0.7094548369677653,
                "z": -0.704743149386269
            },
            "position": {
                "x": -0.37947507619857795,
                "y": -0.6371506643295288,
                "z": 0.19426114857196808
            }
        },
        "name": "move_to_magneteinheit_C"
    },
    "id": "BFMT_move_to_magneteinheit_C_115",
    "joint_names": [
        "shoulder_pan_joint",
        "shoulder_lift_joint",
        "elbow_joint",
        "wrist_1_joint",
        "wrist_2_joint",
        "wrist_3_joint"
    ],
    "metrics": {
        "cart_traj_len": 1.3414446925906534,
        "distance_elbow_joint": 0.4148951464562498,
        "distance_shoulder_lift_joint": 0.4500229465838501,
        "distance_shoulder_pan_joint": 1.7697897594605771,
        "distance_wrist_1_joint": 2.573718995608381,
        "distance_wrist_2_joint": 2.3370717534773418,
        "distance_wrist_3_joint": 2.261813751591085,
        "smoothness": 0.9451229496636072,
        "time": 0.96403261,
        "traj_len": 3.1316628734871013,
        "weighted_distance": 4.386539707496716
    },
    "planner": "BFMT",
    "start": {
        "state": {
            "elbow_joint": 1.9565354010623817,
            "shoulder_lift_joint": -1.4165861575791021,
            "shoulder_pan_joint": -1.6717766225146293,
            "wrist_1_joint": -0.5286633292919765,
            "wrist_2_joint": 1.472756589071564,
            "wrist_3_joint": -3.1238370188695823
        }
    },
    "waypoints": [
        {
            "positions": [
                -1.6717766225146293,
                -1.4165861575791021,
                1.9565354010623817,
                -0.5286633292919765,
                1.472756589071564,
                -3.1238370188695823
            ]
        },
        {
            "positions": [
                -1.6210629769180647,
                -1.4305716522042133,
                1.930382762484417,
                -0.365858191899724,
                1.5032115725250301,
                -3.013134552007055
            ]
        },
        {
            "positions": [
                -1.5703493313215002,
                -1.4445571468293246,
                1.9042301239064523,
                -0.20305305450747163,
                1.5336665559784963,
                -2.902432085144528
            ]
        },
        {
            "positions": [
                -1.5196356857249356,
                -1.4585426414544358,
                1.8780774853284876,
                -0.04024791711521919,
                1.5641215394319625,
                -2.791729618282001
            ]
        },
        {
            "positions": [
                -1.468922040128371,
                -1.4725281360795468,
                1.8519248467505227,
                0.1225572202770332,
                1.594576522885429,
                -2.6810271514194737
            ]
        },
        {
            "positions": [
                -1.4182083945318062,
                -1.486513630704658,
                1.825772208172558,
                0.28536235766928564,
                1.6250315063388951,
                -2.5703246845569465
            ]
        },
        {
            "positions": [
                -1.3674947489352418,
                -1.5004991253297693,
                1.7996195695945933,
                0.4481674950615381,
                1.6554864897923613,
                -2.4596222176944194
            ]
        },
        {
            "positions": [
                -1.3167811033386772,
                -1.5144846199548805,
                1.7734669310166287,
                0.6109726324537905,
                1.6859414732458275,
                -2.348919750831892
            ]
        },
        {
            "positions": [
                -1.428452845453744,
                -1.508883750836996,
                1.7735951135805286,
                0.528334580500826,
                1.5303910709142323,
                -2.322204703731143
            ]
        },
        {
            "positions": [
                -1.5401245875688105,
                -1.5032828817191117,
                1.7737232961444285,
                0.4456965285478615,
                1.374840668582637,
                -2.295489656630394
            ]
        },
        {
            "positions": [
                -1.6517963296838774,
                -1.4976820126012274,
                1.7738514787083284,
                0.36305847659489704,
                1.219290266251042,
                -2.268774609529645
            ]
        },
        {
            "positions": [
                -1.7634680717989442,
                -1.492081143483343,
                1.7739796612722283,
                0.2804204246419325,
                1.0637398639194466,
                -2.2420595624288957
            ]
        },
        {
            "positions": [
                -1.8751398139140107,
                -1.4864802743654586,
                1.7741078438361282,
                0.19778237268896803,
                0.9081894615878516,
                -2.2153445153281464
            ]
        },
        {
            "positions": [
                -1.9868115560290776,
                -1.480879405247574,
                1.774236026400028,
                0.11514432073600356,
                0.7526390592562565,
                -2.1886294682273975
            ]
        },
        {
            "positions": [
                -2.0984832981441444,
                -1.4752785361296896,
                1.774364208963928,
                0.03250626878303908,
                0.5970886569246614,
                -2.1619144211266486
            ]
        },
        {
            "positions": [
                -2.2101550402592114,
                -1.4696776670118052,
                1.774492391527828,
                -0.0501317831699255,
                0.44153825459306595,
                -2.135199374025899
            ]
        },
        {
            "positions": [
                -2.321826782374278,
                -1.4640767978939209,
                1.7746205740917278,
                -0.13276983512288998,
                0.28598785226147094,
                -2.10848432692515
            ]
        },
        {
            "positions": [
                -2.4334985244893446,
                -1.4584759287760365,
                1.7747487566556277,
                -0.21540788707585445,
                0.13043744992987566,
                -2.081769279824401
            ]
        },
        {
            "positions": [
                -2.603227574562831,
                -1.3866092121171636,
                1.776161626970457,
                -0.21398822960343222,
                0.11410825241865893,
                -2.0078073999238457
            ]
        },
        {
            "positions": [
                -2.597822104459134,
                -1.3585178844742085,
                1.801479815114601,
                -0.280608629594377,
                0.17605355610286874,
                -2.1259821247816357
            ]
        },
        {
            "positions": [
                -2.5924166343554376,
                -1.3304265568312532,
                1.8267980032587448,
                -0.34722902958532176,
                0.23799885978707858,
                -2.2441568496394253
            ]
        },
        {
            "positions": [
                -2.5870111642517406,
                -1.3023352291882981,
                1.8521161914028887,
                -0.4138494295762666,
                0.2999441634712884,
                -2.3623315744972153
            ]
        },
        {
            "positions": [
                -2.5645848925018644,
                -1.2743402105000003,
                1.8827516746077362,
                -0.49513376095380923,
                0.3731877109559443,
                -2.520583566111611
            ]
        },
        {
            "positions": [
                -2.542158620751988,
                -1.2463451918117023,
                1.9133871578125834,
                -0.5764180923313519,
                0.4464312584406002,
                -2.678835557726007
            ]
        },
        {
            "positions": [
                -2.5197323490021124,
                -1.2183501731234045,
                1.9440226410174308,
                -0.6577024237088945,
                0.5196748059252561,
                -2.8370875493404024
            ]
        },
        {
            "positions": [
                -2.497306077252236,
                -1.1903551544351065,
                1.974658124222278,
                -0.7389867550864372,
                0.5929183534099121,
                -2.9953395409547983
            ]
        },
        {
            "positions": [
                -2.47487980550236,
                -1.1623601357468087,
                2.0052936074271255,
                -0.8202710864639798,
                0.666161900894568,
                -3.153591532569194
            ]
        }
    ]
}