{
    "goal": {
        "global_pose": {
            "orientation": {
                "w": 0.7031023502349854,
                "x": -0.7110244035720825,
                "y": 0.007748599164187908,
                "z": 0.005598929710686207
            },
            "position": {
                "x": 0.11585023208521307,
                "y": 0.44412534475326537,
                "z": 0.3711530566215515
            }
        },
        "name": "move_to_auspresseinheit_A"
    },
    "id": "BFMT_move_to_auspresseinheit_A_73",
    "joint_names": [
        "shoulder_pan_joint",
        "shoulder_lift_joint",
        "elbow_joint",
        "wrist_1_joint",
        "wrist_2_joint",
        "wrist_3_joint"
    ],
    "metrics": {
        "cart_traj_len": 1.6751497201123398,
        "distance_elbow_joint": 0.907567582102724,
        "distance_shoulder_lift_joint": 1.4996012335957634,
        "distance_shoulder_pan_joint": 4.097345013951777,
        "distance_wrist_1_joint": 7.351423790557999,
        "distance_wrist_2_joint": 0.5271447290123303,
        "distance_wrist_3_joint": 9.973868888679966,
        "smoothness": 0.5301481930836577,
        "time": 0.476949375,
        "traj_len": 4.935276206850086,
        "weighted_distance": 7.223797999309697
    },
    "planner": "BFMT",
    "start": {
        "state": {
            "elbow_joint": 2.4225746658250005,
            "shoulder_lift_joint": -1.3736534386056498,
            "shoulder_pan_joint": -0.3378633547517467,
            "wrist_1_joint": -1.0288598680537169,
            "wrist_2_joint": 1.233022673432363,
            "wrist_3_joint": -3.0940220416140027
        }
    },
    "waypoints": [
        {
            "positions": [
                -0.3378633547517467,
                -1.3736534386056498,
                2.4225746658250005,
                -1.0288598680537169,
                1.233022673432363,
                -3.0940220416140027
            ]
        },
        {
            "positions": [
                -0.3855606700624024,
                -1.4054676169617357,
                2.4079852587813746,
                -0.9053746483544606,
                1.2195106142076861,
                -2.93872105115432
            ]
        },
        {
            "positions": [
                -0.4332579853730581,
                -1.4372817953178219,
                2.3933958517377483,
                -0.7818894286552043,
                1.2059985549830092,
                -2.7834200606946373
            ]
        },
        {
            "positions": [
                -0.4809553006837138,
                -1.4690959736739078,
                2.3788064446941224,
                -0.6584042089559479,
                1.1924864957583323,
                -2.6281190702349546
            ]
        },
        {
            "positions": [
                -0.5286526159943694,
                -1.5009101520299937,
                2.364217037650496,
                -0.5349189892566916,
                1.1789744365336552,
                -2.472818079775272
            ]
        },
        {
            "positions": [
                -0.5763499313050251,
                -1.5327243303860798,
                2.34962763060687,
                -0.41143376955743527,
                1.1654623773089783,
                -2.317517089315589
            ]
        },
        {
            "positions": [
                -0.6240472466156808,
                -1.5645385087421657,
                2.3350382235632443,
                -0.28794854985817886,
                1.1519503180843014,
                -2.1622160988559065
            ]
        },
        {
            "positions": [
                -0.6717445619263365,
                -1.5963526870982516,
                2.320448816519618,
                -0.16446333015892256,
                1.1384382588596245,
                -2.006915108396224
            ]
        },
        {
            "positions": [
                -0.7194418772369922,
                -1.6281668654543378,
                2.305859409475992,
                -0.04097811045966626,
                1.1249261996349476,
                -1.851614117936541
            ]
        },
        {
            "positions": [
                -0.7671391925476478,
                -1.6599810438104237,
                2.2912700024323662,
                0.08250710923959015,
                1.1114141404102706,
                -1.6963131274768584
            ]
        },
        {
            "positions": [
                -0.8148365078583035,
                -1.6917952221665096,
                2.27668059538874,
                0.20599232893884634,
                1.0979020811855937,
                -1.5410121370171757
            ]
        },
        {
            "positions": [
                -0.8625338231689592,
                -1.7236094005225957,
                2.262091188345114,
                0.32947754863810275,
                1.0843900219609166,
                -1.385711146557493
            ]
        },
        {
            "positions": [
                -0.9102311384796149,
                -1.7554235788786816,
                2.247501781301488,
                0.45296276833735916,
                1.0708779627362397,
                -1.2304101560978102
            ]
        },
        {
            "positions": [
                -0.9579284537902706,
                -1.7872377572347675,
                2.232912374257862,
                0.5764479880366153,
                1.0573659035115628,
                -1.0751091656381275
            ]
        },
        {
            "positions": [
                -1.0056257691009263,
                -1.8190519355908537,
                2.218322967214236,
                0.6999332077358718,
                1.0438538442868859,
                -0.9198081751784448
            ]
        },
        {
            "positions": [
                -1.053323084411582,
                -1.8508661139469396,
                2.2037335601706096,
                0.8234184274351279,
                1.030341785062209,
                -0.7645071847187621
            ]
        },
        {
            "positions": [
                -1.1010203997222376,
                -1.8826802923030255,
                2.1891441531269837,
                0.9469036471343844,
                1.0168297258375318,
                -0.6092061942590794
            ]
        },
        {
            "positions": [
                -1.1487177150328933,
                -1.9144944706591116,
                2.174554746083358,
                1.0703888668336405,
                1.003317666612855,
                -0.4539052037993967
            ]
        },
        {
            "positions": [
                -1.196415030343549,
                -1.9463086490151975,
                2.1599653390397315,
                1.1938740865328972,
                0.989805607388178,
                -0.298604213339714
            ]
        },
        {
            "positions": [
                -1.2441123456542047,
                -1.9781228273712834,
                2.1453759319961057,
                1.3173593062321534,
                0.9762935481635011,
                -0.14330322288003128
            ]
        },
        {
            "positions": [
                -1.2918096609648604,
                -2.0099370057273696,
                2.1307865249524793,
                1.4408445259314095,
                0.9627814889388242,
                0.01199776757965143
            ]
        },
        {
            "positions": [
                -1.339506976275516,
                -2.0417511840834557,
                2.1161971179088535,
                1.5643297456306662,
                0.9492694297141473,
                0.16729875803933414
            ]
        },
        {
            "positions": [
                -1.3872042915861718,
                -2.0735653624395414,
                2.1016077108652276,
                1.6878149653299224,
                0.9357573704894703,
                0.32259974849901685
            ]
        },
        {
            "positions": [
                -1.4349016068968274,
                -2.1053795407956275,
                2.0870183038216013,
                1.8113001850291786,
                0.9222453112647934,
                0.47790073895869956
            ]
        },
        {
            "positions": [
                -1.4825989222074831,
                -2.137193719151713,
                2.0724288967779754,
                1.9347854047284352,
                0.9087332520401163,
                0.6332017294183823
            ]
        },
        {
            "positions": [
                -1.5302962375181388,
                -2.1690078975077993,
                2.0578394897343495,
                2.058270624427691,
                0.8952211928154394,
                0.788502719878065
            ]
        },
        {
            "positions": [
                -1.5779935528287945,
                -2.2008220758638855,
                2.043250082690723,
                2.181755844126948,
                0.8817091335907625,
                0.9438037103377477
            ]
        },
        {
            "positions": [
                -1.6256908681394502,
                -2.2326362542199716,
                2.0286606756470973,
                2.3052410638262035,
                0.8681970743660856,
                1.0991047007974304
            ]
        },
        {
            "positions": [
                -1.6733881834501059,
                -2.2644504325760573,
                2.0140712686034714,
                2.42872628352546,
                0.8546850151414086,
                1.254405691257113
            ]
        },
        {
            "positions": [
                -1.7210854987607616,
                -2.2962646109321434,
                1.999481861559845,
                2.552211503224717,
                0.8411729559167317,
                1.4097066817167958
            ]
        },
        {
            "positions": [
                -1.7687828140714172,
                -2.3280787892882295,
                1.9848924545162192,
                2.6756967229239725,
                0.8276608966920547,
                1.5650076721764785
            ]
        },
        {
            "positions": [
                -1.816480129382073,
                -2.359892967644315,
                1.970303047472593,
                2.799181942623229,
                0.8141488374673778,
                1.7203086626361612
            ]
        },
        {
            "positions": [
                -1.8641774446927286,
                -2.3917071460004014,
                1.955713640428967,
                2.9226671623224854,
                0.8006367782427009,
                1.8756096530958444
            ]
        },
        {
            "positions": [
                -1.7812409632730255,
                -2.376173354832627,
                1.9699299809678925,
                2.812993073284363,
                0.7975800416677761,
                1.7141826468387438
            ]
        },
        {
            "positions": [
                -1.6983044818533224,
                -2.360639563664852,
                1.984146321506818,
                2.703318984246241,
                0.7945233050928513,
                1.552755640581643
            ]
        },
        {
            "positions": [
                -1.6153680004336193,
                -2.3451057724970776,
                1.9983626620457435,
                2.5936448952081186,
                0.7914665685179265,
                1.3913286343245423
            ]
        },
        {
            "positions": [
                -1.5324315190139162,
                -2.329571981329303,
                2.012579002584669,
                2.4839708061699963,
                0.7884098319430017,
                1.2299016280674415
            ]
        },
        {
            "positions": [
                -1.4494950375942133,
                -2.3140381901615283,
                2.0267953431235943,
                2.374296717131874,
                0.785353095368077,
                1.068474621810341
            ]
        },
        {
            "positions": [
                -1.3665585561745102,
                -2.298504398993754,
                2.04101168366252,
                2.264622628093752,
                0.7822963587931522,
                0.9070476155532402
            ]
        },
        {
            "positions": [
                -1.283622074754807,
                -2.2829706078259795,
                2.0552280242014453,
                2.1549485390556296,
                0.7792396222182274,
                0.7456206092961395
            ]
        },
        {
            "positions": [
                -1.200685593335104,
                -2.2674368166582046,
                2.069444364740371,
                2.0452744500175073,
                0.7761828856433026,
                0.5841936030390389
            ]
        },
        {
            "positions": [
                -1.1177491119154008,
                -2.25190302549043,
                2.0836607052792964,
                1.935600360979385,
                0.7731261490683778,
                0.42276659678193806
            ]
        },
        {
            "positions": [
                -1.0348126304956977,
                -2.2363692343226558,
                2.097877045818222,
                1.825926271941263,
                0.7700694124934531,
                0.26133959052483746
            ]
        },
        {
            "positions": [
                -0.9518761490759946,
                -2.220835443154881,
                2.1120933863571474,
                1.7162521829031405,
                0.7670126759185283,
                0.09991258426773664
            ]
        },
        {
            "positions": [
                -0.8689396676562916,
                -2.2053016519871065,
                2.126309726896073,
                1.6065780938650185,
                0.7639559393436035,
                -0.061514421989363965
            ]
        },
        {
            "positions": [
                -0.7860031862365884,
                -2.189767860819332,
                2.1405260674349984,
                1.4969040048268962,
                0.7608992027686787,
                -0.22294142824646457
            ]
        },
        {
            "positions": [
                -0.7030667048168853,
                -2.174234069651557,
                2.154742407973924,
                1.387229915788774,
                0.757842466193754,
                -0.3843684345035654
            ]
        },
        {
            "positions": [
                -0.6201302233971822,
                -2.1587002784837828,
                2.1689587485128494,
                1.2775558267506517,
                0.7547857296188292,
                -0.5457954407606662
            ]
        },
        {
            "positions": [
                -0.5371937419774793,
                -2.1431664873160083,
                2.183175089051775,
                1.1678817377125295,
                0.7517289930439044,
                -0.7072224470177666
            ]
        },
        {
            "positions": [
                -0.45425726055777615,
                -2.1276326961482335,
                2.1973914295907004,
                1.0582076486744074,
                0.7486722564689796,
                -0.8686494532748674
            ]
        },
        {
            "positions": [
                -0.3713207791380728,
                -2.112098904980459,
                2.211607770129626,
                0.9485335596362849,
                0.7456155198940548,
                -1.0300764595319682
            ]
        },
        {
            "positions": [
                -0.28838429771836993,
                -2.0965651138126846,
                2.2258241106685515,
                0.8388594705981629,
                0.7425587833191301,
                -1.191503465789069
            ]
        },
        {
            "positions": [
                -0.20544781629866682,
                -2.0810313226449098,
                2.240040451207477,
                0.7291853815600406,
                0.7395020467442053,
                -1.3529304720461695
            ]
        },
        {
            "positions": [
                -0.12251133487896393,
                -2.0654975314771353,
                2.2542567917464025,
                0.6195112925219184,
                0.7364453101692805,
                -1.5143574783032698
            ]
        },
        {
            "positions": [
                -0.039574853459260595,
                -2.0499637403093605,
                2.268473132285328,
                0.5098372034837957,
                0.7333885735943557,
                -1.675784484560371
            ]
        },
        {
            "positions": [
                0.04336162796044252,
                -2.034429949141586,
                2.2826894728242535,
                0.4001631144456739,
                0.7303318370194309,
                -1.8372114908174715
            ]
        },
        {
            "positions": [
                0.1262981093801454,
                -2.0188961579738116,
                2.2969058133631792,
                0.2904890254075516,
                0.7272751004445062,
                -1.9986384970745723
            ]
        },
        {
            "positions": [
                0.20923459079984852,
                -2.003362366806037,
                2.3111221539021045,
                0.18081493636942936,
                0.7242183638695814,
                -2.160065503331673
            ]
        },
        {
            "positions": [
                0.29217107221955185,
                -1.9878285756382623,
                2.3253384944410302,
                0.0711408473313071,
                0.7211616272946566,
                -2.3214925095887735
            ]
        },
        {
            "positions": [
                0.37510755363925474,
                -1.972294784470488,
                2.3395548349799555,
                -0.03853324170681516,
                0.7181048907197318,
                -2.482919515845875
            ]
        },
        {
            "positions": [
                0.4580440350589581,
                -1.9567609933027132,
                2.3537711755188813,
                -0.14820733074493742,
                0.715048154144807,
                -2.644346522102975
            ]
        },
        {
            "positions": [
                0.540980516478661,
                -1.9412272021349386,
                2.3679875160578066,
                -0.2578814197830597,
                0.7119914175698823,
                -2.8057735283600755
            ]
        },
        {
            "positions": [
                0.6239169978983643,
                -1.9256934109671642,
                2.382203856596732,
                -0.36755550882118193,
                0.7089346809949575,
                -2.967200534617177
            ]
        },
        {
            "positions": [
                0.7068534793180672,
                -1.9101596197993895,
                2.3964201971356576,
                -0.477229597859304,
                0.7058779444200327,
                -3.1286275408742776
            ]
        }
    ]
}