{
    "goal": {
        "global_pose": {
            "orientation": {
                "w": 0.005598929693374612,
                "x": 0.007748599140229565,
                "y": 0.7110244013736278,
                "z": -0.7031023480610252
            },
            "position": {
                "x": -0.8858502320852131,
                "y": -0.7141253447532654,
                "z": 0.3711530566215515
            }
        },
        "name": "move_to_auspresseinheit_C"
    },
    "id": "BFMT_move_to_auspresseinheit_C_137",
    "joint_names": [
        "shoulder_pan_joint",
        "shoulder_lift_joint",
        "elbow_joint",
        "wrist_1_joint",
        "wrist_2_joint",
        "wrist_3_joint"
    ],
    "metrics": {
        "cart_traj_len": 0.4947490898722944,
        "distance_elbow_joint": 1.0184331356008527,
        "distance_shoulder_lift_joint": 0.33390056034981963,
        "distance_shoulder_pan_joint": 0.25633694743744906,
        "distance_wrist_1_joint": 0.7076265347755851,
        "distance_wrist_2_joint": 1.316383037813391,
        "distance_wrist_3_joint": 0.08231553674216885,
        "smoothness": 8.074349308362242e-16,
        "time": 0.46820886700000003,
        "traj_len": 1.9274324249423809,
        "weighted_distance": 2.4297399858405795
    },
    "planner": "BFMT",
    "start": {
        "state": {
            "elbow_joint": 1.7527959577737207,
            "shoulder_lift_joint": -0.9740617694225068,
            "shoulder_pan_joint": -2.967991417825858,
            "wrist_1_joint": -0.759517768980727,
            "wrist_2_joint": 1.7443932448377408,
            "wrist_3_joint": -3.0840537646736568
        }
    },
    "waypoints": [
        {
            "positions": [
                -2.967991417825858,
                -0.9740617694225068,
                1.7527959577737207,
                -0.759517768980727,
                1.7443932448377408,
                -3.0840537646736568
            ]
        },
        {
            "positions": [
                -2.942357723082113,
                -0.9406717133875249,
                1.6509526442136353,
                -0.6887551155031685,
                1.6127549410564017,
                -3.092285318347874
            ]
        },
        {
            "positions": [
                -2.916724028338368,
                -0.9072816573525428,
                1.5491093306535502,
                -0.61799246202561,
                1.4811166372750626,
                -3.1005168720220904
            ]
        },
        {
            "positions": [
                -2.891090333594623,
                -0.8738916013175608,
                1.4472660170934648,
                -0.5472298085480515,
                1.3494783334937235,
                -3.1087484256963074
            ]
        },
        {
            "positions": [
                -2.8654566388508784,
                -0.8405015452825789,
                1.3454227035333797,
                -0.4764671550704929,
                1.2178400297123844,
                -3.1169799793705244
            ]
        },
        {
            "positions": [
                -2.8398229441071337,
                -0.807111489247597,
                1.2435793899732943,
                -0.4057045015929344,
                1.0862017259310455,
                -3.125211533044741
            ]
        },
        {
            "positions": [
                -2.8141892493633884,
                -0.773721433212615,
                1.141736076413209,
                -0.3349418481153759,
                0.9545634221497062,
                -3.133443086718958
            ]
        },
        {
            "positions": [
                -2.7885555546196437,
                -0.7403313771776331,
                1.0398927628531238,
                -0.2641791946378174,
                0.8229251183683672,
                -3.141674640393175
            ]
        },
        {
            "positions": [
                -2.762921859875899,
                -0.7069413211426511,
                0.9380494492930385,
                -0.19341654116025886,
                0.6912868145870281,
                -3.149906194067392
            ]
        },
        {
            "positions": [
                -2.7372881651321537,
                -0.6735512651076692,
                0.8362061357329532,
                -0.12265388768270036,
                0.559648510805689,
                -3.1581377477416086
            ]
        },
        {
            "positions": [
                -2.711654470388409,
                -0.6401612090726871,
                0.734362822172868,
                -0.051891234205141815,
                0.4280102070243499,
                -3.1663693014158256
            ]
        }
    ]
}