{
    "goal": {
        "global_pose": {
            "orientation": {
                "w": 0.7047431493862688,
                "x": -0.7094548369677653,
                "y": 0.0024358444001904,
                "z": -0.0022348060817251984
            },
            "position": {
                "x": -0.39052492380142206,
                "y": 0.3671506643295288,
                "z": 0.19426114857196808
            }
        },
        "name": "move_to_magneteinheit_D"
    },
    "id": "BFMT_move_to_magneteinheit_D_88",
    "joint_names": [
        "shoulder_pan_joint",
        "shoulder_lift_joint",
        "elbow_joint",
        "wrist_1_joint",
        "wrist_2_joint",
        "wrist_3_joint"
    ],
    "metrics": {
        "cart_traj_len": 3.915404950223556,
        "distance_elbow_joint": 3.366244536976473,
        "distance_shoulder_lift_joint": 1.6340575657966163,
        "distance_shoulder_pan_joint": 4.768976953081674,
        "distance_wrist_1_joint": 3.8219263821791833,
        "distance_wrist_2_joint": 2.096269661205108,
        "distance_wrist_3_joint": 4.664223205200622,
        "smoothness": 0.49966335594778577,
        "time": 1.485544089,
        "traj_len": 4.511285659813585,
        "weighted_distance": 5.966434509673699
    },
    "planner": "BFMT",
    "start": {
        "state": {
            "elbow_joint": 0.749534889911806,
            "shoulder_lift_joint": -0.6476975780787326,
            "shoulder_pan_joint": -2.711696901376241,
            "wrist_1_joint": -0.07506478083263063,
            "wrist_2_joint": 0.43296659715538205,
            "wrist_3_joint": -3.14703540197715
        }
    },
    "waypoints": [
        {
            "positions": [
                -2.711696901376241,
                -0.6476975780787326,
                0.749534889911806,
                -0.07506478083263063,
                0.43296659715538205,
                -3.14703540197715
            ]
        },
        {
            "positions": [
                -2.773192362995446,
                -0.6950210185333936,
                0.6384028101043252,
                -0.04305321616725194,
                0.36742438310213943,
                -3.094243990772563
            ]
        },
        {
            "positions": [
                -2.8346878246146514,
                -0.7423444589880545,
                0.5272707302968445,
                -0.01104165150187325,
                0.30188216904889675,
                -3.0414525795679763
            ]
        },
        {
            "positions": [
                -2.8961832862338563,
                -0.7896678994427154,
                0.4161386504893636,
                0.020969913163505438,
                0.23633995499565413,
                -2.9886611683633895
            ]
        },
        {
            "positions": [
                -2.7948506922584335,
                -0.7931991870596135,
                0.3352732154892937,
                0.09362132488816445,
                0.2091704608653122,
                -2.884679911741728
            ]
        },
        {
            "positions": [
                -2.6935180982830107,
                -0.7967304746765116,
                0.25440778048922374,
                0.16627273661282346,
                0.1820009667349703,
                -2.7806986551200668
            ]
        },
        {
            "positions": [
                -2.5921855043075874,
                -0.8002617622934096,
                0.17354234548915376,
                0.2389241483374825,
                0.15483147260462837,
                -2.6767173984984054
            ]
        },
        {
            "positions": [
                -2.4908529103321646,
                -0.8037930499103076,
                0.09267691048908383,
                0.3115755600621415,
                0.12766197847428645,
                -2.572736141876744
            ]
        },
        {
            "positions": [
                -2.389520316356742,
                -0.8073243375272057,
                0.01181147548901379,
                0.38422697178680054,
                0.10049248434394453,
                -2.4687548852550822
            ]
        },
        {
            "positions": [
                -2.288187722381319,
                -0.8108556251441037,
                -0.06905395951105608,
                0.45687838351145954,
                0.07332299021360261,
                -2.3647736286334213
            ]
        },
        {
            "positions": [
                -2.186855128405896,
                -0.8143869127610018,
                -0.14991939451112613,
                0.5295297952361186,
                0.04615349608326069,
                -2.2607923720117595
            ]
        },
        {
            "positions": [
                -2.0855225344304733,
                -0.8179182003778999,
                -0.23078482951119594,
                0.6021812069607775,
                0.018984001952918772,
                -2.156811115390098
            ]
        },
        {
            "positions": [
                -1.9841899404550503,
                -0.8214494879947979,
                -0.311650264511266,
                0.6748326186854365,
                -0.008185492177423148,
                -2.052829858768437
            ]
        },
        {
            "positions": [
                -1.8828573464796272,
                -0.824980775611696,
                -0.392515699511336,
                0.7474840304100956,
                -0.03535498630776507,
                -1.9488486021467755
            ]
        },
        {
            "positions": [
                -1.7815247525042044,
                -0.828512063228594,
                -0.47338113451140595,
                0.8201354421347546,
                -0.06252448043810699,
                -1.8448673455251139
            ]
        },
        {
            "positions": [
                -1.6801921585287816,
                -0.8320433508454921,
                -0.5542465695114758,
                0.8927868538594137,
                -0.08969397456844891,
                -1.7408860889034528
            ]
        },
        {
            "positions": [
                -1.5788595645533587,
                -0.8355746384623901,
                -0.6351120045115457,
                0.9654382655840728,
                -0.11686346869879083,
                -1.6369048322817912
            ]
        },
        {
            "positions": [
                -1.4775269705779357,
                -0.8391059260792881,
                -0.7159774395116159,
                1.0380896773087318,
                -0.14403296282913275,
                -1.5329235756601298
            ]
        },
        {
            "positions": [
                -1.3761943766025129,
                -0.8426372136961863,
                -0.7968428745116858,
                1.1107410890333909,
                -0.17120245695947467,
                -1.4289423190384682
            ]
        },
        {
            "positions": [
                -1.27486178262709,
                -0.8461685013130843,
                -0.8777083095117555,
                1.1833925007580497,
                -0.1983719510898166,
                -1.3249610624168071
            ]
        },
        {
            "positions": [
                -1.1735291886516672,
                -0.8496997889299823,
                -0.9585737445118256,
                1.2560439124827087,
                -0.2255414452201585,
                -1.2209798057951455
            ]
        },
        {
            "positions": [
                -1.0721965946762442,
                -0.8532310765468805,
                -1.0394391795118956,
                1.3286953242073678,
                -0.25271093935050043,
                -1.1169985491734842
            ]
        },
        {
            "positions": [
                -0.9708640007008211,
                -0.8567623641637785,
                -1.1203046145119655,
                1.4013467359320269,
                -0.2798804334808424,
                -1.0130172925518228
            ]
        },
        {
            "positions": [
                -0.8695314067253981,
                -0.8602936517806765,
                -1.2011700495120357,
                1.473998147656686,
                -0.30704992761118427,
                -0.9090360359301615
            ]
        },
        {
            "positions": [
                -0.7681988127499753,
                -0.8638249393975745,
                -1.2820354845121056,
                1.546649559381345,
                -0.33421942174152625,
                -0.8050547793084997
            ]
        },
        {
            "positions": [
                -0.6668662187745524,
                -0.8673562270144726,
                -1.3629009195121755,
                1.619300971106004,
                -0.3613889158718681,
                -0.7010735226868383
            ]
        },
        {
            "positions": [
                -0.56553362479913,
                -0.8708875146313707,
                -1.4437663545122452,
                1.6919523828306628,
                -0.38855841000221,
                -0.5970922660651774
            ]
        },
        {
            "positions": [
                -0.4642010308237068,
                -0.8744188022482687,
                -1.5246317895123151,
                1.764603794555322,
                -0.41572790413255195,
                -0.49311100944351605
            ]
        },
        {
            "positions": [
                -0.36286843684828396,
                -0.8779500898651668,
                -1.605497224512385,
                1.837255206279981,
                -0.4428973982628938,
                -0.38912975282185425
            ]
        },
        {
            "positions": [
                -0.26153584287286114,
                -0.8814813774820649,
                -1.686362659512455,
                1.90990661800464,
                -0.4700668923932358,
                -0.2851484962001929
            ]
        },
        {
            "positions": [
                -0.1602032488974383,
                -0.8850126650989629,
                -1.7672280945125254,
                1.9825580297292988,
                -0.49723638652357766,
                -0.18116723957853154
            ]
        },
        {
            "positions": [
                -0.05887065492201504,
                -0.888543952715861,
                -1.8480935295125953,
                2.055209441453958,
                -0.5244058806539196,
                -0.07718598295687018
            ]
        },
        {
            "positions": [
                0.04246193905340778,
                -0.892075240332759,
                -1.9289589645126652,
                2.1278608531786167,
                -0.5515753747842616,
                0.026795273664791175
            ]
        },
        {
            "positions": [
                0.1437945330288306,
                -0.895606527949657,
                -2.009824399512735,
                2.200512264903276,
                -0.5787448689146035,
                0.13077653028645297
            ]
        },
        {
            "positions": [
                0.24512712700425388,
                -0.8991378155665551,
                -2.090689834512805,
                2.273163676627935,
                -0.6059143630449455,
                0.23475778690811433
            ]
        },
        {
            "positions": [
                0.34645972097967626,
                -0.9026691031834532,
                -2.171555269512875,
                2.3458150883525937,
                -0.6330838571752873,
                0.33873904352977524
            ]
        },
        {
            "positions": [
                0.4477923149550991,
                -0.9062003908003512,
                -2.2524207045129447,
                2.418466500077253,
                -0.6602533513056292,
                0.4427203001514366
            ]
        },
        {
            "positions": [
                0.5491249089305219,
                -0.9097316784172493,
                -2.3332861395130147,
                2.4911179118019118,
                -0.6874228454359712,
                0.5467015567730984
            ]
        },
        {
            "positions": [
                0.6504575029059452,
                -0.9132629660341474,
                -2.4141515745130846,
                2.563769323526571,
                -0.714592339566313,
                0.6506828133947598
            ]
        },
        {
            "positions": [
                0.751790096881368,
                -0.9167942536510454,
                -2.4950170095131545,
                2.63642073525123,
                -0.741761833696655,
                0.7546640700164209
            ]
        },
        {
            "positions": [
                0.6848960122307367,
                -1.0142914600956385,
                -2.486324678259475,
                2.5571035305301355,
                -0.6759374601000072,
                0.7001980890730599
            ]
        },
        {
            "positions": [
                0.6180019275801054,
                -1.1117886665402317,
                -2.4776323470057955,
                2.4777863258090407,
                -0.6101130865033594,
                0.6457321081296988
            ]
        },
        {
            "positions": [
                0.551107842929474,
                -1.2092858729848248,
                -2.468940015752116,
                2.3984691210879463,
                -0.5442887129067115,
                0.5912661271863379
            ]
        },
        {
            "positions": [
                0.4842137582788428,
                -1.3067830794294177,
                -2.4602476844984364,
                2.319151916366852,
                -0.4784643393100637,
                0.5368001462429769
            ]
        },
        {
            "positions": [
                0.41731967362821143,
                -1.4042802858740109,
                -2.451555353244757,
                2.2398347116457575,
                -0.4126399657134158,
                0.4823341652996158
            ]
        },
        {
            "positions": [
                0.35042558897758014,
                -1.501777492318604,
                -2.4428630219910774,
                2.1605175069246627,
                -0.34681559211676805,
                0.42786818435625484
            ]
        },
        {
            "positions": [
                0.2835315043269488,
                -1.5992746987631972,
                -2.434170690737398,
                2.0812003022035683,
                -0.28099121852012016,
                0.3734022034128938
            ]
        },
        {
            "positions": [
                0.21663741967631756,
                -1.69677190520779,
                -2.4254783594837184,
                2.001883097482474,
                -0.21516684492347238,
                0.31893622246953285
            ]
        },
        {
            "positions": [
                0.14974333502568615,
                -1.7942691116523835,
                -2.416786028230039,
                1.9225658927613791,
                -0.14934247132682443,
                0.26447024152617177
            ]
        },
        {
            "positions": [
                0.08284925037505486,
                -1.8917663180969764,
                -2.4080936969763593,
                1.8432486880402847,
                -0.0835180977301766,
                0.21000426058281074
            ]
        },
        {
            "positions": [
                0.01595516572442357,
                -1.9892635245415695,
                -2.39940136572268,
                1.7639314833191904,
                -0.017693724133528765,
                0.15553827963944977
            ]
        },
        {
            "positions": [
                -0.05093891892620772,
                -2.0867607309861627,
                -2.3907090344690003,
                1.684614278598096,
                0.04813064946311896,
                0.1010722986960888
            ]
        },
        {
            "positions": [
                -0.11783300357683912,
                -2.184257937430756,
                -2.3820167032153208,
                1.6052970738770012,
                0.1139550230597669,
                0.04660631775272772
            ]
        },
        {
            "positions": [
                -0.18472708822747044,
                -2.281755143875349,
                -2.3733243719616413,
                1.5259798691559068,
                0.17977939665641474,
                -0.007859663190633297
            ]
        }
    ]
}