{
    "goal": {
        "global_pose": {
            "orientation": {
                "w": 0.5084816262002911,
                "x": -0.4908360881923452,
                "y": 0.5182115481033761,
                "z": -0.48164630358495003
            },
            "position": {
                "x": 0.5540239810943604,
                "y": -0.46912469901144505,
                "z": 0.16403168439865112
            }
        },
        "name": "move_to_storage_B"
    },
    "id": "BFMT_move_to_storage_B_69",
    "joint_names": [
        "shoulder_pan_joint",
        "shoulder_lift_joint",
        "elbow_joint",
        "wrist_1_joint",
        "wrist_2_joint",
        "wrist_3_joint"
    ],
    "metrics": {
        "cart_traj_len": 1.7725175520589116,
        "distance_elbow_joint": 1.380302563361925,
        "distance_shoulder_lift_joint": 0.46036197931260836,
        "distance_shoulder_pan_joint": 2.142971328937146,
        "distance_wrist_1_joint": 3.021081989026326,
        "distance_wrist_2_joint": 2.7100875700417744,
        "distance_wrist_3_joint": 3.136270904582021,
        "smoothness": 0.186516307186255,
        "time": 0.7262631180000001,
        "traj_len": 3.584839792133227,
        "weighted_distance": 4.985457622274403
    },
    "planner": "BFMT",
    "start": {
        "state": {
            "elbow_joint": 1.664937868594044,
            "shoulder_lift_joint": -0.661644460510453,
            "shoulder_pan_joint": -0.9139846352900073,
            "wrist_1_joint": 2.146753192139373,
            "wrist_2_joint": -2.2341966793290973,
            "wrist_3_joint": 0.005466555786416001
        }
    },
    "waypoints": [
        {
            "positions": [
                -0.9139846352900073,
                -0.661644460510453,
                1.664937868594044,
                2.146753192139373,
                -2.2341966793290973,
                0.005466555786416001
            ]
        },
        {
            "positions": [
                -0.8158886819941168,
                -0.695973323242525,
                1.7515253215596749,
                2.1485818244032675,
                -2.1550217587407303,
                -0.08503576728345019
            ]
        },
        {
            "positions": [
                -0.7177927286982263,
                -0.7303021859745971,
                1.8381127745253059,
                2.150410456667162,
                -2.075846838152363,
                -0.17553809035331638
            ]
        },
        {
            "positions": [
                -0.6196967754023359,
                -0.764631048706669,
                1.9247002274909368,
                2.1522390889310565,
                -1.996671917563996,
                -0.2660404134231825
            ]
        },
        {
            "positions": [
                -0.5216008221064453,
                -0.798959911438741,
                2.011287680456568,
                2.154067721194951,
                -1.9174969969756288,
                -0.35654273649304874
            ]
        },
        {
            "positions": [
                -0.4235048688105549,
                -0.833288774170813,
                2.097875133422199,
                2.155896353458845,
                -1.8383220763872616,
                -0.4470450595629149
            ]
        },
        {
            "positions": [
                -0.32540891551466444,
                -0.8676176369028851,
                2.1844625863878298,
                2.1577249857227394,
                -1.7591471557988945,
                -0.5375473826327811
            ]
        },
        {
            "positions": [
                -0.22731296221877395,
                -0.9019464996349571,
                2.2710500393534607,
                2.1595536179866337,
                -1.6799722352105273,
                -0.6280497057026473
            ]
        },
        {
            "positions": [
                -0.12921700892288335,
                -0.936275362367029,
                2.3576374923190917,
                2.1613822502505284,
                -1.6007973146221603,
                -0.7185520287725136
            ]
        },
        {
            "positions": [
                -0.031121055626992966,
                -0.9706042250991012,
                2.4442249452847227,
                2.1632108825144227,
                -1.521622394033793,
                -0.8090543518423797
            ]
        },
        {
            "positions": [
                0.06697489766889753,
                -1.004933087831173,
                2.5308123982503536,
                2.165039514778317,
                -1.442447473445426,
                -0.8995566749122459
            ]
        },
        {
            "positions": [
                0.0164526456698436,
                -1.0100232335699508,
                2.508445962002283,
                2.0344831814571265,
                -1.359041457612465,
                -0.9965674433419571
            ]
        },
        {
            "positions": [
                -0.03406960632921033,
                -1.0151133793087286,
                2.486079525754213,
                1.903926848135936,
                -1.275635441779504,
                -1.0935782117716684
            ]
        },
        {
            "positions": [
                -0.08459185832826424,
                -1.0202035250475063,
                2.4637130895061428,
                1.7733705148147454,
                -1.1922294259465427,
                -1.1905889802013796
            ]
        },
        {
            "positions": [
                -0.13511411032731818,
                -1.025293670786284,
                2.4413466532580728,
                1.6428141814935548,
                -1.1088234101135817,
                -1.2875997486310908
            ]
        },
        {
            "positions": [
                -0.1856363623263721,
                -1.0303838165250618,
                2.4189802170100023,
                1.5122578481723643,
                -1.0254173942806206,
                -1.384610517060802
            ]
        },
        {
            "positions": [
                -0.236158614325426,
                -1.0354739622638396,
                2.3966137807619323,
                1.3817015148511738,
                -0.9420113784476596,
                -1.4816212854905133
            ]
        },
        {
            "positions": [
                -0.28668086632448,
                -1.0405641080026173,
                2.374247344513862,
                1.2511451815299832,
                -0.8586053626146984,
                -1.5786320539202245
            ]
        },
        {
            "positions": [
                -0.3372031183235339,
                -1.045654253741395,
                2.351880908265792,
                1.120588848208793,
                -0.7751993467817374,
                -1.675642822349936
            ]
        },
        {
            "positions": [
                -0.38772537032258786,
                -1.0507443994801728,
                2.3295144720177214,
                0.9900325148876024,
                -0.6917933309487764,
                -1.772653590779647
            ]
        },
        {
            "positions": [
                -0.4382476223216417,
                -1.0558345452189506,
                2.3071480357696514,
                0.8594761815664118,
                -0.6083873151158153,
                -1.8696643592093585
            ]
        },
        {
            "positions": [
                -0.48876987432069574,
                -1.0609246909577283,
                2.284781599521581,
                0.7289198482452213,
                -0.5249812992828542,
                -1.9666751276390697
            ]
        },
        {
            "positions": [
                -0.5392921263197495,
                -1.066014836696506,
                2.262415163273511,
                0.5983635149240307,
                -0.44157528344989316,
                -2.0636858960687805
            ]
        },
        {
            "positions": [
                -0.5898143783188035,
                -1.0711049824352838,
                2.2400487270254406,
                0.4678071816028404,
                -0.35816926761693213,
                -2.160696664498492
            ]
        },
        {
            "positions": [
                -0.6403366303178575,
                -1.0761951281740616,
                2.2176822907773706,
                0.33725084828164964,
                -0.2747632517839709,
                -2.2577074329282034
            ]
        },
        {
            "positions": [
                -0.6908588823169114,
                -1.0812852739128394,
                2.1953158545293,
                0.2066945149604591,
                -0.19135723595100984,
                -2.3547182013579144
            ]
        },
        {
            "positions": [
                -0.7413811343159653,
                -1.086375419651617,
                2.17294941828123,
                0.07613818163926878,
                -0.10795122011804881,
                -2.451728969787626
            ]
        },
        {
            "positions": [
                -0.7919033863150192,
                -1.0914655653903949,
                2.1505829820331597,
                -0.05441815168192177,
                -0.024545204285087774,
                -2.548739738217337
            ]
        },
        {
            "positions": [
                -0.8424256383140732,
                -1.0965557111291726,
                2.1282165457850897,
                -0.1849744850031123,
                0.05886081154787326,
                -2.6457505066470484
            ]
        },
        {
            "positions": [
                -0.8929478903131272,
                -1.1016458568679504,
                2.1058501095370192,
                -0.31553081832430285,
                0.1422668273808343,
                -2.7427612750767594
            ]
        },
        {
            "positions": [
                -0.943470142312181,
                -1.106736002606728,
                2.0834836732889492,
                -0.4460871516454934,
                0.22567284321379533,
                -2.839772043506471
            ]
        },
        {
            "positions": [
                -0.993992394311235,
                -1.1118261483455059,
                2.061117237040879,
                -0.5766434849666839,
                0.30907885904675636,
                -2.9367828119361823
            ]
        },
        {
            "positions": [
                -1.044514646310289,
                -1.1169162940842836,
                2.0387508007928083,
                -0.7071998182878745,
                0.3924848748797176,
                -3.0337935803658933
            ]
        },
        {
            "positions": [
                -1.0950368983093428,
                -1.1220064398230614,
                2.0163843645447384,
                -0.8377561516090649,
                0.4758908907126787,
                -3.1308043487956048
            ]
        }
    ]
}