{
    "goal": {
        "global_pose": {
            "orientation": {
                "w": -0.4816463035849501,
                "x": 0.5182115481033762,
                "y": 0.4908360881923453,
                "z": -0.5084816262002911
            },
            "position": {
                "x": -0.8240239810943604,
                "y": 0.19912469901144506,
                "z": 0.16403168439865112
            }
        },
        "name": "move_to_storage_D"
    },
    "id": "BFMT_move_to_storage_D_69",
    "joint_names": [
        "shoulder_pan_joint",
        "shoulder_lift_joint",
        "elbow_joint",
        "wrist_1_joint",
        "wrist_2_joint",
        "wrist_3_joint"
    ],
    "metrics": {
        "cart_traj_len": 3.88475656539918,
        "distance_elbow_joint": 4.2088085607898496,
        "distance_shoulder_lift_joint": 1.2660892210454533,
        "distance_shoulder_pan_joint": 2.8119672968451095,
        "distance_wrist_1_joint": 2.268537241547076,
        "distance_wrist_2_joint": 0.8671720649564594,
        "distance_wrist_3_joint": 3.146197290223208,
        "smoothness": 5.107025900018784e-16,
        "time": 0.869196324,
        "traj_len": 3.8169060343958114,
        "weighted_distance": 4.898660588605534
    },
    "planner": "BFMT",
    "start": {
        "state": {
            "elbow_joint": -2.384821988534728,
            "shoulder_lift_joint": -2.2788054721415256,
            "shoulder_pan_joint": -0.1854694642142757,
            "wrist_1_joint": 1.4845938289331202,
            "wrist_2_joint": 0.17898776772866878,
            "wrist_3_joint": 0.037105688729662994
        }
    },
    "waypoints": [
        {
            "positions": [
                -0.1854694642142757,
                -2.2788054721415256,
                -2.384821988534728,
                1.4845938289331202,
                0.17898776772866878,
                0.037105688729662994
            ]
        },
        {
            "positions": [
                -0.16226149263856857,
                -2.263034555442737,
                -2.373420025266821,
                1.4813709936624329,
                0.19783800848161348,
                0.04414373183248779
            ]
        },
        {
            "positions": [
                -0.08638429105572928,
                -2.2294718650345957,
                -2.262513007880261,
                1.4203315226816717,
                0.22056709479629133,
                0.1268030685520769
            ]
        },
        {
            "positions": [
                -0.010507089472890002,
                -2.1959091746264545,
                -2.1516059904937017,
                1.3592920517009106,
                0.24329618111096918,
                0.20946240527166599
            ]
        },
        {
            "positions": [
                0.06537011210994928,
                -2.1623464842183138,
                -2.040698973107142,
                1.2982525807201495,
                0.266025267425647,
                0.29212174199125507
            ]
        },
        {
            "positions": [
                0.14124731369278856,
                -2.1287837938101726,
                -1.929791955720582,
                1.2372131097393884,
                0.2887543537403249,
                0.3747810787108442
            ]
        },
        {
            "positions": [
                0.21712451527562784,
                -2.0952211034020314,
                -1.8188849383340222,
                1.1761736387586272,
                0.3114834400550027,
                0.45744041543043334
            ]
        },
        {
            "positions": [
                0.2930017168584671,
                -2.06165841299389,
                -1.7079779209474628,
                1.1151341677778661,
                0.3342125263696806,
                0.5400997521500224
            ]
        },
        {
            "positions": [
                0.3688789184413064,
                -2.028095722585749,
                -1.597070903560903,
                1.054094696797105,
                0.3569416126843584,
                0.6227590888696115
            ]
        },
        {
            "positions": [
                0.44475612002414566,
                -1.994533032177608,
                -1.4861638861743431,
                0.9930552258163439,
                0.37967069899903627,
                0.7054184255892005
            ]
        },
        {
            "positions": [
                0.5206333216069849,
                -1.9609703417694668,
                -1.3752568687877835,
                0.9320157548355826,
                0.4023997853137141,
                0.7880777623087897
            ]
        },
        {
            "positions": [
                0.5965105231898242,
                -1.9274076513613256,
                -1.2643498514012237,
                0.8709762838548215,
                0.42512887162839197,
                0.8707370990283788
            ]
        },
        {
            "positions": [
                0.6723877247726636,
                -1.8938449609531847,
                -1.153442834014664,
                0.8099368128740603,
                0.4478579579430699,
                0.953396435747968
            ]
        },
        {
            "positions": [
                0.7482649263555028,
                -1.8602822705450435,
                -1.0425358166281045,
                0.7488973418932993,
                0.47058704425774767,
                1.036055772467557
            ]
        },
        {
            "positions": [
                0.8241421279383421,
                -1.8267195801369023,
                -0.9316287992415446,
                0.6878578709125381,
                0.49331613057242557,
                1.1187151091871461
            ]
        },
        {
            "positions": [
                0.9000193295211814,
                -1.7931568897287613,
                -0.820721781854985,
                0.6268183999317769,
                0.5160452168871035,
                1.2013744459067353
            ]
        },
        {
            "positions": [
                0.9758965311040206,
                -1.7595941993206201,
                -0.7098147644684252,
                0.5657789289510158,
                0.5387743032017813,
                1.2840337826263244
            ]
        },
        {
            "positions": [
                1.05177373268686,
                -1.7260315089124791,
                -0.5989077470818656,
                0.5047394579702548,
                0.5615033895164592,
                1.3666931193459133
            ]
        },
        {
            "positions": [
                1.1276509342696992,
                -1.692468818504338,
                -0.48800072969530595,
                0.44369998698949353,
                0.584232475831137,
                1.4493524560655024
            ]
        },
        {
            "positions": [
                1.2035281358525385,
                -1.6589061280961968,
                -0.3770937123087461,
                0.3826605160087324,
                0.6069615621458149,
                1.5320117927850916
            ]
        },
        {
            "positions": [
                1.2794053374353778,
                -1.6253434376880556,
                -0.2661866949221863,
                0.3216210450279713,
                0.6296906484604927,
                1.6146711295046807
            ]
        },
        {
            "positions": [
                1.355282539018217,
                -1.5917807472799144,
                -0.15527967753562644,
                0.26058157404721016,
                0.6524197347751706,
                1.6973304662242699
            ]
        },
        {
            "positions": [
                1.4311597406010563,
                -1.5582180568717734,
                -0.044372660149067045,
                0.19954210306644882,
                0.6751488210898484,
                1.779989802943859
            ]
        },
        {
            "positions": [
                1.5070369421838958,
                -1.5246553664636322,
                0.06653435723749279,
                0.1385026320856877,
                0.6978779074045263,
                1.8626491396634481
            ]
        },
        {
            "positions": [
                1.5829141437667347,
                -1.4910926760554912,
                0.17744137462405218,
                0.07746316110492679,
                0.720606993719204,
                1.945308476383037
            ]
        },
        {
            "positions": [
                1.6587913453495742,
                -1.45752998564735,
                0.288348392010612,
                0.01642369012416567,
                0.7433360800338819,
                2.0279678131026264
            ]
        },
        {
            "positions": [
                1.7346685469324135,
                -1.4239672952392088,
                0.39925540939717186,
                -0.044615780856595455,
                0.7660651663485598,
                2.1106271498222156
            ]
        },
        {
            "positions": [
                1.8105457485152527,
                -1.3904046048310676,
                0.5101624267837317,
                -0.10565525183735658,
                0.7887942526632377,
                2.1932864865418047
            ]
        },
        {
            "positions": [
                1.8864229500980918,
                -1.3568419144229267,
                0.6210694441702911,
                -0.16669472281811792,
                0.8115233389779155,
                2.275945823261394
            ]
        },
        {
            "positions": [
                1.9623001516809313,
                -1.3232792240147857,
                0.7319764615568509,
                -0.22773419379887905,
                0.8342524252925934,
                2.358605159980983
            ]
        },
        {
            "positions": [
                2.038177353263771,
                -1.2897165336066445,
                0.8428834789434108,
                -0.28877366477964017,
                0.8569815116072712,
                2.441264496700572
            ]
        },
        {
            "positions": [
                2.11405455484661,
                -1.2561538431985033,
                0.9537904963299706,
                -0.3498131357604013,
                0.8797105979219491,
                2.5239238334201612
            ]
        },
        {
            "positions": [
                2.1899317564294494,
                -1.2225911527903621,
                1.0646975137165304,
                -0.4108526067411624,
                0.9024396842366269,
                2.6065831701397504
            ]
        },
        {
            "positions": [
                2.2658089580122884,
                -1.1890284623822212,
                1.1756045311030898,
                -0.4718920777219233,
                0.9251687705513048,
                2.689242506859339
            ]
        },
        {
            "positions": [
                2.3416861595951275,
                -1.15546577197408,
                1.2865115484896497,
                -0.5329315487026847,
                0.9478978568659826,
                2.771901843578928
            ]
        },
        {
            "positions": [
                2.417563361177967,
                -1.1219030815659388,
                1.397418565876209,
                -0.5939710196834458,
                0.9706269431806605,
                2.8545611802985174
            ]
        },
        {
            "positions": [
                2.493440562760806,
                -1.0883403911577978,
                1.5083255832627689,
                -0.6550104906642069,
                0.9933560294953383,
                2.9372205170181065
            ]
        },
        {
            "positions": [
                2.5693177643436456,
                -1.0547777007496566,
                1.6192326006493287,
                -0.716049961644968,
                1.0160851158100161,
                3.0198798537376956
            ]
        },
        {
            "positions": [
                2.5979077984872396,
                -1.0337469759228646,
                1.7216095864522254,
                -0.7499966871294619,
                1.0311224742475722,
                3.1015914163452836
            ]
        },
        {
            "positions": [
                2.6264978326308337,
                -1.0127162510960723,
                1.8239865722551223,
                -0.7839434126139558,
                1.0461598326851282,
                3.183302978952871
            ]
        }
    ]
}