{
    "goal": {
        "global_pose": {
            "orientation": {
                "w": 0.7031023502349854,
                "x": -0.7110244035720825,
                "y": 0.007748599164187908,
                "z": 0.005598929710686207
            },
            "position": {
                "x": 0.11585023208521307,
                "y": 0.44412534475326537,
                "z": 0.3711530566215515
            }
        },
        "name": "move_to_auspresseinheit_A"
    },
    "id": "BFMT_move_to_auspresseinheit_A_103",
    "joint_names": [
        "shoulder_pan_joint",
        "shoulder_lift_joint",
        "elbow_joint",
        "wrist_1_joint",
        "wrist_2_joint",
        "wrist_3_joint"
    ],
    "metrics": {
        "cart_traj_len": 0.6628608158677337,
        "distance_elbow_joint": 0.11165993400498975,
        "distance_shoulder_lift_joint": 0.5390055872710526,
        "distance_shoulder_pan_joint": 1.0479429243971263,
        "distance_wrist_1_joint": 0.546523722950861,
        "distance_wrist_2_joint": 0.5105209589225577,
        "distance_wrist_3_joint": 1.0209680714366138,
        "smoothness": 0.7926472280281022,
        "time": 0.5426264719999999,
        "traj_len": 1.943353081399055,
        "weighted_distance": 2.622136919333132
    },
    "planner": "BFMT",
    "start": {
        "state": {
            "elbow_joint": 2.4225746658250005,
            "shoulder_lift_joint": -1.3736534386056498,
            "shoulder_pan_joint": -0.3378633547517467,
            "wrist_1_joint": -1.0288598680537169,
            "wrist_2_joint": 1.233022673432363,
            "wrist_3_joint": -3.0940220416140027
        }
    },
    "waypoints": [
        {
            "positions": [
                -0.3378633547517467,
                -1.3736534386056498,
                2.4225746658250005,
                -1.0288598680537169,
                1.233022673432363,
                -3.0940220416140027
            ]
        },
        {
            "positions": [
                -0.2700402103419802,
                -1.4310287004056659,
                2.433366956919053,
                -0.9256224682814275,
                1.218030981016188,
                -2.9700934083849617
            ]
        },
        {
            "positions": [
                -0.2022170659322137,
                -1.4884039622056817,
                2.444159248013105,
                -0.8223850685091381,
                1.2030392886000132,
                -2.846164775155921
            ]
        },
        {
            "positions": [
                -0.13439392152244717,
                -1.5457792240056978,
                2.4549515391071575,
                -0.7191476687368487,
                1.1880475961838382,
                -2.7222361419268806
            ]
        },
        {
            "positions": [
                -0.06657077711268067,
                -1.6031544858057138,
                2.46574383020121,
                -0.6159102689645592,
                1.173055903767663,
                -2.5983075086978396
            ]
        },
        {
            "positions": [
                0.06287094734699605,
                -1.6547385758175452,
                2.4543287019297466,
                -0.5936479149876087,
                1.0979635388913536,
                -2.6858497651179145
            ]
        },
        {
            "positions": [
                0.19231267180667277,
                -1.7063226658293766,
                2.442913573658283,
                -0.5713855610106582,
                1.0228711740150438,
                -2.77339202153799
            ]
        },
        {
            "positions": [
                0.3217543962663495,
                -1.757906755841208,
                2.4314984453868194,
                -0.5491232070337075,
                0.9477788091387342,
                -2.860934277958065
            ]
        },
        {
            "positions": [
                0.4511961207260262,
                -1.8094908458530397,
                2.420083317115356,
                -0.526860853056757,
                0.8726864442624247,
                -2.94847653437814
            ]
        },
        {
            "positions": [
                0.5806378451857029,
                -1.861074935864871,
                2.408668188843893,
                -0.5045984990798065,
                0.7975940793861149,
                -3.0360187907982152
            ]
        },
        {
            "positions": [
                0.7100795696453797,
                -1.9126590258767024,
                2.3972530605724294,
                -0.4823361451028559,
                0.7225017145098054,
                -3.12356104721829
            ]
        }
    ]
}