{
    "goal": {
        "global_pose": {
            "orientation": {
                "w": 0.7047431493862688,
                "x": -0.7094548369677653,
                "y": 0.0024358444001904,
                "z": -0.0022348060817251984
            },
            "position": {
                "x": -0.39052492380142206,
                "y": 0.3671506643295288,
                "z": 0.19426114857196808
            }
        },
        "name": "move_to_magneteinheit_D"
    },
    "id": "BFMT_move_to_magneteinheit_D_116",
    "joint_names": [
        "shoulder_pan_joint",
        "shoulder_lift_joint",
        "elbow_joint",
        "wrist_1_joint",
        "wrist_2_joint",
        "wrist_3_joint"
    ],
    "metrics": {
        "cart_traj_len": 7.712401691523489,
        "distance_elbow_joint": 8.623257498758516,
        "distance_shoulder_lift_joint": 1.6340221616495298,
        "distance_shoulder_pan_joint": 7.964036844667104,
        "distance_wrist_1_joint": 5.128618956607052,
        "distance_wrist_2_joint": 1.3765201026008715,
        "distance_wrist_3_joint": 6.719160933537407,
        "smoothness": 0.5392032939817728,
        "time": 1.289837521,
        "traj_len": 5.607639119791897,
        "weighted_distance": 7.168617539254217
    },
    "planner": "BFMT",
    "start": {
        "state": {
            "elbow_joint": 0.749534889911806,
            "shoulder_lift_joint": -0.6476975780787326,
            "shoulder_pan_joint": -2.711696901376241,
            "wrist_1_joint": -0.07506478083263063,
            "wrist_2_joint": 0.43296659715538205,
            "wrist_3_joint": -3.14703540197715
        }
    },
    "waypoints": [
        {
            "positions": [
                -2.711696901376241,
                -0.6476975780787326,
                0.749534889911806,
                -0.07506478083263063,
                0.43296659715538205,
                -3.14703540197715
            ]
        },
        {
            "positions": [
                -2.728283955314431,
                -0.7348789322705024,
                0.7803527573996043,
                -0.14727829002574935,
                0.40971640613132165,
                -3.104592999008054
            ]
        },
        {
            "positions": [
                -2.7448710092526207,
                -0.8220602864622721,
                0.8111706248874025,
                -0.21949179921886808,
                0.3864662151072613,
                -3.0621505960389572
            ]
        },
        {
            "positions": [
                -2.7614580631908106,
                -0.9092416406540419,
                0.8419884923752009,
                -0.29170530841198683,
                0.3632160240832009,
                -3.019708193069861
            ]
        },
        {
            "positions": [
                -2.60717608629118,
                -0.969933393740185,
                0.7741851076710775,
                -0.269535550479315,
                0.3731646186875284,
                -2.9499281776281183
            ]
        },
        {
            "positions": [
                -2.452894109391549,
                -1.030625146826328,
                0.7063817229669541,
                -0.2473657925466431,
                0.38311321329185594,
                -2.8801481621863756
            ]
        },
        {
            "positions": [
                -2.298612132491918,
                -1.0913168999124712,
                0.6385783382628306,
                -0.22519603461397125,
                0.3930618078961834,
                -2.810368146744633
            ]
        },
        {
            "positions": [
                -2.1443301555922876,
                -1.1520086529986142,
                0.5707749535587072,
                -0.20302627668129938,
                0.4030104025005109,
                -2.7405881313028906
            ]
        },
        {
            "positions": [
                -1.9900481786926567,
                -1.2127004060847573,
                0.5029715688545838,
                -0.18085651874862751,
                0.4129589971048384,
                -2.670808115861148
            ]
        },
        {
            "positions": [
                -1.8357662017930259,
                -1.2733921591709003,
                0.4351681841504604,
                -0.15868676081595565,
                0.4229075917091659,
                -2.601028100419405
            ]
        },
        {
            "positions": [
                -1.6814842248933952,
                -1.3340839122570434,
                0.36736479944633704,
                -0.1365170028832838,
                0.43285618631349343,
                -2.5312480849776624
            ]
        },
        {
            "positions": [
                -1.5272022479937644,
                -1.3947756653431864,
                0.29956141474221365,
                -0.11434724495061194,
                0.44280478091782094,
                -2.46146806953592
            ]
        },
        {
            "positions": [
                -1.3729202710941337,
                -1.4554674184293295,
                0.23175803003809015,
                -0.09217748701794004,
                0.45275337552214845,
                -2.3916880540941774
            ]
        },
        {
            "positions": [
                -1.2186382941945029,
                -1.5161591715154727,
                0.16395464533396675,
                -0.07000772908526817,
                0.4627019701264759,
                -2.3219080386524347
            ]
        },
        {
            "positions": [
                -1.064356317294872,
                -1.5768509246016158,
                0.09615126062984336,
                -0.047837971152596304,
                0.4726505647308034,
                -2.252128023210692
            ]
        },
        {
            "positions": [
                -0.9100743403952412,
                -1.6375426776877589,
                0.028347875925719856,
                -0.025668213219924463,
                0.4825991593351309,
                -2.182348007768949
            ]
        },
        {
            "positions": [
                -0.7557923634956105,
                -1.698234430773902,
                -0.039455508778403425,
                -0.003498455287252622,
                0.4925477539394584,
                -2.1125679923272065
            ]
        },
        {
            "positions": [
                -0.6015103865959799,
                -1.758926183860045,
                -0.10725889348252682,
                0.01867130264541922,
                0.5024963485437859,
                -2.0427879768854638
            ]
        },
        {
            "positions": [
                -0.44722840969634925,
                -1.819617936946188,
                -0.17506227818665032,
                0.040841060578091115,
                0.5124449431481134,
                -1.9730079614437213
            ]
        },
        {
            "positions": [
                -0.29294643279671817,
                -1.8803096900323313,
                -0.2428656628907736,
                0.06301081851076296,
                0.5223935377524409,
                -1.9032279460019788
            ]
        },
        {
            "positions": [
                -0.1386644558970876,
                -1.9410014431184743,
                -0.31066904759489716,
                0.08518057644343484,
                0.5323421323567684,
                -1.833447930560236
            ]
        },
        {
            "positions": [
                -0.04497403948875081,
                -1.949604836171456,
                -0.21576281425588373,
                0.03003497923507594,
                0.5463337950290628,
                -1.704604452876355
            ]
        },
        {
            "positions": [
                0.04871637691958597,
                -1.9582082292244374,
                -0.12085658091687027,
                -0.025110617973282956,
                0.5603254577013572,
                -1.5757609751924744
            ]
        },
        {
            "positions": [
                0.14240679332792272,
                -1.966811622277419,
                -0.025950347577856803,
                -0.08025621518164185,
                0.5743171203736516,
                -1.4469174975085934
            ]
        },
        {
            "positions": [
                0.23609720973625953,
                -1.9754150153304006,
                0.06895588576115663,
                -0.13540181239000076,
                0.588308783045946,
                -1.3180740198247127
            ]
        },
        {
            "positions": [
                0.32978762614459634,
                -1.9840184083833823,
                0.16386211910017012,
                -0.19054740959835964,
                0.6023004457182404,
                -1.1892305421408316
            ]
        },
        {
            "positions": [
                0.42347804255293303,
                -1.9926218014363637,
                0.25876835243918356,
                -0.24569300680671852,
                0.6162921083905348,
                -1.0603870644569509
            ]
        },
        {
            "positions": [
                0.51716845896127,
                -2.0012251944893453,
                0.35367458577819705,
                -0.30083860401507745,
                0.6302837710628292,
                -0.9315435867730699
            ]
        },
        {
            "positions": [
                0.6108588753696067,
                -2.009828587542327,
                0.4485808191172104,
                -0.3559842012234363,
                0.6442754337351236,
                -0.8027001090891892
            ]
        },
        {
            "positions": [
                0.7045492917779435,
                -2.0184319805953086,
                0.5434870524562241,
                -0.4111297984317953,
                0.658267096407418,
                -0.673856631405308
            ]
        },
        {
            "positions": [
                0.7982397081862802,
                -2.0270353736482902,
                0.6383932857952375,
                -0.46627539564015413,
                0.6722587590797124,
                -0.5450131537214273
            ]
        },
        {
            "positions": [
                0.891930124594617,
                -2.0356387667012714,
                0.7332995191342508,
                -0.5214209928485131,
                0.6862504217520068,
                -0.4161696760375464
            ]
        },
        {
            "positions": [
                0.9856205410029537,
                -2.044242159754253,
                0.8282057524732642,
                -0.5765665900568719,
                0.7002420844243011,
                -0.2873261983536657
            ]
        },
        {
            "positions": [
                1.0793109574112907,
                -2.0528455528072347,
                0.9231119858122778,
                -0.6317121872652309,
                0.7142337470965956,
                -0.15848272066978453
            ]
        },
        {
            "positions": [
                1.1730013738196274,
                -2.0614489458602163,
                1.0180182191512912,
                -0.6868577844735898,
                0.72822540976889,
                -0.029639242985903813
            ]
        },
        {
            "positions": [
                1.2666917902279642,
                -2.070052338913198,
                1.1129244524903046,
                -0.7420033816819487,
                0.7422170724411844,
                0.0992042346979769
            ]
        },
        {
            "positions": [
                1.360382206636301,
                -2.0786557319661796,
                1.207830685829318,
                -0.7971489788903076,
                0.7562087351134787,
                0.22804771238185761
            ]
        },
        {
            "positions": [
                1.4540726230446377,
                -2.087259125019161,
                1.3027369191683316,
                -0.8522945760986664,
                0.7702003977857732,
                0.3568911900657388
            ]
        },
        {
            "positions": [
                1.5477630394529747,
                -2.0958625180721424,
                1.3976431525073452,
                -0.9074401733070255,
                0.7841920604580677,
                0.48573466774961993
            ]
        },
        {
            "positions": [
                1.6414534558613114,
                -2.104465911125124,
                1.4925493858463585,
                -0.9625857705153844,
                0.798183723130362,
                0.6145781454335006
            ]
        },
        {
            "positions": [
                1.7351438722696482,
                -2.1130693041781057,
                1.587455619185372,
                -1.0177313677237432,
                0.8121753858026564,
                0.7434216231173814
            ]
        },
        {
            "positions": [
                1.828834288677985,
                -2.1216726972310873,
                1.6823618525243855,
                -1.0728769649321022,
                0.8261670484749508,
                0.8722651008012625
            ]
        },
        {
            "positions": [
                1.9225247050863215,
                -2.130276090284069,
                1.777268085863399,
                -1.128022562140461,
                0.8401587111472452,
                1.0011085784851432
            ]
        },
        {
            "positions": [
                2.016215121494658,
                -2.1388794833370506,
                1.8721743192024123,
                -1.18316815934882,
                0.8541503738195395,
                1.129952056169024
            ]
        },
        {
            "positions": [
                2.109905537902995,
                -2.147482876390032,
                1.9670805525414257,
                -1.2383137565571787,
                0.868142036491834,
                1.2587955338529047
            ]
        },
        {
            "positions": [
                2.203595954311332,
                -2.1560862694430134,
                2.0619867858804395,
                -1.293459353765538,
                0.8821336991641284,
                1.3876390115367858
            ]
        },
        {
            "positions": [
                2.297286370719669,
                -2.164689662495995,
                2.156893019219453,
                -1.3486049509738967,
                0.8961253618364228,
                1.516482489220667
            ]
        },
        {
            "positions": [
                2.3909767871280057,
                -2.1732930555489767,
                2.2517992525584662,
                -1.4037505481822556,
                0.9101170245087171,
                1.6453259669045477
            ]
        },
        {
            "positions": [
                2.4846672035363424,
                -2.1818964486019583,
                2.3467054858974796,
                -1.4588961453906144,
                0.9241086871810116,
                1.7741694445884284
            ]
        },
        {
            "positions": [
                2.4038141606234524,
                -2.184921396817907,
                2.20365179429649,
                -1.368259302289456,
                0.9015063578952274,
                1.7196859268014035
            ]
        },
        {
            "positions": [
                2.322961117710562,
                -2.1879463450338554,
                2.060598102695501,
                -1.2776224591882979,
                0.878904028609443,
                1.6652024090143789
            ]
        },
        {
            "positions": [
                2.242108074797672,
                -2.190971293249804,
                1.9175444110945117,
                -1.1869856160871395,
                0.8563016993236588,
                1.610718891227354
            ]
        },
        {
            "positions": [
                2.161255031884782,
                -2.1939962414657526,
                1.7744907194935224,
                -1.0963487729859813,
                0.8336993700378746,
                1.5562353734403294
            ]
        },
        {
            "positions": [
                2.080401988971892,
                -2.1970211896817013,
                1.6314370278925332,
                -1.005711929884823,
                0.8110970407520904,
                1.5017518556533045
            ]
        },
        {
            "positions": [
                1.999548946059002,
                -2.20004613789765,
                1.4883833362915437,
                -0.9150750867836647,
                0.7884947114663061,
                1.4472683378662796
            ]
        },
        {
            "positions": [
                1.9186959031461117,
                -2.2030710861135985,
                1.3453296446905545,
                -0.8244382436825064,
                0.7658923821805219,
                1.392784820079255
            ]
        },
        {
            "positions": [
                1.8378428602332217,
                -2.2060960343295473,
                1.2022759530895653,
                -0.7338014005813481,
                0.7432900528947377,
                1.33830130229223
            ]
        },
        {
            "positions": [
                1.7569898173203318,
                -2.2091209825454956,
                1.0592222614885762,
                -0.64316455748019,
                0.7206877236089535,
                1.2838177845052055
            ]
        },
        {
            "positions": [
                1.6761367744074414,
                -2.2121459307614444,
                0.9161685698875868,
                -0.5525277143790316,
                0.6980853943231692,
                1.2293342667181806
            ]
        },
        {
            "positions": [
                1.5952837314945514,
                -2.215170878977393,
                0.7731148782865975,
                -0.4618908712778733,
                0.675483065037385,
                1.174850748931156
            ]
        },
        {
            "positions": [
                1.5144306885816614,
                -2.2181958271933415,
                0.6300611866856081,
                -0.37125402817671493,
                0.6528807357516007,
                1.1203672311441308
            ]
        },
        {
            "positions": [
                1.4335776456687712,
                -2.2212207754092903,
                0.48700749508461905,
                -0.2806171850755568,
                0.6302784064658165,
                1.0658837133571062
            ]
        },
        {
            "positions": [
                1.352724602755881,
                -2.2242457236252386,
                0.34395380348362936,
                -0.1899803419743984,
                0.6076760771800322,
                1.0114001955700815
            ]
        },
        {
            "positions": [
                1.271871559842991,
                -2.2272706718411874,
                0.20090011188264034,
                -0.09934349887324023,
                0.585073747894248,
                0.9569166777830567
            ]
        },
        {
            "positions": [
                1.1910185169301009,
                -2.230295620057136,
                0.05784642028165088,
                -0.00870665577208185,
                0.5624714186084638,
                0.9024331599960318
            ]
        },
        {
            "positions": [
                1.1101654740172109,
                -2.2333205682730846,
                -0.08520727131933814,
                0.08193018732907631,
                0.5398690893226796,
                0.8479496422090071
            ]
        },
        {
            "positions": [
                1.029312431104321,
                -2.2363455164890333,
                -0.22826096292032716,
                0.17256703043023447,
                0.5172667600368954,
                0.7934661244219824
            ]
        },
        {
            "positions": [
                0.9484593881914305,
                -2.239370464704982,
                -0.37131465452131707,
                0.2632038735313931,
                0.49466443075111105,
                0.7389826066349574
            ]
        },
        {
            "positions": [
                0.8676063452785405,
                -2.2423954129209305,
                -0.5143683461223061,
                0.35384071663255123,
                0.47206210146532684,
                0.6844990888479328
            ]
        },
        {
            "positions": [
                0.7867533023656506,
                -2.2454203611368793,
                -0.6574220377232955,
                0.4444775597337094,
                0.44945977217954264,
                0.6300155710609079
            ]
        },
        {
            "positions": [
                0.7059002594527604,
                -2.2484453093528276,
                -0.8004757293242846,
                0.5351144028348678,
                0.4268574428937584,
                0.5755320532738832
            ]
        },
        {
            "positions": [
                0.6250472165398702,
                -2.2514702575687764,
                -0.943529420925274,
                0.6257512459360264,
                0.40425511360797406,
                0.5210485354868584
            ]
        },
        {
            "positions": [
                0.5441941736269802,
                -2.254495205784725,
                -1.0865831125262635,
                0.7163880890371845,
                0.38165278432218985,
                0.4665650176998335
            ]
        },
        {
            "positions": [
                0.46334113071409,
                -2.2575201540006735,
                -1.2296368041272525,
                0.8070249321383427,
                0.35905045503640565,
                0.41208149991280885
            ]
        },
        {
            "positions": [
                0.3824880878012,
                -2.2605451022166223,
                -1.3726904957282415,
                0.8976617752395009,
                0.33644812575062144,
                0.3575979821257842
            ]
        },
        {
            "positions": [
                0.3016350448883096,
                -2.2635700504325706,
                -1.5157441873292314,
                0.9882986183406595,
                0.3138457964648371,
                0.3031144643387591
            ]
        },
        {
            "positions": [
                0.22078200197541964,
                -2.2665949986485194,
                -1.658797878930221,
                1.0789354614418176,
                0.2912434671790529,
                0.24863094655173446
            ]
        },
        {
            "positions": [
                0.13992895906252967,
                -2.269619946864468,
                -1.80185157053121,
                1.1695723045429758,
                0.2686411378932687,
                0.19414742876470958
            ]
        },
        {
            "positions": [
                0.059075916149639696,
                -2.2726448950804166,
                -1.944905262132199,
                1.260209147644134,
                0.2460388086074845,
                0.13966391097768494
            ]
        },
        {
            "positions": [
                -0.02177712676325072,
                -2.2756698432963653,
                -2.087958953733189,
                1.3508459907452925,
                0.2234364793217002,
                0.08518039319066006
            ]
        },
        {
            "positions": [
                -0.10263016967614069,
                -2.2786947915123137,
                -2.231012645334178,
                1.4414828338464507,
                0.20083415003591598,
                0.030696875403635193
            ]
        },
        {
            "positions": [
                -0.18348321258903072,
                -2.2817197397282625,
                -2.374066336935167,
                1.5321196769476086,
                0.1782318207501318,
                -0.023786642383389425
            ]
        }
    ]
}