{
    "goal": {
        "global_pose": {
            "orientation": {
                "w": 0.7047431468963623,
                "x": -0.7094548344612122,
                "y": 0.0024358443915843964,
                "z": -0.0022348060738295317
            },
            "position": {
                "x": 0.6094750761985779,
                "y": 0.3671506643295288,
                "z": 0.19426114857196808
            }
        },
        "name": "move_to_magneteinheit_A"
    },
    "id": "BFMT_move_to_magneteinheit_A_74",
    "joint_names": [
        "shoulder_pan_joint",
        "shoulder_lift_joint",
        "elbow_joint",
        "wrist_1_joint",
        "wrist_2_joint",
        "wrist_3_joint"
    ],
    "metrics": {
        "cart_traj_len": 3.963155901904674,
        "distance_elbow_joint": 3.9060501243393793,
        "distance_shoulder_lift_joint": 0.46931164979856566,
        "distance_shoulder_pan_joint": 4.293356209907063,
        "distance_wrist_1_joint": 3.4546577058478256,
        "distance_wrist_2_joint": 1.441669721489759,
        "distance_wrist_3_joint": 0.5998546453332061,
        "smoothness": 0.28496842987153864,
        "time": 1.0204907589999999,
        "traj_len": 3.7636285758182617,
        "weighted_distance": 4.501215033157137
    },
    "planner": "BFMT",
    "start": {
        "state": {
            "elbow_joint": -1.9196185241190666,
            "shoulder_lift_joint": -1.2443396400964142,
            "shoulder_pan_joint": 2.6996025414629847,
            "wrist_1_joint": -1.5485510000780065,
            "wrist_2_joint": -1.5709468930060704,
            "wrist_3_joint": 0.4420197071253992
        }
    },
    "waypoints": [
        {
            "positions": [
                2.6996025414629847,
                -1.2443396400964142,
                -1.9196185241190666,
                -1.5485510000780065,
                -1.5709468930060704,
                0.4420197071253992
            ]
        },
        {
            "positions": [
                2.5811643484687106,
                -1.2337030418308506,
                -1.7935156333845166,
                -1.4558834223814523,
                -1.5453074174931474,
                0.424434698785773
            ]
        },
        {
            "positions": [
                2.462726155474436,
                -1.2230664435652872,
                -1.6674127426499668,
                -1.3632158446848979,
                -1.5196679419802241,
                0.40684969044614683
            ]
        },
        {
            "positions": [
                2.344287962480162,
                -1.2124298452997235,
                -1.5413098519154167,
                -1.2705482669883437,
                -1.4940284664673011,
                0.38926468210652065
            ]
        },
        {
            "positions": [
                2.2258497694858876,
                -1.2017932470341601,
                -1.4152069611808669,
                -1.1778806892917895,
                -1.468388990954378,
                0.3716796737668945
            ]
        },
        {
            "positions": [
                2.107411576491613,
                -1.1911566487685965,
                -1.2891040704463168,
                -1.0852131115952353,
                -1.442749515441455,
                0.3540946654272683
            ]
        },
        {
            "positions": [
                1.9889733834973389,
                -1.180520050503033,
                -1.1630011797117668,
                -0.9925455338986809,
                -1.4171100399285317,
                0.3365096570876422
            ]
        },
        {
            "positions": [
                1.8705351905030645,
                -1.1698834522374695,
                -1.0368982889772167,
                -0.8998779562021266,
                -1.3914705644156087,
                0.318924648748016
            ]
        },
        {
            "positions": [
                1.75209699750879,
                -1.159246853971906,
                -0.9107953982426669,
                -0.8072103785055724,
                -1.3658310889026857,
                0.30133964040838984
            ]
        },
        {
            "positions": [
                1.633658804514516,
                -1.1486102557063425,
                -0.7846925075081168,
                -0.7145428008090181,
                -1.3401916133897624,
                0.28375463206876367
            ]
        },
        {
            "positions": [
                1.5152206115202416,
                -1.137973657440779,
                -0.6585896167735668,
                -0.6218752231124638,
                -1.3145521378768394,
                0.2661696237291375
            ]
        },
        {
            "positions": [
                1.3967824185259674,
                -1.1273370591752154,
                -0.5324867260390169,
                -0.5292076454159096,
                -1.2889126623639164,
                0.24858461538951135
            ]
        },
        {
            "positions": [
                1.278344225531693,
                -1.116700460909652,
                -0.40638383530446687,
                -0.4365400677193554,
                -1.2632731868509932,
                0.23099960704988518
            ]
        },
        {
            "positions": [
                1.1599060325374186,
                -1.1060638626440884,
                -0.2802809445699168,
                -0.34387249002280096,
                -1.23763371133807,
                0.213414598710259
            ]
        },
        {
            "positions": [
                1.0414678395431443,
                -1.095427264378525,
                -0.15417805383536676,
                -0.25120491232624675,
                -1.211994235825147,
                0.19582959037063283
            ]
        },
        {
            "positions": [
                0.9230296465488699,
                -1.0847906661129614,
                -0.028075163100816924,
                -0.15853733462969233,
                -1.186354760312224,
                0.17824458203100668
            ]
        },
        {
            "positions": [
                0.8045914535545957,
                -1.074154067847398,
                0.09802772763373291,
                -0.06586975693313835,
                -1.1607152847993008,
                0.1606595736913805
            ]
        },
        {
            "positions": [
                0.6861532605603218,
                -1.0635174695818344,
                0.22413061836828296,
                0.02679782076341586,
                -1.1350758092863777,
                0.1430745653517544
            ]
        },
        {
            "positions": [
                0.5677150675660472,
                -1.052880871316271,
                0.350233509102833,
                0.11946539845997028,
                -1.1094363337734547,
                0.12548955701212816
            ]
        },
        {
            "positions": [
                0.449276874571773,
                -1.0422442730507073,
                0.4763363998373831,
                0.2121329761565245,
                -1.0837968582605315,
                0.10790454867250204
            ]
        },
        {
            "positions": [
                0.3308386815774984,
                -1.031607674785144,
                0.6024392905719331,
                0.3048005538530789,
                -1.0581573827476083,
                0.09031954033287581
            ]
        },
        {
            "positions": [
                0.21240048858322425,
                -1.0209710765195803,
                0.7285421813064827,
                0.3974681315496331,
                -1.0325179072346855,
                0.0727345319932497
            ]
        },
        {
            "positions": [
                0.09396229558895008,
                -1.010334478254017,
                0.8546450720410328,
                0.4901357092461873,
                -1.0068784317217623,
                0.05514952365362352
            ]
        },
        {
            "positions": [
                -0.02447589740532452,
                -0.9996978799884533,
                0.9807479627755828,
                0.5828032869427415,
                -0.9812389562088392,
                0.03756451531399735
            ]
        },
        {
            "positions": [
                -0.14291409039959868,
                -0.9890612817228898,
                1.106850853510133,
                0.6754708646392957,
                -0.955599480695916,
                0.019979506974371175
            ]
        },
        {
            "positions": [
                -0.26135228339387284,
                -0.9784246834573262,
                1.2329537442446825,
                0.7681384423358499,
                -0.929960005182993,
                0.002394498634745057
            ]
        },
        {
            "positions": [
                -0.37979047638814745,
                -0.9677880851917627,
                1.359056634979233,
                0.8608060200324046,
                -0.9043205296700698,
                -0.015190509704881172
            ]
        },
        {
            "positions": [
                -0.4982286693824216,
                -0.9571514869261992,
                1.4851595257137826,
                0.9534735977289588,
                -0.8786810541571468,
                -0.03277551804450729
            ]
        },
        {
            "positions": [
                -0.6166668623766962,
                -0.9465148886606357,
                1.6112624164483331,
                1.046141175425513,
                -0.8530415786442237,
                -0.05036052638413352
            ]
        },
        {
            "positions": [
                -0.7351050553709704,
                -0.9358782903950722,
                1.7373653071828827,
                1.138808753122067,
                -0.8274021031313006,
                -0.06794553472375964
            ]
        },
        {
            "positions": [
                -0.6277739787368319,
                -0.9157720028829193,
                1.7684985938125615,
                1.234720997203036,
                -0.7401364866794269,
                -0.056709359288253755
            ]
        },
        {
            "positions": [
                -0.5204429021026936,
                -0.8956657153707663,
                1.7996318804422402,
                1.330633241284005,
                -0.6528708702275533,
                -0.04547318385274788
            ]
        },
        {
            "positions": [
                -0.4131118254685552,
                -0.8755594278586133,
                1.830765167071919,
                1.426545485364974,
                -0.5656052537756797,
                -0.034237008417242004
            ]
        },
        {
            "positions": [
                -0.3057807488344168,
                -0.8554531403464604,
                1.8618984537015977,
                1.522457729445943,
                -0.478339637323806,
                -0.023000832981736122
            ]
        },
        {
            "positions": [
                -0.19844967220027843,
                -0.8353468528343074,
                1.8930317403312766,
                1.618369973526912,
                -0.3910740208719324,
                -0.01176465754623024
            ]
        },
        {
            "positions": [
                -0.09111859556613999,
                -0.8152405653221544,
                1.9241650269609554,
                1.7142822176078811,
                -0.30380840442005874,
                -0.0005284821107243709
            ]
        },
        {
            "positions": [
                0.01621248106799833,
                -0.7951342778100015,
                1.955298313590634,
                1.8101944616888501,
                -0.21654278796818516,
                0.010707693324781511
            ]
        },
        {
            "positions": [
                0.12354355770213674,
                -0.7750279902978485,
                1.9864316002203128,
                1.906106705769819,
                -0.1292771715163115,
                0.0219438687602874
            ]
        }
    ]
}