{
    "goal": {
        "global_pose": {
            "orientation": {
                "w": 0.5084816217422485,
                "x": -0.49083608388900757,
                "y": 0.5182115435600281,
                "z": -0.4816462993621826
            },
            "position": {
                "x": 0.5540239810943604,
                "y": 0.030875300988554955,
                "z": 0.16403168439865112
            }
        },
        "name": "move_to_storage_A"
    },
    "id": "BFMT_move_to_storage_A_142",
    "joint_names": [
        "shoulder_pan_joint",
        "shoulder_lift_joint",
        "elbow_joint",
        "wrist_1_joint",
        "wrist_2_joint",
        "wrist_3_joint"
    ],
    "metrics": {
        "cart_traj_len": 0.3540088875734654,
        "distance_elbow_joint": 0.4503676611999581,
        "distance_shoulder_lift_joint": 0.23375897007819169,
        "distance_shoulder_pan_joint": 0.4627073734628862,
        "distance_wrist_1_joint": 0.24382174262712375,
        "distance_wrist_2_joint": 1.1013603206239524,
        "distance_wrist_3_joint": 0.08804406026516975,
        "smoothness": 1.332267631163888e-15,
        "time": 0.484681937,
        "traj_len": 1.606256557420788,
        "weighted_distance": 2.0251741436327637
    },
    "planner": "BFMT",
    "start": {
        "state": {
            "elbow_joint": 1.971548259319323,
            "shoulder_lift_joint": -1.1394851275133948,
            "shoulder_pan_joint": 0.1228115487234821,
            "wrist_1_joint": -0.7804723859257726,
            "wrist_2_joint": 0.12958671773740124,
            "wrist_3_joint": -3.192489227718131
        }
    },
    "waypoints": [
        {
            "positions": [
                0.1228115487234821,
                -1.1394851275133948,
                1.971548259319323,
                -0.7804723859257726,
                0.12958671773740124,
                -3.192489227718131
            ]
        },
        {
            "positions": [
                0.05671049537164122,
                -1.1728792660959937,
                2.0358864966336028,
                -0.8153040634439331,
                0.28692390639796583,
                -3.179911504823107
            ]
        },
        {
            "positions": [
                -0.009390557980199665,
                -1.2062734046785923,
                2.1002247339478823,
                -0.8501357409620937,
                0.4442610950585305,
                -3.1673337819280825
            ]
        },
        {
            "positions": [
                -0.07549161133204055,
                -1.2396675432611912,
                2.1645629712621623,
                -0.8849674184802542,
                0.6015982837190951,
                -3.1547560590330583
            ]
        },
        {
            "positions": [
                -0.14159266468388143,
                -1.27306168184379,
                2.228901208576442,
                -0.9197990959984148,
                0.7589354723796597,
                -3.142178336138034
            ]
        },
        {
            "positions": [
                -0.20769371803572234,
                -1.306455820426389,
                2.2932394458907215,
                -0.9546307735165753,
                0.9162726610402244,
                -3.12960061324301
            ]
        },
        {
            "positions": [
                -0.2737947713875632,
                -1.3398499590089876,
                2.3575776832050015,
                -0.9894624510347358,
                1.0736098497007889,
                -3.1170228903479855
            ]
        },
        {
            "positions": [
                -0.3398958247394041,
                -1.3732440975915865,
                2.421915920519281,
                -1.0242941285528964,
                1.2309470383613537,
                -3.1044451674529614
            ]
        }
    ]
}{
    "goal": {
        "global_pose": {
            "orientation": {
                "w": 0.5084816217422485,
                "x": -0.49083608388900757,
                "y": 0.5182115435600281,
                "z": -0.4816462993621826
            },
            "position": {
                "x": 0.5540239810943604,
                "y": 0.030875300988554955,
                "z": 0.16403168439865112
            }
        },
        "name": "move_to_storage_A"
    },
    "id": "BFMT_move_to_storage_A_142",
    "joint_names": [
        "shoulder_pan_joint",
        "shoulder_lift_joint",
        "elbow_joint",
        "wrist_1_joint",
        "wrist_2_joint",
        "wrist_3_joint"
    ],
    "metrics": {
        "cart_traj_len": 0.35326078920550985,
        "distance_elbow_joint": 0.452299629033984,
        "distance_shoulder_lift_joint": 0.2319302062755455,
        "distance_shoulder_pan_joint": 0.461378784018072,
        "distance_wrist_1_joint": 0.2565990265901861,
        "distance_wrist_2_joint": 1.1005704576911641,
        "distance_wrist_3_joint": 0.10140358635235858,
        "smoothness": 4.440892098500626e-16,
        "time": 0.5170915340000001,
        "traj_len": 1.6137477157106406,
        "weighted_distance": 2.0406269494808154
    },
    "planner": "BFMT",
    "start": {
        "state": {
            "elbow_joint": 1.97154746011099,
            "shoulder_lift_joint": -1.13948474672311,
            "shoulder_pan_joint": 0.12281154466712228,
            "wrist_1_joint": -0.7804688027058302,
            "wrist_2_joint": 0.12958655903071145,
            "wrist_3_joint": 3.0906928834467795
        }
    },
    "waypoints": [
        {
            "positions": [
                0.12281154466712228,
                -1.13948474672311,
                1.97154746011099,
                -0.7804688027058302,
                0.12958655903071145,
                3.0906928834467795
            ]
        },
        {
            "positions": [
                0.056900289807397725,
                -1.1726176333339022,
                2.0361616928301305,
                -0.8171258065044282,
                0.28681091012944915,
                3.105179110068545
            ]
        },
        {
            "positions": [
                -0.009010965052326833,
                -1.2057505199446943,
                2.100775925549271,
                -0.8537828103030262,
                0.44403526122818693,
                3.1196653366903107
            ]
        },
        {
            "positions": [
                -0.0749222199120514,
                -1.2388834065554866,
                2.1653901582684116,
                -0.8904398141016242,
                0.6012596123269246,
                3.1341515633120762
            ]
        },
        {
            "positions": [
                -0.14083347477177593,
                -1.2720162931662788,
                2.230004390987552,
                -0.9270968179002222,
                0.7584839634256624,
                3.1486377899338414
            ]
        },
        {
            "positions": [
                -0.20674472963150053,
                -1.3051491797770711,
                2.294618623706693,
                -0.9637538216988202,
                0.9157083145244002,
                3.163124016555607
            ]
        },
        {
            "positions": [
                -0.2726559844912251,
                -1.3382820663878632,
                2.3592328564258334,
                -1.0004108254974182,
                1.0729326656231377,
                3.1776102431773725
            ]
        },
        {
            "positions": [
                -0.3385672393509497,
                -1.3714149529986555,
                2.423847089144974,
                -1.0370678292960163,
                1.2301570167218756,
                3.192096469799138
            ]
        }
    ]
}{
    "goal": {
        "global_pose": {
            "orientation": {
                "w": 0.5084816217422485,
                "x": -0.49083608388900757,
                "y": 0.5182115435600281,
                "z": -0.4816462993621826
            },
            "position": {
                "x": 0.5540239810943604,
                "y": 0.030875300988554955,
                "z": 0.16403168439865112
            }
        },
        "name": "move_to_storage_A"
    },
    "id": "BFMT_move_to_storage_A_142",
    "joint_names": [
        "shoulder_pan_joint",
        "shoulder_lift_joint",
        "elbow_joint",
        "wrist_1_joint",
        "wrist_2_joint",
        "wrist_3_joint"
    ],
    "metrics": {
        "cart_traj_len": 0.3527804024314595,
        "distance_elbow_joint": 0.44898602098465323,
        "distance_shoulder_lift_joint": 0.23493507114138956,
        "distance_shoulder_pan_joint": 0.4572138182033921,
        "distance_wrist_1_joint": 0.2401407402418636,
        "distance_wrist_2_joint": 1.1158778699897294,
        "distance_wrist_3_joint": 0.1042491582193934,
        "smoothness": 4.440892098500626e-16,
        "time": 0.50131195,
        "traj_len": 1.6128864432378436,
        "weighted_distance": 2.041058452237662
    },
    "planner": "BFMT",
    "start": {
        "state": {
            "elbow_joint": 1.9715472970024885,
            "shoulder_lift_joint": -1.1394870060712896,
            "shoulder_pan_joint": 0.12281152778156021,
            "wrist_1_joint": -0.780463741449964,
            "wrist_2_joint": 0.12958659822042276,
            "wrist_3_joint": 3.090690232415272
        }
    },
    "waypoints": [
        {
            "positions": [
                0.12281152778156021,
                -1.1394870060712896,
                1.9715472970024885,
                -0.780463741449964,
                0.12958659822042276,
                3.090690232415272
            ]
        },
        {
            "positions": [
                0.0574952680382185,
                -1.1730491590914882,
                2.035688157143153,
                -0.814769561484516,
                0.2889977225046698,
                3.1055829693037564
            ]
        },
        {
            "positions": [
                -0.00782099170512321,
                -1.2066113121116866,
                2.099829017283818,
                -0.8490753815190679,
                0.4484088467889169,
                3.1204757061922415
            ]
        },
        {
            "positions": [
                -0.07313725144846492,
                -1.2401734651318852,
                2.1639698774244827,
                -0.8833812015536198,
                0.6078199710731639,
                3.135368443080726
            ]
        },
        {
            "positions": [
                -0.13845351119180663,
                -1.2737356181520836,
                2.2281107375651477,
                -0.9176870215881717,
                0.767231095357411,
                3.150261179969211
            ]
        },
        {
            "positions": [
                -0.2037697709351484,
                -1.3072977711722822,
                2.292251597705812,
                -0.9519928416227237,
                0.926642219641658,
                3.1651539168576956
            ]
        },
        {
            "positions": [
                -0.26908603067849,
                -1.3408599241924806,
                2.3563924578464768,
                -0.9862986616572756,
                1.086053343925905,
                3.1800466537461807
            ]
        },
        {
            "positions": [
                -0.33440229042183184,
                -1.3744220772126792,
                2.4205333179871418,
                -1.0206044816918276,
                1.245464468210152,
                3.1949393906346653
            ]
        }
    ]
}