{
    "goal": {
        "global_pose": {
            "orientation": {
                "w": -0.00223480608172531,
                "x": 0.0024358444001904467,
                "y": 0.7094548369677653,
                "z": -0.704743149386269
            },
            "position": {
                "x": 0.6205249238014221,
                "y": -0.6371506643295288,
                "z": 0.19426114857196808
            }
        },
        "name": "move_to_magneteinheit_B"
    },
    "id": "BFMT_move_to_magneteinheit_B_64",
    "joint_names": [
        "shoulder_pan_joint",
        "shoulder_lift_joint",
        "elbow_joint",
        "wrist_1_joint",
        "wrist_2_joint",
        "wrist_3_joint"
    ],
    "metrics": {
        "cart_traj_len": 1.453782808605532,
        "distance_elbow_joint": 0.9599223828008794,
        "distance_shoulder_lift_joint": 0.7590455361322082,
        "distance_shoulder_pan_joint": 1.6208374730746917,
        "distance_wrist_1_joint": 1.0452575872248184,
        "distance_wrist_2_joint": 1.5288843165783723,
        "distance_wrist_3_joint": 0.23602396511103876,
        "smoothness": 0.3445977013124815,
        "time": 0.9139013279999999,
        "traj_len": 2.4799135591633044,
        "weighted_distance": 3.0325172868340387
    },
    "planner": "BFMT",
    "start": {
        "state": {
            "elbow_joint": 2.6216224122426386,
            "shoulder_lift_joint": -1.4174107377796124,
            "shoulder_pan_joint": 0.7066234856936794,
            "wrist_1_joint": 1.9546482284002225,
            "wrist_2_joint": -0.7096286983471962,
            "wrist_3_joint": 0.005740856962016249
        }
    },
    "waypoints": [
        {
            "positions": [
                0.7066234856936794,
                -1.4174107377796124,
                2.6216224122426386,
                1.9546482284002225,
                -0.7096286983471962,
                0.005740856962016249
            ]
        },
        {
            "positions": [
                0.5632759620359424,
                -1.3902483838970527,
                2.5575183280978244,
                1.8682790418439248,
                -0.7282508372826083,
                0.02816992621720049
            ]
        },
        {
            "positions": [
                0.4199284383782054,
                -1.3630860300144931,
                2.49341424395301,
                1.7819098552876271,
                -0.7468729762180204,
                0.050598995472384736
            ]
        },
        {
            "positions": [
                0.2765809147204685,
                -1.3359236761319337,
                2.4293101598081956,
                1.6955406687313295,
                -0.7654951151534326,
                0.07302806472756898
            ]
        },
        {
            "positions": [
                0.13323339106273147,
                -1.3087613222493741,
                2.365206075663381,
                1.6091714821750318,
                -0.7841172540888447,
                0.09545713398275323
            ]
        },
        {
            "positions": [
                -0.010114132595005484,
                -1.2815989683668145,
                2.301101991518567,
                1.5228022956187341,
                -0.8027393930242568,
                0.11788620323793747
            ]
        },
        {
            "positions": [
                -0.09230502848464253,
                -1.2249413532105045,
                2.242974540420675,
                1.5785669914772187,
                -0.9332642677425579,
                0.10662451061656315
            ]
        },
        {
            "positions": [
                -0.17449592437427958,
                -1.1682837380541944,
                2.184847089322784,
                1.6343316873357032,
                -1.063789142460859,
                0.09536281799518884
            ]
        },
        {
            "positions": [
                -0.2566868202639166,
                -1.1116261228978845,
                2.126719638224892,
                1.6900963831941878,
                -1.19431401717916,
                0.08410112537381452
            ]
        },
        {
            "positions": [
                -0.33887771615355367,
                -1.0549685077415745,
                2.0685921871270003,
                1.7458610790526723,
                -1.324838891897461,
                0.0728394327524402
            ]
        },
        {
            "positions": [
                -0.4210686120431907,
                -0.9983108925852644,
                2.010464736029109,
                1.801625774911157,
                -1.4553637666157622,
                0.06157774013106588
            ]
        },
        {
            "positions": [
                -0.5032595079328277,
                -0.9416532774289543,
                1.9523372849312173,
                1.8573904707696416,
                -1.5858886413340632,
                0.05031604750969157
            ]
        },
        {
            "positions": [
                -0.5854504038224647,
                -0.8849956622726443,
                1.8942098338333255,
                1.9131551666281261,
                -1.7164135160523641,
                0.03905435488831724
            ]
        },
        {
            "positions": [
                -0.6676412997121018,
                -0.8283380471163343,
                1.836082382735434,
                1.9689198624866107,
                -1.8469383907706654,
                0.027792662266942922
            ]
        },
        {
            "positions": [
                -0.7498321956017389,
                -0.7716804319600242,
                1.7779549316375425,
                2.024684558345095,
                -1.9774632654889666,
                0.016530969645568605
            ]
        },
        {
            "positions": [
                -0.8320230914913759,
                -0.7150228168037143,
                1.7198274805396507,
                2.0804492542035797,
                -2.1079881402072673,
                0.005269277024194288
            ]
        },
        {
            "positions": [
                -0.9142139873810129,
                -0.6583652016474042,
                1.6617000294417592,
                2.1362139500620643,
                -2.2385130149255685,
                -0.005992415597180024
            ]
        }
    ]
}