{
    "goal": {
        "global_pose": {
            "orientation": {
                "w": -0.00223480608172531,
                "x": 0.0024358444001904467,
                "y": 0.7094548369677653,
                "z": -0.704743149386269
            },
            "position": {
                "x": 0.6205249238014221,
                "y": -0.6371506643295288,
                "z": 0.19426114857196808
            }
        },
        "name": "move_to_magneteinheit_B"
    },
    "id": "BFMT_move_to_magneteinheit_B_65",
    "joint_names": [
        "shoulder_pan_joint",
        "shoulder_lift_joint",
        "elbow_joint",
        "wrist_1_joint",
        "wrist_2_joint",
        "wrist_3_joint"
    ],
    "metrics": {
        "cart_traj_len": 4.61626741478857,
        "distance_elbow_joint": 5.575031456531517,
        "distance_shoulder_lift_joint": 1.0170907369252014,
        "distance_shoulder_pan_joint": 3.0899489459400264,
        "distance_wrist_1_joint": 5.061506412784271,
        "distance_wrist_2_joint": 0.7391240899179283,
        "distance_wrist_3_joint": 3.131022091240006,
        "smoothness": 0.33171710735554744,
        "time": 1.3839283329999998,
        "traj_len": 4.314362494429385,
        "weighted_distance": 5.538627846183669
    },
    "planner": "BFMT",
    "start": {
        "state": {
            "elbow_joint": 2.6216224122426386,
            "shoulder_lift_joint": -1.4174107377796124,
            "shoulder_pan_joint": 0.7066234856936794,
            "wrist_1_joint": 1.9546482284002225,
            "wrist_2_joint": -0.7096286983471962,
            "wrist_3_joint": 0.005740856962016249
        }
    },
    "waypoints": [
        {
            "positions": [
                0.7066234856936794,
                -1.4174107377796124,
                2.6216224122426386,
                1.9546482284002225,
                -0.7096286983471962,
                0.005740856962016249
            ]
        },
        {
            "positions": [
                0.6710978059460452,
                -1.432240492965792,
                2.574757014790901,
                1.713189338104107,
                -0.7168609750051438,
                -0.03890784267553984
            ]
        },
        {
            "positions": [
                0.6355721261984109,
                -1.4470702481519715,
                2.5278916173391637,
                1.4717304478079916,
                -0.7240932516630914,
                -0.08355654231309592
            ]
        },
        {
            "positions": [
                0.6000464464507766,
                -1.461900003338151,
                2.4810262198874264,
                1.2302715575118763,
                -0.7313255283210388,
                -0.128205241950652
            ]
        },
        {
            "positions": [
                0.5645207667031424,
                -1.4767297585243306,
                2.4341608224356888,
                0.9888126672157608,
                -0.7385578049789864,
                -0.17285394158820808
            ]
        },
        {
            "positions": [
                0.5289950869555082,
                -1.4915595137105102,
                2.387295424983951,
                0.7473537769196454,
                -0.7457900816369339,
                -0.21750264122576415
            ]
        },
        {
            "positions": [
                0.4934694072078739,
                -1.5063892688966898,
                2.340430027532214,
                0.50589488662353,
                -0.7530223582948815,
                -0.26215134086332026
            ]
        },
        {
            "positions": [
                0.4579437274602397,
                -1.5212190240828694,
                2.2935646300804766,
                0.26443599632741455,
                -0.7602546349528291,
                -0.30680004050087634
            ]
        },
        {
            "positions": [
                0.42241804771260544,
                -1.536048779269049,
                2.246699232628739,
                0.0229771060312991,
                -0.7674869116107765,
                -0.3514487401384324
            ]
        },
        {
            "positions": [
                0.3868923679649712,
                -1.5508785344552285,
                2.1998338351770013,
                -0.21848178426481635,
                -0.7747191882687241,
                -0.3960974397759885
            ]
        },
        {
            "positions": [
                0.35136668821733696,
                -1.5657082896414083,
                2.152968437725264,
                -0.4599406745609316,
                -0.7819514649266717,
                -0.44074613941354457
            ]
        },
        {
            "positions": [
                0.3158410084697027,
                -1.5805380448275879,
                2.106103040273527,
                -0.7013995648570472,
                -0.7891837415846192,
                -0.48539483905110065
            ]
        },
        {
            "positions": [
                0.28031532872206844,
                -1.5953678000137674,
                2.059237642821789,
                -0.9428584551531625,
                -0.7964160182425668,
                -0.5300435386886568
            ]
        },
        {
            "positions": [
                0.24478964897443423,
                -1.610197555199947,
                2.0123722453700514,
                -1.1843173454492781,
                -0.8036482949005144,
                -0.5746922383262129
            ]
        },
        {
            "positions": [
                0.20926396922679996,
                -1.6250273103861266,
                1.9655068479183142,
                -1.4257762357453934,
                -0.8108805715584618,
                -0.619340937963769
            ]
        },
        {
            "positions": [
                0.1737382894791657,
                -1.6398570655723061,
                1.9186414504665767,
                -1.667235126041509,
                -0.8181128482164094,
                -0.663989637601325
            ]
        },
        {
            "positions": [
                0.1382126097315315,
                -1.6546868207584857,
                1.8717760530148393,
                -1.9086940163376243,
                -0.825345124874357,
                -0.7086383372388811
            ]
        },
        {
            "positions": [
                0.21154348981019966,
                -1.6510608089067256,
                1.7050882670997534,
                -1.9454972098746894,
                -0.819924549802476,
                -0.7732437488258765
            ]
        },
        {
            "positions": [
                0.28487436988886783,
                -1.6474347970549654,
                1.5384004811846672,
                -1.9823004034117546,
                -0.8145039747305949,
                -0.8378491604128719
            ]
        },
        {
            "positions": [
                0.358205249967536,
                -1.6438087852032053,
                1.3717126952695813,
                -2.0191035969488196,
                -0.8090833996587139,
                -0.9024545719998674
            ]
        },
        {
            "positions": [
                0.43153613004620417,
                -1.6401827733514454,
                1.2050249093544951,
                -2.055906790485885,
                -0.8036628245868329,
                -0.9670599835868628
            ]
        },
        {
            "positions": [
                0.5048670101248723,
                -1.6365567614996852,
                1.0383371234394092,
                -2.0927099840229504,
                -0.7982422495149518,
                -1.0316653951738584
            ]
        },
        {
            "positions": [
                0.5781978902035405,
                -1.632930749647925,
                0.8716493375243233,
                -2.1295131775600153,
                -0.7928216744430708,
                -1.0962708067608538
            ]
        },
        {
            "positions": [
                0.6515287702822087,
                -1.629304737796165,
                0.7049615516092371,
                -2.1663163710970803,
                -0.7874010993711897,
                -1.1608762183478492
            ]
        },
        {
            "positions": [
                0.7248596503608769,
                -1.6256787259444048,
                0.5382737656941512,
                -2.2031195646341457,
                -0.7819805242993088,
                -1.2254816299348446
            ]
        },
        {
            "positions": [
                0.8176967882302395,
                -1.6193790425433687,
                0.3597223500376218,
                -2.1892694175352725,
                -0.7695842404515372,
                -1.292474804362383
            ]
        },
        {
            "positions": [
                0.9105339260996022,
                -1.6130793591423325,
                0.18117093438109244,
                -2.1754192704363993,
                -0.7571879566037656,
                -1.3594679787899215
            ]
        },
        {
            "positions": [
                1.0033710639689648,
                -1.6067796757412964,
                0.002619518724563008,
                -2.1615691233375265,
                -0.744791672755994,
                -1.4264611532174603
            ]
        },
        {
            "positions": [
                1.0962082018383272,
                -1.6004799923402602,
                -0.17593189693196631,
                -2.1477189762386533,
                -0.7323953889082224,
                -1.4934543276449987
            ]
        },
        {
            "positions": [
                1.1890453397076899,
                -1.5941803089392241,
                -0.35448331258849564,
                -2.13386882913978,
                -0.7199991050604508,
                -1.5604475020725372
            ]
        },
        {
            "positions": [
                1.2818824775770525,
                -1.587880625538188,
                -0.5330347282450252,
                -2.120018682040907,
                -0.7076028212126793,
                -1.6274406765000757
            ]
        },
        {
            "positions": [
                1.3747196154464152,
                -1.5815809421371518,
                -0.7115861439015545,
                -2.106168534942034,
                -0.6952065373649077,
                -1.6944338509276142
            ]
        },
        {
            "positions": [
                1.4675567533157778,
                -1.5752812587361158,
                -0.8901375595580838,
                -2.092318387843161,
                -0.6828102535171361,
                -1.761427025355153
            ]
        },
        {
            "positions": [
                1.5603938911851403,
                -1.5689815753350795,
                -1.0686889752146131,
                -2.0784682407442876,
                -0.6704139696693645,
                -1.8284201997826912
            ]
        },
        {
            "positions": [
                1.6532310290545031,
                -1.5626818919340435,
                -1.2472403908711425,
                -2.0646180936454144,
                -0.6580176858215929,
                -1.89541337421023
            ]
        },
        {
            "positions": [
                1.7460681669238656,
                -1.5563822085330075,
                -1.4257918065276718,
                -2.0507679465465416,
                -0.6456214019738213,
                -1.9624065486377684
            ]
        },
        {
            "positions": [
                1.8389053047932284,
                -1.5500825251319712,
                -1.6043432221842016,
                -2.0369177994476684,
                -0.6332251181260498,
                -2.029399723065307
            ]
        },
        {
            "positions": [
                1.9317424426625909,
                -1.5437828417309352,
                -1.7828946378407309,
                -2.023067652348795,
                -0.6208288342782782,
                -2.0963928974928456
            ]
        },
        {
            "positions": [
                2.0245795805319533,
                -1.537483158329899,
                -1.9614460534972602,
                -2.009217505249922,
                -0.6084325504305066,
                -2.1633860719203843
            ]
        },
        {
            "positions": [
                2.117416718401316,
                -1.5311834749288629,
                -2.1399974691537897,
                -1.995367358151049,
                -0.596036266582735,
                -2.2303792463479226
            ]
        },
        {
            "positions": [
                2.1734505111442664,
                -1.625767280885791,
                -2.1939754296440195,
                -1.9555814709078243,
                -0.641584083477939,
                -2.335036876550674
            ]
        },
        {
            "positions": [
                2.229484303887216,
                -1.7203510868427192,
                -2.247953390134249,
                -1.9157955836645997,
                -0.6871319003731432,
                -2.4396945067534257
            ]
        },
        {
            "positions": [
                2.2855180966301663,
                -1.8149348927996474,
                -2.301931350624479,
                -1.876009696421375,
                -0.7326797172683472,
                -2.544352136956177
            ]
        },
        {
            "positions": [
                2.3239791375494248,
                -1.8492964206887863,
                -2.2705745005020854,
                -1.9113048134127546,
                -0.7150592848135525,
                -2.600485384401291
            ]
        },
        {
            "positions": [
                2.3624401784686837,
                -1.883657948577925,
                -2.239217650379692,
                -1.9465999304041341,
                -0.6974388523587578,
                -2.656618631846406
            ]
        },
        {
            "positions": [
                2.404913107217359,
                -1.9270632106447312,
                -2.1551085084626047,
                -2.018891147197616,
                -0.6656939252867659,
                -2.723570432193775
            ]
        },
        {
            "positions": [
                2.447386035966034,
                -1.9704684727115374,
                -2.0709993665455175,
                -2.0911823639910976,
                -0.6339489982147738,
                -2.790522232541144
            ]
        },
        {
            "positions": [
                2.4898589647147094,
                -2.0138737347783433,
                -1.9868902246284303,
                -2.1634735807845793,
                -0.6022040711427818,
                -2.857474032888513
            ]
        },
        {
            "positions": [
                2.5323318934633843,
                -2.0572789968451497,
                -1.9027810827113432,
                -2.235764797578061,
                -0.5704591440707898,
                -2.9244258332358823
            ]
        },
        {
            "positions": [
                2.5748048222120596,
                -2.1006842589119556,
                -1.8186719407942558,
                -2.3080560143715427,
                -0.5387142169987978,
                -2.9913776335832516
            ]
        },
        {
            "positions": [
                2.6172777509607346,
                -2.1440895209787616,
                -1.7345627988771688,
                -2.3803472311650244,
                -0.5069692899268059,
                -3.0583294339306204
            ]
        },
        {
            "positions": [
                2.65975067970941,
                -2.187494783045568,
                -1.6504536569600814,
                -2.452638447958506,
                -0.47522436285481384,
                -3.1252812342779897
            ]
        }
    ]
}