{
    "goal": {
        "global_pose": {
            "orientation": {
                "w": 0.7047431468963623,
                "x": -0.7094548344612122,
                "y": 0.0024358443915843964,
                "z": -0.0022348060738295317
            },
            "position": {
                "x": 0.6094750761985779,
                "y": 0.3671506643295288,
                "z": 0.19426114857196808
            }
        },
        "name": "move_to_magneteinheit_A"
    },
    "id": "BFMT_move_to_magneteinheit_A_96",
    "joint_names": [
        "shoulder_pan_joint",
        "shoulder_lift_joint",
        "elbow_joint",
        "wrist_1_joint",
        "wrist_2_joint",
        "wrist_3_joint"
    ],
    "metrics": {
        "cart_traj_len": 3.3568377033848438,
        "distance_elbow_joint": 3.9093201366499413,
        "distance_shoulder_lift_joint": 0.4294950807331861,
        "distance_shoulder_pan_joint": 2.5772846534122986,
        "distance_wrist_1_joint": 0.6803198929349701,
        "distance_wrist_2_joint": 1.8541179130315957,
        "distance_wrist_3_joint": 3.566469992374778,
        "smoothness": 0.027883966352290526,
        "time": 0.961238349,
        "traj_len": 3.6079090439112753,
        "weighted_distance": 4.762812767667117
    },
    "planner": "BFMT",
    "start": {
        "state": {
            "elbow_joint": -1.9196185241190666,
            "shoulder_lift_joint": -1.2443396400964142,
            "shoulder_pan_joint": 2.6996025414629847,
            "wrist_1_joint": -1.5485510000780065,
            "wrist_2_joint": -1.5709468930060704,
            "wrist_3_joint": 0.4420197071253992
        }
    },
    "waypoints": [
        {
            "positions": [
                2.6996025414629847,
                -1.2443396400964142,
                -1.9196185241190666,
                -1.5485510000780065,
                -1.5709468930060704,
                0.4420197071253992
            ]
        },
        {
            "positions": [
                2.5947868431410925,
                -1.2318329129578247,
                -1.7974938577883741,
                -1.5343830592917496,
                -1.574829231211922,
                0.31078019876985896
            ]
        },
        {
            "positions": [
                2.4899711448192,
                -1.2193261858192355,
                -1.6753691914576816,
                -1.5202151185054924,
                -1.5787115694177738,
                0.1795406904143188
            ]
        },
        {
            "positions": [
                2.3851554464973077,
                -1.2068194586806462,
                -1.5532445251269893,
                -1.5060471777192355,
                -1.5825939076236253,
                0.04830118205877865
            ]
        },
        {
            "positions": [
                2.2803397481754155,
                -1.1943127315420567,
                -1.4311198587962968,
                -1.4918792369329785,
                -1.586476245829477,
                -0.08293832629676157
            ]
        },
        {
            "positions": [
                2.1755240498535233,
                -1.1818060044034673,
                -1.3089951924656043,
                -1.4777112961467214,
                -1.5903585840353287,
                -0.21417783465230178
            ]
        },
        {
            "positions": [
                2.0707083515316307,
                -1.169299277264878,
                -1.186870526134912,
                -1.4635433553604644,
                -1.5942409222411804,
                -0.3454173430078419
            ]
        },
        {
            "positions": [
                1.9658926532097385,
                -1.1567925501262888,
                -1.0647458598042194,
                -1.4493754145742075,
                -1.598123260447032,
                -0.4766568513633821
            ]
        },
        {
            "positions": [
                1.8610769548878463,
                -1.1442858229876993,
                -0.9426211934735269,
                -1.4352074737879503,
                -1.6020055986528836,
                -0.6078963597189223
            ]
        },
        {
            "positions": [
                1.7562612565659539,
                -1.1317790958491099,
                -0.8204965271428344,
                -1.4210395330016934,
                -1.6058879368587353,
                -0.7391358680744625
            ]
        },
        {
            "positions": [
                1.6514455582440617,
                -1.1192723687105206,
                -0.6983718608121421,
                -1.4068715922154365,
                -1.609770275064587,
                -0.8703753764300027
            ]
        },
        {
            "positions": [
                1.546629859922169,
                -1.1067656415719314,
                -0.5762471944814493,
                -1.3927036514291793,
                -1.6136526132704385,
                -1.001614884785543
            ]
        },
        {
            "positions": [
                1.4418141616002769,
                -1.094258914433342,
                -0.45412252815075704,
                -1.3785357106429224,
                -1.6175349514762902,
                -1.1328543931410828
            ]
        },
        {
            "positions": [
                1.3369984632783845,
                -1.0817521872947524,
                -0.3319978618200645,
                -1.3643677698566654,
                -1.621417289682142,
                -1.2640939014966235
            ]
        },
        {
            "positions": [
                1.2321827649564923,
                -1.0692454601561632,
                -0.20987319548937222,
                -1.3501998290704083,
                -1.6252996278879936,
                -1.3953334098521633
            ]
        },
        {
            "positions": [
                1.1273670666345998,
                -1.056738733017574,
                -0.08774852915867948,
                -1.3360318882841513,
                -1.6291819660938451,
                -1.526572918207704
            ]
        },
        {
            "positions": [
                1.0225513683127077,
                -1.0442320058789845,
                0.03437613717201282,
                -1.3218639474978944,
                -1.6330643042996968,
                -1.6578124265632437
            ]
        },
        {
            "positions": [
                0.9177356699908152,
                -1.031725278740395,
                0.15650080350270557,
                -1.3076960067116372,
                -1.6369466425055486,
                -1.789051934918784
            ]
        },
        {
            "positions": [
                0.812919971668923,
                -1.0192185516018057,
                0.27862546983339787,
                -1.2935280659253803,
                -1.6408289807114003,
                -1.920291443274324
            ]
        },
        {
            "positions": [
                0.7081042733470306,
                -1.0067118244632165,
                0.40075013616409016,
                -1.2793601251391233,
                -1.6447113189172518,
                -2.0515309516298643
            ]
        },
        {
            "positions": [
                0.6032885750251387,
                -0.994205097324627,
                0.5228748024947825,
                -1.2651921843528662,
                -1.6485936571231035,
                -2.1827704599854045
            ]
        },
        {
            "positions": [
                0.49847287670324586,
                -0.9816983701860377,
                0.6449994688254754,
                -1.2510242435666092,
                -1.6524759953289552,
                -2.3140099683409447
            ]
        },
        {
            "positions": [
                0.4671824256057747,
                -0.9866316582284038,
                0.7059478436070239,
                -1.2342205148669774,
                -1.5878860823578536,
                -2.3577267144257426
            ]
        },
        {
            "positions": [
                0.43589197450830364,
                -0.9915649462707701,
                0.7668962183885724,
                -1.2174167861673455,
                -1.523296169386752,
                -2.4014434605105404
            ]
        },
        {
            "positions": [
                0.4040430463220746,
                -0.9999312493958264,
                0.8479257646955084,
                -1.1946868656233178,
                -1.4265920498570999,
                -2.4547752100784073
            ]
        },
        {
            "positions": [
                0.37219411813584563,
                -1.0082975525208828,
                0.9289553110024444,
                -1.17195694507929,
                -1.3298879303274478,
                -2.5081069596462737
            ]
        },
        {
            "positions": [
                0.3403451899496166,
                -1.016663855645939,
                1.0099848573093806,
                -1.1492270245352623,
                -1.2331838107977957,
                -2.5614387092141406
            ]
        },
        {
            "positions": [
                0.3161199341830687,
                -1.0313181140195955,
                1.1188422745562132,
                -1.118005255936126,
                -1.08281751900029,
                -2.6239955509958337
            ]
        },
        {
            "positions": [
                0.2918946784165208,
                -1.045972372393252,
                1.2276996918030458,
                -1.08678348733699,
                -0.9324512272027843,
                -2.6865523927775268
            ]
        },
        {
            "positions": [
                0.26766942264997284,
                -1.0606266307669086,
                1.3365571090498785,
                -1.0555617187378536,
                -0.7820849354052787,
                -2.74910923455922
            ]
        },
        {
            "positions": [
                0.24344416688342496,
                -1.075280889140565,
                1.445414526296711,
                -1.0243399501387174,
                -0.631718643607773,
                -2.811666076340913
            ]
        },
        {
            "positions": [
                0.21921891111687705,
                -1.0899351475142214,
                1.5542719435435437,
                -0.9931181815395812,
                -0.48135235181026725,
                -2.8742229181226064
            ]
        },
        {
            "positions": [
                0.19499365535032914,
                -1.1045894058878778,
                1.6631293607903763,
                -0.961896412940445,
                -0.33098606001276165,
                -2.9367797599042995
            ]
        },
        {
            "positions": [
                0.17076839958378123,
                -1.1192436642615344,
                1.7719867780372092,
                -0.9306746443413089,
                -0.18061976821525594,
                -2.9993366016859926
            ]
        },
        {
            "positions": [
                0.14654314381723332,
                -1.1338979226351908,
                1.8808441952840416,
                -0.8994528757421727,
                -0.030253476417750225,
                -3.0618934434676857
            ]
        },
        {
            "positions": [
                0.12231788805068541,
                -1.1485521810088473,
                1.9897016125308744,
                -0.8682311071430364,
                0.12011281537975543,
                -3.1244502852493787
            ]
        }
    ]
}