{
    "goal": {
        "global_pose": {
            "orientation": {
                "w": 0.005598929693374612,
                "x": 0.007748599140229565,
                "y": 0.7110244013736278,
                "z": -0.7031023480610252
            },
            "position": {
                "x": -0.8858502320852131,
                "y": -0.7141253447532654,
                "z": 0.3711530566215515
            }
        },
        "name": "move_to_auspresseinheit_C"
    },
    "id": "BFMT_move_to_auspresseinheit_C_33",
    "joint_names": [
        "shoulder_pan_joint",
        "shoulder_lift_joint",
        "elbow_joint",
        "wrist_1_joint",
        "wrist_2_joint",
        "wrist_3_joint"
    ],
    "metrics": {
        "cart_traj_len": 0.4936208286955316,
        "distance_elbow_joint": 0.9944538479801295,
        "distance_shoulder_lift_joint": 0.3220219103788764,
        "distance_shoulder_pan_joint": 0.2574188851974326,
        "distance_wrist_1_joint": 0.6675570529509761,
        "distance_wrist_2_joint": 1.3059646019311306,
        "distance_wrist_3_joint": 0.05813410268345498,
        "smoothness": 4.844609600361787e-16,
        "time": 0.437870245,
        "traj_len": 1.8988286918840256,
        "weighted_distance": 2.386491202868977
    },
    "planner": "BFMT",
    "start": {
        "state": {
            "elbow_joint": 1.7527959577737207,
            "shoulder_lift_joint": -0.9740617694225068,
            "shoulder_pan_joint": -2.967991417825858,
            "wrist_1_joint": -0.759517768980727,
            "wrist_2_joint": 1.7443932448377408,
            "wrist_3_joint": -3.0840537646736568
        }
    },
    "waypoints": [
        {
            "positions": [
                -2.967991417825858,
                -0.9740617694225068,
                1.7527959577737207,
                -0.759517768980727,
                1.7443932448377408,
                -3.0840537646736568
            ]
        },
        {
            "positions": [
                -2.942249529306115,
                -0.9418595783846191,
                1.6533505729757076,
                -0.6927620636856293,
                1.6137967846446277,
                -3.089867174942002
            ]
        },
        {
            "positions": [
                -2.9165076407863713,
                -0.9096573873467315,
                1.5539051881776946,
                -0.6260063583905318,
                1.4832003244515146,
                -3.095680585210348
            ]
        },
        {
            "positions": [
                -2.890765752266628,
                -0.8774551963088438,
                1.4544598033796818,
                -0.5592506530954342,
                1.3526038642584017,
                -3.1014939954786933
            ]
        },
        {
            "positions": [
                -2.865023863746885,
                -0.8452530052709561,
                1.3550144185816688,
                -0.49249494780033654,
                1.2220074040652884,
                -3.1073074057470387
            ]
        },
        {
            "positions": [
                -2.8392819752271414,
                -0.8130508142330686,
                1.2555690337836558,
                -0.4257392425052389,
                1.0914109438721755,
                -3.1131208160153845
            ]
        },
        {
            "positions": [
                -2.8135400867073983,
                -0.780848623195181,
                1.156123648985643,
                -0.3589835372101413,
                0.9608144836790625,
                -3.11893422628373
            ]
        },
        {
            "positions": [
                -2.787798198187655,
                -0.7486464321572933,
                1.0566782641876302,
                -0.29222783191504376,
                0.8302180234859494,
                -3.124747636552075
            ]
        },
        {
            "positions": [
                -2.762056309667912,
                -0.7164442411194056,
                0.957232879389617,
                -0.2254721266199461,
                0.6996215632928362,
                -3.1305610468204206
            ]
        },
        {
            "positions": [
                -2.7363144211481685,
                -0.6842420500815181,
                0.8577874945916041,
                -0.15871642132484842,
                0.5690251030997233,
                -3.1363744570887664
            ]
        },
        {
            "positions": [
                -2.7105725326284253,
                -0.6520398590436304,
                0.7583421097935912,
                -0.09196071602975091,
                0.43842864290661027,
                -3.1421878673571118
            ]
        }
    ]
}