{
    "goal": {
        "global_pose": {
            "orientation": {
                "w": -0.00223480608172531,
                "x": 0.0024358444001904467,
                "y": 0.7094548369677653,
                "z": -0.704743149386269
            },
            "position": {
                "x": 0.6205249238014221,
                "y": -0.6371506643295288,
                "z": 0.19426114857196808
            }
        },
        "name": "move_to_magneteinheit_B"
    },
    "id": "BFMT_move_to_magneteinheit_B_69",
    "joint_names": [
        "shoulder_pan_joint",
        "shoulder_lift_joint",
        "elbow_joint",
        "wrist_1_joint",
        "wrist_2_joint",
        "wrist_3_joint"
    ],
    "metrics": {
        "cart_traj_len": 1.4514045287489705,
        "distance_elbow_joint": 0.9960014435672979,
        "distance_shoulder_lift_joint": 0.7969799524432386,
        "distance_shoulder_pan_joint": 1.6208659846833162,
        "distance_wrist_1_joint": 0.2986732583551843,
        "distance_wrist_2_joint": 1.950261695625078,
        "distance_wrist_3_joint": 0.8361035828568648,
        "smoothness": 0.42864176786801306,
        "time": 0.846446826,
        "traj_len": 2.5492912578854106,
        "weighted_distance": 3.228006821124294
    },
    "planner": "BFMT",
    "start": {
        "state": {
            "elbow_joint": 2.6216224122426386,
            "shoulder_lift_joint": -1.4174107377796124,
            "shoulder_pan_joint": 0.7066234856936794,
            "wrist_1_joint": 1.9546482284002225,
            "wrist_2_joint": -0.7096286983471962,
            "wrist_3_joint": 0.005740856962016249
        }
    },
    "waypoints": [
        {
            "positions": [
                0.7066234856936794,
                -1.4174107377796124,
                2.6216224122426386,
                1.9546482284002225,
                -0.7096286983471962,
                0.005740856962016249
            ]
        },
        {
            "positions": [
                0.6544346496536209,
                -1.4281095227947054,
                2.6318440709271504,
                1.98804084968147,
                -0.6467371531184432,
                -0.058821007692234625
            ]
        },
        {
            "positions": [
                0.6022458136135622,
                -1.4388083078097984,
                2.6420657296116623,
                2.0214334709627177,
                -0.5838456078896901,
                -0.1233828723464855
            ]
        },
        {
            "positions": [
                0.4533340272315,
                -1.4228186367559972,
                2.6167677701946657,
                2.0809027605257344,
                -0.5534596038613185,
                -0.22130008681324848
            ]
        },
        {
            "positions": [
                0.3044222408494378,
                -1.4068289657021962,
                2.591469810777669,
                2.1403720500887506,
                -0.5230735998329469,
                -0.3192173012800114
            ]
        },
        {
            "positions": [
                0.15551045446737558,
                -1.390839294648395,
                2.5661718513606724,
                2.1998413396517673,
                -0.49268759580457533,
                -0.4171345157467744
            ]
        },
        {
            "positions": [
                0.07322176573991307,
                -1.334869035475191,
                2.4969669092108813,
                2.1957274821822566,
                -0.6260199491186105,
                -0.3853477303507687
            ]
        },
        {
            "positions": [
                -0.009066922987549436,
                -1.2788987763019874,
                2.42776196706109,
                2.191613624712746,
                -0.7593523024326456,
                -0.353560944954763
            ]
        },
        {
            "positions": [
                -0.09135561171501194,
                -1.2229285171287836,
                2.358557024911299,
                2.187499767243235,
                -0.8926846557466808,
                -0.32177415955875727
            ]
        },
        {
            "positions": [
                -0.17364430044247445,
                -1.1669582579555797,
                2.289352082761508,
                2.1833859097737243,
                -1.0260170090607161,
                -0.28998737416275155
            ]
        },
        {
            "positions": [
                -0.2559329891699369,
                -1.110987998782376,
                2.220147140611717,
                2.1792720523042135,
                -1.1593493623747513,
                -0.2582005887667458
            ]
        },
        {
            "positions": [
                -0.33822167789739943,
                -1.0550177396091722,
                2.1509421984619257,
                2.1751581948347027,
                -1.2926817156887864,
                -0.2264138033707401
            ]
        },
        {
            "positions": [
                -0.42051036662486196,
                -0.9990474804359686,
                2.0817372563121346,
                2.1710443373651924,
                -1.4260140690028216,
                -0.1946270179747344
            ]
        },
        {
            "positions": [
                -0.5027990553523245,
                -0.9430772212627647,
                2.0125323141623435,
                2.1669304798956817,
                -1.5593464223168567,
                -0.16284023257872865
            ]
        },
        {
            "positions": [
                -0.5850877440797869,
                -0.887106962089561,
                1.9433273720125526,
                2.162816622426171,
                -1.6926787756308919,
                -0.13105344718272294
            ]
        },
        {
            "positions": [
                -0.6673764328072495,
                -0.8311367029163571,
                1.8741224298627612,
                2.15870276495666,
                -1.826011128944927,
                -0.09926666178671723
            ]
        },
        {
            "positions": [
                -0.749665121534712,
                -0.7751664437431535,
                1.8049174877129703,
                2.1545889074871494,
                -1.9593434822589622,
                -0.06747987639071151
            ]
        },
        {
            "positions": [
                -0.8319538102621745,
                -0.7191961845699496,
                1.735712545563179,
                2.1504750500176386,
                -2.0926758355729973,
                -0.0356930909947058
            ]
        },
        {
            "positions": [
                -0.9142424989896368,
                -0.6632259253967459,
                1.666507603413388,
                2.146361192548128,
                -2.2260081888870324,
                -0.00390630559870011
            ]
        }
    ]
}