{
    "goal": {
        "global_pose": {
            "orientation": {
                "w": -0.00223480608172531,
                "x": 0.0024358444001904467,
                "y": 0.7094548369677653,
                "z": -0.704743149386269
            },
            "position": {
                "x": 0.6205249238014221,
                "y": -0.6371506643295288,
                "z": 0.19426114857196808
            }
        },
        "name": "move_to_magneteinheit_B"
    },
    "id": "BFMT_move_to_magneteinheit_B_15",
    "joint_names": [
        "shoulder_pan_joint",
        "shoulder_lift_joint",
        "elbow_joint",
        "wrist_1_joint",
        "wrist_2_joint",
        "wrist_3_joint"
    ],
    "metrics": {
        "cart_traj_len": 5.221728990919545,
        "distance_elbow_joint": 4.449161619355063,
        "distance_shoulder_lift_joint": 4.036650887128385,
        "distance_shoulder_pan_joint": 2.749016919816814,
        "distance_wrist_1_joint": 4.025210298543095,
        "distance_wrist_2_joint": 2.3483718253900276,
        "distance_wrist_3_joint": 1.745777755431564,
        "smoothness": 0.8664225326852851,
        "time": 1.200905197,
        "traj_len": 4.399339644272189,
        "weighted_distance": 5.405490444026442
    },
    "planner": "BFMT",
    "start": {
        "state": {
            "elbow_joint": 2.6216224122426386,
            "shoulder_lift_joint": -1.4174107377796124,
            "shoulder_pan_joint": 0.7066234856936794,
            "wrist_1_joint": 1.9546482284002225,
            "wrist_2_joint": -0.7096286983471962,
            "wrist_3_joint": 0.005740856962016249
        }
    },
    "waypoints": [
        {
            "positions": [
                0.7066234856936794,
                -1.4174107377796124,
                2.6216224122426386,
                1.9546482284002225,
                -0.7096286983471962,
                0.005740856962016249
            ]
        },
        {
            "positions": [
                0.8225719516787909,
                -1.4795005113101307,
                2.6307381488314507,
                2.0256584766290837,
                -0.7900123159516586,
                0.02143059959114557
            ]
        },
        {
            "positions": [
                0.9385204176639026,
                -1.541590284840649,
                2.6398538854202624,
                2.0966687248579445,
                -0.870395933556121,
                0.037120342220274896
            ]
        },
        {
            "positions": [
                1.0544688836490141,
                -1.6036800583711677,
                2.6489696220090746,
                2.167678973086806,
                -0.9507795511605833,
                0.05281008484940422
            ]
        },
        {
            "positions": [
                1.1704173496341257,
                -1.665769831901686,
                2.6580853585978863,
                2.2386892213156666,
                -1.0311631687650458,
                0.06849982747853355
            ]
        },
        {
            "positions": [
                1.2863658156192372,
                -1.7278596054322044,
                2.6672010951866985,
                2.309699469544528,
                -1.111546786369508,
                0.08418957010766287
            ]
        },
        {
            "positions": [
                1.3462590490235822,
                -1.7355960968170692,
                2.473756192794088,
                2.2599915583110426,
                -1.061460301757076,
                0.11363229185764748
            ]
        },
        {
            "positions": [
                1.406152282427927,
                -1.743332588201934,
                2.2803112904014773,
                2.210283647077557,
                -1.011373817144644,
                0.14307501360763208
            ]
        },
        {
            "positions": [
                1.4660455158322718,
                -1.751069079586799,
                2.0868663880088665,
                2.1605757358440716,
                -0.961287332532212,
                0.17251773535761672
            ]
        },
        {
            "positions": [
                1.5259387492366168,
                -1.7588055709716637,
                1.8934214856162561,
                2.110867824610586,
                -0.91120084791978,
                0.2019604571076013
            ]
        },
        {
            "positions": [
                1.5858319826409615,
                -1.7665420623565284,
                1.6999765832236455,
                2.0611599133771006,
                -0.8611143633073479,
                0.23140317885758593
            ]
        },
        {
            "positions": [
                1.6457252160453064,
                -1.7742785537413932,
                1.506531680831035,
                2.011452002143615,
                -0.8110278786949159,
                0.2608459006075705
            ]
        },
        {
            "positions": [
                1.7056184494496511,
                -1.7820150451262582,
                1.3130867784384244,
                1.9617440909101296,
                -0.760941394082484,
                0.29028862235755515
            ]
        },
        {
            "positions": [
                1.765511682853996,
                -1.789751536511123,
                1.1196418760458138,
                1.912036179676644,
                -0.7108549094700519,
                0.3197313441075398
            ]
        },
        {
            "positions": [
                1.825404916258341,
                -1.7974880278959877,
                0.9261969736532032,
                1.8623282684431586,
                -0.6607684248576199,
                0.34917406585752436
            ]
        },
        {
            "positions": [
                1.885298149662686,
                -1.8052245192808525,
                0.7327520712605926,
                1.812620357209673,
                -0.6106819402451878,
                0.378616787607509
            ]
        },
        {
            "positions": [
                1.9451913830670309,
                -1.8129610106657175,
                0.5393071688679818,
                1.7629124459761876,
                -0.5605954556327558,
                0.40805950935749363
            ]
        },
        {
            "positions": [
                2.0050846164713754,
                -1.8206975020505822,
                0.34586226647537144,
                1.7132045347427023,
                -0.5105089710203238,
                0.4375022311074782
            ]
        },
        {
            "positions": [
                2.0649778498757208,
                -1.828433993435447,
                0.15241736408276063,
                1.6634966235092166,
                -0.46042248640789174,
                0.46694495285746285
            ]
        },
        {
            "positions": [
                2.1248710832800652,
                -1.8361704848203118,
                -0.04102753830984973,
                1.6137887122757313,
                -0.4103360017954598,
                0.4963876746074474
            ]
        },
        {
            "positions": [
                2.18476431668441,
                -1.8439069762051767,
                -0.23447244070246054,
                1.5640808010422456,
                -0.36024951718302767,
                0.525830396357432
            ]
        },
        {
            "positions": [
                2.244657550088755,
                -1.8516434675900415,
                -0.4279173430950709,
                1.5143728898087603,
                -0.31016303257059574,
                0.5552731181074166
            ]
        },
        {
            "positions": [
                2.3045507834930996,
                -1.8593799589749063,
                -0.6213622454876817,
                1.4646649785752746,
                -0.2600765479581637,
                0.5847158398574013
            ]
        },
        {
            "positions": [
                2.364444016897445,
                -1.867116450359771,
                -0.8148071478802921,
                1.4149570673417893,
                -0.20999006334573167,
                0.6141585616073859
            ]
        },
        {
            "positions": [
                2.4243372503017895,
                -1.8748529417446358,
                -1.0082520502729029,
                1.3652491561083038,
                -0.15990357873329963,
                0.6436012833573705
            ]
        },
        {
            "positions": [
                2.4842304837061344,
                -1.8825894331295008,
                -1.2016969526655132,
                1.3155412448748183,
                -0.1098170941208676,
                0.6730440051073552
            ]
        },
        {
            "positions": [
                2.5441237171104794,
                -1.8903259245143655,
                -1.3951418550581245,
                1.2658333336413328,
                -0.05973060950843545,
                0.7024867268573398
            ]
        },
        {
            "positions": [
                2.5908848755870957,
                -1.7552676554830544,
                -1.3916412937472837,
                1.3731782078572918,
                0.004756639104279203,
                0.7184294155695852
            ]
        },
        {
            "positions": [
                2.637646034063712,
                -1.6202093864517433,
                -1.3881407324364432,
                1.4805230820732507,
                0.06924388771699386,
                0.7343721042818305
            ]
        },
        {
            "positions": [
                2.684407192540328,
                -1.4851511174204322,
                -1.3846401711256024,
                1.5878679562892097,
                0.13373113632970848,
                0.7503147929940759
            ]
        },
        {
            "positions": [
                2.731168351016944,
                -1.350092848389121,
                -1.3811396098147617,
                1.6952128305051686,
                0.19821838494242316,
                0.7662574817063212
            ]
        },
        {
            "positions": [
                2.7779295094935605,
                -1.21503457935781,
                -1.3776390485039212,
                1.8025577047211274,
                0.26270563355513776,
                0.7822001704185666
            ]
        },
        {
            "positions": [
                2.824690667970177,
                -1.079976310326499,
                -1.3741384871930804,
                1.9099025789370865,
                0.3271928821678524,
                0.798142859130812
            ]
        },
        {
            "positions": [
                2.871451826446793,
                -0.9449180412951876,
                -1.3706379258822399,
                2.0172474531530455,
                0.39168013078056707,
                0.8140855478430573
            ]
        },
        {
            "positions": [
                2.9182129849234095,
                -0.8098597722638765,
                -1.3671373645713991,
                2.1245923273690046,
                0.4561673793932818,
                0.8300282365553027
            ]
        },
        {
            "positions": [
                2.9649741434000254,
                -0.6748015032325654,
                -1.3636368032605584,
                2.2319372015849632,
                0.5206546280059964,
                0.845970925267548
            ]
        },
        {
            "positions": [
                3.0117353018766417,
                -0.5397432342012543,
                -1.3601362419497178,
                2.3392820758009223,
                0.585141876618711,
                0.8619136139797934
            ]
        },
        {
            "positions": [
                3.058496460353258,
                -0.4046849651699431,
                -1.356635680638877,
                2.4466269500168814,
                0.6496291252314257,
                0.8778563026920387
            ]
        },
        {
            "positions": [
                3.03012903569917,
                -0.5531203038163153,
                -1.3782595243350866,
                2.3433769996511638,
                0.6363949948195128,
                0.8154518519990716
            ]
        },
        {
            "positions": [
                3.0017616110450818,
                -0.7015556424626874,
                -1.399883368031296,
                2.240127049285446,
                0.6231608644076,
                0.7530474013061044
            ]
        },
        {
            "positions": [
                2.973394186390993,
                -0.8499909811090595,
                -1.4215072117275056,
                2.1368770989197285,
                0.6099267339956871,
                0.6906429506131371
            ]
        },
        {
            "positions": [
                2.945026761736905,
                -0.9984263197554316,
                -1.4431310554237151,
                2.0336271485540114,
                0.5966926035837743,
                0.6282384999201699
            ]
        },
        {
            "positions": [
                2.916659337082817,
                -1.1468616584018037,
                -1.4647548991199246,
                1.9303771981882938,
                0.5834584731718614,
                0.5658340492272027
            ]
        },
        {
            "positions": [
                2.8882919124287287,
                -1.2952969970481758,
                -1.4863787428161341,
                1.8271272478225762,
                0.5702243427599485,
                0.5034295985342355
            ]
        },
        {
            "positions": [
                2.8599244877746406,
                -1.443732335694548,
                -1.5080025865123434,
                1.7238772974568586,
                0.5569902123480357,
                0.4410251478412683
            ]
        },
        {
            "positions": [
                2.831557063120552,
                -1.59216767434092,
                -1.529626430208553,
                1.620627347091141,
                0.5437560819361228,
                0.3786206971483011
            ]
        },
        {
            "positions": [
                2.803189638466464,
                -1.7406030129872923,
                -1.5512502739047624,
                1.5173773967254234,
                0.5305219515242099,
                0.31621624645533386
            ]
        },
        {
            "positions": [
                2.7748222138123757,
                -1.8890383516336644,
                -1.572874117600972,
                1.414127446359706,
                0.5172878211122971,
                0.2538117957623667
            ]
        },
        {
            "positions": [
                2.7464547891582876,
                -2.037473690280036,
                -1.5944979612971815,
                1.3108774959939884,
                0.5040536907003842,
                0.1914073450693995
            ]
        },
        {
            "positions": [
                2.718087364504199,
                -2.1859090289264085,
                -1.616121804993391,
                1.207627545628271,
                0.4908195602884714,
                0.1290028943764323
            ]
        },
        {
            "positions": [
                2.689719939850111,
                -2.334344367572781,
                -1.6377456486896005,
                1.1043775952625534,
                0.4775854298765585,
                0.06659844368346501
            ]
        },
        {
            "positions": [
                2.6613525151960227,
                -2.482779706219153,
                -1.65936949238581,
                1.0011276448968358,
                0.46435129946464565,
                0.004193992990497883
            ]
        }
    ]
}