{
    "goal": {
        "global_pose": {
            "orientation": {
                "w": -0.00223480608172531,
                "x": 0.0024358444001904467,
                "y": 0.7094548369677653,
                "z": -0.704743149386269
            },
            "position": {
                "x": 0.6205249238014221,
                "y": -0.6371506643295288,
                "z": 0.19426114857196808
            }
        },
        "name": "move_to_magneteinheit_B"
    },
    "id": "BFMT_move_to_magneteinheit_B_28",
    "joint_names": [
        "shoulder_pan_joint",
        "shoulder_lift_joint",
        "elbow_joint",
        "wrist_1_joint",
        "wrist_2_joint",
        "wrist_3_joint"
    ],
    "metrics": {
        "cart_traj_len": 1.43368110181777,
        "distance_elbow_joint": 0.9566782904903552,
        "distance_shoulder_lift_joint": 0.9196932307439346,
        "distance_shoulder_pan_joint": 1.6208466462010762,
        "distance_wrist_1_joint": 0.4286991932284101,
        "distance_wrist_2_joint": 1.5153993939825352,
        "distance_wrist_3_joint": 0.5213016853348721,
        "smoothness": 0.3662378111126856,
        "time": 0.63068779,
        "traj_len": 2.4418473416618784,
        "weighted_distance": 2.991541475203356
    },
    "planner": "BFMT",
    "start": {
        "state": {
            "elbow_joint": 2.6216224122426386,
            "shoulder_lift_joint": -1.4174107377796124,
            "shoulder_pan_joint": 0.7066234856936794,
            "wrist_1_joint": 1.9546482284002225,
            "wrist_2_joint": -0.7096286983471962,
            "wrist_3_joint": 0.005740856962016249
        }
    },
    "waypoints": [
        {
            "positions": [
                0.7066234856936794,
                -1.4174107377796124,
                2.6216224122426386,
                1.9546482284002225,
                -0.7096286983471962,
                0.005740856962016249
            ]
        },
        {
            "positions": [
                0.5779259885867232,
                -1.4445135504653912,
                2.6196042263449026,
                1.9131980938603408,
                -0.7983369131855981,
                -0.08187183888739011
            ]
        },
        {
            "positions": [
                0.44922849147976696,
                -1.4716163631511703,
                2.617586040447167,
                1.8717479593204591,
                -0.8870451280239999,
                -0.16948453473679645
            ]
        },
        {
            "positions": [
                0.32053099437281074,
                -1.4987191758369491,
                2.615567854549431,
                1.8302978247805775,
                -0.9757533428624019,
                -0.2570972305862028
            ]
        },
        {
            "positions": [
                0.22554990553587168,
                -1.4342280379379801,
                2.5424429520265734,
                1.853709270135098,
                -1.071851400513735,
                -0.2372154153718449
            ]
        },
        {
            "positions": [
                0.13056881669893264,
                -1.369736900039011,
                2.469318049503716,
                1.8771207154896183,
                -1.167949458165068,
                -0.21733360015748698
            ]
        },
        {
            "positions": [
                0.035587727861993546,
                -1.305245762140042,
                2.396193146980859,
                1.9005321608441386,
                -1.264047515816401,
                -0.19745178494312907
            ]
        },
        {
            "positions": [
                -0.059393360974945464,
                -1.240754624241073,
                2.323068244458001,
                1.923943606198659,
                -1.3601455734677341,
                -0.17756996972877115
            ]
        },
        {
            "positions": [
                -0.15437444981188453,
                -1.1762634863421038,
                2.2499433419351433,
                1.9473550515531795,
                -1.4562436311190672,
                -0.15768815451441323
            ]
        },
        {
            "positions": [
                -0.24935553864882365,
                -1.1117723484431348,
                2.176818439412286,
                1.9707664969077,
                -1.5523416887704,
                -0.1378063393000553
            ]
        },
        {
            "positions": [
                -0.34433662748576255,
                -1.0472812105441658,
                2.1036935368894287,
                1.9941779422622201,
                -1.648439746421733,
                -0.11792452408569742
            ]
        },
        {
            "positions": [
                -0.43931771632270167,
                -0.9827900726451966,
                2.030568634366571,
                2.0175893876167406,
                -1.7445378040730661,
                -0.09804270887133948
            ]
        },
        {
            "positions": [
                -0.5342988051596407,
                -0.9182989347462276,
                1.9574437318437135,
                2.041000832971261,
                -1.8406358617243992,
                -0.07816089365698159
            ]
        },
        {
            "positions": [
                -0.6292798939965798,
                -0.8538077968472585,
                1.884318829320856,
                2.0644122783257814,
                -1.9367339193757322,
                -0.058279078442623644
            ]
        },
        {
            "positions": [
                -0.7242609828335189,
                -0.7893166589482894,
                1.8111939267979984,
                2.0878237236803017,
                -2.0328319770270653,
                -0.038397263228265754
            ]
        },
        {
            "positions": [
                -0.819242071670458,
                -0.7248255210493203,
                1.7380690242751409,
                2.1112351690348223,
                -2.1289300346783984,
                -0.01851544801390781
            ]
        },
        {
            "positions": [
                -0.9142231605073969,
                -0.6603343831503513,
                1.6649441217522833,
                2.1346466143893426,
                -2.2250280923297314,
                0.0013663672004501036
            ]
        }
    ]
}