{
    "goal": {
        "global_pose": {
            "orientation": {
                "w": 0.7047431493862688,
                "x": -0.7094548369677653,
                "y": 0.0024358444001904,
                "z": -0.0022348060817251984
            },
            "position": {
                "x": -0.39052492380142206,
                "y": 0.3671506643295288,
                "z": 0.19426114857196808
            }
        },
        "name": "move_to_magneteinheit_D"
    },
    "id": "BFMT_move_to_magneteinheit_D_77",
    "joint_names": [
        "shoulder_pan_joint",
        "shoulder_lift_joint",
        "elbow_joint",
        "wrist_1_joint",
        "wrist_2_joint",
        "wrist_3_joint"
    ],
    "metrics": {
        "cart_traj_len": 3.770958028215143,
        "distance_elbow_joint": 3.1648009839713205,
        "distance_shoulder_lift_joint": 1.6322755909310638,
        "distance_shoulder_pan_joint": 2.6633337473683465,
        "distance_wrist_1_joint": 1.5854104282713761,
        "distance_wrist_2_joint": 1.6901238607522628,
        "distance_wrist_3_joint": 3.144078010851478,
        "smoothness": 0.3380946211224137,
        "time": 1.366276521,
        "traj_len": 3.7255902380892407,
        "weighted_distance": 4.841870809188575
    },
    "planner": "BFMT",
    "start": {
        "state": {
            "elbow_joint": 0.749534889911806,
            "shoulder_lift_joint": -0.6476975780787326,
            "shoulder_pan_joint": -2.711696901376241,
            "wrist_1_joint": -0.07506478083263063,
            "wrist_2_joint": 0.43296659715538205,
            "wrist_3_joint": -3.14703540197715
        }
    },
    "waypoints": [
        {
            "positions": [
                -2.711696901376241,
                -0.6476975780787326,
                0.749534889911806,
                -0.07506478083263063,
                0.43296659715538205,
                -3.14703540197715
            ]
        },
        {
            "positions": [
                -2.707620132314379,
                -0.6696477480228202,
                0.7043524865397659,
                -0.06797578857571471,
                0.43851661077527826,
                -3.1346134834325676
            ]
        },
        {
            "positions": [
                -2.7762648942419625,
                -0.7530251210717042,
                0.6964661242278123,
                -0.046123774145573684,
                0.5025921444753927,
                -3.0505865451463343
            ]
        },
        {
            "positions": [
                -2.7223346032060136,
                -0.7970552966067248,
                0.5671580927124363,
                0.0012532217140930335,
                0.4739273220262677,
                -2.9590537887930557
            ]
        },
        {
            "positions": [
                -2.6684043121700647,
                -0.8410854721417456,
                0.43785006119706044,
                0.04863021757375975,
                0.4452624995771427,
                -2.867521032439777
            ]
        },
        {
            "positions": [
                -2.6144740211341153,
                -0.8851156476767662,
                0.3085420296816845,
                0.09600721343342646,
                0.41659767712801776,
                -2.7759882760864985
            ]
        },
        {
            "positions": [
                -2.5605437300981664,
                -0.9291458232117868,
                0.17923399816630858,
                0.1433842092930932,
                0.38793285467889277,
                -2.68445551973322
            ]
        },
        {
            "positions": [
                -2.5066134390622175,
                -0.9731759987468076,
                0.04992596665093263,
                0.1907612051527599,
                0.3592680322297678,
                -2.5929227633799408
            ]
        },
        {
            "positions": [
                -2.4526831480262685,
                -1.0172061742818284,
                -0.07938206486444332,
                0.2381382010124266,
                0.3306032097806428,
                -2.501390007026662
            ]
        },
        {
            "positions": [
                -2.3987528569903196,
                -1.061236349816849,
                -0.20869009637981928,
                0.28551519687209337,
                0.3019383873315178,
                -2.4098572506733835
            ]
        },
        {
            "positions": [
                -2.34482256595437,
                -1.1052665253518696,
                -0.3379981278951951,
                0.3328921927317601,
                0.27327356488239285,
                -2.318324494320105
            ]
        },
        {
            "positions": [
                -2.2908922749184213,
                -1.1492967008868904,
                -0.4673061594105712,
                0.3802691885914268,
                0.24460874243326786,
                -2.2267917379668263
            ]
        },
        {
            "positions": [
                -2.2369619838824724,
                -1.193326876421911,
                -0.596614190925947,
                0.4276461844510935,
                0.21594391998414286,
                -2.1352589816135477
            ]
        },
        {
            "positions": [
                -2.1830316928465234,
                -1.2373570519569317,
                -0.7259222224413231,
                0.4750231803107603,
                0.1872790975350178,
                -2.0437262252602686
            ]
        },
        {
            "positions": [
                -2.1291014018105745,
                -1.2813872274919524,
                -0.8552302539566989,
                0.5224001761704269,
                0.15861427508589288,
                -1.9521934689069902
            ]
        },
        {
            "positions": [
                -2.075171110774625,
                -1.325417403026973,
                -0.984538285472075,
                0.5697771720300937,
                0.12994945263676788,
                -1.8606607125537113
            ]
        },
        {
            "positions": [
                -2.0212408197386766,
                -1.3694475785619937,
                -1.1138463169874508,
                0.6171541678897604,
                0.10128463018764289,
                -1.7691279562004327
            ]
        },
        {
            "positions": [
                -1.9673105287027273,
                -1.4134777540970145,
                -1.243154348502827,
                0.6645311637494271,
                0.0726198077385179,
                -1.677595199847154
            ]
        },
        {
            "positions": [
                -1.9133802376667783,
                -1.457507929632035,
                -1.3724623800182025,
                0.7119081596090938,
                0.043954985289392956,
                -1.5860624434938755
            ]
        },
        {
            "positions": [
                -1.8594499466308294,
                -1.501538105167056,
                -1.5017704115335786,
                0.7592851554687606,
                0.015290162840267907,
                -1.4945296871405966
            ]
        },
        {
            "positions": [
                -1.8055196555948805,
                -1.5455682807020765,
                -1.6310784430489547,
                0.8066621513284272,
                -0.013374659608856976,
                -1.402996930787318
            ]
        },
        {
            "positions": [
                -1.7515893645589313,
                -1.589598456237097,
                -1.7603864745643307,
                0.854039147188094,
                -0.042039482057982025,
                -1.3114641744340394
            ]
        },
        {
            "positions": [
                -1.6976590735229824,
                -1.6336286317721178,
                -1.8896945060797063,
                0.9014161430477606,
                -0.07070430450710696,
                -1.2199314180807608
            ]
        },
        {
            "positions": [
                -1.6437287824870332,
                -1.6776588073071386,
                -2.019002537595082,
                0.9487931389074274,
                -0.09936912695623204,
                -1.128398661727482
            ]
        },
        {
            "positions": [
                -1.585323593904835,
                -1.7004960638564264,
                -2.0686192943147184,
                0.9771155481049842,
                -0.13451797686008932,
                -1.0515550259343207
            ]
        },
        {
            "positions": [
                -1.5269184053226368,
                -1.7233333204057142,
                -2.118236051034354,
                1.005437957302541,
                -0.16966682676394662,
                -0.9747113901411596
            ]
        },
        {
            "positions": [
                -1.45301817701909,
                -1.7522900358436777,
                -2.1756094193496334,
                1.0382053425202444,
                -0.21256171957331155,
                -0.881168826471261
            ]
        },
        {
            "positions": [
                -1.3791179487155432,
                -1.7812467512816412,
                -2.2329827876649126,
                1.070972727737948,
                -0.2554566123826765,
                -0.7876262628013625
            ]
        },
        {
            "positions": [
                -1.3052177204119964,
                -1.8102034667196047,
                -2.290356155980192,
                1.1037401129556514,
                -0.29835150519204146,
                -0.694083699131464
            ]
        },
        {
            "positions": [
                -1.203905009274573,
                -1.8505008085305985,
                -2.315597090531634,
                1.1183430816853561,
                -0.3415584254991809,
                -0.6022753052596201
            ]
        },
        {
            "positions": [
                -1.1025922981371492,
                -1.8907981503415923,
                -2.3408380250830767,
                1.1329460504150606,
                -0.3847653458063204,
                -0.5104669113877763
            ]
        },
        {
            "positions": [
                -1.0012795869997257,
                -1.9310954921525862,
                -2.366078959634519,
                1.1475490191447653,
                -0.42797226611345984,
                -0.4186585175159325
            ]
        },
        {
            "positions": [
                -0.8999668758623023,
                -1.97139283396358,
                -2.391319894185961,
                1.16215198787447,
                -0.4711791864205993,
                -0.3268501236440887
            ]
        },
        {
            "positions": [
                -0.7927567084708662,
                -2.017422592885939,
                -2.388139812928098,
                1.206690409263859,
                -0.3915211351171298,
                -0.27416356140578535
            ]
        },
        {
            "positions": [
                -0.6855465410794302,
                -2.063452351808298,
                -2.384959731670235,
                1.2512288306532484,
                -0.3118630838136603,
                -0.22147699916748204
            ]
        },
        {
            "positions": [
                -0.5783363736879942,
                -2.109482110730657,
                -2.381779650412372,
                1.2957672520426375,
                -0.23220503251019076,
                -0.16879043692917867
            ]
        },
        {
            "positions": [
                -0.47112620629655816,
                -2.155511869653016,
                -2.3785995691545088,
                1.3403056734320267,
                -0.15254698120672128,
                -0.11610387469087532
            ]
        },
        {
            "positions": [
                -0.36391603890512203,
                -2.2015416285753746,
                -2.3754194878966457,
                1.384844094821416,
                -0.07288892990325169,
                -0.06341731245257193
            ]
        },
        {
            "positions": [
                -0.256705871513686,
                -2.2475713874977337,
                -2.3722394066387826,
                1.4293825162108051,
                0.006769121400217792,
                -0.010730750214268586
            ]
        },
        {
            "positions": [
                -0.185652677863062,
                -2.2799731690097964,
                -2.377105118965158,
                1.5103456474387456,
                0.17554779611566088,
                -0.0029573911256728547
            ]
        }
    ]
}