{
    "goal": {
        "global_pose": {
            "orientation": {
                "w": -0.4816463035849501,
                "x": 0.5182115481033762,
                "y": 0.4908360881923453,
                "z": -0.5084816262002911
            },
            "position": {
                "x": -0.8240239810943604,
                "y": -0.300875300988555,
                "z": 0.16403168439865112
            }
        },
        "name": "move_to_storage_C"
    },
    "id": "BFMT_move_to_storage_C_94",
    "joint_names": [
        "shoulder_pan_joint",
        "shoulder_lift_joint",
        "elbow_joint",
        "wrist_1_joint",
        "wrist_2_joint",
        "wrist_3_joint"
    ],
    "metrics": {
        "cart_traj_len": 0.5767017799300154,
        "distance_elbow_joint": 0.26036103066883776,
        "distance_shoulder_lift_joint": 0.18959046905131405,
        "distance_shoulder_pan_joint": 0.4949229894827831,
        "distance_wrist_1_joint": 0.08752293701621561,
        "distance_wrist_2_joint": 1.065686637184005,
        "distance_wrist_3_joint": 0.06938522244265499,
        "smoothness": 2.5376526478085547e-16,
        "time": 0.429945547,
        "traj_len": 1.472232755322952,
        "weighted_distance": 1.859959490131799
    },
    "planner": "BFMT",
    "start": {
        "state": {
            "elbow_joint": 2.010868314990456,
            "shoulder_lift_joint": -1.1634956873337592,
            "shoulder_pan_joint": -2.4736205022346125,
            "wrist_1_joint": -0.8367026794202681,
            "wrist_2_joint": 0.6746043897044499,
            "wrist_3_joint": -3.1496632123970403
        }
    },
    "waypoints": [
        {
            "positions": [
                -2.4736205022346125,
                -1.1634956873337592,
                2.010868314990456,
                -0.8367026794202681,
                0.6746043897044499,
                -3.1496632123970403
            ]
        },
        {
            "positions": [
                -2.5561076671484098,
                -1.1318972758252068,
                1.967474809878983,
                -0.8221155232508989,
                0.8522188292351174,
                -3.1380990086565976
            ]
        },
        {
            "positions": [
                -2.638594832062207,
                -1.1002988643166545,
                1.9240813047675098,
                -0.8075283670815295,
                1.029833268765785,
                -3.1265348049161554
            ]
        },
        {
            "positions": [
                -2.721081996976004,
                -1.068700452808102,
                1.880687799656037,
                -0.7929412109121603,
                1.2074477082964523,
                -3.114970601175713
            ]
        },
        {
            "positions": [
                -2.803569161889801,
                -1.0371020412995497,
                1.837294294544564,
                -0.7783540547427911,
                1.38506214782712,
                -3.10340639743527
            ]
        },
        {
            "positions": [
                -2.8860563268035984,
                -1.0055036297909974,
                1.793900789433091,
                -0.7637668985734217,
                1.5626765873577875,
                -3.091842193694828
            ]
        },
        {
            "positions": [
                -2.9685434917173956,
                -0.9739052182824451,
                1.750507284321618,
                -0.7491797424040525,
                1.740291026888455,
                -3.0802779899543853
            ]
        }
    ]
}