{
    "goal": {
        "global_pose": {
            "orientation": {
                "w": -0.00223480608172531,
                "x": 0.0024358444001904467,
                "y": 0.7094548369677653,
                "z": -0.704743149386269
            },
            "position": {
                "x": -0.37947507619857795,
                "y": -0.6371506643295288,
                "z": 0.19426114857196808
            }
        },
        "name": "move_to_magneteinheit_C"
    },
    "id": "BFMT_move_to_magneteinheit_C_79",
    "joint_names": [
        "shoulder_pan_joint",
        "shoulder_lift_joint",
        "elbow_joint",
        "wrist_1_joint",
        "wrist_2_joint",
        "wrist_3_joint"
    ],
    "metrics": {
        "cart_traj_len": 0.6199631779503708,
        "distance_elbow_joint": 0.12157280124851022,
        "distance_shoulder_lift_joint": 0.3141843818259884,
        "distance_shoulder_pan_joint": 0.8003778845762144,
        "distance_wrist_1_joint": 0.29633262162535245,
        "distance_wrist_2_joint": 0.7873036760891957,
        "distance_wrist_3_joint": 0.2877612358107662,
        "smoothness": 0.64434303823599,
        "time": 0.64729047,
        "traj_len": 1.6147856208103997,
        "weighted_distance": 2.0655970978175073
    },
    "planner": "BFMT",
    "start": {
        "state": {
            "elbow_joint": 1.9565354010623817,
            "shoulder_lift_joint": -1.4165861575791021,
            "shoulder_pan_joint": -1.6717766225146293,
            "wrist_1_joint": -0.5286633292919765,
            "wrist_2_joint": 1.472756589071564,
            "wrist_3_joint": -3.1238370188695823
        }
    },
    "waypoints": [
        {
            "positions": [
                -1.6717766225146293,
                -1.4165861575791021,
                1.9565354010623817,
                -0.5286633292919765,
                1.472756589071564,
                -3.1238370188695823
            ]
        },
        {
            "positions": [
                -1.6972960121531973,
                -1.42687310260528,
                1.9856692215201477,
                -0.549779229174281,
                1.23992828239142,
                -3.080377885786762
            ]
        },
        {
            "positions": [
                -1.722815401791765,
                -1.4371600476314579,
                2.0148030419779137,
                -0.5708951290565855,
                1.007099975711276,
                -3.0369187527039423
            ]
        },
        {
            "positions": [
                -1.7483347914303329,
                -1.4474469926576359,
                2.0439368624356797,
                -0.59201102893889,
                0.7742716690311319,
                -2.993459619621122
            ]
        },
        {
            "positions": [
                -1.9292897203454606,
                -1.3766161059707722,
                2.035394027466877,
                -0.6502572594334998,
                0.752066980018941,
                -3.0328055787616988
            ]
        },
        {
            "positions": [
                -2.110244649260588,
                -1.3057852192839086,
                2.0268511924980737,
                -0.7085034899281095,
                0.72986229100675,
                -3.072151537902275
            ]
        },
        {
            "positions": [
                -2.291199578175716,
                -1.234954332597045,
                2.0183083575292704,
                -0.7667497204227192,
                0.7076576019945591,
                -3.1114974970428513
            ]
        },
        {
            "positions": [
                -2.4721545070908437,
                -1.1641234459101812,
                2.0097655225604676,
                -0.8249959509173289,
                0.6854529129823682,
                -3.150843456183428
            ]
        }
    ]
}