{
    "goal": {
        "global_pose": {
            "orientation": {
                "w": 0.5084816217422485,
                "x": -0.49083608388900757,
                "y": 0.5182115435600281,
                "z": -0.4816462993621826
            },
            "position": {
                "x": 0.5540239810943604,
                "y": 0.030875300988554955,
                "z": 0.16403168439865112
            }
        },
        "name": "move_to_storage_A"
    },
    "id": "BFMT_move_to_storage_A_1",
    "joint_names": [
        "shoulder_pan_joint",
        "shoulder_lift_joint",
        "elbow_joint",
        "wrist_1_joint",
        "wrist_2_joint",
        "wrist_3_joint"
    ],
    "metrics": {
        "cart_traj_len": 0.35272416542300433,
        "distance_elbow_joint": 0.4495406499655574,
        "distance_shoulder_lift_joint": 0.23626529883555802,
        "distance_shoulder_pan_joint": 0.4607986232682996,
        "distance_wrist_1_joint": 0.2366946811510372,
        "distance_wrist_2_joint": 1.1010709633058968,
        "distance_wrist_3_joint": 0.1018187749952788,
        "smoothness": 6.661338165333112e-16,
        "time": 0.497543173,
        "traj_len": 1.6081632353469681,
        "weighted_distance": 2.0316476530070657
    },
    "planner": "BFMT",
    "start": {
        "state": {
            "elbow_joint": 1.971548259319323,
            "shoulder_lift_joint": -1.1394851275133948,
            "shoulder_pan_joint": 0.1228115487234821,
            "wrist_1_joint": -0.7804723859257726,
            "wrist_2_joint": 0.12958671773740124,
            "wrist_3_joint": -3.192489227718131
        }
    },
    "waypoints": [
        {
            "positions": [
                0.1228115487234821,
                -1.1394851275133948,
                1.971548259319323,
                -0.7804723859257726,
                0.12958671773740124,
                -3.192489227718131
            ]
        },
        {
            "positions": [
                0.05698317397086787,
                -1.1732373130613316,
                2.0357683521715453,
                -0.8142859118044922,
                0.28688256963824366,
                -3.1779436884330914
            ]
        },
        {
            "positions": [
                -0.00884520078174636,
                -1.2069894986092686,
                2.099988445023768,
                -0.8480994376832118,
                0.44417842153908604,
                -3.1633981491480516
            ]
        },
        {
            "positions": [
                -0.07467357553436058,
                -1.2407416841572054,
                2.1642085378759903,
                -0.8819129635619314,
                0.6014742734399284,
                -3.148852609863012
            ]
        },
        {
            "positions": [
                -0.14050195028697482,
                -1.2744938697051422,
                2.228428630728213,
                -0.915726489440651,
                0.7587701253407708,
                -3.1343070705779716
            ]
        },
        {
            "positions": [
                -0.2063303250395891,
                -1.308246055253079,
                2.2926487235804354,
                -0.9495400153193706,
                0.9160659772416133,
                -3.119761531292932
            ]
        },
        {
            "positions": [
                -0.27215869979220325,
                -1.341998240801016,
                2.356868816432658,
                -0.9833535411980903,
                1.0733618291424556,
                -3.105215992007892
            ]
        },
        {
            "positions": [
                -0.3379870745448175,
                -1.3757504263489528,
                2.4210889092848804,
                -1.0171670670768098,
                1.230657681043298,
                -3.0906704527228523
            ]
        }
    ]
}{
    "goal": {
        "global_pose": {
            "orientation": {
                "w": 0.5084816217422485,
                "x": -0.49083608388900757,
                "y": 0.5182115435600281,
                "z": -0.4816462993621826
            },
            "position": {
                "x": 0.5540239810943604,
                "y": 0.030875300988554955,
                "z": 0.16403168439865112
            }
        },
        "name": "move_to_storage_A"
    },
    "id": "BFMT_move_to_storage_A_1",
    "joint_names": [
        "shoulder_pan_joint",
        "shoulder_lift_joint",
        "elbow_joint",
        "wrist_1_joint",
        "wrist_2_joint",
        "wrist_3_joint"
    ],
    "metrics": {
        "cart_traj_len": 0.3539688127172045,
        "distance_elbow_joint": 0.4518002194741051,
        "distance_shoulder_lift_joint": 0.2335731656445954,
        "distance_shoulder_pan_joint": 0.4608065229955935,
        "distance_wrist_1_joint": 0.251282572593847,
        "distance_wrist_2_joint": 1.109199252979817,
        "distance_wrist_3_joint": 0.09625738160691277,
        "smoothness": 8.881784232165597e-16,
        "time": 0.510288657,
        "traj_len": 1.6133564749598492,
        "weighted_distance": 2.0386063141475748
    },
    "planner": "BFMT",
    "start": {
        "state": {
            "elbow_joint": 1.97154746011099,
            "shoulder_lift_joint": -1.13948474672311,
            "shoulder_pan_joint": 0.12281154466712228,
            "wrist_1_joint": -0.7804688027058302,
            "wrist_2_joint": 0.12958655903071145,
            "wrist_3_joint": 3.0906928834467795
        }
    },
    "waypoints": [
        {
            "positions": [
                0.12281154466712228,
                -1.13948474672311,
                1.97154746011099,
                -0.7804688027058302,
                0.12958655903071145,
                3.0906928834467795
            ]
        },
        {
            "positions": [
                0.056982041382037496,
                -1.172852341815195,
                2.0360903486072908,
                -0.8163663130763797,
                0.2880435951706853,
                3.1044439379620528
            ]
        },
        {
            "positions": [
                -0.00884746190304729,
                -1.2062199369072801,
                2.100633237103591,
                -0.8522638234469293,
                0.4465006313106591,
                3.118194992477326
            ]
        },
        {
            "positions": [
                -0.07467696518813206,
                -1.2395875319993652,
                2.165176125599892,
                -0.8881613338174789,
                0.604957667450633,
                3.1319460469925993
            ]
        },
        {
            "positions": [
                -0.14050646847321685,
                -1.27295512709145,
                2.229719014096193,
                -0.9240588441880284,
                0.7634147035906068,
                3.1456971015078725
            ]
        },
        {
            "positions": [
                -0.20633597175830165,
                -1.3063227221835352,
                2.2942619025924937,
                -0.9599563545585781,
                0.9218717397305807,
                3.1594481560231458
            ]
        },
        {
            "positions": [
                -0.2721654750433864,
                -1.3396903172756203,
                2.358804791088794,
                -0.9958538649291276,
                1.0803287758705544,
                3.173199210538419
            ]
        },
        {
            "positions": [
                -0.3379949783284712,
                -1.3730579123677054,
                2.423347679585095,
                -1.0317513752996772,
                1.2387858120105284,
                3.1869502650536923
            ]
        }
    ]
}{
    "goal": {
        "global_pose": {
            "orientation": {
                "w": 0.5084816217422485,
                "x": -0.49083608388900757,
                "y": 0.5182115435600281,
                "z": -0.4816462993621826
            },
            "position": {
                "x": 0.5540239810943604,
                "y": 0.030875300988554955,
                "z": 0.16403168439865112
            }
        },
        "name": "move_to_storage_A"
    },
    "id": "BFMT_move_to_storage_A_1",
    "joint_names": [
        "shoulder_pan_joint",
        "shoulder_lift_joint",
        "elbow_joint",
        "wrist_1_joint",
        "wrist_2_joint",
        "wrist_3_joint"
    ],
    "metrics": {
        "cart_traj_len": 0.35267415228613697,
        "distance_elbow_joint": 0.4509175686130851,
        "distance_shoulder_lift_joint": 0.233378593676139,
        "distance_shoulder_pan_joint": 0.457809438913255,
        "distance_wrist_1_joint": 0.25284987366737033,
        "distance_wrist_2_joint": 1.1117298233879063,
        "distance_wrist_3_joint": 0.09139635294363924,
        "smoothness": 4.440892098500626e-16,
        "time": 0.48127925099999996,
        "traj_len": 1.6118565851841147,
        "weighted_distance": 2.0360388144983754
    },
    "planner": "BFMT",
    "start": {
        "state": {
            "elbow_joint": 1.9715472970024885,
            "shoulder_lift_joint": -1.1394870060712896,
            "shoulder_pan_joint": 0.12281152778156021,
            "wrist_1_joint": -0.780463741449964,
            "wrist_2_joint": 0.12958659822042276,
            "wrist_3_joint": 3.090690232415272
        }
    },
    "waypoints": [
        {
            "positions": [
                0.12281152778156021,
                -1.1394870060712896,
                1.9715472970024885,
                -0.780463741449964,
                0.12958659822042276,
                3.090690232415272
            ]
        },
        {
            "positions": [
                0.057410179365380926,
                -1.172826805167881,
                2.0359640925186437,
                -0.816585151973874,
                0.2884051444186951,
                3.1037468542643634
            ]
        },
        {
            "positions": [
                -0.007991169050798358,
                -1.206166604264472,
                2.1003808880347985,
                -0.8527065624977841,
                0.44722369061696743,
                3.1168034761134544
            ]
        },
        {
            "positions": [
                -0.07339251746697764,
                -1.2395064033610634,
                2.1647976835509537,
                -0.8888279730216941,
                0.6060422368152397,
                3.129860097962546
            ]
        },
        {
            "positions": [
                -0.13879386588315692,
                -1.2728462024576548,
                2.2292144790671085,
                -0.9249493835456042,
                0.764860783013512,
                3.142916719811637
            ]
        },
        {
            "positions": [
                -0.2041952142993362,
                -1.3061860015542461,
                2.2936312745832637,
                -0.9610707940695142,
                0.9236793292117844,
                3.1559733416607285
            ]
        },
        {
            "positions": [
                -0.26959656271551546,
                -1.3395258006508373,
                2.3580480700994184,
                -0.9971922045934243,
                1.0824978754100567,
                3.1690299635098196
            ]
        },
        {
            "positions": [
                -0.33499791113169475,
                -1.3728655997474286,
                2.4224648656155736,
                -1.0333136151173343,
                1.241316421608329,
                3.182086585358911
            ]
        }
    ]
}