{
    "goal": {
        "global_pose": {
            "orientation": {
                "w": 0.5084816262002911,
                "x": -0.4908360881923452,
                "y": 0.5182115481033761,
                "z": -0.48164630358495003
            },
            "position": {
                "x": 0.5540239810943604,
                "y": -0.46912469901144505,
                "z": 0.16403168439865112
            }
        },
        "name": "move_to_storage_B"
    },
    "id": "BFMT_move_to_storage_B_144",
    "joint_names": [
        "shoulder_pan_joint",
        "shoulder_lift_joint",
        "elbow_joint",
        "wrist_1_joint",
        "wrist_2_joint",
        "wrist_3_joint"
    ],
    "metrics": {
        "cart_traj_len": 0.7947269790788437,
        "distance_elbow_joint": 0.5388015632020458,
        "distance_shoulder_lift_joint": 0.45998574480453125,
        "distance_shoulder_pan_joint": 0.6342882961462816,
        "distance_wrist_1_joint": 2.9819220650385336,
        "distance_wrist_2_joint": 2.7106786366237468,
        "distance_wrist_3_joint": 3.138187055855845,
        "smoothness": 0.07342869405507366,
        "time": 0.6729139470000001,
        "traj_len": 3.2347895390072883,
        "weighted_distance": 4.736331721389979
    },
    "planner": "BFMT",
    "start": {
        "state": {
            "elbow_joint": 1.664937868594044,
            "shoulder_lift_joint": -0.661644460510453,
            "shoulder_pan_joint": -0.9139846352900073,
            "wrist_1_joint": 2.146753192139373,
            "wrist_2_joint": -2.2341966793290973,
            "wrist_3_joint": 0.005466555786416001
        }
    },
    "waypoints": [
        {
            "positions": [
                -0.9139846352900073,
                -0.661644460510453,
                1.664937868594044,
                2.146753192139373,
                -2.2341966793290973,
                0.005466555786416001
            ]
        },
        {
            "positions": [
                -0.9519703364100645,
                -0.6871505913585592,
                1.6979263635057955,
                2.127982628340554,
                -2.163281352721745,
                -0.15988463291519808
            ]
        },
        {
            "positions": [
                -0.9899560375301216,
                -0.7126567222066653,
                1.7309148584175473,
                2.109212064541735,
                -2.092366026114393,
                -0.32523582161681214
            ]
        },
        {
            "positions": [
                -1.0279417386501788,
                -0.7381628530547715,
                1.7639033533292992,
                2.090441500742916,
                -2.0214506995070405,
                -0.4905870103184262
            ]
        },
        {
            "positions": [
                -1.0659274397702359,
                -0.7636689839028776,
                1.7968918482410507,
                2.071670936944096,
                -1.9505353728996886,
                -0.6559381990200404
            ]
        },
        {
            "positions": [
                -1.1039131408902931,
                -0.7891751147509838,
                1.8298803431528023,
                2.052900373145277,
                -1.8796200462923363,
                -0.8212893877216545
            ]
        },
        {
            "positions": [
                -1.1418988420103502,
                -0.8146812455990899,
                1.8628688380645542,
                2.034129809346458,
                -1.8087047196849841,
                -0.9866405764232685
            ]
        },
        {
            "positions": [
                -1.1547721733045286,
                -0.8346072724963802,
                1.880497116600208,
                1.9304969759890633,
                -1.7054247244256082,
                -1.121481089717094
            ]
        },
        {
            "positions": [
                -1.167645504598707,
                -0.8545332993936705,
                1.8981253951358619,
                1.8268641426316687,
                -1.602144729166232,
                -1.2563216030109192
            ]
        },
        {
            "positions": [
                -1.1805188358928855,
                -0.8744593262909608,
                1.9157536736715155,
                1.723231309274274,
                -1.4988647339068562,
                -1.3911621163047445
            ]
        },
        {
            "positions": [
                -1.1933921671870642,
                -0.894385353188251,
                1.9333819522071694,
                1.6195984759168793,
                -1.39558473864748,
                -1.5260026295985698
            ]
        },
        {
            "positions": [
                -1.2062654984812426,
                -0.9143113800855412,
                1.9510102307428232,
                1.5159656425594847,
                -1.292304743388104,
                -1.6608431428923953
            ]
        },
        {
            "positions": [
                -1.219138829775421,
                -0.9342374069828315,
                1.968638509278477,
                1.41233280920209,
                -1.1890247481287282,
                -1.7956836561862206
            ]
        },
        {
            "positions": [
                -1.2320121610695995,
                -0.9541634338801218,
                1.986266787814131,
                1.3086999758446953,
                -1.085744752869352,
                -1.9305241694800461
            ]
        },
        {
            "positions": [
                -1.244885492363778,
                -0.9740894607774121,
                2.0038950663497848,
                1.2050671424873007,
                -0.9824647576099761,
                -2.0653646827738714
            ]
        },
        {
            "positions": [
                -1.2577588236579564,
                -0.9940154876747024,
                2.0215233448854386,
                1.101434309129906,
                -0.8791847623506,
                -2.2002051960676967
            ]
        },
        {
            "positions": [
                -1.270632154952135,
                -1.0139415145719926,
                2.039151623421092,
                0.9978014757725113,
                -0.775904767091224,
                -2.335045709361522
            ]
        },
        {
            "positions": [
                -1.2835054862463133,
                -1.0338675414692828,
                2.056779901956746,
                0.8941686424151167,
                -0.6726247718318479,
                -2.4698862226553473
            ]
        },
        {
            "positions": [
                -1.296378817540492,
                -1.0537935683665731,
                2.0744081804923997,
                0.7905358090577221,
                -0.569344776572472,
                -2.6047267359491726
            ]
        },
        {
            "positions": [
                -1.3092521488346704,
                -1.0737195952638634,
                2.0920364590280536,
                0.6869029757003273,
                -0.4660647813130958,
                -2.7395672492429983
            ]
        },
        {
            "positions": [
                -1.322125480128849,
                -1.0936456221611537,
                2.1096647375637074,
                0.5832701423429327,
                -0.3627847860537198,
                -2.8744077625368236
            ]
        },
        {
            "positions": [
                -1.2938570487154188,
                -1.0971436950553826,
                2.0979054007846596,
                0.40596526543767114,
                -0.25787644313517355,
                -2.9066968547283993
            ]
        },
        {
            "positions": [
                -1.2655886173019888,
                -1.1006417679496114,
                2.0861460640056118,
                0.22866038853240955,
                -0.15296810021662738,
                -2.938985946919975
            ]
        },
        {
            "positions": [
                -1.237320185888559,
                -1.10413984084384,
                2.074386727226564,
                0.05135551162714802,
                -0.04805975729808121,
                -2.9712750391115508
            ]
        },
        {
            "positions": [
                -1.209051754475129,
                -1.107637913738069,
                2.062627390447516,
                -0.12594936527811362,
                0.05684858562046502,
                -3.0035641313031265
            ]
        },
        {
            "positions": [
                -1.1807833230616989,
                -1.1111359866322978,
                2.0508680536684687,
                -0.30325424218337527,
                0.16175692853901125,
                -3.035853223494702
            ]
        },
        {
            "positions": [
                -1.152514891648269,
                -1.1146340595265265,
                2.039108716889421,
                -0.4805591190886367,
                0.26666527145755736,
                -3.068142315686278
            ]
        },
        {
            "positions": [
                -1.124246460234839,
                -1.1181321324207554,
                2.027349380110373,
                -0.6578639959938983,
                0.3715736143761036,
                -3.1004314078778537
            ]
        },
        {
            "positions": [
                -1.095978028821409,
                -1.1216302053149843,
                2.015590043331325,
                -0.8351688728991599,
                0.47648195729464987,
                -3.1327205000694294
            ]
        }
    ]
}