{
    "goal": {
        "global_pose": {
            "orientation": {
                "w": -0.00223480608172531,
                "x": 0.0024358444001904467,
                "y": 0.7094548369677653,
                "z": -0.704743149386269
            },
            "position": {
                "x": 0.6205249238014221,
                "y": -0.6371506643295288,
                "z": 0.19426114857196808
            }
        },
        "name": "move_to_magneteinheit_B"
    },
    "id": "BFMT_move_to_magneteinheit_B_39",
    "joint_names": [
        "shoulder_pan_joint",
        "shoulder_lift_joint",
        "elbow_joint",
        "wrist_1_joint",
        "wrist_2_joint",
        "wrist_3_joint"
    ],
    "metrics": {
        "cart_traj_len": 3.249865742798885,
        "distance_elbow_joint": 4.467856920575283,
        "distance_shoulder_lift_joint": 1.064544415020387,
        "distance_shoulder_pan_joint": 2.1021940571411455,
        "distance_wrist_1_joint": 2.6796833444476817,
        "distance_wrist_2_joint": 3.123699667774829,
        "distance_wrist_3_joint": 1.381412443968445,
        "smoothness": 0.3184452590383779,
        "time": 1.2802960989999999,
        "traj_len": 3.8495961929698246,
        "weighted_distance": 4.835865873769368
    },
    "planner": "BFMT",
    "start": {
        "state": {
            "elbow_joint": 2.6216224122426386,
            "shoulder_lift_joint": -1.4174107377796124,
            "shoulder_pan_joint": 0.7066234856936794,
            "wrist_1_joint": 1.9546482284002225,
            "wrist_2_joint": -0.7096286983471962,
            "wrist_3_joint": 0.005740856962016249
        }
    },
    "waypoints": [
        {
            "positions": [
                0.7066234856936794,
                -1.4174107377796124,
                2.6216224122426386,
                1.9546482284002225,
                -0.7096286983471962,
                0.005740856962016249
            ]
        },
        {
            "positions": [
                0.7946032332972207,
                -1.4699951944193013,
                2.630012505950931,
                2.0333139997294616,
                -0.7979804496945903,
                -0.057629205132419425
            ]
        },
        {
            "positions": [
                0.8825829809007621,
                -1.5225796510589904,
                2.638402599659224,
                2.1119797710587007,
                -0.8863322010419842,
                -0.1209992672268551
            ]
        },
        {
            "positions": [
                0.9705627285043035,
                -1.5751641076986793,
                2.6467926933675168,
                2.19064554238794,
                -0.9746839523893782,
                -0.18436932932129074
            ]
        },
        {
            "positions": [
                1.0585424761078448,
                -1.6277485643383685,
                2.6551827870758093,
                2.269311313717179,
                -1.0630357037367721,
                -0.24773939141572643
            ]
        },
        {
            "positions": [
                1.1465222237113861,
                -1.6803330209780574,
                2.663572880784102,
                2.347977085046418,
                -1.151387455084166,
                -0.31110945351016206
            ]
        },
        {
            "positions": [
                1.2345019713149274,
                -1.7329174776177463,
                2.671962974492395,
                2.426642856375657,
                -1.23973920643156,
                -0.37447951560459775
            ]
        },
        {
            "positions": [
                1.322481718918469,
                -1.7855019342574354,
                2.6803530682006875,
                2.505308627704896,
                -1.3280909577789541,
                -0.43784957769903343
            ]
        },
        {
            "positions": [
                1.41046146652201,
                -1.8380863908971243,
                2.68874316190898,
                2.583974399034135,
                -1.4164427091263483,
                -0.5012196397934692
            ]
        },
        {
            "positions": [
                1.4984412141255516,
                -1.8906708475368132,
                2.6971332556172727,
                2.662640170363374,
                -1.5047944604737422,
                -0.5645897018879049
            ]
        },
        {
            "positions": [
                1.5864209617290927,
                -1.9432553041765024,
                2.7055233493255657,
                2.7413059416926133,
                -1.5931462118211361,
                -0.6279597639823404
            ]
        },
        {
            "positions": [
                1.6744007093326343,
                -1.9958397608161913,
                2.7139134430338583,
                2.8199717130218525,
                -1.68149796316853,
                -0.6913298260767762
            ]
        },
        {
            "positions": [
                1.7300721215026809,
                -2.0075963102715986,
                2.536105590656125,
                2.795204448347774,
                -1.5898787547062718,
                -0.6848824680746879
            ]
        },
        {
            "positions": [
                1.7857435336727274,
                -2.019352859727006,
                2.3582977382783916,
                2.770437183673696,
                -1.4982595462440134,
                -0.6784351100725996
            ]
        },
        {
            "positions": [
                1.8414149458427742,
                -2.0311094091824136,
                2.1804898859006583,
                2.7456699189996177,
                -1.4066403377817551,
                -0.6719877520705113
            ]
        },
        {
            "positions": [
                1.8970863580128208,
                -2.042865958637821,
                2.002682033522925,
                2.7209026543255392,
                -1.3150211293194967,
                -0.665540394068423
            ]
        },
        {
            "positions": [
                1.9527577701828673,
                -2.0546225080932286,
                1.8248741811451916,
                2.6961353896514613,
                -1.2234019208572384,
                -0.6590930360663347
            ]
        },
        {
            "positions": [
                2.008429182352914,
                -2.066379057548636,
                1.6470663287674585,
                2.671368124977383,
                -1.1317827123949802,
                -0.6526456780642464
            ]
        },
        {
            "positions": [
                2.0641005945229605,
                -2.0781356070040435,
                1.4692584763897252,
                2.6466008603033044,
                -1.040163503932722,
                -0.6461983200621582
            ]
        },
        {
            "positions": [
                2.1197720066930072,
                -2.089892156459451,
                1.2914506240119918,
                2.621833595629226,
                -0.9485442954704634,
                -0.6397509620600698
            ]
        },
        {
            "positions": [
                2.175443418863054,
                -2.101648705914858,
                1.1136427716342587,
                2.597066330955148,
                -0.8569250870082051,
                -0.6333036040579815
            ]
        },
        {
            "positions": [
                2.2311148310331004,
                -2.1134052553702656,
                0.9358349192565252,
                2.5722990662810696,
                -0.7653058785459468,
                -0.6268562460558932
            ]
        },
        {
            "positions": [
                2.286786243203147,
                -2.125161804825673,
                0.7580270668787921,
                2.547531801606991,
                -0.6736866700836885,
                -0.6204088880538049
            ]
        },
        {
            "positions": [
                2.3424576553731935,
                -2.1369183542810806,
                0.5802192145010587,
                2.5227645369329132,
                -0.5820674616214301,
                -0.6139615300517166
            ]
        },
        {
            "positions": [
                2.3981290675432403,
                -2.148674903736488,
                0.4024113621233254,
                2.497997272258835,
                -0.4904482531591718,
                -0.6075141720496283
            ]
        },
        {
            "positions": [
                2.4287263711504976,
                -2.164556735807255,
                0.24604943089602724,
                2.426432441538761,
                -0.41066471557478673,
                -0.5785881171186189
            ]
        },
        {
            "positions": [
                2.459323674757755,
                -2.180438567878022,
                0.08968749966872908,
                2.354867610818687,
                -0.33088117799040173,
                -0.5496620621876094
            ]
        },
        {
            "positions": [
                2.4899209783650122,
                -2.196320399948789,
                -0.066674431558569,
                2.2833027800986128,
                -0.2510976404060167,
                -0.5207360072566
            ]
        },
        {
            "positions": [
                2.5205182819722696,
                -2.2122022320195556,
                -0.22303636278586725,
                2.2117379493785387,
                -0.17131410282163162,
                -0.49180995232559055
            ]
        },
        {
            "positions": [
                2.551115585579527,
                -2.228084064090323,
                -0.3793982940131654,
                2.140173118658465,
                -0.09153056523724656,
                -0.4628838973945811
            ]
        },
        {
            "positions": [
                2.5817128891867838,
                -2.2439658961610895,
                -0.5357602252404634,
                2.068608287938391,
                -0.011747027652861564,
                -0.4339578424635716
            ]
        },
        {
            "positions": [
                2.612310192794041,
                -2.2598477282318568,
                -0.6921221564677618,
                1.997043457218317,
                0.06803650993152349,
                -0.4050317875325622
            ]
        },
        {
            "positions": [
                2.6429074964012984,
                -2.2757295603026235,
                -0.8484840876950599,
                1.925478626498243,
                0.14782004751590855,
                -0.3761057326015527
            ]
        },
        {
            "positions": [
                2.6735048000085557,
                -2.2916113923733903,
                -1.004846018922358,
                1.853913795778169,
                0.22760358510029371,
                -0.34717967767054325
            ]
        },
        {
            "positions": [
                2.704102103615813,
                -2.3074932244441575,
                -1.1612079501496562,
                1.782348965058095,
                0.30738712268467866,
                -0.31825362273953384
            ]
        },
        {
            "positions": [
                2.7346994072230704,
                -2.3233750565149243,
                -1.3175698813769543,
                1.710784134338021,
                0.38717066026906377,
                -0.28932756780852437
            ]
        },
        {
            "positions": [
                2.718448473383775,
                -2.3582175078208767,
                -1.3932240581523283,
                1.5557376861983074,
                0.40540160297988964,
                -0.2269272630319154
            ]
        },
        {
            "positions": [
                2.7021975395444793,
                -2.3930599591268296,
                -1.468878234927702,
                1.4006912380585939,
                0.4236325456907155,
                -0.16452695825530644
            ]
        },
        {
            "positions": [
                2.6859466057051837,
                -2.427902410432782,
                -1.5445324117030759,
                1.2456447899188803,
                0.4418634884015413,
                -0.10212665347869748
            ]
        },
        {
            "positions": [
                2.669695671865888,
                -2.4627448617387344,
                -1.6201865884784499,
                1.0905983417791667,
                0.4600944311123672,
                -0.03972634870208851
            ]
        },
        {
            "positions": [
                2.6605812716113157,
                -2.4819551527999995,
                -1.6616524467502032,
                1.0056118531958003,
                0.4703324397849665,
                -0.006988065147124261
            ]
        }
    ]
}