{
    "goal": {
        "global_pose": {
            "orientation": {
                "w": 0.7031023480610252,
                "x": -0.7110244013736278,
                "y": 0.0077485991402295624,
                "z": 0.005598929693374583
            },
            "position": {
                "x": -0.8841497679147869,
                "y": 0.44412534475326537,
                "z": 0.3711530566215515
            }
        },
        "name": "move_to_auspresseinheit_D"
    },
    "id": "BFMT_move_to_auspresseinheit_D_74",
    "joint_names": [
        "shoulder_pan_joint",
        "shoulder_lift_joint",
        "elbow_joint",
        "wrist_1_joint",
        "wrist_2_joint",
        "wrist_3_joint"
    ],
    "metrics": {
        "cart_traj_len": 0.34322313532495896,
        "distance_elbow_joint": 0.632340158968616,
        "distance_shoulder_lift_joint": 0.11761840992294292,
        "distance_shoulder_pan_joint": 0.13415225629062386,
        "distance_wrist_1_joint": 0.5117285125575939,
        "distance_wrist_2_joint": 1.4334414055514042,
        "distance_wrist_3_joint": 0.025156619206693875,
        "smoothness": 0.0,
        "time": 0.504016952,
        "traj_len": 1.689508023803934,
        "weighted_distance": 2.2022535092537057
    },
    "planner": "BFMT",
    "start": {
        "state": {
            "elbow_joint": -1.8275523626775212,
            "shoulder_lift_joint": -2.126789852344167,
            "shoulder_pan_joint": -0.03513704404078235,
            "wrist_1_joint": -2.347782403156801,
            "wrist_2_joint": -1.6058999987535132,
            "wrist_3_joint": -3.0880379163319196
        }
    },
    "waypoints": [
        {
            "positions": [
                -0.03513704404078235,
                -2.126789852344167,
                -1.8275523626775212,
                -2.347782403156801,
                -1.6058999987535132,
                -3.0880379163319196
            ]
        },
        {
            "positions": [
                -0.05190607607711033,
                -2.141492153584535,
                -1.7485098428064443,
                -2.4117484672265,
                -1.4267198230595877,
                -3.0911824937327563
            ]
        },
        {
            "positions": [
                -0.06867510811343831,
                -2.1561944548249024,
                -1.6694673229353671,
                -2.4757145312961994,
                -1.2475396473656621,
                -3.094327071133593
            ]
        },
        {
            "positions": [
                -0.08544414014976628,
                -2.1708967560652703,
                -1.5904248030642902,
                -2.5396805953658985,
                -1.0683594716717366,
                -3.09747164853443
            ]
        },
        {
            "positions": [
                -0.10221317218609427,
                -2.1855990573056383,
                -1.511382283193213,
                -2.603646659435598,
                -0.8891792959778111,
                -3.1006162259352665
            ]
        },
        {
            "positions": [
                -0.11898220422242226,
                -2.2003013585460063,
                -1.4323397633221362,
                -2.667612723505297,
                -0.7099991202838856,
                -3.1037608033361033
            ]
        },
        {
            "positions": [
                -0.13575123625875024,
                -2.2150036597863743,
                -1.3532972434510593,
                -2.731578787574996,
                -0.53081894458996,
                -3.10690538073694
            ]
        },
        {
            "positions": [
                -0.15252026829507823,
                -2.229705961026742,
                -1.2742547235799822,
                -2.7955448516446957,
                -0.3516387688960345,
                -3.1100499581377767
            ]
        },
        {
            "positions": [
                -0.1692893003314062,
                -2.2444082622671098,
                -1.1952122037089052,
                -2.8595109157143948,
                -0.17245859320210893,
                -3.1131945355386135
            ]
        }
    ]
}