{
    "goal": {
        "global_pose": {
            "orientation": {
                "w": 0.7047431468963623,
                "x": -0.7094548344612122,
                "y": 0.0024358443915843964,
                "z": -0.0022348060738295317
            },
            "position": {
                "x": 0.6094750761985779,
                "y": 0.3671506643295288,
                "z": 0.19426114857196808
            }
        },
        "name": "move_to_magneteinheit_A"
    },
    "id": "BFMT_move_to_magneteinheit_A_135",
    "joint_names": [
        "shoulder_pan_joint",
        "shoulder_lift_joint",
        "elbow_joint",
        "wrist_1_joint",
        "wrist_2_joint",
        "wrist_3_joint"
    ],
    "metrics": {
        "cart_traj_len": 4.115833740400418,
        "distance_elbow_joint": 3.9063777025483035,
        "distance_shoulder_lift_joint": 0.629710439915693,
        "distance_shoulder_pan_joint": 2.9341367047786835,
        "distance_wrist_1_joint": 1.2403485600653261,
        "distance_wrist_2_joint": 1.8653741352467268,
        "distance_wrist_3_joint": 3.0442259851384845,
        "smoothness": 0.33057737493304407,
        "time": 0.9301703,
        "traj_len": 3.690551927245194,
        "weighted_distance": 4.776436767432626
    },
    "planner": "BFMT",
    "start": {
        "state": {
            "elbow_joint": -1.9196185241190666,
            "shoulder_lift_joint": -1.2443396400964142,
            "shoulder_pan_joint": 2.6996025414629847,
            "wrist_1_joint": -1.5485510000780065,
            "wrist_2_joint": -1.5709468930060704,
            "wrist_3_joint": 0.4420197071253992
        }
    },
    "waypoints": [
        {
            "positions": [
                2.6996025414629847,
                -1.2443396400964142,
                -1.9196185241190666,
                -1.5485510000780065,
                -1.5709468930060704,
                0.4420197071253992
            ]
        },
        {
            "positions": [
                2.5784407160240135,
                -1.2489171891469555,
                -1.9006130280608846,
                -1.52865303224822,
                -1.4920246327822753,
                0.5782534358438056
            ]
        },
        {
            "positions": [
                2.457278890585042,
                -1.253494738197497,
                -1.8816075320027026,
                -1.5087550644184333,
                -1.4131023725584801,
                0.7144871645622122
            ]
        },
        {
            "positions": [
                2.3361170651460705,
                -1.2580722872480383,
                -1.8626020359445203,
                -1.488857096588647,
                -1.334180112334685,
                0.8507208932806186
            ]
        },
        {
            "positions": [
                2.2149552397070993,
                -1.2626498362985796,
                -1.8435965398863383,
                -1.4689591287588604,
                -1.2552578521108897,
                0.9869546219990252
            ]
        },
        {
            "positions": [
                2.093793414268128,
                -1.2672273853491212,
                -1.8245910438281563,
                -1.4490611609290738,
                -1.1763355918870948,
                1.1231883507174316
            ]
        },
        {
            "positions": [
                1.9726315888291566,
                -1.2718049343996625,
                -1.8055855477699743,
                -1.4291631930992872,
                -1.0974133316632995,
                1.2594220794358382
            ]
        },
        {
            "positions": [
                1.851469763390185,
                -1.276382483450204,
                -1.7865800517117922,
                -1.4092652252695006,
                -1.0184910714395046,
                1.3956558081542445
            ]
        },
        {
            "positions": [
                1.7303079379512138,
                -1.2809600325007453,
                -1.76757455565361,
                -1.389367257439714,
                -0.9395688112157092,
                1.5318895368726513
            ]
        },
        {
            "positions": [
                1.6091461125122424,
                -1.2855375815512866,
                -1.748569059595428,
                -1.3694692896099276,
                -0.8606465509919141,
                1.6681232655910576
            ]
        },
        {
            "positions": [
                1.4879842870732711,
                -1.2901151306018281,
                -1.729563563537246,
                -1.349571321780141,
                -0.781724290768119,
                1.804356994309464
            ]
        },
        {
            "positions": [
                1.3668224616342997,
                -1.2946926796523694,
                -1.710558067479064,
                -1.3296733539503545,
                -0.7028020305443239,
                1.9405907230278707
            ]
        },
        {
            "positions": [
                1.2956883276159912,
                -1.2765342151493562,
                -1.5455525845226965,
                -1.3433154817497353,
                -0.6569623845722843,
                2.0095993077808316
            ]
        },
        {
            "positions": [
                1.2245541935976827,
                -1.2583757506463429,
                -1.380547101566329,
                -1.356957609549116,
                -0.6111227386002448,
                2.0786078925337925
            ]
        },
        {
            "positions": [
                1.1534200595793742,
                -1.2402172861433294,
                -1.2155416186099615,
                -1.3705997373484968,
                -0.5652830926282052,
                2.1476164772867534
            ]
        },
        {
            "positions": [
                1.0822859255610657,
                -1.222058821640316,
                -1.050536135653594,
                -1.3842418651478776,
                -0.5194434466561657,
                2.2166250620397143
            ]
        },
        {
            "positions": [
                1.0111517915427575,
                -1.2039003571373028,
                -0.8855306526972266,
                -1.3978839929472584,
                -0.4736038006841261,
                2.2856336467926752
            ]
        },
        {
            "positions": [
                0.940017657524449,
                -1.1857418926342893,
                -0.7205251697408592,
                -1.4115261207466392,
                -0.42776415471208656,
                2.354642231545636
            ]
        },
        {
            "positions": [
                0.8688835235061405,
                -1.167583428131276,
                -0.5555196867844918,
                -1.42516824854602,
                -0.381924508740047,
                2.423650816298597
            ]
        },
        {
            "positions": [
                0.7977493894878319,
                -1.1494249636282627,
                -0.3905142038281242,
                -1.4388103763454008,
                -0.3360848627680074,
                2.492659401051558
            ]
        },
        {
            "positions": [
                0.7266152554695235,
                -1.1312664991252495,
                -0.22550872087175677,
                -1.4524525041447816,
                -0.2902452167959679,
                2.561667985804519
            ]
        },
        {
            "positions": [
                0.6554811214512151,
                -1.1131080346222362,
                -0.06050323791538936,
                -1.4660946319441623,
                -0.24440557082392833,
                2.6306765705574797
            ]
        },
        {
            "positions": [
                0.5843469874329066,
                -1.0949495701192227,
                0.10450224504097827,
                -1.4797367597435434,
                -0.19856592485188873,
                2.6996851553104406
            ]
        },
        {
            "positions": [
                0.5132128534145982,
                -1.0767911056162094,
                0.26950772799734546,
                -1.4933788875429241,
                -0.15272627887984924,
                2.7686937400634015
            ]
        },
        {
            "positions": [
                0.4420787193962896,
                -1.058632641113196,
                0.4345132109537131,
                -1.507021015342305,
                -0.10688663290780964,
                2.8377023248163624
            ]
        },
        {
            "positions": [
                0.37094458537798125,
                -1.0404741766101826,
                0.5995186939100803,
                -1.5206631431416857,
                -0.06104698693577015,
                2.9067109095693233
            ]
        },
        {
            "positions": [
                0.29981045135967266,
                -1.0223157121071693,
                0.7645241768664479,
                -1.5343052709410665,
                -0.015207340963730553,
                2.975719494322284
            ]
        },
        {
            "positions": [
                0.22867631734136418,
                -1.004157247604156,
                0.9295296598228155,
                -1.5479473987404473,
                0.030632305008309046,
                3.044728079075245
            ]
        },
        {
            "positions": [
                0.15754218332305592,
                -0.9859987831011428,
                1.0945351427791827,
                -1.561589526539828,
                0.07647195098034854,
                3.113736663828206
            ]
        },
        {
            "positions": [
                0.08640804930474744,
                -0.9678403185981294,
                1.2595406257355504,
                -1.5752316543392089,
                0.12231159695238814,
                3.182745248581167
            ]
        },
        {
            "positions": [
                0.015273915286438955,
                -0.949681854095116,
                1.4245461086919176,
                -1.5888737821385897,
                0.16815124292442762,
                3.251753833334128
            ]
        },
        {
            "positions": [
                -0.05586021873186964,
                -0.9315233895921027,
                1.589551591648285,
                -1.6025159099379704,
                0.21399088889646722,
                3.3207624180870887
            ]
        },
        {
            "positions": [
                -0.020125429815103575,
                -0.9747610116519969,
                1.6689931090044754,
                -1.4527902383479587,
                0.1979036182276294,
                3.28766576325173
            ]
        },
        {
            "positions": [
                0.015609359101662487,
                -1.0179986337118911,
                1.748434626360666,
                -1.3030645667579472,
                0.18181634755879153,
                3.2545691084163706
            ]
        },
        {
            "positions": [
                0.05134414801842853,
                -1.0612362557717852,
                1.8278761437168565,
                -1.1533388951679355,
                0.1657290768899537,
                3.2214724535810118
            ]
        },
        {
            "positions": [
                0.08707893693519461,
                -1.1044738778316794,
                1.9073176610730471,
                -1.0036132235779238,
                0.14964180622111584,
                3.1883757987456525
            ]
        },
        {
            "positions": [
                0.12281372585196064,
                -1.1477114998915736,
                1.9867591784292375,
                -0.8538875519879122,
                0.133554535552278,
                3.1552791439102936
            ]
        }
    ]
}