{
    "goal": {
        "global_pose": {
            "orientation": {
                "w": 0.7031023502349854,
                "x": -0.7110244035720825,
                "y": 0.007748599164187908,
                "z": 0.005598929710686207
            },
            "position": {
                "x": 0.11585023208521307,
                "y": 0.44412534475326537,
                "z": 0.3711530566215515
            }
        },
        "name": "move_to_auspresseinheit_A"
    },
    "id": "BFMT_move_to_auspresseinheit_A_34",
    "joint_names": [
        "shoulder_pan_joint",
        "shoulder_lift_joint",
        "elbow_joint",
        "wrist_1_joint",
        "wrist_2_joint",
        "wrist_3_joint"
    ],
    "metrics": {
        "cart_traj_len": 0.691205309955697,
        "distance_elbow_joint": 0.05214519216311553,
        "distance_shoulder_lift_joint": 0.8824370637496413,
        "distance_shoulder_pan_joint": 1.0480697550657787,
        "distance_wrist_1_joint": 0.8373776596480677,
        "distance_wrist_2_joint": 0.5170007947080474,
        "distance_wrist_3_joint": 0.14664671475247504,
        "smoothness": 1.0677527415772667,
        "time": 0.5306884970000001,
        "traj_len": 1.8664611381132814,
        "weighted_distance": 2.265248124146269
    },
    "planner": "BFMT",
    "start": {
        "state": {
            "elbow_joint": 2.4225746658250005,
            "shoulder_lift_joint": -1.3736534386056498,
            "shoulder_pan_joint": -0.3378633547517467,
            "wrist_1_joint": -1.0288598680537169,
            "wrist_2_joint": 1.233022673432363,
            "wrist_3_joint": -3.0940220416140027
        }
    },
    "waypoints": [
        {
            "positions": [
                -0.3378633547517467,
                -1.3736534386056498,
                2.4225746658250005,
                -1.0288598680537169,
                1.233022673432363,
                -3.0940220416140027
            ]
        },
        {
            "positions": [
                -0.21853792681341488,
                -1.4746508484003336,
                2.4239294882398155,
                -0.9279099853304685,
                1.2135074173909792,
                -3.1086539147013834
            ]
        },
        {
            "positions": [
                -0.09921249887508304,
                -1.5756482581950175,
                2.4252843106546305,
                -0.8269601026072202,
                1.1939921613495954,
                -3.1232857877887636
            ]
        },
        {
            "positions": [
                0.020112929063248797,
                -1.6766456679897013,
                2.4266391330694455,
                -0.726010219883972,
                1.1744769053082116,
                -3.1379176608761443
            ]
        },
        {
            "positions": [
                0.13943835700158064,
                -1.777643077784385,
                2.427993955484261,
                -0.6250603371607236,
                1.1549616492668275,
                -3.152549533963525
            ]
        },
        {
            "positions": [
                0.25876378493991253,
                -1.878640487579069,
                2.429348777899076,
                -0.5241104544374753,
                1.1354463932254437,
                -3.1671814070509057
            ]
        },
        {
            "positions": [
                0.3780892128782443,
                -1.9796378973737525,
                2.430703600313891,
                -0.42316057171422694,
                1.11593113718406,
                -3.181813280138286
            ]
        },
        {
            "positions": [
                0.49741464081657616,
                -2.0806353071684365,
                2.432058422728706,
                -0.3222106889909786,
                1.096415881142676,
                -3.1964451532256666
            ]
        },
        {
            "positions": [
                0.5683452273157281,
                -2.0221502421061515,
                2.4178379443089026,
                -0.3657868491860884,
                0.9696178803365559,
                -3.1817039521787294
            ]
        },
        {
            "positions": [
                0.6392758138148801,
                -1.9636651770438667,
                2.403617465889099,
                -0.40936300938119813,
                0.8428198795304358,
                -3.1669627511317926
            ]
        },
        {
            "positions": [
                0.710206400314032,
                -1.9051801119815819,
                2.3893969874692957,
                -0.4529391695763079,
                0.7160218787243157,
                -3.1522215500848554
            ]
        }
    ]
}