{
    "goal": {
        "global_pose": {
            "orientation": {
                "w": -0.4816463035849501,
                "x": 0.5182115481033762,
                "y": 0.4908360881923453,
                "z": -0.5084816262002911
            },
            "position": {
                "x": -0.8240239810943604,
                "y": 0.19912469901144506,
                "z": 0.16403168439865112
            }
        },
        "name": "move_to_storage_D"
    },
    "id": "BFMT_move_to_storage_D_148",
    "joint_names": [
        "shoulder_pan_joint",
        "shoulder_lift_joint",
        "elbow_joint",
        "wrist_1_joint",
        "wrist_2_joint",
        "wrist_3_joint"
    ],
    "metrics": {
        "cart_traj_len": 3.8413233744889106,
        "distance_elbow_joint": 4.21235371296021,
        "distance_shoulder_lift_joint": 1.26329011094451,
        "distance_shoulder_pan_joint": 3.1290581886571194,
        "distance_wrist_1_joint": 2.27225403075236,
        "distance_wrist_2_joint": 0.8729592044269295,
        "distance_wrist_3_joint": 3.140926436535112,
        "smoothness": 0.023809409859061197,
        "time": 0.92578792,
        "traj_len": 3.8588653363749605,
        "weighted_distance": 4.931319072269179
    },
    "planner": "BFMT",
    "start": {
        "state": {
            "elbow_joint": -2.384821988534728,
            "shoulder_lift_joint": -2.2788054721415256,
            "shoulder_pan_joint": -0.1854694642142757,
            "wrist_1_joint": 1.4845938289331202,
            "wrist_2_joint": 0.17898776772866878,
            "wrist_3_joint": 0.037105688729662994
        }
    },
    "waypoints": [
        {
            "positions": [
                -0.1854694642142757,
                -2.2788054721415256,
                -2.384821988534728,
                1.4845938289331202,
                0.17898776772866878,
                0.037105688729662994
            ]
        },
        {
            "positions": [
                -0.06662907215464602,
                -2.2444498825619443,
                -2.285581543458203,
                1.4575136734964782,
                0.20847023023998457,
                0.11144869552204897
            ]
        },
        {
            "positions": [
                0.05221131990498368,
                -2.2100942929823626,
                -2.1863410983816784,
                1.4304335180598362,
                0.23795269275130038,
                0.18579170231443495
            ]
        },
        {
            "positions": [
                0.17105171196461336,
                -2.1757387034027813,
                -2.0871006533051535,
                1.4033533626231942,
                0.2674351552626162,
                0.2601347091068209
            ]
        },
        {
            "positions": [
                0.28989210402424304,
                -2.1413831138231996,
                -1.9878602082286285,
                1.3762732071865522,
                0.296917617773932,
                0.33447771589920694
            ]
        },
        {
            "positions": [
                0.40873249608387274,
                -2.1070275242436183,
                -1.8886197631521038,
                1.3491930517499102,
                0.3264000802852478,
                0.40882072269159286
            ]
        },
        {
            "positions": [
                0.5275728881435024,
                -2.0726719346640365,
                -1.789379318075579,
                1.3221128963132682,
                0.35588254279656356,
                0.4831637294839788
            ]
        },
        {
            "positions": [
                0.6464132802031323,
                -2.0383163450844553,
                -1.690138872999054,
                1.2950327408766262,
                0.38536500530787937,
                0.5575067362763649
            ]
        },
        {
            "positions": [
                0.7652536722627619,
                -2.003960755504874,
                -1.5908984279225291,
                1.2679525854399842,
                0.4148474678191951,
                0.6318497430687509
            ]
        },
        {
            "positions": [
                0.8840940643223915,
                -1.9696051659252922,
                -1.4916579828460044,
                1.2408724300033422,
                0.44432993033051094,
                0.7061927498611368
            ]
        },
        {
            "positions": [
                1.002934456382021,
                -1.935249576345711,
                -1.3924175377694796,
                1.2137922745667,
                0.47381239284182675,
                0.7805357566535228
            ]
        },
        {
            "positions": [
                1.1217748484416508,
                -1.9008939867661294,
                -1.2931770926929547,
                1.186712119130058,
                0.5032948553531426,
                0.8548787634459087
            ]
        },
        {
            "positions": [
                1.2406152405012805,
                -1.866538397186548,
                -1.19393664761643,
                1.159631963693416,
                0.5327773178644584,
                0.9292217702382947
            ]
        },
        {
            "positions": [
                1.3594556325609102,
                -1.8321828076069664,
                -1.094696202539905,
                1.132551808256774,
                0.5622597803757742,
                1.0035647770306806
            ]
        },
        {
            "positions": [
                1.47829602462054,
                -1.7978272180273849,
                -0.99545575746338,
                1.105471652820132,
                0.59174224288709,
                1.0779077838230668
            ]
        },
        {
            "positions": [
                1.5971364166801696,
                -1.7634716284478036,
                -0.8962153123868555,
                1.07839149738349,
                0.6212247053984057,
                1.1522507906154527
            ]
        },
        {
            "positions": [
                1.7159768087397993,
                -1.7291160388682218,
                -0.7969748673103305,
                1.051311341946848,
                0.6507071679097215,
                1.2265937974078387
            ]
        },
        {
            "positions": [
                1.8348172007994292,
                -1.6947604492886406,
                -0.6977344222338056,
                1.024231186510206,
                0.6801896304210373,
                1.3009368042002247
            ]
        },
        {
            "positions": [
                1.9536575928590585,
                -1.660404859709059,
                -0.5984939771572808,
                0.9971510310735641,
                0.7096720929323531,
                1.3752798109926105
            ]
        },
        {
            "positions": [
                2.072497984918688,
                -1.6260492701294775,
                -0.49925353208075607,
                0.9700708756369221,
                0.7391545554436689,
                1.4496228177849966
            ]
        },
        {
            "positions": [
                2.191338376978318,
                -1.591693680549896,
                -0.4000130870042311,
                0.94299072020028,
                0.7686370179549847,
                1.5239658245773826
            ]
        },
        {
            "positions": [
                2.3101787690379476,
                -1.5573380909703145,
                -0.30077264192770636,
                0.9159105647636381,
                0.7981194804663004,
                1.5983088313697684
            ]
        },
        {
            "positions": [
                2.4290191610975773,
                -1.5229825013907332,
                -0.2015321968511814,
                0.888830409326996,
                0.8276019429776162,
                1.6726518381621545
            ]
        },
        {
            "positions": [
                2.547859553157207,
                -1.4886269118111515,
                -0.10229175177465644,
                0.861750253890354,
                0.8570844054889322,
                1.7469948449545405
            ]
        },
        {
            "positions": [
                2.6666999452168367,
                -1.4542713222315702,
                -0.003051306698131917,
                0.834670098453712,
                0.8865668680002479,
                1.8213378517469263
            ]
        },
        {
            "positions": [
                2.7855403372764664,
                -1.4199157326519887,
                0.09618913837839319,
                0.80758994301707,
                0.9160493305115637,
                1.8956808585393123
            ]
        },
        {
            "positions": [
                2.774251166764582,
                -1.3910299918337763,
                0.21985646595318523,
                0.6936435041001907,
                0.9257563049147091,
                1.987277377591131
            ]
        },
        {
            "positions": [
                2.7629619962526983,
                -1.362144251015564,
                0.34352379352797724,
                0.5796970651833114,
                0.9354632793178543,
                2.07887389664295
            ]
        },
        {
            "positions": [
                2.751672825740814,
                -1.3332585101973515,
                0.4671911211027693,
                0.4657506262664321,
                0.9451702537209996,
                2.1704704156947687
            ]
        },
        {
            "positions": [
                2.7403836552289302,
                -1.3043727693791392,
                0.5908584486775613,
                0.3518041873495528,
                0.954877228124145,
                2.2620669347465876
            ]
        },
        {
            "positions": [
                2.729094484717046,
                -1.2754870285609268,
                0.7145257762523534,
                0.2378577484326735,
                0.9645842025272904,
                2.353663453798406
            ]
        },
        {
            "positions": [
                2.717805314205162,
                -1.2466012877427146,
                0.8381931038271454,
                0.12391130951579421,
                0.9742911769304357,
                2.445259972850225
            ]
        },
        {
            "positions": [
                2.706516143693278,
                -1.2177155469245022,
                0.9618604314019374,
                0.009964870598914932,
                0.9839981513335809,
                2.5368564919020438
            ]
        },
        {
            "positions": [
                2.6952269731813936,
                -1.1888298061062899,
                1.0855277589767296,
                -0.10398156831796435,
                0.9937051257367263,
                2.628453010953862
            ]
        },
        {
            "positions": [
                2.6839378026695098,
                -1.1599440652880775,
                1.2091950865515217,
                -0.21792800723484362,
                1.0034121001398717,
                2.7200495300056815
            ]
        },
        {
            "positions": [
                2.6726486321576255,
                -1.131058324469865,
                1.3328624141263137,
                -0.331874446151723,
                1.013119074543017,
                2.8116460490575
            ]
        },
        {
            "positions": [
                2.6613594616457417,
                -1.1021725836516527,
                1.4565297417011056,
                -0.4458208850686022,
                1.0228260489461622,
                2.9032425681093184
            ]
        },
        {
            "positions": [
                2.6500702911338574,
                -1.0732868428334403,
                1.5801970692758978,
                -0.5597673239854816,
                1.0325330233493077,
                2.9948390871611377
            ]
        },
        {
            "positions": [
                2.6387811206219736,
                -1.044401102015228,
                1.70386439685069,
                -0.673713762902361,
                1.042239997752453,
                3.086435606212956
            ]
        },
        {
            "positions": [
                2.6274919501100893,
                -1.0155153611970156,
                1.8275317244254818,
                -0.7876602018192401,
                1.0519469721555983,
                3.178032125264775
            ]
        }
    ]
}