{
    "goal": {
        "global_pose": {
            "orientation": {
                "w": 0.7047431468963623,
                "x": -0.7094548344612122,
                "y": 0.0024358443915843964,
                "z": -0.0022348060738295317
            },
            "position": {
                "x": 0.6094750761985779,
                "y": 0.3671506643295288,
                "z": 0.19426114857196808
            }
        },
        "name": "move_to_magneteinheit_A"
    },
    "id": "BFMT_move_to_magneteinheit_A_93",
    "joint_names": [
        "shoulder_pan_joint",
        "shoulder_lift_joint",
        "elbow_joint",
        "wrist_1_joint",
        "wrist_2_joint",
        "wrist_3_joint"
    ],
    "metrics": {
        "cart_traj_len": 3.6370730072706983,
        "distance_elbow_joint": 3.8734641625572546,
        "distance_shoulder_lift_joint": 0.5491615219328831,
        "distance_shoulder_pan_joint": 2.6737448169202125,
        "distance_wrist_1_joint": 0.8482913490665709,
        "distance_wrist_2_joint": 1.6927352984172348,
        "distance_wrist_3_joint": 2.5698728955027823,
        "smoothness": 0.051158021792893034,
        "time": 1.035462366,
        "traj_len": 3.493890388148566,
        "weighted_distance": 4.459601157377901
    },
    "planner": "BFMT",
    "start": {
        "state": {
            "elbow_joint": -1.9196185241190666,
            "shoulder_lift_joint": -1.2443396400964142,
            "shoulder_pan_joint": 2.6996025414629847,
            "wrist_1_joint": -1.5485510000780065,
            "wrist_2_joint": -1.5709468930060704,
            "wrist_3_joint": 0.4420197071253992
        }
    },
    "waypoints": [
        {
            "positions": [
                2.6996025414629847,
                -1.2443396400964142,
                -1.9196185241190666,
                -1.5485510000780065,
                -1.5709468930060704,
                0.4420197071253992
            ]
        },
        {
            "positions": [
                2.5986218970997665,
                -1.231548652928921,
                -1.8265123384375233,
                -1.5191313410505578,
                -1.5177835620678322,
                0.5341942942341525
            ]
        },
        {
            "positions": [
                2.4976412527365484,
                -1.218757665761428,
                -1.7334061527559799,
                -1.4897116820231089,
                -1.4646202311295942,
                0.6263688813429059
            ]
        },
        {
            "positions": [
                2.39666060837333,
                -1.205966678593935,
                -1.6402999670744367,
                -1.4602920229956602,
                -1.411456900191356,
                0.7185434684516592
            ]
        },
        {
            "positions": [
                2.295679964010112,
                -1.1931756914264418,
                -1.5471937813928933,
                -1.4308723639682113,
                -1.3582935692531177,
                0.8107180555604125
            ]
        },
        {
            "positions": [
                2.194699319646894,
                -1.1803847042589486,
                -1.45408759571135,
                -1.4014527049407626,
                -1.3051302383148797,
                0.9028926426691659
            ]
        },
        {
            "positions": [
                2.093718675283676,
                -1.1675937170914557,
                -1.3609814100298065,
                -1.3720330459133137,
                -1.2519669073766415,
                0.9950672297779193
            ]
        },
        {
            "positions": [
                1.9927380309204576,
                -1.1548027299239625,
                -1.2678752243482634,
                -1.342613386885865,
                -1.1988035764384035,
                1.0872418168866727
            ]
        },
        {
            "positions": [
                1.8917573865572395,
                -1.1420117427564693,
                -1.17476903866672,
                -1.3131937278584163,
                -1.1456402455001653,
                1.179416403995426
            ]
        },
        {
            "positions": [
                1.7907767421940215,
                -1.1292207555889762,
                -1.0816628529851766,
                -1.2837740688309673,
                -1.092476914561927,
                1.2715909911041794
            ]
        },
        {
            "positions": [
                1.689796097830803,
                -1.1164297684214832,
                -0.9885566673036332,
                -1.2543544098035186,
                -1.0393135836236889,
                1.3637655782129328
            ]
        },
        {
            "positions": [
                1.5888154534675851,
                -1.10363878125399,
                -0.8954504816220901,
                -1.2249347507760697,
                -0.9861502526854509,
                1.4559401653216861
            ]
        },
        {
            "positions": [
                1.487834809104367,
                -1.090847794086497,
                -0.8023442959405465,
                -1.195515091748621,
                -0.9329869217472126,
                1.5481147524304393
            ]
        },
        {
            "positions": [
                1.3868541647411488,
                -1.0780568069190037,
                -0.7092381102590033,
                -1.166095432721172,
                -0.8798235908089745,
                1.6402893395391929
            ]
        },
        {
            "positions": [
                1.2858735203779306,
                -1.0652658197515108,
                -0.6161319245774601,
                -1.1366757736937234,
                -0.8266602598707364,
                1.732463926647946
            ]
        },
        {
            "positions": [
                1.1848928760147126,
                -1.0524748325840176,
                -0.5230257388959167,
                -1.1072561146662747,
                -0.7734969289324983,
                1.8246385137566992
            ]
        },
        {
            "positions": [
                1.0839122316514942,
                -1.0396838454165245,
                -0.42991955321437314,
                -1.0778364556388258,
                -0.7203335979942601,
                1.9168131008654528
            ]
        },
        {
            "positions": [
                0.9829315872882762,
                -1.0268928582490315,
                -0.33681336753283,
                -1.048416796611377,
                -0.667170267056022,
                2.0089876879742063
            ]
        },
        {
            "positions": [
                0.881950942925058,
                -1.0141018710815384,
                -0.2437071818512866,
                -1.0189971375839284,
                -0.6140069361177839,
                2.1011622750829595
            ]
        },
        {
            "positions": [
                0.7809702985618399,
                -1.0013108839140452,
                -0.15060099616974343,
                -0.9895774785564795,
                -0.5608436051795458,
                2.1933368621917126
            ]
        },
        {
            "positions": [
                0.6799896541986215,
                -0.988519896746552,
                -0.05749481048819982,
                -0.9601578195290307,
                -0.5076802742413076,
                2.2855114493004662
            ]
        },
        {
            "positions": [
                0.5790090098354037,
                -0.9757289095790591,
                0.03561137519334334,
                -0.9307381605015819,
                -0.45451694330306935,
                2.37768603640922
            ]
        },
        {
            "positions": [
                0.4780283654721855,
                -0.962937922411566,
                0.1287175608748865,
                -0.9013185014741331,
                -0.40135361236483136,
                2.469860623517973
            ]
        },
        {
            "positions": [
                0.37704772110896734,
                -0.9501469352440728,
                0.2218237465564301,
                -0.8718988424466844,
                -0.34819028142659314,
                2.562035210626726
            ]
        },
        {
            "positions": [
                0.27606707674574915,
                -0.9373559480765797,
                0.3149299322379737,
                -0.8424791834192354,
                -0.2950269504883549,
                2.6542097977354797
            ]
        },
        {
            "positions": [
                0.17508643238253097,
                -0.9245649609090867,
                0.4080361179195169,
                -0.8130595243917867,
                -0.2418636195501167,
                2.7463843848442333
            ]
        },
        {
            "positions": [
                0.07410578801931265,
                -0.9117739737415935,
                0.50114230360106,
                -0.7836398653643379,
                -0.18870028861187865,
                2.8385589719529865
            ]
        },
        {
            "positions": [
                0.08161837704976227,
                -0.9469812757757323,
                0.7378785494984117,
                -0.7699710365901531,
                -0.1379903793286824,
                2.867078518070733
            ]
        },
        {
            "positions": [
                0.08913096608021187,
                -0.982188577809871,
                0.9746147953957632,
                -0.7563022078159684,
                -0.0872804700454862,
                2.89559806418848
            ]
        },
        {
            "positions": [
                0.09664355511066147,
                -1.0173958798440097,
                1.2113510412931148,
                -0.7426333790417835,
                -0.036570560762289955,
                2.9241176103062267
            ]
        },
        {
            "positions": [
                0.10415614414111109,
                -1.0526031818781485,
                1.4480872871904664,
                -0.7289645502675987,
                0.014139348520906259,
                2.9526371564239735
            ]
        },
        {
            "positions": [
                0.1116687331715607,
                -1.0878104839122873,
                1.684823533087818,
                -0.7152957214934139,
                0.0648492578041025,
                2.9811567025417203
            ]
        },
        {
            "positions": [
                0.1191813222020103,
                -1.123017785946426,
                1.9215597789851697,
                -0.7016268927192291,
                0.11555916708729873,
                3.009676248659467
            ]
        },
        {
            "positions": [
                0.12235385149585375,
                -1.128369829319656,
                1.9538456384381873,
                -0.7002596510114356,
                0.12178840541116472,
                3.0118926026281816
            ]
        }
    ]
}