{
    "goal": {
        "global_pose": {
            "orientation": {
                "w": 0.005598929693374612,
                "x": 0.007748599140229565,
                "y": 0.7110244013736278,
                "z": -0.7031023480610252
            },
            "position": {
                "x": 0.1141497679147869,
                "y": -0.7141253447532654,
                "z": 0.3711530566215515
            }
        },
        "name": "move_to_auspresseinheit_B"
    },
    "id": "BFMT_move_to_auspresseinheit_B_8",
    "joint_names": [
        "shoulder_pan_joint",
        "shoulder_lift_joint",
        "elbow_joint",
        "wrist_1_joint",
        "wrist_2_joint",
        "wrist_3_joint"
    ],
    "metrics": {
        "cart_traj_len": 0.5640061575135955,
        "distance_elbow_joint": 0.06251021756580788,
        "distance_shoulder_lift_joint": 0.29375421398786994,
        "distance_shoulder_pan_joint": 0.5750669822233414,
        "distance_wrist_1_joint": 0.32468452509293433,
        "distance_wrist_2_joint": 0.9993850715307047,
        "distance_wrist_3_joint": 0.0012054862628212426,
        "smoothness": 2.5376526478085547e-16,
        "time": 0.464528632,
        "traj_len": 1.5022005514123205,
        "weighted_distance": 1.8929043995439285
    },
    "planner": "BFMT",
    "start": {
        "state": {
            "elbow_joint": 2.0193083361928714,
            "shoulder_lift_joint": -1.1220246554650708,
            "shoulder_pan_joint": -1.0952077554168747,
            "wrist_1_joint": -0.8559753972642168,
            "wrist_2_joint": 0.4759566250798843,
            "wrist_3_joint": -3.1240929996934557
        }
    },
    "waypoints": [
        {
            "positions": [
                -1.0952077554168747,
                -1.1220246554650708,
                2.0193083361928714,
                -0.8559753972642168,
                0.4759566250798843,
                -3.1240929996934557
            ]
        },
        {
            "positions": [
                -1.1910522524540983,
                -1.1709836911297158,
                2.00888996659857,
                -0.8018613097487277,
                0.6425208036683351,
                -3.123892085316319
            ]
        },
        {
            "positions": [
                -1.2868967494913217,
                -1.2199427267943608,
                1.9984715970042688,
                -0.7477472222332386,
                0.8090849822567858,
                -3.123691170939182
            ]
        },
        {
            "positions": [
                -1.3827412465285454,
                -1.2689017624590058,
                1.9880532274099676,
                -0.6936331347177496,
                0.9756491608452367,
                -3.123490256562045
            ]
        },
        {
            "positions": [
                -1.4785857435657688,
                -1.3178607981236508,
                1.9776348578156662,
                -0.6395190472022606,
                1.1422133394336873,
                -3.123289342184908
            ]
        },
        {
            "positions": [
                -1.5744302406029926,
                -1.3668198337882957,
                1.9672164882213647,
                -0.5854049596867714,
                1.3087775180221382,
                -3.1230884278077715
            ]
        },
        {
            "positions": [
                -1.670274737640216,
                -1.4157788694529407,
                1.9567981186270635,
                -0.5312908721712825,
                1.475341696610589,
                -3.1228875134306344
            ]
        }
    ]
}