{
    "goal": {
        "global_pose": {
            "orientation": {
                "w": 0.7047431493862688,
                "x": -0.7094548369677653,
                "y": 0.0024358444001904,
                "z": -0.0022348060817251984
            },
            "position": {
                "x": -0.39052492380142206,
                "y": 0.3671506643295288,
                "z": 0.19426114857196808
            }
        },
        "name": "move_to_magneteinheit_D"
    },
    "id": "BFMT_move_to_magneteinheit_D_29",
    "joint_names": [
        "shoulder_pan_joint",
        "shoulder_lift_joint",
        "elbow_joint",
        "wrist_1_joint",
        "wrist_2_joint",
        "wrist_3_joint"
    ],
    "metrics": {
        "cart_traj_len": 4.899477130064385,
        "distance_elbow_joint": 3.324846492319044,
        "distance_shoulder_lift_joint": 1.6339960028668628,
        "distance_shoulder_pan_joint": 3.5389782391243,
        "distance_wrist_1_joint": 2.670809234308941,
        "distance_wrist_2_joint": 1.4168495066822437,
        "distance_wrist_3_joint": 6.2653844105545335,
        "smoothness": 0.4670660320973653,
        "time": 1.278673193,
        "traj_len": 4.3417581560763985,
        "weighted_distance": 5.955610081927475
    },
    "planner": "BFMT",
    "start": {
        "state": {
            "elbow_joint": 0.749534889911806,
            "shoulder_lift_joint": -0.6476975780787326,
            "shoulder_pan_joint": -2.711696901376241,
            "wrist_1_joint": -0.07506478083263063,
            "wrist_2_joint": 0.43296659715538205,
            "wrist_3_joint": -3.14703540197715
        }
    },
    "waypoints": [
        {
            "positions": [
                -2.711696901376241,
                -0.6476975780787326,
                0.749534889911806,
                -0.07506478083263063,
                0.43296659715538205,
                -3.14703540197715
            ]
        },
        {
            "positions": [
                -2.7747272082457854,
                -0.6037412567792062,
                0.7393262984710659,
                -0.13844925506139322,
                0.5071588904368503,
                -3.0765819485904427
            ]
        },
        {
            "positions": [
                -2.8377575151153303,
                -0.5597849354796798,
                0.7291177070303259,
                -0.20183372929015583,
                0.5813511837183185,
                -3.0061284952037353
            ]
        },
        {
            "positions": [
                -2.900787821984875,
                -0.5158286141801532,
                0.7189091155895859,
                -0.26521820351891845,
                0.6555434769997868,
                -2.9356750418170274
            ]
        },
        {
            "positions": [
                -2.9638181288544194,
                -0.4718722928806268,
                0.7087005241488459,
                -0.32860267774768104,
                0.729735770281255,
                -2.86522158843032
            ]
        },
        {
            "positions": [
                -2.916301841279382,
                -0.5178515470886774,
                0.6173661390696605,
                -0.39130185747242563,
                0.7002296078964628,
                -2.773246305911125
            ]
        },
        {
            "positions": [
                -2.8687855537043445,
                -0.5638308012967281,
                0.5260317539904752,
                -0.4540010371971702,
                0.6707234455116706,
                -2.6812710233919304
            ]
        },
        {
            "positions": [
                -2.821269266129307,
                -0.6098100555047787,
                0.43469736891128985,
                -0.5167002169219148,
                0.6412172831268784,
                -2.589295740872736
            ]
        },
        {
            "positions": [
                -2.7737529785542696,
                -0.6557893097128293,
                0.3433629838321045,
                -0.5793993966466595,
                0.6117111207420861,
                -2.497320458353541
            ]
        },
        {
            "positions": [
                -2.726236690979232,
                -0.7017685639208799,
                0.25202859875291916,
                -0.642098576371404,
                0.5822049583572939,
                -2.4053451758343463
            ]
        },
        {
            "positions": [
                -2.6787204034041947,
                -0.7477478181289305,
                0.16069421367373382,
                -0.7047977560961487,
                0.5526987959725017,
                -2.3133698933151514
            ]
        },
        {
            "positions": [
                -2.6312041158291573,
                -0.7937270723369813,
                0.06935982859454848,
                -0.7674969358208932,
                0.5231926335877095,
                -2.221394610795957
            ]
        },
        {
            "positions": [
                -2.58368782825412,
                -0.839706326545032,
                -0.021974556484636865,
                -0.8301961155456379,
                0.4936864712029173,
                -2.1294193282767617
            ]
        },
        {
            "positions": [
                -2.5361715406790823,
                -0.8856855807530826,
                -0.11330894156382221,
                -0.8928952952703825,
                0.46418030881812505,
                -2.0374440457575673
            ]
        },
        {
            "positions": [
                -2.488655253104045,
                -0.9316648349611332,
                -0.20464332664300752,
                -0.9555944749951271,
                0.43467414643333285,
                -1.9454687632383725
            ]
        },
        {
            "positions": [
                -2.385080070812505,
                -0.9525116850364737,
                -0.26181782701330353,
                -1.0016344638910732,
                0.43254316522922975,
                -1.7858606087523934
            ]
        },
        {
            "positions": [
                -2.281504888520965,
                -0.9733585351118141,
                -0.31899232738359956,
                -1.0476744527870196,
                0.4304121840251266,
                -1.6262524542664143
            ]
        },
        {
            "positions": [
                -2.177929706229425,
                -0.9942053851871547,
                -0.3761668277538956,
                -1.0937144416829658,
                0.4282812028210235,
                -1.4666442997804354
            ]
        },
        {
            "positions": [
                -2.074354523937885,
                -1.015052235262495,
                -0.43334132812419157,
                -1.139754430578912,
                0.4261502216169204,
                -1.3070361452944563
            ]
        },
        {
            "positions": [
                -1.9707793416463448,
                -1.0358990853378358,
                -0.4905158284944876,
                -1.1857944194748584,
                0.42401924041281724,
                -1.1474279908084772
            ]
        },
        {
            "positions": [
                -1.867204159354805,
                -1.0567459354131763,
                -0.5476903288647836,
                -1.2318344083708046,
                0.42188825920871414,
                -0.9878198363224983
            ]
        },
        {
            "positions": [
                -1.763628977063265,
                -1.0775927854885168,
                -0.6048648292350797,
                -1.277874397266751,
                0.41975727800461105,
                -0.828211681836519
            ]
        },
        {
            "positions": [
                -1.660053794771725,
                -1.0984396355638573,
                -0.6620393296053757,
                -1.3239143861626972,
                0.4176262968005079,
                -0.6686035273505402
            ]
        },
        {
            "positions": [
                -1.556478612480185,
                -1.1192864856391977,
                -0.7192138299756717,
                -1.3699543750586436,
                0.4154953155964048,
                -0.5089953728645611
            ]
        },
        {
            "positions": [
                -1.452903430188645,
                -1.1401333357145382,
                -0.7763883303459678,
                -1.4159943639545898,
                0.4133643343923017,
                -0.349387218378582
            ]
        },
        {
            "positions": [
                -1.3493282478971051,
                -1.1609801857898787,
                -0.8335628307162638,
                -1.462034352850536,
                0.41123335318819854,
                -0.18977906389260313
            ]
        },
        {
            "positions": [
                -1.245753065605565,
                -1.1818270358652194,
                -0.8907373310865598,
                -1.5080743417464824,
                0.40910237198409544,
                -0.030170909406624036
            ]
        },
        {
            "positions": [
                -1.1421778833140253,
                -1.20267388594056,
                -0.9479118314568558,
                -1.5541143306424283,
                0.40697139077999234,
                0.12943724507935483
            ]
        },
        {
            "positions": [
                -1.038602701022485,
                -1.2235207360159004,
                -1.005086331827152,
                -1.6001543195383747,
                0.4048404095758892,
                0.28904539956533437
            ]
        },
        {
            "positions": [
                -0.9350275187309451,
                -1.2443675860912409,
                -1.0622608321974478,
                -1.6461943084343211,
                0.4027094283717861,
                0.448653554051313
            ]
        },
        {
            "positions": [
                -0.8314523364394053,
                -1.2652144361665814,
                -1.1194353325677437,
                -1.6922342973302673,
                0.400578447167683,
                0.6082617085372921
            ]
        },
        {
            "positions": [
                -0.727877154147865,
                -1.2860612862419218,
                -1.17660983293804,
                -1.7382742862262135,
                0.3984474659635798,
                0.7678698630232712
            ]
        },
        {
            "positions": [
                -0.6243019718563252,
                -1.3069081363172623,
                -1.2337843333083358,
                -1.78431427512216,
                0.39631648475947673,
                0.9274780175092503
            ]
        },
        {
            "positions": [
                -0.5207267895647854,
                -1.3277549863926028,
                -1.2909588336786317,
                -1.830354264018106,
                0.39418550355537363,
                1.087086171995229
            ]
        },
        {
            "positions": [
                -0.4171516072732451,
                -1.3486018364679433,
                -1.3481333340489279,
                -1.8763942529140523,
                0.3920545223512705,
                1.2466943264812085
            ]
        },
        {
            "positions": [
                -0.31357642498170524,
                -1.3694486865432838,
                -1.405307834419224,
                -1.9224342418099987,
                0.3899235411471674,
                1.4063024809671871
            ]
        },
        {
            "positions": [
                -0.2100012426901654,
                -1.3902955366186245,
                -1.46248233478952,
                -1.9684742307059448,
                0.3877925599430643,
                1.5659106354531662
            ]
        },
        {
            "positions": [
                -0.10642606039862512,
                -1.411142386693965,
                -1.519656835159816,
                -2.0145142196018915,
                0.3856615787389611,
                1.7255187899391453
            ]
        },
        {
            "positions": [
                -0.002850878107085222,
                -1.4319892367693055,
                -1.576831335530112,
                -2.0605542084978374,
                0.383530597534858,
                1.8851269444251244
            ]
        },
        {
            "positions": [
                0.006067836823571218,
                -1.4203458107660227,
                -1.6886345945978432,
                -2.109371617614425,
                0.2998075940367372,
                1.994508691467658
            ]
        },
        {
            "positions": [
                0.014986551754227658,
                -1.4087023847627402,
                -1.8004378536655743,
                -2.158189026731012,
                0.21608459053861634,
                2.1038904385101915
            ]
        },
        {
            "positions": [
                0.023905266684884095,
                -1.3970589587594575,
                -1.9122411127333054,
                -2.2070064358475996,
                0.1323615870404955,
                2.2132721855527255
            ]
        },
        {
            "positions": [
                0.03282398161554054,
                -1.3854155327561748,
                -2.0240443718010366,
                -2.255823844964187,
                0.04863858354237466,
                2.322653932595259
            ]
        },
        {
            "positions": [
                0.04174269654619698,
                -1.3737721067528923,
                -2.135847630868768,
                -2.304641254080775,
                -0.03508441995574618,
                2.4320356796377927
            ]
        },
        {
            "positions": [
                0.050661411476853414,
                -1.3621286807496096,
                -2.247650889936499,
                -2.353458663197362,
                -0.11880742345386702,
                2.5414174266803267
            ]
        },
        {
            "positions": [
                0.059580126407509856,
                -1.350485254746327,
                -2.35945414900423,
                -2.4022760723139496,
                -0.2025304269519878,
                2.6507991737228602
            ]
        },
        {
            "positions": [
                0.0684988413381663,
                -1.3388418287430444,
                -2.471257408071961,
                -2.451093481430537,
                -0.2862534304501087,
                2.760180920765394
            ]
        },
        {
            "positions": [
                0.004863830974782352,
                -1.4400684201814986,
                -2.445243859488142,
                -2.377398348002778,
                -0.260230647243857,
                2.8497229427183908
            ]
        },
        {
            "positions": [
                -0.0587711793886016,
                -1.5412950116199529,
                -2.419230310904323,
                -2.3037032145750196,
                -0.23420786403760532,
                2.9392649646713878
            ]
        },
        {
            "positions": [
                -0.12240618975198556,
                -1.6425216030584073,
                -2.393216762320504,
                -2.230008081147261,
                -0.20818508083135362,
                3.0288069866243847
            ]
        },
        {
            "positions": [
                -0.1860412001153695,
                -1.7437481944968616,
                -2.3672032137366847,
                -2.156312947719502,
                -0.18216229762510194,
                3.1183490085773817
            ]
        }
    ]
}