{
    "goal": {
        "global_pose": {
            "orientation": {
                "w": 0.5084816217422485,
                "x": -0.49083608388900757,
                "y": 0.5182115435600281,
                "z": -0.4816462993621826
            },
            "position": {
                "x": 0.5540239810943604,
                "y": 0.030875300988554955,
                "z": 0.16403168439865112
            }
        },
        "name": "move_to_storage_A"
    },
    "id": "BFMT_move_to_storage_A_39",
    "joint_names": [
        "shoulder_pan_joint",
        "shoulder_lift_joint",
        "elbow_joint",
        "wrist_1_joint",
        "wrist_2_joint",
        "wrist_3_joint"
    ],
    "metrics": {
        "cart_traj_len": 0.35256299021877036,
        "distance_elbow_joint": 0.453487278303214,
        "distance_shoulder_lift_joint": 0.23226352704954278,
        "distance_shoulder_pan_joint": 0.45976877429977164,
        "distance_wrist_1_joint": 0.26001046048267995,
        "distance_wrist_2_joint": 1.1026678377867543,
        "distance_wrist_3_joint": 0.10085898066493426,
        "smoothness": 4.440892098500626e-16,
        "time": 0.487466626,
        "traj_len": 1.6152575208266007,
        "weighted_distance": 2.0429031103276043
    },
    "planner": "BFMT",
    "start": {
        "state": {
            "elbow_joint": 1.971548259319323,
            "shoulder_lift_joint": -1.1394851275133948,
            "shoulder_pan_joint": 0.1228115487234821,
            "wrist_1_joint": -0.7804723859257726,
            "wrist_2_joint": 0.12958671773740124,
            "wrist_3_joint": -3.192489227718131
        }
    },
    "waypoints": [
        {
            "positions": [
                0.1228115487234821,
                -1.1394851275133948,
                1.971548259319323,
                -0.7804723859257726,
                0.12958671773740124,
                -3.192489227718131
            ]
        },
        {
            "positions": [
                0.057130295252086155,
                -1.1726656313776151,
                2.0363321562197823,
                -0.8176167374232983,
                0.28711069456408045,
                -3.178080801908855
            ]
        },
        {
            "positions": [
                -0.00855095821930979,
                -1.2058461352418357,
                2.1011160531202413,
                -0.854761088920824,
                0.44463467139075963,
                -3.1636723760995786
            ]
        },
        {
            "positions": [
                -0.07423221169070573,
                -1.239026639106056,
                2.1658999500207003,
                -0.8919054404183497,
                0.6021586482174388,
                -3.1492639502903024
            ]
        },
        {
            "positions": [
                -0.13991346516210168,
                -1.2722071429702764,
                2.2306838469211594,
                -0.9290497919158754,
                0.759682625044118,
                -3.1348555244810257
            ]
        },
        {
            "positions": [
                -0.20559471863349765,
                -1.3053876468344967,
                2.295467743821619,
                -0.9661941434134012,
                0.9172066018707972,
                -3.1204470986717494
            ]
        },
        {
            "positions": [
                -0.27127597210489357,
                -1.3385681506987173,
                2.360251640722078,
                -1.0033384949109267,
                1.0747305786974763,
                -3.106038672862473
            ]
        },
        {
            "positions": [
                -0.33695722557628954,
                -1.3717486545629376,
                2.425035537622537,
                -1.0404828464084526,
                1.2322545555241555,
                -3.091630247053197
            ]
        }
    ]
}{
    "goal": {
        "global_pose": {
            "orientation": {
                "w": 0.5084816217422485,
                "x": -0.49083608388900757,
                "y": 0.5182115435600281,
                "z": -0.4816462993621826
            },
            "position": {
                "x": 0.5540239810943604,
                "y": 0.030875300988554955,
                "z": 0.16403168439865112
            }
        },
        "name": "move_to_storage_A"
    },
    "id": "BFMT_move_to_storage_A_39",
    "joint_names": [
        "shoulder_pan_joint",
        "shoulder_lift_joint",
        "elbow_joint",
        "wrist_1_joint",
        "wrist_2_joint",
        "wrist_3_joint"
    ],
    "metrics": {
        "cart_traj_len": 0.35386013354941764,
        "distance_elbow_joint": 0.4485054446491681,
        "distance_shoulder_lift_joint": 0.23557453733084177,
        "distance_shoulder_pan_joint": 0.46273307395481045,
        "distance_wrist_1_joint": 0.23506403522103514,
        "distance_wrist_2_joint": 1.1006517547303343,
        "distance_wrist_3_joint": 0.09313894240227727,
        "smoothness": 4.440892133664971e-16,
        "time": 0.48422733199999995,
        "traj_len": 1.6048887152349431,
        "weighted_distance": 2.024268130224944
    },
    "planner": "BFMT",
    "start": {
        "state": {
            "elbow_joint": 1.97154746011099,
            "shoulder_lift_joint": -1.13948474672311,
            "shoulder_pan_joint": 0.12281154466712228,
            "wrist_1_joint": -0.7804688027058302,
            "wrist_2_joint": 0.12958655903071145,
            "wrist_3_joint": 3.0906928834467795
        }
    },
    "waypoints": [
        {
            "positions": [
                0.12281154466712228,
                -1.13948474672311,
                1.97154746011099,
                -0.7804688027058302,
                0.12958655903071145,
                3.0906928834467795
            ]
        },
        {
            "positions": [
                0.05670681981643508,
                -1.1731382520560873,
                2.0356196664894424,
                -0.8140493791659781,
                0.28682252399218777,
                3.103998446647105
            ]
        },
        {
            "positions": [
                -0.009397905034252127,
                -1.2067917573890647,
                2.0996918728678953,
                -0.847629955626126,
                0.44405848895366407,
                3.1173040098474303
            ]
        },
        {
            "positions": [
                -0.07550262988493932,
                -1.2404452627220421,
                2.1637640792463477,
                -0.8812105320862738,
                0.6012944539151404,
                3.1306095730477557
            ]
        },
        {
            "positions": [
                -0.14160735473562652,
                -1.2740987680550195,
                2.2278362856248,
                -0.9147911085464216,
                0.7585304188766168,
                3.1439151362480806
            ]
        },
        {
            "positions": [
                -0.20771207958631377,
                -1.307752273387997,
                2.2919084920032526,
                -0.9483716850065695,
                0.9157663838380932,
                3.157220699448406
            ]
        },
        {
            "positions": [
                -0.2738168044370009,
                -1.3414057787209743,
                2.3559806983817055,
                -0.9819522614667174,
                1.0730023487995692,
                3.1705262626487314
            ]
        },
        {
            "positions": [
                -0.33992152928768815,
                -1.3750592840539517,
                2.420052904760158,
                -1.0155328379268653,
                1.2302383137610458,
                3.1838318258490568
            ]
        }
    ]
}{
    "goal": {
        "global_pose": {
            "orientation": {
                "w": 0.5084816217422485,
                "x": -0.49083608388900757,
                "y": 0.5182115435600281,
                "z": -0.4816462993621826
            },
            "position": {
                "x": 0.5540239810943604,
                "y": 0.030875300988554955,
                "z": 0.16403168439865112
            }
        },
        "name": "move_to_storage_A"
    },
    "id": "BFMT_move_to_storage_A_39",
    "joint_names": [
        "shoulder_pan_joint",
        "shoulder_lift_joint",
        "elbow_joint",
        "wrist_1_joint",
        "wrist_2_joint",
        "wrist_3_joint"
    ],
    "metrics": {
        "cart_traj_len": 0.35301379689024825,
        "distance_elbow_joint": 0.4512366584763159,
        "distance_shoulder_lift_joint": 0.23559499543595352,
        "distance_shoulder_pan_joint": 0.4622551886297764,
        "distance_wrist_1_joint": 0.24576989377558345,
        "distance_wrist_2_joint": 1.096712495108667,
        "distance_wrist_3_joint": 0.10693212535567165,
        "smoothness": 1.3322676295501878e-15,
        "time": 0.49761252899999997,
        "traj_len": 1.6119867731411348,
        "weighted_distance": 2.038344425355431
    },
    "planner": "BFMT",
    "start": {
        "state": {
            "elbow_joint": 1.9715472970024885,
            "shoulder_lift_joint": -1.1394870060712896,
            "shoulder_pan_joint": 0.12281152778156021,
            "wrist_1_joint": -0.780463741449964,
            "wrist_2_joint": 0.12958659822042276,
            "wrist_3_joint": 3.090690232415272
        }
    },
    "waypoints": [
        {
            "positions": [
                0.12281152778156021,
                -1.1394870060712896,
                1.9715472970024885,
                -0.780463741449964,
                0.12958659822042276,
                3.090690232415272
            ]
        },
        {
            "positions": [
                0.05677507226302074,
                -1.1731434339907116,
                2.0360096767848193,
                -0.8155737262750473,
                0.2862598118073752,
                3.105966250323225
            ]
        },
        {
            "positions": [
                -0.00926138325551873,
                -1.2067998619101334,
                2.1004720565671504,
                -0.8506837111001306,
                0.44293302539432766,
                3.1212422682311782
            ]
        },
        {
            "positions": [
                -0.07529783877405821,
                -1.2404562898295555,
                2.164934436349481,
                -0.8857936959252141,
                0.5996062389812801,
                3.136518286139131
            ]
        },
        {
            "positions": [
                -0.14133429429259767,
                -1.2741127177489773,
                2.229396816131812,
                -0.9209036807502974,
                0.7562794525682325,
                3.151794304047084
            ]
        },
        {
            "positions": [
                -0.20737074981113715,
                -1.3077691456683993,
                2.293859195914143,
                -0.9560136655753808,
                0.912952666155185,
                3.167070321955037
            ]
        },
        {
            "positions": [
                -0.27340720532967666,
                -1.341425573587821,
                2.3583215756964737,
                -0.9911236504004641,
                1.0696258797421374,
                3.1823463398629905
            ]
        },
        {
            "positions": [
                -0.33944366084821614,
                -1.3750820015072431,
                2.4227839554788044,
                -1.0262336352255474,
                1.2262990933290898,
                3.1976223577709435
            ]
        }
    ]
}