{
    "goal": {
        "global_pose": {
            "orientation": {
                "w": -0.4816463035849501,
                "x": 0.5182115481033762,
                "y": 0.4908360881923453,
                "z": -0.5084816262002911
            },
            "position": {
                "x": -0.8240239810943604,
                "y": -0.300875300988555,
                "z": 0.16403168439865112
            }
        },
        "name": "move_to_storage_C"
    },
    "id": "BFMT_move_to_storage_C_11",
    "joint_names": [
        "shoulder_pan_joint",
        "shoulder_lift_joint",
        "elbow_joint",
        "wrist_1_joint",
        "wrist_2_joint",
        "wrist_3_joint"
    ],
    "metrics": {
        "cart_traj_len": 0.575971998775145,
        "distance_elbow_joint": 0.2586392686088317,
        "distance_shoulder_lift_joint": 0.18829515955866338,
        "distance_shoulder_pan_joint": 0.49378930526988096,
        "distance_wrist_1_joint": 0.08368350141594028,
        "distance_wrist_2_joint": 1.0712695743527383,
        "distance_wrist_3_joint": 0.060243864332660824,
        "smoothness": 5.075305295617109e-16,
        "time": 0.497614414,
        "traj_len": 1.4683053747564625,
        "weighted_distance": 1.8523934457810836
    },
    "planner": "BFMT",
    "start": {
        "state": {
            "elbow_joint": 2.010868314990456,
            "shoulder_lift_joint": -1.1634956873337592,
            "shoulder_pan_joint": -2.4736205022346125,
            "wrist_1_joint": -0.8367026794202681,
            "wrist_2_joint": 0.6746043897044499,
            "wrist_3_joint": -3.1496632123970403
        }
    },
    "waypoints": [
        {
            "positions": [
                -2.4736205022346125,
                -1.1634956873337592,
                2.010868314990456,
                -0.8367026794202681,
                0.6746043897044499,
                -3.1496632123970403
            ]
        },
        {
            "positions": [
                -2.5559187197795925,
                -1.1321131607406487,
                1.9677617702223171,
                -0.822755429184278,
                0.8531493187632396,
                -3.139622568341597
            ]
        },
        {
            "positions": [
                -2.638216937324573,
                -1.100730634147538,
                1.9246552254541787,
                -0.808808178948288,
                1.0316942478220295,
                -3.1295819242861533
            ]
        },
        {
            "positions": [
                -2.720515154869553,
                -1.0693481075544276,
                1.88154868068604,
                -0.794860928712298,
                1.210239176880819,
                -3.1195412802307096
            ]
        },
        {
            "positions": [
                -2.802813372414533,
                -1.0379655809613169,
                1.8384421359179013,
                -0.7809136784763079,
                1.3887841059396089,
                -3.1095006361752664
            ]
        },
        {
            "positions": [
                -2.8851115899595134,
                -1.0065830543682064,
                1.7953355911497628,
                -0.7669664282403179,
                1.5673290349983984,
                -3.099459992119823
            ]
        },
        {
            "positions": [
                -2.9674098075044935,
                -0.9752005277750958,
                1.7522290463816241,
                -0.7530191780043278,
                1.7458739640571883,
                -3.0894193480643795
            ]
        }
    ]
}