{
    "goal": {
        "global_pose": {
            "orientation": {
                "w": 0.7031023480610252,
                "x": -0.7110244013736278,
                "y": 0.0077485991402295624,
                "z": 0.005598929693374583
            },
            "position": {
                "x": -0.8841497679147869,
                "y": 0.44412534475326537,
                "z": 0.3711530566215515
            }
        },
        "name": "move_to_auspresseinheit_D"
    },
    "id": "BFMT_move_to_auspresseinheit_D_45",
    "joint_names": [
        "shoulder_pan_joint",
        "shoulder_lift_joint",
        "elbow_joint",
        "wrist_1_joint",
        "wrist_2_joint",
        "wrist_3_joint"
    ],
    "metrics": {
        "cart_traj_len": 0.34416230088301447,
        "distance_elbow_joint": 0.6537123892943795,
        "distance_shoulder_lift_joint": 0.13004866677206461,
        "distance_shoulder_pan_joint": 0.13418603899534867,
        "distance_wrist_1_joint": 0.5728711982171002,
        "distance_wrist_2_joint": 1.4396582343075268,
        "distance_wrist_3_joint": 0.03276083659924556,
        "smoothness": 7.89491931748053e-16,
        "time": 0.477621721,
        "traj_len": 1.7214056361548447,
        "weighted_distance": 2.2452813787827983
    },
    "planner": "BFMT",
    "start": {
        "state": {
            "elbow_joint": -1.8275523626775212,
            "shoulder_lift_joint": -2.126789852344167,
            "shoulder_pan_joint": -0.03513704404078235,
            "wrist_1_joint": -2.347782403156801,
            "wrist_2_joint": -1.6058999987535132,
            "wrist_3_joint": -3.0880379163319196
        }
    },
    "waypoints": [
        {
            "positions": [
                -0.03513704404078235,
                -2.126789852344167,
                -1.8275523626775212,
                -2.347782403156801,
                -1.6058999987535132,
                -3.0880379163319196
            ]
        },
        {
            "positions": [
                -0.051910298915200936,
                -2.143045935690675,
                -1.7458383140157236,
                -2.4193913029339384,
                -1.4259427194650725,
                -3.083942811757014
            ]
        },
        {
            "positions": [
                -0.06868355378961952,
                -2.1593020190371828,
                -1.6641242653539263,
                -2.491000202711076,
                -1.2459854401766315,
                -3.0798477071821084
            ]
        },
        {
            "positions": [
                -0.0854568086640381,
                -2.175558102383691,
                -1.582410216692129,
                -2.5626091024882136,
                -1.0660281608881905,
                -3.0757526026072024
            ]
        },
        {
            "positions": [
                -0.10223006353845668,
                -2.191814185730199,
                -1.5006961680303315,
                -2.634218002265351,
                -0.8860708815997498,
                -3.071657498032297
            ]
        },
        {
            "positions": [
                -0.11900331841287526,
                -2.2080702690767073,
                -1.418982119368534,
                -2.7058269020424883,
                -0.7061136023113089,
                -3.0675623934573912
            ]
        },
        {
            "positions": [
                -0.13577657328729387,
                -2.2243263524232155,
                -1.3372680707067366,
                -2.777435801819626,
                -0.5261563230228681,
                -3.063467288882485
            ]
        },
        {
            "positions": [
                -0.15254982816171245,
                -2.2405824357697233,
                -1.2555540220449393,
                -2.8490447015967635,
                -0.3461990437344271,
                -3.0593721843075796
            ]
        },
        {
            "positions": [
                -0.16932308303613103,
                -2.2568385191162315,
                -1.1738399733831417,
                -2.920653601373901,
                -0.16624176444598632,
                -3.055277079732674
            ]
        }
    ]
}