{
    "goal": {
        "global_pose": {
            "orientation": {
                "w": -0.00223480608172531,
                "x": 0.0024358444001904467,
                "y": 0.7094548369677653,
                "z": -0.704743149386269
            },
            "position": {
                "x": 0.6205249238014221,
                "y": -0.6371506643295288,
                "z": 0.19426114857196808
            }
        },
        "name": "move_to_magneteinheit_B"
    },
    "id": "BFMT_move_to_magneteinheit_B_128",
    "joint_names": [
        "shoulder_pan_joint",
        "shoulder_lift_joint",
        "elbow_joint",
        "wrist_1_joint",
        "wrist_2_joint",
        "wrist_3_joint"
    ],
    "metrics": {
        "cart_traj_len": 1.4600709536331402,
        "distance_elbow_joint": 0.9562375839075397,
        "distance_shoulder_lift_joint": 0.757212396910219,
        "distance_shoulder_pan_joint": 1.6221350335454159,
        "distance_wrist_1_joint": 0.9236294907854536,
        "distance_wrist_2_joint": 1.5160583144217614,
        "distance_wrist_3_joint": 0.7007681331241654,
        "smoothness": 0.34766736323425623,
        "time": 0.648561362,
        "traj_len": 2.5448066631267996,
        "weighted_distance": 3.2120499722373723
    },
    "planner": "BFMT",
    "start": {
        "state": {
            "elbow_joint": 2.6216224122426386,
            "shoulder_lift_joint": -1.4174107377796124,
            "shoulder_pan_joint": 0.7066234856936794,
            "wrist_1_joint": 1.9546482284002225,
            "wrist_2_joint": -0.7096286983471962,
            "wrist_3_joint": 0.005740856962016249
        }
    },
    "waypoints": [
        {
            "positions": [
                0.7066234856936794,
                -1.4174107377796124,
                2.6216224122426386,
                1.9546482284002225,
                -0.7096286983471962,
                0.005740856962016249
            ]
        },
        {
            "positions": [
                0.6424965367871018,
                -1.4000304469770337,
                2.602132354713108,
                1.861939766326567,
                -0.7655634617343152,
                -0.08365063331509857
            ]
        },
        {
            "positions": [
                0.5783695878805243,
                -1.3826501561744553,
                2.5826422971835767,
                1.769231304252912,
                -0.8214982251214342,
                -0.17304212359221338
            ]
        },
        {
            "positions": [
                0.5142426389739467,
                -1.365269865371877,
                2.5631522396540456,
                1.6765228421792568,
                -0.8774329885085532,
                -0.26243361386932823
            ]
        },
        {
            "positions": [
                0.45011569006736923,
                -1.3478895745692983,
                2.543662182124515,
                1.5838143801056015,
                -0.9333677518956722,
                -0.351825104146443
            ]
        },
        {
            "positions": [
                0.34506744099666875,
                -1.2949902489000749,
                2.4761023856791753,
                1.6263371218356655,
                -1.0327769258090018,
                -0.32542493706831177
            ]
        },
        {
            "positions": [
                0.24001919192596832,
                -1.2420909232308512,
                2.4085425892338357,
                1.6688598635657297,
                -1.1321860997223316,
                -0.29902476999018057
            ]
        },
        {
            "positions": [
                0.13497094285526784,
                -1.1891915975616278,
                2.3409827927884956,
                1.7113826052957937,
                -1.2315952736356612,
                -0.2726246029120493
            ]
        },
        {
            "positions": [
                0.02992269378456741,
                -1.1362922718924044,
                2.273422996343156,
                1.7539053470258577,
                -1.3310044475489908,
                -0.24622443583391812
            ]
        },
        {
            "positions": [
                -0.07512555528613302,
                -1.083392946223181,
                2.2058631998978164,
                1.7964280887559219,
                -1.4304136214623204,
                -0.21982426875578687
            ]
        },
        {
            "positions": [
                -0.18017380435683356,
                -1.0304936205539574,
                2.138303403452477,
                1.8389508304859858,
                -1.52982279537565,
                -0.19342410167765564
            ]
        },
        {
            "positions": [
                -0.2852220534275339,
                -0.977594294884734,
                2.070743607007137,
                1.8814735722160498,
                -1.6292319692889796,
                -0.16702393459952444
            ]
        },
        {
            "positions": [
                -0.3902703024982344,
                -0.9246949692155106,
                2.003183810561797,
                1.9239963139461138,
                -1.7286411432023094,
                -0.1406237675213932
            ]
        },
        {
            "positions": [
                -0.49531855156893484,
                -0.8717956435462872,
                1.9356240141164576,
                1.966519055676178,
                -1.828050317115639,
                -0.11422360044326199
            ]
        },
        {
            "positions": [
                -0.6003668006396352,
                -0.8188963178770636,
                1.868064217671118,
                2.0090417974062422,
                -1.9274594910289689,
                -0.08782343336513071
            ]
        },
        {
            "positions": [
                -0.7054150497103358,
                -0.7659969922078402,
                1.8005044212257784,
                2.051564539136306,
                -2.026868664942298,
                -0.06142326628699951
            ]
        },
        {
            "positions": [
                -0.8104632987810363,
                -0.7130976665386167,
                1.7329446247804385,
                2.09408728086637,
                -2.126277838855628,
                -0.03502309920886826
            ]
        },
        {
            "positions": [
                -0.9155115478517366,
                -0.6601983408693933,
                1.665384828335099,
                2.136610022596434,
                -2.2256870127689576,
                -0.008622932130737074
            ]
        }
    ]
}