{
    "goal": {
        "global_pose": {
            "orientation": {
                "w": 0.005598929693374612,
                "x": 0.007748599140229565,
                "y": 0.7110244013736278,
                "z": -0.7031023480610252
            },
            "position": {
                "x": 0.1141497679147869,
                "y": -0.7141253447532654,
                "z": 0.3711530566215515
            }
        },
        "name": "move_to_auspresseinheit_B"
    },
    "id": "BFMT_move_to_auspresseinheit_B_21",
    "joint_names": [
        "shoulder_pan_joint",
        "shoulder_lift_joint",
        "elbow_joint",
        "wrist_1_joint",
        "wrist_2_joint",
        "wrist_3_joint"
    ],
    "metrics": {
        "cart_traj_len": 0.5648627507418341,
        "distance_elbow_joint": 0.063909830524574,
        "distance_shoulder_lift_joint": 0.29528191979565976,
        "distance_shoulder_pan_joint": 0.5780357428898815,
        "distance_wrist_1_joint": 0.3297018350405926,
        "distance_wrist_2_joint": 0.9860949009023054,
        "distance_wrist_3_joint": 0.00788808013240816,
        "smoothness": 5.075305255429287e-16,
        "time": 0.45364499100000005,
        "traj_len": 1.503633036776401,
        "weighted_distance": 1.8953852393360924
    },
    "planner": "BFMT",
    "start": {
        "state": {
            "elbow_joint": 2.0193083361928714,
            "shoulder_lift_joint": -1.1220246554650708,
            "shoulder_pan_joint": -1.0952077554168747,
            "wrist_1_joint": -0.8559753972642168,
            "wrist_2_joint": 0.4759566250798843,
            "wrist_3_joint": -3.1240929996934557
        }
    },
    "waypoints": [
        {
            "positions": [
                -1.0952077554168747,
                -1.1220246554650708,
                2.0193083361928714,
                -0.8559753972642168,
                0.4759566250798843,
                -3.1240929996934557
            ]
        },
        {
            "positions": [
                -1.1915470458985216,
                -1.1712383087643474,
                2.008656697772109,
                -0.801025091424118,
                0.6403057752302685,
                -3.1227783196713874
            ]
        },
        {
            "positions": [
                -1.2878863363801685,
                -1.220451962063624,
                1.9980050593513468,
                -0.7460747855840193,
                0.8046549253806528,
                -3.1214636396493196
            ]
        },
        {
            "positions": [
                -1.3842256268618154,
                -1.2696656153629007,
                1.9873534209305843,
                -0.6911244797439204,
                0.969004075531037,
                -3.120148959627252
            ]
        },
        {
            "positions": [
                -1.4805649173434623,
                -1.3188792686621773,
                1.976701782509822,
                -0.6361741739038218,
                1.1333532256814212,
                -3.1188342796051836
            ]
        },
        {
            "positions": [
                -1.5769042078251092,
                -1.368092921961454,
                1.9660501440890599,
                -0.581223868063723,
                1.2977023758318056,
                -3.1175195995831153
            ]
        },
        {
            "positions": [
                -1.6732434983067561,
                -1.4173065752607306,
                1.9553985056682974,
                -0.5262735622236242,
                1.4620515259821898,
                -3.1162049195610475
            ]
        }
    ]
}