{
    "goal": {
        "global_pose": {
            "orientation": {
                "w": 0.7047431493862688,
                "x": -0.7094548369677653,
                "y": 0.0024358444001904,
                "z": -0.0022348060817251984
            },
            "position": {
                "x": -0.39052492380142206,
                "y": 0.3671506643295288,
                "z": 0.19426114857196808
            }
        },
        "name": "move_to_magneteinheit_D"
    },
    "id": "BFMT_move_to_magneteinheit_D_13",
    "joint_names": [
        "shoulder_pan_joint",
        "shoulder_lift_joint",
        "elbow_joint",
        "wrist_1_joint",
        "wrist_2_joint",
        "wrist_3_joint"
    ],
    "metrics": {
        "cart_traj_len": 6.2166336814372825,
        "distance_elbow_joint": 3.2955235370728166,
        "distance_shoulder_lift_joint": 1.6341941543799303,
        "distance_shoulder_pan_joint": 8.72124324092579,
        "distance_wrist_1_joint": 1.5928472080773357,
        "distance_wrist_2_joint": 1.7776733659077508,
        "distance_wrist_3_joint": 4.68377694291951,
        "smoothness": 0.41796554611108944,
        "time": 1.193133663,
        "traj_len": 4.658890259416197,
        "weighted_distance": 5.868844256675007
    },
    "planner": "BFMT",
    "start": {
        "state": {
            "elbow_joint": 0.749534889911806,
            "shoulder_lift_joint": -0.6476975780787326,
            "shoulder_pan_joint": -2.711696901376241,
            "wrist_1_joint": -0.07506478083263063,
            "wrist_2_joint": 0.43296659715538205,
            "wrist_3_joint": -3.14703540197715
        }
    },
    "waypoints": [
        {
            "positions": [
                -2.711696901376241,
                -0.6476975780787326,
                0.749534889911806,
                -0.07506478083263063,
                0.43296659715538205,
                -3.14703540197715
            ]
        },
        {
            "positions": [
                -2.7212821172830517,
                -0.8007022521386399,
                0.7251506419266502,
                0.01392495008047731,
                0.49004433407202097,
                -3.09173128484058
            ]
        },
        {
            "positions": [
                -2.7308673331898623,
                -0.9537069261985471,
                0.7007663939414945,
                0.10291468099358525,
                0.54712207098866,
                -3.03642716770401
            ]
        },
        {
            "positions": [
                -2.593716540410173,
                -0.9748470092512317,
                0.6236665092821991,
                0.1366488563387065,
                0.5223431558431408,
                -2.9436572309444315
            ]
        },
        {
            "positions": [
                -2.456565747630484,
                -0.9959870923039162,
                0.5465666246229038,
                0.17038303168382773,
                0.4975642406976216,
                -2.850887294184853
            ]
        },
        {
            "positions": [
                -2.3194149548507954,
                -1.0171271753566007,
                0.46946673996360855,
                0.20411720702894898,
                0.47278532555210245,
                -2.7581173574252746
            ]
        },
        {
            "positions": [
                -2.1822641620711063,
                -1.0382672584092854,
                0.39236685530431314,
                0.23785138237407025,
                0.4480064104065833,
                -2.6653474206656957
            ]
        },
        {
            "positions": [
                -2.045113369291417,
                -1.0594073414619698,
                0.31526697064501785,
                0.27158555771919146,
                0.4232274952610641,
                -2.5725774839061173
            ]
        },
        {
            "positions": [
                -1.907962576511728,
                -1.0805474245146545,
                0.2381670859857225,
                0.3053197330643127,
                0.39844858011554496,
                -2.479807547146539
            ]
        },
        {
            "positions": [
                -1.770811783732039,
                -1.101687507567339,
                0.16106720132642705,
                0.339053908409434,
                0.3736696649700258,
                -2.3870376103869604
            ]
        },
        {
            "positions": [
                -1.63366099095235,
                -1.1228275906200236,
                0.08396731666713175,
                0.37278808375455524,
                0.34889074982450663,
                -2.294267673627382
            ]
        },
        {
            "positions": [
                -1.496510198172661,
                -1.143967673672708,
                0.00686743200783646,
                0.4065222590996765,
                0.32411183467898746,
                -2.2014977368678035
            ]
        },
        {
            "positions": [
                -1.359359405392972,
                -1.1651077567253925,
                -0.07023245265145883,
                0.44025643444479773,
                0.2993329195334683,
                -2.108727800108225
            ]
        },
        {
            "positions": [
                -1.222208612613283,
                -1.1862478397780771,
                -0.14733233731075435,
                0.47399060978991897,
                0.27455400438794914,
                -2.015957863348646
            ]
        },
        {
            "positions": [
                -1.085057819833594,
                -1.2073879228307616,
                -0.22443222197004953,
                0.5077247851350402,
                0.24977508924243003,
                -1.923187926589068
            ]
        },
        {
            "positions": [
                -0.947907027053905,
                -1.2285280058834462,
                -0.30153210662934504,
                0.5414589604801614,
                0.2249961740969108,
                -1.8304179898294892
            ]
        },
        {
            "positions": [
                -0.8107562342742158,
                -1.2496680889361307,
                -0.37863199128864045,
                0.5751931358252828,
                0.20021725895139164,
                -1.7376480530699105
            ]
        },
        {
            "positions": [
                -0.673605441494527,
                -1.2708081719888153,
                -0.4557318759479356,
                0.608927311170404,
                0.17543834380587253,
                -1.6448781163103323
            ]
        },
        {
            "positions": [
                -0.5364546487148378,
                -1.2919482550414998,
                -0.532831760607231,
                0.6426614865155252,
                0.1506594286603533,
                -1.5521081795507536
            ]
        },
        {
            "positions": [
                -0.39930385593514917,
                -1.3130883380941842,
                -0.6099316452665262,
                0.6763956618606465,
                0.1258805135148342,
                -1.4593382427911752
            ]
        },
        {
            "positions": [
                -0.2621530631554596,
                -1.334228421146869,
                -0.6870315299258216,
                0.7101298372057677,
                0.10110159836931498,
                -1.3665683060315967
            ]
        },
        {
            "positions": [
                -0.1250022703757705,
                -1.3553685041995536,
                -0.764131414585117,
                0.743864012550889,
                0.07632268322379582,
                -1.273798369272018
            ]
        },
        {
            "positions": [
                0.012148522403918172,
                -1.376508587252238,
                -0.8412312992444122,
                0.7775981878960102,
                0.05154376807827671,
                -1.1810284325124396
            ]
        },
        {
            "positions": [
                0.14929931518360728,
                -1.3976486703049225,
                -0.9183311839037078,
                0.8113323632411314,
                0.026764852932757544,
                -1.0882584957528612
            ]
        },
        {
            "positions": [
                0.2864501079632964,
                -1.4187887533576071,
                -0.9954310685630032,
                0.8450665385862527,
                0.0019859377872383233,
                -0.9954885589932827
            ]
        },
        {
            "positions": [
                0.4236009007429855,
                -1.4399288364102916,
                -1.0725309532222986,
                0.878800713931374,
                -0.022792977358280897,
                -0.9027186222337038
            ]
        },
        {
            "positions": [
                0.5607516935226742,
                -1.461068919462976,
                -1.1496308378815936,
                0.9125348892764952,
                -0.047571892503799895,
                -0.8099486854741258
            ]
        },
        {
            "positions": [
                0.6979024863023633,
                -1.4822090025156607,
                -1.226730722540889,
                0.9462690646216164,
                -0.07235080764931912,
                -0.7171787487145469
            ]
        },
        {
            "positions": [
                0.8350532790820524,
                -1.5033490855683453,
                -1.3038306072001846,
                0.9800032399667377,
                -0.09712972279483834,
                -0.6244088119549684
            ]
        },
        {
            "positions": [
                0.9722040718617415,
                -1.5244891686210298,
                -1.3809304918594798,
                1.013737415311859,
                -0.12190863794035744,
                -0.53163887519539
            ]
        },
        {
            "positions": [
                1.1093548646414306,
                -1.5456292516737142,
                -1.4580303765187754,
                1.0474715906569803,
                -0.14668755308587667,
                -0.4388689384358111
            ]
        },
        {
            "positions": [
                1.2465056574211193,
                -1.566769334726399,
                -1.5351302611780702,
                1.0812057660021015,
                -0.17146646823139577,
                -0.3460990016762331
            ]
        },
        {
            "positions": [
                1.3836564502008084,
                -1.5879094177790833,
                -1.6122301458373658,
                1.1149399413472227,
                -0.19624538337691488,
                -0.25332906491665463
            ]
        },
        {
            "positions": [
                1.5208072429804975,
                -1.6090495008317678,
                -1.689330030496661,
                1.148674116692344,
                -0.2210242985224341,
                -0.16055912815707574
            ]
        },
        {
            "positions": [
                1.6579580357601866,
                -1.6301895838844525,
                -1.7664299151559566,
                1.1824082920374652,
                -0.24580321366795332,
                -0.06778919139749728
            ]
        },
        {
            "positions": [
                1.7951088285398757,
                -1.6513296669371371,
                -1.8435297998152518,
                1.2161424673825865,
                -0.27058212881347254,
                0.02498074536208117
            ]
        },
        {
            "positions": [
                1.932259621319564,
                -1.6724697499898216,
                -1.920629684474547,
                1.2498766427277077,
                -0.29536104395899154,
                0.11775068212165962
            ]
        },
        {
            "positions": [
                2.069410414099253,
                -1.693609833042506,
                -1.9977295691338426,
                1.283610818072829,
                -0.32013995910451076,
                0.21052061888123808
            ]
        },
        {
            "positions": [
                2.206561206878943,
                -1.7147499160951907,
                -2.0748294537931375,
                1.3173449934179502,
                -0.34491887425003,
                0.30329055564081653
            ]
        },
        {
            "positions": [
                2.343711999658632,
                -1.7358899991478753,
                -2.151929338452433,
                1.3510791687630714,
                -0.3696977893955491,
                0.3960604924003954
            ]
        },
        {
            "positions": [
                2.4808627924383213,
                -1.7570300822005598,
                -2.229029223111729,
                1.3848133441081927,
                -0.3944767045410683,
                0.4888304291599739
            ]
        },
        {
            "positions": [
                2.6180135852180095,
                -1.7781701652532442,
                -2.3061291077710235,
                1.418547519453314,
                -0.4192556196865874,
                0.5816003659195519
            ]
        },
        {
            "positions": [
                2.7551643779976986,
                -1.799310248305929,
                -2.383228992430319,
                1.4522816947984352,
                -0.44403453483210653,
                0.6743703026791308
            ]
        },
        {
            "positions": [
                2.8923151707773873,
                -1.8204503313586133,
                -2.460328877089615,
                1.4860158701435564,
                -0.46881344997762575,
                0.7671402394387092
            ]
        },
        {
            "positions": [
                2.6554774549970093,
                -1.8559458237509248,
                -2.4537396640071996,
                1.4884594514590295,
                -0.4189994214308421,
                0.707940139323044
            ]
        },
        {
            "positions": [
                2.4186397392166312,
                -1.8914413161432364,
                -2.447150450924785,
                1.4909030327745023,
                -0.3691853928840585,
                0.6487400392073787
            ]
        },
        {
            "positions": [
                2.181802023436253,
                -1.9269368085355478,
                -2.4405612378423696,
                1.4933466140899754,
                -0.3193713643372749,
                0.5895399390917133
            ]
        },
        {
            "positions": [
                1.9449643076558751,
                -1.9624323009278595,
                -2.4339720247599548,
                1.4957901954054482,
                -0.2695573357904913,
                0.5303398389760481
            ]
        },
        {
            "positions": [
                1.708126591875497,
                -1.997927793320171,
                -2.4273828116775396,
                1.4982337767209213,
                -0.2197433072437077,
                0.4711397388603828
            ]
        },
        {
            "positions": [
                1.471288876095119,
                -2.0334232857124825,
                -2.4207935985951243,
                1.5006773580363941,
                -0.1699292786969241,
                0.4119396387447175
            ]
        },
        {
            "positions": [
                1.234451160314741,
                -2.068918778104794,
                -2.4142043855127095,
                1.5031209393518672,
                -0.12011525015014046,
                0.3527395386290523
            ]
        },
        {
            "positions": [
                0.997613444534363,
                -2.1044142704971054,
                -2.4076151724302943,
                1.50556452066734,
                -0.07030122160335683,
                0.29353943851338693
            ]
        },
        {
            "positions": [
                0.7607757287539849,
                -2.139909762889417,
                -2.401025959347879,
                1.508008101982813,
                -0.02048719305657326,
                0.2343393383977217
            ]
        },
        {
            "positions": [
                0.5239380129736069,
                -2.1754052552817287,
                -2.3944367462654643,
                1.510451683298286,
                0.029326835490210368,
                0.17513923828205635
            ]
        },
        {
            "positions": [
                0.2871002971932288,
                -2.21090074767404,
                -2.387847533183049,
                1.512895264613759,
                0.07914086403699394,
                0.11593913816639112
            ]
        },
        {
            "positions": [
                0.05026258141285078,
                -2.2463962400663515,
                -2.3812583201006343,
                1.5153388459292318,
                0.12895489258377757,
                0.056739038050725776
            ]
        },
        {
            "positions": [
                -0.1865751343675272,
                -2.281891732458663,
                -2.374669107018219,
                1.517782427244705,
                0.17876892113056125,
                -0.0024610620649394297
            ]
        }
    ]
}