{
    "goal": {
        "global_pose": {
            "orientation": {
                "w": -0.4816463035849501,
                "x": 0.5182115481033762,
                "y": 0.4908360881923453,
                "z": -0.5084816262002911
            },
            "position": {
                "x": -0.8240239810943604,
                "y": -0.300875300988555,
                "z": 0.16403168439865112
            }
        },
        "name": "move_to_storage_C"
    },
    "id": "BFMT_move_to_storage_C_65",
    "joint_names": [
        "shoulder_pan_joint",
        "shoulder_lift_joint",
        "elbow_joint",
        "wrist_1_joint",
        "wrist_2_joint",
        "wrist_3_joint"
    ],
    "metrics": {
        "cart_traj_len": 0.5771704597261375,
        "distance_elbow_joint": 0.2602395464313296,
        "distance_shoulder_lift_joint": 0.18931361558570226,
        "distance_shoulder_pan_joint": 0.4949767167907688,
        "distance_wrist_1_joint": 0.08914792221367351,
        "distance_wrist_2_joint": 1.0724674682625301,
        "distance_wrist_3_joint": 0.0662762593708579,
        "smoothness": 2.5376526478085547e-16,
        "time": 0.458662226,
        "traj_len": 1.4739136774773691,
        "weighted_distance": 1.8618779331290176
    },
    "planner": "BFMT",
    "start": {
        "state": {
            "elbow_joint": 2.010868314990456,
            "shoulder_lift_joint": -1.1634956873337592,
            "shoulder_pan_joint": -2.4736205022346125,
            "wrist_1_joint": -0.8367026794202681,
            "wrist_2_joint": 0.6746043897044499,
            "wrist_3_joint": -3.1496632123970403
        }
    },
    "waypoints": [
        {
            "positions": [
                -2.4736205022346125,
                -1.1634956873337592,
                2.010868314990456,
                -0.8367026794202681,
                0.6746043897044499,
                -3.1496632123970403
            ]
        },
        {
            "positions": [
                -2.556116621699741,
                -1.1319434180694754,
                1.967495057251901,
                -0.8218446923846559,
                0.8533489677482049,
                -3.138617169168564
            ]
        },
        {
            "positions": [
                -2.6386127411648688,
                -1.1003911488051918,
                1.924121799513346,
                -0.8069867053490436,
                1.03209354579196,
                -3.127571125940088
            ]
        },
        {
            "positions": [
                -2.7211088606299967,
                -1.068838879540908,
                1.880748541774791,
                -0.7921287183134313,
                1.2108381238357149,
                -3.116525082711611
            ]
        },
        {
            "positions": [
                -2.803604980095125,
                -1.0372866102766243,
                1.837375284036236,
                -0.7772707312778191,
                1.38958270187947,
                -3.105479039483135
            ]
        },
        {
            "positions": [
                -2.8861010995602534,
                -1.0057343410123407,
                1.7940020262976812,
                -0.7624127442422068,
                1.568327279923225,
                -3.0944329962546586
            ]
        },
        {
            "positions": [
                -2.9685972190253813,
                -0.9741820717480569,
                1.7506287685591262,
                -0.7475547572065946,
                1.7470718579669802,
                -3.0833869530261824
            ]
        }
    ]
}