{
    "goal": {
        "global_pose": {
            "orientation": {
                "w": -0.4816463035849501,
                "x": 0.5182115481033762,
                "y": 0.4908360881923453,
                "z": -0.5084816262002911
            },
            "position": {
                "x": -0.8240239810943604,
                "y": 0.19912469901144506,
                "z": 0.16403168439865112
            }
        },
        "name": "move_to_storage_D"
    },
    "id": "BFMT_move_to_storage_D_109",
    "joint_names": [
        "shoulder_pan_joint",
        "shoulder_lift_joint",
        "elbow_joint",
        "wrist_1_joint",
        "wrist_2_joint",
        "wrist_3_joint"
    ],
    "metrics": {
        "cart_traj_len": 3.415442051952951,
        "distance_elbow_joint": 4.213801981397036,
        "distance_shoulder_lift_joint": 1.271828558194056,
        "distance_shoulder_pan_joint": 2.812662482369337,
        "distance_wrist_1_joint": 2.8252377271502116,
        "distance_wrist_2_joint": 1.2719338028471172,
        "distance_wrist_3_joint": 4.31588108813588,
        "smoothness": 0.25715844857967657,
        "time": 1.0166815900000001,
        "traj_len": 4.087951276629117,
        "weighted_distance": 5.425889728548004
    },
    "planner": "BFMT",
    "start": {
        "state": {
            "elbow_joint": -2.384821988534728,
            "shoulder_lift_joint": -2.2788054721415256,
            "shoulder_pan_joint": -0.1854694642142757,
            "wrist_1_joint": 1.4845938289331202,
            "wrist_2_joint": 0.17898776772866878,
            "wrist_3_joint": 0.037105688729662994
        }
    },
    "waypoints": [
        {
            "positions": [
                -0.1854694642142757,
                -2.2788054721415256,
                -2.384821988534728,
                1.4845938289331202,
                0.17898776772866878,
                0.037105688729662994
            ]
        },
        {
            "positions": [
                -0.06098542866769274,
                -2.1850378913856074,
                -2.3388165676209107,
                1.518283119322841,
                0.15378768546871074,
                -0.03530231357623971
            ]
        },
        {
            "positions": [
                0.06349860687889022,
                -2.0912703106296893,
                -2.292811146707093,
                1.5519724097125618,
                0.12858760320875273,
                -0.10771031588214242
            ]
        },
        {
            "positions": [
                0.18798264242547322,
                -1.9975027298737709,
                -2.2468057257932754,
                1.5856617001022826,
                0.10338752094879469,
                -0.1801183181880451
            ]
        },
        {
            "positions": [
                0.3124666779720562,
                -1.9037351491178527,
                -2.200800304879458,
                1.6193509904920034,
                0.07818743868883667,
                -0.25252632049394785
            ]
        },
        {
            "positions": [
                0.4369507135186391,
                -1.8099675683619345,
                -2.154794883965641,
                1.653040280881724,
                0.05298735642887864,
                -0.3249343227998506
            ]
        },
        {
            "positions": [
                0.5614347490652222,
                -1.716199987606016,
                -2.1087894630518234,
                1.6867295712714447,
                0.0277872741689206,
                -0.3973423251057532
            ]
        },
        {
            "positions": [
                0.6859187846118051,
                -1.622432406850098,
                -2.0627840421380057,
                1.7204188616611655,
                0.0025871919089625883,
                -0.4697503274116559
            ]
        },
        {
            "positions": [
                0.810402820158388,
                -1.5286648260941798,
                -2.0167786212241885,
                1.7541081520508863,
                -0.02261289035099545,
                -0.5421583297175586
            ]
        },
        {
            "positions": [
                0.8729744479351432,
                -1.5101505838481106,
                -1.9296853641982326,
                1.6727873031113252,
                0.014690039426644853,
                -0.43386683556621297
            ]
        },
        {
            "positions": [
                0.9355460757118983,
                -1.4916363416020417,
                -1.8425921071722766,
                1.5914664541717638,
                0.05199296920428516,
                -0.3255753414148673
            ]
        },
        {
            "positions": [
                0.9981177034886535,
                -1.4731220993559726,
                -1.7554988501463207,
                1.5101456052322026,
                0.08929589898192547,
                -0.21728384726352168
            ]
        },
        {
            "positions": [
                1.0606893312654087,
                -1.4546078571099035,
                -1.668405593120365,
                1.4288247562926415,
                0.12659882875956577,
                -0.10899235311217603
            ]
        },
        {
            "positions": [
                1.1232609590421638,
                -1.4360936148638346,
                -1.581312336094409,
                1.3475039073530803,
                0.1639017585372061,
                -0.0007008589608303861
            ]
        },
        {
            "positions": [
                1.1858325868189188,
                -1.4175793726177655,
                -1.494219079068453,
                1.2661830584135192,
                0.2012046883148464,
                0.10759063519051526
            ]
        },
        {
            "positions": [
                1.248404214595674,
                -1.3990651303716963,
                -1.4071258220424971,
                1.1848622094739578,
                0.23850761809248672,
                0.2158821293418609
            ]
        },
        {
            "positions": [
                1.3109758423724291,
                -1.3805508881256274,
                -1.3200325650165414,
                1.1035413605343967,
                0.275810547870127,
                0.32417362349320655
            ]
        },
        {
            "positions": [
                1.3735474701491843,
                -1.3620366458795583,
                -1.2329393079905853,
                1.0222205115948353,
                0.31311347764776737,
                0.4324651176445523
            ]
        },
        {
            "positions": [
                1.4361190979259395,
                -1.3435224036334894,
                -1.1458460509646295,
                0.9408996626552741,
                0.35041640742540764,
                0.5407566117958978
            ]
        },
        {
            "positions": [
                1.4986907257026947,
                -1.3250081613874203,
                -1.0587527939386736,
                0.859578813715713,
                0.38771933720304796,
                0.6490481059472434
            ]
        },
        {
            "positions": [
                1.5612623534794499,
                -1.3064939191413512,
                -0.9716595369127177,
                0.7782579647761518,
                0.42502226698068823,
                0.7573396000985891
            ]
        },
        {
            "positions": [
                1.623833981256205,
                -1.2879796768952823,
                -0.8845662798867617,
                0.6969371158365905,
                0.4623251967583286,
                0.8656310942499349
            ]
        },
        {
            "positions": [
                1.6864056090329602,
                -1.2694654346492131,
                -0.7974730228608058,
                0.6156162668970293,
                0.4996281265359689,
                0.9739225884012804
            ]
        },
        {
            "positions": [
                1.7489772368097152,
                -1.2509511924031442,
                -0.7103797658348499,
                0.5342954179574682,
                0.5369310563136092,
                1.082214082552626
            ]
        },
        {
            "positions": [
                1.8115488645864701,
                -1.232436950157075,
                -0.6232865088088941,
                0.452974569017907,
                0.5742339860912494,
                1.1905055767039716
            ]
        },
        {
            "positions": [
                1.8741204923632253,
                -1.213922707911006,
                -0.5361932517829382,
                0.37165372007834585,
                0.6115369158688898,
                1.2987970708553171
            ]
        },
        {
            "positions": [
                1.936692120139981,
                -1.1954084656649369,
                -0.44909999475698203,
                0.29033287113878425,
                0.6488398456465302,
                1.4070885650066631
            ]
        },
        {
            "positions": [
                1.9992637479167361,
                -1.176894223418868,
                -0.3620067377310261,
                0.2090120221992231,
                0.6861427754241705,
                1.5153800591580087
            ]
        },
        {
            "positions": [
                2.061835375693491,
                -1.1583799811727988,
                -0.2749134807050704,
                0.12769117325966195,
                0.7234457052018107,
                1.6236715533093542
            ]
        },
        {
            "positions": [
                2.124407003470246,
                -1.13986573892673,
                -0.18782022367911444,
                0.0463703243201008,
                0.760748634979451,
                1.7319630474606997
            ]
        },
        {
            "positions": [
                2.186978631247001,
                -1.1213514966806608,
                -0.1007269666531585,
                -0.034950524619460355,
                0.7980515647570914,
                1.8402545416120453
            ]
        },
        {
            "positions": [
                2.2495502590237564,
                -1.1028372544345917,
                -0.013633709627202784,
                -0.11627137355902151,
                0.8353544945347317,
                1.9485460357633912
            ]
        },
        {
            "positions": [
                2.3121218868005116,
                -1.0843230121885228,
                0.07345954739875316,
                -0.19759222249858266,
                0.8726574243123719,
                2.056837529914737
            ]
        },
        {
            "positions": [
                2.3746935145772667,
                -1.0658087699424537,
                0.1605528044247091,
                -0.27891307143814426,
                0.9099603540900123,
                2.1651290240660828
            ]
        },
        {
            "positions": [
                2.437265142354022,
                -1.0472945276963845,
                0.24764606145066503,
                -0.3602339203777054,
                0.9472632838676527,
                2.2734205182174283
            ]
        },
        {
            "positions": [
                2.499836770130777,
                -1.0287802854503156,
                0.334739318476621,
                -0.44155476931726656,
                0.9845662136452928,
                2.381712012368774
            ]
        },
        {
            "positions": [
                2.5624083979075323,
                -1.0102660432042465,
                0.421832575502577,
                -0.5228756182568278,
                1.0218691434229332,
                2.4900035065201194
            ]
        },
        {
            "positions": [
                2.571663343657179,
                -1.0107359188123575,
                0.6228536351253958,
                -0.5626955659317893,
                1.025562159279151,
                2.590639968441688
            ]
        },
        {
            "positions": [
                2.5809182894068265,
                -1.0112057944204684,
                0.8238746947482147,
                -0.6025155136067508,
                1.0292551751353687,
                2.691276430363257
            ]
        },
        {
            "positions": [
                2.5901732351564735,
                -1.0116756700285794,
                1.0248957543710335,
                -0.6423354612817123,
                1.0329481909915865,
                2.7919128922848255
            ]
        },
        {
            "positions": [
                2.5994281809061204,
                -1.0121455456366906,
                1.2259168139938523,
                -0.6821554089566738,
                1.0366412068478044,
                2.892549354206394
            ]
        },
        {
            "positions": [
                2.6086831266557673,
                -1.0126154212448015,
                1.4269378736166711,
                -0.7219753566316353,
                1.0403342227040222,
                2.9931858161279625
            ]
        },
        {
            "positions": [
                2.6179380724054147,
                -1.0130852968529125,
                1.6279589332394901,
                -0.7617953043065968,
                1.0440272385602398,
                3.0938222780495312
            ]
        },
        {
            "positions": [
                2.6271930181550616,
                -1.0135551724610234,
                1.828979992862309,
                -0.8016152519815583,
                1.0477202544164577,
                3.1944587399711
            ]
        }
    ]
}