{
    "goal": {
        "global_pose": {
            "orientation": {
                "w": -0.4816463035849501,
                "x": 0.5182115481033762,
                "y": 0.4908360881923453,
                "z": -0.5084816262002911
            },
            "position": {
                "x": -0.8240239810943604,
                "y": 0.19912469901144506,
                "z": 0.16403168439865112
            }
        },
        "name": "move_to_storage_D"
    },
    "id": "BFMT_move_to_storage_D_65",
    "joint_names": [
        "shoulder_pan_joint",
        "shoulder_lift_joint",
        "elbow_joint",
        "wrist_1_joint",
        "wrist_2_joint",
        "wrist_3_joint"
    ],
    "metrics": {
        "cart_traj_len": 1.400366867947587,
        "distance_elbow_joint": 0.5534173482031266,
        "distance_shoulder_lift_joint": 1.2093381801596812,
        "distance_shoulder_pan_joint": 0.6163767647469948,
        "distance_wrist_1_joint": 3.8204190139161716,
        "distance_wrist_2_joint": 1.7832406036091095,
        "distance_wrist_3_joint": 3.1178458462719045,
        "smoothness": 0.1552703501569401,
        "time": 0.656095131,
        "traj_len": 3.331761959820507,
        "weighted_distance": 4.789570864594873
    },
    "planner": "BFMT",
    "start": {
        "state": {
            "elbow_joint": -2.384821988534728,
            "shoulder_lift_joint": -2.2788054721415256,
            "shoulder_pan_joint": -0.1854694642142757,
            "wrist_1_joint": 1.4845938289331202,
            "wrist_2_joint": 0.17898776772866878,
            "wrist_3_joint": 0.037105688729662994
        }
    },
    "waypoints": [
        {
            "positions": [
                -0.1854694642142757,
                -2.2788054721415256,
                -2.384821988534728,
                1.4845938289331202,
                0.17898776772866878,
                0.037105688729662994
            ]
        },
        {
            "positions": [
                -0.15989725392519621,
                -2.233416404682057,
                -2.3528737320331556,
                1.3952907137030295,
                0.08544380709136905,
                -0.060444141167958515
            ]
        },
        {
            "positions": [
                -0.13432504363611672,
                -2.1880273372225876,
                -2.3209254755315833,
                1.3059875984729388,
                -0.008100153545930688,
                -0.15799397106558002
            ]
        },
        {
            "positions": [
                -0.10875283334703723,
                -2.1426382697631188,
                -2.288977219030011,
                1.2166844832428478,
                -0.10164411418323047,
                -0.2555438009632016
            ]
        },
        {
            "positions": [
                -0.08318062305795774,
                -2.0972492023036495,
                -2.2570289625284388,
                1.1273813680127573,
                -0.19518807482053016,
                -0.353093630860823
            ]
        },
        {
            "positions": [
                -0.057608412768878264,
                -2.0518601348441807,
                -2.2250807060268665,
                1.0380782527826664,
                -0.2887320354578299,
                -0.4506434607584445
            ]
        },
        {
            "positions": [
                -0.03203620247979874,
                -2.0064710673847115,
                -2.193132449525294,
                0.9487751375525757,
                -0.38227599609512974,
                -0.5481932906560661
            ]
        },
        {
            "positions": [
                -0.006463992190719248,
                -1.9610819999252427,
                -2.161184193023722,
                0.859472022322485,
                -0.4758199567324295,
                -0.6457431205536877
            ]
        },
        {
            "positions": [
                0.01910821809836022,
                -1.9156929324657734,
                -2.1292359365221496,
                0.7701689070923943,
                -0.5693639173697291,
                -0.743292950451309
            ]
        },
        {
            "positions": [
                0.04468042838743971,
                -1.8703038650063046,
                -2.0972876800205773,
                0.6808657918623036,
                -0.6629078780070289,
                -0.8408427803489306
            ]
        },
        {
            "positions": [
                0.07025263867651918,
                -1.8249147975468356,
                -2.065339423519005,
                0.5915626766322128,
                -0.7564518386443286,
                -0.9383926102465521
            ]
        },
        {
            "positions": [
                0.0958248489655987,
                -1.7795257300873666,
                -2.0333911670174327,
                0.5022595614021221,
                -0.8499957992816284,
                -1.0359424401441737
            ]
        },
        {
            "positions": [
                0.12139705925467822,
                -1.7341366626278973,
                -2.00144291051586,
                0.4129564461720312,
                -0.9435397599189282,
                -1.1334922700417953
            ]
        },
        {
            "positions": [
                0.1469692695437577,
                -1.6887475951684285,
                -1.969494654014288,
                0.3236533309419405,
                -1.0370837205562278,
                -1.2310420999394167
            ]
        },
        {
            "positions": [
                0.1725414798328372,
                -1.6433585277089595,
                -1.9375463975127156,
                0.23435021571184977,
                -1.1306276811935276,
                -1.3285919298370383
            ]
        },
        {
            "positions": [
                0.19811369012191665,
                -1.5979694602494905,
                -1.9055981410111433,
                0.14504710048175914,
                -1.2241716418308273,
                -1.4261417597346597
            ]
        },
        {
            "positions": [
                0.18148557509257363,
                -1.635719615125751,
                -1.9002986052483188,
                -0.03215806276572725,
                -1.251320298548657,
                -1.5443273595780584
            ]
        },
        {
            "positions": [
                0.1648574600632306,
                -1.6734697700020114,
                -1.8949990694854946,
                -0.20936322601321364,
                -1.2784689552664863,
                -1.6625129594214572
            ]
        },
        {
            "positions": [
                0.14822934503388757,
                -1.7112199248782718,
                -1.88969953372267,
                -0.38656838926070003,
                -1.305617611984316,
                -1.7806985592648559
            ]
        },
        {
            "positions": [
                0.13160123000454454,
                -1.7489700797545322,
                -1.8843999979598456,
                -0.5637735525081864,
                -1.3327662687021455,
                -1.8988841591082544
            ]
        },
        {
            "positions": [
                0.11497311497520149,
                -1.7867202346307927,
                -1.879100462197021,
                -0.7409787157556729,
                -1.359914925419975,
                -2.0170697589516533
            ]
        },
        {
            "positions": [
                0.09834499994585846,
                -1.824470389507053,
                -1.8738009264341968,
                -0.9181838790031592,
                -1.3870635821378046,
                -2.135255358795052
            ]
        },
        {
            "positions": [
                0.08171688491651542,
                -1.8622205443833135,
                -1.8685013906713723,
                -1.0953890422506458,
                -1.414212238855634,
                -2.2534409586384507
            ]
        },
        {
            "positions": [
                0.06508876988717241,
                -1.899970699259574,
                -1.8632018549085478,
                -1.272594205498132,
                -1.4413608955734636,
                -2.3716265584818492
            ]
        },
        {
            "positions": [
                0.048460654857829355,
                -1.9377208541358344,
                -1.8579023191457236,
                -1.4497993687456188,
                -1.4685095522912932,
                -2.489812158325248
            ]
        },
        {
            "positions": [
                0.03183253982848633,
                -1.9754710090120948,
                -1.852602783382899,
                -1.627004531993105,
                -1.4956582090091226,
                -2.6079977581686467
            ]
        },
        {
            "positions": [
                0.015204424799143301,
                -2.013221163888355,
                -1.8473032476200746,
                -1.8042096952405915,
                -1.5228068657269522,
                -2.7261833580120456
            ]
        },
        {
            "positions": [
                -0.0014236902301997256,
                -2.0509713187646157,
                -1.84200371185725,
                -1.9814148584880777,
                -1.5499555224447819,
                -2.844368957855444
            ]
        },
        {
            "positions": [
                -0.01805180525954278,
                -2.0887214736408763,
                -1.8367041760944258,
                -2.158620021735564,
                -1.5771041791626113,
                -2.9625545576988426
            ]
        },
        {
            "positions": [
                -0.0346799202888858,
                -2.1264716285171366,
                -1.8314046403316013,
                -2.3358251849830505,
                -1.6042528358804409,
                -3.0807401575422415
            ]
        }
    ]
}