{
    "goal": {
        "global_pose": {
            "orientation": {
                "w": 0.5084816262002911,
                "x": -0.4908360881923452,
                "y": 0.5182115481033761,
                "z": -0.48164630358495003
            },
            "position": {
                "x": 0.5540239810943604,
                "y": -0.46912469901144505,
                "z": 0.16403168439865112
            }
        },
        "name": "move_to_storage_B"
    },
    "id": "BFMT_move_to_storage_B_50",
    "joint_names": [
        "shoulder_pan_joint",
        "shoulder_lift_joint",
        "elbow_joint",
        "wrist_1_joint",
        "wrist_2_joint",
        "wrist_3_joint"
    ],
    "metrics": {
        "cart_traj_len": 0.6700474219726288,
        "distance_elbow_joint": 0.3505151142186538,
        "distance_shoulder_lift_joint": 0.45857784435725746,
        "distance_shoulder_pan_joint": 0.18175233328418428,
        "distance_wrist_1_joint": 2.9960654756675975,
        "distance_wrist_2_joint": 2.702607751986488,
        "distance_wrist_3_joint": 3.1388588181097683,
        "smoothness": 4.2764146171162885e-16,
        "time": 0.574334921,
        "traj_len": 3.1350242961776145,
        "weighted_distance": 4.669557602332106
    },
    "planner": "BFMT",
    "start": {
        "state": {
            "elbow_joint": 1.664937868594044,
            "shoulder_lift_joint": -0.661644460510453,
            "shoulder_pan_joint": -0.9139846352900073,
            "wrist_1_joint": 2.146753192139373,
            "wrist_2_joint": -2.2341966793290973,
            "wrist_3_joint": 0.005466555786416001
        }
    },
    "waypoints": [
        {
            "positions": [
                -0.9139846352900073,
                -0.661644460510453,
                1.664937868594044,
                2.146753192139373,
                -2.2341966793290973,
                0.005466555786416001
            ]
        },
        {
            "positions": [
                -0.9176105439512581,
                -0.6837600026446835,
                1.6821540459835351,
                2.0060072507443643,
                -2.1423063410345353,
                -0.10616083807587641
            ]
        },
        {
            "positions": [
                -0.9212364526125089,
                -0.705875544778914,
                1.6993702233730266,
                1.865261309349355,
                -2.0504160027399734,
                -0.21778823193816882
            ]
        },
        {
            "positions": [
                -0.9248623612737596,
                -0.7279910869131446,
                1.7165864007625178,
                1.724515367954346,
                -1.9585256644454114,
                -0.3294156258004612
            ]
        },
        {
            "positions": [
                -0.9284882699350104,
                -0.7501066290473751,
                1.7338025781520092,
                1.583769426559337,
                -1.8666353261508495,
                -0.4410430196627536
            ]
        },
        {
            "positions": [
                -0.9321141785962612,
                -0.7722221711816056,
                1.7510187555415004,
                1.4430234851643278,
                -1.7747449878562875,
                -0.552670413525046
            ]
        },
        {
            "positions": [
                -0.935740087257512,
                -0.7943377133158361,
                1.7682349329309919,
                1.3022775437693186,
                -1.6828546495617256,
                -0.6642978073873385
            ]
        },
        {
            "positions": [
                -0.9393659959187628,
                -0.8164532554500668,
                1.785451110320483,
                1.1615316023743096,
                -1.5909643112671636,
                -0.7759252012496308
            ]
        },
        {
            "positions": [
                -0.9429919045800136,
                -0.8385687975842973,
                1.8026672877099745,
                1.0207856609793005,
                -1.4990739729726017,
                -0.8875525951119233
            ]
        },
        {
            "positions": [
                -0.9466178132412644,
                -0.8606843397185278,
                1.8198834650994657,
                0.8800397195842913,
                -1.4071836346780398,
                -0.9991799889742157
            ]
        },
        {
            "positions": [
                -0.9502437219025152,
                -0.8827998818527583,
                1.8370996424889572,
                0.7392937781892823,
                -1.3152932963834778,
                -1.110807382836508
            ]
        },
        {
            "positions": [
                -0.953869630563766,
                -0.9049154239869888,
                1.8543158198784484,
                0.5985478367942731,
                -1.2234029580889159,
                -1.2224347766988004
            ]
        },
        {
            "positions": [
                -0.9574955392250167,
                -0.9270309661212193,
                1.8715319972679398,
                0.45780189539926397,
                -1.131512619794354,
                -1.3340621705610929
            ]
        },
        {
            "positions": [
                -0.9611214478862675,
                -0.9491465082554498,
                1.888748174657431,
                0.3170559540042548,
                -1.039622281499792,
                -1.4456895644233854
            ]
        },
        {
            "positions": [
                -0.9647473565475183,
                -0.9712620503896804,
                1.9059643520469223,
                0.17631001260924584,
                -0.94773194320523,
                -1.5573169582856776
            ]
        },
        {
            "positions": [
                -0.9683732652087691,
                -0.9933775925239109,
                1.9231805294364137,
                0.0355640712142368,
                -0.855841604910668,
                -1.66894435214797
            ]
        },
        {
            "positions": [
                -0.9799517836965348,
                -1.004908930009711,
                1.9315689342888032,
                -0.04487923376235066,
                -0.7354549978590262,
                -1.802075980345732
            ]
        },
        {
            "positions": [
                -0.9915303021843005,
                -1.0164402674955109,
                1.9399573391411926,
                -0.12532253873893812,
                -0.6150683908073844,
                -1.9352076085434942
            ]
        },
        {
            "positions": [
                -1.0031088206720662,
                -1.0279716049813108,
                1.948345743993582,
                -0.20576584371552556,
                -0.4946817837557427,
                -2.0683392367412563
            ]
        },
        {
            "positions": [
                -1.014687339159832,
                -1.0395029424671107,
                1.9567341488459715,
                -0.286209148692113,
                -0.3742951767041009,
                -2.2014708649390182
            ]
        },
        {
            "positions": [
                -1.0262658576475976,
                -1.0510342799529107,
                1.965122553698361,
                -0.3666524536687005,
                -0.2539085696524591,
                -2.33460249313678
            ]
        },
        {
            "positions": [
                -1.037844376135363,
                -1.0625656174387106,
                1.9735109585507504,
                -0.44709575864528794,
                -0.1335219626008174,
                -2.4677341213345425
            ]
        },
        {
            "positions": [
                -1.0494228946231288,
                -1.0740969549245105,
                1.9818993634031399,
                -0.5275390636218754,
                -0.013135355549175665,
                -2.6008657495323044
            ]
        },
        {
            "positions": [
                -1.0610014131108945,
                -1.0856282924103107,
                1.9902877682555293,
                -0.6079823685984629,
                0.10725125150246617,
                -2.7339973777300663
            ]
        },
        {
            "positions": [
                -1.0725799315986602,
                -1.0971596298961106,
                1.9986761731079188,
                -0.6884256735750505,
                0.227637858554108,
                -2.8671290059278283
            ]
        },
        {
            "positions": [
                -1.0841584500864259,
                -1.1086909673819105,
                2.0070645779603082,
                -0.7688689785516378,
                0.34802446560574973,
                -3.00026063412559
            ]
        },
        {
            "positions": [
                -1.0957369685741916,
                -1.1202223048677105,
                2.0154529828126977,
                -0.8493122835282253,
                0.46841107265739146,
                -3.1333922623233526
            ]
        }
    ]
}