{
    "goal": {
        "global_pose": {
            "orientation": {
                "w": 0.005598929693374612,
                "x": 0.007748599140229565,
                "y": 0.7110244013736278,
                "z": -0.7031023480610252
            },
            "position": {
                "x": 0.1141497679147869,
                "y": -0.7141253447532654,
                "z": 0.3711530566215515
            }
        },
        "name": "move_to_auspresseinheit_B"
    },
    "id": "BFMT_move_to_auspresseinheit_B_148",
    "joint_names": [
        "shoulder_pan_joint",
        "shoulder_lift_joint",
        "elbow_joint",
        "wrist_1_joint",
        "wrist_2_joint",
        "wrist_3_joint"
    ],
    "metrics": {
        "cart_traj_len": 0.5647368868909274,
        "distance_elbow_joint": 0.06118241940442437,
        "distance_shoulder_lift_joint": 0.2958987739825405,
        "distance_shoulder_pan_joint": 0.577843365798913,
        "distance_wrist_1_joint": 0.32470013193255787,
        "distance_wrist_2_joint": 0.9915521268874543,
        "distance_wrist_3_joint": 0.0068357584244589376,
        "smoothness": 5.075305295617109e-16,
        "time": 0.478471417,
        "traj_len": 1.5026684852056853,
        "weighted_distance": 1.8941848780146249
    },
    "planner": "BFMT",
    "start": {
        "state": {
            "elbow_joint": 2.0193083361928714,
            "shoulder_lift_joint": -1.1220246554650708,
            "shoulder_pan_joint": -1.0952077554168747,
            "wrist_1_joint": -0.8559753972642168,
            "wrist_2_joint": 0.4759566250798843,
            "wrist_3_joint": -3.1240929996934557
        }
    },
    "waypoints": [
        {
            "positions": [
                -1.0952077554168747,
                -1.1220246554650708,
                2.0193083361928714,
                -0.8559753972642168,
                0.4759566250798843,
                -3.1240929996934557
            ]
        },
        {
            "positions": [
                -1.191514983050027,
                -1.1713411177954942,
                2.009111266292134,
                -0.8018587086087905,
                0.64121531289446,
                -3.1252322927641987
            ]
        },
        {
            "positions": [
                -1.287822210683179,
                -1.2206575801259176,
                1.9989141963913966,
                -0.7477420199533642,
                0.8064740007090356,
                -3.126371585834942
            ]
        },
        {
            "positions": [
                -1.3841294383163312,
                -1.269974042456341,
                1.9887171264906591,
                -0.6936253312979379,
                0.9717326885236115,
                -3.127510878905685
            ]
        },
        {
            "positions": [
                -1.4804366659494832,
                -1.3192905047867645,
                1.978520056589922,
                -0.6395086426425116,
                1.1369913763381871,
                -3.128650171976428
            ]
        },
        {
            "positions": [
                -1.5767438935826354,
                -1.3686069671171879,
                1.9683229866891845,
                -0.5853919539870852,
                1.302250064152763,
                -3.1297894650471716
            ]
        },
        {
            "positions": [
                -1.6730511212157877,
                -1.4179234294476113,
                1.958125916788447,
                -0.5312752653316589,
                1.4675087519673387,
                -3.1309287581179146
            ]
        }
    ]
}