{
    "goal": {
        "global_pose": {
            "orientation": {
                "w": 0.005598929693374612,
                "x": 0.007748599140229565,
                "y": 0.7110244013736278,
                "z": -0.7031023480610252
            },
            "position": {
                "x": 0.1141497679147869,
                "y": -0.7141253447532654,
                "z": 0.3711530566215515
            }
        },
        "name": "move_to_auspresseinheit_B"
    },
    "id": "BFMT_move_to_auspresseinheit_B_83",
    "joint_names": [
        "shoulder_pan_joint",
        "shoulder_lift_joint",
        "elbow_joint",
        "wrist_1_joint",
        "wrist_2_joint",
        "wrist_3_joint"
    ],
    "metrics": {
        "cart_traj_len": 0.5653814553799733,
        "distance_elbow_joint": 0.06117549996696492,
        "distance_shoulder_lift_joint": 0.2958310039745933,
        "distance_shoulder_pan_joint": 0.5776012995961135,
        "distance_wrist_1_joint": 0.32241252022098343,
        "distance_wrist_2_joint": 0.9964411551453898,
        "distance_wrist_3_joint": 0.008202697402559966,
        "smoothness": 0.0,
        "time": 0.48599221400000003,
        "traj_len": 1.5038830327876582,
        "weighted_distance": 1.8965556270455393
    },
    "planner": "BFMT",
    "start": {
        "state": {
            "elbow_joint": 2.0193083361928714,
            "shoulder_lift_joint": -1.1220246554650708,
            "shoulder_pan_joint": -1.0952077554168747,
            "wrist_1_joint": -0.8559753972642168,
            "wrist_2_joint": 0.4759566250798843,
            "wrist_3_joint": -3.1240929996934557
        }
    },
    "waypoints": [
        {
            "positions": [
                -1.0952077554168747,
                -1.1220246554650708,
                2.0193083361928714,
                -0.8559753972642168,
                0.4759566250798843,
                -3.1240929996934557
            ]
        },
        {
            "positions": [
                -1.1914746386828936,
                -1.1713298227941698,
                2.0091124195317107,
                -0.8022399772273863,
                0.6420301509374493,
                -3.1227258834596956
            ]
        },
        {
            "positions": [
                -1.2877415219489126,
                -1.2206349901232685,
                1.9989165028705498,
                -0.7485045571905556,
                0.8081036767950143,
                -3.1213587672259355
            ]
        },
        {
            "positions": [
                -1.3840084052149315,
                -1.2699401574523674,
                1.9887205862093889,
                -0.694769137153725,
                0.9741772026525792,
                -3.1199916509921755
            ]
        },
        {
            "positions": [
                -1.4802752884809502,
                -1.3192453247814664,
                1.9785246695482281,
                -0.6410337171168945,
                1.1402507285101442,
                -3.118624534758416
            ]
        },
        {
            "positions": [
                -1.5765421717469692,
                -1.3685504921105651,
                1.9683287528870674,
                -0.587298297080064,
                1.3063242543677092,
                -3.1172574185246558
            ]
        },
        {
            "positions": [
                -1.6728090550129882,
                -1.417855659439664,
                1.9581328362259065,
                -0.5335628770432334,
                1.4723977802252741,
                -3.1158903022908957
            ]
        }
    ]
}