{
    "goal": {
        "global_pose": {
            "orientation": {
                "w": 0.005598929693374612,
                "x": 0.007748599140229565,
                "y": 0.7110244013736278,
                "z": -0.7031023480610252
            },
            "position": {
                "x": 0.1141497679147869,
                "y": -0.7141253447532654,
                "z": 0.3711530566215515
            }
        },
        "name": "move_to_auspresseinheit_B"
    },
    "id": "BFMT_move_to_auspresseinheit_B_17",
    "joint_names": [
        "shoulder_pan_joint",
        "shoulder_lift_joint",
        "elbow_joint",
        "wrist_1_joint",
        "wrist_2_joint",
        "wrist_3_joint"
    ],
    "metrics": {
        "cart_traj_len": 0.5644181404494193,
        "distance_elbow_joint": 0.06152005104949465,
        "distance_shoulder_lift_joint": 0.2963737082023614,
        "distance_shoulder_pan_joint": 0.5767564960925387,
        "distance_wrist_1_joint": 0.3267745706260031,
        "distance_wrist_2_joint": 0.9949642172642703,
        "distance_wrist_3_joint": 0.008310882899090544,
        "smoothness": 0.0,
        "time": 0.491281647,
        "traj_len": 1.5048919981625788,
        "weighted_distance": 1.8981729320117842
    },
    "planner": "BFMT",
    "start": {
        "state": {
            "elbow_joint": 2.0193083361928714,
            "shoulder_lift_joint": -1.1220246554650708,
            "shoulder_pan_joint": -1.0952077554168747,
            "wrist_1_joint": -0.8559753972642168,
            "wrist_2_joint": 0.4759566250798843,
            "wrist_3_joint": -3.1240929996934557
        }
    },
    "waypoints": [
        {
            "positions": [
                -1.0952077554168747,
                -1.1220246554650708,
                2.0193083361928714,
                -0.8559753972642168,
                0.4759566250798843,
                -3.1240929996934557
            ]
        },
        {
            "positions": [
                -1.1913338380989644,
                -1.1714202734987977,
                2.009054994351289,
                -0.8015129688265497,
                0.6417839946239293,
                -3.1227078525436074
            ]
        },
        {
            "positions": [
                -1.2874599207810542,
                -1.2208158915325247,
                1.9988016525097065,
                -0.7470505403888824,
                0.8076113641679743,
                -3.1213227053937587
            ]
        },
        {
            "positions": [
                -1.383586003463144,
                -1.2702115095662516,
                1.988548310668124,
                -0.6925881119512152,
                0.9734387337120194,
                -3.1199375582439104
            ]
        },
        {
            "positions": [
                -1.4797120861452338,
                -1.3196071275999783,
                1.9782949688265417,
                -0.638125683513548,
                1.1392661032560645,
                -3.118552411094062
            ]
        },
        {
            "positions": [
                -1.5758381688273235,
                -1.3690027456337053,
                1.9680416269849592,
                -0.5836632550758809,
                1.3050934728001096,
                -3.1171672639442134
            ]
        },
        {
            "positions": [
                -1.6719642515094133,
                -1.4183983636674322,
                1.9577882851433768,
                -0.5292008266382137,
                1.4709208423441547,
                -3.115782116794365
            ]
        }
    ]
}