{
    "goal": {
        "global_pose": {
            "orientation": {
                "w": 0.5084816262002911,
                "x": -0.4908360881923452,
                "y": 0.5182115481033761,
                "z": -0.48164630358495003
            },
            "position": {
                "x": 0.5540239810943604,
                "y": -0.46912469901144505,
                "z": 0.16403168439865112
            }
        },
        "name": "move_to_storage_B"
    },
    "id": "BFMT_move_to_storage_B_131",
    "joint_names": [
        "shoulder_pan_joint",
        "shoulder_lift_joint",
        "elbow_joint",
        "wrist_1_joint",
        "wrist_2_joint",
        "wrist_3_joint"
    ],
    "metrics": {
        "cart_traj_len": 0.9737066659808793,
        "distance_elbow_joint": 0.34918601474129485,
        "distance_shoulder_lift_joint": 0.4594414945959546,
        "distance_shoulder_pan_joint": 0.5795185045481454,
        "distance_wrist_1_joint": 2.9854366802755816,
        "distance_wrist_2_joint": 2.702030509637807,
        "distance_wrist_3_joint": 3.1756854353615687,
        "smoothness": 0.08125492095760956,
        "time": 0.6402759579999999,
        "traj_len": 3.201764925655903,
        "weighted_distance": 4.721243130765125
    },
    "planner": "BFMT",
    "start": {
        "state": {
            "elbow_joint": 1.664937868594044,
            "shoulder_lift_joint": -0.661644460510453,
            "shoulder_pan_joint": -0.9139846352900073,
            "wrist_1_joint": 2.146753192139373,
            "wrist_2_joint": -2.2341966793290973,
            "wrist_3_joint": 0.005466555786416001
        }
    },
    "waypoints": [
        {
            "positions": [
                -0.9139846352900073,
                -0.661644460510453,
                1.664937868594044,
                2.146753192139373,
                -2.2341966793290973,
                0.005466555786416001
            ]
        },
        {
            "positions": [
                -0.8813480093525953,
                -0.7322897962116397,
                1.6861158362013595,
                1.9840538126318723,
                -2.1372697858019096,
                0.0006754001925994924
            ]
        },
        {
            "positions": [
                -0.8487113834151834,
                -0.8029351319128264,
                1.7072938038086751,
                1.8213544331243714,
                -2.0403428922747224,
                -0.004115755401217016
            ]
        },
        {
            "positions": [
                -0.8160747574777714,
                -0.8735804676140131,
                1.7284717714159907,
                1.6586550536168705,
                -1.943415998747535,
                -0.008906910995033525
            ]
        },
        {
            "positions": [
                -0.7834381315403594,
                -0.9442258033151998,
                1.7496497390233063,
                1.4959556741093696,
                -1.8464891052203476,
                -0.013698066588850033
            ]
        },
        {
            "positions": [
                -0.7606210227121658,
                -0.9960345192707226,
                1.765800357261663,
                1.3710966682921226,
                -1.7695581396875715,
                -0.008159450774127509
            ]
        },
        {
            "positions": [
                -0.7378039138839723,
                -1.0478432352262455,
                1.7819509755000194,
                1.2462376624748757,
                -1.6926271741547954,
                -0.002620834959404985
            ]
        },
        {
            "positions": [
                -0.7149868050557787,
                -1.0996519511817682,
                1.798101593738376,
                1.1213786566576287,
                -1.6156962086220192,
                0.002917780855317539
            ]
        },
        {
            "positions": [
                -0.7340128387714746,
                -1.100723651378,
                1.808902708218224,
                1.0233755494179368,
                -1.5115197066754829,
                0.15991302913242433
            ]
        },
        {
            "positions": [
                -0.7530388724871704,
                -1.101795351574232,
                1.8197038226980722,
                0.925372442178245,
                -1.4073432047289465,
                0.3169082774095311
            ]
        },
        {
            "positions": [
                -0.7720649062028663,
                -1.1028670517704642,
                1.8305049371779203,
                0.8273693349385531,
                -1.30316670278241,
                0.47390352568663785
            ]
        },
        {
            "positions": [
                -0.791090939918562,
                -1.103938751966696,
                1.8413060516577686,
                0.7293662276988613,
                -1.1989902008358737,
                0.6308987739637447
            ]
        },
        {
            "positions": [
                -0.8101169736342579,
                -1.105010452162928,
                1.8521071661376167,
                0.6313631204591695,
                -1.0948136988893373,
                0.7878940222408515
            ]
        },
        {
            "positions": [
                -0.8291430073499537,
                -1.10608215235916,
                1.8629082806174648,
                0.5333600132194777,
                -0.990637196942801,
                0.9448892705179582
            ]
        },
        {
            "positions": [
                -0.8481690410656496,
                -1.107153852555392,
                1.873709395097313,
                0.43535690597978594,
                -0.8864606949962646,
                1.101884518795065
            ]
        },
        {
            "positions": [
                -0.8671950747813455,
                -1.108225552751624,
                1.884510509577161,
                0.33735379874009397,
                -0.7822841930497282,
                1.2588797670721719
            ]
        },
        {
            "positions": [
                -0.8862211084970413,
                -1.109297252947856,
                1.8953116240570091,
                0.23935069150040222,
                -0.6781076911031918,
                1.4158750153492787
            ]
        },
        {
            "positions": [
                -0.905247142212737,
                -1.110368953144088,
                1.9061127385368573,
                0.14134758426071037,
                -0.5739311891566554,
                1.5728702636263854
            ]
        },
        {
            "positions": [
                -0.9242731759284329,
                -1.1114406533403198,
                1.9169138530167056,
                0.04334447702101851,
                -0.46975468721011904,
                1.7298655119034922
            ]
        },
        {
            "positions": [
                -0.9432992096441288,
                -1.1125123535365518,
                1.9277149674965537,
                -0.05465863021867334,
                -0.36557818526358266,
                1.886860760180599
            ]
        },
        {
            "positions": [
                -0.9623252433598246,
                -1.113584053732784,
                1.9385160819764018,
                -0.1526617374583652,
                -0.2614016833170463,
                2.0438560084577055
            ]
        },
        {
            "positions": [
                -0.9813512770755204,
                -1.1146557539290158,
                1.94931719645625,
                -0.25066484469805683,
                -0.1572251813705099,
                2.200851256734812
            ]
        },
        {
            "positions": [
                -1.0003773107912162,
                -1.1157274541252478,
                1.960118310936098,
                -0.3486679519377489,
                -0.05304867942397351,
                2.357846505011919
            ]
        },
        {
            "positions": [
                -1.0194033445069122,
                -1.1167991543214797,
                1.9709194254159463,
                -0.44667105917744077,
                0.05112782252256287,
                2.514841753289026
            ]
        },
        {
            "positions": [
                -1.038429378222608,
                -1.1178708545177116,
                1.9817205398957944,
                -0.5446741664171324,
                0.15530432446909925,
                2.6718370015661326
            ]
        },
        {
            "positions": [
                -1.057455411938304,
                -1.1189425547139438,
                1.9925216543756425,
                -0.6426772736568243,
                0.25948082641563563,
                2.8288322498432397
            ]
        },
        {
            "positions": [
                -1.0764814456539997,
                -1.1200142549101757,
                2.0033227688554907,
                -0.7406803808965161,
                0.363657328362172,
                2.985827498120346
            ]
        },
        {
            "positions": [
                -1.0955074793696955,
                -1.1210859551064076,
                2.0141238833353388,
                -0.8386834881362081,
                0.46783383030870845,
                3.142822746397453
            ]
        }
    ]
}