{
    "goal": {
        "global_pose": {
            "orientation": {
                "w": 0.5084816262002911,
                "x": -0.4908360881923452,
                "y": 0.5182115481033761,
                "z": -0.48164630358495003
            },
            "position": {
                "x": 0.5540239810943604,
                "y": -0.46912469901144505,
                "z": 0.16403168439865112
            }
        },
        "name": "move_to_storage_B"
    },
    "id": "BFMT_move_to_storage_B_36",
    "joint_names": [
        "shoulder_pan_joint",
        "shoulder_lift_joint",
        "elbow_joint",
        "wrist_1_joint",
        "wrist_2_joint",
        "wrist_3_joint"
    ],
    "metrics": {
        "cart_traj_len": 0.7118501789843455,
        "distance_elbow_joint": 0.347023637999369,
        "distance_shoulder_lift_joint": 0.4572011023701126,
        "distance_shoulder_pan_joint": 0.32766975039332624,
        "distance_wrist_1_joint": 2.9790405406237315,
        "distance_wrist_2_joint": 2.7030077479331256,
        "distance_wrist_3_joint": 3.1396944199415953,
        "smoothness": 0.03344492320651361,
        "time": 0.813741641,
        "traj_len": 3.1549385412811546,
        "weighted_distance": 4.6813538990020085
    },
    "planner": "BFMT",
    "start": {
        "state": {
            "elbow_joint": 1.664937868594044,
            "shoulder_lift_joint": -0.661644460510453,
            "shoulder_pan_joint": -0.9139846352900073,
            "wrist_1_joint": 2.146753192139373,
            "wrist_2_joint": -2.2341966793290973,
            "wrist_3_joint": 0.005466555786416001
        }
    },
    "waypoints": [
        {
            "positions": [
                -0.9139846352900073,
                -0.661644460510453,
                1.664937868594044,
                2.146753192139373,
                -2.2341966793290973,
                0.005466555786416001
            ]
        },
        {
            "positions": [
                -0.8776472130896774,
                -0.7489480764870435,
                1.7193611304107828,
                2.079219375351067,
                -2.171360187002045,
                -0.05917455154151374
            ]
        },
        {
            "positions": [
                -0.8413097908893475,
                -0.836251692463634,
                1.7737843922275218,
                2.0116855585627604,
                -2.1085236946749926,
                -0.12381565886944347
            ]
        },
        {
            "positions": [
                -0.851934578639042,
                -0.8480264370643394,
                1.783708438659434,
                1.8931866874357972,
                -2.0011347462050333,
                -0.2492495007563491
            ]
        },
        {
            "positions": [
                -0.8625593663887364,
                -0.8598011816650449,
                1.793632485091346,
                1.7746878163088338,
                -1.8937457977350742,
                -0.37468334264325476
            ]
        },
        {
            "positions": [
                -0.8731841541384309,
                -0.8715759262657504,
                1.8035565315232582,
                1.6561889451818705,
                -1.786356849265115,
                -0.5001171845301605
            ]
        },
        {
            "positions": [
                -0.8838089418881253,
                -0.8833506708664559,
                1.8134805779551704,
                1.5376900740549073,
                -1.678967900795156,
                -0.6255510264170661
            ]
        },
        {
            "positions": [
                -0.8944337296378198,
                -0.8951254154671614,
                1.8234046243870825,
                1.4191912029279439,
                -1.5715789523251966,
                -0.7509848683039718
            ]
        },
        {
            "positions": [
                -0.9050585173875142,
                -0.9069001600678669,
                1.8333286708189946,
                1.3006923318009807,
                -1.4641900038552373,
                -0.8764187101908775
            ]
        },
        {
            "positions": [
                -0.9156833051372086,
                -0.9186749046685724,
                1.8432527172509068,
                1.1821934606740174,
                -1.356801055385278,
                -1.0018525520777832
            ]
        },
        {
            "positions": [
                -0.9263080928869031,
                -0.9304496492692779,
                1.853176763682819,
                1.0636945895470542,
                -1.249412106915319,
                -1.1272863939646887
            ]
        },
        {
            "positions": [
                -0.9369328806365975,
                -0.9422243938699834,
                1.863100810114731,
                0.9451957184200908,
                -1.1420231584453597,
                -1.2527202358515945
            ]
        },
        {
            "positions": [
                -0.947557668386292,
                -0.9539991384706888,
                1.8730248565466432,
                0.8266968472931273,
                -1.0346342099754005,
                -1.3781540777385002
            ]
        },
        {
            "positions": [
                -0.9581824561359864,
                -0.9657738830713942,
                1.8829489029785553,
                0.7081979761661643,
                -0.9272452615054414,
                -1.5035879196254058
            ]
        },
        {
            "positions": [
                -0.9688072438856807,
                -0.9775486276720997,
                1.8928729494104672,
                0.5896991050392009,
                -0.8198563130354821,
                -1.6290217615123115
            ]
        },
        {
            "positions": [
                -0.9794320316353752,
                -0.9893233722728052,
                1.9027969958423794,
                0.47120023391223764,
                -0.7124673645655231,
                -1.7544556033992171
            ]
        },
        {
            "positions": [
                -0.9900568193850696,
                -1.0010981168735107,
                1.9127210422742915,
                0.3527013627852742,
                -0.6050784160955636,
                -1.879889445286123
            ]
        },
        {
            "positions": [
                -1.0006816071347642,
                -1.0128728614742162,
                1.9226450887062037,
                0.23420249165831097,
                -0.4976894676256045,
                -2.0053232871730287
            ]
        },
        {
            "positions": [
                -1.0113063948844585,
                -1.0246476060749217,
                1.9325691351381158,
                0.11570362053134775,
                -0.39030051915564545,
                -2.130757129059934
            ]
        },
        {
            "positions": [
                -1.021931182634153,
                -1.0364223506756272,
                1.942493181570028,
                -0.0027952505956156948,
                -0.28291157068568595,
                -2.25619097094684
            ]
        },
        {
            "positions": [
                -1.0325559703838474,
                -1.0481970952763326,
                1.95241722800194,
                -0.12129412172257892,
                -0.1755226222157269,
                -2.3816248128337456
            ]
        },
        {
            "positions": [
                -1.0431807581335417,
                -1.0599718398770381,
                1.9623412744338522,
                -0.23979299284954214,
                -0.06813367374576762,
                -2.5070586547206513
            ]
        },
        {
            "positions": [
                -1.0538055458832363,
                -1.0717465844777436,
                1.9722653208657643,
                -0.3582918639765058,
                0.03925527472419166,
                -2.632492496607557
            ]
        },
        {
            "positions": [
                -1.0644303336329308,
                -1.0835213290784491,
                1.9821893672976765,
                -0.47679073510346903,
                0.14664422319415094,
                -2.7579263384944626
            ]
        },
        {
            "positions": [
                -1.0750551213826252,
                -1.0952960736791546,
                1.9921134137295886,
                -0.5952896062304318,
                0.25403317166410977,
                -2.883360180381368
            ]
        },
        {
            "positions": [
                -1.0856799091323197,
                -1.10707081827986,
                2.002037460161501,
                -0.7137884773573955,
                0.36142212013406905,
                -3.008794022268274
            ]
        },
        {
            "positions": [
                -1.096304696882014,
                -1.1188455628805656,
                2.011961506593413,
                -0.8322873484843586,
                0.46881106860402844,
                -3.1342278641551795
            ]
        }
    ]
}