{
    "goal": {
        "global_pose": {
            "orientation": {
                "w": 0.7031023480610252,
                "x": -0.7110244013736278,
                "y": 0.0077485991402295624,
                "z": 0.005598929693374583
            },
            "position": {
                "x": -0.8841497679147869,
                "y": 0.44412534475326537,
                "z": 0.3711530566215515
            }
        },
        "name": "move_to_auspresseinheit_D"
    },
    "id": "BFMT_move_to_auspresseinheit_D_55",
    "joint_names": [
        "shoulder_pan_joint",
        "shoulder_lift_joint",
        "elbow_joint",
        "wrist_1_joint",
        "wrist_2_joint",
        "wrist_3_joint"
    ],
    "metrics": {
        "cart_traj_len": 0.3445179706292166,
        "distance_elbow_joint": 0.6640168636125681,
        "distance_shoulder_lift_joint": 0.1355752168284745,
        "distance_shoulder_pan_joint": 0.13422958120059256,
        "distance_wrist_1_joint": 0.6162233896830895,
        "distance_wrist_2_joint": 1.430007702427675,
        "distance_wrist_3_joint": 0.06124704330848152,
        "smoothness": 6.908054402309963e-16,
        "time": 0.452054729,
        "traj_len": 1.7439322799526595,
        "weighted_distance": 2.2825479131419364
    },
    "planner": "BFMT",
    "start": {
        "state": {
            "elbow_joint": -1.8275523626775212,
            "shoulder_lift_joint": -2.126789852344167,
            "shoulder_pan_joint": -0.03513704404078235,
            "wrist_1_joint": -2.347782403156801,
            "wrist_2_joint": -1.6058999987535132,
            "wrist_3_joint": -3.0880379163319196
        }
    },
    "waypoints": [
        {
            "positions": [
                -0.03513704404078235,
                -2.126789852344167,
                -1.8275523626775212,
                -2.347782403156801,
                -1.6058999987535132,
                -3.0880379163319196
            ]
        },
        {
            "positions": [
                -0.051915741690856415,
                -2.143736754447726,
                -1.7445502547259502,
                -2.424810326867187,
                -1.4271490359500538,
                -3.0803820359183596
            ]
        },
        {
            "positions": [
                -0.06869443934093049,
                -2.1606836565512855,
                -1.6615481467743791,
                -2.501838250577573,
                -1.2483980731465945,
                -3.072726155504799
            ]
        },
        {
            "positions": [
                -0.08547313699100456,
                -2.177630558654845,
                -1.578546038822808,
                -2.5788661742879593,
                -1.069647110343135,
                -3.065070275091239
            ]
        },
        {
            "positions": [
                -0.10225183464107862,
                -2.194577460758404,
                -1.495543930871237,
                -2.6558940979983454,
                -0.8908961475396757,
                -3.0574143946776786
            ]
        },
        {
            "positions": [
                -0.11903053229115271,
                -2.2115243628619634,
                -1.4125418229196662,
                -2.732922021708732,
                -0.7121451847362164,
                -3.0497585142641186
            ]
        },
        {
            "positions": [
                -0.13580922994122677,
                -2.2284712649655227,
                -1.3295397149680952,
                -2.809949945419118,
                -0.533394221932757,
                -3.0421026338505586
            ]
        },
        {
            "positions": [
                -0.15258792759130083,
                -2.245418167069082,
                -1.2465376070165242,
                -2.8869778691295043,
                -0.3546432591292976,
                -3.034446753436998
            ]
        },
        {
            "positions": [
                -0.1693666252413749,
                -2.2623650691726414,
                -1.1635354990649531,
                -2.9640057928398904,
                -0.17589229632583836,
                -3.026790873023438
            ]
        }
    ]
}