{
    "goal": {
        "global_pose": {
            "orientation": {
                "w": 0.5084816262002911,
                "x": -0.4908360881923452,
                "y": 0.5182115481033761,
                "z": -0.48164630358495003
            },
            "position": {
                "x": 0.5540239810943604,
                "y": -0.46912469901144505,
                "z": 0.16403168439865112
            }
        },
        "name": "move_to_storage_B"
    },
    "id": "BFMT_move_to_storage_B_67",
    "joint_names": [
        "shoulder_pan_joint",
        "shoulder_lift_joint",
        "elbow_joint",
        "wrist_1_joint",
        "wrist_2_joint",
        "wrist_3_joint"
    ],
    "metrics": {
        "cart_traj_len": 1.2224714126687048,
        "distance_elbow_joint": 0.6067549527799012,
        "distance_shoulder_lift_joint": 1.5308581288275607,
        "distance_shoulder_pan_joint": 0.21969241787805094,
        "distance_wrist_1_joint": 3.0195143830829028,
        "distance_wrist_2_joint": 2.7053221997898813,
        "distance_wrist_3_joint": 3.1086217024365275,
        "smoothness": 0.13704247929416144,
        "time": 0.6406927139999999,
        "traj_len": 3.345259897944378,
        "weighted_distance": 4.809661502906485
    },
    "planner": "BFMT",
    "start": {
        "state": {
            "elbow_joint": 1.664937868594044,
            "shoulder_lift_joint": -0.661644460510453,
            "shoulder_pan_joint": -0.9139846352900073,
            "wrist_1_joint": 2.146753192139373,
            "wrist_2_joint": -2.2341966793290973,
            "wrist_3_joint": 0.005466555786416001
        }
    },
    "waypoints": [
        {
            "positions": [
                -0.9139846352900073,
                -0.661644460510453,
                1.664937868594044,
                2.146753192139373,
                -2.2341966793290973,
                0.005466555786416001
            ]
        },
        {
            "positions": [
                -0.9273534336489057,
                -0.7280705221304037,
                1.6970594539197605,
                2.0274998785584764,
                -2.1422617849050614,
                -0.06502259297258715
            ]
        },
        {
            "positions": [
                -0.9407222320078039,
                -0.7944965837503544,
                1.7291810392454772,
                1.9082465649775797,
                -2.0503268904810255,
                -0.1355117417315903
            ]
        },
        {
            "positions": [
                -0.9540910303667023,
                -0.8609226453703049,
                1.7613026245711938,
                1.7889932513966829,
                -1.9583919960569895,
                -0.20600089049059347
            ]
        },
        {
            "positions": [
                -0.9674598287256005,
                -0.9273487069902556,
                1.7934242098969104,
                1.6697399378157862,
                -1.8664571016329536,
                -0.2764900392495966
            ]
        },
        {
            "positions": [
                -0.9808286270844989,
                -0.9937747686102063,
                1.825545795222627,
                1.5504866242348894,
                -1.7745222072089177,
                -0.3469791880085997
            ]
        },
        {
            "positions": [
                -0.9941974254433972,
                -1.060200830230157,
                1.8576673805483437,
                1.4312333106539925,
                -1.6825873127848816,
                -0.4174683367676029
            ]
        },
        {
            "positions": [
                -1.0075662238022955,
                -1.1266268918501077,
                1.88978896587406,
                1.3119799970730959,
                -1.5906524183608457,
                -0.48795748552660606
            ]
        },
        {
            "positions": [
                -1.020935022161194,
                -1.1930529534700582,
                1.921910551199777,
                1.1927266834921992,
                -1.4987175239368098,
                -0.5584466342856093
            ]
        },
        {
            "positions": [
                -1.034303820520092,
                -1.259479015090009,
                1.9540321365254933,
                1.0734733699113024,
                -1.4067826295127739,
                -0.6289357830446124
            ]
        },
        {
            "positions": [
                -1.0476726188789904,
                -1.3259050767099596,
                1.98615372185121,
                0.9542200563304057,
                -1.314847735088738,
                -0.6994249318036155
            ]
        },
        {
            "positions": [
                -1.0610414172378888,
                -1.3923311383299102,
                2.0182753071769266,
                0.8349667427495091,
                -1.222912840664702,
                -0.7699140805626187
            ]
        },
        {
            "positions": [
                -1.0744102155967872,
                -1.458757199949861,
                2.0503968925026435,
                0.715713429168612,
                -1.130977946240666,
                -0.8404032293216219
            ]
        },
        {
            "positions": [
                -1.0877790139556853,
                -1.5251832615698118,
                2.08251847782836,
                0.5964601155877154,
                -1.03904305181663,
                -0.9108923780806251
            ]
        },
        {
            "positions": [
                -1.1011478123145837,
                -1.5916093231897621,
                2.1146400631540763,
                0.47720680200681853,
                -0.9471081573925941,
                -0.9813815268396282
            ]
        },
        {
            "positions": [
                -1.114516610673482,
                -1.658035384809713,
                2.146761648479793,
                0.35795348842592184,
                -0.8551732629685581,
                -1.0518706755986313
            ]
        },
        {
            "positions": [
                -1.1131480076381552,
                -1.6198591559148343,
                2.137837993273068,
                0.27004529704238955,
                -0.7604376355807478,
                -1.1983909949594513
            ]
        },
        {
            "positions": [
                -1.1117794046028284,
                -1.5816829270199557,
                2.128914338066343,
                0.18213710565885727,
                -0.6657020081929377,
                -1.3449113143202713
            ]
        },
        {
            "positions": [
                -1.1104108015675014,
                -1.5435066981250771,
                2.119990682859618,
                0.09422891427532498,
                -0.5709663808051274,
                -1.4914316336810913
            ]
        },
        {
            "positions": [
                -1.1090421985321746,
                -1.5053304692301985,
                2.1110670276528927,
                0.006320722891792696,
                -0.4762307534173172,
                -1.6379519530419113
            ]
        },
        {
            "positions": [
                -1.1076735954968477,
                -1.4671542403353197,
                2.1021433724461676,
                -0.08158746849173965,
                -0.3814951260295069,
                -1.7844722724027315
            ]
        },
        {
            "positions": [
                -1.106304992461521,
                -1.4289780114404411,
                2.0932197172394424,
                -0.16949565987527188,
                -0.2867594986416967,
                -1.9309925917635513
            ]
        },
        {
            "positions": [
                -1.1049363894261939,
                -1.3908017825455625,
                2.084296062032717,
                -0.2574038512588042,
                -0.19202387125388642,
                -2.0775129111243715
            ]
        },
        {
            "positions": [
                -1.103567786390867,
                -1.352625553650684,
                2.0753724068259918,
                -0.34531204264233645,
                -0.09728824386607626,
                -2.2240332304851913
            ]
        },
        {
            "positions": [
                -1.1021991833555402,
                -1.3144493247558051,
                2.0664487516192667,
                -0.4332202340258689,
                -0.002552616478265879,
                -2.3705535498460115
            ]
        },
        {
            "positions": [
                -1.1008305803202134,
                -1.2762730958609265,
                2.0575250964125416,
                -0.5211284254094011,
                0.09218301090954428,
                -2.5170738692068317
            ]
        },
        {
            "positions": [
                -1.0994619772848866,
                -1.238096866966048,
                2.0486014412058164,
                -0.6090366167929333,
                0.18691863829735456,
                -2.6635941885676515
            ]
        },
        {
            "positions": [
                -1.0980933742495596,
                -1.1999206380711693,
                2.0396777859990913,
                -0.6969448081764655,
                0.2816542656851647,
                -2.8101145079284713
            ]
        },
        {
            "positions": [
                -1.0967247712142327,
                -1.1617444091762907,
                2.030754130792366,
                -0.784852999559998,
                0.3763898930729751,
                -2.9566348272892915
            ]
        },
        {
            "positions": [
                -1.095356168178906,
                -1.1235681802814121,
                2.021830475585641,
                -0.8727611909435302,
                0.4711255204607853,
                -3.1031551466501117
            ]
        }
    ]
}