{
    "goal": {
        "global_pose": {
            "orientation": {
                "w": 0.7047431468963623,
                "x": -0.7094548344612122,
                "y": 0.0024358443915843964,
                "z": -0.0022348060738295317
            },
            "position": {
                "x": 0.6094750761985779,
                "y": 0.3671506643295288,
                "z": 0.19426114857196808
            }
        },
        "name": "move_to_magneteinheit_A"
    },
    "id": "BFMT_move_to_magneteinheit_A_60",
    "joint_names": [
        "shoulder_pan_joint",
        "shoulder_lift_joint",
        "elbow_joint",
        "wrist_1_joint",
        "wrist_2_joint",
        "wrist_3_joint"
    ],
    "metrics": {
        "cart_traj_len": 3.6527040952197463,
        "distance_elbow_joint": 3.905464693281079,
        "distance_shoulder_lift_joint": 0.09642973681054912,
        "distance_shoulder_pan_joint": 3.1045856960912936,
        "distance_wrist_1_joint": 0.7022303816057212,
        "distance_wrist_2_joint": 1.707710743797065,
        "distance_wrist_3_joint": 3.5691786039522064,
        "smoothness": 0.06453319210452135,
        "time": 0.863089395,
        "traj_len": 3.617402362958524,
        "weighted_distance": 4.757509662506752
    },
    "planner": "BFMT",
    "start": {
        "state": {
            "elbow_joint": -1.9196185241190666,
            "shoulder_lift_joint": -1.2443396400964142,
            "shoulder_pan_joint": 2.6996025414629847,
            "wrist_1_joint": -1.5485510000780065,
            "wrist_2_joint": -1.5709468930060704,
            "wrist_3_joint": 0.4420197071253992
        }
    },
    "waypoints": [
        {
            "positions": [
                2.6996025414629847,
                -1.2443396400964142,
                -1.9196185241190666,
                -1.5485510000780065,
                -1.5709468930060704,
                0.4420197071253992
            ]
        },
        {
            "positions": [
                2.5812578317159733,
                -1.2410566017163176,
                -1.7862059971068727,
                -1.5342637383783746,
                -1.535374997904883,
                0.35421996848770515
            ]
        },
        {
            "positions": [
                2.462913121968962,
                -1.237773563336221,
                -1.6527934700946787,
                -1.5199764766787427,
                -1.4998031028036958,
                0.2664202298500111
            ]
        },
        {
            "positions": [
                2.3445684122219506,
                -1.2344905249561244,
                -1.519380943082485,
                -1.5056892149791108,
                -1.4642312077025084,
                0.1786204912123171
            ]
        },
        {
            "positions": [
                2.226223702474939,
                -1.2312074865760279,
                -1.385968416070291,
                -1.491401953279479,
                -1.428659312601321,
                0.09082075257462308
            ]
        },
        {
            "positions": [
                2.107878992727928,
                -1.2279244481959313,
                -1.252555889058097,
                -1.4771146915798472,
                -1.3930874175001335,
                0.003021013936929051
            ]
        },
        {
            "positions": [
                1.9895342829809164,
                -1.2246414098158347,
                -1.1191433620459033,
                -1.4628274298802153,
                -1.3575155223989461,
                -0.08477872470076497
            ]
        },
        {
            "positions": [
                1.8711895732339048,
                -1.221358371435738,
                -0.9857308350337092,
                -1.4485401681805834,
                -1.321943627297759,
                -0.17257846333845905
            ]
        },
        {
            "positions": [
                1.7528448634868936,
                -1.2180753330556415,
                -0.8523183080215153,
                -1.4342529064809515,
                -1.2863717321965715,
                -0.260378201976153
            ]
        },
        {
            "positions": [
                1.634500153739882,
                -1.214792294675545,
                -0.7189057810093213,
                -1.4199656447813198,
                -1.2507998370953841,
                -0.3481779406138471
            ]
        },
        {
            "positions": [
                1.5161554439928706,
                -1.2115092562954484,
                -0.5854932539971274,
                -1.405678383081688,
                -1.215227941994197,
                -0.4359776792515411
            ]
        },
        {
            "positions": [
                1.3978107342458592,
                -1.2082262179153518,
                -0.4520807269849336,
                -1.391391121382056,
                -1.1796560468930095,
                -0.523777417889235
            ]
        },
        {
            "positions": [
                1.2794660244988478,
                -1.2049431795352552,
                -0.31866819997273965,
                -1.377103859682424,
                -1.144084151791822,
                -0.6115771565269291
            ]
        },
        {
            "positions": [
                1.1611213147518364,
                -1.2016601411551588,
                -0.1852556729605459,
                -1.3628165979827922,
                -1.1085122566906347,
                -0.699376895164623
            ]
        },
        {
            "positions": [
                1.0427766050048248,
                -1.1983771027750623,
                -0.05184314594835171,
                -1.3485293362831603,
                -1.0729403615894473,
                -0.7871766338023173
            ]
        },
        {
            "positions": [
                0.9244318952578137,
                -1.1950940643949657,
                0.08156938106384226,
                -1.3342420745835284,
                -1.03736846648826,
                -0.8749763724400111
            ]
        },
        {
            "positions": [
                0.8060871855108023,
                -1.191811026014869,
                0.214981908076036,
                -1.3199548128838967,
                -1.0017965713870727,
                -0.9627761110777052
            ]
        },
        {
            "positions": [
                0.6877424757637907,
                -1.1885279876347725,
                0.3483944350882302,
                -1.3056675511842648,
                -0.9662246762858853,
                -1.0505758497153992
            ]
        },
        {
            "positions": [
                0.5693977660167793,
                -1.185244949254676,
                0.48180696210042395,
                -1.291380289484633,
                -0.930652781184698,
                -1.1383755883530933
            ]
        },
        {
            "positions": [
                0.4510530562697679,
                -1.1819619108745794,
                0.6152194891126177,
                -1.277093027785001,
                -0.8950808860835107,
                -1.2261753269907874
            ]
        },
        {
            "positions": [
                0.3327083465227565,
                -1.1786788724944828,
                0.7486320161248119,
                -1.262805766085369,
                -0.8595089909823233,
                -1.3139750656284814
            ]
        },
        {
            "positions": [
                0.2143636367757451,
                -1.1753958341143862,
                0.8820445431370056,
                -1.2485185043857374,
                -0.8239370958811358,
                -1.4017748042661755
            ]
        },
        {
            "positions": [
                0.09601892702873371,
                -1.1721127957342896,
                1.0154570701491994,
                -1.2342312426861055,
                -0.7883652007799485,
                -1.4895745429038691
            ]
        },
        {
            "positions": [
                -0.022325782718277676,
                -1.168829757354193,
                1.1488695971613936,
                -1.2199439809864736,
                -0.7527933056787611,
                -1.5773742815415632
            ]
        },
        {
            "positions": [
                -0.1406704924652891,
                -1.1655467189740965,
                1.2822821241735873,
                -1.2056567192868417,
                -0.7172214105775738,
                -1.6651740201792573
            ]
        },
        {
            "positions": [
                -0.114239226248987,
                -1.1637830374052733,
                1.3526385286724298,
                -1.1697231092053861,
                -0.631822884440717,
                -1.8113725078440124
            ]
        },
        {
            "positions": [
                -0.0878079600326849,
                -1.1620193558364502,
                1.4229949331712723,
                -1.1337894991239303,
                -0.54642435830386,
                -1.9575709955087672
            ]
        },
        {
            "positions": [
                -0.06137669381638282,
                -1.160255674267627,
                1.4933513376701146,
                -1.0978558890424748,
                -0.4610258321670032,
                -2.1037694831735223
            ]
        },
        {
            "positions": [
                -0.03494542760008072,
                -1.158491992698804,
                1.5637077421689571,
                -1.0619222789610192,
                -0.3756273060301463,
                -2.249967970838277
            ]
        },
        {
            "positions": [
                -0.00851416138377864,
                -1.1567283111299806,
                1.6340641466677996,
                -1.0259886688795636,
                -0.2902287798932895,
                -2.396166458503032
            ]
        },
        {
            "positions": [
                0.017917104832523456,
                -1.1549646295611575,
                1.7044205511666422,
                -0.9900550587981078,
                -0.2048302537564326,
                -2.5423649461677873
            ]
        },
        {
            "positions": [
                0.044348371048825524,
                -1.1532009479923344,
                1.7747769556654847,
                -0.9541214487166523,
                -0.11943172761957577,
                -2.688563433832542
            ]
        },
        {
            "positions": [
                0.07077963726512765,
                -1.1514372664235113,
                1.845133360164327,
                -0.9181878386351966,
                -0.03403320148271882,
                -2.8347619214972974
            ]
        },
        {
            "positions": [
                0.09721090348142972,
                -1.1496735848546882,
                1.9154897646631697,
                -0.8822542285537409,
                0.05136532465413801,
                -2.9809604091620523
            ]
        },
        {
            "positions": [
                0.1236421696977318,
                -1.147909903285865,
                1.985846169162012,
                -0.8463206184722853,
                0.13676385079099487,
                -3.127158896826807
            ]
        }
    ]
}