{
    "goal": {
        "global_pose": {
            "orientation": {
                "w": -0.4816463035849501,
                "x": 0.5182115481033762,
                "y": 0.4908360881923453,
                "z": -0.5084816262002911
            },
            "position": {
                "x": -0.8240239810943604,
                "y": 0.19912469901144506,
                "z": 0.16403168439865112
            }
        },
        "name": "move_to_storage_D"
    },
    "id": "BFMT_move_to_storage_D_12",
    "joint_names": [
        "shoulder_pan_joint",
        "shoulder_lift_joint",
        "elbow_joint",
        "wrist_1_joint",
        "wrist_2_joint",
        "wrist_3_joint"
    ],
    "metrics": {
        "cart_traj_len": 0.5346234181927989,
        "distance_elbow_joint": 0.6096604726135271,
        "distance_shoulder_lift_joint": 0.15161706762151894,
        "distance_shoulder_pan_joint": 0.1514694925494025,
        "distance_wrist_1_joint": 3.8376267099047037,
        "distance_wrist_2_joint": 1.7835105428121383,
        "distance_wrist_3_joint": 3.121858401202778,
        "smoothness": 0.052273788644973514,
        "time": 0.63183156,
        "traj_len": 3.107369094057555,
        "weighted_distance": 4.639029719868851
    },
    "planner": "BFMT",
    "start": {
        "state": {
            "elbow_joint": -2.384821988534728,
            "shoulder_lift_joint": -2.2788054721415256,
            "shoulder_pan_joint": -0.1854694642142757,
            "wrist_1_joint": 1.4845938289331202,
            "wrist_2_joint": 0.17898776772866878,
            "wrist_3_joint": 0.037105688729662994
        }
    },
    "waypoints": [
        {
            "positions": [
                -0.1854694642142757,
                -2.2788054721415256,
                -2.384821988534728,
                1.4845938289331202,
                0.17898776772866878,
                0.037105688729662994
            ]
        },
        {
            "positions": [
                -0.1589154521522796,
                -2.264390104181616,
                -2.3976594918227274,
                1.4374073947725796,
                0.11368714812083196,
                -0.034804332224127654
            ]
        },
        {
            "positions": [
                -0.13236144009028344,
                -2.2499747362217066,
                -2.4104969951107265,
                1.390220960612039,
                0.04838652851299513,
                -0.1067143531779183
            ]
        },
        {
            "positions": [
                -0.12826304557255802,
                -2.244858639067469,
                -2.3861642673591628,
                1.2342520505460548,
                -0.020484692470190885,
                -0.23079928481521816
            ]
        },
        {
            "positions": [
                -0.1241646510548326,
                -2.2397425419132317,
                -2.361831539607599,
                1.0782831404800706,
                -0.0893559134533769,
                -0.354884216452518
            ]
        },
        {
            "positions": [
                -0.12006625653710716,
                -2.234626444758994,
                -2.3374988118560354,
                0.9223142304140862,
                -0.15822713443656294,
                -0.47896914808981794
            ]
        },
        {
            "positions": [
                -0.11596786201938174,
                -2.229510347604757,
                -2.3131660841044717,
                0.766345320348102,
                -0.22709835541974893,
                -0.6030540797271178
            ]
        },
        {
            "positions": [
                -0.1118694675016563,
                -2.224394250450519,
                -2.288833356352908,
                0.6103764102821176,
                -0.29596957640293503,
                -0.7271390113644177
            ]
        },
        {
            "positions": [
                -0.10777107298393088,
                -2.2192781532962815,
                -2.2645006286013443,
                0.4544075002161334,
                -0.364840797386121,
                -0.8512239430017176
            ]
        },
        {
            "positions": [
                -0.10367267846620545,
                -2.2141620561420443,
                -2.2401679008497806,
                0.2984385901501492,
                -0.43371201836930706,
                -0.9753088746390175
            ]
        },
        {
            "positions": [
                -0.09957428394848003,
                -2.2090459589878066,
                -2.215835173098217,
                0.14246968008416494,
                -0.5025832393524929,
                -1.099393806276317
            ]
        },
        {
            "positions": [
                -0.0954758894307546,
                -2.203929861833569,
                -2.191502445346653,
                -0.013499229981819294,
                -0.571454460335679,
                -1.223478737913617
            ]
        },
        {
            "positions": [
                -0.09137749491302917,
                -2.1988137646793318,
                -2.1671697175950895,
                -0.16946814004780375,
                -0.6403256813188651,
                -1.347563669550917
            ]
        },
        {
            "positions": [
                -0.08727910039530375,
                -2.193697667525094,
                -2.1428369898435258,
                -0.325437050113788,
                -0.709196902302051,
                -1.4716486011882168
            ]
        },
        {
            "positions": [
                -0.08318070587757831,
                -2.1885815703708564,
                -2.118504262091962,
                -0.4814059601797722,
                -0.7780681232852371,
                -1.5957335328255167
            ]
        },
        {
            "positions": [
                -0.07908231135985289,
                -2.183465473216619,
                -2.0941715343403984,
                -0.6373748702457562,
                -0.8469393442684232,
                -1.7198184644628165
            ]
        },
        {
            "positions": [
                -0.07498391684212746,
                -2.1783493760623815,
                -2.0698388065888347,
                -0.7933437803117407,
                -0.9158105652516093,
                -1.8439033961001166
            ]
        },
        {
            "positions": [
                -0.07088552232440204,
                -2.1732332789081443,
                -2.045506078837271,
                -0.9493126903777251,
                -0.9846817862347952,
                -1.9679883277374164
            ]
        },
        {
            "positions": [
                -0.06678712780667662,
                -2.1681171817539067,
                -2.0211733510857073,
                -1.1052816004437092,
                -1.053553007217981,
                -2.092073259374716
            ]
        },
        {
            "positions": [
                -0.06268873328895118,
                -2.163001084599669,
                -1.9968406233341436,
                -1.2612505105096936,
                -1.1224242282011674,
                -2.216158191012016
            ]
        },
        {
            "positions": [
                -0.058590338771225756,
                -2.157884987445432,
                -1.97250789558258,
                -1.4172194205756776,
                -1.1912954491843533,
                -2.3402431226493157
            ]
        },
        {
            "positions": [
                -0.05449194425350033,
                -2.152768890291194,
                -1.9481751678310164,
                -1.573188330641662,
                -1.2601666701675391,
                -2.4643280542866157
            ]
        },
        {
            "positions": [
                -0.050393549735774895,
                -2.147652793136957,
                -1.9238424400794527,
                -1.7291572407076465,
                -1.3290378911507255,
                -2.5884129859239158
            ]
        },
        {
            "positions": [
                -0.04629515521804947,
                -2.1425366959827192,
                -1.899509712327889,
                -1.8851261507736305,
                -1.3979091121339113,
                -2.7124979175612154
            ]
        },
        {
            "positions": [
                -0.04219676070032405,
                -2.1374205988284816,
                -1.8751769845763253,
                -2.041095060839615,
                -1.4667803331170972,
                -2.8365828491985154
            ]
        },
        {
            "positions": [
                -0.03809836618259861,
                -2.1323045016742443,
                -1.8508442568247616,
                -2.1970639709055995,
                -1.5356515541002835,
                -2.9606677808358155
            ]
        },
        {
            "positions": [
                -0.03399997166487319,
                -2.1271884045200067,
                -1.826511529073198,
                -2.3530328809715835,
                -1.6045227750834694,
                -3.084752712473115
            ]
        }
    ]
}