{
    "goal": {
        "global_pose": {
            "orientation": {
                "w": 0.7047431468963623,
                "x": -0.7094548344612122,
                "y": 0.0024358443915843964,
                "z": -0.0022348060738295317
            },
            "position": {
                "x": 0.6094750761985779,
                "y": 0.3671506643295288,
                "z": 0.19426114857196808
            }
        },
        "name": "move_to_magneteinheit_A"
    },
    "id": "BFMT_move_to_magneteinheit_A_70",
    "joint_names": [
        "shoulder_pan_joint",
        "shoulder_lift_joint",
        "elbow_joint",
        "wrist_1_joint",
        "wrist_2_joint",
        "wrist_3_joint"
    ],
    "metrics": {
        "cart_traj_len": 3.2728966787784186,
        "distance_elbow_joint": 3.9065968703012475,
        "distance_shoulder_lift_joint": 0.6200363905186173,
        "distance_shoulder_pan_joint": 2.6821527770664852,
        "distance_wrist_1_joint": 3.4516092827978175,
        "distance_wrist_2_joint": 2.105269822616971,
        "distance_wrist_3_joint": 0.7821287586965392,
        "smoothness": 0.145449594104281,
        "time": 1.268980989,
        "traj_len": 3.6807327941590215,
        "weighted_distance": 4.546309550042269
    },
    "planner": "BFMT",
    "start": {
        "state": {
            "elbow_joint": -1.9196185241190666,
            "shoulder_lift_joint": -1.2443396400964142,
            "shoulder_pan_joint": 2.6996025414629847,
            "wrist_1_joint": -1.5485510000780065,
            "wrist_2_joint": -1.5709468930060704,
            "wrist_3_joint": 0.4420197071253992
        }
    },
    "waypoints": [
        {
            "positions": [
                2.6996025414629847,
                -1.2443396400964142,
                -1.9196185241190666,
                -1.5485510000780065,
                -1.5709468930060704,
                0.4420197071253992
            ]
        },
        {
            "positions": [
                2.6006881513589994,
                -1.2230765660273868,
                -1.838784681952525,
                -1.438726604526753,
                -1.4999373714005233,
                0.4495066496577653
            ]
        },
        {
            "positions": [
                2.5017737612550146,
                -1.2018134919583596,
                -1.7579508397859833,
                -1.3289022089754996,
                -1.4289278497949764,
                0.45699359219013147
            ]
        },
        {
            "positions": [
                2.4028593711510293,
                -1.1805504178893322,
                -1.6771169976194418,
                -1.2190778134242461,
                -1.3579183281894294,
                0.4644805347224976
            ]
        },
        {
            "positions": [
                2.303944981047044,
                -1.159287343820305,
                -1.5962831554529,
                -1.1092534178729927,
                -1.2869088065838825,
                0.4719674772548638
            ]
        },
        {
            "positions": [
                2.2050305909430588,
                -1.1380242697512777,
                -1.5154493132863585,
                -0.9994290223217392,
                -1.2158992849783354,
                0.47945441978722997
            ]
        },
        {
            "positions": [
                2.1061162008390735,
                -1.1167611956822503,
                -1.4346154711198167,
                -0.8896046267704859,
                -1.1448897633727886,
                0.4869413623195961
            ]
        },
        {
            "positions": [
                2.007201810735088,
                -1.0954981216132231,
                -1.353781628953275,
                -0.7797802312192323,
                -1.0738802417672415,
                0.49442830485196226
            ]
        },
        {
            "positions": [
                1.9082874206311033,
                -1.0742350475441957,
                -1.2729477867867334,
                -0.6699558356679789,
                -1.0028707201616944,
                0.5019152473843285
            ]
        },
        {
            "positions": [
                1.809373030527118,
                -1.0529719734751684,
                -1.1921139446201918,
                -0.5601314401167256,
                -0.9318611985561476,
                0.5094021899166946
            ]
        },
        {
            "positions": [
                1.7104586404231328,
                -1.0317088994061412,
                -1.11128010245365,
                -0.450307044565472,
                -0.8608516769506005,
                0.5168891324490608
            ]
        },
        {
            "positions": [
                1.6115442503191477,
                -1.0104458253371138,
                -1.0304462602871083,
                -0.34048264901421854,
                -0.7898421553450536,
                0.5243760749814269
            ]
        },
        {
            "positions": [
                1.5126298602151627,
                -0.9891827512680865,
                -0.9496124181205668,
                -0.2306582534629653,
                -0.7188326337395067,
                0.5318630175137931
            ]
        },
        {
            "positions": [
                1.4137154701111774,
                -0.9679196771990592,
                -0.8687785759540252,
                -0.12083385791171164,
                -0.6478231121339596,
                0.5393499600461592
            ]
        },
        {
            "positions": [
                1.314801080007192,
                -0.9466566031300319,
                -0.7879447337874834,
                -0.011009462360458189,
                -0.5768135905284125,
                0.5468369025785254
            ]
        },
        {
            "positions": [
                1.215886689903207,
                -0.9253935290610047,
                -0.7071108916209419,
                0.09881493319079504,
                -0.5058040689228658,
                0.5543238451108915
            ]
        },
        {
            "positions": [
                1.116972299799222,
                -0.9041304549919773,
                -0.6262770494544001,
                0.2086393287420487,
                -0.4347945473173187,
                0.5618107876432576
            ]
        },
        {
            "positions": [
                1.0180579096952367,
                -0.8828673809229499,
                -0.5454432072878583,
                0.31846372429330216,
                -0.3637850257117716,
                0.5692977301756239
            ]
        },
        {
            "positions": [
                0.9191435195912516,
                -0.8616043068539228,
                -0.464609365121317,
                0.4282881198445554,
                -0.29277550410622477,
                0.5767846727079899
            ]
        },
        {
            "positions": [
                0.8202291294872663,
                -0.8403412327848954,
                -0.38377552295477524,
                0.5381125153958088,
                -0.2217659825006777,
                0.5842716152403562
            ]
        },
        {
            "positions": [
                0.7213147393832811,
                -0.8190781587158681,
                -0.30294168078823347,
                0.6479369109470625,
                -0.15075646089513062,
                0.5917585577727223
            ]
        },
        {
            "positions": [
                0.622400349279296,
                -0.7978150846468408,
                -0.22210783862169192,
                0.7577613064983157,
                -0.07974693928958376,
                0.5992455003050885
            ]
        },
        {
            "positions": [
                0.5234859591753107,
                -0.7765520105778134,
                -0.14127399645515015,
                0.8675857020495694,
                -0.008737417684036908,
                0.6067324428374546
            ]
        },
        {
            "positions": [
                0.4245715690713254,
                -0.7552889365087863,
                -0.060440154288608605,
                0.9774100976008226,
                0.06227210392151017,
                0.6142193853698208
            ]
        },
        {
            "positions": [
                0.3256571789673406,
                -0.7340258624397589,
                0.020393687877932942,
                1.0872344931520759,
                0.13328162552705702,
                0.6217063279021869
            ]
        },
        {
            "positions": [
                0.2267427888633551,
                -0.7127627883707316,
                0.10122753004447461,
                1.1970588887033295,
                0.204291147132604,
                0.6291932704345531
            ]
        },
        {
            "positions": [
                0.20710026722513394,
                -0.7221788744841958,
                0.3036792785787888,
                1.2821338358013454,
                0.18540627284563047,
                0.5847791237901016
            ]
        },
        {
            "positions": [
                0.1874577455869128,
                -0.73159496059766,
                0.506131027113103,
                1.3672087828993615,
                0.16652139855865694,
                0.54036497714565
            ]
        },
        {
            "positions": [
                0.16781522394869164,
                -0.7410110467111243,
                0.7085827756474171,
                1.4522837299973774,
                0.1476365242716834,
                0.4959508305011985
            ]
        },
        {
            "positions": [
                0.14817270231047047,
                -0.7504271328245884,
                0.9110345241817314,
                1.5373586770953933,
                0.12875164998470986,
                0.45153668385674695
            ]
        },
        {
            "positions": [
                0.12853018067224933,
                -0.7598432189380526,
                1.1134862727160457,
                1.6224336241934094,
                0.10986677569773634,
                0.4071225372122954
            ]
        },
        {
            "positions": [
                0.10888765903402817,
                -0.7692593050515169,
                1.3159380212503597,
                1.7075085712914253,
                0.0909819014107628,
                0.3627083905678439
            ]
        },
        {
            "positions": [
                0.08924513739580703,
                -0.7786753911649811,
                1.518389769784674,
                1.7925835183894412,
                0.07209702712378926,
                0.31829424392339234
            ]
        },
        {
            "positions": [
                0.06960261575758586,
                -0.7880914772784453,
                1.7208415183189882,
                1.8776584654874573,
                0.053212152836815754,
                0.2738800972789408
            ]
        },
        {
            "positions": [
                0.09567904143812904,
                -0.7815260523358348,
                1.8539099322505845,
                1.890358374103634,
                -0.0362642412544381,
                0.1540590861630543
            ]
        },
        {
            "positions": [
                0.12175546711867222,
                -0.7749606273932244,
                1.9869783461821806,
                1.9030582827198108,
                -0.12574063534569196,
                0.03423807504716781
            ]
        }
    ]
}