{
    "goal": {
        "global_pose": {
            "orientation": {
                "w": 0.7031023480610252,
                "x": -0.7110244013736278,
                "y": 0.0077485991402295624,
                "z": 0.005598929693374583
            },
            "position": {
                "x": -0.8841497679147869,
                "y": 0.44412534475326537,
                "z": 0.3711530566215515
            }
        },
        "name": "move_to_auspresseinheit_D"
    },
    "id": "BFMT_move_to_auspresseinheit_D_82",
    "joint_names": [
        "shoulder_pan_joint",
        "shoulder_lift_joint",
        "elbow_joint",
        "wrist_1_joint",
        "wrist_2_joint",
        "wrist_3_joint"
    ],
    "metrics": {
        "cart_traj_len": 0.3442502101281692,
        "distance_elbow_joint": 0.6532730395370094,
        "distance_shoulder_lift_joint": 0.13013651054565134,
        "distance_shoulder_pan_joint": 0.13455595505482357,
        "distance_wrist_1_joint": 0.569707759315432,
        "distance_wrist_2_joint": 1.4465282442840128,
        "distance_wrist_3_joint": 0.02388138128344197,
        "smoothness": 0.0,
        "time": 0.451013787,
        "traj_len": 1.7199078143959843,
        "weighted_distance": 2.2410001464048817
    },
    "planner": "BFMT",
    "start": {
        "state": {
            "elbow_joint": -1.8275523626775212,
            "shoulder_lift_joint": -2.126789852344167,
            "shoulder_pan_joint": -0.03513704404078235,
            "wrist_1_joint": -2.347782403156801,
            "wrist_2_joint": -1.6058999987535132,
            "wrist_3_joint": -3.0880379163319196
        }
    },
    "waypoints": [
        {
            "positions": [
                -0.03513704404078235,
                -2.126789852344167,
                -1.8275523626775212,
                -2.347782403156801,
                -1.6058999987535132,
                -3.0880379163319196
            ]
        },
        {
            "positions": [
                -0.0519565384226353,
                -2.143056916162373,
                -1.745893232735395,
                -2.4189958730712298,
                -1.4250839682180116,
                -3.0850527436714894
            ]
        },
        {
            "positions": [
                -0.06877603280448824,
                -2.15932397998058,
                -1.6642341027932688,
                -2.4902093429856587,
                -1.24426793768251,
                -3.082067571011059
            ]
        },
        {
            "positions": [
                -0.0855955271863412,
                -2.175591043798786,
                -1.5825749728511427,
                -2.561422812900088,
                -1.0634519071470083,
                -3.079082398350629
            ]
        },
        {
            "positions": [
                -0.10241502156819413,
                -2.1918581076169925,
                -1.5009158429090164,
                -2.632636282814517,
                -0.8826358766115068,
                -3.076097225690199
            ]
        },
        {
            "positions": [
                -0.11923451595004708,
                -2.208125171435199,
                -1.4192567129668903,
                -2.703849752728946,
                -0.7018198460760052,
                -3.073112053029768
            ]
        },
        {
            "positions": [
                -0.13605401033190004,
                -2.224392235253405,
                -1.3375975830247642,
                -2.775063222643375,
                -0.5210038155405035,
                -3.070126880369338
            ]
        },
        {
            "positions": [
                -0.15287350471375297,
                -2.240659299071612,
                -1.255938453082638,
                -2.846276692557804,
                -0.3401877850050019,
                -3.067141707708908
            ]
        },
        {
            "positions": [
                -0.16969299909560592,
                -2.256926362889818,
                -1.1742793231405118,
                -2.917490162472233,
                -0.15937175446950028,
                -3.0641565350484776
            ]
        }
    ]
}