{
    "goal": {
        "global_pose": {
            "orientation": {
                "w": 0.5084816262002911,
                "x": -0.4908360881923452,
                "y": 0.5182115481033761,
                "z": -0.48164630358495003
            },
            "position": {
                "x": 0.5540239810943604,
                "y": -0.46912469901144505,
                "z": 0.16403168439865112
            }
        },
        "name": "move_to_storage_B"
    },
    "id": "BFMT_move_to_storage_B_88",
    "joint_names": [
        "shoulder_pan_joint",
        "shoulder_lift_joint",
        "elbow_joint",
        "wrist_1_joint",
        "wrist_2_joint",
        "wrist_3_joint"
    ],
    "metrics": {
        "cart_traj_len": 1.0819921853601293,
        "distance_elbow_joint": 1.0397000519590254,
        "distance_shoulder_lift_joint": 0.644845436913823,
        "distance_shoulder_pan_joint": 0.7140735038962948,
        "distance_wrist_1_joint": 2.998967277695037,
        "distance_wrist_2_joint": 2.704468207603159,
        "distance_wrist_3_joint": 3.6798375876843514,
        "smoothness": 0.35407799280154395,
        "time": 0.751624755,
        "traj_len": 3.4324760837843704,
        "weighted_distance": 4.984476173723634
    },
    "planner": "BFMT",
    "start": {
        "state": {
            "elbow_joint": 1.664937868594044,
            "shoulder_lift_joint": -0.661644460510453,
            "shoulder_pan_joint": -0.9139846352900073,
            "wrist_1_joint": 2.146753192139373,
            "wrist_2_joint": -2.2341966793290973,
            "wrist_3_joint": 0.005466555786416001
        }
    },
    "waypoints": [
        {
            "positions": [
                -0.9139846352900073,
                -0.661644460510453,
                1.664937868594044,
                2.146753192139373,
                -2.2341966793290973,
                0.005466555786416001
            ]
        },
        {
            "positions": [
                -0.8607777759249409,
                -0.7544337649460059,
                1.7093067700298594,
                2.1265839680055603,
                -2.1795301291594265,
                -0.04669994806758353
            ]
        },
        {
            "positions": [
                -0.8075709165598746,
                -0.8472230693815588,
                1.753675671465675,
                2.106414743871747,
                -2.124863578989755,
                -0.09886645192158305
            ]
        },
        {
            "positions": [
                -0.7543640571948081,
                -0.9400123738171118,
                1.7980445729014902,
                2.086245519737934,
                -2.0701970288200844,
                -0.15103295577558257
            ]
        },
        {
            "positions": [
                -0.7011571978297417,
                -1.0328016782526648,
                1.8424134743373057,
                2.0660762956041205,
                -2.0155304786504136,
                -0.2031994596295821
            ]
        },
        {
            "positions": [
                -0.6479503384646754,
                -1.1255909826882176,
                1.8867823757731212,
                2.0459070714703076,
                -1.9608639284807425,
                -0.2553659634835816
            ]
        },
        {
            "positions": [
                -0.6602235127642755,
                -1.13244520616912,
                1.860414715338673,
                1.9049337117312306,
                -1.8671826094445272,
                -0.15938392287696462
            ]
        },
        {
            "positions": [
                -0.6724966870638757,
                -1.139299429650022,
                1.834047054904225,
                1.7639603519921534,
                -1.7735012904083116,
                -0.06340188227034768
            ]
        },
        {
            "positions": [
                -0.6847698613634757,
                -1.1461536531309244,
                1.8076793944697767,
                1.6229869922530762,
                -1.6798199713720963,
                0.03258015833626926
            ]
        },
        {
            "positions": [
                -0.6970430356630758,
                -1.1530078766118266,
                1.7813117340353286,
                1.4820136325139992,
                -1.586138652335881,
                0.12856219894288623
            ]
        },
        {
            "positions": [
                -0.709316209962676,
                -1.159862100092729,
                1.7549440736008803,
                1.3410402727749222,
                -1.4924573332996656,
                0.2245442395495032
            ]
        },
        {
            "positions": [
                -0.721589384262276,
                -1.166716323573631,
                1.728576413166432,
                1.200066913035845,
                -1.3987760142634502,
                0.3205262801561201
            ]
        },
        {
            "positions": [
                -0.7338625585618761,
                -1.1735705470545335,
                1.702208752731984,
                1.059093553296768,
                -1.3050946952272349,
                0.4165083207627371
            ]
        },
        {
            "positions": [
                -0.7461357328614762,
                -1.1804247705354356,
                1.6758410922975358,
                0.9181201935576908,
                -1.2114133761910193,
                0.5124903613693541
            ]
        },
        {
            "positions": [
                -0.7584089071610763,
                -1.187278994016338,
                1.6494734318630875,
                0.7771468338186138,
                -1.117732057154804,
                0.6084724019759709
            ]
        },
        {
            "positions": [
                -0.7706820814606764,
                -1.19413321749724,
                1.6231057714286394,
                0.6361734740795366,
                -1.0240507381185884,
                0.704454442582588
            ]
        },
        {
            "positions": [
                -0.7829552557602765,
                -1.2009874409781425,
                1.5967381109941912,
                0.49520011434045963,
                -0.9303694190823733,
                0.8004364831892048
            ]
        },
        {
            "positions": [
                -0.7952284300598766,
                -1.2078416644590448,
                1.570370450559743,
                0.3542267546013824,
                -0.8366881000461577,
                0.8964185237958218
            ]
        },
        {
            "positions": [
                -0.8075016043594767,
                -1.214695887939947,
                1.5440027901252948,
                0.21325339486230552,
                -0.7430067810099423,
                0.9924005644024387
            ]
        },
        {
            "positions": [
                -0.8281078858720596,
                -1.2081391729767805,
                1.5779367872061607,
                0.13714857483245063,
                -0.6563440446325135,
                1.147489031583034
            ]
        },
        {
            "positions": [
                -0.8487141673846427,
                -1.2015824580136143,
                1.6118707842870266,
                0.06104375480259577,
                -0.5696813082550846,
                1.3025774987636294
            ]
        },
        {
            "positions": [
                -0.8693204488972256,
                -1.1950257430504478,
                1.6458047813678924,
                -0.015061065227259085,
                -0.4830185718776557,
                1.4576659659442246
            ]
        },
        {
            "positions": [
                -0.8899267304098086,
                -1.1884690280872816,
                1.679738778448758,
                -0.09116588525711397,
                -0.3963558355002268,
                1.6127544331248198
            ]
        },
        {
            "positions": [
                -0.9105330119223916,
                -1.1819123131241152,
                1.713672775529624,
                -0.16727070528696888,
                -0.30969309912279785,
                1.767842900305415
            ]
        },
        {
            "positions": [
                -0.9311392934349745,
                -1.175355598160949,
                1.7476067726104898,
                -0.2433755253168237,
                -0.22303036274536903,
                1.9229313674860102
            ]
        },
        {
            "positions": [
                -0.9517455749475575,
                -1.1687988831977825,
                1.7815407696913557,
                -0.3194803453466786,
                -0.1363676263679401,
                2.0780198346666054
            ]
        },
        {
            "positions": [
                -0.9723518564601404,
                -1.162242168234616,
                1.8154747667722215,
                -0.39558516537653343,
                -0.04970488999051126,
                2.233108301847201
            ]
        },
        {
            "positions": [
                -0.9929581379727235,
                -1.1556854532714498,
                1.8494087638530874,
                -0.4716899854063884,
                0.03695784638691779,
                2.3881967690277963
            ]
        },
        {
            "positions": [
                -1.0135644194853064,
                -1.1491287383082833,
                1.883342760933953,
                -0.5477948054362433,
                0.12362058276434662,
                2.5432852362083915
            ]
        },
        {
            "positions": [
                -1.0341707009978893,
                -1.142572023345117,
                1.9172767580148191,
                -0.623899625466098,
                0.21028331914177545,
                2.6983737033889867
            ]
        },
        {
            "positions": [
                -1.0547769825104725,
                -1.1360153083819506,
                1.9512107550956848,
                -0.7000044454959529,
                0.2969460555192043,
                2.853462170569582
            ]
        },
        {
            "positions": [
                -1.0753832640230554,
                -1.1294585934187844,
                1.9851447521765506,
                -0.7761092655258078,
                0.3836087918966333,
                3.0085506377501776
            ]
        },
        {
            "positions": [
                -1.0959895455356383,
                -1.122901878455618,
                2.0190787492574165,
                -0.8522140855556628,
                0.4702715282740622,
                3.1636391049307724
            ]
        }
    ]
}