{
    "goal": {
        "global_pose": {
            "orientation": {
                "w": 0.005598929693374612,
                "x": 0.007748599140229565,
                "y": 0.7110244013736278,
                "z": -0.7031023480610252
            },
            "position": {
                "x": 0.1141497679147869,
                "y": -0.7141253447532654,
                "z": 0.3711530566215515
            }
        },
        "name": "move_to_auspresseinheit_B"
    },
    "id": "BFMT_move_to_auspresseinheit_B_96",
    "joint_names": [
        "shoulder_pan_joint",
        "shoulder_lift_joint",
        "elbow_joint",
        "wrist_1_joint",
        "wrist_2_joint",
        "wrist_3_joint"
    ],
    "metrics": {
        "cart_traj_len": 0.5649665018798193,
        "distance_elbow_joint": 0.06522563562072747,
        "distance_shoulder_lift_joint": 0.2934531500689752,
        "distance_shoulder_pan_joint": 0.5752751420207471,
        "distance_wrist_1_joint": 0.33428100836357755,
        "distance_wrist_2_joint": 1.0047553056028016,
        "distance_wrist_3_joint": 0.0026197835873373876,
        "smoothness": 6.344131583732827e-16,
        "time": 0.459224482,
        "traj_len": 1.5085125207515402,
        "weighted_distance": 1.9025997756767503
    },
    "planner": "BFMT",
    "start": {
        "state": {
            "elbow_joint": 2.0193083361928714,
            "shoulder_lift_joint": -1.1220246554650708,
            "shoulder_pan_joint": -1.0952077554168747,
            "wrist_1_joint": -0.8559753972642168,
            "wrist_2_joint": 0.4759566250798843,
            "wrist_3_joint": -3.1240929996934557
        }
    },
    "waypoints": [
        {
            "positions": [
                -1.0952077554168747,
                -1.1220246554650708,
                2.0193083361928714,
                -0.8559753972642168,
                0.4759566250798843,
                -3.1240929996934557
            ]
        },
        {
            "positions": [
                -1.191086945753666,
                -1.1709335138099,
                2.00843739692275,
                -0.8002618958702872,
                0.6434158426803512,
                -3.123656369095566
            ]
        },
        {
            "positions": [
                -1.286966136090457,
                -1.2198423721547291,
                1.9975664576526289,
                -0.7445483944763576,
                0.8108750602808181,
                -3.1232197384976765
            ]
        },
        {
            "positions": [
                -1.3828453264272482,
                -1.2687512304995585,
                1.9866955183825077,
                -0.688834893082428,
                0.9783342778812851,
                -3.122783107899787
            ]
        },
        {
            "positions": [
                -1.4787245167640393,
                -1.3176600888443877,
                1.9758245791123865,
                -0.6331213916884985,
                1.145793495481752,
                -3.1223464773018974
            ]
        },
        {
            "positions": [
                -1.5746037071008305,
                -1.3665689471892168,
                1.9649536398422651,
                -0.5774078902945687,
                1.313252713082219,
                -3.121909846704008
            ]
        },
        {
            "positions": [
                -1.6704828974376218,
                -1.415477805534046,
                1.954082700572144,
                -0.5216943889006392,
                1.480711930682686,
                -3.1214732161061183
            ]
        }
    ]
}