{
    "goal": {
        "global_pose": {
            "orientation": {
                "w": 0.005598929693374612,
                "x": 0.007748599140229565,
                "y": 0.7110244013736278,
                "z": -0.7031023480610252
            },
            "position": {
                "x": 0.1141497679147869,
                "y": -0.7141253447532654,
                "z": 0.3711530566215515
            }
        },
        "name": "move_to_auspresseinheit_B"
    },
    "id": "BFMT_move_to_auspresseinheit_B_115",
    "joint_names": [
        "shoulder_pan_joint",
        "shoulder_lift_joint",
        "elbow_joint",
        "wrist_1_joint",
        "wrist_2_joint",
        "wrist_3_joint"
    ],
    "metrics": {
        "cart_traj_len": 0.5639425874943614,
        "distance_elbow_joint": 0.06395131288798961,
        "distance_shoulder_lift_joint": 0.2941130113620467,
        "distance_shoulder_pan_joint": 0.5768199580716509,
        "distance_wrist_1_joint": 0.3349067456389331,
        "distance_wrist_2_joint": 0.9917830181433489,
        "distance_wrist_3_joint": 0.00038459744422736364,
        "smoothness": 5.075305255429287e-16,
        "time": 0.47957629999999996,
        "traj_len": 1.5039809319097754,
        "weighted_distance": 1.8945758370197097
    },
    "planner": "BFMT",
    "start": {
        "state": {
            "elbow_joint": 2.0193083361928714,
            "shoulder_lift_joint": -1.1220246554650708,
            "shoulder_pan_joint": -1.0952077554168747,
            "wrist_1_joint": -0.8559753972642168,
            "wrist_2_joint": 0.4759566250798843,
            "wrist_3_joint": -3.1240929996934557
        }
    },
    "waypoints": [
        {
            "positions": [
                -1.0952077554168747,
                -1.1220246554650708,
                2.0193083361928714,
                -0.8559753972642168,
                0.4759566250798843,
                -3.1240929996934557
            ]
        },
        {
            "positions": [
                -1.191344415095483,
                -1.1710434906920786,
                2.008649784044873,
                -0.8001576063243946,
                0.6412537947704424,
                -3.1240289001194177
            ]
        },
        {
            "positions": [
                -1.2874810747740917,
                -1.2200623259190864,
                1.9979912318968749,
                -0.7443398153845724,
                0.8065509644610005,
                -3.1239648005453797
            ]
        },
        {
            "positions": [
                -1.3836177344527,
                -1.2690811611460941,
                1.9873326797488766,
                -0.6885220244447503,
                0.9718481341515588,
                -3.123900700971342
            ]
        },
        {
            "positions": [
                -1.4797543941313085,
                -1.318099996373102,
                1.9766741276008784,
                -0.6327042335049281,
                1.1371453038421169,
                -3.1238366013973042
            ]
        },
        {
            "positions": [
                -1.5758910538099171,
                -1.3671188316001097,
                1.96601557545288,
                -0.5768864425651059,
                1.3024424735326752,
                -3.1237725018232663
            ]
        },
        {
            "positions": [
                -1.6720277134885255,
                -1.4161376668271175,
                1.9553570233048818,
                -0.5210686516252837,
                1.4677396432232332,
                -3.1237084022492283
            ]
        }
    ]
}