{
    "goal": {
        "global_pose": {
            "orientation": {
                "w": 0.005598929693374612,
                "x": 0.007748599140229565,
                "y": 0.7110244013736278,
                "z": -0.7031023480610252
            },
            "position": {
                "x": -0.8858502320852131,
                "y": -0.7141253447532654,
                "z": 0.3711530566215515
            }
        },
        "name": "move_to_auspresseinheit_C"
    },
    "id": "BFMT_move_to_auspresseinheit_C_109",
    "joint_names": [
        "shoulder_pan_joint",
        "shoulder_lift_joint",
        "elbow_joint",
        "wrist_1_joint",
        "wrist_2_joint",
        "wrist_3_joint"
    ],
    "metrics": {
        "cart_traj_len": 0.4935872690731811,
        "distance_elbow_joint": 1.0059771658322956,
        "distance_shoulder_lift_joint": 0.32816207222529603,
        "distance_shoulder_pan_joint": 0.25625550784780193,
        "distance_wrist_1_joint": 0.6858255394640026,
        "distance_wrist_2_joint": 1.3170435344156322,
        "distance_wrist_3_joint": 0.06617796482542815,
        "smoothness": 1.2918958843737822e-15,
        "time": 0.418767374,
        "traj_len": 1.912966749478531,
        "weighted_distance": 2.4072114132624387
    },
    "planner": "BFMT",
    "start": {
        "state": {
            "elbow_joint": 1.7527959577737207,
            "shoulder_lift_joint": -0.9740617694225068,
            "shoulder_pan_joint": -2.967991417825858,
            "wrist_1_joint": -0.759517768980727,
            "wrist_2_joint": 1.7443932448377408,
            "wrist_3_joint": -3.0840537646736568
        }
    },
    "waypoints": [
        {
            "positions": [
                -2.967991417825858,
                -0.9740617694225068,
                1.7527959577737207,
                -0.759517768980727,
                1.7443932448377408,
                -3.0840537646736568
            ]
        },
        {
            "positions": [
                -2.9423658670410777,
                -0.9412455621999771,
                1.6521982411904912,
                -0.6909352150343268,
                1.6126888913961777,
                -3.0906715611561997
            ]
        },
        {
            "positions": [
                -2.9167403162562975,
                -0.9084293549774476,
                1.5516005246072615,
                -0.6223526610879264,
                1.4809845379546145,
                -3.0972893576387426
            ]
        },
        {
            "positions": [
                -2.8911147654715172,
                -0.8756131477549179,
                1.451002808024032,
                -0.5537701071415262,
                1.3492801845130513,
                -3.103907154121285
            ]
        },
        {
            "positions": [
                -2.865489214686737,
                -0.8427969405323883,
                1.3504050914408023,
                -0.4851875531951259,
                1.217575831071488,
                -3.110524950603828
            ]
        },
        {
            "positions": [
                -2.8398636639019568,
                -0.8099807333098588,
                1.2498073748575729,
                -0.4166049992487257,
                1.0858714776299248,
                -3.117142747086371
            ]
        },
        {
            "positions": [
                -2.814238113117177,
                -0.7771645260873292,
                1.1492096582743434,
                -0.34802244530232546,
                0.9541671241883616,
                -3.1237605435689138
            ]
        },
        {
            "positions": [
                -2.7886125623323967,
                -0.7443483188647996,
                1.0486119416911137,
                -0.2794398913559252,
                0.8224627707467984,
                -3.1303783400514567
            ]
        },
        {
            "positions": [
                -2.7629870115476165,
                -0.7115321116422699,
                0.9480142251078841,
                -0.21085733740952484,
                0.690758417305235,
                -3.136996136533999
            ]
        },
        {
            "positions": [
                -2.7373614607628363,
                -0.6787159044197404,
                0.8474165085246547,
                -0.1422747834631246,
                0.5590540638636718,
                -3.143613933016542
            ]
        },
        {
            "positions": [
                -2.711735909978056,
                -0.6458996971972107,
                0.7468187919414251,
                -0.07369222951672438,
                0.4273497104221086,
                -3.150231729499085
            ]
        }
    ]
}