{
    "goal": {
        "global_pose": {
            "orientation": {
                "w": -0.00223480608172531,
                "x": 0.0024358444001904467,
                "y": 0.7094548369677653,
                "z": -0.704743149386269
            },
            "position": {
                "x": -0.37947507619857795,
                "y": -0.6371506643295288,
                "z": 0.19426114857196808
            }
        },
        "name": "move_to_magneteinheit_C"
    },
    "id": "BFMT_move_to_magneteinheit_C_67",
    "joint_names": [
        "shoulder_pan_joint",
        "shoulder_lift_joint",
        "elbow_joint",
        "wrist_1_joint",
        "wrist_2_joint",
        "wrist_3_joint"
    ],
    "metrics": {
        "cart_traj_len": 0.5710866513229538,
        "distance_elbow_joint": 0.3152720081409388,
        "distance_shoulder_lift_joint": 0.25478152418952926,
        "distance_shoulder_pan_joint": 0.8032803026104098,
        "distance_wrist_1_joint": 0.3009258931428709,
        "distance_wrist_2_joint": 1.228814987944693,
        "distance_wrist_3_joint": 0.22215579698100152,
        "smoothness": 0.8292405703261588,
        "time": 0.815871648,
        "traj_len": 1.7678321506889287,
        "weighted_distance": 2.2581592034351807
    },
    "planner": "BFMT",
    "start": {
        "state": {
            "elbow_joint": 1.9565354010623817,
            "shoulder_lift_joint": -1.4165861575791021,
            "shoulder_pan_joint": -1.6717766225146293,
            "wrist_1_joint": -0.5286633292919765,
            "wrist_2_joint": 1.472756589071564,
            "wrist_3_joint": -3.1238370188695823
        }
    },
    "waypoints": [
        {
            "positions": [
                -1.6717766225146293,
                -1.4165861575791021,
                1.9565354010623817,
                -0.5286633292919765,
                1.472756589071564,
                -3.1238370188695823
            ]
        },
        {
            "positions": [
                -1.7489224235914083,
                -1.402858257468112,
                1.993164747833487,
                -0.555897680032952,
                1.2689439669930342,
                -3.103880477557462
            ]
        },
        {
            "positions": [
                -1.8260682246681874,
                -1.389130357357122,
                2.0297940946045925,
                -0.5831320307739277,
                1.0651313449145046,
                -3.083923936245342
            ]
        },
        {
            "positions": [
                -1.9032140257449663,
                -1.3754024572461323,
                2.066423441375698,
                -0.6103663815149033,
                0.8613187228359749,
                -3.063967394933222
            ]
        },
        {
            "positions": [
                -1.9803598268217453,
                -1.3616745571351423,
                2.1030527881468033,
                -0.637600732255879,
                0.6575061007574452,
                -3.044010853621102
            ]
        },
        {
            "positions": [
                -2.057505627898524,
                -1.3479466570241523,
                2.139682134917909,
                -0.6648350829968546,
                0.4536934786789155,
                -3.024054312308982
            ]
        },
        {
            "positions": [
                -2.090977030942625,
                -1.3331615580041167,
                2.1294300635484325,
                -0.6774306991831767,
                0.46999823307282973,
                -3.0339301700585497
            ]
        },
        {
            "positions": [
                -2.219003662336763,
                -1.276042583132602,
                2.088805662576454,
                -0.7281502069337336,
                0.5344806074588732,
                -3.071429247615494
            ]
        },
        {
            "positions": [
                -2.347030293730901,
                -1.2189236082610875,
                2.048181261604476,
                -0.7788697146842904,
                0.5989629818449166,
                -3.1089283251724384
            ]
        },
        {
            "positions": [
                -2.475056925125039,
                -1.1618046333895728,
                2.0075568606324974,
                -0.8295892224348473,
                0.66344535623096,
                -3.146427402729383
            ]
        }
    ]
}