{
    "goal": {
        "global_pose": {
            "orientation": {
                "w": 0.7031023502349854,
                "x": -0.7110244035720825,
                "y": 0.007748599164187908,
                "z": 0.005598929710686207
            },
            "position": {
                "x": 0.11585023208521307,
                "y": 0.44412534475326537,
                "z": 0.3711530566215515
            }
        },
        "name": "move_to_auspresseinheit_A"
    },
    "id": "BFMT_move_to_auspresseinheit_A_137",
    "joint_names": [
        "shoulder_pan_joint",
        "shoulder_lift_joint",
        "elbow_joint",
        "wrist_1_joint",
        "wrist_2_joint",
        "wrist_3_joint"
    ],
    "metrics": {
        "cart_traj_len": 0.6736253241407337,
        "distance_elbow_joint": 0.05404083839136664,
        "distance_shoulder_lift_joint": 0.533254069877348,
        "distance_shoulder_pan_joint": 1.046504855810669,
        "distance_wrist_1_joint": 0.948492426398504,
        "distance_wrist_2_joint": 0.5143109556358487,
        "distance_wrist_3_joint": 0.042329371141629046,
        "smoothness": 0.9925126806758107,
        "time": 0.7048219379999999,
        "traj_len": 1.7717032813807636,
        "weighted_distance": 2.164808222816279
    },
    "planner": "BFMT",
    "start": {
        "state": {
            "elbow_joint": 2.4225746658250005,
            "shoulder_lift_joint": -1.3736534386056498,
            "shoulder_pan_joint": -0.3378633547517467,
            "wrist_1_joint": -1.0288598680537169,
            "wrist_2_joint": 1.233022673432363,
            "wrist_3_joint": -3.0940220416140027
        }
    },
    "waypoints": [
        {
            "positions": [
                -0.3378633547517467,
                -1.3736534386056498,
                2.4225746658250005,
                -1.0288598680537169,
                1.233022673432363,
                -3.0940220416140027
            ]
        },
        {
            "positions": [
                -0.24335170237081538,
                -1.4497533889647536,
                2.4166417686674566,
                -0.9208213208407787,
                1.1728932064090531,
                -3.0998113462185963
            ]
        },
        {
            "positions": [
                -0.14884004998988404,
                -1.5258533393238571,
                2.410708871509913,
                -0.8127827736278406,
                1.1127637393857432,
                -3.10560065082319
            ]
        },
        {
            "positions": [
                -0.054328397608952694,
                -1.601953289682961,
                2.4047759743523693,
                -0.7047442264149024,
                1.0526342723624333,
                -3.1113899554277835
            ]
        },
        {
            "positions": [
                0.04018325477197865,
                -1.6780532400420647,
                2.398843077194826,
                -0.5967056792019644,
                0.9925048053391234,
                -3.1171792600323767
            ]
        },
        {
            "positions": [
                0.13469490715291005,
                -1.7541531904011682,
                2.392910180037282,
                -0.4886671319890262,
                0.9323753383158135,
                -3.1229685646369703
            ]
        },
        {
            "positions": [
                0.22920655953384134,
                -1.830253140760272,
                2.3869772828797386,
                -0.3806285847760881,
                0.8722458712925036,
                -3.128757869241564
            ]
        },
        {
            "positions": [
                0.3237182119147727,
                -1.9063530911193758,
                2.381044385722195,
                -0.2725900375631499,
                0.8121164042691937,
                -3.1345471738461574
            ]
        },
        {
            "positions": [
                0.5161798564868475,
                -1.9066302998011868,
                2.3872996648664753,
                -0.36870133551711837,
                0.765414061032854,
                -3.1354492933008946
            ]
        },
        {
            "positions": [
                0.7086415010589223,
                -1.9069075084829978,
                2.3935549440107557,
                -0.46481263347108687,
                0.7187117177965143,
                -3.136351412755632
            ]
        }
    ]
}