{
    "goal": {
        "global_pose": {
            "orientation": {
                "w": -0.00223480608172531,
                "x": 0.0024358444001904467,
                "y": 0.7094548369677653,
                "z": -0.704743149386269
            },
            "position": {
                "x": -0.37947507619857795,
                "y": -0.6371506643295288,
                "z": 0.19426114857196808
            }
        },
        "name": "move_to_magneteinheit_C"
    },
    "id": "BFMT_move_to_magneteinheit_C_147",
    "joint_names": [
        "shoulder_pan_joint",
        "shoulder_lift_joint",
        "elbow_joint",
        "wrist_1_joint",
        "wrist_2_joint",
        "wrist_3_joint"
    ],
    "metrics": {
        "cart_traj_len": 0.7695549112490528,
        "distance_elbow_joint": 0.6323606057183735,
        "distance_shoulder_lift_joint": 0.4836996618182339,
        "distance_shoulder_pan_joint": 1.0527259125535224,
        "distance_wrist_1_joint": 0.3548097451853678,
        "distance_wrist_2_joint": 0.9390127585165411,
        "distance_wrist_3_joint": 0.37200448047783663,
        "smoothness": 1.2201540431724214,
        "time": 0.510782744,
        "traj_len": 1.958216832802199,
        "weighted_distance": 2.42331273857244
    },
    "planner": "BFMT",
    "start": {
        "state": {
            "elbow_joint": 1.9565354010623817,
            "shoulder_lift_joint": -1.4165861575791021,
            "shoulder_pan_joint": -1.6717766225146293,
            "wrist_1_joint": -0.5286633292919765,
            "wrist_2_joint": 1.472756589071564,
            "wrist_3_joint": -3.1238370188695823
        }
    },
    "waypoints": [
        {
            "positions": [
                -1.6717766225146293,
                -1.4165861575791021,
                1.9565354010623817,
                -0.5286633292919765,
                1.472756589071564,
                -3.1238370188695823
            ]
        },
        {
            "positions": [
                -1.6299261474423647,
                -1.4551774139093139,
                2.026122033554559,
                -0.6064013767410725,
                1.4971222450889552,
                -3.1536841323250986
            ]
        },
        {
            "positions": [
                -1.5880756723701004,
                -1.4937686702395259,
                2.095708666046737,
                -0.6841394241901686,
                1.5214879011063467,
                -3.1835312457806153
            ]
        },
        {
            "positions": [
                -1.5462251972978358,
                -1.5323599265697376,
                2.1652952985389144,
                -0.7618774716392647,
                1.545853557123738,
                -3.2133783592361316
            ]
        },
        {
            "positions": [
                -1.717627986625672,
                -1.486925632729891,
                2.1992697675931225,
                -0.787663088839247,
                1.5461972093007934,
                -3.240873055254754
            ]
        },
        {
            "positions": [
                -1.8890307759535085,
                -1.4414913388900445,
                2.23324423664733,
                -0.8134487060392293,
                1.5465408614778489,
                -3.2683677512733764
            ]
        },
        {
            "positions": [
                -2.060433565281345,
                -1.396057045050198,
                2.2672187057015383,
                -0.8392343232392117,
                1.5468845136549043,
                -3.2958624472919986
            ]
        },
        {
            "positions": [
                -2.231836354609181,
                -1.3506227512103512,
                2.3011931747557464,
                -0.865019940439194,
                1.5472281658319598,
                -3.3233571433106213
            ]
        },
        {
            "positions": [
                -2.2801490206142576,
                -1.3133850077167089,
                2.2436526083507444,
                -0.8613293136315638,
                1.3743199294807307,
                -3.288860272103262
            ]
        },
        {
            "positions": [
                -2.3284616866193346,
                -1.2761472642230665,
                2.186112041945743,
                -0.8576386868239338,
                1.2014116931295016,
                -3.2543634008959024
            ]
        },
        {
            "positions": [
                -2.376774352624411,
                -1.238909520729424,
                2.128571475540741,
                -0.8539480600163037,
                1.0285034567782727,
                -3.2198665296885425
            ]
        },
        {
            "positions": [
                -2.425087018629488,
                -1.2016717772357817,
                2.0710309091357395,
                -0.8502574332086738,
                0.8555952204270435,
                -3.185369658481183
            ]
        },
        {
            "positions": [
                -2.4733996846345647,
                -1.1644340337421393,
                2.0134903427307376,
                -0.8465668064010436,
                0.6826869840758145,
                -3.1508727872738236
            ]
        }
    ]
}