{
    "goal": {
        "global_pose": {
            "orientation": {
                "w": -0.00223480608172531,
                "x": 0.0024358444001904467,
                "y": 0.7094548369677653,
                "z": -0.704743149386269
            },
            "position": {
                "x": 0.6205249238014221,
                "y": -0.6371506643295288,
                "z": 0.19426114857196808
            }
        },
        "name": "move_to_magneteinheit_B"
    },
    "id": "BFMT_move_to_magneteinheit_B_103",
    "joint_names": [
        "shoulder_pan_joint",
        "shoulder_lift_joint",
        "elbow_joint",
        "wrist_1_joint",
        "wrist_2_joint",
        "wrist_3_joint"
    ],
    "metrics": {
        "cart_traj_len": 1.367124012685453,
        "distance_elbow_joint": 0.9600717538528118,
        "distance_shoulder_lift_joint": 0.7595857117439327,
        "distance_shoulder_pan_joint": 1.6209154194420683,
        "distance_wrist_1_joint": 1.8164625408986987,
        "distance_wrist_2_joint": 1.7150940588124675,
        "distance_wrist_3_joint": 0.20226220763778174,
        "smoothness": 0.4545234934692715,
        "time": 0.818608157,
        "traj_len": 2.6597728648115355,
        "weighted_distance": 3.318203234790553
    },
    "planner": "BFMT",
    "start": {
        "state": {
            "elbow_joint": 2.6216224122426386,
            "shoulder_lift_joint": -1.4174107377796124,
            "shoulder_pan_joint": 0.7066234856936794,
            "wrist_1_joint": 1.9546482284002225,
            "wrist_2_joint": -0.7096286983471962,
            "wrist_3_joint": 0.005740856962016249
        }
    },
    "waypoints": [
        {
            "positions": [
                0.7066234856936794,
                -1.4174107377796124,
                2.6216224122426386,
                1.9546482284002225,
                -0.7096286983471962,
                0.005740856962016249
            ]
        },
        {
            "positions": [
                0.5559557536516222,
                -1.4049735023391046,
                2.5879194153663674,
                1.8182817508634106,
                -0.6935994522974085,
                -0.011514023900344212
            ]
        },
        {
            "positions": [
                0.40528802160956506,
                -1.392536266898597,
                2.5542164184900966,
                1.6819152733265987,
                -0.6775702062476208,
                -0.028768904762704675
            ]
        },
        {
            "positions": [
                0.2546202895675079,
                -1.3800990314580892,
                2.5205134216138254,
                1.5455487957897869,
                -0.661540960197833,
                -0.04602378562506514
            ]
        },
        {
            "positions": [
                0.10395255752545074,
                -1.3676617960175814,
                2.486810424737554,
                1.409182318252975,
                -0.6455117141480452,
                -0.0632786664874256
            ]
        },
        {
            "positions": [
                -0.04671517451660645,
                -1.3552245605770739,
                2.4531074278612834,
                1.2728158407161632,
                -0.6294824680982575,
                -0.08053354734978607
            ]
        },
        {
            "positions": [
                -0.1973829065586636,
                -1.342787325136566,
                2.4194044309850122,
                1.1364493631793513,
                -0.6134532220484697,
                -0.09778842821214653
            ]
        },
        {
            "positions": [
                -0.2525297548040271,
                -1.290097917513421,
                2.3611079869392286,
                1.2132388766930304,
                -0.7379854207033729,
                -0.09019358802263738
            ]
        },
        {
            "positions": [
                -0.30767660304939065,
                -1.2374085098902758,
                2.302811542893445,
                1.2900283902067093,
                -0.8625176193582761,
                -0.08259874783312823
            ]
        },
        {
            "positions": [
                -0.36282345129475413,
                -1.1847191022671306,
                2.244515098847662,
                1.3668179037203885,
                -0.9870498180131793,
                -0.07500390764361908
            ]
        },
        {
            "positions": [
                -0.41797029954011766,
                -1.1320296946439856,
                2.1862186548018783,
                1.4436074172340674,
                -1.1115820166680823,
                -0.06740906745410993
            ]
        },
        {
            "positions": [
                -0.4731171477854812,
                -1.0793402870208406,
                2.1279222107560947,
                1.5203969307477465,
                -1.2361142153229856,
                -0.059814227264600776
            ]
        },
        {
            "positions": [
                -0.5282639960308447,
                -1.0266508793976954,
                2.069625766710311,
                1.5971864442614256,
                -1.3606464139778889,
                -0.052219387075091626
            ]
        },
        {
            "positions": [
                -0.5834108442762083,
                -0.9739614717745503,
                2.011329322664528,
                1.6739759577751046,
                -1.485178612632792,
                -0.044624546885582476
            ]
        },
        {
            "positions": [
                -0.6385576925215718,
                -0.9212720641514052,
                1.9530328786187443,
                1.7507654712887837,
                -1.609710811287695,
                -0.03702970669607332
            ]
        },
        {
            "positions": [
                -0.6937045407669352,
                -0.86858265652826,
                1.8947364345729607,
                1.8275549848024628,
                -1.734243009942598,
                -0.02943486650656417
            ]
        },
        {
            "positions": [
                -0.7488513890122989,
                -0.8158932489051149,
                1.836439990527177,
                1.9043444983161417,
                -1.8587752085975016,
                -0.02184002631705502
            ]
        },
        {
            "positions": [
                -0.8039982372576623,
                -0.7632038412819698,
                1.7781435464813937,
                1.9811340118298206,
                -1.9833074072524046,
                -0.01424518612754587
            ]
        },
        {
            "positions": [
                -0.8591450855030258,
                -0.7105144336588247,
                1.7198471024356103,
                2.0579235253435,
                -2.1078396059073077,
                -0.00665034593803672
            ]
        },
        {
            "positions": [
                -0.9142919337483894,
                -0.6578250260356796,
                1.6615506583898267,
                2.134713038857179,
                -2.2323718045622107,
                0.000944494251472432
            ]
        }
    ]
}