{
    "goal": {
        "global_pose": {
            "orientation": {
                "w": 0.005598929693374612,
                "x": 0.007748599140229565,
                "y": 0.7110244013736278,
                "z": -0.7031023480610252
            },
            "position": {
                "x": -0.8858502320852131,
                "y": -0.7141253447532654,
                "z": 0.3711530566215515
            }
        },
        "name": "move_to_auspresseinheit_C"
    },
    "id": "BFMT_move_to_auspresseinheit_C_103",
    "joint_names": [
        "shoulder_pan_joint",
        "shoulder_lift_joint",
        "elbow_joint",
        "wrist_1_joint",
        "wrist_2_joint",
        "wrist_3_joint"
    ],
    "metrics": {
        "cart_traj_len": 0.4930883081692884,
        "distance_elbow_joint": 0.9883372425189092,
        "distance_shoulder_lift_joint": 0.31938627447010215,
        "distance_shoulder_pan_joint": 0.2572472642926167,
        "distance_wrist_1_joint": 0.6532149775935345,
        "distance_wrist_2_joint": 1.3006311489042623,
        "distance_wrist_3_joint": 0.043516075052150605,
        "smoothness": 4.844609574787718e-16,
        "time": 0.4847466,
        "traj_len": 1.8874143643703614,
        "weighted_distance": 2.3671103183911124
    },
    "planner": "BFMT",
    "start": {
        "state": {
            "elbow_joint": 1.7527959577737207,
            "shoulder_lift_joint": -0.9740617694225068,
            "shoulder_pan_joint": -2.967991417825858,
            "wrist_1_joint": -0.759517768980727,
            "wrist_2_joint": 1.7443932448377408,
            "wrist_3_joint": -3.0840537646736568
        }
    },
    "waypoints": [
        {
            "positions": [
                -2.967991417825858,
                -0.9740617694225068,
                1.7527959577737207,
                -0.759517768980727,
                1.7443932448377408,
                -3.0840537646736568
            ]
        },
        {
            "positions": [
                -2.947113060905164,
                -0.9480981981552785,
                1.672369397231038,
                -0.7060266004432473,
                1.6379972957934221,
                -3.088195706224549
            ]
        },
        {
            "positions": [
                -2.9208498489749504,
                -0.9154956755771814,
                1.571490432567013,
                -0.6393906216592412,
                1.5053044958089838,
                -3.092570609946911
            ]
        },
        {
            "positions": [
                -2.894586637044737,
                -0.8828931529990843,
                1.4706114679029878,
                -0.572754642875235,
                1.3726116958245458,
                -3.096945513669273
            ]
        },
        {
            "positions": [
                -2.868323425114523,
                -0.8502906304209872,
                1.3697325032389625,
                -0.506118664091229,
                1.2399188958401077,
                -3.101320417391635
            ]
        },
        {
            "positions": [
                -2.8420602131843093,
                -0.8176881078428901,
                1.2688535385749373,
                -0.4394826853072229,
                1.1072260958556694,
                -3.105695321113997
            ]
        },
        {
            "positions": [
                -2.815797001254096,
                -0.785085585264793,
                1.1679745739109122,
                -0.37284670652321683,
                0.9745332958712312,
                -3.110070224836359
            ]
        },
        {
            "positions": [
                -2.7895337893238823,
                -0.752483062686696,
                1.067095609246887,
                -0.30621072773921076,
                0.8418404958867931,
                -3.1144451285587214
            ]
        },
        {
            "positions": [
                -2.7632705773936683,
                -0.7198805401085988,
                0.9662166445828618,
                -0.23957474895520464,
                0.7091476959023548,
                -3.118820032281083
            ]
        },
        {
            "positions": [
                -2.737007365463455,
                -0.6872780175305018,
                0.8653376799188367,
                -0.17293877017119852,
                0.5764548959179168,
                -3.123194936003445
            ]
        },
        {
            "positions": [
                -2.7107441535332413,
                -0.6546754949524046,
                0.7644587152548115,
                -0.1063027913871925,
                0.44376209593347854,
                -3.1275698397258074
            ]
        }
    ]
}