{
    "goal": {
        "global_pose": {
            "orientation": {
                "w": 0.7031023502349854,
                "x": -0.7110244035720825,
                "y": 0.007748599164187908,
                "z": 0.005598929710686207
            },
            "position": {
                "x": 0.11585023208521307,
                "y": 0.44412534475326537,
                "z": 0.3711530566215515
            }
        },
        "name": "move_to_auspresseinheit_A"
    },
    "id": "BFMT_move_to_auspresseinheit_A_35",
    "joint_names": [
        "shoulder_pan_joint",
        "shoulder_lift_joint",
        "elbow_joint",
        "wrist_1_joint",
        "wrist_2_joint",
        "wrist_3_joint"
    ],
    "metrics": {
        "cart_traj_len": 0.6618374774980368,
        "distance_elbow_joint": 0.323596373628634,
        "distance_shoulder_lift_joint": 0.5353893616786112,
        "distance_shoulder_pan_joint": 1.044929673189774,
        "distance_wrist_1_joint": 0.5482785894279375,
        "distance_wrist_2_joint": 0.7706324856850646,
        "distance_wrist_3_joint": 0.8142941711268423,
        "smoothness": 0.9655413350605527,
        "time": 0.611440968,
        "traj_len": 2.009258732651637,
        "weighted_distance": 2.642843179627492
    },
    "planner": "BFMT",
    "start": {
        "state": {
            "elbow_joint": 2.4225746658250005,
            "shoulder_lift_joint": -1.3736534386056498,
            "shoulder_pan_joint": -0.3378633547517467,
            "wrist_1_joint": -1.0288598680537169,
            "wrist_2_joint": 1.233022673432363,
            "wrist_3_joint": -3.0940220416140027
        }
    },
    "waypoints": [
        {
            "positions": [
                -0.3378633547517467,
                -1.3736534386056498,
                2.4225746658250005,
                -1.0288598680537169,
                1.233022673432363,
                -3.0940220416140027
            ]
        },
        {
            "positions": [
                -0.20458944807194862,
                -1.4598531598542168,
                2.4523609966081144,
                -1.0212726508716905,
                1.258013602380025,
                -3.016006958143336
            ]
        },
        {
            "positions": [
                -0.07131554139215052,
                -1.5460528811027838,
                2.4821473273912282,
                -1.0136854336896644,
                1.283004531327687,
                -2.9379918746726696
            ]
        },
        {
            "positions": [
                0.06195836528764759,
                -1.6322526023513506,
                2.5119336581743426,
                -1.006098216507638,
                1.307995460275349,
                -2.859976791202003
            ]
        },
        {
            "positions": [
                0.1952322719674457,
                -1.7184523235999176,
                2.5417199889574564,
                -0.9985109993256117,
                1.332986389223011,
                -2.7819617077313366
            ]
        },
        {
            "positions": [
                0.32850617864724374,
                -1.8046520448484846,
                2.5715063197405703,
                -0.9909237821435855,
                1.357977318170673,
                -2.70394662426067
            ]
        },
        {
            "positions": [
                0.39159953527904096,
                -1.8220505040877808,
                2.5423955331217263,
                -0.9058666982239512,
                1.2503643446795472,
                -2.7746497498895883
            ]
        },
        {
            "positions": [
                0.45469289191083817,
                -1.8394489633270767,
                2.5132847465028822,
                -0.8208096143043168,
                1.1427513711884214,
                -2.8453528755185067
            ]
        },
        {
            "positions": [
                0.5177862485426354,
                -1.8568474225663727,
                2.484173959884038,
                -0.7357525303846824,
                1.0351383976972954,
                -2.9160560011474246
            ]
        },
        {
            "positions": [
                0.5808796051744326,
                -1.8742458818056689,
                2.455063173265194,
                -0.6506954464650481,
                0.9275254242061698,
                -2.986759126776343
            ]
        },
        {
            "positions": [
                0.6439729618062298,
                -1.891644341044965,
                2.42595238664635,
                -0.5656383625454138,
                0.8199124507150439,
                -3.0574622524052613
            ]
        },
        {
            "positions": [
                0.707066318438027,
                -1.909042800284261,
                2.396841600027506,
                -0.4805812786257794,
                0.7122994772239182,
                -3.1281653780341796
            ]
        }
    ]
}