{
    "goal": {
        "global_pose": {
            "orientation": {
                "w": 0.5084816262002911,
                "x": -0.4908360881923452,
                "y": 0.5182115481033761,
                "z": -0.48164630358495003
            },
            "position": {
                "x": 0.5540239810943604,
                "y": -0.46912469901144505,
                "z": 0.16403168439865112
            }
        },
        "name": "move_to_storage_B"
    },
    "id": "BFMT_move_to_storage_B_40",
    "joint_names": [
        "shoulder_pan_joint",
        "shoulder_lift_joint",
        "elbow_joint",
        "wrist_1_joint",
        "wrist_2_joint",
        "wrist_3_joint"
    ],
    "metrics": {
        "cart_traj_len": 1.1479824837889288,
        "distance_elbow_joint": 0.3549604461727398,
        "distance_shoulder_lift_joint": 0.4609565718271076,
        "distance_shoulder_pan_joint": 1.138546890194811,
        "distance_wrist_1_joint": 2.980960640152296,
        "distance_wrist_2_joint": 2.7148205774893146,
        "distance_wrist_3_joint": 3.1393670499137016,
        "smoothness": 0.09380631904886612,
        "time": 0.667259377,
        "traj_len": 3.2847545076839415,
        "weighted_distance": 4.77117674093289
    },
    "planner": "BFMT",
    "start": {
        "state": {
            "elbow_joint": 1.664937868594044,
            "shoulder_lift_joint": -0.661644460510453,
            "shoulder_pan_joint": -0.9139846352900073,
            "wrist_1_joint": 2.146753192139373,
            "wrist_2_joint": -2.2341966793290973,
            "wrist_3_joint": 0.005466555786416001
        }
    },
    "waypoints": [
        {
            "positions": [
                -0.9139846352900073,
                -0.661644460510453,
                1.664937868594044,
                2.146753192139373,
                -2.2341966793290973,
                0.005466555786416001
            ]
        },
        {
            "positions": [
                -0.8541673881311732,
                -0.6969763526340133,
                1.709051787767768,
                2.0921999247118572,
                -2.1147133988753857,
                0.0400887868272787
            ]
        },
        {
            "positions": [
                -0.7943501409723391,
                -0.7323082447575735,
                1.7531657069414919,
                2.0376466572843412,
                -1.9952301184216745,
                0.0747110178681414
            ]
        },
        {
            "positions": [
                -0.734532893813505,
                -0.7676401368811338,
                1.7972796261152157,
                1.9830933898568253,
                -1.875746837967963,
                0.10933324890900409
            ]
        },
        {
            "positions": [
                -0.6747156466546709,
                -0.802972029004694,
                1.8413935452889398,
                1.9285401224293093,
                -1.7562635575142516,
                0.1439554799498668
            ]
        },
        {
            "positions": [
                -0.6148983994958368,
                -0.8383039211282541,
                1.885507464462664,
                1.8739868550017933,
                -1.6367802770605402,
                0.1785777109907295
            ]
        },
        {
            "positions": [
                -0.5550811523370027,
                -0.8736358132518144,
                1.9296213836363878,
                1.819433587574277,
                -1.5172969966068286,
                0.21319994203159218
            ]
        },
        {
            "positions": [
                -0.4952639051781686,
                -0.9089677053753746,
                1.9737353028101117,
                1.764880320146761,
                -1.3978137161531172,
                0.24782217307245488
            ]
        },
        {
            "positions": [
                -0.4354466580193345,
                -0.9442995974989349,
                2.0178492219838358,
                1.7103270527192451,
                -1.2783304356994059,
                0.2824444041133176
            ]
        },
        {
            "positions": [
                -0.4668756538728649,
                -0.95279014201506,
                2.017751646137029,
                1.5891587431605705,
                -1.1945707055156143,
                0.41874865180792714
            ]
        },
        {
            "positions": [
                -0.4983046497263953,
                -0.9612806865311849,
                2.0176540702902215,
                1.4679904336018958,
                -1.1108109753318227,
                0.5550528995025367
            ]
        },
        {
            "positions": [
                -0.5297336455799257,
                -0.96977123104731,
                2.0175564944434146,
                1.346822124043221,
                -1.0270512451480311,
                0.6913571471971461
            ]
        },
        {
            "positions": [
                -0.5611626414334561,
                -0.978261775563435,
                2.0174589185966076,
                1.2256538144845464,
                -0.9432915149642396,
                0.8276613948917557
            ]
        },
        {
            "positions": [
                -0.5925916372869865,
                -0.98675232007956,
                2.0173613427498007,
                1.1044855049258717,
                -0.859531784780448,
                0.9639656425863652
            ]
        },
        {
            "positions": [
                -0.6240206331405169,
                -0.9952428645956851,
                2.0172637669029934,
                0.9833171953671971,
                -0.7757720545966563,
                1.1002698902809747
            ]
        },
        {
            "positions": [
                -0.6554496289940472,
                -1.0037334091118102,
                2.0171661910561864,
                0.8621488858085224,
                -0.6920123244128648,
                1.2365741379755844
            ]
        },
        {
            "positions": [
                -0.6868786248475776,
                -1.0122239536279352,
                2.0170686152093795,
                0.7409805762498477,
                -0.6082525942290732,
                1.3728783856701938
            ]
        },
        {
            "positions": [
                -0.7183076207011081,
                -1.0207144981440601,
                2.016971039362572,
                0.6198122666911732,
                -0.5244928640452816,
                1.5091826333648033
            ]
        },
        {
            "positions": [
                -0.7497366165546384,
                -1.0292050426601853,
                2.0168734635157652,
                0.4986439571324983,
                -0.44073313386149005,
                1.6454868810594128
            ]
        },
        {
            "positions": [
                -0.7811656124081688,
                -1.0376955871763103,
                2.0167758876689583,
                0.3774756475738237,
                -0.35697340367769825,
                1.7817911287540225
            ]
        },
        {
            "positions": [
                -0.8125946082616993,
                -1.0461861316924352,
                2.0166783118221514,
                0.25630733801514904,
                -0.2732136734939068,
                1.9180953764486317
            ]
        },
        {
            "positions": [
                -0.8440236041152296,
                -1.0546766762085604,
                2.016580735975344,
                0.1351390284564742,
                -0.18945394331011522,
                2.054399624143241
            ]
        },
        {
            "positions": [
                -0.8754525999687599,
                -1.0631672207246854,
                2.016483160128537,
                0.013970718897799772,
                -0.10569421312632366,
                2.190703871837851
            ]
        },
        {
            "positions": [
                -0.9068815958222904,
                -1.0716577652408104,
                2.01638558428173,
                -0.10719759066087509,
                -0.021934482942531863,
                2.3270081195324606
            ]
        },
        {
            "positions": [
                -0.9383105916758208,
                -1.0801483097569353,
                2.016288008434923,
                -0.22836590021954972,
                0.061825247241259484,
                2.4633123672270703
            ]
        },
        {
            "positions": [
                -0.9697395875293511,
                -1.0886388542730605,
                2.016190432588116,
                -0.3495342097782246,
                0.14558497742505128,
                2.59961661492168
            ]
        },
        {
            "positions": [
                -1.0011685833828816,
                -1.0971293987891855,
                2.016092856741309,
                -0.4707025193368988,
                0.22934470760884262,
                2.7359208626162888
            ]
        },
        {
            "positions": [
                -1.032597579236412,
                -1.1056199433053104,
                2.015995280894502,
                -0.5918708288955739,
                0.3131044377926344,
                2.8722251103108984
            ]
        },
        {
            "positions": [
                -1.0640265750899423,
                -1.1141104878214356,
                2.0158977050476947,
                -0.7130391384542485,
                0.39686416797642576,
                3.008529358005508
            ]
        },
        {
            "positions": [
                -1.0954555709434728,
                -1.1226010323375606,
                2.015800129200888,
                -0.8342074480129231,
                0.4806238981602175,
                3.144833605700118
            ]
        }
    ]
}