{
    "goal": {
        "global_pose": {
            "orientation": {
                "w": 0.7047431468963623,
                "x": -0.7094548344612122,
                "y": 0.0024358443915843964,
                "z": -0.0022348060738295317
            },
            "position": {
                "x": 0.6094750761985779,
                "y": 0.3671506643295288,
                "z": 0.19426114857196808
            }
        },
        "name": "move_to_magneteinheit_A"
    },
    "id": "BFMT_move_to_magneteinheit_A_100",
    "joint_names": [
        "shoulder_pan_joint",
        "shoulder_lift_joint",
        "elbow_joint",
        "wrist_1_joint",
        "wrist_2_joint",
        "wrist_3_joint"
    ],
    "metrics": {
        "cart_traj_len": 3.6081939452646137,
        "distance_elbow_joint": 3.914947025073899,
        "distance_shoulder_lift_joint": 0.5650039499623636,
        "distance_shoulder_pan_joint": 2.609050753032257,
        "distance_wrist_1_joint": 3.464634350476831,
        "distance_wrist_2_joint": 1.431572683475212,
        "distance_wrist_3_joint": 1.214681723402783,
        "smoothness": 0.07029147464013354,
        "time": 0.9164214669999999,
        "traj_len": 3.6331653534381485,
        "weighted_distance": 4.530503389931515
    },
    "planner": "BFMT",
    "start": {
        "state": {
            "elbow_joint": -1.9196185241190666,
            "shoulder_lift_joint": -1.2443396400964142,
            "shoulder_pan_joint": 2.6996025414629847,
            "wrist_1_joint": -1.5485510000780065,
            "wrist_2_joint": -1.5709468930060704,
            "wrist_3_joint": 0.4420197071253992
        }
    },
    "waypoints": [
        {
            "positions": [
                2.6996025414629847,
                -1.2443396400964142,
                -1.9196185241190666,
                -1.5485510000780065,
                -1.5709468930060704,
                0.4420197071253992
            ]
        },
        {
            "positions": [
                2.585791885478516,
                -1.220883691722238,
                -1.8102504878937187,
                -1.4968690354795817,
                -1.5123549166644359,
                0.40434775043662186
            ]
        },
        {
            "positions": [
                2.4719812294940464,
                -1.1974277433480622,
                -1.700882451668371,
                -1.4451870708811572,
                -1.4537629403228012,
                0.36667579374784454
            ]
        },
        {
            "positions": [
                2.3581705735095775,
                -1.1739717949738862,
                -1.5915144154430232,
                -1.3935051062827324,
                -1.3951709639811667,
                0.3290038370590672
            ]
        },
        {
            "positions": [
                2.2443599175251085,
                -1.15051584659971,
                -1.4821463792176752,
                -1.3418231416843076,
                -1.3365789876395322,
                0.2913318803702899
            ]
        },
        {
            "positions": [
                2.1305492615406396,
                -1.1270598982255342,
                -1.3727783429923273,
                -1.290141177085883,
                -1.2779870112978975,
                0.2536599236815126
            ]
        },
        {
            "positions": [
                2.0167386055561707,
                -1.1036039498513581,
                -1.2634103067669795,
                -1.2384592124874583,
                -1.219395034956263,
                0.21598796699273531
            ]
        },
        {
            "positions": [
                1.9029279495717015,
                -1.0801480014771823,
                -1.1540422705416316,
                -1.1867772478890335,
                -1.1608030586146283,
                0.178316010303958
            ]
        },
        {
            "positions": [
                1.7891172935872324,
                -1.0566920531030062,
                -1.0446742343162838,
                -1.135095283290609,
                -1.1022110822729938,
                0.14064405361518068
            ]
        },
        {
            "positions": [
                1.6753066376027634,
                -1.03323610472883,
                -0.9353061980909358,
                -1.0834133186921842,
                -1.0436191059313593,
                0.1029720969264033
            ]
        },
        {
            "positions": [
                1.5614959816182945,
                -1.0097801563546542,
                -0.8259381618655881,
                -1.0317313540937594,
                -0.9850271295897247,
                0.06530014023762604
            ]
        },
        {
            "positions": [
                1.4476853256338253,
                -0.9863242079804782,
                -0.7165701256402401,
                -0.9800493894953348,
                -0.9264351532480901,
                0.027628183548848717
            ]
        },
        {
            "positions": [
                1.3338746696493564,
                -0.9628682596063022,
                -0.6072020894148924,
                -0.9283674248969102,
                -0.8678431769064556,
                -0.010043773139928547
            ]
        },
        {
            "positions": [
                1.2200640136648873,
                -0.9394123112321262,
                -0.49783405318954443,
                -0.8766854602984854,
                -0.8092512005648209,
                -0.04771572982870592
            ]
        },
        {
            "positions": [
                1.1062533576804183,
                -0.9159563628579501,
                -0.38846601696419647,
                -0.8250034957000607,
                -0.7506592242231864,
                -0.08538768651748319
            ]
        },
        {
            "positions": [
                0.9924427016959494,
                -0.8925004144837742,
                -0.2790979807388487,
                -0.773321531101636,
                -0.6920672478815519,
                -0.1230596432062605
            ]
        },
        {
            "positions": [
                0.87863204571148,
                -0.8690444661095982,
                -0.16972994451350076,
                -0.7216395665032113,
                -0.6334752715399172,
                -0.16073159989503782
            ]
        },
        {
            "positions": [
                0.7648213897270113,
                -0.8455885177354221,
                -0.06036190828815302,
                -0.6699576019047867,
                -0.5748832951982827,
                -0.19840355658381514
            ]
        },
        {
            "positions": [
                0.6510107337425421,
                -0.8221325693612461,
                0.04900612793719494,
                -0.6182756373063619,
                -0.516291318856648,
                -0.23607551327259257
            ]
        },
        {
            "positions": [
                0.5372000777580732,
                -0.7986766209870702,
                0.1583741641625429,
                -0.5665936727079373,
                -0.45769934251501354,
                -0.2737474699613698
            ]
        },
        {
            "positions": [
                0.4233894217736043,
                -0.7752206726128941,
                0.26774220038789043,
                -0.5149117081095125,
                -0.39910736617337905,
                -0.3114194266501471
            ]
        },
        {
            "positions": [
                0.3095787657891349,
                -0.7517647242387181,
                0.3771102366132384,
                -0.4632297435110877,
                -0.34051538983174434,
                -0.3490913833389244
            ]
        },
        {
            "positions": [
                0.19576810980466586,
                -0.7283087758645421,
                0.4864782728385862,
                -0.41154777891266314,
                -0.28192341349010996,
                -0.38676334002770174
            ]
        },
        {
            "positions": [
                0.1780396912284308,
                -0.7299751465102995,
                0.6186884457346575,
                -0.21525534341120922,
                -0.2651344490698101,
                -0.3610394539028985
            ]
        },
        {
            "positions": [
                0.16031127265219577,
                -0.731641517156057,
                0.7508986186307288,
                -0.0189629079097553,
                -0.24834548464951023,
                -0.3353155677780953
            ]
        },
        {
            "positions": [
                0.14258285407596072,
                -0.7333078878018143,
                0.8831087915268001,
                0.17732952759169862,
                -0.23155652022921036,
                -0.30959168165329204
            ]
        },
        {
            "positions": [
                0.12485443549972568,
                -0.7349742584475718,
                1.0153189644228715,
                0.37362196309315254,
                -0.2147675558089105,
                -0.28386779552848884
            ]
        },
        {
            "positions": [
                0.10712601692349064,
                -0.7366406290933292,
                1.1475291373189427,
                0.5699143985946065,
                -0.19797859138861063,
                -0.2581439094036856
            ]
        },
        {
            "positions": [
                0.10949376385102823,
                -0.7424465194507155,
                1.2686433321240698,
                0.762224248852352,
                -0.18960653683750323,
                -0.22138973145716195
            ]
        },
        {
            "positions": [
                0.11186151077856583,
                -0.7482524098081019,
                1.3897575269291966,
                0.9545340991100975,
                -0.18123448228639583,
                -0.18463555351063832
            ]
        },
        {
            "positions": [
                0.11422925770610343,
                -0.7540583001654882,
                1.5108717217343237,
                1.146843949367843,
                -0.17286242773528843,
                -0.14788137556411468
            ]
        },
        {
            "positions": [
                0.11659700463364103,
                -0.7598641905228746,
                1.6319859165394506,
                1.3391537996255884,
                -0.16449037318418103,
                -0.11112719761759104
            ]
        },
        {
            "positions": [
                0.11896475156117862,
                -0.7656700808802609,
                1.7531001113445777,
                1.531463649883334,
                -0.15611831863307363,
                -0.07437301967106741
            ]
        },
        {
            "positions": [
                0.12133249848871622,
                -0.7714759712376473,
                1.8742143061497045,
                1.7237735001410794,
                -0.14774626408196623,
                -0.03761884172454377
            ]
        },
        {
            "positions": [
                0.12370024541625382,
                -0.7772818615950337,
                1.9953285009548316,
                1.916083350398825,
                -0.13937420953085883,
                -0.0008646637780201286
            ]
        }
    ]
}