{
    "goal": {
        "global_pose": {
            "orientation": {
                "w": 0.5084816217422485,
                "x": -0.49083608388900757,
                "y": 0.5182115435600281,
                "z": -0.4816462993621826
            },
            "position": {
                "x": 0.5540239810943604,
                "y": 0.030875300988554955,
                "z": 0.16403168439865112
            }
        },
        "name": "move_to_storage_A"
    },
    "id": "BFMT_move_to_storage_A_11",
    "joint_names": [
        "shoulder_pan_joint",
        "shoulder_lift_joint",
        "elbow_joint",
        "wrist_1_joint",
        "wrist_2_joint",
        "wrist_3_joint"
    ],
    "metrics": {
        "cart_traj_len": 0.35401654852093833,
        "distance_elbow_joint": 0.4527614638707418,
        "distance_shoulder_lift_joint": 0.23452257548162403,
        "distance_shoulder_pan_joint": 0.46146540774147454,
        "distance_wrist_1_joint": 0.2571517904627624,
        "distance_wrist_2_joint": 1.1069557353199349,
        "distance_wrist_3_joint": 0.09109153591680608,
        "smoothness": 2.2204460668324854e-16,
        "time": 0.482384737,
        "traj_len": 1.6136754657592534,
        "weighted_distance": 2.0372135642611586
    },
    "planner": "BFMT",
    "start": {
        "state": {
            "elbow_joint": 1.971548259319323,
            "shoulder_lift_joint": -1.1394851275133948,
            "shoulder_pan_joint": 0.1228115487234821,
            "wrist_1_joint": -0.7804723859257726,
            "wrist_2_joint": 0.12958671773740124,
            "wrist_3_joint": -3.192489227718131
        }
    },
    "waypoints": [
        {
            "positions": [
                0.1228115487234821,
                -1.1394851275133948,
                1.971548259319323,
                -0.7804723859257726,
                0.12958671773740124,
                -3.192489227718131
            ]
        },
        {
            "positions": [
                0.056887919046128596,
                -1.1729883525821982,
                2.036228468443715,
                -0.8172083559918816,
                0.2877232513545348,
                -3.1794761511585876
            ]
        },
        {
            "positions": [
                -0.009035710631224908,
                -1.2064915776510017,
                2.1009086775681065,
                -0.8539443260579904,
                0.44585978497166834,
                -3.1664630745990436
            ]
        },
        {
            "positions": [
                -0.0749593403085784,
                -1.2399948027198051,
                2.165588886692498,
                -0.8906802961240994,
                0.6039963185888019,
                -3.1534499980395
            ]
        },
        {
            "positions": [
                -0.14088296998593192,
                -1.2734980277886085,
                2.23026909581689,
                -0.9274162661902082,
                0.7621328522059354,
                -3.140436921479956
            ]
        },
        {
            "positions": [
                -0.20680659966328546,
                -1.307001252857412,
                2.2949493049412815,
                -0.9641522362563172,
                0.920269385823069,
                -3.1274238449204126
            ]
        },
        {
            "positions": [
                -0.2727302293406389,
                -1.3405044779262154,
                2.359629514065673,
                -1.000888206322426,
                1.0784059194402025,
                -3.1144107683608686
            ]
        },
        {
            "positions": [
                -0.33865385901799244,
                -1.3740077029950188,
                2.4243097231900648,
                -1.037624176388535,
                1.2365424530573361,
                -3.101397691801325
            ]
        }
    ]
}{
    "goal": {
        "global_pose": {
            "orientation": {
                "w": 0.5084816217422485,
                "x": -0.49083608388900757,
                "y": 0.5182115435600281,
                "z": -0.4816462993621826
            },
            "position": {
                "x": 0.5540239810943604,
                "y": 0.030875300988554955,
                "z": 0.16403168439865112
            }
        },
        "name": "move_to_storage_A"
    },
    "id": "BFMT_move_to_storage_A_11",
    "joint_names": [
        "shoulder_pan_joint",
        "shoulder_lift_joint",
        "elbow_joint",
        "wrist_1_joint",
        "wrist_2_joint",
        "wrist_3_joint"
    ],
    "metrics": {
        "cart_traj_len": 0.3537185957950638,
        "distance_elbow_joint": 0.44974451727711307,
        "distance_shoulder_lift_joint": 0.23461521391119122,
        "distance_shoulder_pan_joint": 0.4646063767478892,
        "distance_wrist_1_joint": 0.2436039351862982,
        "distance_wrist_2_joint": 1.0909393222271575,
        "distance_wrist_3_joint": 0.09033979822955374,
        "smoothness": 1.3322676295501878e-15,
        "time": 0.51302932,
        "traj_len": 1.604322026146622,
        "weighted_distance": 2.0221453996811816
    },
    "planner": "BFMT",
    "start": {
        "state": {
            "elbow_joint": 1.97154746011099,
            "shoulder_lift_joint": -1.13948474672311,
            "shoulder_pan_joint": 0.12281154466712228,
            "wrist_1_joint": -0.7804688027058302,
            "wrist_2_joint": 0.12958655903071145,
            "wrist_3_joint": 3.0906928834467795
        }
    },
    "waypoints": [
        {
            "positions": [
                0.12281154466712228,
                -1.13948474672311,
                1.97154746011099,
                -0.7804688027058302,
                0.12958655903071145,
                3.0906928834467795
            ]
        },
        {
            "positions": [
                0.05643920513170955,
                -1.1730012058532802,
                2.035796676864863,
                -0.8152693648753013,
                0.2854350336345911,
                3.1035985689081445
            ]
        },
        {
            "positions": [
                -0.009933134403703178,
                -1.2065176649834504,
                2.1000458936187365,
                -0.8500699270447725,
                0.44128350823847073,
                3.116504254369509
            ]
        },
        {
            "positions": [
                -0.07630547393911592,
                -1.2400341241136206,
                2.16429511037261,
                -0.8848704892142437,
                0.5971319828423504,
                3.129409939830874
            ]
        },
        {
            "positions": [
                -0.14267781347452863,
                -1.2735505832437906,
                2.228544327126483,
                -0.9196710513837149,
                0.75298045744623,
                3.142315625292239
            ]
        },
        {
            "positions": [
                -0.2090501530099414,
                -1.3070670423739608,
                2.2927935438803564,
                -0.9544716135531861,
                0.9088289320501097,
                3.155221310753604
            ]
        },
        {
            "positions": [
                -0.2754224925453541,
                -1.340583501504131,
                2.3570427606342297,
                -0.9892721757226572,
                1.0646774066539892,
                3.1681269962149683
            ]
        },
        {
            "positions": [
                -0.3417948320807669,
                -1.3740999606343012,
                2.421291977388103,
                -1.0240727378921284,
                1.220525881257869,
                3.1810326816763332
            ]
        }
    ]
}{
    "goal": {
        "global_pose": {
            "orientation": {
                "w": 0.5084816217422485,
                "x": -0.49083608388900757,
                "y": 0.5182115435600281,
                "z": -0.4816462993621826
            },
            "position": {
                "x": 0.5540239810943604,
                "y": 0.030875300988554955,
                "z": 0.16403168439865112
            }
        },
        "name": "move_to_storage_A"
    },
    "id": "BFMT_move_to_storage_A_11",
    "joint_names": [
        "shoulder_pan_joint",
        "shoulder_lift_joint",
        "elbow_joint",
        "wrist_1_joint",
        "wrist_2_joint",
        "wrist_3_joint"
    ],
    "metrics": {
        "cart_traj_len": 0.35248589075899495,
        "distance_elbow_joint": 0.4525552833627797,
        "distance_shoulder_lift_joint": 0.23321382640202226,
        "distance_shoulder_pan_joint": 0.4612582804598516,
        "distance_wrist_1_joint": 0.26100236165873003,
        "distance_wrist_2_joint": 1.0938208984308604,
        "distance_wrist_3_joint": 6.176453363540482,
        "smoothness": 6.178632490226059e-16,
        "time": 0.573528393,
        "traj_len": 2.9458961308665863,
        "weighted_distance": 4.731388168500369
    },
    "planner": "BFMT",
    "start": {
        "state": {
            "elbow_joint": 1.9715472970024885,
            "shoulder_lift_joint": -1.1394870060712896,
            "shoulder_pan_joint": 0.12281152778156021,
            "wrist_1_joint": -0.780463741449964,
            "wrist_2_joint": 0.12958659822042276,
            "wrist_3_joint": 3.090690232415272
        }
    },
    "waypoints": [
        {
            "positions": [
                0.12281152778156021,
                -1.1394870060712896,
                1.9715472970024885,
                -0.780463741449964,
                0.12958659822042276,
                3.090690232415272
            ]
        },
        {
            "positions": [
                0.10184524230611242,
                -1.150087634544109,
                1.9921179917007967,
                -0.7923274851617245,
                0.17930572996728006,
                2.8099423522543407
            ]
        },
        {
            "positions": [
                0.08087895683066461,
                -1.160688263016928,
                2.012688686399105,
                -0.8041912288734849,
                0.22902486171413733,
                2.52919447209341
            ]
        },
        {
            "positions": [
                0.059912671355216815,
                -1.1712888914897472,
                2.033259381097413,
                -0.8160549725852454,
                0.27874399346099465,
                2.248446591932479
            ]
        },
        {
            "positions": [
                0.03894638587976901,
                -1.1818895199625663,
                2.0538300757957213,
                -0.8279187162970059,
                0.3284631252078519,
                1.9676987117715479
            ]
        },
        {
            "positions": [
                0.017980100404321214,
                -1.1924901484353856,
                2.0744007704940293,
                -0.8397824600087662,
                0.3781822569547092,
                1.686950831610617
            ]
        },
        {
            "positions": [
                -0.002986185071126579,
                -1.2030907769082049,
                2.0949714651923377,
                -0.8516462037205267,
                0.42790138870156647,
                1.406202951449686
            ]
        },
        {
            "positions": [
                -0.0239524705465744,
                -1.213691405381024,
                2.1155421598906456,
                -0.8635099474322872,
                0.47762052044842374,
                1.125455071288755
            ]
        },
        {
            "positions": [
                -0.044918756022022194,
                -1.2242920338538432,
                2.136112854588954,
                -0.8753736911440476,
                0.5273396521952811,
                0.8447071911278239
            ]
        },
        {
            "positions": [
                -0.06588504149747001,
                -1.2348926623266623,
                2.156683549287262,
                -0.8872374348558081,
                0.5770587839421384,
                0.5639593109668928
            ]
        },
        {
            "positions": [
                -0.08685132697291778,
                -1.2454932907994816,
                2.17725424398557,
                -0.8991011785675685,
                0.6267779156889957,
                0.2832114308059621
            ]
        },
        {
            "positions": [
                -0.1078176124483656,
                -1.2560939192723009,
                2.1978249386838784,
                -0.910964922279329,
                0.6764970474358529,
                0.0024635506450310096
            ]
        },
        {
            "positions": [
                -0.12878389792381337,
                -1.26669454774512,
                2.2183956333821864,
                -0.9228286659910895,
                0.7262161791827102,
                -0.27828432951589965
            ]
        },
        {
            "positions": [
                -0.14975018339926124,
                -1.2772951762179392,
                2.238966328080495,
                -0.93469240970285,
                0.7759353109295676,
                -0.5590322096768312
            ]
        },
        {
            "positions": [
                -0.170716468874709,
                -1.2878958046907583,
                2.2595370227788028,
                -0.9465561534146104,
                0.8256544426764247,
                -0.8397800898377619
            ]
        },
        {
            "positions": [
                -0.19168275435015678,
                -1.2984964331635775,
                2.280107717477111,
                -0.9584198971263709,
                0.875373574423282,
                -1.1205279699986925
            ]
        },
        {
            "positions": [
                -0.2126490398256046,
                -1.3090970616363968,
                2.300678412175419,
                -0.9702836408381312,
                0.9250927061701394,
                -1.401275850159624
            ]
        },
        {
            "positions": [
                -0.23361532530105242,
                -1.319697690109216,
                2.3212491068737275,
                -0.9821473845498918,
                0.9748118379169967,
                -1.6820237303205547
            ]
        },
        {
            "positions": [
                -0.2545816107765002,
                -1.3302983185820352,
                2.3418198015720355,
                -0.9940111282616522,
                1.024530969663854,
                -1.9627716104814863
            ]
        },
        {
            "positions": [
                -0.275547896251948,
                -1.3408989470548542,
                2.362390496270344,
                -1.0058748719734127,
                1.0742501014107113,
                -2.243519490642417
            ]
        },
        {
            "positions": [
                -0.29651418172739574,
                -1.3514995755276735,
                2.382961190968652,
                -1.017738615685173,
                1.1239692331575686,
                -2.5242673708033476
            ]
        },
        {
            "positions": [
                -0.3174804672028436,
                -1.3621002040004928,
                2.4035318856669603,
                -1.0296023593969337,
                1.1736883649044259,
                -2.805015250964279
            ]
        },
        {
            "positions": [
                -0.3384467526782914,
                -1.3727008324733119,
                2.4241025803652683,
                -1.041466103108694,
                1.2234074966512831,
                -3.0857631311252103
            ]
        }
    ]
}