{
    "goal": {
        "global_pose": {
            "orientation": {
                "w": -0.00223480608172531,
                "x": 0.0024358444001904467,
                "y": 0.7094548369677653,
                "z": -0.704743149386269
            },
            "position": {
                "x": 0.6205249238014221,
                "y": -0.6371506643295288,
                "z": 0.19426114857196808
            }
        },
        "name": "move_to_magneteinheit_B"
    },
    "id": "BFMT_move_to_magneteinheit_B_89",
    "joint_names": [
        "shoulder_pan_joint",
        "shoulder_lift_joint",
        "elbow_joint",
        "wrist_1_joint",
        "wrist_2_joint",
        "wrist_3_joint"
    ],
    "metrics": {
        "cart_traj_len": 1.43151937049852,
        "distance_elbow_joint": 1.029017630149175,
        "distance_shoulder_lift_joint": 0.8014683629960951,
        "distance_shoulder_pan_joint": 1.6209347680721105,
        "distance_wrist_1_joint": 0.20188245024622065,
        "distance_wrist_2_joint": 1.5183009044078075,
        "distance_wrist_3_joint": 1.2644194193592757,
        "smoothness": 0.310180827867671,
        "time": 0.790211983,
        "traj_len": 2.536931913794827,
        "weighted_distance": 3.2687988204542755
    },
    "planner": "BFMT",
    "start": {
        "state": {
            "elbow_joint": 2.6216224122426386,
            "shoulder_lift_joint": -1.4174107377796124,
            "shoulder_pan_joint": 0.7066234856936794,
            "wrist_1_joint": 1.9546482284002225,
            "wrist_2_joint": -0.7096286983471962,
            "wrist_3_joint": 0.005740856962016249
        }
    },
    "waypoints": [
        {
            "positions": [
                0.7066234856936794,
                -1.4174107377796124,
                2.6216224122426386,
                1.9546482284002225,
                -0.7096286983471962,
                0.005740856962016249
            ]
        },
        {
            "positions": [
                0.6463339157327135,
                -1.4236508862059867,
                2.6314545091459114,
                1.9552294533587096,
                -0.8613516866548072,
                0.16402563958905927
            ]
        },
        {
            "positions": [
                0.5860443457717476,
                -1.4298910346323612,
                2.641286606049184,
                1.9558106783171967,
                -1.0130746749624182,
                0.3223104222161023
            ]
        },
        {
            "positions": [
                0.5257547758107817,
                -1.4361311830587358,
                2.6511187029524574,
                1.9563919032756838,
                -1.1647976632700292,
                0.4805952048431453
            ]
        },
        {
            "positions": [
                0.4654652058498157,
                -1.44237133148511,
                2.6609507998557302,
                1.956973128234171,
                -1.3165206515776402,
                0.6388799874701883
            ]
        },
        {
            "positions": [
                0.3593285529091813,
                -1.3826399646166025,
                2.5848208581221854,
                1.972323709035115,
                -1.3866290324374373,
                0.5903199652508726
            ]
        },
        {
            "positions": [
                0.25319189996854696,
                -1.322908597748095,
                2.5086909163886406,
                1.9876742898360589,
                -1.4567374132972346,
                0.541759943031557
            ]
        },
        {
            "positions": [
                0.14705524702791256,
                -1.2631772308795877,
                2.432560974655096,
                2.003024870637003,
                -1.5268457941570317,
                0.49319992081224134
            ]
        },
        {
            "positions": [
                0.040918594087278215,
                -1.2034458640110801,
                2.3564310329215505,
                2.018375451437947,
                -1.596954175016829,
                0.44463989859292574
            ]
        },
        {
            "positions": [
                -0.06521805885335613,
                -1.1437144971425726,
                2.2803010911880057,
                2.033726032238891,
                -1.667062555876626,
                0.3960798763736101
            ]
        },
        {
            "positions": [
                -0.1713547117939906,
                -1.0839831302740652,
                2.204171149454461,
                2.049076613039835,
                -1.7371709367364234,
                0.3475198541542944
            ]
        },
        {
            "positions": [
                -0.2774913647346248,
                -1.0242517634055577,
                2.128041207720916,
                2.064427193840779,
                -1.8072793175962205,
                0.2989598319349789
            ]
        },
        {
            "positions": [
                -0.3836280176752593,
                -0.9645203965370501,
                2.0519112659873713,
                2.079777774641723,
                -1.8773876984560178,
                0.25039980971566317
            ]
        },
        {
            "positions": [
                -0.4897646706158936,
                -0.9047890296685427,
                1.9757813242538265,
                2.095128355442667,
                -1.947496079315815,
                0.20183978749634757
            ]
        },
        {
            "positions": [
                -0.595901323556528,
                -0.8450576628000351,
                1.8996513825202817,
                2.110478936243611,
                -2.0176044601756122,
                0.1532797652770319
            ]
        },
        {
            "positions": [
                -0.7020379764971625,
                -0.7853262959315277,
                1.8235214407867368,
                2.125829517044555,
                -2.087712841035409,
                0.10471974305771636
            ]
        },
        {
            "positions": [
                -0.8081746294377969,
                -0.7255949290630201,
                1.7473914990531918,
                2.141180097845499,
                -2.1578212218952064,
                0.056159720838400595
            ]
        },
        {
            "positions": [
                -0.9143112823784311,
                -0.6658635621945127,
                1.671261557319647,
                2.156530678646443,
                -2.2279296027550037,
                0.0075996986190850005
            ]
        }
    ]
}