{
    "goal": {
        "global_pose": {
            "orientation": {
                "w": 0.5084816217422485,
                "x": -0.49083608388900757,
                "y": 0.5182115435600281,
                "z": -0.4816462993621826
            },
            "position": {
                "x": 0.5540239810943604,
                "y": 0.030875300988554955,
                "z": 0.16403168439865112
            }
        },
        "name": "move_to_storage_A"
    },
    "id": "BFMT_move_to_storage_A_10",
    "joint_names": [
        "shoulder_pan_joint",
        "shoulder_lift_joint",
        "elbow_joint",
        "wrist_1_joint",
        "wrist_2_joint",
        "wrist_3_joint"
    ],
    "metrics": {
        "cart_traj_len": 0.35405244914811806,
        "distance_elbow_joint": 0.453631316913641,
        "distance_shoulder_lift_joint": 0.23478995944326897,
        "distance_shoulder_pan_joint": 0.4612822507607869,
        "distance_wrist_1_joint": 0.25584460415694943,
        "distance_wrist_2_joint": 1.1086914535782615,
        "distance_wrist_3_joint": 0.09432221147644837,
        "smoothness": 0.0,
        "time": 0.47205855900000004,
        "traj_len": 1.6151042679435146,
        "weighted_distance": 2.040034871519961
    },
    "planner": "BFMT",
    "start": {
        "state": {
            "elbow_joint": 1.971548259319323,
            "shoulder_lift_joint": -1.1394851275133948,
            "shoulder_pan_joint": 0.1228115487234821,
            "wrist_1_joint": -0.7804723859257726,
            "wrist_2_joint": 0.12958671773740124,
            "wrist_3_joint": -3.192489227718131
        }
    },
    "waypoints": [
        {
            "positions": [
                0.1228115487234821,
                -1.1394851275133948,
                1.971548259319323,
                -0.7804723859257726,
                0.12958671773740124,
                -3.192489227718131
            ]
        },
        {
            "positions": [
                0.05691408432908397,
                -1.1730265502910047,
                2.036352733164129,
                -0.8170216150910511,
                0.2879712111057243,
                -3.1790146260786387
            ]
        },
        {
            "positions": [
                -0.008983380065314156,
                -1.2065679730686145,
                2.1011572070089346,
                -0.8535708442563296,
                0.4463557044740474,
                -3.165540024439146
            ]
        },
        {
            "positions": [
                -0.07488084445971227,
                -1.2401093958462244,
                2.1659616808537407,
                -0.890120073421608,
                0.6047401978423704,
                -3.1520654227996534
            ]
        },
        {
            "positions": [
                -0.1407783088541104,
                -1.2736508186238342,
                2.2307661546985464,
                -0.9266693025868866,
                0.7631246912106935,
                -3.1385908211601605
            ]
        },
        {
            "positions": [
                -0.20667577324850855,
                -1.307192241401444,
                2.295570628543352,
                -0.9632185317521651,
                0.9215091845790166,
                -3.125116219520668
            ]
        },
        {
            "positions": [
                -0.27257323764290664,
                -1.340733664179054,
                2.3603751023881583,
                -0.9997677609174436,
                1.0798936779473396,
                -3.111641617881175
            ]
        },
        {
            "positions": [
                -0.3384707020373048,
                -1.3742750869566638,
                2.425179576232964,
                -1.036316990082722,
                1.2382781713156628,
                -3.098167016241683
            ]
        }
    ]
}{
    "goal": {
        "global_pose": {
            "orientation": {
                "w": 0.5084816217422485,
                "x": -0.49083608388900757,
                "y": 0.5182115435600281,
                "z": -0.4816462993621826
            },
            "position": {
                "x": 0.5540239810943604,
                "y": 0.030875300988554955,
                "z": 0.16403168439865112
            }
        },
        "name": "move_to_storage_A"
    },
    "id": "BFMT_move_to_storage_A_10",
    "joint_names": [
        "shoulder_pan_joint",
        "shoulder_lift_joint",
        "elbow_joint",
        "wrist_1_joint",
        "wrist_2_joint",
        "wrist_3_joint"
    ],
    "metrics": {
        "cart_traj_len": 0.35350840694248353,
        "distance_elbow_joint": 0.45245924607947385,
        "distance_shoulder_lift_joint": 0.23396113625778514,
        "distance_shoulder_pan_joint": 0.46290788641522884,
        "distance_wrist_1_joint": 0.2594791401027208,
        "distance_wrist_2_joint": 1.096311120065876,
        "distance_wrist_3_joint": 0.09424936481324364,
        "smoothness": 1.1102230263833737e-15,
        "time": 0.541538206,
        "traj_len": 1.6122555299127768,
        "weighted_distance": 2.035597426685692
    },
    "planner": "BFMT",
    "start": {
        "state": {
            "elbow_joint": 1.97154746011099,
            "shoulder_lift_joint": -1.13948474672311,
            "shoulder_pan_joint": 0.12281154466712228,
            "wrist_1_joint": -0.7804688027058302,
            "wrist_2_joint": 0.12958655903071145,
            "wrist_3_joint": 3.0906928834467795
        }
    },
    "waypoints": [
        {
            "positions": [
                0.12281154466712228,
                -1.13948474672311,
                1.97154746011099,
                -0.7804688027058302,
                0.12958655903071145,
                3.0906928834467795
            ]
        },
        {
            "positions": [
                0.056681846607803885,
                -1.172907766188508,
                2.0361844952652004,
                -0.8175372512919331,
                0.2862024333258366,
                3.1041570784201
            ]
        },
        {
            "positions": [
                -0.009447851451514513,
                -1.2063307856539056,
                2.100821530419411,
                -0.8546056998780361,
                0.44281830762096175,
                3.1176212733934205
            ]
        },
        {
            "positions": [
                -0.07557754951083291,
                -1.2397538051193036,
                2.1654585655736214,
                -0.8916741484641391,
                0.5994341819160869,
                3.131085468366741
            ]
        },
        {
            "positions": [
                -0.1417072475701513,
                -1.2731768245847015,
                2.2300956007278323,
                -0.9287425970502421,
                0.756050056211212,
                3.1445496633400616
            ]
        },
        {
            "positions": [
                -0.20783694562946975,
                -1.3065998440500994,
                2.294732635882043,
                -0.965811045636345,
                0.9126659305063372,
                3.158013858313382
            ]
        },
        {
            "positions": [
                -0.2739666436887881,
                -1.3400228635154972,
                2.3593696710362533,
                -1.002879494222448,
                1.0692818048014623,
                3.1714780532867026
            ]
        },
        {
            "positions": [
                -0.34009634174810655,
                -1.373445882980895,
                2.4240067061904638,
                -1.039947942808551,
                1.2258976790965874,
                3.184942248260023
            ]
        }
    ]
}{
    "goal": {
        "global_pose": {
            "orientation": {
                "w": 0.5084816217422485,
                "x": -0.49083608388900757,
                "y": 0.5182115435600281,
                "z": -0.4816462993621826
            },
            "position": {
                "x": 0.5540239810943604,
                "y": 0.030875300988554955,
                "z": 0.16403168439865112
            }
        },
        "name": "move_to_storage_A"
    },
    "id": "BFMT_move_to_storage_A_10",
    "joint_names": [
        "shoulder_pan_joint",
        "shoulder_lift_joint",
        "elbow_joint",
        "wrist_1_joint",
        "wrist_2_joint",
        "wrist_3_joint"
    ],
    "metrics": {
        "cart_traj_len": 0.35275617402924614,
        "distance_elbow_joint": 0.45184616570569025,
        "distance_shoulder_lift_joint": 0.2355606559870982,
        "distance_shoulder_pan_joint": 0.4580192466674354,
        "distance_wrist_1_joint": 0.24896711243127356,
        "distance_wrist_2_joint": 1.1130335461870409,
        "distance_wrist_3_joint": 0.09681431871125845,
        "smoothness": 8.881784232165597e-16,
        "time": 0.494140243,
        "traj_len": 1.6137661062526367,
        "weighted_distance": 2.0395760200910944
    },
    "planner": "BFMT",
    "start": {
        "state": {
            "elbow_joint": 1.9715472970024885,
            "shoulder_lift_joint": -1.1394870060712896,
            "shoulder_pan_joint": 0.12281152778156021,
            "wrist_1_joint": -0.780463741449964,
            "wrist_2_joint": 0.12958659822042276,
            "wrist_3_joint": 3.090690232415272
        }
    },
    "waypoints": [
        {
            "positions": [
                0.12281152778156021,
                -1.1394870060712896,
                1.9715472970024885,
                -0.780463741449964,
                0.12958659822042276,
                3.090690232415272
            ]
        },
        {
            "positions": [
                0.057380206829069455,
                -1.1731385283551607,
                2.0360967492461586,
                -0.8160304717972888,
                0.28859139053285715,
                3.104520849374023
            ]
        },
        {
            "positions": [
                -0.008051114123421299,
                -1.2067900506390319,
                2.1006462014898286,
                -0.8515972021446135,
                0.44759618284529157,
                3.1183514663327743
            ]
        },
        {
            "positions": [
                -0.07348243507591207,
                -1.240441572922903,
                2.1651956537334986,
                -0.8871639324919384,
                0.6066009751577259,
                3.1321820832915255
            ]
        },
        {
            "positions": [
                -0.1389137560284028,
                -1.2740930952067742,
                2.2297451059771687,
                -0.9227306628392632,
                0.7656057674701603,
                3.1460127002502767
            ]
        },
        {
            "positions": [
                -0.20434507698089358,
                -1.3077446174906455,
                2.2942945582208387,
                -0.9582973931865879,
                0.9246105597825948,
                3.159843317209028
            ]
        },
        {
            "positions": [
                -0.26977639793338437,
                -1.3413961397745167,
                2.3588440104645088,
                -0.9938641235339127,
                1.0836153520950291,
                3.173673934167779
            ]
        },
        {
            "positions": [
                -0.33520771888587514,
                -1.3750476620583878,
                2.423393462708179,
                -1.0294308538812376,
                1.2426201444074636,
                3.1875045511265303
            ]
        }
    ]
}