{
    "goal": {
        "global_pose": {
            "orientation": {
                "w": 0.5084816262002911,
                "x": -0.4908360881923452,
                "y": 0.5182115481033761,
                "z": -0.48164630358495003
            },
            "position": {
                "x": 0.5540239810943604,
                "y": -0.46912469901144505,
                "z": 0.16403168439865112
            }
        },
        "name": "move_to_storage_B"
    },
    "id": "BFMT_move_to_storage_B_31",
    "joint_names": [
        "shoulder_pan_joint",
        "shoulder_lift_joint",
        "elbow_joint",
        "wrist_1_joint",
        "wrist_2_joint",
        "wrist_3_joint"
    ],
    "metrics": {
        "cart_traj_len": 0.7361057925186889,
        "distance_elbow_joint": 0.4811923168935017,
        "distance_shoulder_lift_joint": 0.4611667742677361,
        "distance_shoulder_pan_joint": 0.17978029649111205,
        "distance_wrist_1_joint": 2.9870860016826053,
        "distance_wrist_2_joint": 2.717508445482122,
        "distance_wrist_3_joint": 3.135399485983334,
        "smoothness": 0.01108340739025818,
        "time": 0.675159364,
        "traj_len": 3.156284733797065,
        "weighted_distance": 4.683751353341871
    },
    "planner": "BFMT",
    "start": {
        "state": {
            "elbow_joint": 1.664937868594044,
            "shoulder_lift_joint": -0.661644460510453,
            "shoulder_pan_joint": -0.9139846352900073,
            "wrist_1_joint": 2.146753192139373,
            "wrist_2_joint": -2.2341966793290973,
            "wrist_3_joint": 0.005466555786416001
        }
    },
    "waypoints": [
        {
            "positions": [
                -0.9139846352900073,
                -0.661644460510453,
                1.664937868594044,
                2.146753192139373,
                -2.2341966793290973,
                0.005466555786416001
            ]
        },
        {
            "positions": [
                -0.9208808212889295,
                -0.701763624859551,
                1.717010500934638,
                2.0823639857599003,
                -2.07585446873833,
                -0.060584195675063124
            ]
        },
        {
            "positions": [
                -0.9277770072878517,
                -0.741882789208649,
                1.7690831332752317,
                2.0179747793804275,
                -1.9175122581475625,
                -0.12663494713654225
            ]
        },
        {
            "positions": [
                -0.9346731932867739,
                -0.782001953557747,
                1.8211557656158255,
                1.9535855730009544,
                -1.7591700475567953,
                -0.19268569859802137
            ]
        },
        {
            "positions": [
                -0.9415693792856961,
                -0.8221211179068451,
                1.8732283979564195,
                1.8891963666214813,
                -1.6008278369660278,
                -0.25873645005950047
            ]
        },
        {
            "positions": [
                -0.9484655652846182,
                -0.862240282255943,
                1.9253010302970135,
                1.8248071602420084,
                -1.4424856263752606,
                -0.32478720152097956
            ]
        },
        {
            "positions": [
                -0.9553617512835404,
                -0.902359446605041,
                1.9773736626376073,
                1.7604179538625355,
                -1.2841434157844933,
                -0.3908379529824587
            ]
        },
        {
            "positions": [
                -0.9622579372824627,
                -0.942478610954139,
                2.029446294978201,
                1.6960287474830626,
                -1.1258012051937258,
                -0.45688870444393787
            ]
        },
        {
            "positions": [
                -0.9691541232813848,
                -0.982597775303237,
                2.081518927318795,
                1.6316395411035896,
                -0.9674589946029586,
                -0.522939455905417
            ]
        },
        {
            "positions": [
                -0.9760769459758145,
                -0.9903874119407343,
                2.077929412976087,
                1.4943077438454329,
                -0.8868606190054039,
                -0.6677724266993893
            ]
        },
        {
            "positions": [
                -0.9829997686702442,
                -0.9981770485782316,
                2.0743398986333785,
                1.356975946587276,
                -0.8062622434078492,
                -0.8126053974933616
            ]
        },
        {
            "positions": [
                -0.9899225913646739,
                -1.005966685215729,
                2.07075038429067,
                1.2196441493291195,
                -0.7256638678102947,
                -0.9574383682873338
            ]
        },
        {
            "positions": [
                -0.9968454140591037,
                -1.0137563218532264,
                2.0671608699479616,
                1.0823123520709625,
                -0.6450654922127399,
                -1.1022713390813061
            ]
        },
        {
            "positions": [
                -1.0037682367535332,
                -1.0215459584907236,
                2.0635713556052533,
                0.9449805548128059,
                -0.5644671166151853,
                -1.2471043098752785
            ]
        },
        {
            "positions": [
                -1.010691059447963,
                -1.029335595128221,
                2.059981841262545,
                0.8076487575546492,
                -0.48386874101763067,
                -1.3919372806692505
            ]
        },
        {
            "positions": [
                -1.0176138821423928,
                -1.0371252317657185,
                2.0563923269198363,
                0.6703169602964923,
                -0.403270365420076,
                -1.5367702514632229
            ]
        },
        {
            "positions": [
                -1.0245367048368224,
                -1.0449148684032157,
                2.052802812577128,
                0.5329851630383355,
                -0.3226719898225213,
                -1.681603222257195
            ]
        },
        {
            "positions": [
                -1.0314595275312521,
                -1.0527045050407131,
                2.0492132982344198,
                0.39565336578017885,
                -0.24207361422496665,
                -1.8264361930511674
            ]
        },
        {
            "positions": [
                -1.0383823502256817,
                -1.0604941416782103,
                2.0456237838917115,
                0.25832156852202215,
                -0.16147523862741198,
                -1.9712691638451398
            ]
        },
        {
            "positions": [
                -1.0453051729201115,
                -1.0682837783157078,
                2.0420342695490032,
                0.12098977126386523,
                -0.0808768630298573,
                -2.116102134639112
            ]
        },
        {
            "positions": [
                -1.0522279956145413,
                -1.0760734149532052,
                2.0384447552062945,
                -0.016342025994291243,
                -0.0002784874323027431,
                -2.2609351054330844
            ]
        },
        {
            "positions": [
                -1.0591508183089708,
                -1.0838630515907024,
                2.0348552408635863,
                -0.15367382325244816,
                0.08031988816525204,
                -2.405768076227057
            ]
        },
        {
            "positions": [
                -1.0660736410034006,
                -1.0916526882281998,
                2.031265726520878,
                -0.29100562051060486,
                0.1609182637628066,
                -2.5506010470210287
            ]
        },
        {
            "positions": [
                -1.0729964636978302,
                -1.099442324865697,
                2.0276762121781697,
                -0.42833741776876155,
                0.24151663936036138,
                -2.695434017815001
            ]
        },
        {
            "positions": [
                -1.07991928639226,
                -1.1072319615031945,
                2.024086697835461,
                -0.5656692150269185,
                0.32211501495791595,
                -2.840266988608973
            ]
        },
        {
            "positions": [
                -1.0868421090866895,
                -1.1150215981406917,
                2.0204971834927528,
                -0.7030010122850749,
                0.4027133905554705,
                -2.9850999594029455
            ]
        },
        {
            "positions": [
                -1.0937649317811193,
                -1.1228112347781891,
                2.0169076691500445,
                -0.8403328095432319,
                0.4833117661530254,
                -3.129932930196918
            ]
        }
    ]
}