{
    "goal": {
        "global_pose": {
            "orientation": {
                "w": 0.005598929693374612,
                "x": 0.007748599140229565,
                "y": 0.7110244013736278,
                "z": -0.7031023480610252
            },
            "position": {
                "x": -0.8858502320852131,
                "y": -0.7141253447532654,
                "z": 0.3711530566215515
            }
        },
        "name": "move_to_auspresseinheit_C"
    },
    "id": "BFMT_move_to_auspresseinheit_C_148",
    "joint_names": [
        "shoulder_pan_joint",
        "shoulder_lift_joint",
        "elbow_joint",
        "wrist_1_joint",
        "wrist_2_joint",
        "wrist_3_joint"
    ],
    "metrics": {
        "cart_traj_len": 0.49450362999373404,
        "distance_elbow_joint": 1.0169095451747205,
        "distance_shoulder_lift_joint": 0.3332336747301998,
        "distance_shoulder_pan_joint": 0.25598015937227725,
        "distance_wrist_1_joint": 0.7026756123419176,
        "distance_wrist_2_joint": 1.3196423447797228,
        "distance_wrist_3_joint": 0.07935504887195455,
        "smoothness": 4.844609574787718e-16,
        "time": 0.39835650499999997,
        "traj_len": 1.9255639135772131,
        "weighted_distance": 2.4266900173150137
    },
    "planner": "BFMT",
    "start": {
        "state": {
            "elbow_joint": 1.7527959577737207,
            "shoulder_lift_joint": -0.9740617694225068,
            "shoulder_pan_joint": -2.967991417825858,
            "wrist_1_joint": -0.759517768980727,
            "wrist_2_joint": 1.7443932448377408,
            "wrist_3_joint": -3.0840537646736568
        }
    },
    "waypoints": [
        {
            "positions": [
                -2.967991417825858,
                -0.9740617694225068,
                1.7527959577737207,
                -0.759517768980727,
                1.7443932448377408,
                -3.0840537646736568
            ]
        },
        {
            "positions": [
                -2.9423934018886304,
                -0.9407384019494868,
                1.6511050032562486,
                -0.6892502077465352,
                1.6124290103597685,
                -3.091989269560852
            ]
        },
        {
            "positions": [
                -2.9167953859514024,
                -0.9074150344764668,
                1.5494140487387766,
                -0.6189826465123435,
                1.4804647758817961,
                -3.0999247744480476
            ]
        },
        {
            "positions": [
                -2.891197370014175,
                -0.8740916670034469,
                1.4477230942213044,
                -0.5487150852781517,
                1.348500541403824,
                -3.107860279335243
            ]
        },
        {
            "positions": [
                -2.865599354076947,
                -0.8407682995304269,
                1.3460321397038324,
                -0.47844752404395996,
                1.2165363069258517,
                -3.1157957842224384
            ]
        },
        {
            "positions": [
                -2.8400013381397193,
                -0.8074449320574069,
                1.2443411851863604,
                -0.4081799628097682,
                1.0845720724478793,
                -3.1237312891096343
            ]
        },
        {
            "positions": [
                -2.814403322202492,
                -0.7741215645843869,
                1.1426502306688884,
                -0.33791240157557645,
                0.9526078379699072,
                -3.1316667939968297
            ]
        },
        {
            "positions": [
                -2.788805306265264,
                -0.7407981971113669,
                1.0409592761514164,
                -0.26764484034138475,
                0.820643603491935,
                -3.139602298884025
            ]
        },
        {
            "positions": [
                -2.7632072903280362,
                -0.7074748296383468,
                0.9392683216339441,
                -0.19737727910719294,
                0.6886793690139625,
                -3.1475378037712205
            ]
        },
        {
            "positions": [
                -2.7376092743908083,
                -0.6741514621653268,
                0.8375773671164721,
                -0.12710971787300118,
                0.5567151345359904,
                -3.155473308658416
            ]
        },
        {
            "positions": [
                -2.7120112584535807,
                -0.640828094692307,
                0.7358864125990002,
                -0.05684215663880947,
                0.424750900058018,
                -3.1634088135456113
            ]
        }
    ]
}