{
    "goal": {
        "global_pose": {
            "orientation": {
                "w": -0.4816463035849501,
                "x": 0.5182115481033762,
                "y": 0.4908360881923453,
                "z": -0.5084816262002911
            },
            "position": {
                "x": -0.8240239810943604,
                "y": 0.19912469901144506,
                "z": 0.16403168439865112
            }
        },
        "name": "move_to_storage_D"
    },
    "id": "BFMT_move_to_storage_D_83",
    "joint_names": [
        "shoulder_pan_joint",
        "shoulder_lift_joint",
        "elbow_joint",
        "wrist_1_joint",
        "wrist_2_joint",
        "wrist_3_joint"
    ],
    "metrics": {
        "cart_traj_len": 3.8866431083091126,
        "distance_elbow_joint": 4.208611184120658,
        "distance_shoulder_lift_joint": 1.2648393526114963,
        "distance_shoulder_pan_joint": 2.81442838013403,
        "distance_wrist_1_joint": 2.38679471961239,
        "distance_wrist_2_joint": 0.8885855821410887,
        "distance_wrist_3_joint": 3.1384020180601535,
        "smoothness": 0.01503164314802946,
        "time": 0.900118531,
        "traj_len": 3.834274538511792,
        "weighted_distance": 4.92481934435707
    },
    "planner": "BFMT",
    "start": {
        "state": {
            "elbow_joint": -2.384821988534728,
            "shoulder_lift_joint": -2.2788054721415256,
            "shoulder_pan_joint": -0.1854694642142757,
            "wrist_1_joint": 1.4845938289331202,
            "wrist_2_joint": 0.17898776772866878,
            "wrist_3_joint": 0.037105688729662994
        }
    },
    "waypoints": [
        {
            "positions": [
                -0.1854694642142757,
                -2.2788054721415256,
                -2.384821988534728,
                1.4845938289331202,
                0.17898776772866878,
                0.037105688729662994
            ]
        },
        {
            "positions": [
                -0.04688574774308413,
                -2.227966883405397,
                -2.336724472610331,
                1.4915609807836376,
                0.222924743811127,
                0.12059967762204367
            ]
        },
        {
            "positions": [
                0.09169796872810745,
                -2.177128294669269,
                -2.288626956685934,
                1.498528132634155,
                0.26686171989358526,
                0.20409366651442434
            ]
        },
        {
            "positions": [
                0.230281685199299,
                -2.1262897059331407,
                -2.240529440761537,
                1.5054952844846727,
                0.3107986959760435,
                0.287587655406805
            ]
        },
        {
            "positions": [
                0.36886540167049064,
                -2.0754511171970123,
                -2.1924319248371402,
                1.5124624363351902,
                0.3547356720585017,
                0.37108164429918566
            ]
        },
        {
            "positions": [
                0.5074491181416823,
                -2.024612528460884,
                -2.144334408912743,
                1.5194295881857076,
                0.39867264814095993,
                0.45457563319156635
            ]
        },
        {
            "positions": [
                0.6460328346128738,
                -1.9737739397247558,
                -2.096236892988346,
                1.526396740036225,
                0.4426096242234181,
                0.538069622083947
            ]
        },
        {
            "positions": [
                0.7846165510840655,
                -1.9229353509886273,
                -2.0481393770639493,
                1.5333638918867427,
                0.4865466003058764,
                0.6215636109763277
            ]
        },
        {
            "positions": [
                0.923200267555257,
                -1.8720967622524989,
                -2.000041861139552,
                1.5403310437372602,
                0.5304835763883347,
                0.7050575998687084
            ]
        },
        {
            "positions": [
                1.0617839840264485,
                -1.8212581735163706,
                -1.9519443452151553,
                1.5472981955877776,
                0.5744205524707928,
                0.7885515887610891
            ]
        },
        {
            "positions": [
                1.1158244989193211,
                -1.793420516482359,
                -1.8217466369116695,
                1.4671571489340627,
                0.5914258213466191,
                0.8708604204172521
            ]
        },
        {
            "positions": [
                1.1698650138121938,
                -1.7655828594483471,
                -1.691548928608184,
                1.3870161022803478,
                0.6084310902224456,
                0.9531692520734152
            ]
        },
        {
            "positions": [
                1.2239055287050662,
                -1.7377452024143354,
                -1.5613512203046982,
                1.3068750556266329,
                0.6254363590982719,
                1.035478083729578
            ]
        },
        {
            "positions": [
                1.2779460435979388,
                -1.7099075453803236,
                -1.4311535120012127,
                1.226734008972918,
                0.6424416279740983,
                1.1177869153857412
            ]
        },
        {
            "positions": [
                1.3319865584908115,
                -1.6820698883463119,
                -1.3009558036977267,
                1.146592962319203,
                0.6594468968499246,
                1.2000957470419042
            ]
        },
        {
            "positions": [
                1.3860270733836841,
                -1.6542322313123001,
                -1.1707580953942411,
                1.0664519156654881,
                0.6764521657257511,
                1.2824045786980671
            ]
        },
        {
            "positions": [
                1.4400675882765568,
                -1.6263945742782884,
                -1.0405603870907554,
                0.9863108690117731,
                0.6934574346015774,
                1.3647134103542302
            ]
        },
        {
            "positions": [
                1.4941081031694292,
                -1.5985569172442764,
                -0.9103626787872698,
                0.9061698223580582,
                0.7104627034774038,
                1.447022242010393
            ]
        },
        {
            "positions": [
                1.548148618062302,
                -1.5707192602102646,
                -0.7801649704837841,
                0.8260287757043433,
                0.7274679723532301,
                1.5293310736665562
            ]
        },
        {
            "positions": [
                1.6021891329551745,
                -1.542881603176253,
                -0.6499672621802983,
                0.7458877290506283,
                0.7444732412290564,
                1.6116399053227193
            ]
        },
        {
            "positions": [
                1.6562296478480472,
                -1.5150439461422411,
                -0.5197695538768128,
                0.6657466823969135,
                0.7614785101048829,
                1.6939487369788822
            ]
        },
        {
            "positions": [
                1.7102701627409198,
                -1.4872062891082294,
                -0.389571845573327,
                0.5856056357431985,
                0.7784837789807092,
                1.7762575686350452
            ]
        },
        {
            "positions": [
                1.7643106776337925,
                -1.4593686320742176,
                -0.25937413726984127,
                0.5054645890894836,
                0.7954890478565356,
                1.8585664002912083
            ]
        },
        {
            "positions": [
                1.818351192526665,
                -1.4315309750402059,
                -0.1291764289663555,
                0.42532354243576864,
                0.8124943167323619,
                1.9408752319473712
            ]
        },
        {
            "positions": [
                1.8723917074195375,
                -1.4036933180061941,
                0.0010212793371302542,
                0.34518249578205373,
                0.8294995856081884,
                2.0231840636035345
            ]
        },
        {
            "positions": [
                1.9264322223124102,
                -1.3758556609721824,
                0.13121898764061557,
                0.2650414491283388,
                0.8465048544840147,
                2.1054928952596974
            ]
        },
        {
            "positions": [
                1.9804727372052828,
                -1.3480180039381706,
                0.2614166959441011,
                0.18490040247462391,
                0.863510123359841,
                2.1878017269158603
            ]
        },
        {
            "positions": [
                2.0345132520981553,
                -1.3201803469041589,
                0.3916144042475871,
                0.104759355820909,
                0.8805153922356674,
                2.270110558572023
            ]
        },
        {
            "positions": [
                2.088553766991028,
                -1.292342689870147,
                0.5218121125510726,
                0.024618309167194097,
                0.8975206611114939,
                2.3524193902281865
            ]
        },
        {
            "positions": [
                2.142594281883901,
                -1.2645050328361354,
                0.6520098208545586,
                -0.055522737486521034,
                0.9145259299873202,
                2.4347282218843493
            ]
        },
        {
            "positions": [
                2.196634796776773,
                -1.2366673758021234,
                0.7822075291580441,
                -0.13566378414023572,
                0.9315311988631465,
                2.517037053540512
            ]
        },
        {
            "positions": [
                2.250675311669646,
                -1.2088297187681118,
                0.9124052374615297,
                -0.21580483079395063,
                0.9485364677389729,
                2.599345885196675
            ]
        },
        {
            "positions": [
                2.3047158265625187,
                -1.1809920617340999,
                1.0426029457650157,
                -0.29594587744766576,
                0.9655417366147994,
                2.6816547168528384
            ]
        },
        {
            "positions": [
                2.358756341455391,
                -1.1531544047000883,
                1.1728006540685012,
                -0.37608692410138067,
                0.9825470054906256,
                2.7639635485090013
            ]
        },
        {
            "positions": [
                2.4127968563482636,
                -1.1253167476660764,
                1.3029983623719867,
                -0.4562279707550956,
                0.999552274366452,
                2.846272380165164
            ]
        },
        {
            "positions": [
                2.4668373712411364,
                -1.0974790906320646,
                1.4331960706754727,
                -0.5363690174088105,
                1.0165575432422784,
                2.9285812118213275
            ]
        },
        {
            "positions": [
                2.520877886134009,
                -1.0696414335980529,
                1.5633937789789583,
                -0.6165100640625254,
                1.0335628121181046,
                3.0108900434774903
            ]
        },
        {
            "positions": [
                2.5749184010268813,
                -1.041803776564041,
                1.6935914872824442,
                -0.6966511107162403,
                1.050568080993931,
                3.0931988751336537
            ]
        },
        {
            "positions": [
                2.628958915919754,
                -1.0139661195300294,
                1.8237891955859298,
                -0.7767921573699551,
                1.0675733498697575,
                3.1755077067898165
            ]
        }
    ]
}