{
    "goal": {
        "global_pose": {
            "orientation": {
                "w": 0.7047431468963623,
                "x": -0.7094548344612122,
                "y": 0.0024358443915843964,
                "z": -0.0022348060738295317
            },
            "position": {
                "x": 0.6094750761985779,
                "y": 0.3671506643295288,
                "z": 0.19426114857196808
            }
        },
        "name": "move_to_magneteinheit_A"
    },
    "id": "BFMT_move_to_magneteinheit_A_105",
    "joint_names": [
        "shoulder_pan_joint",
        "shoulder_lift_joint",
        "elbow_joint",
        "wrist_1_joint",
        "wrist_2_joint",
        "wrist_3_joint"
    ],
    "metrics": {
        "cart_traj_len": 3.391887673257139,
        "distance_elbow_joint": 3.888981512531665,
        "distance_shoulder_lift_joint": 0.17330438020649552,
        "distance_shoulder_pan_joint": 2.7756743124442402,
        "distance_wrist_1_joint": 0.7674139055856469,
        "distance_wrist_2_joint": 1.6911399755719423,
        "distance_wrist_3_joint": 3.0244908430676927,
        "smoothness": 0.2760047103772354,
        "time": 0.7793443959999999,
        "traj_len": 3.51012890495601,
        "weighted_distance": 4.563829586728745
    },
    "planner": "BFMT",
    "start": {
        "state": {
            "elbow_joint": -1.9196185241190666,
            "shoulder_lift_joint": -1.2443396400964142,
            "shoulder_pan_joint": 2.6996025414629847,
            "wrist_1_joint": -1.5485510000780065,
            "wrist_2_joint": -1.5709468930060704,
            "wrist_3_joint": 0.4420197071253992
        }
    },
    "waypoints": [
        {
            "positions": [
                2.6996025414629847,
                -1.2443396400964142,
                -1.9196185241190666,
                -1.5485510000780065,
                -1.5709468930060704,
                0.4420197071253992
            ]
        },
        {
            "positions": [
                2.5914081759269805,
                -1.2375067817502594,
                -1.807837316913043,
                -1.5277639655319986,
                -1.5501065082168957,
                0.5527892902723531
            ]
        },
        {
            "positions": [
                2.483213810390976,
                -1.2306739234041046,
                -1.6960561097070195,
                -1.5069769309859906,
                -1.529266123427721,
                0.6635588734193071
            ]
        },
        {
            "positions": [
                2.3750194448549715,
                -1.2238410650579499,
                -1.584274902500996,
                -1.4861898964399827,
                -1.5084257386385462,
                0.7743284565662611
            ]
        },
        {
            "positions": [
                2.2668250793189673,
                -1.217008206711795,
                -1.4724936952949723,
                -1.465402861893975,
                -1.4875853538493717,
                0.8850980397132151
            ]
        },
        {
            "positions": [
                2.158630713782963,
                -1.2101753483656401,
                -1.3607124880889487,
                -1.444615827347967,
                -1.466744969060197,
                0.995867622860169
            ]
        },
        {
            "positions": [
                2.0504363482469588,
                -1.2033424900194853,
                -1.2489312808829252,
                -1.423828792801959,
                -1.4459045842710223,
                1.106637206007123
            ]
        },
        {
            "positions": [
                1.9422419827109543,
                -1.1965096316733306,
                -1.1371500736769014,
                -1.4030417582559511,
                -1.4250641994818476,
                1.2174067891540772
            ]
        },
        {
            "positions": [
                1.83404761717495,
                -1.1896767733271758,
                -1.025368866470878,
                -1.3822547237099432,
                -1.4042238146926729,
                1.328176372301031
            ]
        },
        {
            "positions": [
                1.7258532516389455,
                -1.182843914981021,
                -0.9135876592648542,
                -1.3614676891639355,
                -1.3833834299034984,
                1.438945955447985
            ]
        },
        {
            "positions": [
                1.6176588861029413,
                -1.1760110566348663,
                -0.8018064520588306,
                -1.3406806546179275,
                -1.3625430451143237,
                1.5497155385949388
            ]
        },
        {
            "positions": [
                1.5094645205669368,
                -1.1691781982887115,
                -0.6900252448528068,
                -1.3198936200719196,
                -1.341702660325149,
                1.660485121741893
            ]
        },
        {
            "positions": [
                1.4012701550309328,
                -1.1623453399425567,
                -0.5782440376467834,
                -1.2991065855259116,
                -1.3208622755359742,
                1.7712547048888467
            ]
        },
        {
            "positions": [
                1.2930757894949283,
                -1.155512481596402,
                -0.46646283044075987,
                -1.2783195509799037,
                -1.3000218907467995,
                1.882024288035801
            ]
        },
        {
            "positions": [
                1.1848814239589238,
                -1.148679623250247,
                -0.35468162323473607,
                -1.2575325164338957,
                -1.2791815059576248,
                1.992793871182755
            ]
        },
        {
            "positions": [
                1.0766870584229196,
                -1.1418467649040922,
                -0.24290041602871248,
                -1.2367454818878878,
                -1.25834112116845,
                2.103563454329709
            ]
        },
        {
            "positions": [
                0.9684926928869153,
                -1.1350139065579374,
                -0.13111920882268913,
                -1.21595844734188,
                -1.2375007363792756,
                2.2143330374766625
            ]
        },
        {
            "positions": [
                0.860298327350911,
                -1.1281810482117827,
                -0.019338001616665323,
                -1.1951714127958721,
                -1.2166603515901009,
                2.3251026206236167
            ]
        },
        {
            "positions": [
                0.7521039618149066,
                -1.121348189865628,
                0.09244320558935842,
                -1.1743843782498642,
                -1.1958199668009262,
                2.435872203770571
            ]
        },
        {
            "positions": [
                0.6464117774064781,
                -1.1281565798919224,
                0.25239387569228877,
                -1.1600237396080832,
                -1.149133618078487,
                2.491948461660485
            ]
        },
        {
            "positions": [
                0.5407195929980498,
                -1.134964969918217,
                0.4123445457952191,
                -1.1456631009663023,
                -1.1024472693560479,
                2.548024719550399
            ]
        },
        {
            "positions": [
                0.43502740858962147,
                -1.1417733599445112,
                0.5722952158981494,
                -1.1313024623245214,
                -1.055760920633609,
                2.604100977440313
            ]
        },
        {
            "positions": [
                0.32933522418119304,
                -1.1485817499708058,
                0.7322458860010799,
                -1.1169418236827404,
                -1.0090745719111698,
                2.6601772353302273
            ]
        },
        {
            "positions": [
                0.22364303977276473,
                -1.1553901399971003,
                0.8921965561040102,
                -1.1025811850409595,
                -0.9623882231887306,
                2.716253493220141
            ]
        },
        {
            "positions": [
                0.19503278154615752,
                -1.1539302122573296,
                1.0429073914321751,
                -1.0914939010374471,
                -0.8799640522298529,
                2.796208518655607
            ]
        },
        {
            "positions": [
                0.16642252331955032,
                -1.1524702845175587,
                1.1936182267603401,
                -1.080406617033935,
                -0.7975398812709752,
                2.8761635440910727
            ]
        },
        {
            "positions": [
                0.13781226509294314,
                -1.151010356777788,
                1.3443290620885051,
                -1.0693193330304227,
                -0.7151157103120974,
                2.9561185695265384
            ]
        },
        {
            "positions": [
                0.10920200686633594,
                -1.1495504290380174,
                1.49503989741667,
                -1.0582320490269104,
                -0.6326915393532198,
                3.036073594962004
            ]
        },
        {
            "positions": [
                0.08059174863972873,
                -1.1480905012982467,
                1.645750732744835,
                -1.047144765023398,
                -0.550267368394342,
                3.1160286203974703
            ]
        },
        {
            "positions": [
                0.05198149041312153,
                -1.1466305735584759,
                1.796461568073,
                -1.036057481019886,
                -0.4678431974354642,
                3.195983645832936
            ]
        },
        {
            "positions": [
                0.023371232186514324,
                -1.1451706458187052,
                1.947172403401165,
                -1.0249701970163736,
                -0.38541902647658643,
                3.2759386712684018
            ]
        },
        {
            "positions": [
                0.056518899909103845,
                -1.1431534839300912,
                1.9545692650716426,
                -0.9436924961750356,
                -0.21688165679576704,
                3.2124147116268382
            ]
        },
        {
            "positions": [
                0.08966656763169337,
                -1.1411363220414774,
                1.9619661267421205,
                -0.8624147953336976,
                -0.04834428711494765,
                3.148890751985275
            ]
        },
        {
            "positions": [
                0.12281423535428289,
                -1.1391191601528634,
                1.969362988412598,
                -0.7811370944923596,
                0.12019308256587176,
                3.0853667923437116
            ]
        }
    ]
}