{
    "goal": {
        "global_pose": {
            "orientation": {
                "w": 0.7047431468963623,
                "x": -0.7094548344612122,
                "y": 0.0024358443915843964,
                "z": -0.0022348060738295317
            },
            "position": {
                "x": 0.6094750761985779,
                "y": 0.3671506643295288,
                "z": 0.19426114857196808
            }
        },
        "name": "move_to_magneteinheit_A"
    },
    "id": "BFMT_move_to_magneteinheit_A_17",
    "joint_names": [
        "shoulder_pan_joint",
        "shoulder_lift_joint",
        "elbow_joint",
        "wrist_1_joint",
        "wrist_2_joint",
        "wrist_3_joint"
    ],
    "metrics": {
        "cart_traj_len": 3.3336364950718016,
        "distance_elbow_joint": 3.9138366857539064,
        "distance_shoulder_lift_joint": 0.46714812907089887,
        "distance_shoulder_pan_joint": 2.8673991687878577,
        "distance_wrist_1_joint": 3.479062779501355,
        "distance_wrist_2_joint": 1.4475659959563774,
        "distance_wrist_3_joint": 0.5251477832428219,
        "smoothness": 0.058471653806313126,
        "time": 0.946429498,
        "traj_len": 3.5637284607996182,
        "weighted_distance": 4.321699305164184
    },
    "planner": "BFMT",
    "start": {
        "state": {
            "elbow_joint": -1.9196185241190666,
            "shoulder_lift_joint": -1.2443396400964142,
            "shoulder_pan_joint": 2.6996025414629847,
            "wrist_1_joint": -1.5485510000780065,
            "wrist_2_joint": -1.5709468930060704,
            "wrist_3_joint": 0.4420197071253992
        }
    },
    "waypoints": [
        {
            "positions": [
                2.6996025414629847,
                -1.2443396400964142,
                -1.9196185241190666,
                -1.5485510000780065,
                -1.5709468930060704,
                0.4420197071253992
            ]
        },
        {
            "positions": [
                2.5987869763164575,
                -1.2287309516368352,
                -1.8227514026072142,
                -1.4386523023495528,
                -1.518160553836386,
                0.4238211859646592
            ]
        },
        {
            "positions": [
                2.4979714111699307,
                -1.2131222631772562,
                -1.7258842810953618,
                -1.3287536046210988,
                -1.4653742146667015,
                0.4056226648039191
            ]
        },
        {
            "positions": [
                2.3971558460234035,
                -1.1975135747176773,
                -1.6290171595835097,
                -1.2188549068926449,
                -1.4125878754970171,
                0.3874241436431791
            ]
        },
        {
            "positions": [
                2.2963402808768762,
                -1.1819048862580983,
                -1.532150038071657,
                -1.1089562091641911,
                -1.3598015363273326,
                0.3692256224824391
            ]
        },
        {
            "positions": [
                2.1955247157303495,
                -1.1662961977985193,
                -1.4352829165598049,
                -0.9990575114357373,
                -1.3070151971576482,
                0.3510271013216991
            ]
        },
        {
            "positions": [
                2.0947091505838222,
                -1.1506875093389404,
                -1.3384157950479525,
                -0.8891588137072834,
                -1.254228857987964,
                0.33282858016095906
            ]
        },
        {
            "positions": [
                1.9938935854372954,
                -1.1350788208793614,
                -1.2415486735361,
                -0.7792601159788296,
                -1.2014425188182793,
                0.31463005900021906
            ]
        },
        {
            "positions": [
                1.8930780202907682,
                -1.1194701324197824,
                -1.1446815520242477,
                -0.6693614182503758,
                -1.148656179648595,
                0.29643153783947906
            ]
        },
        {
            "positions": [
                1.7922624551442412,
                -1.1038614439602035,
                -1.0478144305123953,
                -0.5594627205219218,
                -1.0958698404789105,
                0.278233016678739
            ]
        },
        {
            "positions": [
                1.6914468899977142,
                -1.0882527555006245,
                -0.950947309000543,
                -0.4495640227934681,
                -1.0430835013092261,
                0.260034495517999
            ]
        },
        {
            "positions": [
                1.590631324851187,
                -1.0726440670410455,
                -0.8540801874886905,
                -0.3396653250650141,
                -0.9902971621395417,
                0.24183597435725898
            ]
        },
        {
            "positions": [
                1.48981575970466,
                -1.0570353785814666,
                -0.7572130659768384,
                -0.2297666273365604,
                -0.9375108229698573,
                0.22363745319651895
            ]
        },
        {
            "positions": [
                1.389000194558133,
                -1.0414266901218876,
                -0.660345944464986,
                -0.11986792960810644,
                -0.8847244838001729,
                0.20543893203577895
            ]
        },
        {
            "positions": [
                1.288184629411606,
                -1.0258180016623086,
                -0.5634788229531336,
                -0.009969231879652707,
                -0.8319381446304884,
                0.18724041087503895
            ]
        },
        {
            "positions": [
                1.1873690642650787,
                -1.0102093132027294,
                -0.46661170144128095,
                0.09992946584880147,
                -0.7791518054608039,
                0.1690418897142989
            ]
        },
        {
            "positions": [
                1.0865534991185517,
                -0.9946006247431506,
                -0.3697445799294288,
                0.20982816357725498,
                -0.7263654662911195,
                0.1508433685535589
            ]
        },
        {
            "positions": [
                0.9857379339720245,
                -0.9789919362835715,
                -0.2728774584175764,
                0.31972686130570915,
                -0.6735791271214351,
                0.13264484739281884
            ]
        },
        {
            "positions": [
                0.8849223688254977,
                -0.9633832478239927,
                -0.17601033690572399,
                0.4296255590341629,
                -0.6207927879517507,
                0.11444632623207884
            ]
        },
        {
            "positions": [
                0.7841068036789705,
                -0.9477745593644136,
                -0.07914321539387159,
                0.5395242567626168,
                -0.5680064487820662,
                0.09624780507133884
            ]
        },
        {
            "positions": [
                0.6832912385324437,
                -0.9321658709048346,
                0.01772390611798058,
                0.6494229544910703,
                -0.5152201096123818,
                0.07804928391059884
            ]
        },
        {
            "positions": [
                0.5824756733859164,
                -0.9165571824452556,
                0.11459102762983298,
                0.7593216522195243,
                -0.4624337704426973,
                0.05985076274985879
            ]
        },
        {
            "positions": [
                0.4816601082393892,
                -0.9009484939856767,
                0.2114581491416856,
                0.8692203499479783,
                -0.40964743127301295,
                0.04165224158911879
            ]
        },
        {
            "positions": [
                0.380844543092862,
                -0.8853398055260977,
                0.30832527065353776,
                0.9791190476764322,
                -0.3568610921033286,
                0.023453720428378733
            ]
        },
        {
            "positions": [
                0.2800289779463352,
                -0.8697311170665187,
                0.40519239216538994,
                1.0890177454048857,
                -0.3040747529336443,
                0.005255199267638733
            ]
        },
        {
            "positions": [
                0.17921341279980796,
                -0.8541224286069398,
                0.5020595136772426,
                1.1989164431333397,
                -0.2512884137639597,
                -0.012943321893101267
            ]
        },
        {
            "positions": [
                0.07839784765328117,
                -0.8385137401473608,
                0.5989266351890947,
                1.3088151408617936,
                -0.19850207459427538,
                -0.031141843053841267
            ]
        },
        {
            "positions": [
                -0.02241771749324617,
                -0.8229050516877818,
                0.6957937567009473,
                1.4187138385902474,
                -0.1457157354245908,
                -0.04934036421458132
            ]
        },
        {
            "positions": [
                -0.004395107043099256,
                -0.8164696877049589,
                0.8809647722417138,
                1.498491056191043,
                -0.13997439496518554,
                -0.04650843255863395
            ]
        },
        {
            "positions": [
                0.013627503407047659,
                -0.8100343237221358,
                1.0661357877824802,
                1.5782682737918385,
                -0.13423305450578032,
                -0.04367650090268657
            ]
        },
        {
            "positions": [
                0.03165011385719458,
                -0.8035989597393128,
                1.2513068033232468,
                1.6580454913926341,
                -0.12849171404637508,
                -0.040844569246739196
            ]
        },
        {
            "positions": [
                0.062087140017590005,
                -0.7947964768347137,
                1.4989439227604444,
                1.748867587402872,
                -0.12678810838081445,
                -0.0324139302684061
            ]
        },
        {
            "positions": [
                0.09252416617798542,
                -0.7859939939301145,
                1.7465810421976422,
                1.83968968341311,
                -0.1250845027152538,
                -0.023983291290073008
            ]
        },
        {
            "positions": [
                0.12296119233838085,
                -0.7771915110255153,
                1.9942181616348398,
                1.930511779423348,
                -0.12338089704969316,
                -0.015552652311739914
            ]
        }
    ]
}