{
    "goal": {
        "global_pose": {
            "orientation": {
                "w": 0.7031023502349854,
                "x": -0.7110244035720825,
                "y": 0.007748599164187908,
                "z": 0.005598929710686207
            },
            "position": {
                "x": 0.11585023208521307,
                "y": 0.44412534475326537,
                "z": 0.3711530566215515
            }
        },
        "name": "move_to_auspresseinheit_A"
    },
    "id": "BFMT_move_to_auspresseinheit_A_81",
    "joint_names": [
        "shoulder_pan_joint",
        "shoulder_lift_joint",
        "elbow_joint",
        "wrist_1_joint",
        "wrist_2_joint",
        "wrist_3_joint"
    ],
    "metrics": {
        "cart_traj_len": 0.676567494806107,
        "distance_elbow_joint": 0.49461762460104985,
        "distance_shoulder_lift_joint": 0.5366177339100451,
        "distance_shoulder_pan_joint": 1.1080365765395865,
        "distance_wrist_1_joint": 0.7205345990777204,
        "distance_wrist_2_joint": 0.514921252157531,
        "distance_wrist_3_joint": 2.5944883594357266,
        "smoothness": 1.0809191887294662,
        "time": 0.697474272,
        "traj_len": 2.4431979342087002,
        "weighted_distance": 3.5204614350718804
    },
    "planner": "BFMT",
    "start": {
        "state": {
            "elbow_joint": 2.4225746658250005,
            "shoulder_lift_joint": -1.3736534386056498,
            "shoulder_pan_joint": -0.3378633547517467,
            "wrist_1_joint": -1.0288598680537169,
            "wrist_2_joint": 1.233022673432363,
            "wrist_3_joint": -3.0940220416140027
        }
    },
    "waypoints": [
        {
            "positions": [
                -0.3378633547517467,
                -1.3736534386056498,
                2.4225746658250005,
                -1.0288598680537169,
                1.233022673432363,
                -3.0940220416140027
            ]
        },
        {
            "positions": [
                -0.3423951066572435,
                -1.4339856040037053,
                2.4559945402814263,
                -1.0408185252263862,
                1.1828730881410088,
                -2.91088647827956
            ]
        },
        {
            "positions": [
                -0.3469268585627402,
                -1.4943177694017609,
                2.4894144147378516,
                -1.0527771823990557,
                1.1327235028496547,
                -2.7277509149451173
            ]
        },
        {
            "positions": [
                -0.35145861046823695,
                -1.5546499347998164,
                2.5228342891942774,
                -1.064735839571725,
                1.0825739175583005,
                -2.544615351610674
            ]
        },
        {
            "positions": [
                -0.3559903623737337,
                -1.6149821001978721,
                2.5562541636507032,
                -1.0766944967443943,
                1.0324243322669464,
                -2.3614797882762315
            ]
        },
        {
            "positions": [
                -0.3605221142792305,
                -1.6753142655959277,
                2.589674038107129,
                -1.0886531539170636,
                0.9822747469755921,
                -2.178344224941789
            ]
        },
        {
            "positions": [
                -0.3650538661847272,
                -1.7356464309939832,
                2.6230939125635544,
                -1.1006118110897332,
                0.9321251616842381,
                -1.9952086616073461
            ]
        },
        {
            "positions": [
                -0.36958561809022394,
                -1.7959785963920387,
                2.65651378701998,
                -1.1125704682624025,
                0.8819755763928838,
                -1.8120730982729032
            ]
        },
        {
            "positions": [
                -0.24999513884565627,
                -1.8086777715168894,
                2.6275495088637504,
                -1.041812246165843,
                0.8637673369353225,
                -1.9579108111723063
            ]
        },
        {
            "positions": [
                -0.13040465960108857,
                -1.82137694664174,
                2.59858523070752,
                -0.9710540240692837,
                0.8455590974777611,
                -2.103748524071709
            ]
        },
        {
            "positions": [
                -0.010814180356520875,
                -1.8340761217665909,
                2.5696209525512903,
                -0.9002958019727242,
                0.8273508580201999,
                -2.2495862369711124
            ]
        },
        {
            "positions": [
                0.1087762988880468,
                -1.8467752968914415,
                2.54065667439506,
                -0.8295375798761648,
                0.8091426185626386,
                -2.395423949870515
            ]
        },
        {
            "positions": [
                0.22836677813261452,
                -1.8594744720162921,
                2.5116923962388302,
                -0.7587793577796054,
                0.7909343791050772,
                -2.5412616627699185
            ]
        },
        {
            "positions": [
                0.3479572573771822,
                -1.8721736471411428,
                2.4827281180826,
                -0.6880211356830459,
                0.7727261396475159,
                -2.6870993756693213
            ]
        },
        {
            "positions": [
                0.46754773662175,
                -1.8848728222659936,
                2.45376383992637,
                -0.6172629135864864,
                0.7545179001899547,
                -2.832937088568724
            ]
        },
        {
            "positions": [
                0.5871382158663175,
                -1.8975719973908443,
                2.42479956177014,
                -0.5465046914899271,
                0.7363096607323933,
                -2.978774801468127
            ]
        },
        {
            "positions": [
                0.7067286951108853,
                -1.910271172515695,
                2.39583528361391,
                -0.4757464693933676,
                0.718101421274832,
                -3.1246125143675303
            ]
        }
    ]
}