{
    "goal": {
        "global_pose": {
            "orientation": {
                "w": -0.4816463035849501,
                "x": 0.5182115481033762,
                "y": 0.4908360881923453,
                "z": -0.5084816262002911
            },
            "position": {
                "x": -0.8240239810943604,
                "y": 0.19912469901144506,
                "z": 0.16403168439865112
            }
        },
        "name": "move_to_storage_D"
    },
    "id": "BFMT_move_to_storage_D_3",
    "joint_names": [
        "shoulder_pan_joint",
        "shoulder_lift_joint",
        "elbow_joint",
        "wrist_1_joint",
        "wrist_2_joint",
        "wrist_3_joint"
    ],
    "metrics": {
        "cart_traj_len": 0.5511715161309958,
        "distance_elbow_joint": 0.5557471318940708,
        "distance_shoulder_lift_joint": 0.16147807703684114,
        "distance_shoulder_pan_joint": 0.26210333935089014,
        "distance_wrist_1_joint": 3.8207748905847825,
        "distance_wrist_2_joint": 1.7816931803453622,
        "distance_wrist_3_joint": 3.1338800249522496,
        "smoothness": 0.017970473102721637,
        "time": 0.764196168,
        "traj_len": 3.1169980179917016,
        "weighted_distance": 4.646063362137762
    },
    "planner": "BFMT",
    "start": {
        "state": {
            "elbow_joint": -2.384821988534728,
            "shoulder_lift_joint": -2.2788054721415256,
            "shoulder_pan_joint": -0.1854694642142757,
            "wrist_1_joint": 1.4845938289331202,
            "wrist_2_joint": 0.17898776772866878,
            "wrist_3_joint": 0.037105688729662994
        }
    },
    "waypoints": [
        {
            "positions": [
                -0.1854694642142757,
                -2.2788054721415256,
                -2.384821988534728,
                1.4845938289331202,
                0.17898776772866878,
                0.037105688729662994
            ]
        },
        {
            "positions": [
                -0.08221210301511206,
                -2.2814696187017427,
                -2.360760579601353,
                1.4734121966971705,
                0.04527962501867924,
                -0.0002504429997477048
            ]
        },
        {
            "positions": [
                0.02104525818405159,
                -2.2841337652619593,
                -2.3366991706679783,
                1.4622305644612208,
                -0.08842851769131033,
                -0.037606574729158404
            ]
        },
        {
            "positions": [
                0.01862836179480972,
                -2.2773446442221155,
                -2.3146285483189644,
                1.2970822328910954,
                -0.15426664355763134,
                -0.17061386870713355
            ]
        },
        {
            "positions": [
                0.016211465405567855,
                -2.2705555231822716,
                -2.2925579259699504,
                1.13193390132097,
                -0.22010476942395235,
                -0.3036211626851087
            ]
        },
        {
            "positions": [
                0.013794569016325987,
                -2.2637664021424277,
                -2.2704873036209365,
                0.9667855697508447,
                -0.2859428952902734,
                -0.4366284566630838
            ]
        },
        {
            "positions": [
                0.01137767262708412,
                -2.2569772811025843,
                -2.2484166812719226,
                0.8016372381807193,
                -0.3517810211565944,
                -0.569635750641059
            ]
        },
        {
            "positions": [
                0.008960776237842251,
                -2.2501881600627405,
                -2.2263460589229083,
                0.636488906610594,
                -0.41761914702291536,
                -0.7026430446190342
            ]
        },
        {
            "positions": [
                0.006543879848600383,
                -2.2433990390228966,
                -2.2042754365738944,
                0.47134057504046856,
                -0.4834572728892364,
                -0.8356503385970092
            ]
        },
        {
            "positions": [
                0.004126983459358514,
                -2.2366099179830528,
                -2.1822048142248804,
                0.306192243470343,
                -0.5492953987555574,
                -0.9686576325749845
            ]
        },
        {
            "positions": [
                0.0017100870701166476,
                -2.229820796943209,
                -2.1601341918758665,
                0.1410439119002178,
                -0.6151335246218784,
                -1.1016649265529597
            ]
        },
        {
            "positions": [
                -0.000706809319125222,
                -2.223031675903365,
                -2.1380635695268526,
                -0.024104419669907617,
                -0.6809716504881995,
                -1.2346722205309346
            ]
        },
        {
            "positions": [
                -0.003123705708367088,
                -2.216242554863521,
                -2.1159929471778387,
                -0.18925275124003282,
                -0.7468097763545204,
                -1.36767951450891
            ]
        },
        {
            "positions": [
                -0.005540602097608954,
                -2.2094534338236773,
                -2.093922324828825,
                -0.35440108281015825,
                -0.8126479022208415,
                -1.500686808486885
            ]
        },
        {
            "positions": [
                -0.007957498486850824,
                -2.202664312783834,
                -2.071851702479811,
                -0.5195494143802837,
                -0.8784860280871625,
                -1.63369410246486
            ]
        },
        {
            "positions": [
                -0.010374394876092687,
                -2.19587519174399,
                -2.049781080130797,
                -0.6846977459504089,
                -0.9443241539534835,
                -1.7667013964428353
            ]
        },
        {
            "positions": [
                -0.012791291265334563,
                -2.189086070704146,
                -2.0277104577817826,
                -0.8498460775205348,
                -1.0101622798198044,
                -1.8997086904208107
            ]
        },
        {
            "positions": [
                -0.015208187654576426,
                -2.1822969496643023,
                -2.0056398354327687,
                -1.0149944090906597,
                -1.0760004056861256,
                -2.0327159843987856
            ]
        },
        {
            "positions": [
                -0.017625084043818295,
                -2.1755078286244585,
                -1.9835692130837548,
                -1.1801427406607852,
                -1.1418385315524464,
                -2.1657232783767606
            ]
        },
        {
            "positions": [
                -0.020041980433060158,
                -2.1687187075846146,
                -1.9614985907347409,
                -1.3452910722309102,
                -1.2076766574187676,
                -2.2987305723547355
            ]
        },
        {
            "positions": [
                -0.022458876822302035,
                -2.1619295865447707,
                -1.939427968385727,
                -1.510439403801036,
                -1.2735147832850888,
                -2.431737866332711
            ]
        },
        {
            "positions": [
                -0.024875773211543897,
                -2.1551404655049273,
                -1.917357346036713,
                -1.6755877353711615,
                -1.3393529091514096,
                -2.564745160310686
            ]
        },
        {
            "positions": [
                -0.027292669600785767,
                -2.1483513444650835,
                -1.8952867236876991,
                -1.8407360669412864,
                -1.4051910350177303,
                -2.6977524542886613
            ]
        },
        {
            "positions": [
                -0.02970956599002763,
                -2.1415622234252396,
                -1.8732161013386852,
                -2.005884398511412,
                -1.4710291608840516,
                -2.8307597482666362
            ]
        },
        {
            "positions": [
                -0.0321264623792695,
                -2.1347731023853957,
                -1.851145478989671,
                -2.1710327300815373,
                -1.5368672867503728,
                -2.9637670422446116
            ]
        },
        {
            "positions": [
                -0.03454335876851137,
                -2.127983981345552,
                -1.8290748566406572,
                -2.3361810616516627,
                -1.6027054126166937,
                -3.0967743362225866
            ]
        }
    ]
}