{
    "goal": {
        "global_pose": {
            "orientation": {
                "w": 0.7031023480610252,
                "x": -0.7110244013736278,
                "y": 0.0077485991402295624,
                "z": 0.005598929693374583
            },
            "position": {
                "x": -0.8841497679147869,
                "y": 0.44412534475326537,
                "z": 0.3711530566215515
            }
        },
        "name": "move_to_auspresseinheit_D"
    },
    "id": "BFMT_move_to_auspresseinheit_D_79",
    "joint_names": [
        "shoulder_pan_joint",
        "shoulder_lift_joint",
        "elbow_joint",
        "wrist_1_joint",
        "wrist_2_joint",
        "wrist_3_joint"
    ],
    "metrics": {
        "cart_traj_len": 0.34291803494049333,
        "distance_elbow_joint": 0.632405237638763,
        "distance_shoulder_lift_joint": 0.11802030017820853,
        "distance_shoulder_pan_joint": 0.13430414408049862,
        "distance_wrist_1_joint": 0.5178244405363528,
        "distance_wrist_2_joint": 1.4377809081761286,
        "distance_wrist_3_joint": 0.02225396169453031,
        "smoothness": 3.9474596431116675e-16,
        "time": 0.463987322,
        "traj_len": 1.691918730998768,
        "weighted_distance": 2.2051535693475013
    },
    "planner": "BFMT",
    "start": {
        "state": {
            "elbow_joint": -1.8275523626775212,
            "shoulder_lift_joint": -2.126789852344167,
            "shoulder_pan_joint": -0.03513704404078235,
            "wrist_1_joint": -2.347782403156801,
            "wrist_2_joint": -1.6058999987535132,
            "wrist_3_joint": -3.0880379163319196
        }
    },
    "waypoints": [
        {
            "positions": [
                -0.03513704404078235,
                -2.126789852344167,
                -1.8275523626775212,
                -2.347782403156801,
                -1.6058999987535132,
                -3.0880379163319196
            ]
        },
        {
            "positions": [
                -0.05192506205084468,
                -2.141542389866443,
                -1.748501707972676,
                -2.412510458223845,
                -1.4261773852314972,
                -3.090819661543736
            ]
        },
        {
            "positions": [
                -0.06871308006090701,
                -2.156294927388719,
                -1.6694510532678304,
                -2.477238513290889,
                -1.2464547717094812,
                -3.0936014067555524
            ]
        },
        {
            "positions": [
                -0.08550109807096934,
                -2.171047464910995,
                -1.590400398562985,
                -2.541966568357933,
                -1.066732158187465,
                -3.0963831519673684
            ]
        },
        {
            "positions": [
                -0.10228911608103167,
                -2.185800002433271,
                -1.5113497438581396,
                -2.6066946234249775,
                -0.8870095446654489,
                -3.0991648971791848
            ]
        },
        {
            "positions": [
                -0.119077134091094,
                -2.200552539955547,
                -1.4322990891532943,
                -2.6714226784920214,
                -0.7072869311434329,
                -3.101946642391001
            ]
        },
        {
            "positions": [
                -0.13586515210115632,
                -2.215305077477823,
                -1.353248434448449,
                -2.7361507335590654,
                -0.5275643176214166,
                -3.104728387602817
            ]
        },
        {
            "positions": [
                -0.15265317011121865,
                -2.2300576150000992,
                -1.2741977797436035,
                -2.8008787886261097,
                -0.34784170409940063,
                -3.1075101328146335
            ]
        },
        {
            "positions": [
                -0.16944118812128098,
                -2.2448101525223754,
                -1.1951471250387582,
                -2.8656068436931537,
                -0.16811909057738472,
                -3.11029187802645
            ]
        }
    ]
}