{
    "goal": {
        "global_pose": {
            "orientation": {
                "w": 0.005598929693374612,
                "x": 0.007748599140229565,
                "y": 0.7110244013736278,
                "z": -0.7031023480610252
            },
            "position": {
                "x": -0.8858502320852131,
                "y": -0.7141253447532654,
                "z": 0.3711530566215515
            }
        },
        "name": "move_to_auspresseinheit_C"
    },
    "id": "BFMT_move_to_auspresseinheit_C_121",
    "joint_names": [
        "shoulder_pan_joint",
        "shoulder_lift_joint",
        "elbow_joint",
        "wrist_1_joint",
        "wrist_2_joint",
        "wrist_3_joint"
    ],
    "metrics": {
        "cart_traj_len": 0.49267550924023285,
        "distance_elbow_joint": 0.997201145824185,
        "distance_shoulder_lift_joint": 0.3230980885385252,
        "distance_shoulder_pan_joint": 0.2557942974385634,
        "distance_wrist_1_joint": 0.6735051174288573,
        "distance_wrist_2_joint": 1.31107008852652,
        "distance_wrist_3_joint": 0.06398000222836986,
        "smoothness": 6.459479467149049e-16,
        "time": 0.459890851,
        "traj_len": 1.9038510288320933,
        "weighted_distance": 2.3952419398459805
    },
    "planner": "BFMT",
    "start": {
        "state": {
            "elbow_joint": 1.7527959577737207,
            "shoulder_lift_joint": -0.9740617694225068,
            "shoulder_pan_joint": -2.967991417825858,
            "wrist_1_joint": -0.759517768980727,
            "wrist_2_joint": 1.7443932448377408,
            "wrist_3_joint": -3.0840537646736568
        }
    },
    "waypoints": [
        {
            "positions": [
                -2.967991417825858,
                -0.9740617694225068,
                1.7527959577737207,
                -0.759517768980727,
                1.7443932448377408,
                -3.0840537646736568
            ]
        },
        {
            "positions": [
                -2.9424119880820014,
                -0.9417519605686543,
                1.6530758431913022,
                -0.6921672572378412,
                1.6132862359850888,
                -3.0904517648964935
            ]
        },
        {
            "positions": [
                -2.9168325583381454,
                -0.9094421517148017,
                1.5533557286088837,
                -0.6248167454949555,
                1.4821792271324368,
                -3.0968497651193307
            ]
        },
        {
            "positions": [
                -2.891253128594289,
                -0.8771323428609492,
                1.4536356140264652,
                -0.5574662337520698,
                1.3510722182797847,
                -3.103247765342168
            ]
        },
        {
            "positions": [
                -2.8656736988504328,
                -0.8448225340070967,
                1.3539154994440468,
                -0.490115722009184,
                1.2199652094271327,
                -3.1096457655650047
            ]
        },
        {
            "positions": [
                -2.8400942691065763,
                -0.8125127251532442,
                1.254195384861628,
                -0.4227652102662983,
                1.0888582005744807,
                -3.1160437657878415
            ]
        },
        {
            "positions": [
                -2.8145148393627197,
                -0.7802029162993916,
                1.1544752702792098,
                -0.3554146985234126,
                0.9577511917218288,
                -3.1224417660106787
            ]
        },
        {
            "positions": [
                -2.7889354096188637,
                -0.7478931074455392,
                1.0547551556967911,
                -0.28806418678052687,
                0.8266441828691768,
                -3.128839766233516
            ]
        },
        {
            "positions": [
                -2.763355979875007,
                -0.7155832985916866,
                0.9550350411143727,
                -0.22071367503764105,
                0.6955371740165248,
                -3.1352377664563527
            ]
        },
        {
            "positions": [
                -2.737776550131151,
                -0.6832734897378341,
                0.8553149265319542,
                -0.1533631632947554,
                0.5644301651638728,
                -3.1416357666791894
            ]
        },
        {
            "positions": [
                -2.7121971203872945,
                -0.6509636808839816,
                0.7555948119495357,
                -0.08601265155186971,
                0.4333231563112208,
                -3.1480337669020266
            ]
        }
    ]
}