{
    "goal": {
        "global_pose": {
            "orientation": {
                "w": -0.4816463035849501,
                "x": 0.5182115481033762,
                "y": 0.4908360881923453,
                "z": -0.5084816262002911
            },
            "position": {
                "x": -0.8240239810943604,
                "y": 0.19912469901144506,
                "z": 0.16403168439865112
            }
        },
        "name": "move_to_storage_D"
    },
    "id": "BFMT_move_to_storage_D_73",
    "joint_names": [
        "shoulder_pan_joint",
        "shoulder_lift_joint",
        "elbow_joint",
        "wrist_1_joint",
        "wrist_2_joint",
        "wrist_3_joint"
    ],
    "metrics": {
        "cart_traj_len": 3.7176808582279905,
        "distance_elbow_joint": 4.208894650040914,
        "distance_shoulder_lift_joint": 1.2660304745143027,
        "distance_shoulder_pan_joint": 2.8135418116238977,
        "distance_wrist_1_joint": 2.2677780579114755,
        "distance_wrist_2_joint": 0.875009019592589,
        "distance_wrist_3_joint": 3.1332268891722794,
        "smoothness": 3.416070858413191e-16,
        "time": 0.774157107,
        "traj_len": 3.8163439183144208,
        "weighted_distance": 4.896296739241208
    },
    "planner": "BFMT",
    "start": {
        "state": {
            "elbow_joint": -2.384821988534728,
            "shoulder_lift_joint": -2.2788054721415256,
            "shoulder_pan_joint": -0.1854694642142757,
            "wrist_1_joint": 1.4845938289331202,
            "wrist_2_joint": 0.17898776772866878,
            "wrist_3_joint": 0.037105688729662994
        }
    },
    "waypoints": [
        {
            "positions": [
                -0.1854694642142757,
                -2.2788054721415256,
                -2.384821988534728,
                1.4845938289331202,
                0.17898776772866878,
                0.037105688729662994
            ]
        },
        {
            "positions": [
                -0.06943024701217737,
                -2.2703349950019716,
                -2.189110058693431,
                1.4570558050639595,
                0.20516489962345263,
                0.03454488670408498
            ]
        },
        {
            "positions": [
                0.006718916232594518,
                -2.2438595896105027,
                -2.0680543594824683,
                1.4039064022644534,
                0.23055500883839156,
                -0.04903433388621646
            ]
        },
        {
            "positions": [
                0.08286807947736641,
                -2.217384184219034,
                -1.946998660271506,
                1.3507569994649473,
                0.2559451180533305,
                -0.1326135544765179
            ]
        },
        {
            "positions": [
                0.1590172427221383,
                -2.1909087788275654,
                -1.8259429610605435,
                1.2976075966654412,
                0.28133522726826943,
                -0.21619277506681936
            ]
        },
        {
            "positions": [
                0.23516640596691019,
                -2.1644333734360965,
                -1.7048872618495812,
                1.2444581938659351,
                0.3067253364832083,
                -0.29977199565712076
            ]
        },
        {
            "positions": [
                0.311315569211682,
                -2.1379579680446277,
                -1.5838315626386188,
                1.1913087910664293,
                0.33211544569814727,
                -0.3833512162474222
            ]
        },
        {
            "positions": [
                0.38746473245645396,
                -2.111482562653159,
                -1.4627758634276562,
                1.1381593882669232,
                0.3575055549130862,
                -0.46693043683772373
            ]
        },
        {
            "positions": [
                0.4636138957012258,
                -2.0850071572616904,
                -1.3417201642166936,
                1.0850099854674171,
                0.3828956641280251,
                -0.5505096574280252
            ]
        },
        {
            "positions": [
                0.5397630589459977,
                -2.0585317518702215,
                -1.2206644650057314,
                1.031860582667911,
                0.408285773342964,
                -0.6340888780183266
            ]
        },
        {
            "positions": [
                0.6159122221907696,
                -2.0320563464787527,
                -1.0996087657947688,
                0.978711179868405,
                0.43367588255790296,
                -0.717668098608628
            ]
        },
        {
            "positions": [
                0.6920613854355414,
                -2.005580941087284,
                -0.9785530665838065,
                0.925561777068899,
                0.4590659917728419,
                -0.8012473191989294
            ]
        },
        {
            "positions": [
                0.7682105486803134,
                -1.9791055356958152,
                -0.8574973673728441,
                0.8724123742693929,
                0.4844561009877808,
                -0.8848265397892309
            ]
        },
        {
            "positions": [
                0.8443597119250853,
                -1.9526301303043465,
                -0.7364416681618815,
                0.8192629714698868,
                0.5098462102027198,
                -0.9684057603795324
            ]
        },
        {
            "positions": [
                0.9205088751698571,
                -1.9261547249128776,
                -0.6153859689509189,
                0.7661135686703807,
                0.5352363194176587,
                -1.0519849809698338
            ]
        },
        {
            "positions": [
                0.996658038414629,
                -1.8996793195214088,
                -0.49433026973995653,
                0.7129641658708747,
                0.5606264286325977,
                -1.1355642015601353
            ]
        },
        {
            "positions": [
                1.0728072016594008,
                -1.8732039141299401,
                -0.37327457052899415,
                0.6598147630713687,
                0.5860165378475366,
                -1.2191434221504367
            ]
        },
        {
            "positions": [
                1.1489563649041727,
                -1.8467285087384715,
                -0.2522188713180318,
                0.6066653602718626,
                0.6114066470624755,
                -1.3027226427407381
            ]
        },
        {
            "positions": [
                1.2251055281489447,
                -1.8202531033470026,
                -0.1311631721070694,
                0.5535159574723566,
                0.6367967562774144,
                -1.3863018633310396
            ]
        },
        {
            "positions": [
                1.3012546913937166,
                -1.7937776979555338,
                -0.010107472896106806,
                0.5003665546728505,
                0.6621868654923533,
                -1.469881083921341
            ]
        },
        {
            "positions": [
                1.3774038546384886,
                -1.7673022925640651,
                0.11094822631485535,
                0.44721715187334454,
                0.6875769747072922,
                -1.5534603045116424
            ]
        },
        {
            "positions": [
                1.45355301788326,
                -1.7408268871725965,
                0.23200392552581794,
                0.39406774907383846,
                0.7129670839222312,
                -1.6370395251019438
            ]
        },
        {
            "positions": [
                1.529702181128032,
                -1.7143514817811276,
                0.35305962473678054,
                0.3409183462743324,
                0.7383571931371701,
                -1.7206187456922453
            ]
        },
        {
            "positions": [
                1.605851344372804,
                -1.6878760763896588,
                0.4741153239477427,
                0.2877689434748263,
                0.763747302352109,
                -1.8041979662825467
            ]
        },
        {
            "positions": [
                1.682000507617576,
                -1.6614006709981899,
                0.5951710231587057,
                0.2346195406753202,
                0.789137411567048,
                -1.8877771868728483
            ]
        },
        {
            "positions": [
                1.7581496708623479,
                -1.6349252656067212,
                0.7162267223696679,
                0.18147013787581412,
                0.814527520781987,
                -1.9713564074631498
            ]
        },
        {
            "positions": [
                1.8342988341071198,
                -1.6084498602152526,
                0.8372824215806305,
                0.12832073507630803,
                0.8399176299969259,
                -2.054935628053451
            ]
        },
        {
            "positions": [
                1.9104479973518917,
                -1.5819744548237837,
                0.9583381207915931,
                0.07517133227680195,
                0.8653077392118648,
                -2.1385148486437524
            ]
        },
        {
            "positions": [
                1.9865971605966637,
                -1.5554990494323149,
                1.0793938200025552,
                0.022021929477295865,
                0.8906978484268037,
                -2.222094069234054
            ]
        },
        {
            "positions": [
                2.062746323841435,
                -1.5290236440408462,
                1.2004495192135178,
                -0.031127473322209998,
                0.9160879576417427,
                -2.3056732898243553
            ]
        },
        {
            "positions": [
                2.138895487086207,
                -1.5025482386493776,
                1.32150521842448,
                -0.08427687612171608,
                0.9414780668566816,
                -2.3892525104146567
            ]
        },
        {
            "positions": [
                2.215044650330979,
                -1.4760728332579087,
                1.4425609176354428,
                -0.13742627892122228,
                0.9668681760716205,
                -2.472831731004958
            ]
        },
        {
            "positions": [
                2.2740486070564994,
                -1.4098874281678107,
                1.4970625953312635,
                -0.2296774146436698,
                0.9793151205358543,
                -2.5618730837817667
            ]
        },
        {
            "positions": [
                2.33305256378202,
                -1.3437020230777128,
                1.5515642730270842,
                -0.32192855036611734,
                0.9917620650000883,
                -2.650914436558575
            ]
        },
        {
            "positions": [
                2.3920565205075404,
                -1.2775166179876147,
                1.606065950722905,
                -0.4141796860885648,
                1.0042090094643221,
                -2.7399557893353834
            ]
        },
        {
            "positions": [
                2.4510604772330606,
                -1.2113312128975169,
                1.6605676284187256,
                -0.5064308218110123,
                1.0166559539285562,
                -2.8289971421121916
            ]
        },
        {
            "positions": [
                2.510064433958581,
                -1.1451458078074188,
                1.7150693061145463,
                -0.5986819575334599,
                1.0291028983927901,
                -2.918038494889
            ]
        },
        {
            "positions": [
                2.5690683906841016,
                -1.078960402717321,
                1.769570983810367,
                -0.6909330932559073,
                1.041549842857024,
                -3.0070798476658083
            ]
        },
        {
            "positions": [
                2.628072347409622,
                -1.012774997627223,
                1.8240726615061877,
                -0.7831842289783549,
                1.053996787321258,
                -3.096121200442617
            ]
        }
    ]
}