{
    "goal": {
        "global_pose": {
            "orientation": {
                "w": 0.7031023480610252,
                "x": -0.7110244013736278,
                "y": 0.0077485991402295624,
                "z": 0.005598929693374583
            },
            "position": {
                "x": -0.8841497679147869,
                "y": 0.44412534475326537,
                "z": 0.3711530566215515
            }
        },
        "name": "move_to_auspresseinheit_D"
    },
    "id": "BFMT_move_to_auspresseinheit_D_106",
    "joint_names": [
        "shoulder_pan_joint",
        "shoulder_lift_joint",
        "elbow_joint",
        "wrist_1_joint",
        "wrist_2_joint",
        "wrist_3_joint"
    ],
    "metrics": {
        "cart_traj_len": 0.34273400792256803,
        "distance_elbow_joint": 0.640978919660987,
        "distance_shoulder_lift_joint": 0.12332551159646377,
        "distance_shoulder_pan_joint": 0.13360042770412267,
        "distance_wrist_1_joint": 0.5402556581865823,
        "distance_wrist_2_joint": 1.4383377254473948,
        "distance_wrist_3_joint": 0.0033112274698372524,
        "smoothness": 0.0,
        "time": 0.44737714199999995,
        "traj_len": 1.69700013849893,
        "weighted_distance": 2.205680237169259
    },
    "planner": "BFMT",
    "start": {
        "state": {
            "elbow_joint": -1.8275523626775212,
            "shoulder_lift_joint": -2.126789852344167,
            "shoulder_pan_joint": -0.03513704404078235,
            "wrist_1_joint": -2.347782403156801,
            "wrist_2_joint": -1.6058999987535132,
            "wrist_3_joint": -3.0880379163319196
        }
    },
    "waypoints": [
        {
            "positions": [
                -0.03513704404078235,
                -2.126789852344167,
                -1.8275523626775212,
                -2.347782403156801,
                -1.6058999987535132,
                -3.0880379163319196
            ]
        },
        {
            "positions": [
                -0.05183709750379768,
                -2.1422055412937246,
                -1.7474299977198977,
                -2.4153143604301235,
                -1.4261077830725888,
                -3.08762401289819
            ]
        },
        {
            "positions": [
                -0.06853715096681301,
                -2.157621230243283,
                -1.6673076327622744,
                -2.4828463177034465,
                -1.2463155673916644,
                -3.0872101094644604
            ]
        },
        {
            "positions": [
                -0.08523720442982835,
                -2.1730369191928407,
                -1.5871852678046512,
                -2.550378274976769,
                -1.0665233517107402,
                -3.086796206030731
            ]
        },
        {
            "positions": [
                -0.10193725789284369,
                -2.1884526081423985,
                -1.5070629028470277,
                -2.6179102322500922,
                -0.8867311360298158,
                -3.086382302597001
            ]
        },
        {
            "positions": [
                -0.11863731135585903,
                -2.2038682970919568,
                -1.4269405378894042,
                -2.685442189523415,
                -0.7069389203488914,
                -3.085968399163271
            ]
        },
        {
            "positions": [
                -0.13533736481887434,
                -2.2192839860415146,
                -1.346818172931781,
                -2.7529741467967375,
                -0.5271467046679672,
                -3.0855544957295415
            ]
        },
        {
            "positions": [
                -0.15203741828188969,
                -2.234699674991073,
                -1.2666958079741577,
                -2.8205061040700605,
                -0.3473544889870428,
                -3.085140592295812
            ]
        },
        {
            "positions": [
                -0.16873747174490503,
                -2.2501153639406306,
                -1.1865734430165342,
                -2.888038061343383,
                -0.16756227330611828,
                -3.0847266888620823
            ]
        }
    ]
}