{
    "goal": {
        "global_pose": {
            "orientation": {
                "w": 0.005598929693374612,
                "x": 0.007748599140229565,
                "y": 0.7110244013736278,
                "z": -0.7031023480610252
            },
            "position": {
                "x": 0.1141497679147869,
                "y": -0.7141253447532654,
                "z": 0.3711530566215515
            }
        },
        "name": "move_to_auspresseinheit_B"
    },
    "id": "BFMT_move_to_auspresseinheit_B_74",
    "joint_names": [
        "shoulder_pan_joint",
        "shoulder_lift_joint",
        "elbow_joint",
        "wrist_1_joint",
        "wrist_2_joint",
        "wrist_3_joint"
    ],
    "metrics": {
        "cart_traj_len": 0.5642677007507738,
        "distance_elbow_joint": 0.05941396474050431,
        "distance_shoulder_lift_joint": 0.29549910301870397,
        "distance_shoulder_pan_joint": 0.5787065965677634,
        "distance_wrist_1_joint": 0.31900391472307366,
        "distance_wrist_2_joint": 0.9850446361703864,
        "distance_wrist_3_joint": 0.0007620105822985224,
        "smoothness": 0.0,
        "time": 0.474199033,
        "traj_len": 1.4961384380473388,
        "weighted_distance": 1.88255220322327
    },
    "planner": "BFMT",
    "start": {
        "state": {
            "elbow_joint": 2.0193083361928714,
            "shoulder_lift_joint": -1.1220246554650708,
            "shoulder_pan_joint": -1.0952077554168747,
            "wrist_1_joint": -0.8559753972642168,
            "wrist_2_joint": 0.4759566250798843,
            "wrist_3_joint": -3.1240929996934557
        }
    },
    "waypoints": [
        {
            "positions": [
                -1.0952077554168747,
                -1.1220246554650708,
                2.0193083361928714,
                -0.8559753972642168,
                0.4759566250798843,
                -3.1240929996934557
            ]
        },
        {
            "positions": [
                -1.1916588548448352,
                -1.1712745059681882,
                2.0094060087361205,
                -0.8028080781437045,
                0.640130731108282,
                -3.124220001457172
            ]
        },
        {
            "positions": [
                -1.2881099542727958,
                -1.2205243564713055,
                1.99950368127937,
                -0.7496407590231923,
                0.8043048371366797,
                -3.1243470032208887
            ]
        },
        {
            "positions": [
                -1.3845610537007564,
                -1.269774206974423,
                1.9896013538226192,
                -0.69647343990268,
                0.9684789431650775,
                -3.124474004984605
            ]
        },
        {
            "positions": [
                -1.4810121531287168,
                -1.31902405747754,
                1.9796990263658685,
                -0.6433061207821678,
                1.1326530491934752,
                -3.124601006748321
            ]
        },
        {
            "positions": [
                -1.5774632525566774,
                -1.3682739079806574,
                1.9697966989091178,
                -0.5901388016616553,
                1.296827155221873,
                -3.124728008512038
            ]
        },
        {
            "positions": [
                -1.673914351984638,
                -1.4175237584837748,
                1.9598943714523671,
                -0.5369714825411431,
                1.4610012612502707,
                -3.124855010275754
            ]
        }
    ]
}