{
    "goal": {
        "global_pose": {
            "orientation": {
                "w": 0.5084816262002911,
                "x": -0.4908360881923452,
                "y": 0.5182115481033761,
                "z": -0.48164630358495003
            },
            "position": {
                "x": 0.5540239810943604,
                "y": -0.46912469901144505,
                "z": 0.16403168439865112
            }
        },
        "name": "move_to_storage_B"
    },
    "id": "BFMT_move_to_storage_B_132",
    "joint_names": [
        "shoulder_pan_joint",
        "shoulder_lift_joint",
        "elbow_joint",
        "wrist_1_joint",
        "wrist_2_joint",
        "wrist_3_joint"
    ],
    "metrics": {
        "cart_traj_len": 0.980937259510581,
        "distance_elbow_joint": 0.4503882557448624,
        "distance_shoulder_lift_joint": 0.6758297185779769,
        "distance_shoulder_pan_joint": 0.22164948994328493,
        "distance_wrist_1_joint": 2.985089212607115,
        "distance_wrist_2_joint": 2.705575973712138,
        "distance_wrist_3_joint": 3.140685522295435,
        "smoothness": 0.03459903241975093,
        "time": 0.825133811,
        "traj_len": 3.1904887043963677,
        "weighted_distance": 4.706511914761391
    },
    "planner": "BFMT",
    "start": {
        "state": {
            "elbow_joint": 1.664937868594044,
            "shoulder_lift_joint": -0.661644460510453,
            "shoulder_pan_joint": -0.9139846352900073,
            "wrist_1_joint": 2.146753192139373,
            "wrist_2_joint": -2.2341966793290973,
            "wrist_3_joint": 0.005466555786416001
        }
    },
    "waypoints": [
        {
            "positions": [
                -0.9139846352900073,
                -0.661644460510453,
                1.664937868594044,
                2.146753192139373,
                -2.2341966793290973,
                0.005466555786416001
            ]
        },
        {
            "positions": [
                -0.9119460497940671,
                -0.7183499100881674,
                1.7049660877166524,
                2.0877863211691308,
                -2.189932853789547,
                -0.17430794732877267
            ]
        },
        {
            "positions": [
                -0.909907464298127,
                -0.7750553596658818,
                1.7449943068392608,
                2.0288194501988888,
                -2.1456690282499964,
                -0.3540824504439613
            ]
        },
        {
            "positions": [
                -0.9078688788021867,
                -0.8317608092435961,
                1.7850225259618693,
                1.9698525792286465,
                -2.101405202710446,
                -0.53385695355915
            ]
        },
        {
            "positions": [
                -0.9058302933062465,
                -0.8884662588213105,
                1.8250507450844777,
                1.9108857082584043,
                -2.057141377170896,
                -0.7136314566743387
            ]
        },
        {
            "positions": [
                -0.9037917078103064,
                -0.9451717083990249,
                1.8650789642070862,
                1.851918837288162,
                -2.0128775516313455,
                -0.8934059597895273
            ]
        },
        {
            "positions": [
                -0.9017531223143662,
                -1.0018771579767392,
                1.9051071833296946,
                1.7929519663179199,
                -1.968613726091795,
                -1.073180462904716
            ]
        },
        {
            "positions": [
                -0.8997145368184261,
                -1.0585826075544535,
                1.945135402452303,
                1.7339850953476776,
                -1.9243499005522446,
                -1.2529549660199046
            ]
        },
        {
            "positions": [
                -0.8976759513224858,
                -1.115288057132168,
                1.9851636215749116,
                1.6750182243774354,
                -1.8800860750126942,
                -1.4327294691350934
            ]
        },
        {
            "positions": [
                -0.8956373658265456,
                -1.1719935067098823,
                2.02519184069752,
                1.6160513534071932,
                -1.835822249473144,
                -1.6125039722502819
            ]
        },
        {
            "positions": [
                -0.8935987803306055,
                -1.2286989562875967,
                2.0652200598201285,
                1.557084482436951,
                -1.7915584239335935,
                -1.7922784753654706
            ]
        },
        {
            "positions": [
                -0.9054378176825986,
                -1.2223004137699007,
                2.0622726442602004,
                1.4161773940307925,
                -1.6584444405032033,
                -1.8712749748445028
            ]
        },
        {
            "positions": [
                -0.9172768550345917,
                -1.2159018712522045,
                2.0593252287002723,
                1.2752703056246342,
                -1.525330457072813,
                -1.950271474323535
            ]
        },
        {
            "positions": [
                -0.9291158923865849,
                -1.2095033287345085,
                2.0563778131403443,
                1.1343632172184757,
                -1.3922164736424227,
                -2.0292679738025674
            ]
        },
        {
            "positions": [
                -0.940954929738578,
                -1.2031047862168125,
                2.0534303975804162,
                0.9934561288123173,
                -1.2591024902120327,
                -2.1082644732815994
            ]
        },
        {
            "positions": [
                -0.9527939670905711,
                -1.1967062436991165,
                2.0504829820204877,
                0.8525490404061589,
                -1.1259885067816424,
                -2.187260972760632
            ]
        },
        {
            "positions": [
                -0.9646330044425642,
                -1.1903077011814203,
                2.0475355664605597,
                0.7116419520000004,
                -0.992874523351252,
                -2.2662574722396642
            ]
        },
        {
            "positions": [
                -0.9764720417945574,
                -1.1839091586637243,
                2.0445881509006316,
                0.5707348635938421,
                -0.8597605399208619,
                -2.345253971718696
            ]
        },
        {
            "positions": [
                -0.9883110791465505,
                -1.1775106161460283,
                2.0416407353407036,
                0.42982777518768356,
                -0.7266465564904716,
                -2.4242504711977286
            ]
        },
        {
            "positions": [
                -1.0001501164985436,
                -1.171112073628332,
                2.0386933197807755,
                0.28892068678152527,
                -0.5935325730600813,
                -2.5032469706767606
            ]
        },
        {
            "positions": [
                -1.0119891538505368,
                -1.164713531110636,
                2.0357459042208474,
                0.14801359837536676,
                -0.46041858962969107,
                -2.582243470155793
            ]
        },
        {
            "positions": [
                -1.0238281912025298,
                -1.15831498859294,
                2.0327984886609194,
                0.007106509969208252,
                -0.3273046061993008,
                -2.661239969634825
            ]
        },
        {
            "positions": [
                -1.035667228554523,
                -1.1519164460752438,
                2.0298510731009913,
                -0.13380057843695026,
                -0.19419062276891053,
                -2.7402364691138574
            ]
        },
        {
            "positions": [
                -1.0475062659065162,
                -1.1455179035575478,
                2.026903657541063,
                -0.2747076668431083,
                -0.06107663933852048,
                -2.81923296859289
            ]
        },
        {
            "positions": [
                -1.0593453032585092,
                -1.1391193610398518,
                2.0239562419811348,
                -0.41561475524926683,
                0.07203734409186979,
                -2.898229468071922
            ]
        },
        {
            "positions": [
                -1.0711843406105024,
                -1.1327208185221558,
                2.0210088264212067,
                -0.5565218436554251,
                0.20515132752226006,
                -2.977225967550954
            ]
        },
        {
            "positions": [
                -1.0830233779624954,
                -1.1263222760044596,
                2.0180614108612787,
                -0.6974289320615839,
                0.33826531095265033,
                -3.0562224670299862
            ]
        },
        {
            "positions": [
                -1.0948624153144886,
                -1.1199237334867636,
                2.0151139953013506,
                -0.838336020467742,
                0.4713792943830405,
                -3.1352189665090187
            ]
        }
    ]
}