{
    "goal": {
        "global_pose": {
            "orientation": {
                "w": -0.4816463035849501,
                "x": 0.5182115481033762,
                "y": 0.4908360881923453,
                "z": -0.5084816262002911
            },
            "position": {
                "x": -0.8240239810943604,
                "y": 0.19912469901144506,
                "z": 0.16403168439865112
            }
        },
        "name": "move_to_storage_D"
    },
    "id": "BFMT_move_to_storage_D_128",
    "joint_names": [
        "shoulder_pan_joint",
        "shoulder_lift_joint",
        "elbow_joint",
        "wrist_1_joint",
        "wrist_2_joint",
        "wrist_3_joint"
    ],
    "metrics": {
        "cart_traj_len": 3.7342015496693506,
        "distance_elbow_joint": 4.21016011777561,
        "distance_shoulder_lift_joint": 1.2641022362232448,
        "distance_shoulder_pan_joint": 2.8110624268360835,
        "distance_wrist_1_joint": 2.2680578651765932,
        "distance_wrist_2_joint": 0.8661126198294992,
        "distance_wrist_3_joint": 3.143854809684074,
        "smoothness": 2.049642516806399e-16,
        "time": 0.791180398,
        "traj_len": 3.816195759591625,
        "weighted_distance": 4.897471815120466
    },
    "planner": "BFMT",
    "start": {
        "state": {
            "elbow_joint": -2.384821988534728,
            "shoulder_lift_joint": -2.2788054721415256,
            "shoulder_pan_joint": -0.1854694642142757,
            "wrist_1_joint": 1.4845938289331202,
            "wrist_2_joint": 0.17898776772866878,
            "wrist_3_joint": 0.037105688729662994
        }
    },
    "waypoints": [
        {
            "positions": [
                -0.1854694642142757,
                -2.2788054721415256,
                -2.384821988534728,
                1.4845938289331202,
                0.17898776772866878,
                0.037105688729662994
            ]
        },
        {
            "positions": [
                -0.09119626295645582,
                -2.2468813705305415,
                -2.2580833915064895,
                1.4448129201068884,
                0.2094818868597153,
                -0.02877271092797465
            ]
        },
        {
            "positions": [
                0.003076938301364074,
                -2.2149572689195574,
                -2.1313447944782515,
                1.4050320112806567,
                0.23997600599076183,
                -0.09465111058561229
            ]
        },
        {
            "positions": [
                0.09735013955918395,
                -2.183033167308573,
                -2.004606197450013,
                1.3652511024544247,
                0.27047012512180835,
                -0.16052951024324993
            ]
        },
        {
            "positions": [
                0.19162334081700386,
                -2.151109065697589,
                -1.877867600421775,
                1.325470193628193,
                0.30096424425285484,
                -0.22640790990088758
            ]
        },
        {
            "positions": [
                0.28589654207482373,
                -2.119184964086605,
                -1.7511290033935367,
                1.2856892848019612,
                0.3314583633839014,
                -0.2922863095585252
            ]
        },
        {
            "positions": [
                0.38016974333264364,
                -2.0872608624756204,
                -1.6243904063652985,
                1.2459083759757292,
                0.36195248251494794,
                -0.35816470921616284
            ]
        },
        {
            "positions": [
                0.47444294459046343,
                -2.0553367608646362,
                -1.4976518093370603,
                1.2061274671494975,
                0.39244660164599443,
                -0.4240431088738005
            ]
        },
        {
            "positions": [
                0.5687161458482834,
                -2.023412659253652,
                -1.370913212308822,
                1.1663465583232657,
                0.4229407207770409,
                -0.4899215085314381
            ]
        },
        {
            "positions": [
                0.6629893471061032,
                -1.991488557642668,
                -1.2441746152805837,
                1.126565649497034,
                0.45343483990808753,
                -0.5557999081890758
            ]
        },
        {
            "positions": [
                0.7572625483639231,
                -1.9595644560316838,
                -1.1174360182523455,
                1.0867847406708022,
                0.483928959039134,
                -0.6216783078467134
            ]
        },
        {
            "positions": [
                0.8515357496217432,
                -1.9276403544206997,
                -0.9906974212241071,
                1.0470038318445702,
                0.5144230781701805,
                -0.6875567075043512
            ]
        },
        {
            "positions": [
                0.945808950879563,
                -1.8957162528097156,
                -0.8639588241958691,
                1.0072229230183385,
                0.544917197301227,
                -0.7534351071619887
            ]
        },
        {
            "positions": [
                1.0400821521373826,
                -1.8637921511987312,
                -0.7372202271676307,
                0.9674420141921066,
                0.5754113164322736,
                -0.8193135068196263
            ]
        },
        {
            "positions": [
                1.1343553533952024,
                -1.831868049587747,
                -0.6104816301393927,
                0.9276611053658749,
                0.6059054355633201,
                -0.8851919064772639
            ]
        },
        {
            "positions": [
                1.2286285546530225,
                -1.799943947976763,
                -0.4837430331111543,
                0.887880196539643,
                0.6363995546943666,
                -0.9510703061349016
            ]
        },
        {
            "positions": [
                1.3229017559108425,
                -1.7680198463657786,
                -0.3570044360829159,
                0.8480992877134113,
                0.6668936738254131,
                -1.0169487057925393
            ]
        },
        {
            "positions": [
                1.4171749571686623,
                -1.7360957447547944,
                -0.2302658390546779,
                0.8083183788871795,
                0.6973877929564596,
                -1.0828271054501768
            ]
        },
        {
            "positions": [
                1.511448158426482,
                -1.7041716431438103,
                -0.10352724202643948,
                0.7685374700609476,
                0.7278819120875062,
                -1.1487055051078146
            ]
        },
        {
            "positions": [
                1.6057213596843019,
                -1.6722475415328262,
                0.023211355001798495,
                0.7287565612347159,
                0.7583760312185527,
                -1.214583904765452
            ]
        },
        {
            "positions": [
                1.6999945609421219,
                -1.640323439921842,
                0.14994995203003708,
                0.688975652408484,
                0.7888701503495992,
                -1.2804623044230898
            ]
        },
        {
            "positions": [
                1.7552487335456246,
                -1.6052149380765477,
                0.24706243647065684,
                0.6076871396128705,
                0.8025535583451474,
                -1.3809113689939225
            ]
        },
        {
            "positions": [
                1.8105029061491271,
                -1.5701064362312533,
                0.34417492091127655,
                0.5263986268172569,
                0.8162369663406956,
                -1.4813604335647554
            ]
        },
        {
            "positions": [
                1.8657570787526299,
                -1.534997934385959,
                0.4412874053518963,
                0.44511011402164335,
                0.8299203743362439,
                -1.5818094981355881
            ]
        },
        {
            "positions": [
                1.9210112513561324,
                -1.4998894325406644,
                0.5383998897925161,
                0.36382160122602986,
                0.8436037823317921,
                -1.682258562706421
            ]
        },
        {
            "positions": [
                1.9762654239596351,
                -1.46478093069537,
                0.6355123742331359,
                0.2825330884304163,
                0.8572871903273404,
                -1.7827076272772537
            ]
        },
        {
            "positions": [
                2.031519596563138,
                -1.4296724288500757,
                0.7326248586737556,
                0.20124457563480275,
                0.8709705983228886,
                -1.8831566918480864
            ]
        },
        {
            "positions": [
                2.08677376916664,
                -1.3945639270047814,
                0.8297373431143753,
                0.11995606283918925,
                0.8846540063184367,
                -1.9836057564189193
            ]
        },
        {
            "positions": [
                2.142027941770143,
                -1.359455425159487,
                0.926849827554995,
                0.038667550043575694,
                0.8983374143139851,
                -2.0840548209897523
            ]
        },
        {
            "positions": [
                2.1972821143736456,
                -1.3243469233141927,
                1.0239623119956147,
                -0.04262096275203775,
                0.9120208223095332,
                -2.1845038855605847
            ]
        },
        {
            "positions": [
                2.2525362869771484,
                -1.289238421468898,
                1.1210747964362346,
                -0.12390947554765142,
                0.9257042303050814,
                -2.2849529501314176
            ]
        },
        {
            "positions": [
                2.3077904595806507,
                -1.2541299196236038,
                1.2181872808768544,
                -0.20519798834326486,
                0.9393876383006297,
                -2.38540201470225
            ]
        },
        {
            "positions": [
                2.3630446321841534,
                -1.2190214177783094,
                1.315299765317474,
                -0.2864865011388785,
                0.9530710462961779,
                -2.4858510792730835
            ]
        },
        {
            "positions": [
                2.418298804787656,
                -1.183912915933015,
                1.4124122497580938,
                -0.3677750139344921,
                0.9667544542917261,
                -2.586300143843916
            ]
        },
        {
            "positions": [
                2.459757636354486,
                -1.1500709799300681,
                1.4949974256546517,
                -0.4509128183962883,
                0.9824236409450144,
                -2.690389939266015
            ]
        },
        {
            "positions": [
                2.5012164679213167,
                -1.1162290439271214,
                1.5775826015512098,
                -0.5340506228580845,
                0.9980928275983029,
                -2.794479734688114
            ]
        },
        {
            "positions": [
                2.5426752994881467,
                -1.0823871079241745,
                1.6601677774477674,
                -0.6171884273198807,
                1.0137620142515913,
                -2.8985695301102132
            ]
        },
        {
            "positions": [
                2.5841341310549772,
                -1.0485451719212278,
                1.7427529533443256,
                -0.7003262317816769,
                1.0294312009048796,
                -3.002659325532312
            ]
        },
        {
            "positions": [
                2.6255929626218073,
                -1.0147032359182808,
                1.8253381292408835,
                -0.783464036243473,
                1.045100387558168,
                -3.106749120954411
            ]
        }
    ]
}