{
    "goal": {
        "global_pose": {
            "orientation": {
                "w": 0.005598929693374612,
                "x": 0.007748599140229565,
                "y": 0.7110244013736278,
                "z": -0.7031023480610252
            },
            "position": {
                "x": -0.8858502320852131,
                "y": -0.7141253447532654,
                "z": 0.3711530566215515
            }
        },
        "name": "move_to_auspresseinheit_C"
    },
    "id": "BFMT_move_to_auspresseinheit_C_104",
    "joint_names": [
        "shoulder_pan_joint",
        "shoulder_lift_joint",
        "elbow_joint",
        "wrist_1_joint",
        "wrist_2_joint",
        "wrist_3_joint"
    ],
    "metrics": {
        "cart_traj_len": 0.49299547823504364,
        "distance_elbow_joint": 1.0105497189318013,
        "distance_shoulder_lift_joint": 0.32983273654106315,
        "distance_shoulder_pan_joint": 0.2553472449491836,
        "distance_wrist_1_joint": 0.7014601687174226,
        "distance_wrist_2_joint": 1.320126528232318,
        "distance_wrist_3_joint": 0.07896493571582441,
        "smoothness": 0.0,
        "time": 0.439740267,
        "traj_len": 1.9225715417345628,
        "weighted_distance": 2.424004517625535
    },
    "planner": "BFMT",
    "start": {
        "state": {
            "elbow_joint": 1.7527959577737207,
            "shoulder_lift_joint": -0.9740617694225068,
            "shoulder_pan_joint": -2.967991417825858,
            "wrist_1_joint": -0.759517768980727,
            "wrist_2_joint": 1.7443932448377408,
            "wrist_3_joint": -3.0840537646736568
        }
    },
    "waypoints": [
        {
            "positions": [
                -2.967991417825858,
                -0.9740617694225068,
                1.7527959577737207,
                -0.759517768980727,
                1.7443932448377408,
                -3.0840537646736568
            ]
        },
        {
            "positions": [
                -2.9424566933309397,
                -0.9410784957684004,
                1.6517409858805405,
                -0.6893717521089847,
                1.6123805920145091,
                -3.091950258245239
            ]
        },
        {
            "positions": [
                -2.916921968836021,
                -0.9080952221142942,
                1.5506860139873604,
                -0.6192257352372424,
                1.4803679391912772,
                -3.0998467518168216
            ]
        },
        {
            "positions": [
                -2.891387244341103,
                -0.8751119484601878,
                1.4496310420941803,
                -0.5490797183655002,
                1.3483552863680455,
                -3.107743245388404
            ]
        },
        {
            "positions": [
                -2.8658525198461846,
                -0.8421286748060814,
                1.3485760702010001,
                -0.47893370149375797,
                1.2163426335448135,
                -3.1156397389599864
            ]
        },
        {
            "positions": [
                -2.8403177953512664,
                -0.8091454011519752,
                1.24752109830782,
                -0.4087876846220157,
                1.0843299807215818,
                -3.1235362325315688
            ]
        },
        {
            "positions": [
                -2.8147830708563477,
                -0.776162127497869,
                1.1464661264146399,
                -0.33864166775027343,
                0.95231732789835,
                -3.1314327261031516
            ]
        },
        {
            "positions": [
                -2.7892483463614295,
                -0.7431788538437626,
                1.0454111545214597,
                -0.2684956508785312,
                0.8203046750751183,
                -3.139329219674734
            ]
        },
        {
            "positions": [
                -2.7637136218665113,
                -0.7101955801896562,
                0.9443561826282796,
                -0.19834963400678896,
                0.6882920222518865,
                -3.1472257132463164
            ]
        },
        {
            "positions": [
                -2.7381788973715926,
                -0.67721230653555,
                0.8433012107350994,
                -0.1282036171350467,
                0.5562793694286545,
                -3.155122206817899
            ]
        },
        {
            "positions": [
                -2.7126441728766744,
                -0.6442290328814436,
                0.7422462388419192,
                -0.05805760026330441,
                0.42426671660542287,
                -3.163018700389481
            ]
        }
    ]
}