{
    "goal": {
        "global_pose": {
            "orientation": {
                "w": 0.005598929693374612,
                "x": 0.007748599140229565,
                "y": 0.7110244013736278,
                "z": -0.7031023480610252
            },
            "position": {
                "x": -0.8858502320852131,
                "y": -0.7141253447532654,
                "z": 0.3711530566215515
            }
        },
        "name": "move_to_auspresseinheit_C"
    },
    "id": "BFMT_move_to_auspresseinheit_C_37",
    "joint_names": [
        "shoulder_pan_joint",
        "shoulder_lift_joint",
        "elbow_joint",
        "wrist_1_joint",
        "wrist_2_joint",
        "wrist_3_joint"
    ],
    "metrics": {
        "cart_traj_len": 0.4926418492364723,
        "distance_elbow_joint": 0.9970940261123337,
        "distance_shoulder_lift_joint": 0.3236187811868708,
        "distance_shoulder_pan_joint": 0.25613626679572254,
        "distance_wrist_1_joint": 0.6734212765430819,
        "distance_wrist_2_joint": 1.30450497966038,
        "distance_wrist_3_joint": 0.05831735525755777,
        "smoothness": 1.6148698667872622e-16,
        "time": 0.447061586,
        "traj_len": 1.900813690385238,
        "weighted_distance": 2.389069620642003
    },
    "planner": "BFMT",
    "start": {
        "state": {
            "elbow_joint": 1.7527959577737207,
            "shoulder_lift_joint": -0.9740617694225068,
            "shoulder_pan_joint": -2.967991417825858,
            "wrist_1_joint": -0.759517768980727,
            "wrist_2_joint": 1.7443932448377408,
            "wrist_3_joint": -3.0840537646736568
        }
    },
    "waypoints": [
        {
            "positions": [
                -2.967991417825858,
                -0.9740617694225068,
                1.7527959577737207,
                -0.759517768980727,
                1.7443932448377408,
                -3.0840537646736568
            ]
        },
        {
            "positions": [
                -2.942377791146286,
                -0.9416998913038197,
                1.6530865551624874,
                -0.6921756413264188,
                1.613942746871703,
                -3.0898855001994123
            ]
        },
        {
            "positions": [
                -2.9167641644667133,
                -0.9093380131851326,
                1.5533771525512539,
                -0.6248335136721106,
                1.4834922489056648,
                -3.0957172357251683
            ]
        },
        {
            "positions": [
                -2.891150537787141,
                -0.8769761350664456,
                1.4536677499400206,
                -0.5574913860178023,
                1.3530417509396269,
                -3.1015489712509243
            ]
        },
        {
            "positions": [
                -2.865536911107569,
                -0.8446142569477584,
                1.353958347328787,
                -0.4901492583634942,
                1.2225912529735887,
                -3.10738070677668
            ]
        },
        {
            "positions": [
                -2.8399232844279965,
                -0.8122523788290714,
                1.2542489447175538,
                -0.422807130709186,
                1.0921407550075508,
                -3.1132124423024354
            ]
        },
        {
            "positions": [
                -2.8143096577484243,
                -0.7798905007103842,
                1.1545395421063205,
                -0.3554650030548778,
                0.9616902570415128,
                -3.1190441778281914
            ]
        },
        {
            "positions": [
                -2.788696031068852,
                -0.7475286225916973,
                1.054830139495087,
                -0.2881228754005697,
                0.8312397590754749,
                -3.1248759133539474
            ]
        },
        {
            "positions": [
                -2.76308240438928,
                -0.7151667444730101,
                0.9551207368838537,
                -0.22078074774626144,
                0.7007892611094368,
                -3.130707648879703
            ]
        },
        {
            "positions": [
                -2.7374687777097075,
                -0.682804866354323,
                0.8554113342726204,
                -0.1534386200919532,
                0.5703387631433987,
                -3.1365393844054585
            ]
        },
        {
            "positions": [
                -2.7118551510301354,
                -0.650442988235636,
                0.755701931661387,
                -0.08609649243764507,
                0.4398882651773608,
                -3.1423711199312145
            ]
        }
    ]
}