{
    "goal": {
        "global_pose": {
            "orientation": {
                "w": -0.4816463035849501,
                "x": 0.5182115481033762,
                "y": 0.4908360881923453,
                "z": -0.5084816262002911
            },
            "position": {
                "x": -0.8240239810943604,
                "y": -0.300875300988555,
                "z": 0.16403168439865112
            }
        },
        "name": "move_to_storage_C"
    },
    "id": "BFMT_move_to_storage_C_20",
    "joint_names": [
        "shoulder_pan_joint",
        "shoulder_lift_joint",
        "elbow_joint",
        "wrist_1_joint",
        "wrist_2_joint",
        "wrist_3_joint"
    ],
    "metrics": {
        "cart_traj_len": 0.5762546847498342,
        "distance_elbow_joint": 0.2597883632076652,
        "distance_shoulder_lift_joint": 0.18895563100978363,
        "distance_shoulder_pan_joint": 0.49364942553998503,
        "distance_wrist_1_joint": 0.08732757103901312,
        "distance_wrist_2_joint": 1.0742317452787575,
        "distance_wrist_3_joint": 0.07151102824867994,
        "smoothness": 0.0,
        "time": 0.48135532000000003,
        "traj_len": 1.4749453428259247,
        "weighted_distance": 1.8654879086016654
    },
    "planner": "BFMT",
    "start": {
        "state": {
            "elbow_joint": 2.010868314990456,
            "shoulder_lift_joint": -1.1634956873337592,
            "shoulder_pan_joint": -2.4736205022346125,
            "wrist_1_joint": -0.8367026794202681,
            "wrist_2_joint": 0.6746043897044499,
            "wrist_3_joint": -3.1496632123970403
        }
    },
    "waypoints": [
        {
            "positions": [
                -2.4736205022346125,
                -1.1634956873337592,
                2.010868314990456,
                -0.8367026794202681,
                0.6746043897044499,
                -3.1496632123970403
            ]
        },
        {
            "positions": [
                -2.5558954064912767,
                -1.1320030821654619,
                1.9675702544558449,
                -0.8221480842470993,
                0.8536430139175761,
                -3.137744707688927
            ]
        },
        {
            "positions": [
                -2.638170310747941,
                -1.1005104769971648,
                1.9242721939212342,
                -0.8075934890739304,
                1.0326816381307025,
                -3.1258262029808135
            ]
        },
        {
            "positions": [
                -2.720445215004605,
                -1.0690178718288674,
                1.8809741333866232,
                -0.7930388939007615,
                1.2117202623438286,
                -3.1139076982727003
            ]
        },
        {
            "positions": [
                -2.802720119261269,
                -1.03752526666057,
                1.8376760728520123,
                -0.7784842987275927,
                1.390758886556955,
                -3.101989193564587
            ]
        },
        {
            "positions": [
                -2.8849950235179334,
                -1.0060326614922728,
                1.7943780123174016,
                -0.7639297035544238,
                1.5697975107700812,
                -3.0900706888564735
            ]
        },
        {
            "positions": [
                -2.9672699277745975,
                -0.9745400563239756,
                1.7510799517827906,
                -0.749375108381255,
                1.7488361349832076,
                -3.0781521841483603
            ]
        }
    ]
}