{
    "goal": {
        "global_pose": {
            "orientation": {
                "w": 0.7047431493862688,
                "x": -0.7094548369677653,
                "y": 0.0024358444001904,
                "z": -0.0022348060817251984
            },
            "position": {
                "x": -0.39052492380142206,
                "y": 0.3671506643295288,
                "z": 0.19426114857196808
            }
        },
        "name": "move_to_magneteinheit_D"
    },
    "id": "BFMT_move_to_magneteinheit_D_41",
    "joint_names": [
        "shoulder_pan_joint",
        "shoulder_lift_joint",
        "elbow_joint",
        "wrist_1_joint",
        "wrist_2_joint",
        "wrist_3_joint"
    ],
    "metrics": {
        "cart_traj_len": 3.706018374959767,
        "distance_elbow_joint": 3.5076830802805166,
        "distance_shoulder_lift_joint": 1.625240281482273,
        "distance_shoulder_pan_joint": 2.903625263820925,
        "distance_wrist_1_joint": 1.8619646330028727,
        "distance_wrist_2_joint": 0.4459293242934056,
        "distance_wrist_3_joint": 3.5889086099989984,
        "smoothness": 0.4843833384760787,
        "time": 1.016334314,
        "traj_len": 3.732740440062635,
        "weighted_distance": 4.839324577890314
    },
    "planner": "BFMT",
    "start": {
        "state": {
            "elbow_joint": 0.749534889911806,
            "shoulder_lift_joint": -0.6476975780787326,
            "shoulder_pan_joint": -2.711696901376241,
            "wrist_1_joint": -0.07506478083263063,
            "wrist_2_joint": 0.43296659715538205,
            "wrist_3_joint": -3.14703540197715
        }
    },
    "waypoints": [
        {
            "positions": [
                -2.711696901376241,
                -0.6476975780787326,
                0.749534889911806,
                -0.07506478083263063,
                0.43296659715538205,
                -3.14703540197715
            ]
        },
        {
            "positions": [
                -2.6926667796881425,
                -0.6822551740336616,
                0.510309349983148,
                -0.10159327451654296,
                0.40196631326655596,
                -3.139088792873735
            ]
        },
        {
            "positions": [
                -2.673636658000044,
                -0.7168127699885907,
                0.2710838100544901,
                -0.1281217682004553,
                0.37096602937772993,
                -3.1311421837703204
            ]
        },
        {
            "positions": [
                -2.579452684702665,
                -0.7467200083862635,
                0.165582648600485,
                -0.08044682842712622,
                0.3656218524882695,
                -3.017797763294543
            ]
        },
        {
            "positions": [
                -2.4852687114052867,
                -0.7766272467839362,
                0.06008148714647987,
                -0.032771888653797154,
                0.360277675598809,
                -2.904453342818765
            ]
        },
        {
            "positions": [
                -2.391084738107908,
                -0.8065344851816091,
                -0.04541967430752525,
                0.014903051119531913,
                0.3549334987093486,
                -2.7911089223429877
            ]
        },
        {
            "positions": [
                -2.2969007648105295,
                -0.8364417235792818,
                -0.15092083576153037,
                0.06257799089286098,
                0.3495893218198881,
                -2.6777645018672103
            ]
        },
        {
            "positions": [
                -2.2027167915131507,
                -0.8663489619769547,
                -0.2564219972155355,
                0.11025293066619005,
                0.3442451449304277,
                -2.5644200813914324
            ]
        },
        {
            "positions": [
                -2.1085328182157723,
                -0.8962562003746274,
                -0.3619231586695406,
                0.1579278704395191,
                0.3389009680409672,
                -2.451075660915655
            ]
        },
        {
            "positions": [
                -2.0143488449183935,
                -0.9261634387723002,
                -0.46742432012354573,
                0.20560281021284815,
                0.33355679115150677,
                -2.3377312404398776
            ]
        },
        {
            "positions": [
                -1.9201648716210151,
                -0.956070677169973,
                -0.5729254815775509,
                0.25327774998617725,
                0.3282126142620463,
                -2.2243868199641
            ]
        },
        {
            "positions": [
                -1.8259808983236363,
                -0.9859779155676458,
                -0.678426643031556,
                0.3009526897595063,
                0.32286843737258586,
                -2.1110423994883223
            ]
        },
        {
            "positions": [
                -1.7317969250262577,
                -1.0158851539653186,
                -0.7839278044855611,
                0.3486276295328354,
                0.3175242604831254,
                -1.9976979790125449
            ]
        },
        {
            "positions": [
                -1.637612951728879,
                -1.0457923923629915,
                -0.8894289659395662,
                0.3963025693061645,
                0.31218008359366495,
                -1.8843535585367672
            ]
        },
        {
            "positions": [
                -1.5434289784315005,
                -1.075699630760664,
                -0.9949301273935713,
                0.4439775090794935,
                0.30683590670420446,
                -1.7710091380609896
            ]
        },
        {
            "positions": [
                -1.449245005134122,
                -1.105606869158337,
                -1.1004312888475765,
                0.49165244885282255,
                0.30149172981474404,
                -1.6576647175852122
            ]
        },
        {
            "positions": [
                -1.3550610318367433,
                -1.1355141075560098,
                -1.2059324503015816,
                0.5393273886261516,
                0.29614755292528355,
                -1.5443202971094345
            ]
        },
        {
            "positions": [
                -1.2608770585393645,
                -1.1654213459536826,
                -1.3114336117555867,
                0.5870023283994807,
                0.2908033760358231,
                -1.4309758766336569
            ]
        },
        {
            "positions": [
                -1.1666930852419861,
                -1.1953285843513552,
                -1.4169347732095918,
                0.6346772681728098,
                0.28545919914636264,
                -1.3176314561578795
            ]
        },
        {
            "positions": [
                -1.0725091119446073,
                -1.225235822749028,
                -1.522435934663597,
                0.6823522079461389,
                0.2801150222569022,
                -1.2042870356821016
            ]
        },
        {
            "positions": [
                -0.9783251386472287,
                -1.255143061146701,
                -1.627937096117602,
                0.7300271477194679,
                0.2747708453674418,
                -1.0909426152063242
            ]
        },
        {
            "positions": [
                -0.8841411653498501,
                -1.2850502995443738,
                -1.7334382575716072,
                0.777702087492797,
                0.2694266684779813,
                -0.9775981947305468
            ]
        },
        {
            "positions": [
                -0.7899571920524715,
                -1.3149575379420466,
                -1.8389394190256123,
                0.825377027266126,
                0.2640824915885208,
                -0.8642537742547693
            ]
        },
        {
            "positions": [
                -0.6957732187550929,
                -1.3448647763397195,
                -1.9444405804796174,
                0.8730519670394551,
                0.2587383146990604,
                -0.7509093537789915
            ]
        },
        {
            "positions": [
                -0.6015892454577143,
                -1.374772014737392,
                -2.0499417419336226,
                0.9207269068127842,
                0.25339413780959996,
                -0.6375649333032141
            ]
        },
        {
            "positions": [
                -0.5074052721603355,
                -1.404679253135065,
                -2.1554429033876277,
                0.9684018465861134,
                0.24804996092013948,
                -0.5242205128274362
            ]
        },
        {
            "positions": [
                -0.4132212988629571,
                -1.4345864915327375,
                -2.260944064841633,
                1.0160767863594424,
                0.24270578403067902,
                -0.4108760923516588
            ]
        },
        {
            "positions": [
                -0.3190373255655783,
                -1.4644937299304104,
                -2.366445226295638,
                1.0637517261327716,
                0.23736160714121857,
                -0.29753167187588136
            ]
        },
        {
            "positions": [
                -0.2248533522681999,
                -1.4944009683280832,
                -2.471946387749643,
                1.1114266659061003,
                0.2320174302517581,
                -0.18418725140010395
            ]
        },
        {
            "positions": [
                -0.13066937897082087,
                -1.524308206725756,
                -2.577447549203648,
                1.1591016056794297,
                0.22667325336229766,
                -0.07084283092432607
            ]
        },
        {
            "positions": [
                -0.09714415738800562,
                -1.652610808256008,
                -2.575985343833459,
                1.2597734635090232,
                0.25078171279356676,
                0.013407320182605778
            ]
        },
        {
            "positions": [
                -0.06361893580519037,
                -1.78091340978626,
                -2.574523138463269,
                1.360445321338617,
                0.2748901722248358,
                0.09765747128953763
            ]
        },
        {
            "positions": [
                -0.030093714222375126,
                -1.909216011316512,
                -2.573060933093079,
                1.4611171791682107,
                0.2989986316561049,
                0.18190762239646946
            ]
        },
        {
            "positions": [
                0.0034315073604401225,
                -2.037518612846764,
                -2.5715987277228898,
                1.5617890369978042,
                0.323107091087374,
                0.2661577735034013
            ]
        },
        {
            "positions": [
                -0.05940077766764143,
                -2.1159916950848445,
                -2.5133147878281217,
                1.5221234235188748,
                0.27537304349562575,
                0.20758596199725204
            ]
        },
        {
            "positions": [
                -0.12223306269572298,
                -2.194464777322925,
                -2.455030847933354,
                1.4824578100399453,
                0.22763899590387746,
                0.14901415049110278
            ]
        },
        {
            "positions": [
                -0.18506534772380454,
                -2.2729378595610057,
                -2.396746908038586,
                1.4427921965610158,
                0.17990494831212916,
                0.09044233898495353
            ]
        }
    ]
}