{
    "goal": {
        "global_pose": {
            "orientation": {
                "w": 0.7031023502349854,
                "x": -0.7110244035720825,
                "y": 0.007748599164187908,
                "z": 0.005598929710686207
            },
            "position": {
                "x": 0.11585023208521307,
                "y": 0.44412534475326537,
                "z": 0.3711530566215515
            }
        },
        "name": "move_to_auspresseinheit_A"
    },
    "id": "BFMT_move_to_auspresseinheit_A_104",
    "joint_names": [
        "shoulder_pan_joint",
        "shoulder_lift_joint",
        "elbow_joint",
        "wrist_1_joint",
        "wrist_2_joint",
        "wrist_3_joint"
    ],
    "metrics": {
        "cart_traj_len": 0.6711072774286228,
        "distance_elbow_joint": 0.197000920383001,
        "distance_shoulder_lift_joint": 0.535823492999496,
        "distance_shoulder_pan_joint": 1.045075756560071,
        "distance_wrist_1_joint": 0.5450930329114981,
        "distance_wrist_2_joint": 0.5180068806878828,
        "distance_wrist_3_joint": 0.6460819157105746,
        "smoothness": 0.6519308632865797,
        "time": 0.546870561,
        "traj_len": 1.8673730209180286,
        "weighted_distance": 2.4170944839358377
    },
    "planner": "BFMT",
    "start": {
        "state": {
            "elbow_joint": 2.4225746658250005,
            "shoulder_lift_joint": -1.3736534386056498,
            "shoulder_pan_joint": -0.3378633547517467,
            "wrist_1_joint": -1.0288598680537169,
            "wrist_2_joint": 1.233022673432363,
            "wrist_3_joint": -3.0940220416140027
        }
    },
    "waypoints": [
        {
            "positions": [
                -0.3378633547517467,
                -1.3736534386056498,
                2.4225746658250005,
                -1.0288598680537169,
                1.233022673432363,
                -3.0940220416140027
            ]
        },
        {
            "positions": [
                -0.28584378530965704,
                -1.4747523056702097,
                2.444095943747112,
                -0.9823438650288203,
                1.1878827993392744,
                -3.017344572927067
            ]
        },
        {
            "positions": [
                -0.2338242158675673,
                -1.5758511727347697,
                2.4656172216692234,
                -0.9358278620039239,
                1.142742925246186,
                -2.9406671042401316
            ]
        },
        {
            "positions": [
                -0.18180464642547758,
                -1.6769500397993296,
                2.4871384995913353,
                -0.8893118589790274,
                1.0976030511530974,
                -2.863989635553196
            ]
        },
        {
            "positions": [
                -0.12978507698338787,
                -1.7780489068638894,
                2.5086597775134467,
                -0.8427958559541309,
                1.0524631770600088,
                -2.7873121668662604
            ]
        },
        {
            "positions": [
                0.009714502815230841,
                -1.7999535776540987,
                2.4901738093976875,
                -0.7829576858188122,
                0.996221946340754,
                -2.8438741736933992
            ]
        },
        {
            "positions": [
                0.14921408261384955,
                -1.8218582484443082,
                2.4716878412819283,
                -0.7231195156834935,
                0.9399807156214993,
                -2.9004361805205376
            ]
        },
        {
            "positions": [
                0.28871366241246826,
                -1.8437629192345177,
                2.4532018731661696,
                -0.6632813455481747,
                0.8837394849022445,
                -2.9569981873476765
            ]
        },
        {
            "positions": [
                0.428213242211087,
                -1.865667590024727,
                2.4347159050504104,
                -0.6034431754128562,
                0.8274982541829898,
                -3.0135601941748154
            ]
        },
        {
            "positions": [
                0.5677128220097056,
                -1.8875722608149363,
                2.416229936934651,
                -0.5436050052775374,
                0.771257023463735,
                -3.0701222010019538
            ]
        },
        {
            "positions": [
                0.7072124018083243,
                -1.9094769316051459,
                2.397743968818892,
                -0.48376683514221874,
                0.7150157927444802,
                -3.1266842078290926
            ]
        }
    ]
}