{
    "goal": {
        "global_pose": {
            "orientation": {
                "w": -0.4816463035849501,
                "x": 0.5182115481033762,
                "y": 0.4908360881923453,
                "z": -0.5084816262002911
            },
            "position": {
                "x": -0.8240239810943604,
                "y": -0.300875300988555,
                "z": 0.16403168439865112
            }
        },
        "name": "move_to_storage_C"
    },
    "id": "BFMT_move_to_storage_C_70",
    "joint_names": [
        "shoulder_pan_joint",
        "shoulder_lift_joint",
        "elbow_joint",
        "wrist_1_joint",
        "wrist_2_joint",
        "wrist_3_joint"
    ],
    "metrics": {
        "cart_traj_len": 0.575611832695421,
        "distance_elbow_joint": 0.2585958271360367,
        "distance_shoulder_lift_joint": 0.18860648387089973,
        "distance_shoulder_pan_joint": 0.49449519030508915,
        "distance_wrist_1_joint": 0.08641800728100602,
        "distance_wrist_2_joint": 1.0635197293794327,
        "distance_wrist_3_joint": 0.06218388266071795,
        "smoothness": 2.5376526478085547e-16,
        "time": 0.512227937,
        "traj_len": 1.4675895613669316,
        "weighted_distance": 1.8515195442163328
    },
    "planner": "BFMT",
    "start": {
        "state": {
            "elbow_joint": 2.010868314990456,
            "shoulder_lift_joint": -1.1634956873337592,
            "shoulder_pan_joint": -2.4736205022346125,
            "wrist_1_joint": -0.8367026794202681,
            "wrist_2_joint": 0.6746043897044499,
            "wrist_3_joint": -3.1496632123970403
        }
    },
    "waypoints": [
        {
            "positions": [
                -2.4736205022346125,
                -1.1634956873337592,
                2.010868314990456,
                -0.8367026794202681,
                0.6746043897044499,
                -3.1496632123970403
            ]
        },
        {
            "positions": [
                -2.5560363672854605,
                -1.132061273355276,
                1.967769010467783,
                -0.8222996782067671,
                0.8518576779343554,
                -3.1392992319535873
            ]
        },
        {
            "positions": [
                -2.638452232336309,
                -1.1006268593767925,
                1.9246697059451103,
                -0.8078966769932661,
                1.0291109661642608,
                -3.1289352515101343
            ]
        },
        {
            "positions": [
                -2.7208680973871573,
                -1.0691924453983093,
                1.8815704014224375,
                -0.793493675779765,
                1.2063642543941664,
                -3.1185712710666813
            ]
        },
        {
            "positions": [
                -2.8032839624380053,
                -1.037758031419826,
                1.8384710968997646,
                -0.7790906745662641,
                1.3836175426240716,
                -3.1082072906232283
            ]
        },
        {
            "positions": [
                -2.8856998274888532,
                -1.0063236174413428,
                1.795371792377092,
                -0.7646876733527631,
                1.5608708308539772,
                -3.0978433101797753
            ]
        },
        {
            "positions": [
                -2.9681156925397016,
                -0.9748892034628595,
                1.7522724878544191,
                -0.7502846721392621,
                1.7381241190838828,
                -3.0874793297363223
            ]
        }
    ]
}