{
    "goal": {
        "global_pose": {
            "orientation": {
                "w": -0.00223480608172531,
                "x": 0.0024358444001904467,
                "y": 0.7094548369677653,
                "z": -0.704743149386269
            },
            "position": {
                "x": 0.6205249238014221,
                "y": -0.6371506643295288,
                "z": 0.19426114857196808
            }
        },
        "name": "move_to_magneteinheit_B"
    },
    "id": "BFMT_move_to_magneteinheit_B_108",
    "joint_names": [
        "shoulder_pan_joint",
        "shoulder_lift_joint",
        "elbow_joint",
        "wrist_1_joint",
        "wrist_2_joint",
        "wrist_3_joint"
    ],
    "metrics": {
        "cart_traj_len": 1.4816208466733027,
        "distance_elbow_joint": 0.9569369717433238,
        "distance_shoulder_lift_joint": 0.7564418017949782,
        "distance_shoulder_pan_joint": 1.6210787950032213,
        "distance_wrist_1_joint": 0.4442081287590689,
        "distance_wrist_2_joint": 2.977346056715266,
        "distance_wrist_3_joint": 1.694071128375012,
        "smoothness": 0.7029413556525735,
        "time": 0.8347511599999999,
        "traj_len": 2.9069026269193934,
        "weighted_distance": 3.9063767514943084
    },
    "planner": "BFMT",
    "start": {
        "state": {
            "elbow_joint": 2.6216224122426386,
            "shoulder_lift_joint": -1.4174107377796124,
            "shoulder_pan_joint": 0.7066234856936794,
            "wrist_1_joint": 1.9546482284002225,
            "wrist_2_joint": -0.7096286983471962,
            "wrist_3_joint": 0.005740856962016249
        }
    },
    "waypoints": [
        {
            "positions": [
                0.7066234856936794,
                -1.4174107377796124,
                2.6216224122426386,
                1.9546482284002225,
                -0.7096286983471962,
                0.005740856962016249
            ]
        },
        {
            "positions": [
                0.6161053737772358,
                -1.3937719661089725,
                2.5848104720753904,
                1.9358976942517077,
                -0.6051378258934131,
                -0.11559641957649816
            ]
        },
        {
            "positions": [
                0.5255872618607922,
                -1.3701331944383328,
                2.5479985319081417,
                1.9171471601031929,
                -0.5006469534396301,
                -0.23693369611501255
            ]
        },
        {
            "positions": [
                0.4350691499443487,
                -1.346494422767693,
                2.5111865917408935,
                1.898396625954678,
                -0.3961560809858469,
                -0.358270972653527
            ]
        },
        {
            "positions": [
                0.3445510380279051,
                -1.322855651097053,
                2.4743746515736453,
                1.879646091806163,
                -0.29166520853206385,
                -0.47960824919204137
            ]
        },
        {
            "positions": [
                0.2540329261114615,
                -1.2992168794264132,
                2.437562711406397,
                1.8608955576576482,
                -0.1871743360782807,
                -0.6009455257305559
            ]
        },
        {
            "positions": [
                0.163514814195018,
                -1.2755781077557735,
                2.4007507712391485,
                1.8421450235091335,
                -0.08268346362449763,
                -0.7222828022690703
            ]
        },
        {
            "positions": [
                0.0729967022785743,
                -1.2519393360851336,
                2.3639388310719003,
                1.8233944893606187,
                0.02180740882928542,
                -0.8436200788075847
            ]
        },
        {
            "positions": [
                0.007166568172699894,
                -1.212541309411767,
                2.317321938367061,
                1.8442581153419164,
                -0.12791992113996686,
                -0.787306065967224
            ]
        },
        {
            "positions": [
                -0.05866356593317451,
                -1.1731432827384003,
                2.2707050456622224,
                1.865121741323214,
                -0.2776472511092192,
                -0.7309920531268632
            ]
        },
        {
            "positions": [
                -0.12449370003904892,
                -1.1337452560650338,
                2.2240881529573833,
                1.8859853673045117,
                -0.4273745810784715,
                -0.6746780402865025
            ]
        },
        {
            "positions": [
                -0.19032383414492332,
                -1.0943472293916672,
                2.177471260252544,
                1.9068489932858093,
                -0.5771019110477237,
                -0.6183640274461417
            ]
        },
        {
            "positions": [
                -0.25615396825079767,
                -1.0549492027183005,
                2.130854367547705,
                1.927712619267107,
                -0.7268292410169759,
                -0.562050014605781
            ]
        },
        {
            "positions": [
                -0.32198410235667213,
                -1.0155511760449338,
                2.0842374748428663,
                1.9485762452484048,
                -0.8765565709862283,
                -0.5057360017654202
            ]
        },
        {
            "positions": [
                -0.38781423646254654,
                -0.9761531493715672,
                2.037620582138027,
                1.9694398712297023,
                -1.0262839009554805,
                -0.44942198892505947
            ]
        },
        {
            "positions": [
                -0.45364437056842094,
                -0.9367551226982005,
                1.991003689433188,
                1.990303497211,
                -1.1760112309247328,
                -0.3931079760846987
            ]
        },
        {
            "positions": [
                -0.5194745046742952,
                -0.8973570960248339,
                1.944386796728349,
                2.0111671231922976,
                -1.3257385608939851,
                -0.33679396324433797
            ]
        },
        {
            "positions": [
                -0.5853046387801697,
                -0.8579590693514674,
                1.89776990402351,
                2.0320307491735954,
                -1.4754658908632372,
                -0.2804799504039772
            ]
        },
        {
            "positions": [
                -0.6511347728860442,
                -0.8185610426781007,
                1.851153011318671,
                2.052894375154893,
                -1.6251932208324895,
                -0.22416593756361647
            ]
        },
        {
            "positions": [
                -0.7169649069919186,
                -0.779163016004734,
                1.8045361186138318,
                2.073758001136191,
                -1.774920550801742,
                -0.16785192472325572
            ]
        },
        {
            "positions": [
                -0.7827950410977929,
                -0.7397649893313674,
                1.7579192259089929,
                2.0946216271174882,
                -1.9246478807709944,
                -0.11153791188289497
            ]
        },
        {
            "positions": [
                -0.8486251752036673,
                -0.7003669626580008,
                1.711302333204154,
                2.115485253098786,
                -2.0743752107402464,
                -0.05522389904253422
            ]
        },
        {
            "positions": [
                -0.9144553093095417,
                -0.6609689359846341,
                1.6646854404993148,
                2.1363488790800838,
                -2.2241025407094988,
                0.0010901137978265513
            ]
        }
    ]
}