{
    "goal": {
        "global_pose": {
            "orientation": {
                "w": -0.4816463035849501,
                "x": 0.5182115481033762,
                "y": 0.4908360881923453,
                "z": -0.5084816262002911
            },
            "position": {
                "x": -0.8240239810943604,
                "y": -0.300875300988555,
                "z": 0.16403168439865112
            }
        },
        "name": "move_to_storage_C"
    },
    "id": "BFMT_move_to_storage_C_148",
    "joint_names": [
        "shoulder_pan_joint",
        "shoulder_lift_joint",
        "elbow_joint",
        "wrist_1_joint",
        "wrist_2_joint",
        "wrist_3_joint"
    ],
    "metrics": {
        "cart_traj_len": 0.5769044932136854,
        "distance_elbow_joint": 0.2576450110389794,
        "distance_shoulder_lift_joint": 0.18910029053967248,
        "distance_shoulder_pan_joint": 0.4934035386526703,
        "distance_wrist_1_joint": 0.07179175899741752,
        "distance_wrist_2_joint": 1.0780027988221166,
        "distance_wrist_3_joint": 0.06199712342002828,
        "smoothness": 2.5376526478085547e-16,
        "time": 0.44883083,
        "traj_len": 1.4669493929481292,
        "weighted_distance": 1.8508725850610235
    },
    "planner": "BFMT",
    "start": {
        "state": {
            "elbow_joint": 2.010868314990456,
            "shoulder_lift_joint": -1.1634956873337592,
            "shoulder_pan_joint": -2.4736205022346125,
            "wrist_1_joint": -0.8367026794202681,
            "wrist_2_joint": 0.6746043897044499,
            "wrist_3_joint": -3.1496632123970403
        }
    },
    "waypoints": [
        {
            "positions": [
                -2.4736205022346125,
                -1.1634956873337592,
                2.010868314990456,
                -0.8367026794202681,
                0.6746043897044499,
                -3.1496632123970403
            ]
        },
        {
            "positions": [
                -2.555854425343391,
                -1.1319789722438138,
                1.9679274798172925,
                -0.8247373862540318,
                0.8542715228414693,
                -3.1393303584937025
            ]
        },
        {
            "positions": [
                -2.638088348452169,
                -1.1004622571538683,
                1.9249866446441293,
                -0.8127720930877956,
                1.0339386559784889,
                -3.128997504590364
            ]
        },
        {
            "positions": [
                -2.7203222715609474,
                -1.068945542063923,
                1.882045809470966,
                -0.8008067999215593,
                1.2136057891155083,
                -3.118664650687026
            ]
        },
        {
            "positions": [
                -2.802556194669726,
                -1.0374288269739775,
                1.839104974297803,
                -0.788841506755323,
                1.3932729222525277,
                -3.108331796783688
            ]
        },
        {
            "positions": [
                -2.8847901177785045,
                -1.0059121118840322,
                1.7961641391246397,
                -0.7768762135890869,
                1.5729400553895472,
                -3.0979989428803503
            ]
        },
        {
            "positions": [
                -2.9670240408872828,
                -0.9743953967940867,
                1.7532233039514764,
                -0.7649109204228506,
                1.7526071885265666,
                -3.087666088977012
            ]
        }
    ]
}