{
    "goal": {
        "global_pose": {
            "orientation": {
                "w": -0.00223480608172531,
                "x": 0.0024358444001904467,
                "y": 0.7094548369677653,
                "z": -0.704743149386269
            },
            "position": {
                "x": -0.37947507619857795,
                "y": -0.6371506643295288,
                "z": 0.19426114857196808
            }
        },
        "name": "move_to_magneteinheit_C"
    },
    "id": "BFMT_move_to_magneteinheit_C_95",
    "joint_names": [
        "shoulder_pan_joint",
        "shoulder_lift_joint",
        "elbow_joint",
        "wrist_1_joint",
        "wrist_2_joint",
        "wrist_3_joint"
    ],
    "metrics": {
        "cart_traj_len": 1.9224262861646162,
        "distance_elbow_joint": 0.05223832868435441,
        "distance_shoulder_lift_joint": 1.3516614401768112,
        "distance_shoulder_pan_joint": 2.1100017661996446,
        "distance_wrist_1_joint": 0.5544415458744916,
        "distance_wrist_2_joint": 1.768108886722872,
        "distance_wrist_3_joint": 0.2178650771026378,
        "smoothness": 1.4531875284478712,
        "time": 0.7810038060000001,
        "traj_len": 2.460552182897329,
        "weighted_distance": 2.9686019658356777
    },
    "planner": "BFMT",
    "start": {
        "state": {
            "elbow_joint": 1.9565354010623817,
            "shoulder_lift_joint": -1.4165861575791021,
            "shoulder_pan_joint": -1.6717766225146293,
            "wrist_1_joint": -0.5286633292919765,
            "wrist_2_joint": 1.472756589071564,
            "wrist_3_joint": -3.1238370188695823
        }
    },
    "waypoints": [
        {
            "positions": [
                -1.6717766225146293,
                -1.4165861575791021,
                1.9565354010623817,
                -0.5286633292919765,
                1.472756589071564,
                -3.1238370188695823
            ]
        },
        {
            "positions": [
                -1.578396543513698,
                -1.4949970128504522,
                1.9629760515594612,
                -0.5105506366741339,
                1.289078599431734,
                -3.1099333311316353
            ]
        },
        {
            "positions": [
                -1.4850164645127666,
                -1.573407868121802,
                1.9694167020565407,
                -0.49243794405629143,
                1.105400609791904,
                -3.0960296433936887
            ]
        },
        {
            "positions": [
                -1.3916363855118352,
                -1.651818723393152,
                1.9758573525536203,
                -0.47432525143844895,
                0.9217226201520741,
                -3.0821259556557417
            ]
        },
        {
            "positions": [
                -1.2982563065109038,
                -1.7302295786645019,
                1.9822980030507,
                -0.4562125588206064,
                0.7380446305122441,
                -3.068222267917795
            ]
        },
        {
            "positions": [
                -1.2048762275099725,
                -1.808640433935852,
                1.9887386535477796,
                -0.4380998662027639,
                0.5543666408724142,
                -3.054318580179848
            ]
        },
        {
            "positions": [
                -1.111496148509041,
                -1.8870512892072018,
                1.995179304044859,
                -0.41998717358492144,
                0.3706886512325842,
                -3.0404148924419014
            ]
        },
        {
            "positions": [
                -1.0181160695081097,
                -1.9654621444785518,
                2.0016199545419386,
                -0.4018744809670789,
                0.18701066159275426,
                -3.0265112047039544
            ]
        },
        {
            "positions": [
                -1.1799317598629013,
                -1.8762637607810673,
                2.0024148184535826,
                -0.44939144736147824,
                0.24060654595320558,
                -3.0399044561414
            ]
        },
        {
            "positions": [
                -1.341747450217693,
                -1.7870653770835827,
                2.003209682365227,
                -0.4969084137558776,
                0.2942024303136569,
                -3.0532977075788454
            ]
        },
        {
            "positions": [
                -1.5035631405724845,
                -1.6978669933860981,
                2.004004546276871,
                -0.5444253801502769,
                0.34779831467410827,
                -3.066690959016291
            ]
        },
        {
            "positions": [
                -1.6653788309272763,
                -1.6086686096886134,
                2.0047994101885154,
                -0.5919423465446763,
                0.4013941990345596,
                -3.0800842104537365
            ]
        },
        {
            "positions": [
                -1.8271945212820682,
                -1.5194702259911288,
                2.0055942741001593,
                -0.6394593129390755,
                0.45499008339501096,
                -3.0934774618911822
            ]
        },
        {
            "positions": [
                -1.9890102116368595,
                -1.4302718422936442,
                2.0063891380118037,
                -0.6869762793334748,
                0.5085859677554623,
                -3.1068707133286275
            ]
        },
        {
            "positions": [
                -2.1508259019916514,
                -1.3410734585961595,
                2.0071840019234477,
                -0.7344932457278742,
                0.5621818521159136,
                -3.1202639647660733
            ]
        },
        {
            "positions": [
                -2.3126415923464427,
                -1.2518750748986749,
                2.007978865835092,
                -0.7820102121222736,
                0.6157777364763649,
                -3.1336572162035186
            ]
        },
        {
            "positions": [
                -2.4744572827012346,
                -1.1626766912011903,
                2.008773729746736,
                -0.8295271785166729,
                0.6693736208368163,
                -3.1470504676409643
            ]
        }
    ]
}