{
    "goal": {
        "global_pose": {
            "orientation": {
                "w": 0.005598929693374612,
                "x": 0.007748599140229565,
                "y": 0.7110244013736278,
                "z": -0.7031023480610252
            },
            "position": {
                "x": 0.1141497679147869,
                "y": -0.7141253447532654,
                "z": 0.3711530566215515
            }
        },
        "name": "move_to_auspresseinheit_B"
    },
    "id": "BFMT_move_to_auspresseinheit_B_95",
    "joint_names": [
        "shoulder_pan_joint",
        "shoulder_lift_joint",
        "elbow_joint",
        "wrist_1_joint",
        "wrist_2_joint",
        "wrist_3_joint"
    ],
    "metrics": {
        "cart_traj_len": 0.5656128517894645,
        "distance_elbow_joint": 0.06609095921430819,
        "distance_shoulder_lift_joint": 0.29392272008272213,
        "distance_shoulder_pan_joint": 0.577150466640151,
        "distance_wrist_1_joint": 0.33643151536205684,
        "distance_wrist_2_joint": 0.9971383352830421,
        "distance_wrist_3_joint": 0.006968685417974463,
        "smoothness": 3.806478935924272e-16,
        "time": 0.453507277,
        "traj_len": 1.509205977327235,
        "weighted_distance": 1.9039983990227782
    },
    "planner": "BFMT",
    "start": {
        "state": {
            "elbow_joint": 2.0193083361928714,
            "shoulder_lift_joint": -1.1220246554650708,
            "shoulder_pan_joint": -1.0952077554168747,
            "wrist_1_joint": -0.8559753972642168,
            "wrist_2_joint": 0.4759566250798843,
            "wrist_3_joint": -3.1240929996934557
        }
    },
    "waypoints": [
        {
            "positions": [
                -1.0952077554168747,
                -1.1220246554650708,
                2.0193083361928714,
                -0.8559753972642168,
                0.4759566250798843,
                -3.1240929996934557
            ]
        },
        {
            "positions": [
                -1.1913994998568997,
                -1.1710117754788578,
                2.00829317632382,
                -0.7999034780372073,
                0.6421463476270579,
                -3.125254447263118
            ]
        },
        {
            "positions": [
                -1.287591244296925,
                -1.2199988954926448,
                1.9972780164547688,
                -0.7438315588101978,
                0.8083360701742317,
                -3.1264158948327805
            ]
        },
        {
            "positions": [
                -1.3837829887369502,
                -1.2689860155064319,
                1.9862628565857174,
                -0.6877596395831884,
                0.9745257927214053,
                -3.127577342402443
            ]
        },
        {
            "positions": [
                -1.4799747331769753,
                -1.3179731355202189,
                1.975247696716666,
                -0.6316877203561789,
                1.140715515268579,
                -3.1287387899721053
            ]
        },
        {
            "positions": [
                -1.5761664776170006,
                -1.366960255534006,
                1.9642325368476146,
                -0.5756158011291694,
                1.3069052378157526,
                -3.1299002375417677
            ]
        },
        {
            "positions": [
                -1.6723582220570257,
                -1.415947375547793,
                1.9532173769785632,
                -0.5195438819021599,
                1.4730949603629264,
                -3.13106168511143
            ]
        }
    ]
}