{
    "goal": {
        "global_pose": {
            "orientation": {
                "w": 0.005598929693374612,
                "x": 0.007748599140229565,
                "y": 0.7110244013736278,
                "z": -0.7031023480610252
            },
            "position": {
                "x": -0.8858502320852131,
                "y": -0.7141253447532654,
                "z": 0.3711530566215515
            }
        },
        "name": "move_to_auspresseinheit_C"
    },
    "id": "BFMT_move_to_auspresseinheit_C_74",
    "joint_names": [
        "shoulder_pan_joint",
        "shoulder_lift_joint",
        "elbow_joint",
        "wrist_1_joint",
        "wrist_2_joint",
        "wrist_3_joint"
    ],
    "metrics": {
        "cart_traj_len": 0.49362346684580344,
        "distance_elbow_joint": 1.0103779411700258,
        "distance_shoulder_lift_joint": 0.32985555050336823,
        "distance_shoulder_pan_joint": 0.25638846262654535,
        "distance_wrist_1_joint": 0.7012021895303816,
        "distance_wrist_2_joint": 1.3029493901591114,
        "distance_wrist_3_joint": 0.06817463456266415,
        "smoothness": 3.2297397080004555e-16,
        "time": 0.444604933,
        "traj_len": 1.915449860620762,
        "weighted_distance": 2.410279862872135
    },
    "planner": "BFMT",
    "start": {
        "state": {
            "elbow_joint": 1.7527959577737207,
            "shoulder_lift_joint": -0.9740617694225068,
            "shoulder_pan_joint": -2.967991417825858,
            "wrist_1_joint": -0.759517768980727,
            "wrist_2_joint": 1.7443932448377408,
            "wrist_3_joint": -3.0840537646736568
        }
    },
    "waypoints": [
        {
            "positions": [
                -2.967991417825858,
                -0.9740617694225068,
                1.7527959577737207,
                -0.759517768980727,
                1.7443932448377408,
                -3.0840537646736568
            ]
        },
        {
            "positions": [
                -2.9423525715632035,
                -0.9410762143721699,
                1.651758163656718,
                -0.6893975500276888,
                1.6140983058218297,
                -3.0908712281299233
            ]
        },
        {
            "positions": [
                -2.916713725300549,
                -0.9080906593218331,
                1.5507203695397154,
                -0.6192773310746507,
                1.4838033668059185,
                -3.0976886915861894
            ]
        },
        {
            "positions": [
                -2.891074879037894,
                -0.8751051042714963,
                1.449682575422713,
                -0.5491571121216126,
                1.3535084277900074,
                -3.104506155042456
            ]
        },
        {
            "positions": [
                -2.8654360327752397,
                -0.8421195492211595,
                1.3486447813057103,
                -0.47903689316857434,
                1.2232134887740962,
                -3.1113236184987225
            ]
        },
        {
            "positions": [
                -2.8397971865125853,
                -0.8091339941708227,
                1.2476069871887079,
                -0.4089166742155362,
                1.0929185497581853,
                -3.118141081954989
            ]
        },
        {
            "positions": [
                -2.814158340249931,
                -0.7761484391204858,
                1.1465691930717052,
                -0.338796455262498,
                0.962623610742274,
                -3.124958545411255
            ]
        },
        {
            "positions": [
                -2.7885194939872764,
                -0.743162884070149,
                1.0455313989547026,
                -0.2686762363094599,
                0.8323286717263629,
                -3.1317760088675217
            ]
        },
        {
            "positions": [
                -2.7628806477246215,
                -0.7101773290198121,
                0.9444936048377,
                -0.1985560173564217,
                0.7020337327104518,
                -3.1385934723237883
            ]
        },
        {
            "positions": [
                -2.737241801461967,
                -0.6771917739694753,
                0.8434558107206974,
                -0.12843579840338348,
                0.5717387936945406,
                -3.1454109357800544
            ]
        },
        {
            "positions": [
                -2.7116029551993126,
                -0.6442062189191385,
                0.7424180166036949,
                -0.05831557945034539,
                0.4414438546786295,
                -3.152228399236321
            ]
        }
    ]
}