{
    "goal": {
        "global_pose": {
            "orientation": {
                "w": 0.5084816217422485,
                "x": -0.49083608388900757,
                "y": 0.5182115435600281,
                "z": -0.4816462993621826
            },
            "position": {
                "x": 0.5540239810943604,
                "y": 0.030875300988554955,
                "z": 0.16403168439865112
            }
        },
        "name": "move_to_storage_A"
    },
    "id": "BFMT_move_to_storage_A_37",
    "joint_names": [
        "shoulder_pan_joint",
        "shoulder_lift_joint",
        "elbow_joint",
        "wrist_1_joint",
        "wrist_2_joint",
        "wrist_3_joint"
    ],
    "metrics": {
        "cart_traj_len": 0.3531634473258388,
        "distance_elbow_joint": 0.45224525551678396,
        "distance_shoulder_lift_joint": 0.23137244973369886,
        "distance_shoulder_pan_joint": 0.46171890489350614,
        "distance_wrist_1_joint": 0.26257697555659154,
        "distance_wrist_2_joint": 1.0975407541062634,
        "distance_wrist_3_joint": 0.09806820068354316,
        "smoothness": 8.881784197001252e-16,
        "time": 0.49324574499999996,
        "traj_len": 1.613543473380989,
        "weighted_distance": 2.039553056804438
    },
    "planner": "BFMT",
    "start": {
        "state": {
            "elbow_joint": 1.971548259319323,
            "shoulder_lift_joint": -1.1394851275133948,
            "shoulder_pan_joint": 0.1228115487234821,
            "wrist_1_joint": -0.7804723859257726,
            "wrist_2_joint": 0.12958671773740124,
            "wrist_3_joint": -3.192489227718131
        }
    },
    "waypoints": [
        {
            "positions": [
                0.1228115487234821,
                -1.1394851275133948,
                1.971548259319323,
                -0.7804723859257726,
                0.12958671773740124,
                -3.192489227718131
            ]
        },
        {
            "positions": [
                0.05685170516726694,
                -1.172538334618209,
                2.0361547243931493,
                -0.8179833824338572,
                0.286378254038296,
                -3.178479484763339
            ]
        },
        {
            "positions": [
                -0.009108138388948223,
                -1.205591541723023,
                2.1007611894669758,
                -0.8554943789419416,
                0.4431697903391908,
                -3.1644697418085475
            ]
        },
        {
            "positions": [
                -0.07506798194516337,
                -1.2386447488278371,
                2.165367654540802,
                -0.8930053754500261,
                0.5999613266400855,
                -3.1504599988537554
            ]
        },
        {
            "positions": [
                -0.14102782550137855,
                -1.2716979559326513,
                2.229974119614628,
                -0.9305163719581107,
                0.7567528629409803,
                -3.1364502558989638
            ]
        },
        {
            "positions": [
                -0.20698766905759375,
                -1.3047511630374655,
                2.2945805846884544,
                -0.9680273684661951,
                0.9135443992418751,
                -3.1224405129441717
            ]
        },
        {
            "positions": [
                -0.27294751261380884,
                -1.3378043701422795,
                2.359187049762281,
                -1.0055383649742797,
                1.0703359355427697,
                -3.10843076998938
            ]
        },
        {
            "positions": [
                -0.33890735617002404,
                -1.3708575772470937,
                2.423793514836107,
                -1.0430493614823642,
                1.2271274718436647,
                -3.094421027034588
            ]
        }
    ]
}{
    "goal": {
        "global_pose": {
            "orientation": {
                "w": 0.5084816217422485,
                "x": -0.49083608388900757,
                "y": 0.5182115435600281,
                "z": -0.4816462993621826
            },
            "position": {
                "x": 0.5540239810943604,
                "y": 0.030875300988554955,
                "z": 0.16403168439865112
            }
        },
        "name": "move_to_storage_A"
    },
    "id": "BFMT_move_to_storage_A_37",
    "joint_names": [
        "shoulder_pan_joint",
        "shoulder_lift_joint",
        "elbow_joint",
        "wrist_1_joint",
        "wrist_2_joint",
        "wrist_3_joint"
    ],
    "metrics": {
        "cart_traj_len": 0.35347704822098563,
        "distance_elbow_joint": 0.45129576357903867,
        "distance_shoulder_lift_joint": 0.23462499668761772,
        "distance_shoulder_pan_joint": 0.4620344671738896,
        "distance_wrist_1_joint": 0.24910362093555616,
        "distance_wrist_2_joint": 1.1005194120258504,
        "distance_wrist_3_joint": 0.10402789107704002,
        "smoothness": 0.0,
        "time": 0.506351509,
        "traj_len": 1.6129495191973593,
        "weighted_distance": 2.03943251091927
    },
    "planner": "BFMT",
    "start": {
        "state": {
            "elbow_joint": 1.97154746011099,
            "shoulder_lift_joint": -1.13948474672311,
            "shoulder_pan_joint": 0.12281154466712228,
            "wrist_1_joint": -0.7804688027058302,
            "wrist_2_joint": 0.12958655903071145,
            "wrist_3_joint": 3.0906928834467795
        }
    },
    "waypoints": [
        {
            "positions": [
                0.12281154466712228,
                -1.13948474672311,
                1.97154746011099,
                -0.7804688027058302,
                0.12958655903071145,
                3.0906928834467795
            ]
        },
        {
            "positions": [
                0.05680662078513807,
                -1.1730026033927696,
                2.036018283479424,
                -0.8160550342680525,
                0.2868036178915472,
                3.1055540107434996
            ]
        },
        {
            "positions": [
                -0.009198303096846147,
                -1.2065204600624293,
                2.100489106847858,
                -0.8516412658302748,
                0.444020676752383,
                3.1204151380402196
            ]
        },
        {
            "positions": [
                -0.07520322697883038,
                -1.240038316732089,
                2.164959930216292,
                -0.8872274973924971,
                0.6012377356132187,
                3.1352762653369397
            ]
        },
        {
            "positions": [
                -0.14120815086081456,
                -1.2735561734017486,
                2.2294307535847264,
                -0.9228137289547194,
                0.7584547944740545,
                3.1501373926336593
            ]
        },
        {
            "positions": [
                -0.20721307474279882,
                -1.3070740300714083,
                2.2939015769531603,
                -0.9583999605169418,
                0.9156718533348903,
                3.1649985199303794
            ]
        },
        {
            "positions": [
                -0.273217998624783,
                -1.340591886741068,
                2.3583724003215947,
                -0.993986192079164,
                1.072888912195726,
                3.1798596472270995
            ]
        },
        {
            "positions": [
                -0.3392229225067673,
                -1.3741097434107277,
                2.4228432236900286,
                -1.0295724236413863,
                1.2301059710565618,
                3.1947207745238195
            ]
        }
    ]
}{
    "goal": {
        "global_pose": {
            "orientation": {
                "w": 0.5084816217422485,
                "x": -0.49083608388900757,
                "y": 0.5182115435600281,
                "z": -0.4816462993621826
            },
            "position": {
                "x": 0.5540239810943604,
                "y": 0.030875300988554955,
                "z": 0.16403168439865112
            }
        },
        "name": "move_to_storage_A"
    },
    "id": "BFMT_move_to_storage_A_37",
    "joint_names": [
        "shoulder_pan_joint",
        "shoulder_lift_joint",
        "elbow_joint",
        "wrist_1_joint",
        "wrist_2_joint",
        "wrist_3_joint"
    ],
    "metrics": {
        "cart_traj_len": 0.3539654134723958,
        "distance_elbow_joint": 0.45142446716074947,
        "distance_shoulder_lift_joint": 0.23556129036577533,
        "distance_shoulder_pan_joint": 0.46147805349726345,
        "distance_wrist_1_joint": 0.24781051684956945,
        "distance_wrist_2_joint": 1.107107025337138,
        "distance_wrist_3_joint": 0.10770561813836466,
        "smoothness": 4.440892098500626e-16,
        "time": 0.498281364,
        "traj_len": 1.6158858163090795,
        "weighted_distance": 2.044851033648245
    },
    "planner": "BFMT",
    "start": {
        "state": {
            "elbow_joint": 1.9715472970024885,
            "shoulder_lift_joint": -1.1394870060712896,
            "shoulder_pan_joint": 0.12281152778156021,
            "wrist_1_joint": -0.780463741449964,
            "wrist_2_joint": 0.12958659822042276,
            "wrist_3_joint": 3.090690232415272
        }
    },
    "waypoints": [
        {
            "positions": [
                0.12281152778156021,
                -1.1394870060712896,
                1.9715472970024885,
                -0.780463741449964,
                0.12958659822042276,
                3.090690232415272
            ]
        },
        {
            "positions": [
                0.05688609156766543,
                -1.173138618980686,
                2.0360365065968815,
                -0.8158652438570454,
                0.2877447446971567,
                3.106076749292181
            ]
        },
        {
            "positions": [
                -0.009039344646229353,
                -1.2067902318900825,
                2.100525716191274,
                -0.8512667462641267,
                0.4459028911738907,
                3.12146326616909
            ]
        },
        {
            "positions": [
                -0.07496478086012412,
                -1.240441844799479,
                2.165014925785667,
                -0.8866682486712081,
                0.6040610376506247,
                3.1368497830459994
            ]
        },
        {
            "positions": [
                -0.14089021707401891,
                -1.2740934577088754,
                2.2295041353800595,
                -0.9220697510782894,
                0.7622191841273587,
                3.152236299922909
            ]
        },
        {
            "positions": [
                -0.2068156532879137,
                -1.307745070618272,
                2.2939933449744525,
                -0.9574712534853708,
                0.9203773306040928,
                3.167622816799818
            ]
        },
        {
            "positions": [
                -0.2727410895018084,
                -1.3413966835276685,
                2.358482554568845,
                -0.992872755892452,
                1.0785354770808266,
                3.1830093336767273
            ]
        },
        {
            "positions": [
                -0.3386665257157032,
                -1.375048296437065,
                2.422971764163238,
                -1.0282742582995335,
                1.2366936235575607,
                3.1983958505536365
            ]
        }
    ]
}