{
    "goal": {
        "global_pose": {
            "orientation": {
                "w": -0.4816463035849501,
                "x": 0.5182115481033762,
                "y": 0.4908360881923453,
                "z": -0.5084816262002911
            },
            "position": {
                "x": -0.8240239810943604,
                "y": 0.19912469901144506,
                "z": 0.16403168439865112
            }
        },
        "name": "move_to_storage_D"
    },
    "id": "BFMT_move_to_storage_D_15",
    "joint_names": [
        "shoulder_pan_joint",
        "shoulder_lift_joint",
        "elbow_joint",
        "wrist_1_joint",
        "wrist_2_joint",
        "wrist_3_joint"
    ],
    "metrics": {
        "cart_traj_len": 4.419966227803523,
        "distance_elbow_joint": 4.208888816082889,
        "distance_shoulder_lift_joint": 1.2644668510795738,
        "distance_shoulder_pan_joint": 2.8135816385755823,
        "distance_wrist_1_joint": 2.2627144219389024,
        "distance_wrist_2_joint": 0.8718927975070911,
        "distance_wrist_3_joint": 3.133663814739844,
        "smoothness": 6.832141695828279e-16,
        "time": 0.642025458,
        "traj_len": 3.815128875925935,
        "weighted_distance": 4.894603476161227
    },
    "planner": "BFMT",
    "start": {
        "state": {
            "elbow_joint": -2.384821988534728,
            "shoulder_lift_joint": -2.2788054721415256,
            "shoulder_pan_joint": -0.1854694642142757,
            "wrist_1_joint": 1.4845938289331202,
            "wrist_2_joint": 0.17898776772866878,
            "wrist_3_joint": 0.037105688729662994
        }
    },
    "waypoints": [
        {
            "positions": [
                -0.1854694642142757,
                -2.2788054721415256,
                -2.384821988534728,
                1.4845938289331202,
                0.17898776772866878,
                0.037105688729662994
            ]
        },
        {
            "positions": [
                -0.06933601362461868,
                -2.2397347255538103,
                -2.339771363702334,
                1.4144006377728706,
                0.18647324529504164,
                -0.06365402497306424
            ]
        },
        {
            "positions": [
                0.04679743696503835,
                -2.2006639789660953,
                -2.2947207388699393,
                1.344207446612621,
                0.19395872286141452,
                -0.16441373867579148
            ]
        },
        {
            "positions": [
                0.16293088755469534,
                -2.16159323237838,
                -2.2496701140375452,
                1.2740142554523712,
                0.20144420042778738,
                -0.26517345237851864
            ]
        },
        {
            "positions": [
                0.2790643381443524,
                -2.1225224857906646,
                -2.204619489205151,
                1.2038210642921217,
                0.20892967799416023,
                -0.36593316608124593
            ]
        },
        {
            "positions": [
                0.39519778873400946,
                -2.0834517392029497,
                -2.1595688643727566,
                1.133627873131872,
                0.2164151555605331,
                -0.4666928797839731
            ]
        },
        {
            "positions": [
                0.5113312393236664,
                -2.0443809926152343,
                -2.1145182395403626,
                1.0634346819716225,
                0.22390063312690595,
                -0.5674525934867003
            ]
        },
        {
            "positions": [
                0.6274646899133235,
                -2.005310246027519,
                -2.0694676147079685,
                0.9932414908113729,
                0.23138611069327883,
                -0.6682123071894275
            ]
        },
        {
            "positions": [
                0.7435981405029806,
                -1.966239499439804,
                -2.024416989875574,
                0.9230482996511232,
                0.23887158825965168,
                -0.7689720208921549
            ]
        },
        {
            "positions": [
                0.8597315910926376,
                -1.9271687528520887,
                -1.9793663650431799,
                0.8528551084908735,
                0.24635706582602457,
                -0.8697317345948821
            ]
        },
        {
            "positions": [
                0.9758650416822946,
                -1.8880980062643735,
                -1.9343157402107858,
                0.782661917330624,
                0.2538425433923974,
                -0.9704914482976092
            ]
        },
        {
            "positions": [
                1.0919984922719517,
                -1.8490272596766584,
                -1.8892651153783915,
                0.7124687261703743,
                0.2613280209587703,
                -1.0712511620003367
            ]
        },
        {
            "positions": [
                1.2081319428616084,
                -1.809956513088943,
                -1.8442144905459974,
                0.6422755350101247,
                0.26881349852514314,
                -1.1720108757030636
            ]
        },
        {
            "positions": [
                1.3242653934512656,
                -1.7708857665012279,
                -1.799163865713603,
                0.5720823438498751,
                0.276298976091516,
                -1.272770589405791
            ]
        },
        {
            "positions": [
                1.4403988440409226,
                -1.7318150199135127,
                -1.754113240881209,
                0.5018891526896255,
                0.28378445365788885,
                -1.373530303108518
            ]
        },
        {
            "positions": [
                1.5565322946305797,
                -1.6927442733257974,
                -1.7090626160488147,
                0.43169596152937584,
                0.2912699312242617,
                -1.4742900168112454
            ]
        },
        {
            "positions": [
                1.6726657452202367,
                -1.6536735267380822,
                -1.6640119912164204,
                0.36150277036912626,
                0.29875540879063456,
                -1.5750497305139728
            ]
        },
        {
            "positions": [
                1.7887991958098937,
                -1.614602780150367,
                -1.6189613663840263,
                0.2913095792088767,
                0.3062408863570074,
                -1.6758094442166998
            ]
        },
        {
            "positions": [
                1.9049326463995508,
                -1.5755320335626517,
                -1.573910741551632,
                0.22111638804862688,
                0.3137263639233803,
                -1.7765691579194272
            ]
        },
        {
            "positions": [
                2.0210660969892076,
                -1.5364612869749368,
                -1.528860116719238,
                0.1509231968883773,
                0.3212118414897532,
                -1.8773288716221541
            ]
        },
        {
            "positions": [
                2.1371995475788648,
                -1.4973905403872214,
                -1.4838094918868436,
                0.0807300057281278,
                0.32869731905612604,
                -1.9780885853248815
            ]
        },
        {
            "positions": [
                2.164472471289,
                -1.4705543226469286,
                -1.3000385852515655,
                0.03301608357624392,
                0.36881861051055015,
                -2.0402257820296206
            ]
        },
        {
            "positions": [
                2.191745394999136,
                -1.4437181049066359,
                -1.1162676786162875,
                -0.014697838575639957,
                0.40893990196497426,
                -2.102362978734359
            ]
        },
        {
            "positions": [
                2.2190183187092716,
                -1.4168818871663431,
                -0.9324967719810093,
                -0.06241176072752383,
                0.4490611934193984,
                -2.1645001754390982
            ]
        },
        {
            "positions": [
                2.2462912424194075,
                -1.3900456694260503,
                -0.7487258653457313,
                -0.11012568287940772,
                0.4891824848738225,
                -2.226637372143837
            ]
        },
        {
            "positions": [
                2.273564166129543,
                -1.3632094516857576,
                -0.5649549587104531,
                -0.15783960503129163,
                0.5293037763282467,
                -2.288774568848576
            ]
        },
        {
            "positions": [
                2.300837089839679,
                -1.3363732339454648,
                -0.38118405207517503,
                -0.20555352718317546,
                0.5694250677826707,
                -2.3509117655533145
            ]
        },
        {
            "positions": [
                2.3281100135498143,
                -1.309537016205172,
                -0.19741314543989685,
                -0.2532674493350594,
                0.6095463592370949,
                -2.4130489622580535
            ]
        },
        {
            "positions": [
                2.35538293725995,
                -1.2827007984648793,
                -0.0136422388046189,
                -0.30098137148694326,
                0.6496676506915189,
                -2.475186158962792
            ]
        },
        {
            "positions": [
                2.3826558609700856,
                -1.2558645807245865,
                0.17012866783065927,
                -0.3486952936388271,
                0.6897889421459431,
                -2.537323355667531
            ]
        },
        {
            "positions": [
                2.409928784680221,
                -1.2290283629842937,
                0.35389957446593745,
                -0.3964092157907111,
                0.7299102336003671,
                -2.5994605523722703
            ]
        },
        {
            "positions": [
                2.437201708390357,
                -1.202192145244001,
                0.5376704811012156,
                -0.44412313794259495,
                0.7700315250547913,
                -2.661597749077009
            ]
        },
        {
            "positions": [
                2.4644746321004924,
                -1.1753559275037084,
                0.7214413877364936,
                -0.4918370600944787,
                0.8101528165092153,
                -2.7237349457817475
            ]
        },
        {
            "positions": [
                2.4917475558106283,
                -1.1485197097634157,
                0.9052122943717715,
                -0.5395509822463627,
                0.8502741079636396,
                -2.7858721424864865
            ]
        },
        {
            "positions": [
                2.519020479520764,
                -1.121683492023123,
                1.08898320100705,
                -0.5872649043982465,
                0.8903953994180636,
                -2.8480093391912256
            ]
        },
        {
            "positions": [
                2.5462934032308997,
                -1.0948472742828301,
                1.2727541076423279,
                -0.6349788265501305,
                0.9305166908724878,
                -2.910146535895964
            ]
        },
        {
            "positions": [
                2.573566326941035,
                -1.0680110565425374,
                1.4565250142776058,
                -0.6826927487020142,
                0.9706379823269118,
                -2.972283732600703
            ]
        },
        {
            "positions": [
                2.6008392506511706,
                -1.0411748388022446,
                1.6402959209128838,
                -0.7304066708538982,
                1.010759273781336,
                -3.0344209293054423
            ]
        },
        {
            "positions": [
                2.6281121743613065,
                -1.0143386210619518,
                1.8240668275481624,
                -0.7781205930057821,
                1.05088056523576,
                -3.096558126010181
            ]
        }
    ]
}