{
    "goal": {
        "global_pose": {
            "orientation": {
                "w": 0.5084816262002911,
                "x": -0.4908360881923452,
                "y": 0.5182115481033761,
                "z": -0.48164630358495003
            },
            "position": {
                "x": 0.5540239810943604,
                "y": -0.46912469901144505,
                "z": 0.16403168439865112
            }
        },
        "name": "move_to_storage_B"
    },
    "id": "BFMT_move_to_storage_B_103",
    "joint_names": [
        "shoulder_pan_joint",
        "shoulder_lift_joint",
        "elbow_joint",
        "wrist_1_joint",
        "wrist_2_joint",
        "wrist_3_joint"
    ],
    "metrics": {
        "cart_traj_len": 0.7992540594889644,
        "distance_elbow_joint": 0.3480051196005882,
        "distance_shoulder_lift_joint": 0.45776345964230813,
        "distance_shoulder_pan_joint": 0.19121567127715788,
        "distance_wrist_1_joint": 2.9840866684074125,
        "distance_wrist_2_joint": 2.7540128849723797,
        "distance_wrist_3_joint": 3.156726104207546,
        "smoothness": 0.028836656259715855,
        "time": 0.748103876,
        "traj_len": 3.145124784187011,
        "weighted_distance": 4.684374202591236
    },
    "planner": "BFMT",
    "start": {
        "state": {
            "elbow_joint": 1.664937868594044,
            "shoulder_lift_joint": -0.661644460510453,
            "shoulder_pan_joint": -0.9139846352900073,
            "wrist_1_joint": 2.146753192139373,
            "wrist_2_joint": -2.2341966793290973,
            "wrist_3_joint": 0.005466555786416001
        }
    },
    "waypoints": [
        {
            "positions": [
                -0.9139846352900073,
                -0.661644460510453,
                1.664937868594044,
                2.146753192139373,
                -2.2341966793290973,
                0.005466555786416001
            ]
        },
        {
            "positions": [
                -0.9759533860684658,
                -0.7200639142334361,
                1.7508092406654086,
                2.147524245391728,
                -2.2411476294621244,
                -0.06227562275844409
            ]
        },
        {
            "positions": [
                -1.0379221368469242,
                -0.7784833679564193,
                1.8366806127367734,
                2.1482952986440824,
                -2.248098579595151,
                -0.13001780130330418
            ]
        },
        {
            "positions": [
                -1.0998908876253828,
                -0.8369028216794023,
                1.922551984808138,
                2.1490663518964372,
                -2.2550495297281783,
                -0.1977599798481643
            ]
        },
        {
            "positions": [
                -1.0996600433235661,
                -0.8491856520478093,
                1.9264820284336377,
                2.019424025433379,
                -2.1362164847467304,
                -0.326173004568728
            ]
        },
        {
            "positions": [
                -1.0994291990217495,
                -0.8614684824162161,
                1.9304120720591376,
                1.88978169897032,
                -2.0173834397652826,
                -0.4545860292892917
            ]
        },
        {
            "positions": [
                -1.0991983547199329,
                -0.873751312784623,
                1.9343421156846372,
                1.7601393725072614,
                -1.898550394783835,
                -0.5829990540098554
            ]
        },
        {
            "positions": [
                -1.0989675104181162,
                -0.88603414315303,
                1.938272159310137,
                1.6304970460442028,
                -1.7797173498023873,
                -0.7114120787304191
            ]
        },
        {
            "positions": [
                -1.0987366661162996,
                -0.8983169735214368,
                1.9422022029356367,
                1.5008547195811441,
                -1.6608843048209394,
                -0.8398251034509828
            ]
        },
        {
            "positions": [
                -1.098505821814483,
                -0.9105998038898437,
                1.9461322465611366,
                1.3712123931180855,
                -1.5420512598394915,
                -0.9682381281715465
            ]
        },
        {
            "positions": [
                -1.0982749775126663,
                -0.9228826342582507,
                1.9500622901866362,
                1.2415700666550267,
                -1.423218214858044,
                -1.0966511528921103
            ]
        },
        {
            "positions": [
                -1.0980441332108497,
                -0.9351654646266576,
                1.9539923338121359,
                1.1119277401919683,
                -1.3043851698765963,
                -1.225064177612674
            ]
        },
        {
            "positions": [
                -1.097813288909033,
                -0.9474482949950644,
                1.9579223774376358,
                0.9822854137289094,
                -1.1855521248951484,
                -1.353477202333238
            ]
        },
        {
            "positions": [
                -1.0975824446072164,
                -0.9597311253634714,
                1.9618524210631354,
                0.852643087265851,
                -1.0667190799137005,
                -1.4818902270538015
            ]
        },
        {
            "positions": [
                -1.0973516003053998,
                -0.9720139557318783,
                1.9657824646886353,
                0.7230007608027922,
                -0.9478860349322529,
                -1.6103032517743654
            ]
        },
        {
            "positions": [
                -1.0971207560035834,
                -0.9842967861002851,
                1.969712508314135,
                0.5933584343397338,
                -0.829052989950805,
                -1.7387162764949289
            ]
        },
        {
            "positions": [
                -1.0968899117017668,
                -0.9965796164686921,
                1.9736425519396348,
                0.46371610787667517,
                -0.7102199449693574,
                -1.8671293012154924
            ]
        },
        {
            "positions": [
                -1.0966590673999501,
                -1.008862446837099,
                1.9775725955651344,
                0.3340737814136163,
                -0.5913868999879095,
                -1.9955423259360563
            ]
        },
        {
            "positions": [
                -1.0964282230981335,
                -1.0211452772055059,
                1.9815026391906343,
                0.2044314549505577,
                -0.47255385500646163,
                -2.1239553506566202
            ]
        },
        {
            "positions": [
                -1.0961973787963168,
                -1.0334281075739127,
                1.985432682816134,
                0.0747891284874993,
                -0.353720810025014,
                -2.2523683753771837
            ]
        },
        {
            "positions": [
                -1.0959665344945002,
                -1.0457109379423197,
                1.9893627264416336,
                -0.05485319797555954,
                -0.23488776504356634,
                -2.3807814000977476
            ]
        },
        {
            "positions": [
                -1.0957356901926836,
                -1.0579937683107266,
                1.9932927700671335,
                -0.18449552443861839,
                -0.11605472006211848,
                -2.5091944248183116
            ]
        },
        {
            "positions": [
                -1.095504845890867,
                -1.0702765986791336,
                1.997222813692633,
                -0.3141378509016768,
                0.002778324919329389,
                -2.637607449538875
            ]
        },
        {
            "positions": [
                -1.0952740015890503,
                -1.0825594290475404,
                2.0011528573181327,
                -0.4437801773647352,
                0.12161136990077726,
                -2.7660204742594385
            ]
        },
        {
            "positions": [
                -1.0950431572872337,
                -1.0948422594159473,
                2.005082900943633,
                -0.573422503827794,
                0.24044441488222468,
                -2.8944334989800025
            ]
        },
        {
            "positions": [
                -1.094812312985417,
                -1.1071250897843543,
                2.0090129445691325,
                -0.7030648302908529,
                0.35927745986367254,
                -3.0228465237005664
            ]
        },
        {
            "positions": [
                -1.0945814686836004,
                -1.1194079201527611,
                2.012942988194632,
                -0.8327071567539113,
                0.47811050484512035,
                -3.15125954842113
            ]
        }
    ]
}