{
    "goal": {
        "global_pose": {
            "orientation": {
                "w": 0.7047431468963623,
                "x": -0.7094548344612122,
                "y": 0.0024358443915843964,
                "z": -0.0022348060738295317
            },
            "position": {
                "x": 0.6094750761985779,
                "y": 0.3671506643295288,
                "z": 0.19426114857196808
            }
        },
        "name": "move_to_magneteinheit_A"
    },
    "id": "BFMT_move_to_magneteinheit_A_20",
    "joint_names": [
        "shoulder_pan_joint",
        "shoulder_lift_joint",
        "elbow_joint",
        "wrist_1_joint",
        "wrist_2_joint",
        "wrist_3_joint"
    ],
    "metrics": {
        "cart_traj_len": 3.631352304240709,
        "distance_elbow_joint": 3.8946750154317025,
        "distance_shoulder_lift_joint": 0.2322917519615899,
        "distance_shoulder_pan_joint": 3.3523793505016304,
        "distance_wrist_1_joint": 0.7459080465024233,
        "distance_wrist_2_joint": 1.6918629004136911,
        "distance_wrist_3_joint": 2.660738608243296,
        "smoothness": 0.1052124484562538,
        "time": 1.000253692,
        "traj_len": 3.546527269464361,
        "weighted_distance": 4.509667818859503
    },
    "planner": "BFMT",
    "start": {
        "state": {
            "elbow_joint": -1.9196185241190666,
            "shoulder_lift_joint": -1.2443396400964142,
            "shoulder_pan_joint": 2.6996025414629847,
            "wrist_1_joint": -1.5485510000780065,
            "wrist_2_joint": -1.5709468930060704,
            "wrist_3_joint": 0.4420197071253992
        }
    },
    "waypoints": [
        {
            "positions": [
                2.6996025414629847,
                -1.2443396400964142,
                -1.9196185241190666,
                -1.5485510000780065,
                -1.5709468930060704,
                0.4420197071253992
            ]
        },
        {
            "positions": [
                2.5648269893185547,
                -1.2472844389458224,
                -1.7753834875158556,
                -1.5224824879445484,
                -1.5120175643405787,
                0.4712167822398599
            ]
        },
        {
            "positions": [
                2.430051437174124,
                -1.2502292377952309,
                -1.6311484509126446,
                -1.4964139758110901,
                -1.4530882356750872,
                0.5004138573543206
            ]
        },
        {
            "positions": [
                2.295275885029694,
                -1.2531740366446391,
                -1.4869134143094338,
                -1.4703454636776319,
                -1.3941589070095954,
                0.5296109324687813
            ]
        },
        {
            "positions": [
                2.160500332885264,
                -1.2561188354940473,
                -1.3426783777062228,
                -1.4442769515441738,
                -1.335229578344104,
                0.558808007583242
            ]
        },
        {
            "positions": [
                2.025724780740834,
                -1.2590636343434556,
                -1.1984433411030118,
                -1.4182084394107157,
                -1.2763002496786122,
                0.5880050826977028
            ]
        },
        {
            "positions": [
                1.8909492285964038,
                -1.262008433192864,
                -1.054208304499801,
                -1.3921399272772574,
                -1.2173709210131207,
                0.6172021578121635
            ]
        },
        {
            "positions": [
                1.7561736764519735,
                -1.2649532320422723,
                -0.9099732678965899,
                -1.3660714151437992,
                -1.158441592347629,
                0.6463992329266242
            ]
        },
        {
            "positions": [
                1.6213981243075435,
                -1.2678980308916805,
                -0.7657382312933789,
                -1.340002903010341,
                -1.0995122636821373,
                0.675596308041085
            ]
        },
        {
            "positions": [
                1.4866225721631132,
                -1.2708428297410888,
                -0.6215031946901679,
                -1.3139343908768828,
                -1.0405829350166456,
                0.7047933831555456
            ]
        },
        {
            "positions": [
                1.3518470200186832,
                -1.2737876285904972,
                -0.4772681580869571,
                -1.2878658787434247,
                -0.9816536063511541,
                0.7339904582700063
            ]
        },
        {
            "positions": [
                1.217071467874253,
                -1.2767324274399054,
                -0.3330331214837461,
                -1.2617973666099664,
                -0.9227242776856625,
                0.7631875333844671
            ]
        },
        {
            "positions": [
                1.0822959157298229,
                -1.2796772262893137,
                -0.1887980848805353,
                -1.2357288544765084,
                -0.8637949490201708,
                0.7923846084989277
            ]
        },
        {
            "positions": [
                0.9475203635853926,
                -1.2826220251387221,
                -0.04456304827732405,
                -1.2096603423430503,
                -0.8048656203546791,
                0.8215816836133885
            ]
        },
        {
            "positions": [
                0.8127448114409623,
                -1.2855668239881304,
                0.09967198832588675,
                -1.183591830209592,
                -0.7459362916891876,
                0.8507787587278492
            ]
        },
        {
            "positions": [
                0.6779692592965323,
                -1.2885116228375386,
                0.24390702492909755,
                -1.157523318076134,
                -0.687006963023696,
                0.8799758338423098
            ]
        },
        {
            "positions": [
                0.5431937071521022,
                -1.2914564216869469,
                0.3881420615323088,
                -1.1314548059426757,
                -0.6280776343582043,
                0.9091729089567706
            ]
        },
        {
            "positions": [
                0.40841815500767176,
                -1.2944012205363553,
                0.5323770981355196,
                -1.1053862938092176,
                -0.5691483056927127,
                0.9383699840712314
            ]
        },
        {
            "positions": [
                0.2736426028632417,
                -1.2973460193857635,
                0.6766121347387308,
                -1.0793177816757593,
                -0.510218977027221,
                0.9675670591856921
            ]
        },
        {
            "positions": [
                0.13886705071881167,
                -1.3002908182351718,
                0.8208471713419416,
                -1.053249269542301,
                -0.45128964836172947,
                0.9967641343001528
            ]
        },
        {
            "positions": [
                0.0040914985743816246,
                -1.30323561708458,
                0.9650822079451524,
                -1.027180757408843,
                -0.39236031969623775,
                1.0259612094146133
            ]
        },
        {
            "positions": [
                -0.13068405357004886,
                -1.3061804159339885,
                1.1093172445483637,
                -1.001112245275385,
                -0.333430991030746,
                1.0551582845290741
            ]
        },
        {
            "positions": [
                -0.2654596057144789,
                -1.3091252147833967,
                1.2535522811515745,
                -0.9750437331419266,
                -0.2745016623652545,
                1.084355359643535
            ]
        },
        {
            "positions": [
                -0.22672788538206226,
                -1.292374597055936,
                1.3257027021676804,
                -0.9578036551852923,
                -0.23495989538796694,
                1.286195655216051
            ]
        },
        {
            "positions": [
                -0.1879961650496456,
                -1.2756239793284752,
                1.3978531231837863,
                -0.9405635772286579,
                -0.1954181284106794,
                1.488035950788567
            ]
        },
        {
            "positions": [
                -0.14926444471722897,
                -1.2588733616010146,
                1.4700035441998922,
                -0.9233234992720236,
                -0.1558763614333919,
                1.689876246361083
            ]
        },
        {
            "positions": [
                -0.11053272438481232,
                -1.2421227438735538,
                1.5421539652159981,
                -0.9060834213153892,
                -0.11633459445610433,
                1.891716541933599
            ]
        },
        {
            "positions": [
                -0.07180100405239567,
                -1.225372126146093,
                1.614304386232104,
                -0.8888433433587549,
                -0.07679282747881683,
                2.093556837506115
            ]
        },
        {
            "positions": [
                -0.033069283719979026,
                -1.2086215084186323,
                1.68645480724821,
                -0.8716032654021206,
                -0.03725106050152932,
                2.295397133078631
            ]
        },
        {
            "positions": [
                0.0056624366124375936,
                -1.1918708906911715,
                1.7586052282643159,
                -0.8543631874454862,
                0.0022907064757581863,
                2.497237428651147
            ]
        },
        {
            "positions": [
                0.04439415694485427,
                -1.175120272963711,
                1.8307556492804218,
                -0.8371231094888519,
                0.041832473453045804,
                2.699077724223663
            ]
        },
        {
            "positions": [
                0.08312587727727094,
                -1.1583696552362501,
                1.9029060702965277,
                -0.8198830315322175,
                0.08137424043033331,
                2.9009180197961792
            ]
        },
        {
            "positions": [
                0.12185759760968755,
                -1.1416190375087893,
                1.9750564913126336,
                -0.8026429535755832,
                0.1209160074076208,
                3.1027583153686953
            ]
        }
    ]
}