{
    "goal": {
        "global_pose": {
            "orientation": {
                "w": 0.7047431468963623,
                "x": -0.7094548344612122,
                "y": 0.0024358443915843964,
                "z": -0.0022348060738295317
            },
            "position": {
                "x": 0.6094750761985779,
                "y": 0.3671506643295288,
                "z": 0.19426114857196808
            }
        },
        "name": "move_to_magneteinheit_A"
    },
    "id": "BFMT_move_to_magneteinheit_A_87",
    "joint_names": [
        "shoulder_pan_joint",
        "shoulder_lift_joint",
        "elbow_joint",
        "wrist_1_joint",
        "wrist_2_joint",
        "wrist_3_joint"
    ],
    "metrics": {
        "cart_traj_len": 3.2192882878076565,
        "distance_elbow_joint": 3.9103848449819196,
        "distance_shoulder_lift_joint": 0.4670521932188936,
        "distance_shoulder_pan_joint": 3.2814237559966792,
        "distance_wrist_1_joint": 3.455656109818195,
        "distance_wrist_2_joint": 1.714296582485963,
        "distance_wrist_3_joint": 0.41257757550457363,
        "smoothness": 0.1959430706430226,
        "time": 1.0855729740000002,
        "traj_len": 3.63887222391859,
        "weighted_distance": 4.385943331293683
    },
    "planner": "BFMT",
    "start": {
        "state": {
            "elbow_joint": -1.9196185241190666,
            "shoulder_lift_joint": -1.2443396400964142,
            "shoulder_pan_joint": 2.6996025414629847,
            "wrist_1_joint": -1.5485510000780065,
            "wrist_2_joint": -1.5709468930060704,
            "wrist_3_joint": 0.4420197071253992
        }
    },
    "waypoints": [
        {
            "positions": [
                2.6996025414629847,
                -1.2443396400964142,
                -1.9196185241190666,
                -1.5485510000780065,
                -1.5709468930060704,
                0.4420197071253992
            ]
        },
        {
            "positions": [
                2.5985912762418057,
                -1.2426187354791216,
                -1.8169135134253587,
                -1.4345484145481109,
                -1.5166136729313495,
                0.4290379801164072
            ]
        },
        {
            "positions": [
                2.497580011020627,
                -1.240897830861829,
                -1.714208502731651,
                -1.3205458290182153,
                -1.4622804528566287,
                0.4160562531074153
            ]
        },
        {
            "positions": [
                2.3965687457994482,
                -1.2391769262445367,
                -1.611503492037943,
                -1.2065432434883196,
                -1.4079472327819078,
                0.4030745260984233
            ]
        },
        {
            "positions": [
                2.2955574805782697,
                -1.237456021627244,
                -1.5087984813442352,
                -1.092540657958424,
                -1.353614012707187,
                0.39009279908943134
            ]
        },
        {
            "positions": [
                2.1945462153570907,
                -1.2357351170099515,
                -1.4060934706505273,
                -0.9785380724285283,
                -1.299280792632466,
                0.37711107208043937
            ]
        },
        {
            "positions": [
                2.093534950135912,
                -1.234014212392659,
                -1.3033884599568193,
                -0.8645354868986328,
                -1.2449475725577455,
                0.36412934507144745
            ]
        },
        {
            "positions": [
                1.9925236849147332,
                -1.2322933077753664,
                -1.2006834492631113,
                -0.7505329013687371,
                -1.1906143524830246,
                0.3511476180624555
            ]
        },
        {
            "positions": [
                1.8915124196935542,
                -1.2305724031580738,
                -1.0979784385694036,
                -0.6365303158388416,
                -1.1362811324083038,
                0.3381658910534635
            ]
        },
        {
            "positions": [
                1.7905011544723757,
                -1.2288514985407815,
                -0.9952734278756956,
                -0.522527730308946,
                -1.081947912333583,
                0.3251841640444716
            ]
        },
        {
            "positions": [
                1.6894898892511967,
                -1.2271305939234889,
                -0.8925684171819877,
                -0.4085251447790501,
                -1.027614692258862,
                0.31220243703547956
            ]
        },
        {
            "positions": [
                1.588478624030018,
                -1.2254096893061963,
                -0.7898634064882799,
                -0.2945225592491547,
                -0.9732814721841412,
                0.29922071002648765
            ]
        },
        {
            "positions": [
                1.4874673588088392,
                -1.2236887846889037,
                -0.6871583957945719,
                -0.1805199737192591,
                -0.9189482521094203,
                0.28623898301749573
            ]
        },
        {
            "positions": [
                1.3864560935876604,
                -1.2219678800716112,
                -0.584453385100864,
                -0.06651738818936326,
                -0.8646150320346995,
                0.2732572560085037
            ]
        },
        {
            "positions": [
                1.2854448283664814,
                -1.2202469754543186,
                -0.48174837440715623,
                0.04748519734053236,
                -0.8102818119599786,
                0.2602755289995118
            ]
        },
        {
            "positions": [
                1.1844335631453027,
                -1.2185260708370262,
                -0.37904336371344827,
                0.16148778287042798,
                -0.7559485918852578,
                0.2472938019905198
            ]
        },
        {
            "positions": [
                1.083422297924124,
                -1.2168051662197337,
                -0.2763383530197405,
                0.27549036840032337,
                -0.7016153718105369,
                0.23431207498152787
            ]
        },
        {
            "positions": [
                0.9824110327029454,
                -1.215084261602441,
                -0.17363334232603278,
                0.389492953930219,
                -0.6472821517358162,
                0.22133034797253592
            ]
        },
        {
            "positions": [
                0.8813997674817664,
                -1.2133633569851485,
                -0.07092833163232459,
                0.5034955394601146,
                -0.5929489316610952,
                0.20834862096354395
            ]
        },
        {
            "positions": [
                0.7803885022605876,
                -1.211642452367856,
                0.03177667906138315,
                0.6174981249900104,
                -0.5386157115863743,
                0.195366893954552
            ]
        },
        {
            "positions": [
                0.6793772370394087,
                -1.2099215477505634,
                0.13448168975509134,
                0.7315007105199063,
                -0.4842824915116535,
                0.18238516694556
            ]
        },
        {
            "positions": [
                0.5783659718182301,
                -1.208200643133271,
                0.23718670044879886,
                0.8455032960498017,
                -0.4299492714369326,
                0.1694034399365681
            ]
        },
        {
            "positions": [
                0.47735470659705115,
                -1.2064797385159785,
                0.3398917111425068,
                0.9595058815796971,
                -0.375616051362212,
                0.15642171292757612
            ]
        },
        {
            "positions": [
                0.37634344137587217,
                -1.2047588338986859,
                0.4425967218362148,
                1.073508467109593,
                -0.3212828312874909,
                0.14343998591858415
            ]
        },
        {
            "positions": [
                0.27533217615469363,
                -1.2030379292813933,
                0.5453017325299228,
                1.1875110526394883,
                -0.2669496112127703,
                0.13045825890959223
            ]
        },
        {
            "positions": [
                0.1743209109335151,
                -1.2013170246641007,
                0.6480067432236303,
                1.3015136381693841,
                -0.21261639113804942,
                0.11747653190060026
            ]
        },
        {
            "positions": [
                0.07330964571233611,
                -1.1995961200468082,
                0.7507117539173387,
                1.41551622369928,
                -0.15828317106332856,
                0.10449480489160828
            ]
        },
        {
            "positions": [
                -0.027701619508842867,
                -1.1978752154295158,
                0.8534167646110462,
                1.5295188092291754,
                -0.10394995098860771,
                0.09151307788261637
            ]
        },
        {
            "positions": [
                -0.12871288473002185,
                -1.1961543108122232,
                0.9561217753047542,
                1.6435213947590712,
                -0.04961673091388685,
                0.07853135087362434
            ]
        },
        {
            "positions": [
                -0.22972414995120038,
                -1.1944334061949307,
                1.058826785998462,
                1.7575239802889668,
                0.004716489160833934,
                0.06554962386463242
            ]
        },
        {
            "positions": [
                -0.1780653035503141,
                -1.13328821960828,
                1.1951786482195592,
                1.780052118017422,
                -0.014850852887470668,
                0.05973546877278466
            ]
        },
        {
            "positions": [
                -0.12640645714942783,
                -1.0721430330216297,
                1.3315305104406567,
                1.8025802557458772,
                -0.03441819493577527,
                0.0539213136809369
            ]
        },
        {
            "positions": [
                -0.07474761074854151,
                -1.0109978464349791,
                1.467882372661754,
                1.8251083934743324,
                -0.053985536984079874,
                0.048107158589089136
            ]
        },
        {
            "positions": [
                -0.00904076895526329,
                -0.9330943799158263,
                1.6421770220621201,
                1.8524406322296179,
                -0.08062926170879481,
                0.04188548293300125
            ]
        },
        {
            "positions": [
                0.05666607283801493,
                -0.8551909133966735,
                1.8164716714624862,
                1.8797728709849033,
                -0.10727298643350976,
                0.03566380727691336
            ]
        },
        {
            "positions": [
                0.12237291463129317,
                -0.7772874468775206,
                1.9907663208628523,
                1.9071051097401888,
                -0.1339167111582247,
                0.02944213162082547
            ]
        }
    ]
}