{
    "goal": {
        "global_pose": {
            "orientation": {
                "w": 0.7031023502349854,
                "x": -0.7110244035720825,
                "y": 0.007748599164187908,
                "z": 0.005598929710686207
            },
            "position": {
                "x": 0.11585023208521307,
                "y": 0.44412534475326537,
                "z": 0.3711530566215515
            }
        },
        "name": "move_to_auspresseinheit_A"
    },
    "id": "BFMT_move_to_auspresseinheit_A_79",
    "joint_names": [
        "shoulder_pan_joint",
        "shoulder_lift_joint",
        "elbow_joint",
        "wrist_1_joint",
        "wrist_2_joint",
        "wrist_3_joint"
    ],
    "metrics": {
        "cart_traj_len": 0.7801871362023239,
        "distance_elbow_joint": 0.47477117871418173,
        "distance_shoulder_lift_joint": 0.5334052690210296,
        "distance_shoulder_pan_joint": 1.042848178164408,
        "distance_wrist_1_joint": 0.8981516076263101,
        "distance_wrist_2_joint": 1.6436098371135686,
        "distance_wrist_3_joint": 0.5084245205456925,
        "smoothness": 1.0759614157719297,
        "time": 0.7060145480000001,
        "traj_len": 2.258585971617018,
        "weighted_distance": 2.9427573935029807
    },
    "planner": "BFMT",
    "start": {
        "state": {
            "elbow_joint": 2.4225746658250005,
            "shoulder_lift_joint": -1.3736534386056498,
            "shoulder_pan_joint": -0.3378633547517467,
            "wrist_1_joint": -1.0288598680537169,
            "wrist_2_joint": 1.233022673432363,
            "wrist_3_joint": -3.0940220416140027
        }
    },
    "waypoints": [
        {
            "positions": [
                -0.3378633547517467,
                -1.3736534386056498,
                2.4225746658250005,
                -1.0288598680537169,
                1.233022673432363,
                -3.0940220416140027
            ]
        },
        {
            "positions": [
                -0.3329940338279744,
                -1.4140112509793015,
                2.3865032060484923,
                -0.9242315603026783,
                1.0777120293187687,
                -3.1332096828702145
            ]
        },
        {
            "positions": [
                -0.32812471290420203,
                -1.4543690633529531,
                2.350431746271984,
                -0.8196032525516397,
                0.9224013852051742,
                -3.1723973241264263
            ]
        },
        {
            "positions": [
                -0.3232553919804297,
                -1.4947268757266048,
                2.314360286495476,
                -0.7149749448006011,
                0.7670907410915799,
                -3.211584965382638
            ]
        },
        {
            "positions": [
                -0.3183860710566574,
                -1.5350846881002562,
                2.2782888267189674,
                -0.6103466370495625,
                0.6117800969779855,
                -3.2507726066388494
            ]
        },
        {
            "positions": [
                -0.31351675013288505,
                -1.5754425004739079,
                2.242217366942459,
                -0.5057183292985238,
                0.4564694528643911,
                -3.289960247895061
            ]
        },
        {
            "positions": [
                -0.3086474292091127,
                -1.6158003128475595,
                2.206145907165951,
                -0.4010900215474852,
                0.3011588087507967,
                -3.329147889151273
            ]
        },
        {
            "positions": [
                -0.30377810828534035,
                -1.6561581252212112,
                2.170074447389443,
                -0.2964617137964466,
                0.1458481646372024,
                -3.3683355304074847
            ]
        },
        {
            "positions": [
                -0.15966911804276868,
                -1.6920010655648494,
                2.201827441714961,
                -0.32014077856345224,
                0.22533892582554638,
                -3.334891097300026
            ]
        },
        {
            "positions": [
                -0.015560127800196999,
                -1.7278440059084879,
                2.2335804360404783,
                -0.34381984333045795,
                0.30482968701389035,
                -3.3014466641925675
            ]
        },
        {
            "positions": [
                0.12854886244237468,
                -1.763686946252126,
                2.265333430365996,
                -0.3674989080974636,
                0.3843204482022343,
                -3.268002231085109
            ]
        },
        {
            "positions": [
                0.27265785268494636,
                -1.7995298865957645,
                2.2970864246915137,
                -0.3911779728644693,
                0.4638112093905783,
                -3.23455779797765
            ]
        },
        {
            "positions": [
                0.4167668429275181,
                -1.8353728269394027,
                2.3288394190170316,
                -0.41485703763147497,
                0.5433019705789223,
                -3.2011133648701913
            ]
        },
        {
            "positions": [
                0.5608758331700897,
                -1.871215767283041,
                2.360592413342549,
                -0.4385361023984806,
                0.6227927317672662,
                -3.1676689317627327
            ]
        },
        {
            "positions": [
                0.7049848234126613,
                -1.9070587076266794,
                2.392345407668067,
                -0.46221516716548633,
                0.7022834929556102,
                -3.134224498655274
            ]
        }
    ]
}