{
    "goal": {
        "global_pose": {
            "orientation": {
                "w": 0.7047431493862688,
                "x": -0.7094548369677653,
                "y": 0.0024358444001904,
                "z": -0.0022348060817251984
            },
            "position": {
                "x": -0.39052492380142206,
                "y": 0.3671506643295288,
                "z": 0.19426114857196808
            }
        },
        "name": "move_to_magneteinheit_D"
    },
    "id": "BFMT_move_to_magneteinheit_D_47",
    "joint_names": [
        "shoulder_pan_joint",
        "shoulder_lift_joint",
        "elbow_joint",
        "wrist_1_joint",
        "wrist_2_joint",
        "wrist_3_joint"
    ],
    "metrics": {
        "cart_traj_len": 3.9628931429432495,
        "distance_elbow_joint": 3.6430104546363142,
        "distance_shoulder_lift_joint": 1.0958447321385822,
        "distance_shoulder_pan_joint": 3.154231222288813,
        "distance_wrist_1_joint": 2.3551597675217892,
        "distance_wrist_2_joint": 1.2919554944363891,
        "distance_wrist_3_joint": 6.268694643312994,
        "smoothness": 0.354000679546841,
        "time": 1.1268034580000001,
        "traj_len": 4.220058804606267,
        "weighted_distance": 5.83038599604855
    },
    "planner": "BFMT",
    "start": {
        "state": {
            "elbow_joint": 0.749534889911806,
            "shoulder_lift_joint": -0.6476975780787326,
            "shoulder_pan_joint": -2.711696901376241,
            "wrist_1_joint": -0.07506478083263063,
            "wrist_2_joint": 0.43296659715538205,
            "wrist_3_joint": -3.14703540197715
        }
    },
    "waypoints": [
        {
            "positions": [
                -2.711696901376241,
                -0.6476975780787326,
                0.749534889911806,
                -0.07506478083263063,
                0.43296659715538205,
                -3.14703540197715
            ]
        },
        {
            "positions": [
                -2.702462783640623,
                -0.664893549051619,
                0.645874816173631,
                -0.10961031616420853,
                0.41027419273076826,
                -3.1330819711031936
            ]
        },
        {
            "positions": [
                -2.6932286659050053,
                -0.6820895200245053,
                0.542214742435456,
                -0.14415585149578644,
                0.3875817883061544,
                -3.1191285402292372
            ]
        },
        {
            "positions": [
                -2.7580702788335336,
                -0.7761480695893148,
                0.5408424609896683,
                -0.22183954868413408,
                0.3829990450714793,
                -3.1090659709827184
            ]
        },
        {
            "positions": [
                -2.822911891762062,
                -0.8702066191541242,
                0.5394701795438805,
                -0.2995232458724817,
                0.37841630183680425,
                -3.099003401736199
            ]
        },
        {
            "positions": [
                -2.737995001998867,
                -0.8758620446368077,
                0.4262545294037227,
                -0.3542458914406066,
                0.3461771717901488,
                -2.9985964346976495
            ]
        },
        {
            "positions": [
                -2.6530781122356717,
                -0.8815174701194911,
                0.3130388792635649,
                -0.4089685370087314,
                0.3139380417434933,
                -2.8981894676591002
            ]
        },
        {
            "positions": [
                -2.568161222472477,
                -0.8871728956021746,
                0.19982322912340705,
                -0.4636911825768563,
                0.2816989116968379,
                -2.7977825006205506
            ]
        },
        {
            "positions": [
                -2.4832443327092815,
                -0.892828321084858,
                0.08660757898324922,
                -0.5184138281449812,
                0.24945978165018243,
                -2.697375533582001
            ]
        },
        {
            "positions": [
                -2.3983274429460866,
                -0.8984837465675415,
                -0.026608071156908664,
                -0.5731364737131062,
                0.21722065160352697,
                -2.5969685665434517
            ]
        },
        {
            "positions": [
                -2.3134105531828917,
                -0.9041391720502249,
                -0.13982372129706644,
                -0.627859119281231,
                0.18498152155687153,
                -2.496561599504902
            ]
        },
        {
            "positions": [
                -2.2284936634196963,
                -0.9097945975329084,
                -0.2530393714372243,
                -0.6825817648493558,
                0.15274239151021607,
                -2.3961546324663523
            ]
        },
        {
            "positions": [
                -2.1435767736565015,
                -0.9154500230155919,
                -0.3662550215773821,
                -0.7373044104174806,
                0.12050326146356061,
                -2.295747665427803
            ]
        },
        {
            "positions": [
                -2.058659883893306,
                -0.9211054484982752,
                -0.4794706717175401,
                -0.7920270559856056,
                0.08826413141690514,
                -2.195340698389253
            ]
        },
        {
            "positions": [
                -1.9737429941301112,
                -0.9267608739809587,
                -0.5926863218576979,
                -0.8467497015537305,
                0.05602500137024968,
                -2.0949337313507037
            ]
        },
        {
            "positions": [
                -1.888826104366916,
                -0.9324162994636421,
                -0.7059019719978556,
                -0.9014723471218553,
                0.023785871323594276,
                -1.994526764312154
            ]
        },
        {
            "positions": [
                -1.803909214603721,
                -0.9380717249463256,
                -0.8191176221380134,
                -0.9561949926899802,
                -0.008453258723061186,
                -1.8941197972736046
            ]
        },
        {
            "positions": [
                -1.7189923248405259,
                -0.943727150429009,
                -0.9323332722781714,
                -1.010917638258105,
                -0.04069238876971665,
                -1.793712830235055
            ]
        },
        {
            "positions": [
                -1.6340754350773308,
                -0.9493825759116925,
                -1.0455489224183292,
                -1.06564028382623,
                -0.07293151881637211,
                -1.6933058631965054
            ]
        },
        {
            "positions": [
                -1.5491585453141357,
                -0.955038001394376,
                -1.158764572558487,
                -1.120362929394355,
                -0.10517064886302757,
                -1.592898896157956
            ]
        },
        {
            "positions": [
                -1.4642416555509408,
                -0.9606934268770594,
                -1.2719802226986447,
                -1.1750855749624796,
                -0.13740977890968303,
                -1.4924919291194065
            ]
        },
        {
            "positions": [
                -1.3793247657877457,
                -0.9663488523597429,
                -1.3851958728388025,
                -1.2298082205306047,
                -0.16964890895633838,
                -1.3920849620808569
            ]
        },
        {
            "positions": [
                -1.2944078760245503,
                -0.9720042778424263,
                -1.4984115229789607,
                -1.2845308660987296,
                -0.20188803900299396,
                -1.2916779950423072
            ]
        },
        {
            "positions": [
                -1.2094909862613552,
                -0.9776597033251098,
                -1.6116271731191183,
                -1.3392535116668545,
                -0.23412716904964942,
                -1.1912710280037575
            ]
        },
        {
            "positions": [
                -1.1245740964981603,
                -0.9833151288077933,
                -1.7248428232592763,
                -1.3939761572349794,
                -0.2663662990963049,
                -1.0908640609652083
            ]
        },
        {
            "positions": [
                -1.0396572067349652,
                -0.9889705542904766,
                -1.8380584733994338,
                -1.4486988028031043,
                -0.29860542914296034,
                -0.9904570939266586
            ]
        },
        {
            "positions": [
                -0.9547403169717701,
                -0.99462597977316,
                -1.9512741235395918,
                -1.503421448371229,
                -0.3308445591896157,
                -0.8900501268881089
            ]
        },
        {
            "positions": [
                -0.8698234272085752,
                -1.0002814052558435,
                -2.0644897736797496,
                -1.5581440939393538,
                -0.36308368923627116,
                -0.7896431598495597
            ]
        },
        {
            "positions": [
                -0.7849065374453801,
                -1.005936830738527,
                -2.1777054238199076,
                -1.6128667395074787,
                -0.3953228192829266,
                -0.68923619281101
            ]
        },
        {
            "positions": [
                -0.6999896476821847,
                -1.0115922562212105,
                -2.2909210739600656,
                -1.6675893850756038,
                -0.4275619493295822,
                -0.5888292257724603
            ]
        },
        {
            "positions": [
                -0.6150727579189899,
                -1.017247681703894,
                -2.4041367241002236,
                -1.7223120306437285,
                -0.45980107937623754,
                -0.48842225873391065
            ]
        },
        {
            "positions": [
                -0.5301558681557945,
                -1.0229031071865773,
                -2.5173523742403807,
                -1.7770346762118534,
                -0.492040209422893,
                -0.3880152916953614
            ]
        },
        {
            "positions": [
                -0.4452389783925995,
                -1.0285585326692608,
                -2.630568024380539,
                -1.8317573217799783,
                -0.5242793394695484,
                -0.28760832465681196
            ]
        },
        {
            "positions": [
                -0.4111177174025367,
                -1.0828478435827915,
                -2.6254799954313626,
                -1.8673088183679523,
                -0.5062635172980273,
                -0.04249285888044646
            ]
        },
        {
            "positions": [
                -0.37699645641247387,
                -1.1371371544963222,
                -2.6203919664821855,
                -1.9028603149559262,
                -0.48824769512650634,
                0.20262260689591904
            ]
        },
        {
            "positions": [
                -0.34287519542241107,
                -1.191426465409853,
                -2.615303937533009,
                -1.9384118115439002,
                -0.47023187295498525,
                0.4477380726722846
            ]
        },
        {
            "positions": [
                -0.3087539344323482,
                -1.2457157763233837,
                -2.6102159085838323,
                -1.9739633081318742,
                -0.4522160507834642,
                0.69285353844865
            ]
        },
        {
            "positions": [
                -0.2746326734422855,
                -1.3000050872369144,
                -2.6051278796346553,
                -2.009514804719848,
                -0.4342002286119432,
                0.9379690042250155
            ]
        },
        {
            "positions": [
                -0.24051141245222263,
                -1.3542943981504452,
                -2.6000398506854787,
                -2.045066301307822,
                -0.4161844064404221,
                1.1830844700013812
            ]
        },
        {
            "positions": [
                -0.20639015146215983,
                -1.408583709063976,
                -2.594951821736302,
                -2.080617797895796,
                -0.3981685842689011,
                1.4281999357777464
            ]
        },
        {
            "positions": [
                -0.17226889047209698,
                -1.4628730199775066,
                -2.5898637927871255,
                -2.11616929448377,
                -0.38015276209738,
                1.673315401554112
            ]
        },
        {
            "positions": [
                -0.13814762948203418,
                -1.5171623308910374,
                -2.5847757638379485,
                -2.1517207910717437,
                -0.362136939925859,
                1.9184308673304773
            ]
        },
        {
            "positions": [
                -0.10402636849197139,
                -1.571451641804568,
                -2.579687734888772,
                -2.187272287659718,
                -0.34412111775433796,
                2.1635463331068427
            ]
        },
        {
            "positions": [
                -0.06990510750190859,
                -1.6257409527180988,
                -2.5745997059395953,
                -2.2228237842476917,
                -0.32610529558281687,
                2.408661798883209
            ]
        },
        {
            "positions": [
                -0.03578384651184574,
                -1.6800302636316296,
                -2.5695116769904183,
                -2.258375280835666,
                -0.30808947341129583,
                2.653777264659574
            ]
        },
        {
            "positions": [
                -0.0016625855217829444,
                -1.7343195745451603,
                -2.5644236480412417,
                -2.2939267774236396,
                -0.2900736512397748,
                2.8988927304359398
            ]
        },
        {
            "positions": [
                -0.06327273709519732,
                -1.7373938197692118,
                -2.4988359267063514,
                -2.2484941871133794,
                -0.256572361379213,
                2.9731482340692406
            ]
        },
        {
            "positions": [
                -0.1248828886686117,
                -1.7404680649932633,
                -2.4332482053714606,
                -2.2030615968031193,
                -0.22307107151865121,
                3.047403737702542
            ]
        },
        {
            "positions": [
                -0.1864930402420261,
                -1.7435423102173149,
                -2.3676604840365703,
                -2.157629006492859,
                -0.1895697816580894,
                3.1216592413358426
            ]
        }
    ]
}