{
    "goal": {
        "global_pose": {
            "orientation": {
                "w": 0.5084816217422485,
                "x": -0.49083608388900757,
                "y": 0.5182115435600281,
                "z": -0.4816462993621826
            },
            "position": {
                "x": 0.5540239810943604,
                "y": 0.030875300988554955,
                "z": 0.16403168439865112
            }
        },
        "name": "move_to_storage_A"
    },
    "id": "BFMT_move_to_storage_A_92",
    "joint_names": [
        "shoulder_pan_joint",
        "shoulder_lift_joint",
        "elbow_joint",
        "wrist_1_joint",
        "wrist_2_joint",
        "wrist_3_joint"
    ],
    "metrics": {
        "cart_traj_len": 0.3533583364443198,
        "distance_elbow_joint": 0.44869661471745625,
        "distance_shoulder_lift_joint": 0.23345894627594288,
        "distance_shoulder_pan_joint": 0.46292273720994964,
        "distance_wrist_1_joint": 0.2395203349071925,
        "distance_wrist_2_joint": 1.094977798751687,
        "distance_wrist_3_joint": 0.10354214376558835,
        "smoothness": 0.0,
        "time": 0.504638642,
        "traj_len": 1.6072083174336227,
        "weighted_distance": 2.0309359903300432
    },
    "planner": "BFMT",
    "start": {
        "state": {
            "elbow_joint": 1.971548259319323,
            "shoulder_lift_joint": -1.1394851275133948,
            "shoulder_pan_joint": 0.1228115487234821,
            "wrist_1_joint": -0.7804723859257726,
            "wrist_2_joint": 0.12958671773740124,
            "wrist_3_joint": -3.192489227718131
        }
    },
    "waypoints": [
        {
            "positions": [
                0.1228115487234821,
                -1.1394851275133948,
                1.971548259319323,
                -0.7804723859257726,
                0.12958671773740124,
                -3.192489227718131
            ]
        },
        {
            "positions": [
                0.05667972912206072,
                -1.1728364055528153,
                2.035647775707531,
                -0.8146895766268001,
                0.28601211755907086,
                -3.1776974928944757
            ]
        },
        {
            "positions": [
                -0.009452090479360659,
                -1.2061876835922356,
                2.099747292095739,
                -0.8489067673278277,
                0.44243751738074044,
                -3.16290575807082
            ]
        },
        {
            "positions": [
                -0.07558391008078202,
                -1.2395389616316561,
                2.1638468084839473,
                -0.8831239580288551,
                0.59886291720241,
                -3.1481140232471647
            ]
        },
        {
            "positions": [
                -0.14171572968220342,
                -1.2728902396710764,
                2.227946324872155,
                -0.9173411487298826,
                0.7552883170240796,
                -3.1333222884235092
            ]
        },
        {
            "positions": [
                -0.2078475492836248,
                -1.306241517710497,
                2.292045841260363,
                -0.9515583394309102,
                0.9117137168457492,
                -3.1185305535998538
            ]
        },
        {
            "positions": [
                -0.27397936888504615,
                -1.3395927957499172,
                2.3561453576485714,
                -0.9857755301319375,
                1.0681391166674188,
                -3.1037388187761983
            ]
        },
        {
            "positions": [
                -0.34011118848646754,
                -1.3729440737893377,
                2.4202448740367792,
                -1.019992720832965,
                1.2245645164890884,
                -3.088947083952543
            ]
        }
    ]
}{
    "goal": {
        "global_pose": {
            "orientation": {
                "w": 0.5084816217422485,
                "x": -0.49083608388900757,
                "y": 0.5182115435600281,
                "z": -0.4816462993621826
            },
            "position": {
                "x": 0.5540239810943604,
                "y": 0.030875300988554955,
                "z": 0.16403168439865112
            }
        },
        "name": "move_to_storage_A"
    },
    "id": "BFMT_move_to_storage_A_92",
    "joint_names": [
        "shoulder_pan_joint",
        "shoulder_lift_joint",
        "elbow_joint",
        "wrist_1_joint",
        "wrist_2_joint",
        "wrist_3_joint"
    ],
    "metrics": {
        "cart_traj_len": 0.35246984753451244,
        "distance_elbow_joint": 0.4498628368956945,
        "distance_shoulder_lift_joint": 0.2328859698250434,
        "distance_shoulder_pan_joint": 0.46023717640921613,
        "distance_wrist_1_joint": 0.24326307241069212,
        "distance_wrist_2_joint": 1.0999380010829602,
        "distance_wrist_3_joint": 0.10235981929625648,
        "smoothness": 6.661338165333112e-16,
        "time": 0.5054999720000001,
        "traj_len": 1.6088961669168906,
        "weighted_distance": 2.0338307668058397
    },
    "planner": "BFMT",
    "start": {
        "state": {
            "elbow_joint": 1.97154746011099,
            "shoulder_lift_joint": -1.13948474672311,
            "shoulder_pan_joint": 0.12281154466712228,
            "wrist_1_joint": -0.7804688027058302,
            "wrist_2_joint": 0.12958655903071145,
            "wrist_3_joint": 3.0906928834467795
        }
    },
    "waypoints": [
        {
            "positions": [
                0.12281154466712228,
                -1.13948474672311,
                1.97154746011099,
                -0.7804688027058302,
                0.12958655903071145,
                3.0906928834467795
            ]
        },
        {
            "positions": [
                0.05706337660866284,
                -1.1727541709838305,
                2.0358135796675176,
                -0.8152206701930719,
                0.28672055918542005,
                3.1053157147748163
            ]
        },
        {
            "positions": [
                -0.0086847914497966,
                -1.2060235952445508,
                2.1000796992240454,
                -0.8499725376803137,
                0.44385455934012863,
                3.1199385461028526
            ]
        },
        {
            "positions": [
                -0.07443295950825606,
                -1.2392930195052714,
                2.164345818780573,
                -0.8847244051675554,
                0.6009885594948372,
                3.1345613774308894
            ]
        },
        {
            "positions": [
                -0.14018112756671547,
                -1.272562443765992,
                2.2286119383371013,
                -0.9194762726547971,
                0.7581225596495459,
                3.149184208758926
            ]
        },
        {
            "positions": [
                -0.20592929562517492,
                -1.3058318680267125,
                2.292878057893629,
                -0.9542281401420388,
                0.9152565598042546,
                3.163807040086963
            ]
        },
        {
            "positions": [
                -0.2716774636836344,
                -1.3391012922874328,
                2.3571441774501567,
                -0.9889800076292805,
                1.072390559958963,
                3.178429871414999
            ]
        },
        {
            "positions": [
                -0.33742563174209383,
                -1.3723707165481533,
                2.4214102970066844,
                -1.0237318751165223,
                1.2295245601136717,
                3.193052702743036
            ]
        }
    ]
}{
    "goal": {
        "global_pose": {
            "orientation": {
                "w": 0.5084816217422485,
                "x": -0.49083608388900757,
                "y": 0.5182115435600281,
                "z": -0.4816462993621826
            },
            "position": {
                "x": 0.5540239810943604,
                "y": 0.030875300988554955,
                "z": 0.16403168439865112
            }
        },
        "name": "move_to_storage_A"
    },
    "id": "BFMT_move_to_storage_A_92",
    "joint_names": [
        "shoulder_pan_joint",
        "shoulder_lift_joint",
        "elbow_joint",
        "wrist_1_joint",
        "wrist_2_joint",
        "wrist_3_joint"
    ],
    "metrics": {
        "cart_traj_len": 0.3532780080591561,
        "distance_elbow_joint": 0.45027134230058063,
        "distance_shoulder_lift_joint": 0.23660044951036396,
        "distance_shoulder_pan_joint": 0.4602398608682361,
        "distance_wrist_1_joint": 0.23653441675532294,
        "distance_wrist_2_joint": 1.1081497960815672,
        "distance_wrist_3_joint": 0.10206069045800925,
        "smoothness": 2.2204460668324854e-16,
        "time": 0.49093703,
        "traj_len": 1.6105454218910065,
        "weighted_distance": 2.0353530774111377
    },
    "planner": "BFMT",
    "start": {
        "state": {
            "elbow_joint": 1.9715472970024885,
            "shoulder_lift_joint": -1.1394870060712896,
            "shoulder_pan_joint": 0.12281152778156021,
            "wrist_1_joint": -0.780463741449964,
            "wrist_2_joint": 0.12958659822042276,
            "wrist_3_joint": 3.090690232415272
        }
    },
    "waypoints": [
        {
            "positions": [
                0.12281152778156021,
                -1.1394870060712896,
                1.9715472970024885,
                -0.780463741449964,
                0.12958659822042276,
                3.090690232415272
            ]
        },
        {
            "positions": [
                0.05706297622895505,
                -1.173287070287056,
                2.0358717744740003,
                -0.8142543724150101,
                0.28789371194636093,
                3.10527033105213
            ]
        },
        {
            "positions": [
                -0.008685575323650108,
                -1.2070871345028222,
                2.1001962519455115,
                -0.8480450033800563,
                0.44620082567229913,
                3.119850429688989
            ]
        },
        {
            "positions": [
                -0.07443412687625525,
                -1.2408871987185885,
                2.1645207294170232,
                -0.8818356343451024,
                0.6045079393982372,
                3.134430528325847
            ]
        },
        {
            "positions": [
                -0.14018267842886042,
                -1.2746872629343546,
                2.2288452068885345,
                -0.9156262653101486,
                0.7628150531241754,
                3.149010626962706
            ]
        },
        {
            "positions": [
                -0.2059312299814656,
                -1.308487327150121,
                2.293169684360046,
                -0.9494168962751947,
                0.9211221668501136,
                3.163590725599564
            ]
        },
        {
            "positions": [
                -0.2716797815340707,
                -1.3422873913658873,
                2.3574941618315575,
                -0.9832075272402407,
                1.0794292805760517,
                3.178170824236423
            ]
        },
        {
            "positions": [
                -0.33742833308667586,
                -1.3760874555816536,
                2.421818639303069,
                -1.016998158205287,
                1.23773639430199,
                3.192750922873281
            ]
        }
    ]
}