{
    "goal": {
        "global_pose": {
            "orientation": {
                "w": -0.00223480608172531,
                "x": 0.0024358444001904467,
                "y": 0.7094548369677653,
                "z": -0.704743149386269
            },
            "position": {
                "x": 0.6205249238014221,
                "y": -0.6371506643295288,
                "z": 0.19426114857196808
            }
        },
        "name": "move_to_magneteinheit_B"
    },
    "id": "BFMT_move_to_magneteinheit_B_95",
    "joint_names": [
        "shoulder_pan_joint",
        "shoulder_lift_joint",
        "elbow_joint",
        "wrist_1_joint",
        "wrist_2_joint",
        "wrist_3_joint"
    ],
    "metrics": {
        "cart_traj_len": 1.4129659098979797,
        "distance_elbow_joint": 0.9521744894019044,
        "distance_shoulder_lift_joint": 0.753308273836714,
        "distance_shoulder_pan_joint": 1.6213667898177593,
        "distance_wrist_1_joint": 0.19922695856859418,
        "distance_wrist_2_joint": 1.514855678314724,
        "distance_wrist_3_joint": 0.3342186444249593,
        "smoothness": 0.08053721015168042,
        "time": 0.676611484,
        "traj_len": 2.3184371534213852,
        "weighted_distance": 2.785259549862076
    },
    "planner": "BFMT",
    "start": {
        "state": {
            "elbow_joint": 2.6216224122426386,
            "shoulder_lift_joint": -1.4174107377796124,
            "shoulder_pan_joint": 0.7066234856936794,
            "wrist_1_joint": 1.9546482284002225,
            "wrist_2_joint": -0.7096286983471962,
            "wrist_3_joint": 0.005740856962016249
        }
    },
    "waypoints": [
        {
            "positions": [
                0.7066234856936794,
                -1.4174107377796124,
                2.6216224122426386,
                1.9546482284002225,
                -0.7096286983471962,
                0.005740856962016249
            ]
        },
        {
            "positions": [
                0.6368862973752862,
                -1.414319848668344,
                2.620582696184815,
                1.9755134082728736,
                -0.7205174200640861,
                -0.013798331738151782
            ]
        },
        {
            "positions": [
                0.4409517492107454,
                -1.3981269391478943,
                2.607431251284529,
                2.031011605528061,
                -0.7651124055966715,
                -0.06367934238680498
            ]
        },
        {
            "positions": [
                0.24501720104620456,
                -1.3819340296274447,
                2.5942798063842423,
                2.0865098027832483,
                -0.8097073911292569,
                -0.11356035303545818
            ]
        },
        {
            "positions": [
                0.04908265288166369,
                -1.365741120106995,
                2.581128361483956,
                2.1420080000384356,
                -0.8543023766618423,
                -0.16344136368411138
            ]
        },
        {
            "positions": [
                -0.03853788866431297,
                -1.301955787728441,
                2.4982483216072997,
                2.143086835213925,
                -0.9788643766618493,
                -0.1484380524314903
            ]
        },
        {
            "positions": [
                -0.12615843021028963,
                -1.2381704553498867,
                2.415368281730643,
                2.144165670389414,
                -1.1034263766618564,
                -0.13343474117886925
            ]
        },
        {
            "positions": [
                -0.21377897175626626,
                -1.1743851229713325,
                2.3324882418539867,
                2.145244505564903,
                -1.2279883766618636,
                -0.11843142992624818
            ]
        },
        {
            "positions": [
                -0.30139951330224296,
                -1.110599790592778,
                2.24960820197733,
                2.1463233407403925,
                -1.3525503766618705,
                -0.10342811867362711
            ]
        },
        {
            "positions": [
                -0.3890200548482196,
                -1.0468144582142238,
                2.1667281621006733,
                2.1474021759158815,
                -1.4771123766618777,
                -0.08842480742100604
            ]
        },
        {
            "positions": [
                -0.4766405963941962,
                -0.9830291258356696,
                2.083848122224017,
                2.148481011091371,
                -1.6016743766618848,
                -0.07342149616838498
            ]
        },
        {
            "positions": [
                -0.564261137940173,
                -0.9192437934571154,
                2.0009680823473603,
                2.1495598462668597,
                -1.726236376661892,
                -0.05841818491576389
            ]
        },
        {
            "positions": [
                -0.6518816794861496,
                -0.8554584610785612,
                1.9180880424707039,
                2.150638681442349,
                -1.850798376661899,
                -0.043414873663142825
            ]
        },
        {
            "positions": [
                -0.7395022210321263,
                -0.7916731287000068,
                1.8352080025940474,
                2.1517175166178384,
                -1.9753603766619061,
                -0.028411562410521757
            ]
        },
        {
            "positions": [
                -0.8271227625781029,
                -0.7278877963214526,
                1.7523279627173909,
                2.1527963517933273,
                -2.099922376661913,
                -0.013408251157900702
            ]
        },
        {
            "positions": [
                -0.9147433041240796,
                -0.6641024639428984,
                1.6694479228407342,
                2.1538751869688166,
                -2.2244843766619202,
                0.0015950600947203777
            ]
        }
    ]
}