{
    "goal": {
        "global_pose": {
            "orientation": {
                "w": 0.7047431468963623,
                "x": -0.7094548344612122,
                "y": 0.0024358443915843964,
                "z": -0.0022348060738295317
            },
            "position": {
                "x": 0.6094750761985779,
                "y": 0.3671506643295288,
                "z": 0.19426114857196808
            }
        },
        "name": "move_to_magneteinheit_A"
    },
    "id": "BFMT_move_to_magneteinheit_A_79",
    "joint_names": [
        "shoulder_pan_joint",
        "shoulder_lift_joint",
        "elbow_joint",
        "wrist_1_joint",
        "wrist_2_joint",
        "wrist_3_joint"
    ],
    "metrics": {
        "cart_traj_len": 3.219558837864768,
        "distance_elbow_joint": 3.9145041868594017,
        "distance_shoulder_lift_joint": 0.4656666710531894,
        "distance_shoulder_pan_joint": 3.368335717620162,
        "distance_wrist_1_joint": 4.0557008892298505,
        "distance_wrist_2_joint": 1.6869326475718343,
        "distance_wrist_3_joint": 1.3625742945076473,
        "smoothness": 0.3775103225332895,
        "time": 1.00359184,
        "traj_len": 3.854051687100484,
        "weighted_distance": 4.8292335346987585
    },
    "planner": "BFMT",
    "start": {
        "state": {
            "elbow_joint": -1.9196185241190666,
            "shoulder_lift_joint": -1.2443396400964142,
            "shoulder_pan_joint": 2.6996025414629847,
            "wrist_1_joint": -1.5485510000780065,
            "wrist_2_joint": -1.5709468930060704,
            "wrist_3_joint": 0.4420197071253992
        }
    },
    "waypoints": [
        {
            "positions": [
                2.6996025414629847,
                -1.2443396400964142,
                -1.9196185241190666,
                -1.5485510000780065,
                -1.5709468930060704,
                0.4420197071253992
            ]
        },
        {
            "positions": [
                2.606705293448988,
                -1.244018865711432,
                -1.8128174427977757,
                -1.4308078193728337,
                -1.5220232737841397,
                0.4137312197440994
            ]
        },
        {
            "positions": [
                2.5138080454349914,
                -1.2436980913264495,
                -1.706016361476485,
                -1.3130646386676612,
                -1.4730996545622088,
                0.38544273236279963
            ]
        },
        {
            "positions": [
                2.4209107974209947,
                -1.2433773169414672,
                -1.5992152801551942,
                -1.1953214579624885,
                -1.4241760353402781,
                0.35715424498149984
            ]
        },
        {
            "positions": [
                2.328013549406998,
                -1.2430565425564848,
                -1.4924141988339032,
                -1.0775782772573157,
                -1.3752524161183473,
                0.3288657576002001
            ]
        },
        {
            "positions": [
                2.2351163013930013,
                -1.2427357681715026,
                -1.3856131175126123,
                -0.9598350965521432,
                -1.3263287968964166,
                0.3005772702189003
            ]
        },
        {
            "positions": [
                2.1422190533790046,
                -1.2424149937865203,
                -1.2788120361913216,
                -0.8420919158469704,
                -1.2774051776744857,
                0.2722887828376005
            ]
        },
        {
            "positions": [
                2.049321805365008,
                -1.2420942194015379,
                -1.1720109548700308,
                -0.7243487351417978,
                -1.228481558452555,
                0.24400029545630073
            ]
        },
        {
            "positions": [
                1.9564245573510113,
                -1.2417734450165556,
                -1.0652098735487399,
                -0.6066055544366251,
                -1.1795579392306241,
                0.21571180807500095
            ]
        },
        {
            "positions": [
                1.8635273093370146,
                -1.2414526706315734,
                -0.958408792227449,
                -0.48886237373145236,
                -1.1306343200086935,
                0.18742332069370116
            ]
        },
        {
            "positions": [
                1.770630061323018,
                -1.241131896246591,
                -0.8516077109061582,
                -0.3711191930262798,
                -1.0817107007867626,
                0.1591348333124014
            ]
        },
        {
            "positions": [
                1.677732813309021,
                -1.2408111218616087,
                -0.7448066295848674,
                -0.25337601232110707,
                -1.032787081564832,
                0.13084634593110162
            ]
        },
        {
            "positions": [
                1.5848355652950243,
                -1.2404903474766265,
                -0.6380055482635765,
                -0.1356328316159343,
                -0.9838634623429011,
                0.10255785854980182
            ]
        },
        {
            "positions": [
                1.4919383172810277,
                -1.240169573091644,
                -0.5312044669422855,
                -0.01788965091076178,
                -0.9349398431209703,
                0.07426937116850207
            ]
        },
        {
            "positions": [
                1.399041069267031,
                -1.2398487987066618,
                -0.4244033856209948,
                0.09985352979441098,
                -0.8860162238990396,
                0.045980883787202276
            ]
        },
        {
            "positions": [
                1.3061438212530343,
                -1.2395280243216793,
                -0.31760230429970404,
                0.2175967104995835,
                -0.8370926046771088,
                0.017692396405902533
            ]
        },
        {
            "positions": [
                1.2132465732390376,
                -1.239207249936697,
                -0.21080122297841308,
                0.33533989120475627,
                -0.788168985455178,
                -0.010596090975397265
            ]
        },
        {
            "positions": [
                1.120349325225041,
                -1.2388864755517148,
                -0.10400014165712212,
                0.4530830719099288,
                -0.7392453662332472,
                -0.038884578356697064
            ]
        },
        {
            "positions": [
                1.0274520772110443,
                -1.2385657011667324,
                0.0028009396641686113,
                0.5708262526151018,
                -0.6903217470113164,
                -0.06717306573799686
            ]
        },
        {
            "positions": [
                0.9345548291970476,
                -1.2382449267817501,
                0.10960202098545935,
                0.6885694333202743,
                -0.6413981277893857,
                -0.0954615531192966
            ]
        },
        {
            "positions": [
                0.8416575811830509,
                -1.2379241523967677,
                0.2164031023067503,
                0.8063126140254468,
                -0.5924745085674549,
                -0.12375004050059635
            ]
        },
        {
            "positions": [
                0.7487603331690542,
                -1.2376033780117854,
                0.32320418362804126,
                0.9240557947306198,
                -0.5435508893455241,
                -0.1520385278818962
            ]
        },
        {
            "positions": [
                0.6558630851550573,
                -1.2372826036268032,
                0.4300052649493318,
                1.0417989754357924,
                -0.4946272701235934,
                -0.18032701526319594
            ]
        },
        {
            "positions": [
                0.5629658371410606,
                -1.2369618292418207,
                0.5368063462706227,
                1.159542156140965,
                -0.44570365090166253,
                -0.2086155026444957
            ]
        },
        {
            "positions": [
                0.47006858912706395,
                -1.2366410548568385,
                0.6436074275919137,
                1.2772853368461379,
                -0.39678003167973186,
                -0.23690399002579554
            ]
        },
        {
            "positions": [
                0.37717134111306727,
                -1.2363202804718563,
                0.7504085089132047,
                1.3950285175513104,
                -0.34785641245780097,
                -0.2651924774070953
            ]
        },
        {
            "positions": [
                0.2842740930990706,
                -1.2359995060868738,
                0.8572095902344956,
                1.512771698256483,
                -0.2989327932358703,
                -0.293480964788395
            ]
        },
        {
            "positions": [
                0.1913768450850739,
                -1.2356787317018916,
                0.9640106715557861,
                1.6305148789616555,
                -0.2500091740139394,
                -0.32176945216969477
            ]
        },
        {
            "positions": [
                0.09847959707107723,
                -1.2353579573169093,
                1.070811752877077,
                1.7482580596668285,
                -0.20108555479200874,
                -0.3500579395509946
            ]
        },
        {
            "positions": [
                0.005582349057080549,
                -1.2350371829319269,
                1.177612834198368,
                1.866001240372001,
                -0.15216193557007784,
                -0.37834642693229437
            ]
        },
        {
            "positions": [
                -0.08731489895691613,
                -1.2347164085469446,
                1.2844139155196586,
                1.9837444210771735,
                -0.10323831634814717,
                -0.4066349143135941
            ]
        },
        {
            "positions": [
                -0.1802121469709128,
                -1.2343956341619622,
                1.3912149968409495,
                2.1014876017823463,
                -0.05431469712621628,
                -0.43492340169489396
            ]
        },
        {
            "positions": [
                -0.27310939498490966,
                -1.23407485977698,
                1.4980160781622407,
                2.219230782487519,
                -0.005391077904285613,
                -0.4632118890761937
            ]
        },
        {
            "positions": [
                -0.20717209812286497,
                -1.1581745446546874,
                1.580827675591923,
                2.1712442647101313,
                -0.025620549982627097,
                -0.3869881060251846
            ]
        },
        {
            "positions": [
                -0.14123480126082028,
                -1.0822742295323948,
                1.6636392730216056,
                2.123257746932744,
                -0.04585002206096858,
                -0.31076432297417544
            ]
        },
        {
            "positions": [
                -0.07529750439877556,
                -1.0063739144101023,
                1.746450870451288,
                2.0752712291553563,
                -0.06607949413931007,
                -0.2345405399231663
            ]
        },
        {
            "positions": [
                -0.009360207536730891,
                -0.9304735992878099,
                1.8292624678809704,
                2.027284711377969,
                -0.08630896621765155,
                -0.15831675687215718
            ]
        },
        {
            "positions": [
                0.056577089325313856,
                -0.8545732841655174,
                1.912074065310653,
                1.9792981936005811,
                -0.10653843829599303,
                -0.08209297382114805
            ]
        },
        {
            "positions": [
                0.12251438618735856,
                -0.7786729690432248,
                1.9948856627403353,
                1.9313116758231936,
                -0.12676791037433452,
                -0.005869190770138914
            ]
        }
    ]
}