{
    "goal": {
        "global_pose": {
            "orientation": {
                "w": -0.00223480608172531,
                "x": 0.0024358444001904467,
                "y": 0.7094548369677653,
                "z": -0.704743149386269
            },
            "position": {
                "x": -0.37947507619857795,
                "y": -0.6371506643295288,
                "z": 0.19426114857196808
            }
        },
        "name": "move_to_magneteinheit_C"
    },
    "id": "BFMT_move_to_magneteinheit_C_42",
    "joint_names": [
        "shoulder_pan_joint",
        "shoulder_lift_joint",
        "elbow_joint",
        "wrist_1_joint",
        "wrist_2_joint",
        "wrist_3_joint"
    ],
    "metrics": {
        "cart_traj_len": 1.364215756626313,
        "distance_elbow_joint": 0.5495070995245763,
        "distance_shoulder_lift_joint": 0.968898468028011,
        "distance_shoulder_pan_joint": 1.566420528221035,
        "distance_wrist_1_joint": 0.7313842954054663,
        "distance_wrist_2_joint": 0.8012183799007914,
        "distance_wrist_3_joint": 0.08822530839210652,
        "smoothness": 1.397591026555832,
        "time": 0.855353003,
        "traj_len": 2.1692519631135494,
        "weighted_distance": 2.5327272596081993
    },
    "planner": "BFMT",
    "start": {
        "state": {
            "elbow_joint": 1.9565354010623817,
            "shoulder_lift_joint": -1.4165861575791021,
            "shoulder_pan_joint": -1.6717766225146293,
            "wrist_1_joint": -0.5286633292919765,
            "wrist_2_joint": 1.472756589071564,
            "wrist_3_joint": -3.1238370188695823
        }
    },
    "waypoints": [
        {
            "positions": [
                -1.6717766225146293,
                -1.4165861575791021,
                1.9565354010623817,
                -0.5286633292919765,
                1.472756589071564,
                -3.1238370188695823
            ]
        },
        {
            "positions": [
                -1.6080415452663275,
                -1.4761775140967295,
                2.006562071275841,
                -0.492404175815905,
                1.3456938781008956,
                -3.1345318806007305
            ]
        },
        {
            "positions": [
                -1.5443064680180254,
                -1.5357688706143566,
                2.0565887414893003,
                -0.4561450223398336,
                1.2186311671302272,
                -3.1452267423318783
            ]
        },
        {
            "positions": [
                -1.4805713907697235,
                -1.5953602271319838,
                2.1066154117027596,
                -0.41988586886376217,
                1.0915684561595587,
                -3.1559216040630265
            ]
        },
        {
            "positions": [
                -1.4168363135214217,
                -1.6549515836496111,
                2.1566420819162193,
                -0.3836267153876908,
                0.9645057451888903,
                -3.1666164657941747
            ]
        },
        {
            "positions": [
                -1.3531012362731196,
                -1.7145429401672385,
                2.2066687521296786,
                -0.3473675619116193,
                0.8374430342182219,
                -3.1773113275253224
            ]
        },
        {
            "positions": [
                -1.2893661590248178,
                -1.7741342966848657,
                2.256695422343138,
                -0.3111084084355479,
                0.7103803232475535,
                -3.1880061892564706
            ]
        },
        {
            "positions": [
                -1.458510453986421,
                -1.6867985354102588,
                2.2210744111654495,
                -0.3845126047996961,
                0.7048314498080134,
                -3.184569598112868
            ]
        },
        {
            "positions": [
                -1.6276547489480244,
                -1.5994627741356522,
                2.1854533999877606,
                -0.45791680116384437,
                0.6992825763684732,
                -3.1811330069692656
            ]
        },
        {
            "positions": [
                -1.796799043909628,
                -1.5121270128610453,
                2.149832388810072,
                -0.5313209975279927,
                0.6937337029289331,
                -3.177696415825663
            ]
        },
        {
            "positions": [
                -1.9659433388712313,
                -1.4247912515864385,
                2.1142113776323836,
                -0.6047251938921409,
                0.688184829489393,
                -3.17425982468206
            ]
        },
        {
            "positions": [
                -2.1350876338328346,
                -1.3374554903118319,
                2.078590366454695,
                -0.6781293902562892,
                0.6826359560498528,
                -3.1708232335384574
            ]
        },
        {
            "positions": [
                -2.304231928794438,
                -1.250119729037225,
                2.0429693552770063,
                -0.7515335866204373,
                0.6770870826103127,
                -3.167386642394855
            ]
        },
        {
            "positions": [
                -2.4733762237560413,
                -1.1627839677626182,
                2.007348344099318,
                -0.8249377829845856,
                0.6715382091707726,
                -3.1639500512512524
            ]
        }
    ]
}