{
    "goal": {
        "global_pose": {
            "orientation": {
                "w": 0.7031023480610252,
                "x": -0.7110244013736278,
                "y": 0.0077485991402295624,
                "z": 0.005598929693374583
            },
            "position": {
                "x": -0.8841497679147869,
                "y": 0.44412534475326537,
                "z": 0.3711530566215515
            }
        },
        "name": "move_to_auspresseinheit_D"
    },
    "id": "BFMT_move_to_auspresseinheit_D_59",
    "joint_names": [
        "shoulder_pan_joint",
        "shoulder_lift_joint",
        "elbow_joint",
        "wrist_1_joint",
        "wrist_2_joint",
        "wrist_3_joint"
    ],
    "metrics": {
        "cart_traj_len": 0.34329963789197676,
        "distance_elbow_joint": 0.6383187500418899,
        "distance_shoulder_lift_joint": 0.12094914791128408,
        "distance_shoulder_pan_joint": 0.13383964037637933,
        "distance_wrist_1_joint": 0.5306237505139477,
        "distance_wrist_2_joint": 1.4366550027724645,
        "distance_wrist_3_joint": 0.0008394362506578545,
        "smoothness": 3.9474596431116675e-16,
        "time": 0.4668082,
        "traj_len": 1.6915158077495533,
        "weighted_distance": 2.197767811588465
    },
    "planner": "BFMT",
    "start": {
        "state": {
            "elbow_joint": -1.8275523626775212,
            "shoulder_lift_joint": -2.126789852344167,
            "shoulder_pan_joint": -0.03513704404078235,
            "wrist_1_joint": -2.347782403156801,
            "wrist_2_joint": -1.6058999987535132,
            "wrist_3_joint": -3.0880379163319196
        }
    },
    "waypoints": [
        {
            "positions": [
                -0.03513704404078235,
                -2.126789852344167,
                -1.8275523626775212,
                -2.347782403156801,
                -1.6058999987535132,
                -3.0880379163319196
            ]
        },
        {
            "positions": [
                -0.05186699908782977,
                -2.141908495833077,
                -1.747762518922285,
                -2.414110371971044,
                -1.426318123406955,
                -3.0879329868005874
            ]
        },
        {
            "positions": [
                -0.06859695413487718,
                -2.157027139321988,
                -1.6679726751670487,
                -2.480438340785288,
                -1.246736248060397,
                -3.087828057269255
            ]
        },
        {
            "positions": [
                -0.08532690918192459,
                -2.1721457828108983,
                -1.5881828314118125,
                -2.546766309599531,
                -1.067154372713839,
                -3.087723127737923
            ]
        },
        {
            "positions": [
                -0.102056864228972,
                -2.1872644262998087,
                -1.5083929876565763,
                -2.613094278413775,
                -0.8875724973672809,
                -3.0876181982065907
            ]
        },
        {
            "positions": [
                -0.11878681927601942,
                -2.2023830697887194,
                -1.42860314390134,
                -2.6794222472280183,
                -0.7079906220207228,
                -3.0875132686752584
            ]
        },
        {
            "positions": [
                -0.13551677432306686,
                -2.21750171327763,
                -1.3488133001461038,
                -2.7457502160422615,
                -0.5284087466741649,
                -3.087408339143926
            ]
        },
        {
            "positions": [
                -0.15224672937011427,
                -2.2326203567665406,
                -1.2690234563908676,
                -2.8120781848565053,
                -0.3488268713276068,
                -3.087303409612594
            ]
        },
        {
            "positions": [
                -0.16897668441716168,
                -2.247739000255451,
                -1.1892336126356313,
                -2.8784061536707486,
                -0.16924499598104858,
                -3.0871984800812617
            ]
        }
    ]
}