{
    "goal": {
        "global_pose": {
            "orientation": {
                "w": 0.5084816217422485,
                "x": -0.49083608388900757,
                "y": 0.5182115435600281,
                "z": -0.4816462993621826
            },
            "position": {
                "x": 0.5540239810943604,
                "y": 0.030875300988554955,
                "z": 0.16403168439865112
            }
        },
        "name": "move_to_storage_A"
    },
    "id": "BFMT_move_to_storage_A_108",
    "joint_names": [
        "shoulder_pan_joint",
        "shoulder_lift_joint",
        "elbow_joint",
        "wrist_1_joint",
        "wrist_2_joint",
        "wrist_3_joint"
    ],
    "metrics": {
        "cart_traj_len": 0.3526538071754913,
        "distance_elbow_joint": 0.44890855337807545,
        "distance_shoulder_lift_joint": 0.23343341599623546,
        "distance_shoulder_pan_joint": 0.45815795488569855,
        "distance_wrist_1_joint": 0.23776072270255455,
        "distance_wrist_2_joint": 1.1105339143038906,
        "distance_wrist_3_joint": 0.0996655194772802,
        "smoothness": 2.2204460668324854e-16,
        "time": 0.501182252,
        "traj_len": 1.6088691931738064,
        "weighted_distance": 2.0337368946608456
    },
    "planner": "BFMT",
    "start": {
        "state": {
            "elbow_joint": 1.971548259319323,
            "shoulder_lift_joint": -1.1394851275133948,
            "shoulder_pan_joint": 0.1228115487234821,
            "wrist_1_joint": -0.7804723859257726,
            "wrist_2_joint": 0.12958671773740124,
            "wrist_3_joint": -3.192489227718131
        }
    },
    "waypoints": [
        {
            "positions": [
                0.1228115487234821,
                -1.1394851275133948,
                1.971548259319323,
                -0.7804723859257726,
                0.12958671773740124,
                -3.192489227718131
            ]
        },
        {
            "positions": [
                0.05736041231123945,
                -1.1728327583699998,
                2.035678052659048,
                -0.814438203454709,
                0.2882344197808142,
                -3.178251296364234
            ]
        },
        {
            "positions": [
                -0.0080907241010032,
                -1.206180389226605,
                2.099807845998773,
                -0.8484040209836453,
                0.44688212182422715,
                -3.164013365010337
            ]
        },
        {
            "positions": [
                -0.07354186051324585,
                -1.23952802008321,
                2.1639376393384984,
                -0.8823698385125817,
                0.6055298238676401,
                -3.1497754336564396
            ]
        },
        {
            "positions": [
                -0.1389929969254885,
                -1.2728756509398151,
                2.2280674326782233,
                -0.9163356560415181,
                0.764177525911053,
                -3.1355375023025425
            ]
        },
        {
            "positions": [
                -0.20444413333773115,
                -1.30622328179642,
                2.292197226017948,
                -0.9503014735704545,
                0.922825227954466,
                -3.1212995709486453
            ]
        },
        {
            "positions": [
                -0.2698952697499738,
                -1.3395709126530253,
                2.3563270193576735,
                -0.9842672910993908,
                1.081472929997879,
                -3.107061639594748
            ]
        },
        {
            "positions": [
                -0.33534640616221645,
                -1.3729185435096303,
                2.4204568126973984,
                -1.0182331086283272,
                1.2401206320412919,
                -3.092823708240851
            ]
        }
    ]
}{
    "goal": {
        "global_pose": {
            "orientation": {
                "w": 0.5084816217422485,
                "x": -0.49083608388900757,
                "y": 0.5182115435600281,
                "z": -0.4816462993621826
            },
            "position": {
                "x": 0.5540239810943604,
                "y": 0.030875300988554955,
                "z": 0.16403168439865112
            }
        },
        "name": "move_to_storage_A"
    },
    "id": "BFMT_move_to_storage_A_108",
    "joint_names": [
        "shoulder_pan_joint",
        "shoulder_lift_joint",
        "elbow_joint",
        "wrist_1_joint",
        "wrist_2_joint",
        "wrist_3_joint"
    ],
    "metrics": {
        "cart_traj_len": 0.35281301982262786,
        "distance_elbow_joint": 0.4516142235437801,
        "distance_shoulder_lift_joint": 0.23308254739594036,
        "distance_shoulder_pan_joint": 0.45979197321794724,
        "distance_wrist_1_joint": 0.2579520623233551,
        "distance_wrist_2_joint": 1.1039652531315962,
        "distance_wrist_3_joint": 0.09970879182516379,
        "smoothness": 8.881784232165597e-16,
        "time": 0.5345164680000001,
        "traj_len": 1.6143465710428424,
        "weighted_distance": 2.041433258899997
    },
    "planner": "BFMT",
    "start": {
        "state": {
            "elbow_joint": 1.97154746011099,
            "shoulder_lift_joint": -1.13948474672311,
            "shoulder_pan_joint": 0.12281154466712228,
            "wrist_1_joint": -0.7804688027058302,
            "wrist_2_joint": 0.12958655903071145,
            "wrist_3_joint": 3.0906928834467795
        }
    },
    "waypoints": [
        {
            "positions": [
                0.12281154466712228,
                -1.13948474672311,
                1.97154746011099,
                -0.7804688027058302,
                0.12958655903071145,
                3.0906928834467795
            ]
        },
        {
            "positions": [
                0.057126977064558396,
                -1.1727822534939585,
                2.036063777760101,
                -0.8173190973234523,
                0.28729588090665376,
                3.10493699656466
            ]
        },
        {
            "positions": [
                -0.008557590538005491,
                -1.2060797602648072,
                2.100580095409213,
                -0.8541693919410744,
                0.44500520278259603,
                3.1191811096825406
            ]
        },
        {
            "positions": [
                -0.07424215814056938,
                -1.2393772670356558,
                2.165096413058324,
                -0.8910196865586967,
                0.6027145246585384,
                3.133425222800421
            ]
        },
        {
            "positions": [
                -0.13992672574313325,
                -1.2726747738065045,
                2.229612730707436,
                -0.9278699811763188,
                0.7604238465344807,
                3.1476693359183017
            ]
        },
        {
            "positions": [
                -0.20561129334569717,
                -1.305972280577353,
                2.294129048356547,
                -0.964720275793941,
                0.918133168410423,
                3.161913449036182
            ]
        },
        {
            "positions": [
                -0.271295860948261,
                -1.3392697873482016,
                2.3586453660056588,
                -1.0015705704115632,
                1.0758424902863652,
                3.1761575621540628
            ]
        },
        {
            "positions": [
                -0.33698042855082494,
                -1.3725672941190503,
                2.42316168365477,
                -1.0384208650291853,
                1.2335518121623077,
                3.1904016752719433
            ]
        }
    ]
}{
    "goal": {
        "global_pose": {
            "orientation": {
                "w": 0.5084816217422485,
                "x": -0.49083608388900757,
                "y": 0.5182115435600281,
                "z": -0.4816462993621826
            },
            "position": {
                "x": 0.5540239810943604,
                "y": 0.030875300988554955,
                "z": 0.16403168439865112
            }
        },
        "name": "move_to_storage_A"
    },
    "id": "BFMT_move_to_storage_A_108",
    "joint_names": [
        "shoulder_pan_joint",
        "shoulder_lift_joint",
        "elbow_joint",
        "wrist_1_joint",
        "wrist_2_joint",
        "wrist_3_joint"
    ],
    "metrics": {
        "cart_traj_len": 0.35323340399840963,
        "distance_elbow_joint": 0.4512388485033867,
        "distance_shoulder_lift_joint": 0.23413126004091112,
        "distance_shoulder_pan_joint": 0.46380887226076467,
        "distance_wrist_1_joint": 0.24573626954366867,
        "distance_wrist_2_joint": 1.0911515792383277,
        "distance_wrist_3_joint": 0.09492863863937817,
        "smoothness": 6.661338165333112e-16,
        "time": 0.498679231,
        "traj_len": 1.6065476862597128,
        "weighted_distance": 2.0267561753420638
    },
    "planner": "BFMT",
    "start": {
        "state": {
            "elbow_joint": 1.9715472970024885,
            "shoulder_lift_joint": -1.1394870060712896,
            "shoulder_pan_joint": 0.12281152778156021,
            "wrist_1_joint": -0.780463741449964,
            "wrist_2_joint": 0.12958659822042276,
            "wrist_3_joint": 3.090690232415272
        }
    },
    "waypoints": [
        {
            "positions": [
                0.12281152778156021,
                -1.1394870060712896,
                1.9715472970024885,
                -0.780463741449964,
                0.12958659822042276,
                3.090690232415272
            ]
        },
        {
            "positions": [
                0.05655311745859384,
                -1.1729343289342768,
                2.0360099896458297,
                -0.8155689228133453,
                0.28546539525446957,
                3.1042514665066117
            ]
        },
        {
            "positions": [
                -0.009705292864372522,
                -1.2063816517972643,
                2.1004726822891704,
                -0.8506741041767265,
                0.4413441922885164,
                3.1178127005979515
            ]
        },
        {
            "positions": [
                -0.07596370318733889,
                -1.2398289746602515,
                2.1649353749325115,
                -0.8857792855401077,
                0.5972229893225632,
                3.1313739346892913
            ]
        },
        {
            "positions": [
                -0.14222211351030525,
                -1.2732762975232388,
                2.2293980675758522,
                -0.9208844669034889,
                0.75310178635661,
                3.1449351687806306
            ]
        },
        {
            "positions": [
                -0.20848052383327167,
                -1.3067236203862262,
                2.2938607602191934,
                -0.9559896482668702,
                0.9089805833906568,
                3.1584964028719704
            ]
        },
        {
            "positions": [
                -0.27473893415623796,
                -1.3401709432492135,
                2.358323452862534,
                -0.9910948296302514,
                1.0648593804247037,
                3.1720576369633102
            ]
        },
        {
            "positions": [
                -0.34099734447920443,
                -1.3736182661122007,
                2.4227861455058752,
                -1.0262000109936327,
                1.2207381774587505,
                3.18561887105465
            ]
        }
    ]
}