{
    "goal": {
        "global_pose": {
            "orientation": {
                "w": -0.4816463035849501,
                "x": 0.5182115481033762,
                "y": 0.4908360881923453,
                "z": -0.5084816262002911
            },
            "position": {
                "x": -0.8240239810943604,
                "y": 0.19912469901144506,
                "z": 0.16403168439865112
            }
        },
        "name": "move_to_storage_D"
    },
    "id": "BFMT_move_to_storage_D_146",
    "joint_names": [
        "shoulder_pan_joint",
        "shoulder_lift_joint",
        "elbow_joint",
        "wrist_1_joint",
        "wrist_2_joint",
        "wrist_3_joint"
    ],
    "metrics": {
        "cart_traj_len": 4.020550100407939,
        "distance_elbow_joint": 4.209912544367534,
        "distance_shoulder_lift_joint": 1.2642258492772742,
        "distance_shoulder_pan_joint": 2.8112081997219343,
        "distance_wrist_1_joint": 2.2650038755183637,
        "distance_wrist_2_joint": 0.8691864321712877,
        "distance_wrist_3_joint": 3.1352390461011765,
        "smoothness": 3.1883328020483823e-16,
        "time": 0.8991967420000001,
        "traj_len": 3.815072207332067,
        "weighted_distance": 4.8948385414689195
    },
    "planner": "BFMT",
    "start": {
        "state": {
            "elbow_joint": -2.384821988534728,
            "shoulder_lift_joint": -2.2788054721415256,
            "shoulder_pan_joint": -0.1854694642142757,
            "wrist_1_joint": 1.4845938289331202,
            "wrist_2_joint": 0.17898776772866878,
            "wrist_3_joint": 0.037105688729662994
        }
    },
    "waypoints": [
        {
            "positions": [
                -0.1854694642142757,
                -2.2788054721415256,
                -2.384821988534728,
                1.4845938289331202,
                0.17898776772866878,
                0.037105688729662994
            ]
        },
        {
            "positions": [
                -0.05016827362372492,
                -2.2486780343911645,
                -2.377302313579361,
                1.4496467912518145,
                0.2083273399487232,
                0.14010472277307998
            ]
        },
        {
            "positions": [
                0.08513291696682587,
                -2.218550596640804,
                -2.369782638623994,
                1.4146997535705088,
                0.23766691216877767,
                0.24310375681649696
            ]
        },
        {
            "positions": [
                0.22043410755737666,
                -2.188423158890443,
                -2.362262963668627,
                1.379752715889203,
                0.2670064843888321,
                0.3461027908599139
            ]
        },
        {
            "positions": [
                0.3557352981479275,
                -2.1582957211400817,
                -2.35474328871326,
                1.3448056782078972,
                0.2963460566088865,
                0.44910182490333095
            ]
        },
        {
            "positions": [
                0.43634254683568185,
                -2.123746421975117,
                -2.254820272481354,
                1.2873305585788595,
                0.32227894467611906,
                0.5389626678539005
            ]
        },
        {
            "positions": [
                0.5169497955234363,
                -2.0891971228101522,
                -2.1548972562494484,
                1.2298554389498217,
                0.34821183274335166,
                0.62882351080447
            ]
        },
        {
            "positions": [
                0.5975570442111907,
                -2.0546478236451877,
                -2.0549742400175424,
                1.172380319320784,
                0.3741447208105842,
                0.7186843537550395
            ]
        },
        {
            "positions": [
                0.6781642928989451,
                -2.0200985244802228,
                -1.9550512237856363,
                1.1149051996917463,
                0.40007760887781674,
                0.808545196705609
            ]
        },
        {
            "positions": [
                0.7587715415866995,
                -1.985549225315258,
                -1.8551282075537303,
                1.0574300800627086,
                0.42601049694504933,
                0.8984060396561786
            ]
        },
        {
            "positions": [
                0.8393787902744538,
                -1.9509999261502933,
                -1.7552051913218245,
                0.9999549604336708,
                0.4519433850122819,
                0.988266882606748
            ]
        },
        {
            "positions": [
                0.9199860389622083,
                -1.9164506269853285,
                -1.6552821750899187,
                0.9424798408046331,
                0.4778762730795144,
                1.0781277255573176
            ]
        },
        {
            "positions": [
                1.0005932876499628,
                -1.8819013278203638,
                -1.5553591588580127,
                0.8850047211755954,
                0.503809161146747,
                1.1679885685078872
            ]
        },
        {
            "positions": [
                1.081200536337717,
                -1.8473520286553993,
                -1.4554361426261067,
                0.8275296015465576,
                0.5297420492139795,
                1.2578494114584566
            ]
        },
        {
            "positions": [
                1.1618077850254713,
                -1.8128027294904343,
                -1.3555131263942006,
                0.7700544819175199,
                0.5556749372812121,
                1.347710254409026
            ]
        },
        {
            "positions": [
                1.2424150337132258,
                -1.7782534303254698,
                -1.2555901101622948,
                0.7125793622884822,
                0.5816078253484447,
                1.4375710973595957
            ]
        },
        {
            "positions": [
                1.3230222824009803,
                -1.7437041311605048,
                -1.155667093930389,
                0.6551042426594443,
                0.6075407134156772,
                1.527431940310165
            ]
        },
        {
            "positions": [
                1.4036295310887348,
                -1.7091548319955403,
                -1.055744077698483,
                0.5976291230304066,
                0.6334736014829098,
                1.6172927832607347
            ]
        },
        {
            "positions": [
                1.4842367797764893,
                -1.6746055328305756,
                -0.9558210614665772,
                0.5401540034013689,
                0.6594064895501424,
                1.707153626211304
            ]
        },
        {
            "positions": [
                1.5648440284642438,
                -1.6400562336656108,
                -0.855898045234671,
                0.48267888377233115,
                0.6853393776173748,
                1.797014469161874
            ]
        },
        {
            "positions": [
                1.6454512771519978,
                -1.6055069345006459,
                -0.7559750290027654,
                0.4252037641432934,
                0.7112722656846074,
                1.8868753121124433
            ]
        },
        {
            "positions": [
                1.7260585258397523,
                -1.5709576353356813,
                -0.6560520127708591,
                0.3677286445142556,
                0.73720515375184,
                1.976736155063013
            ]
        },
        {
            "positions": [
                1.8066657745275068,
                -1.5364083361707166,
                -0.5561289965389533,
                0.31025352488521807,
                0.7631380418190725,
                2.0665969980135825
            ]
        },
        {
            "positions": [
                1.8872730232152612,
                -1.5018590370057519,
                -0.4562059803070473,
                0.2527784052561801,
                0.7890709298863052,
                2.156457840964152
            ]
        },
        {
            "positions": [
                1.9678802719030153,
                -1.467309737840787,
                -0.3562829640751415,
                0.1953032856271426,
                0.8150038179535377,
                2.2463186839147213
            ]
        },
        {
            "positions": [
                2.0484875205907698,
                -1.4327604386758224,
                -0.2563599478432357,
                0.13782816599810466,
                0.8409367060207702,
                2.336179526865291
            ]
        },
        {
            "positions": [
                2.1290947692785243,
                -1.3982111395108576,
                -0.15643693161132965,
                0.08035304636906715,
                0.8668695940880027,
                2.42604036981586
            ]
        },
        {
            "positions": [
                2.2097020179662787,
                -1.3636618403458929,
                -0.05651391537942363,
                0.022877926740029197,
                0.8928024821552354,
                2.5159012127664298
            ]
        },
        {
            "positions": [
                2.2903092666540332,
                -1.3291125411809281,
                0.04340910085248195,
                -0.03459719288900853,
                0.9187353702224679,
                2.6057620557169994
            ]
        },
        {
            "positions": [
                2.3709165153417873,
                -1.2945632420159634,
                0.14333211708438798,
                -0.09207231251804626,
                0.9446682582897006,
                2.695622898667569
            ]
        },
        {
            "positions": [
                2.4515237640295418,
                -1.2600139428509987,
                0.243255133316294,
                -0.149547432147084,
                0.9706011463569331,
                2.7854837416181386
            ]
        },
        {
            "positions": [
                2.5321310127172962,
                -1.225464643686034,
                0.3431781495482,
                -0.20702255177612167,
                0.9965340344241655,
                2.8753445845687082
            ]
        },
        {
            "positions": [
                2.545503544544491,
                -1.195338212140065,
                0.5548799218745721,
                -0.2889350510345675,
                1.0039112009207072,
                2.9177731774632982
            ]
        },
        {
            "positions": [
                2.5588760763716856,
                -1.165211780594096,
                0.7665816942009445,
                -0.3708475502930134,
                1.0112883674172486,
                2.9602017703578887
            ]
        },
        {
            "positions": [
                2.5722486081988802,
                -1.1350853490481272,
                0.9782834665273166,
                -0.45276004955145926,
                1.0186655339137902,
                3.0026303632524787
            ]
        },
        {
            "positions": [
                2.5856211400260745,
                -1.1049589175021581,
                1.189985238853689,
                -0.5346725488099051,
                1.0260427004103319,
                3.045058956147069
            ]
        },
        {
            "positions": [
                2.598993671853269,
                -1.0748324859561893,
                1.4016870111800612,
                -0.616585048068351,
                1.0334198669068735,
                3.087487549041659
            ]
        },
        {
            "positions": [
                2.612366203680464,
                -1.0447060544102205,
                1.6133887835064333,
                -0.6984975473267969,
                1.040797033403415,
                3.129916141936249
            ]
        },
        {
            "positions": [
                2.6257387355076585,
                -1.0145796228642514,
                1.8250905558328057,
                -0.7804100465852428,
                1.0481741998999565,
                3.1723447348308396
            ]
        }
    ]
}