{
    "goal": {
        "global_pose": {
            "orientation": {
                "w": 0.7047431493862688,
                "x": -0.7094548369677653,
                "y": 0.0024358444001904,
                "z": -0.0022348060817251984
            },
            "position": {
                "x": -0.39052492380142206,
                "y": 0.3671506643295288,
                "z": 0.19426114857196808
            }
        },
        "name": "move_to_magneteinheit_D"
    },
    "id": "BFMT_move_to_magneteinheit_D_63",
    "joint_names": [
        "shoulder_pan_joint",
        "shoulder_lift_joint",
        "elbow_joint",
        "wrist_1_joint",
        "wrist_2_joint",
        "wrist_3_joint"
    ],
    "metrics": {
        "cart_traj_len": 7.686049551534145,
        "distance_elbow_joint": 11.186676766468993,
        "distance_shoulder_lift_joint": 1.6164433586847733,
        "distance_shoulder_pan_joint": 9.473619159015428,
        "distance_wrist_1_joint": 4.304611249409092,
        "distance_wrist_2_joint": 4.191900061820092,
        "distance_wrist_3_joint": 6.2789490817709215,
        "smoothness": 0.42124984194183274,
        "time": 1.368200572,
        "traj_len": 6.087051805034133,
        "weighted_distance": 7.622769126238863
    },
    "planner": "BFMT",
    "start": {
        "state": {
            "elbow_joint": 0.749534889911806,
            "shoulder_lift_joint": -0.6476975780787326,
            "shoulder_pan_joint": -2.711696901376241,
            "wrist_1_joint": -0.07506478083263063,
            "wrist_2_joint": 0.43296659715538205,
            "wrist_3_joint": -3.14703540197715
        }
    },
    "waypoints": [
        {
            "positions": [
                -2.711696901376241,
                -0.6476975780787326,
                0.749534889911806,
                -0.07506478083263063,
                0.43296659715538205,
                -3.14703540197715
            ]
        },
        {
            "positions": [
                -2.7452401070344288,
                -0.6869127971391359,
                0.6655270664421152,
                -0.08197095038125214,
                0.33100357739465,
                -3.1337819690158675
            ]
        },
        {
            "positions": [
                -2.7787833126926165,
                -0.7261280161995392,
                0.5815192429724245,
                -0.08887711992987365,
                0.22904055763391787,
                -3.1205285360545845
            ]
        },
        {
            "positions": [
                -2.679628626303085,
                -0.7412636272045535,
                0.4660289062549977,
                -0.10645682973145759,
                0.17879749705732612,
                -3.04043816751689
            ]
        },
        {
            "positions": [
                -2.5804739399135532,
                -0.7563992382095678,
                0.35053856953757084,
                -0.12403653953304151,
                0.12855443648073436,
                -2.9603477989791958
            ]
        },
        {
            "positions": [
                -2.481319253524022,
                -0.7715348492145822,
                0.23504823282014398,
                -0.14161624933462544,
                0.07831137590414261,
                -2.8802574304415014
            ]
        },
        {
            "positions": [
                -2.3821645671344904,
                -0.7866704602195964,
                0.11955789610271716,
                -0.15919595913620938,
                0.028068315327550858,
                -2.8001670619038075
            ]
        },
        {
            "positions": [
                -2.283009880744959,
                -0.8018060712246108,
                0.0040675593852903535,
                -0.1767756689377933,
                -0.022174745249040922,
                -2.720076693366113
            ]
        },
        {
            "positions": [
                -2.183855194355427,
                -0.8169416822296252,
                -0.11142277733213657,
                -0.19435537873937725,
                -0.07241780582563265,
                -2.6399863248284188
            ]
        },
        {
            "positions": [
                -2.084700507965896,
                -0.8320772932346394,
                -0.22691311404956338,
                -0.21193508854096116,
                -0.12266086640222437,
                -2.5598959562907244
            ]
        },
        {
            "positions": [
                -1.9855458215763644,
                -0.8472129042396538,
                -0.3424034507669902,
                -0.2295147983425451,
                -0.17290392697881615,
                -2.47980558775303
            ]
        },
        {
            "positions": [
                -1.8863911351868328,
                -0.8623485152446682,
                -0.4578937874844171,
                -0.24709450814412903,
                -0.22314698755540793,
                -2.3997152192153357
            ]
        },
        {
            "positions": [
                -1.7872364487973011,
                -0.8774841262496824,
                -0.5733841242018438,
                -0.264674217945713,
                -0.27339004813199974,
                -2.3196248506776413
            ]
        },
        {
            "positions": [
                -1.6880817624077697,
                -0.8926197372546968,
                -0.6888744609192707,
                -0.28225392774729685,
                -0.3236331087085914,
                -2.2395344821399474
            ]
        },
        {
            "positions": [
                -1.5889270760182381,
                -0.9077553482597112,
                -0.8043647976366977,
                -0.2998336375488808,
                -0.3738761692851832,
                -2.1594441136022526
            ]
        },
        {
            "positions": [
                -1.4897723896287067,
                -0.9228909592647254,
                -0.9198551343541244,
                -0.3174133473504648,
                -0.42411922986177497,
                -2.0793537450645587
            ]
        },
        {
            "positions": [
                -1.390617703239175,
                -0.9380265702697398,
                -1.0353454710715513,
                -0.33499305715204863,
                -0.47436229043836664,
                -1.9992633765268644
            ]
        },
        {
            "positions": [
                -1.2914630168496437,
                -0.9531621812747542,
                -1.150835807788978,
                -0.3525727669536326,
                -0.5246053510149584,
                -1.91917300798917
            ]
        },
        {
            "positions": [
                -1.192308330460112,
                -0.9682977922797684,
                -1.266326144506405,
                -0.37015247675521656,
                -0.5748484115915502,
                -1.8390826394514757
            ]
        },
        {
            "positions": [
                -1.0846733106156559,
                -0.9935624949750687,
                -1.1678832723877048,
                -0.44104885035206537,
                -0.5312378989959115,
                -1.7971467039693276
            ]
        },
        {
            "positions": [
                -0.9770382907711996,
                -1.018827197670369,
                -1.0694404002690048,
                -0.5119452239489142,
                -0.48762738640027276,
                -1.7552107684871794
            ]
        },
        {
            "positions": [
                -0.8694032709267434,
                -1.044091900365669,
                -0.9709975281503047,
                -0.582841597545763,
                -0.44401687380463406,
                -1.7132748330050314
            ]
        },
        {
            "positions": [
                -0.7617682510822872,
                -1.0693566030609691,
                -0.8725546560316045,
                -0.6537379711426119,
                -0.4004063612089953,
                -1.6713388975228831
            ]
        },
        {
            "positions": [
                -0.654133231237831,
                -1.0946213057562695,
                -0.7741117839129045,
                -0.7246343447394606,
                -0.3567958486133566,
                -1.629402962040735
            ]
        },
        {
            "positions": [
                -0.5464982113933748,
                -1.1198860084515696,
                -0.6756689117942044,
                -0.7955307183363094,
                -0.3131853360177179,
                -1.587467026558587
            ]
        },
        {
            "positions": [
                -0.4388631915489185,
                -1.14515071114687,
                -0.5772260396755042,
                -0.8664270919331583,
                -0.26957482342207917,
                -1.5455310910764388
            ]
        },
        {
            "positions": [
                -0.3312281717044623,
                -1.17041541384217,
                -0.47878316755680417,
                -0.9373234655300071,
                -0.22596431082644042,
                -1.5035951555942908
            ]
        },
        {
            "positions": [
                -0.22359315186000606,
                -1.1956801165374702,
                -0.3803402954381041,
                -1.008219839126856,
                -0.18235379823080172,
                -1.4616592201121428
            ]
        },
        {
            "positions": [
                -0.11595813201554983,
                -1.2209448192327705,
                -0.28189742331940404,
                -1.0791162127237048,
                -0.13874328563516303,
                -1.4197232846299945
            ]
        },
        {
            "positions": [
                -0.008323112171093605,
                -1.2462095219280707,
                -0.18345455120070375,
                -1.1500125863205537,
                -0.09513277303952428,
                -1.3777873491478465
            ]
        },
        {
            "positions": [
                0.0993119076733624,
                -1.2714742246233708,
                -0.08501167908200391,
                -1.2209089599174023,
                -0.05152226044388564,
                -1.3358514136656985
            ]
        },
        {
            "positions": [
                0.20694692751781885,
                -1.2967389273186711,
                0.013431193036696376,
                -1.2918053335142512,
                -0.007911747848246886,
                -1.2939154781835502
            ]
        },
        {
            "positions": [
                0.31458194736227507,
                -1.3220036300139713,
                0.11187406515539644,
                -1.3627017071111,
                0.035698764747391865,
                -1.251979542701402
            ]
        },
        {
            "positions": [
                0.4222169672067311,
                -1.3472683327092714,
                0.2103169372740965,
                -1.4335980807079487,
                0.0793092773430305,
                -1.2100436072192542
            ]
        },
        {
            "positions": [
                0.5298519870511875,
                -1.3725330354045717,
                0.30875980939279657,
                -1.5044944543047976,
                0.12291978993866937,
                -1.168107671737106
            ]
        },
        {
            "positions": [
                0.6374870068956435,
                -1.3977977380998718,
                0.40720268151149663,
                -1.5753908279016464,
                0.166530302534308,
                -1.126171736254958
            ]
        },
        {
            "positions": [
                0.7451220267401,
                -1.4230624407951722,
                0.5056455536301967,
                -1.6462872014984953,
                0.21014081512994676,
                -1.08423580077281
            ]
        },
        {
            "positions": [
                0.852757046584556,
                -1.4483271434904723,
                0.604088425748897,
                -1.7171835750953441,
                0.2537513277255855,
                -1.0422998652906617
            ]
        },
        {
            "positions": [
                0.9603920664290124,
                -1.4735918461857724,
                0.7025312978675968,
                -1.788079948692193,
                0.29736184032122415,
                -1.0003639298085136
            ]
        },
        {
            "positions": [
                1.0680270862734684,
                -1.4988565488810726,
                0.8009741699862971,
                -1.8589763222890419,
                0.3409723529168629,
                -0.9584279943263654
            ]
        },
        {
            "positions": [
                1.1756621061179249,
                -1.524121251576373,
                0.8994170421049974,
                -1.9298726958858907,
                0.38458286551250165,
                -0.9164920588442172
            ]
        },
        {
            "positions": [
                1.2832971259623813,
                -1.5493859542716732,
                0.9978599142236972,
                -2.0007690694827396,
                0.4281933781081404,
                -0.8745561233620691
            ]
        },
        {
            "positions": [
                1.3909321458068369,
                -1.5746506569669734,
                1.096302786342397,
                -2.071665443079588,
                0.4718038907037789,
                -0.8326201878799211
            ]
        },
        {
            "positions": [
                1.4985671656512933,
                -1.5999153596622735,
                1.1947456584610974,
                -2.142561816676437,
                0.5154144032994177,
                -0.7906842523977731
            ]
        },
        {
            "positions": [
                1.6062021854957498,
                -1.6251800623575736,
                1.2931885305797977,
                -2.2134581902732857,
                0.5590249158950564,
                -0.7487483169156248
            ]
        },
        {
            "positions": [
                1.7138372053402058,
                -1.650444765052874,
                1.3916314026984975,
                -2.2843545638701346,
                0.6026354284906952,
                -0.7068123814334768
            ]
        },
        {
            "positions": [
                1.8214722251846622,
                -1.6757094677481743,
                1.4900742748171978,
                -2.3552509374669834,
                0.6462459410863339,
                -0.6648764459513286
            ]
        },
        {
            "positions": [
                1.9291072450291182,
                -1.7009741704434744,
                1.5885171469358976,
                -2.4261473110638323,
                0.6898564536819725,
                -0.6229405104691808
            ]
        },
        {
            "positions": [
                2.036742264873574,
                -1.7262388731387746,
                1.686960019054598,
                -2.497043684660681,
                0.7334669662776112,
                -0.5810045749870325
            ]
        },
        {
            "positions": [
                2.144377284718031,
                -1.7515035758340747,
                1.7854028911732978,
                -2.56794005825753,
                0.7770774788732502,
                -0.5390686395048845
            ]
        },
        {
            "positions": [
                2.252012304562487,
                -1.776768278529375,
                1.883845763291998,
                -2.638836431854379,
                0.8206879914688889,
                -0.49713270402273624
            ]
        },
        {
            "positions": [
                2.359647324406944,
                -1.8020329812246754,
                1.9822886354106983,
                -2.7097328054512277,
                0.8642985040645277,
                -0.4551967685405882
            ]
        },
        {
            "positions": [
                2.467282344251399,
                -1.8272976839199753,
                2.080731507529398,
                -2.780629179048076,
                0.9079090166601662,
                -0.4132608330584402
            ]
        },
        {
            "positions": [
                2.574917364095856,
                -1.8525623866152756,
                2.179174379648098,
                -2.851525552644925,
                0.951519529255805,
                -0.37132489757629195
            ]
        },
        {
            "positions": [
                2.682552383940312,
                -1.8778270893105757,
                2.2776172517667983,
                -2.9224219262417743,
                0.9951300418514437,
                -0.3293889620941439
            ]
        },
        {
            "positions": [
                2.790187403784768,
                -1.9030917920058759,
                2.3760601238854986,
                -2.993318299838623,
                1.0387405544470825,
                -0.2874530266119957
            ]
        },
        {
            "positions": [
                2.897822423629224,
                -1.9283564947011762,
                2.474502996004199,
                -3.064214673435472,
                1.0823510670427212,
                -0.24551709112984765
            ]
        },
        {
            "positions": [
                3.00545744347368,
                -1.9536211973964763,
                2.5729458681228983,
                -3.1351110470323205,
                1.1259615796383597,
                -0.20358115564769963
            ]
        },
        {
            "positions": [
                3.1130924633181367,
                -1.9788859000917767,
                2.6713887402415986,
                -3.2060074206291693,
                1.1695720922339985,
                -0.1616452201655516
            ]
        },
        {
            "positions": [
                3.2207274831625927,
                -2.004150602787077,
                2.7698316123602993,
                -3.276903794226018,
                1.2131826048296372,
                -0.11970928468340336
            ]
        },
        {
            "positions": [
                3.128645808788435,
                -1.9971238370039301,
                2.631057072490459,
                -3.247099139198567,
                1.1754514146498543,
                -0.03182758294077695
            ]
        },
        {
            "positions": [
                3.036564134414277,
                -1.9900970712207833,
                2.4922825326206195,
                -3.217294484171115,
                1.137720224470071,
                0.05605411880184946
            ]
        },
        {
            "positions": [
                2.944482460040119,
                -1.9830703054376366,
                2.3535079927507794,
                -3.1874898291436637,
                1.0999890342902878,
                0.14393582054447585
            ]
        },
        {
            "positions": [
                2.852400785665961,
                -1.9760435396544898,
                2.2147334528809397,
                -3.157685174116212,
                1.0622578441105048,
                0.23181752228710228
            ]
        },
        {
            "positions": [
                2.7603191112918033,
                -1.969016773871343,
                2.0759589130110996,
                -3.1278805190887606,
                1.0245266539307218,
                0.31969922402972867
            ]
        },
        {
            "positions": [
                2.6682374369176456,
                -1.9619900080881965,
                1.9371843731412595,
                -3.098075864061309,
                0.9867954637509386,
                0.40758092577235505
            ]
        },
        {
            "positions": [
                2.5761557625434874,
                -1.9549632423050496,
                1.7984098332714196,
                -3.0682712090338575,
                0.9490642735711555,
                0.4954626275149815
            ]
        },
        {
            "positions": [
                2.4840740881693297,
                -1.947936476521903,
                1.6596352934015797,
                -3.0384665540064058,
                0.9113330833913724,
                0.5833443292576079
            ]
        },
        {
            "positions": [
                2.3919924137951716,
                -1.9409097107387563,
                1.5208607535317396,
                -3.0086618989789544,
                0.8736018932115893,
                0.6712260310002344
            ]
        },
        {
            "positions": [
                2.299910739421014,
                -1.9338829449556094,
                1.3820862136618997,
                -2.9788572439515026,
                0.8358707030318062,
                0.7591077327428607
            ]
        },
        {
            "positions": [
                2.207829065046856,
                -1.9268561791724628,
                1.2433116737920598,
                -2.9490525889240513,
                0.7981395128520231,
                0.8469894344854871
            ]
        },
        {
            "positions": [
                2.1157473906726985,
                -1.919829413389316,
                1.1045371339222199,
                -2.9192479338965995,
                0.76040832267224,
                0.9348711362281135
            ]
        },
        {
            "positions": [
                2.0236657162985403,
                -1.9128026476061692,
                0.9657625940523797,
                -2.889443278869148,
                0.7226771324924569,
                1.02275283797074
            ]
        },
        {
            "positions": [
                1.9315840419243824,
                -1.9057758818230226,
                0.8269880541825398,
                -2.859638623841697,
                0.6849459423126738,
                1.1106345397133663
            ]
        },
        {
            "positions": [
                1.8395023675502244,
                -1.8987491160398757,
                0.6882135143126997,
                -2.829833968814245,
                0.6472147521328907,
                1.198516241455993
            ]
        },
        {
            "positions": [
                1.7474206931760667,
                -1.891722350256729,
                0.54943897444286,
                -2.8000293137867938,
                0.6094835619531076,
                1.2863979431986192
            ]
        },
        {
            "positions": [
                1.6553390188019088,
                -1.8846955844735824,
                0.41066443457301993,
                -2.770224658759342,
                0.5717523717733245,
                1.3742796449412455
            ]
        },
        {
            "positions": [
                1.5632573444277509,
                -1.8776688186904356,
                0.2718898947031798,
                -2.7404200037318907,
                0.5340211815935414,
                1.462161346683872
            ]
        },
        {
            "positions": [
                1.4711756700535932,
                -1.870642052907289,
                0.13311535483334058,
                -2.710615348704439,
                0.4962899914137584,
                1.5500430484264982
            ]
        },
        {
            "positions": [
                1.379093995679435,
                -1.863615287124142,
                -0.005659185036499981,
                -2.6808106936769875,
                0.4585588012339752,
                1.6379247501691248
            ]
        },
        {
            "positions": [
                1.2870123213052773,
                -1.8565885213409954,
                -0.14443372490633966,
                -2.6510060386495358,
                0.4208276110541922,
                1.725806451911751
            ]
        },
        {
            "positions": [
                1.1949306469311192,
                -1.8495617555578487,
                -0.2832082647761798,
                -2.6212013836220844,
                0.383096420874409,
                1.8136881536543776
            ]
        },
        {
            "positions": [
                1.1028489725569615,
                -1.8425349897747019,
                -0.42198280464601945,
                -2.591396728594633,
                0.345365230694626,
                1.9015698553970037
            ]
        },
        {
            "positions": [
                1.0107672981828038,
                -1.8355082239915552,
                -0.5607573445158596,
                -2.5615920735671813,
                0.3076340405148428,
                1.9894515571396303
            ]
        },
        {
            "positions": [
                0.918685623808646,
                -1.8284814582084086,
                -0.6995318843856992,
                -2.5317874185397296,
                0.2699028503350598,
                2.077333258882257
            ]
        },
        {
            "positions": [
                0.8266039494344879,
                -1.8214546924252617,
                -0.8383064242555398,
                -2.501982763512278,
                0.23217166015527657,
                2.1652149606248834
            ]
        },
        {
            "positions": [
                0.7345222750603302,
                -1.814427926642115,
                -0.9770809641253795,
                -2.472178108484827,
                0.19444046997549358,
                2.2530966623675095
            ]
        },
        {
            "positions": [
                0.642440600686172,
                -1.8074011608589682,
                -1.1158555039952196,
                -2.442373453457375,
                0.15670927979571037,
                2.340978364110136
            ]
        },
        {
            "positions": [
                0.5503589263120143,
                -1.8003743950758215,
                -1.2546300438650588,
                -2.4125687984299238,
                0.11897808961592737,
                2.4288600658527626
            ]
        },
        {
            "positions": [
                0.4582772519378562,
                -1.7933476292926749,
                -1.3934045837348998,
                -2.382764143402472,
                0.08124689943614416,
                2.516741767595389
            ]
        },
        {
            "positions": [
                0.36619557756369847,
                -1.786320863509528,
                -1.532179123604739,
                -2.3529594883750207,
                0.04351570925636117,
                2.6046234693380153
            ]
        },
        {
            "positions": [
                0.27411390318954076,
                -1.7792940977263814,
                -1.6709536634745792,
                -2.323154833347569,
                0.005784519076577954,
                2.692505171080642
            ]
        },
        {
            "positions": [
                0.18203222881538306,
                -1.7722673319432345,
                -1.8097282033444193,
                -2.2933501783201176,
                -0.03194667110320504,
                2.780386872823268
            ]
        },
        {
            "positions": [
                0.0899505544412249,
                -1.7652405661600878,
                -1.9485027432142594,
                -2.263545523292666,
                -0.06967786128298825,
                2.8682685745658945
            ]
        },
        {
            "positions": [
                -0.0021311199329328012,
                -1.7582138003769412,
                -2.0872772830840987,
                -2.2337408682652145,
                -0.10740905146277124,
                2.956150276308521
            ]
        },
        {
            "positions": [
                -0.09421279430709095,
                -1.7511870345937943,
                -2.2260518229539397,
                -2.203936213237763,
                -0.14514024164255446,
                3.0440319780511476
            ]
        },
        {
            "positions": [
                -0.18629446868124874,
                -1.7441602688106477,
                -2.3648263628237793,
                -2.1741315582103113,
                -0.1828714318223374,
                3.1319136797937737
            ]
        }
    ]
}