{
    "goal": {
        "global_pose": {
            "orientation": {
                "w": 0.5084816262002911,
                "x": -0.4908360881923452,
                "y": 0.5182115481033761,
                "z": -0.48164630358495003
            },
            "position": {
                "x": 0.5540239810943604,
                "y": -0.46912469901144505,
                "z": 0.16403168439865112
            }
        },
        "name": "move_to_storage_B"
    },
    "id": "BFMT_move_to_storage_B_82",
    "joint_names": [
        "shoulder_pan_joint",
        "shoulder_lift_joint",
        "elbow_joint",
        "wrist_1_joint",
        "wrist_2_joint",
        "wrist_3_joint"
    ],
    "metrics": {
        "cart_traj_len": 1.0026008533562139,
        "distance_elbow_joint": 0.3499403043200826,
        "distance_shoulder_lift_joint": 0.8137842952587673,
        "distance_shoulder_pan_joint": 0.27588619365197153,
        "distance_wrist_1_joint": 3.1070228874660177,
        "distance_wrist_2_joint": 2.7935040602517636,
        "distance_wrist_3_joint": 3.1419589625543263,
        "smoothness": 0.4887419927502465,
        "time": 0.85481012,
        "traj_len": 3.237606631989582,
        "weighted_distance": 4.760939148564005
    },
    "planner": "BFMT",
    "start": {
        "state": {
            "elbow_joint": 1.664937868594044,
            "shoulder_lift_joint": -0.661644460510453,
            "shoulder_pan_joint": -0.9139846352900073,
            "wrist_1_joint": 2.146753192139373,
            "wrist_2_joint": -2.2341966793290973,
            "wrist_3_joint": 0.005466555786416001
        }
    },
    "waypoints": [
        {
            "positions": [
                -0.9139846352900073,
                -0.661644460510453,
                1.664937868594044,
                2.146753192139373,
                -2.2341966793290973,
                0.005466555786416001
            ]
        },
        {
            "positions": [
                -0.8991651402087603,
                -0.6846742815733827,
                1.7021066917005372,
                2.208491829367071,
                -2.2790151971365473,
                0.06747962472395073
            ]
        },
        {
            "positions": [
                -0.8973804046064291,
                -0.7187307287569544,
                1.7194557173443565,
                2.1199760431306514,
                -2.178290032974413,
                0.21555041103463662
            ]
        },
        {
            "positions": [
                -0.8955956690040979,
                -0.7527871759405262,
                1.7368047429881759,
                2.0314602568942317,
                -2.0775648688122788,
                0.36362119734532256
            ]
        },
        {
            "positions": [
                -0.8938109334017666,
                -0.786843623124098,
                1.754153768631995,
                1.942944470657812,
                -1.9768397046501442,
                0.5116919836560084
            ]
        },
        {
            "positions": [
                -0.8920261977994355,
                -0.8209000703076696,
                1.7715027942758144,
                1.8544286844213924,
                -1.87611454048801,
                0.6597627699666944
            ]
        },
        {
            "positions": [
                -0.8902414621971043,
                -0.8549565174912415,
                1.7888518199196337,
                1.7659128981849725,
                -1.7753893763258755,
                0.8078335562773804
            ]
        },
        {
            "positions": [
                -0.8884567265947731,
                -0.889012964674813,
                1.806200845563453,
                1.677397111948553,
                -1.6746642121637412,
                0.9559043425880662
            ]
        },
        {
            "positions": [
                -0.8866719909924419,
                -0.9230694118583849,
                1.8235498712072724,
                1.5888813257121333,
                -1.5739390480016069,
                1.103975128898752
            ]
        },
        {
            "positions": [
                -0.8848872553901107,
                -0.9571258590419566,
                1.8408988968510918,
                1.5003655394757136,
                -1.4732138838394726,
                1.2520459152094379
            ]
        },
        {
            "positions": [
                -0.8831025197877795,
                -0.9911823062255283,
                1.858247922494911,
                1.4118497532392937,
                -1.372488719677338,
                1.400116701520124
            ]
        },
        {
            "positions": [
                -0.8813177841854484,
                -1.0252387534091,
                1.8755969481387302,
                1.323333967002874,
                -1.2717635555152036,
                1.54818748783081
            ]
        },
        {
            "positions": [
                -0.8795330485831172,
                -1.059295200592672,
                1.8929459737825496,
                1.2348181807664544,
                -1.1710383913530693,
                1.6962582741414958
            ]
        },
        {
            "positions": [
                -0.8777483129807859,
                -1.0933516477762435,
                1.910294999426369,
                1.1463023945300348,
                -1.070313227190935,
                1.8443290604521816
            ]
        },
        {
            "positions": [
                -0.8759635773784548,
                -1.1274080949598153,
                1.9276440250701883,
                1.0577866082936151,
                -0.9695880630288007,
                1.9923998467628676
            ]
        },
        {
            "positions": [
                -0.8741788417761236,
                -1.1614645421433871,
                1.9449930507140076,
                0.9692708220571955,
                -0.8688628988666662,
                2.1404706330735537
            ]
        },
        {
            "positions": [
                -0.8723941061737924,
                -1.1955209893269587,
                1.9623420763578268,
                0.8807550358207756,
                -0.768137734704532,
                2.2885414193842397
            ]
        },
        {
            "positions": [
                -0.8706093705714611,
                -1.2295774365105303,
                1.979691102001646,
                0.7922392495843562,
                -0.6674125705423977,
                2.4366122056949253
            ]
        },
        {
            "positions": [
                -0.86882463496913,
                -1.2636338836941023,
                1.9970401276454655,
                0.7037234633479363,
                -0.5666874063802634,
                2.5846829920056114
            ]
        },
        {
            "positions": [
                -0.8670398993667988,
                -1.297690330877674,
                2.014389153289285,
                0.6152076771115167,
                -0.4659622422181288,
                2.7327537783162974
            ]
        },
        {
            "positions": [
                -0.8924778391144391,
                -1.2779416170008355,
                2.0143348177754135,
                0.4538743328912095,
                -0.36200306582636277,
                2.778828416096791
            ]
        },
        {
            "positions": [
                -0.9179157788620795,
                -1.258192903123997,
                2.014280482261542,
                0.2925409886709023,
                -0.2580438894345968,
                2.8249030538772852
            ]
        },
        {
            "positions": [
                -0.9433537186097198,
                -1.2384441892471585,
                2.0142261467476708,
                0.13120764445059507,
                -0.15408471304283072,
                2.870977691657779
            ]
        },
        {
            "positions": [
                -0.9687916583573601,
                -1.21869547537032,
                2.0141718112337994,
                -0.030125699769712133,
                -0.05012553665106467,
                2.9170523294382726
            ]
        },
        {
            "positions": [
                -0.9942295981050006,
                -1.1989467614934814,
                2.0141174757199285,
                -0.19145904399001945,
                0.05383363974070138,
                2.963126967218767
            ]
        },
        {
            "positions": [
                -1.0196675378526407,
                -1.179198047616643,
                2.014063140206057,
                -0.35279238821032655,
                0.15779281613246737,
                3.0092016049992605
            ]
        },
        {
            "positions": [
                -1.0451054776002813,
                -1.1594493337398046,
                2.014008804692186,
                -0.5141257324306339,
                0.2617519925242335,
                3.055276242779754
            ]
        },
        {
            "positions": [
                -1.0705434173479216,
                -1.139700619862966,
                2.0139544691783144,
                -0.675459076650941,
                0.3657111689159995,
                3.1013508805602483
            ]
        },
        {
            "positions": [
                -1.0959813570955619,
                -1.1199519059861276,
                2.013900133664443,
                -0.8367924208712483,
                0.46967034530776564,
                3.147425518340742
            ]
        }
    ]
}