{
    "goal": {
        "global_pose": {
            "orientation": {
                "w": 0.7047431468963623,
                "x": -0.7094548344612122,
                "y": 0.0024358443915843964,
                "z": -0.0022348060738295317
            },
            "position": {
                "x": 0.6094750761985779,
                "y": 0.3671506643295288,
                "z": 0.19426114857196808
            }
        },
        "name": "move_to_magneteinheit_A"
    },
    "id": "BFMT_move_to_magneteinheit_A_24",
    "joint_names": [
        "shoulder_pan_joint",
        "shoulder_lift_joint",
        "elbow_joint",
        "wrist_1_joint",
        "wrist_2_joint",
        "wrist_3_joint"
    ],
    "metrics": {
        "cart_traj_len": 3.3398637874092305,
        "distance_elbow_joint": 3.911936718992103,
        "distance_shoulder_lift_joint": 0.4676972622945692,
        "distance_shoulder_pan_joint": 3.0016492366043868,
        "distance_wrist_1_joint": 3.4681392074879285,
        "distance_wrist_2_joint": 1.443688136228321,
        "distance_wrist_3_joint": 0.5132684511335617,
        "smoothness": 0.10027859025338166,
        "time": 1.178073141,
        "traj_len": 3.5786001470883657,
        "weighted_distance": 4.329519980173812
    },
    "planner": "BFMT",
    "start": {
        "state": {
            "elbow_joint": -1.9196185241190666,
            "shoulder_lift_joint": -1.2443396400964142,
            "shoulder_pan_joint": 2.6996025414629847,
            "wrist_1_joint": -1.5485510000780065,
            "wrist_2_joint": -1.5709468930060704,
            "wrist_3_joint": 0.4420197071253992
        }
    },
    "waypoints": [
        {
            "positions": [
                2.6996025414629847,
                -1.2443396400964142,
                -1.9196185241190666,
                -1.5485510000780065,
                -1.5709468930060704,
                0.4420197071253992
            ]
        },
        {
            "positions": [
                2.5963179420886053,
                -1.2309242900262192,
                -1.8135432469071766,
                -1.439684258851744,
                -1.5264348627871691,
                0.42429307987872344
            ]
        },
        {
            "positions": [
                2.4930333427142264,
                -1.217508939956024,
                -1.7074679696952864,
                -1.3308175176254817,
                -1.4819228325682676,
                0.40656645263204766
            ]
        },
        {
            "positions": [
                2.389748743339847,
                -1.204093589885829,
                -1.6013926924833963,
                -1.2219507763992192,
                -1.4374108023493664,
                0.38883982538537193
            ]
        },
        {
            "positions": [
                2.2864641439654676,
                -1.1906782398156337,
                -1.495317415271506,
                -1.1130840351729567,
                -1.392898772130465,
                0.37111319813869614
            ]
        },
        {
            "positions": [
                2.1831795445910886,
                -1.1772628897454387,
                -1.389242138059616,
                -1.0042172939466942,
                -1.3483867419115638,
                0.3533865708920204
            ]
        },
        {
            "positions": [
                2.0798949452167093,
                -1.1638475396752435,
                -1.283166860847726,
                -0.8953505527204318,
                -1.3038747116926626,
                0.3356599436453447
            ]
        },
        {
            "positions": [
                1.9766103458423303,
                -1.1504321896050484,
                -1.1770915836358358,
                -0.7864838114941693,
                -1.259362681473761,
                0.31793331639866895
            ]
        },
        {
            "positions": [
                1.873325746467951,
                -1.1370168395348532,
                -1.0710163064239455,
                -0.677617070267907,
                -1.2148506512548598,
                0.30020668915199317
            ]
        },
        {
            "positions": [
                1.7700411470935717,
                -1.1236014894646582,
                -0.9649410292120555,
                -0.5687503290416445,
                -1.1703386210359585,
                0.28248006190531744
            ]
        },
        {
            "positions": [
                1.6667565477191926,
                -1.110186139394463,
                -0.8588657520001655,
                -0.45988358781538197,
                -1.125826590817057,
                0.26475343465864165
            ]
        },
        {
            "positions": [
                1.5634719483448132,
                -1.096770789324268,
                -0.7527904747882752,
                -0.3510168465891197,
                -1.0813145605981558,
                0.24702680741196592
            ]
        },
        {
            "positions": [
                1.460187348970434,
                -1.0833554392540727,
                -0.6467151975763852,
                -0.2421501053628572,
                -1.0368025303792545,
                0.2293001801652902
            ]
        },
        {
            "positions": [
                1.3569027495960548,
                -1.0699400891838777,
                -0.5406399203644952,
                -0.1332833641365947,
                -0.9922905001603533,
                0.21157355291861443
            ]
        },
        {
            "positions": [
                1.2536181502216757,
                -1.0565247391136827,
                -0.4345646431526049,
                -0.024416622910332197,
                -0.9477784699414519,
                0.19384692567193867
            ]
        },
        {
            "positions": [
                1.1503335508472963,
                -1.0431093890434875,
                -0.32848936594071465,
                0.0844501183159303,
                -0.9032664397225505,
                0.1761202984252629
            ]
        },
        {
            "positions": [
                1.047048951472917,
                -1.0296940389732925,
                -0.22241408872882462,
                0.19331685954219258,
                -0.8587544095036492,
                0.15839367117858716
            ]
        },
        {
            "positions": [
                0.9437643520985377,
                -1.0162786889030972,
                -0.11633881151693437,
                0.3021836007684551,
                -0.8142423792847479,
                0.14066704393191143
            ]
        },
        {
            "positions": [
                0.8404797527241588,
                -1.0028633388329022,
                -0.010263534305044342,
                0.41105034199471757,
                -0.7697303490658466,
                0.1229404166852357
            ]
        },
        {
            "positions": [
                0.7371951533497794,
                -0.989447988762707,
                0.09581174290684569,
                0.5199170832209801,
                -0.7252183188469452,
                0.10521378943855991
            ]
        },
        {
            "positions": [
                0.6339105539754004,
                -0.976032638692512,
                0.20188702011873572,
                0.6287838244472426,
                -0.6807062886280439,
                0.08748716219188418
            ]
        },
        {
            "positions": [
                0.530625954601021,
                -0.9626172886223168,
                0.3079622973306262,
                0.7376505656735051,
                -0.6361942584091426,
                0.0697605349452084
            ]
        },
        {
            "positions": [
                0.42734135522664163,
                -0.9492019385521218,
                0.4140375745425162,
                0.8465173068997671,
                -0.5916822281902413,
                0.052033907698532667
            ]
        },
        {
            "positions": [
                0.32405675585226223,
                -0.9357865884819265,
                0.5201128517544062,
                0.9553840481260296,
                -0.5471701979713399,
                0.03430728045185688
            ]
        },
        {
            "positions": [
                0.22077215647788329,
                -0.9223712384117315,
                0.6261881289662963,
                1.0642507893522921,
                -0.5026581677524387,
                0.016580653205181206
            ]
        },
        {
            "positions": [
                0.11748755710350389,
                -0.9089558883415364,
                0.7322634061781867,
                1.1731175305785546,
                -0.45814613753353717,
                -0.0011459740414945796
            ]
        },
        {
            "positions": [
                0.014202957729124943,
                -0.8955405382713413,
                0.8383386833900763,
                1.281984271804817,
                -0.4136341073146361,
                -0.01887260128817031
            ]
        },
        {
            "positions": [
                -0.08908164164525437,
                -0.8821251882011462,
                0.9444139606019668,
                1.3908510130310796,
                -0.3691220770957347,
                -0.03659922853484611
            ]
        },
        {
            "positions": [
                -0.0517961723171429,
                -0.8617366110956579,
                1.1341242491189016,
                1.4913806568522443,
                -0.32692054607125076,
                -0.03264853449565419
            ]
        },
        {
            "positions": [
                -0.014510702989031427,
                -0.8413480339901697,
                1.3238345376358363,
                1.591910300673409,
                -0.2847190150467668,
                -0.02869784045646228
            ]
        },
        {
            "positions": [
                0.022774766339080044,
                -0.8209594568846814,
                1.513544826152771,
                1.6924399444945737,
                -0.24251748402228285,
                -0.024747146417270362
            ]
        },
        {
            "positions": [
                0.060060235667191514,
                -0.8005708797791932,
                1.7032551146697057,
                1.7929695883157384,
                -0.2003159529977989,
                -0.020796452378078447
            ]
        },
        {
            "positions": [
                0.09734570499530298,
                -0.7801823026737049,
                1.8929654031866405,
                1.893499232136903,
                -0.15811442197331496,
                -0.016845758338886532
            ]
        },
        {
            "positions": [
                0.1238834118508943,
                -0.776642377801845,
                1.9923181948730366,
                1.919588207409922,
                -0.12725875677774925,
                -0.0019497130615296157
            ]
        }
    ]
}