{
    "goal": {
        "global_pose": {
            "orientation": {
                "w": 0.005598929693374612,
                "x": 0.007748599140229565,
                "y": 0.7110244013736278,
                "z": -0.7031023480610252
            },
            "position": {
                "x": -0.8858502320852131,
                "y": -0.7141253447532654,
                "z": 0.3711530566215515
            }
        },
        "name": "move_to_auspresseinheit_C"
    },
    "id": "BFMT_move_to_auspresseinheit_C_70",
    "joint_names": [
        "shoulder_pan_joint",
        "shoulder_lift_joint",
        "elbow_joint",
        "wrist_1_joint",
        "wrist_2_joint",
        "wrist_3_joint"
    ],
    "metrics": {
        "cart_traj_len": 0.49517252762520925,
        "distance_elbow_joint": 1.0234397475812658,
        "distance_shoulder_lift_joint": 0.3359050643658361,
        "distance_shoulder_pan_joint": 0.2562933756361292,
        "distance_wrist_1_joint": 0.7181408534656104,
        "distance_wrist_2_joint": 1.316590228039825,
        "distance_wrist_3_joint": 0.09160218681320176,
        "smoothness": 4.844609574787718e-16,
        "time": 0.40820409999999996,
        "traj_len": 1.9344176012179655,
        "weighted_distance": 2.441292057709136
    },
    "planner": "BFMT",
    "start": {
        "state": {
            "elbow_joint": 1.7527959577737207,
            "shoulder_lift_joint": -0.9740617694225068,
            "shoulder_pan_joint": -2.967991417825858,
            "wrist_1_joint": -0.759517768980727,
            "wrist_2_joint": 1.7443932448377408,
            "wrist_3_joint": -3.0840537646736568
        }
    },
    "waypoints": [
        {
            "positions": [
                -2.967991417825858,
                -0.9740617694225068,
                1.7527959577737207,
                -0.759517768980727,
                1.7443932448377408,
                -3.0840537646736568
            ]
        },
        {
            "positions": [
                -2.942362080262245,
                -0.9404712629859232,
                1.6504519830155941,
                -0.6877036836341659,
                1.6127342220337584,
                -3.093213983354977
            ]
        },
        {
            "positions": [
                -2.916732742698632,
                -0.9068807565493395,
                1.5481080082574674,
                -0.6158895982876049,
                1.481075199229776,
                -3.102374202036297
            ]
        },
        {
            "positions": [
                -2.891103405135019,
                -0.873290250112756,
                1.445764033499341,
                -0.5440755129410438,
                1.3494161764257933,
                -3.1115344207176174
            ]
        },
        {
            "positions": [
                -2.865474067571406,
                -0.8396997436761723,
                1.3434200587412144,
                -0.4722614275944828,
                1.2177571536218108,
                -3.1206946393989377
            ]
        },
        {
            "positions": [
                -2.839844730007793,
                -0.8061092372395887,
                1.2410760839830877,
                -0.4004473422479218,
                1.0860981308178284,
                -3.1298548580802574
            ]
        },
        {
            "positions": [
                -2.8142153924441806,
                -0.7725187308030051,
                1.1387321092249612,
                -0.32863325690136075,
                0.9544391080138459,
                -3.1390150767615776
            ]
        },
        {
            "positions": [
                -2.7885860548805677,
                -0.7389282243664215,
                1.0363881344668346,
                -0.2568191715547997,
                0.8227800852098635,
                -3.148175295442898
            ]
        },
        {
            "positions": [
                -2.7629567173169547,
                -0.7053377179298379,
                0.934044159708708,
                -0.18500508620823863,
                0.6911210624058808,
                -3.157335514124218
            ]
        },
        {
            "positions": [
                -2.7373273797533417,
                -0.6717472114932543,
                0.8317001849505814,
                -0.11319100086167755,
                0.5594620396018983,
                -3.1664957328055383
            ]
        },
        {
            "positions": [
                -2.7116980421897288,
                -0.6381567050566707,
                0.7293562101924549,
                -0.041376915515116575,
                0.4278030167979158,
                -3.1756559514868585
            ]
        }
    ]
}