{
    "goal": {
        "global_pose": {
            "orientation": {
                "w": -0.00223480608172531,
                "x": 0.0024358444001904467,
                "y": 0.7094548369677653,
                "z": -0.704743149386269
            },
            "position": {
                "x": 0.6205249238014221,
                "y": -0.6371506643295288,
                "z": 0.19426114857196808
            }
        },
        "name": "move_to_magneteinheit_B"
    },
    "id": "BFMT_move_to_magneteinheit_B_27",
    "joint_names": [
        "shoulder_pan_joint",
        "shoulder_lift_joint",
        "elbow_joint",
        "wrist_1_joint",
        "wrist_2_joint",
        "wrist_3_joint"
    ],
    "metrics": {
        "cart_traj_len": 3.2950788453845803,
        "distance_elbow_joint": 5.516823666170976,
        "distance_shoulder_lift_joint": 0.7668825878103469,
        "distance_shoulder_pan_joint": 2.4056637712691207,
        "distance_wrist_1_joint": 4.400509760356712,
        "distance_wrist_2_joint": 0.7794546739020001,
        "distance_wrist_3_joint": 3.3537440242050165,
        "smoothness": 0.4343797088300483,
        "time": 1.388267932,
        "traj_len": 4.150069696247784,
        "weighted_distance": 5.395417589620188
    },
    "planner": "BFMT",
    "start": {
        "state": {
            "elbow_joint": 2.6216224122426386,
            "shoulder_lift_joint": -1.4174107377796124,
            "shoulder_pan_joint": 0.7066234856936794,
            "wrist_1_joint": 1.9546482284002225,
            "wrist_2_joint": -0.7096286983471962,
            "wrist_3_joint": 0.005740856962016249
        }
    },
    "waypoints": [
        {
            "positions": [
                0.7066234856936794,
                -1.4174107377796124,
                2.6216224122426386,
                1.9546482284002225,
                -0.7096286983471962,
                0.005740856962016249
            ]
        },
        {
            "positions": [
                0.6568704766546982,
                -1.5264224002638358,
                2.6930308832911942,
                1.9336741294717898,
                -0.7836927604928479,
                0.040797779232720474
            ]
        },
        {
            "positions": [
                0.6071174676157172,
                -1.635434062748059,
                2.76443935433975,
                1.9127000305433572,
                -0.8577568226384995,
                0.0758547015034247
            ]
        },
        {
            "positions": [
                0.557364458576736,
                -1.7444457252322825,
                2.8358478253883055,
                1.8917259316149246,
                -0.9318208847841511,
                0.11091162377412894
            ]
        },
        {
            "positions": [
                0.6242549130178676,
                -1.7461625099964655,
                2.6851339833643717,
                1.7745509962836565,
                -0.933679213182549,
                0.055714222207424245
            ]
        },
        {
            "positions": [
                0.6911453674589993,
                -1.7478792947606485,
                2.5344201413404375,
                1.6573760609523884,
                -0.9355375415809468,
                0.000516820640719548
            ]
        },
        {
            "positions": [
                0.758035821900131,
                -1.7495960795248315,
                2.3837062993165037,
                1.5402011256211203,
                -0.9373958699793447,
                -0.05468058092598513
            ]
        },
        {
            "positions": [
                0.8249262763412626,
                -1.7513128642890146,
                2.2329924572925695,
                1.423026190289852,
                -0.9392541983777425,
                -0.10987798249268985
            ]
        },
        {
            "positions": [
                0.8918167307823943,
                -1.7530296490531976,
                2.0822786152686357,
                1.3058512549585841,
                -0.9411125267761403,
                -0.16507538405939454
            ]
        },
        {
            "positions": [
                0.9587071852235259,
                -1.7547464338173806,
                1.9315647732447014,
                1.1886763196273158,
                -0.9429708551745382,
                -0.2202727856260992
            ]
        },
        {
            "positions": [
                1.0255976396646576,
                -1.7564632185815636,
                1.7808509312207674,
                1.0715013842960477,
                -0.944829183572936,
                -0.2754701871928039
            ]
        },
        {
            "positions": [
                1.0924880941057893,
                -1.7581800033457469,
                1.6301370891968334,
                0.9543264489647796,
                -0.9466875119713338,
                -0.33066758875950863
            ]
        },
        {
            "positions": [
                1.159378548546921,
                -1.7598967881099299,
                1.4794232471728994,
                0.8371515136335115,
                -0.9485458403697317,
                -0.38586499032621335
            ]
        },
        {
            "positions": [
                1.2262690029880527,
                -1.761613572874113,
                1.3287094051489654,
                0.7199765783022434,
                -0.9504041687681295,
                -0.441062391892918
            ]
        },
        {
            "positions": [
                1.293159457429184,
                -1.763330357638296,
                1.1779955631250316,
                0.6028016429709753,
                -0.9522624971665273,
                -0.4962597934596226
            ]
        },
        {
            "positions": [
                1.3600499118703158,
                -1.765047142402479,
                1.0272817211010976,
                0.48562670763970717,
                -0.9541208255649252,
                -0.5514571950263274
            ]
        },
        {
            "positions": [
                1.4269403663114475,
                -1.766763927166662,
                0.8765678790771634,
                0.36845177230843906,
                -0.955979153963323,
                -0.6066545965930321
            ]
        },
        {
            "positions": [
                1.4938308207525792,
                -1.768480711930845,
                0.7258540370532294,
                0.25127683697717074,
                -0.9578374823617208,
                -0.6618519981597368
            ]
        },
        {
            "positions": [
                1.560721275193711,
                -1.770197496695028,
                0.5751401950292951,
                0.13410190164590263,
                -0.9596958107601188,
                -0.7170493997264415
            ]
        },
        {
            "positions": [
                1.6276117296348422,
                -1.771914281459211,
                0.42442635300536136,
                0.01692696631463453,
                -0.9615541391585166,
                -0.7722468012931463
            ]
        },
        {
            "positions": [
                1.694502184075974,
                -1.773631066223394,
                0.27371251098142757,
                -0.10024796901663335,
                -0.9634124675569145,
                -0.8274442028598508
            ]
        },
        {
            "positions": [
                1.7613926385171057,
                -1.775347850987577,
                0.12299866895749334,
                -0.21742290434790168,
                -0.9652707959553123,
                -0.8826416044265557
            ]
        },
        {
            "positions": [
                1.8282830929582374,
                -1.77706463575176,
                -0.027715173066440446,
                -0.33459783967916956,
                -0.9671291243537101,
                -0.9378390059932602
            ]
        },
        {
            "positions": [
                1.8951735473993692,
                -1.7787814205159431,
                -0.17842901509037468,
                -0.4517727750104379,
                -0.968987452752108,
                -0.9930364075599649
            ]
        },
        {
            "positions": [
                1.962064001840501,
                -1.7804982052801261,
                -0.32914285711430846,
                -0.5689477103417062,
                -0.9708457811505058,
                -1.0482338091266696
            ]
        },
        {
            "positions": [
                2.028954456281632,
                -1.7822149900443094,
                -0.47985669913824225,
                -0.6861226456729741,
                -0.9727041095489036,
                -1.1034312106933741
            ]
        },
        {
            "positions": [
                2.095844910722764,
                -1.7839317748084924,
                -0.6305705411621765,
                -0.8032975810042424,
                -0.9745624379473015,
                -1.158628612260079
            ]
        },
        {
            "positions": [
                2.1627353651638956,
                -1.7856485595726754,
                -0.7812843831861103,
                -0.9204725163355103,
                -0.9764207663456993,
                -1.2138260138267836
            ]
        },
        {
            "positions": [
                2.2296258196050274,
                -1.7873653443368585,
                -0.9319982252100445,
                -1.0376474516667782,
                -0.9782790947440971,
                -1.2690234153934883
            ]
        },
        {
            "positions": [
                2.296516274046159,
                -1.7890821291010415,
                -1.0827120672339787,
                -1.1548223869980465,
                -0.980137423142495,
                -1.324220816960193
            ]
        },
        {
            "positions": [
                2.3634067284872904,
                -1.7907989138652245,
                -1.233425909257912,
                -1.2719973223293148,
                -0.9819957515408928,
                -1.3794182185268977
            ]
        },
        {
            "positions": [
                2.4302971829284226,
                -1.7925156986294075,
                -1.3841397512818467,
                -1.3891722576605832,
                -0.9838540799392906,
                -1.4346156200936024
            ]
        },
        {
            "positions": [
                2.497187637369554,
                -1.7942324833935905,
                -1.534853593305781,
                -1.5063471929918508,
                -0.9857124083376885,
                -1.4898130216603072
            ]
        },
        {
            "positions": [
                2.545162155619226,
                -1.7970600201672566,
                -1.6399783527523197,
                -1.56926518143698,
                -0.9514690086780045,
                -1.5938233753486888
            ]
        },
        {
            "positions": [
                2.5931366738688983,
                -1.7998875569409227,
                -1.7451031121988585,
                -1.632183169882109,
                -0.9172256090183205,
                -1.6978337290370704
            ]
        },
        {
            "positions": [
                2.6411111921185704,
                -1.802715093714589,
                -1.850227871645397,
                -1.6951011583272382,
                -0.8829822093586366,
                -1.8018440827254518
            ]
        },
        {
            "positions": [
                2.689085710368243,
                -1.8055426304882551,
                -1.9553526310919358,
                -1.7580191467723671,
                -0.8487388096989525,
                -1.9058544364138335
            ]
        },
        {
            "positions": [
                2.737060228617915,
                -1.8083701672619212,
                -2.0604773905384746,
                -1.8209371352174963,
                -0.8144954100392686,
                -2.009864790102215
            ]
        },
        {
            "positions": [
                2.72747160685404,
                -1.855360562052926,
                -2.0096932609011584,
                -1.8990526848098708,
                -0.7729761643376326,
                -2.150839395541785
            ]
        },
        {
            "positions": [
                2.7178829850901653,
                -1.9023509568439307,
                -1.9589091312638423,
                -1.977168234402245,
                -0.7314569186359966,
                -2.291814000981355
            ]
        },
        {
            "positions": [
                2.7082943633262904,
                -1.9493413516349354,
                -1.9081250016265263,
                -2.055283783994619,
                -0.6899376729343607,
                -2.432788606420925
            ]
        },
        {
            "positions": [
                2.6987057415624154,
                -1.9963317464259402,
                -1.8573408719892102,
                -2.133399333586994,
                -0.6484184272327247,
                -2.573763211860495
            ]
        },
        {
            "positions": [
                2.689117119798541,
                -2.043322141216945,
                -1.806556742351894,
                -2.211514883179368,
                -0.6068991815310887,
                -2.714737817300065
            ]
        },
        {
            "positions": [
                2.679528498034666,
                -2.09031253600795,
                -1.755772612714578,
                -2.2896304327717423,
                -0.5653799358294527,
                -2.855712422739635
            ]
        },
        {
            "positions": [
                2.6699398762707913,
                -2.1373029307989544,
                -1.704988483077262,
                -2.367745982364117,
                -0.5238606901278167,
                -2.996687028179205
            ]
        },
        {
            "positions": [
                2.6603512545069163,
                -2.1842933255899593,
                -1.6542043534399458,
                -2.445861531956491,
                -0.4823414444261807,
                -3.137661633618775
            ]
        }
    ]
}