{
    "goal": {
        "global_pose": {
            "orientation": {
                "w": 0.005598929693374612,
                "x": 0.007748599140229565,
                "y": 0.7110244013736278,
                "z": -0.7031023480610252
            },
            "position": {
                "x": 0.1141497679147869,
                "y": -0.7141253447532654,
                "z": 0.3711530566215515
            }
        },
        "name": "move_to_auspresseinheit_B"
    },
    "id": "BFMT_move_to_auspresseinheit_B_149",
    "joint_names": [
        "shoulder_pan_joint",
        "shoulder_lift_joint",
        "elbow_joint",
        "wrist_1_joint",
        "wrist_2_joint",
        "wrist_3_joint"
    ],
    "metrics": {
        "cart_traj_len": 0.5655318052803465,
        "distance_elbow_joint": 0.06619742506092119,
        "distance_shoulder_lift_joint": 0.29432007339014055,
        "distance_shoulder_pan_joint": 0.5794049453556911,
        "distance_wrist_1_joint": 0.3397698865516604,
        "distance_wrist_2_joint": 0.9854371528260075,
        "distance_wrist_3_joint": 0.010016358731526065,
        "smoothness": 2.5376526478085547e-16,
        "time": 0.47389878399999996,
        "traj_len": 1.5083586582494055,
        "weighted_distance": 1.9027310894492335
    },
    "planner": "BFMT",
    "start": {
        "state": {
            "elbow_joint": 2.0193083361928714,
            "shoulder_lift_joint": -1.1220246554650708,
            "shoulder_pan_joint": -1.0952077554168747,
            "wrist_1_joint": -0.8559753972642168,
            "wrist_2_joint": 0.4759566250798843,
            "wrist_3_joint": -3.1240929996934557
        }
    },
    "waypoints": [
        {
            "positions": [
                -1.0952077554168747,
                -1.1220246554650708,
                2.0193083361928714,
                -0.8559753972642168,
                0.4759566250798843,
                -3.1240929996934557
            ]
        },
        {
            "positions": [
                -1.19177524630949,
                -1.1710780010300943,
                2.008275432016051,
                -0.7993470828389401,
                0.6401961505508855,
                -3.1257623928153766
            ]
        },
        {
            "positions": [
                -1.288342737202105,
                -1.2201313465951176,
                1.997242527839231,
                -0.7427187684136634,
                0.8044356760218867,
                -3.1274317859372975
            ]
        },
        {
            "positions": [
                -1.38491022809472,
                -1.269184692160141,
                1.9862096236624107,
                -0.6860904539883865,
                0.9686752014928881,
                -3.1291011790592185
            ]
        },
        {
            "positions": [
                -1.4814777189873354,
                -1.3182380377251646,
                1.9751767194855907,
                -0.6294621395631099,
                1.1329147269638893,
                -3.13077057218114
            ]
        },
        {
            "positions": [
                -1.5780452098799507,
                -1.3672913832901878,
                1.9641438153087705,
                -0.5728338251378331,
                1.2971542524348907,
                -3.132439965303061
            ]
        },
        {
            "positions": [
                -1.6746127007725657,
                -1.4163447288552113,
                1.9531109111319502,
                -0.5162055107125564,
                1.4613937779058919,
                -3.1341093584249817
            ]
        }
    ]
}