{
    "goal": {
        "global_pose": {
            "orientation": {
                "w": -0.4816463035849501,
                "x": 0.5182115481033762,
                "y": 0.4908360881923453,
                "z": -0.5084816262002911
            },
            "position": {
                "x": -0.8240239810943604,
                "y": -0.300875300988555,
                "z": 0.16403168439865112
            }
        },
        "name": "move_to_storage_C"
    },
    "id": "BFMT_move_to_storage_C_26",
    "joint_names": [
        "shoulder_pan_joint",
        "shoulder_lift_joint",
        "elbow_joint",
        "wrist_1_joint",
        "wrist_2_joint",
        "wrist_3_joint"
    ],
    "metrics": {
        "cart_traj_len": 0.5768248824818265,
        "distance_elbow_joint": 0.2589599366417603,
        "distance_shoulder_lift_joint": 0.18952408496406092,
        "distance_shoulder_pan_joint": 0.4951896101693847,
        "distance_wrist_1_joint": 0.07697818447855398,
        "distance_wrist_2_joint": 1.0607221526193418,
        "distance_wrist_3_joint": 0.06398291782197019,
        "smoothness": 2.5376526478085547e-16,
        "time": 0.463851498,
        "traj_len": 1.4647036856289641,
        "weighted_distance": 1.8468955193613168
    },
    "planner": "BFMT",
    "start": {
        "state": {
            "elbow_joint": 2.010868314990456,
            "shoulder_lift_joint": -1.1634956873337592,
            "shoulder_pan_joint": -2.4736205022346125,
            "wrist_1_joint": -0.8367026794202681,
            "wrist_2_joint": 0.6746043897044499,
            "wrist_3_joint": -3.1496632123970403
        }
    },
    "waypoints": [
        {
            "positions": [
                -2.4736205022346125,
                -1.1634956873337592,
                2.010868314990456,
                -0.8367026794202681,
                0.6746043897044499,
                -3.1496632123970403
            ]
        },
        {
            "positions": [
                -2.55615210392951,
                -1.131908339839749,
                1.9677083255501624,
                -0.8238729820071757,
                0.8513914151410069,
                -3.138999392760045
            ]
        },
        {
            "positions": [
                -2.6386837056244072,
                -1.1003209923457389,
                1.924548336109869,
                -0.8110432845940835,
                1.0281784405775638,
                -3.12833557312305
            ]
        },
        {
            "positions": [
                -2.721215307319305,
                -1.0687336448517288,
                1.8813883466695756,
                -0.7982135871809911,
                1.2049654660141207,
                -3.1176717534860554
            ]
        },
        {
            "positions": [
                -2.8037469090142024,
                -1.0371462973577186,
                1.8382283572292824,
                -0.7853838897678987,
                1.3817524914506776,
                -3.10700793384906
            ]
        },
        {
            "positions": [
                -2.8862785107091,
                -1.0055589498637083,
                1.795068367788989,
                -0.7725541923548065,
                1.558539516887235,
                -3.096344114212065
            ]
        },
        {
            "positions": [
                -2.968810112403997,
                -0.9739716023696983,
                1.7519083783486955,
                -0.7597244949417141,
                1.7353265423237916,
                -3.08568029457507
            ]
        }
    ]
}