{
    "goal": {
        "global_pose": {
            "orientation": {
                "w": 0.005598929693374612,
                "x": 0.007748599140229565,
                "y": 0.7110244013736278,
                "z": -0.7031023480610252
            },
            "position": {
                "x": 0.1141497679147869,
                "y": -0.7141253447532654,
                "z": 0.3711530566215515
            }
        },
        "name": "move_to_auspresseinheit_B"
    },
    "id": "BFMT_move_to_auspresseinheit_B_107",
    "joint_names": [
        "shoulder_pan_joint",
        "shoulder_lift_joint",
        "elbow_joint",
        "wrist_1_joint",
        "wrist_2_joint",
        "wrist_3_joint"
    ],
    "metrics": {
        "cart_traj_len": 0.5648188376435603,
        "distance_elbow_joint": 0.060597021265936135,
        "distance_shoulder_lift_joint": 0.29484891552568016,
        "distance_shoulder_pan_joint": 0.574978623873142,
        "distance_wrist_1_joint": 0.3168015482529031,
        "distance_wrist_2_joint": 1.0055293886477876,
        "distance_wrist_3_joint": 0.010543062997893315,
        "smoothness": 7.612957943425664e-16,
        "time": 0.46153998300000004,
        "traj_len": 1.5044263227434378,
        "weighted_distance": 1.89913549370755
    },
    "planner": "BFMT",
    "start": {
        "state": {
            "elbow_joint": 2.0193083361928714,
            "shoulder_lift_joint": -1.1220246554650708,
            "shoulder_pan_joint": -1.0952077554168747,
            "wrist_1_joint": -0.8559753972642168,
            "wrist_2_joint": 0.4759566250798843,
            "wrist_3_joint": -3.1240929996934557
        }
    },
    "waypoints": [
        {
            "positions": [
                -1.0952077554168747,
                -1.1220246554650708,
                2.0193083361928714,
                -0.8559753972642168,
                0.4759566250798843,
                -3.1240929996934557
            ]
        },
        {
            "positions": [
                -1.1910375260623982,
                -1.1711661413860175,
                2.009208832648549,
                -0.8031751392220663,
                0.6435448565211822,
                -3.1223358225271403
            ]
        },
        {
            "positions": [
                -1.286867296707922,
                -1.2203076273069642,
                1.9991093291042261,
                -0.7503748811799158,
                0.8111330879624801,
                -3.1205786453608244
            ]
        },
        {
            "positions": [
                -1.3826970673534458,
                -1.2694491132279109,
                1.9890098255599034,
                -0.6975746231377653,
                0.978721319403778,
                -3.118821468194509
            ]
        },
        {
            "positions": [
                -1.4785268379989693,
                -1.3185905991488576,
                1.9789103220155806,
                -0.6447743650956148,
                1.146309550845076,
                -3.1170642910281936
            ]
        },
        {
            "positions": [
                -1.574356608644493,
                -1.3677320850698043,
                1.968810818471258,
                -0.5919741070534642,
                1.313897782286374,
                -3.1153071138618778
            ]
        },
        {
            "positions": [
                -1.6701863792900167,
                -1.416873570990751,
                1.9587113149269353,
                -0.5391738490113137,
                1.481486013727672,
                -3.1135499366955623
            ]
        }
    ]
}