{
    "goal": {
        "global_pose": {
            "orientation": {
                "w": -0.00223480608172531,
                "x": 0.0024358444001904467,
                "y": 0.7094548369677653,
                "z": -0.704743149386269
            },
            "position": {
                "x": 0.6205249238014221,
                "y": -0.6371506643295288,
                "z": 0.19426114857196808
            }
        },
        "name": "move_to_magneteinheit_B"
    },
    "id": "BFMT_move_to_magneteinheit_B_44",
    "joint_names": [
        "shoulder_pan_joint",
        "shoulder_lift_joint",
        "elbow_joint",
        "wrist_1_joint",
        "wrist_2_joint",
        "wrist_3_joint"
    ],
    "metrics": {
        "cart_traj_len": 1.4711985287735894,
        "distance_elbow_joint": 0.9589067328851499,
        "distance_shoulder_lift_joint": 0.7574257859326676,
        "distance_shoulder_pan_joint": 1.6224358732995057,
        "distance_wrist_1_joint": 0.930533610187593,
        "distance_wrist_2_joint": 1.5159400311533104,
        "distance_wrist_3_joint": 0.21744960596774082,
        "smoothness": 0.27307075404726194,
        "time": 0.6405095430000001,
        "traj_len": 2.450039109774774,
        "weighted_distance": 2.980614784352777
    },
    "planner": "BFMT",
    "start": {
        "state": {
            "elbow_joint": 2.6216224122426386,
            "shoulder_lift_joint": -1.4174107377796124,
            "shoulder_pan_joint": 0.7066234856936794,
            "wrist_1_joint": 1.9546482284002225,
            "wrist_2_joint": -0.7096286983471962,
            "wrist_3_joint": 0.005740856962016249
        }
    },
    "waypoints": [
        {
            "positions": [
                0.7066234856936794,
                -1.4174107377796124,
                2.6216224122426386,
                1.9546482284002225,
                -0.7096286983471962,
                0.005740856962016249
            ]
        },
        {
            "positions": [
                0.6492514839870214,
                -1.3862767123739963,
                2.615021632848699,
                1.8298960478008268,
                -0.7238886230122437,
                -0.033068503668146426
            ]
        },
        {
            "positions": [
                0.5918794822803632,
                -1.3551426869683803,
                2.6084208534547586,
                1.705143867201431,
                -0.7381485476772911,
                -0.0718778642983091
            ]
        },
        {
            "positions": [
                0.5345074805737052,
                -1.3240086615627642,
                2.601820074060819,
                1.5803916866020353,
                -0.7524084723423385,
                -0.11068722492847177
            ]
        },
        {
            "positions": [
                0.43091320427516727,
                -1.2765783965830628,
                2.5347411887248668,
                1.6201257629155643,
                -0.8576342049964933,
                -0.10347140178009658
            ]
        },
        {
            "positions": [
                0.3273189279766293,
                -1.2291481316033614,
                2.4676623033889147,
                1.6598598392290933,
                -0.9628599376506483,
                -0.09625557863172138
            ]
        },
        {
            "positions": [
                0.2237246516780913,
                -1.18171786662366,
                2.400583418052962,
                1.6995939155426223,
                -1.0680856703048032,
                -0.08903975548334618
            ]
        },
        {
            "positions": [
                0.12013037537955334,
                -1.1342876016439587,
                2.33350453271701,
                1.7393279918561513,
                -1.173311402958958,
                -0.08182393233497098
            ]
        },
        {
            "positions": [
                0.016536099081015276,
                -1.0868573366642573,
                2.266425647381058,
                1.7790620681696803,
                -1.2785371356131128,
                -0.07460810918659577
            ]
        },
        {
            "positions": [
                -0.08705817721752263,
                -1.039427071684556,
                2.199346762045106,
                1.8187961444832093,
                -1.3837628682672678,
                -0.06739228603822059
            ]
        },
        {
            "positions": [
                -0.19065245351606064,
                -0.9919968067048545,
                2.132267876709154,
                1.8585302207967382,
                -1.4889886009214226,
                -0.06017646288984538
            ]
        },
        {
            "positions": [
                -0.29424672981459854,
                -0.9445665417251531,
                2.0651889913732018,
                1.8982642971102672,
                -1.5942143335755774,
                -0.05296063974147018
            ]
        },
        {
            "positions": [
                -0.39784100611313666,
                -0.8971362767454516,
                1.9981101060372493,
                1.9379983734237962,
                -1.6994400662297324,
                -0.04574481659309497
            ]
        },
        {
            "positions": [
                -0.5014352824116747,
                -0.8497060117657502,
                1.9310312207012972,
                1.9777324497373252,
                -1.8046657988838872,
                -0.03852899344471977
            ]
        },
        {
            "positions": [
                -0.6050295587102125,
                -0.802275746786049,
                1.863952335365345,
                2.017466526050854,
                -1.909891531538042,
                -0.03131317029634459
            ]
        },
        {
            "positions": [
                -0.7086238350087505,
                -0.7548454818063476,
                1.796873450029393,
                2.057200602364383,
                -2.015117264192197,
                -0.024097347147969392
            ]
        },
        {
            "positions": [
                -0.8122181113072885,
                -0.7074152168266461,
                1.7297945646934407,
                2.096934678677912,
                -2.120342996846352,
                -0.01688152399959418
            ]
        },
        {
            "positions": [
                -0.9158123876058265,
                -0.6599849518469447,
                1.6627156793574887,
                2.136668754991441,
                -2.2255687295005067,
                -0.009665700851218983
            ]
        }
    ]
}