{
    "goal": {
        "global_pose": {
            "orientation": {
                "w": 0.5084816217422485,
                "x": -0.49083608388900757,
                "y": 0.5182115435600281,
                "z": -0.4816462993621826
            },
            "position": {
                "x": 0.5540239810943604,
                "y": 0.030875300988554955,
                "z": 0.16403168439865112
            }
        },
        "name": "move_to_storage_A"
    },
    "id": "BFMT_move_to_storage_A_73",
    "joint_names": [
        "shoulder_pan_joint",
        "shoulder_lift_joint",
        "elbow_joint",
        "wrist_1_joint",
        "wrist_2_joint",
        "wrist_3_joint"
    ],
    "metrics": {
        "cart_traj_len": 0.3523564889791286,
        "distance_elbow_joint": 0.4478989447541648,
        "distance_shoulder_lift_joint": 0.2356673276364094,
        "distance_shoulder_pan_joint": 0.46054280491972766,
        "distance_wrist_1_joint": 0.23456548834210633,
        "distance_wrist_2_joint": 1.0985630193971205,
        "distance_wrist_3_joint": 0.10063156573313448,
        "smoothness": 4.440892098500626e-16,
        "time": 0.466479298,
        "traj_len": 1.6055743990182028,
        "weighted_distance": 2.027870999345905
    },
    "planner": "BFMT",
    "start": {
        "state": {
            "elbow_joint": 1.971548259319323,
            "shoulder_lift_joint": -1.1394851275133948,
            "shoulder_pan_joint": 0.1228115487234821,
            "wrist_1_joint": -0.7804723859257726,
            "wrist_2_joint": 0.12958671773740124,
            "wrist_3_joint": -3.192489227718131
        }
    },
    "waypoints": [
        {
            "positions": [
                0.1228115487234821,
                -1.1394851275133948,
                1.971548259319323,
                -0.7804723859257726,
                0.12958671773740124,
                -3.192489227718131
            ]
        },
        {
            "positions": [
                0.0570197194492353,
                -1.1731518886043104,
                2.035533822855632,
                -0.8139817414032163,
                0.2865242919369899,
                -3.1781132897562547
            ]
        },
        {
            "positions": [
                -0.008772109825011504,
                -1.206818649695226,
                2.0995193863919415,
                -0.8474910968806602,
                0.44346186613657856,
                -3.1637373517943783
            ]
        },
        {
            "positions": [
                -0.07456393909925832,
                -1.2404854107861416,
                2.163504949928251,
                -0.8810004523581039,
                0.6003994403361672,
                -3.149361413832502
            ]
        },
        {
            "positions": [
                -0.1403557683735051,
                -1.2741521718770574,
                2.22749051346456,
                -0.9145098078355477,
                0.7573370145357559,
                -3.134985475870626
            ]
        },
        {
            "positions": [
                -0.20614759764775192,
                -1.307818932967973,
                2.291476077000869,
                -0.9480191633129914,
                0.9142745887353445,
                -3.1206095379087495
            ]
        },
        {
            "positions": [
                -0.27193942692199874,
                -1.3414856940588886,
                2.3554616405371784,
                -0.9815285187904352,
                1.0712121629349332,
                -3.106233599946873
            ]
        },
        {
            "positions": [
                -0.33773125619624556,
                -1.3751524551498042,
                2.419447204073488,
                -1.015037874267879,
                1.2281497371345218,
                -3.0918576619849967
            ]
        }
    ]
}{
    "goal": {
        "global_pose": {
            "orientation": {
                "w": 0.5084816217422485,
                "x": -0.49083608388900757,
                "y": 0.5182115435600281,
                "z": -0.4816462993621826
            },
            "position": {
                "x": 0.5540239810943604,
                "y": 0.030875300988554955,
                "z": 0.16403168439865112
            }
        },
        "name": "move_to_storage_A"
    },
    "id": "BFMT_move_to_storage_A_73",
    "joint_names": [
        "shoulder_pan_joint",
        "shoulder_lift_joint",
        "elbow_joint",
        "wrist_1_joint",
        "wrist_2_joint",
        "wrist_3_joint"
    ],
    "metrics": {
        "cart_traj_len": 0.35247744394865194,
        "distance_elbow_joint": 0.45152169971229306,
        "distance_shoulder_lift_joint": 0.23413526736197898,
        "distance_shoulder_pan_joint": 0.46030530543353854,
        "distance_wrist_1_joint": 0.25549044017195555,
        "distance_wrist_2_joint": 1.0997782697482357,
        "distance_wrist_3_joint": 0.10996583878109156,
        "smoothness": 0.0,
        "time": 0.520330005,
        "traj_len": 1.6159198065526315,
        "weighted_distance": 2.0460687204225247
    },
    "planner": "BFMT",
    "start": {
        "state": {
            "elbow_joint": 1.97154746011099,
            "shoulder_lift_joint": -1.13948474672311,
            "shoulder_pan_joint": 0.12281154466712228,
            "wrist_1_joint": -0.7804688027058302,
            "wrist_2_joint": 0.12958655903071145,
            "wrist_3_joint": 3.0906928834467795
        }
    },
    "waypoints": [
        {
            "positions": [
                0.12281154466712228,
                -1.13948474672311,
                1.97154746011099,
                -0.7804688027058302,
                0.12958655903071145,
                3.0906928834467795
            ]
        },
        {
            "positions": [
                0.05705364389090249,
                -1.1729326420605355,
                2.036050560069889,
                -0.8169674370161095,
                0.2866977404233165,
                3.1064022889869354
            ]
        },
        {
            "positions": [
                -0.008704256885317299,
                -1.206380537397961,
                2.1005536600287877,
                -0.8534660713263889,
                0.4438089218159216,
                3.1221116945270913
            ]
        },
        {
            "positions": [
                -0.07446215766153709,
                -1.2398284327353866,
                2.165056759987687,
                -0.8899647056366683,
                0.6009201032085267,
                3.137821100067247
            ]
        },
        {
            "positions": [
                -0.14022005843775687,
                -1.273276328072812,
                2.229559859946586,
                -0.9264633399469476,
                0.7580312846011318,
                3.1535305056074034
            ]
        },
        {
            "positions": [
                -0.20597795921397666,
                -1.3067242234102379,
                2.294062959905485,
                -0.9629619742572271,
                0.9151424659937369,
                3.1692399111475593
            ]
        },
        {
            "positions": [
                -0.27173585999019645,
                -1.3401721187476634,
                2.358566059864384,
                -0.9994606085675064,
                1.072253647386342,
                3.184949316687715
            ]
        },
        {
            "positions": [
                -0.33749376076641624,
                -1.373620014085089,
                2.423069159823283,
                -1.0359592428777857,
                1.2293648287789471,
                3.200658722227871
            ]
        }
    ]
}{
    "goal": {
        "global_pose": {
            "orientation": {
                "w": 0.5084816217422485,
                "x": -0.49083608388900757,
                "y": 0.5182115435600281,
                "z": -0.4816462993621826
            },
            "position": {
                "x": 0.5540239810943604,
                "y": 0.030875300988554955,
                "z": 0.16403168439865112
            }
        },
        "name": "move_to_storage_A"
    },
    "id": "BFMT_move_to_storage_A_73",
    "joint_names": [
        "shoulder_pan_joint",
        "shoulder_lift_joint",
        "elbow_joint",
        "wrist_1_joint",
        "wrist_2_joint",
        "wrist_3_joint"
    ],
    "metrics": {
        "cart_traj_len": 0.3534564418831139,
        "distance_elbow_joint": 0.4523020311077426,
        "distance_shoulder_lift_joint": 0.23264550720965227,
        "distance_shoulder_pan_joint": 0.46324180900754747,
        "distance_wrist_1_joint": 0.25686983463058466,
        "distance_wrist_2_joint": 1.094209786330701,
        "distance_wrist_3_joint": 0.09157982223375027,
        "smoothness": 7.771561092534257e-16,
        "time": 0.49971335299999997,
        "traj_len": 1.609611378724684,
        "weighted_distance": 2.0310312789193485
    },
    "planner": "BFMT",
    "start": {
        "state": {
            "elbow_joint": 1.9715472970024885,
            "shoulder_lift_joint": -1.1394870060712896,
            "shoulder_pan_joint": 0.12281152778156021,
            "wrist_1_joint": -0.780463741449964,
            "wrist_2_joint": 0.12958659822042276,
            "wrist_3_joint": 3.090690232415272
        }
    },
    "waypoints": [
        {
            "positions": [
                0.12281152778156021,
                -1.1394870060712896,
                1.9715472970024885,
                -0.780463741449964,
                0.12958659822042276,
                3.090690232415272
            ]
        },
        {
            "positions": [
                0.05663412649476772,
                -1.1727220785298114,
                2.0361618728750233,
                -0.8171594321114761,
                0.28590228198195144,
                3.1037730641629504
            ]
        },
        {
            "positions": [
                -0.00954327479202477,
                -1.2059571509883331,
                2.100776448747558,
                -0.8538551227729881,
                0.44221796574348016,
                3.116855895910629
            ]
        },
        {
            "positions": [
                -0.07572067607881725,
                -1.2391922234468549,
                2.1653910246200927,
                -0.8905508134345003,
                0.5985336495050089,
                3.1299387276583075
            ]
        },
        {
            "positions": [
                -0.14189807736560975,
                -1.2724272959053766,
                2.230005600492627,
                -0.9272465040960124,
                0.7548493332665376,
                3.1430215594059865
            ]
        },
        {
            "positions": [
                -0.20807547865240225,
                -1.3056623683638984,
                2.2946201763651617,
                -0.9639421947575244,
                0.9111650170280663,
                3.156104391153665
            ]
        },
        {
            "positions": [
                -0.27425287993919467,
                -1.3388974408224201,
                2.3592347522376964,
                -1.0006378854190365,
                1.067480700789595,
                3.1691872229013436
            ]
        },
        {
            "positions": [
                -0.34043028122598723,
                -1.3721325132809419,
                2.423849328110231,
                -1.0373335760805487,
                1.2237963845511237,
                3.182270054649022
            ]
        }
    ]
}