{
    "goal": {
        "global_pose": {
            "orientation": {
                "w": 0.7031023502349854,
                "x": -0.7110244035720825,
                "y": 0.007748599164187908,
                "z": 0.005598929710686207
            },
            "position": {
                "x": 0.11585023208521307,
                "y": 0.44412534475326537,
                "z": 0.3711530566215515
            }
        },
        "name": "move_to_auspresseinheit_A"
    },
    "id": "BFMT_move_to_auspresseinheit_A_77",
    "joint_names": [
        "shoulder_pan_joint",
        "shoulder_lift_joint",
        "elbow_joint",
        "wrist_1_joint",
        "wrist_2_joint",
        "wrist_3_joint"
    ],
    "metrics": {
        "cart_traj_len": 0.6910306923603918,
        "distance_elbow_joint": 0.18698190588523822,
        "distance_shoulder_lift_joint": 0.5331439325706233,
        "distance_shoulder_pan_joint": 1.041137714817857,
        "distance_wrist_1_joint": 0.5599176795654333,
        "distance_wrist_2_joint": 1.7907344968438288,
        "distance_wrist_3_joint": 1.159728099197575,
        "smoothness": 1.1658303146398086,
        "time": 0.765216907,
        "traj_len": 2.29600606028829,
        "weighted_distance": 3.1530544244723986
    },
    "planner": "BFMT",
    "start": {
        "state": {
            "elbow_joint": 2.4225746658250005,
            "shoulder_lift_joint": -1.3736534386056498,
            "shoulder_pan_joint": -0.3378633547517467,
            "wrist_1_joint": -1.0288598680537169,
            "wrist_2_joint": 1.233022673432363,
            "wrist_3_joint": -3.0940220416140027
        }
    },
    "waypoints": [
        {
            "positions": [
                -0.3378633547517467,
                -1.3736534386056498,
                2.4225746658250005,
                -1.0288598680537169,
                1.233022673432363,
                -3.0940220416140027
            ]
        },
        {
            "positions": [
                -0.2796648490332631,
                -1.401964258561595,
                2.409055001450962,
                -0.9753473386811646,
                1.0876811607757193,
                -3.023659800869571
            ]
        },
        {
            "positions": [
                -0.2214663433147795,
                -1.4302750785175404,
                2.3955353370769235,
                -0.9218348093086123,
                0.9423396481190753,
                -2.953297560125139
            ]
        },
        {
            "positions": [
                -0.16326783759629587,
                -1.4585858984734856,
                2.3820156727028845,
                -0.86832227993606,
                0.7969981354624315,
                -2.882935319380708
            ]
        },
        {
            "positions": [
                -0.10506933187781226,
                -1.4868967184294308,
                2.368496008328846,
                -0.8148097505635077,
                0.6516566228057876,
                -2.812573078636276
            ]
        },
        {
            "positions": [
                -0.04687082615932864,
                -1.5152075383853763,
                2.3549763439548075,
                -0.7612972211909554,
                0.5063151101491438,
                -2.7422108378918444
            ]
        },
        {
            "positions": [
                0.01132767955915498,
                -1.5435183583413215,
                2.3414566795807685,
                -0.7077846918184032,
                0.3609735974924999,
                -2.671848597147413
            ]
        },
        {
            "positions": [
                0.0695261852776386,
                -1.5718291782972669,
                2.32793701520673,
                -0.654272162445851,
                0.21563208483585616,
                -2.6014863564029813
            ]
        },
        {
            "positions": [
                0.1277246909961222,
                -1.600139998253212,
                2.3144173508326915,
                -0.6007596330732986,
                0.0702905721792122,
                -2.5311241156585496
            ]
        },
        {
            "positions": [
                0.22364963584112021,
                -1.6512495604070556,
                2.3275547826481797,
                -0.578790058975796,
                0.17495763811099185,
                -2.630595811198903
            ]
        },
        {
            "positions": [
                0.3195745806861182,
                -1.7023591225608992,
                2.340692214463668,
                -0.5568204848782936,
                0.2796247040427715,
                -2.730067506739257
            ]
        },
        {
            "positions": [
                0.41549952553111624,
                -1.7534686847147425,
                2.353829646279156,
                -0.5348509107807911,
                0.38429176997455117,
                -2.8295392022796104
            ]
        },
        {
            "positions": [
                0.5114244703761143,
                -1.804578246868586,
                2.3669670780946444,
                -0.5128813366832886,
                0.4889588359063308,
                -2.929010897819964
            ]
        },
        {
            "positions": [
                0.6073494152211123,
                -1.8556878090224296,
                2.3801045099101326,
                -0.49091176258578606,
                0.5936259018381105,
                -3.0284825933603177
            ]
        },
        {
            "positions": [
                0.7032743600661103,
                -1.9067973711762731,
                2.3932419417256208,
                -0.46894218848828356,
                0.6982929677698901,
                -3.1279542889006713
            ]
        }
    ]
}