{
    "goal": {
        "global_pose": {
            "orientation": {
                "w": 0.5084816262002911,
                "x": -0.4908360881923452,
                "y": 0.5182115481033761,
                "z": -0.48164630358495003
            },
            "position": {
                "x": 0.5540239810943604,
                "y": -0.46912469901144505,
                "z": 0.16403168439865112
            }
        },
        "name": "move_to_storage_B"
    },
    "id": "BFMT_move_to_storage_B_68",
    "joint_names": [
        "shoulder_pan_joint",
        "shoulder_lift_joint",
        "elbow_joint",
        "wrist_1_joint",
        "wrist_2_joint",
        "wrist_3_joint"
    ],
    "metrics": {
        "cart_traj_len": 0.6082492842222944,
        "distance_elbow_joint": 0.35168785433080885,
        "distance_shoulder_lift_joint": 0.4603107470882106,
        "distance_shoulder_pan_joint": 0.24591062892867332,
        "distance_wrist_1_joint": 2.985861894877849,
        "distance_wrist_2_joint": 2.7050082821487673,
        "distance_wrist_3_joint": 3.134873423958648,
        "smoothness": 0.02866797539113292,
        "time": 0.6606131,
        "traj_len": 3.143827735632625,
        "weighted_distance": 4.673785388341752
    },
    "planner": "BFMT",
    "start": {
        "state": {
            "elbow_joint": 1.664937868594044,
            "shoulder_lift_joint": -0.661644460510453,
            "shoulder_pan_joint": -0.9139846352900073,
            "wrist_1_joint": 2.146753192139373,
            "wrist_2_joint": -2.2341966793290973,
            "wrist_3_joint": 0.005466555786416001
        }
    },
    "waypoints": [
        {
            "positions": [
                -0.9139846352900073,
                -0.661644460510453,
                1.664937868594044,
                2.146753192139373,
                -2.2341966793290973,
                0.005466555786416001
            ]
        },
        {
            "positions": [
                -0.8820620544783742,
                -0.6947586704526421,
                1.6888930653765915,
                2.017094621072563,
                -2.143533714612545,
                -0.017291129197322758
            ]
        },
        {
            "positions": [
                -0.8906215764030557,
                -0.7118465319384829,
                1.702002371678522,
                1.9028464881201212,
                -2.0389599019152564,
                -0.14177575875631915
            ]
        },
        {
            "positions": [
                -0.8991810983277374,
                -0.7289343934243238,
                1.7151116779804523,
                1.7885983551676796,
                -1.9343860892179676,
                -0.2662603883153155
            ]
        },
        {
            "positions": [
                -0.907740620252419,
                -0.7460222549101646,
                1.7282209842823828,
                1.6743502222152382,
                -1.829812276520679,
                -0.39074501787431193
            ]
        },
        {
            "positions": [
                -0.9163001421771005,
                -0.7631101163960055,
                1.7413302905843133,
                1.5601020892627966,
                -1.7252384638233904,
                -0.5152296474333082
            ]
        },
        {
            "positions": [
                -0.9248596641017822,
                -0.7801979778818464,
                1.7544395968862436,
                1.445853956310355,
                -1.6206646511261018,
                -0.6397142769923048
            ]
        },
        {
            "positions": [
                -0.9334191860264638,
                -0.7972858393676873,
                1.7675489031881741,
                1.3316058233579136,
                -1.5160908384288132,
                -0.7641989065513011
            ]
        },
        {
            "positions": [
                -0.9419787079511455,
                -0.8143737008535281,
                1.7806582094901047,
                1.2173576904054717,
                -1.4115170257315246,
                -0.8886835361102975
            ]
        },
        {
            "positions": [
                -0.950538229875827,
                -0.831461562339369,
                1.793767515792035,
                1.1031095574530303,
                -1.306943213034236,
                -1.0131681656692937
            ]
        },
        {
            "positions": [
                -0.9590977518005086,
                -0.8485494238252098,
                1.8068768220939655,
                0.9888614245005889,
                -1.2023694003369476,
                -1.1376527952282902
            ]
        },
        {
            "positions": [
                -0.9676572737251903,
                -0.8656372853110507,
                1.819986128395896,
                0.8746132915481473,
                -1.0977955876396588,
                -1.2621374247872867
            ]
        },
        {
            "positions": [
                -0.9762167956498718,
                -0.8827251467968915,
                1.8330954346978263,
                0.7603651585957056,
                -0.9932217749423702,
                -1.386622054346283
            ]
        },
        {
            "positions": [
                -0.9847763175745534,
                -0.8998130082827324,
                1.8462047409997568,
                0.6461170256432642,
                -0.8886479622450818,
                -1.5111066839052794
            ]
        },
        {
            "positions": [
                -0.9933358394992351,
                -0.9169008697685733,
                1.8593140473016874,
                0.5318688926908224,
                -0.784074149547793,
                -1.6355913134642757
            ]
        },
        {
            "positions": [
                -1.0018953614239168,
                -0.9339887312544142,
                1.872423353603618,
                0.41762075973838075,
                -0.6795003368505044,
                -1.7600759430232722
            ]
        },
        {
            "positions": [
                -1.0104548833485982,
                -0.9510765927402549,
                1.8855326599055482,
                0.30337262678593935,
                -0.574926524153216,
                -1.8845605725822683
            ]
        },
        {
            "positions": [
                -1.01901440527328,
                -0.9681644542260959,
                1.8986419662074787,
                0.18912449383349772,
                -0.47035271145592716,
                -2.0090452021412646
            ]
        },
        {
            "positions": [
                -1.0275739271979616,
                -0.9852523157119367,
                1.9117512725094092,
                0.07487636088105609,
                -0.36577889875863856,
                -2.1335298317002613
            ]
        },
        {
            "positions": [
                -1.036133449122643,
                -1.0023401771977776,
                1.9248605788113395,
                -0.03937177207138509,
                -0.2612050860613502,
                -2.2580144612592576
            ]
        },
        {
            "positions": [
                -1.0446929710473247,
                -1.0194280386836185,
                1.93796988511327,
                -0.15361990502382694,
                -0.15663127336406157,
                -2.382499090818254
            ]
        },
        {
            "positions": [
                -1.0532524929720064,
                -1.0365159001694593,
                1.9510791914152006,
                -0.26786803797626835,
                -0.05205746066677275,
                -2.5069837203772507
            ]
        },
        {
            "positions": [
                -1.0618120148966879,
                -1.0536037616553002,
                1.9641884977171309,
                -0.38211617092870975,
                0.052516352030515634,
                -2.6314683499362466
            ]
        },
        {
            "positions": [
                -1.0703715368213695,
                -1.070691623141141,
                1.9772978040190614,
                -0.4963643038811516,
                0.15709016472780446,
                -2.7559529794952433
            ]
        },
        {
            "positions": [
                -1.0789310587460512,
                -1.087779484626982,
                1.990407110320992,
                -0.6106124368335935,
                0.26166397742509284,
                -2.8804376090542396
            ]
        },
        {
            "positions": [
                -1.0874905806707327,
                -1.1048673461128227,
                2.0035164166229222,
                -0.7248605697860344,
                0.3662377901223812,
                -3.004922238613236
            ]
        },
        {
            "positions": [
                -1.0960501025954144,
                -1.1219552075986636,
                2.0166257229248528,
                -0.839108702738476,
                0.47081160281967005,
                -3.1294068681722322
            ]
        }
    ]
}