{
    "goal": {
        "global_pose": {
            "orientation": {
                "w": -0.00223480608172531,
                "x": 0.0024358444001904467,
                "y": 0.7094548369677653,
                "z": -0.704743149386269
            },
            "position": {
                "x": -0.37947507619857795,
                "y": -0.6371506643295288,
                "z": 0.19426114857196808
            }
        },
        "name": "move_to_magneteinheit_C"
    },
    "id": "BFMT_move_to_magneteinheit_C_59",
    "joint_names": [
        "shoulder_pan_joint",
        "shoulder_lift_joint",
        "elbow_joint",
        "wrist_1_joint",
        "wrist_2_joint",
        "wrist_3_joint"
    ],
    "metrics": {
        "cart_traj_len": 0.7657417087369004,
        "distance_elbow_joint": 0.2628671995922667,
        "distance_shoulder_lift_joint": 0.8419451123507278,
        "distance_shoulder_pan_joint": 0.9929990408461238,
        "distance_wrist_1_joint": 0.6149687131393841,
        "distance_wrist_2_joint": 1.1809025468270038,
        "distance_wrist_3_joint": 1.4621478494258233,
        "smoothness": 0.5563966212676057,
        "time": 0.707983272,
        "traj_len": 2.3142667223510194,
        "weighted_distance": 3.1742711637475716
    },
    "planner": "BFMT",
    "start": {
        "state": {
            "elbow_joint": 1.9565354010623817,
            "shoulder_lift_joint": -1.4165861575791021,
            "shoulder_pan_joint": -1.6717766225146293,
            "wrist_1_joint": -0.5286633292919765,
            "wrist_2_joint": 1.472756589071564,
            "wrist_3_joint": -3.1238370188695823
        }
    },
    "waypoints": [
        {
            "positions": [
                -1.6717766225146293,
                -1.4165861575791021,
                1.9565354010623817,
                -0.5286633292919765,
                1.472756589071564,
                -3.1238370188695823
            ]
        },
        {
            "positions": [
                -1.6561051013238342,
                -1.450130666958994,
                1.9549893707843053,
                -0.4747048313448028,
                1.4533974091751833,
                -3.0485775935427855
            ]
        },
        {
            "positions": [
                -1.7327228897099207,
                -1.4936696094898663,
                1.9750082782953444,
                -0.4926060104077349,
                1.3412116959209,
                -2.943333187236351
            ]
        },
        {
            "positions": [
                -1.809340678096007,
                -1.5372085520207384,
                1.9950271858063833,
                -0.510507189470667,
                1.2290259826666166,
                -2.838088780929916
            ]
        },
        {
            "positions": [
                -1.8859584664820934,
                -1.5807474945516107,
                2.015046093317422,
                -0.528408368533599,
                1.1168402694123332,
                -2.7328443746234807
            ]
        },
        {
            "positions": [
                -1.96257625486818,
                -1.624286437082483,
                2.035065000828461,
                -0.546309547596531,
                1.0046545561580498,
                -2.627599968317046
            ]
        },
        {
            "positions": [
                -2.0391940432542666,
                -1.667825379613355,
                2.0550839083395003,
                -0.5642107266594631,
                0.8924688429037665,
                -2.5223555620106115
            ]
        },
        {
            "positions": [
                -2.115811831640353,
                -1.7113643221442274,
                2.0751028158505394,
                -0.5821119057223952,
                0.7802831296494831,
                -2.4171111557041765
            ]
        },
        {
            "positions": [
                -2.2233306872097574,
                -1.7048131944787417,
                2.0953172193748553,
                -0.66305408298081,
                0.6790598562181567,
                -2.407139563002037
            ]
        },
        {
            "positions": [
                -2.3308495427791622,
                -1.6982620668132558,
                2.115531622899171,
                -0.7439962602392248,
                0.5778365827868303,
                -2.397167970299898
            ]
        },
        {
            "positions": [
                -2.404957563763335,
                -1.6177860777026225,
                2.1125832947942897,
                -0.8112155896072724,
                0.5475598171500191,
                -2.5097657876034414
            ]
        },
        {
            "positions": [
                -2.479065584747508,
                -1.5373100885919893,
                2.109634966689408,
                -0.8784349189753199,
                0.5172830515132079,
                -2.6223636049069845
            ]
        },
        {
            "positions": [
                -2.553173605731681,
                -1.456834099481356,
                2.1066866385845264,
                -0.9456542483433674,
                0.4870062858763967,
                -2.734961422210528
            ]
        },
        {
            "positions": [
                -2.5528188844754593,
                -1.4312745654059682,
                2.100173731507067,
                -0.9438429515935927,
                0.4975849762398159,
                -2.7707701624794194
            ]
        },
        {
            "positions": [
                -2.526184119811706,
                -1.3422488350568538,
                2.0717000562379937,
                -0.9144264511123024,
                0.559109493995955,
                -2.8913956987049585
            ]
        },
        {
            "positions": [
                -2.4995493551479524,
                -1.2532231047077393,
                2.04322638096892,
                -0.885009950631012,
                0.6206340117520942,
                -3.0120212349304976
            ]
        },
        {
            "positions": [
                -2.472914590484199,
                -1.164197374358625,
                2.0147527056998467,
                -0.8555934501497217,
                0.6821585295082333,
                -3.1326467711560366
            ]
        }
    ]
}