{
    "goal": {
        "global_pose": {
            "orientation": {
                "w": 0.005598929693374612,
                "x": 0.007748599140229565,
                "y": 0.7110244013736278,
                "z": -0.7031023480610252
            },
            "position": {
                "x": 0.1141497679147869,
                "y": -0.7141253447532654,
                "z": 0.3711530566215515
            }
        },
        "name": "move_to_auspresseinheit_B"
    },
    "id": "BFMT_move_to_auspresseinheit_B_86",
    "joint_names": [
        "shoulder_pan_joint",
        "shoulder_lift_joint",
        "elbow_joint",
        "wrist_1_joint",
        "wrist_2_joint",
        "wrist_3_joint"
    ],
    "metrics": {
        "cart_traj_len": 0.5638231377564982,
        "distance_elbow_joint": 0.05920396683272999,
        "distance_shoulder_lift_joint": 0.2960594229555764,
        "distance_shoulder_pan_joint": 0.5771133986319819,
        "distance_wrist_1_joint": 0.31691304853122326,
        "distance_wrist_2_joint": 0.988539703042147,
        "distance_wrist_3_joint": 0.00801418846766877,
        "smoothness": 5.075305255429287e-16,
        "time": 0.528686195,
        "traj_len": 1.4986139357624189,
        "weighted_distance": 1.888736312186017
    },
    "planner": "BFMT",
    "start": {
        "state": {
            "elbow_joint": 2.0193083361928714,
            "shoulder_lift_joint": -1.1220246554650708,
            "shoulder_pan_joint": -1.0952077554168747,
            "wrist_1_joint": -0.8559753972642168,
            "wrist_2_joint": 0.4759566250798843,
            "wrist_3_joint": -3.1240929996934557
        }
    },
    "waypoints": [
        {
            "positions": [
                -1.0952077554168747,
                -1.1220246554650708,
                2.0193083361928714,
                -0.8559753972642168,
                0.4759566250798843,
                -3.1240929996934557
            ]
        },
        {
            "positions": [
                -1.1913933218555384,
                -1.1713678926243336,
                2.0094410083874163,
                -0.8031565558423462,
                0.6407132422535755,
                -3.122757301615511
            ]
        },
        {
            "positions": [
                -1.2875788882942019,
                -1.2207111297835962,
                1.9995736805819615,
                -0.7503377144204757,
                0.8054698594272667,
                -3.121421603537566
            ]
        },
        {
            "positions": [
                -1.3837644547328656,
                -1.270054366942859,
                1.9897063527765064,
                -0.6975188729986052,
                0.9702264766009578,
                -3.1200859054596215
            ]
        },
        {
            "positions": [
                -1.479950021171529,
                -1.3193976041021218,
                1.9798390249710514,
                -0.6447000315767346,
                1.134983093774649,
                -3.1187502073816766
            ]
        },
        {
            "positions": [
                -1.5761355876101928,
                -1.3687408412613844,
                1.9699716971655965,
                -0.5918811901548641,
                1.2997397109483402,
                -3.1174145093037318
            ]
        },
        {
            "positions": [
                -1.6723211540488565,
                -1.4180840784206472,
                1.9601043693601414,
                -0.5390623487329935,
                1.4644963281220313,
                -3.116078811225787
            ]
        }
    ]
}