{
    "goal": {
        "global_pose": {
            "orientation": {
                "w": -0.00223480608172531,
                "x": 0.0024358444001904467,
                "y": 0.7094548369677653,
                "z": -0.704743149386269
            },
            "position": {
                "x": -0.37947507619857795,
                "y": -0.6371506643295288,
                "z": 0.19426114857196808
            }
        },
        "name": "move_to_magneteinheit_C"
    },
    "id": "BFMT_move_to_magneteinheit_C_16",
    "joint_names": [
        "shoulder_pan_joint",
        "shoulder_lift_joint",
        "elbow_joint",
        "wrist_1_joint",
        "wrist_2_joint",
        "wrist_3_joint"
    ],
    "metrics": {
        "cart_traj_len": 0.8405068020206706,
        "distance_elbow_joint": 0.4408090359773773,
        "distance_shoulder_lift_joint": 0.3999011290281136,
        "distance_shoulder_pan_joint": 1.0689331943880196,
        "distance_wrist_1_joint": 3.09570133720369,
        "distance_wrist_2_joint": 1.6574893798631214,
        "distance_wrist_3_joint": 1.5496596541243988,
        "smoothness": 0.9193898275077942,
        "time": 1.0383564730000001,
        "traj_len": 2.865744882327232,
        "weighted_distance": 4.008117233302979
    },
    "planner": "BFMT",
    "start": {
        "state": {
            "elbow_joint": 1.9565354010623817,
            "shoulder_lift_joint": -1.4165861575791021,
            "shoulder_pan_joint": -1.6717766225146293,
            "wrist_1_joint": -0.5286633292919765,
            "wrist_2_joint": 1.472756589071564,
            "wrist_3_joint": -3.1238370188695823
        }
    },
    "waypoints": [
        {
            "positions": [
                -1.6717766225146293,
                -1.4165861575791021,
                1.9565354010623817,
                -0.5286633292919765,
                1.472756589071564,
                -3.1238370188695823
            ]
        },
        {
            "positions": [
                -1.725880788745042,
                -1.4232554943009923,
                1.9389990690743077,
                -0.402161854416763,
                1.3859252666739017,
                -3.0541537173452573
            ]
        },
        {
            "positions": [
                -1.7799849549754545,
                -1.4299248310228823,
                1.921462737086234,
                -0.2756603795415496,
                1.2990939442762395,
                -2.9844704158209328
            ]
        },
        {
            "positions": [
                -1.8340891212058672,
                -1.4365941677447724,
                1.9039264050981601,
                -0.1491589046663362,
                1.2122626218785775,
                -2.9147871142966078
            ]
        },
        {
            "positions": [
                -1.8881932874362797,
                -1.4432635044666626,
                1.8863900731100864,
                -0.02265742979112273,
                1.1254312994809152,
                -2.8451038127722827
            ]
        },
        {
            "positions": [
                -1.9422974536666924,
                -1.4499328411885526,
                1.8688537411220125,
                0.10384404508409062,
                1.038599977083253,
                -2.7754205112479577
            ]
        },
        {
            "positions": [
                -1.9964016198971049,
                -1.4566021779104428,
                1.8513174091339388,
                0.23034551995930408,
                0.9517686546855909,
                -2.705737209723633
            ]
        },
        {
            "positions": [
                -2.0505057861275175,
                -1.4632715146323327,
                1.833781077145865,
                0.35684699483451754,
                0.8649373322879287,
                -2.636053908199308
            ]
        },
        {
            "positions": [
                -2.1046099523579302,
                -1.469940851354223,
                1.8162447451577912,
                0.483348469709731,
                0.7781060098902665,
                -2.566370606674983
            ]
        },
        {
            "positions": [
                -2.1587141185883425,
                -1.476610188076113,
                1.7987084131697173,
                0.6098499445849446,
                0.6912746874926042,
                -2.496687305150658
            ]
        },
        {
            "positions": [
                -2.212818284818755,
                -1.483279524798003,
                1.7811720811816436,
                0.7363514194601577,
                0.6044433650949421,
                -2.4270040036263336
            ]
        },
        {
            "positions": [
                -2.266922451049168,
                -1.4899488615198933,
                1.7636357491935697,
                0.8628528943353713,
                0.5176120426972799,
                -2.3573207021020086
            ]
        },
        {
            "positions": [
                -2.352112086064744,
                -1.4520513365259176,
                1.77868391300528,
                0.7643430181819595,
                0.44809490103841243,
                -2.3939568653784846
            ]
        },
        {
            "positions": [
                -2.4373017210803205,
                -1.4141538115319419,
                1.7937320768169904,
                0.6658331420285477,
                0.37857775937954496,
                -2.43059302865496
            ]
        },
        {
            "positions": [
                -2.522491356095897,
                -1.3762562865379662,
                1.808780240628701,
                0.5673232658751358,
                0.3090606177206775,
                -2.467229191931436
            ]
        },
        {
            "positions": [
                -2.607680991111473,
                -1.3383587615439905,
                1.8238284044404114,
                0.46881338972172404,
                0.23954347606181003,
                -2.503865355207912
            ]
        },
        {
            "positions": [
                -2.591052387887576,
                -1.316490220905063,
                1.8472929955481268,
                0.3050451886013872,
                0.29257800941848094,
                -2.583440190739277
            ]
        },
        {
            "positions": [
                -2.5744237846636793,
                -1.2946216802661357,
                1.8707575866558424,
                0.1412769874810504,
                0.34561254277515185,
                -2.6630150262706427
            ]
        },
        {
            "positions": [
                -2.5577951814397824,
                -1.272753139627208,
                1.8942221777635577,
                -0.02249121363928641,
                0.3986470761318228,
                -2.7425898618020077
            ]
        },
        {
            "positions": [
                -2.5411665782158854,
                -1.2508845989882806,
                1.917686768871273,
                -0.18625941475962327,
                0.45168160948849373,
                -2.822164697333373
            ]
        },
        {
            "positions": [
                -2.524537974991988,
                -1.2290160583493532,
                1.9411513599789887,
                -0.3500276158799601,
                0.5047161428451646,
                -2.901739532864738
            ]
        },
        {
            "positions": [
                -2.507909371768091,
                -1.2071475177104256,
                1.964615951086704,
                -0.5137958170002969,
                0.5577506762018356,
                -2.981314368396103
            ]
        },
        {
            "positions": [
                -2.4912807685441942,
                -1.1852789770714982,
                1.9880805421944197,
                -0.6775640181206338,
                0.6107852095585065,
                -3.060889203927468
            ]
        },
        {
            "positions": [
                -2.4746521653202973,
                -1.1634104364325708,
                2.011545133302135,
                -0.8413322192409706,
                0.6638197429151774,
                -3.1404640394588337
            ]
        }
    ]
}