{
    "goal": {
        "global_pose": {
            "orientation": {
                "w": 0.5084816262002911,
                "x": -0.4908360881923452,
                "y": 0.5182115481033761,
                "z": -0.48164630358495003
            },
            "position": {
                "x": 0.5540239810943604,
                "y": -0.46912469901144505,
                "z": 0.16403168439865112
            }
        },
        "name": "move_to_storage_B"
    },
    "id": "BFMT_move_to_storage_B_29",
    "joint_names": [
        "shoulder_pan_joint",
        "shoulder_lift_joint",
        "elbow_joint",
        "wrist_1_joint",
        "wrist_2_joint",
        "wrist_3_joint"
    ],
    "metrics": {
        "cart_traj_len": 0.8332971194939861,
        "distance_elbow_joint": 0.422212530887605,
        "distance_shoulder_lift_joint": 0.4597718176634533,
        "distance_shoulder_pan_joint": 0.6572530294038471,
        "distance_wrist_1_joint": 2.9822547853060306,
        "distance_wrist_2_joint": 2.7062218883997193,
        "distance_wrist_3_joint": 3.1321559652403947,
        "smoothness": 0.085725925082444,
        "time": 0.737800913,
        "traj_len": 3.2186751959309365,
        "weighted_distance": 4.7236276971293565
    },
    "planner": "BFMT",
    "start": {
        "state": {
            "elbow_joint": 1.664937868594044,
            "shoulder_lift_joint": -0.661644460510453,
            "shoulder_pan_joint": -0.9139846352900073,
            "wrist_1_joint": 2.146753192139373,
            "wrist_2_joint": -2.2341966793290973,
            "wrist_3_joint": 0.005466555786416001
        }
    },
    "waypoints": [
        {
            "positions": [
                -0.9139846352900073,
                -0.661644460510453,
                1.664937868594044,
                2.146753192139373,
                -2.2341966793290973,
                0.005466555786416001
            ]
        },
        {
            "positions": [
                -0.8545772900423877,
                -0.6779804123611499,
                1.655865784832502,
                2.102960425531975,
                -2.095609179733115,
                0.08843635826683115
            ]
        },
        {
            "positions": [
                -0.795169944794768,
                -0.6943163642118468,
                1.6467937010709601,
                2.0591676589245766,
                -1.9570216801371334,
                0.1714061607472463
            ]
        },
        {
            "positions": [
                -0.7357625995471484,
                -0.7106523160625438,
                1.637721617309418,
                2.015374892317178,
                -1.8184341805411515,
                0.2543759632276615
            ]
        },
        {
            "positions": [
                -0.6763552542995288,
                -0.7269882679132407,
                1.6286495335478761,
                1.9715821257097796,
                -1.6798466809451695,
                0.3373457657080766
            ]
        },
        {
            "positions": [
                -0.6945997607522839,
                -0.7441373118376174,
                1.6454288464105473,
                1.8495350074977606,
                -1.5862870335531785,
                0.4590969289828042
            ]
        },
        {
            "positions": [
                -0.7128442672050391,
                -0.7612863557619942,
                1.6622081592732185,
                1.7274878892857417,
                -1.4927273861611876,
                0.5808480922575318
            ]
        },
        {
            "positions": [
                -0.7310887736577942,
                -0.778435399686371,
                1.6789874721358897,
                1.6054407710737226,
                -1.3991677387691965,
                0.7025992555322593
            ]
        },
        {
            "positions": [
                -0.7493332801105494,
                -0.7955844436107478,
                1.695766784998561,
                1.4833936528617038,
                -1.3056080913772057,
                0.8243504188069868
            ]
        },
        {
            "positions": [
                -0.7675777865633046,
                -0.8127334875351245,
                1.7125460978612321,
                1.3613465346496847,
                -1.2120484439852146,
                0.9461015820817145
            ]
        },
        {
            "positions": [
                -0.7858222930160598,
                -0.8298825314595013,
                1.7293254107239031,
                1.2392994164376656,
                -1.1184887965932235,
                1.0678527453564421
            ]
        },
        {
            "positions": [
                -0.8040667994688149,
                -0.8470315753838781,
                1.7461047235865743,
                1.1172522982256465,
                -1.0249291492012327,
                1.1896039086311696
            ]
        },
        {
            "positions": [
                -0.8223113059215701,
                -0.8641806193082548,
                1.7628840364492455,
                0.9952051800136277,
                -0.9313695018092417,
                1.311355071905897
            ]
        },
        {
            "positions": [
                -0.8405558123743252,
                -0.8813296632326316,
                1.7796633493119167,
                0.8731580618016086,
                -0.8378098544172506,
                1.4331062351806247
            ]
        },
        {
            "positions": [
                -0.8588003188270804,
                -0.8984787071570084,
                1.796442662174588,
                0.7511109435895897,
                -0.7442502070252598,
                1.5548573984553524
            ]
        },
        {
            "positions": [
                -0.8770448252798355,
                -0.915627751081385,
                1.8132219750372591,
                0.6290638253775707,
                -0.6506905596332688,
                1.6766085617300797
            ]
        },
        {
            "positions": [
                -0.8952893317325907,
                -0.9327767950057619,
                1.8300012878999303,
                0.5070167071655516,
                -0.5571309122412778,
                1.7983597250048073
            ]
        },
        {
            "positions": [
                -0.9135338381853458,
                -0.9499258389301386,
                1.8467806007626015,
                0.3849695889535327,
                -0.4635712648492869,
                1.920110888279535
            ]
        },
        {
            "positions": [
                -0.931778344638101,
                -0.9670748828545155,
                1.8635599136252727,
                0.2629224707415134,
                -0.3700116174572958,
                2.0418620515542627
            ]
        },
        {
            "positions": [
                -0.9500228510908562,
                -0.9842239267788921,
                1.880339226487944,
                0.14087535252949457,
                -0.27645197006530475,
                2.16361321482899
            ]
        },
        {
            "positions": [
                -0.9682673575436114,
                -1.0013729707032688,
                1.8971185393506151,
                0.01882823431747571,
                -0.1828923226733139,
                2.2853643781037176
            ]
        },
        {
            "positions": [
                -0.9865118639963665,
                -1.0185220146276457,
                1.9138978522132861,
                -0.10321888389454337,
                -0.08933267528132305,
                2.407115541378445
            ]
        },
        {
            "positions": [
                -1.0047563704491216,
                -1.0356710585520226,
                1.9306771650759575,
                -0.22526600210656245,
                0.004226972110668248,
                2.528866704653173
            ]
        },
        {
            "positions": [
                -1.0230008769018768,
                -1.0528201024763992,
                1.9474564779386285,
                -0.3473131203185815,
                0.0977866195026591,
                2.6506178679279
            ]
        },
        {
            "positions": [
                -1.041245383354632,
                -1.069969146400776,
                1.9642357908012997,
                -0.46936023853060016,
                0.19134626689464995,
                2.772369031202628
            ]
        },
        {
            "positions": [
                -1.059489889807387,
                -1.0871181903251528,
                1.981015103663971,
                -0.5914073567426192,
                0.2849059142866408,
                2.894120194477355
            ]
        },
        {
            "positions": [
                -1.0777343962601422,
                -1.1042672342495297,
                1.9977944165266421,
                -0.7134544749546383,
                0.3784655616786319,
                3.015871357752083
            ]
        },
        {
            "positions": [
                -1.0959789027128974,
                -1.1214162781739063,
                2.0145737293893133,
                -0.8355015931666575,
                0.4720252090706231,
                3.1376225210268105
            ]
        }
    ]
}