{
    "goal": {
        "global_pose": {
            "orientation": {
                "w": 0.7031023502349854,
                "x": -0.7110244035720825,
                "y": 0.007748599164187908,
                "z": 0.005598929710686207
            },
            "position": {
                "x": 0.11585023208521307,
                "y": 0.44412534475326537,
                "z": 0.3711530566215515
            }
        },
        "name": "move_to_auspresseinheit_A"
    },
    "id": "BFMT_move_to_auspresseinheit_A_126",
    "joint_names": [
        "shoulder_pan_joint",
        "shoulder_lift_joint",
        "elbow_joint",
        "wrist_1_joint",
        "wrist_2_joint",
        "wrist_3_joint"
    ],
    "metrics": {
        "cart_traj_len": 0.704584542905162,
        "distance_elbow_joint": 0.32244666300047653,
        "distance_shoulder_lift_joint": 0.5355130290501176,
        "distance_shoulder_pan_joint": 1.0428190350819575,
        "distance_wrist_1_joint": 2.1635061299684137,
        "distance_wrist_2_joint": 0.7800453534394926,
        "distance_wrist_3_joint": 0.03620346030464772,
        "smoothness": 1.03404222648879,
        "time": 0.5387794640000001,
        "traj_len": 2.2091929908555086,
        "weighted_distance": 2.8100697633443743
    },
    "planner": "BFMT",
    "start": {
        "state": {
            "elbow_joint": 2.4225746658250005,
            "shoulder_lift_joint": -1.3736534386056498,
            "shoulder_pan_joint": -0.3378633547517467,
            "wrist_1_joint": -1.0288598680537169,
            "wrist_2_joint": 1.233022673432363,
            "wrist_3_joint": -3.0940220416140027
        }
    },
    "waypoints": [
        {
            "positions": [
                -0.3378633547517467,
                -1.3736534386056498,
                2.4225746658250005,
                -1.0288598680537169,
                1.233022673432363,
                -3.0940220416140027
            ]
        },
        {
            "positions": [
                -0.24749222201106452,
                -1.423940852548723,
                2.4437919748938146,
                -1.144415305722136,
                1.139367486404808,
                -3.094813786225264
            ]
        },
        {
            "positions": [
                -0.15712108927038232,
                -1.474228266491796,
                2.465009283962629,
                -1.2599707433905554,
                1.0457122993772527,
                -3.0956055308365245
            ]
        },
        {
            "positions": [
                -0.06674995652970012,
                -1.524515680434869,
                2.4862265930314433,
                -1.3755261810589745,
                0.9520571123496977,
                -3.0963972754477855
            ]
        },
        {
            "positions": [
                0.023621176210982087,
                -1.574803094377942,
                2.5074439021002575,
                -1.4910816187273936,
                0.8584019253221427,
                -3.0971890200590466
            ]
        },
        {
            "positions": [
                0.11399230895166429,
                -1.6250905083210152,
                2.5286612111690716,
                -1.606637056395813,
                0.7647467382945875,
                -3.0979807646703077
            ]
        },
        {
            "positions": [
                0.2043634416923465,
                -1.6753779222640883,
                2.549878520237886,
                -1.7221924940642324,
                0.6710915512670325,
                -3.0987725092815683
            ]
        },
        {
            "positions": [
                0.29473457443302864,
                -1.7256653362071614,
                2.5710958293067003,
                -1.8377479317326515,
                0.5774363642394773,
                -3.0995642538928294
            ]
        },
        {
            "positions": [
                0.3631047587492257,
                -1.7562488581152624,
                2.542108246053571,
                -1.6119782540177383,
                0.5981795382805785,
                -3.104674461897133
            ]
        },
        {
            "positions": [
                0.4314749430654228,
                -1.7868323800233634,
                2.5131206628004414,
                -1.3862085763028251,
                0.6189227123216796,
                -3.1097846699014364
            ]
        },
        {
            "positions": [
                0.49984512738161985,
                -1.8174159019314644,
                2.4841330795473118,
                -1.160438898587912,
                0.6396658863627807,
                -3.1148948779057397
            ]
        },
        {
            "positions": [
                0.5682153116978169,
                -1.8479994238395654,
                2.4551454962941825,
                -0.9346692208729988,
                0.6604090604038818,
                -3.1200050859100434
            ]
        },
        {
            "positions": [
                0.636585496014014,
                -1.8785829457476664,
                2.4261579130410533,
                -0.7088995431580856,
                0.681152234444983,
                -3.125115293914347
            ]
        },
        {
            "positions": [
                0.704955680330211,
                -1.9091664676557674,
                2.3971703297879237,
                -0.4831298654431724,
                0.7018954084860841,
                -3.1302255019186505
            ]
        }
    ]
}