{
    "goal": {
        "global_pose": {
            "orientation": {
                "w": -0.4816463035849501,
                "x": 0.5182115481033762,
                "y": 0.4908360881923453,
                "z": -0.5084816262002911
            },
            "position": {
                "x": -0.8240239810943604,
                "y": 0.19912469901144506,
                "z": 0.16403168439865112
            }
        },
        "name": "move_to_storage_D"
    },
    "id": "BFMT_move_to_storage_D_88",
    "joint_names": [
        "shoulder_pan_joint",
        "shoulder_lift_joint",
        "elbow_joint",
        "wrist_1_joint",
        "wrist_2_joint",
        "wrist_3_joint"
    ],
    "metrics": {
        "cart_traj_len": 0.7577793801626208,
        "distance_elbow_joint": 0.554977064534186,
        "distance_shoulder_lift_joint": 0.7572745959911282,
        "distance_shoulder_pan_joint": 0.35995589662067085,
        "distance_wrist_1_joint": 3.821394553940341,
        "distance_wrist_2_joint": 1.778553260843128,
        "distance_wrist_3_joint": 3.165437851970675,
        "smoothness": 0.061749082791879024,
        "time": 0.760822475,
        "traj_len": 3.230726423561755,
        "weighted_distance": 4.729526058985715
    },
    "planner": "BFMT",
    "start": {
        "state": {
            "elbow_joint": -2.384821988534728,
            "shoulder_lift_joint": -2.2788054721415256,
            "shoulder_pan_joint": -0.1854694642142757,
            "wrist_1_joint": 1.4845938289331202,
            "wrist_2_joint": 0.17898776772866878,
            "wrist_3_joint": 0.037105688729662994
        }
    },
    "waypoints": [
        {
            "positions": [
                -0.1854694642142757,
                -2.2788054721415256,
                -2.384821988534728,
                1.4845938289331202,
                0.17898776772866878,
                0.037105688729662994
            ]
        },
        {
            "positions": [
                -0.15356106886980914,
                -2.2219640233522173,
                -2.3797304549620923,
                1.371387033169405,
                0.10841776283123129,
                0.11524978339554338
            ]
        },
        {
            "positions": [
                -0.12165267352534256,
                -2.1651225745629095,
                -2.374638921389457,
                1.2581802374056896,
                0.0378477579337938,
                0.19339387806142377
            ]
        },
        {
            "positions": [
                -0.08974427818087599,
                -2.108281125773601,
                -2.369547387816822,
                1.1449734416419743,
                -0.0327222469636437,
                0.2715379727273042
            ]
        },
        {
            "positions": [
                -0.05783588283640942,
                -2.051439676984293,
                -2.3644558542441865,
                1.031766645878259,
                -0.10329225186108118,
                0.3496820673931845
            ]
        },
        {
            "positions": [
                -0.025927487491942847,
                -1.994598228194985,
                -2.359364320671551,
                0.9185598501145437,
                -0.17386225675851866,
                0.427826162059065
            ]
        },
        {
            "positions": [
                0.005980907852523726,
                -1.9377567794056767,
                -2.3542727870989157,
                0.8053530543508284,
                -0.2444322616559562,
                0.5059702567249453
            ]
        },
        {
            "positions": [
                0.0378893031969903,
                -1.8809153306163686,
                -2.3491812535262806,
                0.6921462585871131,
                -0.3150022665533937,
                0.5841143513908258
            ]
        },
        {
            "positions": [
                0.06979769854145684,
                -1.8240738818270605,
                -2.344089719953645,
                0.5789394628233978,
                -0.38557227145083117,
                0.6622584460567061
            ]
        },
        {
            "positions": [
                0.06456326184820992,
                -1.8392010321108936,
                -2.31837748015599,
                0.43315245343186687,
                -0.4462719325340126,
                0.7892727007888878
            ]
        },
        {
            "positions": [
                0.05932882515496299,
                -1.8543281823947269,
                -2.2926652403583345,
                0.2873654440403359,
                -0.506971593617194,
                0.9162869555210693
            ]
        },
        {
            "positions": [
                0.05409438846171606,
                -1.8694553326785601,
                -2.2669530005606795,
                0.14157843464880504,
                -0.5676712547003754,
                1.0433012102532508
            ]
        },
        {
            "positions": [
                0.04885995176846913,
                -1.8845824829623932,
                -2.2412407607630245,
                -0.004208574742725957,
                -0.6283709157835569,
                1.1703154649854326
            ]
        },
        {
            "positions": [
                0.0436255150752222,
                -1.8997096332462262,
                -2.2155285209653695,
                -0.14999558413425684,
                -0.6890705768667382,
                1.2973297197176141
            ]
        },
        {
            "positions": [
                0.03839107838197527,
                -1.9148367835300595,
                -2.189816281167714,
                -0.29578259352578773,
                -0.7497702379499196,
                1.4243439744497957
            ]
        },
        {
            "positions": [
                0.033156641688728346,
                -1.9299639338138928,
                -2.164104041370059,
                -0.4415696029173187,
                -0.810469899033101,
                1.5513582291819774
            ]
        },
        {
            "positions": [
                0.02792220499548141,
                -1.9450910840977258,
                -2.138391801572404,
                -0.5873566123088497,
                -0.8711695601162825,
                1.678372483914159
            ]
        },
        {
            "positions": [
                0.022687768302234484,
                -1.9602182343815588,
                -2.1126795617747485,
                -0.7331436217003805,
                -0.9318692211994639,
                1.8053867386463405
            ]
        },
        {
            "positions": [
                0.017453331608987557,
                -1.9753453846653921,
                -2.0869673219770934,
                -0.8789306310919115,
                -0.9925688822826453,
                1.932400993378522
            ]
        },
        {
            "positions": [
                0.012218894915740623,
                -1.9904725349492254,
                -2.0612550821794384,
                -1.0247176404834426,
                -1.0532685433658266,
                2.059415248110704
            ]
        },
        {
            "positions": [
                0.006984458222493703,
                -2.0055996852330584,
                -2.035542842381783,
                -1.1705046498749732,
                -1.1139682044490082,
                2.186429502842885
            ]
        },
        {
            "positions": [
                0.0017500215292467758,
                -2.0207268355168915,
                -2.009830602584128,
                -1.3162916592665042,
                -1.1746678655321894,
                2.313443757575067
            ]
        },
        {
            "positions": [
                -0.0034844151640001514,
                -2.035853985800725,
                -1.984118362786473,
                -1.4620786686580352,
                -1.235367526615371,
                2.4404580123072486
            ]
        },
        {
            "positions": [
                -0.008718851857247079,
                -2.050981136084558,
                -1.9584061229888177,
                -1.6078656780495661,
                -1.2960671876985523,
                2.56747226703943
            ]
        },
        {
            "positions": [
                -0.01395328855049402,
                -2.066108286368391,
                -1.9326938831911624,
                -1.7536526874410971,
                -1.3567668487817337,
                2.694486521771612
            ]
        },
        {
            "positions": [
                -0.019187725243740947,
                -2.081235436652224,
                -1.9069816433935074,
                -1.8994396968326277,
                -1.417466509864915,
                2.821500776503793
            ]
        },
        {
            "positions": [
                -0.024422161936987874,
                -2.096362586936057,
                -1.8812694035958522,
                -2.0452267062241587,
                -1.4781661709480967,
                2.948515031235975
            ]
        },
        {
            "positions": [
                -0.0296565986302348,
                -2.1114897372198906,
                -1.8555571637981971,
                -2.1910137156156897,
                -1.538865832031278,
                3.0755292859681567
            ]
        },
        {
            "positions": [
                -0.034891035323481735,
                -2.1266168875037237,
                -1.8298449240005419,
                -2.3368007250072207,
                -1.5995654931144594,
                3.202543540700338
            ]
        }
    ]
}