{
    "goal": {
        "global_pose": {
            "orientation": {
                "w": 0.7047431468963623,
                "x": -0.7094548344612122,
                "y": 0.0024358443915843964,
                "z": -0.0022348060738295317
            },
            "position": {
                "x": 0.6094750761985779,
                "y": 0.3671506643295288,
                "z": 0.19426114857196808
            }
        },
        "name": "move_to_magneteinheit_A"
    },
    "id": "BFMT_move_to_magneteinheit_A_143",
    "joint_names": [
        "shoulder_pan_joint",
        "shoulder_lift_joint",
        "elbow_joint",
        "wrist_1_joint",
        "wrist_2_joint",
        "wrist_3_joint"
    ],
    "metrics": {
        "cart_traj_len": 3.3759688765403677,
        "distance_elbow_joint": 4.8057814427670476,
        "distance_shoulder_lift_joint": 0.4690781920501996,
        "distance_shoulder_pan_joint": 3.0408595982354107,
        "distance_wrist_1_joint": 3.4529071599209953,
        "distance_wrist_2_joint": 1.4488094302823848,
        "distance_wrist_3_joint": 1.0534487395792669,
        "smoothness": 0.2656422587089854,
        "time": 0.8955391079999999,
        "traj_len": 3.777682432766855,
        "weighted_distance": 4.612970694920706
    },
    "planner": "BFMT",
    "start": {
        "state": {
            "elbow_joint": -1.9196185241190666,
            "shoulder_lift_joint": -1.2443396400964142,
            "shoulder_pan_joint": 2.6996025414629847,
            "wrist_1_joint": -1.5485510000780065,
            "wrist_2_joint": -1.5709468930060704,
            "wrist_3_joint": 0.4420197071253992
        }
    },
    "waypoints": [
        {
            "positions": [
                2.6996025414629847,
                -1.2443396400964142,
                -1.9196185241190666,
                -1.5485510000780065,
                -1.5709468930060704,
                0.4420197071253992
            ]
        },
        {
            "positions": [
                2.527371380824703,
                -1.2392480186119585,
                -1.8277818274508146,
                -1.5043302341472853,
                -1.5222068233009265,
                0.4323009668880283
            ]
        },
        {
            "positions": [
                2.3551402201864216,
                -1.2341563971275027,
                -1.7359451307825626,
                -1.4601094682165643,
                -1.4734667535957824,
                0.4225822266506575
            ]
        },
        {
            "positions": [
                2.1829090595481397,
                -1.229064775643047,
                -1.6441084341143106,
                -1.415888702285843,
                -1.4247266838906385,
                0.41286348641328663
            ]
        },
        {
            "positions": [
                2.010677898909858,
                -1.2239731541585912,
                -1.5522717374460586,
                -1.371667936355122,
                -1.3759866141854946,
                0.4031447461759158
            ]
        },
        {
            "positions": [
                1.8384467382715766,
                -1.2188815326741356,
                -1.4604350407778068,
                -1.3274471704244009,
                -1.3272465444803505,
                0.393426005938545
            ]
        },
        {
            "positions": [
                1.666215577633295,
                -1.2137899111896797,
                -1.3685983441095546,
                -1.2832264044936799,
                -1.2785064747752066,
                0.38370726570117414
            ]
        },
        {
            "positions": [
                1.4939844169950134,
                -1.208698289705224,
                -1.2767616474413028,
                -1.2390056385629586,
                -1.2297664050700625,
                0.3739885254638033
            ]
        },
        {
            "positions": [
                1.3217532563567316,
                -1.2036066682207682,
                -1.1849249507730506,
                -1.1947848726322376,
                -1.1810263353649186,
                0.36426978522643244
            ]
        },
        {
            "positions": [
                1.14952209571845,
                -1.1985150467363126,
                -1.0930882541047988,
                -1.1505641067015164,
                -1.1322862656597747,
                0.3545510449890616
            ]
        },
        {
            "positions": [
                0.9772909350801684,
                -1.1934234252518567,
                -1.0012515574365468,
                -1.1063433407707954,
                -1.0835461959546309,
                0.3448323047516908
            ]
        },
        {
            "positions": [
                0.8050597744418868,
                -1.188331803767401,
                -0.9094148607682948,
                -1.0621225748400742,
                -1.0348061262494868,
                0.33511356451431995
            ]
        },
        {
            "positions": [
                0.6328286138036052,
                -1.1832401822829453,
                -0.8175781641000428,
                -1.017901808909353,
                -0.9860660565443428,
                0.3253948242769491
            ]
        },
        {
            "positions": [
                0.4605974531653234,
                -1.1781485607984896,
                -0.7257414674317908,
                -0.973681042978632,
                -0.9373259868391988,
                0.31567608403957825
            ]
        },
        {
            "positions": [
                0.28836629252704205,
                -1.1730569393140338,
                -0.6339047707635388,
                -0.9294602770479109,
                -0.8885859171340549,
                0.3059573438022074
            ]
        },
        {
            "positions": [
                0.11613513188876012,
                -1.1679653178295781,
                -0.5420680740952869,
                -0.8852395111171898,
                -0.8398458474289109,
                0.29623860356483656
            ]
        },
        {
            "positions": [
                0.10289062586331033,
                -1.165610935104697,
                -0.3668503546268791,
                -0.7485351434486545,
                -0.8063943882349736,
                0.3147438127692909
            ]
        },
        {
            "positions": [
                0.08964611983786054,
                -1.163256552379816,
                -0.19163263515847123,
                -0.6118307757801191,
                -0.7729429290410362,
                0.33324902197374523
            ]
        },
        {
            "positions": [
                0.07640161381241074,
                -1.1609021696549349,
                -0.01641491569006337,
                -0.4751264081115839,
                -0.7394914698470989,
                0.3517542311781996
            ]
        },
        {
            "positions": [
                0.06315710778696096,
                -1.1585477869300538,
                0.15880280377834444,
                -0.3384220404430486,
                -0.7060400106531616,
                0.3702594403826539
            ]
        },
        {
            "positions": [
                0.04991260176151116,
                -1.1561934042051725,
                0.33402052324675235,
                -0.20171767277451336,
                -0.6725885514592242,
                0.38876464958710827
            ]
        },
        {
            "positions": [
                0.03666809573606136,
                -1.1538390214802914,
                0.5092382427151602,
                -0.06501330510597803,
                -0.6391370922652869,
                0.40726985879156263
            ]
        },
        {
            "positions": [
                0.023423589710611592,
                -1.1514846387554103,
                0.6844559621835679,
                0.0716910625625572,
                -0.6056856330713496,
                0.42577506799601694
            ]
        },
        {
            "positions": [
                0.010179083685161794,
                -1.1491302560305292,
                0.8596736816519758,
                0.20839543023109264,
                -0.5722341738774124,
                0.44428027720047125
            ]
        },
        {
            "positions": [
                -0.0030654223402880043,
                -1.1467758733056481,
                1.0348914011203836,
                0.34509979789962775,
                -0.5387827146834749,
                0.46278548640492567
            ]
        },
        {
            "positions": [
                -0.016309928365737802,
                -1.144421490580767,
                1.2101091205887915,
                0.4818041655681631,
                -0.5053312554895377,
                0.48129069560938
            ]
        },
        {
            "positions": [
                -0.0295544343911876,
                -1.142067107855886,
                1.3853268400571994,
                0.6185085332366984,
                -0.47187979629560034,
                0.4997959048138343
            ]
        },
        {
            "positions": [
                -0.0427989404166374,
                -1.1397127251310049,
                1.5605445595256073,
                0.7552129009052337,
                -0.438428337101663,
                0.5183011140182887
            ]
        },
        {
            "positions": [
                -0.05604344644208717,
                -1.1373583424061235,
                1.7357622789940148,
                0.8919172685737689,
                -0.40497687790772574,
                0.536806323222743
            ]
        },
        {
            "positions": [
                -0.06928795246753694,
                -1.1350039596812425,
                1.9109799984624227,
                1.0286216362423042,
                -0.3715254187137884,
                0.5553115324271973
            ]
        },
        {
            "positions": [
                -0.08253245849298674,
                -1.1326495769563614,
                2.0861977179308306,
                1.1653260039108395,
                -0.3380739595198511,
                0.5738167416316517
            ]
        },
        {
            "positions": [
                -0.09577696451843654,
                -1.1302951942314803,
                2.2614154373992386,
                1.302030371579375,
                -0.30462250032591376,
                0.592321950836106
            ]
        },
        {
            "positions": [
                -0.10902147054388633,
                -1.1279408115065992,
                2.4366331568676465,
                1.4387347392479104,
                -0.2711710411319765,
                0.6108271600405604
            ]
        },
        {
            "positions": [
                -0.07031553950579654,
                -1.069160917596535,
                2.361711529904258,
                1.51633830934709,
                -0.24633211139726133,
                0.5119806467833969
            ]
        },
        {
            "positions": [
                -0.031609608467706746,
                -1.010381023686471,
                2.286789902940869,
                1.5939418794462696,
                -0.2214931816625462,
                0.41313413352623357
            ]
        },
        {
            "positions": [
                0.007096322570383062,
                -0.9516011297764069,
                2.21186827597748,
                1.6715454495454491,
                -0.19665425192783104,
                0.31428762026907014
            ]
        },
        {
            "positions": [
                0.04580225360847284,
                -0.8928212358663428,
                2.1369466490140914,
                1.7491490196446287,
                -0.1718153221931159,
                0.21544110701190677
            ]
        },
        {
            "positions": [
                0.08450818464656268,
                -0.8340413419562787,
                2.062025022050703,
                1.8267525897438084,
                -0.14697639245840072,
                0.11659459375474329
            ]
        },
        {
            "positions": [
                0.12321411568465247,
                -0.7752614480462146,
                1.9871033950873138,
                1.904356159842988,
                -0.1221374627236856,
                0.017748080497579952
            ]
        }
    ]
}