{
    "goal": {
        "global_pose": {
            "orientation": {
                "w": -0.4816463035849501,
                "x": 0.5182115481033762,
                "y": 0.4908360881923453,
                "z": -0.5084816262002911
            },
            "position": {
                "x": -0.8240239810943604,
                "y": -0.300875300988555,
                "z": 0.16403168439865112
            }
        },
        "name": "move_to_storage_C"
    },
    "id": "BFMT_move_to_storage_C_71",
    "joint_names": [
        "shoulder_pan_joint",
        "shoulder_lift_joint",
        "elbow_joint",
        "wrist_1_joint",
        "wrist_2_joint",
        "wrist_3_joint"
    ],
    "metrics": {
        "cart_traj_len": 0.5772558076865051,
        "distance_elbow_joint": 0.2611252996680047,
        "distance_shoulder_lift_joint": 0.19034972340220413,
        "distance_shoulder_pan_joint": 0.49329908555414903,
        "distance_wrist_1_joint": 0.08247141204546682,
        "distance_wrist_2_joint": 1.0784675450454135,
        "distance_wrist_3_joint": 0.06091517239065736,
        "smoothness": 2.5376526478085547e-16,
        "time": 0.462597,
        "traj_len": 1.4719470907970489,
        "weighted_distance": 1.8572553782337233
    },
    "planner": "BFMT",
    "start": {
        "state": {
            "elbow_joint": 2.010868314990456,
            "shoulder_lift_joint": -1.1634956873337592,
            "shoulder_pan_joint": -2.4736205022346125,
            "wrist_1_joint": -0.8367026794202681,
            "wrist_2_joint": 0.6746043897044499,
            "wrist_3_joint": -3.1496632123970403
        }
    },
    "waypoints": [
        {
            "positions": [
                -2.4736205022346125,
                -1.1634956873337592,
                2.010868314990456,
                -0.8367026794202681,
                0.6746043897044499,
                -3.1496632123970403
            ]
        },
        {
            "positions": [
                -2.5558370164936375,
                -1.1317707334333917,
                1.967347431712455,
                -0.822957444079357,
                0.8543489805453521,
                -3.139510683665264
            ]
        },
        {
            "positions": [
                -2.638053530752662,
                -1.1000457795330245,
                1.9238265484344543,
                -0.8092122087384458,
                1.0340935713862545,
                -3.1293581549334877
            ]
        },
        {
            "positions": [
                -2.720270045011687,
                -1.068320825632657,
                1.8803056651564534,
                -0.7954669733975347,
                1.2138381622271566,
                -3.119205626201712
            ]
        },
        {
            "positions": [
                -2.802486559270712,
                -1.0365958717322898,
                1.8367847818784526,
                -0.7817217380566236,
                1.393582753068059,
                -3.1090530974699355
            ]
        },
        {
            "positions": [
                -2.8847030735297365,
                -1.0048709178319224,
                1.7932638986004519,
                -0.7679765027157124,
                1.5733273439089612,
                -3.0989005687381592
            ]
        },
        {
            "positions": [
                -2.9669195877887615,
                -0.9731459639315551,
                1.7497430153224511,
                -0.7542312673748013,
                1.7530719347498636,
                -3.088748040006383
            ]
        }
    ]
}