{
    "goal": {
        "global_pose": {
            "orientation": {
                "w": 0.005598929693374612,
                "x": 0.007748599140229565,
                "y": 0.7110244013736278,
                "z": -0.7031023480610252
            },
            "position": {
                "x": -0.8858502320852131,
                "y": -0.7141253447532654,
                "z": 0.3711530566215515
            }
        },
        "name": "move_to_auspresseinheit_C"
    },
    "id": "BFMT_move_to_auspresseinheit_C_113",
    "joint_names": [
        "shoulder_pan_joint",
        "shoulder_lift_joint",
        "elbow_joint",
        "wrist_1_joint",
        "wrist_2_joint",
        "wrist_3_joint"
    ],
    "metrics": {
        "cart_traj_len": 0.4926707907041377,
        "distance_elbow_joint": 0.9855629601324605,
        "distance_shoulder_lift_joint": 0.3171341222340922,
        "distance_shoulder_pan_joint": 0.2563723377776701,
        "distance_wrist_1_joint": 0.6525316994484427,
        "distance_wrist_2_joint": 1.305490832796265,
        "distance_wrist_3_joint": 0.033442526168861786,
        "smoothness": 6.459479467149049e-16,
        "time": 0.434430678,
        "traj_len": 1.8842861986858028,
        "weighted_distance": 2.3612374008430885
    },
    "planner": "BFMT",
    "start": {
        "state": {
            "elbow_joint": 1.7527959577737207,
            "shoulder_lift_joint": -0.9740617694225068,
            "shoulder_pan_joint": -2.967991417825858,
            "wrist_1_joint": -0.759517768980727,
            "wrist_2_joint": 1.7443932448377408,
            "wrist_3_joint": -3.0840537646736568
        }
    },
    "waypoints": [
        {
            "positions": [
                -2.967991417825858,
                -0.9740617694225068,
                1.7527959577737207,
                -0.759517768980727,
                1.7443932448377408,
                -3.0840537646736568
            ]
        },
        {
            "positions": [
                -2.9417930207790612,
                -0.941134767518821,
                1.6512310948600433,
                -0.691758022751301,
                1.6102727785669322,
                -3.0882253730818623
            ]
        },
        {
            "positions": [
                -2.9155946237322645,
                -0.9082077656151352,
                1.549666231946366,
                -0.623998276521875,
                1.4761523122961238,
                -3.0923969814900683
            ]
        },
        {
            "positions": [
                -2.889396226685468,
                -0.8752807637114494,
                1.4481013690326887,
                -0.5562385302924491,
                1.3420318460253151,
                -3.0965685898982738
            ]
        },
        {
            "positions": [
                -2.8639994914515707,
                -0.8440874613510159,
                1.3508344588339132,
                -0.4920596073267113,
                1.2130133554561953,
                -3.099558261461737
            ]
        },
        {
            "positions": [
                -2.8386027562176737,
                -0.8128941589905823,
                1.2535675486351376,
                -0.42788068436097343,
                1.0839948648870754,
                -3.102547933025201
            ]
        },
        {
            "positions": [
                -2.8132060209837766,
                -0.7817008566301488,
                1.1563006384363623,
                -0.3637017613952356,
                0.9549763743179553,
                -3.1055376045886645
            ]
        },
        {
            "positions": [
                -2.787809285749879,
                -0.7505075542697152,
                1.0590337282375868,
                -0.2995228384294978,
                0.8259578837488355,
                -3.108527276152128
            ]
        },
        {
            "positions": [
                -2.762412550515982,
                -0.7193142519092817,
                0.9617668180388113,
                -0.23534391546375993,
                0.6969393931797155,
                -3.1115169477155913
            ]
        },
        {
            "positions": [
                -2.737015815282085,
                -0.6881209495488481,
                0.8644999078400357,
                -0.17116499249802214,
                0.5679209026105957,
                -3.114506619279055
            ]
        },
        {
            "positions": [
                -2.711619080048188,
                -0.6569276471884146,
                0.7672329976412602,
                -0.1069860695322843,
                0.43890241204147573,
                -3.1174962908425186
            ]
        }
    ]
}