{
    "goal": {
        "global_pose": {
            "orientation": {
                "w": 0.7047431493862688,
                "x": -0.7094548369677653,
                "y": 0.0024358444001904,
                "z": -0.0022348060817251984
            },
            "position": {
                "x": -0.39052492380142206,
                "y": 0.3671506643295288,
                "z": 0.19426114857196808
            }
        },
        "name": "move_to_magneteinheit_D"
    },
    "id": "BFMT_move_to_magneteinheit_D_14",
    "joint_names": [
        "shoulder_pan_joint",
        "shoulder_lift_joint",
        "elbow_joint",
        "wrist_1_joint",
        "wrist_2_joint",
        "wrist_3_joint"
    ],
    "metrics": {
        "cart_traj_len": 3.8561102946097234,
        "distance_elbow_joint": 3.177902912083081,
        "distance_shoulder_lift_joint": 1.1002645881634376,
        "distance_shoulder_pan_joint": 2.547635520903567,
        "distance_wrist_1_joint": 2.192267652629814,
        "distance_wrist_2_joint": 1.3429917828159195,
        "distance_wrist_3_joint": 6.326245233914812,
        "smoothness": 0.14147097511289491,
        "time": 1.50467287,
        "traj_len": 4.085010121224993,
        "weighted_distance": 5.733677493004467
    },
    "planner": "BFMT",
    "start": {
        "state": {
            "elbow_joint": 0.749534889911806,
            "shoulder_lift_joint": -0.6476975780787326,
            "shoulder_pan_joint": -2.711696901376241,
            "wrist_1_joint": -0.07506478083263063,
            "wrist_2_joint": 0.43296659715538205,
            "wrist_3_joint": -3.14703540197715
        }
    },
    "waypoints": [
        {
            "positions": [
                -2.711696901376241,
                -0.6476975780787326,
                0.749534889911806,
                -0.07506478083263063,
                0.43296659715538205,
                -3.14703540197715
            ]
        },
        {
            "positions": [
                -2.721976921339285,
                -0.6898835276508222,
                0.7860553477024901,
                -0.10123553731458401,
                0.47020828293356864,
                -3.1130011198765724
            ]
        },
        {
            "positions": [
                -2.6884668270966547,
                -0.7404001570987888,
                0.6463707249680442,
                -0.1639275656914031,
                0.5149001110104089,
                -3.0490696968665425
            ]
        },
        {
            "positions": [
                -2.6549567328540244,
                -0.7909167865467555,
                0.5066861022335982,
                -0.22661959406822216,
                0.5595919390872492,
                -2.985138273856513
            ]
        },
        {
            "positions": [
                -2.621446638611394,
                -0.8414334159947221,
                0.3670014794991523,
                -0.2893116224450412,
                0.6042837671640895,
                -2.9212068508464832
            ]
        },
        {
            "positions": [
                -2.5879365443687634,
                -0.8919500454426887,
                0.22731685676470637,
                -0.3520036508218603,
                0.6489755952409297,
                -2.8572754278364534
            ]
        },
        {
            "positions": [
                -2.554426450126133,
                -0.9424666748906554,
                0.08763223403026044,
                -0.4146956791986794,
                0.69366742331777,
                -2.7933440048264235
            ]
        },
        {
            "positions": [
                -2.520916355883503,
                -0.992983304338622,
                -0.05205238870418549,
                -0.4773877075754984,
                0.7383592513946102,
                -2.729412581816394
            ]
        },
        {
            "positions": [
                -2.4874062616408725,
                -1.0434999337865887,
                -0.1917370114386314,
                -0.5400797359523175,
                0.7830510794714506,
                -2.6654811588063643
            ]
        },
        {
            "positions": [
                -2.4032957819273815,
                -1.061302409149308,
                -0.3255518455671981,
                -0.6159995761825323,
                0.784463711409886,
                -2.600902849210624
            ]
        },
        {
            "positions": [
                -2.319185302213891,
                -1.0791048845120275,
                -0.4593666796957647,
                -0.691919416412747,
                0.7858763433483216,
                -2.536324539614884
            ]
        },
        {
            "positions": [
                -2.2350748225004,
                -1.0969073598747467,
                -0.5931815138243314,
                -0.7678392566429617,
                0.7872889752867571,
                -2.471746230019144
            ]
        },
        {
            "positions": [
                -2.1509643427869087,
                -1.114709835237466,
                -0.7269963479528981,
                -0.8437590968731765,
                0.7887016072251926,
                -2.407167920423404
            ]
        },
        {
            "positions": [
                -2.0668538630734177,
                -1.1325123106001853,
                -0.8608111820814649,
                -0.9196789371033913,
                0.790114239163628,
                -2.342589610827664
            ]
        },
        {
            "positions": [
                -1.982743383359927,
                -1.1503147859629048,
                -0.9946260162100314,
                -0.995598777333606,
                0.7915268711020635,
                -2.2780113012319236
            ]
        },
        {
            "positions": [
                -1.898632903646436,
                -1.168117261325624,
                -1.128440850338598,
                -1.0715186175638207,
                0.7929395030404991,
                -2.213432991636184
            ]
        },
        {
            "positions": [
                -1.814522423932945,
                -1.1859197366883434,
                -1.2622556844671649,
                -1.1474384577940355,
                0.7943521349789345,
                -2.1488546820404437
            ]
        },
        {
            "positions": [
                -1.730411944219454,
                -1.203722212051063,
                -1.3960705185957316,
                -1.2233582980242503,
                0.7957647669173701,
                -2.0842763724447035
            ]
        },
        {
            "positions": [
                -1.6463014645059633,
                -1.2215246874137822,
                -1.5298853527242984,
                -1.2992781382544651,
                0.7971773988558055,
                -2.0196980628489634
            ]
        },
        {
            "positions": [
                -1.5621909847924722,
                -1.2393271627765015,
                -1.663700186852865,
                -1.37519797848468,
                0.7985900307942411,
                -1.9551197532532234
            ]
        },
        {
            "positions": [
                -1.4780805050789814,
                -1.2571296381392207,
                -1.7975150209814315,
                -1.4511178187148945,
                0.8000026627326765,
                -1.8905414436574834
            ]
        },
        {
            "positions": [
                -1.3939700253654903,
                -1.2749321135019402,
                -1.9313298551099984,
                -1.5270376589451096,
                0.8014152946711119,
                -1.8259631340617433
            ]
        },
        {
            "positions": [
                -1.3098595456519995,
                -1.2927345888646595,
                -2.065144689238565,
                -1.6029574991753242,
                0.8028279266095475,
                -1.761384824466003
            ]
        },
        {
            "positions": [
                -1.218077642790008,
                -1.3015998403937625,
                -2.0957507833200637,
                -1.673691771069187,
                0.7759544634017449,
                -1.6588648602020024
            ]
        },
        {
            "positions": [
                -1.1262957399280165,
                -1.3104650919228655,
                -2.1263568774015624,
                -1.7444260429630496,
                0.7490810001939423,
                -1.5563448959380017
            ]
        },
        {
            "positions": [
                -1.0397512754358578,
                -1.3239585888001566,
                -2.141383065129106,
                -1.8063243028236218,
                0.7105794119011041,
                -1.395438428235104
            ]
        },
        {
            "positions": [
                -0.9532068109436991,
                -1.3374520856774477,
                -2.1564092528566494,
                -1.868222562684194,
                0.6720778236082658,
                -1.2345319605322063
            ]
        },
        {
            "positions": [
                -0.8666623464515403,
                -1.350945582554739,
                -2.171435440584193,
                -1.9301208225447661,
                0.6335762353154277,
                -1.0736254928293087
            ]
        },
        {
            "positions": [
                -0.7801178819593816,
                -1.36443907943203,
                -2.1864616283117364,
                -1.9920190824053385,
                0.5950746470225895,
                -0.9127190251264109
            ]
        },
        {
            "positions": [
                -0.6935734174672229,
                -1.377932576309321,
                -2.2014878160392795,
                -2.0539173422659105,
                0.5565730587297513,
                -0.7518125574235132
            ]
        },
        {
            "positions": [
                -0.6070289529750641,
                -1.3914260731866124,
                -2.216514003766823,
                -2.115815602126483,
                0.518071470436913,
                -0.5909060897206155
            ]
        },
        {
            "positions": [
                -0.5204844884829054,
                -1.4049195700639034,
                -2.2315401914943664,
                -2.177713861987055,
                0.47956988214407487,
                -0.4299996220177178
            ]
        },
        {
            "positions": [
                -0.4339400239907467,
                -1.4184130669411945,
                -2.24656637922191,
                -2.2396121218476273,
                0.44106829385123664,
                -0.26909315431482006
            ]
        },
        {
            "positions": [
                -0.41476166986828633,
                -1.4437629976566542,
                -2.254932589019448,
                -2.237479790184949,
                0.39403976918943334,
                -0.003839078449244415
            ]
        },
        {
            "positions": [
                -0.39558331574582595,
                -1.4691129283721138,
                -2.2632987988169866,
                -2.235347458522271,
                0.34701124452763,
                0.26141499741633123
            ]
        },
        {
            "positions": [
                -0.37640496162336556,
                -1.4944628590875735,
                -2.2716650086145247,
                -2.2332151268595926,
                0.2999827198658267,
                0.5266690732819069
            ]
        },
        {
            "positions": [
                -0.3572266075009052,
                -1.5198127898030331,
                -2.280031218412063,
                -2.2310827951969143,
                0.2529541952040234,
                0.7919231491474825
            ]
        },
        {
            "positions": [
                -0.3380482533784448,
                -1.5451627205184928,
                -2.2883974282096013,
                -2.228950463534236,
                0.2059256705422201,
                1.0571772250130582
            ]
        },
        {
            "positions": [
                -0.3188698992559844,
                -1.5705126512339525,
                -2.2967636380071395,
                -2.226818131871558,
                0.1588971458804168,
                1.322431300878634
            ]
        },
        {
            "positions": [
                -0.29969154513352403,
                -1.595862581949412,
                -2.3051298478046776,
                -2.2246858002088796,
                0.11186862121861352,
                1.5876853767442092
            ]
        },
        {
            "positions": [
                -0.28051319101106365,
                -1.621212512664872,
                -2.3134960576022157,
                -2.2225534685462014,
                0.06484009655681017,
                1.852939452609785
            ]
        },
        {
            "positions": [
                -0.26133483688860326,
                -1.6465624433803316,
                -2.321862267399754,
                -2.220421136883523,
                0.017811571895006928,
                2.11819352847536
            ]
        },
        {
            "positions": [
                -0.24215648276614285,
                -1.6719123740957913,
                -2.3302284771972923,
                -2.218288805220845,
                -0.029216952766796422,
                2.3834476043409367
            ]
        },
        {
            "positions": [
                -0.22297812864368247,
                -1.697262304811251,
                -2.3385946869948304,
                -2.2161564735581667,
                -0.07624547742859972,
                2.6487016802065115
            ]
        },
        {
            "positions": [
                -0.20379977452122208,
                -1.7226122355267106,
                -2.346960896792369,
                -2.2140241418954885,
                -0.12327400209040301,
                2.913955756072088
            ]
        },
        {
            "positions": [
                -0.1846214203987617,
                -1.7479621662421703,
                -2.355327106589907,
                -2.2118918102328102,
                -0.17030252675220625,
                3.179209831937663
            ]
        }
    ]
}