{
    "goal": {
        "global_pose": {
            "orientation": {
                "w": 0.7031023480610252,
                "x": -0.7110244013736278,
                "y": 0.0077485991402295624,
                "z": 0.005598929693374583
            },
            "position": {
                "x": -0.8841497679147869,
                "y": 0.44412534475326537,
                "z": 0.3711530566215515
            }
        },
        "name": "move_to_auspresseinheit_D"
    },
    "id": "BFMT_move_to_auspresseinheit_D_75",
    "joint_names": [
        "shoulder_pan_joint",
        "shoulder_lift_joint",
        "elbow_joint",
        "wrist_1_joint",
        "wrist_2_joint",
        "wrist_3_joint"
    ],
    "metrics": {
        "cart_traj_len": 0.3446627877260305,
        "distance_elbow_joint": 0.6706209105207142,
        "distance_shoulder_lift_joint": 0.13882282552331437,
        "distance_shoulder_pan_joint": 0.13329042248419237,
        "distance_wrist_1_joint": 0.6370295167247262,
        "distance_wrist_2_joint": 1.4354319091722807,
        "distance_wrist_3_joint": 0.09713664518643572,
        "smoothness": 0.0,
        "time": 0.46529674099999996,
        "traj_len": 1.7641803279743438,
        "weighted_distance": 2.3192815581299184
    },
    "planner": "BFMT",
    "start": {
        "state": {
            "elbow_joint": -1.8275523626775212,
            "shoulder_lift_joint": -2.126789852344167,
            "shoulder_pan_joint": -0.03513704404078235,
            "wrist_1_joint": -2.347782403156801,
            "wrist_2_joint": -1.6058999987535132,
            "wrist_3_joint": -3.0880379163319196
        }
    },
    "waypoints": [
        {
            "positions": [
                -0.03513704404078235,
                -2.126789852344167,
                -1.8275523626775212,
                -2.347782403156801,
                -1.6058999987535132,
                -3.0880379163319196
            ]
        },
        {
            "positions": [
                -0.051798346851306395,
                -2.144142705534581,
                -1.743724748862432,
                -2.4274110927473918,
                -1.4264710101069782,
                -3.0758958356836152
            ]
        },
        {
            "positions": [
                -0.06845964966183044,
                -2.1614955587249955,
                -1.6598971350473426,
                -2.5070397823379826,
                -1.247042021460443,
                -3.063753755035311
            ]
        },
        {
            "positions": [
                -0.08512095247235449,
                -2.1788484119154097,
                -1.5760695212322533,
                -2.586668471928573,
                -1.067613032813908,
                -3.051611674387006
            ]
        },
        {
            "positions": [
                -0.10178225528287854,
                -2.196201265105824,
                -1.492241907417164,
                -2.666297161519164,
                -0.8881840441673728,
                -3.0394695937387017
            ]
        },
        {
            "positions": [
                -0.1184435580934026,
                -2.2135541182962384,
                -1.4084142936020747,
                -2.745925851109755,
                -0.7087550555208377,
                -3.0273275130903974
            ]
        },
        {
            "positions": [
                -0.13510486090392662,
                -2.2309069714866525,
                -1.3245866797869856,
                -2.8255545407003453,
                -0.5293260668743027,
                -3.0151854324420926
            ]
        },
        {
            "positions": [
                -0.15176616371445067,
                -2.248259824677067,
                -1.2407590659718963,
                -2.905183230290936,
                -0.3498970782277675,
                -3.0030433517937882
            ]
        },
        {
            "positions": [
                -0.16842746652497473,
                -2.265612677867481,
                -1.156931452156807,
                -2.984811919881527,
                -0.17046808958123252,
                -2.990901271145484
            ]
        }
    ]
}