{
    "goal": {
        "global_pose": {
            "orientation": {
                "w": 0.7031023480610252,
                "x": -0.7110244013736278,
                "y": 0.0077485991402295624,
                "z": 0.005598929693374583
            },
            "position": {
                "x": -0.8841497679147869,
                "y": 0.44412534475326537,
                "z": 0.3711530566215515
            }
        },
        "name": "move_to_auspresseinheit_D"
    },
    "id": "BFMT_move_to_auspresseinheit_D_94",
    "joint_names": [
        "shoulder_pan_joint",
        "shoulder_lift_joint",
        "elbow_joint",
        "wrist_1_joint",
        "wrist_2_joint",
        "wrist_3_joint"
    ],
    "metrics": {
        "cart_traj_len": 0.3427723683303112,
        "distance_elbow_joint": 0.6479152277913156,
        "distance_shoulder_lift_joint": 0.12683080196415686,
        "distance_shoulder_pan_joint": 0.13305684213607527,
        "distance_wrist_1_joint": 0.5680860939041592,
        "distance_wrist_2_joint": 1.4354422718626894,
        "distance_wrist_3_joint": 0.037829315263041785,
        "smoothness": 1.9737298371844314e-16,
        "time": 0.526283097,
        "traj_len": 1.717312013852299,
        "weighted_distance": 2.2423977232450025
    },
    "planner": "BFMT",
    "start": {
        "state": {
            "elbow_joint": -1.8275523626775212,
            "shoulder_lift_joint": -2.126789852344167,
            "shoulder_pan_joint": -0.03513704404078235,
            "wrist_1_joint": -2.347782403156801,
            "wrist_2_joint": -1.6058999987535132,
            "wrist_3_joint": -3.0880379163319196
        }
    },
    "waypoints": [
        {
            "positions": [
                -0.03513704404078235,
                -2.126789852344167,
                -1.8275523626775212,
                -2.347782403156801,
                -1.6058999987535132,
                -3.0880379163319196
            ]
        },
        {
            "positions": [
                -0.05176914930779176,
                -2.1426437025896865,
                -1.7465629592036067,
                -2.418793164894821,
                -1.426469714770677,
                -3.0833092519240393
            ]
        },
        {
            "positions": [
                -0.06840125457480117,
                -2.158497552835206,
                -1.6655735557296922,
                -2.489803926632841,
                -1.247039430787841,
                -3.078580587516159
            ]
        },
        {
            "positions": [
                -0.08503335984181057,
                -2.174351403080726,
                -1.5845841522557778,
                -2.5608146883708605,
                -1.0676091468050046,
                -3.073851923108279
            ]
        },
        {
            "positions": [
                -0.10166546510881999,
                -2.190205253326245,
                -1.5035947487818633,
                -2.6318254501088805,
                -0.8881788628221685,
                -3.0691232587003987
            ]
        },
        {
            "positions": [
                -0.11829757037582939,
                -2.2060591035717647,
                -1.4226053453079488,
                -2.7028362118469005,
                -0.7087485788393324,
                -3.0643945942925184
            ]
        },
        {
            "positions": [
                -0.1349296756428388,
                -2.2219129538172844,
                -1.3416159418340345,
                -2.77384697358492,
                -0.5293182948564961,
                -3.0596659298846385
            ]
        },
        {
            "positions": [
                -0.1515617809098482,
                -2.237766804062804,
                -1.26062653836012,
                -2.84485773532294,
                -0.34988801087365995,
                -3.054937265476758
            ]
        },
        {
            "positions": [
                -0.16819388617685763,
                -2.2536206543083237,
                -1.1796371348862056,
                -2.91586849706096,
                -0.17045772689082386,
                -3.050208601068878
            ]
        }
    ]
}