{
    "goal": {
        "global_pose": {
            "orientation": {
                "w": 0.7047431493862688,
                "x": -0.7094548369677653,
                "y": 0.0024358444001904,
                "z": -0.0022348060817251984
            },
            "position": {
                "x": -0.39052492380142206,
                "y": 0.3671506643295288,
                "z": 0.19426114857196808
            }
        },
        "name": "move_to_magneteinheit_D"
    },
    "id": "BFMT_move_to_magneteinheit_D_28",
    "joint_names": [
        "shoulder_pan_joint",
        "shoulder_lift_joint",
        "elbow_joint",
        "wrist_1_joint",
        "wrist_2_joint",
        "wrist_3_joint"
    ],
    "metrics": {
        "cart_traj_len": 4.643449611089232,
        "distance_elbow_joint": 3.415286795498633,
        "distance_shoulder_lift_joint": 1.1258539866910375,
        "distance_shoulder_pan_joint": 2.8845473973198805,
        "distance_wrist_1_joint": 2.3450404386556603,
        "distance_wrist_2_joint": 0.9977925165728803,
        "distance_wrist_3_joint": 0.7811624233884915,
        "smoothness": 0.45900003762993075,
        "time": 0.977680981,
        "traj_len": 3.3984825375638725,
        "weighted_distance": 4.0564567494467525
    },
    "planner": "BFMT",
    "start": {
        "state": {
            "elbow_joint": 0.749534889911806,
            "shoulder_lift_joint": -0.6476975780787326,
            "shoulder_pan_joint": -2.711696901376241,
            "wrist_1_joint": -0.07506478083263063,
            "wrist_2_joint": 0.43296659715538205,
            "wrist_3_joint": -3.14703540197715
        }
    },
    "waypoints": [
        {
            "positions": [
                -2.711696901376241,
                -0.6476975780787326,
                0.749534889911806,
                -0.07506478083263063,
                0.43296659715538205,
                -3.14703540197715
            ]
        },
        {
            "positions": [
                -2.6880041234311833,
                -0.6992712695735847,
                0.8285967939065654,
                -0.029260621764135936,
                0.5306487278930997,
                -3.1031481845114284
            ]
        },
        {
            "positions": [
                -2.6643113454861256,
                -0.7508449610684367,
                0.9076586979013248,
                0.016543537304358757,
                0.6283308586308174,
                -3.0592609670457063
            ]
        },
        {
            "positions": [
                -2.536081909424976,
                -0.8051777660108402,
                0.8033147919502356,
                -0.05143924217456848,
                0.6140614830570851,
                -3.0419737465420043
            ]
        },
        {
            "positions": [
                -2.4078524733638265,
                -0.8595105709532439,
                0.6989708859991464,
                -0.11942202165349572,
                0.5997921074833529,
                -3.0246865260383022
            ]
        },
        {
            "positions": [
                -2.279623037302677,
                -0.9138433758956475,
                0.594626980048057,
                -0.18740480113242297,
                0.5855227319096206,
                -3.0073993055346
            ]
        },
        {
            "positions": [
                -2.1513936012415273,
                -0.9681761808380511,
                0.4902830740969679,
                -0.2553875806113502,
                0.5712533563358884,
                -2.990112085030898
            ]
        },
        {
            "positions": [
                -2.0231641651803782,
                -1.0225089857804548,
                0.3859391681458787,
                -0.3233703600902774,
                0.556983980762156,
                -2.972824864527196
            ]
        },
        {
            "positions": [
                -1.8949347291192284,
                -1.0768417907228582,
                0.28159526219478936,
                -0.3913531395692047,
                0.5427146051884237,
                -2.955537644023494
            ]
        },
        {
            "positions": [
                -1.766705293058079,
                -1.131174595665262,
                0.17725135624370025,
                -0.45933591904813187,
                0.5284452296146915,
                -2.938250423519792
            ]
        },
        {
            "positions": [
                -1.6384758569969295,
                -1.1855074006076656,
                0.07290745029261103,
                -0.5273186985270591,
                0.5141758540409592,
                -2.9209632030160906
            ]
        },
        {
            "positions": [
                -1.51024642093578,
                -1.239840205550069,
                -0.0314364556584783,
                -0.5953014780059863,
                0.499906478467227,
                -2.9036759825123886
            ]
        },
        {
            "positions": [
                -1.3820169848746304,
                -1.2941730104924727,
                -0.1357803616095674,
                -0.6632842574849136,
                0.4856371028934947,
                -2.8863887620086865
            ]
        },
        {
            "positions": [
                -1.2537875488134809,
                -1.3485058154348764,
                -0.24012426756065675,
                -0.7312670369638409,
                0.47136772731976245,
                -2.8691015415049845
            ]
        },
        {
            "positions": [
                -1.1255581127523313,
                -1.4028386203772798,
                -0.3444681735117461,
                -0.7992498164427682,
                0.4570983517460302,
                -2.8518143210012825
            ]
        },
        {
            "positions": [
                -0.9973286766911822,
                -1.4571714253196835,
                -0.44881207946283497,
                -0.8672325959216952,
                0.44282897617229794,
                -2.8345271004975805
            ]
        },
        {
            "positions": [
                -0.8690992406300326,
                -1.5115042302620871,
                -0.5531559854139243,
                -0.9352153754006225,
                0.4285596005985657,
                -2.8172398799938785
            ]
        },
        {
            "positions": [
                -0.7408698045688831,
                -1.5658370352044906,
                -0.6574998913650136,
                -1.0031981548795497,
                0.41429022502483337,
                -2.7999526594901765
            ]
        },
        {
            "positions": [
                -0.6126403685077335,
                -1.6201698401468942,
                -0.7618437973161027,
                -1.071180934358477,
                0.4000208494511011,
                -2.7826654389864744
            ]
        },
        {
            "positions": [
                -0.48441093244658384,
                -1.674502645089298,
                -0.8661877032671922,
                -1.1391637138374042,
                0.38575147387736886,
                -2.7653782184827724
            ]
        },
        {
            "positions": [
                -0.42472292312271726,
                -1.685145717765388,
                -1.0015063886926734,
                -1.2430632819613714,
                0.3534647334865834,
                -2.7601000599080363
            ]
        },
        {
            "positions": [
                -0.36503491379885067,
                -1.695788790441478,
                -1.1368250741181545,
                -1.3469628500853386,
                0.32117799309579803,
                -2.7548219013333
            ]
        },
        {
            "positions": [
                -0.30534690447498414,
                -1.7064318631175677,
                -1.2721437595436356,
                -1.4508624182093057,
                0.2888912527050126,
                -2.7495437427585636
            ]
        },
        {
            "positions": [
                -0.24565889515111752,
                -1.7170749357936577,
                -1.4074624449691169,
                -1.554761986333273,
                0.2566045123142272,
                -2.7442655841838275
            ]
        },
        {
            "positions": [
                -0.18597088582725096,
                -1.7277180084697477,
                -1.542781130394598,
                -1.65866155445724,
                0.22431777192344177,
                -2.7389874256090914
            ]
        },
        {
            "positions": [
                -0.12628287650338438,
                -1.7383610811458374,
                -1.678099815820079,
                -1.7625611225812072,
                0.19203103153265633,
                -2.733709267034355
            ]
        },
        {
            "positions": [
                -0.06659486717951779,
                -1.7490041538219274,
                -1.8134185012455601,
                -1.8664606907051744,
                0.15974429114187091,
                -2.7284311084596187
            ]
        },
        {
            "positions": [
                -0.006906857855651212,
                -1.7596472264980174,
                -1.9487371866710415,
                -1.9703602588291416,
                0.1274575507510855,
                -2.7231529498848825
            ]
        },
        {
            "positions": [
                -0.016853633402679355,
                -1.755996755672005,
                -2.0646885637969485,
                -2.054313489433216,
                0.06801829806639584,
                -2.774393413294266
            ]
        },
        {
            "positions": [
                -0.026800408949707498,
                -1.7523462848459925,
                -2.180639940922856,
                -2.1382667200372905,
                0.00857904538170616,
                -2.8256338767036495
            ]
        },
        {
            "positions": [
                -0.03674718449673564,
                -1.7486958140199802,
                -2.296591318048763,
                -2.2222199506413647,
                -0.050860207302983504,
                -2.876874340113033
            ]
        },
        {
            "positions": [
                -0.11170569807583894,
                -1.750172276916838,
                -2.323047803828276,
                -2.2295542669278383,
                -0.11247880188480563,
                -2.9786536306470697
            ]
        },
        {
            "positions": [
                -0.18666421165494224,
                -1.7516487398136957,
                -2.349504289607789,
                -2.236888583214312,
                -0.17409739646662778,
                -3.0804329211811066
            ]
        }
    ]
}