{
    "goal": {
        "global_pose": {
            "orientation": {
                "w": 0.7031023480610252,
                "x": -0.7110244013736278,
                "y": 0.0077485991402295624,
                "z": 0.005598929693374583
            },
            "position": {
                "x": -0.8841497679147869,
                "y": 0.44412534475326537,
                "z": 0.3711530566215515
            }
        },
        "name": "move_to_auspresseinheit_D"
    },
    "id": "BFMT_move_to_auspresseinheit_D_85",
    "joint_names": [
        "shoulder_pan_joint",
        "shoulder_lift_joint",
        "elbow_joint",
        "wrist_1_joint",
        "wrist_2_joint",
        "wrist_3_joint"
    ],
    "metrics": {
        "cart_traj_len": 0.34353286799608196,
        "distance_elbow_joint": 0.6429710644866697,
        "distance_shoulder_lift_joint": 0.12328983519006798,
        "distance_shoulder_pan_joint": 0.1340378756564244,
        "distance_wrist_1_joint": 0.5525475462259624,
        "distance_wrist_2_joint": 1.4301413741871603,
        "distance_wrist_3_joint": 0.009038653651531892,
        "smoothness": 1.9737298371844314e-16,
        "time": 0.443093546,
        "traj_len": 1.7005958806835375,
        "weighted_distance": 2.2119657721388917
    },
    "planner": "BFMT",
    "start": {
        "state": {
            "elbow_joint": -1.8275523626775212,
            "shoulder_lift_joint": -2.126789852344167,
            "shoulder_pan_joint": -0.03513704404078235,
            "wrist_1_joint": -2.347782403156801,
            "wrist_2_joint": -1.6058999987535132,
            "wrist_3_joint": -3.0880379163319196
        }
    },
    "waypoints": [
        {
            "positions": [
                -0.03513704404078235,
                -2.126789852344167,
                -1.8275523626775212,
                -2.347782403156801,
                -1.6058999987535132,
                -3.0880379163319196
            ]
        },
        {
            "positions": [
                -0.0518917784978354,
                -2.1422010817429253,
                -1.7471809796166875,
                -2.416850846435046,
                -1.4271323269801182,
                -3.086908084625478
            ]
        },
        {
            "positions": [
                -0.06864651295488844,
                -2.157612311141684,
                -1.6668095965558538,
                -2.4859192897132916,
                -1.2483646552067231,
                -3.0857782529190367
            ]
        },
        {
            "positions": [
                -0.0854012474119415,
                -2.1730235405404423,
                -1.5864382134950201,
                -2.554987732991537,
                -1.069596983433328,
                -3.084648421212595
            ]
        },
        {
            "positions": [
                -0.10215598186899455,
                -2.188434769939201,
                -1.5060668304341864,
                -2.6240561762697823,
                -0.8908293116599331,
                -3.083518589506154
            ]
        },
        {
            "positions": [
                -0.1189107163260476,
                -2.2038459993379593,
                -1.4256954473733527,
                -2.693124619548027,
                -0.712061639886538,
                -3.082388757799712
            ]
        },
        {
            "positions": [
                -0.13566545078310063,
                -2.219257228736718,
                -1.3453240643125188,
                -2.7621930628262725,
                -0.533293968113143,
                -3.0812589260932706
            ]
        },
        {
            "positions": [
                -0.1524201852401537,
                -2.2346684581354763,
                -1.2649526812516851,
                -2.831261506104518,
                -0.35452629633974797,
                -3.0801290943868294
            ]
        },
        {
            "positions": [
                -0.16917491969720674,
                -2.250079687534235,
                -1.1845812981908515,
                -2.9003299493827632,
                -0.1757586245663529,
                -3.0789992626803877
            ]
        }
    ]
}