{
    "goal": {
        "global_pose": {
            "orientation": {
                "w": 0.7031023480610252,
                "x": -0.7110244013736278,
                "y": 0.0077485991402295624,
                "z": 0.005598929693374583
            },
            "position": {
                "x": -0.8841497679147869,
                "y": 0.44412534475326537,
                "z": 0.3711530566215515
            }
        },
        "name": "move_to_auspresseinheit_D"
    },
    "id": "BFMT_move_to_auspresseinheit_D_6",
    "joint_names": [
        "shoulder_pan_joint",
        "shoulder_lift_joint",
        "elbow_joint",
        "wrist_1_joint",
        "wrist_2_joint",
        "wrist_3_joint"
    ],
    "metrics": {
        "cart_traj_len": 0.3442266367015723,
        "distance_elbow_joint": 0.6615642886997786,
        "distance_shoulder_lift_joint": 0.13505235323503317,
        "distance_shoulder_pan_joint": 0.1338516060965323,
        "distance_wrist_1_joint": 0.592642828871893,
        "distance_wrist_2_joint": 1.4490204923399266,
        "distance_wrist_3_joint": 0.03976959513497569,
        "smoothness": 3.947459674368863e-16,
        "time": 0.45245018,
        "traj_len": 1.7354829772654468,
        "weighted_distance": 2.2656353801659943
    },
    "planner": "BFMT",
    "start": {
        "state": {
            "elbow_joint": -1.8275523626775212,
            "shoulder_lift_joint": -2.126789852344167,
            "shoulder_pan_joint": -0.03513704404078235,
            "wrist_1_joint": -2.347782403156801,
            "wrist_2_joint": -1.6058999987535132,
            "wrist_3_joint": -3.0880379163319196
        }
    },
    "waypoints": [
        {
            "positions": [
                -0.03513704404078235,
                -2.126789852344167,
                -1.8275523626775212,
                -2.347782403156801,
                -1.6058999987535132,
                -3.0880379163319196
            ]
        },
        {
            "positions": [
                -0.051868494802848886,
                -2.143671396498546,
                -1.7448568265900488,
                -2.4218627567657873,
                -1.4247724372110224,
                -3.0830667169400474
            ]
        },
        {
            "positions": [
                -0.06859994556491542,
                -2.1605529406529254,
                -1.6621612905025764,
                -2.4959431103747742,
                -1.2436448756685317,
                -3.0780955175481757
            ]
        },
        {
            "positions": [
                -0.08533139632698196,
                -2.1774344848073044,
                -1.5794657544151043,
                -2.5700234639837607,
                -1.0625173141260407,
                -3.073124318156304
            ]
        },
        {
            "positions": [
                -0.1020628470890485,
                -2.1943160289616834,
                -1.496770218327632,
                -2.6441038175927476,
                -0.8813897525835499,
                -3.0681531187644318
            ]
        },
        {
            "positions": [
                -0.11879429785111503,
                -2.2111975731160625,
                -1.4140746822401595,
                -2.718184171201734,
                -0.7002621910410591,
                -3.0631819193725596
            ]
        },
        {
            "positions": [
                -0.13552574861318156,
                -2.2280791172704415,
                -1.3313791461526874,
                -2.7922645248107205,
                -0.5191346294985681,
                -3.058210719980688
            ]
        },
        {
            "positions": [
                -0.15225719937524812,
                -2.244960661424821,
                -1.248683610065215,
                -2.8663448784197074,
                -0.3380070679560774,
                -3.053239520588816
            ]
        },
        {
            "positions": [
                -0.16898865013731465,
                -2.2618422055792,
                -1.1659880739777426,
                -2.940425232028694,
                -0.1568795064135865,
                -3.048268321196944
            ]
        }
    ]
}