{
    "goal": {
        "global_pose": {
            "orientation": {
                "w": 0.5084816262002911,
                "x": -0.4908360881923452,
                "y": 0.5182115481033761,
                "z": -0.48164630358495003
            },
            "position": {
                "x": 0.5540239810943604,
                "y": -0.46912469901144505,
                "z": 0.16403168439865112
            }
        },
        "name": "move_to_storage_B"
    },
    "id": "BFMT_move_to_storage_B_96",
    "joint_names": [
        "shoulder_pan_joint",
        "shoulder_lift_joint",
        "elbow_joint",
        "wrist_1_joint",
        "wrist_2_joint",
        "wrist_3_joint"
    ],
    "metrics": {
        "cart_traj_len": 0.8651565522592558,
        "distance_elbow_joint": 0.3577211769188633,
        "distance_shoulder_lift_joint": 0.46120045619554406,
        "distance_shoulder_pan_joint": 0.6212909956302773,
        "distance_wrist_1_joint": 3.0207033847344134,
        "distance_wrist_2_joint": 2.7006788304082203,
        "distance_wrist_3_joint": 3.113172676561669,
        "smoothness": 0.06061860073210819,
        "time": 0.631532849,
        "traj_len": 3.205427821750006,
        "weighted_distance": 4.714074149683579
    },
    "planner": "BFMT",
    "start": {
        "state": {
            "elbow_joint": 1.664937868594044,
            "shoulder_lift_joint": -0.661644460510453,
            "shoulder_pan_joint": -0.9139846352900073,
            "wrist_1_joint": 2.146753192139373,
            "wrist_2_joint": -2.2341966793290973,
            "wrist_3_joint": 0.005466555786416001
        }
    },
    "waypoints": [
        {
            "positions": [
                -0.9139846352900073,
                -0.661644460510453,
                1.664937868594044,
                2.146753192139373,
                -2.2341966793290973,
                0.005466555786416001
            ]
        },
        {
            "positions": [
                -0.8924647988812662,
                -0.682731742487408,
                1.6820670188561198,
                2.115256861227957,
                -2.170280129039878,
                -0.024772693714300728
            ]
        },
        {
            "positions": [
                -0.85953085497609,
                -0.720150256493955,
                1.712299049175714,
                2.040760701510391,
                -2.0461821383197214,
                -0.09846366944108789
            ]
        },
        {
            "positions": [
                -0.8265969110709139,
                -0.7575687705005022,
                1.7425310794953082,
                1.9662645417928242,
                -1.9220841475995651,
                -0.17215464516787504
            ]
        },
        {
            "positions": [
                -0.7936629671657378,
                -0.7949872845070493,
                1.7727631098149024,
                1.8917683820752578,
                -1.7979861568794089,
                -0.24584562089466222
            ]
        },
        {
            "positions": [
                -0.7607290232605618,
                -0.8324057985135963,
                1.8029951401344966,
                1.8172722223576914,
                -1.6738881661592526,
                -0.3195365966214494
            ]
        },
        {
            "positions": [
                -0.7277950793553857,
                -0.8698243125201435,
                1.8332271704540908,
                1.742776062640125,
                -1.5497901754390961,
                -0.3932275723482366
            ]
        },
        {
            "positions": [
                -0.6948611354502096,
                -0.9072428265266905,
                1.863459200773685,
                1.6682799029225586,
                -1.4256921847189399,
                -0.46691854807502375
            ]
        },
        {
            "positions": [
                -0.7149695102397335,
                -0.9180229310356558,
                1.871419193010646,
                1.5411683981466786,
                -1.3310834679290366,
                -0.5989579267100352
            ]
        },
        {
            "positions": [
                -0.7350778850292575,
                -0.9288030355446212,
                1.8793791852476072,
                1.4140568933707987,
                -1.2364747511391334,
                -0.7309973053450467
            ]
        },
        {
            "positions": [
                -0.7551862598187815,
                -0.9395831400535866,
                1.8873391774845683,
                1.2869453885949187,
                -1.1418660343492302,
                -0.8630366839800581
            ]
        },
        {
            "positions": [
                -0.7752946346083055,
                -0.9503632445625518,
                1.8952991697215293,
                1.1598338838190387,
                -1.047257317559327,
                -0.9950760626150695
            ]
        },
        {
            "positions": [
                -0.7954030093978295,
                -0.9611433490715171,
                1.9032591619584904,
                1.0327223790431588,
                -0.9526486007694237,
                -1.127115441250081
            ]
        },
        {
            "positions": [
                -0.8155113841873535,
                -0.9719234535804825,
                1.9112191541954517,
                0.9056108742672788,
                -0.8580398839795205,
                -1.2591548198850924
            ]
        },
        {
            "positions": [
                -0.8356197589768775,
                -0.9827035580894479,
                1.9191791464324128,
                0.778499369491399,
                -0.7634311671896172,
                -1.391194198520104
            ]
        },
        {
            "positions": [
                -0.8557281337664014,
                -0.9934836625984131,
                1.927139138669374,
                0.6513878647155189,
                -0.668822450399714,
                -1.5232335771551153
            ]
        },
        {
            "positions": [
                -0.8758365085559254,
                -1.0042637671073784,
                1.935099130906335,
                0.524276359939639,
                -0.5742137336098108,
                -1.655272955790127
            ]
        },
        {
            "positions": [
                -0.8959448833454493,
                -1.015043871616344,
                1.943059123143296,
                0.397164855163759,
                -0.4796050168199075,
                -1.7873123344251383
            ]
        },
        {
            "positions": [
                -0.9160532581349734,
                -1.0258239761253092,
                1.9510191153802572,
                0.2700533503878788,
                -0.3849963000300043,
                -1.9193517130601498
            ]
        },
        {
            "positions": [
                -0.9361616329244973,
                -1.0366040806342744,
                1.9589791076172183,
                0.14294184561199907,
                -0.29038758324010105,
                -2.0513910916951614
            ]
        },
        {
            "positions": [
                -0.9562700077140214,
                -1.0473841851432397,
                1.9669390998541794,
                0.015830340836119117,
                -0.19577886645019782,
                -2.1834304703301726
            ]
        },
        {
            "positions": [
                -0.9763783825035453,
                -1.058164289652205,
                1.9748990920911405,
                -0.11128116393976062,
                -0.10117014966029458,
                -2.3154698489651837
            ]
        },
        {
            "positions": [
                -0.9964867572930692,
                -1.0689443941611705,
                1.9828590843281018,
                -0.2383926687156408,
                -0.006561432870391348,
                -2.4475092276001957
            ]
        },
        {
            "positions": [
                -1.0165951320825932,
                -1.0797244986701358,
                1.9908190765650629,
                -0.36550417349152076,
                0.08804728391951189,
                -2.579548606235207
            ]
        },
        {
            "positions": [
                -1.0367035068721173,
                -1.090504603179101,
                1.998779068802024,
                -0.4926156782674007,
                0.18265600070941512,
                -2.7115879848702185
            ]
        },
        {
            "positions": [
                -1.0568118816616412,
                -1.1012847076880665,
                2.006739061038985,
                -0.6197271830432807,
                0.27726471749931836,
                -2.84362736350523
            ]
        },
        {
            "positions": [
                -1.076920256451165,
                -1.1120648121970318,
                2.014699053275946,
                -0.7468386878191606,
                0.3718734342892216,
                -2.975666742140241
            ]
        },
        {
            "positions": [
                -1.0970286312406892,
                -1.122844916705997,
                2.022659045512907,
                -0.8739501925950405,
                0.4664821510791247,
                -3.1077061207752528
            ]
        }
    ]
}