{
    "goal": {
        "global_pose": {
            "orientation": {
                "w": -0.00223480608172531,
                "x": 0.0024358444001904467,
                "y": 0.7094548369677653,
                "z": -0.704743149386269
            },
            "position": {
                "x": -0.37947507619857795,
                "y": -0.6371506643295288,
                "z": 0.19426114857196808
            }
        },
        "name": "move_to_magneteinheit_C"
    },
    "id": "BFMT_move_to_magneteinheit_C_46",
    "joint_names": [
        "shoulder_pan_joint",
        "shoulder_lift_joint",
        "elbow_joint",
        "wrist_1_joint",
        "wrist_2_joint",
        "wrist_3_joint"
    ],
    "metrics": {
        "cart_traj_len": 2.1447514516724717,
        "distance_elbow_joint": 0.351497484235312,
        "distance_shoulder_lift_joint": 1.7557914180616438,
        "distance_shoulder_pan_joint": 2.382068219265485,
        "distance_wrist_1_joint": 0.3188423982939764,
        "distance_wrist_2_joint": 2.7930131631222315,
        "distance_wrist_3_joint": 0.6963616071594485,
        "smoothness": 1.16903825497818,
        "time": 1.048477206,
        "traj_len": 2.880551039321834,
        "weighted_distance": 3.578009651450538
    },
    "planner": "BFMT",
    "start": {
        "state": {
            "elbow_joint": 1.9565354010623817,
            "shoulder_lift_joint": -1.4165861575791021,
            "shoulder_pan_joint": -1.6717766225146293,
            "wrist_1_joint": -0.5286633292919765,
            "wrist_2_joint": 1.472756589071564,
            "wrist_3_joint": -3.1238370188695823
        }
    },
    "waypoints": [
        {
            "positions": [
                -1.6717766225146293,
                -1.4165861575791021,
                1.9565354010623817,
                -0.5286633292919765,
                1.472756589071564,
                -3.1238370188695823
            ]
        },
        {
            "positions": [
                -1.5999507719424804,
                -1.484819955191113,
                1.975030750946925,
                -0.5515470201450476,
                1.3091427655442311,
                -3.092714686840942
            ]
        },
        {
            "positions": [
                -1.5281249213703316,
                -1.5530537528031236,
                1.9935261008314682,
                -0.5744307109981188,
                1.1455289420168984,
                -3.061592354812302
            ]
        },
        {
            "positions": [
                -1.4562990707981827,
                -1.6212875504151345,
                2.0120214507160115,
                -0.59731440185119,
                0.9819151184895654,
                -3.0304700227836614
            ]
        },
        {
            "positions": [
                -1.3844732202260337,
                -1.6895213480271452,
                2.0305168006005547,
                -0.6201980927042612,
                0.8183012949622326,
                -2.999347690755021
            ]
        },
        {
            "positions": [
                -1.312647369653885,
                -1.757755145639156,
                2.049012150485098,
                -0.6430817835573324,
                0.6546874714348998,
                -2.9682253587263805
            ]
        },
        {
            "positions": [
                -1.240821519081736,
                -1.8259889432511667,
                2.0675075003696417,
                -0.6659654744104034,
                0.4910736479075669,
                -2.9371030266977405
            ]
        },
        {
            "positions": [
                -1.168995668509587,
                -1.8942227408631775,
                2.086002850254185,
                -0.6888491652634746,
                0.327459824380234,
                -2.9059806946691
            ]
        },
        {
            "positions": [
                -1.097169817937438,
                -1.9624565384751884,
                2.1044982001387282,
                -0.7117328561165458,
                0.16384600085290124,
                -2.8748583626404596
            ]
        },
        {
            "positions": [
                -1.025343967365289,
                -2.030690336087199,
                2.1229935500232715,
                -0.734616546969617,
                0.0002321773255682391,
                -2.843736030611819
            ]
        },
        {
            "positions": [
                -0.9535181167931404,
                -2.0989241336992097,
                2.1414888999078148,
                -0.7575002378226882,
                -0.16338164620176432,
                -2.812613698583179
            ]
        },
        {
            "positions": [
                -0.8816922662209914,
                -2.1671579313112206,
                2.159984249792358,
                -0.7803839286757593,
                -0.32699546972909727,
                -2.7814913665545387
            ]
        },
        {
            "positions": [
                -1.0264180719457048,
                -2.075774327281264,
                2.1465252829282364,
                -0.7864859103948678,
                -0.23669900569986363,
                -2.813674635176757
            ]
        },
        {
            "positions": [
                -1.1711438776704182,
                -1.984390723251307,
                2.1330663160641152,
                -0.7925878921139764,
                -0.14640254167063,
                -2.8458579037989757
            ]
        },
        {
            "positions": [
                -1.3158696833951316,
                -1.89300711922135,
                2.1196073491999936,
                -0.7986898738330849,
                -0.05610607764139636,
                -2.8780411724211947
            ]
        },
        {
            "positions": [
                -1.4605954891198452,
                -1.8016235151913933,
                2.1061483823358724,
                -0.8047918555521933,
                0.03419038638783728,
                -2.9102244410434133
            ]
        },
        {
            "positions": [
                -1.6053212948445585,
                -1.7102399111614364,
                2.092689415471751,
                -0.8108938372713018,
                0.12448685041707092,
                -2.942407709665632
            ]
        },
        {
            "positions": [
                -1.750047100569272,
                -1.6188563071314794,
                2.0792304486076296,
                -0.8169958189904104,
                0.21478331444630455,
                -2.9745909782878504
            ]
        },
        {
            "positions": [
                -1.8947729062939853,
                -1.5274727031015227,
                2.065771481743508,
                -0.8230978007095189,
                0.3050797784755382,
                -3.006774246910069
            ]
        },
        {
            "positions": [
                -2.0394987120186987,
                -1.4360890990715658,
                2.052312514879387,
                -0.8291997824286274,
                0.3953762425047718,
                -3.038957515532288
            ]
        },
        {
            "positions": [
                -2.184224517743412,
                -1.3447054950416089,
                2.038853548015265,
                -0.8353017641477358,
                0.48567270653400546,
                -3.0711407841545064
            ]
        },
        {
            "positions": [
                -2.3289503234681255,
                -1.2533218910116521,
                2.025394581151144,
                -0.8414037458668444,
                0.575969170563239,
                -3.103324052776725
            ]
        },
        {
            "positions": [
                -2.473676129192839,
                -1.1619382869816952,
                2.0119356142870224,
                -0.8475057275859529,
                0.6662656345924728,
                -3.1355073213989435
            ]
        }
    ]
}