{
    "goal": {
        "global_pose": {
            "orientation": {
                "w": 0.005598929693374612,
                "x": 0.007748599140229565,
                "y": 0.7110244013736278,
                "z": -0.7031023480610252
            },
            "position": {
                "x": -0.8858502320852131,
                "y": -0.7141253447532654,
                "z": 0.3711530566215515
            }
        },
        "name": "move_to_auspresseinheit_C"
    },
    "id": "BFMT_move_to_auspresseinheit_C_139",
    "joint_names": [
        "shoulder_pan_joint",
        "shoulder_lift_joint",
        "elbow_joint",
        "wrist_1_joint",
        "wrist_2_joint",
        "wrist_3_joint"
    ],
    "metrics": {
        "cart_traj_len": 0.4950628469591613,
        "distance_elbow_joint": 1.0206992396260197,
        "distance_shoulder_lift_joint": 0.33516074258037754,
        "distance_shoulder_pan_joint": 0.2564276150652791,
        "distance_wrist_1_joint": 0.7098162867016199,
        "distance_wrist_2_joint": 1.3203338078600169,
        "distance_wrist_3_joint": 0.08438747742826447,
        "smoothness": 1.1304089016362698e-15,
        "time": 0.427123761,
        "traj_len": 1.930498684086984,
        "weighted_distance": 2.434286387974871
    },
    "planner": "BFMT",
    "start": {
        "state": {
            "elbow_joint": 1.7527959577737207,
            "shoulder_lift_joint": -0.9740617694225068,
            "shoulder_pan_joint": -2.967991417825858,
            "wrist_1_joint": -0.759517768980727,
            "wrist_2_joint": 1.7443932448377408,
            "wrist_3_joint": -3.0840537646736568
        }
    },
    "waypoints": [
        {
            "positions": [
                -2.967991417825858,
                -0.9740617694225068,
                1.7527959577737207,
                -0.759517768980727,
                1.7443932448377408,
                -3.0840537646736568
            ]
        },
        {
            "positions": [
                -2.94234865631933,
                -0.9405456951644691,
                1.6507260338111187,
                -0.688536140310565,
                1.6123598640517391,
                -3.092492512416483
            ]
        },
        {
            "positions": [
                -2.916705894812802,
                -0.9070296209064312,
                1.5486561098485168,
                -0.617554511640403,
                1.4803264832657375,
                -3.1009312601593098
            ]
        },
        {
            "positions": [
                -2.8910631333062744,
                -0.8735135466483935,
                1.4465861858859148,
                -0.546572882970241,
                1.3482931024797358,
                -3.109370007902136
            ]
        },
        {
            "positions": [
                -2.8654203717997464,
                -0.8399974723903557,
                1.3445162619233129,
                -0.47559125430007904,
                1.216259721693734,
                -3.1178087556449627
            ]
        },
        {
            "positions": [
                -2.8397776102932184,
                -0.806481398132318,
                1.2424463379607107,
                -0.40460962562991704,
                1.0842263409077324,
                -3.126247503387789
            ]
        },
        {
            "positions": [
                -2.8141348487866904,
                -0.7729653238742803,
                1.140376413998109,
                -0.33362799695975504,
                0.9521929601217307,
                -3.1346862511306153
            ]
        },
        {
            "positions": [
                -2.7884920872801624,
                -0.7394492496162425,
                1.0383064900355068,
                -0.2626463682895931,
                0.8201595793357291,
                -3.143124998873442
            ]
        },
        {
            "positions": [
                -2.762849325773635,
                -0.7059331753582048,
                0.9362365660729048,
                -0.1916647396194311,
                0.6881261985497273,
                -3.1515637466162683
            ]
        },
        {
            "positions": [
                -2.737206564267107,
                -0.672417101100167,
                0.8341666421103029,
                -0.12068311094926909,
                0.5560928177637257,
                -3.160002494359095
            ]
        },
        {
            "positions": [
                -2.711563802760579,
                -0.6389010268421292,
                0.7320967181477009,
                -0.04970148227910707,
                0.4240594369777239,
                -3.1684412421019212
            ]
        }
    ]
}