{
    "goal": {
        "global_pose": {
            "orientation": {
                "w": 0.005598929693374612,
                "x": 0.007748599140229565,
                "y": 0.7110244013736278,
                "z": -0.7031023480610252
            },
            "position": {
                "x": -0.8858502320852131,
                "y": -0.7141253447532654,
                "z": 0.3711530566215515
            }
        },
        "name": "move_to_auspresseinheit_C"
    },
    "id": "BFMT_move_to_auspresseinheit_C_32",
    "joint_names": [
        "shoulder_pan_joint",
        "shoulder_lift_joint",
        "elbow_joint",
        "wrist_1_joint",
        "wrist_2_joint",
        "wrist_3_joint"
    ],
    "metrics": {
        "cart_traj_len": 0.49328419612823393,
        "distance_elbow_joint": 1.004325855791211,
        "distance_shoulder_lift_joint": 0.3270569236142328,
        "distance_shoulder_pan_joint": 0.25635675347757036,
        "distance_wrist_1_joint": 0.688203657659024,
        "distance_wrist_2_joint": 1.312783516789784,
        "distance_wrist_3_joint": 0.06761096913187936,
        "smoothness": 1.6148698667872622e-16,
        "time": 0.42854483400000004,
        "traj_len": 1.9121552438187912,
        "weighted_distance": 2.406771029652856
    },
    "planner": "BFMT",
    "start": {
        "state": {
            "elbow_joint": 1.7527959577737207,
            "shoulder_lift_joint": -0.9740617694225068,
            "shoulder_pan_joint": -2.967991417825858,
            "wrist_1_joint": -0.759517768980727,
            "wrist_2_joint": 1.7443932448377408,
            "wrist_3_joint": -3.0840537646736568
        }
    },
    "waypoints": [
        {
            "positions": [
                -2.967991417825858,
                -0.9740617694225068,
                1.7527959577737207,
                -0.759517768980727,
                1.7443932448377408,
                -3.0840537646736568
            ]
        },
        {
            "positions": [
                -2.942355742478101,
                -0.9413560770610835,
                1.6523633721945996,
                -0.6906974032148245,
                1.6131148931587624,
                -3.0908148615868445
            ]
        },
        {
            "positions": [
                -2.9167200671303437,
                -0.9086503846996602,
                1.5519307866154786,
                -0.6218770374489222,
                1.481836541479784,
                -3.0975759585000326
            ]
        },
        {
            "positions": [
                -2.891084391782587,
                -0.8759446923382369,
                1.4514982010363573,
                -0.5530566716830198,
                1.3505581898008057,
                -3.104337055413221
            ]
        },
        {
            "positions": [
                -2.86544871643483,
                -0.8432389999768136,
                1.3510656154572362,
                -0.48423630591711736,
                1.2192798381218273,
                -3.1110981523264085
            ]
        },
        {
            "positions": [
                -2.8398130410870728,
                -0.8105333076153904,
                1.2506330298781152,
                -0.41541594015121497,
                1.0880014864428489,
                -3.1178592492395962
            ]
        },
        {
            "positions": [
                -2.8141773657393157,
                -0.7778276152539672,
                1.1502004442989942,
                -0.3465955743853126,
                0.9567231347638704,
                -3.1246203461527844
            ]
        },
        {
            "positions": [
                -2.7885416903915585,
                -0.7451219228925439,
                1.049767858719873,
                -0.2777752086194102,
                0.825444783084892,
                -3.1313814430659725
            ]
        },
        {
            "positions": [
                -2.762906015043802,
                -0.7124162305311206,
                0.9493352731407518,
                -0.20895484285350774,
                0.6941664314059135,
                -3.1381425399791603
            ]
        },
        {
            "positions": [
                -2.7372703396960447,
                -0.6797105381696973,
                0.8489026875616308,
                -0.1401344770876053,
                0.5628880797269351,
                -3.144903636892348
            ]
        },
        {
            "positions": [
                -2.7116346643482876,
                -0.647004845808274,
                0.7484701019825097,
                -0.07131411132170297,
                0.43160972804795666,
                -3.151664733805536
            ]
        }
    ]
}