{
    "goal": {
        "global_pose": {
            "orientation": {
                "w": 0.5084816262002911,
                "x": -0.4908360881923452,
                "y": 0.5182115481033761,
                "z": -0.48164630358495003
            },
            "position": {
                "x": 0.5540239810943604,
                "y": -0.46912469901144505,
                "z": 0.16403168439865112
            }
        },
        "name": "move_to_storage_B"
    },
    "id": "BFMT_move_to_storage_B_129",
    "joint_names": [
        "shoulder_pan_joint",
        "shoulder_lift_joint",
        "elbow_joint",
        "wrist_1_joint",
        "wrist_2_joint",
        "wrist_3_joint"
    ],
    "metrics": {
        "cart_traj_len": 0.6638118951397756,
        "distance_elbow_joint": 0.35616209085445183,
        "distance_shoulder_lift_joint": 0.46130652620412427,
        "distance_shoulder_pan_joint": 0.18185116085415698,
        "distance_wrist_1_joint": 3.0468687542220354,
        "distance_wrist_2_joint": 2.7012406336977985,
        "distance_wrist_3_joint": 3.1161130369107513,
        "smoothness": 0.011748286771217916,
        "time": 0.680798812,
        "traj_len": 3.1406276765550096,
        "weighted_distance": 4.673743431606473
    },
    "planner": "BFMT",
    "start": {
        "state": {
            "elbow_joint": 1.664937868594044,
            "shoulder_lift_joint": -0.661644460510453,
            "shoulder_pan_joint": -0.9139846352900073,
            "wrist_1_joint": 2.146753192139373,
            "wrist_2_joint": -2.2341966793290973,
            "wrist_3_joint": 0.005466555786416001
        }
    },
    "waypoints": [
        {
            "positions": [
                -0.9139846352900073,
                -0.661644460510453,
                1.664937868594044,
                2.146753192139373,
                -2.2341966793290973,
                0.005466555786416001
            ]
        },
        {
            "positions": [
                -0.9408865726477988,
                -0.689375357530905,
                1.72597216808143,
                2.1504990032795264,
                -2.096812540347707,
                -0.1283206853311882
            ]
        },
        {
            "positions": [
                -0.9677885100055905,
                -0.7171062545513569,
                1.787006467568816,
                2.15424481441968,
                -1.9594284013663166,
                -0.2621079264487924
            ]
        },
        {
            "positions": [
                -0.9946904473633821,
                -0.7448371515718087,
                1.8480407670562022,
                2.157990625559833,
                -1.8220442623849262,
                -0.3958951675663966
            ]
        },
        {
            "positions": [
                -1.0215923847211736,
                -0.7725680485922607,
                1.9090750665435883,
                2.1617364366999867,
                -1.6846601234035359,
                -0.5296824086840008
            ]
        },
        {
            "positions": [
                -1.0484943220789653,
                -0.8002989456127126,
                1.9701093660309743,
                2.16548224784014,
                -1.5472759844221455,
                -0.663469649801605
            ]
        },
        {
            "positions": [
                -1.0508613957822253,
                -0.8164315476678059,
                1.9726588957018505,
                2.0140752629140763,
                -1.4465599874826032,
                -0.7858284913677416
            ]
        },
        {
            "positions": [
                -1.0532284694854852,
                -0.832564149722899,
                1.9752084253727265,
                1.862668277988013,
                -1.3458439905430608,
                -0.9081873329338781
            ]
        },
        {
            "positions": [
                -1.0555955431887452,
                -0.8486967517779923,
                1.9777579550436024,
                1.7112612930619495,
                -1.2451279936035184,
                -1.0305461745000146
            ]
        },
        {
            "positions": [
                -1.057962616892005,
                -0.8648293538330856,
                1.9803074847144786,
                1.5598543081358862,
                -1.144411996663976,
                -1.1529050160661511
            ]
        },
        {
            "positions": [
                -1.060329690595265,
                -0.8809619558881788,
                1.9828570143853548,
                1.4084473232098227,
                -1.043695999724434,
                -1.2752638576322877
            ]
        },
        {
            "positions": [
                -1.062696764298525,
                -0.8970945579432721,
                1.9854065440562307,
                1.2570403382837592,
                -0.9429800027848915,
                -1.3976226991984242
            ]
        },
        {
            "positions": [
                -1.065063838001785,
                -0.9132271599983652,
                1.9879560737271067,
                1.1056333533576959,
                -0.8422640058453492,
                -1.5199815407645605
            ]
        },
        {
            "positions": [
                -1.067430911705045,
                -0.9293597620534585,
                1.9905056033979829,
                0.9542263684316323,
                -0.7415480089058067,
                -1.6423403823306972
            ]
        },
        {
            "positions": [
                -1.0697979854083048,
                -0.9454923641085518,
                1.993055133068859,
                0.8028193835055688,
                -0.6408320119662645,
                -1.7646992238968335
            ]
        },
        {
            "positions": [
                -1.0721650591115648,
                -0.9616249661636449,
                1.995604662739735,
                0.6514123985795055,
                -0.5401160150267221,
                -1.88705806546297
            ]
        },
        {
            "positions": [
                -1.0745321328148247,
                -0.9777575682187383,
                1.9981541924106112,
                0.500005413653442,
                -0.43940001808717977,
                -2.009416907029107
            ]
        },
        {
            "positions": [
                -1.0768992065180847,
                -0.9938901702738314,
                2.000703722081487,
                0.3485984287273787,
                -0.3386840211476374,
                -2.131775748595243
            ]
        },
        {
            "positions": [
                -1.0792662802213446,
                -1.0100227723289246,
                2.0032532517523634,
                0.19719144380131515,
                -0.23796802420809504,
                -2.25413459016138
            ]
        },
        {
            "positions": [
                -1.0816333539246046,
                -1.026155374384018,
                2.005802781423239,
                0.04578445887525184,
                -0.1372520272685529,
                -2.376493431727516
            ]
        },
        {
            "positions": [
                -1.0840004276278645,
                -1.042287976439111,
                2.0083523110941153,
                -0.10562252605081168,
                -0.036536030329010316,
                -2.4988522732936524
            ]
        },
        {
            "positions": [
                -1.0863675013311245,
                -1.0584205784942045,
                2.0109018407649915,
                -0.2570295109768752,
                0.06417996661053205,
                -2.621211114859789
            ]
        },
        {
            "positions": [
                -1.0887345750343844,
                -1.0745531805492976,
                2.0134513704358676,
                -0.4084364959029383,
                0.1648959635500742,
                -2.7435699564259255
            ]
        },
        {
            "positions": [
                -1.0911016487376444,
                -1.0906857826043908,
                2.016000900106744,
                -0.5598434808290023,
                0.26561196048961655,
                -2.865928797992062
            ]
        },
        {
            "positions": [
                -1.0934687224409043,
                -1.106818384659484,
                2.0185504297776196,
                -0.7112504657550653,
                0.3663279574291589,
                -2.9882876395581985
            ]
        },
        {
            "positions": [
                -1.0958357961441643,
                -1.1229509867145773,
                2.0210999594484957,
                -0.8626574506811288,
                0.46704395436870133,
                -3.110646481124335
            ]
        }
    ]
}