{
    "goal": {
        "global_pose": {
            "orientation": {
                "w": 0.5084816217422485,
                "x": -0.49083608388900757,
                "y": 0.5182115435600281,
                "z": -0.4816462993621826
            },
            "position": {
                "x": 0.5540239810943604,
                "y": 0.030875300988554955,
                "z": 0.16403168439865112
            }
        },
        "name": "move_to_storage_A"
    },
    "id": "BFMT_move_to_storage_A_51",
    "joint_names": [
        "shoulder_pan_joint",
        "shoulder_lift_joint",
        "elbow_joint",
        "wrist_1_joint",
        "wrist_2_joint",
        "wrist_3_joint"
    ],
    "metrics": {
        "cart_traj_len": 0.35331114877733466,
        "distance_elbow_joint": 0.45162836858103117,
        "distance_shoulder_lift_joint": 0.23623584126094488,
        "distance_shoulder_pan_joint": 0.4596587363162574,
        "distance_wrist_1_joint": 0.24777871298914256,
        "distance_wrist_2_joint": 1.1103695258934894,
        "distance_wrist_3_joint": 0.10442799121527369,
        "smoothness": 6.661338165333112e-16,
        "time": 0.514345535,
        "traj_len": 1.6155801361294768,
        "weighted_distance": 2.0437963199813525
    },
    "planner": "BFMT",
    "start": {
        "state": {
            "elbow_joint": 1.971548259319323,
            "shoulder_lift_joint": -1.1394851275133948,
            "shoulder_pan_joint": 0.1228115487234821,
            "wrist_1_joint": -0.7804723859257726,
            "wrist_2_joint": 0.12958671773740124,
            "wrist_3_joint": -3.192489227718131
        }
    },
    "waypoints": [
        {
            "positions": [
                0.1228115487234821,
                -1.1394851275133948,
                1.971548259319323,
                -0.7804723859257726,
                0.12958671773740124,
                -3.192489227718131
            ]
        },
        {
            "positions": [
                0.057146014964016764,
                -1.1732331048363869,
                2.0360665976880417,
                -0.8158693449242216,
                0.2882109357221854,
                -3.1775709432588064
            ]
        },
        {
            "positions": [
                -0.008519518795448572,
                -1.2069810821593792,
                2.1005849360567606,
                -0.8512663039226704,
                0.4468351537069696,
                -3.1626526587994817
            ]
        },
        {
            "positions": [
                -0.07418505255491392,
                -1.2407290594823712,
                2.165103274425479,
                -0.8866632629211194,
                0.6054593716917538,
                -3.147734374340157
            ]
        },
        {
            "positions": [
                -0.13985058631437924,
                -1.2744770368053633,
                2.229621612794198,
                -0.9220602219195684,
                0.764083589676538,
                -3.1328160898808317
            ]
        },
        {
            "positions": [
                -0.20551612007384462,
                -1.3082250141283556,
                2.294139951162917,
                -0.9574571809180172,
                0.9227078076613222,
                -3.117897805421507
            ]
        },
        {
            "positions": [
                -0.27118165383330994,
                -1.3419729914513476,
                2.3586582895316353,
                -0.9928541399164662,
                1.0813320256461063,
                -3.102979520962182
            ]
        },
        {
            "positions": [
                -0.3368471875927753,
                -1.3757209687743397,
                2.423176627900354,
                -1.0282510989149152,
                1.2399562436308906,
                -3.0880612365028575
            ]
        }
    ]
}{
    "goal": {
        "global_pose": {
            "orientation": {
                "w": 0.5084816217422485,
                "x": -0.49083608388900757,
                "y": 0.5182115435600281,
                "z": -0.4816462993621826
            },
            "position": {
                "x": 0.5540239810943604,
                "y": 0.030875300988554955,
                "z": 0.16403168439865112
            }
        },
        "name": "move_to_storage_A"
    },
    "id": "BFMT_move_to_storage_A_51",
    "joint_names": [
        "shoulder_pan_joint",
        "shoulder_lift_joint",
        "elbow_joint",
        "wrist_1_joint",
        "wrist_2_joint",
        "wrist_3_joint"
    ],
    "metrics": {
        "cart_traj_len": 0.3530297566698714,
        "distance_elbow_joint": 0.45135856797729135,
        "distance_shoulder_lift_joint": 0.2344396716846251,
        "distance_shoulder_pan_joint": 0.46069703984391946,
        "distance_wrist_1_joint": 0.24687020305807073,
        "distance_wrist_2_joint": 1.1031213220723244,
        "distance_wrist_3_joint": 0.09477159037491134,
        "smoothness": 4.440892098500626e-16,
        "time": 0.5075746390000001,
        "traj_len": 1.6097386107723024,
        "weighted_distance": 2.0324352636409753
    },
    "planner": "BFMT",
    "start": {
        "state": {
            "elbow_joint": 1.97154746011099,
            "shoulder_lift_joint": -1.13948474672311,
            "shoulder_pan_joint": 0.12281154466712228,
            "wrist_1_joint": -0.7804688027058302,
            "wrist_2_joint": 0.12958655903071145,
            "wrist_3_joint": 3.0906928834467795
        }
    },
    "waypoints": [
        {
            "positions": [
                0.12281154466712228,
                -1.13948474672311,
                1.97154746011099,
                -0.7804688027058302,
                0.12958655903071145,
                3.0906928834467795
            ]
        },
        {
            "positions": [
                0.056997681832276645,
                -1.172976128392342,
                2.0360272555363172,
                -0.8157359745712689,
                0.28717531932675777,
                3.104231682071767
            ]
        },
        {
            "positions": [
                -0.008816181002568993,
                -1.2064675100615743,
                2.1005070509616446,
                -0.8510031464367075,
                0.44476407962280406,
                3.117770480696754
            ]
        },
        {
            "positions": [
                -0.07463004383741463,
                -1.2399588917308064,
                2.164986846386972,
                -0.8862703183021462,
                0.6023528399188505,
                3.1313092793217416
            ]
        },
        {
            "positions": [
                -0.14044390667226025,
                -1.2734502734000386,
                2.2294666418122993,
                -0.9215374901675849,
                0.7599416002148968,
                3.1448480779467287
            ]
        },
        {
            "positions": [
                -0.2062577695071059,
                -1.3069416550692707,
                2.2939464372376266,
                -0.9568046620330235,
                0.9175303605109432,
                3.1583868765717162
            ]
        },
        {
            "positions": [
                -0.27207163234195153,
                -1.340433036738503,
                2.358426232662954,
                -0.9920718338984622,
                1.0751191208069895,
                3.1719256751967033
            ]
        },
        {
            "positions": [
                -0.33788549517679717,
                -1.373924418407735,
                2.4229060280882813,
                -1.027339005763901,
                1.2327078811030359,
                3.185464473821691
            ]
        }
    ]
}{
    "goal": {
        "global_pose": {
            "orientation": {
                "w": 0.5084816217422485,
                "x": -0.49083608388900757,
                "y": 0.5182115435600281,
                "z": -0.4816462993621826
            },
            "position": {
                "x": 0.5540239810943604,
                "y": 0.030875300988554955,
                "z": 0.16403168439865112
            }
        },
        "name": "move_to_storage_A"
    },
    "id": "BFMT_move_to_storage_A_51",
    "joint_names": [
        "shoulder_pan_joint",
        "shoulder_lift_joint",
        "elbow_joint",
        "wrist_1_joint",
        "wrist_2_joint",
        "wrist_3_joint"
    ],
    "metrics": {
        "cart_traj_len": 0.35296733125243707,
        "distance_elbow_joint": 0.44988491634363115,
        "distance_shoulder_lift_joint": 0.23365284573169154,
        "distance_shoulder_pan_joint": 0.46215494440898436,
        "distance_wrist_1_joint": 0.24680356205020604,
        "distance_wrist_2_joint": 1.0953137422741444,
        "distance_wrist_3_joint": 0.10285373306484091,
        "smoothness": 4.440892098500626e-16,
        "time": 0.485898555,
        "traj_len": 1.6095538959206983,
        "weighted_distance": 2.0343275336895803
    },
    "planner": "BFMT",
    "start": {
        "state": {
            "elbow_joint": 1.9715472970024885,
            "shoulder_lift_joint": -1.1394870060712896,
            "shoulder_pan_joint": 0.12281152778156021,
            "wrist_1_joint": -0.780463741449964,
            "wrist_2_joint": 0.12958659822042276,
            "wrist_3_joint": 3.090690232415272
        }
    },
    "waypoints": [
        {
            "positions": [
                0.12281152778156021,
                -1.1394870060712896,
                1.9715472970024885,
                -0.780463741449964,
                0.12958659822042276,
                3.090690232415272
            ]
        },
        {
            "positions": [
                0.05678939286599102,
                -1.1728659840329598,
                2.0358165707658644,
                -0.815721393171422,
                0.28605998997387194,
                3.105383622853106
            ]
        },
        {
            "positions": [
                -0.009232742049578163,
                -1.20624496199463,
                2.1000858445292403,
                -0.85097904489288,
                0.44253338172732115,
                3.1200770132909406
            ]
        },
        {
            "positions": [
                -0.07525487696514735,
                -1.2396239399563003,
                2.164355118292616,
                -0.886236696614338,
                0.5990067734807704,
                3.134770403728775
            ]
        },
        {
            "positions": [
                -0.14127701188071654,
                -1.2730029179179705,
                2.228624392055992,
                -0.921494348335796,
                0.7554801652342195,
                3.1494637941666097
            ]
        },
        {
            "positions": [
                -0.20729914679628572,
                -1.3063818958796407,
                2.292893665819368,
                -0.956752000057254,
                0.9119535569876687,
                3.164157184604444
            ]
        },
        {
            "positions": [
                -0.2733212817118549,
                -1.339760873841311,
                2.357162939582744,
                -0.992009651778712,
                1.068426948741118,
                3.1788505750422784
            ]
        },
        {
            "positions": [
                -0.3393434166274241,
                -1.3731398518029811,
                2.4214322133461197,
                -1.02726730350017,
                1.224900340494567,
                3.1935439654801128
            ]
        }
    ]
}