{
    "goal": {
        "global_pose": {
            "orientation": {
                "w": 0.5084816262002911,
                "x": -0.4908360881923452,
                "y": 0.5182115481033761,
                "z": -0.48164630358495003
            },
            "position": {
                "x": 0.5540239810943604,
                "y": -0.46912469901144505,
                "z": 0.16403168439865112
            }
        },
        "name": "move_to_storage_B"
    },
    "id": "BFMT_move_to_storage_B_150",
    "joint_names": [
        "shoulder_pan_joint",
        "shoulder_lift_joint",
        "elbow_joint",
        "wrist_1_joint",
        "wrist_2_joint",
        "wrist_3_joint"
    ],
    "metrics": {
        "cart_traj_len": 0.6037006646605505,
        "distance_elbow_joint": 0.35692785889079337,
        "distance_shoulder_lift_joint": 0.46104434580329223,
        "distance_shoulder_pan_joint": 0.20905870707479834,
        "distance_wrist_1_joint": 3.024262655098008,
        "distance_wrist_2_joint": 2.7002446230867783,
        "distance_wrist_3_joint": 3.10787653881575,
        "smoothness": 0.05916472264239093,
        "time": 0.7391710600000001,
        "traj_len": 3.1399704980730982,
        "weighted_distance": 4.669012217223864
    },
    "planner": "BFMT",
    "start": {
        "state": {
            "elbow_joint": 1.664937868594044,
            "shoulder_lift_joint": -0.661644460510453,
            "shoulder_pan_joint": -0.9139846352900073,
            "wrist_1_joint": 2.146753192139373,
            "wrist_2_joint": -2.2341966793290973,
            "wrist_3_joint": 0.005466555786416001
        }
    },
    "waypoints": [
        {
            "positions": [
                -0.9139846352900073,
                -0.661644460510453,
                1.664937868594044,
                2.146753192139373,
                -2.2341966793290973,
                0.005466555786416001
            ]
        },
        {
            "positions": [
                -0.900291176649875,
                -0.6728817427322322,
                1.6793656583032894,
                2.1457971270438154,
                -2.1946918727879696,
                -0.0147640863441754
            ]
        },
        {
            "positions": [
                -0.9081057865872617,
                -0.6908740252754928,
                1.6930656610705515,
                2.0248648634437174,
                -2.0882622801261435,
                -0.13826992221158174
            ]
        },
        {
            "positions": [
                -0.9159203965246483,
                -0.7088663078187533,
                1.7067656638378133,
                1.9039325998436194,
                -1.9818326874643175,
                -0.26177575807898806
            ]
        },
        {
            "positions": [
                -0.923735006462035,
                -0.7268585903620138,
                1.7204656666050753,
                1.7830003362435214,
                -1.8754030948024916,
                -0.3852815939463944
            ]
        },
        {
            "positions": [
                -0.9315496163994216,
                -0.7448508729052743,
                1.734165669372337,
                1.6620680726434234,
                -1.7689735021406654,
                -0.5087874298138008
            ]
        },
        {
            "positions": [
                -0.9393642263368083,
                -0.7628431554485349,
                1.747865672139599,
                1.5411358090433254,
                -1.6625439094788395,
                -0.632293265681207
            ]
        },
        {
            "positions": [
                -0.9471788362741949,
                -0.7808354379917953,
                1.761565674906861,
                1.4202035454432274,
                -1.5561143168170135,
                -0.7557991015486133
            ]
        },
        {
            "positions": [
                -0.9549934462115816,
                -0.7988277205350559,
                1.775265677674123,
                1.2992712818431293,
                -1.4496847241551873,
                -0.8793049374160198
            ]
        },
        {
            "positions": [
                -0.9628080561489681,
                -0.8168200030783164,
                1.7889656804413847,
                1.1783390182430313,
                -1.3432551314933614,
                -1.0028107732834262
            ]
        },
        {
            "positions": [
                -0.9706226660863548,
                -0.8348122856215769,
                1.8026656832086467,
                1.0574067546429333,
                -1.2368255388315355,
                -1.1263166091508323
            ]
        },
        {
            "positions": [
                -0.9784372760237414,
                -0.8528045681648374,
                1.8163656859759085,
                0.9364744910428353,
                -1.1303959461697093,
                -1.2498224450182387
            ]
        },
        {
            "positions": [
                -0.9862518859611281,
                -0.870796850708098,
                1.8300656887431705,
                0.8155422274427373,
                -1.0239663535078833,
                -1.373328280885645
            ]
        },
        {
            "positions": [
                -0.9940664958985147,
                -0.8887891332513584,
                1.8437656915104323,
                0.6946099638426393,
                -0.9175367608460574,
                -1.4968341167530512
            ]
        },
        {
            "positions": [
                -1.0018811058359014,
                -0.906781415794619,
                1.8574656942776944,
                0.5736777002425413,
                -0.8111071681842312,
                -1.6203399526204578
            ]
        },
        {
            "positions": [
                -1.009695715773288,
                -0.9247736983378796,
                1.8711656970449562,
                0.45274543664244304,
                -0.7046775755224051,
                -1.7438457884878642
            ]
        },
        {
            "positions": [
                -1.0175103257106746,
                -0.9427659808811399,
                1.8848656998122182,
                0.33181317304234526,
                -0.5982479828605793,
                -1.8673516243552704
            ]
        },
        {
            "positions": [
                -1.0253249356480614,
                -0.9607582634244005,
                1.89856570257948,
                0.21088090944224724,
                -0.4918183901987532,
                -1.9908574602226767
            ]
        },
        {
            "positions": [
                -1.033139545585448,
                -0.9787505459676611,
                1.912265705346742,
                0.08994864584214923,
                -0.385388797536927,
                -2.114363296090083
            ]
        },
        {
            "positions": [
                -1.0409541555228345,
                -0.9967428285109217,
                1.9259657081140038,
                -0.030983617757948778,
                -0.2789592048751013,
                -2.2378691319574893
            ]
        },
        {
            "positions": [
                -1.0487687654602214,
                -1.0147351110541822,
                1.9396657108812658,
                -0.1519158813580468,
                -0.17252961221327512,
                -2.361374967824896
            ]
        },
        {
            "positions": [
                -1.056583375397608,
                -1.0327273935974426,
                1.9533657136485276,
                -0.2728481449581448,
                -0.06610001955144895,
                -2.484880803692302
            ]
        },
        {
            "positions": [
                -1.0643979853349945,
                -1.0507196761407032,
                1.9670657164157896,
                -0.3937804085582428,
                0.04032957311037677,
                -2.608386639559708
            ]
        },
        {
            "positions": [
                -1.072212595272381,
                -1.0687119586839637,
                1.9807657191830517,
                -0.5147126721583408,
                0.14675916577220294,
                -2.7318924754271148
            ]
        },
        {
            "positions": [
                -1.0800272052097677,
                -1.086704241227224,
                1.9944657219503135,
                -0.6356449357584388,
                0.2531887584340291,
                -2.855398311294521
            ]
        },
        {
            "positions": [
                -1.0878418151471545,
                -1.1046965237704847,
                2.0081657247175753,
                -0.7565771993585368,
                0.3596183510958548,
                -2.978904147161927
            ]
        },
        {
            "positions": [
                -1.095656425084541,
                -1.1226888063137452,
                2.0218657274848373,
                -0.877509462958635,
                0.4660479437576809,
                -3.1024099830293337
            ]
        }
    ]
}