{
    "goal": {
        "global_pose": {
            "orientation": {
                "w": 0.7031023480610252,
                "x": -0.7110244013736278,
                "y": 0.0077485991402295624,
                "z": 0.005598929693374583
            },
            "position": {
                "x": -0.8841497679147869,
                "y": 0.44412534475326537,
                "z": 0.3711530566215515
            }
        },
        "name": "move_to_auspresseinheit_D"
    },
    "id": "BFMT_move_to_auspresseinheit_D_144",
    "joint_names": [
        "shoulder_pan_joint",
        "shoulder_lift_joint",
        "elbow_joint",
        "wrist_1_joint",
        "wrist_2_joint",
        "wrist_3_joint"
    ],
    "metrics": {
        "cart_traj_len": 0.3432239961827777,
        "distance_elbow_joint": 0.642547859853758,
        "distance_shoulder_lift_joint": 0.12408360829058784,
        "distance_shoulder_pan_joint": 0.13409568944496114,
        "distance_wrist_1_joint": 0.5439200099744959,
        "distance_wrist_2_joint": 1.443525449750225,
        "distance_wrist_3_joint": 0.0008030586181333454,
        "smoothness": 1.9737298371844314e-16,
        "time": 0.46863785,
        "traj_len": 1.699698701515113,
        "weighted_distance": 2.2086256479750364
    },
    "planner": "BFMT",
    "start": {
        "state": {
            "elbow_joint": -1.8275523626775212,
            "shoulder_lift_joint": -2.126789852344167,
            "shoulder_pan_joint": -0.03513704404078235,
            "wrist_1_joint": -2.347782403156801,
            "wrist_2_joint": -1.6058999987535132,
            "wrist_3_joint": -3.0880379163319196
        }
    },
    "waypoints": [
        {
            "positions": [
                -0.03513704404078235,
                -2.126789852344167,
                -1.8275523626775212,
                -2.347782403156801,
                -1.6058999987535132,
                -3.0880379163319196
            ]
        },
        {
            "positions": [
                -0.05189900522140249,
                -2.14230030338049,
                -1.7472338801958014,
                -2.415772404403613,
                -1.425459317534735,
                -3.088138298659186
            ]
        },
        {
            "positions": [
                -0.06866096640202263,
                -2.157810754416814,
                -1.6669153977140816,
                -2.483762405650425,
                -1.245018636315957,
                -3.088238680986453
            ]
        },
        {
            "positions": [
                -0.08542292758264278,
                -2.1733212054531372,
                -1.586596915232362,
                -2.551752406897237,
                -1.0645779550971788,
                -3.0883390633137195
            ]
        },
        {
            "positions": [
                -0.10218488876326293,
                -2.1888316564894605,
                -1.5062784327506422,
                -2.619742408144049,
                -0.8841372738784007,
                -3.0884394456409865
            ]
        },
        {
            "positions": [
                -0.11894684994388308,
                -2.2043421075257843,
                -1.4259599502689224,
                -2.6877324093908608,
                -0.7036965926596226,
                -3.088539827968253
            ]
        },
        {
            "positions": [
                -0.1357088111245032,
                -2.2198525585621076,
                -1.3456414677872028,
                -2.7557224106376728,
                -0.5232559114408444,
                -3.0886402102955195
            ]
        },
        {
            "positions": [
                -0.15247077230512335,
                -2.2353630095984314,
                -1.265322985305483,
                -2.8237124118844847,
                -0.3428152302220664,
                -3.0887405926227864
            ]
        },
        {
            "positions": [
                -0.1692327334857435,
                -2.2508734606347547,
                -1.1850045028237632,
                -2.8917024131312967,
                -0.1623745490032881,
                -3.088840974950053
            ]
        }
    ]
}