{
    "goal": {
        "global_pose": {
            "orientation": {
                "w": 0.005598929693374612,
                "x": 0.007748599140229565,
                "y": 0.7110244013736278,
                "z": -0.7031023480610252
            },
            "position": {
                "x": 0.1141497679147869,
                "y": -0.7141253447532654,
                "z": 0.3711530566215515
            }
        },
        "name": "move_to_auspresseinheit_B"
    },
    "id": "BFMT_move_to_auspresseinheit_B_44",
    "joint_names": [
        "shoulder_pan_joint",
        "shoulder_lift_joint",
        "elbow_joint",
        "wrist_1_joint",
        "wrist_2_joint",
        "wrist_3_joint"
    ],
    "metrics": {
        "cart_traj_len": 0.5643277691020805,
        "distance_elbow_joint": 0.0627293206867443,
        "distance_shoulder_lift_joint": 0.2938427844552167,
        "distance_shoulder_pan_joint": 0.5758385249082258,
        "distance_wrist_1_joint": 0.3296891803233518,
        "distance_wrist_2_joint": 1.0012551279524873,
        "distance_wrist_3_joint": 0.0029790605533874803,
        "smoothness": 5.075305255429287e-16,
        "time": 0.455814245,
        "traj_len": 1.505434820535055,
        "weighted_distance": 1.898219278234743
    },
    "planner": "BFMT",
    "start": {
        "state": {
            "elbow_joint": 2.0193083361928714,
            "shoulder_lift_joint": -1.1220246554650708,
            "shoulder_pan_joint": -1.0952077554168747,
            "wrist_1_joint": -0.8559753972642168,
            "wrist_2_joint": 0.4759566250798843,
            "wrist_3_joint": -3.1240929996934557
        }
    },
    "waypoints": [
        {
            "positions": [
                -1.0952077554168747,
                -1.1220246554650708,
                2.0193083361928714,
                -0.8559753972642168,
                0.4759566250798843,
                -3.1240929996934557
            ]
        },
        {
            "positions": [
                -1.1911808429015789,
                -1.1709984528742736,
                2.008853449411747,
                -0.8010272005436582,
                0.6428324797386322,
                -3.1235964896012245
            ]
        },
        {
            "positions": [
                -1.2871539303862833,
                -1.2199722502834764,
                1.9983985626306233,
                -0.7460790038230996,
                0.8097083343973801,
                -3.1230999795089933
            ]
        },
        {
            "positions": [
                -1.3831270178709876,
                -1.2689460476926793,
                1.9879436758494993,
                -0.6911308071025408,
                0.976584189056128,
                -3.122603469416762
            ]
        },
        {
            "positions": [
                -1.4791001053556918,
                -1.3179198451018819,
                1.9774887890683752,
                -0.6361826103819823,
                1.1434600437148759,
                -3.1221069593245305
            ]
        },
        {
            "positions": [
                -1.5750731928403963,
                -1.3668936425110847,
                1.9670339022872512,
                -0.5812344136614236,
                1.3103358983736237,
                -3.1216104492322994
            ]
        },
        {
            "positions": [
                -1.6710462803251005,
                -1.4158674399202875,
                1.9565790155061271,
                -0.526286216940865,
                1.4772117530323716,
                -3.121113939140068
            ]
        }
    ]
}