{
    "goal": {
        "global_pose": {
            "orientation": {
                "w": 0.7047431493862688,
                "x": -0.7094548369677653,
                "y": 0.0024358444001904,
                "z": -0.0022348060817251984
            },
            "position": {
                "x": -0.39052492380142206,
                "y": 0.3671506643295288,
                "z": 0.19426114857196808
            }
        },
        "name": "move_to_magneteinheit_D"
    },
    "id": "BFMT_move_to_magneteinheit_D_86",
    "joint_names": [
        "shoulder_pan_joint",
        "shoulder_lift_joint",
        "elbow_joint",
        "wrist_1_joint",
        "wrist_2_joint",
        "wrist_3_joint"
    ],
    "metrics": {
        "cart_traj_len": 3.752719168981604,
        "distance_elbow_joint": 3.522087292832483,
        "distance_shoulder_lift_joint": 1.0930553502743383,
        "distance_shoulder_pan_joint": 2.9402252326119513,
        "distance_wrist_1_joint": 2.0854619603354294,
        "distance_wrist_2_joint": 0.8746099046887962,
        "distance_wrist_3_joint": 0.3070234089450139,
        "smoothness": 0.2473556284131628,
        "time": 0.784843494,
        "traj_len": 3.2897512291490996,
        "weighted_distance": 3.794282782371692
    },
    "planner": "BFMT",
    "start": {
        "state": {
            "elbow_joint": 0.749534889911806,
            "shoulder_lift_joint": -0.6476975780787326,
            "shoulder_pan_joint": -2.711696901376241,
            "wrist_1_joint": -0.07506478083263063,
            "wrist_2_joint": 0.43296659715538205,
            "wrist_3_joint": -3.14703540197715
        }
    },
    "waypoints": [
        {
            "positions": [
                -2.711696901376241,
                -0.6476975780787326,
                0.749534889911806,
                -0.07506478083263063,
                0.43296659715538205,
                -3.14703540197715
            ]
        },
        {
            "positions": [
                -2.6767513756089008,
                -0.6639720040436616,
                0.5027669623098087,
                -0.11063901062705564,
                0.4660870356939411,
                -3.1289651780250027
            ]
        },
        {
            "positions": [
                -2.641805849841561,
                -0.6802464300085906,
                0.25599903470781143,
                -0.14621324042148065,
                0.4992074742325001,
                -3.110894954072855
            ]
        },
        {
            "positions": [
                -2.606860324074221,
                -0.6965208559735196,
                0.009231107105814207,
                -0.1817874702159057,
                0.5323279127710592,
                -3.0928247301207072
            ]
        },
        {
            "positions": [
                -2.5719147983068806,
                -0.7127952819384487,
                -0.2375368204961831,
                -0.2173617000103307,
                0.5654483513096182,
                -3.07475450616856
            ]
        },
        {
            "positions": [
                -2.423777262424747,
                -0.7388706749324458,
                -0.3747358309583066,
                -0.2719430160194902,
                0.5593832625852324,
                -3.0838393713402987
            ]
        },
        {
            "positions": [
                -2.275639726542614,
                -0.764946067926443,
                -0.5119348414204301,
                -0.3265243320286497,
                0.5533181738608466,
                -3.092924236512037
            ]
        },
        {
            "positions": [
                -2.1275021906604805,
                -0.7910214609204403,
                -0.6491338518825536,
                -0.3811056480378092,
                0.5472530851364608,
                -3.102009101683776
            ]
        },
        {
            "positions": [
                -1.979364654778347,
                -0.8170968539144375,
                -0.786332862344677,
                -0.4356869640469687,
                0.5411879964120748,
                -3.111093966855514
            ]
        },
        {
            "positions": [
                -1.8312271188962137,
                -0.8431722469084347,
                -0.9235318728068005,
                -0.4902682800561282,
                0.535122907687689,
                -3.120178832027253
            ]
        },
        {
            "positions": [
                -1.6830895830140804,
                -0.869247639902432,
                -1.0607308832689242,
                -0.5448495960652878,
                0.5290578189633032,
                -3.1292636971989918
            ]
        },
        {
            "positions": [
                -1.5349520471319469,
                -0.8953230328964292,
                -1.1979298937310474,
                -0.5994309120744472,
                0.5229927302389173,
                -3.13834856237073
            ]
        },
        {
            "positions": [
                -1.3868145112498136,
                -0.9213984258904264,
                -1.335128904193171,
                -0.6540122280836068,
                0.5169276415145315,
                -3.147433427542469
            ]
        },
        {
            "positions": [
                -1.23867697536768,
                -0.9474738188844236,
                -1.4723279146552946,
                -0.7085935440927663,
                0.5108625527901457,
                -3.1565182927142073
            ]
        },
        {
            "positions": [
                -1.0905394394855468,
                -0.9735492118784208,
                -1.609526925117418,
                -0.7631748601019258,
                0.5047974640657598,
                -3.165603157885946
            ]
        },
        {
            "positions": [
                -0.9424019036034132,
                -0.999624604872418,
                -1.7467259355795417,
                -0.8177561761110854,
                0.498732375341374,
                -3.1746880230576844
            ]
        },
        {
            "positions": [
                -0.79426436772128,
                -1.0256999978664152,
                -1.8839249460416652,
                -0.8723374921202449,
                0.4926672866169881,
                -3.183772888229423
            ]
        },
        {
            "positions": [
                -0.6461268318391467,
                -1.0517753908604126,
                -2.0211239565037884,
                -0.9269188081294043,
                0.4866021978926023,
                -3.192857753401162
            ]
        },
        {
            "positions": [
                -0.49798929595701313,
                -1.0778507838544096,
                -2.158322966965912,
                -0.9815001241385638,
                0.48053710916821646,
                -3.2019426185729003
            ]
        },
        {
            "positions": [
                -0.34985176007488006,
                -1.103926176848407,
                -2.2955219774280353,
                -1.0360814401477234,
                0.47447202044383063,
                -3.211027483744639
            ]
        },
        {
            "positions": [
                -0.20171422419274654,
                -1.1300015698424042,
                -2.432720987890159,
                -1.090662756156883,
                0.46840693171944475,
                -3.2201123489163774
            ]
        },
        {
            "positions": [
                -0.05357668831061317,
                -1.1560769628364014,
                -2.5699199983522822,
                -1.1452440721660424,
                0.4623418429950589,
                -3.229197214088116
            ]
        },
        {
            "positions": [
                -0.015736665872019724,
                -1.2326906978753622,
                -2.5381794249218745,
                -1.2814578215037005,
                0.37520307117094676,
                -3.2259928640598856
            ]
        },
        {
            "positions": [
                0.022103356566573723,
                -1.309304432914323,
                -2.506438851491467,
                -1.4176715708413585,
                0.28806429934683464,
                -3.2227885140316554
            ]
        },
        {
            "positions": [
                -0.012300805878282445,
                -1.3812125154874477,
                -2.48324697520687,
                -1.5414807658958087,
                0.21060694958487192,
                -3.2104733298382544
            ]
        },
        {
            "positions": [
                -0.04670496832313861,
                -1.4531205980605724,
                -2.4600550989222736,
                -1.6652899609502592,
                0.13314959982290916,
                -3.1981581456448533
            ]
        },
        {
            "positions": [
                -0.08110913076799478,
                -1.525028680633697,
                -2.436863222637677,
                -1.7890991560047094,
                0.05569225006094641,
                -3.185842961451452
            ]
        },
        {
            "positions": [
                -0.11551329321285095,
                -1.5969367632068217,
                -2.413671346353081,
                -1.9129083510591596,
                -0.02176509970101631,
                -3.173527777258051
            ]
        },
        {
            "positions": [
                -0.14991745565770712,
                -1.6688448457799463,
                -2.390479470068484,
                -2.0367175461136098,
                -0.09922244946297909,
                -3.1612125930646497
            ]
        },
        {
            "positions": [
                -0.18432161810256328,
                -1.740752928353071,
                -2.3672875937838875,
                -2.16052674116806,
                -0.1766797992249418,
                -3.1488974088712487
            ]
        }
    ]
}