{
    "goal": {
        "global_pose": {
            "orientation": {
                "w": -0.4816463035849501,
                "x": 0.5182115481033762,
                "y": 0.4908360881923453,
                "z": -0.5084816262002911
            },
            "position": {
                "x": -0.8240239810943604,
                "y": -0.300875300988555,
                "z": 0.16403168439865112
            }
        },
        "name": "move_to_storage_C"
    },
    "id": "BFMT_move_to_storage_C_86",
    "joint_names": [
        "shoulder_pan_joint",
        "shoulder_lift_joint",
        "elbow_joint",
        "wrist_1_joint",
        "wrist_2_joint",
        "wrist_3_joint"
    ],
    "metrics": {
        "cart_traj_len": 0.5765527412180275,
        "distance_elbow_joint": 0.2555105366569774,
        "distance_shoulder_lift_joint": 0.18850909937660243,
        "distance_shoulder_pan_joint": 0.49460748909365293,
        "distance_wrist_1_joint": 0.06569490647736487,
        "distance_wrist_2_joint": 1.066478309014796,
        "distance_wrist_3_joint": 0.07148958385260817,
        "smoothness": 0.0,
        "time": 0.482462688,
        "traj_len": 1.4636563546379326,
        "weighted_distance": 1.8486325507437598
    },
    "planner": "BFMT",
    "start": {
        "state": {
            "elbow_joint": 2.010868314990456,
            "shoulder_lift_joint": -1.1634956873337592,
            "shoulder_pan_joint": -2.4736205022346125,
            "wrist_1_joint": -0.8367026794202681,
            "wrist_2_joint": 0.6746043897044499,
            "wrist_3_joint": -3.1496632123970403
        }
    },
    "waypoints": [
        {
            "positions": [
                -2.4736205022346125,
                -1.1634956873337592,
                2.010868314990456,
                -0.8367026794202681,
                0.6746043897044499,
                -3.1496632123970403
            ]
        },
        {
            "positions": [
                -2.556055083750221,
                -1.1320775041043254,
                1.9682832255476264,
                -0.8257535283407073,
                0.8523507745402492,
                -3.1377482817549387
            ]
        },
        {
            "positions": [
                -2.6384896652658303,
                -1.1006593208748918,
                1.9256981361047967,
                -0.8148043772611465,
                1.0300971593760486,
                -3.1258333511128376
            ]
        },
        {
            "positions": [
                -2.720924246781439,
                -1.069241137645458,
                1.883113046661967,
                -0.8038552261815857,
                1.207843544211848,
                -3.1139184204707364
            ]
        },
        {
            "positions": [
                -2.8033588282970476,
                -1.0378229544160242,
                1.8405279572191375,
                -0.7929060751020248,
                1.3855899290476472,
                -3.102003489828635
            ]
        },
        {
            "positions": [
                -2.8857934098126568,
                -1.0064047711865904,
                1.797942867776308,
                -0.7819569240224641,
                1.5633363138834466,
                -3.0900885591865332
            ]
        },
        {
            "positions": [
                -2.9682279913282654,
                -0.9749865879571568,
                1.7553577783334784,
                -0.7710077729429032,
                1.7410826987192458,
                -3.078173628544432
            ]
        }
    ]
}