{
    "goal": {
        "global_pose": {
            "orientation": {
                "w": -0.4816463035849501,
                "x": 0.5182115481033762,
                "y": 0.4908360881923453,
                "z": -0.5084816262002911
            },
            "position": {
                "x": -0.8240239810943604,
                "y": -0.300875300988555,
                "z": 0.16403168439865112
            }
        },
        "name": "move_to_storage_C"
    },
    "id": "BFMT_move_to_storage_C_34",
    "joint_names": [
        "shoulder_pan_joint",
        "shoulder_lift_joint",
        "elbow_joint",
        "wrist_1_joint",
        "wrist_2_joint",
        "wrist_3_joint"
    ],
    "metrics": {
        "cart_traj_len": 0.5761464026827874,
        "distance_elbow_joint": 0.26053452268712474,
        "distance_shoulder_lift_joint": 0.18885471119020858,
        "distance_shoulder_pan_joint": 0.4946645973850279,
        "distance_wrist_1_joint": 0.0890251151585193,
        "distance_wrist_2_joint": 1.0627819319365912,
        "distance_wrist_3_joint": 0.05802719857770189,
        "smoothness": 2.5376526478085547e-16,
        "time": 0.46168325600000004,
        "traj_len": 1.4676130542262062,
        "weighted_distance": 1.8497971567676514
    },
    "planner": "BFMT",
    "start": {
        "state": {
            "elbow_joint": 2.010868314990456,
            "shoulder_lift_joint": -1.1634956873337592,
            "shoulder_pan_joint": -2.4736205022346125,
            "wrist_1_joint": -0.8367026794202681,
            "wrist_2_joint": 0.6746043897044499,
            "wrist_3_joint": -3.1496632123970403
        }
    },
    "waypoints": [
        {
            "positions": [
                -2.4736205022346125,
                -1.1634956873337592,
                2.010868314990456,
                -0.8367026794202681,
                0.6746043897044499,
                -3.1496632123970403
            ]
        },
        {
            "positions": [
                -2.556064601798784,
                -1.1320199021353912,
                1.9674458945426017,
                -0.8218651602271816,
                0.8517347116938818,
                -3.13999201263409
            ]
        },
        {
            "positions": [
                -2.638508701362955,
                -1.100544116937023,
                1.9240234740947475,
                -0.807027641034095,
                1.0288650336833136,
                -3.1303208128711395
            ]
        },
        {
            "positions": [
                -2.7209528009271264,
                -1.069068331738655,
                1.8806010536468936,
                -0.7921901218410085,
                1.2059953556727456,
                -3.1206496131081893
            ]
        },
        {
            "positions": [
                -2.8033969004912977,
                -1.0375925465402869,
                1.8371786331990394,
                -0.7773526026479219,
                1.3831256776621772,
                -3.110978413345239
            ]
        },
        {
            "positions": [
                -2.885841000055469,
                -1.0061167613419186,
                1.7937562127511852,
                -0.7625150834548353,
                1.5602559996516092,
                -3.1013072135822886
            ]
        },
        {
            "positions": [
                -2.9682850996196404,
                -0.9746409761435506,
                1.750333792303331,
                -0.7476775642617488,
                1.737386321641041,
                -3.0916360138193384
            ]
        }
    ]
}