{
    "goal": {
        "global_pose": {
            "orientation": {
                "w": -0.4816463035849501,
                "x": 0.5182115481033762,
                "y": 0.4908360881923453,
                "z": -0.5084816262002911
            },
            "position": {
                "x": -0.8240239810943604,
                "y": 0.19912469901144506,
                "z": 0.16403168439865112
            }
        },
        "name": "move_to_storage_D"
    },
    "id": "BFMT_move_to_storage_D_74",
    "joint_names": [
        "shoulder_pan_joint",
        "shoulder_lift_joint",
        "elbow_joint",
        "wrist_1_joint",
        "wrist_2_joint",
        "wrist_3_joint"
    ],
    "metrics": {
        "cart_traj_len": 3.4637469954154674,
        "distance_elbow_joint": 4.210158846066916,
        "distance_shoulder_lift_joint": 1.263723234523597,
        "distance_shoulder_pan_joint": 2.8132236069260035,
        "distance_wrist_1_joint": 2.263442477699304,
        "distance_wrist_2_joint": 0.8741175702129947,
        "distance_wrist_3_joint": 3.1387917015871456,
        "smoothness": 5.375816761428858e-16,
        "time": 0.877866391,
        "traj_len": 3.8162098261253883,
        "weighted_distance": 4.8967949607986
    },
    "planner": "BFMT",
    "start": {
        "state": {
            "elbow_joint": -2.384821988534728,
            "shoulder_lift_joint": -2.2788054721415256,
            "shoulder_pan_joint": -0.1854694642142757,
            "wrist_1_joint": 1.4845938289331202,
            "wrist_2_joint": 0.17898776772866878,
            "wrist_3_joint": 0.037105688729662994
        }
    },
    "waypoints": [
        {
            "positions": [
                -0.1854694642142757,
                -2.2788054721415256,
                -2.384821988534728,
                1.4845938289331202,
                0.17898776772866878,
                0.037105688729662994
            ]
        },
        {
            "positions": [
                -0.06579566165277768,
                -2.22946447282818,
                -2.2681088275193297,
                1.467313672811378,
                0.19210279597665772,
                0.11294477264373536
            ]
        },
        {
            "positions": [
                0.05387814090872034,
                -2.1801234735148336,
                -2.151395666503931,
                1.4500335166896359,
                0.20521782422464668,
                0.18878385655780772
            ]
        },
        {
            "positions": [
                0.17355194347021838,
                -2.130782474201488,
                -2.034682505488533,
                1.4327533605678935,
                0.21833285247263562,
                0.26462294047188006
            ]
        },
        {
            "positions": [
                0.29322574603171636,
                -2.081441474888142,
                -1.9179693444731347,
                1.4154732044461513,
                0.23144788072062455,
                0.3404620243859524
            ]
        },
        {
            "positions": [
                0.4128995485932144,
                -2.032100475574796,
                -1.8012561834577363,
                1.3981930483244092,
                0.2445629089686135,
                0.41630110830002476
            ]
        },
        {
            "positions": [
                0.5325733511547125,
                -1.98275947626145,
                -1.684543022442338,
                1.380912892202667,
                0.2576779372166025,
                0.4921401922140971
            ]
        },
        {
            "positions": [
                0.6522471537162104,
                -1.9334184769481042,
                -1.5678298614269397,
                1.3636327360809248,
                0.2707929654645914,
                0.5679792761281695
            ]
        },
        {
            "positions": [
                0.7719209562777085,
                -1.8840774776347582,
                -1.4511167004115413,
                1.3463525799591824,
                0.28390799371258035,
                0.6438183600422419
            ]
        },
        {
            "positions": [
                0.8915947588392065,
                -1.8347364783214122,
                -1.334403539396143,
                1.3290724238374403,
                0.2970230219605693,
                0.7196574439563143
            ]
        },
        {
            "positions": [
                1.0112685614007044,
                -1.7853954790080664,
                -1.2176903783807447,
                1.3117922677156981,
                0.3101380502085582,
                0.7954965278703866
            ]
        },
        {
            "positions": [
                1.1309423639622027,
                -1.7360544796947204,
                -1.1009772173653463,
                1.294512111593956,
                0.32325307845654716,
                0.871335611784459
            ]
        },
        {
            "positions": [
                1.2506161665237006,
                -1.6867134803813744,
                -0.9842640563499481,
                1.2772319554722138,
                0.3363681067045361,
                0.9471746956985313
            ]
        },
        {
            "positions": [
                1.3702899690851986,
                -1.6373724810680286,
                -0.8675508953345497,
                1.2599517993504714,
                0.3494831349525251,
                1.0230137796126038
            ]
        },
        {
            "positions": [
                1.4899637716466965,
                -1.5880314817546828,
                -0.7508377343191515,
                1.2426716432287293,
                0.362598163200514,
                1.0988528635266759
            ]
        },
        {
            "positions": [
                1.6096375742081948,
                -1.5386904824413365,
                -0.6341245733037528,
                1.225391487106987,
                0.375713191448503,
                1.1746919474407485
            ]
        },
        {
            "positions": [
                1.7293113767696926,
                -1.4893494831279908,
                -0.5174114122883546,
                1.208111330985245,
                0.3888282196964919,
                1.2505310313548208
            ]
        },
        {
            "positions": [
                1.8489851793311907,
                -1.4400084838146447,
                -0.4006982512729562,
                1.1908311748635025,
                0.4019432479444809,
                1.3263701152688931
            ]
        },
        {
            "positions": [
                1.9686589818926885,
                -1.390667484501299,
                -0.28398509025755825,
                1.1735510187417604,
                0.4150582761924698,
                1.4022091991829655
            ]
        },
        {
            "positions": [
                2.088332784454187,
                -1.341326485187953,
                -0.1672719292421595,
                1.1562708626200182,
                0.42817330444045876,
                1.4780482830970378
            ]
        },
        {
            "positions": [
                2.1183006376907167,
                -1.3232018047673961,
                -0.056571441088029056,
                1.0487642230985625,
                0.46289175074608124,
                1.5723732334981362
            ]
        },
        {
            "positions": [
                2.1482684909272467,
                -1.305077124346839,
                0.05412904706610139,
                0.9412575835771069,
                0.49761019705170373,
                1.6666981838992345
            ]
        },
        {
            "positions": [
                2.178236344163777,
                -1.2869524439262823,
                0.1648295352202318,
                0.8337509440556512,
                0.5323286433573262,
                1.7610231343003329
            ]
        },
        {
            "positions": [
                2.208204197400307,
                -1.2688277635057252,
                0.2755300233743623,
                0.7262443045341955,
                0.5670470896629487,
                1.8553480847014314
            ]
        },
        {
            "positions": [
                2.238172050636837,
                -1.2507030830851684,
                0.38623051152849275,
                0.6187376650127397,
                0.6017655359685712,
                1.9496730351025298
            ]
        },
        {
            "positions": [
                2.268139903873367,
                -1.2325784026646116,
                0.4969309996826231,
                0.5112310254912842,
                0.6364839822741937,
                2.043997985503628
            ]
        },
        {
            "positions": [
                2.2981077571098973,
                -1.2144537222440546,
                0.6076314878367537,
                0.4037243859698284,
                0.6712024285798162,
                2.1383229359047267
            ]
        },
        {
            "positions": [
                2.3280756103464273,
                -1.1963290418234978,
                0.718331975990884,
                0.29621774644837284,
                0.7059208748854386,
                2.232647886305825
            ]
        },
        {
            "positions": [
                2.3580434635829572,
                -1.178204361402941,
                0.8290324641450145,
                0.18871110692691706,
                0.7406393211910611,
                2.3269728367069233
            ]
        },
        {
            "positions": [
                2.388011316819487,
                -1.160079680982384,
                0.939732952299145,
                0.08120446740546128,
                0.7753577674966836,
                2.4212977871080215
            ]
        },
        {
            "positions": [
                2.417979170056017,
                -1.141955000561827,
                1.0504334404532756,
                -0.026302172115994393,
                0.8100762138023061,
                2.51562273750912
            ]
        },
        {
            "positions": [
                2.4479470232925475,
                -1.12383032014127,
                1.1611339286074056,
                -0.13380881163744984,
                0.8447946601079286,
                2.6099476879102186
            ]
        },
        {
            "positions": [
                2.4779148765290775,
                -1.1057056397207132,
                1.271834416761536,
                -0.24131545115890574,
                0.8795131064135511,
                2.7042726383113167
            ]
        },
        {
            "positions": [
                2.5078827297656074,
                -1.0875809593001562,
                1.382534904915667,
                -0.3488220906803614,
                0.9142315527191736,
                2.798597588712415
            ]
        },
        {
            "positions": [
                2.5378505830021374,
                -1.0694562788795994,
                1.4932353930697975,
                -0.4563287302018171,
                0.948949999024796,
                2.8929225391135134
            ]
        },
        {
            "positions": [
                2.5678184362386673,
                -1.0513315984590426,
                1.6039358812239275,
                -0.5638353697232725,
                0.9836684453304185,
                2.987247489514612
            ]
        },
        {
            "positions": [
                2.5977862894751977,
                -1.0332069180384855,
                1.714636369378058,
                -0.6713420092447284,
                1.018386891636041,
                3.0815724399157105
            ]
        },
        {
            "positions": [
                2.6277541427117277,
                -1.0150822376179287,
                1.8253368575321884,
                -0.7788486487661841,
                1.0531053379416635,
                3.1758973903168086
            ]
        }
    ]
}