{
    "goal": {
        "global_pose": {
            "orientation": {
                "w": -0.00223480608172531,
                "x": 0.0024358444001904467,
                "y": 0.7094548369677653,
                "z": -0.704743149386269
            },
            "position": {
                "x": 0.6205249238014221,
                "y": -0.6371506643295288,
                "z": 0.19426114857196808
            }
        },
        "name": "move_to_magneteinheit_B"
    },
    "id": "BFMT_move_to_magneteinheit_B_67",
    "joint_names": [
        "shoulder_pan_joint",
        "shoulder_lift_joint",
        "elbow_joint",
        "wrist_1_joint",
        "wrist_2_joint",
        "wrist_3_joint"
    ],
    "metrics": {
        "cart_traj_len": 1.4873983348184636,
        "distance_elbow_joint": 0.9546897464705826,
        "distance_shoulder_lift_joint": 0.754781216477343,
        "distance_shoulder_pan_joint": 1.6212251517190368,
        "distance_wrist_1_joint": 0.19865033447229186,
        "distance_wrist_2_joint": 1.524515878521967,
        "distance_wrist_3_joint": 0.4558459402951135,
        "smoothness": 0.09486154611053305,
        "time": 0.7385761869999999,
        "traj_len": 2.3472767770240335,
        "weighted_distance": 2.8538686657834873
    },
    "planner": "BFMT",
    "start": {
        "state": {
            "elbow_joint": 2.6216224122426386,
            "shoulder_lift_joint": -1.4174107377796124,
            "shoulder_pan_joint": 0.7066234856936794,
            "wrist_1_joint": 1.9546482284002225,
            "wrist_2_joint": -0.7096286983471962,
            "wrist_3_joint": 0.005740856962016249
        }
    },
    "waypoints": [
        {
            "positions": [
                0.7066234856936794,
                -1.4174107377796124,
                2.6216224122426386,
                1.9546482284002225,
                -0.7096286983471962,
                0.005740856962016249
            ]
        },
        {
            "positions": [
                0.5743123727577328,
                -1.3907305171636977,
                2.5985521832102463,
                1.9855971580130307,
                -0.7476709247334891,
                0.12139232566027919
            ]
        },
        {
            "positions": [
                0.4420012598217863,
                -1.3640502965477828,
                2.575481954177854,
                2.016546087625839,
                -0.7857131511197819,
                0.23704379435854214
            ]
        },
        {
            "positions": [
                0.3376471886027752,
                -1.310094852298128,
                2.505593547377408,
                2.02706550879866,
                -0.8971309531005036,
                0.2197712556740354
            ]
        },
        {
            "positions": [
                0.23329311738376413,
                -1.256139408048473,
                2.435705140576962,
                2.0375849299714814,
                -1.0085487550812253,
                0.20249871698952865
            ]
        },
        {
            "positions": [
                0.12893904616475305,
                -1.202183963798818,
                2.365816733776516,
                2.0481043511443024,
                -1.1199665570619468,
                0.18522617830502192
            ]
        },
        {
            "positions": [
                0.024584974945741966,
                -1.1482285195491633,
                2.29592832697607,
                2.058623772317124,
                -1.2313843590426685,
                0.16795363962051518
            ]
        },
        {
            "positions": [
                -0.07976909627326911,
                -1.0942730752995082,
                2.226039920175624,
                2.069143193489945,
                -1.34280216102339,
                0.15068110093600845
            ]
        },
        {
            "positions": [
                -0.1841231674922802,
                -1.0403176310498534,
                2.156151513375178,
                2.079662614662766,
                -1.4542199630041117,
                0.13340856225150172
            ]
        },
        {
            "positions": [
                -0.28847723871129116,
                -0.9863621868001986,
                2.086263106574732,
                2.0901820358355874,
                -1.5656377649848334,
                0.11613602356699497
            ]
        },
        {
            "positions": [
                -0.39283130993030235,
                -0.9324067425505438,
                2.016374699774286,
                2.1007014570084084,
                -1.6770555669655551,
                0.09886348488248822
            ]
        },
        {
            "positions": [
                -0.4971853811493133,
                -0.878451298300889,
                1.94648629297384,
                2.1112208781812294,
                -1.7884733689462766,
                0.08159094619798149
            ]
        },
        {
            "positions": [
                -0.6015394523683245,
                -0.8244958540512339,
                1.876597886173394,
                2.121740299354051,
                -1.8998911709269983,
                0.06431840751347473
            ]
        },
        {
            "positions": [
                -0.7058935235873355,
                -0.7705404098015791,
                1.8067094793729481,
                2.132259720526872,
                -2.0113089729077203,
                0.047045868828968024
            ]
        },
        {
            "positions": [
                -0.8102475948063467,
                -0.7165849655519242,
                1.736821072572502,
                2.1427791416996933,
                -2.1227267748884415,
                0.029773330144461263
            ]
        },
        {
            "positions": [
                -0.9146016660253575,
                -0.6626295213022694,
                1.666932665772056,
                2.1532985628725143,
                -2.2341445768691632,
                0.012500791459954535
            ]
        }
    ]
}