{
    "goal": {
        "global_pose": {
            "orientation": {
                "w": -0.00223480608172531,
                "x": 0.0024358444001904467,
                "y": 0.7094548369677653,
                "z": -0.704743149386269
            },
            "position": {
                "x": -0.37947507619857795,
                "y": -0.6371506643295288,
                "z": 0.19426114857196808
            }
        },
        "name": "move_to_magneteinheit_C"
    },
    "id": "BFMT_move_to_magneteinheit_C_13",
    "joint_names": [
        "shoulder_pan_joint",
        "shoulder_lift_joint",
        "elbow_joint",
        "wrist_1_joint",
        "wrist_2_joint",
        "wrist_3_joint"
    ],
    "metrics": {
        "cart_traj_len": 1.6063786918254448,
        "distance_elbow_joint": 0.967470294952089,
        "distance_shoulder_lift_joint": 0.6916921754287553,
        "distance_shoulder_pan_joint": 1.631303681962166,
        "distance_wrist_1_joint": 3.7347398226435002,
        "distance_wrist_2_joint": 2.233565864886171,
        "distance_wrist_3_joint": 0.46868139917831053,
        "smoothness": 2.016966768125792,
        "time": 0.722155945,
        "traj_len": 3.118886538342008,
        "weighted_distance": 4.0783724357808815
    },
    "planner": "BFMT",
    "start": {
        "state": {
            "elbow_joint": 1.9565354010623817,
            "shoulder_lift_joint": -1.4165861575791021,
            "shoulder_pan_joint": -1.6717766225146293,
            "wrist_1_joint": -0.5286633292919765,
            "wrist_2_joint": 1.472756589071564,
            "wrist_3_joint": -3.1238370188695823
        }
    },
    "waypoints": [
        {
            "positions": [
                -1.6717766225146293,
                -1.4165861575791021,
                1.9565354010623817,
                -0.5286633292919765,
                1.472756589071564,
                -3.1238370188695823
            ]
        },
        {
            "positions": [
                -1.5888480447038054,
                -1.369732315837744,
                1.9864535393236253,
                -0.5054857981948513,
                1.342853610059917,
                -3.1636834075059515
            ]
        },
        {
            "positions": [
                -1.5059194668929816,
                -1.3228784740963857,
                2.016371677584869,
                -0.4823082670977261,
                1.2129506310482703,
                -3.2035297961423206
            ]
        },
        {
            "positions": [
                -1.4229908890821577,
                -1.2760246323550273,
                2.0462898158461127,
                -0.45913073600060095,
                1.0830476520366237,
                -3.2433761847786893
            ]
        },
        {
            "positions": [
                -1.3400623112713337,
                -1.229170790613669,
                2.0762079541073564,
                -0.4359532049034758,
                0.9531446730249767,
                -3.2832225734150584
            ]
        },
        {
            "positions": [
                -1.25713373346051,
                -1.1823169488723109,
                2.1061260923686,
                -0.4127756738063506,
                0.82324169401333,
                -3.3230689620514275
            ]
        },
        {
            "positions": [
                -1.3751839740081793,
                -1.2260685170253889,
                2.105064094289543,
                -0.3337507344762227,
                0.8935775752079056,
                -3.281145238993205
            ]
        },
        {
            "positions": [
                -1.4932342145558488,
                -1.269820085178467,
                2.104002096210486,
                -0.2547257951460948,
                0.9639134564024813,
                -3.239221515934983
            ]
        },
        {
            "positions": [
                -1.6112844551035181,
                -1.3135716533315447,
                2.102940098131429,
                -0.1757008558159669,
                1.034249337597057,
                -3.19729779287676
            ]
        },
        {
            "positions": [
                -1.7293346956511877,
                -1.3573232214846227,
                2.1018781000523723,
                -0.09667591648583895,
                1.1045852187916325,
                -3.1553740698185377
            ]
        },
        {
            "positions": [
                -1.847384936198857,
                -1.4010747896377007,
                2.100816101973315,
                -0.017650977155711067,
                1.174921099986208,
                -3.1134503467603154
            ]
        },
        {
            "positions": [
                -1.9188559732048547,
                -1.390726182336169,
                2.146076999176593,
                0.1319451587786717,
                1.0661345023852073,
                -3.110936720314548
            ]
        },
        {
            "positions": [
                -1.9903270102108526,
                -1.380377575034637,
                2.1913378963798706,
                0.28154129471305445,
                0.9573479047842066,
                -3.1084230938687805
            ]
        },
        {
            "positions": [
                -2.0617980472168504,
                -1.3700289677331052,
                2.236598793583148,
                0.4311374306474372,
                0.8485613071832059,
                -3.105909467423013
            ]
        },
        {
            "positions": [
                -2.133269084222848,
                -1.3596803604315735,
                2.2818596907864257,
                0.58073356658182,
                0.7397747095822051,
                -3.103395840977246
            ]
        },
        {
            "positions": [
                -2.2047401212288458,
                -1.3493317531300417,
                2.3271205879897034,
                0.7303297025162027,
                0.6309881119812043,
                -3.1008822145314787
            ]
        },
        {
            "positions": [
                -2.276211158234844,
                -1.33898314582851,
                2.3723814851929808,
                0.8799258384505855,
                0.5222015143802036,
                -3.0983685880857115
            ]
        },
        {
            "positions": [
                -2.3476821952408415,
                -1.328634538526978,
                2.4176423823962585,
                1.0295219743849682,
                0.41341491677920283,
                -3.095854961639944
            ]
        },
        {
            "positions": [
                -2.419153232246839,
                -1.3182859312254462,
                2.4629032795995363,
                1.1791181103193509,
                0.3046283191782021,
                -3.0933413351941765
            ]
        },
        {
            "positions": [
                -2.4259833940120537,
                -1.2988013977824062,
                2.4065929751464905,
                0.9257483124403292,
                0.34988816705908377,
                -3.0983065638365783
            ]
        },
        {
            "positions": [
                -2.4328135557772685,
                -1.2793168643393664,
                2.350282670693445,
                0.6723785145613076,
                0.39514801493996543,
                -3.10327179247898
            ]
        },
        {
            "positions": [
                -2.4396437175424834,
                -1.2598323308963264,
                2.2939723662403995,
                0.419008716682286,
                0.4404078628208471,
                -3.108237021121382
            ]
        },
        {
            "positions": [
                -2.446473879307698,
                -1.2403477974532864,
                2.237662061787354,
                0.1656389188032643,
                0.48566771070172876,
                -3.1132022497637837
            ]
        },
        {
            "positions": [
                -2.4533040410729123,
                -1.2208632640102464,
                2.1813517573343084,
                -0.08773087907575738,
                0.5309275585826104,
                -3.1181674784061855
            ]
        },
        {
            "positions": [
                -2.4601342028381272,
                -1.2013787305672063,
                2.1250414528812627,
                -0.34110067695477886,
                0.5761874064634921,
                -3.1231327070485873
            ]
        },
        {
            "positions": [
                -2.466964364603342,
                -1.1818941971241665,
                2.0687311484282174,
                -0.5944704748338006,
                0.6214472543443738,
                -3.128097935690989
            ]
        },
        {
            "positions": [
                -2.4737945263685566,
                -1.1624096636811265,
                2.0124208439751716,
                -0.8478402727128224,
                0.6667071022252554,
                -3.133063164333391
            ]
        }
    ]
}