{
    "goal": {
        "global_pose": {
            "orientation": {
                "w": 0.5084816217422485,
                "x": -0.49083608388900757,
                "y": 0.5182115435600281,
                "z": -0.4816462993621826
            },
            "position": {
                "x": 0.5540239810943604,
                "y": 0.030875300988554955,
                "z": 0.16403168439865112
            }
        },
        "name": "move_to_storage_A"
    },
    "id": "BFMT_move_to_storage_A_59",
    "joint_names": [
        "shoulder_pan_joint",
        "shoulder_lift_joint",
        "elbow_joint",
        "wrist_1_joint",
        "wrist_2_joint",
        "wrist_3_joint"
    ],
    "metrics": {
        "cart_traj_len": 0.3527105892863816,
        "distance_elbow_joint": 0.4476885241241171,
        "distance_shoulder_lift_joint": 0.23274935644168404,
        "distance_shoulder_pan_joint": 0.4565501146735071,
        "distance_wrist_1_joint": 0.23668262823321407,
        "distance_wrist_2_joint": 1.1171379164083155,
        "distance_wrist_3_joint": 0.09978500612442431,
        "smoothness": 4.440892133664971e-16,
        "time": 0.486834562,
        "traj_len": 1.6095320891505276,
        "weighted_distance": 2.0356777993817294
    },
    "planner": "BFMT",
    "start": {
        "state": {
            "elbow_joint": 1.971548259319323,
            "shoulder_lift_joint": -1.1394851275133948,
            "shoulder_pan_joint": 0.1228115487234821,
            "wrist_1_joint": -0.7804723859257726,
            "wrist_2_joint": 0.12958671773740124,
            "wrist_3_joint": -3.192489227718131
        }
    },
    "waypoints": [
        {
            "positions": [
                0.1228115487234821,
                -1.1394851275133948,
                1.971548259319323,
                -0.7804723859257726,
                0.12958671773740124,
                -3.192489227718131
            ]
        },
        {
            "positions": [
                0.057590103770123954,
                -1.1727350355764925,
                2.0355037627656256,
                -0.8142841899590889,
                0.2891778486528749,
                -3.1782342268432133
            ]
        },
        {
            "positions": [
                -0.0076313411832341915,
                -1.2059849436395902,
                2.099459266211928,
                -0.8480959939924052,
                0.4487689795683485,
                -3.1639792259682955
            ]
        },
        {
            "positions": [
                -0.07285278613659235,
                -1.2392348517026879,
                2.1634147696582304,
                -0.8819077980257215,
                0.6083601104838221,
                -3.1497242250933777
            ]
        },
        {
            "positions": [
                -0.13807423108995048,
                -1.2724847597657858,
                2.227370273104533,
                -0.9157196020590378,
                0.7679512413992958,
                -3.1354692242184603
            ]
        },
        {
            "positions": [
                -0.20329567604330867,
                -1.3057346678288835,
                2.2913257765508352,
                -0.9495314060923541,
                0.9275423723147695,
                -3.1212142233435425
            ]
        },
        {
            "positions": [
                -0.2685171209966668,
                -1.3389845758919812,
                2.3552812799971377,
                -0.9833432101256704,
                1.087133503230243,
                -3.1069592224686247
            ]
        },
        {
            "positions": [
                -0.333738565950025,
                -1.3722344839550789,
                2.41923678344344,
                -1.0171550141589867,
                1.2467246341457168,
                -3.092704221593707
            ]
        }
    ]
}{
    "goal": {
        "global_pose": {
            "orientation": {
                "w": 0.5084816217422485,
                "x": -0.49083608388900757,
                "y": 0.5182115435600281,
                "z": -0.4816462993621826
            },
            "position": {
                "x": 0.5540239810943604,
                "y": 0.030875300988554955,
                "z": 0.16403168439865112
            }
        },
        "name": "move_to_storage_A"
    },
    "id": "BFMT_move_to_storage_A_59",
    "joint_names": [
        "shoulder_pan_joint",
        "shoulder_lift_joint",
        "elbow_joint",
        "wrist_1_joint",
        "wrist_2_joint",
        "wrist_3_joint"
    ],
    "metrics": {
        "cart_traj_len": 0.35362334844647114,
        "distance_elbow_joint": 0.4533147853519557,
        "distance_shoulder_lift_joint": 0.2343033164671111,
        "distance_shoulder_pan_joint": 0.46141644700548745,
        "distance_wrist_1_joint": 0.25896827872141714,
        "distance_wrist_2_joint": 1.1042480642020447,
        "distance_wrist_3_joint": 0.09599102860008957,
        "smoothness": 6.661338200497456e-16,
        "time": 0.510044106,
        "traj_len": 1.6150052384893696,
        "weighted_distance": 2.040451009083959
    },
    "planner": "BFMT",
    "start": {
        "state": {
            "elbow_joint": 1.97154746011099,
            "shoulder_lift_joint": -1.13948474672311,
            "shoulder_pan_joint": 0.12281154466712228,
            "wrist_1_joint": -0.7804688027058302,
            "wrist_2_joint": 0.12958655903071145,
            "wrist_3_joint": 3.0906928834467795
        }
    },
    "waypoints": [
        {
            "positions": [
                0.12281154466712228,
                -1.13948474672311,
                1.97154746011099,
                -0.7804688027058302,
                0.12958655903071145,
                3.0906928834467795
            ]
        },
        {
            "positions": [
                0.05689490938062408,
                -1.1729566490755543,
                2.0363067151612695,
                -0.8174642710946041,
                0.2873362824881464,
                3.1044058875325065
            ]
        },
        {
            "positions": [
                -0.00902172590587412,
                -1.2064285514279989,
                2.1010659702115486,
                -0.854459739483378,
                0.44508600594558134,
                3.118118891618234
            ]
        },
        {
            "positions": [
                -0.07493836119237234,
                -1.2399004537804432,
                2.165825225261828,
                -0.8914552078721518,
                0.6028357294030163,
                3.131831895703961
            ]
        },
        {
            "positions": [
                -0.1408549964788705,
                -1.2733723561328878,
                2.2305844803121073,
                -0.9284506762609257,
                0.7605854528604513,
                3.1455448997896878
            ]
        },
        {
            "positions": [
                -0.20677163176536872,
                -1.3068442584853321,
                2.295343735362387,
                -0.9654461446496996,
                0.9183351763178863,
                3.1592579038754147
            ]
        },
        {
            "positions": [
                -0.27268826705186694,
                -1.3403161608377765,
                2.360102990412666,
                -1.0024416130384735,
                1.0760848997753212,
                3.172970907961142
            ]
        },
        {
            "positions": [
                -0.33860490233836515,
                -1.373788063190221,
                2.4248622454629456,
                -1.0394370814272473,
                1.2338346232327562,
                3.186683912046869
            ]
        }
    ]
}{
    "goal": {
        "global_pose": {
            "orientation": {
                "w": 0.5084816217422485,
                "x": -0.49083608388900757,
                "y": 0.5182115435600281,
                "z": -0.4816462993621826
            },
            "position": {
                "x": 0.5540239810943604,
                "y": 0.030875300988554955,
                "z": 0.16403168439865112
            }
        },
        "name": "move_to_storage_A"
    },
    "id": "BFMT_move_to_storage_A_59",
    "joint_names": [
        "shoulder_pan_joint",
        "shoulder_lift_joint",
        "elbow_joint",
        "wrist_1_joint",
        "wrist_2_joint",
        "wrist_3_joint"
    ],
    "metrics": {
        "cart_traj_len": 0.3528400963592871,
        "distance_elbow_joint": 0.4513446484323831,
        "distance_shoulder_lift_joint": 0.23466124986964298,
        "distance_shoulder_pan_joint": 0.46142405990008784,
        "distance_wrist_1_joint": 0.2527446833101561,
        "distance_wrist_2_joint": 1.098032787432256,
        "distance_wrist_3_joint": 0.09588272173665091,
        "smoothness": 4.440892133664971e-16,
        "time": 0.507754745,
        "traj_len": 1.6106179406306067,
        "weighted_distance": 2.0338714474855317
    },
    "planner": "BFMT",
    "start": {
        "state": {
            "elbow_joint": 1.9715472970024885,
            "shoulder_lift_joint": -1.1394870060712896,
            "shoulder_pan_joint": 0.12281152778156021,
            "wrist_1_joint": -0.780463741449964,
            "wrist_2_joint": 0.12958659822042276,
            "wrist_3_joint": 3.090690232415272
        }
    },
    "waypoints": [
        {
            "positions": [
                0.12281152778156021,
                -1.1394870060712896,
                1.9715472970024885,
                -0.780463741449964,
                0.12958659822042276,
                3.090690232415272
            ]
        },
        {
            "positions": [
                0.05689380493869052,
                -1.173010041766953,
                2.0360251039214003,
                -0.8165701247799863,
                0.2864484249964593,
                3.1043877640919364
            ]
        },
        {
            "positions": [
                -0.009023917904179168,
                -1.2065330774626162,
                2.100502910840312,
                -0.8526765081100086,
                0.44331025177249583,
                3.1180852957686005
            ]
        },
        {
            "positions": [
                -0.07494164074704884,
                -1.2400561131582795,
                2.164980717759224,
                -0.8887828914400309,
                0.6001720785485324,
                3.131782827445265
            ]
        },
        {
            "positions": [
                -0.14085936358991855,
                -1.2735791488539427,
                2.2294585246781358,
                -0.9248892747700532,
                0.7570339053245689,
                3.1454803591219296
            ]
        },
        {
            "positions": [
                -0.20677708643278828,
                -1.307102184549606,
                2.293936331597048,
                -0.9609956581000755,
                0.9138957321006056,
                3.159177890798594
            ]
        },
        {
            "positions": [
                -0.2726948092756579,
                -1.3406252202452693,
                2.35841413851596,
                -0.9971020414300977,
                1.070757558876642,
                3.1728754224752582
            ]
        },
        {
            "positions": [
                -0.3386125321185276,
                -1.3741482559409326,
                2.4228919454348716,
                -1.03320842476012,
                1.2276193856526787,
                3.1865729541519228
            ]
        }
    ]
}