{
    "goal": {
        "global_pose": {
            "orientation": {
                "w": -0.4816463035849501,
                "x": 0.5182115481033762,
                "y": 0.4908360881923453,
                "z": -0.5084816262002911
            },
            "position": {
                "x": -0.8240239810943604,
                "y": 0.19912469901144506,
                "z": 0.16403168439865112
            }
        },
        "name": "move_to_storage_D"
    },
    "id": "BFMT_move_to_storage_D_112",
    "joint_names": [
        "shoulder_pan_joint",
        "shoulder_lift_joint",
        "elbow_joint",
        "wrist_1_joint",
        "wrist_2_joint",
        "wrist_3_joint"
    ],
    "metrics": {
        "cart_traj_len": 3.637306793912742,
        "distance_elbow_joint": 4.208974365530845,
        "distance_shoulder_lift_joint": 1.2651058146638052,
        "distance_shoulder_pan_joint": 2.8136799597424695,
        "distance_wrist_1_joint": 2.2647740031932897,
        "distance_wrist_2_joint": 0.8772485602080319,
        "distance_wrist_3_joint": 3.138882621791939,
        "smoothness": 4.9083544442506e-16,
        "time": 0.825479015,
        "traj_len": 3.8168921028934495,
        "weighted_distance": 4.8978008465142375
    },
    "planner": "BFMT",
    "start": {
        "state": {
            "elbow_joint": -2.384821988534728,
            "shoulder_lift_joint": -2.2788054721415256,
            "shoulder_pan_joint": -0.1854694642142757,
            "wrist_1_joint": 1.4845938289331202,
            "wrist_2_joint": 0.17898776772866878,
            "wrist_3_joint": 0.037105688729662994
        }
    },
    "waypoints": [
        {
            "positions": [
                -0.1854694642142757,
                -2.2788054721415256,
                -2.384821988534728,
                1.4845938289331202,
                0.17898776772866878,
                0.037105688729662994
            ]
        },
        {
            "positions": [
                -0.09827343507513131,
                -2.243781460632947,
                -2.253140652674856,
                1.435636774802002,
                0.20243164488147583,
                0.10657304662982633
            ]
        },
        {
            "positions": [
                -0.011077405935986911,
                -2.2087574491243687,
                -2.1214593168149847,
                1.3866797206708839,
                0.22587552203428285,
                0.17604040452998967
            ]
        },
        {
            "positions": [
                0.07611862320315746,
                -2.1737334376157906,
                -1.9897779809551128,
                1.3377226665397657,
                0.2493193991870899,
                0.24550776243015301
            ]
        },
        {
            "positions": [
                0.16331465234230189,
                -2.138709426107212,
                -1.8580966450952414,
                1.2887656124086475,
                0.27276327633989694,
                0.3149751203303164
            ]
        },
        {
            "positions": [
                0.2505106814814463,
                -2.1036854145986337,
                -1.7264153092353696,
                1.2398085582775296,
                0.296207153492704,
                0.3844424782304797
            ]
        },
        {
            "positions": [
                0.33770671062059066,
                -2.068661403090055,
                -1.594733973375498,
                1.1908515041464114,
                0.31965103064551104,
                0.45390983613064306
            ]
        },
        {
            "positions": [
                0.42490273975973514,
                -2.033637391581477,
                -1.4630526375156263,
                1.1418944500152932,
                0.3430949077983181,
                0.5233771940308064
            ]
        },
        {
            "positions": [
                0.5120987688988795,
                -1.9986133800728987,
                -1.3313713016557547,
                1.092937395884175,
                0.36653878495112513,
                0.5928445519309697
            ]
        },
        {
            "positions": [
                0.599294798038024,
                -1.9635893685643202,
                -1.1996899657958828,
                1.0439803417530569,
                0.3899826621039322,
                0.6623119098311332
            ]
        },
        {
            "positions": [
                0.6864908271771684,
                -1.9285653570557417,
                -1.0680086299360112,
                0.9950232876219387,
                0.4134265392567392,
                0.7317792677312965
            ]
        },
        {
            "positions": [
                0.7736868563163127,
                -1.8935413455471635,
                -0.9363272940761396,
                0.9460662334908205,
                0.43687041640954627,
                0.8012466256314599
            ]
        },
        {
            "positions": [
                0.860882885455457,
                -1.858517334038585,
                -0.8046459582162679,
                0.8971091793597025,
                0.4603142935623533,
                0.8707139835316231
            ]
        },
        {
            "positions": [
                0.9480789145946017,
                -1.8234933225300067,
                -0.6729646223563961,
                0.8481521252285843,
                0.48375817071516036,
                0.9401813414317866
            ]
        },
        {
            "positions": [
                1.0352749437337458,
                -1.7884693110214283,
                -0.5412832864965245,
                0.7991950710974661,
                0.5072020478679674,
                1.0096486993319498
            ]
        },
        {
            "positions": [
                1.12247097287289,
                -1.7534452995128498,
                -0.40960195063665283,
                0.750238016966348,
                0.5306459250207745,
                1.0791160572321132
            ]
        },
        {
            "positions": [
                1.2096670020120346,
                -1.7184212880042715,
                -0.2779206147767814,
                0.7012809628352299,
                0.5540898021735814,
                1.1485834151322765
            ]
        },
        {
            "positions": [
                1.2968630311511788,
                -1.6833972764956933,
                -0.14623927891690958,
                0.6523239087041117,
                0.5775336793263884,
                1.21805077303244
            ]
        },
        {
            "positions": [
                1.3840590602903236,
                -1.6483732649871148,
                -0.014557943057037726,
                0.6033668545729934,
                0.6009775564791956,
                1.2875181309326034
            ]
        },
        {
            "positions": [
                1.471255089429468,
                -1.6133492534785363,
                0.11712339280283413,
                0.5544098004418754,
                0.6244214336320026,
                1.3569854888327666
            ]
        },
        {
            "positions": [
                1.5584511185686123,
                -1.5783252419699578,
                0.24880472866270553,
                0.5054527463107572,
                0.6478653107848097,
                1.42645284673293
            ]
        },
        {
            "positions": [
                1.6456471477077566,
                -1.5433012304613796,
                0.3804860645225774,
                0.45649569217963903,
                0.6713091879376166,
                1.4959202046330933
            ]
        },
        {
            "positions": [
                1.732843176846901,
                -1.5082772189528013,
                0.5121674003824488,
                0.40753863804852086,
                0.6947530650904237,
                1.5653875625332567
            ]
        },
        {
            "positions": [
                1.8200392059860455,
                -1.4732532074442228,
                0.6438487362423206,
                0.3585815839174029,
                0.7181969422432307,
                1.63485492043342
            ]
        },
        {
            "positions": [
                1.9072352351251896,
                -1.4382291959356444,
                0.775530072102192,
                0.30962452978628474,
                0.7416408193960378,
                1.7043222783335832
            ]
        },
        {
            "positions": [
                1.9944312642643345,
                -1.4032051844270659,
                0.9072114079620643,
                0.26066747565516635,
                0.7650846965488448,
                1.7737896362337469
            ]
        },
        {
            "positions": [
                2.081627293403479,
                -1.3681811729184876,
                1.0388927438219357,
                0.2117104215240484,
                0.7885285737016519,
                1.84325699413391
            ]
        },
        {
            "positions": [
                2.168823322542623,
                -1.3331571614099094,
                1.1705740796818076,
                0.16275336739293023,
                0.8119724508544589,
                1.9127243520340735
            ]
        },
        {
            "positions": [
                2.2560193516817675,
                -1.2981331499013309,
                1.302255415541679,
                0.11379631326181211,
                0.835416328007266,
                1.9821917099342368
            ]
        },
        {
            "positions": [
                2.2973739232202592,
                -1.2665294285209296,
                1.3602439668143944,
                0.014465592426036344,
                0.8599518835549809,
                2.1148357766661663
            ]
        },
        {
            "positions": [
                2.338728494758751,
                -1.2349257071405286,
                1.4182325180871098,
                -0.08486512840973942,
                0.8844874391026959,
                2.2474798433980956
            ]
        },
        {
            "positions": [
                2.380083066297243,
                -1.2033219857601274,
                1.4762210693598252,
                -0.1841958492455152,
                0.9090229946504108,
                2.3801239101300253
            ]
        },
        {
            "positions": [
                2.421437637835735,
                -1.1717182643797261,
                1.5342096206325406,
                -0.28352657008129095,
                0.9335585501981258,
                2.5127679768619546
            ]
        },
        {
            "positions": [
                2.4627922093742267,
                -1.1401145429993251,
                1.592198171905256,
                -0.38285729091706683,
                0.9580941057458408,
                2.6454120435938844
            ]
        },
        {
            "positions": [
                2.5041467809127185,
                -1.108510821618924,
                1.6501867231779712,
                -0.4821880117528425,
                0.9826296612935557,
                2.7780561103258137
            ]
        },
        {
            "positions": [
                2.5455013524512107,
                -1.0769071002385227,
                1.7081752744506866,
                -0.5815187325886184,
                1.0071652168412708,
                2.910700177057743
            ]
        },
        {
            "positions": [
                2.5868559239897024,
                -1.0453033788581216,
                1.766163825723402,
                -0.6808494534243941,
                1.0317007723889857,
                3.0433442437896723
            ]
        },
        {
            "positions": [
                2.628210495528194,
                -1.0136996574777204,
                1.8241523769961174,
                -0.7801801742601698,
                1.0562363279367006,
                3.175988310521602
            ]
        }
    ]
}