{
    "goal": {
        "global_pose": {
            "orientation": {
                "w": 0.5084816217422485,
                "x": -0.49083608388900757,
                "y": 0.5182115435600281,
                "z": -0.4816462993621826
            },
            "position": {
                "x": 0.5540239810943604,
                "y": 0.030875300988554955,
                "z": 0.16403168439865112
            }
        },
        "name": "move_to_storage_A"
    },
    "id": "BFMT_move_to_storage_A_6",
    "joint_names": [
        "shoulder_pan_joint",
        "shoulder_lift_joint",
        "elbow_joint",
        "wrist_1_joint",
        "wrist_2_joint",
        "wrist_3_joint"
    ],
    "metrics": {
        "cart_traj_len": 0.3528852287978414,
        "distance_elbow_joint": 0.45258255107713974,
        "distance_shoulder_lift_joint": 0.23366173375724175,
        "distance_shoulder_pan_joint": 0.46239260157896633,
        "distance_wrist_1_joint": 0.2548785794201166,
        "distance_wrist_2_joint": 1.0942791872833995,
        "distance_wrist_3_joint": 0.10692338528998269,
        "smoothness": 8.881784232165597e-16,
        "time": 0.540558104,
        "traj_len": 1.6139138881634443,
        "weighted_distance": 2.0415000797674066
    },
    "planner": "BFMT",
    "start": {
        "state": {
            "elbow_joint": 1.971548259319323,
            "shoulder_lift_joint": -1.1394851275133948,
            "shoulder_pan_joint": 0.1228115487234821,
            "wrist_1_joint": -0.7804723859257726,
            "wrist_2_joint": 0.12958671773740124,
            "wrist_3_joint": -3.192489227718131
        }
    },
    "waypoints": [
        {
            "positions": [
                0.1228115487234821,
                -1.1394851275133948,
                1.971548259319323,
                -0.7804723859257726,
                0.12958671773740124,
                -3.192489227718131
            ]
        },
        {
            "positions": [
                0.056755462783629765,
                -1.1728653751930007,
                2.0362029094732,
                -0.8168836115572179,
                0.285912315920744,
                -3.1772144583909907
            ]
        },
        {
            "positions": [
                -0.00930062315622257,
                -1.2062456228726068,
                2.100857559627077,
                -0.8532948371886631,
                0.44223791410408675,
                -3.1619396890638503
            ]
        },
        {
            "positions": [
                -0.07535670909607489,
                -1.2396258705522127,
                2.1655122097809545,
                -0.8897060628201083,
                0.5985635122874295,
                -3.14666491973671
            ]
        },
        {
            "positions": [
                -0.14141279503592724,
                -1.2730061182318186,
                2.2301668599348314,
                -0.9261172884515535,
                0.7548891104707723,
                -3.13139015040957
            ]
        },
        {
            "positions": [
                -0.2074688809757796,
                -1.3063863659114245,
                2.2948215100887084,
                -0.9625285140829988,
                0.9112147086541151,
                -3.1161153810824294
            ]
        },
        {
            "positions": [
                -0.2735249669156319,
                -1.3397666135910307,
                2.3594761602425858,
                -0.9989397397144439,
                1.0675403068374578,
                -3.100840611755289
            ]
        },
        {
            "positions": [
                -0.33958105285548423,
                -1.3731468612706366,
                2.4241308103964627,
                -1.0353509653458892,
                1.2238659050208007,
                -3.0855658424281485
            ]
        }
    ]
}{
    "goal": {
        "global_pose": {
            "orientation": {
                "w": 0.5084816217422485,
                "x": -0.49083608388900757,
                "y": 0.5182115435600281,
                "z": -0.4816462993621826
            },
            "position": {
                "x": 0.5540239810943604,
                "y": 0.030875300988554955,
                "z": 0.16403168439865112
            }
        },
        "name": "move_to_storage_A"
    },
    "id": "BFMT_move_to_storage_A_6",
    "joint_names": [
        "shoulder_pan_joint",
        "shoulder_lift_joint",
        "elbow_joint",
        "wrist_1_joint",
        "wrist_2_joint",
        "wrist_3_joint"
    ],
    "metrics": {
        "cart_traj_len": 0.3528599535138394,
        "distance_elbow_joint": 0.44864992785440583,
        "distance_shoulder_lift_joint": 0.23490379046394105,
        "distance_shoulder_pan_joint": 0.45879390961200567,
        "distance_wrist_1_joint": 0.2410965881749536,
        "distance_wrist_2_joint": 1.1093848800960755,
        "distance_wrist_3_joint": 0.09217949154225913,
        "smoothness": 4.440892098500626e-16,
        "time": 0.524795423,
        "traj_len": 1.6077961897403665,
        "weighted_distance": 2.0297411261289424
    },
    "planner": "BFMT",
    "start": {
        "state": {
            "elbow_joint": 1.97154746011099,
            "shoulder_lift_joint": -1.13948474672311,
            "shoulder_pan_joint": 0.12281154466712228,
            "wrist_1_joint": -0.7804688027058302,
            "wrist_2_joint": 0.12958655903071145,
            "wrist_3_joint": 3.0906928834467795
        }
    },
    "waypoints": [
        {
            "positions": [
                0.12281154466712228,
                -1.13948474672311,
                1.97154746011099,
                -0.7804688027058302,
                0.12958655903071145,
                3.0906928834467795
            ]
        },
        {
            "positions": [
                0.057269557579692904,
                -1.1730424310751015,
                2.0356403069473337,
                -0.8149111724451092,
                0.2880701133301508,
                3.103861382238531
            ]
        },
        {
            "positions": [
                -0.008272429507736476,
                -1.2066001154270931,
                2.0997331537836774,
                -0.8493535421843883,
                0.44655366762959015,
                3.117029881030282
            ]
        },
        {
            "positions": [
                -0.07381441659516584,
                -1.2401577997790847,
                2.163826000620021,
                -0.8837959119236675,
                0.6050372219290295,
                3.1301983798220334
            ]
        },
        {
            "positions": [
                -0.13935640368259522,
                -1.2737154841310763,
                2.2279188474563645,
                -0.9182382816629465,
                0.7635207762284689,
                3.1433668786137847
            ]
        },
        {
            "positions": [
                -0.20489839077002464,
                -1.3072731684830678,
                2.2920116942927082,
                -0.9526806514022257,
                0.9220043305279083,
                3.156535377405536
            ]
        },
        {
            "positions": [
                -0.27044037785745395,
                -1.3408308528350594,
                2.356104541129052,
                -0.9871230211415047,
                1.0804878848273476,
                3.1697038761972873
            ]
        },
        {
            "positions": [
                -0.33598236494488337,
                -1.374388537187051,
                2.4201973879653957,
                -1.0215653908807838,
                1.238971439126787,
                3.1828723749890386
            ]
        }
    ]
}{
    "goal": {
        "global_pose": {
            "orientation": {
                "w": 0.5084816217422485,
                "x": -0.49083608388900757,
                "y": 0.5182115435600281,
                "z": -0.4816462993621826
            },
            "position": {
                "x": 0.5540239810943604,
                "y": 0.030875300988554955,
                "z": 0.16403168439865112
            }
        },
        "name": "move_to_storage_A"
    },
    "id": "BFMT_move_to_storage_A_6",
    "joint_names": [
        "shoulder_pan_joint",
        "shoulder_lift_joint",
        "elbow_joint",
        "wrist_1_joint",
        "wrist_2_joint",
        "wrist_3_joint"
    ],
    "metrics": {
        "cart_traj_len": 0.35263528782126524,
        "distance_elbow_joint": 0.45073968895747507,
        "distance_shoulder_lift_joint": 0.2331625171435605,
        "distance_shoulder_pan_joint": 0.45891009429202273,
        "distance_wrist_1_joint": 0.24574343601756365,
        "distance_wrist_2_joint": 1.1072155700607607,
        "distance_wrist_3_joint": 0.09445022476974518,
        "smoothness": 0.0,
        "time": 0.5006955019999999,
        "traj_len": 1.6094165188791643,
        "weighted_distance": 2.03275207215709
    },
    "planner": "BFMT",
    "start": {
        "state": {
            "elbow_joint": 1.9715472970024885,
            "shoulder_lift_joint": -1.1394870060712896,
            "shoulder_pan_joint": 0.12281152778156021,
            "wrist_1_joint": -0.780463741449964,
            "wrist_2_joint": 0.12958659822042276,
            "wrist_3_joint": 3.090690232415272
        }
    },
    "waypoints": [
        {
            "positions": [
                0.12281152778156021,
                -1.1394870060712896,
                1.9715472970024885,
                -0.780463741449964,
                0.12958659822042276,
                3.090690232415272
            ]
        },
        {
            "positions": [
                0.05725294288269983,
                -1.1727959370917982,
                2.0359386811392706,
                -0.8155699465953302,
                0.2877602510862457,
                3.1041831216680924
            ]
        },
        {
            "positions": [
                -0.008305642016160547,
                -1.206104868112307,
                2.100330065276053,
                -0.8506761517406964,
                0.44593390395206867,
                3.1176760109209134
            ]
        },
        {
            "positions": [
                -0.07386422691502093,
                -1.2394137991328156,
                2.164721449412835,
                -0.8857823568860627,
                0.6041075568178916,
                3.131168900173734
            ]
        },
        {
            "positions": [
                -0.1394228118138813,
                -1.2727227301533242,
                2.229112833549617,
                -0.9208885620314289,
                0.7622812096837145,
                3.144661789426555
            ]
        },
        {
            "positions": [
                -0.2049813967127417,
                -1.306031661173833,
                2.293504217686399,
                -0.9559947671767952,
                0.9204548625495375,
                3.1581546786793755
            ]
        },
        {
            "positions": [
                -0.2705399816116021,
                -1.3393405921943415,
                2.3578956018231816,
                -0.9911009723221614,
                1.0786285154153605,
                3.1716475679321965
            ]
        },
        {
            "positions": [
                -0.3360985665104625,
                -1.3726495232148501,
                2.4222869859599636,
                -1.0262071774675277,
                1.2368021682811834,
                3.185140457185017
            ]
        }
    ]
}