{
    "goal": {
        "global_pose": {
            "orientation": {
                "w": 0.5084816262002911,
                "x": -0.4908360881923452,
                "y": 0.5182115481033761,
                "z": -0.48164630358495003
            },
            "position": {
                "x": 0.5540239810943604,
                "y": -0.46912469901144505,
                "z": 0.16403168439865112
            }
        },
        "name": "move_to_storage_B"
    },
    "id": "BFMT_move_to_storage_B_54",
    "joint_names": [
        "shoulder_pan_joint",
        "shoulder_lift_joint",
        "elbow_joint",
        "wrist_1_joint",
        "wrist_2_joint",
        "wrist_3_joint"
    ],
    "metrics": {
        "cart_traj_len": 0.9006379145165332,
        "distance_elbow_joint": 0.3503376482245586,
        "distance_shoulder_lift_joint": 0.8389771384342741,
        "distance_shoulder_pan_joint": 0.5634996887878304,
        "distance_wrist_1_joint": 2.9779536894153633,
        "distance_wrist_2_joint": 2.719670556249234,
        "distance_wrist_3_joint": 3.1367483210215177,
        "smoothness": 0.12144484096362336,
        "time": 0.6717343760000001,
        "traj_len": 3.253795789863399,
        "weighted_distance": 4.749558708958171
    },
    "planner": "BFMT",
    "start": {
        "state": {
            "elbow_joint": 1.664937868594044,
            "shoulder_lift_joint": -0.661644460510453,
            "shoulder_pan_joint": -0.9139846352900073,
            "wrist_1_joint": 2.146753192139373,
            "wrist_2_joint": -2.2341966793290973,
            "wrist_3_joint": 0.005466555786416001
        }
    },
    "waypoints": [
        {
            "positions": [
                -0.9139846352900073,
                -0.661644460510453,
                1.664937868594044,
                2.146753192139373,
                -2.2341966793290973,
                0.005466555786416001
            ]
        },
        {
            "positions": [
                -0.8757145118016605,
                -0.7143993815704637,
                1.696323521317345,
                2.0677444769082767,
                -2.1138550041103574,
                0.0288425958575954
            ]
        },
        {
            "positions": [
                -0.8374443883133136,
                -0.7671543026304742,
                1.7277091740406463,
                1.9887357616771797,
                -1.9935133288916171,
                0.0522186359287748
            ]
        },
        {
            "positions": [
                -0.7991742648249669,
                -0.8199092236904849,
                1.7590948267639477,
                1.9097270464460832,
                -1.873171653672877,
                0.07559467599995419
            ]
        },
        {
            "positions": [
                -0.76090414133662,
                -0.8726641447504955,
                1.7904804794872489,
                1.8307183312149864,
                -1.752829978454137,
                0.0989707160711336
            ]
        },
        {
            "positions": [
                -0.7226340178482732,
                -0.9254190658105061,
                1.82186613221055,
                1.7517096159838896,
                -1.632488303235397,
                0.122346756142313
            ]
        },
        {
            "positions": [
                -0.7393414328151088,
                -0.9495627609245366,
                1.8309974009217926,
                1.630337941296132,
                -1.5308467214196166,
                0.24242603642704338
            ]
        },
        {
            "positions": [
                -0.7560488477819444,
                -0.9737064560385671,
                1.8401286696330352,
                1.5089662666083747,
                -1.4292051396038365,
                0.3625053167117738
            ]
        },
        {
            "positions": [
                -0.7727562627487801,
                -0.9978501511525976,
                1.8492599383442778,
                1.3875945919206172,
                -1.3275635577880562,
                0.4825845969965042
            ]
        },
        {
            "positions": [
                -0.7894636777156157,
                -1.021993846266628,
                1.8583912070555204,
                1.2662229172328598,
                -1.225921975972276,
                0.6026638772812345
            ]
        },
        {
            "positions": [
                -0.8061710926824512,
                -1.0461375413806584,
                1.867522475766763,
                1.1448512425451023,
                -1.1242803941564956,
                0.7227431575659649
            ]
        },
        {
            "positions": [
                -0.8228785076492868,
                -1.070281236494689,
                1.8766537444780056,
                1.0234795678573447,
                -1.0226388123407153,
                0.8428224378506954
            ]
        },
        {
            "positions": [
                -0.8395859226161224,
                -1.0944249316087196,
                1.8857850131892482,
                0.9021078931695874,
                -0.9209972305249352,
                0.9629017181354258
            ]
        },
        {
            "positions": [
                -0.856293337582958,
                -1.11856862672275,
                1.8949162819004908,
                0.78073621848183,
                -0.8193556487091549,
                1.0829809984201562
            ]
        },
        {
            "positions": [
                -0.8730007525497937,
                -1.1427123218367803,
                1.9040475506117334,
                0.6593645437940725,
                -0.7177140668933746,
                1.2030602787048865
            ]
        },
        {
            "positions": [
                -0.8897081675166293,
                -1.1668560169508109,
                1.913178819322976,
                0.5379928691063149,
                -0.6160724850775943,
                1.3231395589896169
            ]
        },
        {
            "positions": [
                -0.9064155824834649,
                -1.1909997120648415,
                1.9223100880342185,
                0.4166211944185576,
                -0.5144309032618142,
                1.4432188392743472
            ]
        },
        {
            "positions": [
                -0.9231229974503005,
                -1.2151434071788718,
                1.9314413567454611,
                0.29524951973080005,
                -0.41278932144603386,
                1.5632981195590778
            ]
        },
        {
            "positions": [
                -0.9398304124171362,
                -1.2392871022929022,
                1.9405726254567037,
                0.1738778450430427,
                -0.31114773963025355,
                1.6833773998438082
            ]
        },
        {
            "positions": [
                -0.9565378273839718,
                -1.2634307974069328,
                1.9497038941679463,
                0.05250617035528515,
                -0.20950615781447346,
                1.8034566801285385
            ]
        },
        {
            "positions": [
                -0.9732452423508073,
                -1.2875744925209633,
                1.958835162879189,
                -0.06886550433247218,
                -0.10786457599869315,
                1.923535960413269
            ]
        },
        {
            "positions": [
                -0.9899526573176429,
                -1.3117181876349937,
                1.9679664315904315,
                -0.19023717902022974,
                -0.006222994182912833,
                2.0436152406979993
            ]
        },
        {
            "positions": [
                -1.0049284333000323,
                -1.2847319860193176,
                1.974724872337313,
                -0.2818033673424813,
                0.06401941597466575,
                2.2005580458565612
            ]
        },
        {
            "positions": [
                -1.019904209282422,
                -1.2577457844036413,
                1.9814833130841947,
                -0.37336955566473284,
                0.13426182613224433,
                2.357500851015123
            ]
        },
        {
            "positions": [
                -1.0348799852648114,
                -1.2307595827879652,
                1.9882417538310762,
                -0.4649357439869844,
                0.2045042362898229,
                2.5144436561736856
            ]
        },
        {
            "positions": [
                -1.049855761247201,
                -1.2037733811722888,
                1.9950001945779579,
                -0.556501932309236,
                0.2747466464474015,
                2.6713864613322476
            ]
        },
        {
            "positions": [
                -1.0648315372295905,
                -1.1767871795566127,
                2.0017586353248396,
                -0.6480681206314876,
                0.3449890566049801,
                2.82832926649081
            ]
        },
        {
            "positions": [
                -1.07980731321198,
                -1.1498009779409366,
                2.008517076071721,
                -0.739634308953739,
                0.4152314667625586,
                2.985272071649372
            ]
        },
        {
            "positions": [
                -1.0947830891943695,
                -1.1228147763252603,
                2.0152755168186025,
                -0.8312004972759907,
                0.4854738769201372,
                3.142214876807934
            ]
        }
    ]
}