{
    "goal": {
        "global_pose": {
            "orientation": {
                "w": -0.00223480608172531,
                "x": 0.0024358444001904467,
                "y": 0.7094548369677653,
                "z": -0.704743149386269
            },
            "position": {
                "x": -0.37947507619857795,
                "y": -0.6371506643295288,
                "z": 0.19426114857196808
            }
        },
        "name": "move_to_magneteinheit_C"
    },
    "id": "BFMT_move_to_magneteinheit_C_61",
    "joint_names": [
        "shoulder_pan_joint",
        "shoulder_lift_joint",
        "elbow_joint",
        "wrist_1_joint",
        "wrist_2_joint",
        "wrist_3_joint"
    ],
    "metrics": {
        "cart_traj_len": 0.9706297254754144,
        "distance_elbow_joint": 0.4114409538600148,
        "distance_shoulder_lift_joint": 0.7223966618723334,
        "distance_shoulder_pan_joint": 1.0559794857816291,
        "distance_wrist_1_joint": 0.5185771072580718,
        "distance_wrist_2_joint": 0.7940025505095046,
        "distance_wrist_3_joint": 0.2841912885624711,
        "smoothness": 1.277183594721697,
        "time": 0.9352623769999999,
        "traj_len": 1.9459157350317164,
        "weighted_distance": 2.3806617321107475
    },
    "planner": "BFMT",
    "start": {
        "state": {
            "elbow_joint": 1.9565354010623817,
            "shoulder_lift_joint": -1.4165861575791021,
            "shoulder_pan_joint": -1.6717766225146293,
            "wrist_1_joint": -0.5286633292919765,
            "wrist_2_joint": 1.472756589071564,
            "wrist_3_joint": -3.1238370188695823
        }
    },
    "waypoints": [
        {
            "positions": [
                -1.6717766225146293,
                -1.4165861575791021,
                1.9565354010623817,
                -0.5286633292919765,
                1.472756589071564,
                -3.1238370188695823
            ]
        },
        {
            "positions": [
                -1.6463772647000467,
                -1.463685014149718,
                2.0036002147203793,
                -0.6125152230621231,
                1.3194295886865397,
                -3.097027360199942
            ]
        },
        {
            "positions": [
                -1.6209779068854642,
                -1.5107838707203338,
                2.0506650283783765,
                -0.6963671168322699,
                1.1661025883015157,
                -3.070217701530302
            ]
        },
        {
            "positions": [
                -1.5955785490708814,
                -1.5578827272909495,
                2.097729842036374,
                -0.7802190106024166,
                1.0127755879164915,
                -3.043408042860662
            ]
        },
        {
            "positions": [
                -1.5701791912562988,
                -1.6049815838615653,
                2.1447946556943713,
                -0.8640709043725634,
                0.8594485875314674,
                -3.0165983841910218
            ]
        },
        {
            "positions": [
                -1.5447798334417162,
                -1.6520804404321812,
                2.191859469352369,
                -0.9479227981427101,
                0.7061215871464432,
                -2.9897887255213815
            ]
        },
        {
            "positions": [
                -1.7305763727834593,
                -1.5546999646283304,
                2.1566360922383634,
                -0.9280592704612425,
                0.7006480774295665,
                -3.0198173245642357
            ]
        },
        {
            "positions": [
                -1.9163729121252027,
                -1.4573194888244794,
                2.121412715124358,
                -0.9081957427797748,
                0.6951745677126897,
                -3.04984592360709
            ]
        },
        {
            "positions": [
                -2.1021694514669456,
                -1.3599390130206286,
                2.0861893380103527,
                -0.8883322150983072,
                0.6897010579958128,
                -3.0798745226499435
            ]
        },
        {
            "positions": [
                -2.287965990808689,
                -1.2625585372167776,
                2.050965960896347,
                -0.8684686874168395,
                0.6842275482789361,
                -3.1099031216927977
            ]
        },
        {
            "positions": [
                -2.4737625301504322,
                -1.1651780614129268,
                2.0157425837823415,
                -0.8486051597353719,
                0.6787540385620593,
                -3.139931720735652
            ]
        }
    ]
}