{
    "goal": {
        "global_pose": {
            "orientation": {
                "w": 0.7047431468963623,
                "x": -0.7094548344612122,
                "y": 0.0024358443915843964,
                "z": -0.0022348060738295317
            },
            "position": {
                "x": 0.6094750761985779,
                "y": 0.3671506643295288,
                "z": 0.19426114857196808
            }
        },
        "name": "move_to_magneteinheit_A"
    },
    "id": "BFMT_move_to_magneteinheit_A_41",
    "joint_names": [
        "shoulder_pan_joint",
        "shoulder_lift_joint",
        "elbow_joint",
        "wrist_1_joint",
        "wrist_2_joint",
        "wrist_3_joint"
    ],
    "metrics": {
        "cart_traj_len": 3.392821645340667,
        "distance_elbow_joint": 3.9085181053720914,
        "distance_shoulder_lift_joint": 0.4692543282435595,
        "distance_shoulder_pan_joint": 3.2516695459285803,
        "distance_wrist_1_joint": 3.454732126830212,
        "distance_wrist_2_joint": 1.441665716324011,
        "distance_wrist_3_joint": 0.41984268737411184,
        "smoothness": 0.11833903674078856,
        "time": 0.991098843,
        "traj_len": 3.598010910221447,
        "weighted_distance": 4.322240822533494
    },
    "planner": "BFMT",
    "start": {
        "state": {
            "elbow_joint": -1.9196185241190666,
            "shoulder_lift_joint": -1.2443396400964142,
            "shoulder_pan_joint": 2.6996025414629847,
            "wrist_1_joint": -1.5485510000780065,
            "wrist_2_joint": -1.5709468930060704,
            "wrist_3_joint": 0.4420197071253992
        }
    },
    "waypoints": [
        {
            "positions": [
                2.6996025414629847,
                -1.2443396400964142,
                -1.9196185241190666,
                -1.5485510000780065,
                -1.5709468930060704,
                0.4420197071253992
            ]
        },
        {
            "positions": [
                2.5875250011403694,
                -1.2314196454378792,
                -1.8095605860292256,
                -1.4366312104521535,
                -1.5404547234928838,
                0.42681315935278014
            ]
        },
        {
            "positions": [
                2.4754474608177537,
                -1.218499650779344,
                -1.6995026479393847,
                -1.3247114208263004,
                -1.5099625539796973,
                0.41160661158016115
            ]
        },
        {
            "positions": [
                2.3633699204951384,
                -1.205579656120809,
                -1.589444709849544,
                -1.2127916312004474,
                -1.4794703844665107,
                0.3964000638075421
            ]
        },
        {
            "positions": [
                2.2512923801725226,
                -1.192659661462274,
                -1.479386771759703,
                -1.1008718415745944,
                -1.448978214953324,
                0.38119351603492313
            ]
        },
        {
            "positions": [
                2.139214839849907,
                -1.179739666803739,
                -1.369328833669862,
                -0.9889520519487414,
                -1.4184860454401373,
                0.3659869682623041
            ]
        },
        {
            "positions": [
                2.0271372995272916,
                -1.1668196721452038,
                -1.259270895580021,
                -0.8770322623228884,
                -1.3879938759269508,
                0.3507804204896851
            ]
        },
        {
            "positions": [
                1.9150597592046763,
                -1.1538996774866688,
                -1.1492129574901802,
                -0.7651124726970354,
                -1.3575017064137642,
                0.33557387271706607
            ]
        },
        {
            "positions": [
                1.8029822188820606,
                -1.1409796828281338,
                -1.0391550194003392,
                -0.6531926830711824,
                -1.3270095369005777,
                0.3203673249444471
            ]
        },
        {
            "positions": [
                1.6909046785594453,
                -1.1280596881695988,
                -0.9290970813104982,
                -0.5412728934453295,
                -1.296517367387391,
                0.30516077717182805
            ]
        },
        {
            "positions": [
                1.5788271382368295,
                -1.1151396935110636,
                -0.8190391432206572,
                -0.4293531038194762,
                -1.2660251978742045,
                0.289954229399209
            ]
        },
        {
            "positions": [
                1.4667495979142142,
                -1.1022196988525286,
                -0.7089812051308164,
                -0.3174333141936234,
                -1.2355330283610177,
                0.27474768162659
            ]
        },
        {
            "positions": [
                1.3546720575915987,
                -1.0892997041939936,
                -0.5989232670409752,
                -0.2055135245677704,
                -1.2050408588478312,
                0.25954113385397104
            ]
        },
        {
            "positions": [
                1.2425945172689832,
                -1.0763797095354586,
                -0.48886532895113444,
                -0.09359373494191736,
                -1.1745486893346446,
                0.244334586081352
            ]
        },
        {
            "positions": [
                1.1305169769463677,
                -1.0634597148769234,
                -0.37880739086129367,
                0.018326054683935666,
                -1.144056519821458,
                0.229128038308733
            ]
        },
        {
            "positions": [
                1.0184394366237524,
                -1.0505397202183884,
                -0.2687494527714527,
                0.13024584430978847,
                -1.1135643503082715,
                0.213921490536114
            ]
        },
        {
            "positions": [
                0.9063618963011366,
                -1.0376197255598534,
                -0.15869151468161147,
                0.24216563393564172,
                -1.083072180795085,
                0.19871494276349494
            ]
        },
        {
            "positions": [
                0.7942843559785211,
                -1.0246997309013182,
                -0.0486335765917707,
                0.35408542356149475,
                -1.0525800112818984,
                0.18350839499087596
            ]
        },
        {
            "positions": [
                0.6822068156559058,
                -1.0117797362427832,
                0.06142436149807029,
                0.46600521318734756,
                -1.0220878417687116,
                0.16830184721825692
            ]
        },
        {
            "positions": [
                0.5701292753332905,
                -0.9988597415842482,
                0.17148229958791106,
                0.5779250028132006,
                -0.9915956722555251,
                0.15309529944563793
            ]
        },
        {
            "positions": [
                0.4580517350106743,
                -0.9859397469257131,
                0.28154023767775227,
                0.689844792439054,
                -0.9611035027423385,
                0.1378887516730189
            ]
        },
        {
            "positions": [
                0.345974194688059,
                -0.973019752267178,
                0.39159817576759304,
                0.8017645820649066,
                -0.9306113332291519,
                0.12268220390039991
            ]
        },
        {
            "positions": [
                0.2338966543654437,
                -0.960099757608643,
                0.5016561138574338,
                0.9136843716907597,
                -0.9001191637159653,
                0.10747565612778087
            ]
        },
        {
            "positions": [
                0.12181911404282841,
                -0.947179762950108,
                0.611714051947275,
                1.0256041613166127,
                -0.8696269942027788,
                0.09226910835516189
            ]
        },
        {
            "positions": [
                0.00974157372021267,
                -0.9342597682915729,
                0.7217719900371162,
                1.1375239509424657,
                -0.8391348246895921,
                0.07706256058254285
            ]
        },
        {
            "positions": [
                -0.10233596660240307,
                -0.9213397736330378,
                0.831829928126957,
                1.2494437405683188,
                -0.8086426551764055,
                0.06185601280992381
            ]
        },
        {
            "positions": [
                -0.21441350692501854,
                -0.9084197789745028,
                0.9418878662167975,
                1.3613635301941718,
                -0.778150485663219,
                0.0466494650373048
            ]
        },
        {
            "positions": [
                -0.16617729299065015,
                -0.8893719979571245,
                1.0914609683648298,
                1.439194615416748,
                -0.6854548700944819,
                0.0431534014250166
            ]
        },
        {
            "positions": [
                -0.11794107905628176,
                -0.8703242169397462,
                1.2410340705128622,
                1.5170257006393242,
                -0.5927592545257448,
                0.03965733781272839
            ]
        },
        {
            "positions": [
                -0.06970486512191337,
                -0.8512764359223679,
                1.3906071726608944,
                1.5948567858619005,
                -0.5000636389570077,
                0.03616127420044019
            ]
        },
        {
            "positions": [
                -0.021468651187544985,
                -0.8322286549049895,
                1.5401802748089266,
                1.6726878710844766,
                -0.40736802338827066,
                0.03266521058815199
            ]
        },
        {
            "positions": [
                0.026767562746823403,
                -0.8131808738876113,
                1.689753376956959,
                1.750518956307053,
                -0.31467240781953354,
                0.029169146975863786
            ]
        },
        {
            "positions": [
                0.07500377668119179,
                -0.794133092870233,
                1.8393264791049915,
                1.828350041529629,
                -0.22197679225079647,
                0.025673083363575586
            ]
        },
        {
            "positions": [
                0.12323999061556015,
                -0.7750853118528547,
                1.9888995812530237,
                1.9061811267522053,
                -0.12928117668205943,
                0.022177019751287382
            ]
        }
    ]
}