{
    "goal": {
        "global_pose": {
            "orientation": {
                "w": -0.00223480608172531,
                "x": 0.0024358444001904467,
                "y": 0.7094548369677653,
                "z": -0.704743149386269
            },
            "position": {
                "x": 0.6205249238014221,
                "y": -0.6371506643295288,
                "z": 0.19426114857196808
            }
        },
        "name": "move_to_magneteinheit_B"
    },
    "id": "BFMT_move_to_magneteinheit_B_75",
    "joint_names": [
        "shoulder_pan_joint",
        "shoulder_lift_joint",
        "elbow_joint",
        "wrist_1_joint",
        "wrist_2_joint",
        "wrist_3_joint"
    ],
    "metrics": {
        "cart_traj_len": 3.6487209845761766,
        "distance_elbow_joint": 4.751538287425534,
        "distance_shoulder_lift_joint": 0.7689815425695423,
        "distance_shoulder_pan_joint": 2.037608482342012,
        "distance_wrist_1_joint": 4.397691363208983,
        "distance_wrist_2_joint": 0.819114806550516,
        "distance_wrist_3_joint": 3.1863932358636475,
        "smoothness": 0.12492435473795613,
        "time": 1.223226856,
        "traj_len": 3.9951630402225438,
        "weighted_distance": 5.248897061235536
    },
    "planner": "BFMT",
    "start": {
        "state": {
            "elbow_joint": 2.6216224122426386,
            "shoulder_lift_joint": -1.4174107377796124,
            "shoulder_pan_joint": 0.7066234856936794,
            "wrist_1_joint": 1.9546482284002225,
            "wrist_2_joint": -0.7096286983471962,
            "wrist_3_joint": 0.005740856962016249
        }
    },
    "waypoints": [
        {
            "positions": [
                0.7066234856936794,
                -1.4174107377796124,
                2.6216224122426386,
                1.9546482284002225,
                -0.7096286983471962,
                0.005740856962016249
            ]
        },
        {
            "positions": [
                0.6926349511477811,
                -1.4669506372869447,
                2.579551953663977,
                1.7890570788040727,
                -0.7132823618864588,
                0.07050851155062303
            ]
        },
        {
            "positions": [
                0.6786464166018829,
                -1.5164905367942774,
                2.537481495085315,
                1.623465929207923,
                -0.7169360254257213,
                0.13527616613922983
            ]
        },
        {
            "positions": [
                0.6646578820559845,
                -1.5660304363016098,
                2.4954110365066535,
                1.4578747796117733,
                -0.7205896889649839,
                0.2000438207278366
            ]
        },
        {
            "positions": [
                0.7038707761238554,
                -1.5667490398565285,
                2.3663872432376194,
                1.3450147334094595,
                -0.705158251451359,
                0.28735697307871755
            ]
        },
        {
            "positions": [
                0.7430836701917262,
                -1.5674676434114474,
                2.2373634499685853,
                1.2321546872071458,
                -0.6897268139377342,
                0.37467012542959854
            ]
        },
        {
            "positions": [
                0.782296564259597,
                -1.568186246966366,
                2.108339656699551,
                1.1192946410048321,
                -0.6742953764241093,
                0.46198327778047954
            ]
        },
        {
            "positions": [
                0.8215094583274678,
                -1.568904850521285,
                1.9793158634305172,
                1.0064345948025184,
                -0.6588639389104844,
                0.5492964301313605
            ]
        },
        {
            "positions": [
                0.8607223523953387,
                -1.5696234540762037,
                1.8502920701614831,
                0.8935745486002048,
                -0.6434325013968596,
                0.6366095824822415
            ]
        },
        {
            "positions": [
                0.8999352464632095,
                -1.5703420576311224,
                1.721268276892449,
                0.7807145023978911,
                -0.6280010638832347,
                0.7239227348331225
            ]
        },
        {
            "positions": [
                0.9391481405310804,
                -1.5710606611860414,
                1.592244483623415,
                0.6678544561955775,
                -0.6125696263696099,
                0.8112358871840033
            ]
        },
        {
            "positions": [
                0.9783610345989512,
                -1.57177926474096,
                1.463220690354381,
                0.5549944099932638,
                -0.597138188855985,
                0.8985490395348843
            ]
        },
        {
            "positions": [
                1.0175739286668222,
                -1.5724978682958788,
                1.3341968970853468,
                0.44213436379095006,
                -0.5817067513423602,
                0.9858621918857653
            ]
        },
        {
            "positions": [
                1.0567868227346928,
                -1.5732164718507977,
                1.2051731038163127,
                0.32927431758863634,
                -0.5662753138287353,
                1.0731753442366463
            ]
        },
        {
            "positions": [
                1.0959997168025637,
                -1.5739350754057164,
                1.0761493105472786,
                0.21641427138632263,
                -0.5508438763151104,
                1.1604884965875273
            ]
        },
        {
            "positions": [
                1.1352126108704346,
                -1.5746536789606354,
                0.9471255172782445,
                0.10355422518400892,
                -0.5354124388014856,
                1.2478016489384083
            ]
        },
        {
            "positions": [
                1.1744255049383052,
                -1.575372282515554,
                0.8181017240092108,
                -0.009305821018304572,
                -0.5199810012878608,
                1.335114801289289
            ]
        },
        {
            "positions": [
                1.213638399006176,
                -1.5760908860704728,
                0.6890779307401766,
                -0.12216586722061828,
                -0.504549563774236,
                1.42242795364017
            ]
        },
        {
            "positions": [
                1.252851293074047,
                -1.5768094896253917,
                0.5600541374711425,
                -0.235025913422932,
                -0.48911812626061113,
                1.509741105991051
            ]
        },
        {
            "positions": [
                1.2920641871419178,
                -1.5775280931803104,
                0.4310303442021084,
                -0.3478859596252457,
                -0.4736866887469863,
                1.597054258341932
            ]
        },
        {
            "positions": [
                1.3312770812097887,
                -1.578246696735229,
                0.30200655093307427,
                -0.4607460058275594,
                -0.4582552512333614,
                1.684367410692813
            ]
        },
        {
            "positions": [
                1.3704899752776596,
                -1.578965300290148,
                0.17298275766404014,
                -0.5736060520298731,
                -0.44282381371973656,
                1.771680563043694
            ]
        },
        {
            "positions": [
                1.4097028693455305,
                -1.5796839038450667,
                0.04395896439500602,
                -0.6864660982321866,
                -0.4273923762061117,
                1.858993715394575
            ]
        },
        {
            "positions": [
                1.4489157634134013,
                -1.5804025073999857,
                -0.08506482887402811,
                -0.7993261444345006,
                -0.41196093869248684,
                1.946306867745456
            ]
        },
        {
            "positions": [
                1.4881286574812722,
                -1.5811211109549044,
                -0.21408862214306223,
                -0.912186190636814,
                -0.396529501178862,
                2.033620020096337
            ]
        },
        {
            "positions": [
                1.527341551549143,
                -1.581839714509823,
                -0.34311241541209636,
                -1.025046236839128,
                -0.38109806366523713,
                2.1209331724472182
            ]
        },
        {
            "positions": [
                1.5665544456170137,
                -1.582558318064742,
                -0.4721362086811305,
                -1.1379062830414415,
                -0.3656666261516123,
                2.208246324798099
            ]
        },
        {
            "positions": [
                1.6057673396848846,
                -1.5832769216196607,
                -0.6011600019501646,
                -1.2507663292437554,
                -0.3502351886379874,
                2.2955594771489802
            ]
        },
        {
            "positions": [
                1.6449802337527555,
                -1.5839955251745796,
                -0.7301837952191987,
                -1.363626375446069,
                -0.33480375112436256,
                2.382872629499861
            ]
        },
        {
            "positions": [
                1.6841931278206261,
                -1.5847141287294984,
                -0.859207588488232,
                -1.4764864216483824,
                -0.3193723136107378,
                2.470185781850742
            ]
        },
        {
            "positions": [
                1.723406021888497,
                -1.585432732284417,
                -0.9882313817572661,
                -1.5893464678506963,
                -0.30394087609711296,
                2.557498934201623
            ]
        },
        {
            "positions": [
                1.7626189159563679,
                -1.586151335839336,
                -1.1172551750263002,
                -1.7022065140530098,
                -0.2885094385834881,
                2.6448120865525038
            ]
        },
        {
            "positions": [
                1.8018318100242388,
                -1.5868699393942547,
                -1.2462789682953344,
                -1.8150665602553238,
                -0.27307800106986324,
                2.732125238903385
            ]
        },
        {
            "positions": [
                1.8410447040921096,
                -1.5875885429491734,
                -1.3753027615643685,
                -1.9279266064576372,
                -0.2576465635562384,
                2.8194383912542658
            ]
        },
        {
            "positions": [
                1.8802575981599803,
                -1.5883071465040923,
                -1.5043265548334026,
                -2.040786652659951,
                -0.24221512604261353,
                2.906751543605147
            ]
        },
        {
            "positions": [
                1.9194704922278512,
                -1.589025750059011,
                -1.6333503481024367,
                -2.1536466988622647,
                -0.22678368852898867,
                2.9940646959560278
            ]
        },
        {
            "positions": [
                1.958683386295722,
                -1.58974435361393,
                -1.7623741413714713,
                -2.2665067450645786,
                -0.2113522510153638,
                3.081377848306909
            ]
        },
        {
            "positions": [
                1.997896280363593,
                -1.5904629571688487,
                -1.891397934640505,
                -2.379366791266892,
                -0.195920813501739,
                3.1686910006577897
            ]
        },
        {
            "positions": [
                2.130158843479914,
                -1.7018650526880623,
                -1.8665994206593641,
                -2.3977475880787154,
                -0.24942545268819058,
                3.166841129097122
            ]
        },
        {
            "positions": [
                2.2624214065962356,
                -1.813267148207276,
                -1.8418009066782233,
                -2.416128384890538,
                -0.30293009187464215,
                3.1649912575364545
            ]
        },
        {
            "positions": [
                2.395047857984258,
                -1.9376421922545688,
                -1.7788272691515208,
                -2.425099968196613,
                -0.3617553125735023,
                3.158410141187608
            ]
        },
        {
            "positions": [
                2.5276743093722795,
                -2.0620172363018616,
                -1.7158536316248183,
                -2.434071551502688,
                -0.4205805332723624,
                3.151829024838762
            ]
        },
        {
            "positions": [
                2.6603007607603018,
                -2.1863922803491547,
                -1.6528799940981158,
                -2.4430431348087627,
                -0.47940575397122254,
                3.1452479084899156
            ]
        }
    ]
}