{
    "goal": {
        "global_pose": {
            "orientation": {
                "w": 0.7047431493862688,
                "x": -0.7094548369677653,
                "y": 0.0024358444001904,
                "z": -0.0022348060817251984
            },
            "position": {
                "x": -0.39052492380142206,
                "y": 0.3671506643295288,
                "z": 0.19426114857196808
            }
        },
        "name": "move_to_magneteinheit_D"
    },
    "id": "BFMT_move_to_magneteinheit_D_44",
    "joint_names": [
        "shoulder_pan_joint",
        "shoulder_lift_joint",
        "elbow_joint",
        "wrist_1_joint",
        "wrist_2_joint",
        "wrist_3_joint"
    ],
    "metrics": {
        "cart_traj_len": 4.441764161222499,
        "distance_elbow_joint": 3.1447619725528133,
        "distance_shoulder_lift_joint": 1.6544648236318953,
        "distance_shoulder_pan_joint": 3.197472408912513,
        "distance_wrist_1_joint": 1.6704952241372704,
        "distance_wrist_2_joint": 0.7613754470108303,
        "distance_wrist_3_joint": 3.6266788415038036,
        "smoothness": 0.4568904779768201,
        "time": 1.038308156,
        "traj_len": 3.7490330376977368,
        "weighted_distance": 4.8724200426384465
    },
    "planner": "BFMT",
    "start": {
        "state": {
            "elbow_joint": 0.749534889911806,
            "shoulder_lift_joint": -0.6476975780787326,
            "shoulder_pan_joint": -2.711696901376241,
            "wrist_1_joint": -0.07506478083263063,
            "wrist_2_joint": 0.43296659715538205,
            "wrist_3_joint": -3.14703540197715
        }
    },
    "waypoints": [
        {
            "positions": [
                -2.711696901376241,
                -0.6476975780787326,
                0.749534889911806,
                -0.07506478083263063,
                0.43296659715538205,
                -3.14703540197715
            ]
        },
        {
            "positions": [
                -2.717430117201208,
                -0.6595770816255336,
                0.7365742597803671,
                -0.035008010045751076,
                0.29360453169303663,
                -3.101010658079712
            ]
        },
        {
            "positions": [
                -2.620389405546297,
                -0.7883580452547995,
                0.7153714574930732,
                0.03072576545839903,
                0.26059408961318997,
                -3.0535028320711097
            ]
        },
        {
            "positions": [
                -2.5233486938913856,
                -0.9171390088840653,
                0.6941686552057793,
                0.09645954096254913,
                0.22758364753334331,
                -3.0059950060625074
            ]
        },
        {
            "positions": [
                -2.426307982236474,
                -1.0459199725133312,
                0.6729658529184853,
                0.16219331646669924,
                0.19457320545349663,
                -2.958487180053905
            ]
        },
        {
            "positions": [
                -2.3292672705815627,
                -1.1747009361425969,
                0.6517630506311914,
                0.22792709197084934,
                0.16156276337364997,
                -2.9109793540453026
            ]
        },
        {
            "positions": [
                -2.2322265589266514,
                -1.303481899771863,
                0.6305602483438976,
                0.2936608674749994,
                0.1285523212938033,
                -2.8634715280367002
            ]
        },
        {
            "positions": [
                -2.13518584727174,
                -1.4322628634011285,
                0.6093574460566036,
                0.3593946429791496,
                0.09554187921395663,
                -2.815963702028098
            ]
        },
        {
            "positions": [
                -2.038145135616829,
                -1.5610438270303946,
                0.5881546437693097,
                0.42512841848329963,
                0.06253143713410997,
                -2.7684558760194955
            ]
        },
        {
            "positions": [
                -1.9411044239619175,
                -1.6898247906596602,
                0.5669518414820158,
                0.4908621939874498,
                0.029520995054263307,
                -2.720948050010893
            ]
        },
        {
            "positions": [
                -1.8541956286730632,
                -1.7148050282830332,
                0.47024316766511653,
                0.5339661429112138,
                0.04028374997176022,
                -2.5960849197500684
            ]
        },
        {
            "positions": [
                -1.7672868333842089,
                -1.7397852659064061,
                0.37353449384821724,
                0.5770700918349778,
                0.05104650488925713,
                -2.471221789489244
            ]
        },
        {
            "positions": [
                -1.6803780380953546,
                -1.7647655035297791,
                0.27682582003131795,
                0.6201740407587417,
                0.06180925980675406,
                -2.3463586592284194
            ]
        },
        {
            "positions": [
                -1.5934692428065005,
                -1.789745741153152,
                0.18011714621441866,
                0.6632779896825057,
                0.07257201472425097,
                -2.2214955289675946
            ]
        },
        {
            "positions": [
                -1.5065604475176462,
                -1.814725978776525,
                0.08340847239751936,
                0.7063819386062697,
                0.0833347696417479,
                -2.0966323987067703
            ]
        },
        {
            "positions": [
                -1.4196516522287919,
                -1.839706216399898,
                -0.013300201419379931,
                0.7494858875300336,
                0.0940975245592448,
                -1.9717692684459456
            ]
        },
        {
            "positions": [
                -1.3327428569399375,
                -1.864686454023271,
                -0.11000887523627922,
                0.7925898364537978,
                0.10486027947674173,
                -1.8469061381851208
            ]
        },
        {
            "positions": [
                -1.2458340616510832,
                -1.889666691646644,
                -0.20671754905317852,
                0.8356937853775617,
                0.11562303439423863,
                -1.7220430079242963
            ]
        },
        {
            "positions": [
                -1.1589252663622291,
                -1.914646929270017,
                -0.3034262228700778,
                0.8787977343013257,
                0.12638578931173555,
                -1.5971798776634716
            ]
        },
        {
            "positions": [
                -1.0720164710733746,
                -1.93962716689339,
                -0.4001348966869771,
                0.9219016832250897,
                0.13714854422923248,
                -1.472316747402647
            ]
        },
        {
            "positions": [
                -0.9851076757845205,
                -1.964607404516763,
                -0.4968435705038763,
                0.9650056321488536,
                0.14791129914672937,
                -1.3474536171418225
            ]
        },
        {
            "positions": [
                -0.8981988804956662,
                -1.989587642140136,
                -0.5935522443207757,
                1.0081095810726177,
                0.1586740540642263,
                -1.2225904868809978
            ]
        },
        {
            "positions": [
                -0.8112900852068121,
                -2.0145678797635087,
                -0.6902609181376749,
                1.0512135299963816,
                0.1694368089817232,
                -1.0977273566201733
            ]
        },
        {
            "positions": [
                -0.7243812899179576,
                -2.039548117386882,
                -0.7869695919545743,
                1.0943174789201455,
                0.18019956389922015,
                -0.9728642263593485
            ]
        },
        {
            "positions": [
                -0.6374724946291035,
                -2.064528355010255,
                -0.8836782657714737,
                1.1374214278439094,
                0.19096231881671705,
                -0.848001096098524
            ]
        },
        {
            "positions": [
                -0.5505636993402492,
                -2.089508592633628,
                -0.9803869395883729,
                1.1805253767676736,
                0.20172507373421394,
                -0.7231379658376995
            ]
        },
        {
            "positions": [
                -0.46365490405139465,
                -2.1144888302570006,
                -1.0770956134052723,
                1.2236293256914377,
                0.2124878286517109,
                -0.5982748355768748
            ]
        },
        {
            "positions": [
                -0.37674610876254055,
                -2.139469067880374,
                -1.1738042872221714,
                1.2667332746152016,
                0.2232505835692078,
                -0.47341170531605004
            ]
        },
        {
            "positions": [
                -0.28983731347368646,
                -2.164449305503747,
                -1.2705129610390706,
                1.3098372235389655,
                0.2340133384867047,
                -0.34854857505522574
            ]
        },
        {
            "positions": [
                -0.20292851818483193,
                -2.18942954312712,
                -1.36722163485597,
                1.3529411724627294,
                0.24477609340420164,
                -0.223685444794401
            ]
        },
        {
            "positions": [
                -0.11601972289597762,
                -2.2144097807504926,
                -1.4639303086728692,
                1.3960451213864935,
                0.25553884832169854,
                -0.09882231453357626
            ]
        },
        {
            "positions": [
                -0.029110927607123527,
                -2.2393900183738658,
                -1.5606389824897684,
                1.4391490703102574,
                0.26630160323919544,
                0.026040815727248035
            ]
        },
        {
            "positions": [
                0.05779786768173101,
                -2.264370255997239,
                -1.657347656306668,
                1.4822530192340215,
                0.2770643581566924,
                0.15090394598807322
            ]
        },
        {
            "positions": [
                0.14470666297058488,
                -2.2893504936206117,
                -1.754056330123567,
                1.5253569681577854,
                0.2878271130741893,
                0.2757670762488975
            ]
        },
        {
            "positions": [
                0.062306059741646824,
                -2.2861475165981076,
                -1.9143490182529272,
                1.507838599371072,
                0.2629211813517428,
                0.22479798542945864
            ]
        },
        {
            "positions": [
                -0.020094543487291228,
                -2.2829445395756034,
                -2.0746417063822875,
                1.4903202305843584,
                0.23801524962929632,
                0.17382889461001977
            ]
        },
        {
            "positions": [
                -0.10249514671622928,
                -2.2797415625530997,
                -2.2349343945116478,
                1.4728018617976446,
                0.21310931790684984,
                0.1228598037905809
            ]
        },
        {
            "positions": [
                -0.18489574994516736,
                -2.2765385855305955,
                -2.395227082641008,
                1.455283493010931,
                0.18820338618440335,
                0.07189071297114202
            ]
        }
    ]
}