{
    "goal": {
        "global_pose": {
            "orientation": {
                "w": 0.7047431468963623,
                "x": -0.7094548344612122,
                "y": 0.0024358443915843964,
                "z": -0.0022348060738295317
            },
            "position": {
                "x": 0.6094750761985779,
                "y": 0.3671506643295288,
                "z": 0.19426114857196808
            }
        },
        "name": "move_to_magneteinheit_A"
    },
    "id": "BFMT_move_to_magneteinheit_A_88",
    "joint_names": [
        "shoulder_pan_joint",
        "shoulder_lift_joint",
        "elbow_joint",
        "wrist_1_joint",
        "wrist_2_joint",
        "wrist_3_joint"
    ],
    "metrics": {
        "cart_traj_len": 3.549689456908558,
        "distance_elbow_joint": 3.9043009246728646,
        "distance_shoulder_lift_joint": 0.4262094828982099,
        "distance_shoulder_pan_joint": 2.787232115074698,
        "distance_wrist_1_joint": 2.528002035457308,
        "distance_wrist_2_joint": 2.0942388300689636,
        "distance_wrist_3_joint": 2.688154022549243,
        "smoothness": 0.3432338956461442,
        "time": 0.756177,
        "traj_len": 3.7984388122913466,
        "weighted_distance": 4.942336119826944
    },
    "planner": "BFMT",
    "start": {
        "state": {
            "elbow_joint": -1.9196185241190666,
            "shoulder_lift_joint": -1.2443396400964142,
            "shoulder_pan_joint": 2.6996025414629847,
            "wrist_1_joint": -1.5485510000780065,
            "wrist_2_joint": -1.5709468930060704,
            "wrist_3_joint": 0.4420197071253992
        }
    },
    "waypoints": [
        {
            "positions": [
                2.6996025414629847,
                -1.2443396400964142,
                -1.9196185241190666,
                -1.5485510000780065,
                -1.5709468930060704,
                0.4420197071253992
            ]
        },
        {
            "positions": [
                2.574537155604984,
                -1.2378396352930694,
                -1.794366648453075,
                -1.5231348305327423,
                -1.4881629019622398,
                0.4596958687807851
            ]
        },
        {
            "positions": [
                2.4494717697469826,
                -1.2313396304897248,
                -1.6691147727870832,
                -1.4977186609874782,
                -1.405378910918409,
                0.47737203043617105
            ]
        },
        {
            "positions": [
                2.3244063838889817,
                -1.22483962568638,
                -1.5438628971210913,
                -1.472302491442214,
                -1.3225949198745783,
                0.495048192091557
            ]
        },
        {
            "positions": [
                2.199340998030981,
                -1.2183396208830353,
                -1.4186110214550995,
                -1.4468863218969499,
                -1.2398109288307477,
                0.5127243537469429
            ]
        },
        {
            "positions": [
                2.07427561217298,
                -1.2118396160796905,
                -1.2933591457891076,
                -1.4214701523516857,
                -1.1570269377869171,
                0.5304005154023288
            ]
        },
        {
            "positions": [
                1.9492102263149789,
                -1.205339611276346,
                -1.1681072701231159,
                -1.3960539828064216,
                -1.0742429467430865,
                0.5480766770577148
            ]
        },
        {
            "positions": [
                1.8241448404569778,
                -1.1988396064730011,
                -1.0428553944571242,
                -1.3706378132611574,
                -0.9914589556992557,
                0.5657528387131008
            ]
        },
        {
            "positions": [
                1.699079454598977,
                -1.1923396016696564,
                -0.9176035187911324,
                -1.3452216437158933,
                -0.9086749646554251,
                0.5834290003684867
            ]
        },
        {
            "positions": [
                1.5740140687409758,
                -1.1858395968663116,
                -0.7923516431251405,
                -1.319805474170629,
                -0.8258909736115944,
                0.6011051620238725
            ]
        },
        {
            "positions": [
                1.4489486828829747,
                -1.179339592062967,
                -0.6670997674591486,
                -1.2943893046253647,
                -0.7431069825677636,
                0.6187813236792585
            ]
        },
        {
            "positions": [
                1.3238832970249736,
                -1.1728395872596222,
                -0.5418478917931568,
                -1.2689731350801006,
                -0.6603229915239329,
                0.6364574853346445
            ]
        },
        {
            "positions": [
                1.198817911166973,
                -1.1663395824562774,
                -0.4165960161271651,
                -1.2435569655348364,
                -0.5775390004801024,
                0.6541336469900304
            ]
        },
        {
            "positions": [
                1.073752525308972,
                -1.1598395776529329,
                -0.2913441404611734,
                -1.2181407959895723,
                -0.4947550094362716,
                0.6718098086454163
            ]
        },
        {
            "positions": [
                0.9486871394509708,
                -1.153339572849588,
                -0.16609226479518147,
                -1.192724626444308,
                -0.411971018392441,
                0.6894859703008023
            ]
        },
        {
            "positions": [
                0.8236217535929697,
                -1.1468395680462433,
                -0.04084038912918975,
                -1.167308456899044,
                -0.3291870273486104,
                0.7071621319561883
            ]
        },
        {
            "positions": [
                0.6985563677349691,
                -1.1403395632428985,
                0.08441148653680175,
                -1.1418922873537798,
                -0.24640303630477978,
                0.7248382936115741
            ]
        },
        {
            "positions": [
                0.5734909818769678,
                -1.133839558439554,
                0.2096633622027939,
                -1.1164761178085156,
                -0.16361904526094895,
                0.74251445526696
            ]
        },
        {
            "positions": [
                0.44842559601896687,
                -1.1273395536362092,
                0.33491523786878574,
                -1.0910599482632515,
                -0.08083505421711841,
                0.760190616922346
            ]
        },
        {
            "positions": [
                0.4092177769568768,
                -1.1141935117236914,
                0.44241857272818114,
                -0.9851368192297448,
                -0.04351219294212078,
                0.8364920670967386
            ]
        },
        {
            "positions": [
                0.37000995789478675,
                -1.1010474698111739,
                0.5499219075875765,
                -0.8792136901962383,
                -0.006189331667123155,
                0.9127935172711313
            ]
        },
        {
            "positions": [
                0.3308021388326967,
                -1.087901427898656,
                0.6574252424469719,
                -0.7732905611627316,
                0.031133529607874452,
                0.9890949674455239
            ]
        },
        {
            "positions": [
                0.2915943197706066,
                -1.0747553859861383,
                0.7649285773063673,
                -0.6673674321292251,
                0.0684563908828721,
                1.0653964176199167
            ]
        },
        {
            "positions": [
                0.2523865007085166,
                -1.0616093440736207,
                0.8724319121657627,
                -0.5614443030957185,
                0.10577925215786972,
                1.1416978677943093
            ]
        },
        {
            "positions": [
                0.21317868164642653,
                -1.048463302161103,
                0.979935247025158,
                -0.45552117406221193,
                0.14310211343286733,
                1.2179993179687019
            ]
        },
        {
            "positions": [
                0.17397086258433647,
                -1.0353172602485854,
                1.0874385818845536,
                -0.3495980450287053,
                0.180424974707865,
                1.2943007681430945
            ]
        },
        {
            "positions": [
                0.13476304352224638,
                -1.0221712183360676,
                1.1949419167439488,
                -0.24367491599519864,
                0.21774783598286263,
                1.370602218317487
            ]
        },
        {
            "positions": [
                0.09555522446015635,
                -1.0090251764235498,
                1.3024452516033445,
                -0.1377517869616921,
                0.25507069725786025,
                1.44690366849188
            ]
        },
        {
            "positions": [
                0.05634740539806632,
                -0.9958791345110322,
                1.4099485864627397,
                -0.031828657928185455,
                0.29239355853285787,
                1.5232051186662723
            ]
        },
        {
            "positions": [
                0.01713958633597623,
                -0.9827330925985145,
                1.517451921322135,
                0.07409447110532108,
                0.3297164198078555,
                1.599506568840665
            ]
        },
        {
            "positions": [
                0.028780604107942066,
                -1.0010223076429934,
                1.569366419014542,
                -0.02650070270289899,
                0.3082080290017402,
                1.7695806978222182
            ]
        },
        {
            "positions": [
                0.0404216218799079,
                -1.0193115226874723,
                1.621280916706949,
                -0.12709587651111906,
                0.2866996381956249,
                1.9396548268037712
            ]
        },
        {
            "positions": [
                0.052062639651873736,
                -1.0376007377319512,
                1.673195414399356,
                -0.22769105031933912,
                0.2651912473895096,
                2.1097289557853243
            ]
        },
        {
            "positions": [
                0.06370365742383957,
                -1.05588995277643,
                1.725109912091763,
                -0.3282862241275592,
                0.24368285658339434,
                2.2798030847668773
            ]
        },
        {
            "positions": [
                0.07534467519580541,
                -1.0741791678209092,
                1.77702440978417,
                -0.4288813979357793,
                0.222174465777279,
                2.4498772137484304
            ]
        },
        {
            "positions": [
                0.08698569296777124,
                -1.092468382865388,
                1.828938907476577,
                -0.5294765717439993,
                0.20066607497116373,
                2.619951342729983
            ]
        },
        {
            "positions": [
                0.09862671073973708,
                -1.110757597909867,
                1.8808534051689842,
                -0.6300717455522195,
                0.17915768416504843,
                2.7900254717115365
            ]
        },
        {
            "positions": [
                0.11026772851170291,
                -1.1290468129543458,
                1.932767902861391,
                -0.7306669193604395,
                0.15764929335893316,
                2.960099600693089
            ]
        },
        {
            "positions": [
                0.12190874628366875,
                -1.1473360279988247,
                1.9846824005537982,
                -0.8312620931686596,
                0.13614090255281786,
                3.130173729674642
            ]
        }
    ]
}