{
    "goal": {
        "global_pose": {
            "orientation": {
                "w": 0.7047431468963623,
                "x": -0.7094548344612122,
                "y": 0.0024358443915843964,
                "z": -0.0022348060738295317
            },
            "position": {
                "x": 0.6094750761985779,
                "y": 0.3671506643295288,
                "z": 0.19426114857196808
            }
        },
        "name": "move_to_magneteinheit_A"
    },
    "id": "BFMT_move_to_magneteinheit_A_1",
    "joint_names": [
        "shoulder_pan_joint",
        "shoulder_lift_joint",
        "elbow_joint",
        "wrist_1_joint",
        "wrist_2_joint",
        "wrist_3_joint"
    ],
    "metrics": {
        "cart_traj_len": 3.790042491525927,
        "distance_elbow_joint": 3.885409488233475,
        "distance_shoulder_lift_joint": 0.595785642951377,
        "distance_shoulder_pan_joint": 2.5771381684177452,
        "distance_wrist_1_joint": 1.0069977799707268,
        "distance_wrist_2_joint": 1.9687872439338752,
        "distance_wrist_3_joint": 2.9796463780348152,
        "smoothness": 0.47575114929508117,
        "time": 0.8211281730000001,
        "traj_len": 3.607459591116998,
        "weighted_distance": 4.6849591760778715
    },
    "planner": "BFMT",
    "start": {
        "state": {
            "elbow_joint": -1.9196185241190666,
            "shoulder_lift_joint": -1.2443396400964142,
            "shoulder_pan_joint": 2.6996025414629847,
            "wrist_1_joint": -1.5485510000780065,
            "wrist_2_joint": -1.5709468930060704,
            "wrist_3_joint": 0.4420197071253992
        }
    },
    "waypoints": [
        {
            "positions": [
                2.6996025414629847,
                -1.2443396400964142,
                -1.9196185241190666,
                -1.5485510000780065,
                -1.5709468930060704,
                0.4420197071253992
            ]
        },
        {
            "positions": [
                2.605279424040978,
                -1.2355751463448594,
                -1.820017837408066,
                -1.5221777122372446,
                -1.5056311227189907,
                0.534476155059254
            ]
        },
        {
            "positions": [
                2.510956306618971,
                -1.2268106525933047,
                -1.7204171506970656,
                -1.4958044243964825,
                -1.440315352431911,
                0.6269326029931089
            ]
        },
        {
            "positions": [
                2.416633189196964,
                -1.21804615884175,
                -1.620816463986065,
                -1.4694311365557207,
                -1.3749995821448315,
                0.7193890509269638
            ]
        },
        {
            "positions": [
                2.322310071774957,
                -1.2092816650901952,
                -1.5212157772750643,
                -1.4430578487149588,
                -1.3096838118577518,
                0.8118454988608188
            ]
        },
        {
            "positions": [
                2.22798695435295,
                -1.2005171713386404,
                -1.4216150905640639,
                -1.4166845608741967,
                -1.2443680415706722,
                0.9043019467946736
            ]
        },
        {
            "positions": [
                2.1336638369309426,
                -1.1917526775870857,
                -1.3220144038530632,
                -1.3903112730334348,
                -1.1790522712835925,
                0.9967583947285286
            ]
        },
        {
            "positions": [
                2.039340719508936,
                -1.1829881838355307,
                -1.2224137171420626,
                -1.363937985192673,
                -1.113736500996513,
                1.0892148426623833
            ]
        },
        {
            "positions": [
                1.9450176020869288,
                -1.174223690083976,
                -1.122813030431062,
                -1.3375646973519109,
                -1.048420730709433,
                1.1816712905962383
            ]
        },
        {
            "positions": [
                1.8506944846649218,
                -1.1654591963324212,
                -1.0232123437200615,
                -1.311191409511149,
                -0.9831049604223536,
                1.274127738530093
            ]
        },
        {
            "positions": [
                1.7563713672429149,
                -1.1566947025808665,
                -0.9236116570090609,
                -1.2848181216703871,
                -0.9177891901352739,
                1.366584186463948
            ]
        },
        {
            "positions": [
                1.662048249820908,
                -1.1479302088293117,
                -0.8240109702980603,
                -1.2584448338296252,
                -0.8524734198481944,
                1.459040634397803
            ]
        },
        {
            "positions": [
                1.567725132398901,
                -1.139165715077757,
                -0.7244102835870596,
                -1.2320715459888631,
                -0.7871576495611147,
                1.5514970823316578
            ]
        },
        {
            "positions": [
                1.473402014976894,
                -1.1304012213262022,
                -0.6248095968760592,
                -1.2056982581481013,
                -0.7218418792740351,
                1.6439535302655126
            ]
        },
        {
            "positions": [
                1.379078897554887,
                -1.1216367275746475,
                -0.5252089101650588,
                -1.1793249703073392,
                -0.6565261089869555,
                1.7364099781993674
            ]
        },
        {
            "positions": [
                1.2847557801328802,
                -1.1128722338230927,
                -0.42560822345405813,
                -1.1529516824665773,
                -0.5912103386998759,
                1.8288664261332226
            ]
        },
        {
            "positions": [
                1.190432662710873,
                -1.104107740071538,
                -0.3260075367430575,
                -1.1265783946258154,
                -0.525894568412796,
                1.9213228740670774
            ]
        },
        {
            "positions": [
                1.096109545288866,
                -1.0953432463199833,
                -0.22640685003205685,
                -1.1002051067850536,
                -0.46057879812571656,
                2.013779322000932
            ]
        },
        {
            "positions": [
                1.0017864278668591,
                -1.0865787525684285,
                -0.12680616332105643,
                -1.0738318189442915,
                -0.39526302783863687,
                2.1062357699347873
            ]
        },
        {
            "positions": [
                0.9074633104448524,
                -1.0778142588168738,
                -0.02720547661005579,
                -1.0474585311035296,
                -0.3299472575515574,
                2.198692217868642
            ]
        },
        {
            "positions": [
                0.813140193022845,
                -1.0690497650653188,
                0.07239521010094485,
                -1.0210852432627675,
                -0.2646314872644775,
                2.291148665802497
            ]
        },
        {
            "positions": [
                0.7188170756008383,
                -1.060285271313764,
                0.1719958968119455,
                -0.9947119554220056,
                -0.19931571697739803,
                2.3836051137363516
            ]
        },
        {
            "positions": [
                0.6244939581788311,
                -1.0515207775622093,
                0.27159658352294613,
                -0.9683386675812438,
                -0.13399994669031834,
                2.476061561670207
            ]
        },
        {
            "positions": [
                0.5301708407568242,
                -1.0427562838106545,
                0.37119727023394633,
                -0.9419653797404818,
                -0.06868417640323887,
                2.5685180096040616
            ]
        },
        {
            "positions": [
                0.43584772333481725,
                -1.0339917900590998,
                0.4707979569449474,
                -0.9155920918997198,
                -0.003368406116158962,
                2.660974457537917
            ]
        },
        {
            "positions": [
                0.3415246059128103,
                -1.025227296307545,
                0.5703986436559476,
                -0.8892188040589578,
                0.061947364170920505,
                2.7534309054717716
            ]
        },
        {
            "positions": [
                0.2472014884908032,
                -1.0164628025559903,
                0.6699993303669485,
                -0.8628455162181959,
                0.1272631344580001,
                2.8458873534056264
            ]
        },
        {
            "positions": [
                0.23410609432940102,
                -0.9916378109670337,
                0.8998496503016641,
                -0.883185270826072,
                0.1009118043044575,
                2.923858535701273
            ]
        },
        {
            "positions": [
                0.2210107001679988,
                -0.9668128193780773,
                1.1296999702363797,
                -0.9035250254339482,
                0.07456047415091488,
                3.00182971799692
            ]
        },
        {
            "positions": [
                0.20791530600659663,
                -0.9419878277891207,
                1.3595502901710952,
                -0.9238647800418243,
                0.048209143997372264,
                3.0798009002925673
            ]
        },
        {
            "positions": [
                0.19481991184519443,
                -0.9171628362001643,
                1.589400610105811,
                -0.9442045346497004,
                0.021857813843829635,
                3.157772082588214
            ]
        },
        {
            "positions": [
                0.18172451768379225,
                -0.8923378446112077,
                1.8192509300405264,
                -0.9645442892575765,
                -0.0044935163097129804,
                3.235743264883861
            ]
        },
        {
            "positions": [
                0.16197113613760747,
                -0.9735991270999312,
                1.868097608065154,
                -0.8913464482337313,
                0.04178000559098427,
                3.1737689914584095
            ]
        },
        {
            "positions": [
                0.1422177545914227,
                -1.0548604095886547,
                1.9169442860897816,
                -0.818148607209886,
                0.08805352749168152,
                3.1117947180329586
            ]
        },
        {
            "positions": [
                0.12246437304523791,
                -1.1361216920773782,
                1.9657909641144091,
                -0.7449507661860408,
                0.13432704939237877,
                3.0498204446075072
            ]
        }
    ]
}