{
    "goal": {
        "global_pose": {
            "orientation": {
                "w": 0.005598929693374612,
                "x": 0.007748599140229565,
                "y": 0.7110244013736278,
                "z": -0.7031023480610252
            },
            "position": {
                "x": -0.8858502320852131,
                "y": -0.7141253447532654,
                "z": 0.3711530566215515
            }
        },
        "name": "move_to_auspresseinheit_C"
    },
    "id": "BFMT_move_to_auspresseinheit_C_65",
    "joint_names": [
        "shoulder_pan_joint",
        "shoulder_lift_joint",
        "elbow_joint",
        "wrist_1_joint",
        "wrist_2_joint",
        "wrist_3_joint"
    ],
    "metrics": {
        "cart_traj_len": 0.4934706910035639,
        "distance_elbow_joint": 1.0092480680267295,
        "distance_shoulder_lift_joint": 0.32917518326244866,
        "distance_shoulder_pan_joint": 0.256642874101757,
        "distance_wrist_1_joint": 0.7042222270095566,
        "distance_wrist_2_joint": 1.3092677269658772,
        "distance_wrist_3_joint": 0.08109611928535854,
        "smoothness": 1.6148698667872622e-16,
        "time": 0.430839906,
        "traj_len": 1.9208467400216311,
        "weighted_distance": 2.421845245096779
    },
    "planner": "BFMT",
    "start": {
        "state": {
            "elbow_joint": 1.7527959577737207,
            "shoulder_lift_joint": -0.9740617694225068,
            "shoulder_pan_joint": -2.967991417825858,
            "wrist_1_joint": -0.759517768980727,
            "wrist_2_joint": 1.7443932448377408,
            "wrist_3_joint": -3.0840537646736568
        }
    },
    "waypoints": [
        {
            "positions": [
                -2.967991417825858,
                -0.9740617694225068,
                1.7527959577737207,
                -0.759517768980727,
                1.7443932448377408,
                -3.0840537646736568
            ]
        },
        {
            "positions": [
                -2.9423271304156824,
                -0.9411442510962619,
                1.6518711509710478,
                -0.6890955462797713,
                1.6134664721411531,
                -3.0921633766021928
            ]
        },
        {
            "positions": [
                -2.9166628430055064,
                -0.9082267327700171,
                1.5509463441683748,
                -0.6186733235788157,
                1.4825396994445654,
                -3.1002729885307283
            ]
        },
        {
            "positions": [
                -2.890998555595331,
                -0.8753092144437722,
                1.4500215373657017,
                -0.54825110087786,
                1.3516129267479777,
                -3.1083826004592643
            ]
        },
        {
            "positions": [
                -2.8653342681851552,
                -0.8423916961175273,
                1.3490967305630288,
                -0.47782887817690434,
                1.22068615405139,
                -3.1164922123878003
            ]
        },
        {
            "positions": [
                -2.8396699807749792,
                -0.8094741777912824,
                1.248171923760356,
                -0.4074066554759487,
                1.0897593813548023,
                -3.1246018243163363
            ]
        },
        {
            "positions": [
                -2.8140056933648037,
                -0.7765566594650376,
                1.147247116957683,
                -0.336984432774993,
                0.9588326086582145,
                -3.132711436244872
            ]
        },
        {
            "positions": [
                -2.788341405954628,
                -0.7436391411387927,
                1.04632231015501,
                -0.2665622100740374,
                0.8279058359616268,
                -3.140821048173408
            ]
        },
        {
            "positions": [
                -2.7626771185444525,
                -0.7107216228125479,
                0.945397503352337,
                -0.1961399873730817,
                0.696979063265039,
                -3.148930660101944
            ]
        },
        {
            "positions": [
                -2.7370128311342765,
                -0.677804104486303,
                0.8444726965496641,
                -0.12571776467212603,
                0.5660522905684513,
                -3.1570402720304793
            ]
        },
        {
            "positions": [
                -2.711348543724101,
                -0.6448865861600581,
                0.7435478897469912,
                -0.05529554197117039,
                0.4351255178718636,
                -3.1651498839590153
            ]
        }
    ]
}