{
    "goal": {
        "global_pose": {
            "orientation": {
                "w": 0.005598929693374612,
                "x": 0.007748599140229565,
                "y": 0.7110244013736278,
                "z": -0.7031023480610252
            },
            "position": {
                "x": 0.1141497679147869,
                "y": -0.7141253447532654,
                "z": 0.3711530566215515
            }
        },
        "name": "move_to_auspresseinheit_B"
    },
    "id": "BFMT_move_to_auspresseinheit_B_127",
    "joint_names": [
        "shoulder_pan_joint",
        "shoulder_lift_joint",
        "elbow_joint",
        "wrist_1_joint",
        "wrist_2_joint",
        "wrist_3_joint"
    ],
    "metrics": {
        "cart_traj_len": 0.5641003133327266,
        "distance_elbow_joint": 0.06311184514972235,
        "distance_shoulder_lift_joint": 0.2944308740262489,
        "distance_shoulder_pan_joint": 0.5784145167525656,
        "distance_wrist_1_joint": 0.3350958200291866,
        "distance_wrist_2_joint": 0.9869533537486876,
        "distance_wrist_3_joint": 0.005530419092594663,
        "smoothness": 5.075305295617109e-16,
        "time": 0.52441041,
        "traj_len": 1.504505509727035,
        "weighted_distance": 1.8964827551976497
    },
    "planner": "BFMT",
    "start": {
        "state": {
            "elbow_joint": 2.0193083361928714,
            "shoulder_lift_joint": -1.1220246554650708,
            "shoulder_pan_joint": -1.0952077554168747,
            "wrist_1_joint": -0.8559753972642168,
            "wrist_2_joint": 0.4759566250798843,
            "wrist_3_joint": -3.1240929996934557
        }
    },
    "waypoints": [
        {
            "positions": [
                -1.0952077554168747,
                -1.1220246554650708,
                2.0193083361928714,
                -0.8559753972642168,
                0.4759566250798843,
                -3.1240929996934557
            ]
        },
        {
            "positions": [
                -1.1916101748756356,
                -1.1710964678027789,
                2.0087896953345843,
                -0.8001260939260191,
                0.6404488507046655,
                -3.123171263178023
            ]
        },
        {
            "positions": [
                -1.2880125943343965,
                -1.2201682801404872,
                1.9982710544762974,
                -0.7442767905878213,
                0.8049410763294469,
                -3.122249526662591
            ]
        },
        {
            "positions": [
                -1.3844150137931575,
                -1.2692400924781952,
                1.9877524136180102,
                -0.6884274872496234,
                0.969433301954228,
                -3.1213277901471583
            ]
        },
        {
            "positions": [
                -1.4808174332519184,
                -1.3183119048159033,
                1.9772337727597231,
                -0.6325781839114257,
                1.1339255275790094,
                -3.1204060536317257
            ]
        },
        {
            "positions": [
                -1.5772198527106793,
                -1.3673837171536116,
                1.9667151319014362,
                -0.576728880573228,
                1.2984177532037906,
                -3.1194843171162936
            ]
        },
        {
            "positions": [
                -1.6736222721694403,
                -1.4164555294913197,
                1.956196491043149,
                -0.5208795772350302,
                1.462909978828572,
                -3.118562580600861
            ]
        }
    ]
}