{
    "goal": {
        "global_pose": {
            "orientation": {
                "w": 0.5084816262002911,
                "x": -0.4908360881923452,
                "y": 0.5182115481033761,
                "z": -0.48164630358495003
            },
            "position": {
                "x": 0.5540239810943604,
                "y": -0.46912469901144505,
                "z": 0.16403168439865112
            }
        },
        "name": "move_to_storage_B"
    },
    "id": "BFMT_move_to_storage_B_130",
    "joint_names": [
        "shoulder_pan_joint",
        "shoulder_lift_joint",
        "elbow_joint",
        "wrist_1_joint",
        "wrist_2_joint",
        "wrist_3_joint"
    ],
    "metrics": {
        "cart_traj_len": 0.627102823557488,
        "distance_elbow_joint": 0.35159788687707483,
        "distance_shoulder_lift_joint": 0.4591917315799874,
        "distance_shoulder_pan_joint": 0.21110709722987042,
        "distance_wrist_1_joint": 2.997224664870372,
        "distance_wrist_2_joint": 2.704082893561636,
        "distance_wrist_3_joint": 3.126666998299388,
        "smoothness": 0.0285325636947233,
        "time": 0.798472278,
        "traj_len": 3.138450457219028,
        "weighted_distance": 4.669530257686431
    },
    "planner": "BFMT",
    "start": {
        "state": {
            "elbow_joint": 1.664937868594044,
            "shoulder_lift_joint": -0.661644460510453,
            "shoulder_pan_joint": -0.9139846352900073,
            "wrist_1_joint": 2.146753192139373,
            "wrist_2_joint": -2.2341966793290973,
            "wrist_3_joint": 0.005466555786416001
        }
    },
    "waypoints": [
        {
            "positions": [
                -0.9139846352900073,
                -0.661644460510453,
                1.664937868594044,
                2.146753192139373,
                -2.2341966793290973,
                0.005466555786416001
            ]
        },
        {
            "positions": [
                -0.8988959956861111,
                -0.7260882376598771,
                1.7199155454011474,
                2.135631946804849,
                -2.152534147447473,
                -0.05289274724896486
            ]
        },
        {
            "positions": [
                -0.9067367339911501,
                -0.7418781558370996,
                1.7317803538039462,
                2.016187810023415,
                -2.0476373329802726,
                -0.17562505505952514
            ]
        },
        {
            "positions": [
                -0.914577472296189,
                -0.7576680740143221,
                1.743645162206745,
                1.896743673241981,
                -1.9427405185130722,
                -0.2983573628700854
            ]
        },
        {
            "positions": [
                -0.922418210601228,
                -0.7734579921915447,
                1.755509970609544,
                1.777299536460547,
                -1.8378437040458717,
                -0.42108967068064573
            ]
        },
        {
            "positions": [
                -0.930258948906267,
                -0.7892479103687672,
                1.7673747790123429,
                1.6578553996791132,
                -1.7329468895786713,
                -0.543821978491206
            ]
        },
        {
            "positions": [
                -0.938099687211306,
                -0.8050378285459897,
                1.7792395874151417,
                1.5384112628976792,
                -1.6280500751114708,
                -0.6665542863017664
            ]
        },
        {
            "positions": [
                -0.9459404255163449,
                -0.8208277467232122,
                1.7911043958179405,
                1.4189671261162453,
                -1.5231532606442704,
                -0.7892865941123266
            ]
        },
        {
            "positions": [
                -0.9537811638213839,
                -0.8366176649004348,
                1.8029692042207395,
                1.2995229893348115,
                -1.4182564461770697,
                -0.9120189019228869
            ]
        },
        {
            "positions": [
                -0.9616219021264228,
                -0.8524075830776573,
                1.8148340126235383,
                1.1800788525533776,
                -1.3133596317098695,
                -1.034751209733447
            ]
        },
        {
            "positions": [
                -0.9694626404314618,
                -0.8681975012548798,
                1.826698821026337,
                1.0606347157719436,
                -1.208462817242669,
                -1.1574835175440075
            ]
        },
        {
            "positions": [
                -0.9773033787365009,
                -0.8839874194321025,
                1.8385636294291359,
                0.9411905789905097,
                -1.1035660027754683,
                -1.280215825354568
            ]
        },
        {
            "positions": [
                -0.9851441170415398,
                -0.899777337609325,
                1.850428437831935,
                0.8217464422090757,
                -0.9986691883082679,
                -1.4029481331651281
            ]
        },
        {
            "positions": [
                -0.9929848553465788,
                -0.9155672557865475,
                1.8622932462347337,
                0.7023023054276418,
                -0.8937723738410674,
                -1.5256804409756883
            ]
        },
        {
            "positions": [
                -1.0008255936516177,
                -0.93135717396377,
                1.8741580546375325,
                0.582858168646208,
                -0.788875559373867,
                -1.6484127487862485
            ]
        },
        {
            "positions": [
                -1.0086663319566567,
                -0.9471470921409926,
                1.8860228630403313,
                0.4634140318647739,
                -0.6839787449066663,
                -1.771145056596809
            ]
        },
        {
            "positions": [
                -1.0165070702616956,
                -0.9629370103182151,
                1.8978876714431303,
                0.3439698950833401,
                -0.5790819304394661,
                -1.893877364407369
            ]
        },
        {
            "positions": [
                -1.0243478085667346,
                -0.9787269284954376,
                1.909752479845929,
                0.22452575830190624,
                -0.47418511597226565,
                -2.016609672217929
            ]
        },
        {
            "positions": [
                -1.0321885468717735,
                -0.9945168466726602,
                1.921617288248728,
                0.10508162152047218,
                -0.369288301505065,
                -2.13934198002849
            ]
        },
        {
            "positions": [
                -1.0400292851768125,
                -1.0103067648498827,
                1.9334820966515267,
                -0.014362515260961661,
                -0.26439148703786475,
                -2.26207428783905
            ]
        },
        {
            "positions": [
                -1.0478700234818517,
                -1.0260966830271052,
                1.9453469050543257,
                -0.1338066520423955,
                -0.15949467257066408,
                -2.3848065956496103
            ]
        },
        {
            "positions": [
                -1.0557107617868906,
                -1.0418866012043277,
                1.9572117134571245,
                -0.25325078882382934,
                -0.054597858103463626,
                -2.507538903460171
            ]
        },
        {
            "positions": [
                -1.0635515000919296,
                -1.0576765193815503,
                1.9690765218599233,
                -0.3726949256052632,
                0.050298956363736824,
                -2.6302712112707307
            ]
        },
        {
            "positions": [
                -1.0713922383969685,
                -1.0734664375587728,
                1.9809413302627221,
                -0.49213906238669747,
                0.15519577083093727,
                -2.7530035190812914
            ]
        },
        {
            "positions": [
                -1.0792329767020075,
                -1.0892563557359953,
                1.9928061386655211,
                -0.6115831991681313,
                0.2600925852981377,
                -2.8757358268918516
            ]
        },
        {
            "positions": [
                -1.0870737150070464,
                -1.1050462739132179,
                2.0046709470683197,
                -0.7310273359495651,
                0.3649893997653382,
                -2.998468134702412
            ]
        },
        {
            "positions": [
                -1.0949144533120854,
                -1.1208361920904404,
                2.0165357554711187,
                -0.8504714727309989,
                0.46988621423253857,
                -3.121200442512972
            ]
        }
    ]
}