{
    "goal": {
        "global_pose": {
            "orientation": {
                "w": 0.005598929693374612,
                "x": 0.007748599140229565,
                "y": 0.7110244013736278,
                "z": -0.7031023480610252
            },
            "position": {
                "x": -0.8858502320852131,
                "y": -0.7141253447532654,
                "z": 0.3711530566215515
            }
        },
        "name": "move_to_auspresseinheit_C"
    },
    "id": "BFMT_move_to_auspresseinheit_C_143",
    "joint_names": [
        "shoulder_pan_joint",
        "shoulder_lift_joint",
        "elbow_joint",
        "wrist_1_joint",
        "wrist_2_joint",
        "wrist_3_joint"
    ],
    "metrics": {
        "cart_traj_len": 0.49222408038536775,
        "distance_elbow_joint": 0.9936692052673015,
        "distance_shoulder_lift_joint": 0.3220819794518398,
        "distance_shoulder_pan_joint": 0.2559906127652707,
        "distance_wrist_1_joint": 0.6673438388706232,
        "distance_wrist_2_joint": 1.3054991189174736,
        "distance_wrist_3_joint": 0.048155047687265196,
        "smoothness": 8.074349282788172e-16,
        "time": 0.442143671,
        "traj_len": 1.8954524006051363,
        "weighted_distance": 2.379473230806012
    },
    "planner": "BFMT",
    "start": {
        "state": {
            "elbow_joint": 1.7527959577737207,
            "shoulder_lift_joint": -0.9740617694225068,
            "shoulder_pan_joint": -2.967991417825858,
            "wrist_1_joint": -0.759517768980727,
            "wrist_2_joint": 1.7443932448377408,
            "wrist_3_joint": -3.0840537646736568
        }
    },
    "waypoints": [
        {
            "positions": [
                -2.967991417825858,
                -0.9740617694225068,
                1.7527959577737207,
                -0.759517768980727,
                1.7443932448377408,
                -3.0840537646736568
            ]
        },
        {
            "positions": [
                -2.942392356549331,
                -0.9418535714773228,
                1.6534290372469904,
                -0.6927833850936647,
                1.6138433329459936,
                -3.0888692694423834
            ]
        },
        {
            "positions": [
                -2.9167932952728037,
                -0.9096453735321388,
                1.5540621167202604,
                -0.6260490012066023,
                1.483293421054246,
                -3.09368477421111
            ]
        },
        {
            "positions": [
                -2.8911942339962766,
                -0.8774371755869548,
                1.4546951961935302,
                -0.55931461731954,
                1.3527435091624986,
                -3.098500278979836
            ]
        },
        {
            "positions": [
                -2.8655951727197495,
                -0.8452289776417709,
                1.3553282756668001,
                -0.4925802334324777,
                1.2221935972707514,
                -3.1033157837485628
            ]
        },
        {
            "positions": [
                -2.839996111443223,
                -0.8130207796965869,
                1.25596135514007,
                -0.4258458495454154,
                1.0916436853790041,
                -3.1081312885172894
            ]
        },
        {
            "positions": [
                -2.8143970501666957,
                -0.7808125817514029,
                1.1565944346133397,
                -0.35911146565835306,
                0.9610937734872567,
                -3.112946793286016
            ]
        },
        {
            "positions": [
                -2.7887979888901686,
                -0.748604383806219,
                1.0572275140866096,
                -0.2923770817712908,
                0.8305438615955094,
                -3.1177622980547426
            ]
        },
        {
            "positions": [
                -2.7631989276136415,
                -0.7163961858610349,
                0.9578605935598794,
                -0.22564269788422842,
                0.6999939497037619,
                -3.1225778028234688
            ]
        },
        {
            "positions": [
                -2.7375998663371144,
                -0.684187987915851,
                0.8584936730331493,
                -0.1589083139971661,
                0.5694440378120145,
                -3.1273933075921954
            ]
        },
        {
            "positions": [
                -2.7120008050605873,
                -0.651979789970667,
                0.7591267525064191,
                -0.09217393011010382,
                0.43889412592026716,
                -3.132208812360922
            ]
        }
    ]
}