{
    "goal": {
        "global_pose": {
            "orientation": {
                "w": 0.005598929693374612,
                "x": 0.007748599140229565,
                "y": 0.7110244013736278,
                "z": -0.7031023480610252
            },
            "position": {
                "x": -0.8858502320852131,
                "y": -0.7141253447532654,
                "z": 0.3711530566215515
            }
        },
        "name": "move_to_auspresseinheit_C"
    },
    "id": "BFMT_move_to_auspresseinheit_C_120",
    "joint_names": [
        "shoulder_pan_joint",
        "shoulder_lift_joint",
        "elbow_joint",
        "wrist_1_joint",
        "wrist_2_joint",
        "wrist_3_joint"
    ],
    "metrics": {
        "cart_traj_len": 0.4925291443420024,
        "distance_elbow_joint": 0.9956219841398462,
        "distance_shoulder_lift_joint": 0.3230711905767706,
        "distance_shoulder_pan_joint": 0.25513775648180825,
        "distance_wrist_1_joint": 0.6598999674030355,
        "distance_wrist_2_joint": 1.3215899791663328,
        "distance_wrist_3_joint": 0.045687275552922735,
        "smoothness": 1.6148698667872622e-16,
        "time": 0.44619407699999997,
        "traj_len": 1.8976322492307924,
        "weighted_distance": 2.38198922142732
    },
    "planner": "BFMT",
    "start": {
        "state": {
            "elbow_joint": 1.7527959577737207,
            "shoulder_lift_joint": -0.9740617694225068,
            "shoulder_pan_joint": -2.967991417825858,
            "wrist_1_joint": -0.759517768980727,
            "wrist_2_joint": 1.7443932448377408,
            "wrist_3_joint": -3.0840537646736568
        }
    },
    "waypoints": [
        {
            "positions": [
                -2.967991417825858,
                -0.9740617694225068,
                1.7527959577737207,
                -0.759517768980727,
                1.7443932448377408,
                -3.0840537646736568
            ]
        },
        {
            "positions": [
                -2.942477642177677,
                -0.9417546503648297,
                1.6532337593597362,
                -0.6935277722404234,
                1.6122342469211075,
                -3.088622492228949
            ]
        },
        {
            "positions": [
                -2.916963866529496,
                -0.9094475313071526,
                1.5536715609457514,
                -0.6275377755001199,
                1.4800752490044742,
                -3.0931912197842415
            ]
        },
        {
            "positions": [
                -2.8914500908813157,
                -0.8771404122494756,
                1.4541093625317667,
                -0.5615477787598163,
                1.347916251087841,
                -3.0977599473395334
            ]
        },
        {
            "positions": [
                -2.8659363152331347,
                -0.8448332931917986,
                1.3545471641177822,
                -0.4955577820195128,
                1.2157572531712075,
                -3.1023286748948258
            ]
        },
        {
            "positions": [
                -2.840422539584954,
                -0.8125261741341214,
                1.2549849657037977,
                -0.42956778527920925,
                1.0835982552545744,
                -3.106897402450118
            ]
        },
        {
            "positions": [
                -2.814908763936773,
                -0.7802190550764444,
                1.155422767289813,
                -0.3635777885389057,
                0.9514392573379412,
                -3.1114661300054105
            ]
        },
        {
            "positions": [
                -2.789394988288592,
                -0.7479119360187674,
                1.0558605688758282,
                -0.2975877917986022,
                0.8192802594213079,
                -3.116034857560703
            ]
        },
        {
            "positions": [
                -2.7638812126404115,
                -0.7156048169610902,
                0.9562983704618437,
                -0.23159779505829858,
                0.6871212615046745,
                -3.120603585115995
            ]
        },
        {
            "positions": [
                -2.7383674369922306,
                -0.6832976979034132,
                0.8567361720478591,
                -0.165607798317995,
                0.5549622635880413,
                -3.125172312671287
            ]
        },
        {
            "positions": [
                -2.7128536613440497,
                -0.6509905788457362,
                0.7571739736338745,
                -0.0996178015776915,
                0.42280326567140797,
                -3.1297410402265795
            ]
        }
    ]
}