{
    "goal": {
        "global_pose": {
            "orientation": {
                "w": -0.00223480608172531,
                "x": 0.0024358444001904467,
                "y": 0.7094548369677653,
                "z": -0.704743149386269
            },
            "position": {
                "x": 0.6205249238014221,
                "y": -0.6371506643295288,
                "z": 0.19426114857196808
            }
        },
        "name": "move_to_magneteinheit_B"
    },
    "id": "BFMT_move_to_magneteinheit_B_111",
    "joint_names": [
        "shoulder_pan_joint",
        "shoulder_lift_joint",
        "elbow_joint",
        "wrist_1_joint",
        "wrist_2_joint",
        "wrist_3_joint"
    ],
    "metrics": {
        "cart_traj_len": 1.4088119415126832,
        "distance_elbow_joint": 0.9674944062869828,
        "distance_shoulder_lift_joint": 0.8692602838509936,
        "distance_shoulder_pan_joint": 1.6214710601290254,
        "distance_wrist_1_joint": 0.20061952953647877,
        "distance_wrist_2_joint": 1.5451282713852323,
        "distance_wrist_3_joint": 0.535948972655237,
        "smoothness": 0.25752755379597453,
        "time": 0.620093521,
        "traj_len": 2.39581354112626,
        "weighted_distance": 2.9253321640586623
    },
    "planner": "BFMT",
    "start": {
        "state": {
            "elbow_joint": 2.6216224122426386,
            "shoulder_lift_joint": -1.4174107377796124,
            "shoulder_pan_joint": 0.7066234856936794,
            "wrist_1_joint": 1.9546482284002225,
            "wrist_2_joint": -0.7096286983471962,
            "wrist_3_joint": 0.005740856962016249
        }
    },
    "waypoints": [
        {
            "positions": [
                0.7066234856936794,
                -1.4174107377796124,
                2.6216224122426386,
                1.9546482284002225,
                -0.7096286983471962,
                0.005740856962016249
            ]
        },
        {
            "positions": [
                0.6857809715339263,
                -1.4366361893492245,
                2.624126406472069,
                1.9831648010746374,
                -0.9280433500909562,
                0.055144466436148586
            ]
        },
        {
            "positions": [
                0.6649384573741732,
                -1.455861640918837,
                2.6266304007014987,
                2.0116813737490524,
                -1.1464580018347164,
                0.10454807591028092
            ]
        },
        {
            "positions": [
                0.6440959432144201,
                -1.4750870924884492,
                2.629134394930929,
                2.0401979464234676,
                -1.3648726535784763,
                0.15395168538441328
            ]
        },
        {
            "positions": [
                0.5623853297447755,
                -1.451427906783225,
                2.5884460998350036,
                2.0631260888568437,
                -1.53981274402078,
                0.1788588497142801
            ]
        },
        {
            "positions": [
                0.48067471627513103,
                -1.4277687210780008,
                2.5477578047390783,
                2.0860542312902197,
                -1.7147528344630838,
                0.2037660140441469
            ]
        },
        {
            "positions": [
                0.39896410280548644,
                -1.4041095353727764,
                2.507069509643153,
                2.1089823737235958,
                -1.8896929249053875,
                0.22867317837401374
            ]
        },
        {
            "positions": [
                0.3172534893358419,
                -1.3804503496675522,
                2.4663812145472277,
                2.131910516156972,
                -2.0646330153476913,
                0.2535803427038805
            ]
        },
        {
            "positions": [
                0.23554287586619738,
                -1.356791163962328,
                2.4256929194513024,
                2.154838658590348,
                -2.239573105789995,
                0.27848750703374736
            ]
        },
        {
            "positions": [
                0.09174406957850445,
                -1.2701301638853235,
                2.331125300936419,
                2.154785021172054,
                -2.237675122797191,
                0.24558721671080913
            ]
        },
        {
            "positions": [
                -0.052054736709188476,
                -1.183469163808319,
                2.236557682421536,
                2.1547313837537594,
                -2.2357771398043864,
                0.2126869263878709
            ]
        },
        {
            "positions": [
                -0.1958535429968814,
                -1.0968081637313145,
                2.1419900639066527,
                2.1546777463354654,
                -2.2338791568115823,
                0.17978663606493267
            ]
        },
        {
            "positions": [
                -0.33965234928457433,
                -1.0101471636543102,
                2.0474224453917693,
                2.1546241089171714,
                -2.2319811738187783,
                0.14688634574199444
            ]
        },
        {
            "positions": [
                -0.48345115557226725,
                -0.9234861635773057,
                1.9528548268768862,
                2.154570471498877,
                -2.230083190825974,
                0.11398605541905621
            ]
        },
        {
            "positions": [
                -0.6272499618599602,
                -0.8368251635003012,
                1.858287208362003,
                2.154516834080583,
                -2.22818520783317,
                0.08108576509611798
            ]
        },
        {
            "positions": [
                -0.7710487681476531,
                -0.7501641634232968,
                1.7637195898471196,
                2.1544631966622885,
                -2.2262872248403656,
                0.04818547477317975
            ]
        },
        {
            "positions": [
                -0.9148475744353461,
                -0.6635031633462923,
                1.6691519713322365,
                2.1544095592439945,
                -2.2243892418475615,
                0.015285184450241511
            ]
        }
    ]
}