{
    "goal": {
        "global_pose": {
            "orientation": {
                "w": 0.7031023480610252,
                "x": -0.7110244013736278,
                "y": 0.0077485991402295624,
                "z": 0.005598929693374583
            },
            "position": {
                "x": -0.8841497679147869,
                "y": 0.44412534475326537,
                "z": 0.3711530566215515
            }
        },
        "name": "move_to_auspresseinheit_D"
    },
    "id": "BFMT_move_to_auspresseinheit_D_22",
    "joint_names": [
        "shoulder_pan_joint",
        "shoulder_lift_joint",
        "elbow_joint",
        "wrist_1_joint",
        "wrist_2_joint",
        "wrist_3_joint"
    ],
    "metrics": {
        "cart_traj_len": 0.3441766370051148,
        "distance_elbow_joint": 0.654340438139412,
        "distance_shoulder_lift_joint": 0.1300297742608305,
        "distance_shoulder_pan_joint": 0.13440540493762115,
        "distance_wrist_1_joint": 0.5866222542435251,
        "distance_wrist_2_joint": 1.4346125935232827,
        "distance_wrist_3_joint": 0.045643207264387975,
        "smoothness": 5.921189480296099e-16,
        "time": 0.480229957,
        "traj_len": 1.7279044164446886,
        "weighted_distance": 2.2579138457134813
    },
    "planner": "BFMT",
    "start": {
        "state": {
            "elbow_joint": -1.8275523626775212,
            "shoulder_lift_joint": -2.126789852344167,
            "shoulder_pan_joint": -0.03513704404078235,
            "wrist_1_joint": -2.347782403156801,
            "wrist_2_joint": -1.6058999987535132,
            "wrist_3_joint": -3.0880379163319196
        }
    },
    "waypoints": [
        {
            "positions": [
                -0.03513704404078235,
                -2.126789852344167,
                -1.8275523626775212,
                -2.347782403156801,
                -1.6058999987535132,
                -3.0880379163319196
            ]
        },
        {
            "positions": [
                -0.05193771965798499,
                -2.1430435741267706,
                -1.7457598079100947,
                -2.4211101849372416,
                -1.4265734245631028,
                -3.082332515423871
            ]
        },
        {
            "positions": [
                -0.06873839527518763,
                -2.1592972959093744,
                -1.6639672531426681,
                -2.4944379667176824,
                -1.2472468503726926,
                -3.076627114515823
            ]
        },
        {
            "positions": [
                -0.08553907089239028,
                -2.175551017691978,
                -1.5821746983752416,
                -2.5677657484981227,
                -1.0679202761822821,
                -3.070921713607774
            ]
        },
        {
            "positions": [
                -0.10233974650959293,
                -2.1918047394745823,
                -1.500382143607815,
                -2.6410935302785634,
                -0.8885937019918718,
                -3.0652163126997256
            ]
        },
        {
            "positions": [
                -0.11914042212679557,
                -2.208058461257186,
                -1.4185895888403888,
                -2.714421312059004,
                -0.7092671278014615,
                -3.0595109117916772
            ]
        },
        {
            "positions": [
                -0.1359410977439982,
                -2.22431218303979,
                -1.3367970340729622,
                -2.7877490938394445,
                -0.5299405536110511,
                -3.0538055108836284
            ]
        },
        {
            "positions": [
                -0.15274177336120087,
                -2.2405659048223936,
                -1.2550044793055357,
                -2.861076875619885,
                -0.3506139794206409,
                -3.04810010997558
            ]
        },
        {
            "positions": [
                -0.1695424489784035,
                -2.2568196266049974,
                -1.1732119245381092,
                -2.934404657400326,
                -0.17128740523023037,
                -3.0423947090675316
            ]
        }
    ]
}