{
    "goal": {
        "global_pose": {
            "orientation": {
                "w": 0.7031023480610252,
                "x": -0.7110244013736278,
                "y": 0.0077485991402295624,
                "z": 0.005598929693374583
            },
            "position": {
                "x": -0.8841497679147869,
                "y": 0.44412534475326537,
                "z": 0.3711530566215515
            }
        },
        "name": "move_to_auspresseinheit_D"
    },
    "id": "BFMT_move_to_auspresseinheit_D_37",
    "joint_names": [
        "shoulder_pan_joint",
        "shoulder_lift_joint",
        "elbow_joint",
        "wrist_1_joint",
        "wrist_2_joint",
        "wrist_3_joint"
    ],
    "metrics": {
        "cart_traj_len": 0.34240577906710135,
        "distance_elbow_joint": 0.6314768874983254,
        "distance_shoulder_lift_joint": 0.11767980943129608,
        "distance_shoulder_pan_joint": 0.1333030501085466,
        "distance_wrist_1_joint": 0.5079842870366744,
        "distance_wrist_2_joint": 1.4345562527015274,
        "distance_wrist_3_joint": 0.019035748793242657,
        "smoothness": 1.9737298371844314e-16,
        "time": 0.488982843,
        "traj_len": 1.6864270027397013,
        "weighted_distance": 2.196508154524881
    },
    "planner": "BFMT",
    "start": {
        "state": {
            "elbow_joint": -1.8275523626775212,
            "shoulder_lift_joint": -2.126789852344167,
            "shoulder_pan_joint": -0.03513704404078235,
            "wrist_1_joint": -2.347782403156801,
            "wrist_2_joint": -1.6058999987535132,
            "wrist_3_joint": -3.0880379163319196
        }
    },
    "waypoints": [
        {
            "positions": [
                -0.03513704404078235,
                -2.126789852344167,
                -1.8275523626775212,
                -2.347782403156801,
                -1.6058999987535132,
                -3.0880379163319196
            ]
        },
        {
            "positions": [
                -0.05179992530435067,
                -2.141499828523079,
                -1.7486177517402306,
                -2.411280439036385,
                -1.4265804671658222,
                -3.090417384931075
            ]
        },
        {
            "positions": [
                -0.068462806567919,
                -2.156209804701991,
                -1.6696831408029398,
                -2.4747784749159694,
                -1.2472609355781312,
                -3.0927968535302304
            ]
        },
        {
            "positions": [
                -0.08512568783148733,
                -2.1709197808809026,
                -1.5907485298656492,
                -2.5382765107955536,
                -1.0679414039904405,
                -3.0951763221293858
            ]
        },
        {
            "positions": [
                -0.10178856909505565,
                -2.185629757059815,
                -1.5118139189283584,
                -2.601774546675138,
                -0.8886218724027495,
                -3.097555790728541
            ]
        },
        {
            "positions": [
                -0.11845145035862398,
                -2.200339733238727,
                -1.4328793079910678,
                -2.6652725825547225,
                -0.7093023408150585,
                -3.099935259327696
            ]
        },
        {
            "positions": [
                -0.1351143316221923,
                -2.215049709417639,
                -1.3539446970537772,
                -2.728770618434307,
                -0.5299828092273677,
                -3.1023147279268515
            ]
        },
        {
            "positions": [
                -0.15177721288576063,
                -2.2297596855965507,
                -1.2750100861164864,
                -2.792268654313891,
                -0.35066327763967675,
                -3.104694196526007
            ]
        },
        {
            "positions": [
                -0.16844009414932895,
                -2.244469661775463,
                -1.1960754751791958,
                -2.8557666901934753,
                -0.17134374605198588,
                -3.1070736651251623
            ]
        }
    ]
}