{
    "goal": {
        "global_pose": {
            "orientation": {
                "w": 0.005598929693374612,
                "x": 0.007748599140229565,
                "y": 0.7110244013736278,
                "z": -0.7031023480610252
            },
            "position": {
                "x": -0.8858502320852131,
                "y": -0.7141253447532654,
                "z": 0.3711530566215515
            }
        },
        "name": "move_to_auspresseinheit_C"
    },
    "id": "BFMT_move_to_auspresseinheit_C_18",
    "joint_names": [
        "shoulder_pan_joint",
        "shoulder_lift_joint",
        "elbow_joint",
        "wrist_1_joint",
        "wrist_2_joint",
        "wrist_3_joint"
    ],
    "metrics": {
        "cart_traj_len": 0.49319766195483195,
        "distance_elbow_joint": 0.992373424165457,
        "distance_shoulder_lift_joint": 0.32060416713946227,
        "distance_shoulder_pan_joint": 0.2573570408186585,
        "distance_wrist_1_joint": 0.6692294353844813,
        "distance_wrist_2_joint": 1.3016425981539612,
        "distance_wrist_3_joint": 0.05185597685287879,
        "smoothness": 1.6148698667872622e-16,
        "time": 0.419273509,
        "traj_len": 1.8955375603017999,
        "weighted_distance": 2.3806819673696653
    },
    "planner": "BFMT",
    "start": {
        "state": {
            "elbow_joint": 1.7527959577737207,
            "shoulder_lift_joint": -0.9740617694225068,
            "shoulder_pan_joint": -2.967991417825858,
            "wrist_1_joint": -0.759517768980727,
            "wrist_2_joint": 1.7443932448377408,
            "wrist_3_joint": -3.0840537646736568
        }
    },
    "waypoints": [
        {
            "positions": [
                -2.967991417825858,
                -0.9740617694225068,
                1.7527959577737207,
                -0.759517768980727,
                1.7443932448377408,
                -3.0840537646736568
            ]
        },
        {
            "positions": [
                -2.942255713743992,
                -0.9420013527085606,
                1.6535586153571749,
                -0.6925948254422789,
                1.6142289850223448,
                -3.0892393623589447
            ]
        },
        {
            "positions": [
                -2.9165200096621264,
                -0.9099409359946143,
                1.5543212729406293,
                -0.6256718819038307,
                1.4840647252069485,
                -3.0944249600442326
            ]
        },
        {
            "positions": [
                -2.8907843055802602,
                -0.8778805192806681,
                1.4550839305240837,
                -0.5587489383653825,
                1.3539004653915525,
                -3.0996105577295205
            ]
        },
        {
            "positions": [
                -2.8650486014983945,
                -0.8458201025667218,
                1.3558465881075379,
                -0.49182599482693445,
                1.2237362055761563,
                -3.1047961554148085
            ]
        },
        {
            "positions": [
                -2.8393128974165287,
                -0.8137596858527756,
                1.256609245690992,
                -0.4249030512884863,
                1.0935719457607602,
                -3.1099817531000964
            ]
        },
        {
            "positions": [
                -2.813577193334663,
                -0.7816992691388294,
                1.1573719032744465,
                -0.3579801077500382,
                0.9634076859453641,
                -3.115167350785384
            ]
        },
        {
            "positions": [
                -2.787841489252797,
                -0.7496388524248832,
                1.058134560857901,
                -0.2910571642115901,
                0.833243426129968,
                -3.120352948470672
            ]
        },
        {
            "positions": [
                -2.762105785170931,
                -0.7175784357109369,
                0.958897218441355,
                -0.22413422067314193,
                0.7030791663145719,
                -3.1255385461559597
            ]
        },
        {
            "positions": [
                -2.736370081089065,
                -0.6855180189969907,
                0.8596598760248093,
                -0.15721127713469374,
                0.5729149064991756,
                -3.1307241438412476
            ]
        },
        {
            "positions": [
                -2.7106343770071994,
                -0.6534576022830445,
                0.7604225336082636,
                -0.0902883335962457,
                0.4427506466837797,
                -3.1359097415265356
            ]
        }
    ]
}