{
    "goal": {
        "global_pose": {
            "orientation": {
                "w": 0.005598929693374612,
                "x": 0.007748599140229565,
                "y": 0.7110244013736278,
                "z": -0.7031023480610252
            },
            "position": {
                "x": -0.8858502320852131,
                "y": -0.7141253447532654,
                "z": 0.3711530566215515
            }
        },
        "name": "move_to_auspresseinheit_C"
    },
    "id": "BFMT_move_to_auspresseinheit_C_94",
    "joint_names": [
        "shoulder_pan_joint",
        "shoulder_lift_joint",
        "elbow_joint",
        "wrist_1_joint",
        "wrist_2_joint",
        "wrist_3_joint"
    ],
    "metrics": {
        "cart_traj_len": 0.4934787964123485,
        "distance_elbow_joint": 1.0109565768959552,
        "distance_shoulder_lift_joint": 0.32935957927043147,
        "distance_shoulder_pan_joint": 0.25587753494429233,
        "distance_wrist_1_joint": 0.70519969340116,
        "distance_wrist_2_joint": 1.3143610591344606,
        "distance_wrist_3_joint": 0.08288382474944145,
        "smoothness": 8.881784220722588e-16,
        "time": 0.44203946899999996,
        "traj_len": 1.9231844083175542,
        "weighted_distance": 2.425688906358407
    },
    "planner": "BFMT",
    "start": {
        "state": {
            "elbow_joint": 1.7527959577737207,
            "shoulder_lift_joint": -0.9740617694225068,
            "shoulder_pan_joint": -2.967991417825858,
            "wrist_1_joint": -0.759517768980727,
            "wrist_2_joint": 1.7443932448377408,
            "wrist_3_joint": -3.0840537646736568
        }
    },
    "waypoints": [
        {
            "positions": [
                -2.967991417825858,
                -0.9740617694225068,
                1.7527959577737207,
                -0.759517768980727,
                1.7443932448377408,
                -3.0840537646736568
            ]
        },
        {
            "positions": [
                -2.9424036643314286,
                -0.9411258114954636,
                1.651700300084125,
                -0.688997799640611,
                1.6129571389242947,
                -3.092342147148601
            ]
        },
        {
            "positions": [
                -2.9168159108369993,
                -0.9081898535684205,
                1.5506046423945297,
                -0.618477830300495,
                1.4815210330108486,
                -3.1006305296235452
            ]
        },
        {
            "positions": [
                -2.8912281573425704,
                -0.8752538956413773,
                1.449508984704934,
                -0.547957860960379,
                1.3500849270974027,
                -3.1089189120984893
            ]
        },
        {
            "positions": [
                -2.865640403848141,
                -0.8423179377143342,
                1.3484133270153387,
                -0.477437891620263,
                1.2186488211839566,
                -3.1172072945734333
            ]
        },
        {
            "positions": [
                -2.840052650353712,
                -0.809381979787291,
                1.247317669325743,
                -0.406917922280147,
                1.0872127152705104,
                -3.1254956770483773
            ]
        },
        {
            "positions": [
                -2.8144648968592825,
                -0.7764460218602479,
                1.1462220116361475,
                -0.336397952940031,
                0.9557766093570645,
                -3.1337840595233217
            ]
        },
        {
            "positions": [
                -2.788877143364853,
                -0.7435100639332047,
                1.045126353946552,
                -0.26587798359991505,
                0.8243405034436185,
                -3.1420724419982657
            ]
        },
        {
            "positions": [
                -2.7632893898704243,
                -0.7105741060061617,
                0.9440306962569565,
                -0.19535801425979904,
                0.6929043975301723,
                -3.1503608244732098
            ]
        },
        {
            "positions": [
                -2.737701636375995,
                -0.6776381480791185,
                0.842935038567361,
                -0.12483804491968298,
                0.5614682916167264,
                -3.158649206948154
            ]
        },
        {
            "positions": [
                -2.7121138828815656,
                -0.6447021901520753,
                0.7418393808777656,
                -0.05431807557956705,
                0.4300321857032803,
                -3.166937589423098
            ]
        }
    ]
}