{
    "goal": {
        "global_pose": {
            "orientation": {
                "w": 0.5084816217422485,
                "x": -0.49083608388900757,
                "y": 0.5182115435600281,
                "z": -0.4816462993621826
            },
            "position": {
                "x": 0.5540239810943604,
                "y": 0.030875300988554955,
                "z": 0.16403168439865112
            }
        },
        "name": "move_to_storage_A"
    },
    "id": "BFMT_move_to_storage_A_50",
    "joint_names": [
        "shoulder_pan_joint",
        "shoulder_lift_joint",
        "elbow_joint",
        "wrist_1_joint",
        "wrist_2_joint",
        "wrist_3_joint"
    ],
    "metrics": {
        "cart_traj_len": 0.35300682195039546,
        "distance_elbow_joint": 0.4507483833259933,
        "distance_shoulder_lift_joint": 0.2354491279495292,
        "distance_shoulder_pan_joint": 0.4581513411902011,
        "distance_wrist_1_joint": 0.2461502029466881,
        "distance_wrist_2_joint": 1.1140226162938272,
        "distance_wrist_3_joint": 0.10761375127469064,
        "smoothness": 2.2204460668324854e-16,
        "time": 0.49547049299999996,
        "traj_len": 1.6162102038351724,
        "weighted_distance": 2.0463469267870553
    },
    "planner": "BFMT",
    "start": {
        "state": {
            "elbow_joint": 1.971548259319323,
            "shoulder_lift_joint": -1.1394851275133948,
            "shoulder_pan_joint": 0.1228115487234821,
            "wrist_1_joint": -0.7804723859257726,
            "wrist_2_joint": 0.12958671773740124,
            "wrist_3_joint": -3.192489227718131
        }
    },
    "waypoints": [
        {
            "positions": [
                0.1228115487234821,
                -1.1394851275133948,
                1.971548259319323,
                -0.7804723859257726,
                0.12958671773740124,
                -3.192489227718131
            ]
        },
        {
            "positions": [
                0.05736135712488194,
                -1.1731207172204705,
                2.0359408855087504,
                -0.8156367006324423,
                0.28873280577937654,
                -3.1771158346788897
            ]
        },
        {
            "positions": [
                -0.00808883447371822,
                -1.206756306927546,
                2.100333511698178,
                -0.8508010153391121,
                0.4478788938213518,
                -3.1617424416396482
            ]
        },
        {
            "positions": [
                -0.07353902607231838,
                -1.2403918966346217,
                2.1647261378876057,
                -0.8859653300457818,
                0.6070249818633271,
                -3.146369048600407
            ]
        },
        {
            "positions": [
                -0.13898921767091854,
                -1.2740274863416972,
                2.2291187640770334,
                -0.9211296447524515,
                0.7661710699053025,
                -3.130995655561165
            ]
        },
        {
            "positions": [
                -0.2044394092695187,
                -1.3076630760487729,
                2.293511390266461,
                -0.9562939594591213,
                0.9253171579472779,
                -3.1156222625219234
            ]
        },
        {
            "positions": [
                -0.26988960086811886,
                -1.3412986657558483,
                2.3579040164558887,
                -0.9914582741657909,
                1.084463245989253,
                -3.100248869482682
            ]
        },
        {
            "positions": [
                -0.335339792466719,
                -1.374934255462924,
                2.4222966426453163,
                -1.0266225888724607,
                1.2436093340312284,
                -3.0848754764434405
            ]
        }
    ]
}{
    "goal": {
        "global_pose": {
            "orientation": {
                "w": 0.5084816217422485,
                "x": -0.49083608388900757,
                "y": 0.5182115435600281,
                "z": -0.4816462993621826
            },
            "position": {
                "x": 0.5540239810943604,
                "y": 0.030875300988554955,
                "z": 0.16403168439865112
            }
        },
        "name": "move_to_storage_A"
    },
    "id": "BFMT_move_to_storage_A_50",
    "joint_names": [
        "shoulder_pan_joint",
        "shoulder_lift_joint",
        "elbow_joint",
        "wrist_1_joint",
        "wrist_2_joint",
        "wrist_3_joint"
    ],
    "metrics": {
        "cart_traj_len": 0.3530068922097643,
        "distance_elbow_joint": 0.45204899806740917,
        "distance_shoulder_lift_joint": 0.23440919261006798,
        "distance_shoulder_pan_joint": 0.46029798853893406,
        "distance_wrist_1_joint": 0.25180842958975824,
        "distance_wrist_2_joint": 1.1045306225433402,
        "distance_wrist_3_joint": 0.09396995360353921,
        "smoothness": 6.661338165333112e-16,
        "time": 0.492421704,
        "traj_len": 1.6115412451914004,
        "weighted_distance": 2.0350292735715687
    },
    "planner": "BFMT",
    "start": {
        "state": {
            "elbow_joint": 1.97154746011099,
            "shoulder_lift_joint": -1.13948474672311,
            "shoulder_pan_joint": 0.12281154466712228,
            "wrist_1_joint": -0.7804688027058302,
            "wrist_2_joint": 0.12958655903071145,
            "wrist_3_joint": 3.0906928834467795
        }
    },
    "waypoints": [
        {
            "positions": [
                0.12281154466712228,
                -1.13948474672311,
                1.97154746011099,
                -0.7804688027058302,
                0.12958655903071145,
                3.0906928834467795
            ]
        },
        {
            "positions": [
                0.057054689161560285,
                -1.172971774238834,
                2.036125888406334,
                -0.8164414355043671,
                0.28737664796547435,
                3.1041171625329995
            ]
        },
        {
            "positions": [
                -0.008702166344001713,
                -1.2064588017545579,
                2.100704316701678,
                -0.852414068302904,
                0.4451667369002372,
                3.117541441619219
            ]
        },
        {
            "positions": [
                -0.07445902184956373,
                -1.2399458292702819,
                2.1652827449970222,
                -0.8883867011014408,
                0.6029568258350001,
                3.130965720705439
            ]
        },
        {
            "positions": [
                -0.1402158773551257,
                -1.2734328567860058,
                2.2298611732923668,
                -0.9243593338999777,
                0.760746914769763,
                3.144389999791659
            ]
        },
        {
            "positions": [
                -0.20597273286068774,
                -1.30691988430173,
                2.294439601587711,
                -0.9603319666985146,
                0.918537003704526,
                3.157814278877879
            ]
        },
        {
            "positions": [
                -0.2717295883662497,
                -1.340406911817454,
                2.359018029883055,
                -0.9963045994970515,
                1.0763270926392887,
                3.1712385579640987
            ]
        },
        {
            "positions": [
                -0.33748644387181176,
                -1.373893939333178,
                2.423596458178399,
                -1.0322772322955884,
                1.2341171815740517,
                3.1846628370503187
            ]
        }
    ]
}{
    "goal": {
        "global_pose": {
            "orientation": {
                "w": 0.5084816217422485,
                "x": -0.49083608388900757,
                "y": 0.5182115435600281,
                "z": -0.4816462993621826
            },
            "position": {
                "x": 0.5540239810943604,
                "y": 0.030875300988554955,
                "z": 0.16403168439865112
            }
        },
        "name": "move_to_storage_A"
    },
    "id": "BFMT_move_to_storage_A_50",
    "joint_names": [
        "shoulder_pan_joint",
        "shoulder_lift_joint",
        "elbow_joint",
        "wrist_1_joint",
        "wrist_2_joint",
        "wrist_3_joint"
    ],
    "metrics": {
        "cart_traj_len": 0.3534895485245873,
        "distance_elbow_joint": 0.44836686863066566,
        "distance_shoulder_lift_joint": 0.2343317660480695,
        "distance_shoulder_pan_joint": 0.4615913717280108,
        "distance_wrist_1_joint": 0.23887762832330672,
        "distance_wrist_2_joint": 1.1019155553035385,
        "distance_wrist_3_joint": 0.08838839463887194,
        "smoothness": 0.0,
        "time": 0.5041220989999999,
        "traj_len": 1.6042043462952165,
        "weighted_distance": 2.022632333761391
    },
    "planner": "BFMT",
    "start": {
        "state": {
            "elbow_joint": 1.9715472970024885,
            "shoulder_lift_joint": -1.1394870060712896,
            "shoulder_pan_joint": 0.12281152778156021,
            "wrist_1_joint": -0.780463741449964,
            "wrist_2_joint": 0.12958659822042276,
            "wrist_3_joint": 3.090690232415272
        }
    },
    "waypoints": [
        {
            "positions": [
                0.12281152778156021,
                -1.1394870060712896,
                1.9715472970024885,
                -0.780463741449964,
                0.12958659822042276,
                3.090690232415272
            ]
        },
        {
            "positions": [
                0.05686990324898725,
                -1.1729629726495852,
                2.0355997068068694,
                -0.8145891169247221,
                0.2870031061209283,
                3.1033171459351108
            ]
        },
        {
            "positions": [
                -0.009071721283585715,
                -1.206438939227881,
                2.0996521166112503,
                -0.8487144923994802,
                0.4444196140214337,
                3.1159440594549497
            ]
        },
        {
            "positions": [
                -0.07501334581615868,
                -1.2399149058061765,
                2.163704526415631,
                -0.8828398678742383,
                0.6018361219219392,
                3.1285709729747886
            ]
        },
        {
            "positions": [
                -0.14095497034873164,
                -1.2733908723844722,
                2.2277569362200116,
                -0.9169652433489964,
                0.7592526298224447,
                3.141197886494627
            ]
        },
        {
            "positions": [
                -0.20689659488130466,
                -1.3068668389627678,
                2.2918093460243925,
                -0.9510906188237545,
                0.9166691377229502,
                3.153824800014466
            ]
        },
        {
            "positions": [
                -0.27283821941387754,
                -1.3403428055410633,
                2.3558617558287733,
                -0.9852159942985126,
                1.0740856456234558,
                3.166451713534305
            ]
        },
        {
            "positions": [
                -0.33877984394645055,
                -1.373818772119359,
                2.419914165633154,
                -1.0193413697732707,
                1.2315021535239612,
                3.179078627054144
            ]
        }
    ]
}