{
    "goal": {
        "global_pose": {
            "orientation": {
                "w": -0.4816463035849501,
                "x": 0.5182115481033762,
                "y": 0.4908360881923453,
                "z": -0.5084816262002911
            },
            "position": {
                "x": -0.8240239810943604,
                "y": 0.19912469901144506,
                "z": 0.16403168439865112
            }
        },
        "name": "move_to_storage_D"
    },
    "id": "BFMT_move_to_storage_D_72",
    "joint_names": [
        "shoulder_pan_joint",
        "shoulder_lift_joint",
        "elbow_joint",
        "wrist_1_joint",
        "wrist_2_joint",
        "wrist_3_joint"
    ],
    "metrics": {
        "cart_traj_len": 0.7793239462587958,
        "distance_elbow_joint": 0.8633391021697916,
        "distance_shoulder_lift_joint": 0.6811265859510818,
        "distance_shoulder_pan_joint": 0.876785475522722,
        "distance_wrist_1_joint": 3.826880019171906,
        "distance_wrist_2_joint": 1.7739304498952984,
        "distance_wrist_3_joint": 3.1184126940604906,
        "smoothness": 0.17609887776198221,
        "time": 0.6201787360000001,
        "traj_len": 3.3377349096013136,
        "weighted_distance": 4.793548808968098
    },
    "planner": "BFMT",
    "start": {
        "state": {
            "elbow_joint": -2.384821988534728,
            "shoulder_lift_joint": -2.2788054721415256,
            "shoulder_pan_joint": -0.1854694642142757,
            "wrist_1_joint": 1.4845938289331202,
            "wrist_2_joint": 0.17898776772866878,
            "wrist_3_joint": 0.037105688729662994
        }
    },
    "waypoints": [
        {
            "positions": [
                -0.1854694642142757,
                -2.2788054721415256,
                -2.384821988534728,
                1.4845938289331202,
                0.17898776772866878,
                0.037105688729662994
            ]
        },
        {
            "positions": [
                -0.15521683744861833,
                -2.2542451698494594,
                -2.3939130410277913,
                1.3544881979006016,
                0.08734153009852214,
                -0.0719815483570064
            ]
        },
        {
            "positions": [
                -0.12496421068296093,
                -2.2296848675573933,
                -2.4030040935208548,
                1.224382566868083,
                -0.004304707531624513,
                -0.1810687854436758
            ]
        },
        {
            "positions": [
                -0.09471158391730354,
                -2.205124565265327,
                -2.4120951460139177,
                1.0942769358355644,
                -0.09595094516177119,
                -0.2901560225303452
            ]
        },
        {
            "positions": [
                -0.06445895715164617,
                -2.180564262973261,
                -2.421186198506981,
                0.9641713048030457,
                -0.1875971827919178,
                -0.39924325961701457
            ]
        },
        {
            "positions": [
                -0.034206330385988776,
                -2.156003960681195,
                -2.4302772510000445,
                0.8340656737705271,
                -0.2792434204220644,
                -0.508330496703684
            ]
        },
        {
            "positions": [
                -0.0039537036203313725,
                -2.131443658389129,
                -2.439368303493108,
                0.7039600427380084,
                -0.3708896580522112,
                -0.6174177337903534
            ]
        },
        {
            "positions": [
                0.026298923145325975,
                -2.106883356097063,
                -2.448459355986171,
                0.5738544117054899,
                -0.46253589568235776,
                -0.7265049708770227
            ]
        },
        {
            "positions": [
                0.05655154991098338,
                -2.0823230538049966,
                -2.4575504084792343,
                0.4437487806729712,
                -0.5541821333125044,
                -0.8355922079636922
            ]
        },
        {
            "positions": [
                0.08680417667664078,
                -2.0577627515129304,
                -2.4666414609722978,
                0.3136431496404526,
                -0.645828370942651,
                -0.9446794450503615
            ]
        },
        {
            "positions": [
                0.11705680344229816,
                -2.0332024492208642,
                -2.475732513465361,
                0.183537518607934,
                -0.7374746085727977,
                -1.053766682137031
            ]
        },
        {
            "positions": [
                0.14730943020795553,
                -2.008642146928798,
                -2.484823565958424,
                0.05343188757541517,
                -0.8291208462029444,
                -1.1628539192237004
            ]
        },
        {
            "positions": [
                0.17756205697361296,
                -1.984081844636732,
                -2.4939146184514875,
                -0.07667374345710343,
                -0.9207670838330911,
                -1.2719411563103697
            ]
        },
        {
            "positions": [
                0.20781468373927028,
                -1.959521542344666,
                -2.503005670944551,
                -0.2067793744896218,
                -1.0124133214632374,
                -1.381028393397039
            ]
        },
        {
            "positions": [
                0.23806731050492766,
                -1.9349612400525997,
                -2.5120967234376144,
                -0.3368850055221404,
                -1.1040595590933842,
                -1.4901156304837084
            ]
        },
        {
            "positions": [
                0.268319937270585,
                -1.9104009377605338,
                -2.5211877759306773,
                -0.4669906365546592,
                -1.1957057967235307,
                -1.5992028675703778
            ]
        },
        {
            "positions": [
                0.29857256403624244,
                -1.8858406354684676,
                -2.5302788284237407,
                -0.5970962675871778,
                -1.2873520343536775,
                -1.7082901046570473
            ]
        },
        {
            "positions": [
                0.32882519080189987,
                -1.8612803331764014,
                -2.539369880916804,
                -0.7272018986196963,
                -1.378998271983824,
                -1.8173773417437167
            ]
        },
        {
            "positions": [
                0.2986176224263543,
                -1.8832471204252312,
                -2.480303946767828,
                -0.8617922562546203,
                -1.3969936394990579,
                -1.9227048137093092
            ]
        },
        {
            "positions": [
                0.26841005405080876,
                -1.905213907674061,
                -2.4212380126188515,
                -0.9963826138895444,
                -1.4149890070142916,
                -2.028032285674902
            ]
        },
        {
            "positions": [
                0.23820248567526323,
                -1.9271806949228907,
                -2.362172078469875,
                -1.1309729715244685,
                -1.4329843745295254,
                -2.1333597576404943
            ]
        },
        {
            "positions": [
                0.2079949172997177,
                -1.9491474821717205,
                -2.303106144320899,
                -1.2655633291593924,
                -1.4509797420447592,
                -2.238687229606087
            ]
        },
        {
            "positions": [
                0.1777873489241721,
                -1.9711142694205503,
                -2.2440402101719226,
                -1.4001536867943167,
                -1.468975109559993,
                -2.3440147015716795
            ]
        },
        {
            "positions": [
                0.14757978054862658,
                -1.9930810566693802,
                -2.1849742760229462,
                -1.5347440444292406,
                -1.4869704770752268,
                -2.4493421735372722
            ]
        },
        {
            "positions": [
                0.11737221217308103,
                -2.01504784391821,
                -2.12590834187397,
                -1.6693344020641647,
                -1.5049658445904606,
                -2.554669645502865
            ]
        },
        {
            "positions": [
                0.0871646437975355,
                -2.0370146311670396,
                -2.066842407724994,
                -1.8039247596990888,
                -1.5229612121056944,
                -2.6599971174684574
            ]
        },
        {
            "positions": [
                0.05695707542198991,
                -2.0589814184158697,
                -2.0077764735760177,
                -1.938515117334013,
                -1.5409565796209281,
                -2.7653245894340497
            ]
        },
        {
            "positions": [
                0.026749507046444354,
                -2.0809482056646993,
                -1.9487105394270414,
                -2.073105474968937,
                -1.558951947136162,
                -2.8706520613996425
            ]
        },
        {
            "positions": [
                -0.0034580613291011475,
                -2.1029149929135293,
                -1.889644605278065,
                -2.207695832603861,
                -1.5769473146513957,
                -2.9759795333652352
            ]
        },
        {
            "positions": [
                -0.033665629704646684,
                -2.124881780162359,
                -1.8305786711290888,
                -2.3422861902387853,
                -1.5949426821666295,
                -3.0813070053308276
            ]
        }
    ]
}