{
    "goal": {
        "global_pose": {
            "orientation": {
                "w": 0.005598929693374612,
                "x": 0.007748599140229565,
                "y": 0.7110244013736278,
                "z": -0.7031023480610252
            },
            "position": {
                "x": 0.1141497679147869,
                "y": -0.7141253447532654,
                "z": 0.3711530566215515
            }
        },
        "name": "move_to_auspresseinheit_B"
    },
    "id": "BFMT_move_to_auspresseinheit_B_51",
    "joint_names": [
        "shoulder_pan_joint",
        "shoulder_lift_joint",
        "elbow_joint",
        "wrist_1_joint",
        "wrist_2_joint",
        "wrist_3_joint"
    ],
    "metrics": {
        "cart_traj_len": 0.5652372571979744,
        "distance_elbow_joint": 0.06235940231021697,
        "distance_shoulder_lift_joint": 0.29388232446274287,
        "distance_shoulder_pan_joint": 0.5762096764313047,
        "distance_wrist_1_joint": 0.3214729031163376,
        "distance_wrist_2_joint": 1.0006527754338905,
        "distance_wrist_3_joint": 1.882919216233958e-05,
        "smoothness": 5.075305255429287e-16,
        "time": 0.45782496699999997,
        "traj_len": 1.501531188802502,
        "weighted_distance": 1.891232203586119
    },
    "planner": "BFMT",
    "start": {
        "state": {
            "elbow_joint": 2.0193083361928714,
            "shoulder_lift_joint": -1.1220246554650708,
            "shoulder_pan_joint": -1.0952077554168747,
            "wrist_1_joint": -0.8559753972642168,
            "wrist_2_joint": 0.4759566250798843,
            "wrist_3_joint": -3.1240929996934557
        }
    },
    "waypoints": [
        {
            "positions": [
                -1.0952077554168747,
                -1.1220246554650708,
                2.0193083361928714,
                -0.8559753972642168,
                0.4759566250798843,
                -3.1240929996934557
            ]
        },
        {
            "positions": [
                -1.1912427014887588,
                -1.1710050428755279,
                2.008915102474502,
                -0.8023965800781605,
                0.6427320876521994,
                -3.1240961378921495
            ]
        },
        {
            "positions": [
                -1.287277647560643,
                -1.2199854302859852,
                1.9985218687561324,
                -0.7488177628921042,
                0.8095075502245144,
                -3.1240992760908433
            ]
        },
        {
            "positions": [
                -1.383312593632527,
                -1.2689658176964422,
                1.988128635037763,
                -0.6952389457060479,
                0.9762830127968296,
                -3.1241024142895366
            ]
        },
        {
            "positions": [
                -1.4793475397044111,
                -1.3179462051068993,
                1.9777354013193935,
                -0.6416601285199918,
                1.1430584753691446,
                -3.1241055524882304
            ]
        },
        {
            "positions": [
                -1.5753824857762952,
                -1.3669265925173566,
                1.9673421676010239,
                -0.5880813113339354,
                1.3098339379414599,
                -3.124108690686924
            ]
        },
        {
            "positions": [
                -1.6714174318481794,
                -1.4159069799278137,
                1.9569489338826545,
                -0.5345024941478792,
                1.4766094005137749,
                -3.124111828885618
            ]
        }
    ]
}