{
    "goal": {
        "global_pose": {
            "orientation": {
                "w": 0.5084816217422485,
                "x": -0.49083608388900757,
                "y": 0.5182115435600281,
                "z": -0.4816462993621826
            },
            "position": {
                "x": 0.5540239810943604,
                "y": 0.030875300988554955,
                "z": 0.16403168439865112
            }
        },
        "name": "move_to_storage_A"
    },
    "id": "BFMT_move_to_storage_A_88",
    "joint_names": [
        "shoulder_pan_joint",
        "shoulder_lift_joint",
        "elbow_joint",
        "wrist_1_joint",
        "wrist_2_joint",
        "wrist_3_joint"
    ],
    "metrics": {
        "cart_traj_len": 0.3528322988632866,
        "distance_elbow_joint": 0.449360714530626,
        "distance_shoulder_lift_joint": 0.2363566388466678,
        "distance_shoulder_pan_joint": 0.46200772155397946,
        "distance_wrist_1_joint": 0.23679741217336503,
        "distance_wrist_2_joint": 1.096587983960247,
        "distance_wrist_3_joint": 0.10508867217482631,
        "smoothness": 4.440892098500626e-16,
        "time": 0.49611587,
        "traj_len": 1.6081663916522169,
        "weighted_distance": 2.0321815577656874
    },
    "planner": "BFMT",
    "start": {
        "state": {
            "elbow_joint": 1.971548259319323,
            "shoulder_lift_joint": -1.1394851275133948,
            "shoulder_pan_joint": 0.1228115487234821,
            "wrist_1_joint": -0.7804723859257726,
            "wrist_2_joint": 0.12958671773740124,
            "wrist_3_joint": -3.192489227718131
        }
    },
    "waypoints": [
        {
            "positions": [
                0.1228115487234821,
                -1.1394851275133948,
                1.971548259319323,
                -0.7804723859257726,
                0.12958671773740124,
                -3.192489227718131
            ]
        },
        {
            "positions": [
                0.05681044564434218,
                -1.1732503616343473,
                2.035742647109412,
                -0.8143005876648247,
                0.28624214401743653,
                -3.1774765602645845
            ]
        },
        {
            "positions": [
                -0.009190657434797744,
                -1.2070155957553,
                2.0999370348995017,
                -0.8481287894038769,
                0.4428975702974718,
                -3.162463892811038
            ]
        },
        {
            "positions": [
                -0.07519176051393767,
                -1.2407808298762524,
                2.164131422689591,
                -0.881956991142929,
                0.599552996577507,
                -3.147451225357491
            ]
        },
        {
            "positions": [
                -0.1411928635930776,
                -1.274546063997205,
                2.2283258104796806,
                -0.9157851928819812,
                0.7562084228575424,
                -3.132438557903945
            ]
        },
        {
            "positions": [
                -0.2071939666722175,
                -1.3083112981181575,
                2.29252019826977,
                -0.9496133946210333,
                0.9128638491375778,
                -3.117425890450398
            ]
        },
        {
            "positions": [
                -0.27319506975135743,
                -1.3420765322391102,
                2.3567145860598595,
                -0.9834415963600855,
                1.0695192754176128,
                -3.1024132229968515
            ]
        },
        {
            "positions": [
                -0.33919617283049736,
                -1.3758417663600626,
                2.420908973849949,
                -1.0172697980991376,
                1.2261747016976483,
                -3.087400555543305
            ]
        }
    ]
}{
    "goal": {
        "global_pose": {
            "orientation": {
                "w": 0.5084816217422485,
                "x": -0.49083608388900757,
                "y": 0.5182115435600281,
                "z": -0.4816462993621826
            },
            "position": {
                "x": 0.5540239810943604,
                "y": 0.030875300988554955,
                "z": 0.16403168439865112
            }
        },
        "name": "move_to_storage_A"
    },
    "id": "BFMT_move_to_storage_A_88",
    "joint_names": [
        "shoulder_pan_joint",
        "shoulder_lift_joint",
        "elbow_joint",
        "wrist_1_joint",
        "wrist_2_joint",
        "wrist_3_joint"
    ],
    "metrics": {
        "cart_traj_len": 0.3523399587102781,
        "distance_elbow_joint": 0.4527471752699159,
        "distance_shoulder_lift_joint": 0.23393912862739064,
        "distance_shoulder_pan_joint": 0.4588273063027201,
        "distance_wrist_1_joint": 0.2607212190842725,
        "distance_wrist_2_joint": 1.1051838163092014,
        "distance_wrist_3_joint": 0.09668224574942119,
        "smoothness": 0.0,
        "time": 0.515129118,
        "traj_len": 1.6149615758100628,
        "weighted_distance": 2.0414138282659002
    },
    "planner": "BFMT",
    "start": {
        "state": {
            "elbow_joint": 1.97154746011099,
            "shoulder_lift_joint": -1.13948474672311,
            "shoulder_pan_joint": 0.12281154466712228,
            "wrist_1_joint": -0.7804688027058302,
            "wrist_2_joint": 0.12958655903071145,
            "wrist_3_joint": 3.0906928834467795
        }
    },
    "waypoints": [
        {
            "positions": [
                0.12281154466712228,
                -1.13948474672311,
                1.97154746011099,
                -0.7804688027058302,
                0.12958655903071145,
                3.0906928834467795
            ]
        },
        {
            "positions": [
                0.05726478662387656,
                -1.1729046222413086,
                2.0362256280066924,
                -0.8177146911464406,
                0.2874699613605973,
                3.104504632839554
            ]
        },
        {
            "positions": [
                -0.008281971419369163,
                -1.2063244977595073,
                2.1009037959023944,
                -0.8549605795870509,
                0.4453533636904833,
                3.1183163822323285
            ]
        },
        {
            "positions": [
                -0.07382872946261489,
                -1.239744373277706,
                2.165581963798097,
                -0.8922064680276612,
                0.6032367660203691,
                3.132128131625103
            ]
        },
        {
            "positions": [
                -0.1393754875058606,
                -1.2731642487959045,
                2.230260131693799,
                -0.9294523564682716,
                0.7611201683502551,
                3.145939881017877
            ]
        },
        {
            "positions": [
                -0.20492224554910637,
                -1.3065841243141032,
                2.2949382995895014,
                -0.9666982449088819,
                0.919003570680141,
                3.1597516304106517
            ]
        },
        {
            "positions": [
                -0.27046900359235204,
                -1.340003999832302,
                2.3596164674852034,
                -1.0039441333494923,
                1.0768869730100268,
                3.173563379803426
            ]
        },
        {
            "positions": [
                -0.3360157616355978,
                -1.3734238753505006,
                2.424294635380906,
                -1.0411900217901027,
                1.2347703753399129,
                3.1873751291962007
            ]
        }
    ]
}{
    "goal": {
        "global_pose": {
            "orientation": {
                "w": 0.5084816217422485,
                "x": -0.49083608388900757,
                "y": 0.5182115435600281,
                "z": -0.4816462993621826
            },
            "position": {
                "x": 0.5540239810943604,
                "y": 0.030875300988554955,
                "z": 0.16403168439865112
            }
        },
        "name": "move_to_storage_A"
    },
    "id": "BFMT_move_to_storage_A_88",
    "joint_names": [
        "shoulder_pan_joint",
        "shoulder_lift_joint",
        "elbow_joint",
        "wrist_1_joint",
        "wrist_2_joint",
        "wrist_3_joint"
    ],
    "metrics": {
        "cart_traj_len": 0.3535468503518019,
        "distance_elbow_joint": 0.4525902963283097,
        "distance_shoulder_lift_joint": 0.23427017210862533,
        "distance_shoulder_pan_joint": 0.4637769896334728,
        "distance_wrist_1_joint": 0.2498465143004942,
        "distance_wrist_2_joint": 1.0940008453048782,
        "distance_wrist_3_joint": 0.10366678874258639,
        "smoothness": 4.440892098500626e-16,
        "time": 0.5089264330000001,
        "traj_len": 1.6118782852369364,
        "weighted_distance": 2.036991051406194
    },
    "planner": "BFMT",
    "start": {
        "state": {
            "elbow_joint": 1.9715472970024885,
            "shoulder_lift_joint": -1.1394870060712896,
            "shoulder_pan_joint": 0.12281152778156021,
            "wrist_1_joint": -0.780463741449964,
            "wrist_2_joint": 0.12958659822042276,
            "wrist_3_joint": 3.090690232415272
        }
    },
    "waypoints": [
        {
            "positions": [
                0.12281152778156021,
                -1.1394870060712896,
                1.9715472970024885,
                -0.780463741449964,
                0.12958659822042276,
                3.090690232415272
            ]
        },
        {
            "positions": [
                0.05655767211963553,
                -1.172954173515379,
                2.0362030536208184,
                -0.8161561006357488,
                0.28587243326397677,
                3.1054997736642127
            ]
        },
        {
            "positions": [
                -0.009696183542289155,
                -1.2064213409594682,
                2.1008588102391483,
                -0.8518484598215338,
                0.4421582683075308,
                3.1203093149131536
            ]
        },
        {
            "positions": [
                -0.07595003920421384,
                -1.2398885084035576,
                2.1655145668574782,
                -0.8875408190073186,
                0.5984441033510848,
                3.1351188561620944
            ]
        },
        {
            "positions": [
                -0.14220389486613852,
                -1.273355675847647,
                2.230170323475808,
                -0.9232331781931036,
                0.7547299383946388,
                3.1499283974110357
            ]
        },
        {
            "positions": [
                -0.20845775052806323,
                -1.3068228432917364,
                2.2948260800941385,
                -0.9589255373788884,
                0.9110157734381928,
                3.1647379386599765
            ]
        },
        {
            "positions": [
                -0.2747116061899879,
                -1.3402900107358255,
                2.3594818367124684,
                -0.9946178965646733,
                1.0673016084817468,
                3.1795474799089174
            ]
        },
        {
            "positions": [
                -0.34096546185191257,
                -1.373757178179915,
                2.4241375933307983,
                -1.0303102557504582,
                1.223587443525301,
                3.1943570211578582
            ]
        }
    ]
}