{
    "goal": {
        "global_pose": {
            "orientation": {
                "w": 0.7047431468963623,
                "x": -0.7094548344612122,
                "y": 0.0024358443915843964,
                "z": -0.0022348060738295317
            },
            "position": {
                "x": 0.6094750761985779,
                "y": 0.3671506643295288,
                "z": 0.19426114857196808
            }
        },
        "name": "move_to_magneteinheit_A"
    },
    "id": "BFMT_move_to_magneteinheit_A_56",
    "joint_names": [
        "shoulder_pan_joint",
        "shoulder_lift_joint",
        "elbow_joint",
        "wrist_1_joint",
        "wrist_2_joint",
        "wrist_3_joint"
    ],
    "metrics": {
        "cart_traj_len": 3.8165277253705954,
        "distance_elbow_joint": 4.346432706929858,
        "distance_shoulder_lift_joint": 0.4648884674111107,
        "distance_shoulder_pan_joint": 4.352523914894704,
        "distance_wrist_1_joint": 1.37989974723599,
        "distance_wrist_2_joint": 1.695923767589636,
        "distance_wrist_3_joint": 2.586736378100245,
        "smoothness": 0.42204658127338945,
        "time": 0.97262154,
        "traj_len": 3.850507107143362,
        "weighted_distance": 4.803717441022905
    },
    "planner": "BFMT",
    "start": {
        "state": {
            "elbow_joint": -1.9196185241190666,
            "shoulder_lift_joint": -1.2443396400964142,
            "shoulder_pan_joint": 2.6996025414629847,
            "wrist_1_joint": -1.5485510000780065,
            "wrist_2_joint": -1.5709468930060704,
            "wrist_3_joint": 0.4420197071253992
        }
    },
    "waypoints": [
        {
            "positions": [
                2.6996025414629847,
                -1.2443396400964142,
                -1.9196185241190666,
                -1.5485510000780065,
                -1.5709468930060704,
                0.4420197071253992
            ]
        },
        {
            "positions": [
                2.587825639191184,
                -1.2500119861784265,
                -1.786964887337946,
                -1.5129468040431724,
                -1.5345939343743187,
                0.5043558575084376
            ]
        },
        {
            "positions": [
                2.4760487369193838,
                -1.2556843322604387,
                -1.6543112505568252,
                -1.477342608008338,
                -1.4982409757425668,
                0.5666920078914759
            ]
        },
        {
            "positions": [
                2.364271834647583,
                -1.261356678342451,
                -1.5216576137757043,
                -1.441738411973504,
                -1.461888017110815,
                0.6290281582745143
            ]
        },
        {
            "positions": [
                2.252494932375783,
                -1.2670290244244635,
                -1.3890039769945837,
                -1.4061342159386698,
                -1.4255350584790634,
                0.6913643086575527
            ]
        },
        {
            "positions": [
                2.140718030103982,
                -1.2727013705064758,
                -1.256350340213463,
                -1.3705300199038357,
                -1.3891820998473117,
                0.7537004590405911
            ]
        },
        {
            "positions": [
                2.028941127832182,
                -1.278373716588488,
                -1.1236967034323422,
                -1.3349258238690016,
                -1.35282914121556,
                0.8160366094236294
            ]
        },
        {
            "positions": [
                1.9171642255603811,
                -1.2840460626705004,
                -0.9910430666512214,
                -1.2993216278341673,
                -1.316476182583808,
                0.8783727598066677
            ]
        },
        {
            "positions": [
                1.8053873232885806,
                -1.2897184087525126,
                -0.8583894298701007,
                -1.2637174317993332,
                -1.2801232239520564,
                0.9407089101897061
            ]
        },
        {
            "positions": [
                1.69361042101678,
                -1.295390754834525,
                -0.7257357930889798,
                -1.228113235764499,
                -1.2437702653203044,
                1.0030450605727446
            ]
        },
        {
            "positions": [
                1.5818335187449797,
                -1.3010631009165374,
                -0.5930821563078592,
                -1.1925090397296647,
                -1.2074173066885527,
                1.065381210955783
            ]
        },
        {
            "positions": [
                1.470056616473179,
                -1.3067354469985497,
                -0.46042851952673836,
                -1.1569048436948306,
                -1.171064348056801,
                1.1277173613388214
            ]
        },
        {
            "positions": [
                1.3582797142013785,
                -1.312407793080562,
                -0.3277748827456177,
                -1.1213006476599965,
                -1.1347113894250493,
                1.1900535117218598
            ]
        },
        {
            "positions": [
                1.246502811929578,
                -1.3180801391625743,
                -0.19512124596449687,
                -1.0856964516251622,
                -1.0983584307932976,
                1.252389662104898
            ]
        },
        {
            "positions": [
                1.1347259096577775,
                -1.3237524852445866,
                -0.06246760918337624,
                -1.0500922555903283,
                -1.062005472161546,
                1.3147258124879364
            ]
        },
        {
            "positions": [
                1.0229490073859768,
                -1.3294248313265988,
                0.07018602759774462,
                -1.014488059555494,
                -1.025652513529794,
                1.3770619628709748
            ]
        },
        {
            "positions": [
                0.9111721051141766,
                -1.3350971774086113,
                0.20283966437886525,
                -0.9788838635206598,
                -0.9892995548980423,
                1.4393981132540132
            ]
        },
        {
            "positions": [
                0.7993952028423761,
                -1.3407695234906236,
                0.3354933011599859,
                -0.9432796674858257,
                -0.9529465962662906,
                1.5017342636370516
            ]
        },
        {
            "positions": [
                0.6876183005705752,
                -1.346441869572636,
                0.46814693794110696,
                -0.9076754714509914,
                -0.9165936376345387,
                1.5640704140200898
            ]
        },
        {
            "positions": [
                0.5758413982987749,
                -1.3521142156546482,
                0.6008005747222276,
                -0.8720712754161573,
                -0.880240679002787,
                1.6264065644031285
            ]
        },
        {
            "positions": [
                0.46406449602697464,
                -1.3577865617366605,
                0.7334542115033482,
                -0.8364670793813231,
                -0.8438877203710353,
                1.6887427147861667
            ]
        },
        {
            "positions": [
                0.35228759375517393,
                -1.3634589078186727,
                0.8661078482844689,
                -0.800862883346489,
                -0.8075347617392836,
                1.7510788651692049
            ]
        },
        {
            "positions": [
                0.24051069148337323,
                -1.3691312539006852,
                0.9987614850655899,
                -0.7652586873116547,
                -0.7711818031075317,
                1.8134150155522435
            ]
        },
        {
            "positions": [
                0.12873378921157297,
                -1.3748035999826975,
                1.1314151218467106,
                -0.7296544912768206,
                -0.73482884447578,
                1.8757511659352817
            ]
        },
        {
            "positions": [
                0.016956886939772264,
                -1.3804759460647098,
                1.2640687586278312,
                -0.6940502952419865,
                -0.6984758858440283,
                1.9380873163183203
            ]
        },
        {
            "positions": [
                -0.094820015332028,
                -1.386148292146722,
                1.3967223954089518,
                -0.6584460992071524,
                -0.6621229272122766,
                2.0004234667013585
            ]
        },
        {
            "positions": [
                -0.2065969176038287,
                -1.3918206382287344,
                1.529376032190073,
                -0.622841903172318,
                -0.6257699685805247,
                2.062759617084397
            ]
        },
        {
            "positions": [
                -0.3183738198756294,
                -1.3974929843107466,
                1.6620296689711935,
                -0.5872377071374839,
                -0.589417009948773,
                2.1250957674674353
            ]
        },
        {
            "positions": [
                -0.43015072214742966,
                -1.403165330392759,
                1.7946833057523142,
                -0.5516335111026498,
                -0.5530640513170213,
                2.1874319178504735
            ]
        },
        {
            "positions": [
                -0.5419276244192299,
                -1.4088376764747714,
                1.9273369425334348,
                -0.5160293150678157,
                -0.5167110926852696,
                2.249768068233512
            ]
        },
        {
            "positions": [
                -0.6537045266910311,
                -1.4145100225567837,
                2.059990579314556,
                -0.48042511903298135,
                -0.4803581340535177,
                2.3121042186165504
            ]
        },
        {
            "positions": [
                -0.7654814289628316,
                -1.420182368638796,
                2.1926442160956765,
                -0.44482092299814724,
                -0.44400517542176593,
                2.374440368999589
            ]
        },
        {
            "positions": [
                -0.6545514359042207,
                -1.3840516512802048,
                2.163372970256287,
                -0.47934213176766355,
                -0.37288241917109954,
                2.456229833527846
            ]
        },
        {
            "positions": [
                -0.5436214428456099,
                -1.3479209339216138,
                2.134101724416898,
                -0.5138633405371799,
                -0.3017596629204331,
                2.5380192980561027
            ]
        },
        {
            "positions": [
                -0.43269144978699897,
                -1.3117902165630226,
                2.1048304785775085,
                -0.5483845493066962,
                -0.23063690666976672,
                2.6198087625843596
            ]
        },
        {
            "positions": [
                -0.32176145672838813,
                -1.2756594992044317,
                2.075559232738119,
                -0.5829057580762125,
                -0.15951415041910033,
                2.7015982271126164
            ]
        },
        {
            "positions": [
                -0.21083146366977723,
                -1.2395287818458405,
                2.04628798689873,
                -0.6174269668457288,
                -0.08839139416843395,
                2.7833876916408737
            ]
        },
        {
            "positions": [
                -0.09990147061116639,
                -1.2033980644872493,
                2.0170167410593405,
                -0.6519481756152452,
                -0.017268637917767504,
                2.8651771561691306
            ]
        },
        {
            "positions": [
                0.011028522447444455,
                -1.167267347128658,
                1.987745495219951,
                -0.6864693843847616,
                0.05385411833289888,
                2.9469666206973875
            ]
        },
        {
            "positions": [
                0.12195851550605531,
                -1.1311366297700671,
                1.9584742493805616,
                -0.7209905931542778,
                0.12497687458356528,
                3.0287560852256443
            ]
        }
    ]
}