{
    "goal": {
        "global_pose": {
            "orientation": {
                "w": 0.5084816217422485,
                "x": -0.49083608388900757,
                "y": 0.5182115435600281,
                "z": -0.4816462993621826
            },
            "position": {
                "x": 0.5540239810943604,
                "y": 0.030875300988554955,
                "z": 0.16403168439865112
            }
        },
        "name": "move_to_storage_A"
    },
    "id": "BFMT_move_to_storage_A_18",
    "joint_names": [
        "shoulder_pan_joint",
        "shoulder_lift_joint",
        "elbow_joint",
        "wrist_1_joint",
        "wrist_2_joint",
        "wrist_3_joint"
    ],
    "metrics": {
        "cart_traj_len": 0.35263210327689365,
        "distance_elbow_joint": 0.4526018107324614,
        "distance_shoulder_lift_joint": 0.23256609314269516,
        "distance_shoulder_pan_joint": 0.45952429999386984,
        "distance_wrist_1_joint": 0.26094843175177507,
        "distance_wrist_2_joint": 1.1038020621201405,
        "distance_wrist_3_joint": 0.10270167910007855,
        "smoothness": 6.661338165333112e-16,
        "time": 0.5211450599999999,
        "traj_len": 1.6162129738499875,
        "weighted_distance": 2.045066803044119
    },
    "planner": "BFMT",
    "start": {
        "state": {
            "elbow_joint": 1.971548259319323,
            "shoulder_lift_joint": -1.1394851275133948,
            "shoulder_pan_joint": 0.1228115487234821,
            "wrist_1_joint": -0.7804723859257726,
            "wrist_2_joint": 0.12958671773740124,
            "wrist_3_joint": -3.192489227718131
        }
    },
    "waypoints": [
        {
            "positions": [
                0.1228115487234821,
                -1.1394851275133948,
                1.971548259319323,
                -0.7804723859257726,
                0.12958671773740124,
                -3.192489227718131
            ]
        },
        {
            "positions": [
                0.05716522015292927,
                -1.1727088551052085,
                2.0362056608525316,
                -0.8177507333188834,
                0.287272726611707,
                -3.1778175592752627
            ]
        },
        {
            "positions": [
                -0.008481108417623562,
                -1.205932582697022,
                2.1008630623857405,
                -0.855029080711994,
                0.44495873548601284,
                -3.1631458908323946
            ]
        },
        {
            "positions": [
                -0.07412743698817639,
                -1.2391563102888357,
                2.1655204639189494,
                -0.8923074281051048,
                0.6026447443603186,
                -3.148474222389526
            ]
        },
        {
            "positions": [
                -0.13977376555872922,
                -1.2723800378806491,
                2.2301778654521582,
                -0.9295857754982155,
                0.7603307532346244,
                -3.1338025539466576
            ]
        },
        {
            "positions": [
                -0.20542009412928208,
                -1.3056037654724628,
                2.294835266985367,
                -0.9668641228913262,
                0.9180167621089302,
                -3.119130885503789
            ]
        },
        {
            "positions": [
                -0.2710664226998349,
                -1.3388274930642763,
                2.3594926685185755,
                -1.004142470284437,
                1.0757027709832359,
                -3.104459217060921
            ]
        },
        {
            "positions": [
                -0.33671275127038774,
                -1.37205122065609,
                2.4241500700517844,
                -1.0414208176775477,
                1.2333887798575418,
                -3.0897875486180526
            ]
        }
    ]
}{
    "goal": {
        "global_pose": {
            "orientation": {
                "w": 0.5084816217422485,
                "x": -0.49083608388900757,
                "y": 0.5182115435600281,
                "z": -0.4816462993621826
            },
            "position": {
                "x": 0.5540239810943604,
                "y": 0.030875300988554955,
                "z": 0.16403168439865112
            }
        },
        "name": "move_to_storage_A"
    },
    "id": "BFMT_move_to_storage_A_18",
    "joint_names": [
        "shoulder_pan_joint",
        "shoulder_lift_joint",
        "elbow_joint",
        "wrist_1_joint",
        "wrist_2_joint",
        "wrist_3_joint"
    ],
    "metrics": {
        "cart_traj_len": 0.3534891794745037,
        "distance_elbow_joint": 0.450796700114791,
        "distance_shoulder_lift_joint": 0.23451532991386403,
        "distance_shoulder_pan_joint": 0.46136132750709186,
        "distance_wrist_1_joint": 0.24311223071113908,
        "distance_wrist_2_joint": 1.1038168162887656,
        "distance_wrist_3_joint": 0.10596143958767135,
        "smoothness": 4.440892133664971e-16,
        "time": 0.520507345,
        "traj_len": 1.6123162977912624,
        "weighted_distance": 2.0392194021974612
    },
    "planner": "BFMT",
    "start": {
        "state": {
            "elbow_joint": 1.97154746011099,
            "shoulder_lift_joint": -1.13948474672311,
            "shoulder_pan_joint": 0.12281154466712228,
            "wrist_1_joint": -0.7804688027058302,
            "wrist_2_joint": 0.12958655903071145,
            "wrist_3_joint": 3.0906928834467795
        }
    },
    "waypoints": [
        {
            "positions": [
                0.12281154466712228,
                -1.13948474672311,
                1.97154746011099,
                -0.7804688027058302,
                0.12958655903071145,
                3.0906928834467795
            ]
        },
        {
            "positions": [
                0.056902783594680595,
                -1.1729869367108048,
                2.035946988698817,
                -0.8151991213788501,
                0.28727467564339226,
                3.105830231959304
            ]
        },
        {
            "positions": [
                -0.009005977477761093,
                -1.2064891266984996,
                2.1003465172866447,
                -0.8499294400518699,
                0.44496279225607305,
                3.1209675804718287
            ]
        },
        {
            "positions": [
                -0.0749147385502028,
                -1.2399913166861944,
                2.164746045874472,
                -0.8846597587248898,
                0.6026509088687538,
                3.136104928984353
            ]
        },
        {
            "positions": [
                -0.14082349962264445,
                -1.2734935066738893,
                2.229145574462299,
                -0.9193900773979097,
                0.7603390254814346,
                3.1512422774968774
            ]
        },
        {
            "positions": [
                -0.20673226069508616,
                -1.3069956966615843,
                2.2935451030501266,
                -0.9541203960709295,
                0.9180271420941155,
                3.1663796260094017
            ]
        },
        {
            "positions": [
                -0.27264102176752786,
                -1.3404978866492792,
                2.3579446316379538,
                -0.9888507147439494,
                1.0757152587067962,
                3.1815169745219265
            ]
        },
        {
            "positions": [
                -0.33854978283996956,
                -1.374000076636974,
                2.422344160225781,
                -1.0235810334169693,
                1.233403375319477,
                3.196654323034451
            ]
        }
    ]
}{
    "goal": {
        "global_pose": {
            "orientation": {
                "w": 0.5084816217422485,
                "x": -0.49083608388900757,
                "y": 0.5182115435600281,
                "z": -0.4816462993621826
            },
            "position": {
                "x": 0.5540239810943604,
                "y": 0.030875300988554955,
                "z": 0.16403168439865112
            }
        },
        "name": "move_to_storage_A"
    },
    "id": "BFMT_move_to_storage_A_18",
    "joint_names": [
        "shoulder_pan_joint",
        "shoulder_lift_joint",
        "elbow_joint",
        "wrist_1_joint",
        "wrist_2_joint",
        "wrist_3_joint"
    ],
    "metrics": {
        "cart_traj_len": 0.3531472504107183,
        "distance_elbow_joint": 0.4488955047451664,
        "distance_shoulder_lift_joint": 0.23341542754592726,
        "distance_shoulder_pan_joint": 0.46196562843229233,
        "distance_wrist_1_joint": 0.24506687800238103,
        "distance_wrist_2_joint": 1.0970554428059913,
        "distance_wrist_3_joint": 0.09765834009674679,
        "smoothness": 4.440892098500626e-16,
        "time": 0.5066144979999999,
        "traj_len": 1.607500302217236,
        "weighted_distance": 2.0301468475532434
    },
    "planner": "BFMT",
    "start": {
        "state": {
            "elbow_joint": 1.9715472970024885,
            "shoulder_lift_joint": -1.1394870060712896,
            "shoulder_pan_joint": 0.12281152778156021,
            "wrist_1_joint": -0.780463741449964,
            "wrist_2_joint": 0.12958659822042276,
            "wrist_3_joint": 3.090690232415272
        }
    },
    "waypoints": [
        {
            "positions": [
                0.12281152778156021,
                -1.1394870060712896,
                1.9715472970024885,
                -0.780463741449964,
                0.12958659822042276,
                3.090690232415272
            ]
        },
        {
            "positions": [
                0.05681643800551846,
                -1.1728320671492791,
                2.035675226251798,
                -0.8154732954503041,
                0.2863088043355644,
                3.104641423857664
            ]
        },
        {
            "positions": [
                -0.009178651770523294,
                -1.2061771282272689,
                2.0998031555011076,
                -0.8504828494506442,
                0.44303101045070603,
                3.1185926153000567
            ]
        },
        {
            "positions": [
                -0.07517374154656503,
                -1.2395221893052584,
                2.163931084750417,
                -0.8854924034509845,
                0.5997532165658476,
                3.132543806742449
            ]
        },
        {
            "positions": [
                -0.1411688313226068,
                -1.272867250383248,
                2.2280590139997263,
                -0.9205019574513246,
                0.7564754226809892,
                3.1464949981848416
            ]
        },
        {
            "positions": [
                -0.2071639210986486,
                -1.3062123114612376,
                2.292186943249036,
                -0.9555115114516648,
                0.9131976287961309,
                3.160446189627234
            ]
        },
        {
            "positions": [
                -0.2731590108746903,
                -1.3395573725392271,
                2.3563148724983454,
                -0.9905210654520049,
                1.0699198349112724,
                3.1743973810696264
            ]
        },
        {
            "positions": [
                -0.3391541006507321,
                -1.3729024336172169,
                2.420442801747655,
                -1.025530619452345,
                1.226642041026414,
                3.1883485725120186
            ]
        }
    ]
}