{
    "goal": {
        "global_pose": {
            "orientation": {
                "w": 0.005598929693374612,
                "x": 0.007748599140229565,
                "y": 0.7110244013736278,
                "z": -0.7031023480610252
            },
            "position": {
                "x": -0.8858502320852131,
                "y": -0.7141253447532654,
                "z": 0.3711530566215515
            }
        },
        "name": "move_to_auspresseinheit_C"
    },
    "id": "BFMT_move_to_auspresseinheit_C_144",
    "joint_names": [
        "shoulder_pan_joint",
        "shoulder_lift_joint",
        "elbow_joint",
        "wrist_1_joint",
        "wrist_2_joint",
        "wrist_3_joint"
    ],
    "metrics": {
        "cart_traj_len": 0.49311386079092406,
        "distance_elbow_joint": 0.9936941878180229,
        "distance_shoulder_lift_joint": 0.32114598168547526,
        "distance_shoulder_pan_joint": 0.25642979299742397,
        "distance_wrist_1_joint": 0.6653113793476929,
        "distance_wrist_2_joint": 1.307075796183973,
        "distance_wrist_3_joint": 0.04050131254854872,
        "smoothness": 1.1304088990788627e-15,
        "time": 0.41573949099999996,
        "traj_len": 1.89318737862398,
        "weighted_distance": 2.3743521750595256
    },
    "planner": "BFMT",
    "start": {
        "state": {
            "elbow_joint": 1.7527959577737207,
            "shoulder_lift_joint": -0.9740617694225068,
            "shoulder_pan_joint": -2.967991417825858,
            "wrist_1_joint": -0.759517768980727,
            "wrist_2_joint": 1.7443932448377408,
            "wrist_3_joint": -3.0840537646736568
        }
    },
    "waypoints": [
        {
            "positions": [
                -2.967991417825858,
                -0.9740617694225068,
                1.7527959577737207,
                -0.759517768980727,
                1.7443932448377408,
                -3.0840537646736568
            ]
        },
        {
            "positions": [
                -2.9423484385261154,
                -0.9419471712539592,
                1.6534265389919183,
                -0.6929866310459577,
                1.6136856652193434,
                -3.0881038959285116
            ]
        },
        {
            "positions": [
                -2.9167054592263733,
                -0.9098325730854118,
                1.554057120210116,
                -0.6264554931111884,
                1.4829780856009462,
                -3.0921540271833665
            ]
        },
        {
            "positions": [
                -2.8910624799266307,
                -0.8777179749168642,
                1.454687701428314,
                -0.5599243551764191,
                1.352270505982549,
                -3.0962041584382214
            ]
        },
        {
            "positions": [
                -2.8654195006268885,
                -0.8456033767483166,
                1.3553182826465116,
                -0.4933932172416498,
                1.2215629263641516,
                -3.1002542896930763
            ]
        },
        {
            "positions": [
                -2.839776521327146,
                -0.8134887785797691,
                1.2559488638647092,
                -0.4268620793068805,
                1.0908553467457542,
                -3.104304420947931
            ]
        },
        {
            "positions": [
                -2.8141335420274034,
                -0.7813741804112216,
                1.156579445082907,
                -0.36033094137211125,
                0.960147767127357,
                -3.108354552202786
            ]
        },
        {
            "positions": [
                -2.7884905627276613,
                -0.7492595822426741,
                1.0572100263011048,
                -0.29379980343734197,
                0.8294401875089599,
                -3.112404683457641
            ]
        },
        {
            "positions": [
                -2.7628475834279187,
                -0.7171449840741266,
                0.9578406075193023,
                -0.22726866550257263,
                0.6987326078905625,
                -3.1164548147124957
            ]
        },
        {
            "positions": [
                -2.7372046041281766,
                -0.6850303859055791,
                0.8584711887375001,
                -0.16073752756780335,
                0.5680250282721651,
                -3.1205049459673506
            ]
        },
        {
            "positions": [
                -2.711561624828434,
                -0.6529157877370315,
                0.7591017699556978,
                -0.09420638963303406,
                0.4373174486537678,
                -3.1245550772222055
            ]
        }
    ]
}