{
    "goal": {
        "global_pose": {
            "orientation": {
                "w": 0.5084816262002911,
                "x": -0.4908360881923452,
                "y": 0.5182115481033761,
                "z": -0.48164630358495003
            },
            "position": {
                "x": 0.5540239810943604,
                "y": -0.46912469901144505,
                "z": 0.16403168439865112
            }
        },
        "name": "move_to_storage_B"
    },
    "id": "BFMT_move_to_storage_B_106",
    "joint_names": [
        "shoulder_pan_joint",
        "shoulder_lift_joint",
        "elbow_joint",
        "wrist_1_joint",
        "wrist_2_joint",
        "wrist_3_joint"
    ],
    "metrics": {
        "cart_traj_len": 0.9384672164652352,
        "distance_elbow_joint": 0.3979182913287267,
        "distance_shoulder_lift_joint": 0.5674666440318272,
        "distance_shoulder_pan_joint": 0.4252596702048267,
        "distance_wrist_1_joint": 2.983596850265574,
        "distance_wrist_2_joint": 2.7046234395962934,
        "distance_wrist_3_joint": 3.138945254013124,
        "smoothness": 0.06157977374898275,
        "time": 0.781369111,
        "traj_len": 3.196530955495406,
        "weighted_distance": 4.709980992247048
    },
    "planner": "BFMT",
    "start": {
        "state": {
            "elbow_joint": 1.664937868594044,
            "shoulder_lift_joint": -0.661644460510453,
            "shoulder_pan_joint": -0.9139846352900073,
            "wrist_1_joint": 2.146753192139373,
            "wrist_2_joint": -2.2341966793290973,
            "wrist_3_joint": 0.005466555786416001
        }
    },
    "waypoints": [
        {
            "positions": [
                -0.9139846352900073,
                -0.661644460510453,
                1.664937868594044,
                2.146753192139373,
                -2.2341966793290973,
                0.005466555786416001
            ]
        },
        {
            "positions": [
                -0.8529873912894586,
                -0.7032733291741128,
                1.6920512408613373,
                2.1068620339885373,
                -2.07646686092042,
                0.06816053645135058
            ]
        },
        {
            "positions": [
                -0.7919901472889097,
                -0.7449021978377726,
                1.7191646131286307,
                2.0669708758377014,
                -1.9187370425117436,
                0.13085451711628515
            ]
        },
        {
            "positions": [
                -0.7923133985822507,
                -0.7663582483909452,
                1.7351358831030417,
                1.9514572171846192,
                -1.8013324270383098,
                0.2543818161997693
            ]
        },
        {
            "positions": [
                -0.7926366498755918,
                -0.7878142989441179,
                1.7511071530774527,
                1.8359435585315367,
                -1.683927811564876,
                0.37790911528325344
            ]
        },
        {
            "positions": [
                -0.7929599011689328,
                -0.8092703494972906,
                1.7670784230518637,
                1.7204298998784544,
                -1.566523196091442,
                0.5014364143667376
            ]
        },
        {
            "positions": [
                -0.7932831524622739,
                -0.8307264000504633,
                1.7830496930262747,
                1.6049162412253721,
                -1.4491185806180082,
                0.6249637134502217
            ]
        },
        {
            "positions": [
                -0.7936064037556149,
                -0.852182450603636,
                1.7990209630006857,
                1.4894025825722896,
                -1.3317139651445746,
                0.7484910125337059
            ]
        },
        {
            "positions": [
                -0.7939296550489559,
                -0.8736385011568086,
                1.8149922329750967,
                1.3738889239192074,
                -1.2143093496711406,
                0.87201831161719
            ]
        },
        {
            "positions": [
                -0.794252906342297,
                -0.8950945517099813,
                1.8309635029495077,
                1.258375265266125,
                -1.096904734197707,
                0.9955456107006742
            ]
        },
        {
            "positions": [
                -0.7945761576356379,
                -0.916550602263154,
                1.8469347729239187,
                1.1428616066130428,
                -0.979500118724273,
                1.1190729097841583
            ]
        },
        {
            "positions": [
                -0.794899408928979,
                -0.9380066528163267,
                1.8629060428983297,
                1.0273479479599603,
                -0.8620955032508393,
                1.2426002088676424
            ]
        },
        {
            "positions": [
                -0.79522266022232,
                -0.9594627033694993,
                1.8788773128727407,
                0.911834289306878,
                -0.7446908877774054,
                1.3661275079511266
            ]
        },
        {
            "positions": [
                -0.795545911515661,
                -0.980918753922672,
                1.8948485828471517,
                0.7963206306537955,
                -0.6272862723039716,
                1.4896548070346107
            ]
        },
        {
            "positions": [
                -0.7958691628090021,
                -1.0023748044758447,
                1.9108198528215627,
                0.6808069720007135,
                -0.5098816568305378,
                1.6131821061180949
            ]
        },
        {
            "positions": [
                -0.7961924141023431,
                -1.0238308550290174,
                1.9267911227959738,
                0.565293313347631,
                -0.39247704135710393,
                1.736709405201579
            ]
        },
        {
            "positions": [
                -0.7965156653956842,
                -1.04528690558219,
                1.9427623927703848,
                0.4497796546945487,
                -0.2750724258836703,
                1.8602367042850632
            ]
        },
        {
            "positions": [
                -0.7968389166890252,
                -1.0667429561353627,
                1.9587336627447958,
                0.33426599604146645,
                -0.15766781041023625,
                1.9837640033685473
            ]
        },
        {
            "positions": [
                -0.7971621679823662,
                -1.0881990066885354,
                1.9747049327192068,
                0.21875233738838396,
                -0.040263194936802416,
                2.1072913024520314
            ]
        },
        {
            "positions": [
                -0.7974854192757073,
                -1.109655057241708,
                1.9906762026936178,
                0.10323867873530168,
                0.0771414205366312,
                2.2308186015355154
            ]
        },
        {
            "positions": [
                -0.7978086705690483,
                -1.1311111077948808,
                2.006647472668029,
                -0.012274979917780815,
                0.19454603601006504,
                2.3543459006189997
            ]
        },
        {
            "positions": [
                -0.7981319218623893,
                -1.1525671583480535,
                2.0226187426424396,
                -0.1277886385708631,
                0.31195065148349865,
                2.4778731997024837
            ]
        },
        {
            "positions": [
                -0.7984551731557303,
                -1.1740232089012261,
                2.038590012616851,
                -0.24330229722394525,
                0.4293552669569327,
                2.601400498785968
            ]
        },
        {
            "positions": [
                -0.8726552122399575,
                -1.1602512349909626,
                2.032523475790371,
                -0.3916876374495092,
                0.43962314028449856,
                2.737153326539361
            ]
        },
        {
            "positions": [
                -0.9468552513241846,
                -1.146479261080699,
                2.026456938963891,
                -0.5400729776750731,
                0.44989101361206446,
                2.872906154292754
            ]
        },
        {
            "positions": [
                -1.0210552904084116,
                -1.1327072871704356,
                2.020390402137411,
                -0.688458317900637,
                0.46015888693963036,
                3.008658982046147
            ]
        },
        {
            "positions": [
                -1.0952553294926388,
                -1.118935313260172,
                2.014323865310931,
                -0.836843658126201,
                0.4704267602671962,
                3.14441180979954
            ]
        }
    ]
}