{
    "goal": {
        "global_pose": {
            "orientation": {
                "w": 0.7031023502349854,
                "x": -0.7110244035720825,
                "y": 0.007748599164187908,
                "z": 0.005598929710686207
            },
            "position": {
                "x": 0.11585023208521307,
                "y": 0.44412534475326537,
                "z": 0.3711530566215515
            }
        },
        "name": "move_to_auspresseinheit_A"
    },
    "id": "BFMT_move_to_auspresseinheit_A_91",
    "joint_names": [
        "shoulder_pan_joint",
        "shoulder_lift_joint",
        "elbow_joint",
        "wrist_1_joint",
        "wrist_2_joint",
        "wrist_3_joint"
    ],
    "metrics": {
        "cart_traj_len": 0.9620109741791094,
        "distance_elbow_joint": 0.17673132161428162,
        "distance_shoulder_lift_joint": 1.0926319123571153,
        "distance_shoulder_pan_joint": 1.650297901069928,
        "distance_wrist_1_joint": 0.6808382542050125,
        "distance_wrist_2_joint": 0.5150556787610854,
        "distance_wrist_3_joint": 0.2811776149147396,
        "smoothness": 1.0533398912587635,
        "time": 0.685613213,
        "traj_len": 2.0968387355545874,
        "weighted_distance": 2.4809235872387805
    },
    "planner": "BFMT",
    "start": {
        "state": {
            "elbow_joint": 2.4225746658250005,
            "shoulder_lift_joint": -1.3736534386056498,
            "shoulder_pan_joint": -0.3378633547517467,
            "wrist_1_joint": -1.0288598680537169,
            "wrist_2_joint": 1.233022673432363,
            "wrist_3_joint": -3.0940220416140027
        }
    },
    "waypoints": [
        {
            "positions": [
                -0.3378633547517467,
                -1.3736534386056498,
                2.4225746658250005,
                -1.0288598680537169,
                1.233022673432363,
                -3.0940220416140027
            ]
        },
        {
            "positions": [
                -0.39818134967670343,
                -1.536463784406097,
                2.4374567977679242,
                -1.0419365086402463,
                1.163390092070626,
                -3.126245102998212
            ]
        },
        {
            "positions": [
                -0.45849934460166014,
                -1.6992741302065444,
                2.452338929710848,
                -1.0550131492267758,
                1.0937575107088888,
                -3.1584681643824215
            ]
        },
        {
            "positions": [
                -0.5188173395266168,
                -1.8620844760069915,
                2.467221061653772,
                -1.0680897898133055,
                1.0241249293471517,
                -3.1906912257666304
            ]
        },
        {
            "positions": [
                -0.5791353344515735,
                -2.0248948218074387,
                2.482103193596696,
                -1.081166430399835,
                0.9544923479854145,
                -3.22291428715084
            ]
        },
        {
            "positions": [
                -0.6394533293765302,
                -2.187705167607886,
                2.4969853255396197,
                -1.0942430709863644,
                0.8848597666236774,
                -3.255137348535049
            ]
        },
        {
            "positions": [
                -0.44678076845579534,
                -2.147907998557189,
                2.4823680881253822,
                -1.006320920804598,
                0.8610179420590488,
                -3.237985590250236
            ]
        },
        {
            "positions": [
                -0.25410820753506047,
                -2.108110829506492,
                2.4677508507111447,
                -0.9183987706228316,
                0.8371761174944203,
                -3.2208338319654226
            ]
        },
        {
            "positions": [
                -0.061435646614325545,
                -2.068313660455795,
                2.4531336132969073,
                -0.8304766204410652,
                0.8133342929297918,
                -3.2036820736806093
            ]
        },
        {
            "positions": [
                0.13123691430640927,
                -2.028516491405098,
                2.43851637588267,
                -0.7425544702592988,
                0.7894924683651633,
                -3.186530315395796
            ]
        },
        {
            "positions": [
                0.3239094752271443,
                -1.9887193223544009,
                2.4238991384684323,
                -0.6546323200775322,
                0.7656506438005347,
                -3.1693785571109827
            ]
        },
        {
            "positions": [
                0.5165820361478791,
                -1.948922153303704,
                2.409281901054195,
                -0.5667101698957658,
                0.7418088192359062,
                -3.1522267988261694
            ]
        },
        {
            "positions": [
                0.709254597068614,
                -1.909124984253007,
                2.3946646636399573,
                -0.4787880197139994,
                0.7179669946712777,
                -3.135075040541356
            ]
        }
    ]
}