{
    "goal": {
        "global_pose": {
            "orientation": {
                "w": 0.7047431493862688,
                "x": -0.7094548369677653,
                "y": 0.0024358444001904,
                "z": -0.0022348060817251984
            },
            "position": {
                "x": -0.39052492380142206,
                "y": 0.3671506643295288,
                "z": 0.19426114857196808
            }
        },
        "name": "move_to_magneteinheit_D"
    },
    "id": "BFMT_move_to_magneteinheit_D_110",
    "joint_names": [
        "shoulder_pan_joint",
        "shoulder_lift_joint",
        "elbow_joint",
        "wrist_1_joint",
        "wrist_2_joint",
        "wrist_3_joint"
    ],
    "metrics": {
        "cart_traj_len": 3.654222234643312,
        "distance_elbow_joint": 3.129668234056153,
        "distance_shoulder_lift_joint": 1.631260482710961,
        "distance_shoulder_pan_joint": 2.8927652469529495,
        "distance_wrist_1_joint": 1.5627072546129857,
        "distance_wrist_2_joint": 1.451199831083892,
        "distance_wrist_3_joint": 3.1847722302894144,
        "smoothness": 0.14986695050817164,
        "time": 1.272739746,
        "traj_len": 3.721877655123332,
        "weighted_distance": 4.820355259312539
    },
    "planner": "BFMT",
    "start": {
        "state": {
            "elbow_joint": 0.749534889911806,
            "shoulder_lift_joint": -0.6476975780787326,
            "shoulder_pan_joint": -2.711696901376241,
            "wrist_1_joint": -0.07506478083263063,
            "wrist_2_joint": 0.43296659715538205,
            "wrist_3_joint": -3.14703540197715
        }
    },
    "waypoints": [
        {
            "positions": [
                -2.711696901376241,
                -0.6476975780787326,
                0.749534889911806,
                -0.07506478083263063,
                0.43296659715538205,
                -3.14703540197715
            ]
        },
        {
            "positions": [
                -2.7357092131426275,
                -0.7164770221889064,
                0.6893932198904196,
                -0.0020453081535585643,
                0.3722893533906946,
                -3.099188312390141
            ]
        },
        {
            "positions": [
                -2.759721524909014,
                -0.7852564662990802,
                0.6292515498690332,
                0.0709741645255135,
                0.31161210962600705,
                -3.0513412228031322
            ]
        },
        {
            "positions": [
                -2.659351109441765,
                -0.8191748039228913,
                0.5181511476950724,
                0.11953241805220387,
                0.2821670389994378,
                -2.988550858321082
            ]
        },
        {
            "positions": [
                -2.5589806939745157,
                -0.8530931415467026,
                0.40705074552111165,
                0.16809067157889424,
                0.25272196837286853,
                -2.925760493839032
            ]
        },
        {
            "positions": [
                -2.4586102785072668,
                -0.8870114791705137,
                0.2959503433471509,
                0.2166489251055846,
                0.22327689774629933,
                -2.8629701293569814
            ]
        },
        {
            "positions": [
                -2.358239863040018,
                -0.920929816794325,
                0.18484994117319015,
                0.26520717863227494,
                0.19383182711973007,
                -2.8001797648749314
            ]
        },
        {
            "positions": [
                -2.2578694475727685,
                -0.9548481544181361,
                0.07374953899922942,
                0.31376543215896535,
                0.1643867564931608,
                -2.737389400392881
            ]
        },
        {
            "positions": [
                -2.1574990321055196,
                -0.9887664920419472,
                -0.03735086317473135,
                0.36232368568565565,
                0.13494168586659158,
                -2.6745990359108305
            ]
        },
        {
            "positions": [
                -2.0571286166382707,
                -1.0226848296657585,
                -0.14845126534869224,
                0.41088193921234606,
                0.1054966152400223,
                -2.6118086714287805
            ]
        },
        {
            "positions": [
                -1.9567582011710218,
                -1.0566031672895697,
                -0.2595516675226529,
                0.45944019273903647,
                0.07605154461345306,
                -2.54901830694673
            ]
        },
        {
            "positions": [
                -1.8563877857037727,
                -1.0905215049133807,
                -0.3706520696966136,
                0.5079984462657268,
                0.046606473986883834,
                -2.48622794246468
            ]
        },
        {
            "positions": [
                -1.7560173702365236,
                -1.124439842537192,
                -0.48175247187057435,
                0.5565566997924172,
                0.017161403360314575,
                -2.4234375779826296
            ]
        },
        {
            "positions": [
                -1.6556469547692747,
                -1.1583581801610032,
                -0.5928528740445351,
                0.6051149533191076,
                -0.012283667266254683,
                -2.360647213500579
            ]
        },
        {
            "positions": [
                -1.5552765393020256,
                -1.1922765177848142,
                -0.7039532762184959,
                0.6536732068457979,
                -0.041728737892823886,
                -2.297856849018529
            ]
        },
        {
            "positions": [
                -1.4549061238347767,
                -1.2261948554086257,
                -0.8150536783924567,
                0.7022314603724883,
                -0.0711738085193932,
                -2.2350664845364787
            ]
        },
        {
            "positions": [
                -1.3545357083675276,
                -1.2601131930324367,
                -0.9261540805664177,
                0.7507897138991787,
                -0.10061887914596246,
                -2.1722761200544287
            ]
        },
        {
            "positions": [
                -1.2541652929002787,
                -1.2940315306562478,
                -1.0372544827403782,
                0.799347967425869,
                -0.13006394977253166,
                -2.1094857555723783
            ]
        },
        {
            "positions": [
                -1.1537948774330296,
                -1.3279498682800592,
                -1.148354884914339,
                0.8479062209525594,
                -0.15950902039910092,
                -2.046695391090328
            ]
        },
        {
            "positions": [
                -1.0534244619657804,
                -1.3618682059038703,
                -1.2594552870882998,
                0.8964644744792498,
                -0.18895409102567018,
                -1.9839050266082776
            ]
        },
        {
            "positions": [
                -0.9530540464985315,
                -1.3957865435276815,
                -1.3705556892622603,
                0.9450227280059401,
                -0.21839916165223938,
                -1.9211146621262276
            ]
        },
        {
            "positions": [
                -0.8526836310312824,
                -1.4297048811514927,
                -1.4816560914362211,
                0.9935809815326304,
                -0.2478442322788087,
                -1.8583242976441772
            ]
        },
        {
            "positions": [
                -0.7523132155640333,
                -1.4636232187753038,
                -1.592756493610182,
                1.0421392350593208,
                -0.2772893029053779,
                -1.795533933162127
            ]
        },
        {
            "positions": [
                -0.6519428000967844,
                -1.497541556399115,
                -1.7038568957841427,
                1.0906974885860112,
                -0.3067343735319471,
                -1.7327435686800767
            ]
        },
        {
            "positions": [
                -0.5515723846295355,
                -1.5314598940229263,
                -1.8149572979581035,
                1.1392557421127016,
                -0.3361794441585164,
                -1.6699532041980265
            ]
        },
        {
            "positions": [
                -0.45120196916228617,
                -1.5653782316467373,
                -1.9260577001320642,
                1.187813995639392,
                -0.3656245147850856,
                -1.607162839715976
            ]
        },
        {
            "positions": [
                -0.35083155369503727,
                -1.5992965692705485,
                -2.037158102306025,
                1.2363722491660822,
                -0.3950695854116548,
                -1.5443724752339258
            ]
        },
        {
            "positions": [
                -0.2504611382277885,
                -1.6332149068943598,
                -2.148258504479986,
                1.2849305026927726,
                -0.4245146560382241,
                -1.4815821107518756
            ]
        },
        {
            "positions": [
                -0.20028359998293174,
                -1.6827353501271323,
                -2.1987749306699227,
                1.3026315211926214,
                -0.3761889373213852,
                -1.3456665814425333
            ]
        },
        {
            "positions": [
                -0.150106061738075,
                -1.732255793359905,
                -2.2492913568598594,
                1.3203325396924703,
                -0.3278632186045463,
                -1.209751052133191
            ]
        },
        {
            "positions": [
                -0.09992852349321826,
                -1.7817762365926777,
                -2.2998077830497965,
                1.338033558192319,
                -0.27953749988770743,
                -1.0738355228238483
            ]
        },
        {
            "positions": [
                -0.04975098524836152,
                -1.8312966798254502,
                -2.350324209239733,
                1.3557345766921678,
                -0.23121178117086855,
                -0.937919993514506
            ]
        },
        {
            "positions": [
                -0.05607941273167735,
                -1.864264205621107,
                -2.3558725960206974,
                1.363969769095548,
                -0.20088669271847762,
                -0.8630608879413983
            ]
        },
        {
            "positions": [
                -0.08176774398691897,
                -1.9472029766548242,
                -2.3607247456454274,
                1.3887043100325094,
                -0.12686856980436967,
                -0.682901344690666
            ]
        },
        {
            "positions": [
                -0.10745607524216058,
                -2.0301417476885417,
                -2.365576895270157,
                1.4134388509694706,
                -0.05285044689026169,
                -0.5027418014399335
            ]
        },
        {
            "positions": [
                -0.13314440649740217,
                -2.113080518722259,
                -2.370429044894887,
                1.4381733919064321,
                0.021167676023846227,
                -0.32258225818920117
            ]
        },
        {
            "positions": [
                -0.15883273775264378,
                -2.1960192897559763,
                -2.3752811945196166,
                1.4629079328433934,
                0.09518579893795423,
                -0.1424227149384687
            ]
        },
        {
            "positions": [
                -0.1845210690078854,
                -2.2789580607896935,
                -2.3801333441443466,
                1.4876424737803549,
                0.16920392185206215,
                0.03773682831226361
            ]
        }
    ]
}