{
    "goal": {
        "global_pose": {
            "orientation": {
                "w": -0.00223480608172531,
                "x": 0.0024358444001904467,
                "y": 0.7094548369677653,
                "z": -0.704743149386269
            },
            "position": {
                "x": -0.37947507619857795,
                "y": -0.6371506643295288,
                "z": 0.19426114857196808
            }
        },
        "name": "move_to_magneteinheit_C"
    },
    "id": "BFMT_move_to_magneteinheit_C_139",
    "joint_names": [
        "shoulder_pan_joint",
        "shoulder_lift_joint",
        "elbow_joint",
        "wrist_1_joint",
        "wrist_2_joint",
        "wrist_3_joint"
    ],
    "metrics": {
        "cart_traj_len": 0.6757351934277388,
        "distance_elbow_joint": 0.2533145193378341,
        "distance_shoulder_lift_joint": 0.6718701513180758,
        "distance_shoulder_pan_joint": 0.8008761715055954,
        "distance_wrist_1_joint": 0.3604727500201097,
        "distance_wrist_2_joint": 0.7914524710852037,
        "distance_wrist_3_joint": 0.6947911345741735,
        "smoothness": 0.4516155937077929,
        "time": 0.636183255,
        "traj_len": 1.8901791443778528,
        "weighted_distance": 2.472707966601526
    },
    "planner": "BFMT",
    "start": {
        "state": {
            "elbow_joint": 1.9565354010623817,
            "shoulder_lift_joint": -1.4165861575791021,
            "shoulder_pan_joint": -1.6717766225146293,
            "wrist_1_joint": -0.5286633292919765,
            "wrist_2_joint": 1.472756589071564,
            "wrist_3_joint": -3.1238370188695823
        }
    },
    "waypoints": [
        {
            "positions": [
                -1.6717766225146293,
                -1.4165861575791021,
                1.9565354010623817,
                -0.5286633292919765,
                1.472756589071564,
                -3.1238370188695823
            ]
        },
        {
            "positions": [
                -1.8200972499544728,
                -1.469108173783137,
                1.991925859315759,
                -0.5227538426691221,
                1.4313178973304088,
                -3.0434193246186823
            ]
        },
        {
            "positions": [
                -1.968417877394316,
                -1.5216301899871723,
                2.027316317569136,
                -0.5168443560462677,
                1.3898792055892537,
                -2.9630016303677826
            ]
        },
        {
            "positions": [
                -2.1167385048341596,
                -1.5741522061912074,
                2.0627067758225133,
                -0.5109348694234134,
                1.3484405138480986,
                -2.882583936116883
            ]
        },
        {
            "positions": [
                -2.265059132274003,
                -1.6266742223952424,
                2.0980972340758908,
                -0.505025382800559,
                1.3070018221069435,
                -2.802166241865983
            ]
        },
        {
            "positions": [
                -2.3728084561094716,
                -1.6167882076863154,
                2.1114949719502967,
                -0.5305001829518861,
                1.226298106413903,
                -2.7853506365767213
            ]
        },
        {
            "positions": [
                -2.392777323691622,
                -1.5264089933277136,
                2.091823982260313,
                -0.5927721836273591,
                1.1172993087283944,
                -2.856611587032984
            ]
        },
        {
            "positions": [
                -2.4127461912737727,
                -1.4360297789691119,
                2.072152992570329,
                -0.6550441843028321,
                1.0083005110428858,
                -2.9278725374892463
            ]
        },
        {
            "positions": [
                -2.4327150588559237,
                -1.3456505646105104,
                2.052482002880345,
                -0.7173161849783052,
                0.8993017133573773,
                -2.999133487945509
            ]
        },
        {
            "positions": [
                -2.452683926438074,
                -1.2552713502519086,
                2.0328110131903614,
                -0.7795881856537782,
                0.7903029156718688,
                -3.070394438401771
            ]
        },
        {
            "positions": [
                -2.4726527940202248,
                -1.1648921358933069,
                2.0131400235003776,
                -0.8418601863292512,
                0.6813041179863603,
                -3.141655388858034
            ]
        }
    ]
}