{
    "goal": {
        "global_pose": {
            "orientation": {
                "w": -0.00223480608172531,
                "x": 0.0024358444001904467,
                "y": 0.7094548369677653,
                "z": -0.704743149386269
            },
            "position": {
                "x": 0.6205249238014221,
                "y": -0.6371506643295288,
                "z": 0.19426114857196808
            }
        },
        "name": "move_to_magneteinheit_B"
    },
    "id": "BFMT_move_to_magneteinheit_B_148",
    "joint_names": [
        "shoulder_pan_joint",
        "shoulder_lift_joint",
        "elbow_joint",
        "wrist_1_joint",
        "wrist_2_joint",
        "wrist_3_joint"
    ],
    "metrics": {
        "cart_traj_len": 1.3961688349400116,
        "distance_elbow_joint": 0.9536608234122401,
        "distance_shoulder_lift_joint": 0.7528617184741896,
        "distance_shoulder_pan_joint": 1.6211574833210247,
        "distance_wrist_1_joint": 0.30519896659163814,
        "distance_wrist_2_joint": 1.524010928950285,
        "distance_wrist_3_joint": 1.3221187188801422,
        "smoothness": 0.31515476255101443,
        "time": 0.777193785,
        "traj_len": 2.545389683256676,
        "weighted_distance": 3.3094494969604424
    },
    "planner": "BFMT",
    "start": {
        "state": {
            "elbow_joint": 2.6216224122426386,
            "shoulder_lift_joint": -1.4174107377796124,
            "shoulder_pan_joint": 0.7066234856936794,
            "wrist_1_joint": 1.9546482284002225,
            "wrist_2_joint": -0.7096286983471962,
            "wrist_3_joint": 0.005740856962016249
        }
    },
    "waypoints": [
        {
            "positions": [
                0.7066234856936794,
                -1.4174107377796124,
                2.6216224122426386,
                1.9546482284002225,
                -0.7096286983471962,
                0.005740856962016249
            ]
        },
        {
            "positions": [
                0.5581660026105795,
                -1.4041724870753927,
                2.595595763199181,
                1.9910029821424875,
                -0.7388170331965757,
                -0.08853047478903574
            ]
        },
        {
            "positions": [
                0.4097085195274795,
                -1.3909342363711732,
                2.5695691141557235,
                2.0273577358847525,
                -0.7680053680459551,
                -0.1828018065400877
            ]
        },
        {
            "positions": [
                0.2612510364443795,
                -1.3776959856669535,
                2.543542465112266,
                2.063712489627018,
                -0.7971937028953344,
                -0.27707313829113966
            ]
        },
        {
            "positions": [
                0.11279355336127961,
                -1.3644577349627338,
                2.517515816068809,
                2.1000672433692826,
                -0.8263820377447139,
                -0.3713444700421917
            ]
        },
        {
            "positions": [
                -0.03566392972182042,
                -1.3512194842585141,
                2.4914891670253514,
                2.136421997111548,
                -0.8555703725940933,
                -0.4656158017932437
            ]
        },
        {
            "positions": [
                -0.18412141280492034,
                -1.3379812335542947,
                2.465462517981894,
                2.1727767508538127,
                -0.8847587074434727,
                -0.5598871335442956
            ]
        },
        {
            "positions": [
                -0.33257889588802036,
                -1.324742982850075,
                2.4394358689384363,
                2.209131504596078,
                -0.9139470422928522,
                -0.6541584652953477
            ]
        },
        {
            "positions": [
                -0.38548390513704994,
                -1.264725349800561,
                2.3693018434740694,
                2.2045209872873706,
                -1.0339190954750912,
                -0.5939567019660043
            ]
        },
        {
            "positions": [
                -0.4383889143860795,
                -1.2047077167510474,
                2.2991678180097024,
                2.199910469978663,
                -1.1538911486573302,
                -0.5337549386366607
            ]
        },
        {
            "positions": [
                -0.4912939236351091,
                -1.1446900837015335,
                2.229033792545335,
                2.1952999526699553,
                -1.273863201839569,
                -0.4735531753073172
            ]
        },
        {
            "positions": [
                -0.5441989328841387,
                -1.0846724506520196,
                2.158899767080968,
                2.190689435361248,
                -1.3938352550218083,
                -0.41335141197797376
            ]
        },
        {
            "positions": [
                -0.5971039421331683,
                -1.0246548176025059,
                2.088765741616601,
                2.1860789180525404,
                -1.513807308204047,
                -0.35314964864863024
            ]
        },
        {
            "positions": [
                -0.6500089513821978,
                -0.964637184552992,
                2.018631716152234,
                2.181468400743833,
                -1.633779361386286,
                -0.2929478853192868
            ]
        },
        {
            "positions": [
                -0.7029139606312275,
                -0.9046195515034781,
                1.9484976906878668,
                2.1768578834351255,
                -1.7537514145685251,
                -0.23274612198994327
            ]
        },
        {
            "positions": [
                -0.7558189698802571,
                -0.8446019184539643,
                1.8783636652234996,
                2.172247366126418,
                -1.8737234677507644,
                -0.17254435866059975
            ]
        },
        {
            "positions": [
                -0.8087239791292866,
                -0.7845842854044504,
                1.8082296397591326,
                2.1676368488177102,
                -1.9936955209330032,
                -0.11234259533125623
            ]
        },
        {
            "positions": [
                -0.8616289883783161,
                -0.7245666523549367,
                1.7380956142947657,
                2.163026331509003,
                -2.113667574115242,
                -0.052140832001912774
            ]
        },
        {
            "positions": [
                -0.9145339976273458,
                -0.6645490193054228,
                1.6679615888303985,
                2.1584158142002954,
                -2.2336396272974812,
                0.008060931327430725
            ]
        }
    ]
}