{
    "goal": {
        "global_pose": {
            "orientation": {
                "w": 0.7047431468963623,
                "x": -0.7094548344612122,
                "y": 0.0024358443915843964,
                "z": -0.0022348060738295317
            },
            "position": {
                "x": 0.6094750761985779,
                "y": 0.3671506643295288,
                "z": 0.19426114857196808
            }
        },
        "name": "move_to_magneteinheit_A"
    },
    "id": "BFMT_move_to_magneteinheit_A_134",
    "joint_names": [
        "shoulder_pan_joint",
        "shoulder_lift_joint",
        "elbow_joint",
        "wrist_1_joint",
        "wrist_2_joint",
        "wrist_3_joint"
    ],
    "metrics": {
        "cart_traj_len": 3.4100580787278605,
        "distance_elbow_joint": 3.8830840588313,
        "distance_shoulder_lift_joint": 0.31894828608484693,
        "distance_shoulder_pan_joint": 2.9274033569182034,
        "distance_wrist_1_joint": 0.8002978027688105,
        "distance_wrist_2_joint": 1.6978531178661507,
        "distance_wrist_3_joint": 3.6598881303562236,
        "smoothness": 0.04886163829720644,
        "time": 1.057111901,
        "traj_len": 3.645198863275574,
        "weighted_distance": 4.806807873648887
    },
    "planner": "BFMT",
    "start": {
        "state": {
            "elbow_joint": -1.9196185241190666,
            "shoulder_lift_joint": -1.2443396400964142,
            "shoulder_pan_joint": 2.6996025414629847,
            "wrist_1_joint": -1.5485510000780065,
            "wrist_2_joint": -1.5709468930060704,
            "wrist_3_joint": 0.4420197071253992
        }
    },
    "waypoints": [
        {
            "positions": [
                2.6996025414629847,
                -1.2443396400964142,
                -1.9196185241190666,
                -1.5485510000780065,
                -1.5709468930060704,
                0.4420197071253992
            ]
        },
        {
            "positions": [
                2.5849112553440836,
                -1.2487226518887156,
                -1.8652611656465103,
                -1.5190625803238715,
                -1.5318266916610108,
                0.29258514391240426
            ]
        },
        {
            "positions": [
                2.4702199692251825,
                -1.253105663681017,
                -1.8109038071739538,
                -1.4895741605697363,
                -1.4927064903159513,
                0.14315058069940934
            ]
        },
        {
            "positions": [
                2.3555286831062814,
                -1.2574886754733183,
                -1.7565464487013975,
                -1.4600857408156014,
                -1.4535862889708917,
                -0.00628398251358564
            ]
        },
        {
            "positions": [
                2.24083739698738,
                -1.2618716872656197,
                -1.7021890902288412,
                -1.4305973210614664,
                -1.4144660876258321,
                -0.1557185457265805
            ]
        },
        {
            "positions": [
                2.1261461108684787,
                -1.266254699057921,
                -1.647831731756285,
                -1.4011089013073315,
                -1.3753458862807726,
                -0.3051531089395756
            ]
        },
        {
            "positions": [
                2.0114548247495776,
                -1.2706377108502225,
                -1.5934743732837284,
                -1.3716204815531963,
                -1.336225684935713,
                -0.45458767215257045
            ]
        },
        {
            "positions": [
                1.8967635386306765,
                -1.2750207226425239,
                -1.5391170148111721,
                -1.3421320617990613,
                -1.2971054835906535,
                -0.6040222353655654
            ]
        },
        {
            "positions": [
                1.7820722525117754,
                -1.2794037344348252,
                -1.4847596563386158,
                -1.3126436420449263,
                -1.2579852822455941,
                -0.7534567985785602
            ]
        },
        {
            "positions": [
                1.667380966392874,
                -1.2837867462271266,
                -1.4304022978660593,
                -1.2831552222907914,
                -1.2188650809005344,
                -0.9028913617915554
            ]
        },
        {
            "positions": [
                1.5526896802739727,
                -1.288169758019428,
                -1.376044939393503,
                -1.2536668025366562,
                -1.1797448795554748,
                -1.0523259250045505
            ]
        },
        {
            "positions": [
                1.4379983941550718,
                -1.2925527698117294,
                -1.3216875809209467,
                -1.2241783827825212,
                -1.1406246782104152,
                -1.2017604882175452
            ]
        },
        {
            "positions": [
                1.3233071080361705,
                -1.2969357816040308,
                -1.2673302224483902,
                -1.1946899630283863,
                -1.101504476865356,
                -1.35119505143054
            ]
        },
        {
            "positions": [
                1.2086158219172694,
                -1.301318793396332,
                -1.2129728639758341,
                -1.165201543274251,
                -1.0623842755202961,
                -1.5006296146435347
            ]
        },
        {
            "positions": [
                1.093924535798368,
                -1.3057018051886333,
                -1.1586155055032776,
                -1.135713123520116,
                -1.0232640741752368,
                -1.65006417785653
            ]
        },
        {
            "positions": [
                0.9792332496794669,
                -1.3100848169809347,
                -1.1042581470307211,
                -1.1062247037659811,
                -0.9841438728301771,
                -1.7994987410695247
            ]
        },
        {
            "positions": [
                0.8645419635605658,
                -1.314467828773236,
                -1.049900788558165,
                -1.0767362840118462,
                -0.9450236714851177,
                -1.9489333042825194
            ]
        },
        {
            "positions": [
                0.7498506774416644,
                -1.3188508405655375,
                -0.9955434300856085,
                -1.0472478642577112,
                -0.905903470140058,
                -2.0983678674955146
            ]
        },
        {
            "positions": [
                0.6351593913227633,
                -1.3232338523578389,
                -0.9411860716130522,
                -1.017759444503576,
                -0.8667832687949986,
                -2.24780243070851
            ]
        },
        {
            "positions": [
                0.5204681052038622,
                -1.3276168641501402,
                -0.8868287131404959,
                -0.9882710247494411,
                -0.827663067449939,
                -2.3972369939215046
            ]
        },
        {
            "positions": [
                0.40577681908496066,
                -1.3319998759424416,
                -0.8324713546679394,
                -0.958782604995306,
                -0.7885428661048793,
                -2.5466715571344998
            ]
        },
        {
            "positions": [
                0.29108553296606,
                -1.336382887734743,
                -0.7781139961953831,
                -0.929294185241171,
                -0.7494226647598199,
                -2.6961061203474945
            ]
        },
        {
            "positions": [
                0.17639424684715888,
                -1.3407658995270444,
                -0.7237566377228268,
                -0.899805765487036,
                -0.7103024634147603,
                -2.8455406835604893
            ]
        },
        {
            "positions": [
                0.06170296072825732,
                -1.3451489113193458,
                -0.6693992792502703,
                -0.8703173457329009,
                -0.6711822620697008,
                -2.9949752467734845
            ]
        },
        {
            "positions": [
                -0.052988325390643735,
                -1.3495319231116472,
                -0.615041920777714,
                -0.8408289259787659,
                -0.6320620607246412,
                -3.1444098099864792
            ]
        },
        {
            "positions": [
                -0.03628109339545617,
                -1.3285243309243007,
                -0.36110849826391334,
                -0.8316400854096656,
                -0.5571914118478284,
                -3.15173643284122
            ]
        },
        {
            "positions": [
                -0.0195738614002686,
                -1.307516738736954,
                -0.10717507575011265,
                -0.8224512448405652,
                -0.4823207629710155,
                -3.1590630556959605
            ]
        },
        {
            "positions": [
                -0.0028666294050810406,
                -1.2865091465496075,
                0.14675834676368793,
                -0.8132624042714649,
                -0.4074501140942027,
                -3.166389678550701
            ]
        },
        {
            "positions": [
                0.013840602590106534,
                -1.265501554362261,
                0.40069176927748873,
                -0.8040735637023646,
                -0.3325794652173898,
                -3.1737163014054417
            ]
        },
        {
            "positions": [
                0.030547834585294094,
                -1.2444939621749143,
                0.6546251917912893,
                -0.7948847231332643,
                -0.25770881634057696,
                -3.1810429242601823
            ]
        },
        {
            "positions": [
                0.047255066580481654,
                -1.2234863699875678,
                0.9085586143050899,
                -0.7856958825641639,
                -0.18283816746376413,
                -3.188369547114923
            ]
        },
        {
            "positions": [
                0.06396229857566921,
                -1.2024787778002213,
                1.1624920368188905,
                -0.7765070419950636,
                -0.1079675185869513,
                -3.1956961699696635
            ]
        },
        {
            "positions": [
                0.0806695305708568,
                -1.1814711856128746,
                1.4164254593326915,
                -0.7673182014259633,
                -0.033096869710138366,
                -3.203022792824404
            ]
        },
        {
            "positions": [
                0.09737676256604436,
                -1.160463593425528,
                1.6703588818464918,
                -0.7581293608568629,
                0.04177377916667446,
                -3.210349415679145
            ]
        },
        {
            "positions": [
                0.11408399456123192,
                -1.1394560012381816,
                1.9242923043602926,
                -0.7489405202877626,
                0.1166444280434873,
                -3.2176760385338854
            ]
        },
        {
            "positions": [
                0.12182416467392929,
                -1.1357759200420332,
                1.9634655347122334,
                -0.748253197309196,
                0.12690622486007963,
                -3.2178684232308243
            ]
        }
    ]
}