{
    "goal": {
        "global_pose": {
            "orientation": {
                "w": -0.00223480608172531,
                "x": 0.0024358444001904467,
                "y": 0.7094548369677653,
                "z": -0.704743149386269
            },
            "position": {
                "x": -0.37947507619857795,
                "y": -0.6371506643295288,
                "z": 0.19426114857196808
            }
        },
        "name": "move_to_magneteinheit_C"
    },
    "id": "BFMT_move_to_magneteinheit_C_63",
    "joint_names": [
        "shoulder_pan_joint",
        "shoulder_lift_joint",
        "elbow_joint",
        "wrist_1_joint",
        "wrist_2_joint",
        "wrist_3_joint"
    ],
    "metrics": {
        "cart_traj_len": 0.6225079724511915,
        "distance_elbow_joint": 0.13643265484587008,
        "distance_shoulder_lift_joint": 0.25273379619990854,
        "distance_shoulder_pan_joint": 0.8005167746712478,
        "distance_wrist_1_joint": 1.5593035693610275,
        "distance_wrist_2_joint": 0.7876255378348989,
        "distance_wrist_3_joint": 0.6472946060332863,
        "smoothness": 0.7829228832973167,
        "time": 0.968955616,
        "traj_len": 2.0454600800177545,
        "weighted_distance": 2.7973961568231154
    },
    "planner": "BFMT",
    "start": {
        "state": {
            "elbow_joint": 1.9565354010623817,
            "shoulder_lift_joint": -1.4165861575791021,
            "shoulder_pan_joint": -1.6717766225146293,
            "wrist_1_joint": -0.5286633292919765,
            "wrist_2_joint": 1.472756589071564,
            "wrist_3_joint": -3.1238370188695823
        }
    },
    "waypoints": [
        {
            "positions": [
                -1.6717766225146293,
                -1.4165861575791021,
                1.9565354010623817,
                -0.5286633292919765,
                1.472756589071564,
                -3.1238370188695823
            ]
        },
        {
            "positions": [
                -1.7269877689655637,
                -1.4128377165596515,
                1.982798060143556,
                -0.38640402450337075,
                1.3553389198938426,
                -3.124512535722013
            ]
        },
        {
            "positions": [
                -1.7821989154164979,
                -1.409089275540201,
                2.0090607192247303,
                -0.2441447197147651,
                1.2379212507161212,
                -3.125188052574444
            ]
        },
        {
            "positions": [
                -1.8374100618674323,
                -1.4053408345207503,
                2.035323378305905,
                -0.10188541492615938,
                1.1205035815384,
                -3.125863569426875
            ]
        },
        {
            "positions": [
                -1.9592361765391293,
                -1.3739918277163827,
                2.0384255490271066,
                -0.06058858426237218,
                1.0425528763187255,
                -3.0651679235388194
            ]
        },
        {
            "positions": [
                -2.0810622912108263,
                -1.342642820912015,
                2.041527719748308,
                -0.019291753598584982,
                0.9646021710990513,
                -3.0044722776507635
            ]
        },
        {
            "positions": [
                -2.202888405882523,
                -1.3112938141076473,
                2.0446298904695097,
                0.02200507706520219,
                0.8866514658793769,
                -2.943776631762708
            ]
        },
        {
            "positions": [
                -2.32471452055422,
                -1.2799448073032795,
                2.047732061190711,
                0.06330190772898941,
                0.8087007606597026,
                -2.8830809858746522
            ]
        },
        {
            "positions": [
                -2.446540635225917,
                -1.248595800498912,
                2.050834231911913,
                0.10459873839277659,
                0.7307500554400284,
                -2.822385339986597
            ]
        },
        {
            "positions": [
                -2.452978825715907,
                -1.2274099407189825,
                2.040300775912828,
                -0.12691163702629202,
                0.7193453043891875,
                -2.9078327964955255
            ]
        },
        {
            "positions": [
                -2.4594170162058973,
                -1.2062240809390528,
                2.029767319913743,
                -0.35842201244536065,
                0.7079405533383467,
                -2.9932802530044547
            ]
        },
        {
            "positions": [
                -2.465855206695887,
                -1.185038221159123,
                2.0192338639146588,
                -0.5899323878644293,
                0.6965358022875059,
                -3.078727709513384
            ]
        },
        {
            "positions": [
                -2.472293397185877,
                -1.1638523613791936,
                2.008700407915574,
                -0.8214427632834979,
                0.6851310512366651,
                -3.1641751660223125
            ]
        }
    ]
}