{
    "goal": {
        "global_pose": {
            "orientation": {
                "w": 0.7031023502349854,
                "x": -0.7110244035720825,
                "y": 0.007748599164187908,
                "z": 0.005598929710686207
            },
            "position": {
                "x": 0.11585023208521307,
                "y": 0.44412534475326537,
                "z": 0.3711530566215515
            }
        },
        "name": "move_to_auspresseinheit_A"
    },
    "id": "BFMT_move_to_auspresseinheit_A_50",
    "joint_names": [
        "shoulder_pan_joint",
        "shoulder_lift_joint",
        "elbow_joint",
        "wrist_1_joint",
        "wrist_2_joint",
        "wrist_3_joint"
    ],
    "metrics": {
        "cart_traj_len": 0.7172838792164894,
        "distance_elbow_joint": 0.2827857049409812,
        "distance_shoulder_lift_joint": 0.5338612527874207,
        "distance_shoulder_pan_joint": 1.4101878539681443,
        "distance_wrist_1_joint": 0.5540622781989001,
        "distance_wrist_2_joint": 0.5317029905460587,
        "distance_wrist_3_joint": 0.9265476001146058,
        "smoothness": 1.0136589603738957,
        "time": 0.6460495850000001,
        "traj_len": 2.058919056339057,
        "weighted_distance": 2.679180499617426
    },
    "planner": "BFMT",
    "start": {
        "state": {
            "elbow_joint": 2.4225746658250005,
            "shoulder_lift_joint": -1.3736534386056498,
            "shoulder_pan_joint": -0.3378633547517467,
            "wrist_1_joint": -1.0288598680537169,
            "wrist_2_joint": 1.233022673432363,
            "wrist_3_joint": -3.0940220416140027
        }
    },
    "waypoints": [
        {
            "positions": [
                -0.3378633547517467,
                -1.3736534386056498,
                2.4225746658250005,
                -1.0288598680537169,
                1.233022673432363,
                -3.0940220416140027
            ]
        },
        {
            "positions": [
                -0.38362191018865244,
                -1.4052940098792972,
                2.454268446009416,
                -0.985085630847746,
                1.1267468969244414,
                -2.981715658059845
            ]
        },
        {
            "positions": [
                -0.4293804656255582,
                -1.4369345811529448,
                2.485962226193832,
                -0.9413113936417752,
                1.0204711204165196,
                -2.8694092745056876
            ]
        },
        {
            "positions": [
                -0.4751390210624639,
                -1.4685751524265922,
                2.517656006378248,
                -0.8975371564358043,
                0.9141953439085979,
                -2.7571028909515305
            ]
        },
        {
            "positions": [
                -0.5208975764993696,
                -1.5002157237002396,
                2.5493497865626633,
                -0.8537629192298335,
                0.8079195674006763,
                -2.644796507397373
            ]
        },
        {
            "positions": [
                -0.3455899147535808,
                -1.5584012905135012,
                2.5270625602479035,
                -0.7996250150334026,
                0.7926910124700517,
                -2.7129853739542265
            ]
        },
        {
            "positions": [
                -0.17028225300779204,
                -1.6165868573267628,
                2.5047753339331438,
                -0.7454871108369716,
                0.7774624575394271,
                -2.7811742405110804
            ]
        },
        {
            "positions": [
                0.005025408737996728,
                -1.6747724241400244,
                2.482488107618384,
                -0.6913492066405407,
                0.7622339026088025,
                -2.849363107067934
            ]
        },
        {
            "positions": [
                0.18033307048378555,
                -1.7329579909532857,
                2.4602008813036242,
                -0.6372113024441097,
                0.7470053476781781,
                -2.917551973624788
            ]
        },
        {
            "positions": [
                0.3556407322295744,
                -1.7911435577665473,
                2.4379136549888645,
                -0.5830733982476787,
                0.7317767927475535,
                -2.9857408401816414
            ]
        },
        {
            "positions": [
                0.5309483939753631,
                -1.849329124579809,
                2.4156264286741047,
                -0.5289354940512478,
                0.7165482378169289,
                -3.0539297067384954
            ]
        },
        {
            "positions": [
                0.7062560557211519,
                -1.9075146913930705,
                2.393339202359345,
                -0.4747975898548168,
                0.7013196828863043,
                -3.122118573295349
            ]
        }
    ]
}