{
    "goal": {
        "global_pose": {
            "orientation": {
                "w": -0.00223480608172531,
                "x": 0.0024358444001904467,
                "y": 0.7094548369677653,
                "z": -0.704743149386269
            },
            "position": {
                "x": 0.6205249238014221,
                "y": -0.6371506643295288,
                "z": 0.19426114857196808
            }
        },
        "name": "move_to_magneteinheit_B"
    },
    "id": "BFMT_move_to_magneteinheit_B_51",
    "joint_names": [
        "shoulder_pan_joint",
        "shoulder_lift_joint",
        "elbow_joint",
        "wrist_1_joint",
        "wrist_2_joint",
        "wrist_3_joint"
    ],
    "metrics": {
        "cart_traj_len": 3.1701685862000657,
        "distance_elbow_joint": 4.292877010465884,
        "distance_shoulder_lift_joint": 1.0653909327954487,
        "distance_shoulder_pan_joint": 2.168984880732737,
        "distance_wrist_1_joint": 1.0072509029458485,
        "distance_wrist_2_joint": 1.1796278513519403,
        "distance_wrist_3_joint": 0.2398437422186372,
        "smoothness": 0.05253117746407244,
        "time": 0.820282766,
        "traj_len": 3.1549921268539634,
        "weighted_distance": 3.552540155894872
    },
    "planner": "BFMT",
    "start": {
        "state": {
            "elbow_joint": 2.6216224122426386,
            "shoulder_lift_joint": -1.4174107377796124,
            "shoulder_pan_joint": 0.7066234856936794,
            "wrist_1_joint": 1.9546482284002225,
            "wrist_2_joint": -0.7096286983471962,
            "wrist_3_joint": 0.005740856962016249
        }
    },
    "waypoints": [
        {
            "positions": [
                0.7066234856936794,
                -1.4174107377796124,
                2.6216224122426386,
                1.9546482284002225,
                -0.7096286983471962,
                0.005740856962016249
            ]
        },
        {
            "positions": [
                0.8359459206595015,
                -1.4758304520587286,
                2.624158393717309,
                1.968201101922241,
                -0.7040625012872643,
                0.023029506551221088
            ]
        },
        {
            "positions": [
                0.9652683556253234,
                -1.534250166337845,
                2.6266943751919793,
                1.9817539754442597,
                -0.6984963042273326,
                0.04031815614042593
            ]
        },
        {
            "positions": [
                1.0803406254747618,
                -1.5838670485894653,
                2.457231346385883,
                1.9772485265204445,
                -0.6748446551234267,
                0.04636345918353142
            ]
        },
        {
            "positions": [
                1.1954128953242003,
                -1.6334839308410856,
                2.287768317579786,
                1.9727430775966295,
                -0.6511930060195209,
                0.05240876222663691
            ]
        },
        {
            "positions": [
                1.3104851651736389,
                -1.6831008130927059,
                2.1183052887736893,
                1.9682376286728145,
                -0.6275413569156151,
                0.0584540652697424
            ]
        },
        {
            "positions": [
                1.4255574350230773,
                -1.7327176953443262,
                1.9488422599675927,
                1.9637321797489993,
                -0.6038897078117093,
                0.06449936831284789
            ]
        },
        {
            "positions": [
                1.540629704872516,
                -1.7823345775959467,
                1.7793792311614958,
                1.959226730825184,
                -0.5802380587078034,
                0.07054467135595338
            ]
        },
        {
            "positions": [
                1.6557019747219544,
                -1.831951459847567,
                1.6099162023553992,
                1.954721281901369,
                -0.5565864096038976,
                0.07658997439905887
            ]
        },
        {
            "positions": [
                1.7707742445713928,
                -1.8815683420991873,
                1.4404531735493025,
                1.950215832977554,
                -0.5329347604999918,
                0.08263527744216437
            ]
        },
        {
            "positions": [
                1.8858465144208312,
                -1.9311852243508076,
                1.270990144743206,
                1.9457103840537389,
                -0.509283111396086,
                0.08868058048526986
            ]
        },
        {
            "positions": [
                2.0009187842702696,
                -1.980802106602428,
                1.101527115937109,
                1.9412049351299236,
                -0.48563146229218007,
                0.09472588352837535
            ]
        },
        {
            "positions": [
                2.115991054119708,
                -2.0304189888540485,
                0.9320640871310124,
                1.9366994862061087,
                -0.46197981318827425,
                0.10077118657148085
            ]
        },
        {
            "positions": [
                2.2310633239691464,
                -2.0800358711056686,
                0.7626010583249156,
                1.9321940372822937,
                -0.4383281640843684,
                0.10681648961458633
            ]
        },
        {
            "positions": [
                2.346135593818585,
                -2.129652753357289,
                0.5931380295188191,
                1.9276885883584784,
                -0.4146765149804626,
                0.11286179265769182
            ]
        },
        {
            "positions": [
                2.4612078636680237,
                -2.179269635608909,
                0.4236750007127221,
                1.9231831394346632,
                -0.39102486587655677,
                0.11890709570079731
            ]
        },
        {
            "positions": [
                2.576280133517462,
                -2.2288865178605297,
                0.2542119719066256,
                1.9186776905108482,
                -0.36737321677265095,
                0.1249523987439028
            ]
        },
        {
            "positions": [
                2.623636948976881,
                -2.2510603036168106,
                0.03360116630133986,
                1.8903853346116903,
                -0.3311982518315394,
                0.11878809060718064
            ]
        },
        {
            "positions": [
                2.6709937644363,
                -2.2732340893730916,
                -0.18700963930394587,
                1.8620929787125324,
                -0.29502328689042784,
                0.11262378247045848
            ]
        },
        {
            "positions": [
                2.718350579895719,
                -2.295407875129373,
                -0.40762044490923155,
                1.8338006228133745,
                -0.2588483219493163,
                0.10645947433373631
            ]
        },
        {
            "positions": [
                2.765707395355138,
                -2.317581660885654,
                -0.6282312505145173,
                1.8055082669142166,
                -0.22267335700820476,
                0.10029516619701415
            ]
        },
        {
            "positions": [
                2.768488880960588,
                -2.330774592551895,
                -0.837732112489029,
                1.7396291759914477,
                -0.16102121243565407,
                0.0875507644397768
            ]
        },
        {
            "positions": [
                2.7622582716743844,
                -2.348756057772347,
                -1.0172281918039614,
                1.6495496949113861,
                -0.08100721101113531,
                0.07427945844762066
            ]
        },
        {
            "positions": [
                2.756027662388181,
                -2.366737522992799,
                -1.1967242711188937,
                1.5594702138313243,
                -0.0009932095866165558,
                0.06100815245546451
            ]
        },
        {
            "positions": [
                2.7497970531019775,
                -2.384718988213251,
                -1.376220350433826,
                1.4693907327512628,
                0.0790207918379022,
                0.04773684646330837
            ]
        },
        {
            "positions": [
                2.743566443815774,
                -2.4027004534337033,
                -1.5557164297487585,
                1.3793112516712012,
                0.15903479326242093,
                0.034465540471152224
            ]
        },
        {
            "positions": [
                2.7342576686677016,
                -2.412243238033229,
                -1.5838210747065022,
                1.3318401418646257,
                0.1985652641714666,
                0.030081721162435536
            ]
        },
        {
            "positions": [
                2.7137084065874477,
                -2.4322685423185684,
                -1.6101696353504533,
                1.2374145338324376,
                0.2763063541070474,
                0.022545385621435522
            ]
        },
        {
            "positions": [
                2.6931591445071943,
                -2.452293846603908,
                -1.6365181959944044,
                1.1429889258002492,
                0.35404744404262817,
                0.015009050080435508
            ]
        },
        {
            "positions": [
                2.6613693954947597,
                -2.482801670575061,
                -1.6611106723245628,
                1.0016088195424484,
                0.46999915300474404,
                0.004320198307152169
            ]
        }
    ]
}