{
    "goal": {
        "global_pose": {
            "orientation": {
                "w": 0.7047431493862688,
                "x": -0.7094548369677653,
                "y": 0.0024358444001904,
                "z": -0.0022348060817251984
            },
            "position": {
                "x": -0.39052492380142206,
                "y": 0.3671506643295288,
                "z": 0.19426114857196808
            }
        },
        "name": "move_to_magneteinheit_D"
    },
    "id": "BFMT_move_to_magneteinheit_D_85",
    "joint_names": [
        "shoulder_pan_joint",
        "shoulder_lift_joint",
        "elbow_joint",
        "wrist_1_joint",
        "wrist_2_joint",
        "wrist_3_joint"
    ],
    "metrics": {
        "cart_traj_len": 4.044808619748004,
        "distance_elbow_joint": 3.6217851508875745,
        "distance_shoulder_lift_joint": 1.10436868866427,
        "distance_shoulder_pan_joint": 2.7300651631765933,
        "distance_wrist_1_joint": 2.751190307962501,
        "distance_wrist_2_joint": 0.9628339993005541,
        "distance_wrist_3_joint": 6.345563913541553,
        "smoothness": 0.1515589926658612,
        "time": 1.187695828,
        "traj_len": 4.185189030800526,
        "weighted_distance": 5.8241702720541415
    },
    "planner": "BFMT",
    "start": {
        "state": {
            "elbow_joint": 0.749534889911806,
            "shoulder_lift_joint": -0.6476975780787326,
            "shoulder_pan_joint": -2.711696901376241,
            "wrist_1_joint": -0.07506478083263063,
            "wrist_2_joint": 0.43296659715538205,
            "wrist_3_joint": -3.14703540197715
        }
    },
    "waypoints": [
        {
            "positions": [
                -2.711696901376241,
                -0.6476975780787326,
                0.749534889911806,
                -0.07506478083263063,
                0.43296659715538205,
                -3.14703540197715
            ]
        },
        {
            "positions": [
                -2.728584932809215,
                -0.6887670526740207,
                0.7860473776941166,
                -0.10100599606036592,
                0.4295853222800932,
                -2.93303795337567
            ]
        },
        {
            "positions": [
                -2.7454729642421882,
                -0.7298365272693088,
                0.8225598654764273,
                -0.1269472112881012,
                0.4262040474048044,
                -2.7190405047741906
            ]
        },
        {
            "positions": [
                -2.762360995675162,
                -0.7709060018645969,
                0.8590723532587381,
                -0.1528884265158365,
                0.4228227725295156,
                -2.5050430561727106
            ]
        },
        {
            "positions": [
                -2.779249027108136,
                -0.811975476459885,
                0.8955848410410487,
                -0.1788296417435718,
                0.4194414976542268,
                -2.291045607571231
            ]
        },
        {
            "positions": [
                -2.796137058541109,
                -0.8530449510551731,
                0.9320973288233594,
                -0.2047708569713071,
                0.41606022277893795,
                -2.0770481589697507
            ]
        },
        {
            "positions": [
                -2.813025089974083,
                -0.8941144256504612,
                0.9686098166056701,
                -0.23071207219904238,
                0.4126789479036491,
                -1.8630507103682712
            ]
        },
        {
            "positions": [
                -2.7425359261400093,
                -0.9122771153027409,
                0.8783841051433622,
                -0.3129753218464335,
                0.41931751636445963,
                -1.742550084649271
            ]
        },
        {
            "positions": [
                -2.6720467623059356,
                -0.9304398049550205,
                0.7881583936810543,
                -0.3952385714938247,
                0.42595608482527014,
                -1.6220494589302707
            ]
        },
        {
            "positions": [
                -2.601557598471862,
                -0.9486024946073003,
                0.6979326822187464,
                -0.47750182114121575,
                0.43259465328608065,
                -1.5015488332112708
            ]
        },
        {
            "positions": [
                -2.5310684346377883,
                -0.9667651842595799,
                0.6077069707564384,
                -0.5597650707886069,
                0.43923322174689117,
                -1.3810482074922705
            ]
        },
        {
            "positions": [
                -2.4605792708037146,
                -0.9849278739118597,
                0.5174812592941305,
                -0.642028320435998,
                0.44587179020770173,
                -1.2605475817732703
            ]
        },
        {
            "positions": [
                -2.3900901069696405,
                -1.0030905635641394,
                0.4272555478318226,
                -0.7242915700833892,
                0.45251035866851225,
                -1.1400469560542703
            ]
        },
        {
            "positions": [
                -2.319600943135567,
                -1.0212532532164191,
                0.33702983636951467,
                -0.8065548197307804,
                0.45914892712932276,
                -1.0195463303352699
            ]
        },
        {
            "positions": [
                -2.249111779301493,
                -1.0394159428686987,
                0.24680412490720682,
                -0.8888180693781715,
                0.46578749559013327,
                -0.8990457046162698
            ]
        },
        {
            "positions": [
                -2.1786226154674195,
                -1.0575786325209784,
                0.15657841344489887,
                -0.9710813190255625,
                0.4724260640509438,
                -0.7785450788972696
            ]
        },
        {
            "positions": [
                -2.108133451633346,
                -1.0757413221732581,
                0.06635270198259091,
                -1.0533445686729537,
                0.4790646325117543,
                -0.6580444531782694
            ]
        },
        {
            "positions": [
                -2.037644287799272,
                -1.0939040118255379,
                -0.023873009479716933,
                -1.1356078183203449,
                0.4857032009725648,
                -0.5375438274592692
            ]
        },
        {
            "positions": [
                -1.9671551239651985,
                -1.1120667014778176,
                -0.11409872094202489,
                -1.217871067967736,
                0.4923417694333753,
                -0.4170432017402692
            ]
        },
        {
            "positions": [
                -1.8966659601311249,
                -1.1302293911300971,
                -0.20432443240433285,
                -1.300134317615127,
                0.49898033789418583,
                -0.296542576021269
            ]
        },
        {
            "positions": [
                -1.826176796297051,
                -1.1483920807823769,
                -0.2945501438666408,
                -1.3823975672625182,
                0.5056189063549964,
                -0.17604195030226877
            ]
        },
        {
            "positions": [
                -1.755687632462977,
                -1.1665547704346566,
                -0.38477585532894876,
                -1.4646608169099093,
                0.5122574748158069,
                -0.055541324583268326
            ]
        },
        {
            "positions": [
                -1.6851984686289037,
                -1.1847174600869363,
                -0.4750015667912565,
                -1.5469240665573005,
                0.5188960432766174,
                0.06495930113573167
            ]
        },
        {
            "positions": [
                -1.6147093047948298,
                -1.202880149739216,
                -0.5652272782535647,
                -1.6291873162046917,
                0.525534611737428,
                0.1854599268547319
            ]
        },
        {
            "positions": [
                -1.544220140960756,
                -1.2210428393914956,
                -0.6554529897158724,
                -1.7114505658520827,
                0.5321731801982384,
                0.3059605525737319
            ]
        },
        {
            "positions": [
                -1.4737309771266824,
                -1.2392055290437756,
                -0.7456787011781804,
                -1.793713815499474,
                0.5388117486590489,
                0.42646117829273233
            ]
        },
        {
            "positions": [
                -1.4032418132926088,
                -1.257368218696055,
                -0.8359044126404883,
                -1.875977065146865,
                0.5454503171198595,
                0.5469618040117323
            ]
        },
        {
            "positions": [
                -1.3327526494585349,
                -1.2755309083483348,
                -0.9261301241027963,
                -1.9582403147942562,
                0.55208888558067,
                0.6674624297307328
            ]
        },
        {
            "positions": [
                -1.2622634856244612,
                -1.2936935980006146,
                -1.0163558355651041,
                -2.0405035644416474,
                0.5587274540414805,
                0.7879630554497328
            ]
        },
        {
            "positions": [
                -1.1917743217903876,
                -1.3118562876528943,
                -1.106581547027412,
                -2.1227668140890388,
                0.5653660225022911,
                0.9084636811687328
            ]
        },
        {
            "positions": [
                -1.121285157956314,
                -1.330018977305174,
                -1.19680725848972,
                -2.2050300637364297,
                0.5720045909631015,
                1.0289643068877328
            ]
        },
        {
            "positions": [
                -1.05079599412224,
                -1.3481816669574536,
                -1.287032969952028,
                -2.2872933133838207,
                0.5786431594239121,
                1.1494649326067332
            ]
        },
        {
            "positions": [
                -0.9803068302881666,
                -1.3663443566097333,
                -1.377258681414336,
                -2.3695565630312116,
                0.5852817278847225,
                1.2699655583257332
            ]
        },
        {
            "positions": [
                -0.9098176664540927,
                -1.384507046262013,
                -1.467484392876644,
                -2.451819812678603,
                0.5919202963455331,
                1.3904661840447337
            ]
        },
        {
            "positions": [
                -0.8397000976541672,
                -1.4008077641435128,
                -1.583197488099664,
                -2.4640716493451347,
                0.5731098467062302,
                1.5141377197494121
            ]
        },
        {
            "positions": [
                -0.7695825288542417,
                -1.4171084820250126,
                -1.698910583322684,
                -2.4763234860116667,
                0.5542993970669274,
                1.6378092554540906
            ]
        },
        {
            "positions": [
                -0.6994649600543161,
                -1.4334091999065124,
                -1.8146236785457042,
                -2.4885753226781984,
                0.5354889474276245,
                1.761480791158769
            ]
        },
        {
            "positions": [
                -0.6293473912543908,
                -1.449709917788012,
                -1.9303367737687243,
                -2.50082715934473,
                0.5166784977883216,
                1.8851523268634476
            ]
        },
        {
            "positions": [
                -0.5592298224544652,
                -1.4660106356695117,
                -2.0460498689917443,
                -2.5130789960112616,
                0.4978680481490188,
                2.0088238625681263
            ]
        },
        {
            "positions": [
                -0.4891122536545397,
                -1.4823113535510115,
                -2.1617629642147644,
                -2.5253308326777937,
                0.47905759850971597,
                2.1324953982728045
            ]
        },
        {
            "positions": [
                -0.41899468485461416,
                -1.4986120714325113,
                -2.2774760594377845,
                -2.5375826693443253,
                0.46024714887041307,
                2.2561669339774832
            ]
        },
        {
            "positions": [
                -0.3776930373835281,
                -1.5154171433297576,
                -2.3342685365469027,
                -2.5296500791872893,
                0.42713915474032316,
                2.3472512413351945
            ]
        },
        {
            "positions": [
                -0.3363913899124421,
                -1.5322222152270037,
                -2.3910610136560213,
                -2.5217174890302534,
                0.39403116061023324,
                2.4383355486929057
            ]
        },
        {
            "positions": [
                -0.3110408441595905,
                -1.5688628904796702,
                -2.3838877813340185,
                -2.4762496158407976,
                0.2997951829649604,
                2.5650343758381555
            ]
        },
        {
            "positions": [
                -0.2856902984067388,
                -1.6055035657323367,
                -2.376714549012015,
                -2.430781742651342,
                0.2055592053196875,
                2.691733202983405
            ]
        },
        {
            "positions": [
                -0.2603397526538872,
                -1.6421442409850031,
                -2.369541316690012,
                -2.3853138694618865,
                0.1113232276744146,
                2.8184320301286547
            ]
        },
        {
            "positions": [
                -0.23498920690103559,
                -1.6787849162376698,
                -2.362368084368009,
                -2.3398459962724307,
                0.017087250029141743,
                2.945130857273904
            ]
        },
        {
            "positions": [
                -0.2096386611481839,
                -1.7154255914903362,
                -2.355194852046006,
                -2.294378123082975,
                -0.07714872761613117,
                3.0718296844191544
            ]
        },
        {
            "positions": [
                -0.1842881153953323,
                -1.7520662667430027,
                -2.348021619724003,
                -2.248910249893519,
                -0.17138470526140404,
                3.1985285115644038
            ]
        }
    ]
}