{
    "goal": {
        "global_pose": {
            "orientation": {
                "w": 0.005598929693374612,
                "x": 0.007748599140229565,
                "y": 0.7110244013736278,
                "z": -0.7031023480610252
            },
            "position": {
                "x": -0.8858502320852131,
                "y": -0.7141253447532654,
                "z": 0.3711530566215515
            }
        },
        "name": "move_to_auspresseinheit_C"
    },
    "id": "BFMT_move_to_auspresseinheit_C_128",
    "joint_names": [
        "shoulder_pan_joint",
        "shoulder_lift_joint",
        "elbow_joint",
        "wrist_1_joint",
        "wrist_2_joint",
        "wrist_3_joint"
    ],
    "metrics": {
        "cart_traj_len": 0.4923004693548722,
        "distance_elbow_joint": 0.990893009273625,
        "distance_shoulder_lift_joint": 0.3212693265541988,
        "distance_shoulder_pan_joint": 0.25642506699920453,
        "distance_wrist_1_joint": 0.6598980498735458,
        "distance_wrist_2_joint": 1.3105143035232407,
        "distance_wrist_3_joint": 0.04074848725662994,
        "smoothness": 1.6148698667872622e-16,
        "time": 0.453386171,
        "traj_len": 1.8920222629452448,
        "weighted_distance": 2.373111369361011
    },
    "planner": "BFMT",
    "start": {
        "state": {
            "elbow_joint": 1.7527959577737207,
            "shoulder_lift_joint": -0.9740617694225068,
            "shoulder_pan_joint": -2.967991417825858,
            "wrist_1_joint": -0.759517768980727,
            "wrist_2_joint": 1.7443932448377408,
            "wrist_3_joint": -3.0840537646736568
        }
    },
    "waypoints": [
        {
            "positions": [
                -2.967991417825858,
                -0.9740617694225068,
                1.7527959577737207,
                -0.759517768980727,
                1.7443932448377408,
                -3.0840537646736568
            ]
        },
        {
            "positions": [
                -2.9423489111259373,
                -0.9419348367670869,
                1.653706656846358,
                -0.6935279639933724,
                1.6133418144854168,
                -3.08812861339932
            ]
        },
        {
            "positions": [
                -2.916706404426017,
                -0.909807904111667,
                1.5546173559189955,
                -0.6275381590060178,
                1.4822903841330928,
                -3.0922034621249828
            ]
        },
        {
            "positions": [
                -2.8910638977260965,
                -0.8776809714562471,
                1.4555280549916332,
                -0.5615483540186632,
                1.3512389537807685,
                -3.0962783108506455
            ]
        },
        {
            "positions": [
                -2.8654213910261763,
                -0.8455540388008272,
                1.3564387540642706,
                -0.49555854903130864,
                1.2201875234284445,
                -3.1003531595763087
            ]
        },
        {
            "positions": [
                -2.8397788843262557,
                -0.8134271061454074,
                1.257349453136908,
                -0.42956874404395406,
                1.0891360930761205,
                -3.104428008301972
            ]
        },
        {
            "positions": [
                -2.814136377626335,
                -0.7813001734899875,
                1.1582601522095457,
                -0.3635789390565995,
                0.9580846627237964,
                -3.1085028570276347
            ]
        },
        {
            "positions": [
                -2.788493870926415,
                -0.7491732408345676,
                1.0591708512821834,
                -0.2975891340692449,
                0.8270332323714724,
                -3.1125777057532975
            ]
        },
        {
            "positions": [
                -2.7628513642264942,
                -0.7170463081791477,
                0.9600815503548206,
                -0.2315993290818903,
                0.6959818020191482,
                -3.1166525544789607
            ]
        },
        {
            "positions": [
                -2.737208857526574,
                -0.6849193755237278,
                0.8609922494274581,
                -0.16560952409453567,
                0.5649303716668241,
                -3.120727403204624
            ]
        },
        {
            "positions": [
                -2.7115663508266534,
                -0.652792442868308,
                0.7619029485000957,
                -0.09961971910718112,
                0.4338789413145001,
                -3.1248022519302867
            ]
        }
    ]
}