{
    "goal": {
        "global_pose": {
            "orientation": {
                "w": 0.7031023480610252,
                "x": -0.7110244013736278,
                "y": 0.0077485991402295624,
                "z": 0.005598929693374583
            },
            "position": {
                "x": -0.8841497679147869,
                "y": 0.44412534475326537,
                "z": 0.3711530566215515
            }
        },
        "name": "move_to_auspresseinheit_D"
    },
    "id": "BFMT_move_to_auspresseinheit_D_19",
    "joint_names": [
        "shoulder_pan_joint",
        "shoulder_lift_joint",
        "elbow_joint",
        "wrist_1_joint",
        "wrist_2_joint",
        "wrist_3_joint"
    ],
    "metrics": {
        "cart_traj_len": 0.3421750876698802,
        "distance_elbow_joint": 0.6284294462122371,
        "distance_shoulder_lift_joint": 0.1160441835210535,
        "distance_shoulder_pan_joint": 0.13328410191993767,
        "distance_wrist_1_joint": 0.5001617123523179,
        "distance_wrist_2_joint": 1.4337402912217379,
        "distance_wrist_3_joint": 0.030537376880165557,
        "smoothness": 2.5658487678941247e-15,
        "time": 0.48690069199999997,
        "traj_len": 1.6858817016942351,
        "weighted_distance": 2.19935760381113
    },
    "planner": "BFMT",
    "start": {
        "state": {
            "elbow_joint": -1.8275523626775212,
            "shoulder_lift_joint": -2.126789852344167,
            "shoulder_pan_joint": -0.03513704404078235,
            "wrist_1_joint": -2.347782403156801,
            "wrist_2_joint": -1.6058999987535132,
            "wrist_3_joint": -3.0880379163319196
        }
    },
    "waypoints": [
        {
            "positions": [
                -0.03513704404078235,
                -2.126789852344167,
                -1.8275523626775212,
                -2.347782403156801,
                -1.6058999987535132,
                -3.0880379163319196
            ]
        },
        {
            "positions": [
                -0.05179755678077456,
                -2.1412953752842987,
                -1.7489986819009915,
                -2.4103026172008404,
                -1.4266824623507959,
                -3.0918550884419402
            ]
        },
        {
            "positions": [
                -0.06845806952076677,
                -2.15580089822443,
                -1.6704450011244618,
                -2.4728228312448803,
                -1.2474649259480788,
                -3.095672260551961
            ]
        },
        {
            "positions": [
                -0.08511858226075897,
                -2.170306421164562,
                -1.5918913203479323,
                -2.5353430452889203,
                -1.0682473895453615,
                -3.0994894326619815
            ]
        },
        {
            "positions": [
                -0.10177909500075119,
                -2.184811944104694,
                -1.5133376395714027,
                -2.59786325933296,
                -0.8890298531426443,
                -3.103306604772002
            ]
        },
        {
            "positions": [
                -0.11843960774074339,
                -2.1993174670448252,
                -1.434783958794873,
                -2.6603834733769993,
                -0.7098123167399271,
                -3.1071237768820232
            ]
        },
        {
            "positions": [
                -0.1351001204807356,
                -2.213822989984957,
                -1.3562302780183435,
                -2.7229036874210393,
                -0.5305947803372097,
                -3.110940948992044
            ]
        },
        {
            "positions": [
                -0.1517606332207278,
                -2.2283285129250885,
                -1.2776765972418138,
                -2.7854239014650792,
                -0.35137724393449266,
                -3.1147581211020645
            ]
        },
        {
            "positions": [
                -0.16842114596072003,
                -2.2428340358652203,
                -1.1991229164652841,
                -2.8479441155091187,
                -0.17215970753177529,
                -3.118575293212085
            ]
        }
    ]
}