{
    "goal": {
        "global_pose": {
            "orientation": {
                "w": 0.005598929693374612,
                "x": 0.007748599140229565,
                "y": 0.7110244013736278,
                "z": -0.7031023480610252
            },
            "position": {
                "x": 0.1141497679147869,
                "y": -0.7141253447532654,
                "z": 0.3711530566215515
            }
        },
        "name": "move_to_auspresseinheit_B"
    },
    "id": "BFMT_move_to_auspresseinheit_B_105",
    "joint_names": [
        "shoulder_pan_joint",
        "shoulder_lift_joint",
        "elbow_joint",
        "wrist_1_joint",
        "wrist_2_joint",
        "wrist_3_joint"
    ],
    "metrics": {
        "cart_traj_len": 0.5644598928033492,
        "distance_elbow_joint": 0.06223031355194064,
        "distance_shoulder_lift_joint": 0.2941990524246809,
        "distance_shoulder_pan_joint": 0.5755717494845058,
        "distance_wrist_1_joint": 0.32807912121643623,
        "distance_wrist_2_joint": 1.0038970792126285,
        "distance_wrist_3_joint": 0.006018293397027641,
        "smoothness": 0.0,
        "time": 0.480003461,
        "traj_len": 1.5066504602220185,
        "weighted_distance": 1.9010545485362433
    },
    "planner": "BFMT",
    "start": {
        "state": {
            "elbow_joint": 2.0193083361928714,
            "shoulder_lift_joint": -1.1220246554650708,
            "shoulder_pan_joint": -1.0952077554168747,
            "wrist_1_joint": -0.8559753972642168,
            "wrist_2_joint": 0.4759566250798843,
            "wrist_3_joint": -3.1240929996934557
        }
    },
    "waypoints": [
        {
            "positions": [
                -1.0952077554168747,
                -1.1220246554650708,
                2.0193083361928714,
                -0.8559753972642168,
                0.4759566250798843,
                -3.1240929996934557
            ]
        },
        {
            "positions": [
                -1.191136380330959,
                -1.1710578308691844,
                2.008936617267548,
                -0.801295543728144,
                0.6432728049486557,
                -3.1250960485929604
            ]
        },
        {
            "positions": [
                -1.2870650052450432,
                -1.2200910062732977,
                1.9985648983422246,
                -0.7466156901920714,
                0.810588984817427,
                -3.1260990974924647
            ]
        },
        {
            "positions": [
                -1.3829936301591275,
                -1.2691241816774113,
                1.9881931794169012,
                -0.6919358366559987,
                0.9779051646861985,
                -3.1271021463919695
            ]
        },
        {
            "positions": [
                -1.4789222550732117,
                -1.3181573570815248,
                1.9778214604915776,
                -0.637255983119926,
                1.14522134455497,
                -3.1281051952914742
            ]
        },
        {
            "positions": [
                -1.5748508799872962,
                -1.3671905324856382,
                1.9674497415662542,
                -0.5825761295838532,
                1.3125375244237414,
                -3.1291082441909785
            ]
        },
        {
            "positions": [
                -1.6707795049013805,
                -1.4162237078897517,
                1.9570780226409308,
                -0.5278962760477806,
                1.4798537042925128,
                -3.1301112930904833
            ]
        }
    ]
}