{
    "goal": {
        "global_pose": {
            "orientation": {
                "w": 0.5084816217422485,
                "x": -0.49083608388900757,
                "y": 0.5182115435600281,
                "z": -0.4816462993621826
            },
            "position": {
                "x": 0.5540239810943604,
                "y": 0.030875300988554955,
                "z": 0.16403168439865112
            }
        },
        "name": "move_to_storage_A"
    },
    "id": "BFMT_move_to_storage_A_27",
    "joint_names": [
        "shoulder_pan_joint",
        "shoulder_lift_joint",
        "elbow_joint",
        "wrist_1_joint",
        "wrist_2_joint",
        "wrist_3_joint"
    ],
    "metrics": {
        "cart_traj_len": 0.35249365155206375,
        "distance_elbow_joint": 0.44808316956116356,
        "distance_shoulder_lift_joint": 0.23684055482348176,
        "distance_shoulder_pan_joint": 0.4583364907619266,
        "distance_wrist_1_joint": 0.232101604712882,
        "distance_wrist_2_joint": 1.1098548622721252,
        "distance_wrist_3_joint": 0.09887455824476366,
        "smoothness": 0.0,
        "time": 0.470300179,
        "traj_len": 1.6075108834394691,
        "weighted_distance": 2.030713378064683
    },
    "planner": "BFMT",
    "start": {
        "state": {
            "elbow_joint": 1.971548259319323,
            "shoulder_lift_joint": -1.1394851275133948,
            "shoulder_pan_joint": 0.1228115487234821,
            "wrist_1_joint": -0.7804723859257726,
            "wrist_2_joint": 0.12958671773740124,
            "wrist_3_joint": -3.192489227718131
        }
    },
    "waypoints": [
        {
            "positions": [
                0.1228115487234821,
                -1.1394851275133948,
                1.971548259319323,
                -0.7804723859257726,
                0.12958671773740124,
                -3.192489227718131
            ]
        },
        {
            "positions": [
                0.057334907186064016,
                -1.173319492488178,
                2.0355601406852033,
                -0.813629758027613,
                0.28813741234770485,
                -3.178364290826022
            ]
        },
        {
            "positions": [
                -0.008141734351354069,
                -1.207153857462961,
                2.099572022051084,
                -0.8467871301294532,
                0.4466881069580084,
                -3.164239353933913
            ]
        },
        {
            "positions": [
                -0.07361837588877215,
                -1.2409882224377442,
                2.1635839034169644,
                -0.8799445022312935,
                0.605238801568312,
                -3.150114417041804
            ]
        },
        {
            "positions": [
                -0.13909501742619024,
                -1.2748225874125272,
                2.227595784782845,
                -0.9131018743331337,
                0.7637894961786156,
                -3.1359894801496946
            ]
        },
        {
            "positions": [
                -0.20457165896360835,
                -1.3086569523873104,
                2.2916076661487255,
                -0.946259246434974,
                0.9223401907889193,
                -3.1218645432575856
            ]
        },
        {
            "positions": [
                -0.2700483005010264,
                -1.3424913173620934,
                2.355619547514606,
                -0.9794166185368143,
                1.0808908853992227,
                -3.1077396063654765
            ]
        },
        {
            "positions": [
                -0.3355249420384445,
                -1.3763256823368766,
                2.4196314288804865,
                -1.0125739906386546,
                1.2394415800095264,
                -3.0936146694733675
            ]
        }
    ]
}{
    "goal": {
        "global_pose": {
            "orientation": {
                "w": 0.5084816217422485,
                "x": -0.49083608388900757,
                "y": 0.5182115435600281,
                "z": -0.4816462993621826
            },
            "position": {
                "x": 0.5540239810943604,
                "y": 0.030875300988554955,
                "z": 0.16403168439865112
            }
        },
        "name": "move_to_storage_A"
    },
    "id": "BFMT_move_to_storage_A_27",
    "joint_names": [
        "shoulder_pan_joint",
        "shoulder_lift_joint",
        "elbow_joint",
        "wrist_1_joint",
        "wrist_2_joint",
        "wrist_3_joint"
    ],
    "metrics": {
        "cart_traj_len": 0.35293651584620644,
        "distance_elbow_joint": 0.45008691691584346,
        "distance_shoulder_lift_joint": 0.23241179309890847,
        "distance_shoulder_pan_joint": 0.45820044761064876,
        "distance_wrist_1_joint": 0.25120260616206624,
        "distance_wrist_2_joint": 1.1114118734943308,
        "distance_wrist_3_joint": 0.09798750851234228,
        "smoothness": 8.881784197001252e-16,
        "time": 0.533071254,
        "traj_len": 1.6128549673774575,
        "weighted_distance": 2.0395809967920426
    },
    "planner": "BFMT",
    "start": {
        "state": {
            "elbow_joint": 1.97154746011099,
            "shoulder_lift_joint": -1.13948474672311,
            "shoulder_pan_joint": 0.12281154466712228,
            "wrist_1_joint": -0.7804688027058302,
            "wrist_2_joint": 0.12958655903071145,
            "wrist_3_joint": 3.0906928834467795
        }
    },
    "waypoints": [
        {
            "positions": [
                0.12281154466712228,
                -1.13948474672311,
                1.97154746011099,
                -0.7804688027058302,
                0.12958655903071145,
                3.0906928834467795
            ]
        },
        {
            "positions": [
                0.05735433786560104,
                -1.1726864314515255,
                2.0358455910989677,
                -0.8163548893004111,
                0.28835968381561583,
                3.1046910989485426
            ]
        },
        {
            "positions": [
                -0.008102868935920202,
                -1.2058881161799408,
                2.100143722086945,
                -0.8522409758949919,
                0.4471328086005202,
                3.118689314450306
            ]
        },
        {
            "positions": [
                -0.07356007573744146,
                -1.2390898009083564,
                2.1644418530749228,
                -0.8881270624895728,
                0.6059059333854246,
                3.132687529952069
            ]
        },
        {
            "positions": [
                -0.13901728253896267,
                -1.272291485636772,
                2.2287399840629005,
                -0.9240131490841538,
                0.764679058170329,
                3.146685745453832
            ]
        },
        {
            "positions": [
                -0.20447448934048396,
                -1.3054931703651875,
                2.2930381150508783,
                -0.9598992356787346,
                0.9234521829552335,
                3.1606839609555952
            ]
        },
        {
            "positions": [
                -0.2699316961420052,
                -1.3386948550936029,
                2.3573362460388556,
                -0.9957853222733155,
                1.0822253077401378,
                3.1746821764573587
            ]
        },
        {
            "positions": [
                -0.33538890294352647,
                -1.3718965398220184,
                2.4216343770268334,
                -1.0316714088678964,
                1.2409984325250423,
                3.188680391959122
            ]
        }
    ]
}{
    "goal": {
        "global_pose": {
            "orientation": {
                "w": 0.5084816217422485,
                "x": -0.49083608388900757,
                "y": 0.5182115435600281,
                "z": -0.4816462993621826
            },
            "position": {
                "x": 0.5540239810943604,
                "y": 0.030875300988554955,
                "z": 0.16403168439865112
            }
        },
        "name": "move_to_storage_A"
    },
    "id": "BFMT_move_to_storage_A_27",
    "joint_names": [
        "shoulder_pan_joint",
        "shoulder_lift_joint",
        "elbow_joint",
        "wrist_1_joint",
        "wrist_2_joint",
        "wrist_3_joint"
    ],
    "metrics": {
        "cart_traj_len": 0.3527669852173521,
        "distance_elbow_joint": 0.45321690061380515,
        "distance_shoulder_lift_joint": 0.233951586476137,
        "distance_shoulder_pan_joint": 0.4625673908884467,
        "distance_wrist_1_joint": 0.25367740821219464,
        "distance_wrist_2_joint": 1.093182679880636,
        "distance_wrist_3_joint": 0.10122434154859627,
        "smoothness": 0.0,
        "time": 0.497333949,
        "traj_len": 1.6117755140278736,
        "weighted_distance": 2.0364501169461136
    },
    "planner": "BFMT",
    "start": {
        "state": {
            "elbow_joint": 1.9715472970024885,
            "shoulder_lift_joint": -1.1394870060712896,
            "shoulder_pan_joint": 0.12281152778156021,
            "wrist_1_joint": -0.780463741449964,
            "wrist_2_joint": 0.12958659822042276,
            "wrist_3_joint": 3.090690232415272
        }
    },
    "waypoints": [
        {
            "positions": [
                0.12281152778156021,
                -1.1394870060712896,
                1.9715472970024885,
                -0.780463741449964,
                0.12958659822042276,
                3.090690232415272
            ]
        },
        {
            "positions": [
                0.05673047194035355,
                -1.1729086612821664,
                2.0362925685187463,
                -0.8167033711945633,
                0.285755552489085,
                3.1051508526364997
            ]
        },
        {
            "positions": [
                -0.00935058390085311,
                -1.206330316493043,
                2.1010378400350045,
                -0.8529430009391624,
                0.4419245067577473,
                3.119611472857728
            ]
        },
        {
            "positions": [
                -0.07543163974205977,
                -1.2397519717039198,
                2.1657831115512622,
                -0.8891826306837617,
                0.5980934610264096,
                3.134072093078956
            ]
        },
        {
            "positions": [
                -0.14151269558326643,
                -1.2731736269147964,
                2.23052838306752,
                -0.925422260428361,
                0.7542624152950719,
                3.148532713300184
            ]
        },
        {
            "positions": [
                -0.20759375142447314,
                -1.3065952821256732,
                2.295273654583778,
                -0.9616618901729601,
                0.9104313695637343,
                3.162993333521412
            ]
        },
        {
            "positions": [
                -0.2736748072656797,
                -1.3400169373365498,
                2.360018926100036,
                -0.9979015199175594,
                1.0666003238323964,
                3.1774539537426403
            ]
        },
        {
            "positions": [
                -0.33975586310688644,
                -1.3734385925474266,
                2.4247641976162937,
                -1.0341411496621586,
                1.2227692781010588,
                3.191914573963868
            ]
        }
    ]
}