{
    "goal": {
        "global_pose": {
            "orientation": {
                "w": 0.5084816217422485,
                "x": -0.49083608388900757,
                "y": 0.5182115435600281,
                "z": -0.4816462993621826
            },
            "position": {
                "x": 0.5540239810943604,
                "y": 0.030875300988554955,
                "z": 0.16403168439865112
            }
        },
        "name": "move_to_storage_A"
    },
    "id": "BFMT_move_to_storage_A_132",
    "joint_names": [
        "shoulder_pan_joint",
        "shoulder_lift_joint",
        "elbow_joint",
        "wrist_1_joint",
        "wrist_2_joint",
        "wrist_3_joint"
    ],
    "metrics": {
        "cart_traj_len": 0.35340227553459813,
        "distance_elbow_joint": 0.44832715886349184,
        "distance_shoulder_lift_joint": 0.2353009416900702,
        "distance_shoulder_pan_joint": 0.4627766704138649,
        "distance_wrist_1_joint": 0.2347686084451973,
        "distance_wrist_2_joint": 1.0968599241018473,
        "distance_wrist_3_joint": 0.10142183972110974,
        "smoothness": 8.881784197001252e-16,
        "time": 0.497483171,
        "traj_len": 1.6060682249629312,
        "weighted_distance": 2.028281872725003
    },
    "planner": "BFMT",
    "start": {
        "state": {
            "elbow_joint": 1.971548259319323,
            "shoulder_lift_joint": -1.1394851275133948,
            "shoulder_pan_joint": 0.1228115487234821,
            "wrist_1_joint": -0.7804723859257726,
            "wrist_2_joint": 0.12958671773740124,
            "wrist_3_joint": -3.192489227718131
        }
    },
    "waypoints": [
        {
            "positions": [
                0.1228115487234821,
                -1.1394851275133948,
                1.971548259319323,
                -0.7804723859257726,
                0.12958671773740124,
                -3.192489227718131
            ]
        },
        {
            "positions": [
                0.05670059580721569,
                -1.1730995477548334,
                2.035594996299822,
                -0.8140107585608009,
                0.2862809926090937,
                -3.1780003934722583
            ]
        },
        {
            "positions": [
                -0.009410357109050721,
                -1.206713967996272,
                2.0996417332803206,
                -0.847549131195829,
                0.4429752674807862,
                -3.1635115592263854
            ]
        },
        {
            "positions": [
                -0.07552131002531712,
                -1.2403283882377105,
                2.1636884702608197,
                -0.8810875038308572,
                0.5996695423524786,
                -3.1490227249805125
            ]
        },
        {
            "positions": [
                -0.14163226294158354,
                -1.2739428084791493,
                2.2277352072413183,
                -0.9146258764658853,
                0.7563638172241711,
                -3.13453389073464
            ]
        },
        {
            "positions": [
                -0.20774321585785,
                -1.3075572287205879,
                2.291781944221817,
                -0.9481642491009136,
                0.9130580920958636,
                -3.120045056488767
            ]
        },
        {
            "positions": [
                -0.27385416877411634,
                -1.3411716489620265,
                2.355828681202316,
                -0.9817026217359417,
                1.069752366967556,
                -3.1055562222428943
            ]
        },
        {
            "positions": [
                -0.3399651216903828,
                -1.374786069203465,
                2.419875418182815,
                -1.01524099437097,
                1.2264466418392486,
                -3.0910673879970214
            ]
        }
    ]
}{
    "goal": {
        "global_pose": {
            "orientation": {
                "w": 0.5084816217422485,
                "x": -0.49083608388900757,
                "y": 0.5182115435600281,
                "z": -0.4816462993621826
            },
            "position": {
                "x": 0.5540239810943604,
                "y": 0.030875300988554955,
                "z": 0.16403168439865112
            }
        },
        "name": "move_to_storage_A"
    },
    "id": "BFMT_move_to_storage_A_132",
    "joint_names": [
        "shoulder_pan_joint",
        "shoulder_lift_joint",
        "elbow_joint",
        "wrist_1_joint",
        "wrist_2_joint",
        "wrist_3_joint"
    ],
    "metrics": {
        "cart_traj_len": 0.3531964547995186,
        "distance_elbow_joint": 0.4508113742090383,
        "distance_shoulder_lift_joint": 0.233985327987293,
        "distance_shoulder_pan_joint": 0.4582062482461358,
        "distance_wrist_1_joint": 0.2455179559104823,
        "distance_wrist_2_joint": 1.1148020201981859,
        "distance_wrist_3_joint": 0.10202302708840172,
        "smoothness": 4.440892098500626e-16,
        "time": 0.49366703599999995,
        "traj_len": 1.6141084082674053,
        "weighted_distance": 2.041987263409106
    },
    "planner": "BFMT",
    "start": {
        "state": {
            "elbow_joint": 1.97154746011099,
            "shoulder_lift_joint": -1.13948474672311,
            "shoulder_pan_joint": 0.12281154466712228,
            "wrist_1_joint": -0.7804688027058302,
            "wrist_2_joint": 0.12958655903071145,
            "wrist_3_joint": 3.0906928834467795
        }
    },
    "waypoints": [
        {
            "positions": [
                0.12281154466712228,
                -1.13948474672311,
                1.97154746011099,
                -0.7804688027058302,
                0.12958655903071145,
                3.0906928834467795
            ]
        },
        {
            "positions": [
                0.057353509203388595,
                -1.172911222149866,
                2.0359490849979953,
                -0.8155427964073276,
                0.2888439904875951,
                3.1052676016022653
            ]
        },
        {
            "positions": [
                -0.008104526260345093,
                -1.2063376975766222,
                2.1003507098850007,
                -0.8506167901088251,
                0.4481014219444788,
                3.1198423197577516
            ]
        },
        {
            "positions": [
                -0.07356256172407878,
                -1.2397641730033784,
                2.164752334772006,
                -0.8856907838103226,
                0.6073588534013625,
                3.1344170379132374
            ]
        },
        {
            "positions": [
                -0.13902059718781246,
                -1.2731906484301345,
                2.229153959659012,
                -0.9207647775118201,
                0.7666162848582462,
                3.1489917560687233
            ]
        },
        {
            "positions": [
                -0.20447863265154614,
                -1.3066171238568907,
                2.2935555845460174,
                -0.9558387712133176,
                0.9258737163151299,
                3.163566474224209
            ]
        },
        {
            "positions": [
                -0.26993666811527983,
                -1.3400435992836468,
                2.357957209433023,
                -0.9909127649148151,
                1.0851311477720136,
                3.1781411923796954
            ]
        },
        {
            "positions": [
                -0.3353947035790135,
                -1.373470074710403,
                2.422358834320028,
                -1.0259867586163125,
                1.2443885792288973,
                3.1927159105351812
            ]
        }
    ]
}{
    "goal": {
        "global_pose": {
            "orientation": {
                "w": 0.5084816217422485,
                "x": -0.49083608388900757,
                "y": 0.5182115435600281,
                "z": -0.4816462993621826
            },
            "position": {
                "x": 0.5540239810943604,
                "y": 0.030875300988554955,
                "z": 0.16403168439865112
            }
        },
        "name": "move_to_storage_A"
    },
    "id": "BFMT_move_to_storage_A_132",
    "joint_names": [
        "shoulder_pan_joint",
        "shoulder_lift_joint",
        "elbow_joint",
        "wrist_1_joint",
        "wrist_2_joint",
        "wrist_3_joint"
    ],
    "metrics": {
        "cart_traj_len": 0.3537123526448108,
        "distance_elbow_joint": 0.4520548889274818,
        "distance_shoulder_lift_joint": 0.23384628753010195,
        "distance_shoulder_pan_joint": 0.46379018641652886,
        "distance_wrist_1_joint": 0.25235377477656273,
        "distance_wrist_2_joint": 1.094508492372945,
        "distance_wrist_3_joint": 0.10650696811149984,
        "smoothness": 1.2212453226199226e-15,
        "time": 0.49428229900000004,
        "traj_len": 1.6134003217227644,
        "weighted_distance": 2.040327621120595
    },
    "planner": "BFMT",
    "start": {
        "state": {
            "elbow_joint": 1.9715472970024885,
            "shoulder_lift_joint": -1.1394870060712896,
            "shoulder_pan_joint": 0.12281152778156021,
            "wrist_1_joint": -0.780463741449964,
            "wrist_2_joint": 0.12958659822042276,
            "wrist_3_joint": 3.090690232415272
        }
    },
    "waypoints": [
        {
            "positions": [
                0.12281152778156021,
                -1.1394870060712896,
                1.9715472970024885,
                -0.780463741449964,
                0.12958659822042276,
                3.090690232415272
            ]
        },
        {
            "positions": [
                0.056555786864913235,
                -1.1728936185755898,
                2.036126566849272,
                -0.8165142807037586,
                0.2859449542737006,
                3.1059055135740574
            ]
        },
        {
            "positions": [
                -0.009699954051733739,
                -1.2063002310798903,
                2.1007058366960547,
                -0.8525648199575533,
                0.44230331032697845,
                3.1211207947328434
            ]
        },
        {
            "positions": [
                -0.0759556949683807,
                -1.2397068435841905,
                2.165285106542838,
                -0.888615359211348,
                0.5986616663802563,
                3.136336075891629
            ]
        },
        {
            "positions": [
                -0.1422114358850277,
                -1.2731134560884907,
                2.229864376389621,
                -0.9246658984651427,
                0.755020022433534,
                3.1515513570504146
            ]
        },
        {
            "positions": [
                -0.20846717680167468,
                -1.306520068592791,
                2.294443646236404,
                -0.9607164377189374,
                0.9113783784868119,
                3.1667666382092
            ]
        },
        {
            "positions": [
                -0.2747229177183216,
                -1.3399266810970913,
                2.359022916083187,
                -0.9967669769727321,
                1.0677367345400899,
                3.181981919367986
            ]
        },
        {
            "positions": [
                -0.3409786586349686,
                -1.3733332936013916,
                2.4236021859299703,
                -1.0328175162265267,
                1.2240950905933676,
                3.1971972005267717
            ]
        }
    ]
}