{
    "goal": {
        "global_pose": {
            "orientation": {
                "w": -0.4816463035849501,
                "x": 0.5182115481033762,
                "y": 0.4908360881923453,
                "z": -0.5084816262002911
            },
            "position": {
                "x": -0.8240239810943604,
                "y": 0.19912469901144506,
                "z": 0.16403168439865112
            }
        },
        "name": "move_to_storage_D"
    },
    "id": "BFMT_move_to_storage_D_21",
    "joint_names": [
        "shoulder_pan_joint",
        "shoulder_lift_joint",
        "elbow_joint",
        "wrist_1_joint",
        "wrist_2_joint",
        "wrist_3_joint"
    ],
    "metrics": {
        "cart_traj_len": 3.518917379548002,
        "distance_elbow_joint": 4.210005838342614,
        "distance_shoulder_lift_joint": 1.2636548738696687,
        "distance_shoulder_pan_joint": 2.8118303271128693,
        "distance_wrist_1_joint": 2.2645348467611983,
        "distance_wrist_2_joint": 0.8704130742785608,
        "distance_wrist_3_joint": 3.1387251186098277,
        "smoothness": 2.804773979156823e-16,
        "time": 0.767400058,
        "traj_len": 3.815647268678638,
        "weighted_distance": 4.89607620827476
    },
    "planner": "BFMT",
    "start": {
        "state": {
            "elbow_joint": -2.384821988534728,
            "shoulder_lift_joint": -2.2788054721415256,
            "shoulder_pan_joint": -0.1854694642142757,
            "wrist_1_joint": 1.4845938289331202,
            "wrist_2_joint": 0.17898776772866878,
            "wrist_3_joint": 0.037105688729662994
        }
    },
    "waypoints": [
        {
            "positions": [
                -0.1854694642142757,
                -2.2788054721415256,
                -2.384821988534728,
                1.4845938289331202,
                0.17898776772866878,
                0.037105688729662994
            ]
        },
        {
            "positions": [
                -0.08948159100664117,
                -2.240349280205181,
                -2.2666448684335516,
                1.457211165994015,
                0.20429571392160972,
                -0.05361130913830449
            ]
        },
        {
            "positions": [
                0.006506282200993363,
                -2.2018930882688363,
                -2.1484677483323753,
                1.4298285030549098,
                0.22960366011455063,
                -0.14432830700627197
            ]
        },
        {
            "positions": [
                0.10249415540862786,
                -2.163436896332492,
                -2.030290628231199,
                1.4024458401158046,
                0.25491160630749155,
                -0.23504530487423944
            ]
        },
        {
            "positions": [
                0.19848202861626243,
                -2.1249807043961475,
                -1.9121135081300227,
                1.3750631771766995,
                0.2802195525004325,
                -0.32576230274220697
            ]
        },
        {
            "positions": [
                0.294469901823897,
                -2.086524512459803,
                -1.7939363880288464,
                1.3476805142375943,
                0.3055274986933735,
                -0.41647930061017435
            ]
        },
        {
            "positions": [
                0.39045777503153145,
                -2.048068320523458,
                -1.67575926792767,
                1.320297851298489,
                0.33083544488631433,
                -0.5071962984781418
            ]
        },
        {
            "positions": [
                0.48644564823916603,
                -2.0096121285871136,
                -1.5575821478264937,
                1.292915188359384,
                0.3561433910792553,
                -0.5979132963461093
            ]
        },
        {
            "positions": [
                0.5824335214468006,
                -1.9711559366507692,
                -1.4394050277253174,
                1.2655325254202787,
                0.38145133727219627,
                -0.6886302942140768
            ]
        },
        {
            "positions": [
                0.6784213946544351,
                -1.9326997447144245,
                -1.3212279076241413,
                1.2381498624811735,
                0.4067592834651371,
                -0.7793472920820442
            ]
        },
        {
            "positions": [
                0.7744092678620697,
                -1.89424355277808,
                -1.203050787522965,
                1.2107671995420684,
                0.4320672296580781,
                -0.8700642899500117
            ]
        },
        {
            "positions": [
                0.8703971410697041,
                -1.8557873608417355,
                -1.0848736674217887,
                1.1833845366029632,
                0.45737517585101906,
                -0.9607812878179792
            ]
        },
        {
            "positions": [
                0.9663850142773386,
                -1.8173311689053908,
                -0.9666965473206124,
                1.156001873663858,
                0.4826831220439599,
                -1.0514982856859467
            ]
        },
        {
            "positions": [
                1.0623728874849732,
                -1.7788749769690462,
                -0.8485194272194361,
                1.1286192107247528,
                0.5079910682369009,
                -1.142215283553914
            ]
        },
        {
            "positions": [
                1.1583607606926076,
                -1.7404187850327018,
                -0.7303423071182595,
                1.1012365477856474,
                0.5332990144298418,
                -1.2329322814218817
            ]
        },
        {
            "positions": [
                1.254348633900242,
                -1.7019625930963573,
                -0.6121651870170834,
                1.0738538848465424,
                0.5586069606227827,
                -1.323649279289849
            ]
        },
        {
            "positions": [
                1.3503365071078768,
                -1.6635064011600127,
                -0.49398806691590713,
                1.046471221907437,
                0.5839149068157237,
                -1.4143662771578167
            ]
        },
        {
            "positions": [
                1.4463243803155112,
                -1.625050209223668,
                -0.3758109468147306,
                1.0190885589683318,
                0.6092228530086646,
                -1.505083275025784
            ]
        },
        {
            "positions": [
                1.5423122535231457,
                -1.5865940172873234,
                -0.2576338267135547,
                0.9917058960292267,
                0.6345307992016055,
                -1.5958002728937515
            ]
        },
        {
            "positions": [
                1.6383001267307802,
                -1.548137825350979,
                -0.1394567066123784,
                0.9643232330901215,
                0.6598387453945465,
                -1.686517270761719
            ]
        },
        {
            "positions": [
                1.7342879999384149,
                -1.5096816334146343,
                -0.021279586511202098,
                0.9369405701510163,
                0.6851466915874874,
                -1.7772342686296865
            ]
        },
        {
            "positions": [
                1.8302758731460491,
                -1.47122544147829,
                0.09689753358997422,
                0.9095579072119112,
                0.7104546377804283,
                -1.8679512664976539
            ]
        },
        {
            "positions": [
                1.9262637463536838,
                -1.4327692495419453,
                0.21507465369115053,
                0.8821752442728059,
                0.7357625839733692,
                -1.9586682643656215
            ]
        },
        {
            "positions": [
                2.0222516195613185,
                -1.3943130576056006,
                0.33325177379232684,
                0.8547925813337007,
                0.7610705301663102,
                -2.049385262233589
            ]
        },
        {
            "positions": [
                2.1182394927689527,
                -1.3558568656692562,
                0.45142889389350316,
                0.8274099183945955,
                0.7863784763592511,
                -2.1401022601015565
            ]
        },
        {
            "positions": [
                2.2142273659765874,
                -1.3174006737329116,
                0.5696060139946796,
                0.8000272554554904,
                0.811686422552192,
                -2.230819257969524
            ]
        },
        {
            "positions": [
                2.248571824053421,
                -1.2922131674444903,
                0.6742375003124469,
                0.6683632326818596,
                0.8314959575067785,
                -2.3033859389620774
            ]
        },
        {
            "positions": [
                2.2829162821302553,
                -1.267025661156069,
                0.7788689866302141,
                0.536699209908229,
                0.851305492461365,
                -2.3759526199546306
            ]
        },
        {
            "positions": [
                2.317260740207089,
                -1.241838154867648,
                0.8835004729479814,
                0.4050351871345982,
                0.8711150274159514,
                -2.448519300947184
            ]
        },
        {
            "positions": [
                2.351605198283923,
                -1.2166506485792268,
                0.9881319592657487,
                0.27337116436096753,
                0.8909245623705379,
                -2.5210859819397373
            ]
        },
        {
            "positions": [
                2.385949656360757,
                -1.1914631422908055,
                1.092763445583516,
                0.14170714158733666,
                0.9107340973251243,
                -2.593652662932291
            ]
        },
        {
            "positions": [
                2.4202941144375907,
                -1.1662756360023843,
                1.1973949319012833,
                0.010043118813706009,
                0.9305436322797108,
                -2.666219343924844
            ]
        },
        {
            "positions": [
                2.4546385725144244,
                -1.141088129713963,
                1.3020264182190506,
                -0.12162090395992475,
                0.9503531672342973,
                -2.7387860249173976
            ]
        },
        {
            "positions": [
                2.4889830305912586,
                -1.1159006234255417,
                1.4066579045368177,
                -0.2532849267335553,
                0.9701627021888837,
                -2.8113527059099512
            ]
        },
        {
            "positions": [
                2.5233274886680923,
                -1.0907131171371205,
                1.511289390854585,
                -0.38494894950718606,
                0.9899722371434703,
                -2.8839193869025044
            ]
        },
        {
            "positions": [
                2.557671946744926,
                -1.0655256108486992,
                1.6159208771723526,
                -0.516612972280817,
                1.0097817720980566,
                -2.956486067895058
            ]
        },
        {
            "positions": [
                2.59201640482176,
                -1.0403381045602782,
                1.7205523634901194,
                -0.6482769950544476,
                1.0295913070526432,
                -3.029052748887611
            ]
        },
        {
            "positions": [
                2.626360862898594,
                -1.015150598271857,
                1.8251838498078867,
                -0.7799410178280783,
                1.0494008420072296,
                -3.1016194298801647
            ]
        }
    ]
}