{
    "goal": {
        "global_pose": {
            "orientation": {
                "w": 0.7047431468963623,
                "x": -0.7094548344612122,
                "y": 0.0024358443915843964,
                "z": -0.0022348060738295317
            },
            "position": {
                "x": 0.6094750761985779,
                "y": 0.3671506643295288,
                "z": 0.19426114857196808
            }
        },
        "name": "move_to_magneteinheit_A"
    },
    "id": "BFMT_move_to_magneteinheit_A_16",
    "joint_names": [
        "shoulder_pan_joint",
        "shoulder_lift_joint",
        "elbow_joint",
        "wrist_1_joint",
        "wrist_2_joint",
        "wrist_3_joint"
    ],
    "metrics": {
        "cart_traj_len": 3.375981523486786,
        "distance_elbow_joint": 3.8966996647626564,
        "distance_shoulder_lift_joint": 0.20965348905710623,
        "distance_shoulder_pan_joint": 2.7302787690620103,
        "distance_wrist_1_joint": 0.7345097412575305,
        "distance_wrist_2_joint": 1.69081685564401,
        "distance_wrist_3_joint": 2.6699677899332936,
        "smoothness": 0.04883624378326093,
        "time": 0.790760534,
        "traj_len": 3.4542620499488175,
        "weighted_distance": 4.43815147178245
    },
    "planner": "BFMT",
    "start": {
        "state": {
            "elbow_joint": -1.9196185241190666,
            "shoulder_lift_joint": -1.2443396400964142,
            "shoulder_pan_joint": 2.6996025414629847,
            "wrist_1_joint": -1.5485510000780065,
            "wrist_2_joint": -1.5709468930060704,
            "wrist_3_joint": 0.4420197071253992
        }
    },
    "waypoints": [
        {
            "positions": [
                2.6996025414629847,
                -1.2443396400964142,
                -1.9196185241190666,
                -1.5485510000780065,
                -1.5709468930060704,
                0.4420197071253992
            ]
        },
        {
            "positions": [
                2.5925793573804383,
                -1.2465526640242892,
                -1.7898498862323213,
                -1.5307573201726794,
                -1.5275433035007482,
                0.5276725850375918
            ]
        },
        {
            "positions": [
                2.4855561732978915,
                -1.248765687952164,
                -1.6600812483455762,
                -1.5129636402673525,
                -1.484139713995426,
                0.6133254629497846
            ]
        },
        {
            "positions": [
                2.378532989215345,
                -1.250978711880039,
                -1.530312610458831,
                -1.4951699603620254,
                -1.4407361244901038,
                0.6989783408619774
            ]
        },
        {
            "positions": [
                2.271509805132798,
                -1.2531917358079139,
                -1.4005439725720858,
                -1.4773762804566986,
                -1.3973325349847814,
                0.7846312187741701
            ]
        },
        {
            "positions": [
                2.164486621050252,
                -1.255404759735789,
                -1.2707753346853403,
                -1.4595826005513715,
                -1.3539289454794592,
                0.8702840966863628
            ]
        },
        {
            "positions": [
                2.057463436967705,
                -1.2576177836636637,
                -1.1410066967985952,
                -1.4417889206460446,
                -1.310525355974137,
                0.9559369745985555
            ]
        },
        {
            "positions": [
                1.9504402528851585,
                -1.2598308075915388,
                -1.01123805891185,
                -1.4239952407407175,
                -1.2671217664688148,
                1.0415898525107483
            ]
        },
        {
            "positions": [
                1.8434170688026121,
                -1.2620438315194136,
                -0.8814694210251048,
                -1.4062015608353906,
                -1.2237181769634926,
                1.127242730422941
            ]
        },
        {
            "positions": [
                1.7363938847200653,
                -1.2642568554472886,
                -0.7517007831383595,
                -1.3884078809300635,
                -1.1803145874581702,
                1.2128956083351339
            ]
        },
        {
            "positions": [
                1.6293707006375187,
                -1.2664698793751634,
                -0.6219321452516142,
                -1.3706142010247366,
                -1.136910997952848,
                1.2985484862473264
            ]
        },
        {
            "positions": [
                1.5223475165549722,
                -1.2686829033030385,
                -0.49216350736486913,
                -1.3528205211194095,
                -1.0935074084475258,
                1.384201364159519
            ]
        },
        {
            "positions": [
                1.4153243324724256,
                -1.2708959272309133,
                -0.3623948694781238,
                -1.3350268412140824,
                -1.0501038189422036,
                1.4698542420717118
            ]
        },
        {
            "positions": [
                1.3083011483898792,
                -1.2731089511587883,
                -0.23262623159137874,
                -1.3172331613087556,
                -1.0067002294368814,
                1.5555071199839046
            ]
        },
        {
            "positions": [
                1.2012779643073324,
                -1.2753219750866633,
                -0.10285759370463321,
                -1.2994394814034285,
                -0.9632966399315591,
                1.6411599978960973
            ]
        },
        {
            "positions": [
                1.094254780224786,
                -1.2775349990145382,
                0.026911044182111876,
                -1.2816458014981016,
                -0.9198930504262369,
                1.7268128758082901
            ]
        },
        {
            "positions": [
                0.9872315961422393,
                -1.2797480229424132,
                0.15667968206885696,
                -1.2638521215927745,
                -0.8764894609209147,
                1.812465753720483
            ]
        },
        {
            "positions": [
                0.8802084120596925,
                -1.281961046870288,
                0.2864483199556025,
                -1.2460584416874476,
                -0.8330858714155924,
                1.8981186316326757
            ]
        },
        {
            "positions": [
                0.7731852279771461,
                -1.284174070798163,
                0.4162169578423476,
                -1.2282647617821205,
                -0.7896822819102702,
                1.9837715095448685
            ]
        },
        {
            "positions": [
                0.6661620438945994,
                -1.2863870947260378,
                0.5459855957290927,
                -1.2104710818767936,
                -0.746278692404948,
                2.069424387457061
            ]
        },
        {
            "positions": [
                0.5591388598120526,
                -1.2886001186539129,
                0.6757542336158382,
                -1.1926774019714665,
                -0.7028751028996257,
                2.1550772653692536
            ]
        },
        {
            "positions": [
                0.4521156757295062,
                -1.2908131425817877,
                0.8055228715025833,
                -1.1748837220661397,
                -0.6594715133943035,
                2.2407301432814464
            ]
        },
        {
            "positions": [
                0.34509249164695976,
                -1.2930261665096627,
                0.9352915093893284,
                -1.1570900421608126,
                -0.6160679238889814,
                2.326383021193639
            ]
        },
        {
            "positions": [
                0.2380693075644129,
                -1.2952391904375375,
                1.065060147276074,
                -1.1392963622554855,
                -0.572664334383659,
                2.412035899105832
            ]
        },
        {
            "positions": [
                0.1310461234818664,
                -1.2974522143654126,
                1.1948287851628188,
                -1.1215026823501586,
                -0.5292607448783369,
                2.4976887770180247
            ]
        },
        {
            "positions": [
                0.1098471442979746,
                -1.2807360604315845,
                1.3109344895950765,
                -1.0855388675596747,
                -0.4494108201981062,
                2.5765196744275345
            ]
        },
        {
            "positions": [
                0.0886481651140828,
                -1.2640199064977566,
                1.4270401940273345,
                -1.0495750527691907,
                -0.3695608955178756,
                2.655350571837044
            ]
        },
        {
            "positions": [
                0.067449185930191,
                -1.2473037525639286,
                1.5431458984595923,
                -1.0136112379787068,
                -0.28971097083764497,
                2.7341814692465536
            ]
        },
        {
            "positions": [
                0.046250206746299205,
                -1.2305875986301005,
                1.65925160289185,
                -0.977647423188223,
                -0.20986104615741433,
                2.8130123666560634
            ]
        },
        {
            "positions": [
                0.06070431518058056,
                -1.209149512544564,
                1.74073962222371,
                -0.9369360924645381,
                -0.12955511814581416,
                2.885355159527593
            ]
        },
        {
            "positions": [
                0.07515842361486191,
                -1.1877114264590272,
                1.8222276415555698,
                -0.8962247617408534,
                -0.04924919013421397,
                2.957697952399123
            ]
        },
        {
            "positions": [
                0.08961253204914327,
                -1.1662733403734906,
                1.9037156608874297,
                -0.8555134310171686,
                0.03105673787738622,
                3.030040745270653
            ]
        },
        {
            "positions": [
                0.12317664109162409,
                -1.1409112995773047,
                1.9770811406435898,
                -0.814041258820476,
                0.11986996263793975,
                3.111987497058693
            ]
        }
    ]
}