{
    "goal": {
        "global_pose": {
            "orientation": {
                "w": 0.7031023502349854,
                "x": -0.7110244035720825,
                "y": 0.007748599164187908,
                "z": 0.005598929710686207
            },
            "position": {
                "x": 0.11585023208521307,
                "y": 0.44412534475326537,
                "z": 0.3711530566215515
            }
        },
        "name": "move_to_auspresseinheit_A"
    },
    "id": "BFMT_move_to_auspresseinheit_A_99",
    "joint_names": [
        "shoulder_pan_joint",
        "shoulder_lift_joint",
        "elbow_joint",
        "wrist_1_joint",
        "wrist_2_joint",
        "wrist_3_joint"
    ],
    "metrics": {
        "cart_traj_len": 0.6834570142556458,
        "distance_elbow_joint": 0.2101976230550604,
        "distance_shoulder_lift_joint": 0.5326387516175466,
        "distance_shoulder_pan_joint": 1.0441976384805742,
        "distance_wrist_1_joint": 0.7973900343648819,
        "distance_wrist_2_joint": 0.5276435819512453,
        "distance_wrist_3_joint": 0.18160652135188338,
        "smoothness": 0.48120933905790203,
        "time": 0.732418624,
        "traj_len": 1.814848244570656,
        "weighted_distance": 2.232021686687001
    },
    "planner": "BFMT",
    "start": {
        "state": {
            "elbow_joint": 2.4225746658250005,
            "shoulder_lift_joint": -1.3736534386056498,
            "shoulder_pan_joint": -0.3378633547517467,
            "wrist_1_joint": -1.0288598680537169,
            "wrist_2_joint": 1.233022673432363,
            "wrist_3_joint": -3.0940220416140027
        }
    },
    "waypoints": [
        {
            "positions": [
                -0.3378633547517467,
                -1.3736534386056498,
                2.4225746658250005,
                -1.0288598680537169,
                1.233022673432363,
                -3.0940220416140027
            ]
        },
        {
            "positions": [
                -0.2902438089673097,
                -1.3936908309955136,
                2.398268588255341,
                -0.8914418057244884,
                1.1413426226515686,
                -3.08083123926549
            ]
        },
        {
            "positions": [
                -0.24262426318287272,
                -1.4137282233853774,
                2.373962510685682,
                -0.7540237433952599,
                1.049662571870774,
                -3.0676404369169776
            ]
        },
        {
            "positions": [
                -0.19500471739843575,
                -1.4337656157752414,
                2.349656433116023,
                -0.6166056810660316,
                0.9579825210899795,
                -3.054449634568465
            ]
        },
        {
            "positions": [
                -0.14738517161399875,
                -1.4538030081651052,
                2.3253503555463637,
                -0.47918761873680304,
                0.8663024703091848,
                -3.0412588322199525
            ]
        },
        {
            "positions": [
                -0.09976562582956178,
                -1.473840400554969,
                2.3010442779767044,
                -0.3417695564075746,
                0.7746224195283904,
                -3.0280680298714397
            ]
        },
        {
            "positions": [
                0.06145435608211611,
                -1.5603307584886146,
                2.3187777250180575,
                -0.3638295009513225,
                0.7607737539189359,
                -3.051198531793304
            ]
        },
        {
            "positions": [
                0.222674337993794,
                -1.64682111642226,
                2.33651117205941,
                -0.3858894454950704,
                0.7469250883094813,
                -3.074329033715168
            ]
        },
        {
            "positions": [
                0.38389431990547185,
                -1.7333114743559055,
                2.354244619100763,
                -0.4079493900388183,
                0.7330764227000268,
                -3.097459535637032
            ]
        },
        {
            "positions": [
                0.5451143018171498,
                -1.819801832289551,
                2.3719780661421157,
                -0.43000933458256624,
                0.7192277570905723,
                -3.120590037558896
            ]
        },
        {
            "positions": [
                0.7063342837288276,
                -1.9062921902231964,
                2.3897115131834687,
                -0.4520692791263141,
                0.7053790914811178,
                -3.14372053948076
            ]
        }
    ]
}