{
    "goal": {
        "global_pose": {
            "orientation": {
                "w": 0.5084816262002911,
                "x": -0.4908360881923452,
                "y": 0.5182115481033761,
                "z": -0.48164630358495003
            },
            "position": {
                "x": 0.5540239810943604,
                "y": -0.46912469901144505,
                "z": 0.16403168439865112
            }
        },
        "name": "move_to_storage_B"
    },
    "id": "BFMT_move_to_storage_B_137",
    "joint_names": [
        "shoulder_pan_joint",
        "shoulder_lift_joint",
        "elbow_joint",
        "wrist_1_joint",
        "wrist_2_joint",
        "wrist_3_joint"
    ],
    "metrics": {
        "cart_traj_len": 0.834556509594012,
        "distance_elbow_joint": 0.6980356825016139,
        "distance_shoulder_lift_joint": 0.5209982955755588,
        "distance_shoulder_pan_joint": 0.18018767408913827,
        "distance_wrist_1_joint": 2.9805117854195746,
        "distance_wrist_2_joint": 2.719582897206356,
        "distance_wrist_3_joint": 3.1282488475077335,
        "smoothness": 0.08858050348716363,
        "time": 0.688647176,
        "traj_len": 3.198056469529576,
        "weighted_distance": 4.71000611039321
    },
    "planner": "BFMT",
    "start": {
        "state": {
            "elbow_joint": 1.664937868594044,
            "shoulder_lift_joint": -0.661644460510453,
            "shoulder_pan_joint": -0.9139846352900073,
            "wrist_1_joint": 2.146753192139373,
            "wrist_2_joint": -2.2341966793290973,
            "wrist_3_joint": 0.005466555786416001
        }
    },
    "waypoints": [
        {
            "positions": [
                -0.9139846352900073,
                -0.661644460510453,
                1.664937868594044,
                2.146753192139373,
                -2.2341966793290973,
                0.005466555786416001
            ]
        },
        {
            "positions": [
                -0.9209296292792837,
                -0.6861697064307489,
                1.691190968959551,
                2.058834994219267,
                -2.137219701418271,
                0.14044678274236774
            ]
        },
        {
            "positions": [
                -0.92787462326856,
                -0.7106949523510447,
                1.717444069325058,
                1.9709167962991605,
                -2.0402427235074443,
                0.2754270096983195
            ]
        },
        {
            "positions": [
                -0.9348196172578364,
                -0.7352201982713407,
                1.7436971696905652,
                1.882998598379054,
                -1.943265745596618,
                0.4104072366542712
            ]
        },
        {
            "positions": [
                -0.9417646112471127,
                -0.7597454441916366,
                1.7699502700560723,
                1.7950804004589478,
                -1.8462887676857915,
                0.5453874636102229
            ]
        },
        {
            "positions": [
                -0.948709605236389,
                -0.7842706901119325,
                1.7962033704215794,
                1.7071622025388413,
                -1.749311789774965,
                0.6803676905661746
            ]
        },
        {
            "positions": [
                -0.9556545992256654,
                -0.8087959360322283,
                1.8224564707870863,
                1.619244004618735,
                -1.6523348118641388,
                0.8153479175221263
            ]
        },
        {
            "positions": [
                -0.9625995932149418,
                -0.8333211819525242,
                1.8487095711525934,
                1.5313258066986286,
                -1.555357833953312,
                0.950328144478078
            ]
        },
        {
            "positions": [
                -0.9695445872042181,
                -0.8578464278728202,
                1.8749626715181005,
                1.4434076087785224,
                -1.4583808560424858,
                1.08530837143403
            ]
        },
        {
            "positions": [
                -0.9764895811934945,
                -0.882371673793116,
                1.9012157718836076,
                1.355489410858416,
                -1.361403878131659,
                1.2202885983899816
            ]
        },
        {
            "positions": [
                -0.9834345751827709,
                -0.9068969197134119,
                1.9274688722491147,
                1.2675712129383094,
                -1.2644269002208328,
                1.3552688253459333
            ]
        },
        {
            "positions": [
                -0.9903795691720472,
                -0.9314221656337078,
                1.9537219726146218,
                1.1796530150182032,
                -1.1674499223100063,
                1.4902490523018852
            ]
        },
        {
            "positions": [
                -0.9973245631613236,
                -0.9559474115540036,
                1.9799750729801289,
                1.091734817098097,
                -1.07047294439918,
                1.6252292792578367
            ]
        },
        {
            "positions": [
                -1.0042695571506,
                -0.9804726574742996,
                2.0062281733456357,
                1.0038166191779905,
                -0.9734959664883533,
                1.7602095062137886
            ]
        },
        {
            "positions": [
                -1.0112145511398762,
                -1.0049979033945955,
                2.032481273711143,
                0.9158984212578842,
                -0.8765189885775271,
                1.89518973316974
            ]
        },
        {
            "positions": [
                -1.0181595451291525,
                -1.0295231493148913,
                2.05873437407665,
                0.8279802233377778,
                -0.7795420106667006,
                2.030169960125692
            ]
        },
        {
            "positions": [
                -1.025104539118429,
                -1.0540483952351873,
                2.084987474442157,
                0.7400620254176713,
                -0.6825650327558741,
                2.165150187081644
            ]
        },
        {
            "positions": [
                -1.0320495331077053,
                -1.0785736411554832,
                2.111240574807664,
                0.652143827497565,
                -0.5855880548450478,
                2.3001304140375955
            ]
        },
        {
            "positions": [
                -1.0389945270969816,
                -1.103098887075779,
                2.1374936751731712,
                0.5642256295774586,
                -0.4886110769342211,
                2.4351106409935475
            ]
        },
        {
            "positions": [
                -1.045939521086258,
                -1.127624132996075,
                2.1637467755386783,
                0.47630743165735234,
                -0.39163409902339485,
                2.570090867949499
            ]
        },
        {
            "positions": [
                -1.0528845150755344,
                -1.1521493789163708,
                2.1899998759041854,
                0.3883892337372458,
                -0.29465712111256837,
                2.705071094905451
            ]
        },
        {
            "positions": [
                -1.0587827714046216,
                -1.1477931821778506,
                2.165289350876832,
                0.21379668702046745,
                -0.18322235839973608,
                2.7663059961038363
            ]
        },
        {
            "positions": [
                -1.064681027733709,
                -1.1434369854393305,
                2.140578825849479,
                0.03920414030368907,
                -0.0717875956869038,
                2.827540897302222
            ]
        },
        {
            "positions": [
                -1.0705792840627963,
                -1.1390807887008103,
                2.1158683008221257,
                -0.1353884064130893,
                0.039647167025928465,
                2.8887757985006073
            ]
        },
        {
            "positions": [
                -1.0764775403918836,
                -1.1347245919622904,
                2.091157775794773,
                -0.3099809531298677,
                0.15108192973876078,
                2.9500106996989928
            ]
        },
        {
            "positions": [
                -1.0823757967209708,
                -1.1303683952237702,
                2.0664472507674194,
                -0.48457349984664605,
                0.26251669245159315,
                3.0112456008973782
            ]
        },
        {
            "positions": [
                -1.0882740530500583,
                -1.12601219848525,
                2.0417367257400665,
                -0.6591660465634244,
                0.3739514551644253,
                3.0724805020957637
            ]
        },
        {
            "positions": [
                -1.0941723093791456,
                -1.1216560017467299,
                2.017026200712713,
                -0.8337585932802027,
                0.4853862178772576,
                3.133715403294149
            ]
        }
    ]
}