{
    "goal": {
        "global_pose": {
            "orientation": {
                "w": -0.00223480608172531,
                "x": 0.0024358444001904467,
                "y": 0.7094548369677653,
                "z": -0.704743149386269
            },
            "position": {
                "x": -0.37947507619857795,
                "y": -0.6371506643295288,
                "z": 0.19426114857196808
            }
        },
        "name": "move_to_magneteinheit_C"
    },
    "id": "BFMT_move_to_magneteinheit_C_107",
    "joint_names": [
        "shoulder_pan_joint",
        "shoulder_lift_joint",
        "elbow_joint",
        "wrist_1_joint",
        "wrist_2_joint",
        "wrist_3_joint"
    ],
    "metrics": {
        "cart_traj_len": 1.4656425962705302,
        "distance_elbow_joint": 0.7341662629501409,
        "distance_shoulder_lift_joint": 1.1877298994324594,
        "distance_shoulder_pan_joint": 1.045470741785605,
        "distance_wrist_1_joint": 1.1874027151833417,
        "distance_wrist_2_joint": 1.529020470346143,
        "distance_wrist_3_joint": 1.0315152183260325,
        "smoothness": 2.3450287274751234,
        "time": 1.242029117,
        "traj_len": 2.591390612783747,
        "weighted_distance": 3.3903921499150025
    },
    "planner": "BFMT",
    "start": {
        "state": {
            "elbow_joint": 1.9565354010623817,
            "shoulder_lift_joint": -1.4165861575791021,
            "shoulder_pan_joint": -1.6717766225146293,
            "wrist_1_joint": -0.5286633292919765,
            "wrist_2_joint": 1.472756589071564,
            "wrist_3_joint": -3.1238370188695823
        }
    },
    "waypoints": [
        {
            "positions": [
                -1.6717766225146293,
                -1.4165861575791021,
                1.9565354010623817,
                -0.5286633292919765,
                1.472756589071564,
                -3.1238370188695823
            ]
        },
        {
            "positions": [
                -1.6572923319690829,
                -1.5312009174317873,
                1.9242854061367614,
                -0.636178953029992,
                1.5119395088949288,
                -3.1535520195515523
            ]
        },
        {
            "positions": [
                -1.6428080414235366,
                -1.6458156772844725,
                1.892035411211141,
                -0.7436945767680073,
                1.5511224287182936,
                -3.1832670202335223
            ]
        },
        {
            "positions": [
                -1.6283237508779902,
                -1.7604304371371577,
                1.8597854162855207,
                -0.8512102005060227,
                1.5903053485416583,
                -3.2129820209154922
            ]
        },
        {
            "positions": [
                -1.6138394603324437,
                -1.875045196989843,
                1.8275354213599004,
                -0.9587258242440382,
                1.6294882683650231,
                -3.242697021597462
            ]
        },
        {
            "positions": [
                -1.7311200179240422,
                -1.8262863188671317,
                1.872842111452324,
                -0.9670357360042194,
                1.5110402113166295,
                -3.197550576472721
            ]
        },
        {
            "positions": [
                -1.8484005755156407,
                -1.7775274407444206,
                1.9181488015447477,
                -0.9753456477644007,
                1.392592154268236,
                -3.1524041313479794
            ]
        },
        {
            "positions": [
                -1.9656811331072392,
                -1.7287685626217093,
                1.9634554916371711,
                -0.983655559524582,
                1.2741440972198426,
                -3.107257686223238
            ]
        },
        {
            "positions": [
                -2.0829616906988377,
                -1.6800096844989982,
                2.008762181729595,
                -0.9919654712847632,
                1.155696040171449,
                -3.0621112410984965
            ]
        },
        {
            "positions": [
                -2.2002422482904365,
                -1.631250806376287,
                2.0540688718220186,
                -1.0002753830449445,
                1.0372479831230552,
                -3.016964795973755
            ]
        },
        {
            "positions": [
                -2.3175228058820347,
                -1.5824919282535759,
                2.099375561914442,
                -1.0085852948051257,
                0.9187999260746618,
                -2.9718183508490137
            ]
        },
        {
            "positions": [
                -2.4348033634736335,
                -1.5337330501308646,
                2.1446822520068656,
                -1.016895206565307,
                0.8003518690262682,
                -2.9266719057242723
            ]
        },
        {
            "positions": [
                -2.456218049064152,
                -1.474755219211976,
                2.1844218473028727,
                -0.9972473288796885,
                0.7339602908559724,
                -2.91925078870268
            ]
        },
        {
            "positions": [
                -2.4776327346546707,
                -1.4157773882930873,
                2.2241614425988803,
                -0.97759945119407,
                0.6675687126856765,
                -2.911829671681087
            ]
        },
        {
            "positions": [
                -2.4975575479033947,
                -1.3291276142245583,
                2.1626838865341473,
                -1.0666106029799898,
                0.6016614465584222,
                -2.853870660089381
            ]
        },
        {
            "positions": [
                -2.5174823611521187,
                -1.242477840156029,
                2.101206330469414,
                -1.1556217547659096,
                0.5357541804311678,
                -2.795911648497675
            ]
        },
        {
            "positions": [
                -2.5374071744008426,
                -1.1558280660875,
                2.039728774404681,
                -1.2446329065518293,
                0.46984691430391357,
                -2.737952636905969
            ]
        },
        {
            "positions": [
                -2.5160852192225023,
                -1.159179309127292,
                2.031692909799854,
                -1.113685697491491,
                0.5407293933011048,
                -2.873922913874855
            ]
        },
        {
            "positions": [
                -2.4947632640441624,
                -1.1625305521670837,
                2.0236570451950273,
                -0.9827384884311527,
                0.6116118722982962,
                -3.0098931908437416
            ]
        },
        {
            "positions": [
                -2.473441308865822,
                -1.1658817952068756,
                2.0156211805902005,
                -0.8517912793708144,
                0.6824943512954874,
                -3.145863467812628
            ]
        }
    ]
}