{
    "goal": {
        "global_pose": {
            "orientation": {
                "w": -0.4816463035849501,
                "x": 0.5182115481033762,
                "y": 0.4908360881923453,
                "z": -0.5084816262002911
            },
            "position": {
                "x": -0.8240239810943604,
                "y": -0.300875300988555,
                "z": 0.16403168439865112
            }
        },
        "name": "move_to_storage_C"
    },
    "id": "BFMT_move_to_storage_C_136",
    "joint_names": [
        "shoulder_pan_joint",
        "shoulder_lift_joint",
        "elbow_joint",
        "wrist_1_joint",
        "wrist_2_joint",
        "wrist_3_joint"
    ],
    "metrics": {
        "cart_traj_len": 0.5761069765439197,
        "distance_elbow_joint": 0.2577737551750594,
        "distance_shoulder_lift_joint": 0.18768672083777782,
        "distance_shoulder_pan_joint": 0.49511261091974035,
        "distance_wrist_1_joint": 0.08224165747806778,
        "distance_wrist_2_joint": 1.0634041234545344,
        "distance_wrist_3_joint": 0.07492922335382568,
        "smoothness": 2.5376526478085547e-16,
        "time": 0.501178138,
        "traj_len": 1.470084382346471,
        "weighted_distance": 1.859207443740278
    },
    "planner": "BFMT",
    "start": {
        "state": {
            "elbow_joint": 2.010868314990456,
            "shoulder_lift_joint": -1.1634956873337592,
            "shoulder_pan_joint": -2.4736205022346125,
            "wrist_1_joint": -0.8367026794202681,
            "wrist_2_joint": 0.6746043897044499,
            "wrist_3_joint": -3.1496632123970403
        }
    },
    "waypoints": [
        {
            "positions": [
                -2.4736205022346125,
                -1.1634956873337592,
                2.010868314990456,
                -0.8367026794202681,
                0.6746043897044499,
                -3.1496632123970403
            ]
        },
        {
            "positions": [
                -2.556139270721236,
                -1.1322145671941295,
                1.9679060224612792,
                -0.8229957365072568,
                0.8518384102802057,
                -3.137175008504736
            ]
        },
        {
            "positions": [
                -2.638658039207859,
                -1.1009334470545,
                1.9249437299321026,
                -0.8092887935942455,
                1.0290724308559613,
                -3.124686804612432
            ]
        },
        {
            "positions": [
                -2.7211768076944827,
                -1.0696523269148703,
                1.881981437402926,
                -0.7955818506812342,
                1.206306451431717,
                -3.112198600720127
            ]
        },
        {
            "positions": [
                -2.803695576181106,
                -1.0383712067752406,
                1.8390191448737496,
                -0.7818749077682229,
                1.3835404720074727,
                -3.099710396827823
            ]
        },
        {
            "positions": [
                -2.8862143446677293,
                -1.007090086635611,
                1.796056852344573,
                -0.7681679648552117,
                1.5607744925832288,
                -3.087222192935519
            ]
        },
        {
            "positions": [
                -2.968733113154353,
                -0.9758089664959814,
                1.7530945598153964,
                -0.7544610219422003,
                1.7380085131589842,
                -3.0747339890432146
            ]
        }
    ]
}