{
    "goal": {
        "global_pose": {
            "orientation": {
                "w": 0.5084816262002911,
                "x": -0.4908360881923452,
                "y": 0.5182115481033761,
                "z": -0.48164630358495003
            },
            "position": {
                "x": 0.5540239810943604,
                "y": -0.46912469901144505,
                "z": 0.16403168439865112
            }
        },
        "name": "move_to_storage_B"
    },
    "id": "BFMT_move_to_storage_B_17",
    "joint_names": [
        "shoulder_pan_joint",
        "shoulder_lift_joint",
        "elbow_joint",
        "wrist_1_joint",
        "wrist_2_joint",
        "wrist_3_joint"
    ],
    "metrics": {
        "cart_traj_len": 1.4391175314219227,
        "distance_elbow_joint": 0.8868738272476353,
        "distance_shoulder_lift_joint": 1.669828122931739,
        "distance_shoulder_pan_joint": 0.5019609318233847,
        "distance_wrist_1_joint": 2.994081285856973,
        "distance_wrist_2_joint": 2.7052688162481857,
        "distance_wrist_3_joint": 3.128395522484314,
        "smoothness": 0.22606143417349006,
        "time": 0.715714706,
        "traj_len": 3.447667110756524,
        "weighted_distance": 4.882883334021612
    },
    "planner": "BFMT",
    "start": {
        "state": {
            "elbow_joint": 1.664937868594044,
            "shoulder_lift_joint": -0.661644460510453,
            "shoulder_pan_joint": -0.9139846352900073,
            "wrist_1_joint": 2.146753192139373,
            "wrist_2_joint": -2.2341966793290973,
            "wrist_3_joint": 0.005466555786416001
        }
    },
    "waypoints": [
        {
            "positions": [
                -0.9139846352900073,
                -0.661644460510453,
                1.664937868594044,
                2.146753192139373,
                -2.2341966793290973,
                0.005466555786416001
            ]
        },
        {
            "positions": [
                -0.9067115824247866,
                -0.7100359969281781,
                1.6930724659315524,
                2.056720532170758,
                -2.1568816905986106,
                -0.12461744245999867
            ]
        },
        {
            "positions": [
                -0.8994385295595657,
                -0.7584275333459032,
                1.7212070632690608,
                1.9666878722021426,
                -2.0795667018681234,
                -0.2547014407064133
            ]
        },
        {
            "positions": [
                -0.892165476694345,
                -0.8068190697636283,
                1.7493416606065693,
                1.8766552122335272,
                -2.0022517131376367,
                -0.38478543895282796
            ]
        },
        {
            "positions": [
                -0.8848924238291241,
                -0.8552106061813534,
                1.7774762579440777,
                1.786622552264912,
                -1.9249367244071496,
                -0.5148694371992427
            ]
        },
        {
            "positions": [
                -0.8776193709639034,
                -0.9036021425990786,
                1.8056108552815862,
                1.6965898922962965,
                -1.8476217356766627,
                -0.6449534354456573
            ]
        },
        {
            "positions": [
                -0.8703463180986826,
                -0.9519936790168035,
                1.8337454526190946,
                1.606557232327681,
                -1.7703067469461757,
                -0.775037433692072
            ]
        },
        {
            "positions": [
                -0.8630732652334618,
                -1.0003852154345287,
                1.8618800499566033,
                1.516524572359066,
                -1.692991758215689,
                -0.9051214319384867
            ]
        },
        {
            "positions": [
                -0.855800212368241,
                -1.048776751852254,
                1.8900146472941117,
                1.4264919123904505,
                -1.615676769485202,
                -1.0352054301849014
            ]
        },
        {
            "positions": [
                -0.8485271595030203,
                -1.097168288269979,
                1.9181492446316202,
                1.336459252421835,
                -1.538361780754715,
                -1.1652894284313162
            ]
        },
        {
            "positions": [
                -0.8412541066377994,
                -1.145559824687704,
                1.9462838419691286,
                1.2464265924532199,
                -1.461046792024228,
                -1.2953734266777306
            ]
        },
        {
            "positions": [
                -0.8339810537725787,
                -1.193951361105429,
                1.974418439306637,
                1.1563939324846046,
                -1.3837318032937413,
                -1.4254574249241454
            ]
        },
        {
            "positions": [
                -0.826708000907358,
                -1.2423428975231543,
                2.0025530366441453,
                1.0663612725159892,
                -1.3064168145632544,
                -1.55554142317056
            ]
        },
        {
            "positions": [
                -0.8194349480421371,
                -1.2907344339408793,
                2.030687633981654,
                0.9763286125473738,
                -1.2291018258327673,
                -1.6856254214169748
            ]
        },
        {
            "positions": [
                -0.8121618951769164,
                -1.3391259703586043,
                2.0588222313191626,
                0.8862959525787586,
                -1.1517868371022806,
                -1.8157094196633894
            ]
        },
        {
            "positions": [
                -0.8048888423116956,
                -1.3875175067763295,
                2.086956828656671,
                0.7962632926101434,
                -1.0744718483717937,
                -1.945793417909804
            ]
        },
        {
            "positions": [
                -0.7976157894464748,
                -1.4359090431940547,
                2.1150914259941795,
                0.7062306326415277,
                -0.9971568596413067,
                -2.0758774161562186
            ]
        },
        {
            "positions": [
                -0.790342736581254,
                -1.4843005796117796,
                2.143226023331688,
                0.6161979726729125,
                -0.9198418709108198,
                -2.205961414402633
            ]
        },
        {
            "positions": [
                -0.7830696837160332,
                -1.5326921160295048,
                2.1713606206691964,
                0.5261653127042971,
                -0.8425268821803327,
                -2.336045412649048
            ]
        },
        {
            "positions": [
                -0.7757966308508124,
                -1.58108365244723,
                2.199495218006705,
                0.4361326527356819,
                -0.765211893449846,
                -2.4661294108954626
            ]
        },
        {
            "positions": [
                -0.7685235779855917,
                -1.629475188864955,
                2.2276298153442133,
                0.3460999927670665,
                -0.687896904719359,
                -2.596213409141877
            ]
        },
        {
            "positions": [
                -0.761250525120371,
                -1.6778667252826802,
                2.255764412681722,
                0.25606733279845106,
                -0.6105819159888721,
                -2.726297407388292
            ]
        },
        {
            "positions": [
                -0.7539774722551501,
                -1.7262582617004052,
                2.2838990100192302,
                0.16603467282983586,
                -0.5332669272583852,
                -2.8563814056347065
            ]
        },
        {
            "positions": [
                -0.7919723354538754,
                -1.6590122259513178,
                2.254130933816736,
                0.05343880988012062,
                -0.42167369790533255,
                -2.8859978013083945
            ]
        },
        {
            "positions": [
                -0.8299671986526007,
                -1.5917661902022304,
                2.2243628576142416,
                -0.05915705306959462,
                -0.3100804685522799,
                -2.9156141969820824
            ]
        },
        {
            "positions": [
                -0.867962061851326,
                -1.5245201544531428,
                2.1945947814117472,
                -0.17175291601930986,
                -0.19848723919922717,
                -2.9452305926557703
            ]
        },
        {
            "positions": [
                -0.9059569250500512,
                -1.4572741187040554,
                2.164826705209253,
                -0.2843487789690251,
                -0.08689400984617451,
                -2.974846988329458
            ]
        },
        {
            "positions": [
                -0.9439517882487766,
                -1.390028082954968,
                2.1350586290067586,
                -0.39694464191874035,
                0.024699219506878256,
                -3.0044633840031465
            ]
        },
        {
            "positions": [
                -0.9819466514475018,
                -1.3227820472058807,
                2.1052905528042642,
                -0.5095405048684556,
                0.13629244885993086,
                -3.0340797796768344
            ]
        },
        {
            "positions": [
                -1.0199415146462272,
                -1.255536011456793,
                2.07552247660177,
                -0.6221363678181708,
                0.24788567821298357,
                -3.0636961753505223
            ]
        },
        {
            "positions": [
                -1.0579363778449524,
                -1.188289975707706,
                2.0457544003992756,
                -0.7347322307678861,
                0.3594789075660362,
                -3.09331257102421
            ]
        },
        {
            "positions": [
                -1.0959312410436777,
                -1.1210439399586183,
                2.0159863241967813,
                -0.8473280937176013,
                0.47107213691908884,
                -3.122928966697898
            ]
        }
    ]
}