{
    "goal": {
        "global_pose": {
            "orientation": {
                "w": 0.7031023502349854,
                "x": -0.7110244035720825,
                "y": 0.007748599164187908,
                "z": 0.005598929710686207
            },
            "position": {
                "x": 0.11585023208521307,
                "y": 0.44412534475326537,
                "z": 0.3711530566215515
            }
        },
        "name": "move_to_auspresseinheit_A"
    },
    "id": "BFMT_move_to_auspresseinheit_A_75",
    "joint_names": [
        "shoulder_pan_joint",
        "shoulder_lift_joint",
        "elbow_joint",
        "wrist_1_joint",
        "wrist_2_joint",
        "wrist_3_joint"
    ],
    "metrics": {
        "cart_traj_len": 0.9082961812288062,
        "distance_elbow_joint": 0.28862643253578435,
        "distance_shoulder_lift_joint": 1.063400880399175,
        "distance_shoulder_pan_joint": 1.0433278694918378,
        "distance_wrist_1_joint": 0.5473522917373382,
        "distance_wrist_2_joint": 0.5221837230277057,
        "distance_wrist_3_joint": 0.12294488021928762,
        "smoothness": 0.837065130683635,
        "time": 0.6226464709999999,
        "traj_len": 1.8941584087428192,
        "weighted_distance": 2.214331016947274
    },
    "planner": "BFMT",
    "start": {
        "state": {
            "elbow_joint": 2.4225746658250005,
            "shoulder_lift_joint": -1.3736534386056498,
            "shoulder_pan_joint": -0.3378633547517467,
            "wrist_1_joint": -1.0288598680537169,
            "wrist_2_joint": 1.233022673432363,
            "wrist_3_joint": -3.0940220416140027
        }
    },
    "waypoints": [
        {
            "positions": [
                -0.3378633547517467,
                -1.3736534386056498,
                2.4225746658250005,
                -1.0288598680537169,
                1.233022673432363,
                -3.0940220416140027
            ]
        },
        {
            "positions": [
                -0.2800200562033045,
                -1.5072018664171134,
                2.39653471989819,
                -0.9598808583800691,
                1.1821303711013853,
                -3.086525851334513
            ]
        },
        {
            "positions": [
                -0.22217675765486228,
                -1.6407502942285768,
                2.3704947739713798,
                -0.8909018487064214,
                1.1312380687704078,
                -3.0790296610550234
            ]
        },
        {
            "positions": [
                -0.16433345910642005,
                -1.7742987220400401,
                2.344454828044569,
                -0.8219228390327737,
                1.08034576643943,
                -3.0715334707755337
            ]
        },
        {
            "positions": [
                -0.10649016055797783,
                -1.9078471498515037,
                2.3184148821177586,
                -0.752943829359126,
                1.0294534641084523,
                -3.064037280496044
            ]
        },
        {
            "positions": [
                -0.04864686200953561,
                -2.0413955776629673,
                2.2923749361909485,
                -0.6839648196854782,
                0.9785611617774745,
                -3.0565410902165544
            ]
        },
        {
            "positions": [
                0.009196436538906588,
                -2.1749440054744307,
                2.266334990264138,
                -0.6149858100118305,
                0.9276688594464969,
                -3.0490448999370647
            ]
        },
        {
            "positions": [
                0.18326345608920272,
                -2.109416427091832,
                2.2994316795078684,
                -0.5816162515879675,
                0.8734613821860371,
                -3.0685368345726522
            ]
        },
        {
            "positions": [
                0.3573304756394988,
                -2.0438888487092335,
                2.332528368751599,
                -0.5482466931641046,
                0.8192539049255771,
                -3.0880287692082398
            ]
        },
        {
            "positions": [
                0.531397495189795,
                -1.9783612703266351,
                2.365625057995329,
                -0.5148771347402417,
                0.7650464276651172,
                -3.107520703843827
            ]
        },
        {
            "positions": [
                0.7054645147400911,
                -1.9128336919440365,
                2.3987217472390596,
                -0.48150757631637864,
                0.7108389504046574,
                -3.1270126384794144
            ]
        }
    ]
}