{
    "goal": {
        "global_pose": {
            "orientation": {
                "w": 0.005598929693374612,
                "x": 0.007748599140229565,
                "y": 0.7110244013736278,
                "z": -0.7031023480610252
            },
            "position": {
                "x": 0.1141497679147869,
                "y": -0.7141253447532654,
                "z": 0.3711530566215515
            }
        },
        "name": "move_to_auspresseinheit_B"
    },
    "id": "BFMT_move_to_auspresseinheit_B_129",
    "joint_names": [
        "shoulder_pan_joint",
        "shoulder_lift_joint",
        "elbow_joint",
        "wrist_1_joint",
        "wrist_2_joint",
        "wrist_3_joint"
    ],
    "metrics": {
        "cart_traj_len": 0.5657898959685156,
        "distance_elbow_joint": 0.06244108863660336,
        "distance_shoulder_lift_joint": 0.2950296189973103,
        "distance_shoulder_pan_joint": 0.5760003791744095,
        "distance_wrist_1_joint": 0.32316152465635584,
        "distance_wrist_2_joint": 1.0060322693447112,
        "distance_wrist_3_joint": 0.00778480188164643,
        "smoothness": 3.806478935924272e-16,
        "time": 0.477338986,
        "traj_len": 1.5068011423844343,
        "weighted_distance": 1.9013713683695241
    },
    "planner": "BFMT",
    "start": {
        "state": {
            "elbow_joint": 2.0193083361928714,
            "shoulder_lift_joint": -1.1220246554650708,
            "shoulder_pan_joint": -1.0952077554168747,
            "wrist_1_joint": -0.8559753972642168,
            "wrist_2_joint": 0.4759566250798843,
            "wrist_3_joint": -3.1240929996934557
        }
    },
    "waypoints": [
        {
            "positions": [
                -1.0952077554168747,
                -1.1220246554650708,
                2.0193083361928714,
                -0.8559753972642168,
                0.4759566250798843,
                -3.1240929996934557
            ]
        },
        {
            "positions": [
                -1.1912078186126096,
                -1.1711962586312892,
                2.008901488086771,
                -0.8021151431548241,
                0.6436286699706695,
                -3.122795532713181
            ]
        },
        {
            "positions": [
                -1.2872078818083446,
                -1.2203678617975076,
                1.9984946399806702,
                -0.7482548890454315,
                0.8113007148614546,
                -3.121498065732907
            ]
        },
        {
            "positions": [
                -1.3832079450040795,
                -1.269539464963726,
                1.9880877918745696,
                -0.6943946349360388,
                0.97897275975224,
                -3.1202005987526324
            ]
        },
        {
            "positions": [
                -1.4792080081998142,
                -1.3187110681299443,
                1.9776809437684693,
                -0.6405343808266463,
                1.146644804643025,
                -3.118903131772358
            ]
        },
        {
            "positions": [
                -1.5752080713955492,
                -1.3678826712961627,
                1.9672740956623687,
                -0.5866741267172535,
                1.3143168495338104,
                -3.117605664792084
            ]
        },
        {
            "positions": [
                -1.6712081345912841,
                -1.417054274462381,
                1.956867247556268,
                -0.532813872607861,
                1.4819888944245956,
                -3.1163081978118092
            ]
        }
    ]
}