{
    "goal": {
        "global_pose": {
            "orientation": {
                "w": 0.7047431493862688,
                "x": -0.7094548369677653,
                "y": 0.0024358444001904,
                "z": -0.0022348060817251984
            },
            "position": {
                "x": -0.39052492380142206,
                "y": 0.3671506643295288,
                "z": 0.19426114857196808
            }
        },
        "name": "move_to_magneteinheit_D"
    },
    "id": "BFMT_move_to_magneteinheit_D_146",
    "joint_names": [
        "shoulder_pan_joint",
        "shoulder_lift_joint",
        "elbow_joint",
        "wrist_1_joint",
        "wrist_2_joint",
        "wrist_3_joint"
    ],
    "metrics": {
        "cart_traj_len": 4.448037673525207,
        "distance_elbow_joint": 3.320796649264428,
        "distance_shoulder_lift_joint": 1.6875928241068368,
        "distance_shoulder_pan_joint": 2.916515257795331,
        "distance_wrist_1_joint": 3.1150196024496255,
        "distance_wrist_2_joint": 1.2870151869564275,
        "distance_wrist_3_joint": 6.28384245176982,
        "smoothness": 0.20359530294192094,
        "time": 1.2263293050000001,
        "traj_len": 4.314021554459652,
        "weighted_distance": 5.964939368114999
    },
    "planner": "BFMT",
    "start": {
        "state": {
            "elbow_joint": 0.749534889911806,
            "shoulder_lift_joint": -0.6476975780787326,
            "shoulder_pan_joint": -2.711696901376241,
            "wrist_1_joint": -0.07506478083263063,
            "wrist_2_joint": 0.43296659715538205,
            "wrist_3_joint": -3.14703540197715
        }
    },
    "waypoints": [
        {
            "positions": [
                -2.711696901376241,
                -0.6476975780787326,
                0.749534889911806,
                -0.07506478083263063,
                0.43296659715538205,
                -3.14703540197715
            ]
        },
        {
            "positions": [
                -2.718071386209015,
                -0.6197533156677731,
                0.7232801386033707,
                -0.20651137678821008,
                0.43199808789855393,
                -3.030042268633169
            ]
        },
        {
            "positions": [
                -2.7244458710417887,
                -0.5918090532568137,
                0.6970253872949355,
                -0.3379579727437895,
                0.43102957864172575,
                -2.9130491352891874
            ]
        },
        {
            "positions": [
                -2.7308203558745623,
                -0.5638647908458542,
                0.6707706359865001,
                -0.469404568699369,
                0.43006106938489763,
                -2.796056001945206
            ]
        },
        {
            "positions": [
                -2.7371948407073363,
                -0.5359205284348947,
                0.6445158846780649,
                -0.6008511646549484,
                0.4290925601280695,
                -2.679062868601225
            ]
        },
        {
            "positions": [
                -2.758112533005792,
                -0.5023252285983223,
                0.6972332843304555,
                -0.6884464129688388,
                0.4672972266842011,
                -2.5858522834209645
            ]
        },
        {
            "positions": [
                -2.7790302253042474,
                -0.4687299287617499,
                0.7499506839828461,
                -0.7760416612827293,
                0.5055018932403327,
                -2.4926416982407043
            ]
        },
        {
            "positions": [
                -2.7781502307076233,
                -0.45908138714346175,
                0.7038791265911397,
                -0.9153702934615813,
                0.509500675743916,
                -2.3202286781262966
            ]
        },
        {
            "positions": [
                -2.777270236110999,
                -0.4494328455251736,
                0.6578075691994332,
                -1.0546989256404333,
                0.5134994582474993,
                -2.147815658011889
            ]
        },
        {
            "positions": [
                -2.776390241514375,
                -0.4397843039068855,
                0.6117360118077266,
                -1.1940275578192852,
                0.5174982407510826,
                -1.9754026378974814
            ]
        },
        {
            "positions": [
                -2.7755102469177504,
                -0.43013576228859735,
                0.5656644544160202,
                -1.333356189998137,
                0.521497023254666,
                -1.8029896177830738
            ]
        },
        {
            "positions": [
                -2.7746302523211264,
                -0.4204872206703092,
                0.5195928970243138,
                -1.472684822176989,
                0.5254958057582493,
                -1.630576597668666
            ]
        },
        {
            "positions": [
                -2.773750257724502,
                -0.41083867905202104,
                0.47352133963260723,
                -1.612013454355841,
                0.5294945882618327,
                -1.4581635775542583
            ]
        },
        {
            "positions": [
                -2.772870263127878,
                -0.4011901374337329,
                0.42744978224090074,
                -1.751342086534693,
                0.533493370765416,
                -1.2857505574398504
            ]
        },
        {
            "positions": [
                -2.771990268531254,
                -0.3915415958154448,
                0.38137822484919426,
                -1.8906707187135448,
                0.5374921532689994,
                -1.113337537325443
            ]
        },
        {
            "positions": [
                -2.7711102739346294,
                -0.3818930541971566,
                0.3353066674574878,
                -2.0299993508923966,
                0.5414909357725827,
                -0.9409245172110352
            ]
        },
        {
            "positions": [
                -2.7702302793380054,
                -0.3722445125788685,
                0.2892351100657813,
                -2.169327983071249,
                0.545489718276166,
                -0.7685114970966276
            ]
        },
        {
            "positions": [
                -2.769350284741381,
                -0.3625959709605803,
                0.24316355267407486,
                -2.3086566152501007,
                0.5494885007797493,
                -0.5960984769822202
            ]
        },
        {
            "positions": [
                -2.768470290144757,
                -0.3529474293422922,
                0.19709199528236837,
                -2.4479852474289525,
                0.5534872832833326,
                -0.42368545686781245
            ]
        },
        {
            "positions": [
                -2.652394579641977,
                -0.4040095931486081,
                0.1254297323594062,
                -2.4582139991410434,
                0.5629141192131454,
                -0.28958838575242074
            ]
        },
        {
            "positions": [
                -2.5363188691391967,
                -0.455071756954924,
                0.05376746943644403,
                -2.4684427508531344,
                0.572340955142958,
                -0.15549131463702898
            ]
        },
        {
            "positions": [
                -2.4202431586364166,
                -0.50613392076124,
                -0.01789479348651815,
                -2.4786715025652253,
                0.5817677910727708,
                -0.02139424352163727
            ]
        },
        {
            "positions": [
                -2.3041674481336365,
                -0.5571960845675559,
                -0.0895570564094803,
                -2.488900254277316,
                0.5911946270025834,
                0.1127028275937545
            ]
        },
        {
            "positions": [
                -2.188091737630857,
                -0.6082582483738719,
                -0.1612193193324425,
                -2.499129005989407,
                0.6006214629323962,
                0.2467998987091462
            ]
        },
        {
            "positions": [
                -2.0720160271280768,
                -0.6593204121801877,
                -0.23288158225540467,
                -2.5093577577014985,
                0.6100482988622089,
                0.3808969698245379
            ]
        },
        {
            "positions": [
                -1.9559403166252967,
                -0.7103825759865037,
                -0.3045438451783669,
                -2.5195865094135894,
                0.6194751347920215,
                0.5149940409399297
            ]
        },
        {
            "positions": [
                -1.8398646061225166,
                -0.7614447397928197,
                -0.376206108101329,
                -2.5298152611256803,
                0.6289019707218343,
                0.6490911120553214
            ]
        },
        {
            "positions": [
                -1.7237888956197365,
                -0.8125069035991356,
                -0.44786837102429117,
                -2.5400440128377713,
                0.638328806651647,
                0.7831881831707131
            ]
        },
        {
            "positions": [
                -1.6077131851169566,
                -0.8635690674054515,
                -0.5195306339472534,
                -2.550272764549862,
                0.6477556425814597,
                0.9172852542861049
            ]
        },
        {
            "positions": [
                -1.4916374746141765,
                -0.9146312312117675,
                -0.5911928968702156,
                -2.560501516261953,
                0.6571824785112724,
                1.0513823254014967
            ]
        },
        {
            "positions": [
                -1.3755617641113964,
                -0.9656933950180833,
                -0.6628551597931778,
                -2.570730267974044,
                0.6666093144410851,
                1.1854793965168882
            ]
        },
        {
            "positions": [
                -1.2594860536086165,
                -1.016755558824399,
                -0.7345174227161397,
                -2.580959019686135,
                0.6760361503708978,
                1.31957646763228
            ]
        },
        {
            "positions": [
                -1.1434103431058362,
                -1.0678177226307153,
                -0.8061796856391021,
                -2.591187771398226,
                0.6854629863007105,
                1.453673538747672
            ]
        },
        {
            "positions": [
                -1.0273346326030564,
                -1.118879886437031,
                -0.8778419485620641,
                -2.601416523110317,
                0.6948898222305232,
                1.587770609863064
            ]
        },
        {
            "positions": [
                -0.9112589221002763,
                -1.169942050243347,
                -0.9495042114850263,
                -2.6116452748224077,
                0.704316658160336,
                1.7218676809784554
            ]
        },
        {
            "positions": [
                -0.7951832115974964,
                -1.221004214049663,
                -1.0211664744079885,
                -2.6218740265344986,
                0.7137434940901486,
                1.855964752093847
            ]
        },
        {
            "positions": [
                -0.6791075010947161,
                -1.272066377855979,
                -1.0928287373309507,
                -2.63210277824659,
                0.7231703300199613,
                1.9900618232092389
            ]
        },
        {
            "positions": [
                -0.563031790591936,
                -1.3231285416622949,
                -1.1644910002539128,
                -2.642331529958681,
                0.7325971659497741,
                2.124158894324631
            ]
        },
        {
            "positions": [
                -0.4469560800891563,
                -1.3741907054686107,
                -1.236153263176875,
                -2.652560281670772,
                0.7420240018795867,
                2.2582559654400223
            ]
        },
        {
            "positions": [
                -0.33088036958637623,
                -1.4252528692749267,
                -1.3078155260998372,
                -2.6627890333828628,
                0.7514508378093995,
                2.392353036555414
            ]
        },
        {
            "positions": [
                -0.21480465908359614,
                -1.4763150330812427,
                -1.3794777890227994,
                -2.6730177850949537,
                0.7608776737392122,
                2.526450107670806
            ]
        },
        {
            "positions": [
                -0.0987289485808161,
                -1.5273771968875587,
                -1.4511400519457616,
                -2.6832465368070446,
                0.7703045096690249,
                2.6605471787861976
            ]
        },
        {
            "positions": [
                -0.09053632700572625,
                -1.5625615261683325,
                -1.5774471695987546,
                -2.633466930229001,
                0.6730603892661704,
                2.7366563544361644
            ]
        },
        {
            "positions": [
                -0.0823437054306364,
                -1.5977458554491066,
                -1.7037542872517477,
                -2.583687323650957,
                0.575816268863316,
                2.812765530086131
            ]
        },
        {
            "positions": [
                -0.07415108385554656,
                -1.6329301847298805,
                -1.830061404904741,
                -2.533907717072913,
                0.4785721484604617,
                2.8888747057360975
            ]
        },
        {
            "positions": [
                -0.06595846228045671,
                -1.6681145140106546,
                -1.956368522557734,
                -2.4841281104948694,
                0.38132802805760724,
                2.9649838813860643
            ]
        },
        {
            "positions": [
                -0.057765840705366854,
                -1.7032988432914284,
                -2.082675640210727,
                -2.4343485039168256,
                0.2840839076547529,
                3.041093057036031
            ]
        },
        {
            "positions": [
                -0.08974522802247775,
                -1.7139216586467434,
                -2.15210477034381,
                -2.3698635505205776,
                0.17015675806128103,
                3.0650215552251923
            ]
        },
        {
            "positions": [
                -0.12172461533958864,
                -1.7245444740020583,
                -2.221533900476893,
                -2.3053785971243297,
                0.05622960846780917,
                3.0889500534143535
            ]
        },
        {
            "positions": [
                -0.15370400265669953,
                -1.7351672893573735,
                -2.2909630306099755,
                -2.2408936437280813,
                -0.05769754112566272,
                3.1128785516035142
            ]
        },
        {
            "positions": [
                -0.18568338997381043,
                -1.7457901047126885,
                -2.3603921607430585,
                -2.1764086903318334,
                -0.17162469071913455,
                3.1368070497926754
            ]
        }
    ]
}