{
    "goal": {
        "global_pose": {
            "orientation": {
                "w": -0.00223480608172531,
                "x": 0.0024358444001904467,
                "y": 0.7094548369677653,
                "z": -0.704743149386269
            },
            "position": {
                "x": -0.37947507619857795,
                "y": -0.6371506643295288,
                "z": 0.19426114857196808
            }
        },
        "name": "move_to_magneteinheit_C"
    },
    "id": "BFMT_move_to_magneteinheit_C_135",
    "joint_names": [
        "shoulder_pan_joint",
        "shoulder_lift_joint",
        "elbow_joint",
        "wrist_1_joint",
        "wrist_2_joint",
        "wrist_3_joint"
    ],
    "metrics": {
        "cart_traj_len": 0.7688662209885612,
        "distance_elbow_joint": 0.6634000137713358,
        "distance_shoulder_lift_joint": 1.1730789575304548,
        "distance_shoulder_pan_joint": 0.9606148472966882,
        "distance_wrist_1_joint": 0.4162329737154855,
        "distance_wrist_2_joint": 1.1143140197256907,
        "distance_wrist_3_joint": 0.35093974279360873,
        "smoothness": 1.268631459669358,
        "time": 0.540131173,
        "traj_len": 2.1630026710185226,
        "weighted_distance": 2.6288794255084538
    },
    "planner": "BFMT",
    "start": {
        "state": {
            "elbow_joint": 1.9565354010623817,
            "shoulder_lift_joint": -1.4165861575791021,
            "shoulder_pan_joint": -1.6717766225146293,
            "wrist_1_joint": -0.5286633292919765,
            "wrist_2_joint": 1.472756589071564,
            "wrist_3_joint": -3.1238370188695823
        }
    },
    "waypoints": [
        {
            "positions": [
                -1.6717766225146293,
                -1.4165861575791021,
                1.9565354010623817,
                -0.5286633292919765,
                1.472756589071564,
                -3.1238370188695823
            ]
        },
        {
            "positions": [
                -1.7819317651996402,
                -1.474118665454621,
                2.0013504425225155,
                -0.5213440058481944,
                1.3535927625389557,
                -3.147577325588837
            ]
        },
        {
            "positions": [
                -1.8920869078846514,
                -1.5316511733301397,
                2.046165483982649,
                -0.5140246824044123,
                1.2344289360063474,
                -3.1713176323080914
            ]
        },
        {
            "positions": [
                -2.002242050569662,
                -1.5891836812056586,
                2.0909805254427827,
                -0.5067053589606303,
                1.115265109473739,
                -3.1950579390273464
            ]
        },
        {
            "positions": [
                -2.1123971932546732,
                -1.6467161890811775,
                2.1357955669029165,
                -0.49938603551684824,
                0.9961012829411307,
                -3.218798245746601
            ]
        },
        {
            "positions": [
                -2.2225523359396844,
                -1.7042486969566961,
                2.1806106083630503,
                -0.4920667120730662,
                0.8769374564085224,
                -3.2425385524658554
            ]
        },
        {
            "positions": [
                -2.3327074786246955,
                -1.761781204832215,
                2.225425649823184,
                -0.4847473886292841,
                0.757773629875914,
                -3.2662788591851104
            ]
        },
        {
            "positions": [
                -2.442862621309706,
                -1.819313712707734,
                2.2702406912833175,
                -0.47742806518550207,
                0.6386098033433056,
                -3.290019165904365
            ]
        },
        {
            "positions": [
                -2.5530177639947174,
                -1.8768462205832526,
                2.3150557327434513,
                -0.47010874174172,
                0.5194459768106974,
                -3.3137594726236195
            ]
        },
        {
            "positions": [
                -2.537143022831397,
                -1.7342824416779916,
                2.254079796325398,
                -0.5416444189747658,
                0.5516466583036622,
                -3.2815560148157052
            ]
        },
        {
            "positions": [
                -2.5212682816680774,
                -1.5917186627727309,
                2.1931038599073447,
                -0.6131800962078117,
                0.5838473397966271,
                -3.249352557007791
            ]
        },
        {
            "positions": [
                -2.505393540504757,
                -1.44915488386747,
                2.132127923489292,
                -0.6847157734408574,
                0.616048021289592,
                -3.2171490991998763
            ]
        },
        {
            "positions": [
                -2.4895187993414374,
                -1.3065911049622092,
                2.0711519870712385,
                -0.7562514506739033,
                0.6482487027825569,
                -3.184945641391962
            ]
        },
        {
            "positions": [
                -2.473644058178117,
                -1.1640273260569483,
                2.010176050653185,
                -0.8277871279069491,
                0.6804493842755217,
                -3.152742183584048
            ]
        }
    ]
}