{
    "goal": {
        "global_pose": {
            "orientation": {
                "w": 0.7047431493862688,
                "x": -0.7094548369677653,
                "y": 0.0024358444001904,
                "z": -0.0022348060817251984
            },
            "position": {
                "x": -0.39052492380142206,
                "y": 0.3671506643295288,
                "z": 0.19426114857196808
            }
        },
        "name": "move_to_magneteinheit_D"
    },
    "id": "BFMT_move_to_magneteinheit_D_105",
    "joint_names": [
        "shoulder_pan_joint",
        "shoulder_lift_joint",
        "elbow_joint",
        "wrist_1_joint",
        "wrist_2_joint",
        "wrist_3_joint"
    ],
    "metrics": {
        "cart_traj_len": 3.8053848642098593,
        "distance_elbow_joint": 3.329572601920909,
        "distance_shoulder_lift_joint": 1.6286259717798572,
        "distance_shoulder_pan_joint": 2.52424467497879,
        "distance_wrist_1_joint": 1.6345796298680195,
        "distance_wrist_2_joint": 1.8875680189119017,
        "distance_wrist_3_joint": 3.2035680175163748,
        "smoothness": 0.06593043827548106,
        "time": 1.280509031,
        "traj_len": 3.7693711564365544,
        "weighted_distance": 4.912987136029213
    },
    "planner": "BFMT",
    "start": {
        "state": {
            "elbow_joint": 0.749534889911806,
            "shoulder_lift_joint": -0.6476975780787326,
            "shoulder_pan_joint": -2.711696901376241,
            "wrist_1_joint": -0.07506478083263063,
            "wrist_2_joint": 0.43296659715538205,
            "wrist_3_joint": -3.14703540197715
        }
    },
    "waypoints": [
        {
            "positions": [
                -2.711696901376241,
                -0.6476975780787326,
                0.749534889911806,
                -0.07506478083263063,
                0.43296659715538205,
                -3.14703540197715
            ]
        },
        {
            "positions": [
                -2.7063350852319608,
                -0.7027514949599378,
                0.5901180322125972,
                -0.08761799876022777,
                0.4016063374177245,
                -3.1133697823933386
            ]
        },
        {
            "positions": [
                -2.7009732690876804,
                -0.7578054118411431,
                0.43070117451338835,
                -0.10017121668782492,
                0.370246077680067,
                -3.079704162809527
            ]
        },
        {
            "positions": [
                -2.6956114529433997,
                -0.8128593287223485,
                0.2712843168141795,
                -0.11272443461542206,
                0.33888581794240946,
                -3.046038543225716
            ]
        },
        {
            "positions": [
                -2.6902496367991193,
                -0.8679132456035537,
                0.11186745911497072,
                -0.1252776525430192,
                0.3075255582047519,
                -3.012372923641905
            ]
        },
        {
            "positions": [
                -2.6267677630757866,
                -0.9171424294741957,
                -0.017808201097592638,
                -0.10201043362326481,
                0.26076571440340146,
                -2.94983045245401
            ]
        },
        {
            "positions": [
                -2.563285889352454,
                -0.9663716133448377,
                -0.147483861310156,
                -0.07874321470351041,
                0.214005870602051,
                -2.887287981266116
            ]
        },
        {
            "positions": [
                -2.4998040156291212,
                -1.0156007972154797,
                -0.2771595215227194,
                -0.055475995783756005,
                0.16724602680070058,
                -2.8247455100782215
            ]
        },
        {
            "positions": [
                -2.436322141905789,
                -1.0648299810861217,
                -0.4068351817352827,
                -0.032208776864001615,
                0.12048618299935013,
                -2.7622030388903274
            ]
        },
        {
            "positions": [
                -2.3728402681824563,
                -1.1140591649567637,
                -0.5365108419478462,
                -0.008941557944247197,
                0.07372633919799967,
                -2.699660567702433
            ]
        },
        {
            "positions": [
                -2.3093583944591236,
                -1.1632883488274057,
                -0.6661865021604094,
                0.014325660975507193,
                0.026966495396649248,
                -2.6371180965145387
            ]
        },
        {
            "positions": [
                -2.245876520735791,
                -1.2125175326980477,
                -0.7958621623729728,
                0.03759287989526158,
                -0.019793348404701205,
                -2.574575625326644
            ]
        },
        {
            "positions": [
                -2.1823946470124582,
                -1.2617467165686898,
                -0.9255378225855361,
                0.06086009881501597,
                -0.06655319220605166,
                -2.5120331541387495
            ]
        },
        {
            "positions": [
                -2.118912773289126,
                -1.3109759004393318,
                -1.0552134827980997,
                0.08412731773477039,
                -0.11331303600740211,
                -2.4494906829508554
            ]
        },
        {
            "positions": [
                -2.055430899565793,
                -1.3602050843099738,
                -1.1848891430106632,
                0.10739453665452481,
                -0.16007287980875257,
                -2.3869482117629612
            ]
        },
        {
            "positions": [
                -1.9919490258424606,
                -1.4094342681806158,
                -1.3145648032232264,
                0.13066175557427923,
                -0.20683272361010308,
                -2.3244057405750667
            ]
        },
        {
            "positions": [
                -1.928467152119128,
                -1.4586634520512578,
                -1.4442404634357897,
                0.1539289744940336,
                -0.2535925674114534,
                -2.261863269387172
            ]
        },
        {
            "positions": [
                -1.8649852783957952,
                -1.5078926359218998,
                -1.5739161236483532,
                0.177196193413788,
                -0.30035241121280387,
                -2.199320798199278
            ]
        },
        {
            "positions": [
                -1.8015034046724625,
                -1.5571218197925418,
                -1.7035917838609165,
                0.20046341233354237,
                -0.3471122550141543,
                -2.1367783270113834
            ]
        },
        {
            "positions": [
                -1.73802153094913,
                -1.6063510036631838,
                -1.83326744407348,
                0.22373063125329679,
                -0.3938720988155048,
                -2.0742358558234892
            ]
        },
        {
            "positions": [
                -1.6745396572257976,
                -1.6555801875338259,
                -1.962943104286043,
                0.24699785017305115,
                -0.44063194261685523,
                -2.0116933846355947
            ]
        },
        {
            "positions": [
                -1.6110577835024649,
                -1.7048093714044679,
                -2.0926187644986065,
                0.27026506909280557,
                -0.4873917864182057,
                -1.9491509134477003
            ]
        },
        {
            "positions": [
                -1.5475759097791322,
                -1.7540385552751099,
                -2.22229442471117,
                0.29353228801256,
                -0.5341516302195561,
                -1.886608442259806
            ]
        },
        {
            "positions": [
                -1.435467682867358,
                -1.7887802750588857,
                -2.2730890272518742,
                0.36346754141401394,
                -0.5545922135456216,
                -1.7855614492168235
            ]
        },
        {
            "positions": [
                -1.323359455955584,
                -1.8235219948426613,
                -2.3238836297925785,
                0.43340279481546795,
                -0.5750327968716872,
                -1.684514456173841
            ]
        },
        {
            "positions": [
                -1.21125122904381,
                -1.8582637146264371,
                -2.374678232333283,
                0.5033380482169219,
                -0.5954733801977526,
                -1.5834674631308587
            ]
        },
        {
            "positions": [
                -1.0991430021320359,
                -1.8930054344102127,
                -2.4254728348739873,
                0.573273301618376,
                -0.6159139635238182,
                -1.4824204700878763
            ]
        },
        {
            "positions": [
                -0.9870347752202617,
                -1.9277471541939886,
                -2.4762674374146916,
                0.6432085550198299,
                -0.6363545468498837,
                -1.3813734770448938
            ]
        },
        {
            "positions": [
                -0.9105626617289396,
                -1.9467432336372574,
                -2.4852129564180707,
                0.6987003174571649,
                -0.6320505597687482,
                -1.3059675664717698
            ]
        },
        {
            "positions": [
                -0.844825349426077,
                -1.9767050805664694,
                -2.4765925240916133,
                0.7678265709260237,
                -0.5580557517846118,
                -1.1821039135616795
            ]
        },
        {
            "positions": [
                -0.7790880371232144,
                -2.0066669274956817,
                -2.467972091765156,
                0.8369528243948825,
                -0.48406094380047526,
                -1.0582402606515893
            ]
        },
        {
            "positions": [
                -0.7133507248203518,
                -2.0366287744248934,
                -2.4593516594386986,
                0.9060790778637412,
                -0.4100661358163389,
                -0.9343766077414989
            ]
        },
        {
            "positions": [
                -0.647613412517489,
                -2.0665906213541057,
                -2.4507312271122412,
                0.9752053313326001,
                -0.33607132783220234,
                -0.8105129548314085
            ]
        },
        {
            "positions": [
                -0.5818761002146264,
                -2.0965524682833174,
                -2.442110794785784,
                1.044331584801459,
                -0.2620765198480659,
                -0.6866493019213182
            ]
        },
        {
            "positions": [
                -0.5161387879117638,
                -2.1265143152125296,
                -2.433490362459326,
                1.1134578382703175,
                -0.18808171186392947,
                -0.562785649011228
            ]
        },
        {
            "positions": [
                -0.45040147560890126,
                -2.156476162141742,
                -2.4248699301328687,
                1.1825840917391763,
                -0.11408690387979292,
                -0.4389219961011377
            ]
        },
        {
            "positions": [
                -0.3846641633060386,
                -2.1864380090709536,
                -2.4162494978064113,
                1.2517103452080351,
                -0.04009209589565643,
                -0.3150583431910473
            ]
        },
        {
            "positions": [
                -0.31892685100317597,
                -2.216399856000166,
                -2.407629065479954,
                1.3208365986768942,
                0.03390271208848006,
                -0.19119469028095692
            ]
        },
        {
            "positions": [
                -0.25318953870031335,
                -2.2463617029293776,
                -2.3990086331534966,
                1.3899628521457528,
                0.10789752007261644,
                -0.06733103737086665
            ]
        },
        {
            "positions": [
                -0.18745222639745074,
                -2.27632354985859,
                -2.390388200827039,
                1.4590891056146116,
                0.18189232805675293,
                0.05653261553922365
            ]
        }
    ]
}