{
    "goal": {
        "global_pose": {
            "orientation": {
                "w": 0.7031023480610252,
                "x": -0.7110244013736278,
                "y": 0.0077485991402295624,
                "z": 0.005598929693374583
            },
            "position": {
                "x": -0.8841497679147869,
                "y": 0.44412534475326537,
                "z": 0.3711530566215515
            }
        },
        "name": "move_to_auspresseinheit_D"
    },
    "id": "BFMT_move_to_auspresseinheit_D_40",
    "joint_names": [
        "shoulder_pan_joint",
        "shoulder_lift_joint",
        "elbow_joint",
        "wrist_1_joint",
        "wrist_2_joint",
        "wrist_3_joint"
    ],
    "metrics": {
        "cart_traj_len": 0.34476072430185106,
        "distance_elbow_joint": 0.6668265987109421,
        "distance_shoulder_lift_joint": 0.13722468928572562,
        "distance_shoulder_pan_joint": 0.13397739502011746,
        "distance_wrist_1_joint": 0.6168479371291133,
        "distance_wrist_2_joint": 1.436854613277333,
        "distance_wrist_3_joint": 0.07203010542305366,
        "smoothness": 1.7763568325482624e-15,
        "time": 0.485257817,
        "traj_len": 1.750360345427845,
        "weighted_distance": 2.293801233781785
    },
    "planner": "BFMT",
    "start": {
        "state": {
            "elbow_joint": -1.8275523626775212,
            "shoulder_lift_joint": -2.126789852344167,
            "shoulder_pan_joint": -0.03513704404078235,
            "wrist_1_joint": -2.347782403156801,
            "wrist_2_joint": -1.6058999987535132,
            "wrist_3_joint": -3.0880379163319196
        }
    },
    "waypoints": [
        {
            "positions": [
                -0.03513704404078235,
                -2.126789852344167,
                -1.8275523626775212,
                -2.347782403156801,
                -1.6058999987535132,
                -3.0880379163319196
            ]
        },
        {
            "positions": [
                -0.05188421841829703,
                -2.1439429385048827,
                -1.7441990378386534,
                -2.42488839529794,
                -1.4262931720938465,
                -3.079034153154038
            ]
        },
        {
            "positions": [
                -0.06863139279581171,
                -2.161096024665598,
                -1.6608457129997856,
                -2.5019943874390793,
                -1.2466863454341799,
                -3.0700303899761563
            ]
        },
        {
            "positions": [
                -0.0853785671733264,
                -2.178249110826314,
                -1.577492388160918,
                -2.5791003795802183,
                -1.0670795187745132,
                -3.0610266267982746
            ]
        },
        {
            "positions": [
                -0.10212574155084109,
                -2.19540219698703,
                -1.4941390633220502,
                -2.6562063717213578,
                -0.8874726921148467,
                -3.052022863620393
            ]
        },
        {
            "positions": [
                -0.11887291592835578,
                -2.2125552831477453,
                -1.4107857384831823,
                -2.7333123638624968,
                -0.70786586545518,
                -3.043019100442511
            ]
        },
        {
            "positions": [
                -0.13562009030587044,
                -2.229708369308461,
                -1.3274324136443147,
                -2.8104183560036358,
                -0.5282590387955135,
                -3.0340153372646292
            ]
        },
        {
            "positions": [
                -0.15236726468338513,
                -2.2468614554691766,
                -1.244079088805447,
                -2.887524348144775,
                -0.34865221213584685,
                -3.0250115740867476
            ]
        },
        {
            "positions": [
                -0.16911443906089982,
                -2.2640145416298925,
                -1.1607257639665791,
                -2.964630340285914,
                -0.16904538547618017,
                -3.016007810908866
            ]
        }
    ]
}