{
    "goal": {
        "global_pose": {
            "orientation": {
                "w": -0.4816463035849501,
                "x": 0.5182115481033762,
                "y": 0.4908360881923453,
                "z": -0.5084816262002911
            },
            "position": {
                "x": -0.8240239810943604,
                "y": -0.300875300988555,
                "z": 0.16403168439865112
            }
        },
        "name": "move_to_storage_C"
    },
    "id": "BFMT_move_to_storage_C_103",
    "joint_names": [
        "shoulder_pan_joint",
        "shoulder_lift_joint",
        "elbow_joint",
        "wrist_1_joint",
        "wrist_2_joint",
        "wrist_3_joint"
    ],
    "metrics": {
        "cart_traj_len": 0.5773427764593356,
        "distance_elbow_joint": 0.2601294530929015,
        "distance_shoulder_lift_joint": 0.18980018375521202,
        "distance_shoulder_pan_joint": 0.49509841758449546,
        "distance_wrist_1_joint": 0.0872583339879972,
        "distance_wrist_2_joint": 1.071836859884984,
        "distance_wrist_3_joint": 0.061593073671884824,
        "smoothness": 0.0,
        "time": 0.482597197,
        "traj_len": 1.471637292941938,
        "weighted_distance": 1.8568784729201386
    },
    "planner": "BFMT",
    "start": {
        "state": {
            "elbow_joint": 2.010868314990456,
            "shoulder_lift_joint": -1.1634956873337592,
            "shoulder_pan_joint": -2.4736205022346125,
            "wrist_1_joint": -0.8367026794202681,
            "wrist_2_joint": 0.6746043897044499,
            "wrist_3_joint": -3.1496632123970403
        }
    },
    "waypoints": [
        {
            "positions": [
                -2.4736205022346125,
                -1.1634956873337592,
                2.010868314990456,
                -0.8367026794202681,
                0.6746043897044499,
                -3.1496632123970403
            ]
        },
        {
            "positions": [
                -2.5561369051653617,
                -1.1318623233745573,
                1.9675134061416388,
                -0.8221596237556019,
                0.8532438663519473,
                -3.139397700118393
            ]
        },
        {
            "positions": [
                -2.638653308096111,
                -1.1002289594153551,
                1.924158497292822,
                -0.8076165680909357,
                1.0318833429994445,
                -3.1291321878397453
            ]
        },
        {
            "positions": [
                -2.7211697110268602,
                -1.0685955954561532,
                1.880803588444005,
                -0.7930735124262696,
                1.210522819646942,
                -3.118866675561098
            ]
        },
        {
            "positions": [
                -2.8036861139576095,
                -1.036962231496951,
                1.837448679595188,
                -0.7785304567616033,
                1.389162296294439,
                -3.1086011632824504
            ]
        },
        {
            "positions": [
                -2.8862025168883587,
                -1.0053288675377492,
                1.7940937707463713,
                -0.7639874010969371,
                1.5678017729419365,
                -3.098335651003803
            ]
        },
        {
            "positions": [
                -2.968718919819108,
                -0.9736955035785472,
                1.7507388618975543,
                -0.7494443454322709,
                1.746441249589434,
                -3.0880701387251555
            ]
        }
    ]
}