{
    "goal": {
        "global_pose": {
            "orientation": {
                "w": 0.5084816262002911,
                "x": -0.4908360881923452,
                "y": 0.5182115481033761,
                "z": -0.48164630358495003
            },
            "position": {
                "x": 0.5540239810943604,
                "y": -0.46912469901144505,
                "z": 0.16403168439865112
            }
        },
        "name": "move_to_storage_B"
    },
    "id": "BFMT_move_to_storage_B_66",
    "joint_names": [
        "shoulder_pan_joint",
        "shoulder_lift_joint",
        "elbow_joint",
        "wrist_1_joint",
        "wrist_2_joint",
        "wrist_3_joint"
    ],
    "metrics": {
        "cart_traj_len": 0.7199495130247328,
        "distance_elbow_joint": 0.3483787655499233,
        "distance_shoulder_lift_joint": 0.45867350598190404,
        "distance_shoulder_pan_joint": 0.42072841446888865,
        "distance_wrist_1_joint": 2.97689875416518,
        "distance_wrist_2_joint": 2.71542646748919,
        "distance_wrist_3_joint": 3.1371459380087905,
        "smoothness": 0.040740250450803144,
        "time": 0.6520220369999999,
        "traj_len": 3.171317052214092,
        "weighted_distance": 4.692959507958259
    },
    "planner": "BFMT",
    "start": {
        "state": {
            "elbow_joint": 1.664937868594044,
            "shoulder_lift_joint": -0.661644460510453,
            "shoulder_pan_joint": -0.9139846352900073,
            "wrist_1_joint": 2.146753192139373,
            "wrist_2_joint": -2.2341966793290973,
            "wrist_3_joint": 0.005466555786416001
        }
    },
    "waypoints": [
        {
            "positions": [
                -0.9139846352900073,
                -0.661644460510453,
                1.664937868594044,
                2.146753192139373,
                -2.2341966793290973,
                0.005466555786416001
            ]
        },
        {
            "positions": [
                -0.8740310858357927,
                -0.6947973030730149,
                1.7089425824699278,
                2.127397056586832,
                -2.1178688254109694,
                0.1302688858401992
            ]
        },
        {
            "positions": [
                -0.8340775363815781,
                -0.7279501456355767,
                1.7529472963458117,
                2.108040921034291,
                -2.001540971492841,
                0.25507121589398235
            ]
        },
        {
            "positions": [
                -0.7941239869273635,
                -0.7611029881981386,
                1.7969520102216956,
                2.0886847854817496,
                -1.8852131175747133,
                0.37987354594776557
            ]
        },
        {
            "positions": [
                -0.8072051941493742,
                -0.7767210307326698,
                1.8063591677835336,
                1.9617791181988125,
                -1.7823242955862435,
                0.49999263063678473
            ]
        },
        {
            "positions": [
                -0.8202864013713849,
                -0.7923390732672011,
                1.8157663253453713,
                1.8348734509158753,
                -1.6794354735977737,
                0.6201117153258039
            ]
        },
        {
            "positions": [
                -0.8333676085933954,
                -0.8079571158017324,
                1.8251734829072093,
                1.7079677836329379,
                -1.5765466516093039,
                0.7402308000148231
            ]
        },
        {
            "positions": [
                -0.8464488158154061,
                -0.8235751583362635,
                1.8345806404690472,
                1.5810621163500007,
                -1.473657829620834,
                0.8603498847038422
            ]
        },
        {
            "positions": [
                -0.8595300230374168,
                -0.8391932008707947,
                1.843987798030885,
                1.4541564490670635,
                -1.3707690076323642,
                0.9804689693928614
            ]
        },
        {
            "positions": [
                -0.8726112302594274,
                -0.854811243405326,
                1.853394955592723,
                1.3272507817841261,
                -1.2678801856438944,
                1.1005880540818807
            ]
        },
        {
            "positions": [
                -0.8856924374814381,
                -0.8704292859398572,
                1.862802113154561,
                1.200345114501189,
                -1.1649913636554245,
                1.2207071387708999
            ]
        },
        {
            "positions": [
                -0.8987736447034487,
                -0.8860473284743885,
                1.8722092707163989,
                1.0734394472182518,
                -1.0621025416669547,
                1.3408262234599189
            ]
        },
        {
            "positions": [
                -0.9118548519254593,
                -0.9016653710089197,
                1.8816164282782366,
                0.9465337799353144,
                -0.9592137196784849,
                1.4609453081489383
            ]
        },
        {
            "positions": [
                -0.92493605914747,
                -0.917283413543451,
                1.8910235858400746,
                0.8196281126523774,
                -0.8563248976900151,
                1.5810643928379573
            ]
        },
        {
            "positions": [
                -0.9380172663694807,
                -0.9329014560779822,
                1.9004307434019125,
                0.69272244536944,
                -0.7534360757015452,
                1.7011834775269765
            ]
        },
        {
            "positions": [
                -0.9510984735914912,
                -0.9485194986125134,
                1.9098379009637503,
                0.5658167780865029,
                -0.6505472537130754,
                1.8213025622159957
            ]
        },
        {
            "positions": [
                -0.9641796808135019,
                -0.9641375411470446,
                1.9192450585255882,
                0.4389111108035657,
                -0.5476584317246056,
                1.9414216469050147
            ]
        },
        {
            "positions": [
                -0.9772608880355126,
                -0.9797555836815759,
                1.9286522160874262,
                0.3120054435206283,
                -0.4447696097361358,
                2.061540731594034
            ]
        },
        {
            "positions": [
                -0.9903420952575233,
                -0.9953736262161071,
                1.938059373649264,
                0.18509977623769114,
                -0.34188078774766595,
                2.1816598162830534
            ]
        },
        {
            "positions": [
                -1.0034233024795338,
                -1.0109916687506384,
                1.947466531211102,
                0.058194108954753965,
                -0.23899196575919612,
                2.3017789009720726
            ]
        },
        {
            "positions": [
                -1.0165045097015446,
                -1.0266097112851695,
                1.9568736887729399,
                -0.06871155832818321,
                -0.13610314377072652,
                2.4218979856610914
            ]
        },
        {
            "positions": [
                -1.0295857169235552,
                -1.042227753819701,
                1.9662808463347776,
                -0.19561722561112083,
                -0.03321432178225647,
                2.542017070350111
            ]
        },
        {
            "positions": [
                -1.042666924145566,
                -1.057845796354232,
                1.9756880038966156,
                -0.322522892894058,
                0.06967450020621335,
                2.66213615503913
            ]
        },
        {
            "positions": [
                -1.0557481313675765,
                -1.0734638388887634,
                1.9850951614584535,
                -0.44942856017699473,
                0.17256332219468318,
                2.782255239728149
            ]
        },
        {
            "positions": [
                -1.068829338589587,
                -1.0890818814232945,
                1.9945023190202913,
                -0.5763342274599319,
                0.275452144183153,
                2.9023743244171682
            ]
        },
        {
            "positions": [
                -1.0819105458115978,
                -1.104699923957826,
                2.0039094765821295,
                -0.7032398947428695,
                0.37834096617162283,
                3.0224934091061875
            ]
        },
        {
            "positions": [
                -1.0949917530336084,
                -1.120317966492357,
                2.013316634143967,
                -0.8301455620258066,
                0.48122978816009254,
                3.1426124937952067
            ]
        }
    ]
}