{
    "goal": {
        "global_pose": {
            "orientation": {
                "w": 0.7047431468963623,
                "x": -0.7094548344612122,
                "y": 0.0024358443915843964,
                "z": -0.0022348060738295317
            },
            "position": {
                "x": 0.6094750761985779,
                "y": 0.3671506643295288,
                "z": 0.19426114857196808
            }
        },
        "name": "move_to_magneteinheit_A"
    },
    "id": "BFMT_move_to_magneteinheit_A_102",
    "joint_names": [
        "shoulder_pan_joint",
        "shoulder_lift_joint",
        "elbow_joint",
        "wrist_1_joint",
        "wrist_2_joint",
        "wrist_3_joint"
    ],
    "metrics": {
        "cart_traj_len": 4.006926484479008,
        "distance_elbow_joint": 3.905584774935088,
        "distance_shoulder_lift_joint": 0.5825733182412569,
        "distance_shoulder_pan_joint": 3.003392504063874,
        "distance_wrist_1_joint": 1.1033982455845415,
        "distance_wrist_2_joint": 2.6522139772825257,
        "distance_wrist_3_joint": 3.7982648488139596,
        "smoothness": 0.3836777436906693,
        "time": 0.99167722,
        "traj_len": 3.8788435994405916,
        "weighted_distance": 5.137856517013319
    },
    "planner": "BFMT",
    "start": {
        "state": {
            "elbow_joint": -1.9196185241190666,
            "shoulder_lift_joint": -1.2443396400964142,
            "shoulder_pan_joint": 2.6996025414629847,
            "wrist_1_joint": -1.5485510000780065,
            "wrist_2_joint": -1.5709468930060704,
            "wrist_3_joint": 0.4420197071253992
        }
    },
    "waypoints": [
        {
            "positions": [
                2.6996025414629847,
                -1.2443396400964142,
                -1.9196185241190666,
                -1.5485510000780065,
                -1.5709468930060704,
                0.4420197071253992
            ]
        },
        {
            "positions": [
                2.6175431509714002,
                -1.234335246078232,
                -1.8210932358850396,
                -1.522198116521651,
                -1.507041368204483,
                0.3337085583495364
            ]
        },
        {
            "positions": [
                2.5354837604798153,
                -1.2243308520600498,
                -1.7225679476510125,
                -1.4958452329652954,
                -1.4431358434028954,
                0.22539740957367355
            ]
        },
        {
            "positions": [
                2.4534243699882308,
                -1.2143264580418676,
                -1.6240426594169857,
                -1.4694923494089396,
                -1.379230318601308,
                0.1170862607978107
            ]
        },
        {
            "positions": [
                2.3713649794966463,
                -1.2043220640236854,
                -1.5255173711829586,
                -1.443139465852584,
                -1.3153247937997203,
                0.008775112021947917
            ]
        },
        {
            "positions": [
                2.2893055890050613,
                -1.1943176700055032,
                -1.4269920829489315,
                -1.4167865822962284,
                -1.251419268998133,
                -0.09953603675391487
            ]
        },
        {
            "positions": [
                2.207246198513477,
                -1.184313275987321,
                -1.3284667947149045,
                -1.3904336987398729,
                -1.1875137441965453,
                -0.20784718552977777
            ]
        },
        {
            "positions": [
                2.1251868080218923,
                -1.1743088819691387,
                -1.2299415064808774,
                -1.3640808151835173,
                -1.123608219394958,
                -0.31615833430564044
            ]
        },
        {
            "positions": [
                2.0431274175303074,
                -1.1643044879509565,
                -1.1314162182468506,
                -1.3377279316271615,
                -1.0597026945933705,
                -0.42446948308150334
            ]
        },
        {
            "positions": [
                1.9610680270387228,
                -1.1543000939327743,
                -1.0328909300128233,
                -1.311375048070806,
                -0.995797169791783,
                -0.5327806318573661
            ]
        },
        {
            "positions": [
                1.8790086365471381,
                -1.1442956999145921,
                -0.9343656417787963,
                -1.2850221645144504,
                -0.9318916449901955,
                -0.6410917806332289
            ]
        },
        {
            "positions": [
                1.7969492460555534,
                -1.1342913058964097,
                -0.8358403535447694,
                -1.2586692809580948,
                -0.867986120188608,
                -0.7494029294090919
            ]
        },
        {
            "positions": [
                1.7148898555639687,
                -1.1242869118782275,
                -0.7373150653107423,
                -1.232316397401739,
                -0.8040805953870205,
                -0.8577140781849547
            ]
        },
        {
            "positions": [
                1.6328304650723842,
                -1.1142825178600453,
                -0.6387897770767155,
                -1.2059635138453837,
                -0.7401750705854331,
                -0.9660252269608173
            ]
        },
        {
            "positions": [
                1.5507710745807994,
                -1.104278123841863,
                -0.5402644888426884,
                -1.179610630289028,
                -0.6762695457838456,
                -1.0743363757366802
            ]
        },
        {
            "positions": [
                1.468711684089215,
                -1.0942737298236809,
                -0.44173920060866134,
                -1.1532577467326723,
                -0.6123640209822581,
                -1.182647524512543
            ]
        },
        {
            "positions": [
                1.3866522935976302,
                -1.0842693358054987,
                -0.3432139123746343,
                -1.1269048631763168,
                -0.5484584961806704,
                -1.2909586732884057
            ]
        },
        {
            "positions": [
                1.3045929031060455,
                -1.0742649417873165,
                -0.2446886241406072,
                -1.100551979619961,
                -0.48455297137908304,
                -1.3992698220642685
            ]
        },
        {
            "positions": [
                1.2225335126144607,
                -1.0642605477691343,
                -0.14616333590658015,
                -1.0741990960636054,
                -0.42064744657749564,
                -1.5075809708401313
            ]
        },
        {
            "positions": [
                1.140474122122876,
                -1.054256153750952,
                -0.047638047672553085,
                -1.0478462125072499,
                -0.356741921775908,
                -1.615892119615994
            ]
        },
        {
            "positions": [
                1.0584147316312915,
                -1.0442517597327698,
                0.05088724056147398,
                -1.0214933289508943,
                -0.2928363969743206,
                -1.724203268391857
            ]
        },
        {
            "positions": [
                0.9763553411397068,
                -1.0342473657145876,
                0.14941252879550104,
                -0.9951404453945386,
                -0.228930872172733,
                -1.8325144171677197
            ]
        },
        {
            "positions": [
                0.8942959506481221,
                -1.0242429716964054,
                0.24793781702952788,
                -0.968787561838183,
                -0.1650253473711456,
                -1.940825565943583
            ]
        },
        {
            "positions": [
                0.8122365601565373,
                -1.0142385776782232,
                0.34646310526355517,
                -0.9424346782818274,
                -0.10111982256955798,
                -2.0491367147194457
            ]
        },
        {
            "positions": [
                0.7301771696649526,
                -1.004234183660041,
                0.444988393497582,
                -0.9160817947254718,
                -0.03721429776797058,
                -2.1574478634953085
            ]
        },
        {
            "positions": [
                0.6481177791733681,
                -0.9942297896418588,
                0.5435136817316093,
                -0.8897289111691161,
                0.026691227033617038,
                -2.2657590122711713
            ]
        },
        {
            "positions": [
                0.5660583886817836,
                -0.9842253956236766,
                0.6420389699656357,
                -0.8633760276127607,
                0.09059675183520421,
                -2.3740701610470336
            ]
        },
        {
            "positions": [
                0.4839989981901991,
                -0.9742210016054944,
                0.740564258199663,
                -0.837023144056405,
                0.15450227663679184,
                -2.4823813098228964
            ]
        },
        {
            "positions": [
                0.40193960769861414,
                -0.9642166075873122,
                0.8390895464336898,
                -0.8106702605000494,
                0.21840780143837923,
                -2.590692458598759
            ]
        },
        {
            "positions": [
                0.31988021720702964,
                -0.95421221356913,
                0.9376148346677171,
                -0.7843173769436937,
                0.28231332623996686,
                -2.699003607374622
            ]
        },
        {
            "positions": [
                0.23782082671544513,
                -0.9442078195509478,
                1.036140122901744,
                -0.7579644933873382,
                0.34621885104155425,
                -2.807314756150485
            ]
        },
        {
            "positions": [
                0.15576143622386018,
                -0.9342034255327656,
                1.1346654111357712,
                -0.7316116098309825,
                0.4101243758431419,
                -2.915625904926348
            ]
        },
        {
            "positions": [
                0.07370204573227568,
                -0.9241990315145833,
                1.233190699369798,
                -0.7052587262746269,
                0.4740299006447295,
                -3.0239370537022108
            ]
        },
        {
            "positions": [
                -0.008357344759309271,
                -0.9141946374964011,
                1.3317159876038254,
                -0.6789058427182713,
                0.5379354254463167,
                -3.1322482024780736
            ]
        },
        {
            "positions": [
                -0.09041673525089389,
                -0.9041902434782189,
                1.4302412758378522,
                -0.6525529591619157,
                0.6018409502479045,
                -3.2405593512539363
            ]
        },
        {
            "positions": [
                -0.04774208978089483,
                -0.9526750278028312,
                1.5413862708334862,
                -0.6940330000956059,
                0.5059557234421944,
                -3.2174221931670117
            ]
        },
        {
            "positions": [
                -0.005067444310895772,
                -1.0011598121274434,
                1.6525312658291202,
                -0.735513041029296,
                0.4100704966364843,
                -3.1942850350800867
            ]
        },
        {
            "positions": [
                0.037607201159103265,
                -1.0496445964520558,
                1.763676260824754,
                -0.7769930819629861,
                0.31418526983077427,
                -3.171147876993162
            ]
        },
        {
            "positions": [
                0.08028184662910234,
                -1.098129380776668,
                1.874821255820388,
                -0.8184731228966763,
                0.21830004302506412,
                -3.148010718906237
            ]
        },
        {
            "positions": [
                0.1229564920991014,
                -1.1466141651012804,
                1.985966250816022,
                -0.8599531638303665,
                0.12241481621935406,
                -3.1248735608193123
            ]
        }
    ]
}