{
    "goal": {
        "global_pose": {
            "orientation": {
                "w": -0.4816463035849501,
                "x": 0.5182115481033762,
                "y": 0.4908360881923453,
                "z": -0.5084816262002911
            },
            "position": {
                "x": -0.8240239810943604,
                "y": -0.300875300988555,
                "z": 0.16403168439865112
            }
        },
        "name": "move_to_storage_C"
    },
    "id": "BFMT_move_to_storage_C_81",
    "joint_names": [
        "shoulder_pan_joint",
        "shoulder_lift_joint",
        "elbow_joint",
        "wrist_1_joint",
        "wrist_2_joint",
        "wrist_3_joint"
    ],
    "metrics": {
        "cart_traj_len": 0.5771024991867487,
        "distance_elbow_joint": 0.2574456771920457,
        "distance_shoulder_lift_joint": 0.18900533051070512,
        "distance_shoulder_pan_joint": 0.4959962166979577,
        "distance_wrist_1_joint": 0.07978532414737272,
        "distance_wrist_2_joint": 1.0652030704459081,
        "distance_wrist_3_joint": 0.06190170533688555,
        "smoothness": 0.0,
        "time": 0.474743852,
        "traj_len": 1.466061841918981,
        "weighted_distance": 1.8488183062696903
    },
    "planner": "BFMT",
    "start": {
        "state": {
            "elbow_joint": 2.010868314990456,
            "shoulder_lift_joint": -1.1634956873337592,
            "shoulder_pan_joint": -2.4736205022346125,
            "wrist_1_joint": -0.8367026794202681,
            "wrist_2_joint": 0.6746043897044499,
            "wrist_3_joint": -3.1496632123970403
        }
    },
    "waypoints": [
        {
            "positions": [
                -2.4736205022346125,
                -1.1634956873337592,
                2.010868314990456,
                -0.8367026794202681,
                0.6746043897044499,
                -3.1496632123970403
            ]
        },
        {
            "positions": [
                -2.556286538350939,
                -1.1319947989153083,
                1.9679607021251149,
                -0.823405125395706,
                0.8521382347787679,
                -3.1393462615075594
            ]
        },
        {
            "positions": [
                -2.638952574467265,
                -1.1004939104968574,
                1.925053089259774,
                -0.8101075713711439,
                1.029672079853086,
                -3.1290293106180784
            ]
        },
        {
            "positions": [
                -2.721618610583591,
                -1.0689930220784065,
                1.882145476394433,
                -0.7968100173465817,
                1.207205924927404,
                -3.1187123597285975
            ]
        },
        {
            "positions": [
                -2.8042846466999176,
                -1.0374921336599559,
                1.839237863529092,
                -0.7835124633220196,
                1.384739770001722,
                -3.1083954088391166
            ]
        },
        {
            "positions": [
                -2.886950682816244,
                -1.005991245241505,
                1.796330250663751,
                -0.7702149092974575,
                1.5622736150760401,
                -3.0980784579496357
            ]
        },
        {
            "positions": [
                -2.96961671893257,
                -0.9744903568230541,
                1.7534226377984101,
                -0.7569173552728954,
                1.739807460150358,
                -3.0877615070601547
            ]
        }
    ]
}