{
    "goal": {
        "global_pose": {
            "orientation": {
                "w": -0.00223480608172531,
                "x": 0.0024358444001904467,
                "y": 0.7094548369677653,
                "z": -0.704743149386269
            },
            "position": {
                "x": 0.6205249238014221,
                "y": -0.6371506643295288,
                "z": 0.19426114857196808
            }
        },
        "name": "move_to_magneteinheit_B"
    },
    "id": "BFMT_move_to_magneteinheit_B_19",
    "joint_names": [
        "shoulder_pan_joint",
        "shoulder_lift_joint",
        "elbow_joint",
        "wrist_1_joint",
        "wrist_2_joint",
        "wrist_3_joint"
    ],
    "metrics": {
        "cart_traj_len": 1.3483690294463289,
        "distance_elbow_joint": 0.9576162243662114,
        "distance_shoulder_lift_joint": 0.7565495346049765,
        "distance_shoulder_pan_joint": 1.6208076436478769,
        "distance_wrist_1_joint": 0.18820535549474604,
        "distance_wrist_2_joint": 1.516300102363114,
        "distance_wrist_3_joint": 0.2738068539487198,
        "smoothness": 0.09538769755923424,
        "time": 0.593261381,
        "traj_len": 2.3050565534115743,
        "weighted_distance": 2.7505281093239065
    },
    "planner": "BFMT",
    "start": {
        "state": {
            "elbow_joint": 2.6216224122426386,
            "shoulder_lift_joint": -1.4174107377796124,
            "shoulder_pan_joint": 0.7066234856936794,
            "wrist_1_joint": 1.9546482284002225,
            "wrist_2_joint": -0.7096286983471962,
            "wrist_3_joint": 0.005740856962016249
        }
    },
    "waypoints": [
        {
            "positions": [
                0.7066234856936794,
                -1.4174107377796124,
                2.6216224122426386,
                1.9546482284002225,
                -0.7096286983471962,
                0.005740856962016249
            ]
        },
        {
            "positions": [
                0.5335221467828273,
                -1.3890585515934897,
                2.6029135129881924,
                1.9545660216375305,
                -0.8235195817352202,
                -0.017766065138206708
            ]
        },
        {
            "positions": [
                0.3604208078719753,
                -1.3607063654073672,
                2.5842046137337458,
                1.9544838148748382,
                -0.9374104651232442,
                -0.04127298723842966
            ]
        },
        {
            "positions": [
                0.18731946896112317,
                -1.3323541792212446,
                2.5654957144792996,
                1.9544016081121462,
                -1.0513013485112683,
                -0.06477990933865262
            ]
        },
        {
            "positions": [
                0.014218130050271172,
                -1.3040019930351219,
                2.5467868152248534,
                1.9543194013494543,
                -1.1651922318992922,
                -0.08828683143887557
            ]
        },
        {
            "positions": [
                -0.15888320886058105,
                -1.2756498068489994,
                2.5280779159704068,
                1.954237194586762,
                -1.279083115287316,
                -0.11179375353909853
            ]
        },
        {
            "positions": [
                -0.33198454777143294,
                -1.2472976206628767,
                2.5093690167159606,
                1.95415498782407,
                -1.3929739986753402,
                -0.13530067563932147
            ]
        },
        {
            "positions": [
                -0.4047594990442785,
                -1.1739930684768467,
                2.403698663111019,
                1.9776190021888942,
                -1.4970933489297114,
                -0.1187050104708987
            ]
        },
        {
            "positions": [
                -0.47753445031712405,
                -1.1006885162908164,
                2.298028309506077,
                2.0010830165537183,
                -1.6012126991840827,
                -0.10210934530247592
            ]
        },
        {
            "positions": [
                -0.5503094015899697,
                -1.0273839641047864,
                2.1923579559011355,
                2.0245470309185425,
                -1.705332049438454,
                -0.08551368013405317
            ]
        },
        {
            "positions": [
                -0.6230843528628152,
                -0.9540794119187563,
                2.0866876022961938,
                2.048011045283367,
                -1.8094513996928252,
                -0.0689180149656304
            ]
        },
        {
            "positions": [
                -0.6958593041356608,
                -0.8807748597327262,
                1.981017248691252,
                2.0714750596481912,
                -1.9135707499471963,
                -0.052322349797207623
            ]
        },
        {
            "positions": [
                -0.7686342554085064,
                -0.807470307546696,
                1.8753468950863106,
                2.0949390740130154,
                -2.017690100201568,
                -0.035726684628784866
            ]
        },
        {
            "positions": [
                -0.8414092066813519,
                -0.734165755360666,
                1.7696765414813689,
                2.1184030883778395,
                -2.121809450455939,
                -0.019131019460362095
            ]
        },
        {
            "positions": [
                -0.9141841579541975,
                -0.6608612031746358,
                1.6640061878764272,
                2.1418671027426637,
                -2.22592880071031,
                -0.0025353542919393252
            ]
        }
    ]
}