{
    "goal": {
        "global_pose": {
            "orientation": {
                "w": 0.5084816262002911,
                "x": -0.4908360881923452,
                "y": 0.5182115481033761,
                "z": -0.48164630358495003
            },
            "position": {
                "x": 0.5540239810943604,
                "y": -0.46912469901144505,
                "z": 0.16403168439865112
            }
        },
        "name": "move_to_storage_B"
    },
    "id": "BFMT_move_to_storage_B_16",
    "joint_names": [
        "shoulder_pan_joint",
        "shoulder_lift_joint",
        "elbow_joint",
        "wrist_1_joint",
        "wrist_2_joint",
        "wrist_3_joint"
    ],
    "metrics": {
        "cart_traj_len": 0.9092533111815824,
        "distance_elbow_joint": 0.35052700725992736,
        "distance_shoulder_lift_joint": 0.45881774673945475,
        "distance_shoulder_pan_joint": 0.7398439341609565,
        "distance_wrist_1_joint": 2.9945575084111957,
        "distance_wrist_2_joint": 2.705566557203359,
        "distance_wrist_3_joint": 3.1290888702902935,
        "smoothness": 0.06651507768242063,
        "time": 0.7773193389999999,
        "traj_len": 3.2215526728683463,
        "weighted_distance": 4.726172175266188
    },
    "planner": "BFMT",
    "start": {
        "state": {
            "elbow_joint": 1.664937868594044,
            "shoulder_lift_joint": -0.661644460510453,
            "shoulder_pan_joint": -0.9139846352900073,
            "wrist_1_joint": 2.146753192139373,
            "wrist_2_joint": -2.2341966793290973,
            "wrist_3_joint": 0.005466555786416001
        }
    },
    "waypoints": [
        {
            "positions": [
                -0.9139846352900073,
                -0.661644460510453,
                1.664937868594044,
                2.146753192139373,
                -2.2341966793290973,
                0.005466555786416001
            ]
        },
        {
            "positions": [
                -0.8674256985351168,
                -0.6771795350569695,
                1.6697324417290336,
                2.0987883823117066,
                -2.0356554568909186,
                -0.054843833890025964
            ]
        },
        {
            "positions": [
                -0.8208667617802263,
                -0.692714609603486,
                1.6745270148640234,
                2.05082357248404,
                -1.8371142344527405,
                -0.11515422356646793
            ]
        },
        {
            "positions": [
                -0.7743078250253359,
                -0.7082496841500024,
                1.679321587999013,
                2.0028587626563734,
                -1.6385730120145618,
                -0.1754646132429099
            ]
        },
        {
            "positions": [
                -0.7277488882704454,
                -0.7237847586965189,
                1.6841161611340028,
                1.9548939528287066,
                -1.4400317895763834,
                -0.23577500291935186
            ]
        },
        {
            "positions": [
                -0.6811899515155548,
                -0.7393198332430354,
                1.6889107342689926,
                1.9069291430010398,
                -1.2414905671382048,
                -0.2960853925957938
            ]
        },
        {
            "positions": [
                -0.6346310147606644,
                -0.7548549077895519,
                1.6937053074039823,
                1.8589643331733732,
                -1.0429493447000264,
                -0.3563957822722358
            ]
        },
        {
            "positions": [
                -0.6565591249335984,
                -0.772264779192426,
                1.7090271916158866,
                1.730070587961697,
                -0.9708389055298222,
                -0.4881684742832664
            ]
        },
        {
            "positions": [
                -0.6784872351065324,
                -0.7896746505953001,
                1.7243490758277908,
                1.6011768427500213,
                -0.898728466359618,
                -0.6199411662942969
            ]
        },
        {
            "positions": [
                -0.7004153452794664,
                -0.8070845219981742,
                1.739670960039695,
                1.4722830975383454,
                -0.8266180271894137,
                -0.7517138583053274
            ]
        },
        {
            "positions": [
                -0.7223434554524003,
                -0.8244943934010482,
                1.7549928442515992,
                1.3433893523266693,
                -0.7545075880192095,
                -0.883486550316358
            ]
        },
        {
            "positions": [
                -0.7442715656253344,
                -0.8419042648039223,
                1.7703147284635035,
                1.2144956071149933,
                -0.6823971488490053,
                -1.0152592423273885
            ]
        },
        {
            "positions": [
                -0.7661996757982683,
                -0.8593141362067964,
                1.7856366126754077,
                1.0856018619033174,
                -0.610286709678801,
                -1.1470319343384192
            ]
        },
        {
            "positions": [
                -0.7881277859712023,
                -0.8767240076096705,
                1.800958496887312,
                0.9567081166916415,
                -0.5381762705085968,
                -1.2788046263494497
            ]
        },
        {
            "positions": [
                -0.8100558961441362,
                -0.8941338790125446,
                1.816280381099216,
                0.8278143714799655,
                -0.4660658313383925,
                -1.4105773183604802
            ]
        },
        {
            "positions": [
                -0.8319840063170703,
                -0.9115437504154187,
                1.8316022653111204,
                0.6989206262682897,
                -0.3939553921681883,
                -1.5423500103715106
            ]
        },
        {
            "positions": [
                -0.8539121164900042,
                -0.9289536218182928,
                1.8469241495230246,
                0.5700268810566136,
                -0.3218449529979841,
                -1.6741227023825411
            ]
        },
        {
            "positions": [
                -0.8758402266629383,
                -0.9463634932211669,
                1.862246033734929,
                0.4411331358449375,
                -0.24973451382777978,
                -1.805895394393572
            ]
        },
        {
            "positions": [
                -0.8977683368358722,
                -0.963773364624041,
                1.8775679179468332,
                0.31223939063326167,
                -0.17762407465757568,
                -1.9376680864046025
            ]
        },
        {
            "positions": [
                -0.9196964470088063,
                -0.981183236026915,
                1.8928898021587375,
                0.1833456454215856,
                -0.10551363548737136,
                -2.069440778415633
            ]
        },
        {
            "positions": [
                -0.9416245571817401,
                -0.9985931074297891,
                1.9082116863706415,
                0.054451900209909754,
                -0.03340319631716726,
                -2.2012134704266635
            ]
        },
        {
            "positions": [
                -0.9635526673546742,
                -1.0160029788326632,
                1.9235335705825458,
                -0.07444184500176632,
                0.03870724285303706,
                -2.3329861624376944
            ]
        },
        {
            "positions": [
                -0.9854807775276081,
                -1.0334128502355373,
                1.93885545479445,
                -0.20333559021344216,
                0.11081768202324138,
                -2.464758854448725
            ]
        },
        {
            "positions": [
                -1.007408887700542,
                -1.0508227216384114,
                1.9541773390063544,
                -0.33222933542511823,
                0.1829281211934457,
                -2.5965315464597554
            ]
        },
        {
            "positions": [
                -1.029336997873476,
                -1.0682325930412855,
                1.9694992232182584,
                -0.46112308063679386,
                0.2550385603636498,
                -2.728304238470786
            ]
        },
        {
            "positions": [
                -1.0512651080464102,
                -1.0856424644441596,
                1.9848211074301627,
                -0.5900168258484704,
                0.3271489995338541,
                -2.8600769304818168
            ]
        },
        {
            "positions": [
                -1.073193218219344,
                -1.1030523358470337,
                2.000142991642067,
                -0.718910571060146,
                0.3992594387040582,
                -2.991849622492847
            ]
        },
        {
            "positions": [
                -1.095121328392278,
                -1.1204622072499077,
                2.0154648758539713,
                -0.8478043162718222,
                0.47136987787426254,
                -3.1236223145038777
            ]
        }
    ]
}