{
    "goal": {
        "global_pose": {
            "orientation": {
                "w": -0.4816463035849501,
                "x": 0.5182115481033762,
                "y": 0.4908360881923453,
                "z": -0.5084816262002911
            },
            "position": {
                "x": -0.8240239810943604,
                "y": 0.19912469901144506,
                "z": 0.16403168439865112
            }
        },
        "name": "move_to_storage_D"
    },
    "id": "BFMT_move_to_storage_D_45",
    "joint_names": [
        "shoulder_pan_joint",
        "shoulder_lift_joint",
        "elbow_joint",
        "wrist_1_joint",
        "wrist_2_joint",
        "wrist_3_joint"
    ],
    "metrics": {
        "cart_traj_len": 3.5725091887183416,
        "distance_elbow_joint": 4.208976908319391,
        "distance_shoulder_lift_joint": 1.2648540348981756,
        "distance_shoulder_pan_joint": 2.812012132014101,
        "distance_wrist_1_joint": 2.268592452586659,
        "distance_wrist_2_joint": 0.8689028421176997,
        "distance_wrist_3_joint": 3.1539069833953244,
        "smoothness": 4.2188474941269897e-16,
        "time": 0.79539663,
        "traj_len": 3.818015892231376,
        "weighted_distance": 4.9012809157225785
    },
    "planner": "BFMT",
    "start": {
        "state": {
            "elbow_joint": -2.384821988534728,
            "shoulder_lift_joint": -2.2788054721415256,
            "shoulder_pan_joint": -0.1854694642142757,
            "wrist_1_joint": 1.4845938289331202,
            "wrist_2_joint": 0.17898776772866878,
            "wrist_3_joint": 0.037105688729662994
        }
    },
    "waypoints": [
        {
            "positions": [
                -0.1854694642142757,
                -2.2788054721415256,
                -2.384821988534728,
                1.4845938289331202,
                0.17898776772866878,
                0.037105688729662994
            ]
        },
        {
            "positions": [
                -0.08613526658928572,
                -2.2657770376545896,
                -2.2031728675840205,
                1.4619791345274347,
                0.19913892925515556,
                0.07511950821247312
            ]
        },
        {
            "positions": [
                0.01319893103570427,
                -2.252748603167653,
                -2.021523746633313,
                1.439364440121749,
                0.21929009078164236,
                0.11313332769528325
            ]
        },
        {
            "positions": [
                0.11253312866069429,
                -2.239720168680717,
                -1.8398746256826057,
                1.4167497457160634,
                0.23944125230812913,
                0.15114714717809338
            ]
        },
        {
            "positions": [
                0.21186732628568425,
                -2.2266917341937806,
                -1.6582255047318983,
                1.3941350513103778,
                0.2595924138346159,
                0.1891609666609035
            ]
        },
        {
            "positions": [
                0.31120152391067435,
                -2.2136632997068446,
                -1.4765763837811907,
                1.371520356904692,
                0.27974357536110267,
                0.22717478614371364
            ]
        },
        {
            "positions": [
                0.4105357215356643,
                -2.200634865219908,
                -1.2949272628304833,
                1.3489056624990066,
                0.29989473688758944,
                0.2651886056265238
            ]
        },
        {
            "positions": [
                0.5098699191606544,
                -2.187606430732972,
                -1.1132781418797757,
                1.326290968093321,
                0.32004589841407627,
                0.30320242510933393
            ]
        },
        {
            "positions": [
                0.6092041167856442,
                -2.174577996246036,
                -0.9316290209290685,
                1.3036762736876353,
                0.34019705994056304,
                0.34121624459214406
            ]
        },
        {
            "positions": [
                0.7085383144106343,
                -2.1615495617590996,
                -0.7499798999783609,
                1.2810615792819497,
                0.3603482214670498,
                0.3792300640749542
            ]
        },
        {
            "positions": [
                0.8078725120356244,
                -2.1485211272721636,
                -0.5683307790276535,
                1.2584468848762642,
                0.3804993829935366,
                0.4172438835577643
            ]
        },
        {
            "positions": [
                0.9072067096606143,
                -2.135492692785227,
                -0.3866816580769463,
                1.2358321904705785,
                0.40065054452002336,
                0.45525770304057445
            ]
        },
        {
            "positions": [
                1.0065409072856042,
                -2.122464258298291,
                -0.20503253712623856,
                1.213217496064893,
                0.4208017060465101,
                0.4932715225233845
            ]
        },
        {
            "positions": [
                1.0759427468376228,
                -2.086475098723181,
                -0.11355037864004837,
                1.1467873035782044,
                0.4413128100450314,
                0.5902823384225041
            ]
        },
        {
            "positions": [
                1.1453445863896414,
                -2.050485939148071,
                -0.022068220153858176,
                1.080357111091516,
                0.4618239140435527,
                0.6872931543216237
            ]
        },
        {
            "positions": [
                1.2147464259416603,
                -2.0144967795729607,
                0.06941393833233198,
                1.0139269186048274,
                0.482335018042074,
                0.7843039702207433
            ]
        },
        {
            "positions": [
                1.2841482654936789,
                -1.9785076199978504,
                0.1608960968185222,
                0.947496726118139,
                0.5028461220405953,
                0.8813147861198629
            ]
        },
        {
            "positions": [
                1.3535501050456975,
                -1.9425184604227403,
                0.25237825530471236,
                0.8810665336314505,
                0.5233572260391166,
                0.9783256020189826
            ]
        },
        {
            "positions": [
                1.4229519445977163,
                -1.9065293008476303,
                0.3438604137909025,
                0.814636341144762,
                0.5438683300376379,
                1.0753364179181022
            ]
        },
        {
            "positions": [
                1.492353784149735,
                -1.87054014127252,
                0.4353425722770927,
                0.7482061486580736,
                0.5643794340361592,
                1.1723472338172218
            ]
        },
        {
            "positions": [
                1.5617556237017536,
                -1.83455098169741,
                0.526824730763283,
                0.681775956171385,
                0.5848905380346805,
                1.2693580497163413
            ]
        },
        {
            "positions": [
                1.6311574632537722,
                -1.7985618221222996,
                0.6183068892494731,
                0.6153457636846965,
                0.6054016420332018,
                1.366368865615461
            ]
        },
        {
            "positions": [
                1.7005593028057908,
                -1.7625726625471896,
                0.7097890477356633,
                0.548915571198008,
                0.6259127460317231,
                1.4633796815145805
            ]
        },
        {
            "positions": [
                1.7699611423578099,
                -1.7265835029720793,
                0.8012712062218535,
                0.48248537871131947,
                0.6464238500302444,
                1.5603904974137004
            ]
        },
        {
            "positions": [
                1.8393629819098283,
                -1.6905943433969692,
                0.8927533647080436,
                0.4160551862246311,
                0.6669349540287657,
                1.6574013133128198
            ]
        },
        {
            "positions": [
                1.9087648214618471,
                -1.654605183821859,
                0.984235523194234,
                0.34962499373794254,
                0.687446058027287,
                1.7544121292119395
            ]
        },
        {
            "positions": [
                1.9781666610138657,
                -1.6186160242467489,
                1.0757176816804241,
                0.28319480125125407,
                0.7079571620258083,
                1.851422945111059
            ]
        },
        {
            "positions": [
                2.0475685005658844,
                -1.5826268646716386,
                1.1671998401666144,
                0.2167646087645655,
                0.7284682660243296,
                1.9484337610101787
            ]
        },
        {
            "positions": [
                2.116970340117903,
                -1.5466377050965288,
                1.2586819986528046,
                0.15033441627787703,
                0.7489793700228509,
                2.045444576909298
            ]
        },
        {
            "positions": [
                2.186372179669922,
                -1.5106485455214185,
                1.3501641571389948,
                0.08390422379118845,
                0.7694904740213722,
                2.142455392808418
            ]
        },
        {
            "positions": [
                2.25577401922194,
                -1.4746593859463082,
                1.4416463156251849,
                0.017474031304500093,
                0.7900015780198935,
                2.239466208707537
            ]
        },
        {
            "positions": [
                2.3251758587739593,
                -1.4386702263711981,
                1.533128474111375,
                -0.048956161182188485,
                0.8105126820184148,
                2.336477024606657
            ]
        },
        {
            "positions": [
                2.3945776983259774,
                -1.402681066796088,
                1.6246106325975653,
                -0.11538635366887684,
                0.831023786016936,
                2.4334878405057765
            ]
        },
        {
            "positions": [
                2.4639795378779965,
                -1.3666919072209778,
                1.7160927910837556,
                -0.18181654615556547,
                0.8515348900154573,
                2.5304986564048964
            ]
        },
        {
            "positions": [
                2.491073392864968,
                -1.307901828891373,
                1.7341031458672398,
                -0.28218022573856105,
                0.8842608433206092,
                2.640584325691578
            ]
        },
        {
            "positions": [
                2.5181672478519395,
                -1.2491117505617686,
                1.752113500650724,
                -0.3825439053215567,
                0.9169867966257611,
                2.75066999497826
            ]
        },
        {
            "positions": [
                2.5452611028389107,
                -1.190321672232164,
                1.7701238554342082,
                -0.48290758490455227,
                0.9497127499309129,
                2.860755664264942
            ]
        },
        {
            "positions": [
                2.5723549578258824,
                -1.1315315939025592,
                1.7881342102176925,
                -0.5832712644875478,
                0.9824387032360647,
                2.9708413335516237
            ]
        },
        {
            "positions": [
                2.599448812812854,
                -1.0727415155729547,
                1.8061445650011767,
                -0.6836349440705436,
                1.0151646565412167,
                3.0809270028383056
            ]
        },
        {
            "positions": [
                2.6265426677998254,
                -1.01395143724335,
                1.824154919784661,
                -0.7839986236535391,
                1.0478906098463685,
                3.1910126721249874
            ]
        }
    ]
}