{
    "goal": {
        "global_pose": {
            "orientation": {
                "w": 0.7031023480610252,
                "x": -0.7110244013736278,
                "y": 0.0077485991402295624,
                "z": 0.005598929693374583
            },
            "position": {
                "x": -0.8841497679147869,
                "y": 0.44412534475326537,
                "z": 0.3711530566215515
            }
        },
        "name": "move_to_auspresseinheit_D"
    },
    "id": "BFMT_move_to_auspresseinheit_D_130",
    "joint_names": [
        "shoulder_pan_joint",
        "shoulder_lift_joint",
        "elbow_joint",
        "wrist_1_joint",
        "wrist_2_joint",
        "wrist_3_joint"
    ],
    "metrics": {
        "cart_traj_len": 0.3435596390436925,
        "distance_elbow_joint": 0.6500249568870291,
        "distance_shoulder_lift_joint": 0.12797747115945501,
        "distance_shoulder_pan_joint": 0.13391350526994447,
        "distance_wrist_1_joint": 0.569066825767178,
        "distance_wrist_2_joint": 1.4331207260704366,
        "distance_wrist_3_joint": 0.037506953789855135,
        "smoothness": 2.0724163054081138e-15,
        "time": 0.45852918899999995,
        "traj_len": 1.7180251566679396,
        "weighted_distance": 2.2425012593889937
    },
    "planner": "BFMT",
    "start": {
        "state": {
            "elbow_joint": -1.8275523626775212,
            "shoulder_lift_joint": -2.126789852344167,
            "shoulder_pan_joint": -0.03513704404078235,
            "wrist_1_joint": -2.347782403156801,
            "wrist_2_joint": -1.6058999987535132,
            "wrist_3_joint": -3.0880379163319196
        }
    },
    "waypoints": [
        {
            "positions": [
                -0.03513704404078235,
                -2.126789852344167,
                -1.8275523626775212,
                -2.347782403156801,
                -1.6058999987535132,
                -3.0880379163319196
            ]
        },
        {
            "positions": [
                -0.051876232199525404,
                -2.1427870362390986,
                -1.7462992430666426,
                -2.418915756377698,
                -1.4267599079947086,
                -3.0833495471081878
            ]
        },
        {
            "positions": [
                -0.06861542035826847,
                -2.158784220134031,
                -1.6650461234557639,
                -2.4900491095985955,
                -1.247619817235904,
                -3.078661177884456
            ]
        },
        {
            "positions": [
                -0.08535460851701152,
                -2.1747814040289626,
                -1.5837930038448853,
                -2.5611824628194926,
                -1.0684797264770993,
                -3.073972808660724
            ]
        },
        {
            "positions": [
                -0.10209379667575458,
                -2.1907785879238943,
                -1.5025398842340065,
                -2.63231581604039,
                -0.8893396357182949,
                -3.0692844394369923
            ]
        },
        {
            "positions": [
                -0.11883298483449764,
                -2.206775771818826,
                -1.421286764623128,
                -2.703449169261287,
                -0.7101995449594903,
                -3.06459607021326
            ]
        },
        {
            "positions": [
                -0.1355721729932407,
                -2.222772955713758,
                -1.3400336450122494,
                -2.7745825224821843,
                -0.5310594542006857,
                -3.059907700989528
            ]
        },
        {
            "positions": [
                -0.15231136115198377,
                -2.23877013960869,
                -1.2587805254013706,
                -2.845715875703082,
                -0.35191936344188113,
                -3.0552193317657963
            ]
        },
        {
            "positions": [
                -0.16905054931072683,
                -2.254767323503622,
                -1.177527405790492,
                -2.916849228923979,
                -0.17277927268307666,
                -3.0505309625420645
            ]
        }
    ]
}