{
    "goal": {
        "global_pose": {
            "orientation": {
                "w": 0.5084816217422485,
                "x": -0.49083608388900757,
                "y": 0.5182115435600281,
                "z": -0.4816462993621826
            },
            "position": {
                "x": 0.5540239810943604,
                "y": 0.030875300988554955,
                "z": 0.16403168439865112
            }
        },
        "name": "move_to_storage_A"
    },
    "id": "BFMT_move_to_storage_A_68",
    "joint_names": [
        "shoulder_pan_joint",
        "shoulder_lift_joint",
        "elbow_joint",
        "wrist_1_joint",
        "wrist_2_joint",
        "wrist_3_joint"
    ],
    "metrics": {
        "cart_traj_len": 0.3536782164155204,
        "distance_elbow_joint": 0.4538009755735606,
        "distance_shoulder_lift_joint": 0.23504971148457887,
        "distance_shoulder_pan_joint": 0.460810866343864,
        "distance_wrist_1_joint": 0.2540989255441414,
        "distance_wrist_2_joint": 1.1082580922124083,
        "distance_wrist_3_joint": 0.09002229814108942,
        "smoothness": 5.551115138160447e-16,
        "time": 0.490146749,
        "traj_len": 1.6130842722249952,
        "weighted_distance": 2.0357903829565487
    },
    "planner": "BFMT",
    "start": {
        "state": {
            "elbow_joint": 1.971548259319323,
            "shoulder_lift_joint": -1.1394851275133948,
            "shoulder_pan_joint": 0.1228115487234821,
            "wrist_1_joint": -0.7804723859257726,
            "wrist_2_joint": 0.12958671773740124,
            "wrist_3_joint": -3.192489227718131
        }
    },
    "waypoints": [
        {
            "positions": [
                0.1228115487234821,
                -1.1394851275133948,
                1.971548259319323,
                -0.7804723859257726,
                0.12958671773740124,
                -3.192489227718131
            ]
        },
        {
            "positions": [
                0.05698142496007297,
                -1.1730636577254776,
                2.036376970115546,
                -0.8167722324320785,
                0.2879093023391739,
                -3.1796288994122612
            ]
        },
        {
            "positions": [
                -0.008848698803336164,
                -1.2066421879375602,
                2.101205680911769,
                -0.8530720789383844,
                0.4462318869409465,
                -3.1667685711063913
            ]
        },
        {
            "positions": [
                -0.0746788225667453,
                -1.240220718149643,
                2.1660343917079916,
                -0.8893719254446903,
                0.6045544715427191,
                -3.1539082428005214
            ]
        },
        {
            "positions": [
                -0.14050894633015443,
                -1.2737992483617255,
                2.2308631025042147,
                -0.9256717719509963,
                0.7628770561444917,
                -3.1410479144946515
            ]
        },
        {
            "positions": [
                -0.20633907009356361,
                -1.3073777785738083,
                2.295691813300438,
                -0.9619716184573022,
                0.9211996407462644,
                -3.1281875861887816
            ]
        },
        {
            "positions": [
                -0.2721691938569727,
                -1.340956308785891,
                2.3605205240966605,
                -0.9982714649636081,
                1.079522225348037,
                -3.1153272578829116
            ]
        },
        {
            "positions": [
                -0.3379993176203819,
                -1.3745348389979737,
                2.4253492348928836,
                -1.034571311469914,
                1.2378448099498096,
                -3.1024669295770417
            ]
        }
    ]
}{
    "goal": {
        "global_pose": {
            "orientation": {
                "w": 0.5084816217422485,
                "x": -0.49083608388900757,
                "y": 0.5182115435600281,
                "z": -0.4816462993621826
            },
            "position": {
                "x": 0.5540239810943604,
                "y": 0.030875300988554955,
                "z": 0.16403168439865112
            }
        },
        "name": "move_to_storage_A"
    },
    "id": "BFMT_move_to_storage_A_68",
    "joint_names": [
        "shoulder_pan_joint",
        "shoulder_lift_joint",
        "elbow_joint",
        "wrist_1_joint",
        "wrist_2_joint",
        "wrist_3_joint"
    ],
    "metrics": {
        "cart_traj_len": 0.35377103669384674,
        "distance_elbow_joint": 0.4540667073891882,
        "distance_shoulder_lift_joint": 0.23504917724055718,
        "distance_shoulder_pan_joint": 0.46180822309010827,
        "distance_wrist_1_joint": 0.26023113856253954,
        "distance_wrist_2_joint": 1.1041878610538418,
        "distance_wrist_3_joint": 0.11003772013903923,
        "smoothness": 8.881784197001252e-16,
        "time": 0.484801284,
        "traj_len": 1.6203026962500786,
        "weighted_distance": 2.0517980571610193
    },
    "planner": "BFMT",
    "start": {
        "state": {
            "elbow_joint": 1.97154746011099,
            "shoulder_lift_joint": -1.13948474672311,
            "shoulder_pan_joint": 0.12281154466712228,
            "wrist_1_joint": -0.7804688027058302,
            "wrist_2_joint": 0.12958655903071145,
            "wrist_3_joint": 3.0906928834467795
        }
    },
    "waypoints": [
        {
            "positions": [
                0.12281154466712228,
                -1.13948474672311,
                1.97154746011099,
                -0.7804688027058302,
                0.12958655903071145,
                3.0906928834467795
            ]
        },
        {
            "positions": [
                0.05683894136853539,
                -1.1730632006146182,
                2.0364141325951595,
                -0.8176446796433359,
                0.28732768203840314,
                3.1064125577523565
            ]
        },
        {
            "positions": [
                -0.00913366193005151,
                -1.2066416545061263,
                2.1012808050793295,
                -0.8548205565808414,
                0.4450688050460948,
                3.1221322320579334
            ]
        },
        {
            "positions": [
                -0.0751062652286384,
                -1.2402201083976345,
                2.166147477563499,
                -0.8919964335183471,
                0.6028099280537865,
                3.1378519063635104
            ]
        },
        {
            "positions": [
                -0.1410788685272253,
                -1.2737985622891426,
                2.231014150047669,
                -0.9291723104558528,
                0.7605510510614782,
                3.153571580669088
            ]
        },
        {
            "positions": [
                -0.20705147182581218,
                -1.3073770161806508,
                2.2958808225318386,
                -0.9663481873933584,
                0.91829217406917,
                3.169291254974665
            ]
        },
        {
            "positions": [
                -0.2730240751243991,
                -1.3409554700721589,
                2.3607474950160086,
                -1.003524064330864,
                1.0760332970768616,
                3.1850109292802418
            ]
        },
        {
            "positions": [
                -0.338996678422986,
                -1.3745339239636671,
                2.425614167500178,
                -1.0406999412683697,
                1.2337744200845533,
                3.2007306035858187
            ]
        }
    ]
}{
    "goal": {
        "global_pose": {
            "orientation": {
                "w": 0.5084816217422485,
                "x": -0.49083608388900757,
                "y": 0.5182115435600281,
                "z": -0.4816462993621826
            },
            "position": {
                "x": 0.5540239810943604,
                "y": 0.030875300988554955,
                "z": 0.16403168439865112
            }
        },
        "name": "move_to_storage_A"
    },
    "id": "BFMT_move_to_storage_A_68",
    "joint_names": [
        "shoulder_pan_joint",
        "shoulder_lift_joint",
        "elbow_joint",
        "wrist_1_joint",
        "wrist_2_joint",
        "wrist_3_joint"
    ],
    "metrics": {
        "cart_traj_len": 0.35303157468343893,
        "distance_elbow_joint": 0.44911477957162127,
        "distance_shoulder_lift_joint": 0.23382407017796725,
        "distance_shoulder_pan_joint": 0.4603685888891244,
        "distance_wrist_1_joint": 0.23968216825922362,
        "distance_wrist_2_joint": 1.103892423686886,
        "distance_wrist_3_joint": 0.09039430570820439,
        "smoothness": 0.0,
        "time": 0.506052935,
        "traj_len": 1.60538977706133,
        "weighted_distance": 2.025250488126233
    },
    "planner": "BFMT",
    "start": {
        "state": {
            "elbow_joint": 1.9715472970024885,
            "shoulder_lift_joint": -1.1394870060712896,
            "shoulder_pan_joint": 0.12281152778156021,
            "wrist_1_joint": -0.780463741449964,
            "wrist_2_joint": 0.12958659822042276,
            "wrist_3_joint": 3.090690232415272
        }
    },
    "waypoints": [
        {
            "positions": [
                0.12281152778156021,
                -1.1394870060712896,
                1.9715472970024885,
                -0.780463741449964,
                0.12958659822042276,
                3.090690232415272
            ]
        },
        {
            "positions": [
                0.0570445865116853,
                -1.172890444668142,
                2.035706551227006,
                -0.8147040512012816,
                0.28728551588997786,
                3.1036037046593012
            ]
        },
        {
            "positions": [
                -0.00872235475818961,
                -1.2062938832649945,
                2.099865805451523,
                -0.8489443609525993,
                0.444984433559533,
                3.11651717690333
            ]
        },
        {
            "positions": [
                -0.0744892960280645,
                -1.239697321861847,
                2.1640250596760406,
                -0.8831846707039169,
                0.6026833512290881,
                3.1294306491473596
            ]
        },
        {
            "positions": [
                -0.14025623729793943,
                -1.2731007604586995,
                2.2281843139005577,
                -0.9174249804552346,
                0.7603822688986432,
                3.1423441213913885
            ]
        },
        {
            "positions": [
                -0.20602317856781435,
                -1.306504199055552,
                2.2923435681250752,
                -0.9516652902065523,
                0.9180811865681984,
                3.155257593635418
            ]
        },
        {
            "positions": [
                -0.2717901198376892,
                -1.3399076376524044,
                2.3565028223495923,
                -0.98590559995787,
                1.0757801042377535,
                3.168171065879447
            ]
        },
        {
            "positions": [
                -0.33755706110756417,
                -1.3733110762492569,
                2.42066207657411,
                -1.0201459097091876,
                1.2334790219073086,
                3.1810845381234762
            ]
        }
    ]
}