{
    "goal": {
        "global_pose": {
            "orientation": {
                "w": 0.005598929693374612,
                "x": 0.007748599140229565,
                "y": 0.7110244013736278,
                "z": -0.7031023480610252
            },
            "position": {
                "x": 0.1141497679147869,
                "y": -0.7141253447532654,
                "z": 0.3711530566215515
            }
        },
        "name": "move_to_auspresseinheit_B"
    },
    "id": "BFMT_move_to_auspresseinheit_B_89",
    "joint_names": [
        "shoulder_pan_joint",
        "shoulder_lift_joint",
        "elbow_joint",
        "wrist_1_joint",
        "wrist_2_joint",
        "wrist_3_joint"
    ],
    "metrics": {
        "cart_traj_len": 0.5649003566462286,
        "distance_elbow_joint": 0.06302506683271059,
        "distance_shoulder_lift_joint": 0.29406457150754317,
        "distance_shoulder_pan_joint": 0.5777937077953974,
        "distance_wrist_1_joint": 0.3276483856405815,
        "distance_wrist_2_joint": 0.9913577348535665,
        "distance_wrist_3_joint": 0.007296922403633221,
        "smoothness": 7.612957903237841e-16,
        "time": 0.477949301,
        "traj_len": 1.5037241731891633,
        "weighted_distance": 1.8959921820342107
    },
    "planner": "BFMT",
    "start": {
        "state": {
            "elbow_joint": 2.0193083361928714,
            "shoulder_lift_joint": -1.1220246554650708,
            "shoulder_pan_joint": -1.0952077554168747,
            "wrist_1_joint": -0.8559753972642168,
            "wrist_2_joint": 0.4759566250798843,
            "wrist_3_joint": -3.1240929996934557
        }
    },
    "waypoints": [
        {
            "positions": [
                -1.0952077554168747,
                -1.1220246554650708,
                2.0193083361928714,
                -0.8559753972642168,
                0.4759566250798843,
                -3.1240929996934557
            ]
        },
        {
            "positions": [
                -1.1915067067161076,
                -1.1710354173829947,
                2.0088041583874197,
                -0.8013673329907866,
                0.6411829142221454,
                -3.1253091534273945
            ]
        },
        {
            "positions": [
                -1.2878056580153405,
                -1.2200461793009185,
                1.998299980581968,
                -0.7467592687173563,
                0.8064092033644064,
                -3.1265253071613333
            ]
        },
        {
            "positions": [
                -1.3841046093145732,
                -1.2690569412188424,
                1.9877958027765161,
                -0.692151204443926,
                0.9716354925066675,
                -3.1277414608952725
            ]
        },
        {
            "positions": [
                -1.4804035606138062,
                -1.3180677031367662,
                1.9772916249710644,
                -0.6375431401704958,
                1.1368617816489286,
                -3.1289576146292113
            ]
        },
        {
            "positions": [
                -1.5767025119130391,
                -1.36707846505469,
                1.9667874471656126,
                -0.5829350758970655,
                1.3020880707911897,
                -3.13017376836315
            ]
        },
        {
            "positions": [
                -1.673001463212272,
                -1.416089226972614,
                1.9562832693601608,
                -0.5283270116236353,
                1.4673143599334508,
                -3.131389922097089
            ]
        }
    ]
}