{
    "goal": {
        "global_pose": {
            "orientation": {
                "w": -0.4816463035849501,
                "x": 0.5182115481033762,
                "y": 0.4908360881923453,
                "z": -0.5084816262002911
            },
            "position": {
                "x": -0.8240239810943604,
                "y": -0.300875300988555,
                "z": 0.16403168439865112
            }
        },
        "name": "move_to_storage_C"
    },
    "id": "BFMT_move_to_storage_C_142",
    "joint_names": [
        "shoulder_pan_joint",
        "shoulder_lift_joint",
        "elbow_joint",
        "wrist_1_joint",
        "wrist_2_joint",
        "wrist_3_joint"
    ],
    "metrics": {
        "cart_traj_len": 0.5770839238345318,
        "distance_elbow_joint": 0.25655572053416953,
        "distance_shoulder_lift_joint": 0.1899433463857214,
        "distance_shoulder_pan_joint": 0.49541431983335915,
        "distance_wrist_1_joint": 0.06842474870444559,
        "distance_wrist_2_joint": 1.0630791596486362,
        "distance_wrist_3_joint": 0.0642413218373421,
        "smoothness": 0.0,
        "time": 0.462298215,
        "traj_len": 1.4620733965651909,
        "weighted_distance": 1.8432702376405472
    },
    "planner": "BFMT",
    "start": {
        "state": {
            "elbow_joint": 2.010868314990456,
            "shoulder_lift_joint": -1.1634956873337592,
            "shoulder_pan_joint": -2.4736205022346125,
            "wrist_1_joint": -0.8367026794202681,
            "wrist_2_joint": 0.6746043897044499,
            "wrist_3_joint": -3.1496632123970403
        }
    },
    "waypoints": [
        {
            "positions": [
                -2.4736205022346125,
                -1.1634956873337592,
                2.010868314990456,
                -0.8367026794202681,
                0.6746043897044499,
                -3.1496632123970403
            ]
        },
        {
            "positions": [
                -2.5561895555401724,
                -1.1318384629361389,
                1.9681090282347609,
                -0.8252985546361938,
                0.8517842496458893,
                -3.13895632542415
            ]
        },
        {
            "positions": [
                -2.638758608845732,
                -1.1001812385385188,
                1.925349741479066,
                -0.8138944298521196,
                1.0289641095873288,
                -3.1282494384512596
            ]
        },
        {
            "positions": [
                -2.721327662151292,
                -1.0685240141408985,
                1.882590454723371,
                -0.8024903050680453,
                1.206143969528768,
                -3.117542551478369
            ]
        },
        {
            "positions": [
                -2.803896715456852,
                -1.0368667897432782,
                1.8398311679676762,
                -0.791086180283971,
                1.3833238294702075,
                -3.106835664505479
            ]
        },
        {
            "positions": [
                -2.886465768762412,
                -1.005209565345658,
                1.7970718812119812,
                -0.7796820554998968,
                1.5605036894116466,
                -3.0961287775325887
            ]
        },
        {
            "positions": [
                -2.9690348220679716,
                -0.9735523409480378,
                1.7543125944562863,
                -0.7682779307158225,
                1.737683549353086,
                -3.085421890559698
            ]
        }
    ]
}