{
    "goal": {
        "global_pose": {
            "orientation": {
                "w": 0.7047431493862688,
                "x": -0.7094548369677653,
                "y": 0.0024358444001904,
                "z": -0.0022348060817251984
            },
            "position": {
                "x": -0.39052492380142206,
                "y": 0.3671506643295288,
                "z": 0.19426114857196808
            }
        },
        "name": "move_to_magneteinheit_D"
    },
    "id": "BFMT_move_to_magneteinheit_D_61",
    "joint_names": [
        "shoulder_pan_joint",
        "shoulder_lift_joint",
        "elbow_joint",
        "wrist_1_joint",
        "wrist_2_joint",
        "wrist_3_joint"
    ],
    "metrics": {
        "cart_traj_len": 4.530322654273064,
        "distance_elbow_joint": 3.297318262037078,
        "distance_shoulder_lift_joint": 1.1783354219419417,
        "distance_shoulder_pan_joint": 3.54206437121119,
        "distance_wrist_1_joint": 5.601054283598245,
        "distance_wrist_2_joint": 2.015023349223089,
        "distance_wrist_3_joint": 0.9870996029838301,
        "smoothness": 0.845234734332682,
        "time": 1.174238269,
        "traj_len": 4.076873224788254,
        "weighted_distance": 5.1196847685950715
    },
    "planner": "BFMT",
    "start": {
        "state": {
            "elbow_joint": 0.749534889911806,
            "shoulder_lift_joint": -0.6476975780787326,
            "shoulder_pan_joint": -2.711696901376241,
            "wrist_1_joint": -0.07506478083263063,
            "wrist_2_joint": 0.43296659715538205,
            "wrist_3_joint": -3.14703540197715
        }
    },
    "waypoints": [
        {
            "positions": [
                -2.711696901376241,
                -0.6476975780787326,
                0.749534889911806,
                -0.07506478083263063,
                0.43296659715538205,
                -3.14703540197715
            ]
        },
        {
            "positions": [
                -2.7095277224985046,
                -0.7034638010073248,
                0.7602414690894759,
                0.1454348266784882,
                0.4802594555254172,
                -3.158459891551897
            ]
        },
        {
            "positions": [
                -2.7073585436207686,
                -0.7592300239359168,
                0.7709480482671459,
                0.365934434189607,
                0.5275523138954523,
                -3.169884381126644
            ]
        },
        {
            "positions": [
                -2.705189364743032,
                -0.8149962468645089,
                0.7816546274448158,
                0.5864340417007259,
                0.5748451722654875,
                -3.181308870701391
            ]
        },
        {
            "positions": [
                -2.703020185865296,
                -0.8707624697931009,
                0.7923612066224858,
                0.8069336492118446,
                0.6221380306355226,
                -3.192733360276138
            ]
        },
        {
            "positions": [
                -2.7008510069875595,
                -0.926528692721693,
                0.8030677858001557,
                1.0274332567229636,
                0.6694308890055578,
                -3.2041578498508847
            ]
        },
        {
            "positions": [
                -2.6986818281098235,
                -0.9822949156502851,
                0.8137743649778257,
                1.2479328642340823,
                0.716723747375593,
                -3.215582339425632
            ]
        },
        {
            "positions": [
                -2.696512649232087,
                -1.0380611385788772,
                0.8244809441554957,
                1.4684324717452013,
                0.7640166057456281,
                -3.227006829000379
            ]
        },
        {
            "positions": [
                -2.602149806570041,
                -1.0613732510059186,
                0.7242507706737821,
                1.348417168781566,
                0.7229967585041172,
                -3.2117389492590704
            ]
        },
        {
            "positions": [
                -2.5077869639079946,
                -1.08468536343296,
                0.6240205971920685,
                1.2284018658179305,
                0.6819769112626062,
                -3.1964710695177625
            ]
        },
        {
            "positions": [
                -2.4134241212459484,
                -1.1079974758600015,
                0.523790423710355,
                1.1083865628542953,
                0.6409570640210952,
                -3.181203189776454
            ]
        },
        {
            "positions": [
                -2.319061278583902,
                -1.131309588287043,
                0.4235602502286414,
                0.9883712598906599,
                0.5999372167795842,
                -3.165935310035146
            ]
        },
        {
            "positions": [
                -2.2246984359218565,
                -1.1546217007140844,
                0.3233300767469278,
                0.8683559569270245,
                0.5589173695380734,
                -3.150667430293838
            ]
        },
        {
            "positions": [
                -2.1303355932598103,
                -1.1779338131411259,
                0.22309990326521434,
                0.7483406539633892,
                0.5178975222965624,
                -3.1353995505525294
            ]
        },
        {
            "positions": [
                -2.035972750597764,
                -1.2012459255681673,
                0.12286972978350075,
                0.6283253509997538,
                0.4768776750550514,
                -3.1201316708112214
            ]
        },
        {
            "positions": [
                -1.9416099079357179,
                -1.2245580379952088,
                0.022639556301787156,
                0.5083100480361185,
                0.43585782781354043,
                -3.104863791069913
            ]
        },
        {
            "positions": [
                -1.8472470652736717,
                -1.2478701504222502,
                -0.07759061717992644,
                0.3882947450724832,
                0.39483798057202946,
                -3.0895959113286047
            ]
        },
        {
            "positions": [
                -1.7528842226116255,
                -1.2711822628492917,
                -0.17782079066164003,
                0.2682794421088477,
                0.3538181333305185,
                -3.0743280315872967
            ]
        },
        {
            "positions": [
                -1.6585213799495795,
                -1.2944943752763332,
                -0.2780509641433535,
                0.14826413914521241,
                0.31279828608900756,
                -3.0590601518459883
            ]
        },
        {
            "positions": [
                -1.5641585372875333,
                -1.3178064877033746,
                -0.378281137625067,
                0.02824883618157714,
                0.2717784388474966,
                -3.04379227210468
            ]
        },
        {
            "positions": [
                -1.469795694625487,
                -1.341118600130416,
                -0.4785113111067807,
                -0.09176646678205835,
                0.23075859160598566,
                -3.028524392363372
            ]
        },
        {
            "positions": [
                -1.3754328519634411,
                -1.3644307125574575,
                -0.5787414845884942,
                -0.21178176974569363,
                0.1897387443644747,
                -3.0132565126220636
            ]
        },
        {
            "positions": [
                -1.281070009301395,
                -1.387742824984499,
                -0.6789716580702079,
                -0.3317970727093291,
                0.1487188971229637,
                -2.9979886328807557
            ]
        },
        {
            "positions": [
                -1.1867071666393487,
                -1.4110549374115404,
                -0.7792018315519214,
                -0.4518123756729644,
                0.10769904988145274,
                -2.9827207531394473
            ]
        },
        {
            "positions": [
                -1.0923443239773025,
                -1.4343670498385819,
                -0.8794320050336348,
                -0.5718276786365999,
                0.06667920263994176,
                -2.967452873398139
            ]
        },
        {
            "positions": [
                -0.9979814813152563,
                -1.4576791622656233,
                -0.9796621785153485,
                -0.6918429816002349,
                0.025659355398430783,
                -2.952184993656831
            ]
        },
        {
            "positions": [
                -0.9036186386532103,
                -1.4809912746926648,
                -1.079892351997062,
                -0.8118582845638704,
                -0.015360491843080193,
                -2.9369171139155226
            ]
        },
        {
            "positions": [
                -0.8092557959911642,
                -1.5043033871197062,
                -1.1801225254787757,
                -0.9318735875275059,
                -0.05638033908459117,
                -2.9216492341742146
            ]
        },
        {
            "positions": [
                -0.714892953329118,
                -1.5276154995467477,
                -1.280352698960489,
                -1.051888890491141,
                -0.09740018632610203,
                -2.9063813544329062
            ]
        },
        {
            "positions": [
                -0.620530110667072,
                -1.5509276119737891,
                -1.3805828724422027,
                -1.1719041934547765,
                -0.138420033567613,
                -2.891113474691598
            ]
        },
        {
            "positions": [
                -0.5261672680050258,
                -1.5742397244008306,
                -1.4808130459239164,
                -1.291919496418412,
                -0.17943988080912399,
                -2.87584559495029
            ]
        },
        {
            "positions": [
                -0.4318044253429796,
                -1.597551836827872,
                -1.5810432194056296,
                -1.411934799382047,
                -0.22045972805063496,
                -2.8605777152089815
            ]
        },
        {
            "positions": [
                -0.3374415826809334,
                -1.6208639492549135,
                -1.6812733928873433,
                -1.5319501023456825,
                -0.26147957529214594,
                -2.845309835467673
            ]
        },
        {
            "positions": [
                -0.24307874001888718,
                -1.644176061681955,
                -1.781503566369057,
                -1.651965405309318,
                -0.3024994225336568,
                -2.830041955726365
            ]
        },
        {
            "positions": [
                -0.148715897356841,
                -1.6674881741089964,
                -1.8817337398507707,
                -1.7719807082729535,
                -0.3435192697751679,
                -2.814774075985057
            ]
        },
        {
            "positions": [
                -0.05435305469479523,
                -1.6908002865360379,
                -1.981963913332484,
                -1.8919960112365886,
                -0.38453911701667876,
                -2.7995061962437484
            ]
        },
        {
            "positions": [
                0.040009787967250965,
                -1.7141123989630793,
                -2.082194086814198,
                -2.0120113142002243,
                -0.42555896425818984,
                -2.7842383165024405
            ]
        },
        {
            "positions": [
                0.13437263062929716,
                -1.7374245113901208,
                -2.182424260295911,
                -2.1320266171638593,
                -0.4665788114997007,
                -2.768970436761132
            ]
        },
        {
            "positions": [
                0.22873547329134336,
                -1.7607366238171622,
                -2.2826544337776244,
                -2.2520419201274944,
                -0.5075986587412118,
                -2.753702557019824
            ]
        },
        {
            "positions": [
                0.3230983159533898,
                -1.7840487362442037,
                -2.382884607259338,
                -2.37205722309113,
                -0.5486185059827225,
                -2.7384346772785157
            ]
        },
        {
            "positions": [
                0.1962810274829998,
                -1.7735526703000861,
                -2.3791329431646995,
                -2.317790389045109,
                -0.45578394875659956,
                -2.8430736833382
            ]
        },
        {
            "positions": [
                0.06946373901260983,
                -1.7630566043559683,
                -2.3753812790700612,
                -2.263523554999088,
                -0.36294939153047656,
                -2.9477126893978847
            ]
        },
        {
            "positions": [
                -0.05735354945778015,
                -1.7525605384118506,
                -2.3716296149754226,
                -2.2092567209530674,
                -0.27011483430435357,
                -3.0523516954575696
            ]
        },
        {
            "positions": [
                -0.18417083792817016,
                -1.742064472467733,
                -2.367877950880784,
                -2.1549898869070465,
                -0.17728027707823055,
                -3.156990701517254
            ]
        }
    ]
}