{
    "goal": {
        "global_pose": {
            "orientation": {
                "w": 0.005598929693374612,
                "x": 0.007748599140229565,
                "y": 0.7110244013736278,
                "z": -0.7031023480610252
            },
            "position": {
                "x": 0.1141497679147869,
                "y": -0.7141253447532654,
                "z": 0.3711530566215515
            }
        },
        "name": "move_to_auspresseinheit_B"
    },
    "id": "BFMT_move_to_auspresseinheit_B_31",
    "joint_names": [
        "shoulder_pan_joint",
        "shoulder_lift_joint",
        "elbow_joint",
        "wrist_1_joint",
        "wrist_2_joint",
        "wrist_3_joint"
    ],
    "metrics": {
        "cart_traj_len": 0.564760812784683,
        "distance_elbow_joint": 0.06329109952181189,
        "distance_shoulder_lift_joint": 0.2936467007578618,
        "distance_shoulder_pan_joint": 0.5746668648877791,
        "distance_wrist_1_joint": 0.32788868298614116,
        "distance_wrist_2_joint": 1.008118716406502,
        "distance_wrist_3_joint": 0.008056595741845474,
        "smoothness": 3.806478935924272e-16,
        "time": 0.473396912,
        "traj_len": 1.508531955346635,
        "weighted_distance": 1.9046756288613227
    },
    "planner": "BFMT",
    "start": {
        "state": {
            "elbow_joint": 2.0193083361928714,
            "shoulder_lift_joint": -1.1220246554650708,
            "shoulder_pan_joint": -1.0952077554168747,
            "wrist_1_joint": -0.8559753972642168,
            "wrist_2_joint": 0.4759566250798843,
            "wrist_3_joint": -3.1240929996934557
        }
    },
    "waypoints": [
        {
            "positions": [
                -1.0952077554168747,
                -1.1220246554650708,
                2.0193083361928714,
                -0.8559753972642168,
                0.4759566250798843,
                -3.1240929996934557
            ]
        },
        {
            "positions": [
                -1.1909855662315045,
                -1.1709657722580478,
                2.0087598196059027,
                -0.8013272834331933,
                0.6439764111476346,
                -3.1254357656504297
            ]
        },
        {
            "positions": [
                -1.2867633770461344,
                -1.2199068890510247,
                1.9982113030189341,
                -0.7466791696021697,
                0.8119961972153849,
                -3.126778531607404
            ]
        },
        {
            "positions": [
                -1.382541187860764,
                -1.2688480058440017,
                1.9876627864319656,
                -0.6920310557711462,
                0.9800159832831352,
                -3.1281212975643786
            ]
        },
        {
            "positions": [
                -1.478318998675394,
                -1.3177891226369787,
                1.9771142698449968,
                -0.6373829419401227,
                1.1480357693508856,
                -3.1294640635213526
            ]
        },
        {
            "positions": [
                -1.5740968094900238,
                -1.3667302394299556,
                1.966565753258028,
                -0.5827348281090992,
                1.316055555418636,
                -3.1308068294783267
            ]
        },
        {
            "positions": [
                -1.6698746203046537,
                -1.4156713562229326,
                1.9560172366710595,
                -0.5280867142780756,
                1.4840753414863863,
                -3.132149595435301
            ]
        }
    ]
}