{
    "goal": {
        "global_pose": {
            "orientation": {
                "w": 0.7031023480610252,
                "x": -0.7110244013736278,
                "y": 0.0077485991402295624,
                "z": 0.005598929693374583
            },
            "position": {
                "x": -0.8841497679147869,
                "y": 0.44412534475326537,
                "z": 0.3711530566215515
            }
        },
        "name": "move_to_auspresseinheit_D"
    },
    "id": "BFMT_move_to_auspresseinheit_D_96",
    "joint_names": [
        "shoulder_pan_joint",
        "shoulder_lift_joint",
        "elbow_joint",
        "wrist_1_joint",
        "wrist_2_joint",
        "wrist_3_joint"
    ],
    "metrics": {
        "cart_traj_len": 0.34446949013865324,
        "distance_elbow_joint": 0.6691486844016901,
        "distance_shoulder_lift_joint": 0.13863107179926493,
        "distance_shoulder_pan_joint": 0.1332863668191568,
        "distance_wrist_1_joint": 0.6256600122361409,
        "distance_wrist_2_joint": 1.4456361618167937,
        "distance_wrist_3_joint": 0.07323074310461575,
        "smoothness": 0.0,
        "time": 0.460389336,
        "traj_len": 1.7565856199393362,
        "weighted_distance": 2.3029004972946243
    },
    "planner": "BFMT",
    "start": {
        "state": {
            "elbow_joint": -1.8275523626775212,
            "shoulder_lift_joint": -2.126789852344167,
            "shoulder_pan_joint": -0.03513704404078235,
            "wrist_1_joint": -2.347782403156801,
            "wrist_2_joint": -1.6058999987535132,
            "wrist_3_joint": -3.0880379163319196
        }
    },
    "waypoints": [
        {
            "positions": [
                -0.03513704404078235,
                -2.126789852344167,
                -1.8275523626775212,
                -2.347782403156801,
                -1.6058999987535132,
                -3.0880379163319196
            ]
        },
        {
            "positions": [
                -0.05179783989317695,
                -2.144118736319075,
                -1.7439087771273099,
                -2.4259899046863183,
                -1.425195478526414,
                -3.0788840734438425
            ]
        },
        {
            "positions": [
                -0.06845863574557154,
                -2.161447620293983,
                -1.6602651915770987,
                -2.504197406215836,
                -1.2444909582993149,
                -3.0697302305557654
            ]
        },
        {
            "positions": [
                -0.08511943159796614,
                -2.178776504268891,
                -1.5766216060268874,
                -2.582404907745354,
                -1.0637864380722155,
                -3.060576387667689
            ]
        },
        {
            "positions": [
                -0.10178022745036075,
                -2.196105388243799,
                -1.4929780204766763,
                -2.6606124092748713,
                -0.8830819178451164,
                -3.0514225447796117
            ]
        },
        {
            "positions": [
                -0.11844102330275535,
                -2.2134342722187075,
                -1.409334434926465,
                -2.7388199108043887,
                -0.7023773976180172,
                -3.0422687018915346
            ]
        },
        {
            "positions": [
                -0.13510181915514993,
                -2.2307631561936154,
                -1.3256908493762536,
                -2.8170274123339065,
                -0.5216728773909178,
                -3.033114859003458
            ]
        },
        {
            "positions": [
                -0.15176261500754454,
                -2.248092040168524,
                -1.2420472638260422,
                -2.8952349138634244,
                -0.3409683571638187,
                -3.023961016115381
            ]
        },
        {
            "positions": [
                -0.16842341085993914,
                -2.2654209241434318,
                -1.1584036782758311,
                -2.9734424153929417,
                -0.16026383693671964,
                -3.014807173227304
            ]
        }
    ]
}