{
    "goal": {
        "global_pose": {
            "orientation": {
                "w": 0.5084816217422485,
                "x": -0.49083608388900757,
                "y": 0.5182115435600281,
                "z": -0.4816462993621826
            },
            "position": {
                "x": 0.5540239810943604,
                "y": 0.030875300988554955,
                "z": 0.16403168439865112
            }
        },
        "name": "move_to_storage_A"
    },
    "id": "BFMT_move_to_storage_A_78",
    "joint_names": [
        "shoulder_pan_joint",
        "shoulder_lift_joint",
        "elbow_joint",
        "wrist_1_joint",
        "wrist_2_joint",
        "wrist_3_joint"
    ],
    "metrics": {
        "cart_traj_len": 0.3527536189454097,
        "distance_elbow_joint": 0.45331809592240213,
        "distance_shoulder_lift_joint": 0.23357470281283832,
        "distance_shoulder_pan_joint": 0.46007148955336763,
        "distance_wrist_1_joint": 0.25514111695420405,
        "distance_wrist_2_joint": 1.1036386397109634,
        "distance_wrist_3_joint": 0.09289571975665822,
        "smoothness": 1.7763568394002505e-15,
        "time": 0.5018753460000001,
        "traj_len": 1.6120297034206392,
        "weighted_distance": 2.035487892592073
    },
    "planner": "BFMT",
    "start": {
        "state": {
            "elbow_joint": 1.971548259319323,
            "shoulder_lift_joint": -1.1394851275133948,
            "shoulder_pan_joint": 0.1228115487234821,
            "wrist_1_joint": -0.7804723859257726,
            "wrist_2_joint": 0.12958671773740124,
            "wrist_3_joint": -3.192489227718131
        }
    },
    "waypoints": [
        {
            "positions": [
                0.1228115487234821,
                -1.1394851275133948,
                1.971548259319323,
                -0.7804723859257726,
                0.12958671773740124,
                -3.192489227718131
            ]
        },
        {
            "positions": [
                0.05708705021585815,
                -1.172852942200943,
                2.0363079873082377,
                -0.8169211169192303,
                0.28724938055325316,
                -3.179218410610037
            ]
        },
        {
            "positions": [
                -0.008637448291765798,
                -1.2062207568884915,
                2.101067715297152,
                -0.8533698479126881,
                0.44491204336910506,
                -3.165947593501943
            ]
        },
        {
            "positions": [
                -0.07436194679938973,
                -1.2395885715760397,
                2.1658274432860667,
                -0.8898185789061458,
                0.602574706184957,
                -3.1526767763938492
            ]
        },
        {
            "positions": [
                -0.1400864453070137,
                -1.2729563862635882,
                2.230587171274981,
                -0.9262673098996035,
                0.760237369000809,
                -3.139405959285755
            ]
        },
        {
            "positions": [
                -0.20581094381463766,
                -1.3063242009511364,
                2.295346899263896,
                -0.9627160408930613,
                0.9179000318166609,
                -3.126135142177661
            ]
        },
        {
            "positions": [
                -0.27153544232226157,
                -1.339692015638685,
                2.3601066272528106,
                -0.9991647718865189,
                1.0755626946325128,
                -3.112864325069567
            ]
        },
        {
            "positions": [
                -0.33725994082988553,
                -1.3730598303262331,
                2.424866355241725,
                -1.0356135028799767,
                1.2332253574483647,
                -3.099593507961473
            ]
        }
    ]
}{
    "goal": {
        "global_pose": {
            "orientation": {
                "w": 0.5084816217422485,
                "x": -0.49083608388900757,
                "y": 0.5182115435600281,
                "z": -0.4816462993621826
            },
            "position": {
                "x": 0.5540239810943604,
                "y": 0.030875300988554955,
                "z": 0.16403168439865112
            }
        },
        "name": "move_to_storage_A"
    },
    "id": "BFMT_move_to_storage_A_78",
    "joint_names": [
        "shoulder_pan_joint",
        "shoulder_lift_joint",
        "elbow_joint",
        "wrist_1_joint",
        "wrist_2_joint",
        "wrist_3_joint"
    ],
    "metrics": {
        "cart_traj_len": 0.35335684937225087,
        "distance_elbow_joint": 0.45210575772916917,
        "distance_shoulder_lift_joint": 0.23648131091014557,
        "distance_shoulder_pan_joint": 0.46219408676177276,
        "distance_wrist_1_joint": 0.24855340706939,
        "distance_wrist_2_joint": 1.1000330233858142,
        "distance_wrist_3_joint": 0.09044649720934084,
        "smoothness": 4.440892133664971e-16,
        "time": 0.502438243,
        "traj_len": 1.6092899313255,
        "weighted_distance": 2.0296042737291224
    },
    "planner": "BFMT",
    "start": {
        "state": {
            "elbow_joint": 1.97154746011099,
            "shoulder_lift_joint": -1.13948474672311,
            "shoulder_pan_joint": 0.12281154466712228,
            "wrist_1_joint": -0.7804688027058302,
            "wrist_2_joint": 0.12958655903071145,
            "wrist_3_joint": 3.0906928834467795
        }
    },
    "waypoints": [
        {
            "positions": [
                0.12281154466712228,
                -1.13948474672311,
                1.97154746011099,
                -0.7804688027058302,
                0.12958655903071145,
                3.0906928834467795
            ]
        },
        {
            "positions": [
                0.05678381798686903,
                -1.173267791138845,
                2.0361339969294425,
                -0.8159764322871716,
                0.2867341338001135,
                3.1036138116195424
            ]
        },
        {
            "positions": [
                -0.00924390869338422,
                -1.2070508355545801,
                2.1007205337478956,
                -0.851484061868513,
                0.4438817085695155,
                3.1165347397923053
            ]
        },
        {
            "positions": [
                -0.07527163537363747,
                -1.2408338799703151,
                2.165307070566348,
                -0.8869916914498545,
                0.6010292833389175,
                3.1294556679650682
            ]
        },
        {
            "positions": [
                -0.1412993620538907,
                -1.2746169243860503,
                2.229893607384801,
                -0.9224993210311959,
                0.7581768581083196,
                3.1423765961378316
            ]
        },
        {
            "positions": [
                -0.20732708873414396,
                -1.3083999688017853,
                2.294480144203254,
                -0.9580069506125373,
                0.9153244328777217,
                3.1552975243105945
            ]
        },
        {
            "positions": [
                -0.2733548154143972,
                -1.3421830132175203,
                2.3590666810217065,
                -0.9935145801938787,
                1.0724720076471235,
                3.1682184524833574
            ]
        },
        {
            "positions": [
                -0.33938254209465046,
                -1.3759660576332555,
                2.423653217840159,
                -1.0290222097752202,
                1.2296195824165257,
                3.1811393806561203
            ]
        }
    ]
}{
    "goal": {
        "global_pose": {
            "orientation": {
                "w": 0.5084816217422485,
                "x": -0.49083608388900757,
                "y": 0.5182115435600281,
                "z": -0.4816462993621826
            },
            "position": {
                "x": 0.5540239810943604,
                "y": 0.030875300988554955,
                "z": 0.16403168439865112
            }
        },
        "name": "move_to_storage_A"
    },
    "id": "BFMT_move_to_storage_A_78",
    "joint_names": [
        "shoulder_pan_joint",
        "shoulder_lift_joint",
        "elbow_joint",
        "wrist_1_joint",
        "wrist_2_joint",
        "wrist_3_joint"
    ],
    "metrics": {
        "cart_traj_len": 0.35294704247571645,
        "distance_elbow_joint": 0.44850354787422697,
        "distance_shoulder_lift_joint": 0.23246769805972933,
        "distance_shoulder_pan_joint": 0.4622944779983606,
        "distance_wrist_1_joint": 0.24203511225274088,
        "distance_wrist_2_joint": 1.0938963854295545,
        "distance_wrist_3_joint": 0.08747506049787201,
        "smoothness": 0.0,
        "time": 0.500068005,
        "traj_len": 1.602083731305104,
        "weighted_distance": 2.0192953971102203
    },
    "planner": "BFMT",
    "start": {
        "state": {
            "elbow_joint": 1.9715472970024885,
            "shoulder_lift_joint": -1.1394870060712896,
            "shoulder_pan_joint": 0.12281152778156021,
            "wrist_1_joint": -0.780463741449964,
            "wrist_2_joint": 0.12958659822042276,
            "wrist_3_joint": 3.090690232415272
        }
    },
    "waypoints": [
        {
            "positions": [
                0.12281152778156021,
                -1.1394870060712896,
                1.9715472970024885,
                -0.780463741449964,
                0.12958659822042276,
                3.090690232415272
            ]
        },
        {
            "positions": [
                0.05676945949608013,
                -1.1726966772226795,
                2.0356192324130924,
                -0.8150401860574984,
                0.2858575104246448,
                3.1031866696292534
            ]
        },
        {
            "positions": [
                -0.00927260878939995,
                -1.2059063483740695,
                2.0996911678236962,
                -0.8496166306650328,
                0.44212842262886687,
                3.1156831068432354
            ]
        },
        {
            "positions": [
                -0.07531467707488002,
                -1.2391160195254594,
                2.1637631032343,
                -0.8841930752725672,
                0.5983993348330889,
                3.128179544057217
            ]
        },
        {
            "positions": [
                -0.1413567453603601,
                -1.2723256906768492,
                2.227835038644904,
                -0.9187695198801016,
                0.754670247037311,
                3.140675981271199
            ]
        },
        {
            "positions": [
                -0.2073988136458402,
                -1.3055353618282393,
                2.291906974055508,
                -0.9533459644876361,
                0.9109411592415331,
                3.1531724184851804
            ]
        },
        {
            "positions": [
                -0.2734408819313202,
                -1.338745032979629,
                2.3559789094661117,
                -0.9879224090951705,
                1.0672120714457551,
                3.1656688556991623
            ]
        },
        {
            "positions": [
                -0.33948295021680036,
                -1.371954704131019,
                2.4200508448767155,
                -1.0224988537027049,
                1.2234829836499772,
                3.178165292913144
            ]
        }
    ]
}