{
    "goal": {
        "global_pose": {
            "orientation": {
                "w": 0.7031023480610252,
                "x": -0.7110244013736278,
                "y": 0.0077485991402295624,
                "z": 0.005598929693374583
            },
            "position": {
                "x": -0.8841497679147869,
                "y": 0.44412534475326537,
                "z": 0.3711530566215515
            }
        },
        "name": "move_to_auspresseinheit_D"
    },
    "id": "BFMT_move_to_auspresseinheit_D_30",
    "joint_names": [
        "shoulder_pan_joint",
        "shoulder_lift_joint",
        "elbow_joint",
        "wrist_1_joint",
        "wrist_2_joint",
        "wrist_3_joint"
    ],
    "metrics": {
        "cart_traj_len": 0.34446381625789146,
        "distance_elbow_joint": 0.6504900692362598,
        "distance_shoulder_lift_joint": 0.12715045162837102,
        "distance_shoulder_pan_joint": 0.1341392587832112,
        "distance_wrist_1_joint": 0.5668991430232371,
        "distance_wrist_2_joint": 1.436877517955149,
        "distance_wrist_3_joint": 0.02863097132126491,
        "smoothness": 1.9737298371844314e-16,
        "time": 0.457681286,
        "traj_len": 1.7158634595874733,
        "weighted_distance": 2.237236244916573
    },
    "planner": "BFMT",
    "start": {
        "state": {
            "elbow_joint": -1.8275523626775212,
            "shoulder_lift_joint": -2.126789852344167,
            "shoulder_pan_joint": -0.03513704404078235,
            "wrist_1_joint": -2.347782403156801,
            "wrist_2_joint": -1.6058999987535132,
            "wrist_3_joint": -3.0880379163319196
        }
    },
    "waypoints": [
        {
            "positions": [
                -0.03513704404078235,
                -2.126789852344167,
                -1.8275523626775212,
                -2.347782403156801,
                -1.6058999987535132,
                -3.0880379163319196
            ]
        },
        {
            "positions": [
                -0.05190445138868375,
                -2.142683658797713,
                -1.7462411040229888,
                -2.4186447960347053,
                -1.4262903090091195,
                -3.0844590449167617
            ]
        },
        {
            "positions": [
                -0.06867185873658516,
                -2.1585774652512595,
                -1.6649298453684562,
                -2.48950718891261,
                -1.246680619264726,
                -3.0808801735016034
            ]
        },
        {
            "positions": [
                -0.08543926608448654,
                -2.174471271704806,
                -1.5836185867139236,
                -2.560369581790515,
                -1.0670709295203324,
                -3.077301302086445
            ]
        },
        {
            "positions": [
                -0.10220667343238796,
                -2.1903650781583526,
                -1.5023073280593913,
                -2.6312319746684194,
                -0.8874612397759387,
                -3.073722430671287
            ]
        },
        {
            "positions": [
                -0.11897408078028934,
                -2.206258884611899,
                -1.420996069404859,
                -2.702094367546324,
                -0.7078515500315451,
                -3.0701435592561293
            ]
        },
        {
            "positions": [
                -0.13574148812819076,
                -2.222152691065445,
                -1.3396848107503263,
                -2.7729567604242287,
                -0.5282418602871515,
                -3.066564687840971
            ]
        },
        {
            "positions": [
                -0.15250889547609214,
                -2.2380464975189915,
                -1.2583735520957937,
                -2.8438191533021335,
                -0.34863217054275797,
                -3.0629858164258126
            ]
        },
        {
            "positions": [
                -0.16927630282399356,
                -2.253940303972538,
                -1.1770622934412613,
                -2.914681546180038,
                -0.1690224807983643,
                -3.0594069450106547
            ]
        }
    ]
}