{
    "goal": {
        "global_pose": {
            "orientation": {
                "w": 0.7047431468963623,
                "x": -0.7094548344612122,
                "y": 0.0024358443915843964,
                "z": -0.0022348060738295317
            },
            "position": {
                "x": 0.6094750761985779,
                "y": 0.3671506643295288,
                "z": 0.19426114857196808
            }
        },
        "name": "move_to_magneteinheit_A"
    },
    "id": "BFMT_move_to_magneteinheit_A_80",
    "joint_names": [
        "shoulder_pan_joint",
        "shoulder_lift_joint",
        "elbow_joint",
        "wrist_1_joint",
        "wrist_2_joint",
        "wrist_3_joint"
    ],
    "metrics": {
        "cart_traj_len": 3.163261242391931,
        "distance_elbow_joint": 3.906317403457283,
        "distance_shoulder_lift_joint": 0.5382809259465239,
        "distance_shoulder_pan_joint": 2.7062005236347204,
        "distance_wrist_1_joint": 3.4567975469972003,
        "distance_wrist_2_joint": 1.4508363422026052,
        "distance_wrist_3_joint": 0.7561923028742236,
        "smoothness": 0.0685472105560248,
        "time": 1.105939171,
        "traj_len": 3.579752092689179,
        "weighted_distance": 4.385731813513089
    },
    "planner": "BFMT",
    "start": {
        "state": {
            "elbow_joint": -1.9196185241190666,
            "shoulder_lift_joint": -1.2443396400964142,
            "shoulder_pan_joint": 2.6996025414629847,
            "wrist_1_joint": -1.5485510000780065,
            "wrist_2_joint": -1.5709468930060704,
            "wrist_3_joint": 0.4420197071253992
        }
    },
    "waypoints": [
        {
            "positions": [
                2.6996025414629847,
                -1.2443396400964142,
                -1.9196185241190666,
                -1.5485510000780065,
                -1.5709468930060704,
                0.4420197071253992
            ]
        },
        {
            "positions": [
                2.5933018404931016,
                -1.2230770901401018,
                -1.8255452893361395,
                -1.4307742900607445,
                -1.5371648796301312,
                0.4498528974361996
            ]
        },
        {
            "positions": [
                2.4870011395232186,
                -1.2018145401837894,
                -1.7314720545532125,
                -1.3129975800434825,
                -1.5033828662541922,
                0.457686087747
            ]
        },
        {
            "positions": [
                2.380700438553336,
                -1.180551990227477,
                -1.6373988197702853,
                -1.1952208700262206,
                -1.469600852878253,
                0.4655192780578004
            ]
        },
        {
            "positions": [
                2.274399737583453,
                -1.1592894402711647,
                -1.5433255849873584,
                -1.0774441600089586,
                -1.4358188395023137,
                0.4733524683686008
            ]
        },
        {
            "positions": [
                2.1680990366135697,
                -1.1380268903148523,
                -1.4492523502044312,
                -0.9596674499916965,
                -1.4020368261263745,
                0.4811856586794012
            ]
        },
        {
            "positions": [
                2.0617983356436866,
                -1.1167643403585399,
                -1.355179115421504,
                -0.8418907399744345,
                -1.3682548127504355,
                0.4890188489902016
            ]
        },
        {
            "positions": [
                1.9554976346738038,
                -1.0955017904022273,
                -1.261105880638577,
                -0.7241140299571726,
                -1.3344727993744963,
                0.496852039301002
            ]
        },
        {
            "positions": [
                1.849196933703921,
                -1.0742392404459151,
                -1.16703264585565,
                -0.6063373199399106,
                -1.300690785998557,
                0.5046852296118024
            ]
        },
        {
            "positions": [
                1.7428962327340378,
                -1.0529766904896025,
                -1.072959411072723,
                -0.4885606099226485,
                -1.2669087726226178,
                0.5125184199226028
            ]
        },
        {
            "positions": [
                1.6365955317641547,
                -1.0317141405332901,
                -0.9788861762897958,
                -0.3707838999053865,
                -1.2331267592466788,
                0.5203516102334033
            ]
        },
        {
            "positions": [
                1.5302948307942716,
                -1.0104515905769778,
                -0.8848129415068686,
                -0.25300718988812454,
                -1.1993447458707396,
                0.5281848005442036
            ]
        },
        {
            "positions": [
                1.4239941298243888,
                -0.9891890406206654,
                -0.7907397067239417,
                -0.13523047987086256,
                -1.1655627324948004,
                0.536017990855004
            ]
        },
        {
            "positions": [
                1.3176934288545057,
                -0.967926490664353,
                -0.6966664719410145,
                -0.017453769853600587,
                -1.1317807191188611,
                0.5438511811658044
            ]
        },
        {
            "positions": [
                1.2113927278846228,
                -0.9466639407080406,
                -0.6025932371580875,
                0.10032294016366139,
                -1.0979987057429221,
                0.5516843714766049
            ]
        },
        {
            "positions": [
                1.1050920269147397,
                -0.9254013907517282,
                -0.5085200023751604,
                0.2180996501809236,
                -1.064216692366983,
                0.5595175617874053
            ]
        },
        {
            "positions": [
                0.9987913259448569,
                -0.9041388407954158,
                -0.4144467675922332,
                0.33587636019818534,
                -1.030434678991044,
                0.5673507520982056
            ]
        },
        {
            "positions": [
                0.8924906249749736,
                -0.8828762908391035,
                -0.320373532809306,
                0.45365307021544754,
                -0.9966526656151046,
                0.575183942409006
            ]
        },
        {
            "positions": [
                0.7861899240050907,
                -0.8616137408827911,
                -0.22630029802637908,
                0.5714297802327095,
                -0.9628706522391655,
                0.5830171327198065
            ]
        },
        {
            "positions": [
                0.6798892230352078,
                -0.8403511909264787,
                -0.1322270632434519,
                0.6892064902499715,
                -0.9290886388632262,
                0.5908503230306068
            ]
        },
        {
            "positions": [
                0.5735885220653247,
                -0.8190886409701663,
                -0.03815382846052495,
                0.8069832002672335,
                -0.8953066254872871,
                0.5986835133414072
            ]
        },
        {
            "positions": [
                0.46728782109544165,
                -0.7978260910138538,
                0.05591940632240233,
                0.9247599102844954,
                -0.8615246121113479,
                0.6065167036522077
            ]
        },
        {
            "positions": [
                0.3914802739495355,
                -0.7836001006942892,
                0.18819400978914055,
                1.01851877161711,
                -0.812700348508934,
                0.5816231262337537
            ]
        },
        {
            "positions": [
                0.31567272680362934,
                -0.7693741103747246,
                0.3204686132558788,
                1.1122776329497246,
                -0.76387608490652,
                0.5567295488152996
            ]
        },
        {
            "positions": [
                0.2398651796577232,
                -0.75514812005516,
                0.45274321672261697,
                1.2060364942823392,
                -0.7150518213041062,
                0.5318359713968455
            ]
        },
        {
            "positions": [
                0.16405763251181704,
                -0.7409221297355953,
                0.5850178201893552,
                1.2997953556149537,
                -0.6662275577016923,
                0.5069423939783915
            ]
        },
        {
            "positions": [
                0.15077728068255142,
                -0.7426159678373611,
                0.7417366860284095,
                1.3706528401588736,
                -0.6056147022385607,
                0.4537128120515991
            ]
        },
        {
            "positions": [
                0.13749692885328577,
                -0.7443098059391268,
                0.8984555518674637,
                1.4415103247027932,
                -0.5450018467754292,
                0.40048323012480663
            ]
        },
        {
            "positions": [
                0.12421657702402013,
                -0.7460036440408925,
                1.0551744177065179,
                1.512367809246713,
                -0.4843889913122977,
                0.34725364819801424
            ]
        },
        {
            "positions": [
                0.11093622519475449,
                -0.7476974821426581,
                1.2118932835455722,
                1.5832252937906328,
                -0.4237761358491661,
                0.2940240662712218
            ]
        },
        {
            "positions": [
                0.09765587336548885,
                -0.7493913202444238,
                1.3686121493846266,
                1.6540827783345526,
                -0.36316328038603457,
                0.2407944843444294
            ]
        },
        {
            "positions": [
                0.08437552153622321,
                -0.7510851583461895,
                1.5253310152236808,
                1.7249402628784725,
                -0.30255042492290307,
                0.18756490241763701
            ]
        },
        {
            "positions": [
                0.07109516970695758,
                -0.7527789964479552,
                1.682049881062735,
                1.795797747422392,
                -0.24193756945977152,
                0.13433532049084457
            ]
        },
        {
            "positions": [
                0.057814817877691944,
                -0.7544728345497209,
                1.8387687469017893,
                1.866655231966312,
                -0.18132471399663996,
                0.08110573856405216
            ]
        },
        {
            "positions": [
                0.09002121790240591,
                -0.7651291899355106,
                1.9127338131200025,
                1.887450889442753,
                -0.1507176324000527,
                0.04796356793442243
            ]
        },
        {
            "positions": [
                0.12222761792711988,
                -0.7757855453213004,
                1.9866988793382157,
                1.908246546919194,
                -0.12011055080346547,
                0.014821397304792691
            ]
        }
    ]
}