{
    "goal": {
        "global_pose": {
            "orientation": {
                "w": 0.5084816217422485,
                "x": -0.49083608388900757,
                "y": 0.5182115435600281,
                "z": -0.4816462993621826
            },
            "position": {
                "x": 0.5540239810943604,
                "y": 0.030875300988554955,
                "z": 0.16403168439865112
            }
        },
        "name": "move_to_storage_A"
    },
    "id": "BFMT_move_to_storage_A_49",
    "joint_names": [
        "shoulder_pan_joint",
        "shoulder_lift_joint",
        "elbow_joint",
        "wrist_1_joint",
        "wrist_2_joint",
        "wrist_3_joint"
    ],
    "metrics": {
        "cart_traj_len": 0.35336053668647416,
        "distance_elbow_joint": 0.4519175278759049,
        "distance_shoulder_lift_joint": 0.23399514276833044,
        "distance_shoulder_pan_joint": 0.4592752290918695,
        "distance_wrist_1_joint": 0.2525990578190488,
        "distance_wrist_2_joint": 1.1113092511041676,
        "distance_wrist_3_joint": 0.10433434259691854,
        "smoothness": 2.2204460668324854e-16,
        "time": 0.49481572900000004,
        "traj_len": 1.6166108224480744,
        "weighted_distance": 2.0459734957651072
    },
    "planner": "BFMT",
    "start": {
        "state": {
            "elbow_joint": 1.971548259319323,
            "shoulder_lift_joint": -1.1394851275133948,
            "shoulder_pan_joint": 0.1228115487234821,
            "wrist_1_joint": -0.7804723859257726,
            "wrist_2_joint": 0.12958671773740124,
            "wrist_3_joint": -3.192489227718131
        }
    },
    "waypoints": [
        {
            "positions": [
                0.1228115487234821,
                -1.1394851275133948,
                1.971548259319323,
                -0.7804723859257726,
                0.12958671773740124,
                -3.192489227718131
            ]
        },
        {
            "positions": [
                0.05720080171035789,
                -1.1729130050517278,
                2.036107906158738,
                -0.8165579656142081,
                0.28834518218085375,
                -3.177584321632857
            ]
        },
        {
            "positions": [
                -0.008409945302766314,
                -1.2063408825900606,
                2.100667552998153,
                -0.8526435453026437,
                0.44710364662430624,
                -3.162679415547583
            ]
        },
        {
            "positions": [
                -0.07402069231589053,
                -1.2397687601283935,
                2.165227199837568,
                -0.8887291249910793,
                0.6058621110677588,
                -3.147774509462309
            ]
        },
        {
            "positions": [
                -0.13963143932901473,
                -1.2731966376667265,
                2.229786846676983,
                -0.9248147046795148,
                0.7646205755112113,
                -3.132869603377035
            ]
        },
        {
            "positions": [
                -0.20524218634213898,
                -1.3066245152050595,
                2.294346493516398,
                -0.9609002843679504,
                0.9233790399546639,
                -3.117964697291761
            ]
        },
        {
            "positions": [
                -0.27085293335526317,
                -1.3400523927433923,
                2.358906140355813,
                -0.9969858640563858,
                1.0821375043981163,
                -3.1030597912064866
            ]
        },
        {
            "positions": [
                -0.3364636803683874,
                -1.3734802702817253,
                2.423465787195228,
                -1.0330714437448214,
                1.2408959688415688,
                -3.0881548851212126
            ]
        }
    ]
}{
    "goal": {
        "global_pose": {
            "orientation": {
                "w": 0.5084816217422485,
                "x": -0.49083608388900757,
                "y": 0.5182115435600281,
                "z": -0.4816462993621826
            },
            "position": {
                "x": 0.5540239810943604,
                "y": 0.030875300988554955,
                "z": 0.16403168439865112
            }
        },
        "name": "move_to_storage_A"
    },
    "id": "BFMT_move_to_storage_A_49",
    "joint_names": [
        "shoulder_pan_joint",
        "shoulder_lift_joint",
        "elbow_joint",
        "wrist_1_joint",
        "wrist_2_joint",
        "wrist_3_joint"
    ],
    "metrics": {
        "cart_traj_len": 0.3534940880817031,
        "distance_elbow_joint": 0.45224095999901914,
        "distance_shoulder_lift_joint": 0.23387451571955875,
        "distance_shoulder_pan_joint": 0.4642346510410166,
        "distance_wrist_1_joint": 0.25134946530888125,
        "distance_wrist_2_joint": 1.0911488189649303,
        "distance_wrist_3_joint": 0.09971116625059029,
        "smoothness": 8.881784267329941e-16,
        "time": 0.504725569,
        "traj_len": 1.6101427195388602,
        "weighted_distance": 2.0333421242031524
    },
    "planner": "BFMT",
    "start": {
        "state": {
            "elbow_joint": 1.97154746011099,
            "shoulder_lift_joint": -1.13948474672311,
            "shoulder_pan_joint": 0.12281154466712228,
            "wrist_1_joint": -0.7804688027058302,
            "wrist_2_joint": 0.12958655903071145,
            "wrist_3_joint": 3.0906928834467795
        }
    },
    "waypoints": [
        {
            "positions": [
                0.12281154466712228,
                -1.13948474672311,
                1.97154746011099,
                -0.7804688027058302,
                0.12958655903071145,
                3.0906928834467795
            ]
        },
        {
            "positions": [
                0.056492308804119915,
                -1.172895391825904,
                2.036153311539421,
                -0.8163758691785276,
                0.2854649617399872,
                3.1049373357682923
            ]
        },
        {
            "positions": [
                -0.009826927058882454,
                -1.2063060369286982,
                2.1007591629678526,
                -0.8522829356512248,
                0.4413433644492629,
                3.119181788089805
            ]
        },
        {
            "positions": [
                -0.07614616292188482,
                -1.2397166820314922,
                2.1653650143962837,
                -0.8881900021239222,
                0.5972217671585387,
                3.133426240411318
            ]
        },
        {
            "positions": [
                -0.14246539878488718,
                -1.2731273271342864,
                2.2299708658247153,
                -0.9240970685966194,
                0.7531001698678145,
                3.1476706927328313
            ]
        },
        {
            "positions": [
                -0.20878463464788954,
                -1.3065379722370805,
                2.2945767172531464,
                -0.9600041350693168,
                0.9089785725770902,
                3.161915145054344
            ]
        },
        {
            "positions": [
                -0.2751038705108919,
                -1.3399486173398745,
                2.359182568681578,
                -0.9959112015420141,
                1.064856975286366,
                3.176159597375857
            ]
        },
        {
            "positions": [
                -0.3414231063738943,
                -1.3733592624426687,
                2.423788420110009,
                -1.0318182680147114,
                1.2207353779956418,
                3.19040404969737
            ]
        }
    ]
}{
    "goal": {
        "global_pose": {
            "orientation": {
                "w": 0.5084816217422485,
                "x": -0.49083608388900757,
                "y": 0.5182115435600281,
                "z": -0.4816462993621826
            },
            "position": {
                "x": 0.5540239810943604,
                "y": 0.030875300988554955,
                "z": 0.16403168439865112
            }
        },
        "name": "move_to_storage_A"
    },
    "id": "BFMT_move_to_storage_A_49",
    "joint_names": [
        "shoulder_pan_joint",
        "shoulder_lift_joint",
        "elbow_joint",
        "wrist_1_joint",
        "wrist_2_joint",
        "wrist_3_joint"
    ],
    "metrics": {
        "cart_traj_len": 0.35248334124848685,
        "distance_elbow_joint": 0.4504929820331842,
        "distance_shoulder_lift_joint": 0.23585466646680264,
        "distance_shoulder_pan_joint": 0.45845490255779825,
        "distance_wrist_1_joint": 0.2416308623636556,
        "distance_wrist_2_joint": 1.1092338993669804,
        "distance_wrist_3_joint": 0.08749474993513306,
        "smoothness": 4.440892098500626e-16,
        "time": 0.502015125,
        "traj_len": 1.6072218461443193,
        "weighted_distance": 2.027070873039336
    },
    "planner": "BFMT",
    "start": {
        "state": {
            "elbow_joint": 1.9715472970024885,
            "shoulder_lift_joint": -1.1394870060712896,
            "shoulder_pan_joint": 0.12281152778156021,
            "wrist_1_joint": -0.780463741449964,
            "wrist_2_joint": 0.12958659822042276,
            "wrist_3_joint": 3.090690232415272
        }
    },
    "waypoints": [
        {
            "positions": [
                0.12281152778156021,
                -1.1394870060712896,
                1.9715472970024885,
                -0.780463741449964,
                0.12958659822042276,
                3.090690232415272
            ]
        },
        {
            "positions": [
                0.057317970273303334,
                -1.1731805298522615,
                2.0359034372929434,
                -0.8149824360733434,
                0.2880485838442771,
                3.1031894824060053
            ]
        },
        {
            "positions": [
                -0.00817558723495354,
                -1.2068740536332332,
                2.1002595775833983,
                -0.8495011306967227,
                0.4465105694681314,
                3.1156887323967384
            ]
        },
        {
            "positions": [
                -0.07366914474321043,
                -1.240567577414205,
                2.164615717873853,
                -0.8840198253201021,
                0.6049725550919858,
                3.128187982387472
            ]
        },
        {
            "positions": [
                -0.1391627022514673,
                -1.2742611011951768,
                2.228971858164308,
                -0.9185385199434815,
                0.76343454071584,
                3.140687232378205
            ]
        },
        {
            "positions": [
                -0.2046562597597242,
                -1.3079546249761487,
                2.293327998454763,
                -0.9530572145668609,
                0.9218965263396944,
                3.1531864823689384
            ]
        },
        {
            "positions": [
                -0.27014981726798104,
                -1.3416481487571204,
                2.357684138745218,
                -0.9875759091902402,
                1.0803585119635488,
                3.1656857323596714
            ]
        },
        {
            "positions": [
                -0.335643374776238,
                -1.3753416725380923,
                2.4220402790356728,
                -1.0220946038136196,
                1.238820497587403,
                3.178184982350405
            ]
        }
    ]
}