{
    "goal": {
        "global_pose": {
            "orientation": {
                "w": 0.005598929693374612,
                "x": 0.007748599140229565,
                "y": 0.7110244013736278,
                "z": -0.7031023480610252
            },
            "position": {
                "x": 0.1141497679147869,
                "y": -0.7141253447532654,
                "z": 0.3711530566215515
            }
        },
        "name": "move_to_auspresseinheit_B"
    },
    "id": "BFMT_move_to_auspresseinheit_B_78",
    "joint_names": [
        "shoulder_pan_joint",
        "shoulder_lift_joint",
        "elbow_joint",
        "wrist_1_joint",
        "wrist_2_joint",
        "wrist_3_joint"
    ],
    "metrics": {
        "cart_traj_len": 0.5640707335289602,
        "distance_elbow_joint": 0.06173027059513636,
        "distance_shoulder_lift_joint": 0.2949039445576296,
        "distance_shoulder_pan_joint": 0.5775636624116016,
        "distance_wrist_1_joint": 0.3298960492225175,
        "distance_wrist_2_joint": 0.9916501061178953,
        "distance_wrist_3_joint": 0.00449323448377692,
        "smoothness": 0.0,
        "time": 0.471787695,
        "traj_len": 1.5034085497257748,
        "weighted_distance": 1.8949326879064923
    },
    "planner": "BFMT",
    "start": {
        "state": {
            "elbow_joint": 2.0193083361928714,
            "shoulder_lift_joint": -1.1220246554650708,
            "shoulder_pan_joint": -1.0952077554168747,
            "wrist_1_joint": -0.8559753972642168,
            "wrist_2_joint": 0.4759566250798843,
            "wrist_3_joint": -3.1240929996934557
        }
    },
    "waypoints": [
        {
            "positions": [
                -1.0952077554168747,
                -1.1220246554650708,
                2.0193083361928714,
                -0.8559753972642168,
                0.4759566250798843,
                -3.1240929996934557
            ]
        },
        {
            "positions": [
                -1.1914683658188083,
                -1.1711753128913425,
                2.0090199577603487,
                -0.8009927223937972,
                0.6412316427662001,
                -3.1248418721074183
            ]
        },
        {
            "positions": [
                -1.2877289762207418,
                -1.220325970317614,
                1.998731579327826,
                -0.7460100475233776,
                0.806506660452516,
                -3.1255907445213813
            ]
        },
        {
            "positions": [
                -1.3839895866226755,
                -1.2694766277438856,
                1.9884432008953032,
                -0.6910273726529581,
                0.971781678138832,
                -3.1263396169353443
            ]
        },
        {
            "positions": [
                -1.480250197024609,
                -1.3186272851701573,
                1.9781548224627805,
                -0.6360446977825385,
                1.1370566958251478,
                -3.127088489349307
            ]
        },
        {
            "positions": [
                -1.5765108074265428,
                -1.3677779425964287,
                1.9678664440302578,
                -0.5810620229121188,
                1.3023317135114638,
                -3.1278373617632695
            ]
        },
        {
            "positions": [
                -1.6727714178284763,
                -1.4169286000227004,
                1.957578065597735,
                -0.5260793480416993,
                1.4676067311977796,
                -3.1285862341772326
            ]
        }
    ]
}