{
    "goal": {
        "global_pose": {
            "orientation": {
                "w": -0.00223480608172531,
                "x": 0.0024358444001904467,
                "y": 0.7094548369677653,
                "z": -0.704743149386269
            },
            "position": {
                "x": -0.37947507619857795,
                "y": -0.6371506643295288,
                "z": 0.19426114857196808
            }
        },
        "name": "move_to_magneteinheit_C"
    },
    "id": "BFMT_move_to_magneteinheit_C_136",
    "joint_names": [
        "shoulder_pan_joint",
        "shoulder_lift_joint",
        "elbow_joint",
        "wrist_1_joint",
        "wrist_2_joint",
        "wrist_3_joint"
    ],
    "metrics": {
        "cart_traj_len": 0.7362007604920258,
        "distance_elbow_joint": 0.5492808683096935,
        "distance_shoulder_lift_joint": 1.0637255591147137,
        "distance_shoulder_pan_joint": 0.8029539316298646,
        "distance_wrist_1_joint": 0.7696522058167039,
        "distance_wrist_2_joint": 0.7967476793429512,
        "distance_wrist_3_joint": 1.2678389868869209,
        "smoothness": 1.367464977148691,
        "time": 0.516065228,
        "traj_len": 2.2913313228559606,
        "weighted_distance": 3.058149291652444
    },
    "planner": "BFMT",
    "start": {
        "state": {
            "elbow_joint": 1.9565354010623817,
            "shoulder_lift_joint": -1.4165861575791021,
            "shoulder_pan_joint": -1.6717766225146293,
            "wrist_1_joint": -0.5286633292919765,
            "wrist_2_joint": 1.472756589071564,
            "wrist_3_joint": -3.1238370188695823
        }
    },
    "waypoints": [
        {
            "positions": [
                -1.6717766225146293,
                -1.4165861575791021,
                1.9565354010623817,
                -0.5286633292919765,
                1.472756589071564,
                -3.1238370188695823
            ]
        },
        {
            "positions": [
                -1.7793415748767507,
                -1.4745242213864438,
                1.9996668399505515,
                -0.49570396638486114,
                1.4166851088358996,
                -3.0346561021413803
            ]
        },
        {
            "positions": [
                -1.886906527238872,
                -1.5324622851937857,
                2.0427982788387213,
                -0.4627446034777459,
                1.3606136286002355,
                -2.9454751854131787
            ]
        },
        {
            "positions": [
                -1.9944714796009935,
                -1.5904003490011274,
                2.085929717726891,
                -0.42978524057063056,
                1.3045421483645712,
                -2.8562942686849766
            ]
        },
        {
            "positions": [
                -2.102036431963115,
                -1.6483384128084693,
                2.1290611566150606,
                -0.3968258776635153,
                1.2484706681289068,
                -2.7671133519567745
            ]
        },
        {
            "positions": [
                -2.2096013843252362,
                -1.706276476615811,
                2.17219259550323,
                -0.3638665147564,
                1.1923991878932427,
                -2.6779324352285725
            ]
        },
        {
            "positions": [
                -2.3171663366873574,
                -1.7642145404231528,
                2.2153240343914002,
                -0.33090715184928465,
                1.1363277076575784,
                -2.588751518500371
            ]
        },
        {
            "positions": [
                -2.424731289049479,
                -1.8221526042304945,
                2.25845547327957,
                -0.29794778894216933,
                1.080256227421914,
                -2.499570601772169
            ]
        },
        {
            "positions": [
                -2.43187404120591,
                -1.7281298738785915,
                2.2231182166949264,
                -0.374938741151726,
                1.0225066106085854,
                -2.591509540313527
            ]
        },
        {
            "positions": [
                -2.4390167933623403,
                -1.6341071435266885,
                2.1877809601102824,
                -0.4519296933612827,
                0.9647569937952566,
                -2.6834484788548854
            ]
        },
        {
            "positions": [
                -2.4461595455187712,
                -1.5400844131747855,
                2.152443703525639,
                -0.5289206455708394,
                0.9070073769819278,
                -2.775387417396243
            ]
        },
        {
            "positions": [
                -2.4533022976752017,
                -1.4460616828228825,
                2.1171064469409955,
                -0.605911597780396,
                0.849257760168599,
                -2.8673263559376014
            ]
        },
        {
            "positions": [
                -2.4604450498316326,
                -1.3520389524709793,
                2.081769190356352,
                -0.6829025499899528,
                0.7915081433552702,
                -2.9592652944789597
            ]
        },
        {
            "positions": [
                -2.467587801988063,
                -1.2580162221190765,
                2.046431933771708,
                -0.7598935021995095,
                0.7337585265419415,
                -3.051204233020318
            ]
        },
        {
            "positions": [
                -2.474730554144494,
                -1.1639934917671733,
                2.0110946771870646,
                -0.8368844544090661,
                0.6760089097286127,
                -3.143143171561676
            ]
        }
    ]
}