{
    "goal": {
        "global_pose": {
            "orientation": {
                "w": -0.00223480608172531,
                "x": 0.0024358444001904467,
                "y": 0.7094548369677653,
                "z": -0.704743149386269
            },
            "position": {
                "x": 0.6205249238014221,
                "y": -0.6371506643295288,
                "z": 0.19426114857196808
            }
        },
        "name": "move_to_magneteinheit_B"
    },
    "id": "BFMT_move_to_magneteinheit_B_38",
    "joint_names": [
        "shoulder_pan_joint",
        "shoulder_lift_joint",
        "elbow_joint",
        "wrist_1_joint",
        "wrist_2_joint",
        "wrist_3_joint"
    ],
    "metrics": {
        "cart_traj_len": 1.4802507689858313,
        "distance_elbow_joint": 0.960433214191303,
        "distance_shoulder_lift_joint": 0.7752614852762778,
        "distance_shoulder_pan_joint": 1.6193582270215514,
        "distance_wrist_1_joint": 0.3055450109111022,
        "distance_wrist_2_joint": 1.5353392642723043,
        "distance_wrist_3_joint": 0.5278648986652597,
        "smoothness": 0.17224350977323502,
        "time": 0.637298049,
        "traj_len": 2.3924468855834187,
        "weighted_distance": 2.936054524843114
    },
    "planner": "BFMT",
    "start": {
        "state": {
            "elbow_joint": 2.6216224122426386,
            "shoulder_lift_joint": -1.4174107377796124,
            "shoulder_pan_joint": 0.7066234856936794,
            "wrist_1_joint": 1.9546482284002225,
            "wrist_2_joint": -0.7096286983471962,
            "wrist_3_joint": 0.005740856962016249
        }
    },
    "waypoints": [
        {
            "positions": [
                0.7066234856936794,
                -1.4174107377796124,
                2.6216224122426386,
                1.9546482284002225,
                -0.7096286983471962,
                0.005740856962016249
            ]
        },
        {
            "positions": [
                0.6914250880420953,
                -1.4196508531790872,
                2.61948747278033,
                2.016266341912548,
                -0.9231123847219214,
                -0.05979664066179681
            ]
        },
        {
            "positions": [
                0.6762266903905112,
                -1.4218909685785621,
                2.6173525333180208,
                2.077884455424873,
                -1.1365960710966463,
                -0.12533413828560985
            ]
        },
        {
            "positions": [
                0.661028292738927,
                -1.424131083978037,
                2.6152175938557116,
                2.139502568937198,
                -1.3500797574713714,
                -0.1908716359094229
            ]
        },
        {
            "positions": [
                0.645829895087343,
                -1.4263711993775119,
                2.613082654393403,
                2.2011206824495235,
                -1.5635634438460966,
                -0.25640913353323597
            ]
        },
        {
            "positions": [
                0.504142200867778,
                -1.3567074699522048,
                2.526546885635033,
                2.1957504500075418,
                -1.6255093091891333,
                -0.23225323279050802
            ]
        },
        {
            "positions": [
                0.36245450664821294,
                -1.2870437405268977,
                2.4400111168766636,
                2.1903802175655596,
                -1.68745517453217,
                -0.20809733204778008
            ]
        },
        {
            "positions": [
                0.22076681242864798,
                -1.2173800111015907,
                2.3534753481182937,
                2.185009985123578,
                -1.7494010398752067,
                -0.18394143130505214
            ]
        },
        {
            "positions": [
                0.07907911820908287,
                -1.1477162816762834,
                2.266939579359924,
                2.179639752681596,
                -1.8113469052182434,
                -0.15978553056232417
            ]
        },
        {
            "positions": [
                -0.06260857601048209,
                -1.0780525522509763,
                2.180403810601554,
                2.174269520239614,
                -1.8732927705612803,
                -0.13562962981959623
            ]
        },
        {
            "positions": [
                -0.20429627023004704,
                -1.0083888228256692,
                2.0938680418431845,
                2.168899287797632,
                -1.9352386359043168,
                -0.11147372907686828
            ]
        },
        {
            "positions": [
                -0.3459839644496121,
                -0.9387250934003621,
                2.0073322730848147,
                2.16352905535565,
                -1.9971845012473537,
                -0.08731782833414034
            ]
        },
        {
            "positions": [
                -0.4876716586691773,
                -0.869061363975055,
                1.9207965043264448,
                2.158158822913668,
                -2.05913036659039,
                -0.06316192759141237
            ]
        },
        {
            "positions": [
                -0.6293593528887423,
                -0.7993976345497478,
                1.834260735568075,
                2.1527885904716864,
                -2.121076231933427,
                -0.03900602684868443
            ]
        },
        {
            "positions": [
                -0.7710470471083072,
                -0.7297339051244408,
                1.7477249668097055,
                2.147418358029704,
                -2.1830220972764636,
                -0.014850126105956485
            ]
        },
        {
            "positions": [
                -0.9127347413278721,
                -0.6600701756991336,
                1.6611891980513356,
                2.1420481255877224,
                -2.2449679626195005,
                0.009305774636771461
            ]
        }
    ]
}