{
    "goal": {
        "global_pose": {
            "orientation": {
                "w": -0.00223480608172531,
                "x": 0.0024358444001904467,
                "y": 0.7094548369677653,
                "z": -0.704743149386269
            },
            "position": {
                "x": -0.37947507619857795,
                "y": -0.6371506643295288,
                "z": 0.19426114857196808
            }
        },
        "name": "move_to_magneteinheit_C"
    },
    "id": "BFMT_move_to_magneteinheit_C_118",
    "joint_names": [
        "shoulder_pan_joint",
        "shoulder_lift_joint",
        "elbow_joint",
        "wrist_1_joint",
        "wrist_2_joint",
        "wrist_3_joint"
    ],
    "metrics": {
        "cart_traj_len": 4.974125039353497,
        "distance_elbow_joint": 1.0496993278871058,
        "distance_shoulder_lift_joint": 2.3437028411682608,
        "distance_shoulder_pan_joint": 9.667441861724875,
        "distance_wrist_1_joint": 3.0037532253771566,
        "distance_wrist_2_joint": 8.243606906135122,
        "distance_wrist_3_joint": 4.3268617832076295,
        "smoothness": 0.47482665485174447,
        "time": 0.773688489,
        "traj_len": 5.351174258562333,
        "weighted_distance": 6.9667890482938875
    },
    "planner": "BFMT",
    "start": {
        "state": {
            "elbow_joint": 1.9565354010623817,
            "shoulder_lift_joint": -1.4165861575791021,
            "shoulder_pan_joint": -1.6717766225146293,
            "wrist_1_joint": -0.5286633292919765,
            "wrist_2_joint": 1.472756589071564,
            "wrist_3_joint": -3.1238370188695823
        }
    },
    "waypoints": [
        {
            "positions": [
                -1.6717766225146293,
                -1.4165861575791021,
                1.9565354010623817,
                -0.5286633292919765,
                1.472756589071564,
                -3.1238370188695823
            ]
        },
        {
            "positions": [
                -1.5519757611113292,
                -1.4448299660006243,
                1.9714806139364116,
                -0.5736234856563828,
                1.350543354169437,
                -3.0656856699115345
            ]
        },
        {
            "positions": [
                -1.4321748997080288,
                -1.4730737744221463,
                1.9864258268104416,
                -0.6185836420207891,
                1.22833011926731,
                -3.0075343209534866
            ]
        },
        {
            "positions": [
                -1.3123740383047284,
                -1.5013175828436685,
                2.0013710396844715,
                -0.6635437983851954,
                1.106116884365183,
                -2.9493829719954383
            ]
        },
        {
            "positions": [
                -1.1925731769014283,
                -1.5295613912651906,
                2.0163162525585014,
                -0.7085039547496017,
                0.9839036494630558,
                -2.8912316230373905
            ]
        },
        {
            "positions": [
                -1.0727723154981281,
                -1.5578051996867126,
                2.0312614654325314,
                -0.7534641111140081,
                0.8616904145609288,
                -2.8330802740793426
            ]
        },
        {
            "positions": [
                -0.9529714540948278,
                -1.5860490081082348,
                2.0462066783065613,
                -0.7984242674784143,
                0.7394771796588018,
                -2.7749289251212947
            ]
        },
        {
            "positions": [
                -0.8331705926915275,
                -1.6142928165297568,
                2.0611518911805913,
                -0.8433844238428208,
                0.6172639447566747,
                -2.7167775761632464
            ]
        },
        {
            "positions": [
                -0.7133697312882272,
                -1.642536624951279,
                2.0760971040546212,
                -0.8883445802072271,
                0.4950507098545477,
                -2.6586262272051986
            ]
        },
        {
            "positions": [
                -0.5935688698849271,
                -1.6707804333728011,
                2.091042316928651,
                -0.9333047365716334,
                0.3728374749524206,
                -2.6004748782471507
            ]
        },
        {
            "positions": [
                -0.4737680084816267,
                -1.699024241794323,
                2.105987529802681,
                -0.9782648929360397,
                0.2506242400502936,
                -2.542323529289103
            ]
        },
        {
            "positions": [
                -0.35396714707832655,
                -1.7272680502158453,
                2.120932742676711,
                -1.023225049300446,
                0.1284110051481666,
                -2.484172180331055
            ]
        },
        {
            "positions": [
                -0.23416628567502618,
                -1.7555118586373673,
                2.135877955550741,
                -1.0681852056648524,
                0.0061977702460396245,
                -2.4260208313730067
            ]
        },
        {
            "positions": [
                -0.11436542427172602,
                -1.7837556670588894,
                2.150823168424771,
                -1.1131453620292586,
                -0.11601546465608759,
                -2.367869482414959
            ]
        },
        {
            "positions": [
                0.00543543713157435,
                -1.8119994754804116,
                2.165768381298801,
                -1.1581055183936648,
                -0.23822869955821457,
                -2.309718133456911
            ]
        },
        {
            "positions": [
                0.1252362985348745,
                -1.8402432839019336,
                2.180713594172831,
                -1.2030656747580712,
                -0.36044193446034156,
                -2.251566784498863
            ]
        },
        {
            "positions": [
                0.24503715993817488,
                -1.8684870923234558,
                2.195658807046861,
                -1.2480258311224777,
                -0.48265516936246855,
                -2.193415435540815
            ]
        },
        {
            "positions": [
                0.36483802134147525,
                -1.896730900744978,
                2.2106040199208907,
                -1.292985987486884,
                -0.6048684042645958,
                -2.135264086582767
            ]
        },
        {
            "positions": [
                0.4846388827447752,
                -1.9249747091665,
                2.2255492327949207,
                -1.3379461438512903,
                -0.7270816391667227,
                -2.077112737624719
            ]
        },
        {
            "positions": [
                0.6044397441480756,
                -1.953218517588022,
                2.2404944456689506,
                -1.3829063002156965,
                -0.8492948740688493,
                -2.0189613886666713
            ]
        },
        {
            "positions": [
                0.7242406055513759,
                -1.9814623260095443,
                2.2554396585429806,
                -1.427866456580103,
                -0.9715081089709767,
                -1.9608100397086232
            ]
        },
        {
            "positions": [
                0.8440414669546759,
                -2.0097061344310663,
                2.2703848714170105,
                -1.4728266129445091,
                -1.0937213438731033,
                -1.9026586907505754
            ]
        },
        {
            "positions": [
                0.9638423283579762,
                -2.0379499428525882,
                2.2853300842910405,
                -1.5177867693089155,
                -1.2159345787752307,
                -1.8445073417925273
            ]
        },
        {
            "positions": [
                1.0836431897612766,
                -2.0661937512741106,
                2.3002752971650704,
                -1.5627469256733217,
                -1.3381478136773577,
                -1.7863559928344794
            ]
        },
        {
            "positions": [
                1.203444051164577,
                -2.0944375596956326,
                2.3152205100391003,
                -1.6077070820377282,
                -1.4603610485794847,
                -1.7282046438764314
            ]
        },
        {
            "positions": [
                1.323244912567877,
                -2.1226813681171546,
                2.3301657229131303,
                -1.6526672384021344,
                -1.5825742834816117,
                -1.6700532949183835
            ]
        },
        {
            "positions": [
                1.4430457739711773,
                -2.150925176538677,
                2.3451109357871602,
                -1.6976273947665408,
                -1.704787518383739,
                -1.6119019459603354
            ]
        },
        {
            "positions": [
                1.5628466353744777,
                -2.179168984960199,
                2.36005614866119,
                -1.742587551130947,
                -1.8270007532858656,
                -1.5537505970022876
            ]
        },
        {
            "positions": [
                1.682647496777778,
                -2.207412793381721,
                2.37500136153522,
                -1.7875477074953534,
                -1.949213988187993,
                -1.4955992480442395
            ]
        },
        {
            "positions": [
                1.802448358181078,
                -2.2356566018032433,
                2.38994657440925,
                -1.8325078638597598,
                -2.0714272230901196,
                -1.4374478990861919
            ]
        },
        {
            "positions": [
                1.9222492195843783,
                -2.2639004102247653,
                2.40489178728328,
                -1.8774680202241663,
                -2.193640457992247,
                -1.3792965501281438
            ]
        },
        {
            "positions": [
                2.0420500809876785,
                -2.2921442186462873,
                2.41983700015731,
                -1.9224281765885725,
                -2.3158536928943736,
                -1.321145201170096
            ]
        },
        {
            "positions": [
                2.161850942390979,
                -2.3203880270678097,
                2.43478221303134,
                -1.9673883329529789,
                -2.438066927796501,
                -1.2629938522120479
            ]
        },
        {
            "positions": [
                2.2816518037942792,
                -2.3486318354893316,
                2.44972742590537,
                -2.012348489317385,
                -2.560280162698628,
                -1.204842503254
            ]
        },
        {
            "positions": [
                2.4014526651975796,
                -2.3768756439108536,
                2.4646726387794,
                -2.0573086456817915,
                -2.6824933976007554,
                -1.146691154295952
            ]
        },
        {
            "positions": [
                2.521253526600879,
                -2.4051194523323756,
                2.4796178516534297,
                -2.102268802046198,
                -2.804706632502882,
                -1.0885398053379038
            ]
        },
        {
            "positions": [
                2.6410543880041795,
                -2.433363260753898,
                2.4945630645274597,
                -2.1472289584106043,
                -2.9269198674050094,
                -1.030388456379856
            ]
        },
        {
            "positions": [
                2.76085524940748,
                -2.46160706917542,
                2.5095082774014896,
                -2.1921891147750103,
                -3.049133102307136,
                -0.9722371074218081
            ]
        },
        {
            "positions": [
                2.6193738983317294,
                -2.4265075575653676,
                2.4960832381704625,
                -2.1559667515346286,
                -2.948546150556963,
                -1.0310279688207231
            ]
        },
        {
            "positions": [
                2.477892547255979,
                -2.391408045955315,
                2.482658198939436,
                -2.119744388294247,
                -2.847959198806789,
                -1.089818830219638
            ]
        },
        {
            "positions": [
                2.3364111961802285,
                -2.3563085343452626,
                2.4692331597084087,
                -2.083522025053865,
                -2.747372247056616,
                -1.148609691618553
            ]
        },
        {
            "positions": [
                2.194929845104478,
                -2.32120902273521,
                2.4558081204773816,
                -2.0472996618134833,
                -2.6467852953064424,
                -1.207400553017468
            ]
        },
        {
            "positions": [
                2.0534484940287276,
                -2.2861095111251575,
                2.442383081246355,
                -2.011077298573102,
                -2.546198343556269,
                -1.266191414416383
            ]
        },
        {
            "positions": [
                1.9119671429529772,
                -2.251009999515105,
                2.428958042015328,
                -1.97485493533272,
                -2.4456113918060955,
                -1.324982275815298
            ]
        },
        {
            "positions": [
                1.7704857918772268,
                -2.2159104879050524,
                2.4155330027843007,
                -1.9386325720923385,
                -2.3450244400559224,
                -1.383773137214213
            ]
        },
        {
            "positions": [
                1.6290044408014763,
                -2.180810976295,
                2.402107963553274,
                -1.9024102088519568,
                -2.244437488305749,
                -1.442563998613128
            ]
        },
        {
            "positions": [
                1.4875230897257259,
                -2.1457114646849473,
                2.388682924322247,
                -1.866187845611575,
                -2.1438505365555756,
                -1.501354860012043
            ]
        },
        {
            "positions": [
                1.3460417386499754,
                -2.110611953074895,
                2.37525788509122,
                -1.8299654823711933,
                -2.0432635848054024,
                -1.560145721410958
            ]
        },
        {
            "positions": [
                1.204560387574225,
                -2.0755124414648423,
                2.361832845860193,
                -1.7937431191308115,
                -1.942676633055229,
                -1.6189365828098732
            ]
        },
        {
            "positions": [
                1.0630790364984746,
                -2.04041292985479,
                2.348407806629166,
                -1.75752075589043,
                -1.8420896813050556,
                -1.6777274442087882
            ]
        },
        {
            "positions": [
                0.9215976854227241,
                -2.0053134182447376,
                2.334982767398139,
                -1.7212983926500482,
                -1.7415027295548822,
                -1.7365183056077031
            ]
        },
        {
            "positions": [
                0.7801163343469737,
                -1.9702139066346849,
                2.321557728167112,
                -1.6850760294096667,
                -1.6409157778047088,
                -1.7953091670066181
            ]
        },
        {
            "positions": [
                0.6386349832712233,
                -1.9351143950246326,
                2.308132688936085,
                -1.648853666169285,
                -1.5403288260545354,
                -1.8541000284055331
            ]
        },
        {
            "positions": [
                0.4971536321954728,
                -1.90001488341458,
                2.294707649705058,
                -1.6126313029289032,
                -1.4397418743043622,
                -1.912890889804448
            ]
        },
        {
            "positions": [
                0.3556722811197224,
                -1.8649153718045275,
                2.2812826104740314,
                -1.5764089396885215,
                -1.3391549225541888,
                -1.971681751203363
            ]
        },
        {
            "positions": [
                0.21419093004397194,
                -1.829815860194475,
                2.2678575712430042,
                -1.5401865764481397,
                -1.2385679708040154,
                -2.030472612602278
            ]
        },
        {
            "positions": [
                0.0727095789682215,
                -1.7947163485844226,
                2.254432532011977,
                -1.5039642132077582,
                -1.1379810190538422,
                -2.089263474001193
            ]
        },
        {
            "positions": [
                -0.06877177210752894,
                -1.75961683697437,
                2.24100749278095,
                -1.4677418499673762,
                -1.0373940673036688,
                -2.148054335400108
            ]
        },
        {
            "positions": [
                -0.21025312318327938,
                -1.7245173253643176,
                2.2275824535499233,
                -1.431519486726995,
                -0.9368071155534956,
                -2.206845196799023
            ]
        },
        {
            "positions": [
                -0.3517344742590298,
                -1.689417813754265,
                2.2141574143188962,
                -1.395297123486613,
                -0.836220163803322,
                -2.2656360581979382
            ]
        },
        {
            "positions": [
                -0.49321582533478026,
                -1.6543183021442127,
                2.2007323750878696,
                -1.3590747602462314,
                -0.7356332120531488,
                -2.3244269195968528
            ]
        },
        {
            "positions": [
                -0.6346971764105307,
                -1.61921879053416,
                2.1873073358568424,
                -1.3228523970058497,
                -0.6350462603029752,
                -2.383217780995768
            ]
        },
        {
            "positions": [
                -0.7761785274862811,
                -1.5841192789241076,
                2.1738822966258153,
                -1.286630033765468,
                -0.534459308552802,
                -2.4420086423946827
            ]
        },
        {
            "positions": [
                -0.9176598785620316,
                -1.5490197673140549,
                2.1604572573947882,
                -1.2504076705250862,
                -0.43387235680262837,
                -2.500799503793598
            ]
        },
        {
            "positions": [
                -1.059141229637782,
                -1.5139202557040026,
                2.1470322181637616,
                -1.2141853072847044,
                -0.3332854050524552,
                -2.5595903651925127
            ]
        },
        {
            "positions": [
                -1.2006225807135325,
                -1.47882074409395,
                2.1336071789327344,
                -1.177962944044323,
                -0.23269845330228156,
                -2.618381226591428
            ]
        },
        {
            "positions": [
                -1.3421039317892829,
                -1.4437212324838977,
                2.1201821397017073,
                -1.1417405808039411,
                -0.13211150155210838,
                -2.6771720879903427
            ]
        },
        {
            "positions": [
                -1.4835852828650333,
                -1.408621720873845,
                2.1067571004706807,
                -1.1055182175635594,
                -0.031524549801934754,
                -2.735962949389258
            ]
        },
        {
            "positions": [
                -1.6250666339407838,
                -1.3735222092637926,
                2.0933320612396535,
                -1.0692958543231779,
                0.06906240194823798,
                -2.794753810788173
            ]
        },
        {
            "positions": [
                -1.7665479850165342,
                -1.3384226976537401,
                2.0799070220086264,
                -1.033073491082796,
                0.1696493536984116,
                -2.853544672187088
            ]
        },
        {
            "positions": [
                -1.9080293360922846,
                -1.3033231860436876,
                2.0664819827775998,
                -0.9968511278424144,
                0.2702363054485848,
                -2.912335533586003
            ]
        },
        {
            "positions": [
                -2.049510687168035,
                -1.268223674433635,
                2.0530569435465726,
                -0.9606287646020326,
                0.3708232571987584,
                -2.971126394984918
            ]
        },
        {
            "positions": [
                -2.1909920382437855,
                -1.2331241628235827,
                2.0396319043155455,
                -0.9244064013616511,
                0.4714102089489316,
                -3.029917256383833
            ]
        },
        {
            "positions": [
                -2.332473389319536,
                -1.19802465121353,
                2.026206865084519,
                -0.8881840381212691,
                0.5719971606991052,
                -3.088708117782748
            ]
        },
        {
            "positions": [
                -2.473954740395286,
                -1.1629251396034777,
                2.0127818258534917,
                -0.8519616748808876,
                0.6725841124492786,
                -3.147498979181663
            ]
        }
    ]
}