{
    "goal": {
        "global_pose": {
            "orientation": {
                "w": -0.4816463035849501,
                "x": 0.5182115481033762,
                "y": 0.4908360881923453,
                "z": -0.5084816262002911
            },
            "position": {
                "x": -0.8240239810943604,
                "y": 0.19912469901144506,
                "z": 0.16403168439865112
            }
        },
        "name": "move_to_storage_D"
    },
    "id": "BFMT_move_to_storage_D_124",
    "joint_names": [
        "shoulder_pan_joint",
        "shoulder_lift_joint",
        "elbow_joint",
        "wrist_1_joint",
        "wrist_2_joint",
        "wrist_3_joint"
    ],
    "metrics": {
        "cart_traj_len": 3.641353209555076,
        "distance_elbow_joint": 4.209139922685174,
        "distance_shoulder_lift_joint": 1.2641680838529945,
        "distance_shoulder_pan_joint": 2.811775638064966,
        "distance_wrist_1_joint": 2.2625695385145423,
        "distance_wrist_2_joint": 0.87211267188784,
        "distance_wrist_3_joint": 3.1430974398069536,
        "smoothness": 0.014593514133061295,
        "time": 0.87686153,
        "traj_len": 3.816131980790559,
        "weighted_distance": 4.897319714377321
    },
    "planner": "BFMT",
    "start": {
        "state": {
            "elbow_joint": -2.384821988534728,
            "shoulder_lift_joint": -2.2788054721415256,
            "shoulder_pan_joint": -0.1854694642142757,
            "wrist_1_joint": 1.4845938289331202,
            "wrist_2_joint": 0.17898776772866878,
            "wrist_3_joint": 0.037105688729662994
        }
    },
    "waypoints": [
        {
            "positions": [
                -0.1854694642142757,
                -2.2788054721415256,
                -2.384821988534728,
                1.4845938289331202,
                0.17898776772866878,
                0.037105688729662994
            ]
        },
        {
            "positions": [
                -0.15282958641221783,
                -2.2465070377597254,
                -2.3835145516637413,
                1.4643271566422165,
                0.1761525502682327,
                0.04856754365663764
            ]
        },
        {
            "positions": [
                -0.0583238074723256,
                -2.1979124793547467,
                -2.3034511735680714,
                1.4111123592884267,
                0.18637805708386776,
                0.1540687085416274
            ]
        },
        {
            "positions": [
                0.03618197146756663,
                -2.149317920949768,
                -2.2233877954724015,
                1.3578975619346367,
                0.19660356389950281,
                0.2595698734266172
            ]
        },
        {
            "positions": [
                0.13068775040745884,
                -2.1007233625447896,
                -2.143324417376731,
                1.304682764580847,
                0.20682907071513787,
                0.3650710383116069
            ]
        },
        {
            "positions": [
                0.2251935293473511,
                -2.052128804139811,
                -2.0632610392810613,
                1.2514679672270572,
                0.21705457753077295,
                0.4705722031965967
            ]
        },
        {
            "positions": [
                0.3196993082872433,
                -2.003534245734832,
                -1.9831976611853914,
                1.1982531698732675,
                0.227280084346408,
                0.5760733680815865
            ]
        },
        {
            "positions": [
                0.4142050872271355,
                -1.9549396873298535,
                -1.9031342830897213,
                1.1450383725194775,
                0.23750559116204306,
                0.6815745329665762
            ]
        },
        {
            "positions": [
                0.5087108661670277,
                -1.9063451289248747,
                -1.8230709049940512,
                1.0918235751656877,
                0.24773109797767812,
                0.787075697851566
            ]
        },
        {
            "positions": [
                0.6032166451069201,
                -1.8577505705198962,
                -1.7430075268983813,
                1.038608777811898,
                0.25795660479331317,
                0.8925768627365558
            ]
        },
        {
            "positions": [
                0.6977224240468123,
                -1.8091560121149175,
                -1.6629441488027115,
                0.9853939804581081,
                0.2681821116089482,
                0.9980780276215456
            ]
        },
        {
            "positions": [
                0.7922282029867045,
                -1.760561453709939,
                -1.5828807707070414,
                0.9321791831043184,
                0.2784076184245833,
                1.1035791925065355
            ]
        },
        {
            "positions": [
                0.8867339819265967,
                -1.7119668953049603,
                -1.5028173926113713,
                0.8789643857505285,
                0.28863312524021834,
                1.2090803573915252
            ]
        },
        {
            "positions": [
                0.9812397608664889,
                -1.6633723368999815,
                -1.4227540145157014,
                0.8257495883967387,
                0.2988586320558534,
                1.314581522276515
            ]
        },
        {
            "positions": [
                1.075745539806381,
                -1.6147777784950028,
                -1.3426906364200313,
                0.7725347910429489,
                0.30908413887148845,
                1.4200826871615049
            ]
        },
        {
            "positions": [
                1.1702513187462733,
                -1.5661832200900243,
                -1.2626272583243614,
                0.719319993689159,
                0.3193096456871235,
                1.5255838520464944
            ]
        },
        {
            "positions": [
                1.2647570976861655,
                -1.5175886616850458,
                -1.1825638802286915,
                0.6661051963353692,
                0.32953515250275855,
                1.631085016931484
            ]
        },
        {
            "positions": [
                1.359262876626058,
                -1.468994103280067,
                -1.1025005021330214,
                0.6128903989815794,
                0.3397606593183936,
                1.736586181816474
            ]
        },
        {
            "positions": [
                1.45376865556595,
                -1.4203995448750883,
                -1.0224371240373515,
                0.5596756016277896,
                0.34998616613402866,
                1.8420873467014638
            ]
        },
        {
            "positions": [
                1.5482744345058423,
                -1.3718049864701096,
                -0.9423737459416814,
                0.5064608042739998,
                0.3602116729496638,
                1.9475885115864537
            ]
        },
        {
            "positions": [
                1.6427802134457345,
                -1.3232104280651311,
                -0.8623103678460113,
                0.45324600692021,
                0.37043717976529883,
                2.0530896764714432
            ]
        },
        {
            "positions": [
                1.7372859923856268,
                -1.2746158696601526,
                -0.7822469897503415,
                0.40003120956642024,
                0.38066268658093383,
                2.158590841356433
            ]
        },
        {
            "positions": [
                1.831791771325519,
                -1.2260213112551737,
                -0.7021836116546714,
                0.34681641221263027,
                0.39088819339656894,
                2.264092006241423
            ]
        },
        {
            "positions": [
                1.926297550265411,
                -1.1774267528501952,
                -0.6221202335590015,
                0.29360161485884056,
                0.401113700212204,
                2.3695931711264127
            ]
        },
        {
            "positions": [
                1.9729647918377629,
                -1.1665741285460842,
                -0.4590243557117049,
                0.222163126562823,
                0.4440681205110995,
                2.4236338349537596
            ]
        },
        {
            "positions": [
                2.0196320334101148,
                -1.1557215042419733,
                -0.29592847786440835,
                0.1507246382668054,
                0.487022540809995,
                2.4776744987811066
            ]
        },
        {
            "positions": [
                2.066299274982467,
                -1.1448688799378623,
                -0.13283260001711172,
                0.07928614997078781,
                0.5299769611088905,
                2.5317151626084535
            ]
        },
        {
            "positions": [
                2.1129665165548186,
                -1.1340162556337514,
                0.030263277830184787,
                0.007847661674770245,
                0.572931381407786,
                2.5857558264358005
            ]
        },
        {
            "positions": [
                2.1596337581271707,
                -1.1231636313296405,
                0.1933591556774814,
                -0.06359082662124732,
                0.6158858017066815,
                2.6397964902631474
            ]
        },
        {
            "positions": [
                2.206300999699523,
                -1.1123110070255295,
                0.35645503352477803,
                -0.13502931491726494,
                0.658840222005577,
                2.6938371540904944
            ]
        },
        {
            "positions": [
                2.2529682412718746,
                -1.1014583827214186,
                0.5195509113720747,
                -0.20646780321328256,
                0.7017946423044725,
                2.747877817917841
            ]
        },
        {
            "positions": [
                2.2996354828442267,
                -1.0906057584173077,
                0.682646789219371,
                -0.2779062915093001,
                0.744749062603368,
                2.8019184817451883
            ]
        },
        {
            "positions": [
                2.3463027244165784,
                -1.0797531341131967,
                0.8457426670666677,
                -0.3493447798053177,
                0.7877034829022636,
                2.855959145572535
            ]
        },
        {
            "positions": [
                2.3929699659889305,
                -1.0689005098090858,
                1.0088385449139643,
                -0.4207832681013352,
                0.830657903201159,
                2.909999809399882
            ]
        },
        {
            "positions": [
                2.439637207561282,
                -1.0580478855049749,
                1.1719344227612607,
                -0.4922217563973528,
                0.8736123235000546,
                2.9640404732272287
            ]
        },
        {
            "positions": [
                2.4863044491336344,
                -1.047195261200864,
                1.3350303006085575,
                -0.5636602446933705,
                0.91656674379895,
                3.0180811370545757
            ]
        },
        {
            "positions": [
                2.5329716907059865,
                -1.036342636896753,
                1.498126178455854,
                -0.635098732989388,
                0.9595211640978456,
                3.0721218008819227
            ]
        },
        {
            "positions": [
                2.579638932278338,
                -1.025490012592642,
                1.6612220563031508,
                -0.7065372212854057,
                1.002475584396741,
                3.1261624647092696
            ]
        },
        {
            "positions": [
                2.6263061738506903,
                -1.0146373882885311,
                1.824317934150447,
                -0.7779757095814231,
                1.0454300046956366,
                3.1802031285366166
            ]
        }
    ]
}