{
    "goal": {
        "global_pose": {
            "orientation": {
                "w": -0.4816463035849501,
                "x": 0.5182115481033762,
                "y": 0.4908360881923453,
                "z": -0.5084816262002911
            },
            "position": {
                "x": -0.8240239810943604,
                "y": -0.300875300988555,
                "z": 0.16403168439865112
            }
        },
        "name": "move_to_storage_C"
    },
    "id": "BFMT_move_to_storage_C_128",
    "joint_names": [
        "shoulder_pan_joint",
        "shoulder_lift_joint",
        "elbow_joint",
        "wrist_1_joint",
        "wrist_2_joint",
        "wrist_3_joint"
    ],
    "metrics": {
        "cart_traj_len": 0.5770685579124798,
        "distance_elbow_joint": 0.258175638106414,
        "distance_shoulder_lift_joint": 0.1904367602218311,
        "distance_shoulder_pan_joint": 0.49486052099829925,
        "distance_wrist_1_joint": 0.07406540686381557,
        "distance_wrist_2_joint": 1.0663536770320827,
        "distance_wrist_3_joint": 0.06603626117797123,
        "smoothness": 2.5376526478085547e-16,
        "time": 0.46776795800000004,
        "traj_len": 1.4662633680210433,
        "weighted_distance": 1.849978343292768
    },
    "planner": "BFMT",
    "start": {
        "state": {
            "elbow_joint": 2.010868314990456,
            "shoulder_lift_joint": -1.1634956873337592,
            "shoulder_pan_joint": -2.4736205022346125,
            "wrist_1_joint": -0.8367026794202681,
            "wrist_2_joint": 0.6746043897044499,
            "wrist_3_joint": -3.1496632123970403
        }
    },
    "waypoints": [
        {
            "positions": [
                -2.4736205022346125,
                -1.1634956873337592,
                2.010868314990456,
                -0.8367026794202681,
                0.6746043897044499,
                -3.1496632123970403
            ]
        },
        {
            "positions": [
                -2.556097255734329,
                -1.1317562272967874,
                1.96783904197272,
                -0.8243584449429655,
                0.8523300025431304,
                -3.1386571688673786
            ]
        },
        {
            "positions": [
                -2.6385740092340457,
                -1.1000167672598156,
                1.9248097689549846,
                -0.8120142104656629,
                1.0300556153818108,
                -3.1276511253377164
            ]
        },
        {
            "positions": [
                -2.7210507627337623,
                -1.0682773072228438,
                1.8817804959372488,
                -0.7996699759883603,
                1.2077812282204912,
                -3.1166450818080547
            ]
        },
        {
            "positions": [
                -2.8035275162334785,
                -1.0365378471858717,
                1.838751222919513,
                -0.7873257415110577,
                1.3855068410591715,
                -3.105639038278393
            ]
        },
        {
            "positions": [
                -2.886004269733195,
                -1.0047983871489,
                1.7957219499017776,
                -0.7749815070337551,
                1.5632324538978524,
                -3.0946329947487308
            ]
        },
        {
            "positions": [
                -2.9684810232329117,
                -0.9730589271119281,
                1.7526926768840418,
                -0.7626372725564525,
                1.7409580667365325,
                -3.083626951219069
            ]
        }
    ]
}