{
    "goal": {
        "global_pose": {
            "orientation": {
                "w": 0.005598929693374612,
                "x": 0.007748599140229565,
                "y": 0.7110244013736278,
                "z": -0.7031023480610252
            },
            "position": {
                "x": 0.1141497679147869,
                "y": -0.7141253447532654,
                "z": 0.3711530566215515
            }
        },
        "name": "move_to_auspresseinheit_B"
    },
    "id": "BFMT_move_to_auspresseinheit_B_79",
    "joint_names": [
        "shoulder_pan_joint",
        "shoulder_lift_joint",
        "elbow_joint",
        "wrist_1_joint",
        "wrist_2_joint",
        "wrist_3_joint"
    ],
    "metrics": {
        "cart_traj_len": 0.5654592221238344,
        "distance_elbow_joint": 0.06676016401965379,
        "distance_shoulder_lift_joint": 0.2936795677400559,
        "distance_shoulder_pan_joint": 0.5785892045346661,
        "distance_wrist_1_joint": 0.33822546159590783,
        "distance_wrist_2_joint": 0.9868297187101143,
        "distance_wrist_3_joint": 0.007854997032313626,
        "smoothness": 1.0150610591234219e-15,
        "time": 0.549393666,
        "traj_len": 1.5072952974227418,
        "weighted_distance": 1.9007115215106583
    },
    "planner": "BFMT",
    "start": {
        "state": {
            "elbow_joint": 2.0193083361928714,
            "shoulder_lift_joint": -1.1220246554650708,
            "shoulder_pan_joint": -1.0952077554168747,
            "wrist_1_joint": -0.8559753972642168,
            "wrist_2_joint": 0.4759566250798843,
            "wrist_3_joint": -3.1240929996934557
        }
    },
    "waypoints": [
        {
            "positions": [
                -1.0952077554168747,
                -1.1220246554650708,
                2.0193083361928714,
                -0.8559753972642168,
                0.4759566250798843,
                -3.1240929996934557
            ]
        },
        {
            "positions": [
                -1.1916392895059857,
                -1.1709712500884135,
                2.0081816421895957,
                -0.7996044869982322,
                0.6404282448649034,
                -3.1227838335214035
            ]
        },
        {
            "positions": [
                -1.2880708235950966,
                -1.219917844711756,
                1.9970549481863202,
                -0.7432335767322475,
                0.8048998646499224,
                -3.121474667349351
            ]
        },
        {
            "positions": [
                -1.3845023576842077,
                -1.2688644393350987,
                1.9859282541830445,
                -0.6868626664662629,
                0.9693714844349415,
                -3.120165501177299
            ]
        },
        {
            "positions": [
                -1.4809338917733186,
                -1.3178110339584415,
                1.9748015601797688,
                -0.6304917562002783,
                1.1338431042199604,
                -3.1188563350052467
            ]
        },
        {
            "positions": [
                -1.5773654258624297,
                -1.366757628581784,
                1.9636748661764933,
                -0.5741208459342936,
                1.2983147240049795,
                -3.117547168833194
            ]
        },
        {
            "positions": [
                -1.6737969599515408,
                -1.4157042232051267,
                1.9525481721732176,
                -0.517749935668309,
                1.4627863437899986,
                -3.116238002661142
            ]
        }
    ]
}