{
    "goal": {
        "global_pose": {
            "orientation": {
                "w": 0.7031023502349854,
                "x": -0.7110244035720825,
                "y": 0.007748599164187908,
                "z": 0.005598929710686207
            },
            "position": {
                "x": 0.11585023208521307,
                "y": 0.44412534475326537,
                "z": 0.3711530566215515
            }
        },
        "name": "move_to_auspresseinheit_A"
    },
    "id": "BFMT_move_to_auspresseinheit_A_53",
    "joint_names": [
        "shoulder_pan_joint",
        "shoulder_lift_joint",
        "elbow_joint",
        "wrist_1_joint",
        "wrist_2_joint",
        "wrist_3_joint"
    ],
    "metrics": {
        "cart_traj_len": 0.8336440201947735,
        "distance_elbow_joint": 0.26773288680877627,
        "distance_shoulder_lift_joint": 1.8792768734426595,
        "distance_shoulder_pan_joint": 1.0442750395530656,
        "distance_wrist_1_joint": 1.4436003943183893,
        "distance_wrist_2_joint": 0.5160758573657658,
        "distance_wrist_3_joint": 0.11430550760667435,
        "smoothness": 1.308475439829935,
        "time": 0.6433437980000001,
        "traj_len": 2.29461686542554,
        "weighted_distance": 2.7301197457241386
    },
    "planner": "BFMT",
    "start": {
        "state": {
            "elbow_joint": 2.4225746658250005,
            "shoulder_lift_joint": -1.3736534386056498,
            "shoulder_pan_joint": -0.3378633547517467,
            "wrist_1_joint": -1.0288598680537169,
            "wrist_2_joint": 1.233022673432363,
            "wrist_3_joint": -3.0940220416140027
        }
    },
    "waypoints": [
        {
            "positions": [
                -0.3378633547517467,
                -1.3736534386056498,
                2.4225746658250005,
                -1.0288598680537169,
                1.233022673432363,
                -3.0940220416140027
            ]
        },
        {
            "positions": [
                -0.26251367534169245,
                -1.5079811799295852,
                2.4359582446238925,
                -0.917558169884953,
                1.2097945558948409,
                -3.089320294186533
            ]
        },
        {
            "positions": [
                -0.18716399593163824,
                -1.6423089212535205,
                2.4493418234227846,
                -0.8062564717161891,
                1.1865664383573187,
                -3.084618546759064
            ]
        },
        {
            "positions": [
                -0.11181431652158397,
                -1.776636662577456,
                2.4627254022216767,
                -0.6949547735474252,
                1.1633383208197965,
                -3.0799167993315946
            ]
        },
        {
            "positions": [
                -0.03646463711152975,
                -1.9109644039013913,
                2.4761089810205688,
                -0.5836530753786613,
                1.1401102032822743,
                -3.075215051904125
            ]
        },
        {
            "positions": [
                0.038885042298524575,
                -2.0452921452253268,
                2.4894925598194613,
                -0.4723513772098973,
                1.1168820857447521,
                -3.070513304476656
            ]
        },
        {
            "positions": [
                0.11423472170857879,
                -2.179619886549262,
                2.5028761386183533,
                -0.3610496790411335,
                1.09365396820723,
                -3.0658115570491864
            ]
        },
        {
            "positions": [
                0.189584401118633,
                -2.313947627873197,
                2.5162597174172454,
                -0.2497479808723695,
                1.0704258506697077,
                -3.061109809621717
            ]
        },
        {
            "positions": [
                0.2649340805286872,
                -2.4482753691971326,
                2.5296432962161375,
                -0.1384462827036057,
                1.0471977331321856,
                -3.0564080621942478
            ]
        },
        {
            "positions": [
                0.3402837599387416,
                -2.582603110521068,
                2.5430268750150296,
                -0.027144584534841653,
                1.0239696155946634,
                -3.0517063147667782
            ]
        },
        {
            "positions": [
                0.40130508074917115,
                -2.470881910266528,
                2.518480095411905,
                -0.10079210300142738,
                0.9727991490066523,
                -3.06370461156002
            ]
        },
        {
            "positions": [
                0.4623264015596007,
                -2.3591607100119876,
                2.4939333158087806,
                -0.1744396214680131,
                0.9216286824186414,
                -3.0757029083532617
            ]
        },
        {
            "positions": [
                0.5233477223700302,
                -2.2474395097574473,
                2.469386536205656,
                -0.24808713993459883,
                0.8704582158306303,
                -3.0877012051465034
            ]
        },
        {
            "positions": [
                0.5843690431804598,
                -2.135718309502907,
                2.4448397566025313,
                -0.32173465840118454,
                0.8192877492426194,
                -3.0996995019397446
            ]
        },
        {
            "positions": [
                0.6453903639908893,
                -2.023997109248367,
                2.420292976999407,
                -0.3953821768677703,
                0.7681172826546083,
                -3.1116977987329864
            ]
        },
        {
            "positions": [
                0.7064116848013189,
                -1.9122759089938268,
                2.3957461973962824,
                -0.469029695334356,
                0.7169468160665973,
                -3.123696095526228
            ]
        }
    ]
}