{
    "goal": {
        "global_pose": {
            "orientation": {
                "w": 0.005598929693374612,
                "x": 0.007748599140229565,
                "y": 0.7110244013736278,
                "z": -0.7031023480610252
            },
            "position": {
                "x": 0.1141497679147869,
                "y": -0.7141253447532654,
                "z": 0.3711530566215515
            }
        },
        "name": "move_to_auspresseinheit_B"
    },
    "id": "BFMT_move_to_auspresseinheit_B_45",
    "joint_names": [
        "shoulder_pan_joint",
        "shoulder_lift_joint",
        "elbow_joint",
        "wrist_1_joint",
        "wrist_2_joint",
        "wrist_3_joint"
    ],
    "metrics": {
        "cart_traj_len": 0.5650597389439319,
        "distance_elbow_joint": 0.0589211831715597,
        "distance_shoulder_lift_joint": 0.2962908043099841,
        "distance_shoulder_pan_joint": 0.5762083441256658,
        "distance_wrist_1_joint": 0.3157677050156682,
        "distance_wrist_2_joint": 1.004008885331175,
        "distance_wrist_3_joint": 0.006984218095516415,
        "smoothness": 0.0,
        "time": 0.498035967,
        "traj_len": 1.5027245722518714,
        "weighted_distance": 1.8952377599096757
    },
    "planner": "BFMT",
    "start": {
        "state": {
            "elbow_joint": 2.0193083361928714,
            "shoulder_lift_joint": -1.1220246554650708,
            "shoulder_pan_joint": -1.0952077554168747,
            "wrist_1_joint": -0.8559753972642168,
            "wrist_2_joint": 0.4759566250798843,
            "wrist_3_joint": -3.1240929996934557
        }
    },
    "waypoints": [
        {
            "positions": [
                -1.0952077554168747,
                -1.1220246554650708,
                2.0193083361928714,
                -0.8559753972642168,
                0.4759566250798843,
                -3.1240929996934557
            ]
        },
        {
            "positions": [
                -1.191242479437819,
                -1.1714064561834014,
                2.0094881389976114,
                -0.803347446428272,
                0.6432914393017468,
                -3.1252570360427083
            ]
        },
        {
            "positions": [
                -1.2872772034587632,
                -1.220788256901732,
                1.9996679418023515,
                -0.7507194955923274,
                0.8106262535236093,
                -3.126421072391961
            ]
        },
        {
            "positions": [
                -1.3833119274797077,
                -1.2701700576200627,
                1.9898477446070917,
                -0.6980915447563827,
                0.9779610677454718,
                -3.127585108741214
            ]
        },
        {
            "positions": [
                -1.4793466515006517,
                -1.3195518583383936,
                1.9800275474118316,
                -0.6454635939204381,
                1.1452958819673342,
                -3.1287491450904668
            ]
        },
        {
            "positions": [
                -1.5753813755215962,
                -1.3689336590567243,
                1.9702073502165716,
                -0.5928356430844932,
                1.312630696189197,
                -3.1299131814397194
            ]
        },
        {
            "positions": [
                -1.6714160995425404,
                -1.418315459775055,
                1.9603871530213117,
                -0.5402076922485486,
                1.4799655104110594,
                -3.131077217788972
            ]
        }
    ]
}