{
    "goal": {
        "global_pose": {
            "orientation": {
                "w": -0.4816463035849501,
                "x": 0.5182115481033762,
                "y": 0.4908360881923453,
                "z": -0.5084816262002911
            },
            "position": {
                "x": -0.8240239810943604,
                "y": -0.300875300988555,
                "z": 0.16403168439865112
            }
        },
        "name": "move_to_storage_C"
    },
    "id": "BFMT_move_to_storage_C_75",
    "joint_names": [
        "shoulder_pan_joint",
        "shoulder_lift_joint",
        "elbow_joint",
        "wrist_1_joint",
        "wrist_2_joint",
        "wrist_3_joint"
    ],
    "metrics": {
        "cart_traj_len": 0.5769916264003424,
        "distance_elbow_joint": 0.2594350117654354,
        "distance_shoulder_lift_joint": 0.1910260807747831,
        "distance_shoulder_pan_joint": 0.49299284289391077,
        "distance_wrist_1_joint": 0.07464076708191625,
        "distance_wrist_2_joint": 1.0774460019582501,
        "distance_wrist_3_joint": 0.06912579356411408,
        "smoothness": 2.5376526478085547e-16,
        "time": 0.472082228,
        "traj_len": 1.4712805640116402,
        "weighted_distance": 1.858764335306336
    },
    "planner": "BFMT",
    "start": {
        "state": {
            "elbow_joint": 2.010868314990456,
            "shoulder_lift_joint": -1.1634956873337592,
            "shoulder_pan_joint": -2.4736205022346125,
            "wrist_1_joint": -0.8367026794202681,
            "wrist_2_joint": 0.6746043897044499,
            "wrist_3_joint": -3.1496632123970403
        }
    },
    "waypoints": [
        {
            "positions": [
                -2.4736205022346125,
                -1.1634956873337592,
                2.010868314990456,
                -0.8367026794202681,
                0.6746043897044499,
                -3.1496632123970403
            ]
        },
        {
            "positions": [
                -2.5557859760502644,
                -1.1316580072046287,
                1.9676291463628832,
                -0.8242625515732821,
                0.8541787233641582,
                -3.1381422468030213
            ]
        },
        {
            "positions": [
                -2.6379514498659162,
                -1.099820327075498,
                1.9243899777353106,
                -0.811822423726296,
                1.0337530570238667,
                -3.1266212812090024
            ]
        },
        {
            "positions": [
                -2.7201169236815677,
                -1.0679826469463676,
                1.881150809107738,
                -0.79938229587931,
                1.2133273906835749,
                -3.115100315614983
            ]
        },
        {
            "positions": [
                -2.8022823974972195,
                -1.0361449668172371,
                1.8379116404801656,
                -0.786942168032324,
                1.3929017243432833,
                -3.103579350020964
            ]
        },
        {
            "positions": [
                -2.8844478713128714,
                -1.0043072866881066,
                1.794672471852593,
                -0.7745020401853379,
                1.5724760580029917,
                -3.092058384426945
            ]
        },
        {
            "positions": [
                -2.9666133451285233,
                -0.9724696065589761,
                1.7514333032250204,
                -0.7620619123383519,
                1.7520503916627002,
                -3.080537418832926
            ]
        }
    ]
}