{
    "goal": {
        "global_pose": {
            "orientation": {
                "w": 0.7031023502349854,
                "x": -0.7110244035720825,
                "y": 0.007748599164187908,
                "z": 0.005598929710686207
            },
            "position": {
                "x": 0.11585023208521307,
                "y": 0.44412534475326537,
                "z": 0.3711530566215515
            }
        },
        "name": "move_to_auspresseinheit_A"
    },
    "id": "BFMT_move_to_auspresseinheit_A_16",
    "joint_names": [
        "shoulder_pan_joint",
        "shoulder_lift_joint",
        "elbow_joint",
        "wrist_1_joint",
        "wrist_2_joint",
        "wrist_3_joint"
    ],
    "metrics": {
        "cart_traj_len": 0.656830389731672,
        "distance_elbow_joint": 0.08794786216098371,
        "distance_shoulder_lift_joint": 0.5347608567458777,
        "distance_shoulder_pan_joint": 1.046186156913366,
        "distance_wrist_1_joint": 0.6266840814688797,
        "distance_wrist_2_joint": 0.5223194559893285,
        "distance_wrist_3_joint": 0.14703143693863163,
        "smoothness": 0.3129496527219149,
        "time": 0.5563986,
        "traj_len": 1.721897165982065,
        "weighted_distance": 2.0995228652130793
    },
    "planner": "BFMT",
    "start": {
        "state": {
            "elbow_joint": 2.4225746658250005,
            "shoulder_lift_joint": -1.3736534386056498,
            "shoulder_pan_joint": -0.3378633547517467,
            "wrist_1_joint": -1.0288598680537169,
            "wrist_2_joint": 1.233022673432363,
            "wrist_3_joint": -3.0940220416140027
        }
    },
    "waypoints": [
        {
            "positions": [
                -0.3378633547517467,
                -1.3736534386056498,
                2.4225746658250005,
                -1.0288598680537169,
                1.233022673432363,
                -3.0940220416140027
            ]
        },
        {
            "positions": [
                -0.27928759086450344,
                -1.4530713964368187,
                2.4296814847241537,
                -0.886871724817768,
                1.2115482638381745,
                -3.0800662806470385
            ]
        },
        {
            "positions": [
                -0.22071182697726013,
                -1.5324893542679874,
                2.4367883036233065,
                -0.7448835815818191,
                1.1900738542439857,
                -3.0661105196800746
            ]
        },
        {
            "positions": [
                -0.16213606309001682,
                -1.6119073120991563,
                2.443895122522459,
                -0.6028954383458702,
                1.1685994446497971,
                -3.052154758713111
            ]
        },
        {
            "positions": [
                -0.10356029920277354,
                -1.6913252699303252,
                2.4510019414216124,
                -0.46090729510992134,
                1.1471250350556086,
                -3.0381989977461465
            ]
        },
        {
            "positions": [
                0.08597658753441029,
                -1.7453257349968976,
                2.4376822972404613,
                -0.4537287179144283,
                1.0460827933360977,
                -3.0592609898679823
            ]
        },
        {
            "positions": [
                0.2755134742715941,
                -1.79932620006347,
                2.4243626530593105,
                -0.4465501407189353,
                0.9450405516165867,
                -3.080322981989818
            ]
        },
        {
            "positions": [
                0.46505036100877795,
                -1.8533266651300424,
                2.41104300887816,
                -0.43937156352344225,
                0.8439983098970758,
                -3.101384974111654
            ]
        },
        {
            "positions": [
                0.6545872477459618,
                -1.9073271301966148,
                2.3977233646970086,
                -0.4321929863279492,
                0.7429560681775649,
                -3.1224469662334897
            ]
        },
        {
            "positions": [
                0.7083228021616192,
                -1.9084142953515275,
                2.3914813548572407,
                -0.46221018607106096,
                0.7107032174430346,
                -3.129407390816922
            ]
        }
    ]
}