{
    "goal": {
        "global_pose": {
            "orientation": {
                "w": 0.7031023480610252,
                "x": -0.7110244013736278,
                "y": 0.0077485991402295624,
                "z": 0.005598929693374583
            },
            "position": {
                "x": -0.8841497679147869,
                "y": 0.44412534475326537,
                "z": 0.3711530566215515
            }
        },
        "name": "move_to_auspresseinheit_D"
    },
    "id": "BFMT_move_to_auspresseinheit_D_16",
    "joint_names": [
        "shoulder_pan_joint",
        "shoulder_lift_joint",
        "elbow_joint",
        "wrist_1_joint",
        "wrist_2_joint",
        "wrist_3_joint"
    ],
    "metrics": {
        "cart_traj_len": 0.3439927268587155,
        "distance_elbow_joint": 0.6492809071505705,
        "distance_shoulder_lift_joint": 0.12702170629366938,
        "distance_shoulder_pan_joint": 0.133474283107418,
        "distance_wrist_1_joint": 0.5542851544307714,
        "distance_wrist_2_joint": 1.4482500381886196,
        "distance_wrist_3_joint": 0.019104507904912804,
        "smoothness": 1.9737298371844314e-16,
        "time": 0.451140982,
        "traj_len": 1.7121380192834812,
        "weighted_distance": 2.2298342551645356
    },
    "planner": "BFMT",
    "start": {
        "state": {
            "elbow_joint": -1.8275523626775212,
            "shoulder_lift_joint": -2.126789852344167,
            "shoulder_pan_joint": -0.03513704404078235,
            "wrist_1_joint": -2.347782403156801,
            "wrist_2_joint": -1.6058999987535132,
            "wrist_3_joint": -3.0880379163319196
        }
    },
    "waypoints": [
        {
            "positions": [
                -0.03513704404078235,
                -2.126789852344167,
                -1.8275523626775212,
                -2.347782403156801,
                -1.6058999987535132,
                -3.0880379163319196
            ]
        },
        {
            "positions": [
                -0.0518213294292096,
                -2.1426675656308753,
                -1.7463922492836998,
                -2.4170680474606474,
                -1.4248687439799357,
                -3.0856498528438054
            ]
        },
        {
            "positions": [
                -0.06850561481763684,
                -2.1585452789175843,
                -1.6652321358898785,
                -2.486353691764494,
                -1.2438374892063582,
                -3.0832617893556913
            ]
        },
        {
            "positions": [
                -0.0851899002060641,
                -2.174422992204293,
                -1.5840720224960572,
                -2.55563933606834,
                -1.0628062344327809,
                -3.080873725867577
            ]
        },
        {
            "positions": [
                -0.10187418559449135,
                -2.1903007054910013,
                -1.5029119091022358,
                -2.6249249803721866,
                -0.8817749796592034,
                -3.078485662379463
            ]
        },
        {
            "positions": [
                -0.1185584709829186,
                -2.2061784187777103,
                -1.4217517957084147,
                -2.694210624676033,
                -0.7007437248856259,
                -3.0760975988913493
            ]
        },
        {
            "positions": [
                -0.13524275637134583,
                -2.2220561320644188,
                -1.3405916823145934,
                -2.763496268979879,
                -0.5197124701120486,
                -3.073709535403235
            ]
        },
        {
            "positions": [
                -0.1519270417597731,
                -2.2379338453511277,
                -1.259431568920772,
                -2.8327819132837257,
                -0.33868121533847106,
                -3.071321471915121
            ]
        },
        {
            "positions": [
                -0.16861132714820035,
                -2.253811558637836,
                -1.1782714555269507,
                -2.9020675575875723,
                -0.15764996056489347,
                -3.068933408427007
            ]
        }
    ]
}