{
    "goal": {
        "global_pose": {
            "orientation": {
                "w": 0.7031023502349854,
                "x": -0.7110244035720825,
                "y": 0.007748599164187908,
                "z": 0.005598929710686207
            },
            "position": {
                "x": 0.11585023208521307,
                "y": 0.44412534475326537,
                "z": 0.3711530566215515
            }
        },
        "name": "move_to_auspresseinheit_A"
    },
    "id": "BFMT_move_to_auspresseinheit_A_111",
    "joint_names": [
        "shoulder_pan_joint",
        "shoulder_lift_joint",
        "elbow_joint",
        "wrist_1_joint",
        "wrist_2_joint",
        "wrist_3_joint"
    ],
    "metrics": {
        "cart_traj_len": 0.6747870304462478,
        "distance_elbow_joint": 0.3563574261508453,
        "distance_shoulder_lift_joint": 0.7536829325645307,
        "distance_shoulder_pan_joint": 1.0439540629746504,
        "distance_wrist_1_joint": 0.5461519259544885,
        "distance_wrist_2_joint": 0.5181433559627513,
        "distance_wrist_3_joint": 0.03048433539598383,
        "smoothness": 0.5928437224970073,
        "time": 0.9058050179999999,
        "traj_len": 1.8024355852576952,
        "weighted_distance": 2.0914200897267046
    },
    "planner": "BFMT",
    "start": {
        "state": {
            "elbow_joint": 2.4225746658250005,
            "shoulder_lift_joint": -1.3736534386056498,
            "shoulder_pan_joint": -0.3378633547517467,
            "wrist_1_joint": -1.0288598680537169,
            "wrist_2_joint": 1.233022673432363,
            "wrist_3_joint": -3.0940220416140027
        }
    },
    "waypoints": [
        {
            "positions": [
                -0.3378633547517467,
                -1.3736534386056498,
                2.4225746658250005,
                -1.0288598680537169,
                1.233022673432363,
                -3.0940220416140027
            ]
        },
        {
            "positions": [
                -0.1907604717221203,
                -1.4813827163678464,
                2.450195973360063,
                -0.9689308396879316,
                1.2054433985923507,
                -3.098555671890244
            ]
        },
        {
            "positions": [
                -0.043657588692493865,
                -1.589111994130043,
                2.4778172808951258,
                -0.9090018113221464,
                1.1778641237523384,
                -3.103089302166486
            ]
        },
        {
            "positions": [
                0.10344529433713262,
                -1.6968412718922394,
                2.5054385884301884,
                -0.8490727829563611,
                1.1502848489123263,
                -3.1076229324427276
            ]
        },
        {
            "positions": [
                0.250548177366759,
                -1.8045705496544362,
                2.533059895965251,
                -0.789143754590576,
                1.122705574072314,
                -3.112156562718969
            ]
        },
        {
            "positions": [
                0.3976510603963856,
                -1.9122998274166327,
                2.5606812035003137,
                -0.7292147262247906,
                1.0951262992323016,
                -3.11669019299521
            ]
        },
        {
            "positions": [
                0.544753943426012,
                -2.0200291051788293,
                2.5883025110353763,
                -0.6692856978590054,
                1.0675470243922893,
                -3.121223823271452
            ]
        },
        {
            "positions": [
                0.5985328650249759,
                -1.9842600165150455,
                2.524759317388553,
                -0.6070931126057464,
                0.9499911220847301,
                -3.1223180078509634
            ]
        },
        {
            "positions": [
                0.6523117866239398,
                -1.9484909278512619,
                2.46121612374173,
                -0.5449005273524874,
                0.8324352197771709,
                -3.123412192430475
            ]
        },
        {
            "positions": [
                0.7060907082229038,
                -1.912721839187478,
                2.397672930094907,
                -0.48270794209922835,
                0.7148793174696118,
                -3.1245063770099866
            ]
        }
    ]
}