{
    "goal": {
        "global_pose": {
            "orientation": {
                "w": 0.005598929693374612,
                "x": 0.007748599140229565,
                "y": 0.7110244013736278,
                "z": -0.7031023480610252
            },
            "position": {
                "x": 0.1141497679147869,
                "y": -0.7141253447532654,
                "z": 0.3711530566215515
            }
        },
        "name": "move_to_auspresseinheit_B"
    },
    "id": "BFMT_move_to_auspresseinheit_B_7",
    "joint_names": [
        "shoulder_pan_joint",
        "shoulder_lift_joint",
        "elbow_joint",
        "wrist_1_joint",
        "wrist_2_joint",
        "wrist_3_joint"
    ],
    "metrics": {
        "cart_traj_len": 0.5642575002878124,
        "distance_elbow_joint": 0.0602070013375422,
        "distance_shoulder_lift_joint": 0.296124279006472,
        "distance_shoulder_pan_joint": 0.578812408091613,
        "distance_wrist_1_joint": 0.3242439249512218,
        "distance_wrist_2_joint": 0.9850402433916432,
        "distance_wrist_3_joint": 0.00973182165517672,
        "smoothness": 5.075305255429287e-16,
        "time": 0.5579816479999999,
        "traj_len": 1.5013859192205277,
        "weighted_distance": 1.8928569650364202
    },
    "planner": "BFMT",
    "start": {
        "state": {
            "elbow_joint": 2.0193083361928714,
            "shoulder_lift_joint": -1.1220246554650708,
            "shoulder_pan_joint": -1.0952077554168747,
            "wrist_1_joint": -0.8559753972642168,
            "wrist_2_joint": 0.4759566250798843,
            "wrist_3_joint": -3.1240929996934557
        }
    },
    "waypoints": [
        {
            "positions": [
                -1.0952077554168747,
                -1.1220246554650708,
                2.0193083361928714,
                -0.8559753972642168,
                0.4759566250798843,
                -3.1240929996934557
            ]
        },
        {
            "positions": [
                -1.1916764900988102,
                -1.1713787019661495,
                2.009273835969948,
                -0.8019347431056798,
                0.6401299989784914,
                -3.122471029417593
            ]
        },
        {
            "positions": [
                -1.2881452247807457,
                -1.2207327484672281,
                1.999239335747024,
                -0.7478940889471428,
                0.8043033728770987,
                -3.12084905914173
            ]
        },
        {
            "positions": [
                -1.3846139594626812,
                -1.2700867949683068,
                1.9892048355241003,
                -0.6938534347886058,
                0.9684767467757058,
                -3.119227088865867
            ]
        },
        {
            "positions": [
                -1.4810826941446167,
                -1.3194408414693855,
                1.9791703353011767,
                -0.639812780630069,
                1.1326501206743131,
                -3.1176051185900047
            ]
        },
        {
            "positions": [
                -1.5775514288265522,
                -1.3687948879704641,
                1.9691358350782528,
                -0.5857721264715319,
                1.2968234945729202,
                -3.115983148314142
            ]
        },
        {
            "positions": [
                -1.6740201635084877,
                -1.4181489344715428,
                1.9591013348553292,
                -0.531731472312995,
                1.4609968684715275,
                -3.114361178038279
            ]
        }
    ]
}