{
    "goal": {
        "global_pose": {
            "orientation": {
                "w": 0.005598929693374612,
                "x": 0.007748599140229565,
                "y": 0.7110244013736278,
                "z": -0.7031023480610252
            },
            "position": {
                "x": 0.1141497679147869,
                "y": -0.7141253447532654,
                "z": 0.3711530566215515
            }
        },
        "name": "move_to_auspresseinheit_B"
    },
    "id": "BFMT_move_to_auspresseinheit_B_92",
    "joint_names": [
        "shoulder_pan_joint",
        "shoulder_lift_joint",
        "elbow_joint",
        "wrist_1_joint",
        "wrist_2_joint",
        "wrist_3_joint"
    ],
    "metrics": {
        "cart_traj_len": 0.5647866186980276,
        "distance_elbow_joint": 0.060157583641466505,
        "distance_shoulder_lift_joint": 0.2946312145884886,
        "distance_shoulder_pan_joint": 0.5751631942735296,
        "distance_wrist_1_joint": 0.31641863636760337,
        "distance_wrist_2_joint": 1.0059387984069903,
        "distance_wrist_3_joint": 0.007203168187804643,
        "smoothness": 0.0,
        "time": 0.487369144,
        "traj_len": 1.503167520759374,
        "weighted_distance": 1.8963850786736554
    },
    "planner": "BFMT",
    "start": {
        "state": {
            "elbow_joint": 2.0193083361928714,
            "shoulder_lift_joint": -1.1220246554650708,
            "shoulder_pan_joint": -1.0952077554168747,
            "wrist_1_joint": -0.8559753972642168,
            "wrist_2_joint": 0.4759566250798843,
            "wrist_3_joint": -3.1240929996934557
        }
    },
    "waypoints": [
        {
            "positions": [
                -1.0952077554168747,
                -1.1220246554650708,
                2.0193083361928714,
                -0.8559753972642168,
                0.4759566250798843,
                -3.1240929996934557
            ]
        },
        {
            "positions": [
                -1.1910682877957963,
                -1.1711298578964855,
                2.009282072252627,
                -0.8032389578696162,
                0.6436130914810494,
                -3.1252935277247564
            ]
        },
        {
            "positions": [
                -1.2869288201747178,
                -1.2202350603279004,
                1.9992558083123826,
                -0.7505025184750157,
                0.8112695578822144,
                -3.126494055756057
            ]
        },
        {
            "positions": [
                -1.3827893525536394,
                -1.269340262759315,
                1.9892295443721382,
                -0.6977660790804151,
                0.9789260242833795,
                -3.127694583787358
            ]
        },
        {
            "positions": [
                -1.4786498849325609,
                -1.3184454651907298,
                1.9792032804318938,
                -0.6450296396858146,
                1.1465824906845445,
                -3.1288951118186588
            ]
        },
        {
            "positions": [
                -1.5745104173114828,
                -1.3675506676221447,
                1.9691770164916493,
                -0.592293200291214,
                1.3142389570857096,
                -3.1300956398499595
            ]
        },
        {
            "positions": [
                -1.6703709496904042,
                -1.4166558700535594,
                1.959150752551405,
                -0.5395567608966134,
                1.4818954234868746,
                -3.1312961678812603
            ]
        }
    ]
}