{
    "goal": {
        "global_pose": {
            "orientation": {
                "w": 0.5084816217422485,
                "x": -0.49083608388900757,
                "y": 0.5182115435600281,
                "z": -0.4816462993621826
            },
            "position": {
                "x": 0.5540239810943604,
                "y": 0.030875300988554955,
                "z": 0.16403168439865112
            }
        },
        "name": "move_to_storage_A"
    },
    "id": "BFMT_move_to_storage_A_58",
    "joint_names": [
        "shoulder_pan_joint",
        "shoulder_lift_joint",
        "elbow_joint",
        "wrist_1_joint",
        "wrist_2_joint",
        "wrist_3_joint"
    ],
    "metrics": {
        "cart_traj_len": 0.3531857656985321,
        "distance_elbow_joint": 0.44951960585253015,
        "distance_shoulder_lift_joint": 0.23431425661217653,
        "distance_shoulder_pan_joint": 0.4627341776743175,
        "distance_wrist_1_joint": 0.2416188423325386,
        "distance_wrist_2_joint": 1.0950121472542569,
        "distance_wrist_3_joint": 0.10465267833808678,
        "smoothness": 4.440892098500626e-16,
        "time": 0.489920878,
        "traj_len": 1.6086801136533972,
        "weighted_distance": 2.0331719195205493
    },
    "planner": "BFMT",
    "start": {
        "state": {
            "elbow_joint": 1.971548259319323,
            "shoulder_lift_joint": -1.1394851275133948,
            "shoulder_pan_joint": 0.1228115487234821,
            "wrist_1_joint": -0.7804723859257726,
            "wrist_2_joint": 0.12958671773740124,
            "wrist_3_joint": -3.192489227718131
        }
    },
    "waypoints": [
        {
            "positions": [
                0.1228115487234821,
                -1.1394851275133948,
                1.971548259319323,
                -0.7804723859257726,
                0.12958671773740124,
                -3.192489227718131
            ]
        },
        {
            "positions": [
                0.0567066661985796,
                -1.1729585927437058,
                2.0357653458696845,
                -0.8149893634018496,
                0.28601702448800936,
                -3.1775388450984043
            ]
        },
        {
            "positions": [
                -0.0093982163263229,
                -1.2064320579740166,
                2.099982432420046,
                -0.8495063408779265,
                0.44244733123861746,
                -3.162588462478678
            ]
        },
        {
            "positions": [
                -0.07550309885122539,
                -1.2399055232043277,
                2.1641995189704075,
                -0.8840233183540034,
                0.5988776379892256,
                -3.147638079858951
            ]
        },
        {
            "positions": [
                -0.1416079813761279,
                -1.2733789884346385,
                2.228416605520769,
                -0.9185402958300803,
                0.7553079447398338,
                -3.1326876972392244
            ]
        },
        {
            "positions": [
                -0.20771286390103044,
                -1.3068524536649495,
                2.29263369207113,
                -0.9530572733061573,
                0.911738251490442,
                -3.1177373146194975
            ]
        },
        {
            "positions": [
                -0.2738177464259329,
                -1.3403259188952603,
                2.356850778621492,
                -0.9875742507822343,
                1.0681685582410498,
                -3.102786931999771
            ]
        },
        {
            "positions": [
                -0.3399226289508354,
                -1.3737993841255713,
                2.421067865171853,
                -1.0220912282583112,
                1.2245988649916582,
                -3.0878365493800444
            ]
        }
    ]
}{
    "goal": {
        "global_pose": {
            "orientation": {
                "w": 0.5084816217422485,
                "x": -0.49083608388900757,
                "y": 0.5182115435600281,
                "z": -0.4816462993621826
            },
            "position": {
                "x": 0.5540239810943604,
                "y": 0.030875300988554955,
                "z": 0.16403168439865112
            }
        },
        "name": "move_to_storage_A"
    },
    "id": "BFMT_move_to_storage_A_58",
    "joint_names": [
        "shoulder_pan_joint",
        "shoulder_lift_joint",
        "elbow_joint",
        "wrist_1_joint",
        "wrist_2_joint",
        "wrist_3_joint"
    ],
    "metrics": {
        "cart_traj_len": 0.3528500155037736,
        "distance_elbow_joint": 0.4489324256253857,
        "distance_shoulder_lift_joint": 0.23488376057256422,
        "distance_shoulder_pan_joint": 0.45911013377855775,
        "distance_wrist_1_joint": 0.2392309021404948,
        "distance_wrist_2_joint": 1.1082712947217788,
        "distance_wrist_3_joint": 0.10082265578673821,
        "smoothness": 0.0,
        "time": 0.540895854,
        "traj_len": 1.6097363674296234,
        "weighted_distance": 2.034796963104985
    },
    "planner": "BFMT",
    "start": {
        "state": {
            "elbow_joint": 1.97154746011099,
            "shoulder_lift_joint": -1.13948474672311,
            "shoulder_pan_joint": 0.12281154466712228,
            "wrist_1_joint": -0.7804688027058302,
            "wrist_2_joint": 0.12958655903071145,
            "wrist_3_joint": 3.0906928834467795
        }
    },
    "waypoints": [
        {
            "positions": [
                0.12281154466712228,
                -1.13948474672311,
                1.97154746011099,
                -0.7804688027058302,
                0.12958655903071145,
                3.0906928834467795
            ]
        },
        {
            "positions": [
                0.05722438269875689,
                -1.1730395696620477,
                2.0356806637717595,
                -0.8146446458687581,
                0.2879110297052513,
                3.105096119987742
            ]
        },
        {
            "positions": [
                -0.008362779269608503,
                -1.2065943926009854,
                2.0998138674325286,
                -0.8488204890316858,
                0.4462355003797911,
                3.1194993565287046
            ]
        },
        {
            "positions": [
                -0.0739499412379739,
                -1.2401492155399232,
                2.163947071093298,
                -0.8829963321946137,
                0.6045599710543309,
                3.133902593069667
            ]
        },
        {
            "positions": [
                -0.13953710320633927,
                -1.273704038478861,
                2.2280802747540673,
                -0.9171721753575415,
                0.7628844417288707,
                3.14830582961063
            ]
        },
        {
            "positions": [
                -0.20512426517470467,
                -1.3072588614177987,
                2.292213478414837,
                -0.9513480185204694,
                0.9212089124034106,
                3.1627090661515926
            ]
        },
        {
            "positions": [
                -0.27071142714307006,
                -1.3408136843567364,
                2.356346682075606,
                -0.9855238616833971,
                1.0795333830779503,
                3.177112302692555
            ]
        },
        {
            "positions": [
                -0.33629858911143545,
                -1.3743685072956742,
                2.4204798857363756,
                -1.019699704846325,
                1.2378578537524902,
                3.1915155392335177
            ]
        }
    ]
}{
    "goal": {
        "global_pose": {
            "orientation": {
                "w": 0.5084816217422485,
                "x": -0.49083608388900757,
                "y": 0.5182115435600281,
                "z": -0.4816462993621826
            },
            "position": {
                "x": 0.5540239810943604,
                "y": 0.030875300988554955,
                "z": 0.16403168439865112
            }
        },
        "name": "move_to_storage_A"
    },
    "id": "BFMT_move_to_storage_A_58",
    "joint_names": [
        "shoulder_pan_joint",
        "shoulder_lift_joint",
        "elbow_joint",
        "wrist_1_joint",
        "wrist_2_joint",
        "wrist_3_joint"
    ],
    "metrics": {
        "cart_traj_len": 0.35279104930226374,
        "distance_elbow_joint": 0.4475080828045326,
        "distance_shoulder_lift_joint": 0.2348506342326404,
        "distance_shoulder_pan_joint": 0.45900725358384975,
        "distance_wrist_1_joint": 0.2349764815285924,
        "distance_wrist_2_joint": 1.1079469359717837,
        "distance_wrist_3_joint": 0.096774797118659,
        "smoothness": 4.440892098500626e-16,
        "time": 0.5143546,
        "traj_len": 1.6065690726638733,
        "weighted_distance": 2.029171554348659
    },
    "planner": "BFMT",
    "start": {
        "state": {
            "elbow_joint": 1.9715472970024885,
            "shoulder_lift_joint": -1.1394870060712896,
            "shoulder_pan_joint": 0.12281152778156021,
            "wrist_1_joint": -0.780463741449964,
            "wrist_2_joint": 0.12958659822042276,
            "wrist_3_joint": 3.090690232415272
        }
    },
    "waypoints": [
        {
            "positions": [
                0.12281152778156021,
                -1.1394870060712896,
                1.9715472970024885,
                -0.780463741449964,
                0.12958659822042276,
                3.090690232415272
            ]
        },
        {
            "positions": [
                0.0572390629838674,
                -1.1730370966759525,
                2.035477023117422,
                -0.8140318102397629,
                0.2878647319306776,
                3.104515203432223
            ]
        },
        {
            "positions": [
                -0.008333401813825414,
                -1.2065871872806155,
                2.099406749232355,
                -0.8475998790295618,
                0.4461428656409324,
                3.1183401744491746
            ]
        },
        {
            "positions": [
                -0.07390586661151824,
                -1.2401372778852784,
                2.1633364753472883,
                -0.8811679478193607,
                0.6044209993511872,
                3.132165145466126
            ]
        },
        {
            "positions": [
                -0.13947833140921104,
                -1.2736873684899412,
                2.2272662014622213,
                -0.9147360166091596,
                0.762699133061442,
                3.145990116483077
            ]
        },
        {
            "positions": [
                -0.2050507962069039,
                -1.3072374590946043,
                2.2911959275771547,
                -0.9483040853989586,
                0.9209772667716969,
                3.159815087500028
            ]
        },
        {
            "positions": [
                -0.27062326100459666,
                -1.3407875496992672,
                2.3551256536920877,
                -0.9818721541887575,
                1.0792554004819517,
                3.1736400585169795
            ]
        },
        {
            "positions": [
                -0.3361957258022895,
                -1.37433764030393,
                2.419055379807021,
                -1.0154402229785564,
                1.2375335341922065,
                3.187465029533931
            ]
        }
    ]
}