{
    "goal": {
        "global_pose": {
            "orientation": {
                "w": 0.005598929693374612,
                "x": 0.007748599140229565,
                "y": 0.7110244013736278,
                "z": -0.7031023480610252
            },
            "position": {
                "x": -0.8858502320852131,
                "y": -0.7141253447532654,
                "z": 0.3711530566215515
            }
        },
        "name": "move_to_auspresseinheit_C"
    },
    "id": "BFMT_move_to_auspresseinheit_C_100",
    "joint_names": [
        "shoulder_pan_joint",
        "shoulder_lift_joint",
        "elbow_joint",
        "wrist_1_joint",
        "wrist_2_joint",
        "wrist_3_joint"
    ],
    "metrics": {
        "cart_traj_len": 0.49291470281589167,
        "distance_elbow_joint": 1.004379355603704,
        "distance_shoulder_lift_joint": 0.32715435163938966,
        "distance_shoulder_pan_joint": 0.2552832612192186,
        "distance_wrist_1_joint": 0.6819809330385407,
        "distance_wrist_2_joint": 1.3178136192340995,
        "distance_wrist_3_joint": 0.058876519066132005,
        "smoothness": 3.2297397080004555e-16,
        "time": 0.449299646,
        "traj_len": 1.9093161183526117,
        "weighted_distance": 2.4006323396567804
    },
    "planner": "BFMT",
    "start": {
        "state": {
            "elbow_joint": 1.7527959577737207,
            "shoulder_lift_joint": -0.9740617694225068,
            "shoulder_pan_joint": -2.967991417825858,
            "wrist_1_joint": -0.759517768980727,
            "wrist_2_joint": 1.7443932448377408,
            "wrist_3_joint": -3.0840537646736568
        }
    },
    "waypoints": [
        {
            "positions": [
                -2.967991417825858,
                -0.9740617694225068,
                1.7527959577737207,
                -0.759517768980727,
                1.7443932448377408,
                -3.0840537646736568
            ]
        },
        {
            "positions": [
                -2.942463091703936,
                -0.9413463342585678,
                1.6523580222133503,
                -0.6913196756768729,
                1.6126118829143308,
                -3.08994141658027
            ]
        },
        {
            "positions": [
                -2.916934765582014,
                -0.9086308990946288,
                1.5519200866529799,
                -0.6231215823730188,
                1.480830520990921,
                -3.095829068486883
            ]
        },
        {
            "positions": [
                -2.8914064394600922,
                -0.8759154639306899,
                1.4514821510926095,
                -0.5549234890691648,
                1.349049159067511,
                -3.1017167203934966
            ]
        },
        {
            "positions": [
                -2.8658781133381703,
                -0.8432000287667509,
                1.351044215532239,
                -0.4867253957653107,
                1.217267797144101,
                -3.1076043723001097
            ]
        },
        {
            "positions": [
                -2.8403497872162484,
                -0.810484593602812,
                1.2506062799718687,
                -0.41852730246145664,
                1.085486435220691,
                -3.1134920242067228
            ]
        },
        {
            "positions": [
                -2.814821461094327,
                -0.777769158438873,
                1.1501683444114983,
                -0.3503292091576026,
                0.9537050732972812,
                -3.119379676113336
            ]
        },
        {
            "positions": [
                -2.789293134972405,
                -0.745053723274934,
                1.049730408851128,
                -0.28213111585374856,
                0.8219237113738713,
                -3.125267328019949
            ]
        },
        {
            "positions": [
                -2.763764808850483,
                -0.712338288110995,
                0.9492924732907575,
                -0.21393302254989444,
                0.6901423494504613,
                -3.1311549799265626
            ]
        },
        {
            "positions": [
                -2.7382364827285612,
                -0.679622852947056,
                0.8488545377303871,
                -0.14573492924604037,
                0.5583609875270512,
                -3.1370426318331757
            ]
        },
        {
            "positions": [
                -2.7127081566066393,
                -0.6469074177831171,
                0.7484166021700166,
                -0.0775368359421863,
                0.42657962560364143,
                -3.1429302837397888
            ]
        }
    ]
}