{
    "goal": {
        "global_pose": {
            "orientation": {
                "w": 0.7031023480610252,
                "x": -0.7110244013736278,
                "y": 0.0077485991402295624,
                "z": 0.005598929693374583
            },
            "position": {
                "x": -0.8841497679147869,
                "y": 0.44412534475326537,
                "z": 0.3711530566215515
            }
        },
        "name": "move_to_auspresseinheit_D"
    },
    "id": "BFMT_move_to_auspresseinheit_D_113",
    "joint_names": [
        "shoulder_pan_joint",
        "shoulder_lift_joint",
        "elbow_joint",
        "wrist_1_joint",
        "wrist_2_joint",
        "wrist_3_joint"
    ],
    "metrics": {
        "cart_traj_len": 0.3434682251902088,
        "distance_elbow_joint": 0.6428628564311034,
        "distance_shoulder_lift_joint": 0.12307418200887055,
        "distance_shoulder_pan_joint": 0.13356425921330267,
        "distance_wrist_1_joint": 0.5486866893824609,
        "distance_wrist_2_joint": 1.4368638974997967,
        "distance_wrist_3_joint": 0.004364238716312752,
        "smoothness": 5.921189463382907e-16,
        "time": 0.45448052800000005,
        "traj_len": 1.6998282628700603,
        "weighted_distance": 2.2099084115787986
    },
    "planner": "BFMT",
    "start": {
        "state": {
            "elbow_joint": -1.8275523626775212,
            "shoulder_lift_joint": -2.126789852344167,
            "shoulder_pan_joint": -0.03513704404078235,
            "wrist_1_joint": -2.347782403156801,
            "wrist_2_joint": -1.6058999987535132,
            "wrist_3_joint": -3.0880379163319196
        }
    },
    "waypoints": [
        {
            "positions": [
                -0.03513704404078235,
                -2.126789852344167,
                -1.8275523626775212,
                -2.347782403156801,
                -1.6058999987535132,
                -3.0880379163319196
            ]
        },
        {
            "positions": [
                -0.05183257644244518,
                -2.1421741250952757,
                -1.7471945056236333,
                -2.4163682393296084,
                -1.4262920115660387,
                -3.0874923864923804
            ]
        },
        {
            "positions": [
                -0.06852810884410801,
                -2.1575583978463846,
                -1.6668366485697454,
                -2.484954075502416,
                -1.246684024378564,
                -3.0869468566528413
            ]
        },
        {
            "positions": [
                -0.08522364124577085,
                -2.1729426705974935,
                -1.5864787915158574,
                -2.5535399116752235,
                -1.0670760371910895,
                -3.086401326813302
            ]
        },
        {
            "positions": [
                -0.10191917364743369,
                -2.188326943348602,
                -1.5061209344619695,
                -2.622125747848031,
                -0.8874680500036148,
                -3.085855796973763
            ]
        },
        {
            "positions": [
                -0.11861470604909652,
                -2.2037112160997108,
                -1.4257630774080816,
                -2.690711584020839,
                -0.7078600628161402,
                -3.0853102671342243
            ]
        },
        {
            "positions": [
                -0.13531023845075935,
                -2.2190954888508196,
                -1.3454052203541935,
                -2.7592974201936467,
                -0.5282520756286657,
                -3.084764737294685
            ]
        },
        {
            "positions": [
                -0.1520057708524222,
                -2.2344797616019285,
                -1.2650473633003056,
                -2.827883256366454,
                -0.348644088441191,
                -3.084219207455146
            ]
        },
        {
            "positions": [
                -0.16870130325408503,
                -2.2498640343530374,
                -1.1846895062464178,
                -2.8964690925392618,
                -0.16903610125371657,
                -3.083673677615607
            ]
        }
    ]
}