{
    "goal": {
        "global_pose": {
            "orientation": {
                "w": 0.5084816262002911,
                "x": -0.4908360881923452,
                "y": 0.5182115481033761,
                "z": -0.48164630358495003
            },
            "position": {
                "x": 0.5540239810943604,
                "y": -0.46912469901144505,
                "z": 0.16403168439865112
            }
        },
        "name": "move_to_storage_B"
    },
    "id": "BFMT_move_to_storage_B_47",
    "joint_names": [
        "shoulder_pan_joint",
        "shoulder_lift_joint",
        "elbow_joint",
        "wrist_1_joint",
        "wrist_2_joint",
        "wrist_3_joint"
    ],
    "metrics": {
        "cart_traj_len": 0.8942140792303741,
        "distance_elbow_joint": 0.3496386958058024,
        "distance_shoulder_lift_joint": 0.4595668644455626,
        "distance_shoulder_pan_joint": 0.6513482935256317,
        "distance_wrist_1_joint": 3.04573996708676,
        "distance_wrist_2_joint": 2.7147356280905535,
        "distance_wrist_3_joint": 3.1444815910300488,
        "smoothness": 0.07883339027280732,
        "time": 0.771027763,
        "traj_len": 3.2195513724716927,
        "weighted_distance": 4.7344429257539655
    },
    "planner": "BFMT",
    "start": {
        "state": {
            "elbow_joint": 1.664937868594044,
            "shoulder_lift_joint": -0.661644460510453,
            "shoulder_pan_joint": -0.9139846352900073,
            "wrist_1_joint": 2.146753192139373,
            "wrist_2_joint": -2.2341966793290973,
            "wrist_3_joint": 0.005466555786416001
        }
    },
    "waypoints": [
        {
            "positions": [
                -0.9139846352900073,
                -0.661644460510453,
                1.664937868594044,
                2.146753192139373,
                -2.2341966793290973,
                0.005466555786416001
            ]
        },
        {
            "positions": [
                -0.8551067687425211,
                -0.7001399553643506,
                1.6912595734481055,
                2.154697008050927,
                -2.0224829816022765,
                0.040587897234795126
            ]
        },
        {
            "positions": [
                -0.7962289021950348,
                -0.7386354502182482,
                1.7175812783021673,
                2.162640823962481,
                -1.8107692838754554,
                0.07570923868317425
            ]
        },
        {
            "positions": [
                -0.7373510356475486,
                -0.7771309450721458,
                1.7439029831562292,
                2.170584639874035,
                -1.5990555861486344,
                0.11083058013155338
            ]
        },
        {
            "positions": [
                -0.6784731691000624,
                -0.8156264399260433,
                1.7702246880102908,
                2.178528455785589,
                -1.3873418884218136,
                0.1459519215799325
            ]
        },
        {
            "positions": [
                -0.6965530311581357,
                -0.8289127392751726,
                1.7808486826359236,
                2.047486512157739,
                -1.3061296781094975,
                0.27656045311195565
            ]
        },
        {
            "positions": [
                -0.714632893216209,
                -0.8421990386243018,
                1.7914726772615566,
                1.9164445685298892,
                -1.2249174677971815,
                0.40716898464397877
            ]
        },
        {
            "positions": [
                -0.7327127552742824,
                -0.8554853379734311,
                1.8020966718871894,
                1.7854026249020396,
                -1.1437052574848654,
                0.5377775161760019
            ]
        },
        {
            "positions": [
                -0.7507926173323558,
                -0.8687716373225602,
                1.8127206665128222,
                1.6543606812741898,
                -1.0624930471725493,
                0.668386047708025
            ]
        },
        {
            "positions": [
                -0.7688724793904291,
                -0.8820579366716895,
                1.823344661138455,
                1.5233187376463402,
                -0.9812808368602332,
                0.7989945792400481
            ]
        },
        {
            "positions": [
                -0.7869523414485025,
                -0.8953442360208187,
                1.833968655764088,
                1.3922767940184904,
                -0.900068626547917,
                0.9296031107720713
            ]
        },
        {
            "positions": [
                -0.8050322035065758,
                -0.908630535369948,
                1.8445926503897208,
                1.2612348503906405,
                -0.8188564162356009,
                1.0602116423040944
            ]
        },
        {
            "positions": [
                -0.8231120655646491,
                -0.9219168347190771,
                1.8552166450153535,
                1.1301929067627907,
                -0.7376442059232848,
                1.1908201738361175
            ]
        },
        {
            "positions": [
                -0.8411919276227224,
                -0.9352031340682064,
                1.8658406396409863,
                0.9991509631349409,
                -0.6564319956109687,
                1.3214287053681408
            ]
        },
        {
            "positions": [
                -0.8592717896807958,
                -0.9484894334173356,
                1.8764646342666194,
                0.8681090195070913,
                -0.5752197852986527,
                1.4520372369001637
            ]
        },
        {
            "positions": [
                -0.8773516517388691,
                -0.9617757327664649,
                1.8870886288922522,
                0.7370670758792415,
                -0.4940075749863365,
                1.582645768432187
            ]
        },
        {
            "positions": [
                -0.8954315137969424,
                -0.9750620321155941,
                1.897712623517885,
                0.6060251322513917,
                -0.41279536467402045,
                1.71325429996421
            ]
        },
        {
            "positions": [
                -0.9135113758550157,
                -0.9883483314647233,
                1.9083366181435177,
                0.47498318862354205,
                -0.3315831543617045,
                1.843862831496233
            ]
        },
        {
            "positions": [
                -0.9315912379130892,
                -1.0016346308138526,
                1.9189606127691508,
                0.343941244995692,
                -0.2503709440493882,
                1.9744713630282564
            ]
        },
        {
            "positions": [
                -0.9496710999711625,
                -1.0149209301629818,
                1.9295846073947835,
                0.2128993013678424,
                -0.16915873373707213,
                2.1050798945602796
            ]
        },
        {
            "positions": [
                -0.9677509620292358,
                -1.028207229512111,
                1.9402086020204163,
                0.08185735773999259,
                -0.08794652342475606,
                2.2356884260923024
            ]
        },
        {
            "positions": [
                -0.9858308240873092,
                -1.0414935288612401,
                1.9508325966460491,
                -0.04918458588785679,
                -0.0067343131124399935,
                2.366296957624326
            ]
        },
        {
            "positions": [
                -1.0039106861453826,
                -1.0547798282103695,
                1.9614565912716821,
                -0.18022652951570706,
                0.0744778971998763,
                2.496905489156349
            ]
        },
        {
            "positions": [
                -1.021990548203456,
                -1.0680661275594987,
                1.972080585897315,
                -0.3112684731435569,
                0.15569010751219237,
                2.627514020688372
            ]
        },
        {
            "positions": [
                -1.0400704102615292,
                -1.0813524269086279,
                1.9827045805229477,
                -0.44231041677140626,
                0.2369023178245082,
                2.758122552220395
            ]
        },
        {
            "positions": [
                -1.0581502723196026,
                -1.0946387262577573,
                1.9933285751485805,
                -0.5733523603992561,
                0.3181145281368243,
                2.8887310837524183
            ]
        },
        {
            "positions": [
                -1.076230134377676,
                -1.1079250256068864,
                2.0039525697742135,
                -0.7043943040271059,
                0.3993267384491406,
                3.0193396152844416
            ]
        },
        {
            "positions": [
                -1.0943099964357492,
                -1.1212113249560156,
                2.0145765643998463,
                -0.8354362476549559,
                0.48053894876145653,
                3.1499481468164645
            ]
        }
    ]
}