{
    "goal": {
        "global_pose": {
            "orientation": {
                "w": 0.7047431468963623,
                "x": -0.7094548344612122,
                "y": 0.0024358443915843964,
                "z": -0.0022348060738295317
            },
            "position": {
                "x": 0.6094750761985779,
                "y": 0.3671506643295288,
                "z": 0.19426114857196808
            }
        },
        "name": "move_to_magneteinheit_A"
    },
    "id": "BFMT_move_to_magneteinheit_A_53",
    "joint_names": [
        "shoulder_pan_joint",
        "shoulder_lift_joint",
        "elbow_joint",
        "wrist_1_joint",
        "wrist_2_joint",
        "wrist_3_joint"
    ],
    "metrics": {
        "cart_traj_len": 3.4070975074762058,
        "distance_elbow_joint": 3.90813995200558,
        "distance_shoulder_lift_joint": 1.0364779400819142,
        "distance_shoulder_pan_joint": 3.74915931406501,
        "distance_wrist_1_joint": 0.6888799731374845,
        "distance_wrist_2_joint": 1.7016692405076161,
        "distance_wrist_3_joint": 3.591696604363223,
        "smoothness": 0.20652726322692622,
        "time": 0.833127331,
        "traj_len": 3.8309297858562785,
        "weighted_distance": 4.924425392523719
    },
    "planner": "BFMT",
    "start": {
        "state": {
            "elbow_joint": -1.9196185241190666,
            "shoulder_lift_joint": -1.2443396400964142,
            "shoulder_pan_joint": 2.6996025414629847,
            "wrist_1_joint": -1.5485510000780065,
            "wrist_2_joint": -1.5709468930060704,
            "wrist_3_joint": 0.4420197071253992
        }
    },
    "waypoints": [
        {
            "positions": [
                2.6996025414629847,
                -1.2443396400964142,
                -1.9196185241190666,
                -1.5485510000780065,
                -1.5709468930060704,
                0.4420197071253992
            ]
        },
        {
            "positions": [
                2.594176140273797,
                -1.260026676289815,
                -1.8236416465478227,
                -1.5307627049662593,
                -1.5314550014138566,
                0.32269659355503033
            ]
        },
        {
            "positions": [
                2.4887497390846094,
                -1.2757137124832156,
                -1.7276647689765785,
                -1.512974409854512,
                -1.4919631098216426,
                0.20337347998466151
            ]
        },
        {
            "positions": [
                2.3833233378954217,
                -1.2914007486766161,
                -1.6316878914053345,
                -1.4951861147427647,
                -1.4524712182294288,
                0.08405036641429264
            ]
        },
        {
            "positions": [
                2.2778969367062336,
                -1.3070877848700169,
                -1.5357110138340904,
                -1.4773978196310176,
                -1.412979326637215,
                -0.035272747156076145
            ]
        },
        {
            "positions": [
                2.1724705355170464,
                -1.3227748210634176,
                -1.4397341362628464,
                -1.4596095245192702,
                -1.373487435045001,
                -0.15459586072644493
            ]
        },
        {
            "positions": [
                2.0670441343278583,
                -1.3384618572568183,
                -1.3437572586916025,
                -1.441821229407523,
                -1.3339955434527873,
                -0.2739189742968139
            ]
        },
        {
            "positions": [
                1.9616177331386706,
                -1.354148893450219,
                -1.2477803811203583,
                -1.4240329342957758,
                -1.2945036518605733,
                -0.39324208786718273
            ]
        },
        {
            "positions": [
                1.856191331949483,
                -1.3698359296436198,
                -1.1518035035491143,
                -1.4062446391840284,
                -1.2550117602683595,
                -0.5125652014375515
            ]
        },
        {
            "positions": [
                1.7507649307602953,
                -1.3855229658370205,
                -1.0558266259778701,
                -1.3884563440722812,
                -1.2155198686761457,
                -0.6318883150079203
            ]
        },
        {
            "positions": [
                1.6453385295711076,
                -1.401210002030421,
                -0.9598497484066262,
                -1.370668048960534,
                -1.176027977083932,
                -0.751211428578289
            ]
        },
        {
            "positions": [
                1.5399121283819197,
                -1.4168970382238217,
                -0.8638728708353822,
                -1.3528797538487867,
                -1.136536085491718,
                -0.870534542148658
            ]
        },
        {
            "positions": [
                1.4344857271927318,
                -1.4325840744172225,
                -0.767895993264138,
                -1.3350914587370395,
                -1.097044193899504,
                -0.989857655719027
            ]
        },
        {
            "positions": [
                1.3290593260035442,
                -1.4482711106106232,
                -0.6719191156928941,
                -1.3173031636252923,
                -1.0575523023072901,
                -1.1091807692893956
            ]
        },
        {
            "positions": [
                1.2236329248143565,
                -1.463958146804024,
                -0.5759422381216499,
                -1.299514868513545,
                -1.0180604107150764,
                -1.2285038828597648
            ]
        },
        {
            "positions": [
                1.1182065236251688,
                -1.4796451829974244,
                -0.47996536055040595,
                -1.2817265734017977,
                -0.9785685191228625,
                -1.3478269964301335
            ]
        },
        {
            "positions": [
                1.0127801224359811,
                -1.4953322191908252,
                -0.383988482979162,
                -1.2639382782900506,
                -0.9390766275306486,
                -1.4671501100005022
            ]
        },
        {
            "positions": [
                0.9073537212467935,
                -1.5110192553842259,
                -0.2880116054079178,
                -1.2461499831783032,
                -0.8995847359384348,
                -1.586473223570871
            ]
        },
        {
            "positions": [
                0.8019273200576058,
                -1.5267062915776266,
                -0.19203472783667386,
                -1.228361688066556,
                -0.8600928443462209,
                -1.7057963371412397
            ]
        },
        {
            "positions": [
                0.6965009188684181,
                -1.5423933277710273,
                -0.0960578502654299,
                -1.2105733929548088,
                -0.820600952754007,
                -1.8251194507116084
            ]
        },
        {
            "positions": [
                0.5910745176792305,
                -1.5580803639644278,
                -8.09726941857214e-05,
                -1.1927850978430614,
                -0.7811090611617932,
                -1.9444425642819771
            ]
        },
        {
            "positions": [
                0.4856481164900428,
                -1.5737674001578288,
                0.09589590487705824,
                -1.1749968027313142,
                -0.7416171695695793,
                -2.0637656778523463
            ]
        },
        {
            "positions": [
                0.3802217153008547,
                -1.5894544363512293,
                0.1918727824483022,
                -1.157208507619567,
                -0.7021252779773655,
                -2.183088791422715
            ]
        },
        {
            "positions": [
                0.274795314111667,
                -1.60514147254463,
                0.2878496600195466,
                -1.1394202125078197,
                -0.6626333863851516,
                -2.3024119049930842
            ]
        },
        {
            "positions": [
                0.1693689129224789,
                -1.6208285087380307,
                0.38382653759079055,
                -1.1216319173960725,
                -0.6231414947929377,
                -2.421735018563453
            ]
        },
        {
            "positions": [
                0.06394251173329124,
                -1.6365155449314315,
                0.4798034151620345,
                -1.1038436222843253,
                -0.5836496032007238,
                -2.5410581321338217
            ]
        },
        {
            "positions": [
                -0.04148388945589643,
                -1.6522025811248322,
                0.5757802927332785,
                -1.086055327172578,
                -0.5441577116085099,
                -2.6603812457041904
            ]
        },
        {
            "positions": [
                -0.1469102906450841,
                -1.6678896173182327,
                0.6717571703045229,
                -1.0682670320608307,
                -0.5046658200162961,
                -2.779704359274559
            ]
        },
        {
            "positions": [
                -0.25233669183427176,
                -1.6835766535116334,
                0.7677340478757668,
                -1.0504787369490836,
                -0.46517392842408234,
                -2.8990274728449283
            ]
        },
        {
            "positions": [
                -0.35776309302345943,
                -1.6992636897050342,
                0.8637109254470108,
                -1.0326904418373362,
                -0.42568203683186834,
                -3.018350586415297
            ]
        },
        {
            "positions": [
                -0.463189494212647,
                -1.714950725898435,
                0.959687803018255,
                -1.014902146725589,
                -0.38619014523965456,
                -3.137673699985666
            ]
        },
        {
            "positions": [
                -0.3898935844139748,
                -1.6442173691134483,
                1.0882920061267873,
                -0.9954982567524556,
                -0.3215760836470045,
                -3.136173300329146
            ]
        },
        {
            "positions": [
                -0.31659767461530264,
                -1.5734840123284615,
                1.2168962092353197,
                -0.9760943667793223,
                -0.2569620220543545,
                -3.1346729006726264
            ]
        },
        {
            "positions": [
                -0.2433017648166304,
                -1.5027506555434749,
                1.3455004123438519,
                -0.9566904768061889,
                -0.1923479604617045,
                -3.133172501016107
            ]
        },
        {
            "positions": [
                -0.17000585501795823,
                -1.4320172987584883,
                1.4741046154523842,
                -0.9372865868330555,
                -0.12773389886905445,
                -3.131672101359587
            ]
        },
        {
            "positions": [
                -0.09670994521928605,
                -1.3612839419735014,
                1.6027088185609166,
                -0.9178826968599221,
                -0.06311983727640441,
                -3.130171701703067
            ]
        },
        {
            "positions": [
                -0.02341403542061382,
                -1.2905505851885148,
                1.731313021669449,
                -0.8984788068867887,
                0.0014942243162455737,
                -3.1286713020465475
            ]
        },
        {
            "positions": [
                0.049881874378058355,
                -1.219817228403528,
                1.8599172247779814,
                -0.8790749169136554,
                0.06610828590889561,
                -3.127170902390028
            ]
        },
        {
            "positions": [
                0.12317778417673055,
                -1.1490838716185414,
                1.9885214278865138,
                -0.859671026940522,
                0.13072234750154568,
                -3.125670502733508
            ]
        }
    ]
}