{
    "goal": {
        "global_pose": {
            "orientation": {
                "w": 0.7031023502349854,
                "x": -0.7110244035720825,
                "y": 0.007748599164187908,
                "z": 0.005598929710686207
            },
            "position": {
                "x": 0.11585023208521307,
                "y": 0.44412534475326537,
                "z": 0.3711530566215515
            }
        },
        "name": "move_to_auspresseinheit_A"
    },
    "id": "BFMT_move_to_auspresseinheit_A_142",
    "joint_names": [
        "shoulder_pan_joint",
        "shoulder_lift_joint",
        "elbow_joint",
        "wrist_1_joint",
        "wrist_2_joint",
        "wrist_3_joint"
    ],
    "metrics": {
        "cart_traj_len": 2.013659452583327,
        "distance_elbow_joint": 0.047485073124042376,
        "distance_shoulder_lift_joint": 0.8119421957746651,
        "distance_shoulder_pan_joint": 2.960111379251652,
        "distance_wrist_1_joint": 5.949586054944178,
        "distance_wrist_2_joint": 5.595747216811471,
        "distance_wrist_3_joint": 0.6994849612648859,
        "smoothness": 0.7083593817179467,
        "time": 0.58021839,
        "traj_len": 4.008036536905682,
        "weighted_distance": 5.38596881493537
    },
    "planner": "BFMT",
    "start": {
        "state": {
            "elbow_joint": 2.4225746658250005,
            "shoulder_lift_joint": -1.3736534386056498,
            "shoulder_pan_joint": -0.3378633547517467,
            "wrist_1_joint": -1.0288598680537169,
            "wrist_2_joint": 1.233022673432363,
            "wrist_3_joint": -3.0940220416140027
        }
    },
    "waypoints": [
        {
            "positions": [
                -0.3378633547517467,
                -1.3736534386056498,
                2.4225746658250005,
                -1.0288598680537169,
                1.233022673432363,
                -3.0940220416140027
            ]
        },
        {
            "positions": [
                -0.385675430156084,
                -1.3667397908968995,
                2.4230941019423216,
                -0.86636645730315,
                1.080245296095314,
                -3.0775451072134974
            ]
        },
        {
            "positions": [
                -0.4334875055604213,
                -1.359826143188149,
                2.423613538059643,
                -0.7038730465525831,
                0.927467918758265,
                -3.061068172812992
            ]
        },
        {
            "positions": [
                -0.4812995809647586,
                -1.3529124954793987,
                2.424132974176964,
                -0.5413796358020162,
                0.774690541421216,
                -3.044591238412487
            ]
        },
        {
            "positions": [
                -0.5291116563690959,
                -1.3459988477706484,
                2.4246524102942852,
                -0.3788862250514493,
                0.6219131640841669,
                -3.028114304011982
            ]
        },
        {
            "positions": [
                -0.5769237317734333,
                -1.339085200061898,
                2.4251718464116063,
                -0.21639281430088242,
                0.46913578674711787,
                -3.0116373696114764
            ]
        },
        {
            "positions": [
                -0.6247358071777704,
                -1.3321715523531479,
                2.425691282528928,
                -0.05389940355031553,
                0.3163584094100689,
                -2.995160435210971
            ]
        },
        {
            "positions": [
                -0.6725478825821078,
                -1.3252579046443975,
                2.426210718646249,
                0.10859400720025136,
                0.16358103207301977,
                -2.9786835008104657
            ]
        },
        {
            "positions": [
                -0.720359957986445,
                -1.3183442569356472,
                2.42673015476357,
                0.27108741795081825,
                0.01080365473597067,
                -2.962206566409961
            ]
        },
        {
            "positions": [
                -0.7681720333907824,
                -1.3114306092268968,
                2.4272495908808915,
                0.43358082870138515,
                -0.1419737226010782,
                -2.9457296320094555
            ]
        },
        {
            "positions": [
                -0.8159841087951196,
                -1.3045169615181464,
                2.4277690269982126,
                0.596074239451952,
                -0.2947510999381273,
                -2.92925269760895
            ]
        },
        {
            "positions": [
                -0.863796184199457,
                -1.297603313809396,
                2.4282884631155337,
                0.7585676502025192,
                -0.4475284772751764,
                -2.912775763208445
            ]
        },
        {
            "positions": [
                -0.9116082596037942,
                -1.2906896661006457,
                2.4288078992328552,
                0.9210610609530858,
                -0.6003058546122253,
                -2.8962988288079394
            ]
        },
        {
            "positions": [
                -0.9594203350081316,
                -1.2837760183918954,
                2.4293273353501763,
                1.0835544717036527,
                -0.7530832319492744,
                -2.8798218944074345
            ]
        },
        {
            "positions": [
                -1.0072324104124688,
                -1.276862370683145,
                2.4298467714674974,
                1.2460478824542196,
                -0.9058606092863235,
                -2.863344960006929
            ]
        },
        {
            "positions": [
                -1.0550444858168062,
                -1.2699487229743949,
                2.430366207584819,
                1.4085412932047865,
                -1.0586379866233726,
                -2.846868025606424
            ]
        },
        {
            "positions": [
                -1.1028565612211434,
                -1.2630350752656445,
                2.43088564370214,
                1.5710347039553534,
                -1.2114153639604217,
                -2.8303910912059185
            ]
        },
        {
            "positions": [
                -1.1506686366254808,
                -1.2561214275568942,
                2.431405079819461,
                1.7335281147059203,
                -1.3641927412974704,
                -2.813914156805413
            ]
        },
        {
            "positions": [
                -1.198480712029818,
                -1.2492077798481438,
                2.431924515936782,
                1.8960215254564872,
                -1.5169701186345195,
                -2.797437222404908
            ]
        },
        {
            "positions": [
                -1.2462927874341554,
                -1.2422941321393934,
                2.4324439520541037,
                2.058514936207054,
                -1.6697474959715686,
                -2.780960288004403
            ]
        },
        {
            "positions": [
                -1.2941048628384926,
                -1.235380484430643,
                2.4329633881714248,
                2.2210083469576207,
                -1.8225248733086177,
                -2.7644833536038975
            ]
        },
        {
            "positions": [
                -1.2030198686946332,
                -1.266001813594264,
                2.4312771904088057,
                2.0982938996879463,
                -1.7070612519417774,
                -2.7812990932972967
            ]
        },
        {
            "positions": [
                -1.1119348745507738,
                -1.2966231427578847,
                2.4295909926461867,
                1.9755794524182715,
                -1.591597630574937,
                -2.798114832990696
            ]
        },
        {
            "positions": [
                -1.0208498804069144,
                -1.3272444719215055,
                2.4279047948835677,
                1.852865005148597,
                -1.4761340092080968,
                -2.8149305726840947
            ]
        },
        {
            "positions": [
                -0.9297648862630549,
                -1.3578658010851263,
                2.4262185971209487,
                1.7301505578789225,
                -1.3606703878412565,
                -2.831746312377494
            ]
        },
        {
            "positions": [
                -0.8386798921191955,
                -1.3884871302487471,
                2.4245323993583296,
                1.6074361106092478,
                -1.2452067664744162,
                -2.848562052070893
            ]
        },
        {
            "positions": [
                -0.7475948979753361,
                -1.4191084594123682,
                2.4228462015957106,
                1.4847216633395734,
                -1.129743145107576,
                -2.8653777917642924
            ]
        },
        {
            "positions": [
                -0.6565099038314767,
                -1.449729788575989,
                2.4211600038330916,
                1.3620072160698986,
                -1.0142795237407356,
                -2.882193531457691
            ]
        },
        {
            "positions": [
                -0.5654249096876172,
                -1.4803511177396098,
                2.4194738060704726,
                1.2392927688002242,
                -0.8988159023738953,
                -2.8990092711510904
            ]
        },
        {
            "positions": [
                -0.47433991554375776,
                -1.5109724469032306,
                2.4177876083078536,
                1.1165783215305494,
                -0.783352281007055,
                -2.9158250108444896
            ]
        },
        {
            "positions": [
                -0.38325492139989836,
                -1.5415937760668514,
                2.4161014105452345,
                0.993863874260875,
                -0.6678886596402147,
                -2.932640750537889
            ]
        },
        {
            "positions": [
                -0.29216992725603896,
                -1.5722151052304723,
                2.4144152127826155,
                0.8711494269912003,
                -0.5524250382733744,
                -2.949456490231288
            ]
        },
        {
            "positions": [
                -0.20108493311217956,
                -1.602836434394093,
                2.412729015019997,
                0.748434979721526,
                -0.4369614169065341,
                -2.966272229924687
            ]
        },
        {
            "positions": [
                -0.10999993896832017,
                -1.6334577635577139,
                2.411042817257378,
                0.6257205324518511,
                -0.3214977955396938,
                -2.983087969618086
            ]
        },
        {
            "positions": [
                -0.018914944824460767,
                -1.6640790927213347,
                2.409356619494759,
                0.5030060851821767,
                -0.20603417417285352,
                -2.9999037093114853
            ]
        },
        {
            "positions": [
                0.07217004931939863,
                -1.6947004218849555,
                2.40767042173214,
                0.3802916379125021,
                -0.09057055280601345,
                -3.016719449004884
            ]
        },
        {
            "positions": [
                0.16325504346325825,
                -1.7253217510485763,
                2.405984223969521,
                0.25757719064282747,
                0.02489306856082707,
                -3.0335351886982833
            ]
        },
        {
            "positions": [
                0.25434003760711743,
                -1.7559430802121971,
                2.404298026206902,
                0.13486274337315285,
                0.14035668992766737,
                -3.0503509283916825
            ]
        },
        {
            "positions": [
                0.34542503175097705,
                -1.7865644093758182,
                2.402611828444283,
                0.012148296103478007,
                0.25582031129450766,
                -3.0671666680850818
            ]
        },
        {
            "positions": [
                0.43651002589483645,
                -1.817185738539439,
                2.4009256306816638,
                -0.11056615116619639,
                0.37128393266134796,
                -3.083982407778481
            ]
        },
        {
            "positions": [
                0.5275950200386958,
                -1.8478070677030596,
                2.3992394329190447,
                -0.2332805984358708,
                0.48674755402818826,
                -3.1007981474718798
            ]
        },
        {
            "positions": [
                0.6186800141825552,
                -1.8784283968666806,
                2.3975532351564257,
                -0.35599504570554563,
                0.6022111753950286,
                -3.117613887165279
            ]
        },
        {
            "positions": [
                0.7097650083264145,
                -1.9090497260303014,
                2.3958670373938067,
                -0.47870949297521986,
                0.7176747967618691,
                -3.134429626858678
            ]
        }
    ]
}