{
    "goal": {
        "global_pose": {
            "orientation": {
                "w": 0.7047431493862688,
                "x": -0.7094548369677653,
                "y": 0.0024358444001904,
                "z": -0.0022348060817251984
            },
            "position": {
                "x": -0.39052492380142206,
                "y": 0.3671506643295288,
                "z": 0.19426114857196808
            }
        },
        "name": "move_to_magneteinheit_D"
    },
    "id": "BFMT_move_to_magneteinheit_D_119",
    "joint_names": [
        "shoulder_pan_joint",
        "shoulder_lift_joint",
        "elbow_joint",
        "wrist_1_joint",
        "wrist_2_joint",
        "wrist_3_joint"
    ],
    "metrics": {
        "cart_traj_len": 4.380335200697048,
        "distance_elbow_joint": 3.1630823433649566,
        "distance_shoulder_lift_joint": 1.6336810209429855,
        "distance_shoulder_pan_joint": 3.8135239958819547,
        "distance_wrist_1_joint": 1.6639554974393844,
        "distance_wrist_2_joint": 0.8243802280265403,
        "distance_wrist_3_joint": 3.4546466923281764,
        "smoothness": 0.4414125866214012,
        "time": 1.184125534,
        "traj_len": 3.8148748050209984,
        "weighted_distance": 4.893965558532906
    },
    "planner": "BFMT",
    "start": {
        "state": {
            "elbow_joint": 0.749534889911806,
            "shoulder_lift_joint": -0.6476975780787326,
            "shoulder_pan_joint": -2.711696901376241,
            "wrist_1_joint": -0.07506478083263063,
            "wrist_2_joint": 0.43296659715538205,
            "wrist_3_joint": -3.14703540197715
        }
    },
    "waypoints": [
        {
            "positions": [
                -2.711696901376241,
                -0.6476975780787326,
                0.749534889911806,
                -0.07506478083263063,
                0.43296659715538205,
                -3.14703540197715
            ]
        },
        {
            "positions": [
                -2.7496275558346044,
                -0.7065987888679752,
                0.7382453579155326,
                -0.08990710593038809,
                0.3935338301428013,
                -2.9546917577931993
            ]
        },
        {
            "positions": [
                -2.7875582102929677,
                -0.7654999996572179,
                0.7269558259192591,
                -0.10474943102814556,
                0.3541010631302206,
                -2.7623481136092485
            ]
        },
        {
            "positions": [
                -2.7663849272697902,
                -0.8012696556071508,
                0.7086489159384746,
                -0.10619105412574886,
                0.3325199423693183,
                -2.6558263724966142
            ]
        },
        {
            "positions": [
                -2.7452116442466123,
                -0.8370393115570837,
                0.6903420059576899,
                -0.10763267722335218,
                0.310938821608416,
                -2.5493046313839804
            ]
        },
        {
            "positions": [
                -2.640968237884995,
                -0.8727516226603094,
                0.5875353513715003,
                -0.06332318652580944,
                0.3203892910829626,
                -2.459508672144122
            ]
        },
        {
            "positions": [
                -2.5367248315233777,
                -0.9084639337635351,
                0.4847286967853106,
                -0.019013695828266702,
                0.3298397605575092,
                -2.3697127129042634
            ]
        },
        {
            "positions": [
                -2.43248142516176,
                -0.9441762448667608,
                0.3819220421991209,
                0.02529579486927605,
                0.3392902300320558,
                -2.279916753664405
            ]
        },
        {
            "positions": [
                -2.3282380188001426,
                -0.9798885559699865,
                0.27911538761293125,
                0.06960528556681878,
                0.34874069950660236,
                -2.1901207944245464
            ]
        },
        {
            "positions": [
                -2.223994612438525,
                -1.0156008670732122,
                0.17630873302674166,
                0.1139147762643615,
                0.35819116898114894,
                -2.100324835184688
            ]
        },
        {
            "positions": [
                -2.119751206076908,
                -1.051313178176438,
                0.0735020784405519,
                0.15822426696190428,
                0.36764163845569553,
                -2.0105288759448294
            ]
        },
        {
            "positions": [
                -2.0155077997152904,
                -1.0870254892796636,
                -0.02930457614563775,
                0.20253375765944698,
                0.37709210793024206,
                -1.9207329167049711
            ]
        },
        {
            "positions": [
                -1.911264393353673,
                -1.1227378003828894,
                -0.1321112307318274,
                0.24684324835698973,
                0.3865425774047887,
                -1.8309369574651129
            ]
        },
        {
            "positions": [
                -1.8070209869920557,
                -1.158450111486115,
                -0.23491788531801705,
                0.29115273905453243,
                0.39599304687933523,
                -1.7411409982252544
            ]
        },
        {
            "positions": [
                -1.7027775806304382,
                -1.1941624225893408,
                -0.3377245399042066,
                0.3354622297520752,
                0.4054435163538818,
                -1.6513450389853959
            ]
        },
        {
            "positions": [
                -1.5985341742688208,
                -1.2298747336925664,
                -0.44053119449039624,
                0.3797717204496179,
                0.4148939858284284,
                -1.5615490797455376
            ]
        },
        {
            "positions": [
                -1.4942907679072033,
                -1.2655870447957922,
                -0.5433378490765861,
                0.42408121114716074,
                0.424344455302975,
                -1.4717531205056789
            ]
        },
        {
            "positions": [
                -1.390047361545586,
                -1.301299355899018,
                -0.6461445036627758,
                0.4683907018447034,
                0.4337949247775216,
                -1.3819571612658204
            ]
        },
        {
            "positions": [
                -1.2858039551839684,
                -1.3370116670022436,
                -0.7489511582489654,
                0.5127001925422461,
                0.44324539425206816,
                -1.292161202025962
            ]
        },
        {
            "positions": [
                -1.181560548822351,
                -1.3727239781054692,
                -0.8517578128351551,
                0.5570096832397888,
                0.45269586372661474,
                -1.2023652427861036
            ]
        },
        {
            "positions": [
                -1.0773171424607337,
                -1.408436289208695,
                -0.9545644674213447,
                0.6013191739373316,
                0.46214633320116133,
                -1.112569283546245
            ]
        },
        {
            "positions": [
                -0.9730737360991162,
                -1.4441486003119208,
                -1.0573711220075344,
                0.6456286646348743,
                0.4715968026757079,
                -1.0227733243063868
            ]
        },
        {
            "positions": [
                -0.8688303297374989,
                -1.4798609114151464,
                -1.160177776593724,
                0.6899381553324171,
                0.48104727215025445,
                -0.9329773650665283
            ]
        },
        {
            "positions": [
                -0.7645869233758815,
                -1.515573222518372,
                -1.2629844311799137,
                0.7342476460299598,
                0.4904977416248011,
                -0.8431814058266698
            ]
        },
        {
            "positions": [
                -0.660343517014264,
                -1.5512855336215978,
                -1.365791085766103,
                0.7785571367275026,
                0.4999482110993476,
                -0.7533854465868113
            ]
        },
        {
            "positions": [
                -0.5561001106526469,
                -1.5869978447248236,
                -1.468597740352293,
                0.8228666274250453,
                0.5093986805738943,
                -0.663589487346953
            ]
        },
        {
            "positions": [
                -0.4518567042910293,
                -1.6227101558280492,
                -1.5714043949384824,
                0.8671761181225879,
                0.5188491500484408,
                -0.5737935281070945
            ]
        },
        {
            "positions": [
                -0.34761329792941176,
                -1.658422466931275,
                -1.6742110495246727,
                0.9114856088201309,
                0.5282996195229874,
                -0.48399756886723555
            ]
        },
        {
            "positions": [
                -0.2433698915677942,
                -1.6941347780345009,
                -1.7770177041108621,
                0.9557950995176736,
                0.537750088997534,
                -0.39420160962737727
            ]
        },
        {
            "positions": [
                -0.13912648520617665,
                -1.7298470891377264,
                -1.879824358697052,
                1.0001045902152164,
                0.5472005584720806,
                -0.304405650387519
            ]
        },
        {
            "positions": [
                -0.034883078844559545,
                -1.765559400240952,
                -1.9826310132832414,
                1.044414080912759,
                0.5566510279466271,
                -0.21460969114766026
            ]
        },
        {
            "positions": [
                0.069360327517058,
                -1.8012717113441779,
                -2.0854376678694315,
                1.0887235716103016,
                0.5661014974211738,
                -0.12481373190780198
            ]
        },
        {
            "positions": [
                0.17360373387867556,
                -1.8369840224474037,
                -2.1882443224556205,
                1.1330330623078444,
                0.5755519668957203,
                -0.0350177726679437
            ]
        },
        {
            "positions": [
                0.27784714024029267,
                -1.8726963335506293,
                -2.2910509770418104,
                1.1773425530053871,
                0.5850024363702668,
                0.05477818657191502
            ]
        },
        {
            "positions": [
                0.3820905466019102,
                -1.9084086446538548,
                -2.393857631628,
                1.22165204370293,
                0.5944529058448135,
                0.1445741458117733
            ]
        },
        {
            "positions": [
                0.2684877605878403,
                -1.9830026355274275,
                -2.3899196672629697,
                1.2820726197274062,
                0.5106852321961781,
                0.1119667169039226
            ]
        },
        {
            "positions": [
                0.1548849745737704,
                -2.057596626401,
                -2.3859817028979395,
                1.3424931957518822,
                0.4269175585475427,
                0.0793592879960719
            ]
        },
        {
            "positions": [
                0.041282188559700506,
                -2.132190617274573,
                -2.3820437385329094,
                1.4029137717763585,
                0.34314988489890735,
                0.04675185908822123
            ]
        },
        {
            "positions": [
                -0.07232059745436942,
                -2.2067846081481455,
                -2.3781057741678793,
                1.4633343478008345,
                0.25938221125027194,
                0.01414443018037051
            ]
        },
        {
            "positions": [
                -0.18592338346843928,
                -2.281378599021718,
                -2.374167809802849,
                1.5237549238253107,
                0.17561453760163662,
                -0.01846299872748017
            ]
        }
    ]
}