{
    "goal": {
        "global_pose": {
            "orientation": {
                "w": -0.4816463035849501,
                "x": 0.5182115481033762,
                "y": 0.4908360881923453,
                "z": -0.5084816262002911
            },
            "position": {
                "x": -0.8240239810943604,
                "y": -0.300875300988555,
                "z": 0.16403168439865112
            }
        },
        "name": "move_to_storage_C"
    },
    "id": "BFMT_move_to_storage_C_2",
    "joint_names": [
        "shoulder_pan_joint",
        "shoulder_lift_joint",
        "elbow_joint",
        "wrist_1_joint",
        "wrist_2_joint",
        "wrist_3_joint"
    ],
    "metrics": {
        "cart_traj_len": 0.5768436899660425,
        "distance_elbow_joint": 0.2579009407732613,
        "distance_shoulder_lift_joint": 0.18992486399151587,
        "distance_shoulder_pan_joint": 0.49457380263341877,
        "distance_wrist_1_joint": 0.07245808597368619,
        "distance_wrist_2_joint": 1.0662277186848779,
        "distance_wrist_3_joint": 0.06112790654983247,
        "smoothness": 0.0,
        "time": 0.461701401,
        "traj_len": 1.46363018505584,
        "weighted_distance": 1.8447641953281784
    },
    "planner": "BFMT",
    "start": {
        "state": {
            "elbow_joint": 2.010868314990456,
            "shoulder_lift_joint": -1.1634956873337592,
            "shoulder_pan_joint": -2.4736205022346125,
            "wrist_1_joint": -0.8367026794202681,
            "wrist_2_joint": 0.6746043897044499,
            "wrist_3_joint": -3.1496632123970403
        }
    },
    "waypoints": [
        {
            "positions": [
                -2.4736205022346125,
                -1.1634956873337592,
                2.010868314990456,
                -0.8367026794202681,
                0.6746043897044499,
                -3.1496632123970403
            ]
        },
        {
            "positions": [
                -2.5560494693401825,
                -1.1318415433351732,
                1.967884824861579,
                -0.824626331757987,
                0.8523090094852629,
                -3.1394752279720683
            ]
        },
        {
            "positions": [
                -2.638478436445752,
                -1.1001873993365872,
                1.924901334732702,
                -0.812549984095706,
                1.030013629266076,
                -3.129287243547096
            ]
        },
        {
            "positions": [
                -2.7209074035513217,
                -1.0685332553380014,
                1.8819178446038252,
                -0.8004736364334251,
                1.2077182490468887,
                -3.119099259122124
            ]
        },
        {
            "positions": [
                -2.8033363706568917,
                -1.0368791113394153,
                1.8389343544749484,
                -0.788397288771144,
                1.385422868827702,
                -3.108911274697152
            ]
        },
        {
            "positions": [
                -2.8857653377624617,
                -1.0052249673408293,
                1.7959508643460713,
                -0.776320941108863,
                1.5631274886085147,
                -3.0987232902721797
            ]
        },
        {
            "positions": [
                -2.9681943048680313,
                -0.9735708233422433,
                1.7529673742171945,
                -0.7642445934465819,
                1.740832108389328,
                -3.088535305847208
            ]
        }
    ]
}