{
    "goal": {
        "global_pose": {
            "orientation": {
                "w": 0.7047431468963623,
                "x": -0.7094548344612122,
                "y": 0.0024358443915843964,
                "z": -0.0022348060738295317
            },
            "position": {
                "x": 0.6094750761985779,
                "y": 0.3671506643295288,
                "z": 0.19426114857196808
            }
        },
        "name": "move_to_magneteinheit_A"
    },
    "id": "BFMT_move_to_magneteinheit_A_23",
    "joint_names": [
        "shoulder_pan_joint",
        "shoulder_lift_joint",
        "elbow_joint",
        "wrist_1_joint",
        "wrist_2_joint",
        "wrist_3_joint"
    ],
    "metrics": {
        "cart_traj_len": 3.277658360258668,
        "distance_elbow_joint": 3.8757584844019757,
        "distance_shoulder_lift_joint": 0.11319771573921078,
        "distance_shoulder_pan_joint": 2.7211764781232435,
        "distance_wrist_1_joint": 0.917958034514521,
        "distance_wrist_2_joint": 1.6952827782213504,
        "distance_wrist_3_joint": 2.5813727139352594,
        "smoothness": 0.12001492990683378,
        "time": 0.895940183,
        "traj_len": 3.450325521590037,
        "weighted_distance": 4.4362971547837
    },
    "planner": "BFMT",
    "start": {
        "state": {
            "elbow_joint": -1.9196185241190666,
            "shoulder_lift_joint": -1.2443396400964142,
            "shoulder_pan_joint": 2.6996025414629847,
            "wrist_1_joint": -1.5485510000780065,
            "wrist_2_joint": -1.5709468930060704,
            "wrist_3_joint": 0.4420197071253992
        }
    },
    "waypoints": [
        {
            "positions": [
                2.6996025414629847,
                -1.2443396400964142,
                -1.9196185241190666,
                -1.5485510000780065,
                -1.5709468930060704,
                0.4420197071253992
            ]
        },
        {
            "positions": [
                2.58721753478928,
                -1.2434830383427984,
                -1.8133558876051854,
                -1.5096885336270611,
                -1.5233854775205828,
                0.5174845663328147
            ]
        },
        {
            "positions": [
                2.4748325281155754,
                -1.2426264365891826,
                -1.707093251091304,
                -1.4708260671761157,
                -1.4758240620350955,
                0.5929494255402301
            ]
        },
        {
            "positions": [
                2.3624475214418705,
                -1.241769834835567,
                -1.6008306145774227,
                -1.4319636007251704,
                -1.428262646549608,
                0.6684142847476455
            ]
        },
        {
            "positions": [
                2.2500625147681657,
                -1.2409132330819512,
                -1.4945679780635412,
                -1.3931011342742252,
                -1.3807012310641207,
                0.743879143955061
            ]
        },
        {
            "positions": [
                2.1376775080944608,
                -1.2400566313283354,
                -1.38830534154966,
                -1.3542386678232798,
                -1.3331398155786331,
                0.8193440031624765
            ]
        },
        {
            "positions": [
                2.025292501420756,
                -1.2392000295747196,
                -1.2820427050357788,
                -1.3153762013723345,
                -1.2855784000931456,
                0.894808862369892
            ]
        },
        {
            "positions": [
                1.9129074947470515,
                -1.238343427821104,
                -1.1757800685218973,
                -1.276513734921389,
                -1.2380169846076583,
                0.9702737215773074
            ]
        },
        {
            "positions": [
                1.8005224880733466,
                -1.2374868260674883,
                -1.0695174320080159,
                -1.2376512684704437,
                -1.1904555691221708,
                1.045738580784723
            ]
        },
        {
            "positions": [
                1.688137481399642,
                -1.2366302243138725,
                -0.9632547954941346,
                -1.1987888020194983,
                -1.1428941536366835,
                1.1212034399921382
            ]
        },
        {
            "positions": [
                1.575752474725937,
                -1.2357736225602567,
                -0.8569921589802534,
                -1.159926335568553,
                -1.095332738151196,
                1.1966682991995539
            ]
        },
        {
            "positions": [
                1.4633674680522322,
                -1.2349170208066411,
                -0.7507295224663717,
                -1.1210638691176076,
                -1.0477713226657084,
                1.2721331584069695
            ]
        },
        {
            "positions": [
                1.3509824613785275,
                -1.2340604190530253,
                -0.6444668859524907,
                -1.0822014026666624,
                -1.000209907180221,
                1.3475980176143847
            ]
        },
        {
            "positions": [
                1.2385974547048226,
                -1.2332038172994095,
                -0.5382042494386092,
                -1.043338936215717,
                -0.9526484916947335,
                1.4230628768218003
            ]
        },
        {
            "positions": [
                1.126212448031118,
                -1.2323472155457937,
                -0.431941612924728,
                -1.0044764697647717,
                -0.9050870762092461,
                1.4985277360292155
            ]
        },
        {
            "positions": [
                1.013827441357413,
                -1.2314906137921782,
                -0.32567897641084653,
                -0.9656140033138263,
                -0.8575256607237586,
                1.5739925952366312
            ]
        },
        {
            "positions": [
                0.9014424346837084,
                -1.2306340120385624,
                -0.2194163398969653,
                -0.926751536862881,
                -0.8099642452382713,
                1.6494574544440468
            ]
        },
        {
            "positions": [
                0.7890574280100036,
                -1.2297774102849466,
                -0.11315370338308384,
                -0.8878890704119357,
                -0.7624028297527837,
                1.724922313651462
            ]
        },
        {
            "positions": [
                0.6766724213362991,
                -1.2289208085313308,
                -0.0068910668692026,
                -0.8490266039609903,
                -0.7148414142672963,
                1.8003871728588776
            ]
        },
        {
            "positions": [
                0.5642874146625938,
                -1.2280642067777152,
                0.09937156964467908,
                -0.8101641375100449,
                -0.6672799987818088,
                1.8758520320662933
            ]
        },
        {
            "positions": [
                0.45190240798888937,
                -1.2272076050240994,
                0.20563420615855987,
                -0.7713016710590996,
                -0.6197185832963215,
                1.9513168912737084
            ]
        },
        {
            "positions": [
                0.3395174013151844,
                -1.2263510032704836,
                0.31189684267244167,
                -0.7324392046081543,
                -0.5721571678108339,
                2.026781750481124
            ]
        },
        {
            "positions": [
                0.30734722950492954,
                -1.2174946316229636,
                0.47558880998308983,
                -0.7255863116212274,
                -0.5076510638883608,
                2.120022742266759
            ]
        },
        {
            "positions": [
                0.2751770576946747,
                -1.2086382599754435,
                0.6392807772937379,
                -0.7187334186343006,
                -0.4431449599658877,
                2.2132637340523935
            ]
        },
        {
            "positions": [
                0.24300688588441988,
                -1.1997818883279234,
                0.8029727446043862,
                -0.7118805256473739,
                -0.37863885604341463,
                2.3065047258380282
            ]
        },
        {
            "positions": [
                0.21083671407416504,
                -1.1909255166804034,
                0.9666647119150342,
                -0.7050276326604471,
                -0.3141327521209415,
                2.399745717623663
            ]
        },
        {
            "positions": [
                0.1786665422639102,
                -1.182069145032883,
                1.1303566792256825,
                -0.6981747396735203,
                -0.24962664819846836,
                2.492986709409298
            ]
        },
        {
            "positions": [
                0.14649637045365538,
                -1.173212773385363,
                1.2940486465363306,
                -0.6913218466865935,
                -0.18512054427599528,
                2.5862277011949324
            ]
        },
        {
            "positions": [
                0.11432619864340055,
                -1.164356401737843,
                1.4577406138469788,
                -0.6844689536996668,
                -0.12061444035352215,
                2.6794686929805676
            ]
        },
        {
            "positions": [
                0.08215602683314571,
                -1.1555000300903229,
                1.621432581157627,
                -0.6776160607127399,
                -0.056108336431049066,
                2.7727096847662023
            ]
        },
        {
            "positions": [
                0.04998585502289088,
                -1.1466436584428028,
                1.7851245484682752,
                -0.6707631677258131,
                0.00839776749142411,
                2.865950676551837
            ]
        },
        {
            "positions": [
                0.08576575086446606,
                -1.138892791400003,
                1.8706322543755922,
                -0.6908482688069769,
                0.06636682635335225,
                2.944671548806248
            ]
        },
        {
            "positions": [
                0.12154564670604123,
                -1.1311419243572034,
                1.9561399602829095,
                -0.7109333698881407,
                0.12433588521528041,
                3.0233924210606586
            ]
        }
    ]
}