{
    "goal": {
        "global_pose": {
            "orientation": {
                "w": 0.7031023480610252,
                "x": -0.7110244013736278,
                "y": 0.0077485991402295624,
                "z": 0.005598929693374583
            },
            "position": {
                "x": -0.8841497679147869,
                "y": 0.44412534475326537,
                "z": 0.3711530566215515
            }
        },
        "name": "move_to_auspresseinheit_D"
    },
    "id": "BFMT_move_to_auspresseinheit_D_18",
    "joint_names": [
        "shoulder_pan_joint",
        "shoulder_lift_joint",
        "elbow_joint",
        "wrist_1_joint",
        "wrist_2_joint",
        "wrist_3_joint"
    ],
    "metrics": {
        "cart_traj_len": 0.3435242853850115,
        "distance_elbow_joint": 0.6584822748562786,
        "distance_shoulder_lift_joint": 0.13287445306652446,
        "distance_shoulder_pan_joint": 0.1336798586984283,
        "distance_wrist_1_joint": 0.604708288977589,
        "distance_wrist_2_joint": 1.4332997347653684,
        "distance_wrist_3_joint": 0.05959341384779382,
        "smoothness": 1.9737298371844314e-16,
        "time": 0.45435071299999996,
        "traj_len": 1.738573560195824,
        "weighted_distance": 2.2759246199403282
    },
    "planner": "BFMT",
    "start": {
        "state": {
            "elbow_joint": -1.8275523626775212,
            "shoulder_lift_joint": -2.126789852344167,
            "shoulder_pan_joint": -0.03513704404078235,
            "wrist_1_joint": -2.347782403156801,
            "wrist_2_joint": -1.6058999987535132,
            "wrist_3_joint": -3.0880379163319196
        }
    },
    "waypoints": [
        {
            "positions": [
                -0.03513704404078235,
                -2.126789852344167,
                -1.8275523626775212,
                -2.347782403156801,
                -1.6058999987535132,
                -3.0880379163319196
            ]
        },
        {
            "positions": [
                -0.051847026378085886,
                -2.1433991589774823,
                -1.7452420783204863,
                -2.4233709392789997,
                -1.4267375319078421,
                -3.0805887396009455
            ]
        },
        {
            "positions": [
                -0.06855700871538942,
                -2.160008465610798,
                -1.6629317939634516,
                -2.498959475401198,
                -1.247575065062171,
                -3.0731395628699714
            ]
        },
        {
            "positions": [
                -0.08526699105269296,
                -2.1766177722441133,
                -1.5806215096064167,
                -2.5745480115233965,
                -1.0684125982165,
                -3.065690386138997
            ]
        },
        {
            "positions": [
                -0.1019769733899965,
                -2.1932270788774293,
                -1.498311225249382,
                -2.6501365476455954,
                -0.889250131370829,
                -3.0582412094080227
            ]
        },
        {
            "positions": [
                -0.11868695572730004,
                -2.209836385510745,
                -1.416000940892347,
                -2.725725083767794,
                -0.7100876645251579,
                -3.0507920326770486
            ]
        },
        {
            "positions": [
                -0.13539693806460357,
                -2.2264456921440603,
                -1.3336906565353122,
                -2.8013136198899926,
                -0.5309251976794869,
                -3.043342855946074
            ]
        },
        {
            "positions": [
                -0.15210692040190713,
                -2.243054998777376,
                -1.2513803721782772,
                -2.876902156012191,
                -0.3517627308338158,
                -3.0358936792151
            ]
        },
        {
            "positions": [
                -0.16881690273921066,
                -2.2596643054106913,
                -1.1690700878212426,
                -2.95249069213439,
                -0.1726002639881448,
                -3.0284445024841258
            ]
        }
    ]
}