{
    "goal": {
        "global_pose": {
            "orientation": {
                "w": 0.005598929693374612,
                "x": 0.007748599140229565,
                "y": 0.7110244013736278,
                "z": -0.7031023480610252
            },
            "position": {
                "x": 0.1141497679147869,
                "y": -0.7141253447532654,
                "z": 0.3711530566215515
            }
        },
        "name": "move_to_auspresseinheit_B"
    },
    "id": "BFMT_move_to_auspresseinheit_B_146",
    "joint_names": [
        "shoulder_pan_joint",
        "shoulder_lift_joint",
        "elbow_joint",
        "wrist_1_joint",
        "wrist_2_joint",
        "wrist_3_joint"
    ],
    "metrics": {
        "cart_traj_len": 0.5642357819295424,
        "distance_elbow_joint": 0.060792996562195833,
        "distance_shoulder_lift_joint": 0.29408242995379097,
        "distance_shoulder_pan_joint": 0.5753226105287588,
        "distance_wrist_1_joint": 0.3151787976214251,
        "distance_wrist_2_joint": 0.9974620088559729,
        "distance_wrist_3_joint": 0.009641907529393645,
        "smoothness": 2.5376526478085547e-16,
        "time": 0.455457695,
        "traj_len": 1.5008266892121611,
        "weighted_distance": 1.8932525908044395
    },
    "planner": "BFMT",
    "start": {
        "state": {
            "elbow_joint": 2.0193083361928714,
            "shoulder_lift_joint": -1.1220246554650708,
            "shoulder_pan_joint": -1.0952077554168747,
            "wrist_1_joint": -0.8559753972642168,
            "wrist_2_joint": 0.4759566250798843,
            "wrist_3_joint": -3.1240929996934557
        }
    },
    "waypoints": [
        {
            "positions": [
                -1.0952077554168747,
                -1.1220246554650708,
                2.0193083361928714,
                -0.8559753972642168,
                0.4759566250798843,
                -3.1240929996934557
            ]
        },
        {
            "positions": [
                -1.1910948571716677,
                -1.1710383937907025,
                2.009176170099172,
                -0.8034455976606459,
                0.6422002932225465,
                -3.122486015105223
            ]
        },
        {
            "positions": [
                -1.2869819589264608,
                -1.2200521321163345,
                1.9990440040054729,
                -0.7509157980570751,
                0.8084439613652086,
                -3.120879030516991
            ]
        },
        {
            "positions": [
                -1.3828690606812541,
                -1.2690658704419664,
                1.9889118379117736,
                -0.6983859984535042,
                0.9746876295078708,
                -3.119272045928759
            ]
        },
        {
            "positions": [
                -1.478756162436047,
                -1.318079608767598,
                1.9787796718180741,
                -0.6458561988499334,
                1.1409312976505328,
                -3.1176650613405266
            ]
        },
        {
            "positions": [
                -1.5746432641908403,
                -1.3670933470932298,
                1.9686475057243749,
                -0.5933263992463625,
                1.307174965793195,
                -3.116058076752294
            ]
        },
        {
            "positions": [
                -1.6705303659456334,
                -1.4161070854188618,
                1.9585153396306756,
                -0.5407965996427917,
                1.4734186339358573,
                -3.114451092164062
            ]
        }
    ]
}