{
    "goal": {
        "global_pose": {
            "orientation": {
                "w": 0.005598929693374612,
                "x": 0.007748599140229565,
                "y": 0.7110244013736278,
                "z": -0.7031023480610252
            },
            "position": {
                "x": -0.8858502320852131,
                "y": -0.7141253447532654,
                "z": 0.3711530566215515
            }
        },
        "name": "move_to_auspresseinheit_C"
    },
    "id": "BFMT_move_to_auspresseinheit_C_67",
    "joint_names": [
        "shoulder_pan_joint",
        "shoulder_lift_joint",
        "elbow_joint",
        "wrist_1_joint",
        "wrist_2_joint",
        "wrist_3_joint"
    ],
    "metrics": {
        "cart_traj_len": 0.49259339116202594,
        "distance_elbow_joint": 0.9941849275603621,
        "distance_shoulder_lift_joint": 0.3227584664487848,
        "distance_shoulder_pan_joint": 0.25580134609357197,
        "distance_wrist_1_joint": 0.6594684059558441,
        "distance_wrist_2_joint": 1.3185942514311537,
        "distance_wrist_3_joint": 0.03774249970901922,
        "smoothness": 3.2297397080004555e-16,
        "time": 0.42854289,
        "traj_len": 1.8943468260059286,
        "weighted_distance": 2.375309991138793
    },
    "planner": "BFMT",
    "start": {
        "state": {
            "elbow_joint": 1.7527959577737207,
            "shoulder_lift_joint": -0.9740617694225068,
            "shoulder_pan_joint": -2.967991417825858,
            "wrist_1_joint": -0.759517768980727,
            "wrist_2_joint": 1.7443932448377408,
            "wrist_3_joint": -3.0840537646736568
        }
    },
    "waypoints": [
        {
            "positions": [
                -2.967991417825858,
                -0.9740617694225068,
                1.7527959577737207,
                -0.759517768980727,
                1.7443932448377408,
                -3.0840537646736568
            ]
        },
        {
            "positions": [
                -2.942411283216501,
                -0.9417859227776283,
                1.6533774650176845,
                -0.6935709283851426,
                1.6125338196946255,
                -3.0878280146445585
            ]
        },
        {
            "positions": [
                -2.9168311486071437,
                -0.9095100761327498,
                1.5539589722616483,
                -0.6276240877895581,
                1.4806743945515102,
                -3.0916022646154606
            ]
        },
        {
            "positions": [
                -2.8912510139977865,
                -0.8772342294878713,
                1.454540479505612,
                -0.5616772471939737,
                1.3488149694083948,
                -3.0953765145863628
            ]
        },
        {
            "positions": [
                -2.8656708793884293,
                -0.8449583828429929,
                1.3551219867495758,
                -0.49573040659838935,
                1.2169555442652793,
                -3.0991507645572645
            ]
        },
        {
            "positions": [
                -2.840090744779072,
                -0.8126825361981144,
                1.2557034939935396,
                -0.42978356600280493,
                1.085096119122164,
                -3.102925014528166
            ]
        },
        {
            "positions": [
                -2.8145106101697146,
                -0.7804066895532359,
                1.1562850012375034,
                -0.3638367254072205,
                0.9532366939790486,
                -3.1066992644990683
            ]
        },
        {
            "positions": [
                -2.7889304755603574,
                -0.7481308429083574,
                1.0568665084814672,
                -0.29788988481163614,
                0.8213772688359333,
                -3.1104735144699704
            ]
        },
        {
            "positions": [
                -2.7633503409510003,
                -0.7158549962634789,
                0.9574480157254309,
                -0.23194304421605172,
                0.6895178436928178,
                -3.114247764440872
            ]
        },
        {
            "positions": [
                -2.737770206341643,
                -0.6835791496186004,
                0.8580295229693947,
                -0.1659962036204673,
                0.5576584185497024,
                -3.118022014411774
            ]
        },
        {
            "positions": [
                -2.712190071732286,
                -0.651303302973722,
                0.7586110302133585,
                -0.10004936302488292,
                0.42579899340658706,
                -3.121796264382676
            ]
        }
    ]
}