{
    "goal": {
        "global_pose": {
            "orientation": {
                "w": 0.5084816262002911,
                "x": -0.4908360881923452,
                "y": 0.5182115481033761,
                "z": -0.48164630358495003
            },
            "position": {
                "x": 0.5540239810943604,
                "y": -0.46912469901144505,
                "z": 0.16403168439865112
            }
        },
        "name": "move_to_storage_B"
    },
    "id": "BFMT_move_to_storage_B_149",
    "joint_names": [
        "shoulder_pan_joint",
        "shoulder_lift_joint",
        "elbow_joint",
        "wrist_1_joint",
        "wrist_2_joint",
        "wrist_3_joint"
    ],
    "metrics": {
        "cart_traj_len": 1.1071871473294022,
        "distance_elbow_joint": 0.5209924364531946,
        "distance_shoulder_lift_joint": 1.221930444289615,
        "distance_shoulder_pan_joint": 0.4787624787522423,
        "distance_wrist_1_joint": 2.9792114990594887,
        "distance_wrist_2_joint": 2.7192089707593654,
        "distance_wrist_3_joint": 3.128432417324225,
        "smoothness": 0.1583014448723597,
        "time": 0.664332477,
        "traj_len": 3.3239341519708434,
        "weighted_distance": 4.796230139505967
    },
    "planner": "BFMT",
    "start": {
        "state": {
            "elbow_joint": 1.664937868594044,
            "shoulder_lift_joint": -0.661644460510453,
            "shoulder_pan_joint": -0.9139846352900073,
            "wrist_1_joint": 2.146753192139373,
            "wrist_2_joint": -2.2341966793290973,
            "wrist_3_joint": 0.005466555786416001
        }
    },
    "waypoints": [
        {
            "positions": [
                -0.9139846352900073,
                -0.661644460510453,
                1.664937868594044,
                2.146753192139373,
                -2.2341966793290973,
                0.005466555786416001
            ]
        },
        {
            "positions": [
                -0.9061022097628434,
                -0.705893902399212,
                1.6878597909690691,
                2.043468556448811,
                -2.1048634077496042,
                0.08715472531843661
            ]
        },
        {
            "positions": [
                -0.8982197842356795,
                -0.7501433442879709,
                1.7107817133440943,
                1.940183920758249,
                -1.9755301361701112,
                0.16884289485045723
            ]
        },
        {
            "positions": [
                -0.8903373587085157,
                -0.7943927861767299,
                1.7337036357191196,
                1.8368992850676866,
                -1.8461968645906182,
                0.25053106438247785
            ]
        },
        {
            "positions": [
                -0.8824549331813518,
                -0.8386422280654888,
                1.7566255580941448,
                1.7336146493771247,
                -1.7168635930111251,
                0.3322192339144985
            ]
        },
        {
            "positions": [
                -0.8745725076541879,
                -0.8828916699542478,
                1.77954748046917,
                1.6303300136865624,
                -1.587530321431632,
                0.4139074034465191
            ]
        },
        {
            "positions": [
                -0.866690082127024,
                -0.9271411118430068,
                1.8024694028441952,
                1.5270453779960003,
                -1.458197049852139,
                0.4955955729785397
            ]
        },
        {
            "positions": [
                -0.8588076565998601,
                -0.9713905537317657,
                1.8253913252192204,
                1.4237607423054381,
                -1.328863778272646,
                0.5772837425105602
            ]
        },
        {
            "positions": [
                -0.8509252310726962,
                -1.0156399956205249,
                1.8483132475942456,
                1.320476106614876,
                -1.1995305066931528,
                0.6589719120425809
            ]
        },
        {
            "positions": [
                -0.8430428055455323,
                -1.0598894375092838,
                1.8712351699692706,
                1.217191470924314,
                -1.0701972351136597,
                0.7406600815746015
            ]
        },
        {
            "positions": [
                -0.8351603800183686,
                -1.1041388793980427,
                1.8941570923442959,
                1.1139068352337518,
                -0.9408639635341667,
                0.8223482511066221
            ]
        },
        {
            "positions": [
                -0.8272779544912047,
                -1.1483883212868018,
                1.917079014719321,
                1.0106221995431894,
                -0.8115306919546736,
                0.9040364206386428
            ]
        },
        {
            "positions": [
                -0.8193955289640408,
                -1.1926377631755605,
                1.9400009370943463,
                0.9073375638526273,
                -0.6821974203751806,
                0.9857245901706633
            ]
        },
        {
            "positions": [
                -0.8115131034368769,
                -1.2368872050643196,
                1.9629228594693715,
                0.8040529281620652,
                -0.5528641487956873,
                1.067412759702684
            ]
        },
        {
            "positions": [
                -0.803630677909713,
                -1.2811366469530787,
                1.9858447818443967,
                0.7007682924715031,
                -0.42353087721619453,
                1.1491009292347045
            ]
        },
        {
            "positions": [
                -0.7957482523825491,
                -1.3253860888418376,
                2.008766704219422,
                0.597483656780941,
                -0.2941976056367013,
                1.2307890987667252
            ]
        },
        {
            "positions": [
                -0.7878658268553853,
                -1.3696355307305965,
                2.0316886265944474,
                0.49419902109037883,
                -0.16486433405720824,
                1.3124772682987458
            ]
        },
        {
            "positions": [
                -0.7799834013282214,
                -1.4138849726193556,
                2.0546105489694724,
                0.3909143853998165,
                -0.0355310624777152,
                1.3941654378307664
            ]
        },
        {
            "positions": [
                -0.7721009758010575,
                -1.4581344145081143,
                2.0775324713444974,
                0.2876297497092546,
                0.09380220910177783,
                1.475853607362787
            ]
        },
        {
            "positions": [
                -0.7642185502738936,
                -1.5023838563968734,
                2.100454393719523,
                0.18434511401869225,
                0.22313548068127095,
                1.5575417768948077
            ]
        },
        {
            "positions": [
                -0.7971181896475065,
                -1.464264751556554,
                2.091906802586751,
                0.0826647719248116,
                0.24932316175617059,
                1.715177496516391
            ]
        },
        {
            "positions": [
                -0.8300178290211193,
                -1.4261456467162346,
                2.08335921145398,
                -0.019015570169069046,
                0.2755108428310702,
                1.8728132161379745
            ]
        },
        {
            "positions": [
                -0.8629174683947323,
                -1.388026541875915,
                2.074811620321208,
                -0.12069591226294968,
                0.3016985239059698,
                2.0304489357595576
            ]
        },
        {
            "positions": [
                -0.8958171077683451,
                -1.3499074370355957,
                2.0662640291884364,
                -0.22237625435683034,
                0.3278862049808694,
                2.1880846553811413
            ]
        },
        {
            "positions": [
                -0.928716747141958,
                -1.3117883321952761,
                2.0577164380556647,
                -0.32405659645071094,
                0.35407388605576906,
                2.3457203750027245
            ]
        },
        {
            "positions": [
                -0.9616163865155708,
                -1.2736692273549566,
                2.0491688469228935,
                -0.4257369385445916,
                0.3802615671306686,
                2.5033560946243076
            ]
        },
        {
            "positions": [
                -0.9945160258891836,
                -1.2355501225146373,
                2.0406212557901218,
                -0.5274172806384722,
                0.40644924820556827,
                2.6609918142458913
            ]
        },
        {
            "positions": [
                -1.0274156652627966,
                -1.1974310176743177,
                2.03207366465735,
                -0.6290976227323529,
                0.43263692928046793,
                2.818627533867475
            ]
        },
        {
            "positions": [
                -1.0603153046364096,
                -1.1593119128339984,
                2.023526073524579,
                -0.7307779648262335,
                0.4588246103553675,
                2.9762632534890576
            ]
        },
        {
            "positions": [
                -1.0932149440100223,
                -1.1211928079936788,
                2.014978482391807,
                -0.8324583069201141,
                0.4850122914302671,
                3.1338989731106413
            ]
        }
    ]
}