{
    "goal": {
        "global_pose": {
            "orientation": {
                "w": 0.7031023480610252,
                "x": -0.7110244013736278,
                "y": 0.0077485991402295624,
                "z": 0.005598929693374583
            },
            "position": {
                "x": -0.8841497679147869,
                "y": 0.44412534475326537,
                "z": 0.3711530566215515
            }
        },
        "name": "move_to_auspresseinheit_D"
    },
    "id": "BFMT_move_to_auspresseinheit_D_28",
    "joint_names": [
        "shoulder_pan_joint",
        "shoulder_lift_joint",
        "elbow_joint",
        "wrist_1_joint",
        "wrist_2_joint",
        "wrist_3_joint"
    ],
    "metrics": {
        "cart_traj_len": 0.34373593485693565,
        "distance_elbow_joint": 0.6643452909775263,
        "distance_shoulder_lift_joint": 0.1359186840320863,
        "distance_shoulder_pan_joint": 0.13356857198631955,
        "distance_wrist_1_joint": 0.6294411005872402,
        "distance_wrist_2_joint": 1.4295418809123577,
        "distance_wrist_3_joint": 0.0793357848004308,
        "smoothness": 3.947459674368863e-16,
        "time": 0.487001812,
        "traj_len": 1.7527553489565966,
        "weighted_distance": 2.299957796220709
    },
    "planner": "BFMT",
    "start": {
        "state": {
            "elbow_joint": -1.8275523626775212,
            "shoulder_lift_joint": -2.126789852344167,
            "shoulder_pan_joint": -0.03513704404078235,
            "wrist_1_joint": -2.347782403156801,
            "wrist_2_joint": -1.6058999987535132,
            "wrist_3_joint": -3.0880379163319196
        }
    },
    "waypoints": [
        {
            "positions": [
                -0.03513704404078235,
                -2.126789852344167,
                -1.8275523626775212,
                -2.347782403156801,
                -1.6058999987535132,
                -3.0880379163319196
            ]
        },
        {
            "positions": [
                -0.05183311553907229,
                -2.143779687848178,
                -1.7445092013053305,
                -2.426462540730206,
                -1.4272072636394686,
                -3.0781209432318657
            ]
        },
        {
            "positions": [
                -0.06852918703736224,
                -2.1607695233521884,
                -1.6614660399331396,
                -2.505142678303611,
                -1.2485145285254238,
                -3.068203970131812
            ]
        },
        {
            "positions": [
                -0.08522525853565219,
                -2.177759358856199,
                -1.5784228785609489,
                -2.583822815877016,
                -1.069821793411379,
                -3.058286997031758
            ]
        },
        {
            "positions": [
                -0.10192133003394213,
                -2.19474919436021,
                -1.495379717188758,
                -2.6625029534504208,
                -0.8911290582973344,
                -3.048370023931704
            ]
        },
        {
            "positions": [
                -0.11861740153223208,
                -2.211739029864221,
                -1.4123365558165673,
                -2.741183091023826,
                -0.7124363231832896,
                -3.0384530508316505
            ]
        },
        {
            "positions": [
                -0.13531347303052202,
                -2.2287288653682316,
                -1.3292933944443766,
                -2.819863228597231,
                -0.5337435880692449,
                -3.0285360777315966
            ]
        },
        {
            "positions": [
                -0.15200954452881196,
                -2.245718700872242,
                -1.2462502330721859,
                -2.898543366170636,
                -0.3550508529552001,
                -3.0186191046315427
            ]
        },
        {
            "positions": [
                -0.1687056160271019,
                -2.262708536376253,
                -1.163207071699995,
                -2.977223503744041,
                -0.17635811784115563,
                -3.008702131531489
            ]
        }
    ]
}