{
    "goal": {
        "global_pose": {
            "orientation": {
                "w": -0.4816463035849501,
                "x": 0.5182115481033762,
                "y": 0.4908360881923453,
                "z": -0.5084816262002911
            },
            "position": {
                "x": -0.8240239810943604,
                "y": 0.19912469901144506,
                "z": 0.16403168439865112
            }
        },
        "name": "move_to_storage_D"
    },
    "id": "BFMT_move_to_storage_D_29",
    "joint_names": [
        "shoulder_pan_joint",
        "shoulder_lift_joint",
        "elbow_joint",
        "wrist_1_joint",
        "wrist_2_joint",
        "wrist_3_joint"
    ],
    "metrics": {
        "cart_traj_len": 3.746416787585797,
        "distance_elbow_joint": 4.213758175044809,
        "distance_shoulder_lift_joint": 1.2639485686916099,
        "distance_shoulder_pan_joint": 2.8133496754331873,
        "distance_wrist_1_joint": 2.2774339517101985,
        "distance_wrist_2_joint": 0.8787023006174574,
        "distance_wrist_3_joint": 3.138802870180521,
        "smoothness": 7.515355851458635e-16,
        "time": 0.850572402,
        "traj_len": 3.819161628116541,
        "weighted_distance": 4.900993525232051
    },
    "planner": "BFMT",
    "start": {
        "state": {
            "elbow_joint": -2.384821988534728,
            "shoulder_lift_joint": -2.2788054721415256,
            "shoulder_pan_joint": -0.1854694642142757,
            "wrist_1_joint": 1.4845938289331202,
            "wrist_2_joint": 0.17898776772866878,
            "wrist_3_joint": 0.037105688729662994
        }
    },
    "waypoints": [
        {
            "positions": [
                -0.1854694642142757,
                -2.2788054721415256,
                -2.384821988534728,
                1.4845938289331202,
                0.17898776772866878,
                0.037105688729662994
            ]
        },
        {
            "positions": [
                -0.04526150631267903,
                -2.221799196878434,
                -2.2844860278934576,
                1.4407694303158622,
                0.20213838053031136,
                0.05743655225355267
            ]
        },
        {
            "positions": [
                0.09494645158891765,
                -2.164792921615342,
                -2.184150067252187,
                1.3969450316986043,
                0.2252889933319539,
                0.07776741577744234
            ]
        },
        {
            "positions": [
                0.2351544094905144,
                -2.1077866463522508,
                -2.083814106610917,
                1.3531206330813463,
                0.2484396061335965,
                0.09809827930133203
            ]
        },
        {
            "positions": [
                0.37536236739211104,
                -2.050780371089159,
                -1.9834781459696467,
                1.3092962344640884,
                0.27159021893523905,
                0.11842914282522168
            ]
        },
        {
            "positions": [
                0.5155703252937078,
                -1.9937740958260672,
                -1.8831421853283763,
                1.2654718358468307,
                0.2947408317368816,
                0.13876000634911137
            ]
        },
        {
            "positions": [
                0.6557782831953045,
                -1.9367678205629755,
                -1.782806224687106,
                1.2216474372295727,
                0.3178914445385242,
                0.15909086987300103
            ]
        },
        {
            "positions": [
                0.7959862410969011,
                -1.879761545299884,
                -1.6824702640458358,
                1.1778230386123147,
                0.34104205734016674,
                0.1794217333968907
            ]
        },
        {
            "positions": [
                0.9361941989984978,
                -1.8227552700367922,
                -1.5821343034045654,
                1.1339986399950568,
                0.36419267014180934,
                0.19975259692078037
            ]
        },
        {
            "positions": [
                1.0764021569000946,
                -1.7657489947737006,
                -1.481798342763295,
                1.0901742413777988,
                0.3873432829434519,
                0.22008346044467006
            ]
        },
        {
            "positions": [
                1.2166101148016912,
                -1.7087427195106089,
                -1.3814623821220247,
                1.0463498427605409,
                0.41049389574509443,
                0.24041432396855975
            ]
        },
        {
            "positions": [
                1.356818072703288,
                -1.651736444247517,
                -1.2811264214807543,
                1.002525444143283,
                0.433644508546737,
                0.2607451874924494
            ]
        },
        {
            "positions": [
                1.4970260306048846,
                -1.5947301689844253,
                -1.180790460839484,
                0.9587010455260251,
                0.45679512134837963,
                0.2810760510163391
            ]
        },
        {
            "positions": [
                1.637233988506481,
                -1.537723893721334,
                -1.0804545001982138,
                0.9148766469087671,
                0.47994573415002206,
                0.3014069145402287
            ]
        },
        {
            "positions": [
                1.7774419464080777,
                -1.4807176184582422,
                -0.9801185395569434,
                0.8710522482915093,
                0.5030963469516647,
                0.3217377780641184
            ]
        },
        {
            "positions": [
                1.9176499043096746,
                -1.4237113431951505,
                -0.879782578915673,
                0.8272278496742513,
                0.5262469597533073,
                0.3420686415880081
            ]
        },
        {
            "positions": [
                2.057857862211271,
                -1.3667050679320587,
                -0.7794466182744026,
                0.7834034510569934,
                0.5493975725549498,
                0.3623995051118978
            ]
        },
        {
            "positions": [
                2.198065820112868,
                -1.3096987926689672,
                -0.6791106576331323,
                0.7395790524397354,
                0.5725481853565924,
                0.38273036863578747
            ]
        },
        {
            "positions": [
                2.2185331720702988,
                -1.2956587027061552,
                -0.5596798555310745,
                0.6666067107627444,
                0.5956501797846654,
                0.5157388538869492
            ]
        },
        {
            "positions": [
                2.239000524027729,
                -1.2816186127433433,
                -0.44024905342901677,
                0.5936343690857533,
                0.6187521742127384,
                0.6487473391381109
            ]
        },
        {
            "positions": [
                2.25946787598516,
                -1.2675785227805312,
                -0.32081825132695896,
                0.5206620274087621,
                0.6418541686408115,
                0.7817558243892726
            ]
        },
        {
            "positions": [
                2.2799352279425906,
                -1.2535384328177193,
                -0.2013874492249012,
                0.44768968573177104,
                0.6649561630688845,
                0.9147643096404343
            ]
        },
        {
            "positions": [
                2.3004025799000214,
                -1.2394983428549073,
                -0.08195664712284345,
                0.3747173440547799,
                0.6880581574969575,
                1.0477727948915962
            ]
        },
        {
            "positions": [
                2.3208699318574517,
                -1.2254582528920954,
                0.03747415497921436,
                0.3017450023777888,
                0.7111601519250306,
                1.180781280142758
            ]
        },
        {
            "positions": [
                2.3413372838148825,
                -1.2114181629292833,
                0.15690495708127217,
                0.22877266070079771,
                0.7342621463531036,
                1.3137897653939197
            ]
        },
        {
            "positions": [
                2.3618046357723133,
                -1.1973780729664714,
                0.27633575918332987,
                0.15580031902380664,
                0.7573641407811766,
                1.4467982506450812
            ]
        },
        {
            "positions": [
                2.3822719877297436,
                -1.1833379830036594,
                0.39576656128538756,
                0.08282797734681546,
                0.7804661352092497,
                1.579806735896243
            ]
        },
        {
            "positions": [
                2.4027393396871743,
                -1.1692978930408475,
                0.5151973633874454,
                0.009855635669824392,
                0.8035681296373227,
                1.7128152211474048
            ]
        },
        {
            "positions": [
                2.423206691644605,
                -1.1552578030780354,
                0.6346281654895034,
                -0.06311670600716679,
                0.8266701240653958,
                1.8458237063985665
            ]
        },
        {
            "positions": [
                2.443674043602036,
                -1.1412177131152235,
                0.754058967591561,
                -0.13608904768415786,
                0.8497721184934688,
                1.9788321916497282
            ]
        },
        {
            "positions": [
                2.464141395559466,
                -1.1271776231524115,
                0.8734897696936188,
                -0.20906138936114904,
                0.8728741129215418,
                2.11184067690089
            ]
        },
        {
            "positions": [
                2.484608747516897,
                -1.1131375331895996,
                0.9929205717956766,
                -0.28203373103814,
                0.8959761073496149,
                2.2448491621520517
            ]
        },
        {
            "positions": [
                2.5050760994743277,
                -1.0990974432267875,
                1.1123513738977344,
                -0.3550060727151312,
                0.9190781017776879,
                2.3778576474032134
            ]
        },
        {
            "positions": [
                2.525543451431758,
                -1.0850573532639756,
                1.231782175999792,
                -0.42797841439212214,
                0.9421800962057609,
                2.5108661326543746
            ]
        },
        {
            "positions": [
                2.546010803389189,
                -1.0710172633011636,
                1.3512129781018498,
                -0.5009507560691133,
                0.965282090633834,
                2.643874617905537
            ]
        },
        {
            "positions": [
                2.5664781553466196,
                -1.0569771733383517,
                1.4706437802039074,
                -0.5739230977461045,
                0.988384085061907,
                2.776883103156699
            ]
        },
        {
            "positions": [
                2.5869455073040504,
                -1.0429370833755396,
                1.5900745823059654,
                -0.6468954394230957,
                1.01148607948998,
                2.90989158840786
            ]
        },
        {
            "positions": [
                2.6074128592614807,
                -1.0288969934127277,
                1.709505384408023,
                -0.7198677811000866,
                1.034588073918053,
                3.0429000736590224
            ]
        },
        {
            "positions": [
                2.6278802112189115,
                -1.0148569034499157,
                1.8289361865100808,
                -0.7928401227770778,
                1.0576900683461261,
                3.175908558910184
            ]
        }
    ]
}