{
    "goal": {
        "global_pose": {
            "orientation": {
                "w": -0.4816463035849501,
                "x": 0.5182115481033762,
                "y": 0.4908360881923453,
                "z": -0.5084816262002911
            },
            "position": {
                "x": -0.8240239810943604,
                "y": -0.300875300988555,
                "z": 0.16403168439865112
            }
        },
        "name": "move_to_storage_C"
    },
    "id": "BFMT_move_to_storage_C_46",
    "joint_names": [
        "shoulder_pan_joint",
        "shoulder_lift_joint",
        "elbow_joint",
        "wrist_1_joint",
        "wrist_2_joint",
        "wrist_3_joint"
    ],
    "metrics": {
        "cart_traj_len": 0.5769965113283021,
        "distance_elbow_joint": 0.2560942890359974,
        "distance_shoulder_lift_joint": 0.18979781603219026,
        "distance_shoulder_pan_joint": 0.49612702355935623,
        "distance_wrist_1_joint": 0.07032829034511134,
        "distance_wrist_2_joint": 1.0593521491741584,
        "distance_wrist_3_joint": 0.059346212466734105,
        "smoothness": 0.0,
        "time": 0.448449724,
        "traj_len": 1.4598101865015012,
        "weighted_distance": 1.8383195165874415
    },
    "planner": "BFMT",
    "start": {
        "state": {
            "elbow_joint": 2.010868314990456,
            "shoulder_lift_joint": -1.1634956873337592,
            "shoulder_pan_joint": -2.4736205022346125,
            "wrist_1_joint": -0.8367026794202681,
            "wrist_2_joint": 0.6746043897044499,
            "wrist_3_joint": -3.1496632123970403
        }
    },
    "waypoints": [
        {
            "positions": [
                -2.4736205022346125,
                -1.1634956873337592,
                2.010868314990456,
                -0.8367026794202681,
                0.6746043897044499,
                -3.1496632123970403
            ]
        },
        {
            "positions": [
                -2.556308339494505,
                -1.1318627179950609,
                1.9681859334844563,
                -0.8249812976960829,
                0.8511630812334763,
                -3.139772176985918
            ]
        },
        {
            "positions": [
                -2.638996176754398,
                -1.1002297486563624,
                1.9255035519784567,
                -0.8132599159718976,
                1.0277217727625028,
                -3.1298811415747956
            ]
        },
        {
            "positions": [
                -2.721684014014291,
                -1.068596779317664,
                1.8828211704724571,
                -0.8015385342477124,
                1.204280464291529,
                -3.119990106163673
            ]
        },
        {
            "positions": [
                -2.8043718512741833,
                -1.0369638099789658,
                1.8401387889664576,
                -0.7898171525235272,
                1.3808391558205555,
                -3.110099070752551
            ]
        },
        {
            "positions": [
                -2.887059688534076,
                -1.0053308406402672,
                1.797456407460458,
                -0.778095770799342,
                1.557397847349582,
                -3.1002080353414287
            ]
        },
        {
            "positions": [
                -2.9697475257939687,
                -0.9736978713015689,
                1.7547740259544584,
                -0.7663743890751568,
                1.7339565388786082,
                -3.090316999930306
            ]
        }
    ]
}