{
    "goal": {
        "global_pose": {
            "orientation": {
                "w": 0.5084816262002911,
                "x": -0.4908360881923452,
                "y": 0.5182115481033761,
                "z": -0.48164630358495003
            },
            "position": {
                "x": 0.5540239810943604,
                "y": -0.46912469901144505,
                "z": 0.16403168439865112
            }
        },
        "name": "move_to_storage_B"
    },
    "id": "BFMT_move_to_storage_B_34",
    "joint_names": [
        "shoulder_pan_joint",
        "shoulder_lift_joint",
        "elbow_joint",
        "wrist_1_joint",
        "wrist_2_joint",
        "wrist_3_joint"
    ],
    "metrics": {
        "cart_traj_len": 1.1120454534007582,
        "distance_elbow_joint": 0.34818838636934846,
        "distance_shoulder_lift_joint": 0.45875449572739924,
        "distance_shoulder_pan_joint": 1.2070554564089484,
        "distance_wrist_1_joint": 2.9803499624128467,
        "distance_wrist_2_joint": 2.701694663271008,
        "distance_wrist_3_joint": 3.1406341773468687,
        "smoothness": 0.10650335824141473,
        "time": 0.673734306,
        "traj_len": 3.2919108647617454,
        "weighted_distance": 4.774933520156486
    },
    "planner": "BFMT",
    "start": {
        "state": {
            "elbow_joint": 1.664937868594044,
            "shoulder_lift_joint": -0.661644460510453,
            "shoulder_pan_joint": -0.9139846352900073,
            "wrist_1_joint": 2.146753192139373,
            "wrist_2_joint": -2.2341966793290973,
            "wrist_3_joint": 0.005466555786416001
        }
    },
    "waypoints": [
        {
            "positions": [
                -0.9139846352900073,
                -0.661644460510453,
                1.664937868594044,
                2.146753192139373,
                -2.2341966793290973,
                0.005466555786416001
            ]
        },
        {
            "positions": [
                -0.8570363050813946,
                -0.6929401006268883,
                1.695506030989937,
                2.0616638213213347,
                -2.173929807164677,
                -0.10956113779527636
            ]
        },
        {
            "positions": [
                -0.800087974872782,
                -0.7242357407433235,
                1.7260741933858303,
                1.9765744505032958,
                -2.1136629350002574,
                -0.22458883137696872
            ]
        },
        {
            "positions": [
                -0.7431396446641694,
                -0.7555313808597588,
                1.7566423557817235,
                1.8914850796852574,
                -2.053396062835837,
                -0.33961652495866107
            ]
        },
        {
            "positions": [
                -0.6861913144555567,
                -0.7868270209761941,
                1.7872105181776166,
                1.8063957088672185,
                -1.9931291906714175,
                -0.4546442185403534
            ]
        },
        {
            "positions": [
                -0.629242984246944,
                -0.8181226610926293,
                1.8177786805735099,
                1.72130633804918,
                -1.9328623185069973,
                -0.5696719121220459
            ]
        },
        {
            "positions": [
                -0.5722946540383314,
                -0.8494183012090646,
                1.848346842969403,
                1.6362169672311413,
                -1.8725954463425776,
                -0.6846996057037382
            ]
        },
        {
            "positions": [
                -0.5153463238297187,
                -0.8807139413254998,
                1.878915005365296,
                1.5511275964131026,
                -1.8123285741781574,
                -0.7997272992854306
            ]
        },
        {
            "positions": [
                -0.4583979936211061,
                -0.9120095814419351,
                1.9094831677611894,
                1.466038225595064,
                -1.7520617020137375,
                -0.9147549928671229
            ]
        },
        {
            "positions": [
                -0.40144966341249344,
                -0.9433052215583704,
                1.9400513301570825,
                1.3809488547770252,
                -1.6917948298493175,
                -1.0297826864488153
            ]
        },
        {
            "positions": [
                -0.4380033731246742,
                -0.9526259444362378,
                1.943897378831099,
                1.2643938218796305,
                -1.5781478396497792,
                -1.1405924198757436
            ]
        },
        {
            "positions": [
                -0.474557082836855,
                -0.9619466673141053,
                1.947743427505115,
                1.147838788982236,
                -1.464500849450241,
                -1.2514021533026718
            ]
        },
        {
            "positions": [
                -0.5111107925490358,
                -0.9712673901919727,
                1.9515894761791315,
                1.0312837560848411,
                -1.3508538592507024,
                -1.3622118867296
            ]
        },
        {
            "positions": [
                -0.5476645022612165,
                -0.9805881130698403,
                1.9554355248531479,
                0.9147287231874465,
                -1.2372068690511642,
                -1.4730216201565283
            ]
        },
        {
            "positions": [
                -0.5842182119733973,
                -0.9899088359477077,
                1.959281573527164,
                0.7981736902900518,
                -1.123559878851626,
                -1.5838313535834567
            ]
        },
        {
            "positions": [
                -0.620771921685578,
                -0.9992295588255752,
                1.9631276222011804,
                0.6816186573926571,
                -1.0099128886520874,
                -1.694641087010385
            ]
        },
        {
            "positions": [
                -0.6573256313977589,
                -1.0085502817034426,
                1.9669736708751966,
                0.5650636244952625,
                -0.8962658984525492,
                -1.8054508204373132
            ]
        },
        {
            "positions": [
                -0.6938793411099395,
                -1.0178710045813102,
                1.970819719549213,
                0.4485085915978677,
                -0.7826189082530108,
                -1.9162605538642414
            ]
        },
        {
            "positions": [
                -0.7304330508221204,
                -1.0271917274591775,
                1.9746657682232294,
                0.33195355870047316,
                -0.6689719180534726,
                -2.0270702872911697
            ]
        },
        {
            "positions": [
                -0.7669867605343011,
                -1.036512450337045,
                1.9785118168972455,
                0.2153985258030784,
                -0.5553249278539343,
                -2.137880020718098
            ]
        },
        {
            "positions": [
                -0.8035404702464819,
                -1.0458331732149124,
                1.982357865571262,
                0.09884349290568362,
                -0.4416779376543958,
                -2.248689754145026
            ]
        },
        {
            "positions": [
                -0.8400941799586628,
                -1.05515389609278,
                1.9862039142452783,
                -0.017711539991710934,
                -0.3280309474548575,
                -2.3594994875719544
            ]
        },
        {
            "positions": [
                -0.8766478896708435,
                -1.0644746189706475,
                1.9900499629192945,
                -0.1342665728891057,
                -0.214383957255319,
                -2.4703092209988826
            ]
        },
        {
            "positions": [
                -0.9132015993830243,
                -1.0737953418485149,
                1.9938960115933109,
                -0.25082160578650026,
                -0.10073696705578095,
                -2.581118954425811
            ]
        },
        {
            "positions": [
                -0.949755309095205,
                -1.0831160647263824,
                1.997742060267327,
                -0.36737663868389525,
                0.012910023143757554,
                -2.691928687852739
            ]
        },
        {
            "positions": [
                -0.9863090188073858,
                -1.0924367876042498,
                2.0015881089413434,
                -0.4839316715812898,
                0.12655701334329583,
                -2.8027384212796673
            ]
        },
        {
            "positions": [
                -1.0228627285195666,
                -1.1017575104821173,
                2.0054341576153596,
                -0.6004867044786846,
                0.24020400354283433,
                -2.9135481547065956
            ]
        },
        {
            "positions": [
                -1.0594164382317472,
                -1.1110782333599847,
                2.009280206289376,
                -0.7170417373760789,
                0.3538509937423724,
                -3.024357888133524
            ]
        },
        {
            "positions": [
                -1.095970147943928,
                -1.1203989562378522,
                2.0131262549633924,
                -0.833596770273474,
                0.46749798394191105,
                -3.1351676215604525
            ]
        }
    ]
}