{
    "goal": {
        "global_pose": {
            "orientation": {
                "w": -0.00223480608172531,
                "x": 0.0024358444001904467,
                "y": 0.7094548369677653,
                "z": -0.704743149386269
            },
            "position": {
                "x": -0.37947507619857795,
                "y": -0.6371506643295288,
                "z": 0.19426114857196808
            }
        },
        "name": "move_to_magneteinheit_C"
    },
    "id": "BFMT_move_to_magneteinheit_C_91",
    "joint_names": [
        "shoulder_pan_joint",
        "shoulder_lift_joint",
        "elbow_joint",
        "wrist_1_joint",
        "wrist_2_joint",
        "wrist_3_joint"
    ],
    "metrics": {
        "cart_traj_len": 0.9605492996952247,
        "distance_elbow_joint": 1.085858215123113,
        "distance_shoulder_lift_joint": 0.5619094965136884,
        "distance_shoulder_pan_joint": 1.3033467260935343,
        "distance_wrist_1_joint": 4.3388918330541095,
        "distance_wrist_2_joint": 2.371830757910157,
        "distance_wrist_3_joint": 3.703455021123351,
        "smoothness": 0.5877328465786935,
        "time": 1.109147476,
        "traj_len": 3.6558572250319012,
        "weighted_distance": 5.242415920453939
    },
    "planner": "BFMT",
    "start": {
        "state": {
            "elbow_joint": 1.9565354010623817,
            "shoulder_lift_joint": -1.4165861575791021,
            "shoulder_pan_joint": -1.6717766225146293,
            "wrist_1_joint": -0.5286633292919765,
            "wrist_2_joint": 1.472756589071564,
            "wrist_3_joint": -3.1238370188695823
        }
    },
    "waypoints": [
        {
            "positions": [
                -1.6717766225146293,
                -1.4165861575791021,
                1.9565354010623817,
                -0.5286633292919765,
                1.472756589071564,
                -3.1238370188695823
            ]
        },
        {
            "positions": [
                -1.7053907140089046,
                -1.4251475394867326,
                1.9882742605781139,
                -0.6582455538598617,
                1.3844421135308242,
                -3.0216264165256175
            ]
        },
        {
            "positions": [
                -1.73900480550318,
                -1.433708921394363,
                2.020013120093846,
                -0.787827778427747,
                1.2961276379900848,
                -2.9194158141816526
            ]
        },
        {
            "positions": [
                -1.7726188969974555,
                -1.4422703033019937,
                2.0517519796095782,
                -0.9174100029956322,
                1.2078131624493453,
                -2.8172052118376882
            ]
        },
        {
            "positions": [
                -1.8062329884917308,
                -1.4508316852096241,
                2.0834908391253104,
                -1.0469922275635175,
                1.1194986869086057,
                -2.7149946094937234
            ]
        },
        {
            "positions": [
                -1.839847079986006,
                -1.4593930671172546,
                2.115229698641042,
                -1.1765744521314028,
                1.031184211367866,
                -2.6127840071497586
            ]
        },
        {
            "positions": [
                -1.8734611714802814,
                -1.467954449024885,
                2.1469685581567743,
                -1.306156676699288,
                0.9428697358271265,
                -2.5105734048057937
            ]
        },
        {
            "positions": [
                -1.9070752629745567,
                -1.4765158309325157,
                2.1787074176725065,
                -1.4357389012671733,
                0.8545552602863868,
                -2.408362802461829
            ]
        },
        {
            "positions": [
                -1.940689354468832,
                -1.4850772128401462,
                2.2104462771882387,
                -1.5653211258350586,
                0.7662407847456473,
                -2.306152200117864
            ]
        },
        {
            "positions": [
                -1.9743034459631073,
                -1.4936385947477766,
                2.242185136703971,
                -1.6949033504029438,
                0.6779263092049077,
                -2.203941597773899
            ]
        },
        {
            "positions": [
                -2.0079175374573826,
                -1.502199976655407,
                2.273923996219703,
                -1.824485574970829,
                0.5896118336641681,
                -2.101730995429935
            ]
        },
        {
            "positions": [
                -2.041531628951658,
                -1.5107613585630375,
                2.3056628557354353,
                -1.9540677995387146,
                0.5012973581234285,
                -1.9995203930859697
            ]
        },
        {
            "positions": [
                -2.075145720445933,
                -1.5193227404706682,
                2.3374017152511675,
                -2.0836500241066,
                0.4129828825826891,
                -1.8973097907420051
            ]
        },
        {
            "positions": [
                -2.108759811940209,
                -1.5278841223782986,
                2.3691405747668997,
                -2.213232248674485,
                0.32466840704194944,
                -1.7950991883980403
            ]
        },
        {
            "positions": [
                -2.142373903434484,
                -1.536445504285929,
                2.400879434282632,
                -2.3428144732423704,
                0.23635393150120976,
                -1.6928885860540754
            ]
        },
        {
            "positions": [
                -2.1759879949287595,
                -1.5450068861935595,
                2.4326182937983636,
                -2.4723966978102556,
                0.14803945596047008,
                -1.5906779837101106
            ]
        },
        {
            "positions": [
                -2.209602086423035,
                -1.55356826810119,
                2.4643571533140958,
                -2.601978922378141,
                0.05972498041973062,
                -1.488467381366146
            ]
        },
        {
            "positions": [
                -2.24321617791731,
                -1.5621296500088206,
                2.496096012829828,
                -2.731561146946026,
                -0.028589495121008834,
                -1.3862567790221811
            ]
        },
        {
            "positions": [
                -2.2768302694115854,
                -1.570691031916451,
                2.52783487234556,
                -2.861143371513911,
                -0.11690397066174851,
                -1.2840461766782163
            ]
        },
        {
            "positions": [
                -2.3515982038731242,
                -1.5128438880498511,
                2.4595669148587334,
                -2.7745357076056214,
                -0.05940289086764648,
                -1.3049160601869259
            ]
        },
        {
            "positions": [
                -2.426366138334663,
                -1.4549967441832512,
                2.391298957371907,
                -2.687928043697332,
                -0.0019018110735444516,
                -1.3257859436956354
            ]
        },
        {
            "positions": [
                -2.5011340727962024,
                -1.3971496003166513,
                2.3230309998850807,
                -2.6013203797890423,
                0.05559926872055759,
                -1.3466558272043452
            ]
        },
        {
            "positions": [
                -2.575902007257741,
                -1.339302456450051,
                2.254763042398254,
                -2.5147127158807523,
                0.11310034851465961,
                -1.3675257107130547
            ]
        },
        {
            "positions": [
                -2.65066994171928,
                -1.2814553125834511,
                2.186495084911427,
                -2.4281050519724627,
                0.17060142830876168,
                -1.3883955942217643
            ]
        },
        {
            "positions": [
                -2.725437876180819,
                -1.2236081687168512,
                2.1182271274246007,
                -2.341497388064173,
                0.22810250810286367,
                -1.4092654777304738
            ]
        },
        {
            "positions": [
                -2.702739196869242,
                -1.218088008809875,
                2.108686127522876,
                -2.2063368601203153,
                0.26784466441306665,
                -1.5673059211740854
            ]
        },
        {
            "positions": [
                -2.680040517557665,
                -1.2125678489028986,
                2.0991451276211506,
                -2.0711763321764574,
                0.30758682072326965,
                -1.725346364617697
            ]
        },
        {
            "positions": [
                -2.6573418382460887,
                -1.2070476889959223,
                2.0896041277194257,
                -1.9360158042325994,
                0.34732897703347265,
                -1.8833868080613088
            ]
        },
        {
            "positions": [
                -2.634643158934512,
                -1.201527529088946,
                2.080063127817701,
                -1.8008552762887415,
                0.3870711333436756,
                -2.0414272515049205
            ]
        },
        {
            "positions": [
                -2.611944479622935,
                -1.1960073691819697,
                2.0705221279159756,
                -1.6656947483448836,
                0.4268132896538786,
                -2.199467694948532
            ]
        },
        {
            "positions": [
                -2.589245800311358,
                -1.1904872092749932,
                2.0609811280142507,
                -1.5305342204010257,
                0.4665554459640816,
                -2.3575081383921437
            ]
        },
        {
            "positions": [
                -2.566547120999781,
                -1.184967049368017,
                2.0514401281125254,
                -1.3953736924571678,
                0.5062976022742846,
                -2.5155485818357555
            ]
        },
        {
            "positions": [
                -2.5438484416882043,
                -1.1794468894610406,
                2.0418991282108006,
                -1.2602131645133097,
                0.5460397585844876,
                -2.673589025279367
            ]
        },
        {
            "positions": [
                -2.521149762376628,
                -1.1739267295540643,
                2.0323581283090757,
                -1.1250526365694518,
                0.5857819148946906,
                -2.8316294687229786
            ]
        },
        {
            "positions": [
                -2.498451083065051,
                -1.168406569647088,
                2.0228171284073504,
                -0.9898921086255938,
                0.6255240712048935,
                -2.98966991216659
            ]
        },
        {
            "positions": [
                -2.475752403753474,
                -1.1628864097401117,
                2.0132761285056255,
                -0.8547315806817359,
                0.6652662275150966,
                -3.1477103556102017
            ]
        }
    ]
}