{
    "goal": {
        "global_pose": {
            "orientation": {
                "w": 0.7047431493862688,
                "x": -0.7094548369677653,
                "y": 0.0024358444001904,
                "z": -0.0022348060817251984
            },
            "position": {
                "x": -0.39052492380142206,
                "y": 0.3671506643295288,
                "z": 0.19426114857196808
            }
        },
        "name": "move_to_magneteinheit_D"
    },
    "id": "BFMT_move_to_magneteinheit_D_4",
    "joint_names": [
        "shoulder_pan_joint",
        "shoulder_lift_joint",
        "elbow_joint",
        "wrist_1_joint",
        "wrist_2_joint",
        "wrist_3_joint"
    ],
    "metrics": {
        "cart_traj_len": 3.525156126500788,
        "distance_elbow_joint": 3.1459163262259677,
        "distance_shoulder_lift_joint": 1.6257132107751364,
        "distance_shoulder_pan_joint": 3.0159378437691675,
        "distance_wrist_1_joint": 2.40190630666258,
        "distance_wrist_2_joint": 0.26237846999546754,
        "distance_wrist_3_joint": 3.385749451867614,
        "smoothness": 0.43546579711672595,
        "time": 1.343324776,
        "traj_len": 3.7198926878736613,
        "weighted_distance": 4.824249712617416
    },
    "planner": "BFMT",
    "start": {
        "state": {
            "elbow_joint": 0.749534889911806,
            "shoulder_lift_joint": -0.6476975780787326,
            "shoulder_pan_joint": -2.711696901376241,
            "wrist_1_joint": -0.07506478083263063,
            "wrist_2_joint": 0.43296659715538205,
            "wrist_3_joint": -3.14703540197715
        }
    },
    "waypoints": [
        {
            "positions": [
                -2.711696901376241,
                -0.6476975780787326,
                0.749534889911806,
                -0.07506478083263063,
                0.43296659715538205,
                -3.14703540197715
            ]
        },
        {
            "positions": [
                -2.7111227461743237,
                -0.6590937598574358,
                0.6450248924283829,
                -0.05532205592355048,
                0.42853802236387495,
                -3.067999912711888
            ]
        },
        {
            "positions": [
                -2.7744688421100725,
                -0.715765665190901,
                0.5584446966143695,
                0.004359887234764527,
                0.3990363189161446,
                -2.9703240575725767
            ]
        },
        {
            "positions": [
                -2.8378149380458213,
                -0.7724375705243663,
                0.4718645008003561,
                0.06404183039307954,
                0.36953461546841426,
                -2.8726482024332647
            ]
        },
        {
            "positions": [
                -2.779748779108373,
                -0.7882255754675391,
                0.3364907925647813,
                0.11468128638548764,
                0.36544553113987427,
                -2.7542166737218627
            ]
        },
        {
            "positions": [
                -2.7216826201709243,
                -0.8040135804107119,
                0.2011170843292065,
                0.16532074237789574,
                0.36135644681133433,
                -2.635785145010461
            ]
        },
        {
            "positions": [
                -2.6636164612334756,
                -0.8198015853538847,
                0.06574337609363162,
                0.21596019837030384,
                0.35726736248279434,
                -2.517353616299059
            ]
        },
        {
            "positions": [
                -2.6055503022960274,
                -0.8355895902970575,
                -0.06963033214194309,
                0.26659965436271194,
                0.35317827815425434,
                -2.398922087587657
            ]
        },
        {
            "positions": [
                -2.547484143358579,
                -0.8513775952402303,
                -0.20500404037751802,
                0.31723911035512004,
                0.34908919382571435,
                -2.280490558876255
            ]
        },
        {
            "positions": [
                -2.4894179844211304,
                -0.867165600183403,
                -0.34037774861309283,
                0.36787856634752814,
                0.3450001094971744,
                -2.162059030164853
            ]
        },
        {
            "positions": [
                -2.4313518254836817,
                -0.8829536051265758,
                -0.47575145684866754,
                0.4185180223399362,
                0.3409110251686344,
                -2.043627501453451
            ]
        },
        {
            "positions": [
                -2.3732856665462334,
                -0.8987416100697486,
                -0.6111251650842422,
                0.4691574783323443,
                0.3368219408400944,
                -1.9251959727420493
            ]
        },
        {
            "positions": [
                -2.315219507608785,
                -0.9145296150129214,
                -0.7464988733198172,
                0.5197969343247524,
                0.3327328565115545,
                -1.8067644440306474
            ]
        },
        {
            "positions": [
                -2.2571533486713364,
                -0.9303176199560942,
                -0.881872581555392,
                0.5704363903171605,
                0.3286437721830145,
                -1.6883329153192455
            ]
        },
        {
            "positions": [
                -2.1990871897338877,
                -0.946105624899267,
                -1.0172462897909669,
                0.6210758463095686,
                0.3245546878544745,
                -1.5699013866078435
            ]
        },
        {
            "positions": [
                -2.1410210307964395,
                -0.9618936298424398,
                -1.1526199980265417,
                0.6717153023019767,
                0.32046560352593456,
                -1.4514698578964416
            ]
        },
        {
            "positions": [
                -2.082954871858991,
                -0.9776816347856125,
                -1.2879937062621163,
                0.7223547582943848,
                0.31637651919739457,
                -1.3330383291850398
            ]
        },
        {
            "positions": [
                -2.0248887129215425,
                -0.9934696397287853,
                -1.423367414497691,
                0.7729942142867928,
                0.3122874348688546,
                -1.214606800473638
            ]
        },
        {
            "positions": [
                -1.966822553984094,
                -1.009257644671958,
                -1.558741122733266,
                0.823633670279201,
                0.30819835054031464,
                -1.096175271762236
            ]
        },
        {
            "positions": [
                -1.9087563950466455,
                -1.025045649615131,
                -1.6941148309688405,
                0.874273126271609,
                0.30410926621177464,
                -0.977743743050834
            ]
        },
        {
            "positions": [
                -1.850690236109197,
                -1.0408336545583037,
                -1.8294885392044158,
                0.9249125822640172,
                0.30002018188323465,
                -0.8593122143394321
            ]
        },
        {
            "positions": [
                -1.7134617738214315,
                -1.0905144319216458,
                -1.86775919117937,
                0.9985543886569271,
                0.29314800040683553,
                -0.7804450111741401
            ]
        },
        {
            "positions": [
                -1.5762333115336662,
                -1.140195209284988,
                -1.9060298431543246,
                1.072196195049837,
                0.28627581893043647,
                -0.7015778080088482
            ]
        },
        {
            "positions": [
                -1.4390048492459004,
                -1.1898759866483302,
                -1.9443004951292788,
                1.1458380014427472,
                0.2794036374540374,
                -0.6227106048435562
            ]
        },
        {
            "positions": [
                -1.3017763869581351,
                -1.2395567640116725,
                -1.982571147104233,
                1.219479807835657,
                0.2725314559776383,
                -0.5438434016782643
            ]
        },
        {
            "positions": [
                -1.1645479246703696,
                -1.2892375413750146,
                -2.0208417990791876,
                1.2931216142285669,
                0.26565927450123916,
                -0.4649761985129724
            ]
        },
        {
            "positions": [
                -1.027319462382604,
                -1.3389183187383569,
                -2.059112451054142,
                1.366763420621477,
                0.2587870930248401,
                -0.38610899534768045
            ]
        },
        {
            "positions": [
                -0.8900910000948388,
                -1.388599096101699,
                -2.097383103029096,
                1.4404052270143868,
                0.25191491154844103,
                -0.30724179218238856
            ]
        },
        {
            "positions": [
                -0.7528625378070732,
                -1.4382798734650413,
                -2.1356537550040504,
                1.5140470334072968,
                0.24504273007204191,
                -0.22837458901709662
            ]
        },
        {
            "positions": [
                -0.6156340755193077,
                -1.4879606508283834,
                -2.1739244069790047,
                1.5876888398002067,
                0.23817054859564282,
                -0.14950738585180479
            ]
        },
        {
            "positions": [
                -0.4784056132315422,
                -1.5376414281917257,
                -2.2121950589539594,
                1.6613306461931168,
                0.23129836711924373,
                -0.07064018268651273
            ]
        },
        {
            "positions": [
                -0.3411771509437769,
                -1.5873222055550678,
                -2.2504657109289137,
                1.7349724525860266,
                0.22442618564284464,
                0.008227020478779101
            ]
        },
        {
            "positions": [
                -0.20394868865601112,
                -1.63700298291841,
                -2.288736362903868,
                1.8086142589789367,
                0.21755400416644555,
                0.08709422364407116
            ]
        },
        {
            "positions": [
                -0.0667202263682459,
                -1.6866837602817522,
                -2.3270070148788222,
                1.8822560653718465,
                0.21068182269004646,
                0.16596142680936302
            ]
        },
        {
            "positions": [
                -0.09611442262279019,
                -1.8333655174247814,
                -2.344350620237657,
                1.7711097002573208,
                0.20065839880751346,
                0.14777327103908802
            ]
        },
        {
            "positions": [
                -0.12550861887733447,
                -1.9800472745678106,
                -2.3616942255964926,
                1.6599633351427951,
                0.19063497492498044,
                0.12958511526881303
            ]
        },
        {
            "positions": [
                -0.15490281513187876,
                -2.12672903171084,
                -2.3790378309553275,
                1.5488169700282697,
                0.18061155104244744,
                0.11139695949853802
            ]
        },
        {
            "positions": [
                -0.18429701138642304,
                -2.273410788853869,
                -2.3963814363141624,
                1.437670604913744,
                0.17058812715991445,
                0.09320880372826303
            ]
        }
    ]
}