{
    "goal": {
        "global_pose": {
            "orientation": {
                "w": -0.00223480608172531,
                "x": 0.0024358444001904467,
                "y": 0.7094548369677653,
                "z": -0.704743149386269
            },
            "position": {
                "x": 0.6205249238014221,
                "y": -0.6371506643295288,
                "z": 0.19426114857196808
            }
        },
        "name": "move_to_magneteinheit_B"
    },
    "id": "BFMT_move_to_magneteinheit_B_61",
    "joint_names": [
        "shoulder_pan_joint",
        "shoulder_lift_joint",
        "elbow_joint",
        "wrist_1_joint",
        "wrist_2_joint",
        "wrist_3_joint"
    ],
    "metrics": {
        "cart_traj_len": 1.3002260253509297,
        "distance_elbow_joint": 1.0909505078843065,
        "distance_shoulder_lift_joint": 0.755770919212719,
        "distance_shoulder_pan_joint": 1.6204762924883087,
        "distance_wrist_1_joint": 0.49789247676940995,
        "distance_wrist_2_joint": 1.521605619378272,
        "distance_wrist_3_joint": 0.5065634320275098,
        "smoothness": 0.32273390800573565,
        "time": 0.633769214,
        "traj_len": 2.4481134058210063,
        "weighted_distance": 3.004310937297141
    },
    "planner": "BFMT",
    "start": {
        "state": {
            "elbow_joint": 2.6216224122426386,
            "shoulder_lift_joint": -1.4174107377796124,
            "shoulder_pan_joint": 0.7066234856936794,
            "wrist_1_joint": 1.9546482284002225,
            "wrist_2_joint": -0.7096286983471962,
            "wrist_3_joint": 0.005740856962016249
        }
    },
    "waypoints": [
        {
            "positions": [
                0.7066234856936794,
                -1.4174107377796124,
                2.6216224122426386,
                1.9546482284002225,
                -0.7096286983471962,
                0.005740856962016249
            ]
        },
        {
            "positions": [
                0.5180689851710238,
                -1.3948714416637154,
                2.6327188131304897,
                1.9287502666352438,
                -0.7779502151861291,
                -0.03729135834556571
            ]
        },
        {
            "positions": [
                0.3295144846483684,
                -1.3723321455478183,
                2.6438152140183413,
                1.9028523048702655,
                -0.8462717320250619,
                -0.08032357365314767
            ]
        },
        {
            "positions": [
                0.14095998412571287,
                -1.3497928494319213,
                2.654911614906193,
                1.8769543431052869,
                -0.9145932488639948,
                -0.12335578896072964
            ]
        },
        {
            "positions": [
                -0.047594516396942566,
                -1.3272535533160243,
                2.666008015794044,
                1.8510563813403083,
                -0.9829147657029277,
                -0.16638800426831157
            ]
        },
        {
            "positions": [
                -0.23614901691959822,
                -1.3047142572001273,
                2.677104416681895,
                1.8251584195753299,
                -1.0512362825418606,
                -0.20942021957589357
            ]
        },
        {
            "positions": [
                -0.42470351744225376,
                -1.2821749610842303,
                2.6882008175697467,
                1.7992604578103513,
                -1.1195577993807935,
                -0.2524524348834755
            ]
        },
        {
            "positions": [
                -0.4736184463774914,
                -1.2201214468324966,
                2.5857636073140267,
                1.833510928428305,
                -1.230725451215261,
                -0.22761542086527373
            ]
        },
        {
            "positions": [
                -0.522533375312729,
                -1.158067932580763,
                2.483326397058307,
                1.867761399046259,
                -1.3418931030497285,
                -0.20277840684707193
            ]
        },
        {
            "positions": [
                -0.5714483042479667,
                -1.0960144183290292,
                2.3808891868025874,
                1.902011869664213,
                -1.4530607548841958,
                -0.17794139282887017
            ]
        },
        {
            "positions": [
                -0.6203632331832043,
                -1.0339609040772955,
                2.2784519765468674,
                1.9362623402821668,
                -1.5642284067186634,
                -0.15310437881066835
            ]
        },
        {
            "positions": [
                -0.6692781621184418,
                -0.9719073898255619,
                2.1760147662911473,
                1.9705128109001206,
                -1.675396058553131,
                -0.1282673647924666
            ]
        },
        {
            "positions": [
                -0.7181930910536796,
                -0.9098538755738281,
                2.0735775560354277,
                2.0047632815180747,
                -1.7865637103875982,
                -0.1034303507742648
            ]
        },
        {
            "positions": [
                -0.7671080199889171,
                -0.8478003613220945,
                1.9711403457797079,
                2.0390137521360283,
                -1.897731362222066,
                -0.078593336756063
            ]
        },
        {
            "positions": [
                -0.8160229489241548,
                -0.7857468470703608,
                1.868703135523988,
                2.0732642227539824,
                -2.0088990140565333,
                -0.053756322737861184
            ]
        },
        {
            "positions": [
                -0.8649378778593924,
                -0.723693332818627,
                1.7662659252682682,
                2.107514693371936,
                -2.1200666658910006,
                -0.02891930871965942
            ]
        },
        {
            "positions": [
                -0.91385280679463,
                -0.6616398185668934,
                1.6638287150125484,
                2.14176516398989,
                -2.2312343177254683,
                -0.004082294701457638
            ]
        }
    ]
}