{
    "goal": {
        "global_pose": {
            "orientation": {
                "w": 0.7047431493862688,
                "x": -0.7094548369677653,
                "y": 0.0024358444001904,
                "z": -0.0022348060817251984
            },
            "position": {
                "x": -0.39052492380142206,
                "y": 0.3671506643295288,
                "z": 0.19426114857196808
            }
        },
        "name": "move_to_magneteinheit_D"
    },
    "id": "BFMT_move_to_magneteinheit_D_64",
    "joint_names": [
        "shoulder_pan_joint",
        "shoulder_lift_joint",
        "elbow_joint",
        "wrist_1_joint",
        "wrist_2_joint",
        "wrist_3_joint"
    ],
    "metrics": {
        "cart_traj_len": 7.602483247215252,
        "distance_elbow_joint": 7.72970322376657,
        "distance_shoulder_lift_joint": 1.8396316284536318,
        "distance_shoulder_pan_joint": 8.971549100706868,
        "distance_wrist_1_joint": 4.78507229784273,
        "distance_wrist_2_joint": 2.4977985407946677,
        "distance_wrist_3_joint": 10.34170985600883,
        "smoothness": 0.43260155333268,
        "time": 1.5670562030000001,
        "traj_len": 6.0137729128703645,
        "weighted_distance": 8.008230466103509
    },
    "planner": "BFMT",
    "start": {
        "state": {
            "elbow_joint": 0.749534889911806,
            "shoulder_lift_joint": -0.6476975780787326,
            "shoulder_pan_joint": -2.711696901376241,
            "wrist_1_joint": -0.07506478083263063,
            "wrist_2_joint": 0.43296659715538205,
            "wrist_3_joint": -3.14703540197715
        }
    },
    "waypoints": [
        {
            "positions": [
                -2.711696901376241,
                -0.6476975780787326,
                0.749534889911806,
                -0.07506478083263063,
                0.43296659715538205,
                -3.14703540197715
            ]
        },
        {
            "positions": [
                -2.705350701725153,
                -0.6617192009697467,
                0.7436484104451945,
                0.013934325116758753,
                0.38322253357472275,
                -2.928356940638256
            ]
        },
        {
            "positions": [
                -2.699004502074064,
                -0.6757408238607607,
                0.737761930978583,
                0.10293343106614813,
                0.3334784699940635,
                -2.709678479299362
            ]
        },
        {
            "positions": [
                -2.6926583024229753,
                -0.6897624467517748,
                0.7318754515119715,
                0.19193253701553753,
                0.2837344064134042,
                -2.4910000179604674
            ]
        },
        {
            "positions": [
                -2.686312102771887,
                -0.7037840696427888,
                0.72598897204536,
                0.2809316429649269,
                0.2339903428327449,
                -2.2723215566215735
            ]
        },
        {
            "positions": [
                -2.6799659031207987,
                -0.7178056925338029,
                0.7201024925787485,
                0.3699307489143163,
                0.18424627925208556,
                -2.0536430952826796
            ]
        },
        {
            "positions": [
                -2.67361970346971,
                -0.7318273154248169,
                0.714216013112137,
                0.4589298548637057,
                0.13450221567142628,
                -1.8349646339437853
            ]
        },
        {
            "positions": [
                -2.6672735038186213,
                -0.745848938315831,
                0.7083295336455255,
                0.5479289608130951,
                0.08475815209076698,
                -1.6162861726048912
            ]
        },
        {
            "positions": [
                -2.660927304167533,
                -0.759870561206845,
                0.7024430541789141,
                0.6369280667624844,
                0.03501408851010773,
                -1.397607711265997
            ]
        },
        {
            "positions": [
                -2.6545811045164442,
                -0.7738921840978591,
                0.6965565747123026,
                0.7259271727118739,
                -0.014729975070551626,
                -1.1789292499271027
            ]
        },
        {
            "positions": [
                -2.648234904865356,
                -0.7879138069888731,
                0.6906700952456911,
                0.8149262786612632,
                -0.06447403865121093,
                -0.9602507885882088
            ]
        },
        {
            "positions": [
                -2.641888705214267,
                -0.8019354298798872,
                0.6847836157790796,
                0.9039253846106527,
                -0.11421810223187018,
                -0.7415723272493149
            ]
        },
        {
            "positions": [
                -2.635542505563179,
                -0.8159570527709012,
                0.6788971363124681,
                0.9929244905600421,
                -0.16396216581252948,
                -0.5228938659104205
            ]
        },
        {
            "positions": [
                -2.6291963059120906,
                -0.8299786756619153,
                0.6730106568458566,
                1.0819235965094316,
                -0.21370622939318878,
                -0.3042154045715262
            ]
        },
        {
            "positions": [
                -2.622850106261002,
                -0.8440002985529294,
                0.6671241773792451,
                1.170922702458821,
                -0.2634502929738481,
                -0.08553694323263211
            ]
        },
        {
            "positions": [
                -2.4261127237249593,
                -0.946657934290836,
                0.622791619598413,
                1.174550973432007,
                -0.24779068574209007,
                -0.1051106502770866
            ]
        },
        {
            "positions": [
                -2.229375341188917,
                -1.0493155700287427,
                0.578459061817581,
                1.1781792444051928,
                -0.23213107851033205,
                -0.12468435732154108
            ]
        },
        {
            "positions": [
                -2.0326379586528738,
                -1.1519732057666492,
                0.5341265040367489,
                1.181807515378379,
                -0.21647147127857405,
                -0.1442580643659956
            ]
        },
        {
            "positions": [
                -1.8359005761168314,
                -1.2546308415045557,
                0.4897939462559169,
                1.1854357863515648,
                -0.20081186404681603,
                -0.16383177141045005
            ]
        },
        {
            "positions": [
                -1.6391631935807887,
                -1.3572884772424625,
                0.44546138847508476,
                1.1890640573247508,
                -0.185152256815058,
                -0.18340547845490457
            ]
        },
        {
            "positions": [
                -1.442425811044746,
                -1.459946112980369,
                0.4011288306942527,
                1.192692328297937,
                -0.16949264958330001,
                -0.20297918549935903
            ]
        },
        {
            "positions": [
                -1.2456884285087033,
                -1.5626037487182756,
                0.3567962729134206,
                1.1963205992711228,
                -0.153833042351542,
                -0.22255289254381352
            ]
        },
        {
            "positions": [
                -1.048951045972661,
                -1.665261384456182,
                0.3124637151325886,
                1.1999488702443089,
                -0.13817343511978397,
                -0.242126599588268
            ]
        },
        {
            "positions": [
                -0.8522136634366182,
                -1.7679190201940889,
                0.2681311573517565,
                1.2035771412174947,
                -0.12251382788802595,
                -0.2617003066327225
            ]
        },
        {
            "positions": [
                -0.6554762809005754,
                -1.8705766559319956,
                0.2237985995709244,
                1.2072054121906808,
                -0.10685422065626793,
                -0.28127401367717697
            ]
        },
        {
            "positions": [
                -0.45873889836453285,
                -1.973234291669902,
                0.1794660417900924,
                1.2108336831638666,
                -0.09119461342450993,
                -0.30084772072163146
            ]
        },
        {
            "positions": [
                -0.2620015158284903,
                -2.0758919274078087,
                0.13513348400926029,
                1.2144619541370527,
                -0.07553500619275191,
                -0.32042142776608595
            ]
        },
        {
            "positions": [
                -0.15558144173562322,
                -2.0725926823196064,
                0.20941625894971905,
                1.1629653182818602,
                -0.045412862155150516,
                -0.20158814046037818
            ]
        },
        {
            "positions": [
                -0.04916136764275611,
                -2.0692934372314036,
                0.2836990338901778,
                1.1114686824266675,
                -0.015290718117549125,
                -0.0827548531546704
            ]
        },
        {
            "positions": [
                0.057258706450111,
                -2.0659941921432012,
                0.35798180883063657,
                1.059972046571475,
                0.014831425920052266,
                0.0360784341510374
            ]
        },
        {
            "positions": [
                0.16367878054297808,
                -2.0626949470549985,
                0.4322645837710953,
                1.0084754107162823,
                0.044953569957653663,
                0.15491172145674514
            ]
        },
        {
            "positions": [
                0.27009885463584515,
                -2.059395701966796,
                0.5065473587115541,
                0.9569787748610898,
                0.07507571399525506,
                0.2737450087624529
            ]
        },
        {
            "positions": [
                0.3765189287287123,
                -2.0560964568785933,
                0.5808301336520127,
                0.9054821390058971,
                0.10519785803285644,
                0.39257829606816075
            ]
        },
        {
            "positions": [
                0.4829390028215794,
                -2.052797211790391,
                0.6551129085924715,
                0.8539855031507047,
                0.13532000207045783,
                0.5114115833738685
            ]
        },
        {
            "positions": [
                0.5893590769144464,
                -2.0494979667021886,
                0.7293956835329303,
                0.802488867295512,
                0.16544214610805924,
                0.6302448706795762
            ]
        },
        {
            "positions": [
                0.6957791510073137,
                -2.046198721613986,
                0.8036784584733891,
                0.7509922314403195,
                0.19556429014566065,
                0.7490781579852841
            ]
        },
        {
            "positions": [
                0.8021992251001806,
                -2.0428994765257835,
                0.8779612334138478,
                0.6994955955851269,
                0.22568643418326204,
                0.8679114452909917
            ]
        },
        {
            "positions": [
                0.9086192991930477,
                -2.0396002314375807,
                0.9522440083543066,
                0.6479989597299343,
                0.25580857822086345,
                0.9867447325966996
            ]
        },
        {
            "positions": [
                1.0150393732859149,
                -2.0363009863493784,
                1.0265267832947653,
                0.5965023238747417,
                0.28593072225846483,
                1.1055780199024074
            ]
        },
        {
            "positions": [
                1.121459447378782,
                -2.0330017412611756,
                1.1008095582352242,
                0.5450056880195491,
                0.3160528662960662,
                1.2244113072081153
            ]
        },
        {
            "positions": [
                1.2278795214716491,
                -2.0297024961729733,
                1.1750923331756828,
                0.4935090521643566,
                0.3461750103336676,
                1.343244594513823
            ]
        },
        {
            "positions": [
                1.3342995955645163,
                -2.0264032510847705,
                1.2493751081161415,
                0.4420124163091639,
                0.376297154371269,
                1.4620778818195308
            ]
        },
        {
            "positions": [
                1.4407196696573832,
                -2.023104005996568,
                1.3236578830566001,
                0.3905157804539714,
                0.40641929840887037,
                1.5809111691252384
            ]
        },
        {
            "positions": [
                1.5471397437502503,
                -2.019804760908366,
                1.3979406579970588,
                0.3390191445987788,
                0.43654144244647175,
                1.699744456430946
            ]
        },
        {
            "positions": [
                1.6535598178431177,
                -2.016505515820163,
                1.472223432937518,
                0.2875225087435861,
                0.46666358648407325,
                1.8185777437366542
            ]
        },
        {
            "positions": [
                1.7599798919359846,
                -2.0132062707319607,
                1.5465062078779765,
                0.2360258728883936,
                0.49678573052167463,
                1.9374110310423618
            ]
        },
        {
            "positions": [
                1.8663999660288515,
                -2.009907025643758,
                1.6207889828184352,
                0.184529237033201,
                0.526907874559276,
                2.056244318348069
            ]
        },
        {
            "positions": [
                1.9728200401217184,
                -2.0066077805555556,
                1.6950717577588938,
                0.13303260117800852,
                0.5570300185968774,
                2.175077605653777
            ]
        },
        {
            "positions": [
                2.0792401142145858,
                -2.0033085354673528,
                1.769354532699353,
                0.08153596532281582,
                0.5871521626344788,
                2.2939108929594854
            ]
        },
        {
            "positions": [
                2.185660188307453,
                -2.0000092903791504,
                1.8436373076398116,
                0.030039329467623332,
                0.6172743066720802,
                2.412744180265193
            ]
        },
        {
            "positions": [
                2.29208026240032,
                -1.9967100452909479,
                1.9179200825802702,
                -0.021457306387569375,
                0.6473964507096815,
                2.5315774675709006
            ]
        },
        {
            "positions": [
                2.398500336493187,
                -1.9934108002027453,
                1.992202857520729,
                -0.07295394224276186,
                0.6775185947472829,
                2.6504107548766083
            ]
        },
        {
            "positions": [
                2.5049204105860543,
                -1.9901115551145427,
                2.066485632461188,
                -0.12445057809795457,
                0.7076407387848844,
                2.769244042182317
            ]
        },
        {
            "positions": [
                2.611340484678921,
                -1.9868123100263402,
                2.1407684074016466,
                -0.17594721395314705,
                0.7377628828224858,
                2.8880773294880244
            ]
        },
        {
            "positions": [
                2.7177605587717886,
                -1.9835130649381378,
                2.2150511823421053,
                -0.22744384980833954,
                0.7678850268600871,
                3.006910616793732
            ]
        },
        {
            "positions": [
                2.8241806328646555,
                -1.9802138198499353,
                2.289333957282564,
                -0.27894048566353224,
                0.7980071708976885,
                3.1257439040994397
            ]
        },
        {
            "positions": [
                2.930600706957523,
                -1.9769145747617327,
                2.363616732223023,
                -0.33043712151872495,
                0.82812931493529,
                3.2445771914051473
            ]
        },
        {
            "positions": [
                3.0370207810503898,
                -1.9736153296735301,
                2.4378995071634817,
                -0.38193375737391744,
                0.8582514589728913,
                3.3634104787108554
            ]
        },
        {
            "positions": [
                2.949917229204978,
                -1.9819710237651593,
                2.307830972171325,
                -0.33060538301278036,
                0.839881731980494,
                3.272559262325614
            ]
        },
        {
            "positions": [
                2.862813677359566,
                -1.9903267178567883,
                2.177762437179168,
                -0.2792770086516433,
                0.8215120049880966,
                3.181708045940373
            ]
        },
        {
            "positions": [
                2.7757101255141543,
                -1.9986824119484174,
                2.047693902187011,
                -0.22794863429050624,
                0.8031422779956994,
                3.0908568295551317
            ]
        },
        {
            "positions": [
                2.6886065736687423,
                -2.0070381060400466,
                1.9176253671948542,
                -0.1766202599293692,
                0.784772551003302,
                3.0000056131698902
            ]
        },
        {
            "positions": [
                2.6015030218233304,
                -2.0153938001316756,
                1.7875568322026976,
                -0.12529188556823212,
                0.7664028240109046,
                2.9091543967846487
            ]
        },
        {
            "positions": [
                2.514399469977919,
                -2.023749494223305,
                1.6574882972105407,
                -0.07396351120709505,
                0.7480330970185073,
                2.8183031803994076
            ]
        },
        {
            "positions": [
                2.427295918132507,
                -2.032105188314934,
                1.527419762218384,
                -0.02263513684595797,
                0.7296633700261099,
                2.7274519640141666
            ]
        },
        {
            "positions": [
                2.340192366287095,
                -2.040460882406563,
                1.397351227226227,
                0.02869323751517905,
                0.7112936430337127,
                2.636600747628925
            ]
        },
        {
            "positions": [
                2.253088814441683,
                -2.0488165764981923,
                1.2672826922340703,
                0.08002161187631612,
                0.6929239160413152,
                2.5457495312436835
            ]
        },
        {
            "positions": [
                2.165985262596271,
                -2.057172270589821,
                1.1372141572419134,
                0.1313499862374532,
                0.674554189048918,
                2.4548983148584425
            ]
        },
        {
            "positions": [
                2.0788817107508595,
                -2.0655279646814506,
                1.0071456222497566,
                0.18267836059859022,
                0.6561844620565206,
                2.3640470984732014
            ]
        },
        {
            "positions": [
                1.9917781589054475,
                -2.0738836587730796,
                0.8770770872575997,
                0.23400673495972735,
                0.6378147350641232,
                2.27319588208796
            ]
        },
        {
            "positions": [
                1.9046746070600358,
                -2.0822393528647085,
                0.7470085522654428,
                0.28533510932086437,
                0.6194450080717259,
                2.1823446657027183
            ]
        },
        {
            "positions": [
                1.8175710552146238,
                -2.090595046956338,
                0.6169400172732862,
                0.3366634836820015,
                0.6010752810793285,
                2.0914934493174773
            ]
        },
        {
            "positions": [
                1.730467503369212,
                -2.098950741047967,
                0.4868714822811293,
                0.3879918580431385,
                0.5827055540869313,
                2.000642232932236
            ]
        },
        {
            "positions": [
                1.6433639515238,
                -2.107306435139596,
                0.3568029472889722,
                0.43932023240427553,
                0.5643358270945339,
                1.9097910165469947
            ]
        },
        {
            "positions": [
                1.5562603996783884,
                -2.115662129231225,
                0.2267344122968158,
                0.49064860676541266,
                0.5459661001021365,
                1.8189398001617534
            ]
        },
        {
            "positions": [
                1.4691568478329764,
                -2.124017823322854,
                0.09666587730465892,
                0.5419769811265497,
                0.5275963731097392,
                1.728088583776512
            ]
        },
        {
            "positions": [
                1.3820532959875649,
                -2.132373517414483,
                -0.03340265768749795,
                0.5933053554876867,
                0.5092266461173419,
                1.637237367391271
            ]
        },
        {
            "positions": [
                1.2949497441421527,
                -2.1407292115061125,
                -0.16347119267965482,
                0.6446337298488238,
                0.4908569191249445,
                1.5463861510060295
            ]
        },
        {
            "positions": [
                1.2078461922967412,
                -2.1490849055977415,
                -0.29353972767181125,
                0.6959621042099609,
                0.4724871921325472,
                1.4555349346207884
            ]
        },
        {
            "positions": [
                1.120742640451329,
                -2.157440599689371,
                -0.42360826266396856,
                0.7472904785710979,
                0.45411746514014983,
                1.364683718235547
            ]
        },
        {
            "positions": [
                1.0336390886059172,
                -2.165796293781,
                -0.553676797656125,
                0.7986188529322349,
                0.43574773814775253,
                1.2738325018503058
            ]
        },
        {
            "positions": [
                0.9465355367605053,
                -2.1741519878726288,
                -0.6837453326482823,
                0.8499472272933721,
                0.41737801115535517,
                1.1829812854650643
            ]
        },
        {
            "positions": [
                0.8594319849150938,
                -2.182507681964258,
                -0.8138138676404387,
                0.9012756016545092,
                0.39900828416295786,
                1.0921300690798232
            ]
        },
        {
            "positions": [
                0.7723284330696818,
                -2.190863376055887,
                -0.943882402632596,
                0.9526039760156462,
                0.38063855717056044,
                1.0012788526945817
            ]
        },
        {
            "positions": [
                0.6852248812242698,
                -2.199219070147516,
                -1.0739509376247525,
                1.0039323503767832,
                0.36226883017816314,
                0.9104276363093406
            ]
        },
        {
            "positions": [
                0.5981213293788579,
                -2.2075747642391454,
                -1.2040194726169093,
                1.0552607247379204,
                0.3438991031857658,
                0.8195764199240991
            ]
        },
        {
            "positions": [
                0.5110177775334463,
                -2.2159304583307744,
                -1.3340880076090662,
                1.1065890990990572,
                0.3255293761933685,
                0.7287252035388581
            ]
        },
        {
            "positions": [
                0.4239142256880344,
                -2.224286152422404,
                -1.464156542601223,
                1.1579174734601945,
                0.30715964920097105,
                0.6378739871536165
            ]
        },
        {
            "positions": [
                0.3368106738426224,
                -2.2326418465140327,
                -1.5942250775933795,
                1.2092458478213315,
                0.2887899222085738,
                0.5470227707683755
            ]
        },
        {
            "positions": [
                0.24970712199721046,
                -2.2409975406056617,
                -1.7242936125855373,
                1.2605742221824685,
                0.27042019521617644,
                0.45617155438313395
            ]
        },
        {
            "positions": [
                0.16260357015179894,
                -2.249353234697291,
                -1.8543621475776932,
                1.3119025965436055,
                0.2520504682237791,
                0.3653203379978929
            ]
        },
        {
            "positions": [
                0.07550001830638697,
                -2.25770892878892,
                -1.9844306825698501,
                1.3632309709047428,
                0.23368074123138172,
                0.27446912161265136
            ]
        },
        {
            "positions": [
                -0.01160353353902499,
                -2.266064622880549,
                -2.114499217562007,
                1.4145593452658798,
                0.21531101423898447,
                0.18361790522741028
            ]
        },
        {
            "positions": [
                -0.09870708538443695,
                -2.2744203169721784,
                -2.244567752554164,
                1.4658877196270168,
                0.196941287246587,
                0.09276668884216877
            ]
        },
        {
            "positions": [
                -0.1858106372298487,
                -2.2827760110638073,
                -2.3746362875463203,
                1.5172160939881538,
                0.17857156025418974,
                0.0019154724569275792
            ]
        }
    ]
}