{
    "goal": {
        "global_pose": {
            "orientation": {
                "w": 0.5084816262002911,
                "x": -0.4908360881923452,
                "y": 0.5182115481033761,
                "z": -0.48164630358495003
            },
            "position": {
                "x": 0.5540239810943604,
                "y": -0.46912469901144505,
                "z": 0.16403168439865112
            }
        },
        "name": "move_to_storage_B"
    },
    "id": "BFMT_move_to_storage_B_147",
    "joint_names": [
        "shoulder_pan_joint",
        "shoulder_lift_joint",
        "elbow_joint",
        "wrist_1_joint",
        "wrist_2_joint",
        "wrist_3_joint"
    ],
    "metrics": {
        "cart_traj_len": 0.6341978365920132,
        "distance_elbow_joint": 0.3502879560662122,
        "distance_shoulder_lift_joint": 0.4581193454397836,
        "distance_shoulder_pan_joint": 0.18133494662508298,
        "distance_wrist_1_joint": 2.986700679642721,
        "distance_wrist_2_joint": 2.7087935185088607,
        "distance_wrist_3_joint": 3.141295567305567,
        "smoothness": 4.605369609677941e-16,
        "time": 0.6775576839999999,
        "traj_len": 3.134729974589235,
        "weighted_distance": 4.669541449259333
    },
    "planner": "BFMT",
    "start": {
        "state": {
            "elbow_joint": 1.664937868594044,
            "shoulder_lift_joint": -0.661644460510453,
            "shoulder_pan_joint": -0.9139846352900073,
            "wrist_1_joint": 2.146753192139373,
            "wrist_2_joint": -2.2341966793290973,
            "wrist_3_joint": 0.005466555786416001
        }
    },
    "waypoints": [
        {
            "positions": [
                -0.9139846352900073,
                -0.661644460510453,
                1.664937868594044,
                2.146753192139373,
                -2.2341966793290973,
                0.005466555786416001
            ]
        },
        {
            "positions": [
                -0.9363082821476748,
                -0.6863617675557172,
                1.7016474373455375,
                2.0231579481632087,
                -2.1473669923014893,
                -0.06380235667556375
            ]
        },
        {
            "positions": [
                -0.9586319290053423,
                -0.7110790746009814,
                1.738357006097031,
                1.8995627041870444,
                -2.0605373052738813,
                -0.1330712691375435
            ]
        },
        {
            "positions": [
                -0.98095557586301,
                -0.7357963816462456,
                1.7750665748485246,
                1.7759674602108801,
                -1.9737076182462732,
                -0.20234018159952327
            ]
        },
        {
            "positions": [
                -1.0032792227206775,
                -0.7605136886915098,
                1.8117761436000182,
                1.6523722162347159,
                -1.8868779312186652,
                -0.27160909406150296
            ]
        },
        {
            "positions": [
                -1.025602869578345,
                -0.785230995736774,
                1.8484857123515117,
                1.5287769722585514,
                -1.800048244191057,
                -0.34087800652348277
            ]
        },
        {
            "positions": [
                -1.0479265164360125,
                -0.8099483027820382,
                1.8851952811030053,
                1.405181728282387,
                -1.713218557163449,
                -0.4101469189854625
            ]
        },
        {
            "positions": [
                -1.0502961697099664,
                -0.8254390779404481,
                1.8916968082808678,
                1.2929252674931002,
                -1.6038277873462885,
                -0.546431023612147
            ]
        },
        {
            "positions": [
                -1.0526658229839203,
                -0.840929853098858,
                1.8981983354587304,
                1.1806688067038136,
                -1.4944370175291277,
                -0.6827151282388314
            ]
        },
        {
            "positions": [
                -1.0550354762578742,
                -0.856420628257268,
                1.904699862636593,
                1.0684123459145267,
                -1.385046247711967,
                -0.8189992328655158
            ]
        },
        {
            "positions": [
                -1.057405129531828,
                -0.8719114034156779,
                1.9112013898144555,
                0.95615588512524,
                -1.2756554778948064,
                -0.9552833374922003
            ]
        },
        {
            "positions": [
                -1.059774782805782,
                -0.8874021785740878,
                1.9177029169923179,
                0.8438994243359532,
                -1.1662647080776458,
                -1.0915674421188846
            ]
        },
        {
            "positions": [
                -1.0621444360797359,
                -0.9028929537324978,
                1.9242044441701804,
                0.7316429635466665,
                -1.056873938260485,
                -1.227851546745569
            ]
        },
        {
            "positions": [
                -1.0645140893536897,
                -0.9183837288909077,
                1.930705971348043,
                0.6193865027573797,
                -0.9474831684433244,
                -1.3641356513722536
            ]
        },
        {
            "positions": [
                -1.0668837426276436,
                -0.9338745040493176,
                1.9372074985259056,
                0.5071300419680929,
                -0.8380923986261637,
                -1.500419755998938
            ]
        },
        {
            "positions": [
                -1.0692533959015975,
                -0.9493652792077275,
                1.9437090257037681,
                0.394873581178806,
                -0.728701628809003,
                -1.6367038606256223
            ]
        },
        {
            "positions": [
                -1.0716230491755514,
                -0.9648560543661374,
                1.9502105528816307,
                0.28261712038951936,
                -0.6193108589918424,
                -1.7729879652523068
            ]
        },
        {
            "positions": [
                -1.0739927024495053,
                -0.9803468295245473,
                1.9567120800594933,
                0.1703606596002325,
                -0.5099200891746816,
                -1.9092720698789913
            ]
        },
        {
            "positions": [
                -1.0763623557234592,
                -0.9958376046829572,
                1.9632136072373558,
                0.05810419881094586,
                -0.400529319357521,
                -2.0455561745056756
            ]
        },
        {
            "positions": [
                -1.078732008997413,
                -1.0113283798413673,
                1.9697151344152184,
                -0.054152261978341,
                -0.2911385495403602,
                -2.18184027913236
            ]
        },
        {
            "positions": [
                -1.081101662271367,
                -1.0268191549997772,
                1.976216661593081,
                -0.16640872276762764,
                -0.18174777972319967,
                -2.318124383759044
            ]
        },
        {
            "positions": [
                -1.0834713155453208,
                -1.042309930158187,
                1.9827181887709435,
                -0.2786651835569145,
                -0.07235700990603888,
                -2.454408488385729
            ]
        },
        {
            "positions": [
                -1.0858409688192747,
                -1.057800705316597,
                1.9892197159488059,
                -0.39092164434620136,
                0.03703375991112168,
                -2.5906925930124136
            ]
        },
        {
            "positions": [
                -1.0882106220932286,
                -1.0732914804750069,
                1.9957212431266684,
                -0.503178105135488,
                0.14642452972828224,
                -2.7269766976390977
            ]
        },
        {
            "positions": [
                -1.0905802753671825,
                -1.0887822556334168,
                2.002222770304531,
                -0.6154345659247751,
                0.255815299545443,
                -2.863260802265782
            ]
        },
        {
            "positions": [
                -1.0929499286411364,
                -1.1042730307918267,
                2.008724297482394,
                -0.7276910267140613,
                0.3652060693626038,
                -2.9995449068924667
            ]
        },
        {
            "positions": [
                -1.0953195819150903,
                -1.1197638059502366,
                2.015225824660256,
                -0.8399474875033482,
                0.4745968391797642,
                -3.135829011519151
            ]
        }
    ]
}