{
    "goal": {
        "global_pose": {
            "orientation": {
                "w": 0.7047431493862688,
                "x": -0.7094548369677653,
                "y": 0.0024358444001904,
                "z": -0.0022348060817251984
            },
            "position": {
                "x": -0.39052492380142206,
                "y": 0.3671506643295288,
                "z": 0.19426114857196808
            }
        },
        "name": "move_to_magneteinheit_D"
    },
    "id": "BFMT_move_to_magneteinheit_D_30",
    "joint_names": [
        "shoulder_pan_joint",
        "shoulder_lift_joint",
        "elbow_joint",
        "wrist_1_joint",
        "wrist_2_joint",
        "wrist_3_joint"
    ],
    "metrics": {
        "cart_traj_len": 5.09830506067693,
        "distance_elbow_joint": 3.8474734927417207,
        "distance_shoulder_lift_joint": 1.0966075928969914,
        "distance_shoulder_pan_joint": 3.620174478633886,
        "distance_wrist_1_joint": 2.088836297665689,
        "distance_wrist_2_joint": 1.4456674732044303,
        "distance_wrist_3_joint": 1.1202152605434228,
        "smoothness": 0.7764136485433188,
        "time": 0.849545835,
        "traj_len": 3.63579077996605,
        "weighted_distance": 4.358200189027933
    },
    "planner": "BFMT",
    "start": {
        "state": {
            "elbow_joint": 0.749534889911806,
            "shoulder_lift_joint": -0.6476975780787326,
            "shoulder_pan_joint": -2.711696901376241,
            "wrist_1_joint": -0.07506478083263063,
            "wrist_2_joint": 0.43296659715538205,
            "wrist_3_joint": -3.14703540197715
        }
    },
    "waypoints": [
        {
            "positions": [
                -2.711696901376241,
                -0.6476975780787326,
                0.749534889911806,
                -0.07506478083263063,
                0.43296659715538205,
                -3.14703540197715
            ]
        },
        {
            "positions": [
                -2.752171161880744,
                -0.7703098897035658,
                0.783910625234904,
                -0.10957805582275848,
                0.3964144646337542,
                -3.1243688354300367
            ]
        },
        {
            "positions": [
                -2.7926454223852466,
                -0.8929222013283991,
                0.818286360558002,
                -0.14409133081288633,
                0.35986233211212637,
                -3.101702268882924
            ]
        },
        {
            "positions": [
                -2.6263274345757934,
                -0.9142773873127674,
                0.7397018619271819,
                -0.23065592113651506,
                0.33552879199669156,
                -3.1137447096957436
            ]
        },
        {
            "positions": [
                -2.4600094467663407,
                -0.9356325732971358,
                0.6611173632963618,
                -0.3172205114601438,
                0.3111952518812568,
                -3.1257871505085633
            ]
        },
        {
            "positions": [
                -2.2936914589568875,
                -0.9569877592815043,
                0.5825328646655419,
                -0.4037851017837725,
                0.286861711765822,
                -3.137829591321383
            ]
        },
        {
            "positions": [
                -2.1273734711474344,
                -0.9783429452658726,
                0.5039483660347218,
                -0.49034969210740126,
                0.26252817165038717,
                -3.1498720321342026
            ]
        },
        {
            "positions": [
                -1.9610554833379814,
                -0.999698131250241,
                0.42536386740390175,
                -0.57691428243103,
                0.2381946315349524,
                -3.1619144729470223
            ]
        },
        {
            "positions": [
                -1.7947374955285282,
                -1.0210533172346095,
                0.3467793687730817,
                -0.6634788727546588,
                0.2138610914195176,
                -3.173956913759842
            ]
        },
        {
            "positions": [
                -1.6284195077190753,
                -1.0424085032189778,
                0.2681948701422616,
                -0.7500434630782875,
                0.1895275513040828,
                -3.1859993545726617
            ]
        },
        {
            "positions": [
                -1.4621015199096221,
                -1.0637636892033462,
                0.18961037151144167,
                -0.8366080534019162,
                0.165194011188648,
                -3.198041795385482
            ]
        },
        {
            "positions": [
                -1.2957835321001692,
                -1.0851188751877145,
                0.1110258728806216,
                -0.923172643725545,
                0.1408604710732132,
                -3.2100842361983015
            ]
        },
        {
            "positions": [
                -1.1294655442907162,
                -1.106474061172083,
                0.032441374249801536,
                -1.0097372340491737,
                0.11652693095777841,
                -3.222126677011121
            ]
        },
        {
            "positions": [
                -0.963147556481263,
                -1.1278292471564513,
                -0.04614312438101842,
                -1.0963018243728022,
                0.09219339084234363,
                -3.234169117823941
            ]
        },
        {
            "positions": [
                -0.7968295686718099,
                -1.1491844331408199,
                -0.1247276230118386,
                -1.1828664146964312,
                0.06785985072690881,
                -3.2462115586367606
            ]
        },
        {
            "positions": [
                -0.6305115808623567,
                -1.1705396191251882,
                -0.20331212164265855,
                -1.26943100502006,
                0.043526310611473995,
                -3.2582539994495803
            ]
        },
        {
            "positions": [
                -0.464193593052904,
                -1.1918948051095566,
                -0.2818966202734787,
                -1.3559955953436886,
                0.019192770496039235,
                -3.2702964402624
            ]
        },
        {
            "positions": [
                -0.2978756052434509,
                -1.213249991093925,
                -0.3604811189042988,
                -1.4425601856673174,
                -0.005140769619395587,
                -3.2823388810752196
            ]
        },
        {
            "positions": [
                -0.2533708597497897,
                -1.2420022572722962,
                -0.5375848786481046,
                -1.4948872906875055,
                0.027229965208298484,
                -3.243114776614132
            ]
        },
        {
            "positions": [
                -0.2088661142561284,
                -1.2707545234506672,
                -0.7146886383919104,
                -1.5472143957076934,
                0.059600700035992556,
                -3.2038906721530442
            ]
        },
        {
            "positions": [
                -0.16436136876246712,
                -1.2995067896290384,
                -0.8917923981357162,
                -1.5995415007278815,
                0.09197143486368664,
                -3.1646665676919565
            ]
        },
        {
            "positions": [
                -0.11985662326880586,
                -1.3282590558074097,
                -1.068896157879522,
                -1.6518686057480694,
                0.1243421696913807,
                -3.1254424632308693
            ]
        },
        {
            "positions": [
                -0.0753518777751446,
                -1.3570113219857807,
                -1.2459999176233278,
                -1.7041957107682575,
                0.15671290451907477,
                -3.0862183587697816
            ]
        },
        {
            "positions": [
                -0.030847132281483336,
                -1.385763588164152,
                -1.4231036773671337,
                -1.7565228157884454,
                0.18908363934676886,
                -3.046994254308694
            ]
        },
        {
            "positions": [
                0.0136576132121779,
                -1.4145158543425231,
                -1.6002074371109396,
                -1.8088499208086335,
                0.2214543741744629,
                -3.007770149847606
            ]
        },
        {
            "positions": [
                0.05816235870583919,
                -1.4432681205208944,
                -1.7773111968547455,
                -1.8611770258288214,
                0.253825109002157,
                -2.9685460453865185
            ]
        },
        {
            "positions": [
                0.10266710419950043,
                -1.4720203866992654,
                -1.954414956598551,
                -1.9135041308490095,
                0.286195843829851,
                -2.9293219409254307
            ]
        },
        {
            "positions": [
                0.14717184969316172,
                -1.5007726528776366,
                -2.131518716342357,
                -1.9658312358691976,
                0.3185665786575451,
                -2.890097836464343
            ]
        },
        {
            "positions": [
                0.19167659518682295,
                -1.5295249190560076,
                -2.3086224760861627,
                -2.0181583408893857,
                0.3509373134852392,
                -2.8508737320032558
            ]
        },
        {
            "positions": [
                0.23618134068048424,
                -1.5582771852343789,
                -2.4857262358299685,
                -2.0704854459095734,
                0.3833080483129333,
                -2.811649627542168
            ]
        },
        {
            "positions": [
                0.2806860861741455,
                -1.58702945141275,
                -2.6628299955737744,
                -2.1228125509297615,
                0.41567878314062734,
                -2.7724255230810804
            ]
        },
        {
            "positions": [
                0.18750719636104796,
                -1.6184845953253448,
                -2.603308862381025,
                -2.131030256443473,
                0.29833067240670125,
                -2.8492919545336326
            ]
        },
        {
            "positions": [
                0.09432830654795044,
                -1.6499397392379396,
                -2.543787729188275,
                -2.1392479619571847,
                0.18098256167277513,
                -2.926158385986185
            ]
        },
        {
            "positions": [
                0.0011494167348529705,
                -1.6813948831505345,
                -2.4842665959955257,
                -2.1474656674708963,
                0.06363445093884906,
                -3.0030248174387375
            ]
        },
        {
            "positions": [
                -0.0920294730782446,
                -1.7128500270631293,
                -2.424745462802776,
                -2.155683372984608,
                -0.053713659795077084,
                -3.0798912488912897
            ]
        },
        {
            "positions": [
                -0.18520836289134207,
                -1.744305170975724,
                -2.3652243296100264,
                -2.1639010784983195,
                -0.1710617705290032,
                -3.156757680343842
            ]
        }
    ]
}