{
    "goal": {
        "global_pose": {
            "orientation": {
                "w": 0.005598929693374612,
                "x": 0.007748599140229565,
                "y": 0.7110244013736278,
                "z": -0.7031023480610252
            },
            "position": {
                "x": 0.1141497679147869,
                "y": -0.7141253447532654,
                "z": 0.3711530566215515
            }
        },
        "name": "move_to_auspresseinheit_B"
    },
    "id": "BFMT_move_to_auspresseinheit_B_90",
    "joint_names": [
        "shoulder_pan_joint",
        "shoulder_lift_joint",
        "elbow_joint",
        "wrist_1_joint",
        "wrist_2_joint",
        "wrist_3_joint"
    ],
    "metrics": {
        "cart_traj_len": 0.5644432213541503,
        "distance_elbow_joint": 0.06428395085702387,
        "distance_shoulder_lift_joint": 0.29370489515829257,
        "distance_shoulder_pan_joint": 0.5778518730473332,
        "distance_wrist_1_joint": 0.3354571462230187,
        "distance_wrist_2_joint": 0.9898527991975292,
        "distance_wrist_3_joint": 0.0006338988823686442,
        "smoothness": 5.075305255429287e-16,
        "time": 0.465535604,
        "traj_len": 1.5039230576613838,
        "weighted_distance": 1.8942973120792974
    },
    "planner": "BFMT",
    "start": {
        "state": {
            "elbow_joint": 2.0193083361928714,
            "shoulder_lift_joint": -1.1220246554650708,
            "shoulder_pan_joint": -1.0952077554168747,
            "wrist_1_joint": -0.8559753972642168,
            "wrist_2_joint": 0.4759566250798843,
            "wrist_3_joint": -3.1240929996934557
        }
    },
    "waypoints": [
        {
            "positions": [
                -1.0952077554168747,
                -1.1220246554650708,
                2.0193083361928714,
                -0.8559753972642168,
                0.4759566250798843,
                -3.1240929996934557
            ]
        },
        {
            "positions": [
                -1.1915164009247636,
                -1.1709754713247862,
                2.0085943443833676,
                -0.8000658728937137,
                0.6409320916128058,
                -3.124198649507184
            ]
        },
        {
            "positions": [
                -1.2878250464326524,
                -1.2199262871845016,
                1.9978803525738635,
                -0.7441563485232106,
                0.8059075581457273,
                -3.124304299320912
            ]
        },
        {
            "positions": [
                -1.3841336919405411,
                -1.268877103044217,
                1.9871663607643595,
                -0.6882468241527074,
                0.9708830246786488,
                -3.12440994913464
            ]
        },
        {
            "positions": [
                -1.4804423374484301,
                -1.3178279189039326,
                1.9764523689548554,
                -0.6323372997822043,
                1.1358584912115703,
                -3.124515598948368
            ]
        },
        {
            "positions": [
                -1.576750982956319,
                -1.366778734763648,
                1.9657383771453516,
                -0.5764277754117012,
                1.300833957744492,
                -3.124621248762096
            ]
        },
        {
            "positions": [
                -1.6730596284642079,
                -1.4157295506233634,
                1.9550243853358475,
                -0.5205182510411981,
                1.4658094242774136,
                -3.1247268985758243
            ]
        }
    ]
}