{
    "goal": {
        "global_pose": {
            "orientation": {
                "w": 0.7047431468963623,
                "x": -0.7094548344612122,
                "y": 0.0024358443915843964,
                "z": -0.0022348060738295317
            },
            "position": {
                "x": 0.6094750761985779,
                "y": 0.3671506643295288,
                "z": 0.19426114857196808
            }
        },
        "name": "move_to_magneteinheit_A"
    },
    "id": "BFMT_move_to_magneteinheit_A_5",
    "joint_names": [
        "shoulder_pan_joint",
        "shoulder_lift_joint",
        "elbow_joint",
        "wrist_1_joint",
        "wrist_2_joint",
        "wrist_3_joint"
    ],
    "metrics": {
        "cart_traj_len": 3.8776135770676152,
        "distance_elbow_joint": 5.327304349837115,
        "distance_shoulder_lift_joint": 2.031564298109324,
        "distance_shoulder_pan_joint": 3.8548371191442024,
        "distance_wrist_1_joint": 6.415307820035887,
        "distance_wrist_2_joint": 1.4358626555287104,
        "distance_wrist_3_joint": 4.487268838664824,
        "smoothness": 0.2883966774836294,
        "time": 1.001876564,
        "traj_len": 4.853055231637084,
        "weighted_distance": 6.354357027600377
    },
    "planner": "BFMT",
    "start": {
        "state": {
            "elbow_joint": -1.9196185241190666,
            "shoulder_lift_joint": -1.2443396400964142,
            "shoulder_pan_joint": 2.6996025414629847,
            "wrist_1_joint": -1.5485510000780065,
            "wrist_2_joint": -1.5709468930060704,
            "wrist_3_joint": 0.4420197071253992
        }
    },
    "waypoints": [
        {
            "positions": [
                2.6996025414629847,
                -1.2443396400964142,
                -1.9196185241190666,
                -1.5485510000780065,
                -1.5709468930060704,
                0.4420197071253992
            ]
        },
        {
            "positions": [
                2.5656082649787835,
                -1.1922604910162713,
                -1.9490831205634722,
                -1.6099430951970655,
                -1.5509278281886834,
                0.5262282142869132
            ]
        },
        {
            "positions": [
                2.431613988494582,
                -1.1401813419361284,
                -1.978547717007878,
                -1.6713351903161244,
                -1.5309087633712963,
                0.6104367214484273
            ]
        },
        {
            "positions": [
                2.297619712010381,
                -1.0881021928559855,
                -2.0080123134522836,
                -1.7327272854351834,
                -1.5108896985539093,
                0.6946452286099414
            ]
        },
        {
            "positions": [
                2.1636254355261793,
                -1.0360230437758426,
                -2.0374769098966894,
                -1.7941193805542424,
                -1.4908706337365225,
                0.7788537357714556
            ]
        },
        {
            "positions": [
                2.029631159041978,
                -0.9839438946956997,
                -2.066941506341095,
                -1.8555114756733013,
                -1.4708515689191355,
                0.8630622429329696
            ]
        },
        {
            "positions": [
                1.8956368825577767,
                -0.9318647456155568,
                -2.0964061027855005,
                -1.9169035707923603,
                -1.4508325041017485,
                0.9472707500944837
            ]
        },
        {
            "positions": [
                1.7616426060735755,
                -0.8797855965354138,
                -2.1258706992299063,
                -1.9782956659114193,
                -1.4308134392843614,
                1.0314792572559979
            ]
        },
        {
            "positions": [
                1.6276483295893742,
                -0.827706447455271,
                -2.155335295674312,
                -2.039687761030478,
                -1.4107943744669744,
                1.1156877644175118
            ]
        },
        {
            "positions": [
                1.493654053105173,
                -0.775627298375128,
                -2.1847998921187175,
                -2.101079856149537,
                -1.3907753096495874,
                1.1998962715790258
            ]
        },
        {
            "positions": [
                1.3596597766209715,
                -0.7235481492949851,
                -2.2142644885631233,
                -2.162471951268596,
                -1.3707562448322004,
                1.2841047787405402
            ]
        },
        {
            "positions": [
                1.2256655001367704,
                -0.6714690002148422,
                -2.243729085007529,
                -2.223864046387655,
                -1.3507371800148134,
                1.3683132859020541
            ]
        },
        {
            "positions": [
                1.091671223652569,
                -0.6193898511346994,
                -2.273193681451935,
                -2.285256141506714,
                -1.3307181151974263,
                1.452521793063568
            ]
        },
        {
            "positions": [
                0.9576769471683677,
                -0.5673107020545565,
                -2.3026582778963403,
                -2.346648236625773,
                -1.3106990503800395,
                1.536730300225082
            ]
        },
        {
            "positions": [
                0.8236826706841662,
                -0.5152315529744135,
                -2.332122874340746,
                -2.408040331744832,
                -1.2906799855626525,
                1.6209388073865965
            ]
        },
        {
            "positions": [
                0.689688394199965,
                -0.4631524038942707,
                -2.361587470785152,
                -2.4694324268638908,
                -1.2706609207452655,
                1.7051473145481104
            ]
        },
        {
            "positions": [
                0.5556941177157637,
                -0.4110732548141278,
                -2.391052067229557,
                -2.5308245219829497,
                -1.2506418559278785,
                1.7893558217096244
            ]
        },
        {
            "positions": [
                0.42169984123156246,
                -0.3589941057339848,
                -2.420516663673963,
                -2.592216617102009,
                -1.2306227911104914,
                1.8735643288711388
            ]
        },
        {
            "positions": [
                0.2877055647473612,
                -0.30691495665384194,
                -2.449981260118369,
                -2.6536087122210676,
                -1.2106037262931044,
                1.9577728360326527
            ]
        },
        {
            "positions": [
                0.15371128826315994,
                -0.25483580757369906,
                -2.4794458565627746,
                -2.7150008073401266,
                -1.1905846614757176,
                2.0419813431941667
            ]
        },
        {
            "positions": [
                0.019717011778958238,
                -0.20275665849355606,
                -2.50891045300718,
                -2.7763929024591856,
                -1.1705655966583306,
                2.126189850355681
            ]
        },
        {
            "positions": [
                -0.11427726470524302,
                -0.15067750941341318,
                -2.5383750494515858,
                -2.8377849975782445,
                -1.1505465318409436,
                2.210398357517195
            ]
        },
        {
            "positions": [
                -0.24827154118944383,
                -0.0985983603332703,
                -2.567839645895991,
                -2.8991770926973035,
                -1.1305274670235566,
                2.294606864678709
            ]
        },
        {
            "positions": [
                -0.38226581767364554,
                -0.04651921125312741,
                -2.597304242340397,
                -2.9605691878163625,
                -1.1105084022061695,
                2.3788153718402234
            ]
        },
        {
            "positions": [
                -0.5162600941578468,
                0.005559937827015471,
                -2.6267688387848027,
                -3.0219612829354214,
                -1.0904893373887825,
                2.4630238790017374
            ]
        },
        {
            "positions": [
                -0.49899051352207996,
                -0.015566135691522157,
                -2.5018998108071977,
                -2.888396484633301,
                -1.064667577931717,
                2.396368077196643
            ]
        },
        {
            "positions": [
                -0.48172093288631307,
                -0.036692209210059785,
                -2.377030782829593,
                -2.7548316863311797,
                -1.0388458184746516,
                2.329712275391549
            ]
        },
        {
            "positions": [
                -0.46445135225054623,
                -0.05781828272859742,
                -2.252161754851988,
                -2.621266888029059,
                -1.013024059017586,
                2.2630564735864547
            ]
        },
        {
            "positions": [
                -0.44718177161477934,
                -0.07894435624713504,
                -2.127292726874383,
                -2.4877020897269384,
                -0.9872022995605205,
                2.1964006717813604
            ]
        },
        {
            "positions": [
                -0.4299121909790125,
                -0.10007042976567267,
                -2.0024236988967785,
                -2.3541372914248173,
                -0.9613805401034551,
                2.129744869976266
            ]
        },
        {
            "positions": [
                -0.4126426103432457,
                -0.1211965032842103,
                -1.8775546709191735,
                -2.2205724931226967,
                -0.9355587806463896,
                2.063089068171172
            ]
        },
        {
            "positions": [
                -0.3953730297074788,
                -0.14232257680274793,
                -1.7526856429415685,
                -2.087007694820576,
                -0.9097370211893241,
                1.9964332663660778
            ]
        },
        {
            "positions": [
                -0.37810344907171195,
                -0.16344865032128555,
                -1.627816614963964,
                -1.953442896518455,
                -0.8839152617322587,
                1.9297774645609835
            ]
        },
        {
            "positions": [
                -0.3608338684359451,
                -0.18457472383982318,
                -1.5029475869863589,
                -1.819878098216334,
                -0.8580935022751932,
                1.8631216627558893
            ]
        },
        {
            "positions": [
                -0.3435642878001782,
                -0.2057007973583608,
                -1.378078559008754,
                -1.6863132999142134,
                -0.8322717428181277,
                1.796465860950795
            ]
        },
        {
            "positions": [
                -0.3262947071644114,
                -0.22682687087689843,
                -1.253209531031149,
                -1.5527485016120925,
                -0.8064499833610622,
                1.7298100591457009
            ]
        },
        {
            "positions": [
                -0.30902512652864456,
                -0.24795294439543608,
                -1.1283405030535443,
                -1.4191837033099717,
                -0.7806282239039968,
                1.6631542573406066
            ]
        },
        {
            "positions": [
                -0.29175554589287767,
                -0.2690790179139737,
                -1.0034714750759395,
                -1.2856189050078508,
                -0.7548064644469312,
                1.5964984555355124
            ]
        },
        {
            "positions": [
                -0.27448596525711083,
                -0.29020509143251133,
                -0.8786024470983345,
                -1.1520541067057302,
                -0.7289847049898658,
                1.5298426537304182
            ]
        },
        {
            "positions": [
                -0.25721638462134394,
                -0.31133116495104896,
                -0.7537334191207297,
                -1.018489308403609,
                -0.7031629455328003,
                1.463186851925324
            ]
        },
        {
            "positions": [
                -0.2399468039855771,
                -0.3324572384695866,
                -0.6288643911431249,
                -0.8849245101014884,
                -0.6773411860757348,
                1.39653105012023
            ]
        },
        {
            "positions": [
                -0.22267722334981027,
                -0.3535833119881242,
                -0.5039953631655201,
                -0.7513597117993678,
                -0.6515194266186694,
                1.3298752483151357
            ]
        },
        {
            "positions": [
                -0.20540764271404338,
                -0.37470938550666183,
                -0.37912633518791505,
                -0.6177949134972467,
                -0.6256976671616039,
                1.2632194465100415
            ]
        },
        {
            "positions": [
                -0.1881380620782766,
                -0.3958354590251994,
                -0.2542573072103105,
                -0.4842301151951265,
                -0.5998759077045384,
                1.1965636447049472
            ]
        },
        {
            "positions": [
                -0.1708684814425097,
                -0.4169615325437371,
                -0.12938827923270546,
                -0.3506653168930054,
                -0.5740541482474729,
                1.129907842899853
            ]
        },
        {
            "positions": [
                -0.15359890080674288,
                -0.43808760606227465,
                -0.004519251255100887,
                -0.21710051859088475,
                -0.5482323887904075,
                1.0632520410947588
            ]
        },
        {
            "positions": [
                -0.136329320170976,
                -0.45921367958081233,
                0.12034977672250458,
                -0.08353572028876366,
                -0.5224106293333419,
                0.9965962392896646
            ]
        },
        {
            "positions": [
                -0.11905973953520915,
                -0.4803397530993499,
                0.24521880470010915,
                0.05002907801335699,
                -0.4965888698762765,
                0.9299404374845703
            ]
        },
        {
            "positions": [
                -0.10179015889944226,
                -0.5014658266178876,
                0.37008783267771417,
                0.18359387631547808,
                -0.47076711041921093,
                0.8632846356794761
            ]
        },
        {
            "positions": [
                -0.08452057826367543,
                -0.5225919001364252,
                0.49495686065531874,
                0.3171586746175987,
                -0.4449453509621455,
                0.7966288338743821
            ]
        },
        {
            "positions": [
                -0.06725099762790854,
                -0.5437179736549629,
                0.6198258886329238,
                0.4507234729197198,
                -0.41912359150508005,
                0.7299730320692877
            ]
        },
        {
            "positions": [
                -0.04998141699214176,
                -0.5648440471735005,
                0.7446949166105283,
                0.58428827122184,
                -0.3933018320480146,
                0.6633172302641936
            ]
        },
        {
            "positions": [
                -0.03271183635637487,
                -0.5859701206920381,
                0.8695639445881338,
                0.7178530695239611,
                -0.36748007259094906,
                0.5966614284590992
            ]
        },
        {
            "positions": [
                -0.015442255720607978,
                -0.6070961942105757,
                0.9944329725657384,
                0.8514178678260818,
                -0.3416583131338836,
                0.5300056266540052
            ]
        },
        {
            "positions": [
                0.0018273249151589122,
                -0.6282222677291134,
                1.1193020005433434,
                0.9849826661282033,
                -0.31583655367681807,
                0.46334982484891074
            ]
        },
        {
            "positions": [
                0.01909690555092569,
                -0.649348341247651,
                1.244171028520948,
                1.1185474644303235,
                -0.2900147942197526,
                0.39669402304381673
            ]
        },
        {
            "positions": [
                0.03636648618669258,
                -0.6704744147661886,
                1.369040056498553,
                1.2521122627324446,
                -0.2641930347626871,
                0.3300382212387225
            ]
        },
        {
            "positions": [
                0.05363606682245936,
                -0.6916004882847262,
                1.493909084476158,
                1.3856770610345648,
                -0.23837127530562163,
                0.2633824194336283
            ]
        },
        {
            "positions": [
                0.07090564745822625,
                -0.7127265618032639,
                1.6187781124537626,
                1.5192418593366859,
                -0.2125495158485562,
                0.19672661762853405
            ]
        },
        {
            "positions": [
                0.08817522809399314,
                -0.7338526353218014,
                1.7436471404313671,
                1.652806657638807,
                -0.18672775639149075,
                0.13007081582343982
            ]
        },
        {
            "positions": [
                0.10544480872976003,
                -0.7549787088403391,
                1.8685161684089726,
                1.786371455940928,
                -0.1609059969344252,
                0.0634150140183456
            ]
        },
        {
            "positions": [
                0.12271438936552685,
                -0.7761047823588767,
                1.9933851963865772,
                1.9199362542430487,
                -0.13508423747735981,
                -0.0032407877867486052
            ]
        }
    ]
}