{
    "goal": {
        "global_pose": {
            "orientation": {
                "w": 0.5084816217422485,
                "x": -0.49083608388900757,
                "y": 0.5182115435600281,
                "z": -0.4816462993621826
            },
            "position": {
                "x": 0.5540239810943604,
                "y": 0.030875300988554955,
                "z": 0.16403168439865112
            }
        },
        "name": "move_to_storage_A"
    },
    "id": "BFMT_move_to_storage_A_15",
    "joint_names": [
        "shoulder_pan_joint",
        "shoulder_lift_joint",
        "elbow_joint",
        "wrist_1_joint",
        "wrist_2_joint",
        "wrist_3_joint"
    ],
    "metrics": {
        "cart_traj_len": 0.35252450375511885,
        "distance_elbow_joint": 0.44891879730048045,
        "distance_shoulder_lift_joint": 0.2348336139539735,
        "distance_shoulder_pan_joint": 0.45994916960989324,
        "distance_wrist_1_joint": 0.24318846012776796,
        "distance_wrist_2_joint": 1.1017800118297538,
        "distance_wrist_3_joint": 0.0989758749952947,
        "smoothness": 0.0,
        "time": 0.528161125,
        "traj_len": 1.6086161530387426,
        "weighted_distance": 2.032379430560464
    },
    "planner": "BFMT",
    "start": {
        "state": {
            "elbow_joint": 1.971548259319323,
            "shoulder_lift_joint": -1.1394851275133948,
            "shoulder_pan_joint": 0.1228115487234821,
            "wrist_1_joint": -0.7804723859257726,
            "wrist_2_joint": 0.12958671773740124,
            "wrist_3_joint": -3.192489227718131
        }
    },
    "waypoints": [
        {
            "positions": [
                0.1228115487234821,
                -1.1394851275133948,
                1.971548259319323,
                -0.7804723859257726,
                0.12958671773740124,
                -3.192489227718131
            ]
        },
        {
            "positions": [
                0.05710452449349736,
                -1.1730327866496768,
                2.0356795160765344,
                -0.8152135945154537,
                0.2869838622845089,
                -3.1783498170045177
            ]
        },
        {
            "positions": [
                -0.008602499736487385,
                -1.2065804457859586,
                2.099810772833746,
                -0.8499548031051349,
                0.44438100683161663,
                -3.164210406290904
            ]
        },
        {
            "positions": [
                -0.07430952396647214,
                -1.2401281049222406,
                2.1639420295909573,
                -0.884696011694816,
                0.6017781513787243,
                -3.1500709955772908
            ]
        },
        {
            "positions": [
                -0.14001654819645687,
                -1.2736757640585226,
                2.228073286348169,
                -0.9194372202844971,
                0.759175295925832,
                -3.135931584863677
            ]
        },
        {
            "positions": [
                -0.20572357242644163,
                -1.3072234231948046,
                2.2922045431053806,
                -0.9541784288741784,
                0.9165724404729397,
                -3.1217921741500634
            ]
        },
        {
            "positions": [
                -0.2714305966564264,
                -1.3407710823310863,
                2.356335799862592,
                -0.9889196374638594,
                1.0739695850200472,
                -3.10765276343645
            ]
        },
        {
            "positions": [
                -0.33713762088641114,
                -1.3743187414673683,
                2.4204670566198034,
                -1.0236608460535406,
                1.231366729567155,
                -3.0935133527228365
            ]
        }
    ]
}{
    "goal": {
        "global_pose": {
            "orientation": {
                "w": 0.5084816217422485,
                "x": -0.49083608388900757,
                "y": 0.5182115435600281,
                "z": -0.4816462993621826
            },
            "position": {
                "x": 0.5540239810943604,
                "y": 0.030875300988554955,
                "z": 0.16403168439865112
            }
        },
        "name": "move_to_storage_A"
    },
    "id": "BFMT_move_to_storage_A_15",
    "joint_names": [
        "shoulder_pan_joint",
        "shoulder_lift_joint",
        "elbow_joint",
        "wrist_1_joint",
        "wrist_2_joint",
        "wrist_3_joint"
    ],
    "metrics": {
        "cart_traj_len": 0.35222801244185586,
        "distance_elbow_joint": 0.4496920448331303,
        "distance_shoulder_lift_joint": 0.23492258726593573,
        "distance_shoulder_pan_joint": 0.4578974540683071,
        "distance_wrist_1_joint": 0.24018111496630645,
        "distance_wrist_2_joint": 1.109135245778886,
        "distance_wrist_3_joint": 0.09428923207978279,
        "smoothness": 8.881784197001252e-16,
        "time": 0.509623783,
        "traj_len": 1.6081410631509752,
        "weighted_distance": 2.030766481872573
    },
    "planner": "BFMT",
    "start": {
        "state": {
            "elbow_joint": 1.97154746011099,
            "shoulder_lift_joint": -1.13948474672311,
            "shoulder_pan_joint": 0.12281154466712228,
            "wrist_1_joint": -0.7804688027058302,
            "wrist_2_joint": 0.12958655903071145,
            "wrist_3_joint": 3.0906928834467795
        }
    },
    "waypoints": [
        {
            "positions": [
                0.12281154466712228,
                -1.13948474672311,
                1.97154746011099,
                -0.7804688027058302,
                0.12958655903071145,
                3.0906928834467795
            ]
        },
        {
            "positions": [
                0.05739762265736413,
                -1.1730451163325293,
                2.0357891808014372,
                -0.8147803905581597,
                0.288034451284838,
                3.1041627737438913
            ]
        },
        {
            "positions": [
                -0.008016299352394021,
                -1.2066054859419488,
                2.100030901491884,
                -0.8490919784104891,
                0.44648234353896454,
                3.117632664041003
            ]
        },
        {
            "positions": [
                -0.07343022136215217,
                -1.2401658555513682,
                2.1642726221823314,
                -0.8834035662628187,
                0.6049302357930911,
                3.131102554338115
            ]
        },
        {
            "positions": [
                -0.1388441433719103,
                -1.2737262251607875,
                2.2285143428727787,
                -0.9177151541151481,
                0.7633781280472177,
                3.144572444635227
            ]
        },
        {
            "positions": [
                -0.20425806538166852,
                -1.3072865947702068,
                2.292756063563226,
                -0.9520267419674777,
                0.9218260203013443,
                3.1580423349323388
            ]
        },
        {
            "positions": [
                -0.2696719873914266,
                -1.3408469643796264,
                2.356997784253673,
                -0.9863383298198072,
                1.0802739125554708,
                3.1715122252294505
            ]
        },
        {
            "positions": [
                -0.3350859094011848,
                -1.3744073339890457,
                2.42123950494412,
                -1.0206499176721366,
                1.2387218048095974,
                3.1849821155265623
            ]
        }
    ]
}{
    "goal": {
        "global_pose": {
            "orientation": {
                "w": 0.5084816217422485,
                "x": -0.49083608388900757,
                "y": 0.5182115435600281,
                "z": -0.4816462993621826
            },
            "position": {
                "x": 0.5540239810943604,
                "y": 0.030875300988554955,
                "z": 0.16403168439865112
            }
        },
        "name": "move_to_storage_A"
    },
    "id": "BFMT_move_to_storage_A_15",
    "joint_names": [
        "shoulder_pan_joint",
        "shoulder_lift_joint",
        "elbow_joint",
        "wrist_1_joint",
        "wrist_2_joint",
        "wrist_3_joint"
    ],
    "metrics": {
        "cart_traj_len": 0.35291434337451494,
        "distance_elbow_joint": 0.44980371615521575,
        "distance_shoulder_lift_joint": 0.23496564597298697,
        "distance_shoulder_pan_joint": 0.45897616499581345,
        "distance_wrist_1_joint": 0.24689981348740653,
        "distance_wrist_2_joint": 1.1090494854636812,
        "distance_wrist_3_joint": 0.09002319588499796,
        "smoothness": 1.3322676295501878e-15,
        "time": 0.47706370000000003,
        "traj_len": 1.6092600852441787,
        "weighted_distance": 2.031185297475635
    },
    "planner": "BFMT",
    "start": {
        "state": {
            "elbow_joint": 1.9715472970024885,
            "shoulder_lift_joint": -1.1394870060712896,
            "shoulder_pan_joint": 0.12281152778156021,
            "wrist_1_joint": -0.780463741449964,
            "wrist_2_joint": 0.12958659822042276,
            "wrist_3_joint": 3.090690232415272
        }
    },
    "waypoints": [
        {
            "positions": [
                0.12281152778156021,
                -1.1394870060712896,
                1.9715472970024885,
                -0.780463741449964,
                0.12958659822042276,
                3.090690232415272
            ]
        },
        {
            "positions": [
                0.057243504210729726,
                -1.1730535269245734,
                2.035804970738948,
                -0.8157351433767364,
                0.28802223900094864,
                3.1035506889702718
            ]
        },
        {
            "positions": [
                -0.008324519360100757,
                -1.2066200477778573,
                2.100062644475407,
                -0.8510065453035087,
                0.44645787978147455,
                3.116411145525271
            ]
        },
        {
            "positions": [
                -0.07389254293093123,
                -1.240186568631141,
                2.1643203182118667,
                -0.8862779472302811,
                0.6048935205620004,
                3.129271602080271
            ]
        },
        {
            "positions": [
                -0.13946056650176172,
                -1.273753089484425,
                2.228577991948326,
                -0.9215493491570534,
                0.7633291613425263,
                3.1421320586352706
            ]
        },
        {
            "positions": [
                -0.20502859007259225,
                -1.307319610337709,
                2.2928356656847857,
                -0.9568207510838258,
                0.9217648021230522,
                3.1549925151902705
            ]
        },
        {
            "positions": [
                -0.2705966136434227,
                -1.3408861311909928,
                2.3570933394212448,
                -0.9920921530105982,
                1.080200442903578,
                3.16785297174527
            ]
        },
        {
            "positions": [
                -0.3361646372142532,
                -1.3744526520442766,
                2.4213510131577043,
                -1.0273635549373705,
                1.238636083684104,
                3.18071342830027
            ]
        }
    ]
}