{
    "goal": {
        "global_pose": {
            "orientation": {
                "w": -0.4816463035849501,
                "x": 0.5182115481033762,
                "y": 0.4908360881923453,
                "z": -0.5084816262002911
            },
            "position": {
                "x": -0.8240239810943604,
                "y": -0.300875300988555,
                "z": 0.16403168439865112
            }
        },
        "name": "move_to_storage_C"
    },
    "id": "BFMT_move_to_storage_C_84",
    "joint_names": [
        "shoulder_pan_joint",
        "shoulder_lift_joint",
        "elbow_joint",
        "wrist_1_joint",
        "wrist_2_joint",
        "wrist_3_joint"
    ],
    "metrics": {
        "cart_traj_len": 0.5771686776959234,
        "distance_elbow_joint": 0.2565833620397828,
        "distance_shoulder_lift_joint": 0.18899295699869667,
        "distance_shoulder_pan_joint": 0.4959411998042693,
        "distance_wrist_1_joint": 0.07069213423627063,
        "distance_wrist_2_joint": 1.0616855330225161,
        "distance_wrist_3_joint": 0.06416788136633755,
        "smoothness": 2.5376526478085547e-16,
        "time": 0.485991953,
        "traj_len": 1.462211704052417,
        "weighted_distance": 1.8435770928982966
    },
    "planner": "BFMT",
    "start": {
        "state": {
            "elbow_joint": 2.010868314990456,
            "shoulder_lift_joint": -1.1634956873337592,
            "shoulder_pan_joint": -2.4736205022346125,
            "wrist_1_joint": -0.8367026794202681,
            "wrist_2_joint": 0.6746043897044499,
            "wrist_3_joint": -3.1496632123970403
        }
    },
    "waypoints": [
        {
            "positions": [
                -2.4736205022346125,
                -1.1634956873337592,
                2.010868314990456,
                -0.8367026794202681,
                0.6746043897044499,
                -3.1496632123970403
            ]
        },
        {
            "positions": [
                -2.5562773688686575,
                -1.1319968611673097,
                1.9681044213171588,
                -0.8249206570475563,
                0.851551978541536,
                -3.1389685655026507
            ]
        },
        {
            "positions": [
                -2.638934235502702,
                -1.1004980350008604,
                1.9253405276438615,
                -0.8131386346748446,
                1.028499567378622,
                -3.128273918608261
            ]
        },
        {
            "positions": [
                -2.721591102136747,
                -1.068999208834411,
                1.8825766339705643,
                -0.8013566123021327,
                1.2054471562157079,
                -3.1175792717138715
            ]
        },
        {
            "positions": [
                -2.804247968770792,
                -1.0375003826679614,
                1.8398127402972673,
                -0.789574589929421,
                1.3823947450527938,
                -3.106884624819482
            ]
        },
        {
            "positions": [
                -2.8869048354048368,
                -1.006001556501512,
                1.7970488466239702,
                -0.7777925675567092,
                1.5593423338898802,
                -3.0961899779250923
            ]
        },
        {
            "positions": [
                -2.969561702038882,
                -0.9745027303350625,
                1.754284952950673,
                -0.7660105451839975,
                1.736289922726966,
                -3.0854953310307027
            ]
        }
    ]
}