{
    "goal": {
        "global_pose": {
            "orientation": {
                "w": 0.005598929693374612,
                "x": 0.007748599140229565,
                "y": 0.7110244013736278,
                "z": -0.7031023480610252
            },
            "position": {
                "x": 0.1141497679147869,
                "y": -0.7141253447532654,
                "z": 0.3711530566215515
            }
        },
        "name": "move_to_auspresseinheit_B"
    },
    "id": "BFMT_move_to_auspresseinheit_B_110",
    "joint_names": [
        "shoulder_pan_joint",
        "shoulder_lift_joint",
        "elbow_joint",
        "wrist_1_joint",
        "wrist_2_joint",
        "wrist_3_joint"
    ],
    "metrics": {
        "cart_traj_len": 0.5650251647433937,
        "distance_elbow_joint": 0.06450310422875138,
        "distance_shoulder_lift_joint": 0.29448676303901045,
        "distance_shoulder_pan_joint": 0.5775110687062279,
        "distance_wrist_1_joint": 0.33783540626734043,
        "distance_wrist_2_joint": 0.9968833431128012,
        "distance_wrist_3_joint": 0.005219837233535696,
        "smoothness": 5.075305295617109e-16,
        "time": 0.46889611999999997,
        "traj_len": 1.5087874345273649,
        "weighted_distance": 1.9030496437126594
    },
    "planner": "BFMT",
    "start": {
        "state": {
            "elbow_joint": 2.0193083361928714,
            "shoulder_lift_joint": -1.1220246554650708,
            "shoulder_pan_joint": -1.0952077554168747,
            "wrist_1_joint": -0.8559753972642168,
            "wrist_2_joint": 0.4759566250798843,
            "wrist_3_joint": -3.1240929996934557
        }
    },
    "waypoints": [
        {
            "positions": [
                -1.0952077554168747,
                -1.1220246554650708,
                2.0193083361928714,
                -0.8559753972642168,
                0.4759566250798843,
                -3.1240929996934557
            ]
        },
        {
            "positions": [
                -1.191459600201246,
                -1.1711057826382392,
                2.008557818821413,
                -0.79966949621966,
                0.6421038489320179,
                -3.1232230268212
            ]
        },
        {
            "positions": [
                -1.2877114449856173,
                -1.2201869098114075,
                1.9978073014499542,
                -0.7433635951751033,
                0.8082510727841514,
                -3.122353053948944
            ]
        },
        {
            "positions": [
                -1.3839632897699885,
                -1.2692680369845761,
                1.9870567840784958,
                -0.6870576941305466,
                0.974398296636285,
                -3.121483081076688
            ]
        },
        {
            "positions": [
                -1.48021513455436,
                -1.3183491641577445,
                1.9763062667070372,
                -0.6307517930859898,
                1.1405455204884185,
                -3.1206131082044317
            ]
        },
        {
            "positions": [
                -1.5764669793387314,
                -1.3674302913309129,
                1.9655557493355786,
                -0.574445892041433,
                1.306692744340552,
                -3.119743135332176
            ]
        },
        {
            "positions": [
                -1.6727188241231026,
                -1.4165114185040812,
                1.95480523196412,
                -0.5181399909968764,
                1.4728399681926856,
                -3.11887316245992
            ]
        }
    ]
}