{
    "goal": {
        "global_pose": {
            "orientation": {
                "w": -0.4816463035849501,
                "x": 0.5182115481033762,
                "y": 0.4908360881923453,
                "z": -0.5084816262002911
            },
            "position": {
                "x": -0.8240239810943604,
                "y": -0.300875300988555,
                "z": 0.16403168439865112
            }
        },
        "name": "move_to_storage_C"
    },
    "id": "BFMT_move_to_storage_C_21",
    "joint_names": [
        "shoulder_pan_joint",
        "shoulder_lift_joint",
        "elbow_joint",
        "wrist_1_joint",
        "wrist_2_joint",
        "wrist_3_joint"
    ],
    "metrics": {
        "cart_traj_len": 0.5763085050806454,
        "distance_elbow_joint": 0.2538512268720605,
        "distance_shoulder_lift_joint": 0.18845185683510746,
        "distance_shoulder_pan_joint": 0.49579101951324533,
        "distance_wrist_1_joint": 0.065924197519447,
        "distance_wrist_2_joint": 1.0599375031381157,
        "distance_wrist_3_joint": 0.07018916445004209,
        "smoothness": 2.5376526478085547e-16,
        "time": 0.478749845,
        "traj_len": 1.4608713045056425,
        "weighted_distance": 1.8440132857128946
    },
    "planner": "BFMT",
    "start": {
        "state": {
            "elbow_joint": 2.010868314990456,
            "shoulder_lift_joint": -1.1634956873337592,
            "shoulder_pan_joint": -2.4736205022346125,
            "wrist_1_joint": -0.8367026794202681,
            "wrist_2_joint": 0.6746043897044499,
            "wrist_3_joint": -3.1496632123970403
        }
    },
    "waypoints": [
        {
            "positions": [
                -2.4736205022346125,
                -1.1634956873337592,
                2.010868314990456,
                -0.8367026794202681,
                0.6746043897044499,
                -3.1496632123970403
            ]
        },
        {
            "positions": [
                -2.5562523388201535,
                -1.1320870445279079,
                1.9685597771784458,
                -0.825715313167027,
                0.8512606402274692,
                -3.137965018322033
            ]
        },
        {
            "positions": [
                -2.6388841754056944,
                -1.1006784017220568,
                1.9262512393664357,
                -0.8147279469137858,
                1.0279168907504885,
                -3.1262668242470264
            ]
        },
        {
            "positions": [
                -2.721516011991235,
                -1.0692697589162055,
                1.8839427015544254,
                -0.8037405806605447,
                1.204573141273508,
                -3.1145686301720192
            ]
        },
        {
            "positions": [
                -2.804147848576776,
                -1.0378611161103541,
                1.8416341637424154,
                -0.7927532144073034,
                1.381229391796527,
                -3.102870436097012
            ]
        },
        {
            "positions": [
                -2.886779685162317,
                -1.006452473304503,
                1.7993256259304053,
                -0.7817658481540622,
                1.5578856423195464,
                -3.0911722420220054
            ]
        },
        {
            "positions": [
                -2.969411521747858,
                -0.9750438304986517,
                1.7570170881183953,
                -0.7707784819008211,
                1.7345418928425658,
                -3.079474047946998
            ]
        }
    ]
}