{
    "goal": {
        "global_pose": {
            "orientation": {
                "w": 0.5084816262002911,
                "x": -0.4908360881923452,
                "y": 0.5182115481033761,
                "z": -0.48164630358495003
            },
            "position": {
                "x": 0.5540239810943604,
                "y": -0.46912469901144505,
                "z": 0.16403168439865112
            }
        },
        "name": "move_to_storage_B"
    },
    "id": "BFMT_move_to_storage_B_90",
    "joint_names": [
        "shoulder_pan_joint",
        "shoulder_lift_joint",
        "elbow_joint",
        "wrist_1_joint",
        "wrist_2_joint",
        "wrist_3_joint"
    ],
    "metrics": {
        "cart_traj_len": 3.043478358467375,
        "distance_elbow_joint": 0.3467183438321535,
        "distance_shoulder_lift_joint": 2.840701429689316,
        "distance_shoulder_pan_joint": 2.618263711225656,
        "distance_wrist_1_joint": 2.9762307376098827,
        "distance_wrist_2_joint": 2.7005448366703755,
        "distance_wrist_3_joint": 3.136639701652512,
        "smoothness": 0.28680280194453955,
        "time": 0.802279699,
        "traj_len": 3.8234930051825513,
        "weighted_distance": 5.154527499030844
    },
    "planner": "BFMT",
    "start": {
        "state": {
            "elbow_joint": 1.664937868594044,
            "shoulder_lift_joint": -0.661644460510453,
            "shoulder_pan_joint": -0.9139846352900073,
            "wrist_1_joint": 2.146753192139373,
            "wrist_2_joint": -2.2341966793290973,
            "wrist_3_joint": 0.005466555786416001
        }
    },
    "waypoints": [
        {
            "positions": [
                -0.9139846352900073,
                -0.661644460510453,
                1.664937868594044,
                2.146753192139373,
                -2.2341966793290973,
                0.005466555786416001
            ]
        },
        {
            "positions": [
                -0.8498705328573077,
                -0.7484586845554108,
                1.6806030599346566,
                2.095176944070435,
                -2.176663998988566,
                0.11160262241887083
            ]
        },
        {
            "positions": [
                -0.7857564304246082,
                -0.8352729086003685,
                1.6962682512752694,
                2.043600696001497,
                -2.1191313186480345,
                0.21773868905132565
            ]
        },
        {
            "positions": [
                -0.7216423279919086,
                -0.9220871326453262,
                1.7119334426158819,
                1.9920244479325588,
                -2.0615986383075033,
                0.3238747556837805
            ]
        },
        {
            "positions": [
                -0.6575282255592091,
                -1.008901356690284,
                1.7275986339564946,
                1.9404481998636207,
                -2.004065957966972,
                0.43001082231623533
            ]
        },
        {
            "positions": [
                -0.5934141231265095,
                -1.0957155807352417,
                1.7432638252971073,
                1.8888719517946826,
                -1.946533277626441,
                0.5361468889486901
            ]
        },
        {
            "positions": [
                -0.52930002069381,
                -1.1825298047801995,
                1.75892901663772,
                1.8372957037257445,
                -1.8890005972859096,
                0.6422829555811449
            ]
        },
        {
            "positions": [
                -0.46518591826111044,
                -1.2693440288251572,
                1.7745942079783328,
                1.7857194556568061,
                -1.8314679169453782,
                0.7484190222135997
            ]
        },
        {
            "positions": [
                -0.4010718158284109,
                -1.3561582528701148,
                1.7902593993189455,
                1.734143207587868,
                -1.773935236604847,
                0.8545550888460546
            ]
        },
        {
            "positions": [
                -0.33695771339571134,
                -1.4429724769150727,
                1.8059245906595582,
                1.6825669595189299,
                -1.716402556264316,
                0.9606911554785094
            ]
        },
        {
            "positions": [
                -0.2728436109630118,
                -1.5297867009600306,
                1.8215897820001707,
                1.6309907114499917,
                -1.6588698759237845,
                1.0668272221109643
            ]
        },
        {
            "positions": [
                -0.20872950853031214,
                -1.6166009250049882,
                1.8372549733407835,
                1.5794144633810534,
                -1.6013371955832532,
                1.1729632887434192
            ]
        },
        {
            "positions": [
                -0.1446154060976127,
                -1.7034151490499458,
                1.8529201646813962,
                1.5278382153121155,
                -1.543804515242722,
                1.2790993553758738
            ]
        },
        {
            "positions": [
                -0.08050130366491304,
                -1.7902293730949037,
                1.868585356022009,
                1.4762619672431772,
                -1.4862718349021906,
                1.3852354220083287
            ]
        },
        {
            "positions": [
                -0.0163872012322136,
                -1.8770435971398614,
                1.8842505473626217,
                1.424685719174239,
                -1.4287391545616595,
                1.4913714886407834
            ]
        },
        {
            "positions": [
                0.04772690120048606,
                -1.9638578211848192,
                1.8999157387032344,
                1.373109471105301,
                -1.371206474221128,
                1.5975075552732383
            ]
        },
        {
            "positions": [
                0.1118410036331855,
                -2.050672045229777,
                1.915580930043847,
                1.3215332230363628,
                -1.313673793880597,
                1.7036436219056932
            ]
        },
        {
            "positions": [
                0.17595510606588516,
                -2.137486269274735,
                1.9312461213844596,
                1.2699569749674247,
                -1.2561411135400655,
                1.809779688538148
            ]
        },
        {
            "positions": [
                0.2400692084985846,
                -2.224300493319692,
                1.9469113127250723,
                1.2183807268984865,
                -1.1986084331995344,
                1.9159157551706028
            ]
        },
        {
            "positions": [
                0.3041833109312843,
                -2.3111147173646502,
                1.962576504065685,
                1.1668044788295484,
                -1.141075752859003,
                2.022051821803058
            ]
        },
        {
            "positions": [
                0.230494060141581,
                -2.2484183398470123,
                1.965159646610975,
                1.0617370038663874,
                -1.0564744944274091,
                2.0810020552575774
            ]
        },
        {
            "positions": [
                0.15680480935187768,
                -2.1857219623293744,
                1.9677427891562653,
                0.9566695289032265,
                -0.9718732359958153,
                2.139952288712097
            ]
        },
        {
            "positions": [
                0.08311555856217437,
                -2.123025584811737,
                1.9703259317015553,
                0.8516020539400655,
                -0.8872719775642215,
                2.198902522166616
            ]
        },
        {
            "positions": [
                0.009426307772471054,
                -2.060329207294099,
                1.9729090742468456,
                0.7465345789769046,
                -0.8026707191326277,
                2.2578527556211356
            ]
        },
        {
            "positions": [
                -0.06426294301723229,
                -1.9976328297764612,
                1.9754922167921356,
                0.6414671040137436,
                -0.7180694607010338,
                2.316802989075655
            ]
        },
        {
            "positions": [
                -0.13795219380693557,
                -1.9349364522588233,
                1.9780753593374258,
                0.5363996290505827,
                -0.63346820226944,
                2.3757532225301747
            ]
        },
        {
            "positions": [
                -0.21164144459663886,
                -1.8722400747411854,
                1.9806585018827159,
                0.43133215408742176,
                -0.5488669438378462,
                2.4347034559846943
            ]
        },
        {
            "positions": [
                -0.2853306953863422,
                -1.8095436972235475,
                1.983241644428006,
                0.3262646791242607,
                -0.46426568540625235,
                2.493653689439214
            ]
        },
        {
            "positions": [
                -0.35901994617604555,
                -1.7468473197059098,
                1.9858247869732961,
                0.22119720416109978,
                -0.3796644269746585,
                2.5526039228937334
            ]
        },
        {
            "positions": [
                -0.4327091969657489,
                -1.684150942188272,
                1.9884079295185864,
                0.11612972919793885,
                -0.2950631685430647,
                2.6115541563482525
            ]
        },
        {
            "positions": [
                -0.5063984477554522,
                -1.6214545646706342,
                1.9909910720638764,
                0.011062254234777802,
                -0.21046191011147086,
                2.670504389802772
            ]
        },
        {
            "positions": [
                -0.5800876985451555,
                -1.5587581871529963,
                1.9935742146091666,
                -0.09400522072838302,
                -0.12586065167987703,
                2.7294546232572916
            ]
        },
        {
            "positions": [
                -0.6537769493348589,
                -1.4960618096353584,
                1.9961573571544566,
                -0.19907269569154407,
                -0.041259393248283205,
                2.788404856711811
            ]
        },
        {
            "positions": [
                -0.727466200124562,
                -1.4333654321177205,
                1.9987404996997469,
                -0.3041401706547049,
                0.043341865183310624,
                2.8473550901663307
            ]
        },
        {
            "positions": [
                -0.8011554509142653,
                -1.3706690546000826,
                2.001323642245037,
                -0.40920764561786616,
                0.12794312361490445,
                2.9063053236208503
            ]
        },
        {
            "positions": [
                -0.8748447017039687,
                -1.307972677082445,
                2.003906784790327,
                -0.514275120581027,
                0.21254438204649828,
                2.9652555570753694
            ]
        },
        {
            "positions": [
                -0.948533952493672,
                -1.245276299564807,
                2.0064899273356174,
                -0.619342595544188,
                0.2971456404780921,
                3.024205790529889
            ]
        },
        {
            "positions": [
                -1.0222232032833753,
                -1.1825799220471693,
                2.009073069880907,
                -0.7244100705073488,
                0.38174689890968594,
                3.0831560239844085
            ]
        },
        {
            "positions": [
                -1.0959124540730787,
                -1.1198835445295314,
                2.0116562124261974,
                -0.8294775454705099,
                0.4663481573412797,
                3.142106257438928
            ]
        }
    ]
}