{
    "goal": {
        "global_pose": {
            "orientation": {
                "w": -0.4816463035849501,
                "x": 0.5182115481033762,
                "y": 0.4908360881923453,
                "z": -0.5084816262002911
            },
            "position": {
                "x": -0.8240239810943604,
                "y": -0.300875300988555,
                "z": 0.16403168439865112
            }
        },
        "name": "move_to_storage_C"
    },
    "id": "BFMT_move_to_storage_C_144",
    "joint_names": [
        "shoulder_pan_joint",
        "shoulder_lift_joint",
        "elbow_joint",
        "wrist_1_joint",
        "wrist_2_joint",
        "wrist_3_joint"
    ],
    "metrics": {
        "cart_traj_len": 0.5769815378318907,
        "distance_elbow_joint": 0.26161846492369434,
        "distance_shoulder_lift_joint": 0.18977097129066844,
        "distance_shoulder_pan_joint": 0.49446260921615615,
        "distance_wrist_1_joint": 0.09055158208498881,
        "distance_wrist_2_joint": 1.0706800357194468,
        "distance_wrist_3_joint": 0.057598553433470645,
        "smoothness": 2.5376526478085547e-16,
        "time": 0.459210268,
        "traj_len": 1.4712859058213075,
        "weighted_distance": 1.8550231646369817
    },
    "planner": "BFMT",
    "start": {
        "state": {
            "elbow_joint": 2.010868314990456,
            "shoulder_lift_joint": -1.1634956873337592,
            "shoulder_pan_joint": -2.4736205022346125,
            "wrist_1_joint": -0.8367026794202681,
            "wrist_2_joint": 0.6746043897044499,
            "wrist_3_joint": -3.1496632123970403
        }
    },
    "waypoints": [
        {
            "positions": [
                -2.4736205022346125,
                -1.1634956873337592,
                2.010868314990456,
                -0.8367026794202681,
                0.6746043897044499,
                -3.1496632123970403
            ]
        },
        {
            "positions": [
                -2.556030937103972,
                -1.1318671921186478,
                1.9672652375031734,
                -0.82161074907277,
                0.8530510623243577,
                -3.1400634534914618
            ]
        },
        {
            "positions": [
                -2.638441371973331,
                -1.1002386969035363,
                1.923662160015891,
                -0.8065188187252719,
                1.0314977349442656,
                -3.1304636945858832
            ]
        },
        {
            "positions": [
                -2.7208518068426906,
                -1.068610201688425,
                1.8800590825286085,
                -0.7914268883777738,
                1.2099444075641732,
                -3.1208639356803047
            ]
        },
        {
            "positions": [
                -2.80326224171205,
                -1.0369817064733136,
                1.8364560050413263,
                -0.7763349580302755,
                1.388391080184081,
                -3.1112641767747267
            ]
        },
        {
            "positions": [
                -2.885672676581409,
                -1.0053532112582022,
                1.792852927554044,
                -0.7612430276827774,
                1.566837752803989,
                -3.101664417869148
            ]
        },
        {
            "positions": [
                -2.9680831114507686,
                -0.9737247160430907,
                1.7492498500667615,
                -0.7461510973352793,
                1.7452844254238968,
                -3.0920646589635696
            ]
        }
    ]
}