{
    "goal": {
        "global_pose": {
            "orientation": {
                "w": -0.00223480608172531,
                "x": 0.0024358444001904467,
                "y": 0.7094548369677653,
                "z": -0.704743149386269
            },
            "position": {
                "x": 0.6205249238014221,
                "y": -0.6371506643295288,
                "z": 0.19426114857196808
            }
        },
        "name": "move_to_magneteinheit_B"
    },
    "id": "BFMT_move_to_magneteinheit_B_88",
    "joint_names": [
        "shoulder_pan_joint",
        "shoulder_lift_joint",
        "elbow_joint",
        "wrist_1_joint",
        "wrist_2_joint",
        "wrist_3_joint"
    ],
    "metrics": {
        "cart_traj_len": 4.426033688896708,
        "distance_elbow_joint": 4.264505689900125,
        "distance_shoulder_lift_joint": 1.233563181890326,
        "distance_shoulder_pan_joint": 2.3430904835092297,
        "distance_wrist_1_joint": 4.795127930077273,
        "distance_wrist_2_joint": 0.6079925681489471,
        "distance_wrist_3_joint": 3.114177766259491,
        "smoothness": 0.26563821021782114,
        "time": 1.118342646,
        "traj_len": 4.0445590142542605,
        "weighted_distance": 5.290551356005403
    },
    "planner": "BFMT",
    "start": {
        "state": {
            "elbow_joint": 2.6216224122426386,
            "shoulder_lift_joint": -1.4174107377796124,
            "shoulder_pan_joint": 0.7066234856936794,
            "wrist_1_joint": 1.9546482284002225,
            "wrist_2_joint": -0.7096286983471962,
            "wrist_3_joint": 0.005740856962016249
        }
    },
    "waypoints": [
        {
            "positions": [
                0.7066234856936794,
                -1.4174107377796124,
                2.6216224122426386,
                1.9546482284002225,
                -0.7096286983471962,
                0.005740856962016249
            ]
        },
        {
            "positions": [
                0.7942290512790922,
                -1.4023530174513477,
                2.615947256116809,
                1.8411349170866973,
                -0.6867136643193857,
                -0.12168907369689023
            ]
        },
        {
            "positions": [
                0.8818346168645048,
                -1.387295297123083,
                2.6102720999909788,
                1.7276216057731721,
                -0.6637986302915754,
                -0.2491190043557967
            ]
        },
        {
            "positions": [
                0.9694401824499175,
                -1.3722375767948183,
                2.6045969438651486,
                1.614108294459647,
                -0.6408835962637649,
                -0.3765489350147032
            ]
        },
        {
            "positions": [
                1.0570457480353301,
                -1.3571798564665534,
                2.598921787739319,
                1.5005949831461218,
                -0.6179685622359544,
                -0.5039788656736097
            ]
        },
        {
            "positions": [
                1.144651313620743,
                -1.3421221361382887,
                2.5932466316134892,
                1.3870816718325967,
                -0.5950535282081441,
                -0.6314087963325162
            ]
        },
        {
            "positions": [
                1.2322568792061557,
                -1.327064415810024,
                2.587571475487659,
                1.2735683605190715,
                -0.5721384941803336,
                -0.7588387269914227
            ]
        },
        {
            "positions": [
                1.3180188733839666,
                -1.3161357631478239,
                2.535555939862522,
                1.1660308232490975,
                -0.549794152037034,
                -0.8438838947155932
            ]
        },
        {
            "positions": [
                1.4037808675617773,
                -1.3052071104856238,
                2.4835404042373854,
                1.0584932859791234,
                -0.5274498098937342,
                -0.9289290624397637
            ]
        },
        {
            "positions": [
                1.4895428617395883,
                -1.2942784578234239,
                2.4315248686122484,
                0.9509557487091493,
                -0.5051054677504346,
                -1.0139742301639343
            ]
        },
        {
            "positions": [
                1.5753048559173992,
                -1.2833498051612238,
                2.3795093329871118,
                0.8434182114391753,
                -0.482761125607135,
                -1.0990193978881049
            ]
        },
        {
            "positions": [
                1.6610668500952102,
                -1.2724211524990237,
                2.3274937973619747,
                0.7358806741692012,
                -0.46041678346383536,
                -1.1840645656122752
            ]
        },
        {
            "positions": [
                1.7468288442730209,
                -1.2614924998368235,
                2.275478261736838,
                0.6283431368992272,
                -0.43807244132053574,
                -1.2691097333364456
            ]
        },
        {
            "positions": [
                1.8325908384508318,
                -1.2505638471746234,
                2.223462726111701,
                0.5208055996292531,
                -0.4157280991772361,
                -1.3541549010606162
            ]
        },
        {
            "positions": [
                1.9183528326286428,
                -1.2396351945124233,
                2.1714471904865644,
                0.41326806235927904,
                -0.39338375703393647,
                -1.4392000687847868
            ]
        },
        {
            "positions": [
                2.004114826806454,
                -1.2287065418502234,
                2.1194316548614274,
                0.30573052508930487,
                -0.3710394148906368,
                -1.5242452365089574
            ]
        },
        {
            "positions": [
                2.0898768209842644,
                -1.2177778891880233,
                2.0674161192362908,
                0.19819298781933092,
                -0.34869507274733713,
                -1.6092904042331277
            ]
        },
        {
            "positions": [
                2.1756388151620754,
                -1.2068492365258232,
                2.0154005836111537,
                0.09065545054935678,
                -0.3263507306040375,
                -1.6943355719572983
            ]
        },
        {
            "positions": [
                2.2581190885546363,
                -1.1970136255743418,
                1.9602009046876279,
                -0.016419387109594008,
                -0.3053738684264671,
                -1.775617733847164
            ]
        },
        {
            "positions": [
                2.3405993619471968,
                -1.1871780146228603,
                1.9050012257641018,
                -0.12349422476854478,
                -0.2843970062488967,
                -1.8568998957370293
            ]
        },
        {
            "positions": [
                2.3639935720702825,
                -1.2256818841636339,
                1.7449106395582146,
                -0.2387649736280376,
                -0.29219532456032554,
                -1.9066601804161634
            ]
        },
        {
            "positions": [
                2.3873877821933682,
                -1.2641857537044077,
                1.5848200533523271,
                -0.35403572248753046,
                -0.2999936428717544,
                -1.9564204650952977
            ]
        },
        {
            "positions": [
                2.410781992316454,
                -1.3026896232451812,
                1.4247294671464399,
                -0.4693064713470233,
                -0.30779196118318325,
                -2.006180749774432
            ]
        },
        {
            "positions": [
                2.4341762024395397,
                -1.341193492785955,
                1.2646388809405527,
                -0.5845772202065161,
                -0.3155902794946121,
                -2.055941034453566
            ]
        },
        {
            "positions": [
                2.4575704125626254,
                -1.3796973623267286,
                1.1045482947346654,
                -0.699847969066009,
                -0.32338859780604096,
                -2.1057013191327
            ]
        },
        {
            "positions": [
                2.480964622685711,
                -1.4182012318675021,
                0.9444577085287782,
                -0.8151187179255018,
                -0.33118691611746987,
                -2.155461603811834
            ]
        },
        {
            "positions": [
                2.504358832808797,
                -1.456705101408276,
                0.784367122322891,
                -0.9303894667849947,
                -0.3389852344288987,
                -2.2052218884909687
            ]
        },
        {
            "positions": [
                2.5277530429318826,
                -1.4952089709490495,
                0.6242765361170035,
                -1.0456602156444876,
                -0.34678355274032757,
                -2.2549821731701027
            ]
        },
        {
            "positions": [
                2.5511472530549684,
                -1.5337128404898233,
                0.4641859499111163,
                -1.1609309645039805,
                -0.3545818710517564,
                -2.304742457849237
            ]
        },
        {
            "positions": [
                2.574541463178054,
                -1.5722167100305968,
                0.30409536370522905,
                -1.2762017133634733,
                -0.3623801893631853,
                -2.354502742528371
            ]
        },
        {
            "positions": [
                2.59793567330114,
                -1.6107205795713706,
                0.14400477749934182,
                -1.3914724622229662,
                -0.37017850767461413,
                -2.404263027207505
            ]
        },
        {
            "positions": [
                2.621329883424225,
                -1.6492244491121442,
                -0.016085808706545413,
                -1.506743211082459,
                -0.377976825986043,
                -2.4540233118866395
            ]
        },
        {
            "positions": [
                2.6447240935473113,
                -1.6877283186529177,
                -0.17617639491243264,
                -1.6220139599419519,
                -0.38577514429747184,
                -2.5037835965657735
            ]
        },
        {
            "positions": [
                2.6681183036703966,
                -1.7262321881936913,
                -0.3362669811183199,
                -1.7372847088014447,
                -0.3935734626089007,
                -2.5535438812449076
            ]
        },
        {
            "positions": [
                2.6915125137934823,
                -1.764736057734465,
                -0.4963575673242071,
                -1.8525554576609373,
                -0.40137178092032955,
                -2.6033041659240417
            ]
        },
        {
            "positions": [
                2.714906723916568,
                -1.8032399272752389,
                -0.6564481535300948,
                -1.9678262065204304,
                -0.4091700992317584,
                -2.653064450603176
            ]
        },
        {
            "positions": [
                2.738300934039654,
                -1.8417437968160124,
                -0.8165387397359816,
                -2.083096955379923,
                -0.41696841754318725,
                -2.7028247352823103
            ]
        },
        {
            "positions": [
                2.7616951441627395,
                -1.880247666356786,
                -0.9766293259418692,
                -2.198367704239416,
                -0.42476673585461616,
                -2.7525850199614443
            ]
        },
        {
            "positions": [
                2.7850893542858253,
                -1.9187515358975598,
                -1.1367199121477565,
                -2.3136384530989087,
                -0.432565054166045,
                -2.8023453046405784
            ]
        },
        {
            "positions": [
                2.808483564408911,
                -1.9572554054383333,
                -1.2968104983536437,
                -2.4289092019584015,
                -0.4403633724774738,
                -2.852105589319713
            ]
        },
        {
            "positions": [
                2.8318777745319967,
                -1.995759274979107,
                -1.456901084559531,
                -2.5441799508178944,
                -0.4481616907889027,
                -2.901865873998847
            ]
        },
        {
            "positions": [
                2.8552719846550825,
                -2.0342631445198807,
                -1.616991670765418,
                -2.6594506996773872,
                -0.4559600091003316,
                -2.951626158677981
            ]
        },
        {
            "positions": [
                2.758050992381169,
                -2.1123858089381575,
                -1.6299374742114527,
                -2.5689361986775543,
                -0.46155894569993783,
                -3.030031533987728
            ]
        },
        {
            "positions": [
                2.6608300001072562,
                -2.1905084733564344,
                -1.6428832776574873,
                -2.4784216976777214,
                -0.46715788229954414,
                -3.108436909297475
            ]
        }
    ]
}