{
    "goal": {
        "global_pose": {
            "orientation": {
                "w": 0.5084816217422485,
                "x": -0.49083608388900757,
                "y": 0.5182115435600281,
                "z": -0.4816462993621826
            },
            "position": {
                "x": 0.5540239810943604,
                "y": 0.030875300988554955,
                "z": 0.16403168439865112
            }
        },
        "name": "move_to_storage_A"
    },
    "id": "BFMT_move_to_storage_A_29",
    "joint_names": [
        "shoulder_pan_joint",
        "shoulder_lift_joint",
        "elbow_joint",
        "wrist_1_joint",
        "wrist_2_joint",
        "wrist_3_joint"
    ],
    "metrics": {
        "cart_traj_len": 0.3530260629829115,
        "distance_elbow_joint": 0.45298445367184326,
        "distance_shoulder_lift_joint": 0.232189763969737,
        "distance_shoulder_pan_joint": 0.4599424705545715,
        "distance_wrist_1_joint": 0.2573755540899939,
        "distance_wrist_2_joint": 1.1053745674702338,
        "distance_wrist_3_joint": 0.10876117562260923,
        "smoothness": 1.3322676295501878e-15,
        "time": 0.470303619,
        "traj_len": 1.6175994514647278,
        "weighted_distance": 2.048633802851167
    },
    "planner": "BFMT",
    "start": {
        "state": {
            "elbow_joint": 1.971548259319323,
            "shoulder_lift_joint": -1.1394851275133948,
            "shoulder_pan_joint": 0.1228115487234821,
            "wrist_1_joint": -0.7804723859257726,
            "wrist_2_joint": 0.12958671773740124,
            "wrist_3_joint": -3.192489227718131
        }
    },
    "waypoints": [
        {
            "positions": [
                0.1228115487234821,
                -1.1394851275133948,
                1.971548259319323,
                -0.7804723859257726,
                0.12958671773740124,
                -3.192489227718131
            ]
        },
        {
            "positions": [
                0.05710548150140046,
                -1.1726550937947857,
                2.0362603241295862,
                -0.8172403222243432,
                0.2874973702331489,
                -3.176951916914901
            ]
        },
        {
            "positions": [
                -0.008600585720681175,
                -1.2058250600761768,
                2.1009723889398497,
                -0.8540082585229137,
                0.44540802272889657,
                -3.1614146061116712
            ]
        },
        {
            "positions": [
                -0.07430665294276281,
                -1.2389950263575678,
                2.1656844537501128,
                -0.8907761948214843,
                0.6033186752246442,
                -3.1458772953084413
            ]
        },
        {
            "positions": [
                -0.14001272016484445,
                -1.2721649926389589,
                2.2303965185603762,
                -0.9275441311200548,
                0.761229327720392,
                -3.130339984505212
            ]
        },
        {
            "positions": [
                -0.20571878738692612,
                -1.3053349589203498,
                2.2951085833706397,
                -0.9643120674186254,
                0.9191399802161397,
                -3.114802673701982
            ]
        },
        {
            "positions": [
                -0.2714248546090077,
                -1.338504925201741,
                2.3598206481809028,
                -1.0010800037171959,
                1.0770506327118872,
                -3.099265362898752
            ]
        },
        {
            "positions": [
                -0.3371309218310894,
                -1.3716748914831318,
                2.4245327129911662,
                -1.0378479400157665,
                1.234961285207635,
                -3.083728052095522
            ]
        }
    ]
}{
    "goal": {
        "global_pose": {
            "orientation": {
                "w": 0.5084816217422485,
                "x": -0.49083608388900757,
                "y": 0.5182115435600281,
                "z": -0.4816462993621826
            },
            "position": {
                "x": 0.5540239810943604,
                "y": 0.030875300988554955,
                "z": 0.16403168439865112
            }
        },
        "name": "move_to_storage_A"
    },
    "id": "BFMT_move_to_storage_A_29",
    "joint_names": [
        "shoulder_pan_joint",
        "shoulder_lift_joint",
        "elbow_joint",
        "wrist_1_joint",
        "wrist_2_joint",
        "wrist_3_joint"
    ],
    "metrics": {
        "cart_traj_len": 0.353287060282624,
        "distance_elbow_joint": 0.4484823411284169,
        "distance_shoulder_lift_joint": 0.23369106274090434,
        "distance_shoulder_pan_joint": 0.4580897068299819,
        "distance_wrist_1_joint": 0.24111456773435047,
        "distance_wrist_2_joint": 1.1151241207261249,
        "distance_wrist_3_joint": 0.09500722879712331,
        "smoothness": 8.881784197001252e-16,
        "time": 0.536274643,
        "traj_len": 1.6098164578475715,
        "weighted_distance": 2.0341490048695117
    },
    "planner": "BFMT",
    "start": {
        "state": {
            "elbow_joint": 1.97154746011099,
            "shoulder_lift_joint": -1.13948474672311,
            "shoulder_pan_joint": 0.12281154466712228,
            "wrist_1_joint": -0.7804688027058302,
            "wrist_2_joint": 0.12958655903071145,
            "wrist_3_joint": 3.0906928834467795
        }
    },
    "waypoints": [
        {
            "positions": [
                0.12281154466712228,
                -1.13948474672311,
                1.97154746011099,
                -0.7804688027058302,
                0.12958655903071145,
                3.0906928834467795
            ]
        },
        {
            "positions": [
                0.05737015797712487,
                -1.172869184257525,
                2.035616365986478,
                -0.8149137409535946,
                0.2888900048487293,
                3.1042653447035113
            ]
        },
        {
            "positions": [
                -0.008071228712872539,
                -1.2062536217919397,
                2.0996852718619663,
                -0.8493586792013589,
                0.4481934506667471,
                3.117837805960243
            ]
        },
        {
            "positions": [
                -0.07351261540286995,
                -1.2396380593263547,
                2.1637541777374545,
                -0.8838036174491233,
                0.6074968964847649,
                3.131410267216975
            ]
        },
        {
            "positions": [
                -0.13895400209286735,
                -1.2730224968607695,
                2.2278230836129422,
                -0.9182485556968876,
                0.7668003423027828,
                3.1449827284737073
            ]
        },
        {
            "positions": [
                -0.20439538878286478,
                -1.3064069343951845,
                2.2918919894884304,
                -0.952693493944652,
                0.9261037881208007,
                3.158555189730439
            ]
        },
        {
            "positions": [
                -0.26983677547286217,
                -1.3397913719295993,
                2.3559608953639186,
                -0.9871384321924163,
                1.0854072339388183,
                3.172127650987171
            ]
        },
        {
            "positions": [
                -0.3352781621628596,
                -1.3731758094640143,
                2.420029801239407,
                -1.0215833704401807,
                1.2447106797568364,
                3.185700112243903
            ]
        }
    ]
}{
    "goal": {
        "global_pose": {
            "orientation": {
                "w": 0.5084816217422485,
                "x": -0.49083608388900757,
                "y": 0.5182115435600281,
                "z": -0.4816462993621826
            },
            "position": {
                "x": 0.5540239810943604,
                "y": 0.030875300988554955,
                "z": 0.16403168439865112
            }
        },
        "name": "move_to_storage_A"
    },
    "id": "BFMT_move_to_storage_A_29",
    "joint_names": [
        "shoulder_pan_joint",
        "shoulder_lift_joint",
        "elbow_joint",
        "wrist_1_joint",
        "wrist_2_joint",
        "wrist_3_joint"
    ],
    "metrics": {
        "cart_traj_len": 0.35343262734101866,
        "distance_elbow_joint": 0.45522591262816636,
        "distance_shoulder_lift_joint": 0.23293574889333146,
        "distance_shoulder_pan_joint": 0.4611801835118328,
        "distance_wrist_1_joint": 0.26336854601693527,
        "distance_wrist_2_joint": 1.1039181743733604,
        "distance_wrist_3_joint": 0.10695341388403756,
        "smoothness": 1.1102230263833737e-15,
        "time": 0.495933091,
        "traj_len": 1.6197475048005672,
        "weighted_distance": 2.0505549315895037
    },
    "planner": "BFMT",
    "start": {
        "state": {
            "elbow_joint": 1.9715472970024885,
            "shoulder_lift_joint": -1.1394870060712896,
            "shoulder_pan_joint": 0.12281152778156021,
            "wrist_1_joint": -0.780463741449964,
            "wrist_2_joint": 0.12958659822042276,
            "wrist_3_joint": 3.090690232415272
        }
    },
    "waypoints": [
        {
            "positions": [
                0.12281152778156021,
                -1.1394870060712896,
                1.9715472970024885,
                -0.780463741449964,
                0.12958659822042276,
                3.090690232415272
            ]
        },
        {
            "positions": [
                0.056928644422726965,
                -1.1727635416274798,
                2.0365795702350837,
                -0.8180878194523833,
                0.2872891945594742,
                3.105969291541563
            ]
        },
        {
            "positions": [
                -0.008954238936106279,
                -1.2060400771836701,
                2.101611843467679,
                -0.8557118974548026,
                0.4449917908985257,
                3.121248350667854
            ]
        },
        {
            "positions": [
                -0.07483712229493952,
                -1.2393166127398603,
                2.166644116700274,
                -0.893335975457222,
                0.6026943872375772,
                3.136527409794145
            ]
        },
        {
            "positions": [
                -0.14072000565377277,
                -1.2725931482960504,
                2.2316763899328693,
                -0.9309600534596413,
                0.7603969835766287,
                3.1518064689204364
            ]
        },
        {
            "positions": [
                -0.20660288901260607,
                -1.3058696838522406,
                2.2967086631654645,
                -0.9685841314620607,
                0.9180995799156801,
                3.1670855280467274
            ]
        },
        {
            "positions": [
                -0.2724857723714392,
                -1.339146219408431,
                2.3617409363980597,
                -1.00620820946448,
                1.0758021762547316,
                3.1823645871730184
            ]
        },
        {
            "positions": [
                -0.3383686557302726,
                -1.372422754964621,
                2.426773209630655,
                -1.0438322874668993,
                1.233504772593783,
                3.1976436462993094
            ]
        }
    ]
}