{
    "goal": {
        "global_pose": {
            "orientation": {
                "w": 0.7031023480610252,
                "x": -0.7110244013736278,
                "y": 0.0077485991402295624,
                "z": 0.005598929693374583
            },
            "position": {
                "x": -0.8841497679147869,
                "y": 0.44412534475326537,
                "z": 0.3711530566215515
            }
        },
        "name": "move_to_auspresseinheit_D"
    },
    "id": "BFMT_move_to_auspresseinheit_D_17",
    "joint_names": [
        "shoulder_pan_joint",
        "shoulder_lift_joint",
        "elbow_joint",
        "wrist_1_joint",
        "wrist_2_joint",
        "wrist_3_joint"
    ],
    "metrics": {
        "cart_traj_len": 0.3433238334075349,
        "distance_elbow_joint": 0.6400056596064272,
        "distance_shoulder_lift_joint": 0.12242324411614991,
        "distance_shoulder_pan_joint": 0.13388765806745773,
        "distance_wrist_1_joint": 0.5291895129487592,
        "distance_wrist_2_joint": 1.4450221666983958,
        "distance_wrist_3_joint": 0.00675360390230928,
        "smoothness": 7.894919182364742e-16,
        "time": 0.49602099699999996,
        "traj_len": 1.696255241801628,
        "weighted_distance": 2.205674666126279
    },
    "planner": "BFMT",
    "start": {
        "state": {
            "elbow_joint": -1.8275523626775212,
            "shoulder_lift_joint": -2.126789852344167,
            "shoulder_pan_joint": -0.03513704404078235,
            "wrist_1_joint": -2.347782403156801,
            "wrist_2_joint": -1.6058999987535132,
            "wrist_3_joint": -3.0880379163319196
        }
    },
    "waypoints": [
        {
            "positions": [
                -0.03513704404078235,
                -2.126789852344167,
                -1.8275523626775212,
                -2.347782403156801,
                -1.6058999987535132,
                -3.0880379163319196
            ]
        },
        {
            "positions": [
                -0.051873001299214565,
                -2.1420927578586855,
                -1.7475516552267178,
                -2.4139310922753956,
                -1.4252722279162138,
                -3.0888821168197085
            ]
        },
        {
            "positions": [
                -0.06860895855764679,
                -2.1573956633732045,
                -1.6675509477759145,
                -2.4800797813939908,
                -1.2446444570789144,
                -3.089726317307497
            ]
        },
        {
            "positions": [
                -0.085344915816079,
                -2.172698568887723,
                -1.587550240325111,
                -2.5462284705125855,
                -1.0640166862416147,
                -3.0905705177952854
            ]
        },
        {
            "positions": [
                -0.10208087307451122,
                -2.188001474402242,
                -1.5075495328743076,
                -2.6123771596311807,
                -0.8833889154043153,
                -3.0914147182830742
            ]
        },
        {
            "positions": [
                -0.11881683033294343,
                -2.2033043799167604,
                -1.4275488254235043,
                -2.6785258487497754,
                -0.7027611445670159,
                -3.092258918770863
            ]
        },
        {
            "positions": [
                -0.13555278759137565,
                -2.218607285431279,
                -1.3475481179727007,
                -2.74467453786837,
                -0.5221333737297162,
                -3.0931031192586516
            ]
        },
        {
            "positions": [
                -0.15228874484980787,
                -2.233910190945798,
                -1.2675474105218973,
                -2.8108232269869653,
                -0.3415056028924168,
                -3.09394731974644
            ]
        },
        {
            "positions": [
                -0.16902470210824008,
                -2.2492130964603168,
                -1.187546703071094,
                -2.87697191610556,
                -0.1608778320551173,
                -3.094791520234229
            ]
        }
    ]
}