{
    "goal": {
        "global_pose": {
            "orientation": {
                "w": 0.7031023502349854,
                "x": -0.7110244035720825,
                "y": 0.007748599164187908,
                "z": 0.005598929710686207
            },
            "position": {
                "x": 0.11585023208521307,
                "y": 0.44412534475326537,
                "z": 0.3711530566215515
            }
        },
        "name": "move_to_auspresseinheit_A"
    },
    "id": "BFMT_move_to_auspresseinheit_A_18",
    "joint_names": [
        "shoulder_pan_joint",
        "shoulder_lift_joint",
        "elbow_joint",
        "wrist_1_joint",
        "wrist_2_joint",
        "wrist_3_joint"
    ],
    "metrics": {
        "cart_traj_len": 0.6670862821917993,
        "distance_elbow_joint": 0.16881129184039922,
        "distance_shoulder_lift_joint": 0.5354773444905796,
        "distance_shoulder_pan_joint": 1.0423301005005805,
        "distance_wrist_1_joint": 0.5438182669428868,
        "distance_wrist_2_joint": 0.7680706938911157,
        "distance_wrist_3_joint": 0.5815519861387681,
        "smoothness": 0.7811611428464764,
        "time": 0.686708024,
        "traj_len": 1.9078940441765444,
        "weighted_distance": 2.472863242663425
    },
    "planner": "BFMT",
    "start": {
        "state": {
            "elbow_joint": 2.4225746658250005,
            "shoulder_lift_joint": -1.3736534386056498,
            "shoulder_pan_joint": -0.3378633547517467,
            "wrist_1_joint": -1.0288598680537169,
            "wrist_2_joint": 1.233022673432363,
            "wrist_3_joint": -3.0940220416140027
        }
    },
    "waypoints": [
        {
            "positions": [
                -0.3378633547517467,
                -1.3736534386056498,
                2.4225746658250005,
                -1.0288598680537169,
                1.233022673432363,
                -3.0940220416140027
            ]
        },
        {
            "positions": [
                -0.25921211618457085,
                -1.4326647486800503,
                2.436833906137028,
                -0.9935608510748013,
                1.1026840713625352,
                -3.0381822827004714
            ]
        },
        {
            "positions": [
                -0.18056087761739492,
                -1.491676058754451,
                2.4510931464490553,
                -0.9582618340958856,
                0.9723454692927073,
                -2.98234252378694
            ]
        },
        {
            "positions": [
                -0.10190963905021905,
                -1.5506873688288516,
                2.465352386761083,
                -0.92296281711697,
                0.8420068672228794,
                -2.9265027648734083
            ]
        },
        {
            "positions": [
                -0.023258400483043118,
                -1.6096986789032524,
                2.47961162707311,
                -0.8876638001380543,
                0.7116682651530515,
                -2.870663005959877
            ]
        },
        {
            "positions": [
                0.05539283808413277,
                -1.6687099889776529,
                2.4938708673851377,
                -0.8523647831591388,
                0.5813296630832236,
                -2.8148232470463457
            ]
        },
        {
            "positions": [
                0.185207619617073,
                -1.7167941478013682,
                2.4743678493290853,
                -0.778900146749477,
                0.6046051997916189,
                -2.875293885360568
            ]
        },
        {
            "positions": [
                0.3150224011500132,
                -1.7648783066250835,
                2.454864831273033,
                -0.7054355103398153,
                0.6278807365000142,
                -2.93576452367479
            ]
        },
        {
            "positions": [
                0.4448371826829533,
                -1.8129624654487988,
                2.4353618132169808,
                -0.6319708739301535,
                0.6511562732084094,
                -2.9962351619890124
            ]
        },
        {
            "positions": [
                0.5746519642158936,
                -1.861046624272514,
                2.4158587951609283,
                -0.5585062375204918,
                0.6744318099168047,
                -3.0567058003032344
            ]
        },
        {
            "positions": [
                0.7044667457488337,
                -1.9091307830962294,
                2.396355777104876,
                -0.48504160111083006,
                0.6977073466252,
                -3.1171764386174567
            ]
        }
    ]
}