{
    "goal": {
        "global_pose": {
            "orientation": {
                "w": 0.5084816217422485,
                "x": -0.49083608388900757,
                "y": 0.5182115435600281,
                "z": -0.4816462993621826
            },
            "position": {
                "x": 0.5540239810943604,
                "y": 0.030875300988554955,
                "z": 0.16403168439865112
            }
        },
        "name": "move_to_storage_A"
    },
    "id": "BFMT_move_to_storage_A_79",
    "joint_names": [
        "shoulder_pan_joint",
        "shoulder_lift_joint",
        "elbow_joint",
        "wrist_1_joint",
        "wrist_2_joint",
        "wrist_3_joint"
    ],
    "metrics": {
        "cart_traj_len": 0.3534967928467294,
        "distance_elbow_joint": 0.44861843939450474,
        "distance_shoulder_lift_joint": 0.23503381991807237,
        "distance_shoulder_pan_joint": 0.45880435640944245,
        "distance_wrist_1_joint": 0.2404033759551295,
        "distance_wrist_2_joint": 1.114212192621763,
        "distance_wrist_3_joint": 0.10557956653272305,
        "smoothness": 6.661338165333112e-16,
        "time": 0.488817915,
        "traj_len": 1.6132736131331336,
        "weighted_distance": 2.041672464543217
    },
    "planner": "BFMT",
    "start": {
        "state": {
            "elbow_joint": 1.971548259319323,
            "shoulder_lift_joint": -1.1394851275133948,
            "shoulder_pan_joint": 0.1228115487234821,
            "wrist_1_joint": -0.7804723859257726,
            "wrist_2_joint": 0.12958671773740124,
            "wrist_3_joint": -3.192489227718131
        }
    },
    "waypoints": [
        {
            "positions": [
                0.1228115487234821,
                -1.1394851275133948,
                1.971548259319323,
                -0.7804723859257726,
                0.12958671773740124,
                -3.192489227718131
            ]
        },
        {
            "positions": [
                0.0572680692364189,
                -1.1730613875016909,
                2.035636607804252,
                -0.814815725347934,
                0.2887598881119388,
                -3.1774064324991707
            ]
        },
        {
            "positions": [
                -0.008275410250644294,
                -1.206637647489987,
                2.0997249562891813,
                -0.8491590647700953,
                0.44793305848647635,
                -3.16232363728021
            ]
        },
        {
            "positions": [
                -0.0738188897377075,
                -1.240213907478283,
                2.1638133047741106,
                -0.8835024041922567,
                0.607106228861014,
                -3.1472408420612497
            ]
        },
        {
            "positions": [
                -0.1393623692247707,
                -1.273790167466579,
                2.22790165325904,
                -0.9178457436144181,
                0.7662793992355516,
                -3.1321580468422896
            ]
        },
        {
            "positions": [
                -0.20490584871183393,
                -1.307366427454875,
                2.291990001743969,
                -0.9521890830365793,
                0.9254525696100891,
                -3.117075251623329
            ]
        },
        {
            "positions": [
                -0.2704493281988971,
                -1.3409426874431711,
                2.3560783502288984,
                -0.9865324224587407,
                1.0846257399846266,
                -3.1019924564043686
            ]
        },
        {
            "positions": [
                -0.33599280768596035,
                -1.3745189474314672,
                2.4201666987138277,
                -1.0208757618809021,
                1.2437989103591642,
                -3.086909661185408
            ]
        }
    ]
}{
    "goal": {
        "global_pose": {
            "orientation": {
                "w": 0.5084816217422485,
                "x": -0.49083608388900757,
                "y": 0.5182115435600281,
                "z": -0.4816462993621826
            },
            "position": {
                "x": 0.5540239810943604,
                "y": 0.030875300988554955,
                "z": 0.16403168439865112
            }
        },
        "name": "move_to_storage_A"
    },
    "id": "BFMT_move_to_storage_A_79",
    "joint_names": [
        "shoulder_pan_joint",
        "shoulder_lift_joint",
        "elbow_joint",
        "wrist_1_joint",
        "wrist_2_joint",
        "wrist_3_joint"
    ],
    "metrics": {
        "cart_traj_len": 0.3523653517604621,
        "distance_elbow_joint": 0.44966691773853507,
        "distance_shoulder_lift_joint": 0.23373098198900633,
        "distance_shoulder_pan_joint": 0.456983294451389,
        "distance_wrist_1_joint": 0.24534588304354776,
        "distance_wrist_2_joint": 1.1131876453938347,
        "distance_wrist_3_joint": 0.10726337825838383,
        "smoothness": 1.7763568394002505e-15,
        "time": 0.499378001,
        "traj_len": 1.6143661607190287,
        "weighted_distance": 2.044318562707106
    },
    "planner": "BFMT",
    "start": {
        "state": {
            "elbow_joint": 1.97154746011099,
            "shoulder_lift_joint": -1.13948474672311,
            "shoulder_pan_joint": 0.12281154466712228,
            "wrist_1_joint": -0.7804688027058302,
            "wrist_2_joint": 0.12958655903071145,
            "wrist_3_joint": 3.0906928834467795
        }
    },
    "waypoints": [
        {
            "positions": [
                0.12281154466712228,
                -1.13948474672311,
                1.97154746011099,
                -0.7804688027058302,
                0.12958655903071145,
                3.0906928834467795
            ]
        },
        {
            "positions": [
                0.057528216888352426,
                -1.1728748870072536,
                2.035785591216495,
                -0.8155182145691942,
                0.28861336551554495,
                3.1060162231979773
            ]
        },
        {
            "positions": [
                -0.00775511089041743,
                -1.2062650272913975,
                2.1000237223219997,
                -0.8505676264325581,
                0.44764017200037853,
                3.1213395629491747
            ]
        },
        {
            "positions": [
                -0.07303843866918729,
                -1.2396551675755412,
                2.164261853427505,
                -0.8856170382959221,
                0.606666978485212,
                3.1366629027003725
            ]
        },
        {
            "positions": [
                -0.13832176644795713,
                -1.273045307859685,
                2.22849998453301,
                -0.920666450159286,
                0.7656937849700456,
                3.1519862424515703
            ]
        },
        {
            "positions": [
                -0.203605094226727,
                -1.3064354481438287,
                2.292738115638515,
                -0.95571586202265,
                0.9247205914548792,
                3.167309582202768
            ]
        },
        {
            "positions": [
                -0.26888842200549684,
                -1.3398255884279724,
                2.35697624674402,
                -0.990765273886014,
                1.0837473979397125,
                3.1826329219539655
            ]
        },
        {
            "positions": [
                -0.3341717497842667,
                -1.3732157287121163,
                2.421214377849525,
                -1.025814685749378,
                1.2427742044245462,
                3.1979562617051633
            ]
        }
    ]
}{
    "goal": {
        "global_pose": {
            "orientation": {
                "w": 0.5084816217422485,
                "x": -0.49083608388900757,
                "y": 0.5182115435600281,
                "z": -0.4816462993621826
            },
            "position": {
                "x": 0.5540239810943604,
                "y": 0.030875300988554955,
                "z": 0.16403168439865112
            }
        },
        "name": "move_to_storage_A"
    },
    "id": "BFMT_move_to_storage_A_79",
    "joint_names": [
        "shoulder_pan_joint",
        "shoulder_lift_joint",
        "elbow_joint",
        "wrist_1_joint",
        "wrist_2_joint",
        "wrist_3_joint"
    ],
    "metrics": {
        "cart_traj_len": 0.353694083671379,
        "distance_elbow_joint": 0.44924210722443103,
        "distance_shoulder_lift_joint": 0.2328382474685402,
        "distance_shoulder_pan_joint": 0.458912686645804,
        "distance_wrist_1_joint": 0.2462699980892562,
        "distance_wrist_2_joint": 1.1142180187787285,
        "distance_wrist_3_joint": 0.10098816054160498,
        "smoothness": 0.0,
        "time": 0.506407818,
        "traj_len": 1.6132170401865846,
        "weighted_distance": 2.0408168846566217
    },
    "planner": "BFMT",
    "start": {
        "state": {
            "elbow_joint": 1.9715472970024885,
            "shoulder_lift_joint": -1.1394870060712896,
            "shoulder_pan_joint": 0.12281152778156021,
            "wrist_1_joint": -0.780463741449964,
            "wrist_2_joint": 0.12958659822042276,
            "wrist_3_joint": 3.090690232415272
        }
    },
    "waypoints": [
        {
            "positions": [
                0.12281152778156021,
                -1.1394870060712896,
                1.9715472970024885,
                -0.780463741449964,
                0.12958659822042276,
                3.090690232415272
            ]
        },
        {
            "positions": [
                0.05725257254644536,
                -1.1727496128525097,
                2.035724740891693,
                -0.8156451697484292,
                0.28876060090309824,
                3.105117112492644
            ]
        },
        {
            "positions": [
                -0.008306382688669484,
                -1.2060122196337297,
                2.0999021847808974,
                -0.8508265980468943,
                0.44793460358577375,
                3.119543992570016
            ]
        },
        {
            "positions": [
                -0.07386533792378433,
                -1.2392748264149498,
                2.164079628670102,
                -0.8860080263453595,
                0.6071086062684492,
                3.1339708726473883
            ]
        },
        {
            "positions": [
                -0.13942429315889918,
                -1.2725374331961696,
                2.2282570725593063,
                -0.9211894546438246,
                0.7662826089511247,
                3.1483977527247604
            ]
        },
        {
            "positions": [
                -0.20498324839401408,
                -1.3058000399773897,
                2.2924345164485107,
                -0.9563708829422899,
                0.9254566116338002,
                3.1628246328021326
            ]
        },
        {
            "positions": [
                -0.27054220362912884,
                -1.3390626467586098,
                2.356611960337715,
                -0.991552311240755,
                1.0846306143164757,
                3.1772515128795047
            ]
        },
        {
            "positions": [
                -0.33610115886424374,
                -1.3723252535398298,
                2.4207894042269196,
                -1.0267337395392202,
                1.2438046169991512,
                3.191678392956877
            ]
        }
    ]
}