{
    "goal": {
        "global_pose": {
            "orientation": {
                "w": 0.5084816262002911,
                "x": -0.4908360881923452,
                "y": 0.5182115481033761,
                "z": -0.48164630358495003
            },
            "position": {
                "x": 0.5540239810943604,
                "y": -0.46912469901144505,
                "z": 0.16403168439865112
            }
        },
        "name": "move_to_storage_B"
    },
    "id": "BFMT_move_to_storage_B_61",
    "joint_names": [
        "shoulder_pan_joint",
        "shoulder_lift_joint",
        "elbow_joint",
        "wrist_1_joint",
        "wrist_2_joint",
        "wrist_3_joint"
    ],
    "metrics": {
        "cart_traj_len": 0.7326339664018652,
        "distance_elbow_joint": 0.48525002575629284,
        "distance_shoulder_lift_joint": 0.457517550489176,
        "distance_shoulder_pan_joint": 0.4750009773427212,
        "distance_wrist_1_joint": 2.9939771422011807,
        "distance_wrist_2_joint": 2.700866031903907,
        "distance_wrist_3_joint": 3.1270013244403723,
        "smoothness": 0.10330554297258028,
        "time": 0.741717286,
        "traj_len": 3.1999395388247023,
        "weighted_distance": 4.710462702868954
    },
    "planner": "BFMT",
    "start": {
        "state": {
            "elbow_joint": 1.664937868594044,
            "shoulder_lift_joint": -0.661644460510453,
            "shoulder_pan_joint": -0.9139846352900073,
            "wrist_1_joint": 2.146753192139373,
            "wrist_2_joint": -2.2341966793290973,
            "wrist_3_joint": 0.005466555786416001
        }
    },
    "waypoints": [
        {
            "positions": [
                -0.9139846352900073,
                -0.661644460510453,
                1.664937868594044,
                2.146753192139373,
                -2.2341966793290973,
                0.005466555786416001
            ]
        },
        {
            "positions": [
                -0.8985739470027154,
                -0.6695813626495283,
                1.6576977859768363,
                2.1218321602693937,
                -2.2016649891266837,
                -0.008181064371512555
            ]
        },
        {
            "positions": [
                -0.8548187737131161,
                -0.692753684181494,
                1.6374490359847842,
                2.04728884621735,
                -2.105721971312232,
                -0.05073283048410995
            ]
        },
        {
            "positions": [
                -0.8110636004235168,
                -0.7159260057134595,
                1.617200285992732,
                1.9727455321653062,
                -2.00977895349778,
                -0.09328459659670736
            ]
        },
        {
            "positions": [
                -0.7673084271339174,
                -0.7390983272454252,
                1.5969515360006798,
                1.8982022181132625,
                -1.9138359356833285,
                -0.13583636270930477
            ]
        },
        {
            "positions": [
                -0.780988625850027,
                -0.7549343140685171,
                1.614337523215802,
                1.7838094611059678,
                -1.8146482153392394,
                -0.26024046295699854
            ]
        },
        {
            "positions": [
                -0.7946688245661367,
                -0.7707703008916089,
                1.631723510430924,
                1.6694167040986734,
                -1.7154604949951504,
                -0.38464456320469237
            ]
        },
        {
            "positions": [
                -0.8083490232822463,
                -0.7866062877147006,
                1.6491094976460459,
                1.5550239470913787,
                -1.6162727746510612,
                -0.5090486634523862
            ]
        },
        {
            "positions": [
                -0.822029221998356,
                -0.8024422745377925,
                1.666495484861168,
                1.4406311900840842,
                -1.517085054306972,
                -0.63345276370008
            ]
        },
        {
            "positions": [
                -0.8357094207144656,
                -0.8182782613608843,
                1.68388147207629,
                1.3262384330767896,
                -1.4178973339628829,
                -0.7578568639477739
            ]
        },
        {
            "positions": [
                -0.8493896194305752,
                -0.8341142481839762,
                1.701267459291412,
                1.211845676069495,
                -1.3187096136187937,
                -0.8822609641954676
            ]
        },
        {
            "positions": [
                -0.8630698181466849,
                -0.849950235007068,
                1.7186534465065342,
                1.0974529190622002,
                -1.2195218932747047,
                -1.0066650644431614
            ]
        },
        {
            "positions": [
                -0.8767500168627945,
                -0.8657862218301597,
                1.736039433721656,
                0.9830601620549058,
                -1.1203341729306155,
                -1.1310691646908553
            ]
        },
        {
            "positions": [
                -0.8904302155789042,
                -0.8816222086532517,
                1.7534254209367781,
                0.8686674050476111,
                -1.0211464525865264,
                -1.2554732649385492
            ]
        },
        {
            "positions": [
                -0.9041104142950138,
                -0.8974581954763434,
                1.7708114081519002,
                0.7542746480403164,
                -0.9219587322424373,
                -1.379877365186243
            ]
        },
        {
            "positions": [
                -0.9177906130111235,
                -0.9132941822994353,
                1.7881973953670223,
                0.639881891033022,
                -0.8227710118983482,
                -1.5042814654339365
            ]
        },
        {
            "positions": [
                -0.9314708117272331,
                -0.9291301691225271,
                1.8055833825821441,
                0.5254891340257273,
                -0.723583291554259,
                -1.6286855656816304
            ]
        },
        {
            "positions": [
                -0.9451510104433427,
                -0.944966155945619,
                1.8229693697972662,
                0.4110963770184328,
                -0.6243955712101701,
                -1.7530896659293242
            ]
        },
        {
            "positions": [
                -0.9588312091594524,
                -0.9608021427687108,
                1.8403553570123883,
                0.2967036200111379,
                -0.5252078508660807,
                -1.8774937661770181
            ]
        },
        {
            "positions": [
                -0.972511407875562,
                -0.9766381295918025,
                1.8577413442275104,
                0.18231086300384347,
                -0.4260201305219917,
                -2.001897866424712
            ]
        },
        {
            "positions": [
                -0.9861916065916716,
                -0.9924741164148944,
                1.8751273314426324,
                0.06791810599654902,
                -0.32683241017790254,
                -2.1263019666724055
            ]
        },
        {
            "positions": [
                -0.9998718053077813,
                -1.0083101032379862,
                1.8925133186577545,
                -0.04647465101074588,
                -0.22764468983381336,
                -2.2507060669200993
            ]
        },
        {
            "positions": [
                -1.013552004023891,
                -1.0241460900610782,
                1.9098993058728764,
                -0.16086740801804034,
                -0.12845696948972418,
                -2.375110167167793
            ]
        },
        {
            "positions": [
                -1.0272322027400005,
                -1.0399820768841699,
                1.9272852930879985,
                -0.275260165025335,
                -0.029269249145635223,
                -2.499514267415487
            ]
        },
        {
            "positions": [
                -1.0409124014561102,
                -1.0558180637072616,
                1.9446712803031205,
                -0.3896529220326297,
                0.06991847119845396,
                -2.623918367663181
            ]
        },
        {
            "positions": [
                -1.05459260017222,
                -1.0716540505303536,
                1.9620572675182424,
                -0.5040456790399239,
                0.16910619154254314,
                -2.7483224679108744
            ]
        },
        {
            "positions": [
                -1.0682727988883296,
                -1.0874900373534453,
                1.9794432547333645,
                -0.6184384360472186,
                0.2682939118866321,
                -2.8727265681585683
            ]
        },
        {
            "positions": [
                -1.081952997604439,
                -1.1033260241765372,
                1.9968292419484865,
                -0.7328311930545133,
                0.3674816322307215,
                -2.997130668406262
            ]
        },
        {
            "positions": [
                -1.0956331963205488,
                -1.119162010999629,
                2.0142152291636086,
                -0.8472239500618077,
                0.46666935257481057,
                -3.121534768653956
            ]
        }
    ]
}