{
    "goal": {
        "global_pose": {
            "orientation": {
                "w": 0.7047431493862688,
                "x": -0.7094548369677653,
                "y": 0.0024358444001904,
                "z": -0.0022348060817251984
            },
            "position": {
                "x": -0.39052492380142206,
                "y": 0.3671506643295288,
                "z": 0.19426114857196808
            }
        },
        "name": "move_to_magneteinheit_D"
    },
    "id": "BFMT_move_to_magneteinheit_D_43",
    "joint_names": [
        "shoulder_pan_joint",
        "shoulder_lift_joint",
        "elbow_joint",
        "wrist_1_joint",
        "wrist_2_joint",
        "wrist_3_joint"
    ],
    "metrics": {
        "cart_traj_len": 5.439158849078334,
        "distance_elbow_joint": 3.6603091808676402,
        "distance_shoulder_lift_joint": 2.0052285341859903,
        "distance_shoulder_pan_joint": 6.270053168335204,
        "distance_wrist_1_joint": 2.1133372132316364,
        "distance_wrist_2_joint": 3.885963256775314,
        "distance_wrist_3_joint": 6.291558069882054,
        "smoothness": 0.3159382022280735,
        "time": 1.384339878,
        "traj_len": 4.922037121281984,
        "weighted_distance": 6.542848464778081
    },
    "planner": "BFMT",
    "start": {
        "state": {
            "elbow_joint": 0.749534889911806,
            "shoulder_lift_joint": -0.6476975780787326,
            "shoulder_pan_joint": -2.711696901376241,
            "wrist_1_joint": -0.07506478083263063,
            "wrist_2_joint": 0.43296659715538205,
            "wrist_3_joint": -3.14703540197715
        }
    },
    "waypoints": [
        {
            "positions": [
                -2.711696901376241,
                -0.6476975780787326,
                0.749534889911806,
                -0.07506478083263063,
                0.43296659715538205,
                -3.14703540197715
            ]
        },
        {
            "positions": [
                -2.7233551133495033,
                -0.6752905768475963,
                0.7831953768048471,
                -0.2053096472735622,
                0.4102444854649881,
                -3.0093197277631814
            ]
        },
        {
            "positions": [
                -2.7350133253227655,
                -0.70288357561646,
                0.8168558636978882,
                -0.3355545137144938,
                0.3875223737745941,
                -2.8716040535492127
            ]
        },
        {
            "positions": [
                -2.7466715372960278,
                -0.7304765743853237,
                0.8505163505909292,
                -0.4657993801554254,
                0.36480026208420013,
                -2.7338883793352435
            ]
        },
        {
            "positions": [
                -2.75832974926929,
                -0.7580695731541873,
                0.8841768374839704,
                -0.5960442465963569,
                0.3420781503938062,
                -2.596172705121275
            ]
        },
        {
            "positions": [
                -2.769987961242552,
                -0.785662571923051,
                0.9178373243770115,
                -0.7262891130372886,
                0.31935603870341217,
                -2.458457030907306
            ]
        },
        {
            "positions": [
                -2.7816461732158144,
                -0.8132555706919147,
                0.9514978112700525,
                -0.8565339794782201,
                0.2966339270130182,
                -2.320741356693337
            ]
        },
        {
            "positions": [
                -2.7933043851890766,
                -0.8408485694607784,
                0.9851582981630936,
                -0.9867788459191518,
                0.2739118153226242,
                -2.1830256824793683
            ]
        },
        {
            "positions": [
                -2.804962597162339,
                -0.868441568229642,
                1.0188187850561348,
                -1.1170237123600832,
                0.25118970363223025,
                -2.0453100082653997
            ]
        },
        {
            "positions": [
                -2.768562692428362,
                -0.923569817061709,
                1.0216441362597939,
                -1.1404289111506347,
                0.2241851804013016,
                -1.8352821271419832
            ]
        },
        {
            "positions": [
                -2.7321627876943846,
                -0.9786980658937761,
                1.0244694874634528,
                -1.1638341099411862,
                0.19718065717037292,
                -1.6252542460185668
            ]
        },
        {
            "positions": [
                -2.645790578332981,
                -1.0262193772793302,
                1.0243234538715646,
                -1.192894942524119,
                0.1777927830266087,
                -1.416469248969501
            ]
        },
        {
            "positions": [
                -2.5594183689715773,
                -1.0737406886648846,
                1.0241774202796765,
                -1.221955775107052,
                0.15840490888284448,
                -1.2076842519204352
            ]
        },
        {
            "positions": [
                -2.473046159610173,
                -1.121262000050439,
                1.0240313866877884,
                -1.251016607689985,
                0.13901703473908025,
                -0.9988992548713692
            ]
        },
        {
            "positions": [
                -2.3866739502487695,
                -1.1687833114359931,
                1.0238853530959002,
                -1.2800774402729178,
                0.11962916059531603,
                -0.7901142578223034
            ]
        },
        {
            "positions": [
                -2.300301740887366,
                -1.2163046228215473,
                1.023739319504012,
                -1.3091382728558507,
                0.10024128645155181,
                -0.5813292607732374
            ]
        },
        {
            "positions": [
                -2.213929531525962,
                -1.2638259342071017,
                1.0235932859121237,
                -1.3381991054387834,
                0.08085341230778759,
                -0.3725442637241716
            ]
        },
        {
            "positions": [
                -2.1275573221645585,
                -1.311347245592656,
                1.0234472523202356,
                -1.3672599380217165,
                0.061465538164023364,
                -0.16375926667510554
            ]
        },
        {
            "positions": [
                -2.041185112803155,
                -1.3588685569782102,
                1.0233012187283475,
                -1.3963207706046492,
                0.04207766402025914,
                0.04502573037396007
            ]
        },
        {
            "positions": [
                -1.954812903441751,
                -1.4063898683637643,
                1.0231551851364593,
                -1.4253816031875821,
                0.02268978987649492,
                0.2538107274230259
            ]
        },
        {
            "positions": [
                -1.868440694080347,
                -1.4539111797493187,
                1.0230091515445712,
                -1.454442435770515,
                0.003301915732730698,
                0.46259572447209196
            ]
        },
        {
            "positions": [
                -1.7820684847189434,
                -1.501432491134873,
                1.022863117952683,
                -1.483503268353448,
                -0.016085958411033524,
                0.6713807215211576
            ]
        },
        {
            "positions": [
                -1.6956962753575398,
                -1.5489538025204272,
                1.022717084360795,
                -1.5125641009363808,
                -0.03547383255479776,
                0.8801657185702236
            ]
        },
        {
            "positions": [
                -1.5391082526226154,
                -1.5273699121146758,
                0.9332133932147496,
                -1.5152540070450946,
                -0.1203047323335906,
                0.9149279782076926
            ]
        },
        {
            "positions": [
                -1.382520229887691,
                -1.5057860217089243,
                0.8437097020687043,
                -1.5179439131538084,
                -0.20513563211238345,
                0.9496902378451615
            ]
        },
        {
            "positions": [
                -1.2259322071527665,
                -1.4842021313031728,
                0.754206010922659,
                -1.5206338192625222,
                -0.28996653189117627,
                0.9844524974826303
            ]
        },
        {
            "positions": [
                -1.0693441844178422,
                -1.4626182408974213,
                0.6647023197766138,
                -1.523323725371236,
                -0.3747974316699691,
                1.0192147571200993
            ]
        },
        {
            "positions": [
                -0.9127561616829178,
                -1.4410343504916698,
                0.5751986286305685,
                -1.5260136314799497,
                -0.4596283314487619,
                1.0539770167575682
            ]
        },
        {
            "positions": [
                -0.7561681389479934,
                -1.4194504600859184,
                0.4856949374845232,
                -1.5287035375886633,
                -0.5444592312275548,
                1.088739276395037
            ]
        },
        {
            "positions": [
                -0.599580116213069,
                -1.3978665696801669,
                0.3961912463384779,
                -1.531393443697377,
                -0.6292901310063476,
                1.123501536032506
            ]
        },
        {
            "positions": [
                -0.4429920934781446,
                -1.3762826792744154,
                0.3066875551924326,
                -1.5340833498060908,
                -0.7141210307851404,
                1.1582637956699748
            ]
        },
        {
            "positions": [
                -0.2864040707432203,
                -1.354698788868664,
                0.21718386404638734,
                -1.5367732559148046,
                -0.7989519305639333,
                1.1930260553074439
            ]
        },
        {
            "positions": [
                -0.12981604800829594,
                -1.3331148984629124,
                0.12768017290034206,
                -1.5394631620235184,
                -0.8837828303427261,
                1.2277883149449127
            ]
        },
        {
            "positions": [
                0.026771974726628844,
                -1.3115310080571607,
                0.038176481754296665,
                -1.5421530681322322,
                -0.9686137301215191,
                1.2625505745823817
            ]
        },
        {
            "positions": [
                0.18335999746155296,
                -1.2899471176514092,
                -0.05132720939174851,
                -1.544842974240946,
                -1.053444629900312,
                1.2973128342198506
            ]
        },
        {
            "positions": [
                0.3399480201964775,
                -1.2683632272456578,
                -0.1408309005377939,
                -1.5475328803496597,
                -1.138275529679105,
                1.3320750938573196
            ]
        },
        {
            "positions": [
                0.49653604293140186,
                -1.2467793368399063,
                -0.23033459168383907,
                -1.5502227864583735,
                -1.2231064294578975,
                1.3668373534947884
            ]
        },
        {
            "positions": [
                0.6531240656663262,
                -1.2251954464341548,
                -0.31983828282988447,
                -1.5529126925670873,
                -1.3079373292366905,
                1.4015996131322574
            ]
        },
        {
            "positions": [
                0.8097120884012505,
                -1.2036115560284033,
                -0.40934197397592964,
                -1.5556025986758009,
                -1.3927682290154833,
                1.436361872769726
            ]
        },
        {
            "positions": [
                0.9663001111361753,
                -1.1820276656226518,
                -0.49884566512197503,
                -1.5582925047845146,
                -1.4775991287942762,
                1.471124132407195
            ]
        },
        {
            "positions": [
                1.1228881338710992,
                -1.1604437752169003,
                -0.5883493562680202,
                -1.5609824108932284,
                -1.562430028573069,
                1.5058863920446641
            ]
        },
        {
            "positions": [
                1.279476156606024,
                -1.1388598848111489,
                -0.6778530474140656,
                -1.5636723170019422,
                -1.6472609283518618,
                1.540648651682133
            ]
        },
        {
            "positions": [
                1.4360641793409479,
                -1.1172759944053974,
                -0.7673567385601108,
                -1.566362223110656,
                -1.7320918281306545,
                1.5754109113196018
            ]
        },
        {
            "positions": [
                1.5926522020758727,
                -1.095692103999646,
                -0.8568604297061562,
                -1.5690521292193698,
                -1.8169227279094475,
                1.6101731709570708
            ]
        },
        {
            "positions": [
                1.5036935684103279,
                -1.1282276345608215,
                -0.9320626630134754,
                -1.6000196224616146,
                -1.7351190313239233,
                1.6868906458044624
            ]
        },
        {
            "positions": [
                1.4147349347447828,
                -1.1607631651219974,
                -1.0072648963207946,
                -1.6309871157038596,
                -1.6533153347383989,
                1.763608120651854
            ]
        },
        {
            "positions": [
                1.325776301079238,
                -1.193298695683173,
                -1.0824671296281139,
                -1.6619546089461044,
                -1.5715116381528746,
                1.8403255954992455
            ]
        },
        {
            "positions": [
                1.236817667413693,
                -1.2258342262443487,
                -1.157669362935433,
                -1.6929221021883492,
                -1.4897079415673504,
                1.917043070346637
            ]
        },
        {
            "positions": [
                1.1478590337481482,
                -1.2583697568055245,
                -1.2328715962427523,
                -1.7238895954305942,
                -1.4079042449818262,
                1.9937605451940286
            ]
        },
        {
            "positions": [
                1.0589004000826034,
                -1.2909052873667002,
                -1.3080738295500716,
                -1.754857088672839,
                -1.326100548396302,
                2.07047802004142
            ]
        },
        {
            "positions": [
                0.9699417664170584,
                -1.3234408179278758,
                -1.3832760628573908,
                -1.7858245819150838,
                -1.2442968518107778,
                2.1471954948888117
            ]
        },
        {
            "positions": [
                0.8809831327515134,
                -1.3559763484890517,
                -1.45847829616471,
                -1.8167920751573288,
                -1.1624931552252533,
                2.2239129697362032
            ]
        },
        {
            "positions": [
                0.7920244990859686,
                -1.3885118790502273,
                -1.5336805294720293,
                -1.8477595683995736,
                -1.080689458639729,
                2.300630444583595
            ]
        },
        {
            "positions": [
                0.7030658654204237,
                -1.4210474096114032,
                -1.6088827627793485,
                -1.8787270616418184,
                -0.9988857620542049,
                2.377347919430986
            ]
        },
        {
            "positions": [
                0.6141072317548787,
                -1.4535829401725788,
                -1.6840849960866677,
                -1.9096945548840634,
                -0.9170820654686805,
                2.454065394278378
            ]
        },
        {
            "positions": [
                0.525148598089334,
                -1.4861184707337545,
                -1.759287229393987,
                -1.9406620481263082,
                -0.8352783688831564,
                2.530782869125769
            ]
        },
        {
            "positions": [
                0.436189964423789,
                -1.5186540012949301,
                -1.8344894627013062,
                -1.9716295413685532,
                -0.753474672297632,
                2.607500343973161
            ]
        },
        {
            "positions": [
                0.3472313307582442,
                -1.551189531856106,
                -1.9096916960086254,
                -2.002597034610798,
                -0.671670975712108,
                2.684217818820552
            ]
        },
        {
            "positions": [
                0.2582726970926992,
                -1.5837250624172816,
                -1.9848939293159447,
                -2.0335645278530428,
                -0.5898672791265835,
                2.7609352936679437
            ]
        },
        {
            "positions": [
                0.16931406342715416,
                -1.6162605929784575,
                -2.060096162623264,
                -2.0645320210952876,
                -0.5080635825410591,
                2.837652768515335
            ]
        },
        {
            "positions": [
                0.08035542976160959,
                -1.6487961235396331,
                -2.135298395930583,
                -2.095499514337533,
                -0.4262598859555351,
                2.9143702433627268
            ]
        },
        {
            "positions": [
                -0.00860320390393543,
                -1.6813316541008088,
                -2.2105006292379024,
                -2.1264670075797776,
                -0.34445618937001066,
                2.9910877182101183
            ]
        },
        {
            "positions": [
                -0.09756183756948023,
                -1.7138671846619844,
                -2.2857028625452216,
                -2.1574345008220224,
                -0.26265249278448666,
                3.06780519305751
            ]
        },
        {
            "positions": [
                -0.1865204712350252,
                -1.7464027152231603,
                -2.360905095852541,
                -2.188401994064267,
                -0.18084879619896227,
                3.1445226679049014
            ]
        }
    ]
}