{
    "goal": {
        "global_pose": {
            "orientation": {
                "w": 0.7031023480610252,
                "x": -0.7110244013736278,
                "y": 0.0077485991402295624,
                "z": 0.005598929693374583
            },
            "position": {
                "x": -0.8841497679147869,
                "y": 0.44412534475326537,
                "z": 0.3711530566215515
            }
        },
        "name": "move_to_auspresseinheit_D"
    },
    "id": "BFMT_move_to_auspresseinheit_D_145",
    "joint_names": [
        "shoulder_pan_joint",
        "shoulder_lift_joint",
        "elbow_joint",
        "wrist_1_joint",
        "wrist_2_joint",
        "wrist_3_joint"
    ],
    "metrics": {
        "cart_traj_len": 0.34437080267231635,
        "distance_elbow_joint": 0.6706637504042443,
        "distance_shoulder_lift_joint": 0.13971043642876868,
        "distance_shoulder_pan_joint": 0.13303720719849899,
        "distance_wrist_1_joint": 0.6281188430046436,
        "distance_wrist_2_joint": 1.449117363797656,
        "distance_wrist_3_joint": 0.08675401446334785,
        "smoothness": 1.9737298371844314e-16,
        "time": 0.48505266,
        "traj_len": 1.7627823505178284,
        "weighted_distance": 2.31476691073338
    },
    "planner": "BFMT",
    "start": {
        "state": {
            "elbow_joint": -1.8275523626775212,
            "shoulder_lift_joint": -2.126789852344167,
            "shoulder_pan_joint": -0.03513704404078235,
            "wrist_1_joint": -2.347782403156801,
            "wrist_2_joint": -1.6058999987535132,
            "wrist_3_joint": -3.0880379163319196
        }
    },
    "waypoints": [
        {
            "positions": [
                -0.03513704404078235,
                -2.126789852344167,
                -1.8275523626775212,
                -2.347782403156801,
                -1.6058999987535132,
                -3.0880379163319196
            ]
        },
        {
            "positions": [
                -0.05176669494059472,
                -2.144253656897763,
                -1.7437193938769906,
                -2.426297258532381,
                -1.4247603282788062,
                -3.077193664524001
            ]
        },
        {
            "positions": [
                -0.0683963458404071,
                -2.1617174614513592,
                -1.65988642507646,
                -2.5048121139079615,
                -1.2436206578040991,
                -3.0663494127160824
            ]
        },
        {
            "positions": [
                -0.08502599674021946,
                -2.179181266004955,
                -1.5760534562759296,
                -2.5833269692835423,
                -1.0624809873293923,
                -3.0555051609081643
            ]
        },
        {
            "positions": [
                -0.10165564764003185,
                -2.196645070558551,
                -1.492220487475399,
                -2.6618418246591227,
                -0.8813413168546852,
                -3.0446609091002457
            ]
        },
        {
            "positions": [
                -0.11828529853984421,
                -2.214108875112147,
                -1.4083875186748684,
                -2.740356680034703,
                -0.7002016463799782,
                -3.033816657292327
            ]
        },
        {
            "positions": [
                -0.1349149494396566,
                -2.231572679665743,
                -1.324554549874338,
                -2.818871535410284,
                -0.5190619759052713,
                -3.022972405484409
            ]
        },
        {
            "positions": [
                -0.15154460033946895,
                -2.2490364842193395,
                -1.2407215810738075,
                -2.897386390785864,
                -0.33792230543056423,
                -3.0121281536764903
            ]
        },
        {
            "positions": [
                -0.16817425123928134,
                -2.2665002887729355,
                -1.1568886122732769,
                -2.9759012461614445,
                -0.15678263495585718,
                -3.0012839018685717
            ]
        }
    ]
}