{
    "goal": {
        "global_pose": {
            "orientation": {
                "w": -0.00223480608172531,
                "x": 0.0024358444001904467,
                "y": 0.7094548369677653,
                "z": -0.704743149386269
            },
            "position": {
                "x": 0.6205249238014221,
                "y": -0.6371506643295288,
                "z": 0.19426114857196808
            }
        },
        "name": "move_to_magneteinheit_B"
    },
    "id": "BFMT_move_to_magneteinheit_B_116",
    "joint_names": [
        "shoulder_pan_joint",
        "shoulder_lift_joint",
        "elbow_joint",
        "wrist_1_joint",
        "wrist_2_joint",
        "wrist_3_joint"
    ],
    "metrics": {
        "cart_traj_len": 1.4573905022591225,
        "distance_elbow_joint": 0.9529938671824454,
        "distance_shoulder_lift_joint": 0.9021273385823012,
        "distance_shoulder_pan_joint": 1.6220127963456688,
        "distance_wrist_1_joint": 0.19699425775449164,
        "distance_wrist_2_joint": 1.5150391304406423,
        "distance_wrist_3_joint": 1.9835758913950459,
        "smoothness": 0.3707753289282398,
        "time": 0.8012725709999999,
        "traj_len": 2.6781977674736037,
        "weighted_distance": 3.5849586403033746
    },
    "planner": "BFMT",
    "start": {
        "state": {
            "elbow_joint": 2.6216224122426386,
            "shoulder_lift_joint": -1.4174107377796124,
            "shoulder_pan_joint": 0.7066234856936794,
            "wrist_1_joint": 1.9546482284002225,
            "wrist_2_joint": -0.7096286983471962,
            "wrist_3_joint": 0.005740856962016249
        }
    },
    "waypoints": [
        {
            "positions": [
                0.7066234856936794,
                -1.4174107377796124,
                2.6216224122426386,
                1.9546482284002225,
                -0.7096286983471962,
                0.005740856962016249
            ]
        },
        {
            "positions": [
                0.6567008150077169,
                -1.432362782898905,
                2.615812954901382,
                1.9663577845328382,
                -0.8236262367151574,
                0.20528106602797178
            ]
        },
        {
            "positions": [
                0.6067781443217544,
                -1.4473148280181976,
                2.610003497560126,
                1.9780673406654539,
                -0.9376237750831188,
                0.4048212750939273
            ]
        },
        {
            "positions": [
                0.5568554736357919,
                -1.4622668731374902,
                2.6041940402188692,
                1.9897768967980696,
                -1.0516213134510801,
                0.6043614841598827
            ]
        },
        {
            "positions": [
                0.5069328029498295,
                -1.4772189182567828,
                2.598384582877613,
                2.0014864529306853,
                -1.1656188518190413,
                0.8039016932258383
            ]
        },
        {
            "positions": [
                0.45701013226386694,
                -1.4921709633760754,
                2.5925751255363565,
                2.013196009063301,
                -1.2796163901870026,
                1.0034419022917938
            ]
        },
        {
            "positions": [
                0.35898160062702006,
                -1.4330733124485155,
                2.5265789412166306,
                2.023085043141259,
                -1.3471200643727765,
                0.9330222704299889
            ]
        },
        {
            "positions": [
                0.2609530689901732,
                -1.3739756615209555,
                2.4605827568969048,
                2.032974077219217,
                -1.4146237385585505,
                0.862602638568184
            ]
        },
        {
            "positions": [
                0.1629245373533263,
                -1.3148780105933957,
                2.394586572577179,
                2.042863111297175,
                -1.4821274127443245,
                0.7921830067063791
            ]
        },
        {
            "positions": [
                0.06489600571647941,
                -1.255780359665836,
                2.3285903882574526,
                2.052752145375133,
                -1.5496310869300984,
                0.7217633748445742
            ]
        },
        {
            "positions": [
                -0.03313252592036747,
                -1.196682708738276,
                2.2625942039377267,
                2.0626411794530912,
                -1.6171347611158726,
                0.6513437429827693
            ]
        },
        {
            "positions": [
                -0.13116105755721436,
                -1.137585057810716,
                2.196598019618001,
                2.0725302135310493,
                -1.6846384353016466,
                0.5809241111209644
            ]
        },
        {
            "positions": [
                -0.22918958919406124,
                -1.0784874068831563,
                2.130601835298275,
                2.0824192476090078,
                -1.7521421094874206,
                0.5105044792591595
            ]
        },
        {
            "positions": [
                -0.3272181208309081,
                -1.0193897559555964,
                2.064605650978549,
                2.092308281686966,
                -1.8196457836731945,
                0.44008484739735465
            ]
        },
        {
            "positions": [
                -0.4252466524677551,
                -0.9602921050280365,
                1.9986094666588228,
                2.102197315764924,
                -1.8871494578589685,
                0.36966521553554976
            ]
        },
        {
            "positions": [
                -0.5232751841046019,
                -0.9011944541004766,
                1.932613282339097,
                2.112086349842882,
                -1.9546531320447427,
                0.2992455836737449
            ]
        },
        {
            "positions": [
                -0.6213037157414487,
                -0.8420968031729168,
                1.866617098019371,
                2.12197538392084,
                -2.0221568062305164,
                0.22882595181194
            ]
        },
        {
            "positions": [
                -0.7193322473782957,
                -0.7829991522453569,
                1.8006209136996452,
                2.131864417998798,
                -2.0896604804162906,
                0.1584063199501351
            ]
        },
        {
            "positions": [
                -0.8173607790151427,
                -0.723901501317797,
                1.734624729379919,
                2.141753452076756,
                -2.1571641546020643,
                0.08798668808833021
            ]
        },
        {
            "positions": [
                -0.9153893106519894,
                -0.6648038503902371,
                1.6686285450601932,
                2.151642486154714,
                -2.2246678287878385,
                0.017567056226525348
            ]
        }
    ]
}