{
    "goal": {
        "global_pose": {
            "orientation": {
                "w": 0.7047431493862688,
                "x": -0.7094548369677653,
                "y": 0.0024358444001904,
                "z": -0.0022348060817251984
            },
            "position": {
                "x": -0.39052492380142206,
                "y": 0.3671506643295288,
                "z": 0.19426114857196808
            }
        },
        "name": "move_to_magneteinheit_D"
    },
    "id": "BFMT_move_to_magneteinheit_D_42",
    "joint_names": [
        "shoulder_pan_joint",
        "shoulder_lift_joint",
        "elbow_joint",
        "wrist_1_joint",
        "wrist_2_joint",
        "wrist_3_joint"
    ],
    "metrics": {
        "cart_traj_len": 3.8257646524820483,
        "distance_elbow_joint": 3.3329649979350737,
        "distance_shoulder_lift_joint": 1.106228545762718,
        "distance_shoulder_pan_joint": 2.5262395246588545,
        "distance_wrist_1_joint": 2.2919638764810024,
        "distance_wrist_2_joint": 0.7700063311989843,
        "distance_wrist_3_joint": 6.369775295376053,
        "smoothness": 0.05232164792470413,
        "time": 1.160466256,
        "traj_len": 4.049342980214528,
        "weighted_distance": 5.674389779513281
    },
    "planner": "BFMT",
    "start": {
        "state": {
            "elbow_joint": 0.749534889911806,
            "shoulder_lift_joint": -0.6476975780787326,
            "shoulder_pan_joint": -2.711696901376241,
            "wrist_1_joint": -0.07506478083263063,
            "wrist_2_joint": 0.43296659715538205,
            "wrist_3_joint": -3.14703540197715
        }
    },
    "waypoints": [
        {
            "positions": [
                -2.711696901376241,
                -0.6476975780787326,
                0.749534889911806,
                -0.07506478083263063,
                0.43296659715538205,
                -3.14703540197715
            ]
        },
        {
            "positions": [
                -2.6947828276650547,
                -0.7185399033349467,
                0.5290890785983715,
                -0.0852035925169759,
                0.4733511641504784,
                -3.138277967975198
            ]
        },
        {
            "positions": [
                -2.6778687539538684,
                -0.7893822285911607,
                0.3086432672849372,
                -0.09534240420132117,
                0.5137357311455747,
                -3.129520533973246
            ]
        },
        {
            "positions": [
                -2.6098565614643707,
                -0.8080796958688904,
                0.18261028508927069,
                -0.17677482715990261,
                0.4934105306844956,
                -3.049026590960075
            ]
        },
        {
            "positions": [
                -2.541844368974873,
                -0.8267771631466201,
                0.05657730289360419,
                -0.258207250118484,
                0.4730853302234164,
                -2.9685326479469047
            ]
        },
        {
            "positions": [
                -2.473832176485376,
                -0.8454746304243498,
                -0.06945567930206226,
                -0.33963967307706544,
                0.4527601297623373,
                -2.8880387049337344
            ]
        },
        {
            "positions": [
                -2.4058199839958783,
                -0.8641720977020795,
                -0.1954886614977288,
                -0.4210720960356469,
                0.43243492930125815,
                -2.8075447619205636
            ]
        },
        {
            "positions": [
                -2.3378077915063806,
                -0.8828695649798092,
                -0.3215216436933953,
                -0.5025045189942283,
                0.41210972884017905,
                -2.7270508189073928
            ]
        },
        {
            "positions": [
                -2.269795599016883,
                -0.9015670322575389,
                -0.4475546258890617,
                -0.5839369419528098,
                0.39178452837909994,
                -2.6465568758942224
            ]
        },
        {
            "positions": [
                -2.2017834065273854,
                -0.9202644995352686,
                -0.5735876080847283,
                -0.6653693649113912,
                0.37145932791802083,
                -2.566062932881052
            ]
        },
        {
            "positions": [
                -2.133771214037888,
                -0.9389619668129983,
                -0.6996205902803948,
                -0.7468017878699726,
                0.35113412745694167,
                -2.485568989867881
            ]
        },
        {
            "positions": [
                -2.0657590215483905,
                -0.957659434090728,
                -0.8256535724760613,
                -0.8282342108285541,
                0.3308089269958625,
                -2.4050750468547104
            ]
        },
        {
            "positions": [
                -1.997746829058893,
                -0.9763569013684577,
                -0.9516865546717278,
                -0.9096666337871355,
                0.3104837265347834,
                -2.32458110384154
            ]
        },
        {
            "positions": [
                -1.9297346365693953,
                -0.9950543686461873,
                -1.0777195368673942,
                -0.991099056745717,
                0.2901585260737043,
                -2.2440871608283697
            ]
        },
        {
            "positions": [
                -1.8617224440798976,
                -1.013751835923917,
                -1.2037525190630607,
                -1.0725314797042982,
                0.2698333256126252,
                -2.163593217815199
            ]
        },
        {
            "positions": [
                -1.7937102515904,
                -1.0324493032016466,
                -1.3297855012587272,
                -1.1539639026628798,
                0.24950812515154602,
                -2.083099274802028
            ]
        },
        {
            "positions": [
                -1.7256980591009026,
                -1.0511467704793764,
                -1.4558184834543937,
                -1.235396325621461,
                0.22918292469046692,
                -2.0026053317888577
            ]
        },
        {
            "positions": [
                -1.6576858666114052,
                -1.0698442377571062,
                -1.5818514656500602,
                -1.3168287485800425,
                0.2088577242293878,
                -1.922111388775687
            ]
        },
        {
            "positions": [
                -1.5896736741219075,
                -1.0885417050348358,
                -1.7078844478457267,
                -1.398261171538624,
                0.18853252376830865,
                -1.8416174457625165
            ]
        },
        {
            "positions": [
                -1.5216614816324099,
                -1.1072391723125654,
                -1.8339174300413932,
                -1.4796935944972054,
                0.16820732330722954,
                -1.761123502749346
            ]
        },
        {
            "positions": [
                -1.4536492891429122,
                -1.1259366395902952,
                -1.9599504122370597,
                -1.561126017455787,
                0.14788212284615038,
                -1.6806295597361753
            ]
        },
        {
            "positions": [
                -1.3856370966534148,
                -1.144634106868025,
                -2.085983394432726,
                -1.6425584404143683,
                0.12755692238507127,
                -1.6001356167230048
            ]
        },
        {
            "positions": [
                -1.3176249041639172,
                -1.1633315741457546,
                -2.2120163766283927,
                -1.7239908633729497,
                0.10723172192399216,
                -1.5196416737098342
            ]
        },
        {
            "positions": [
                -1.2496127116744196,
                -1.1820290414234842,
                -2.338049358824059,
                -1.8054232863315312,
                0.086906521462913,
                -1.4391477306966636
            ]
        },
        {
            "positions": [
                -1.1816005191849221,
                -1.200726508701214,
                -2.4640823410197257,
                -1.8868557092901126,
                0.06658132100183387,
                -1.358653787683493
            ]
        },
        {
            "positions": [
                -1.1161025399287794,
                -1.2224913113748948,
                -2.4635933474642497,
                -1.926054623857276,
                0.049410786479672515,
                -1.128718475195162
            ]
        },
        {
            "positions": [
                -1.0506045606726366,
                -1.2442561140485757,
                -2.463104353908774,
                -1.9652535384244396,
                0.032240251957511165,
                -0.898783162706831
            ]
        },
        {
            "positions": [
                -0.9851065814164937,
                -1.2660209167222565,
                -2.4626153603532974,
                -2.004452452991603,
                0.015069717435349822,
                -0.6688478502185002
            ]
        },
        {
            "positions": [
                -0.9196086021603509,
                -1.2877857193959372,
                -2.4621263667978215,
                -2.0436513675587666,
                -0.002100817086811535,
                -0.43891253773016914
            ]
        },
        {
            "positions": [
                -0.8541106229042081,
                -1.3095505220696182,
                -2.4616373732423456,
                -2.08285028212593,
                -0.019271351608972878,
                -0.20897722524183826
            ]
        },
        {
            "positions": [
                -0.7886126436480653,
                -1.331315324743299,
                -2.4611483796868696,
                -2.1220491966930934,
                -0.03644188613113422,
                0.020958087246492507
            ]
        },
        {
            "positions": [
                -0.7231146643919224,
                -1.35308012741698,
                -2.4606593861313937,
                -2.1612481112602566,
                -0.05361242065329558,
                0.2508933997348237
            ]
        },
        {
            "positions": [
                -0.6576166851357796,
                -1.3748449300906607,
                -2.4601703925759177,
                -2.2004470258274202,
                -0.07078295517545694,
                0.4808287122231547
            ]
        },
        {
            "positions": [
                -0.5921187058796368,
                -1.3966097327643414,
                -2.4596813990204414,
                -2.239645940394584,
                -0.08795348969761829,
                0.7107640247114855
            ]
        },
        {
            "positions": [
                -0.526620726623494,
                -1.4183745354380224,
                -2.4591924054649654,
                -2.278844854961747,
                -0.10512402421977962,
                0.9406993371998165
            ]
        },
        {
            "positions": [
                -0.46112274736735115,
                -1.4401393381117031,
                -2.4587034119094895,
                -2.3180437695289107,
                -0.12229455874194098,
                1.1706346496881475
            ]
        },
        {
            "positions": [
                -0.4266645760361058,
                -1.4793626863279217,
                -2.444457307172826,
                -2.3119206585558203,
                -0.1289454221571005,
                1.427147805151992
            ]
        },
        {
            "positions": [
                -0.39220640470486046,
                -1.51858603454414,
                -2.430211202436163,
                -2.3057975475827304,
                -0.13559628557226,
                1.6836609606158364
            ]
        },
        {
            "positions": [
                -0.35774823337361517,
                -1.5578093827603583,
                -2.4159650976994995,
                -2.29967443660964,
                -0.14224714898741952,
                1.940174116079681
            ]
        },
        {
            "positions": [
                -0.3232900620423698,
                -1.5970327309765768,
                -2.401718992962836,
                -2.2935513256365496,
                -0.14889801240257905,
                2.1966872715435253
            ]
        },
        {
            "positions": [
                -0.2888318907111245,
                -1.6362560791927954,
                -2.3874728882261733,
                -2.2874282146634592,
                -0.15554887581773855,
                2.4532004270073697
            ]
        },
        {
            "positions": [
                -0.2543737193798792,
                -1.6754794274090137,
                -2.37322678348951,
                -2.281305103690369,
                -0.16219973923289807,
                2.7097135824712146
            ]
        },
        {
            "positions": [
                -0.21991554804863384,
                -1.714702775625232,
                -2.3589806787528467,
                -2.275181992717279,
                -0.16885060264805757,
                2.966226737935059
            ]
        },
        {
            "positions": [
                -0.18545737671738852,
                -1.7539261238414505,
                -2.3447345740161833,
                -2.2690588817441886,
                -0.1755014660632171,
                3.2227398933989035
            ]
        }
    ]
}