{
    "goal": {
        "global_pose": {
            "orientation": {
                "w": -0.00223480608172531,
                "x": 0.0024358444001904467,
                "y": 0.7094548369677653,
                "z": -0.704743149386269
            },
            "position": {
                "x": -0.37947507619857795,
                "y": -0.6371506643295288,
                "z": 0.19426114857196808
            }
        },
        "name": "move_to_magneteinheit_C"
    },
    "id": "BFMT_move_to_magneteinheit_C_27",
    "joint_names": [
        "shoulder_pan_joint",
        "shoulder_lift_joint",
        "elbow_joint",
        "wrist_1_joint",
        "wrist_2_joint",
        "wrist_3_joint"
    ],
    "metrics": {
        "cart_traj_len": 2.2435918190031723,
        "distance_elbow_joint": 1.4678765173361916,
        "distance_shoulder_lift_joint": 1.4003913755273016,
        "distance_shoulder_pan_joint": 1.4843555352349374,
        "distance_wrist_1_joint": 1.3339072454520187,
        "distance_wrist_2_joint": 3.164095420241138,
        "distance_wrist_3_joint": 0.5505139660873564,
        "smoothness": 1.640974105705068,
        "time": 0.9583034859999999,
        "traj_len": 3.0661278609801883,
        "weighted_distance": 3.873005377965129
    },
    "planner": "BFMT",
    "start": {
        "state": {
            "elbow_joint": 1.9565354010623817,
            "shoulder_lift_joint": -1.4165861575791021,
            "shoulder_pan_joint": -1.6717766225146293,
            "wrist_1_joint": -0.5286633292919765,
            "wrist_2_joint": 1.472756589071564,
            "wrist_3_joint": -3.1238370188695823
        }
    },
    "waypoints": [
        {
            "positions": [
                -1.6717766225146293,
                -1.4165861575791021,
                1.9565354010623817,
                -0.5286633292919765,
                1.472756589071564,
                -3.1238370188695823
            ]
        },
        {
            "positions": [
                -1.649595574606845,
                -1.4301547475665988,
                2.002361912090894,
                -0.5043637916931599,
                1.280468594506211,
                -3.0724012563535643
            ]
        },
        {
            "positions": [
                -1.6274145266990603,
                -1.4437233375540954,
                2.0481884231194067,
                -0.48006425409434345,
                1.0881805999408583,
                -3.0209654938375468
            ]
        },
        {
            "positions": [
                -1.608776442038029,
                -1.5217075920142646,
                1.94713545774322,
                -0.4194717197722874,
                1.1608581484757616,
                -3.00657834420518
            ]
        },
        {
            "positions": [
                -1.590138357376998,
                -1.5996918464744339,
                1.8460824923670334,
                -0.35887918545023134,
                1.233535697010665,
                -2.992191194572813
            ]
        },
        {
            "positions": [
                -1.5715002727159668,
                -1.677676100934603,
                1.7450295269908467,
                -0.2982866511281753,
                1.3062132455455684,
                -2.9778040449404464
            ]
        },
        {
            "positions": [
                -1.5528621880549356,
                -1.7556603553947725,
                1.64397656161466,
                -0.23769411680611927,
                1.3788907940804718,
                -2.9634168953080793
            ]
        },
        {
            "positions": [
                -1.5342241033939044,
                -1.8336446098549417,
                1.5429235962384733,
                -0.1771015824840632,
                1.4515683426153752,
                -2.9490297456757126
            ]
        },
        {
            "positions": [
                -1.5155860187328734,
                -1.911628864315111,
                1.4418706308622866,
                -0.11650904816200719,
                1.5242458911502785,
                -2.9346425960433455
            ]
        },
        {
            "positions": [
                -1.4969479340718421,
                -1.9896131187752801,
                1.3408176654861,
                -0.05591651383995111,
                1.596923439685182,
                -2.920255446410979
            ]
        },
        {
            "positions": [
                -1.600899269222939,
                -1.978006192133644,
                1.3731756905502002,
                -0.13084010809214397,
                1.4513365935079898,
                -2.9144216276440753
            ]
        },
        {
            "positions": [
                -1.7048506043740357,
                -1.9663992654920082,
                1.4055337156143002,
                -0.2057637023443368,
                1.3057497473307977,
                -2.9085878088771717
            ]
        },
        {
            "positions": [
                -1.8088019395251322,
                -1.954792338850372,
                1.4378917406784004,
                -0.2806872965965296,
                1.1601629011536057,
                -2.9027539901102686
            ]
        },
        {
            "positions": [
                -1.9127532746762292,
                -1.9431854122087362,
                1.4702497657425004,
                -0.3556108908487225,
                1.0145760549764136,
                -2.896920171343365
            ]
        },
        {
            "positions": [
                -2.016704609827326,
                -1.9315784855671,
                1.5026077908066007,
                -0.4305344851009153,
                0.8689892087992215,
                -2.8910863525764614
            ]
        },
        {
            "positions": [
                -2.120655944978423,
                -1.9199715589254642,
                1.5349658158707007,
                -0.505458079353108,
                0.7234023626220295,
                -2.885252533809558
            ]
        },
        {
            "positions": [
                -2.2246072801295194,
                -1.9083646322838281,
                1.567323840934801,
                -0.580381673605301,
                0.5778155164448373,
                -2.8794187150426542
            ]
        },
        {
            "positions": [
                -2.3285586152806164,
                -1.8967577056421923,
                1.599681865998901,
                -0.6553052678574939,
                0.4322286702676452,
                -2.8735848962757506
            ]
        },
        {
            "positions": [
                -2.432509950431713,
                -1.8851507790005562,
                1.6320398910630012,
                -0.7302288621096867,
                0.28664182409045313,
                -2.8677510775088475
            ]
        },
        {
            "positions": [
                -2.53646128558281,
                -1.8735438523589203,
                1.6643979161271014,
                -0.8051524563618795,
                0.14105497791326105,
                -2.861917258741944
            ]
        },
        {
            "positions": [
                -2.6404126207339065,
                -1.8619369257172842,
                1.6967559411912014,
                -0.8800760506140723,
                -0.004531868263931135,
                -2.8560834399750403
            ]
        },
        {
            "positions": [
                -2.6288158168545976,
                -1.7482483880562476,
                1.7449558453964338,
                -0.8684500964407476,
                0.10596450398937475,
                -2.904368436116625
            ]
        },
        {
            "positions": [
                -2.6172190129752892,
                -1.6345598503952112,
                1.7931557496016663,
                -0.8568241422674229,
                0.21646087624268062,
                -2.9526534322582094
            ]
        },
        {
            "positions": [
                -2.6056222090959804,
                -1.5208713127341746,
                1.8413556538068987,
                -0.8451981880940981,
                0.3269572484959865,
                -3.000938428399794
            ]
        },
        {
            "positions": [
                -2.561864959598594,
                -1.4013304433041687,
                1.8974605702485856,
                -0.8444905111921321,
                0.4395679707150124,
                -3.046906894655814
            ]
        },
        {
            "positions": [
                -2.5181077101012073,
                -1.2817895738741625,
                1.9535654866902727,
                -0.8437828342901662,
                0.5521786929340383,
                -3.0928753609118345
            ]
        },
        {
            "positions": [
                -2.4743504606038207,
                -1.1622487044441565,
                2.0096704031319597,
                -0.8430751573882003,
                0.6647894151530642,
                -3.1388438271678547
            ]
        }
    ]
}