{
    "goal": {
        "global_pose": {
            "orientation": {
                "w": -0.4816463035849501,
                "x": 0.5182115481033762,
                "y": 0.4908360881923453,
                "z": -0.5084816262002911
            },
            "position": {
                "x": -0.8240239810943604,
                "y": -0.300875300988555,
                "z": 0.16403168439865112
            }
        },
        "name": "move_to_storage_C"
    },
    "id": "BFMT_move_to_storage_C_141",
    "joint_names": [
        "shoulder_pan_joint",
        "shoulder_lift_joint",
        "elbow_joint",
        "wrist_1_joint",
        "wrist_2_joint",
        "wrist_3_joint"
    ],
    "metrics": {
        "cart_traj_len": 0.5773990393355432,
        "distance_elbow_joint": 0.258261765513494,
        "distance_shoulder_lift_joint": 0.19008477903552634,
        "distance_shoulder_pan_joint": 0.4940682834627097,
        "distance_wrist_1_joint": 0.07376290221461879,
        "distance_wrist_2_joint": 1.076602560135409,
        "distance_wrist_3_joint": 0.056207040831064425,
        "smoothness": 0.0,
        "time": 0.48228826599999997,
        "traj_len": 1.4659424719929572,
        "weighted_distance": 1.8470968775906096
    },
    "planner": "BFMT",
    "start": {
        "state": {
            "elbow_joint": 2.010868314990456,
            "shoulder_lift_joint": -1.1634956873337592,
            "shoulder_pan_joint": -2.4736205022346125,
            "wrist_1_joint": -0.8367026794202681,
            "wrist_2_joint": 0.6746043897044499,
            "wrist_3_joint": -3.1496632123970403
        }
    },
    "waypoints": [
        {
            "positions": [
                -2.4736205022346125,
                -1.1634956873337592,
                2.010868314990456,
                -0.8367026794202681,
                0.6746043897044499,
                -3.1496632123970403
            ]
        },
        {
            "positions": [
                -2.555965216145064,
                -1.131814890827838,
                1.9678246874048735,
                -0.8244088623844983,
                0.8540381497270181,
                -3.1402953722585294
            ]
        },
        {
            "positions": [
                -2.6383099300555157,
                -1.1001340943219171,
                1.9247810598192912,
                -0.8121150453487285,
                1.0334719097495864,
                -3.130927532120019
            ]
        },
        {
            "positions": [
                -2.7206546439659673,
                -1.068453297815996,
                1.8817374322337088,
                -0.7998212283129587,
                1.2129056697721543,
                -3.121559691981508
            ]
        },
        {
            "positions": [
                -2.802999357876419,
                -1.036772501310075,
                1.8386938046481265,
                -0.787527411277189,
                1.3923394297947227,
                -3.112191851842997
            ]
        },
        {
            "positions": [
                -2.8853440717868706,
                -1.0050917048041539,
                1.7956501770625442,
                -0.7752335942414191,
                1.5717731898172906,
                -3.1028240117044867
            ]
        },
        {
            "positions": [
                -2.967688785697322,
                -0.9734109082982328,
                1.7526065494769618,
                -0.7629397772056493,
                1.751206949839859,
                -3.093456171565976
            ]
        }
    ]
}