{
    "goal": {
        "global_pose": {
            "orientation": {
                "w": -0.00223480608172531,
                "x": 0.0024358444001904467,
                "y": 0.7094548369677653,
                "z": -0.704743149386269
            },
            "position": {
                "x": -0.37947507619857795,
                "y": -0.6371506643295288,
                "z": 0.19426114857196808
            }
        },
        "name": "move_to_magneteinheit_C"
    },
    "id": "BFMT_move_to_magneteinheit_C_92",
    "joint_names": [
        "shoulder_pan_joint",
        "shoulder_lift_joint",
        "elbow_joint",
        "wrist_1_joint",
        "wrist_2_joint",
        "wrist_3_joint"
    ],
    "metrics": {
        "cart_traj_len": 0.7321707916945625,
        "distance_elbow_joint": 0.5458976503865727,
        "distance_shoulder_lift_joint": 0.7625487916258953,
        "distance_shoulder_pan_joint": 0.8756502753857791,
        "distance_wrist_1_joint": 1.440634671198894,
        "distance_wrist_2_joint": 0.7926972750328583,
        "distance_wrist_3_joint": 1.5840855787169938,
        "smoothness": 1.204441898759962,
        "time": 0.577919284,
        "traj_len": 2.4497988167086278,
        "weighted_distance": 3.3768354040451447
    },
    "planner": "BFMT",
    "start": {
        "state": {
            "elbow_joint": 1.9565354010623817,
            "shoulder_lift_joint": -1.4165861575791021,
            "shoulder_pan_joint": -1.6717766225146293,
            "wrist_1_joint": -0.5286633292919765,
            "wrist_2_joint": 1.472756589071564,
            "wrist_3_joint": -3.1238370188695823
        }
    },
    "waypoints": [
        {
            "positions": [
                -1.6717766225146293,
                -1.4165861575791021,
                1.9565354010623817,
                -0.5286633292919765,
                1.472756589071564,
                -3.1238370188695823
            ]
        },
        {
            "positions": [
                -1.7649245399224767,
                -1.444832243271157,
                1.989909676130595,
                -0.46604905481910136,
                1.4218711890161182,
                -3.0367960208955096
            ]
        },
        {
            "positions": [
                -1.858072457330324,
                -1.4730783289632117,
                2.0232839511988083,
                -0.40343478034622626,
                1.3709857889606725,
                -2.949755022921437
            ]
        },
        {
            "positions": [
                -1.9512203747381713,
                -1.5013244146552664,
                2.056658226267022,
                -0.3408205058733512,
                1.320100388905227,
                -2.862714024947364
            ]
        },
        {
            "positions": [
                -2.044368292146019,
                -1.5295705003473212,
                2.0900325013352354,
                -0.2782062314004761,
                1.2692149888497812,
                -2.7756730269732914
            ]
        },
        {
            "positions": [
                -2.1375162095538665,
                -1.5578165860393762,
                2.1234067764034488,
                -0.21559195692760097,
                1.2183295887943355,
                -2.6886320289992183
            ]
        },
        {
            "positions": [
                -2.2306641269617136,
                -1.586062671731431,
                2.156781051471662,
                -0.15297768245472593,
                1.16744418873889,
                -2.601591031025146
            ]
        },
        {
            "positions": [
                -2.323812044369561,
                -1.6143087574234858,
                2.190155326539876,
                -0.09036340798185083,
                1.1165587886834443,
                -2.514550033051073
            ]
        },
        {
            "positions": [
                -2.4169599617774082,
                -1.6425548431155406,
                2.223529601608089,
                -0.027749133508975787,
                1.0656733886279985,
                -2.427509035077
            ]
        },
        {
            "positions": [
                -2.510107879185256,
                -1.6708009288075953,
                2.2569038766763025,
                0.03486514096389939,
                1.0147879885725528,
                -2.3404680371029274
            ]
        },
        {
            "positions": [
                -2.5054430018458618,
                -1.60725917625792,
                2.226212729829721,
                -0.07477313415397793,
                0.9729469042558219,
                -2.4405576117217196
            ]
        },
        {
            "positions": [
                -2.5007781245064677,
                -1.543717423708245,
                2.1955215829831394,
                -0.18441140927185523,
                0.931105819939091,
                -2.5406471863405122
            ]
        },
        {
            "positions": [
                -2.4961132471670737,
                -1.4801756711585696,
                2.1648304361365582,
                -0.29404968438973256,
                0.8892647356223602,
                -2.6407367609593044
            ]
        },
        {
            "positions": [
                -2.4914483698276797,
                -1.4166339186088943,
                2.1341392892899766,
                -0.4036879595076099,
                0.8474236513056292,
                -2.740826335578097
            ]
        },
        {
            "positions": [
                -2.4867834924882852,
                -1.353092166059219,
                2.103448142443395,
                -0.5133262346254872,
                0.8055825669888983,
                -2.8409159101968893
            ]
        },
        {
            "positions": [
                -2.482118615148891,
                -1.2895504135095437,
                2.072756995596814,
                -0.6229645097433645,
                0.7637414826721675,
                -2.9410054848156815
            ]
        },
        {
            "positions": [
                -2.477453737809497,
                -1.2260086609598686,
                2.0420658487502323,
                -0.7326027848612419,
                0.7219003983554366,
                -3.0410950594344737
            ]
        },
        {
            "positions": [
                -2.472788860470103,
                -1.1624669084101933,
                2.0113747019036508,
                -0.8422410599791191,
                0.6800593140387057,
                -3.1411846340532663
            ]
        }
    ]
}