{
    "goal": {
        "global_pose": {
            "orientation": {
                "w": 0.5084816217422485,
                "x": -0.49083608388900757,
                "y": 0.5182115435600281,
                "z": -0.4816462993621826
            },
            "position": {
                "x": 0.5540239810943604,
                "y": 0.030875300988554955,
                "z": 0.16403168439865112
            }
        },
        "name": "move_to_storage_A"
    },
    "id": "BFMT_move_to_storage_A_40",
    "joint_names": [
        "shoulder_pan_joint",
        "shoulder_lift_joint",
        "elbow_joint",
        "wrist_1_joint",
        "wrist_2_joint",
        "wrist_3_joint"
    ],
    "metrics": {
        "cart_traj_len": 0.3533689884486433,
        "distance_elbow_joint": 0.4508347364482097,
        "distance_shoulder_lift_joint": 0.23261605093963422,
        "distance_shoulder_pan_joint": 0.45896234113281664,
        "distance_wrist_1_joint": 0.2524702638338384,
        "distance_wrist_2_joint": 1.1117015907873349,
        "distance_wrist_3_joint": 0.0946581175070853,
        "smoothness": 1.4432899335161698e-15,
        "time": 0.500012163,
        "traj_len": 1.6128369727436553,
        "weighted_distance": 2.0383157729567474
    },
    "planner": "BFMT",
    "start": {
        "state": {
            "elbow_joint": 1.971548259319323,
            "shoulder_lift_joint": -1.1394851275133948,
            "shoulder_pan_joint": 0.1228115487234821,
            "wrist_1_joint": -0.7804723859257726,
            "wrist_2_joint": 0.12958671773740124,
            "wrist_3_joint": -3.192489227718131
        }
    },
    "waypoints": [
        {
            "positions": [
                0.1228115487234821,
                -1.1394851275133948,
                1.971548259319323,
                -0.7804723859257726,
                0.12958671773740124,
                -3.192489227718131
            ]
        },
        {
            "positions": [
                0.05724549999022259,
                -1.1727159919333425,
                2.0359532216690672,
                -0.8165395664734638,
                0.2884012307070205,
                -3.1789666395028333
            ]
        },
        {
            "positions": [
                -0.00832054874303692,
                -1.2059468563532902,
                2.1003581840188117,
                -0.852606747021155,
                0.44721574367663974,
                -3.1654440512875355
            ]
        },
        {
            "positions": [
                -0.07388659747629645,
                -1.239177720773238,
                2.1647631463685557,
                -0.8886739275688462,
                0.606030256646259,
                -3.1519214630722376
            ]
        },
        {
            "positions": [
                -0.13945264620955594,
                -1.272408585193186,
                2.2291681087182997,
                -0.9247411081165374,
                0.7648447696158783,
                -3.1383988748569394
            ]
        },
        {
            "positions": [
                -0.2050186949428155,
                -1.3056394496131336,
                2.293573071068044,
                -0.9608082886642286,
                0.9236592825854977,
                -3.1248762866416415
            ]
        },
        {
            "positions": [
                -0.270584743676075,
                -1.3388703140330813,
                2.3579780334177887,
                -0.9968754692119198,
                1.0824737955551167,
                -3.1113536984263437
            ]
        },
        {
            "positions": [
                -0.33615079240933454,
                -1.372101178453029,
                2.4223829957675327,
                -1.032942649759611,
                1.2412883085247362,
                -3.097831110211046
            ]
        }
    ]
}{
    "goal": {
        "global_pose": {
            "orientation": {
                "w": 0.5084816217422485,
                "x": -0.49083608388900757,
                "y": 0.5182115435600281,
                "z": -0.4816462993621826
            },
            "position": {
                "x": 0.5540239810943604,
                "y": 0.030875300988554955,
                "z": 0.16403168439865112
            }
        },
        "name": "move_to_storage_A"
    },
    "id": "BFMT_move_to_storage_A_40",
    "joint_names": [
        "shoulder_pan_joint",
        "shoulder_lift_joint",
        "elbow_joint",
        "wrist_1_joint",
        "wrist_2_joint",
        "wrist_3_joint"
    ],
    "metrics": {
        "cart_traj_len": 0.3538955909247847,
        "distance_elbow_joint": 0.4492166231436694,
        "distance_shoulder_lift_joint": 0.2343506269134763,
        "distance_shoulder_pan_joint": 0.460392805964062,
        "distance_wrist_1_joint": 0.23630510802306448,
        "distance_wrist_2_joint": 1.1108419908272469,
        "distance_wrist_3_joint": 0.1019623723441625,
        "smoothness": 5.551115138160447e-16,
        "time": 0.497254705,
        "traj_len": 1.6103010672590643,
        "weighted_distance": 2.0357164269009367
    },
    "planner": "BFMT",
    "start": {
        "state": {
            "elbow_joint": 1.97154746011099,
            "shoulder_lift_joint": -1.13948474672311,
            "shoulder_pan_joint": 0.12281154466712228,
            "wrist_1_joint": -0.7804688027058302,
            "wrist_2_joint": 0.12958655903071145,
            "wrist_3_joint": 3.0906928834467795
        }
    },
    "waypoints": [
        {
            "positions": [
                0.12281154466712228,
                -1.13948474672311,
                1.97154746011099,
                -0.7804688027058302,
                0.12958655903071145,
                3.0906928834467795
            ]
        },
        {
            "positions": [
                0.057041143815113424,
                -1.1729634077107494,
                2.0357212634172286,
                -0.8142266752805537,
                0.2882782720060324,
                3.1052589366388026
            ]
        },
        {
            "positions": [
                -0.008729257036895435,
                -1.206442068698389,
                2.099895066723467,
                -0.8479845478552772,
                0.44696998498135343,
                3.119824989830826
            ]
        },
        {
            "positions": [
                -0.0744996578889043,
                -1.2399207296860284,
                2.1640688700297055,
                -0.8817424204300006,
                0.6056616979566743,
                3.134391043022849
            ]
        },
        {
            "positions": [
                -0.14027005874091314,
                -1.2733993906736678,
                2.2282426733359437,
                -0.9155002930047241,
                0.7643534109319954,
                3.1489570962148723
            ]
        },
        {
            "positions": [
                -0.206040459592922,
                -1.3068780516613074,
                2.2924164766421824,
                -0.9492581655794476,
                0.9230451239073164,
                3.1635231494068954
            ]
        },
        {
            "positions": [
                -0.27181086044493086,
                -1.3403567126489468,
                2.3565902799484206,
                -0.9830160381541712,
                1.0817368368826372,
                3.178089202598919
            ]
        },
        {
            "positions": [
                -0.3375812612969397,
                -1.3738353736365863,
                2.4207640832546593,
                -1.0167739107288947,
                1.2404285498579584,
                3.192655255790942
            ]
        }
    ]
}{
    "goal": {
        "global_pose": {
            "orientation": {
                "w": 0.5084816217422485,
                "x": -0.49083608388900757,
                "y": 0.5182115435600281,
                "z": -0.4816462993621826
            },
            "position": {
                "x": 0.5540239810943604,
                "y": 0.030875300988554955,
                "z": 0.16403168439865112
            }
        },
        "name": "move_to_storage_A"
    },
    "id": "BFMT_move_to_storage_A_40",
    "joint_names": [
        "shoulder_pan_joint",
        "shoulder_lift_joint",
        "elbow_joint",
        "wrist_1_joint",
        "wrist_2_joint",
        "wrist_3_joint"
    ],
    "metrics": {
        "cart_traj_len": 0.3536224480055991,
        "distance_elbow_joint": 0.45044697239378984,
        "distance_shoulder_lift_joint": 0.23259400398832608,
        "distance_shoulder_pan_joint": 0.4599703518406506,
        "distance_wrist_1_joint": 0.25033082606097246,
        "distance_wrist_2_joint": 1.1092594119570416,
        "distance_wrist_3_joint": 0.09162244042247858,
        "smoothness": 6.661338165333112e-16,
        "time": 0.500730102,
        "traj_len": 1.61065949432624,
        "weighted_distance": 2.033976186076482
    },
    "planner": "BFMT",
    "start": {
        "state": {
            "elbow_joint": 1.9715472970024885,
            "shoulder_lift_joint": -1.1394870060712896,
            "shoulder_pan_joint": 0.12281152778156021,
            "wrist_1_joint": -0.780463741449964,
            "wrist_2_joint": 0.12958659822042276,
            "wrist_3_joint": 3.090690232415272
        }
    },
    "waypoints": [
        {
            "positions": [
                0.12281152778156021,
                -1.1394870060712896,
                1.9715472970024885,
                -0.780463741449964,
                0.12958659822042276,
                3.090690232415272
            ]
        },
        {
            "positions": [
                0.057101477518610125,
                -1.1727147209267648,
                2.0358968644873157,
                -0.816225288030103,
                0.2880522285000001,
                3.1037791524756257
            ]
        },
        {
            "positions": [
                -0.00860857274433996,
                -1.20594243578224,
                2.100246431972143,
                -0.8519868346102418,
                0.4465178587795775,
                3.11686807253598
            ]
        },
        {
            "positions": [
                -0.07431862300729003,
                -1.239170150637715,
                2.16459599945697,
                -0.8877483811903808,
                0.6049834890591549,
                3.129956992596334
            ]
        },
        {
            "positions": [
                -0.14002867327024013,
                -1.2723978654931902,
                2.228945566941797,
                -0.9235099277705197,
                0.7634491193387322,
                3.1430459126566883
            ]
        },
        {
            "positions": [
                -0.20573872353319025,
                -1.3056255803486654,
                2.293295134426624,
                -0.9592714743506586,
                0.9219147496183095,
                3.156134832717042
            ]
        },
        {
            "positions": [
                -0.2714487737961403,
                -1.3388532952041405,
                2.3576447019114513,
                -0.9950330209307975,
                1.080380379897887,
                3.1692237527773965
            ]
        },
        {
            "positions": [
                -0.33715882405909037,
                -1.3720810100596157,
                2.4219942693962784,
                -1.0307945675109365,
                1.2388460101774643,
                3.1823126728377504
            ]
        }
    ]
}