{
    "goal": {
        "global_pose": {
            "orientation": {
                "w": -0.4816463035849501,
                "x": 0.5182115481033762,
                "y": 0.4908360881923453,
                "z": -0.5084816262002911
            },
            "position": {
                "x": -0.8240239810943604,
                "y": 0.19912469901144506,
                "z": 0.16403168439865112
            }
        },
        "name": "move_to_storage_D"
    },
    "id": "BFMT_move_to_storage_D_99",
    "joint_names": [
        "shoulder_pan_joint",
        "shoulder_lift_joint",
        "elbow_joint",
        "wrist_1_joint",
        "wrist_2_joint",
        "wrist_3_joint"
    ],
    "metrics": {
        "cart_traj_len": 3.98101135529118,
        "distance_elbow_joint": 4.206680824935242,
        "distance_shoulder_lift_joint": 1.265793440700251,
        "distance_shoulder_pan_joint": 2.8120928687041626,
        "distance_wrist_1_joint": 2.2610554465433688,
        "distance_wrist_2_joint": 0.8704223534882946,
        "distance_wrist_3_joint": 3.151607568660128,
        "smoothness": 2.505118621963486e-16,
        "time": 0.6282576280000001,
        "traj_len": 3.8167594243063636,
        "weighted_distance": 4.8992188602249005
    },
    "planner": "BFMT",
    "start": {
        "state": {
            "elbow_joint": -2.384821988534728,
            "shoulder_lift_joint": -2.2788054721415256,
            "shoulder_pan_joint": -0.1854694642142757,
            "wrist_1_joint": 1.4845938289331202,
            "wrist_2_joint": 0.17898776772866878,
            "wrist_3_joint": 0.037105688729662994
        }
    },
    "waypoints": [
        {
            "positions": [
                -0.1854694642142757,
                -2.2788054721415256,
                -2.384821988534728,
                1.4845938289331202,
                0.17898776772866878,
                0.037105688729662994
            ]
        },
        {
            "positions": [
                -0.07126070865918163,
                -2.2477529293856033,
                -2.3739793519881807,
                1.424512245338334,
                0.1913468955031538,
                0.14997689875277978
            ]
        },
        {
            "positions": [
                0.042948046895912445,
                -2.2167003866296815,
                -2.363136715441634,
                1.3644306617435478,
                0.20370602327763887,
                0.2628481087758966
            ]
        },
        {
            "positions": [
                0.15715680245100652,
                -2.185647843873759,
                -2.3522940788950866,
                1.3043490781487614,
                0.2160651510521239,
                0.3757193187990133
            ]
        },
        {
            "positions": [
                0.2713655580061006,
                -2.154595301117837,
                -2.3414514423485393,
                1.2442674945539753,
                0.22842427882660893,
                0.48859052882213017
            ]
        },
        {
            "positions": [
                0.3473045505520663,
                -2.120431714257234,
                -2.2278891283168507,
                1.1831216459791936,
                0.2520059833131599,
                0.5736984780974835
            ]
        },
        {
            "positions": [
                0.423243543098032,
                -2.0862681273966315,
                -2.1143268142851617,
                1.1219757974044116,
                0.27558768779971077,
                0.6588064273728369
            ]
        },
        {
            "positions": [
                0.4991825356439978,
                -2.0521045405360288,
                -2.0007645002534726,
                1.0608299488296298,
                0.2991693922862617,
                0.7439143766481904
            ]
        },
        {
            "positions": [
                0.5751215281899635,
                -2.017940953675426,
                -1.887202186221784,
                0.9996841002548479,
                0.32275109677281266,
                0.8290223259235436
            ]
        },
        {
            "positions": [
                0.6510605207359292,
                -1.9837773668148233,
                -1.7736398721900952,
                0.9385382516800661,
                0.3463328012593636,
                0.914130275198897
            ]
        },
        {
            "positions": [
                0.7269995132818949,
                -1.9496137799542206,
                -1.6600775581584064,
                0.8773924031052842,
                0.36991450574591456,
                0.9992382244742505
            ]
        },
        {
            "positions": [
                0.8029385058278606,
                -1.9154501930936179,
                -1.5465152441267176,
                0.8162465545305024,
                0.39349621023246545,
                1.0843461737496038
            ]
        },
        {
            "positions": [
                0.8788774983738263,
                -1.8812866062330151,
                -1.4329529300950288,
                0.7551007059557204,
                0.4170779147190164,
                1.169454123024957
            ]
        },
        {
            "positions": [
                0.954816490919792,
                -1.8471230193724126,
                -1.31939061606334,
                0.6939548573809387,
                0.4406596192055673,
                1.2545620723003106
            ]
        },
        {
            "positions": [
                1.0307554834657577,
                -1.81295943251181,
                -1.2058283020316511,
                0.6328090088061569,
                0.46424132369211824,
                1.3396700215756638
            ]
        },
        {
            "positions": [
                1.1066944760117234,
                -1.7787958456512072,
                -1.0922659879999623,
                0.571663160231375,
                0.4878230281786692,
                1.424777970851017
            ]
        },
        {
            "positions": [
                1.1826334685576891,
                -1.7446322587906045,
                -0.9787036739682735,
                0.5105173116565931,
                0.5114047326652201,
                1.5098859201263708
            ]
        },
        {
            "positions": [
                1.2585724611036548,
                -1.7104686719300017,
                -0.8651413599365847,
                0.4493714630818112,
                0.5349864371517711,
                1.594993869401724
            ]
        },
        {
            "positions": [
                1.3345114536496205,
                -1.676305085069399,
                -0.7515790459048959,
                0.3882256145070294,
                0.5585681416383219,
                1.6801018186770775
            ]
        },
        {
            "positions": [
                1.4104504461955862,
                -1.6421414982087963,
                -0.6380167318732071,
                0.3270797659322475,
                0.5821498461248729,
                1.7652097679524308
            ]
        },
        {
            "positions": [
                1.486389438741552,
                -1.6079779113481936,
                -0.5244544178415183,
                0.26593391735746563,
                0.6057315506114238,
                1.850317717227784
            ]
        },
        {
            "positions": [
                1.5623284312875176,
                -1.5738143244875908,
                -0.41089210380982943,
                0.20478806878268374,
                0.6293132550979748,
                1.9354256665031375
            ]
        },
        {
            "positions": [
                1.6382674238334833,
                -1.5396507376269883,
                -0.2973297897781406,
                0.14364222020790196,
                0.6528949595845257,
                2.0205336157784908
            ]
        },
        {
            "positions": [
                1.714206416379449,
                -1.5054871507663856,
                -0.18376747574645202,
                0.08249637163312018,
                0.6764766640710766,
                2.105641565053844
            ]
        },
        {
            "positions": [
                1.7901454089254147,
                -1.471323563905783,
                -0.07020516171476299,
                0.0213505230583384,
                0.7000583685576276,
                2.1907495143291973
            ]
        },
        {
            "positions": [
                1.8660844014713804,
                -1.4371599770451802,
                0.04335715231692561,
                -0.0397953255164436,
                0.7236400730441785,
                2.275857463604551
            ]
        },
        {
            "positions": [
                1.9420233940173461,
                -1.4029963901845774,
                0.15691946634861464,
                -0.10094117409122538,
                0.7472217775307295,
                2.3609654128799042
            ]
        },
        {
            "positions": [
                2.0179623865633123,
                -1.3688328033239747,
                0.2704817803803037,
                -0.16208702266600739,
                0.7708034820172804,
                2.446073362155258
            ]
        },
        {
            "positions": [
                2.093901379109278,
                -1.334669216463372,
                0.3840440944119923,
                -0.22323287124078917,
                0.7943851865038314,
                2.531181311430611
            ]
        },
        {
            "positions": [
                2.1698403716552437,
                -1.3005056296027693,
                0.4976064084436813,
                -0.28437871981557117,
                0.8179668909903823,
                2.6162892607059645
            ]
        },
        {
            "positions": [
                2.2457793642012094,
                -1.2663420427421666,
                0.6111687224753699,
                -0.34552456839035295,
                0.8415485954769333,
                2.7013972099813177
            ]
        },
        {
            "positions": [
                2.321718356747175,
                -1.2321784558815638,
                0.724731036507059,
                -0.40667041696513473,
                0.8651302999634842,
                2.786505159256671
            ]
        },
        {
            "positions": [
                2.397657349293141,
                -1.198014869020961,
                0.8382933505387475,
                -0.4678162655399165,
                0.888712004450035,
                2.871613108532025
            ]
        },
        {
            "positions": [
                2.4735963418391065,
                -1.1638512821603584,
                0.9518556645704366,
                -0.5289621141146985,
                0.9122937089365859,
                2.9567210578073784
            ]
        },
        {
            "positions": [
                2.549535334385072,
                -1.1296876952997557,
                1.0654179786021252,
                -0.5901079626894803,
                0.9358754134231368,
                3.0418290070827316
            ]
        },
        {
            "positions": [
                2.5688073519112757,
                -1.1005187793351354,
                1.2545281930517227,
                -0.6366963764196725,
                0.9642590903715935,
                3.0785500696594967
            ]
        },
        {
            "positions": [
                2.5880793694374797,
                -1.0713498633705152,
                1.4436384075013202,
                -0.6832847901498645,
                0.9926427673200501,
                3.1152711322362614
            ]
        },
        {
            "positions": [
                2.6073513869636837,
                -1.042180947405895,
                1.6327486219509177,
                -0.7298732038800566,
                1.0210264442685066,
                3.151992194813026
            ]
        },
        {
            "positions": [
                2.6266234044898873,
                -1.0130120314412747,
                1.8218588364005153,
                -0.7764616176102488,
                1.0494101212169633,
                3.188713257389791
            ]
        }
    ]
}