{
    "goal": {
        "global_pose": {
            "orientation": {
                "w": 0.7031023502349854,
                "x": -0.7110244035720825,
                "y": 0.007748599164187908,
                "z": 0.005598929710686207
            },
            "position": {
                "x": 0.11585023208521307,
                "y": 0.44412534475326537,
                "z": 0.3711530566215515
            }
        },
        "name": "move_to_auspresseinheit_A"
    },
    "id": "BFMT_move_to_auspresseinheit_A_57",
    "joint_names": [
        "shoulder_pan_joint",
        "shoulder_lift_joint",
        "elbow_joint",
        "wrist_1_joint",
        "wrist_2_joint",
        "wrist_3_joint"
    ],
    "metrics": {
        "cart_traj_len": 1.6231473765333206,
        "distance_elbow_joint": 1.4128866844213857,
        "distance_shoulder_lift_joint": 1.1655966818669892,
        "distance_shoulder_pan_joint": 1.1879227545684095,
        "distance_wrist_1_joint": 0.8591549762108811,
        "distance_wrist_2_joint": 1.0686191557932505,
        "distance_wrist_3_joint": 0.22816884603865129,
        "smoothness": 2.400978007183651,
        "time": 0.818639238,
        "traj_len": 2.4335877010906275,
        "weighted_distance": 2.8820931496016917
    },
    "planner": "BFMT",
    "start": {
        "state": {
            "elbow_joint": 2.4225746658250005,
            "shoulder_lift_joint": -1.3736534386056498,
            "shoulder_pan_joint": -0.3378633547517467,
            "wrist_1_joint": -1.0288598680537169,
            "wrist_2_joint": 1.233022673432363,
            "wrist_3_joint": -3.0940220416140027
        }
    },
    "waypoints": [
        {
            "positions": [
                -0.3378633547517467,
                -1.3736534386056498,
                2.4225746658250005,
                -1.0288598680537169,
                1.233022673432363,
                -3.0940220416140027
            ]
        },
        {
            "positions": [
                -0.29721325413560096,
                -1.4554094226773178,
                2.33224013826207,
                -0.9675761460267899,
                1.15944018114708,
                -3.1092982138996104
            ]
        },
        {
            "positions": [
                -0.25656315351945524,
                -1.5371654067489857,
                2.241905610699139,
                -0.9062924239998629,
                1.0858576888617972,
                -3.124574386185218
            ]
        },
        {
            "positions": [
                -0.21591305290330948,
                -1.6189213908206537,
                2.1515710831362083,
                -0.845008701972936,
                1.0122751965765142,
                -3.139850558470826
            ]
        },
        {
            "positions": [
                -0.1752629522871637,
                -1.7006773748923214,
                2.0612365555732772,
                -0.783724979946009,
                0.9386927042912312,
                -3.1551267307564337
            ]
        },
        {
            "positions": [
                -0.13461285167101794,
                -1.7824333589639894,
                1.9709020280103466,
                -0.722441257919082,
                0.8651102120059483,
                -3.1704029030420413
            ]
        },
        {
            "positions": [
                -0.0939627510548722,
                -1.8641893430356573,
                1.880567500447416,
                -0.6611575358921551,
                0.7915277197206654,
                -3.1856790753276494
            ]
        },
        {
            "positions": [
                -0.05331265043872646,
                -1.9459453271073253,
                1.7902329728844852,
                -0.5998738138652281,
                0.7179452274353824,
                -3.200955247613257
            ]
        },
        {
            "positions": [
                -0.012662549822580693,
                -2.027701311178993,
                1.6998984453215544,
                -0.5385900918383011,
                0.6443627351500995,
                -3.2162314198988646
            ]
        },
        {
            "positions": [
                0.1466212058216514,
                -2.0004567753458318,
                1.8532785484144298,
                -0.5213622189622357,
                0.6561688220600852,
                -3.200671043854299
            ]
        },
        {
            "positions": [
                0.3059049614658835,
                -1.9732122395126706,
                2.0066586515073053,
                -0.5041343460861704,
                0.6679749089700708,
                -3.185110667809733
            ]
        },
        {
            "positions": [
                0.4651887171101156,
                -1.9459677036795093,
                2.1600387546001807,
                -0.48690647321010494,
                0.6797809958800566,
                -3.1695502917651677
            ]
        },
        {
            "positions": [
                0.4408645422367491,
                -1.8675207027555254,
                2.207959232119766,
                -0.4297325747632104,
                0.6086423581440481,
                -3.1755399210240416
            ]
        },
        {
            "positions": [
                0.41654036736338257,
                -1.7890737018315412,
                2.2558797096393515,
                -0.3725586763163159,
                0.5375037204080395,
                -3.181529550282916
            ]
        },
        {
            "positions": [
                0.39221619249001605,
                -1.7106267009075573,
                2.3038001871589366,
                -0.3153847778694214,
                0.466365082672031,
                -3.18751917954179
            ]
        },
        {
            "positions": [
                0.4961822451854986,
                -1.7754514339149605,
                2.332569761185789,
                -0.3639447398782832,
                0.5434067638630323,
                -3.173749362260633
            ]
        },
        {
            "positions": [
                0.6001482978809811,
                -1.840276166922364,
                2.3613393352126417,
                -0.412504701887145,
                0.6204484450540337,
                -3.1599795449794765
            ]
        },
        {
            "positions": [
                0.7041143505764638,
                -1.9051008999297672,
                2.390108909239494,
                -0.4610646638960068,
                0.6974901262450351,
                -3.1462097276983196
            ]
        }
    ]
}