{
    "goal": {
        "global_pose": {
            "orientation": {
                "w": -0.4816463035849501,
                "x": 0.5182115481033762,
                "y": 0.4908360881923453,
                "z": -0.5084816262002911
            },
            "position": {
                "x": -0.8240239810943604,
                "y": 0.19912469901144506,
                "z": 0.16403168439865112
            }
        },
        "name": "move_to_storage_D"
    },
    "id": "BFMT_move_to_storage_D_22",
    "joint_names": [
        "shoulder_pan_joint",
        "shoulder_lift_joint",
        "elbow_joint",
        "wrist_1_joint",
        "wrist_2_joint",
        "wrist_3_joint"
    ],
    "metrics": {
        "cart_traj_len": 3.1654969708916574,
        "distance_elbow_joint": 4.875149498906839,
        "distance_shoulder_lift_joint": 1.26470345856287,
        "distance_shoulder_pan_joint": 2.810987914809488,
        "distance_wrist_1_joint": 2.2870663711615835,
        "distance_wrist_2_joint": 0.8666139857943821,
        "distance_wrist_3_joint": 3.1246470755128293,
        "smoothness": 0.03796143337576345,
        "time": 0.8726834,
        "traj_len": 3.902456701200924,
        "weighted_distance": 4.963077957551103
    },
    "planner": "BFMT",
    "start": {
        "state": {
            "elbow_joint": -2.384821988534728,
            "shoulder_lift_joint": -2.2788054721415256,
            "shoulder_pan_joint": -0.1854694642142757,
            "wrist_1_joint": 1.4845938289331202,
            "wrist_2_joint": 0.17898776772866878,
            "wrist_3_joint": 0.037105688729662994
        }
    },
    "waypoints": [
        {
            "positions": [
                -0.1854694642142757,
                -2.2788054721415256,
                -2.384821988534728,
                1.4845938289331202,
                0.17898776772866878,
                0.037105688729662994
            ]
        },
        {
            "positions": [
                -0.10541563847464724,
                -2.269868301011458,
                -2.1684126430500528,
                1.475997325992714,
                0.19444556888678918,
                -0.028196104098968916
            ]
        },
        {
            "positions": [
                -0.02536181273501878,
                -2.2609311298813903,
                -1.9520032975653774,
                1.4674008230523077,
                0.20990337004490955,
                -0.09349789692760083
            ]
        },
        {
            "positions": [
                0.054692013004609685,
                -2.251993958751323,
                -1.735593952080702,
                1.4588043201119016,
                0.22536117120302995,
                -0.15879968975623274
            ]
        },
        {
            "positions": [
                0.13474583874423815,
                -2.243056787621255,
                -1.5191846065960268,
                1.4502078171714954,
                0.24081897236115035,
                -0.22410148258486465
            ]
        },
        {
            "positions": [
                0.2147996644838666,
                -2.2341196164911876,
                -1.3027752611113514,
                1.4416113142310891,
                0.25627677351927075,
                -0.28940327541349653
            ]
        },
        {
            "positions": [
                0.29485349022349505,
                -2.22518244536112,
                -1.0863659156266763,
                1.4330148112906829,
                0.27173457467739115,
                -0.35470506824212844
            ]
        },
        {
            "positions": [
                0.37490731596312354,
                -2.2162452742310523,
                -0.8699565701420009,
                1.4244183083502768,
                0.2871923758355115,
                -0.42000686107076035
            ]
        },
        {
            "positions": [
                0.45496114170275204,
                -2.207308103100985,
                -0.6535472246573257,
                1.4158218054098706,
                0.3026501769936319,
                -0.48530865389939226
            ]
        },
        {
            "positions": [
                0.5350149674423804,
                -2.1983709319709175,
                -0.43713787917265035,
                1.4072253024694643,
                0.3181079781517523,
                -0.5506104467280242
            ]
        },
        {
            "positions": [
                0.6150687931820089,
                -2.1894337608408496,
                -0.22072853368797496,
                1.398628799529058,
                0.3335657793098727,
                -0.6159122395566561
            ]
        },
        {
            "positions": [
                0.6951226189216375,
                -2.180496589710782,
                -0.004319188203299795,
                1.390032296588652,
                0.3490235804679931,
                -0.681214032385288
            ]
        },
        {
            "positions": [
                0.7751764446612659,
                -2.1715594185807143,
                0.21209015728137537,
                1.3814357936482458,
                0.36448138162611343,
                -0.7465158252139199
            ]
        },
        {
            "positions": [
                0.8552302704008944,
                -2.162622247450647,
                0.428499502766051,
                1.3728392907078395,
                0.3799391827842339,
                -0.8118176180425518
            ]
        },
        {
            "positions": [
                0.9352840961405228,
                -2.1536850763205795,
                0.6449088482507261,
                1.3642427877674332,
                0.39539698394235423,
                -0.8771194108711837
            ]
        },
        {
            "positions": [
                1.0153379218801513,
                -2.1447479051905116,
                0.8613181937354013,
                1.355646284827027,
                0.4108547851004747,
                -0.9424212036998156
            ]
        },
        {
            "positions": [
                1.0953917476197796,
                -2.135810734060444,
                1.0777275392200765,
                1.347049781886621,
                0.426312586258595,
                -1.0077229965284475
            ]
        },
        {
            "positions": [
                1.1754455733594082,
                -2.1268735629303768,
                1.294136884704752,
                1.3384532789462147,
                0.4417703874167155,
                -1.0730247893570795
            ]
        },
        {
            "positions": [
                1.2554993990990364,
                -2.117936391800309,
                1.5105462301894272,
                1.3298567760058084,
                0.4572281885748358,
                -1.1383265821857114
            ]
        },
        {
            "positions": [
                1.335553224838665,
                -2.1089992206702415,
                1.7269555756741028,
                1.3212602730654024,
                0.47268598973295617,
                -1.2036283750143433
            ]
        },
        {
            "positions": [
                1.4156070505782934,
                -2.1000620495401736,
                1.943364921158778,
                1.3126637701249961,
                0.4881437908910766,
                -1.2689301678429752
            ]
        },
        {
            "positions": [
                1.495660876317922,
                -2.091124878410106,
                2.1597742666434536,
                1.3040672671845899,
                0.503601592049197,
                -1.334231960671607
            ]
        },
        {
            "positions": [
                1.5584307415555492,
                -2.031290274808359,
                2.141410197547417,
                1.1870372777727536,
                0.5337127121310777,
                -1.431638039900027
            ]
        },
        {
            "positions": [
                1.6212006067931766,
                -1.9714556712066118,
                2.12304612845138,
                1.0700072883609173,
                0.5638238322129585,
                -1.529044119128447
            ]
        },
        {
            "positions": [
                1.6839704720308037,
                -1.9116210676048644,
                2.1046820593553437,
                0.952977298949081,
                0.5939349522948393,
                -1.6264501983568669
            ]
        },
        {
            "positions": [
                1.746740337268431,
                -1.8517864640031172,
                2.0863179902593068,
                0.8359473095372447,
                0.62404607237672,
                -1.7238562775852868
            ]
        },
        {
            "positions": [
                1.8095102025060583,
                -1.7919518604013698,
                2.0679539211632703,
                0.7189173201254084,
                0.6541571924586008,
                -1.821262356813707
            ]
        },
        {
            "positions": [
                1.8722800677436855,
                -1.7321172567996226,
                2.0495898520672333,
                0.6018873307135721,
                0.6842683125404816,
                -1.9186684360421267
            ]
        },
        {
            "positions": [
                1.935049932981313,
                -1.6722826531978754,
                2.031225782971197,
                0.48485734130173586,
                0.7143794326223624,
                -2.016074515270547
            ]
        },
        {
            "positions": [
                1.99781979821894,
                -1.6124480495961282,
                2.01286171387516,
                0.36782735188989957,
                0.7444905527042431,
                -2.1134805944989665
            ]
        },
        {
            "positions": [
                2.0605896634565672,
                -1.552613445994381,
                1.9944976447791234,
                0.2507973624780633,
                0.7746016727861239,
                -2.2108866737273867
            ]
        },
        {
            "positions": [
                2.123359528694195,
                -1.4927788423926336,
                1.9761335756830867,
                0.133767373066227,
                0.8047127928680047,
                -2.308292752955807
            ]
        },
        {
            "positions": [
                2.186129393931822,
                -1.4329442387908862,
                1.95776950658705,
                0.016737383654390703,
                0.8348239129498854,
                -2.4056988321842265
            ]
        },
        {
            "positions": [
                2.248899259169449,
                -1.3731096351891392,
                1.9394054374910132,
                -0.10029260575744559,
                0.8649350330317662,
                -2.5031049114126462
            ]
        },
        {
            "positions": [
                2.3116691244070764,
                -1.3132750315873918,
                1.9210413683949765,
                -0.21732259516928187,
                0.895046153113647,
                -2.6005109906410664
            ]
        },
        {
            "positions": [
                2.3744389896447036,
                -1.2534404279856446,
                1.90267729929894,
                -0.33435258458111816,
                0.9251572731955278,
                -2.6979170698694865
            ]
        },
        {
            "positions": [
                2.437208854882331,
                -1.1936058243838974,
                1.884313230202903,
                -0.45138257399295445,
                0.9552683932774085,
                -2.7953231490979062
            ]
        },
        {
            "positions": [
                2.499978720119958,
                -1.1337712207821502,
                1.8659491611068666,
                -0.5684125634047907,
                0.9853795133592893,
                -2.892729228326326
            ]
        },
        {
            "positions": [
                2.5627485853575855,
                -1.0739366171804028,
                1.8475850920108299,
                -0.685442552816627,
                1.01549063344117,
                -2.9901353075547465
            ]
        },
        {
            "positions": [
                2.6255184505952127,
                -1.0141020135786556,
                1.8292210229147932,
                -0.8024725422284633,
                1.0456017535230508,
                -3.0875413867831663
            ]
        }
    ]
}