{
    "goal": {
        "global_pose": {
            "orientation": {
                "w": 0.7031023480610252,
                "x": -0.7110244013736278,
                "y": 0.0077485991402295624,
                "z": 0.005598929693374583
            },
            "position": {
                "x": -0.8841497679147869,
                "y": 0.44412534475326537,
                "z": 0.3711530566215515
            }
        },
        "name": "move_to_auspresseinheit_D"
    },
    "id": "BFMT_move_to_auspresseinheit_D_83",
    "joint_names": [
        "shoulder_pan_joint",
        "shoulder_lift_joint",
        "elbow_joint",
        "wrist_1_joint",
        "wrist_2_joint",
        "wrist_3_joint"
    ],
    "metrics": {
        "cart_traj_len": 0.3426413591017922,
        "distance_elbow_joint": 0.6317415178254688,
        "distance_shoulder_lift_joint": 0.11753851473356214,
        "distance_shoulder_pan_joint": 0.13325380448900837,
        "distance_wrist_1_joint": 0.5061486120898073,
        "distance_wrist_2_joint": 1.4390739314813232,
        "distance_wrist_3_joint": 0.030834054640327846,
        "smoothness": 0.0,
        "time": 0.482729532,
        "traj_len": 1.6907366546152294,
        "weighted_distance": 2.205783554229944
    },
    "planner": "BFMT",
    "start": {
        "state": {
            "elbow_joint": -1.8275523626775212,
            "shoulder_lift_joint": -2.126789852344167,
            "shoulder_pan_joint": -0.03513704404078235,
            "wrist_1_joint": -2.347782403156801,
            "wrist_2_joint": -1.6058999987535132,
            "wrist_3_joint": -3.0880379163319196
        }
    },
    "waypoints": [
        {
            "positions": [
                -0.03513704404078235,
                -2.126789852344167,
                -1.8275523626775212,
                -2.347782403156801,
                -1.6058999987535132,
                -3.0880379163319196
            ]
        },
        {
            "positions": [
                -0.051793769601908395,
                -2.1414821666858623,
                -1.7485846729493375,
                -2.4110509796680266,
                -1.4260157573183478,
                -3.0918921731619604
            ]
        },
        {
            "positions": [
                -0.06845049516303445,
                -2.1561744810275574,
                -1.669616983221154,
                -2.474319556179253,
                -1.2461315158831825,
                -3.0957464299920017
            ]
        },
        {
            "positions": [
                -0.08510722072416049,
                -2.1708667953692524,
                -1.5906492934929704,
                -2.5375881326904786,
                -1.066247274448017,
                -3.0996006868220425
            ]
        },
        {
            "positions": [
                -0.10176394628528654,
                -2.185559109710948,
                -1.5116816037647869,
                -2.6008567092017048,
                -0.8863630330128516,
                -3.1034549436520837
            ]
        },
        {
            "positions": [
                -0.11842067184641258,
                -2.2002514240526434,
                -1.4327139140366032,
                -2.6641252857129305,
                -0.7064787915776862,
                -3.1073092004821246
            ]
        },
        {
            "positions": [
                -0.13507739740753863,
                -2.2149437383943384,
                -1.3537462243084195,
                -2.7273938622241563,
                -0.5265945501425207,
                -3.1111634573121654
            ]
        },
        {
            "positions": [
                -0.15173412296866468,
                -2.2296360527360335,
                -1.274778534580236,
                -2.7906624387353824,
                -0.3467103087073553,
                -3.1150177141422066
            ]
        },
        {
            "positions": [
                -0.16839084852979072,
                -2.244328367077729,
                -1.1958108448520524,
                -2.853931015246608,
                -0.1668260672721899,
                -3.1188719709722474
            ]
        }
    ]
}