{
    "goal": {
        "global_pose": {
            "orientation": {
                "w": 0.7047431493862688,
                "x": -0.7094548369677653,
                "y": 0.0024358444001904,
                "z": -0.0022348060817251984
            },
            "position": {
                "x": -0.39052492380142206,
                "y": 0.3671506643295288,
                "z": 0.19426114857196808
            }
        },
        "name": "move_to_magneteinheit_D"
    },
    "id": "BFMT_move_to_magneteinheit_D_8",
    "joint_names": [
        "shoulder_pan_joint",
        "shoulder_lift_joint",
        "elbow_joint",
        "wrist_1_joint",
        "wrist_2_joint",
        "wrist_3_joint"
    ],
    "metrics": {
        "cart_traj_len": 3.864363169446668,
        "distance_elbow_joint": 3.5595620735318403,
        "distance_shoulder_lift_joint": 1.103755287513208,
        "distance_shoulder_pan_joint": 2.7044875252724117,
        "distance_wrist_1_joint": 2.4218563302286666,
        "distance_wrist_2_joint": 1.7477080981559565,
        "distance_wrist_3_joint": 6.353139670190041,
        "smoothness": 0.16301671463951062,
        "time": 1.244442783,
        "traj_len": 4.229717364658321,
        "weighted_distance": 5.8962999205990885
    },
    "planner": "BFMT",
    "start": {
        "state": {
            "elbow_joint": 0.749534889911806,
            "shoulder_lift_joint": -0.6476975780787326,
            "shoulder_pan_joint": -2.711696901376241,
            "wrist_1_joint": -0.07506478083263063,
            "wrist_2_joint": 0.43296659715538205,
            "wrist_3_joint": -3.14703540197715
        }
    },
    "waypoints": [
        {
            "positions": [
                -2.711696901376241,
                -0.6476975780787326,
                0.749534889911806,
                -0.07506478083263063,
                0.43296659715538205,
                -3.14703540197715
            ]
        },
        {
            "positions": [
                -2.7416500308471186,
                -0.6474668264476728,
                0.6440057865450072,
                -0.12445203036295009,
                0.2980728126369536,
                -3.1292543526724073
            ]
        },
        {
            "positions": [
                -2.7716031603179956,
                -0.647236074816613,
                0.5384766831782084,
                -0.17383927989326955,
                0.1631790281185252,
                -3.111473303367665
            ]
        },
        {
            "positions": [
                -2.801556289788873,
                -0.6470053231855533,
                0.4329475798114096,
                -0.22322652942358903,
                0.02828524360009671,
                -3.093692254062922
            ]
        },
        {
            "positions": [
                -2.728383497398598,
                -0.6643728467059035,
                0.34162928763430905,
                -0.2883030728241195,
                0.004638218015696978,
                -2.971008979029006
            ]
        },
        {
            "positions": [
                -2.6552107050083227,
                -0.6817403702262537,
                0.2503109954572085,
                -0.35337961622464986,
                -0.019008807568702754,
                -2.8483257039950898
            ]
        },
        {
            "positions": [
                -2.582037912618047,
                -0.6991078937466039,
                0.15899270328010795,
                -0.41845615962518035,
                -0.04265583315310248,
                -2.725642428961174
            ]
        },
        {
            "positions": [
                -2.508865120227772,
                -0.7164754172669541,
                0.06767441110300743,
                -0.4835327030257107,
                -0.06630285873750222,
                -2.602959153927258
            ]
        },
        {
            "positions": [
                -2.4356923278374967,
                -0.7338429407873043,
                -0.023643881074093098,
                -0.5486092464262412,
                -0.08994988432190194,
                -2.480275878893342
            ]
        },
        {
            "positions": [
                -2.3625195354472215,
                -0.7512104643076545,
                -0.11496217325119368,
                -0.6136857898267716,
                -0.11359690990630167,
                -2.357592603859426
            ]
        },
        {
            "positions": [
                -2.289346743056946,
                -0.7685779878280046,
                -0.2062804654282942,
                -0.6787623332273021,
                -0.1372439354907014,
                -2.2349093288255095
            ]
        },
        {
            "positions": [
                -2.2161739506666707,
                -0.7859455113483548,
                -0.2975987576053947,
                -0.7438388766278324,
                -0.16089096107510115,
                -2.1122260537915936
            ]
        },
        {
            "positions": [
                -2.1430011582763955,
                -0.803313034868705,
                -0.38891704978249525,
                -0.8089154200283628,
                -0.18453798665950086,
                -1.9895427787576776
            ]
        },
        {
            "positions": [
                -2.0698283658861203,
                -0.8206805583890552,
                -0.4802353419595958,
                -0.8739919634288933,
                -0.2081850122439006,
                -1.8668595037237614
            ]
        },
        {
            "positions": [
                -1.996655573495845,
                -0.8380480819094054,
                -0.5715536341366962,
                -0.9390685068294237,
                -0.2318320378283003,
                -1.7441762286898455
            ]
        },
        {
            "positions": [
                -1.9234827811055697,
                -0.8554156054297556,
                -0.662871926313797,
                -1.0041450502299543,
                -0.25547906341270005,
                -1.6214929536559293
            ]
        },
        {
            "positions": [
                -1.8503099887152943,
                -0.8727831289501058,
                -0.7541902184908975,
                -1.0692215936304845,
                -0.2791260889970998,
                -1.4988096786220133
            ]
        },
        {
            "positions": [
                -1.777137196325019,
                -0.890150652470456,
                -0.845508510667998,
                -1.134298137031015,
                -0.3027731145814995,
                -1.3761264035880971
            ]
        },
        {
            "positions": [
                -1.703964403934744,
                -0.9075181759908062,
                -0.9368268028450986,
                -1.1993746804315455,
                -0.32642014016589926,
                -1.2534431285541812
            ]
        },
        {
            "positions": [
                -1.6307916115444685,
                -0.9248856995111563,
                -1.028145095022199,
                -1.264451223832076,
                -0.350067165750299,
                -1.130759853520265
            ]
        },
        {
            "positions": [
                -1.5576188191541933,
                -0.9422532230315066,
                -1.1194633871992996,
                -1.3295277672326062,
                -0.3737141913346987,
                -1.008076578486349
            ]
        },
        {
            "positions": [
                -1.4844460267639181,
                -0.9596207465518567,
                -1.2107816793764001,
                -1.3946043106331367,
                -0.3973612169190984,
                -0.8853933034524331
            ]
        },
        {
            "positions": [
                -1.4112732343736425,
                -0.976988270072207,
                -1.3020999715535009,
                -1.4596808540336672,
                -0.4210082425034982,
                -0.7627100284185167
            ]
        },
        {
            "positions": [
                -1.3381004419833673,
                -0.9943557935925571,
                -1.3934182637306012,
                -1.5247573974341977,
                -0.4446552680878979,
                -0.6400267533846007
            ]
        },
        {
            "positions": [
                -1.2649276495930921,
                -1.0117233171129074,
                -1.4847365559077017,
                -1.589833940834728,
                -0.46830229367229764,
                -0.5173434783506847
            ]
        },
        {
            "positions": [
                -1.191754857202817,
                -1.0290908406332575,
                -1.576054848084802,
                -1.6549104842352584,
                -0.4919493192566973,
                -0.39466020331676877
            ]
        },
        {
            "positions": [
                -1.1185820648125415,
                -1.0464583641536076,
                -1.667373140261903,
                -1.719987027635789,
                -0.5155963448410972,
                -0.27197692828285236
            ]
        },
        {
            "positions": [
                -1.0454092724222663,
                -1.063825887673958,
                -1.7586914324390035,
                -1.7850635710363194,
                -0.5392433704254969,
                -0.1492936532489364
            ]
        },
        {
            "positions": [
                -0.9722364800319909,
                -1.081193411194308,
                -1.850009724616104,
                -1.8501401144368497,
                -0.5628903960098965,
                -0.026610378215020436
            ]
        },
        {
            "positions": [
                -0.8990636876417157,
                -1.0985609347146583,
                -1.9413280167932045,
                -1.9152166578373802,
                -0.5865374215942962,
                0.09607289681889553
            ]
        },
        {
            "positions": [
                -0.8258908952514403,
                -1.1159284582350084,
                -2.032646308970305,
                -1.9802932012379106,
                -0.6101844471786961,
                0.21875617185281193
            ]
        },
        {
            "positions": [
                -0.7527181028611651,
                -1.1332959817553587,
                -2.1239646011474056,
                -2.045369744638441,
                -0.6338314727630958,
                0.3414394468867279
            ]
        },
        {
            "positions": [
                -0.67954531047089,
                -1.1506635052757088,
                -2.215282893324506,
                -2.1104462880389714,
                -0.6574784983474955,
                0.46412272192064385
            ]
        },
        {
            "positions": [
                -0.6063725180806148,
                -1.168031028796059,
                -2.3066011855016066,
                -2.1755228314395016,
                -0.6811255239318952,
                0.5868059969545598
            ]
        },
        {
            "positions": [
                -0.5331997256903391,
                -1.1853985523164092,
                -2.397919477678707,
                -2.2405993748400324,
                -0.7047725495162951,
                0.7094892719884762
            ]
        },
        {
            "positions": [
                -0.46002693330006394,
                -1.2027660758367595,
                -2.4892377698558077,
                -2.3056759182405626,
                -0.7284195751006948,
                0.8321725470223922
            ]
        },
        {
            "positions": [
                -0.386854140909789,
                -1.2201335993571096,
                -2.580556062032908,
                -2.370752461641093,
                -0.7520666006850943,
                0.9548558220563078
            ]
        },
        {
            "positions": [
                -0.36686154211171934,
                -1.2731270750019568,
                -2.557608949874196,
                -2.3581355966990722,
                -0.6957991106535463,
                1.179980666671966
            ]
        },
        {
            "positions": [
                -0.3468689433136497,
                -1.3261205506468041,
                -2.534661837715483,
                -2.345518731757052,
                -0.6395316206219981,
                1.405105511287624
            ]
        },
        {
            "positions": [
                -0.3268763445155801,
                -1.3791140262916513,
                -2.5117147255567707,
                -2.332901866815032,
                -0.58326413059045,
                1.6302303559032825
            ]
        },
        {
            "positions": [
                -0.3068837457175104,
                -1.4321075019364986,
                -2.488767613398058,
                -2.3202850018730112,
                -0.5269966405589019,
                1.8553552005189404
            ]
        },
        {
            "positions": [
                -0.28689114691944084,
                -1.4851009775813457,
                -2.4658205012393455,
                -2.3076681369309906,
                -0.4707291505273538,
                2.080480045134599
            ]
        },
        {
            "positions": [
                -0.2668985481213712,
                -1.5380944532261929,
                -2.442873389080633,
                -2.2950512719889704,
                -0.41446166049580574,
                2.305604889750257
            ]
        },
        {
            "positions": [
                -0.24690594932330157,
                -1.5910879288710402,
                -2.4199262769219203,
                -2.28243440704695,
                -0.3581941704642576,
                2.530729734365915
            ]
        },
        {
            "positions": [
                -0.22691335052523193,
                -1.6440814045158874,
                -2.396979164763208,
                -2.2698175421049296,
                -0.3019266804327095,
                2.755854578981573
            ]
        },
        {
            "positions": [
                -0.20692075172716232,
                -1.6970748801607347,
                -2.374032052604495,
                -2.257200677162909,
                -0.24565919040116135,
                2.9809794235972316
            ]
        },
        {
            "positions": [
                -0.18692815292909268,
                -1.7500683558055818,
                -2.3510849404457828,
                -2.2445838122208888,
                -0.18939170036961325,
                3.2061042682128895
            ]
        }
    ]
}