{
    "goal": {
        "global_pose": {
            "orientation": {
                "w": 0.5084816217422485,
                "x": -0.49083608388900757,
                "y": 0.5182115435600281,
                "z": -0.4816462993621826
            },
            "position": {
                "x": 0.5540239810943604,
                "y": 0.030875300988554955,
                "z": 0.16403168439865112
            }
        },
        "name": "move_to_storage_A"
    },
    "id": "BFMT_move_to_storage_A_147",
    "joint_names": [
        "shoulder_pan_joint",
        "shoulder_lift_joint",
        "elbow_joint",
        "wrist_1_joint",
        "wrist_2_joint",
        "wrist_3_joint"
    ],
    "metrics": {
        "cart_traj_len": 0.35260523467038934,
        "distance_elbow_joint": 0.4484764091239588,
        "distance_shoulder_lift_joint": 0.2325970557752659,
        "distance_shoulder_pan_joint": 0.4611620188008013,
        "distance_wrist_1_joint": 0.24148535079271982,
        "distance_wrist_2_joint": 1.096311519355212,
        "distance_wrist_3_joint": 0.09257719118275176,
        "smoothness": 1.7763568410139506e-15,
        "time": 0.506321535,
        "traj_len": 1.6039356424216995,
        "weighted_distance": 2.0237491933399614
    },
    "planner": "BFMT",
    "start": {
        "state": {
            "elbow_joint": 1.971548259319323,
            "shoulder_lift_joint": -1.1394851275133948,
            "shoulder_pan_joint": 0.1228115487234821,
            "wrist_1_joint": -0.7804723859257726,
            "wrist_2_joint": 0.12958671773740124,
            "wrist_3_joint": -3.192489227718131
        }
    },
    "waypoints": [
        {
            "positions": [
                0.1228115487234821,
                -1.1394851275133948,
                1.971548259319323,
                -0.7804723859257726,
                0.12958671773740124,
                -3.192489227718131
            ]
        },
        {
            "positions": [
                0.056931260323367636,
                -1.1727132783384329,
                2.035616317765603,
                -0.8149702931818754,
                0.28620264907386006,
                -3.1792639146920236
            ]
        },
        {
            "positions": [
                -0.008949028076746829,
                -1.2059414291634707,
                2.099684376211883,
                -0.8494682004379783,
                0.44281858041031896,
                -3.1660386016659166
            ]
        },
        {
            "positions": [
                -0.07482931647686131,
                -1.2391695799885087,
                2.1637524346581625,
                -0.8839661076940811,
                0.5994345117467778,
                -3.152813288639809
            ]
        },
        {
            "positions": [
                -0.14070960487697576,
                -1.2723977308135468,
                2.227820493104442,
                -0.9184640149501839,
                0.7560504430832367,
                -3.1395879756137015
            ]
        },
        {
            "positions": [
                -0.20658989327709026,
                -1.3056258816385848,
                2.291888551550722,
                -0.9529619222062868,
                0.9126663744196956,
                -3.126362662587594
            ]
        },
        {
            "positions": [
                -0.2724701816772047,
                -1.3388540324636227,
                2.355956609997002,
                -0.9874598294623895,
                1.0692823057561542,
                -3.113137349561487
            ]
        },
        {
            "positions": [
                -0.3383504700773192,
                -1.3720821832886607,
                2.420024668443282,
                -1.0219577367184924,
                1.2258982370926133,
                -3.0999120365353794
            ]
        }
    ]
}{
    "goal": {
        "global_pose": {
            "orientation": {
                "w": 0.5084816217422485,
                "x": -0.49083608388900757,
                "y": 0.5182115435600281,
                "z": -0.4816462993621826
            },
            "position": {
                "x": 0.5540239810943604,
                "y": 0.030875300988554955,
                "z": 0.16403168439865112
            }
        },
        "name": "move_to_storage_A"
    },
    "id": "BFMT_move_to_storage_A_147",
    "joint_names": [
        "shoulder_pan_joint",
        "shoulder_lift_joint",
        "elbow_joint",
        "wrist_1_joint",
        "wrist_2_joint",
        "wrist_3_joint"
    ],
    "metrics": {
        "cart_traj_len": 0.35352090693157817,
        "distance_elbow_joint": 0.4511923779106386,
        "distance_shoulder_lift_joint": 0.2323335231489052,
        "distance_shoulder_pan_joint": 0.4605819753566544,
        "distance_wrist_1_joint": 0.25408775815179596,
        "distance_wrist_2_joint": 1.1057804230518051,
        "distance_wrist_3_joint": 0.09515499252389992,
        "smoothness": 8.881784197001252e-16,
        "time": 0.502876729,
        "traj_len": 1.6121820772306394,
        "weighted_distance": 2.036985325522769
    },
    "planner": "BFMT",
    "start": {
        "state": {
            "elbow_joint": 1.97154746011099,
            "shoulder_lift_joint": -1.13948474672311,
            "shoulder_pan_joint": 0.12281154466712228,
            "wrist_1_joint": -0.7804688027058302,
            "wrist_2_joint": 0.12958655903071145,
            "wrist_3_joint": 3.0906928834467795
        }
    },
    "waypoints": [
        {
            "positions": [
                0.12281154466712228,
                -1.13948474672311,
                1.97154746011099,
                -0.7804688027058302,
                0.12958655903071145,
                3.0906928834467795
            ]
        },
        {
            "positions": [
                0.05701411961617166,
                -1.1726752500300963,
                2.036003514098224,
                -0.8167670538703725,
                0.28755519089525505,
                3.1042864538073367
            ]
        },
        {
            "positions": [
                -0.008783305434778968,
                -1.205865753337083,
                2.100459568085458,
                -0.8530653050349147,
                0.4455238227597986,
                3.117880024167894
            ]
        },
        {
            "positions": [
                -0.0745807304857296,
                -1.2390562566440693,
                2.164915622072692,
                -0.8893635561994571,
                0.6034924546243422,
                3.131473594528451
            ]
        },
        {
            "positions": [
                -0.1403781555366802,
                -1.2722467599510559,
                2.2293716760599263,
                -0.9256618073639993,
                0.7614610864888858,
                3.145067164889008
            ]
        },
        {
            "positions": [
                -0.20617558058763086,
                -1.3054372632580422,
                2.2938277300471603,
                -0.9619600585285416,
                0.9194297183534295,
                3.158660735249565
            ]
        },
        {
            "positions": [
                -0.27197300563858146,
                -1.3386277665650286,
                2.3582837840343944,
                -0.9982583096930838,
                1.077398350217973,
                3.1722543056101222
            ]
        },
        {
            "positions": [
                -0.3377704306895321,
                -1.3718182698720152,
                2.4227398380216285,
                -1.0345565608576262,
                1.2353669820825166,
                3.1858478759706794
            ]
        }
    ]
}{
    "goal": {
        "global_pose": {
            "orientation": {
                "w": 0.5084816217422485,
                "x": -0.49083608388900757,
                "y": 0.5182115435600281,
                "z": -0.4816462993621826
            },
            "position": {
                "x": 0.5540239810943604,
                "y": 0.030875300988554955,
                "z": 0.16403168439865112
            }
        },
        "name": "move_to_storage_A"
    },
    "id": "BFMT_move_to_storage_A_147",
    "joint_names": [
        "shoulder_pan_joint",
        "shoulder_lift_joint",
        "elbow_joint",
        "wrist_1_joint",
        "wrist_2_joint",
        "wrist_3_joint"
    ],
    "metrics": {
        "cart_traj_len": 0.35380966352202936,
        "distance_elbow_joint": 0.4503438437804923,
        "distance_shoulder_lift_joint": 0.23413534612533105,
        "distance_shoulder_pan_joint": 0.4594147807493692,
        "distance_wrist_1_joint": 0.24674443842324,
        "distance_wrist_2_joint": 1.113889820767167,
        "distance_wrist_3_joint": 0.09100453723172253,
        "smoothness": 6.661338165333112e-16,
        "time": 0.50232356,
        "traj_len": 1.6110657240092106,
        "weighted_distance": 2.034250746769231
    },
    "planner": "BFMT",
    "start": {
        "state": {
            "elbow_joint": 1.9715472970024885,
            "shoulder_lift_joint": -1.1394870060712896,
            "shoulder_pan_joint": 0.12281152778156021,
            "wrist_1_joint": -0.780463741449964,
            "wrist_2_joint": 0.12958659822042276,
            "wrist_3_joint": 3.090690232415272
        }
    },
    "waypoints": [
        {
            "positions": [
                0.12281152778156021,
                -1.1394870060712896,
                1.9715472970024885,
                -0.780463741449964,
                0.12958659822042276,
                3.090690232415272
            ]
        },
        {
            "positions": [
                0.057180844817364615,
                -1.1729349126606226,
                2.035882131828273,
                -0.8157129469389983,
                0.28871371547287517,
                3.103690880591232
            ]
        },
        {
            "positions": [
                -0.008449838146830979,
                -1.2063828192499557,
                2.1002169666540578,
                -0.8509621524280325,
                0.4478408327253276,
                3.1166915287671926
            ]
        },
        {
            "positions": [
                -0.07408052111102656,
                -1.2398307258392887,
                2.1645518014798424,
                -0.8862113579170668,
                0.60696794997778,
                3.129692176943153
            ]
        },
        {
            "positions": [
                -0.13971120407522217,
                -1.2732786324286216,
                2.228886636305627,
                -0.9214605634061012,
                0.7660950672302325,
                3.1426928251191133
            ]
        },
        {
            "positions": [
                -0.20534188703941778,
                -1.3067265390179545,
                2.2932214711314116,
                -0.9567097688951354,
                0.9252221844826849,
                3.1556934732950737
            ]
        },
        {
            "positions": [
                -0.2709725700036133,
                -1.3401744456072877,
                2.3575563059571962,
                -0.9919589743841697,
                1.0843493017351373,
                3.168694121471034
            ]
        },
        {
            "positions": [
                -0.33660325296780896,
                -1.3736223521966207,
                2.421891140782981,
                -1.027208179873204,
                1.2434764189875898,
                3.1816947696469944
            ]
        }
    ]
}