{
    "goal": {
        "global_pose": {
            "orientation": {
                "w": -0.4816463035849501,
                "x": 0.5182115481033762,
                "y": 0.4908360881923453,
                "z": -0.5084816262002911
            },
            "position": {
                "x": -0.8240239810943604,
                "y": 0.19912469901144506,
                "z": 0.16403168439865112
            }
        },
        "name": "move_to_storage_D"
    },
    "id": "BFMT_move_to_storage_D_23",
    "joint_names": [
        "shoulder_pan_joint",
        "shoulder_lift_joint",
        "elbow_joint",
        "wrist_1_joint",
        "wrist_2_joint",
        "wrist_3_joint"
    ],
    "metrics": {
        "cart_traj_len": 4.210484732804976,
        "distance_elbow_joint": 4.3010324451252915,
        "distance_shoulder_lift_joint": 1.2634894210149883,
        "distance_shoulder_pan_joint": 2.8119336053636768,
        "distance_wrist_1_joint": 2.273526433261944,
        "distance_wrist_2_joint": 1.0784010671182493,
        "distance_wrist_3_joint": 3.129611048470519,
        "smoothness": 0.08446118414130886,
        "time": 0.7649700620000001,
        "traj_len": 3.8546068567825005,
        "weighted_distance": 4.946629520964341
    },
    "planner": "BFMT",
    "start": {
        "state": {
            "elbow_joint": -2.384821988534728,
            "shoulder_lift_joint": -2.2788054721415256,
            "shoulder_pan_joint": -0.1854694642142757,
            "wrist_1_joint": 1.4845938289331202,
            "wrist_2_joint": 0.17898776772866878,
            "wrist_3_joint": 0.037105688729662994
        }
    },
    "waypoints": [
        {
            "positions": [
                -0.1854694642142757,
                -2.2788054721415256,
                -2.384821988534728,
                1.4845938289331202,
                0.17898776772866878,
                0.037105688729662994
            ]
        },
        {
            "positions": [
                -0.05804848246950847,
                -2.271949583657957,
                -2.4071434112447485,
                1.4149463373803692,
                0.2195324038832383,
                -0.0714784271797345
            ]
        },
        {
            "positions": [
                0.06937249927525879,
                -2.2650936951743876,
                -2.429464833954769,
                1.3452988458276183,
                0.2600770400378078,
                -0.180062543089132
            ]
        },
        {
            "positions": [
                0.16630372555258743,
                -2.2306324613994977,
                -2.362735741641718,
                1.2676862925503791,
                0.2515471153483779,
                -0.27361533587636094
            ]
        },
        {
            "positions": [
                0.2632349518299161,
                -2.1961712276246073,
                -2.2960066493286666,
                1.19007373927314,
                0.24301719065894806,
                -0.36716812866358994
            ]
        },
        {
            "positions": [
                0.3601661781072447,
                -2.1617099938497173,
                -2.2292775570156156,
                1.1124611859959008,
                0.2344872659695182,
                -0.4607209214508189
            ]
        },
        {
            "positions": [
                0.45709740438457336,
                -2.1272487600748273,
                -2.1625484647025646,
                1.0348486327186617,
                0.22595734128008832,
                -0.5542737142380478
            ]
        },
        {
            "positions": [
                0.554028630661902,
                -2.092787526299937,
                -2.0958193723895135,
                0.9572360794414225,
                0.21742741659065845,
                -0.6478265070252769
            ]
        },
        {
            "positions": [
                0.6509598569392306,
                -2.058326292525047,
                -2.0290902800764625,
                0.8796235261641835,
                0.20889749190122858,
                -0.7413792998125057
            ]
        },
        {
            "positions": [
                0.7478910832165593,
                -2.023865058750157,
                -1.962361187763411,
                0.8020109728869443,
                0.20036756721179869,
                -0.8349320925997348
            ]
        },
        {
            "positions": [
                0.8448223094938879,
                -1.9894038249752668,
                -1.89563209545036,
                0.7243984196097053,
                0.19183764252236885,
                -0.9284848853869636
            ]
        },
        {
            "positions": [
                0.9417535357712166,
                -1.9549425912003766,
                -1.828903003137309,
                0.6467858663324662,
                0.18330771783293895,
                -1.0220376781741927
            ]
        },
        {
            "positions": [
                1.038684762048545,
                -1.9204813574254864,
                -1.7621739108242578,
                0.5691733130552269,
                0.17477779314350908,
                -1.1155904709614217
            ]
        },
        {
            "positions": [
                1.1356159883258736,
                -1.8860201236505965,
                -1.6954448185112065,
                0.49156075977798785,
                0.1662478684540792,
                -1.2091432637486506
            ]
        },
        {
            "positions": [
                1.2325472146032026,
                -1.8515588898757063,
                -1.6287157261981555,
                0.41394820650074876,
                0.15771794376464934,
                -1.3026960565358796
            ]
        },
        {
            "positions": [
                1.2883038916650504,
                -1.8181091763257395,
                -1.49049010652021,
                0.3658329740675658,
                0.19351605170608743,
                -1.3742884286640786
            ]
        },
        {
            "positions": [
                1.3440605687268985,
                -1.7846594627757728,
                -1.3522644868422646,
                0.31771774163438293,
                0.2293141596475255,
                -1.4458808007922777
            ]
        },
        {
            "positions": [
                1.3998172457887463,
                -1.751209749225806,
                -1.2140388671643192,
                0.2696025092012,
                0.26511226758896356,
                -1.5174731729204767
            ]
        },
        {
            "positions": [
                1.4555739228505944,
                -1.7177600356758393,
                -1.0758132474863737,
                0.22148727676801708,
                0.3009103755304017,
                -1.5890655450486757
            ]
        },
        {
            "positions": [
                1.5113305999124422,
                -1.6843103221258724,
                -0.9375876278084282,
                0.17337204433483416,
                0.3367084834718398,
                -1.660657917176875
            ]
        },
        {
            "positions": [
                1.56708727697429,
                -1.6508606085759057,
                -0.7993620081304829,
                0.12525681190165128,
                0.3725065914132778,
                -1.732250289305074
            ]
        },
        {
            "positions": [
                1.6228439540361381,
                -1.617410895025939,
                -0.6611363884525373,
                0.07714157946846828,
                0.4083046993547159,
                -1.803842661433273
            ]
        },
        {
            "positions": [
                1.6786006310979862,
                -1.5839611814759722,
                -0.522910768774592,
                0.029026347035285394,
                0.44410280729615403,
                -1.875435033561472
            ]
        },
        {
            "positions": [
                1.734357308159834,
                -1.5505114679260055,
                -0.38468514909664653,
                -0.019088885397897493,
                0.47990091523759204,
                -1.947027405689671
            ]
        },
        {
            "positions": [
                1.7901139852216819,
                -1.5170617543760387,
                -0.24645952941870086,
                -0.06720411783108043,
                0.5156990231790302,
                -2.0186197778178703
            ]
        },
        {
            "positions": [
                1.84587066228353,
                -1.483612040826072,
                -0.10823390974075564,
                -0.11531935026426338,
                0.5514971311204683,
                -2.090212149946069
            ]
        },
        {
            "positions": [
                1.9016273393453778,
                -1.4501623272761053,
                0.029991709937189803,
                -0.1634345826974462,
                0.5872952390619063,
                -2.1618045220742683
            ]
        },
        {
            "positions": [
                1.9573840164072258,
                -1.4167126137261383,
                0.16821732961513547,
                -0.21154981513062926,
                0.6230933470033444,
                -2.233396894202467
            ]
        },
        {
            "positions": [
                2.0131406934690736,
                -1.3832629001761716,
                0.3064429492930809,
                -0.2596650475638122,
                0.6588914549447825,
                -2.3049892663306664
            ]
        },
        {
            "positions": [
                2.0688973705309217,
                -1.3498131866262049,
                0.44466856897102636,
                -0.30778027999699503,
                0.6946895628862205,
                -2.376581638458865
            ]
        },
        {
            "positions": [
                2.1246540475927693,
                -1.3163634730762381,
                0.5828941886489716,
                -0.355895512430178,
                0.7304876708276586,
                -2.4481740105870644
            ]
        },
        {
            "positions": [
                2.1804107246546174,
                -1.2829137595262714,
                0.7211198083269172,
                -0.4040107448633609,
                0.7662857787690968,
                -2.5197663827152637
            ]
        },
        {
            "positions": [
                2.2361674017164654,
                -1.2494640459763047,
                0.8593454280048625,
                -0.45212597729654375,
                0.8020838867105348,
                -2.5913587548434625
            ]
        },
        {
            "positions": [
                2.2919240787783135,
                -1.216014332426338,
                0.9975710476828081,
                -0.5002412097297266,
                0.8378819946519729,
                -2.6629511269716613
            ]
        },
        {
            "positions": [
                2.3476807558401616,
                -1.1825646188763712,
                1.1357966673607538,
                -0.5483564421629097,
                0.873680102593411,
                -2.7345434990998605
            ]
        },
        {
            "positions": [
                2.403437432902009,
                -1.1491149053264045,
                1.274022287038699,
                -0.5964716745960925,
                0.909478210534849,
                -2.8061358712280597
            ]
        },
        {
            "positions": [
                2.4591941099638572,
                -1.1156651917764377,
                1.4122479067166442,
                -0.6445869070292756,
                0.9452763184762871,
                -2.877728243356259
            ]
        },
        {
            "positions": [
                2.514950787025705,
                -1.0822154782264708,
                1.55047352639459,
                -0.6927021394624584,
                0.9810744264177252,
                -2.949320615484458
            ]
        },
        {
            "positions": [
                2.570707464087553,
                -1.0487657646765043,
                1.6886991460725351,
                -0.7408173718956412,
                1.0168725343591634,
                -3.0209129876126566
            ]
        },
        {
            "positions": [
                2.626464141149401,
                -1.0153160511265373,
                1.8269247657504808,
                -0.7889326043288242,
                1.0526706423006014,
                -3.092505359740856
            ]
        }
    ]
}