{
    "goal": {
        "global_pose": {
            "orientation": {
                "w": 0.5084816217422485,
                "x": -0.49083608388900757,
                "y": 0.5182115435600281,
                "z": -0.4816462993621826
            },
            "position": {
                "x": 0.5540239810943604,
                "y": 0.030875300988554955,
                "z": 0.16403168439865112
            }
        },
        "name": "move_to_storage_A"
    },
    "id": "BFMT_move_to_storage_A_67",
    "joint_names": [
        "shoulder_pan_joint",
        "shoulder_lift_joint",
        "elbow_joint",
        "wrist_1_joint",
        "wrist_2_joint",
        "wrist_3_joint"
    ],
    "metrics": {
        "cart_traj_len": 0.35252243541393485,
        "distance_elbow_joint": 0.4502719303489935,
        "distance_shoulder_lift_joint": 0.2329770849875057,
        "distance_shoulder_pan_joint": 0.46062280968669594,
        "distance_wrist_1_joint": 0.24936185078662698,
        "distance_wrist_2_joint": 1.0983069559144036,
        "distance_wrist_3_joint": 0.10820461225548827,
        "smoothness": 4.440892098500626e-16,
        "time": 0.49592188,
        "traj_len": 1.6123725512361322,
        "weighted_distance": 2.040544847630583
    },
    "planner": "BFMT",
    "start": {
        "state": {
            "elbow_joint": 1.971548259319323,
            "shoulder_lift_joint": -1.1394851275133948,
            "shoulder_pan_joint": 0.1228115487234821,
            "wrist_1_joint": -0.7804723859257726,
            "wrist_2_joint": 0.12958671773740124,
            "wrist_3_joint": -3.192489227718131
        }
    },
    "waypoints": [
        {
            "positions": [
                0.1228115487234821,
                -1.1394851275133948,
                1.971548259319323,
                -0.7804723859257726,
                0.12958671773740124,
                -3.192489227718131
            ]
        },
        {
            "positions": [
                0.05700829019681125,
                -1.1727675682258956,
                2.0358728207977506,
                -0.8160955074667193,
                0.2864877114394589,
                -3.177031425967347
            ]
        },
        {
            "positions": [
                -0.008794968329859598,
                -1.2060500089383965,
                2.1001973822761784,
                -0.851718629007666,
                0.4433887051415165,
                -3.161573624216563
            ]
        },
        {
            "positions": [
                -0.07459822685653045,
                -1.2393324496508973,
                2.1645219437546057,
                -0.8873417505486128,
                0.6002896988435742,
                -3.146115822465779
            ]
        },
        {
            "positions": [
                -0.1404014853832013,
                -1.272614890363398,
                2.2288465052330335,
                -0.9229648720895595,
                0.7571906925456319,
                -3.130658020714995
            ]
        },
        {
            "positions": [
                -0.20620474390987215,
                -1.305897331075899,
                2.2931710667114613,
                -0.9585879936305062,
                0.9140916862476895,
                -3.115200218964211
            ]
        },
        {
            "positions": [
                -0.272008002436543,
                -1.3391797717883998,
                2.3574956281898887,
                -0.9942111151714529,
                1.0709926799497471,
                -3.099742417213427
            ]
        },
        {
            "positions": [
                -0.33781126096321384,
                -1.3724622125009005,
                2.4218201896683165,
                -1.0298342367123996,
                1.227893673651805,
                -3.084284615462643
            ]
        }
    ]
}{
    "goal": {
        "global_pose": {
            "orientation": {
                "w": 0.5084816217422485,
                "x": -0.49083608388900757,
                "y": 0.5182115435600281,
                "z": -0.4816462993621826
            },
            "position": {
                "x": 0.5540239810943604,
                "y": 0.030875300988554955,
                "z": 0.16403168439865112
            }
        },
        "name": "move_to_storage_A"
    },
    "id": "BFMT_move_to_storage_A_67",
    "joint_names": [
        "shoulder_pan_joint",
        "shoulder_lift_joint",
        "elbow_joint",
        "wrist_1_joint",
        "wrist_2_joint",
        "wrist_3_joint"
    ],
    "metrics": {
        "cart_traj_len": 0.3537394303513641,
        "distance_elbow_joint": 0.4508294311423571,
        "distance_shoulder_lift_joint": 0.2363626284468574,
        "distance_shoulder_pan_joint": 0.46254909965793195,
        "distance_wrist_1_joint": 0.24255436901972516,
        "distance_wrist_2_joint": 1.1012735046700666,
        "distance_wrist_3_joint": 0.10203983459602117,
        "smoothness": 1.3322676295501878e-15,
        "time": 0.5095056739999999,
        "traj_len": 1.6110893418842294,
        "weighted_distance": 2.035562922244064
    },
    "planner": "BFMT",
    "start": {
        "state": {
            "elbow_joint": 1.97154746011099,
            "shoulder_lift_joint": -1.13948474672311,
            "shoulder_pan_joint": 0.12281154466712228,
            "wrist_1_joint": -0.7804688027058302,
            "wrist_2_joint": 0.12958655903071145,
            "wrist_3_joint": 3.0906928834467795
        }
    },
    "waypoints": [
        {
            "positions": [
                0.12281154466712228,
                -1.13948474672311,
                1.97154746011099,
                -0.7804688027058302,
                0.12958655903071145,
                3.0906928834467795
            ]
        },
        {
            "positions": [
                0.056733101858846294,
                -1.1732508365012324,
                2.035951664559898,
                -0.8151194268515052,
                0.2869113454121495,
                3.1052700026747826
            ]
        },
        {
            "positions": [
                -0.009345340949429695,
                -1.2070169262793549,
                2.100355869008806,
                -0.8497700509971802,
                0.44423613179358756,
                3.1198471219027857
            ]
        },
        {
            "positions": [
                -0.07542378375770568,
                -1.2407830160574773,
                2.1647600734577144,
                -0.8844206751428553,
                0.6015609181750257,
                3.1344242411307888
            ]
        },
        {
            "positions": [
                -0.14150222656598166,
                -1.2745491058355998,
                2.2291642779066225,
                -0.9190712992885303,
                0.7588857045564638,
                3.1490013603587914
            ]
        },
        {
            "positions": [
                -0.20758066937425768,
                -1.3083151956137224,
                2.2935684823555307,
                -0.9537219234342054,
                0.9162104909379019,
                3.1635784795867945
            ]
        },
        {
            "positions": [
                -0.27365911218253364,
                -1.342081285391845,
                2.357972686804439,
                -0.9883725475798804,
                1.0735352773193398,
                3.1781555988147976
            ]
        },
        {
            "positions": [
                -0.33973755499080965,
                -1.3758473751699674,
                2.422376891253347,
                -1.0230231717255553,
                1.230860063700778,
                3.1927327180428007
            ]
        }
    ]
}{
    "goal": {
        "global_pose": {
            "orientation": {
                "w": 0.5084816217422485,
                "x": -0.49083608388900757,
                "y": 0.5182115435600281,
                "z": -0.4816462993621826
            },
            "position": {
                "x": 0.5540239810943604,
                "y": 0.030875300988554955,
                "z": 0.16403168439865112
            }
        },
        "name": "move_to_storage_A"
    },
    "id": "BFMT_move_to_storage_A_67",
    "joint_names": [
        "shoulder_pan_joint",
        "shoulder_lift_joint",
        "elbow_joint",
        "wrist_1_joint",
        "wrist_2_joint",
        "wrist_3_joint"
    ],
    "metrics": {
        "cart_traj_len": 0.35285466115227454,
        "distance_elbow_joint": 0.45049431564472764,
        "distance_shoulder_lift_joint": 0.23274151478803606,
        "distance_shoulder_pan_joint": 0.46268165340498224,
        "distance_wrist_1_joint": 0.2470217506678143,
        "distance_wrist_2_joint": 1.0921683823791508,
        "distance_wrist_3_joint": 0.08992064209843198,
        "smoothness": 4.440892098500626e-16,
        "time": 0.495238514,
        "traj_len": 1.6046894587374665,
        "weighted_distance": 2.0233782830274154
    },
    "planner": "BFMT",
    "start": {
        "state": {
            "elbow_joint": 1.9715472970024885,
            "shoulder_lift_joint": -1.1394870060712896,
            "shoulder_pan_joint": 0.12281152778156021,
            "wrist_1_joint": -0.780463741449964,
            "wrist_2_joint": 0.12958659822042276,
            "wrist_3_joint": 3.090690232415272
        }
    },
    "waypoints": [
        {
            "positions": [
                0.12281152778156021,
                -1.1394870060712896,
                1.9715472970024885,
                -0.780463741449964,
                0.12958659822042276,
                3.090690232415272
            ]
        },
        {
            "positions": [
                0.0567141487237056,
                -1.172735793898152,
                2.035903627808878,
                -0.8157525629739375,
                0.2856106528460157,
                3.1035360384293336
            ]
        },
        {
            "positions": [
                -0.009383230334149006,
                -1.205984581725014,
                2.100259958615268,
                -0.8510413844979109,
                0.4416347074716087,
                3.1163818444433953
            ]
        },
        {
            "positions": [
                -0.0754806093920036,
                -1.2392333695518765,
                2.1646162894216574,
                -0.8863302060218844,
                0.5976587620972017,
                3.129227650457457
            ]
        },
        {
            "positions": [
                -0.14157798844985822,
                -1.2724821573787388,
                2.2289726202280473,
                -0.9216190275458579,
                0.7536828167227946,
                3.1420734564715187
            ]
        },
        {
            "positions": [
                -0.20767536750771284,
                -1.3057309452056012,
                2.293328951034437,
                -0.9569078490698313,
                0.9097068713483876,
                3.1549192624855804
            ]
        },
        {
            "positions": [
                -0.2737727465655674,
                -1.3389797330324633,
                2.3576852818408263,
                -0.9921966705938048,
                1.0657309259739807,
                3.167765068499642
            ]
        },
        {
            "positions": [
                -0.339870125623422,
                -1.3722285208593257,
                2.422041612647216,
                -1.0274854921177783,
                1.2217549805995735,
                3.180610874513704
            ]
        }
    ]
}