{
    "goal": {
        "global_pose": {
            "orientation": {
                "w": -0.4816463035849501,
                "x": 0.5182115481033762,
                "y": 0.4908360881923453,
                "z": -0.5084816262002911
            },
            "position": {
                "x": -0.8240239810943604,
                "y": -0.300875300988555,
                "z": 0.16403168439865112
            }
        },
        "name": "move_to_storage_C"
    },
    "id": "BFMT_move_to_storage_C_112",
    "joint_names": [
        "shoulder_pan_joint",
        "shoulder_lift_joint",
        "elbow_joint",
        "wrist_1_joint",
        "wrist_2_joint",
        "wrist_3_joint"
    ],
    "metrics": {
        "cart_traj_len": 0.576773487737081,
        "distance_elbow_joint": 0.26081611829905316,
        "distance_shoulder_lift_joint": 0.1905089419550725,
        "distance_shoulder_pan_joint": 0.49440215538829513,
        "distance_wrist_1_joint": 0.08778983162195086,
        "distance_wrist_2_joint": 1.069176677450466,
        "distance_wrist_3_joint": 0.0669721359030544,
        "smoothness": 2.5376526478085547e-16,
        "time": 0.47770896900000004,
        "traj_len": 1.472978567603036,
        "weighted_distance": 1.8602625195107323
    },
    "planner": "BFMT",
    "start": {
        "state": {
            "elbow_joint": 2.010868314990456,
            "shoulder_lift_joint": -1.1634956873337592,
            "shoulder_pan_joint": -2.4736205022346125,
            "wrist_1_joint": -0.8367026794202681,
            "wrist_2_joint": 0.6746043897044499,
            "wrist_3_joint": -3.1496632123970403
        }
    },
    "waypoints": [
        {
            "positions": [
                -2.4736205022346125,
                -1.1634956873337592,
                2.010868314990456,
                -0.8367026794202681,
                0.6746043897044499,
                -3.1496632123970403
            ]
        },
        {
            "positions": [
                -2.556020861465995,
                -1.1317441970079138,
                1.9673989619406136,
                -0.8220710408166096,
                0.8528005026128609,
                -3.138501189746531
            ]
        },
        {
            "positions": [
                -2.6384212206973774,
                -1.0999927066820683,
                1.9239296088907714,
                -0.8074394022129512,
                1.030996615521272,
                -3.127339167096022
            ]
        },
        {
            "positions": [
                -2.72082157992876,
                -1.068241216356223,
                1.8804602558409291,
                -0.7928077636092927,
                1.209192728429683,
                -3.116177144445513
            ]
        },
        {
            "positions": [
                -2.8032219391601427,
                -1.0364897260303776,
                1.8369909027910871,
                -0.7781761250056342,
                1.387388841338094,
                -3.105015121795004
            ]
        },
        {
            "positions": [
                -2.885622298391525,
                -1.004738235704532,
                1.793521549741245,
                -0.7635444864019757,
                1.565584954246505,
                -3.093853099144495
            ]
        },
        {
            "positions": [
                -2.9680226576229076,
                -0.9729867453786867,
                1.7500521966914027,
                -0.7489128477983172,
                1.7437810671549159,
                -3.082691076493986
            ]
        }
    ]
}