{
    "goal": {
        "global_pose": {
            "orientation": {
                "w": 0.005598929693374612,
                "x": 0.007748599140229565,
                "y": 0.7110244013736278,
                "z": -0.7031023480610252
            },
            "position": {
                "x": 0.1141497679147869,
                "y": -0.7141253447532654,
                "z": 0.3711530566215515
            }
        },
        "name": "move_to_auspresseinheit_B"
    },
    "id": "BFMT_move_to_auspresseinheit_B_85",
    "joint_names": [
        "shoulder_pan_joint",
        "shoulder_lift_joint",
        "elbow_joint",
        "wrist_1_joint",
        "wrist_2_joint",
        "wrist_3_joint"
    ],
    "metrics": {
        "cart_traj_len": 0.5637357550984244,
        "distance_elbow_joint": 0.06096488576250403,
        "distance_shoulder_lift_joint": 0.2949078867280477,
        "distance_shoulder_pan_joint": 0.5759100434757372,
        "distance_wrist_1_joint": 0.32370783783966983,
        "distance_wrist_2_joint": 0.9957369479443272,
        "distance_wrist_3_joint": 0.0009195773609378399,
        "smoothness": 0.0,
        "time": 0.46585118999999997,
        "traj_len": 1.5007155556970895,
        "weighted_distance": 1.8903521152465474
    },
    "planner": "BFMT",
    "start": {
        "state": {
            "elbow_joint": 2.0193083361928714,
            "shoulder_lift_joint": -1.1220246554650708,
            "shoulder_pan_joint": -1.0952077554168747,
            "wrist_1_joint": -0.8559753972642168,
            "wrist_2_joint": 0.4759566250798843,
            "wrist_3_joint": -3.1240929996934557
        }
    },
    "waypoints": [
        {
            "positions": [
                -1.0952077554168747,
                -1.1220246554650708,
                2.0193083361928714,
                -0.8559753972642168,
                0.4759566250798843,
                -3.1240929996934557
            ]
        },
        {
            "positions": [
                -1.191192762662831,
                -1.1711759699197455,
                2.009147521899121,
                -0.8020240909576052,
                0.6419127830706055,
                -3.1242462625869454
            ]
        },
        {
            "positions": [
                -1.287177769908787,
                -1.22032728437442,
                1.99898670760537,
                -0.7480727846509935,
                0.8078689410613267,
                -3.124399525480435
            ]
        },
        {
            "positions": [
                -1.3831627771547432,
                -1.2694785988290946,
                1.9888258933116194,
                -0.6941214783443819,
                0.9738250990520478,
                -3.124552788373925
            ]
        },
        {
            "positions": [
                -1.4791477844006993,
                -1.3186299132837693,
                1.9786650790178688,
                -0.6401701720377703,
                1.139781257042769,
                -3.124706051267414
            ]
        },
        {
            "positions": [
                -1.5751327916466558,
                -1.3677812277384438,
                1.968504264724118,
                -0.5862188657311586,
                1.3057374150334904,
                -3.124859314160904
            ]
        },
        {
            "positions": [
                -1.6711177988926118,
                -1.4169325421931185,
                1.9583434504303674,
                -0.532267559424547,
                1.4716935730242116,
                -3.1250125770543935
            ]
        }
    ]
}