{
    "goal": {
        "global_pose": {
            "orientation": {
                "w": -0.4816463035849501,
                "x": 0.5182115481033762,
                "y": 0.4908360881923453,
                "z": -0.5084816262002911
            },
            "position": {
                "x": -0.8240239810943604,
                "y": 0.19912469901144506,
                "z": 0.16403168439865112
            }
        },
        "name": "move_to_storage_D"
    },
    "id": "BFMT_move_to_storage_D_11",
    "joint_names": [
        "shoulder_pan_joint",
        "shoulder_lift_joint",
        "elbow_joint",
        "wrist_1_joint",
        "wrist_2_joint",
        "wrist_3_joint"
    ],
    "metrics": {
        "cart_traj_len": 4.48237942117017,
        "distance_elbow_joint": 4.280872804721605,
        "distance_shoulder_lift_joint": 1.2634195507708461,
        "distance_shoulder_pan_joint": 2.814769073176,
        "distance_wrist_1_joint": 5.98415377548988,
        "distance_wrist_2_joint": 5.523934257605264,
        "distance_wrist_3_joint": 3.1481930150753907,
        "smoothness": 0.5489105177134228,
        "time": 0.9102126709999999,
        "traj_len": 4.797430820432847,
        "weighted_distance": 6.389038780605805
    },
    "planner": "BFMT",
    "start": {
        "state": {
            "elbow_joint": -2.384821988534728,
            "shoulder_lift_joint": -2.2788054721415256,
            "shoulder_pan_joint": -0.1854694642142757,
            "wrist_1_joint": 1.4845938289331202,
            "wrist_2_joint": 0.17898776772866878,
            "wrist_3_joint": 0.037105688729662994
        }
    },
    "waypoints": [
        {
            "positions": [
                -0.1854694642142757,
                -2.2788054721415256,
                -2.384821988534728,
                1.4845938289331202,
                0.17898776772866878,
                0.037105688729662994
            ]
        },
        {
            "positions": [
                -0.08700214241603203,
                -2.27333480572843,
                -2.4028072081482907,
                1.498515540758416,
                0.2615503548387409,
                0.0114056403401126
            ]
        },
        {
            "positions": [
                0.011465179382211643,
                -2.2678641393153343,
                -2.420792427761853,
                1.5124372525837118,
                0.34411294194881303,
                -0.014294408049437796
            ]
        },
        {
            "positions": [
                0.0437082891057018,
                -2.2554356053661313,
                -2.3585427784558632,
                1.3744268881846695,
                0.26583176078434023,
                -0.08437652386113734
            ]
        },
        {
            "positions": [
                0.07595139882919195,
                -2.2430070714169283,
                -2.296293129149873,
                1.236416523785627,
                0.1875505796198674,
                -0.15445863967283688
            ]
        },
        {
            "positions": [
                0.1081945085526821,
                -2.2305785374677254,
                -2.234043479843883,
                1.0984061593865848,
                0.10926939845539457,
                -0.22454075548453642
            ]
        },
        {
            "positions": [
                0.14043761827617227,
                -2.2181500035185224,
                -2.171793830537893,
                0.9603957949875426,
                0.03098821729092177,
                -0.294622871296236
            ]
        },
        {
            "positions": [
                0.17268072799966241,
                -2.205721469569319,
                -2.109544181231903,
                0.8223854305885002,
                -0.047292963873551086,
                -0.36470498710793553
            ]
        },
        {
            "positions": [
                0.20492383772315256,
                -2.193292935620116,
                -2.047294531925913,
                0.684375066189458,
                -0.1255741450380239,
                -0.43478710291963507
            ]
        },
        {
            "positions": [
                0.23716694744664274,
                -2.180864401670913,
                -1.9850448826199232,
                0.5463647017904156,
                -0.2038553262024967,
                -0.5048692187313346
            ]
        },
        {
            "positions": [
                0.2694100571701329,
                -2.16843586772171,
                -1.922795233313933,
                0.4083543373913734,
                -0.2821365073669695,
                -0.5749513345430342
            ]
        },
        {
            "positions": [
                0.30165316689362304,
                -2.156007333772507,
                -1.860545584007943,
                0.27034397299233115,
                -0.3604176885314423,
                -0.6450334503547337
            ]
        },
        {
            "positions": [
                0.3338962766171132,
                -2.1435787998233042,
                -1.7982959347019531,
                0.1323336085932887,
                -0.4386988696959152,
                -0.7151155661664332
            ]
        },
        {
            "positions": [
                0.36613938634060333,
                -2.1311502658741013,
                -1.7360462853959633,
                -0.005676755805753331,
                -0.5169800508603879,
                -0.7851976819781328
            ]
        },
        {
            "positions": [
                0.3983824960640935,
                -2.1187217319248983,
                -1.673796636089973,
                -0.1436871202047958,
                -0.5952612320248608,
                -0.8552797977898323
            ]
        },
        {
            "positions": [
                0.43062560578758363,
                -2.106293197975695,
                -1.6115469867839831,
                -0.28169748460383803,
                -0.6735424131893336,
                -0.9253619136015319
            ]
        },
        {
            "positions": [
                0.46286871551107384,
                -2.093864664026492,
                -1.549297337477993,
                -0.4197078490028805,
                -0.7518235943538064,
                -0.9954440294132314
            ]
        },
        {
            "positions": [
                0.495111825234564,
                -2.081436130077289,
                -1.487047688172003,
                -0.557718213401923,
                -0.8301047755182792,
                -1.065526145224931
            ]
        },
        {
            "positions": [
                0.5273549349580542,
                -2.069007596128086,
                -1.424798038866013,
                -0.695728577800965,
                -0.908385956682752,
                -1.1356082610366305
            ]
        },
        {
            "positions": [
                0.5595980446815443,
                -2.056579062178883,
                -1.3625483895600232,
                -0.833738942200007,
                -0.9866671378472248,
                -1.20569037684833
            ]
        },
        {
            "positions": [
                0.5918411544050344,
                -2.04415052822968,
                -1.3002987402540331,
                -0.9717493065990495,
                -1.0649483190116977,
                -1.2757724926600296
            ]
        },
        {
            "positions": [
                0.6240842641285245,
                -2.031721994280477,
                -1.238049090948043,
                -1.109759670998092,
                -1.1432295001761705,
                -1.345854608471729
            ]
        },
        {
            "positions": [
                0.6563273738520148,
                -2.019293460331274,
                -1.175799441642053,
                -1.2477700353971344,
                -1.2215106813406433,
                -1.4159367242834286
            ]
        },
        {
            "positions": [
                0.6885704835755049,
                -2.006864926382071,
                -1.113549792336063,
                -1.3857803997961764,
                -1.2997918625051161,
                -1.4860188400951282
            ]
        },
        {
            "positions": [
                0.720813593298995,
                -1.994436392432868,
                -1.0513001430300732,
                -1.5237907641952184,
                -1.378073043669589,
                -1.5561009559068277
            ]
        },
        {
            "positions": [
                0.7530567030224853,
                -1.982007858483665,
                -0.9890504937240829,
                -1.6618011285942613,
                -1.4563542248340617,
                -1.6261830717185273
            ]
        },
        {
            "positions": [
                0.7852998127459754,
                -1.969579324534462,
                -0.9268008444180931,
                -1.7998114929933033,
                -1.5346354059985345,
                -1.6962651875302268
            ]
        },
        {
            "positions": [
                0.8175429224694655,
                -1.957150790585259,
                -0.8645511951121032,
                -1.9378218573923454,
                -1.6129165871630073,
                -1.7663473033419264
            ]
        },
        {
            "positions": [
                0.8497860321929556,
                -1.944722256636056,
                -0.8023015458061131,
                -2.075832221791388,
                -1.6911977683274801,
                -1.836429419153626
            ]
        },
        {
            "positions": [
                0.8820291419164459,
                -1.932293722686853,
                -0.740051896500123,
                -2.21384258619043,
                -1.769478949491953,
                -1.9065115349653254
            ]
        },
        {
            "positions": [
                0.914272251639936,
                -1.9198651887376499,
                -0.677802247194133,
                -2.351852950589473,
                -1.8477601306564257,
                -1.976593650777025
            ]
        },
        {
            "positions": [
                0.9465153613634261,
                -1.907436654788447,
                -0.6155525978881431,
                -2.4898633149885145,
                -1.9260413118208985,
                -2.0466757665887245
            ]
        },
        {
            "positions": [
                1.0066303247000083,
                -1.8761229445109135,
                -0.5311074587403006,
                -2.4219798316357015,
                -1.8134367720664453,
                -2.077902169714148
            ]
        },
        {
            "positions": [
                1.0667452880365906,
                -1.8448092342333804,
                -0.4466623195924582,
                -2.3540963482828885,
                -1.700832232311992,
                -2.1091285728395714
            ]
        },
        {
            "positions": [
                1.1268602513731727,
                -1.813495523955847,
                -0.3622171804446158,
                -2.2862128649300755,
                -1.5882276925575387,
                -2.140354975964995
            ]
        },
        {
            "positions": [
                1.186975214709755,
                -1.7821818136783136,
                -0.27777204129677335,
                -2.218329381577263,
                -1.4756231528030854,
                -2.1715813790904184
            ]
        },
        {
            "positions": [
                1.2470901780463373,
                -1.7508681034007805,
                -0.19332690214893095,
                -2.15044589822445,
                -1.3630186130486321,
                -2.202807782215842
            ]
        },
        {
            "positions": [
                1.3072051413829195,
                -1.719554393123247,
                -0.10888176300108854,
                -2.082562414871637,
                -1.2504140732941789,
                -2.2340341853412653
            ]
        },
        {
            "positions": [
                1.3673201047195018,
                -1.688240682845714,
                -0.024436623853246076,
                -2.014678931518824,
                -1.1378095335397256,
                -2.2652605884666888
            ]
        },
        {
            "positions": [
                1.4274350680560839,
                -1.6569269725681806,
                0.06000851529459639,
                -1.9467954481660108,
                -1.0252049937852725,
                -2.2964869915921122
            ]
        },
        {
            "positions": [
                1.4875500313926662,
                -1.6256132622906474,
                0.14445365444243885,
                -1.8789119648131978,
                -0.9126004540308192,
                -2.3277133947175357
            ]
        },
        {
            "positions": [
                1.5476649947292485,
                -1.594299552013114,
                0.2288987935902812,
                -1.811028481460385,
                -0.799995914276366,
                -2.358939797842959
            ]
        },
        {
            "positions": [
                1.6077799580658307,
                -1.5629858417355806,
                0.31334393273812366,
                -1.743144998107572,
                -0.6873913745219127,
                -2.3901662009683826
            ]
        },
        {
            "positions": [
                1.667894921402413,
                -1.5316721314580475,
                0.397789071885966,
                -1.6752615147547592,
                -0.5747868347674594,
                -2.421392604093806
            ]
        },
        {
            "positions": [
                1.728009884738995,
                -1.500358421180514,
                0.4822342110338085,
                -1.6073780314019461,
                -0.4621822950130061,
                -2.4526190072192295
            ]
        },
        {
            "positions": [
                1.7881248480755774,
                -1.4690447109029807,
                0.5666793501816509,
                -1.539494548049133,
                -0.34957775525855284,
                -2.483845410344653
            ]
        },
        {
            "positions": [
                1.8482398114121596,
                -1.4377310006254476,
                0.6511244893294936,
                -1.47161106469632,
                -0.23697321550409955,
                -2.515071813470077
            ]
        },
        {
            "positions": [
                1.908354774748742,
                -1.4064172903479142,
                0.7355696284773359,
                -1.403727581343507,
                -0.1243686757496465,
                -2.5462982165955
            ]
        },
        {
            "positions": [
                1.9684697380853242,
                -1.3751035800703808,
                0.8200147676251783,
                -1.335844097990694,
                -0.011764135995192992,
                -2.577524619720924
            ]
        },
        {
            "positions": [
                2.0285847014219063,
                -1.3437898697928476,
                0.9044599067730208,
                -1.2679606146378812,
                0.10084040375926007,
                -2.608751022846347
            ]
        },
        {
            "positions": [
                2.088699664758489,
                -1.3124761595153143,
                0.9889050459208633,
                -1.2000771312850682,
                0.21344494351371335,
                -2.6399774259717708
            ]
        },
        {
            "positions": [
                2.148814628095071,
                -1.2811624492377809,
                1.0733501850687055,
                -1.1321936479322554,
                0.32604948326816663,
                -2.6712038290971942
            ]
        },
        {
            "positions": [
                2.2089295914316533,
                -1.2498487389602477,
                1.1577953242165482,
                -1.0643101645794422,
                0.4386540230226199,
                -2.7024302322226177
            ]
        },
        {
            "positions": [
                2.2690445547682354,
                -1.2185350286827146,
                1.2422404633643904,
                -0.9964266812266294,
                0.5512585627770732,
                -2.733656635348041
            ]
        },
        {
            "positions": [
                2.3291595181048175,
                -1.187221318405181,
                1.326685602512233,
                -0.9285431978738163,
                0.6638631025315265,
                -2.7648830384734646
            ]
        },
        {
            "positions": [
                2.3892744814414,
                -1.1559076081276478,
                1.4111307416600751,
                -0.8606597145210035,
                0.7764676422859798,
                -2.796109441598888
            ]
        },
        {
            "positions": [
                2.449389444777982,
                -1.1245938978501144,
                1.4955758808079178,
                -0.7927762311681903,
                0.889072182040433,
                -2.8273358447243115
            ]
        },
        {
            "positions": [
                2.509504408114564,
                -1.0932801875725813,
                1.58002101995576,
                -0.7248927478153775,
                1.0016767217948863,
                -2.858562247849735
            ]
        },
        {
            "positions": [
                2.5696193714511466,
                -1.061966477295048,
                1.6644661591036027,
                -0.6570092644625645,
                1.1142812615493396,
                -2.8897886509751585
            ]
        },
        {
            "positions": [
                2.599459490206435,
                -1.0386761993328637,
                1.7442880484181162,
                -0.7175871313331199,
                1.0901151334267565,
                -3.000437988660443
            ]
        },
        {
            "positions": [
                2.6292996089617238,
                -1.0153859213706795,
                1.8241099377326297,
                -0.7781649982036755,
                1.0659490053041734,
                -3.1110873263457277
            ]
        }
    ]
}