{
    "goal": {
        "global_pose": {
            "orientation": {
                "w": -0.4816463035849501,
                "x": 0.5182115481033762,
                "y": 0.4908360881923453,
                "z": -0.5084816262002911
            },
            "position": {
                "x": -0.8240239810943604,
                "y": -0.300875300988555,
                "z": 0.16403168439865112
            }
        },
        "name": "move_to_storage_C"
    },
    "id": "BFMT_move_to_storage_C_92",
    "joint_names": [
        "shoulder_pan_joint",
        "shoulder_lift_joint",
        "elbow_joint",
        "wrist_1_joint",
        "wrist_2_joint",
        "wrist_3_joint"
    ],
    "metrics": {
        "cart_traj_len": 0.5770529291740283,
        "distance_elbow_joint": 0.25816594429319695,
        "distance_shoulder_lift_joint": 0.1900818307572728,
        "distance_shoulder_pan_joint": 0.49446084407135915,
        "distance_wrist_1_joint": 0.07367312459886266,
        "distance_wrist_2_joint": 1.0695478524632014,
        "distance_wrist_3_joint": 0.057374755663290866,
        "smoothness": 1.0150610591234219e-15,
        "time": 0.471772532,
        "traj_len": 1.4640028524040463,
        "weighted_distance": 1.844254548655318
    },
    "planner": "BFMT",
    "start": {
        "state": {
            "elbow_joint": 2.010868314990456,
            "shoulder_lift_joint": -1.1634956873337592,
            "shoulder_pan_joint": -2.4736205022346125,
            "wrist_1_joint": -0.8367026794202681,
            "wrist_2_joint": 0.6746043897044499,
            "wrist_3_joint": -3.1496632123970403
        }
    },
    "waypoints": [
        {
            "positions": [
                -2.4736205022346125,
                -1.1634956873337592,
                2.010868314990456,
                -0.8367026794202681,
                0.6746043897044499,
                -3.1496632123970403
            ]
        },
        {
            "positions": [
                -2.5560306429131723,
                -1.131815382207547,
                1.9678406576082563,
                -0.8244238253204577,
                0.8528623651149835,
                -3.140100753119825
            ]
        },
        {
            "positions": [
                -2.638440783591732,
                -1.100135077081335,
                1.9248130002260568,
                -0.8121449712206472,
                1.0311203405255172,
                -3.13053829384261
            ]
        },
        {
            "positions": [
                -2.720850924270292,
                -1.0684547719551227,
                1.8817853428438573,
                -0.7998661171208368,
                1.2093783159360507,
                -3.120975834565395
            ]
        },
        {
            "positions": [
                -2.803261064948852,
                -1.0367744668289107,
                1.8387576854616579,
                -0.7875872630210263,
                1.3876362913465843,
                -3.11141337528818
            ]
        },
        {
            "positions": [
                -2.885671205627412,
                -1.0050941617026985,
                1.7957300280794584,
                -0.7753084089212159,
                1.5658942667571178,
                -3.1018509160109646
            ]
        },
        {
            "positions": [
                -2.9680813463059716,
                -0.9734138565764864,
                1.7527023706972589,
                -0.7630295548214054,
                1.7441522421676514,
                -3.0922884567337494
            ]
        }
    ]
}