{
    "goal": {
        "global_pose": {
            "orientation": {
                "w": 0.7047431468963623,
                "x": -0.7094548344612122,
                "y": 0.0024358443915843964,
                "z": -0.0022348060738295317
            },
            "position": {
                "x": 0.6094750761985779,
                "y": 0.3671506643295288,
                "z": 0.19426114857196808
            }
        },
        "name": "move_to_magneteinheit_A"
    },
    "id": "BFMT_move_to_magneteinheit_A_36",
    "joint_names": [
        "shoulder_pan_joint",
        "shoulder_lift_joint",
        "elbow_joint",
        "wrist_1_joint",
        "wrist_2_joint",
        "wrist_3_joint"
    ],
    "metrics": {
        "cart_traj_len": 3.1589636607712444,
        "distance_elbow_joint": 3.907475869702764,
        "distance_shoulder_lift_joint": 0.46877910093069797,
        "distance_shoulder_pan_joint": 3.2749521573085025,
        "distance_wrist_1_joint": 3.4524186601648648,
        "distance_wrist_2_joint": 1.6857586275183647,
        "distance_wrist_3_joint": 0.5020883282318793,
        "smoothness": 0.2526888877316215,
        "time": 1.214388053,
        "traj_len": 3.6457472133784967,
        "weighted_distance": 4.408381413626102
    },
    "planner": "BFMT",
    "start": {
        "state": {
            "elbow_joint": -1.9196185241190666,
            "shoulder_lift_joint": -1.2443396400964142,
            "shoulder_pan_joint": 2.6996025414629847,
            "wrist_1_joint": -1.5485510000780065,
            "wrist_2_joint": -1.5709468930060704,
            "wrist_3_joint": 0.4420197071253992
        }
    },
    "waypoints": [
        {
            "positions": [
                2.6996025414629847,
                -1.2443396400964142,
                -1.9196185241190666,
                -1.5485510000780065,
                -1.5709468930060704,
                0.4420197071253992
            ]
        },
        {
            "positions": [
                2.5723898979614948,
                -1.2411553257834724,
                -1.8198354585023262,
                -1.429936756511404,
                -1.5361798944741198,
                0.43321451462322125
            ]
        },
        {
            "positions": [
                2.445177254460005,
                -1.2379710114705307,
                -1.7200523928855858,
                -1.3113225129448018,
                -1.5014128959421695,
                0.4244093221210433
            ]
        },
        {
            "positions": [
                2.317964610958515,
                -1.234786697157589,
                -1.6202693272688455,
                -1.1927082693781994,
                -1.466645897410219,
                0.4156041296188654
            ]
        },
        {
            "positions": [
                2.190751967457025,
                -1.2316023828446472,
                -1.520486261652105,
                -1.074094025811597,
                -1.4318788988782685,
                0.4067989371166874
            ]
        },
        {
            "positions": [
                2.063539323955535,
                -1.2284180685317054,
                -1.4207031960353647,
                -0.9554797822449947,
                -1.397111900346318,
                0.3979937446145095
            ]
        },
        {
            "positions": [
                1.9363266804540447,
                -1.2252337542187637,
                -1.3209201304186244,
                -0.8368655386783923,
                -1.3623449018143676,
                0.38918855211233155
            ]
        },
        {
            "positions": [
                1.8091140369525545,
                -1.222049439905822,
                -1.221137064801884,
                -0.7182512951117899,
                -1.327577903282417,
                0.3803833596101536
            ]
        },
        {
            "positions": [
                1.6819013934510647,
                -1.2188651255928802,
                -1.1213539991851436,
                -0.5996370515451876,
                -1.2928109047504666,
                0.3715781671079757
            ]
        },
        {
            "positions": [
                1.5546887499495745,
                -1.2156808112799384,
                -1.0215709335684031,
                -0.4810228079785852,
                -1.258043906218516,
                0.3627729746057977
            ]
        },
        {
            "positions": [
                1.4274761064480845,
                -1.2124964969669967,
                -0.9217878679516628,
                -0.362408564411983,
                -1.2232769076865657,
                0.3539677821036198
            ]
        },
        {
            "positions": [
                1.3002634629465946,
                -1.209312182654055,
                -0.8220048023349225,
                -0.24379432084538055,
                -1.1885099091546152,
                0.34516258960144186
            ]
        },
        {
            "positions": [
                1.1730508194451046,
                -1.206127868341113,
                -0.722221736718182,
                -0.1251800772787781,
                -1.1537429106226647,
                0.33635739709926393
            ]
        },
        {
            "positions": [
                1.0458381759436146,
                -1.2029435540281712,
                -0.6224386711014418,
                -0.006565833712175895,
                -1.1189759120907143,
                0.327552204597086
            ]
        },
        {
            "positions": [
                0.9186255324421244,
                -1.1997592397152295,
                -0.5226556054847011,
                0.11204840985442677,
                -1.0842089135587636,
                0.3187470120949081
            ]
        },
        {
            "positions": [
                0.7914128889406344,
                -1.1965749254022877,
                -0.4228725398679609,
                0.23066265342102898,
                -1.0494419150268133,
                0.30994181959273015
            ]
        },
        {
            "positions": [
                0.6642002454391447,
                -1.193390611089346,
                -0.3230894742512205,
                0.3492768969876312,
                -1.0146749164948627,
                0.3011366270905522
            ]
        },
        {
            "positions": [
                0.5369876019376547,
                -1.1902062967764042,
                -0.22330640863448026,
                0.46789114055423364,
                -0.9799079179629123,
                0.2923314345883743
            ]
        },
        {
            "positions": [
                0.4097749584361643,
                -1.1870219824634625,
                -0.1235233430177396,
                0.5865053841208361,
                -0.9451409194309618,
                0.2835262420861963
            ]
        },
        {
            "positions": [
                0.2825623149346743,
                -1.1838376681505207,
                -0.023740277400999377,
                0.7051196276874385,
                -0.9103739208990114,
                0.2747210495840184
            ]
        },
        {
            "positions": [
                0.15534967143318434,
                -1.180653353837579,
                0.07604278821574106,
                0.8237338712540405,
                -0.875606922367061,
                0.26591585708184046
            ]
        },
        {
            "positions": [
                0.028137027931694814,
                -1.1774690395246372,
                0.17582585383248128,
                0.942348114820643,
                -0.8408399238351104,
                0.25711066457966253
            ]
        },
        {
            "positions": [
                -0.0990756155697956,
                -1.1742847252116955,
                0.2756089194492217,
                1.0609623583872454,
                -0.8060729253031599,
                0.24830547207748457
            ]
        },
        {
            "positions": [
                -0.2262882590712856,
                -1.1711004108987537,
                0.3753919850659624,
                1.1795766019538476,
                -0.7713059267712095,
                0.23950027957530665
            ]
        },
        {
            "positions": [
                -0.21285955544826055,
                -1.1399384173418314,
                0.5351706722270556,
                1.2309324568978108,
                -0.6948756629803107,
                0.21409983347191705
            ]
        },
        {
            "positions": [
                -0.19943085182523546,
                -1.1087764237849091,
                0.6949493593881488,
                1.282288311841774,
                -0.618445399189412,
                0.18869938736852745
            ]
        },
        {
            "positions": [
                -0.1860021482022104,
                -1.077614430227987,
                0.8547280465492422,
                1.3336441667857373,
                -0.5420151353985132,
                0.16329894126513786
            ]
        },
        {
            "positions": [
                -0.1725734445791853,
                -1.0464524366710648,
                1.0145067337103355,
                1.3850000217297005,
                -0.46558487160761447,
                0.13789849516174826
            ]
        },
        {
            "positions": [
                -0.15914474095616024,
                -1.0152904431141425,
                1.1742854208714286,
                1.4363558766736637,
                -0.38915460781671574,
                0.11249804905835867
            ]
        },
        {
            "positions": [
                -0.14571603733313515,
                -0.9841284495572202,
                1.3340641080325217,
                1.487711731617627,
                -0.312724344025817,
                0.08709760295496907
            ]
        },
        {
            "positions": [
                -0.1322873337101101,
                -0.9529664560002981,
                1.493842795193615,
                1.5390675865615902,
                -0.23629408023491827,
                0.06169715685157948
            ]
        },
        {
            "positions": [
                -0.11885863008708501,
                -0.9218044624433758,
                1.6536214823547084,
                1.5904234415055534,
                -0.15986381644401948,
                0.03629671074818988
            ]
        },
        {
            "positions": [
                -0.10542992646405995,
                -0.8906424688864536,
                1.8134001695158017,
                1.6417792964495166,
                -0.08343355265312069,
                0.010896264644800285
            ]
        },
        {
            "positions": [
                -0.09200122284103487,
                -0.8594804753295313,
                1.9731788566768949,
                1.6931351513934798,
                -0.007003288862222068,
                -0.014504181458589338
            ]
        },
        {
            "positions": [
                0.015385937430956453,
                -0.8175205072476237,
                1.9805181011302957,
                1.798501405740169,
                -0.06791080054948052,
                0.008278038365356056
            ]
        },
        {
            "positions": [
                0.1227730977029478,
                -0.7755605391657162,
                1.9878573455836965,
                1.903867660086858,
                -0.12881831223673898,
                0.03106025818930145
            ]
        }
    ]
}