{
    "goal": {
        "global_pose": {
            "orientation": {
                "w": 0.7031023502349854,
                "x": -0.7110244035720825,
                "y": 0.007748599164187908,
                "z": 0.005598929710686207
            },
            "position": {
                "x": 0.11585023208521307,
                "y": 0.44412534475326537,
                "z": 0.3711530566215515
            }
        },
        "name": "move_to_auspresseinheit_A"
    },
    "id": "BFMT_move_to_auspresseinheit_A_107",
    "joint_names": [
        "shoulder_pan_joint",
        "shoulder_lift_joint",
        "elbow_joint",
        "wrist_1_joint",
        "wrist_2_joint",
        "wrist_3_joint"
    ],
    "metrics": {
        "cart_traj_len": 0.7709664528135393,
        "distance_elbow_joint": 0.22657714550723984,
        "distance_shoulder_lift_joint": 0.5343423270920666,
        "distance_shoulder_pan_joint": 1.0475504646583909,
        "distance_wrist_1_joint": 0.595903768723167,
        "distance_wrist_2_joint": 0.5138456356688208,
        "distance_wrist_3_joint": 0.40138496589632977,
        "smoothness": 0.5697340742331306,
        "time": 0.5370042540000001,
        "traj_len": 1.8219781303698501,
        "weighted_distance": 2.287383580366586
    },
    "planner": "BFMT",
    "start": {
        "state": {
            "elbow_joint": 2.4225746658250005,
            "shoulder_lift_joint": -1.3736534386056498,
            "shoulder_pan_joint": -0.3378633547517467,
            "wrist_1_joint": -1.0288598680537169,
            "wrist_2_joint": 1.233022673432363,
            "wrist_3_joint": -3.0940220416140027
        }
    },
    "waypoints": [
        {
            "positions": [
                -0.3378633547517467,
                -1.3736534386056498,
                2.4225746658250005,
                -1.0288598680537169,
                1.233022673432363,
                -3.0940220416140027
            ]
        },
        {
            "positions": [
                -0.3150607948840605,
                -1.4683874650677322,
                2.3967635023867393,
                -0.912378291183585,
                1.153732981989909,
                -3.058188595295553
            ]
        },
        {
            "positions": [
                -0.2922582350163743,
                -1.5631214915298148,
                2.3709523389484777,
                -0.7958967143134532,
                1.074443290547455,
                -3.022355148977104
            ]
        },
        {
            "positions": [
                -0.2694556751486881,
                -1.657855517991897,
                2.3451411755102165,
                -0.6794151374433215,
                0.9951535991050009,
                -2.9865217026586546
            ]
        },
        {
            "positions": [
                -0.24665311528100192,
                -1.7525895444539796,
                2.319330012071955,
                -0.5629335605731896,
                0.9158639076625468,
                -2.9506882563402055
            ]
        },
        {
            "positions": [
                -0.22385055541331572,
                -1.847323570916062,
                2.2935188486336937,
                -0.4464519837030578,
                0.8365742162200928,
                -2.914854810021756
            ]
        },
        {
            "positions": [
                0.009533860916674242,
                -1.8624916196114756,
                2.317899180712677,
                -0.44982595479618476,
                0.8072249216059552,
                -2.9704092435977767
            ]
        },
        {
            "positions": [
                0.2429182772466642,
                -1.8776596683068894,
                2.3422795127916602,
                -0.4531999258893118,
                0.7778756269918174,
                -3.0259636771737974
            ]
        },
        {
            "positions": [
                0.47630269357665417,
                -1.892827717002303,
                2.3666598448706435,
                -0.4565738969824388,
                0.7485263323776798,
                -3.081518110749818
            ]
        },
        {
            "positions": [
                0.7096871099066442,
                -1.9079957656977165,
                2.391040176949627,
                -0.45994786807556576,
                0.7191770377635422,
                -3.137072544325839
            ]
        }
    ]
}