{
    "goal": {
        "global_pose": {
            "orientation": {
                "w": 0.005598929693374612,
                "x": 0.007748599140229565,
                "y": 0.7110244013736278,
                "z": -0.7031023480610252
            },
            "position": {
                "x": 0.1141497679147869,
                "y": -0.7141253447532654,
                "z": 0.3711530566215515
            }
        },
        "name": "move_to_auspresseinheit_B"
    },
    "id": "BFMT_move_to_auspresseinheit_B_102",
    "joint_names": [
        "shoulder_pan_joint",
        "shoulder_lift_joint",
        "elbow_joint",
        "wrist_1_joint",
        "wrist_2_joint",
        "wrist_3_joint"
    ],
    "metrics": {
        "cart_traj_len": 0.5643611828686734,
        "distance_elbow_joint": 0.06428444892436169,
        "distance_shoulder_lift_joint": 0.29484222637611945,
        "distance_shoulder_pan_joint": 0.5753223440714303,
        "distance_wrist_1_joint": 0.3374623760311044,
        "distance_wrist_2_joint": 1.003918794625701,
        "distance_wrist_3_joint": 0.006312218270783543,
        "smoothness": 3.806478935924272e-16,
        "time": 0.452729754,
        "traj_len": 1.5106761427584339,
        "weighted_distance": 1.9068686413851044
    },
    "planner": "BFMT",
    "start": {
        "state": {
            "elbow_joint": 2.0193083361928714,
            "shoulder_lift_joint": -1.1220246554650708,
            "shoulder_pan_joint": -1.0952077554168747,
            "wrist_1_joint": -0.8559753972642168,
            "wrist_2_joint": 0.4759566250798843,
            "wrist_3_joint": -3.1240929996934557
        }
    },
    "waypoints": [
        {
            "positions": [
                -1.0952077554168747,
                -1.1220246554650708,
                2.0193083361928714,
                -0.8559753972642168,
                0.4759566250798843,
                -3.1240929996934557
            ]
        },
        {
            "positions": [
                -1.191094812762113,
                -1.1711650265277573,
                2.0085942613721444,
                -0.7997316679256994,
                0.6432764241841677,
                -3.123040963314992
            ]
        },
        {
            "positions": [
                -1.2869818701073514,
                -1.2203053975904439,
                1.9978801865514175,
                -0.743487938587182,
                0.8105962232884514,
                -3.121988926936528
            ]
        },
        {
            "positions": [
                -1.3828689274525898,
                -1.2694457686531306,
                1.9871661117306907,
                -0.6872442092486646,
                0.9779160223927348,
                -3.120936890558064
            ]
        },
        {
            "positions": [
                -1.4787559847978282,
                -1.3185861397158172,
                1.9764520369099636,
                -0.6310004799101472,
                1.1452358214970184,
                -3.1198848541796
            ]
        },
        {
            "positions": [
                -1.5746430421430666,
                -1.3677265107785037,
                1.9657379620892366,
                -0.5747567505716298,
                1.3125556206013018,
                -3.118832817801136
            ]
        },
        {
            "positions": [
                -1.670530099488305,
                -1.4168668818411903,
                1.9550238872685097,
                -0.5185130212331124,
                1.4798754197055854,
                -3.117780781422672
            ]
        }
    ]
}