{
    "goal": {
        "global_pose": {
            "orientation": {
                "w": 0.005598929693374612,
                "x": 0.007748599140229565,
                "y": 0.7110244013736278,
                "z": -0.7031023480610252
            },
            "position": {
                "x": -0.8858502320852131,
                "y": -0.7141253447532654,
                "z": 0.3711530566215515
            }
        },
        "name": "move_to_auspresseinheit_C"
    },
    "id": "BFMT_move_to_auspresseinheit_C_51",
    "joint_names": [
        "shoulder_pan_joint",
        "shoulder_lift_joint",
        "elbow_joint",
        "wrist_1_joint",
        "wrist_2_joint",
        "wrist_3_joint"
    ],
    "metrics": {
        "cart_traj_len": 0.49339977228524057,
        "distance_elbow_joint": 0.9945990988956958,
        "distance_shoulder_lift_joint": 0.32161418350164006,
        "distance_shoulder_pan_joint": 0.25692036856780875,
        "distance_wrist_1_joint": 0.6685600080512457,
        "distance_wrist_2_joint": 1.302124021388914,
        "distance_wrist_3_joint": 0.05063117756384283,
        "smoothness": 0.0,
        "time": 0.47479578299999997,
        "traj_len": 1.8959031773719743,
        "weighted_distance": 2.380419131694457
    },
    "planner": "BFMT",
    "start": {
        "state": {
            "elbow_joint": 1.7527959577737207,
            "shoulder_lift_joint": -0.9740617694225068,
            "shoulder_pan_joint": -2.967991417825858,
            "wrist_1_joint": -0.759517768980727,
            "wrist_2_joint": 1.7443932448377408,
            "wrist_3_joint": -3.0840537646736568
        }
    },
    "waypoints": [
        {
            "positions": [
                -2.967991417825858,
                -0.9740617694225068,
                1.7527959577737207,
                -0.759517768980727,
                1.7443932448377408,
                -3.0840537646736568
            ]
        },
        {
            "positions": [
                -2.942299380969077,
                -0.9419003510723427,
                1.653336047884151,
                -0.6926617681756024,
                1.6141808426988495,
                -3.0891168824300412
            ]
        },
        {
            "positions": [
                -2.9166073441122964,
                -0.9097389327221788,
                1.5538761379945816,
                -0.6258057673704778,
                1.483968440559958,
                -3.0941800001864253
            ]
        },
        {
            "positions": [
                -2.8909153072555154,
                -0.8775775143720148,
                1.454416228105012,
                -0.5589497665653533,
                1.3537560384210665,
                -3.0992431179428097
            ]
        },
        {
            "positions": [
                -2.8652232703987344,
                -0.8454160960218507,
                1.3549563182154423,
                -0.4920937657602287,
                1.2235436362821752,
                -3.1043062356991937
            ]
        },
        {
            "positions": [
                -2.839531233541954,
                -0.8132546776716867,
                1.2554964083258728,
                -0.4252377649551041,
                1.093331234143284,
                -3.109369353455578
            ]
        },
        {
            "positions": [
                -2.813839196685173,
                -0.7810932593215227,
                1.1560364984363032,
                -0.3583817641499796,
                0.9631188320043924,
                -3.1144324712119626
            ]
        },
        {
            "positions": [
                -2.788147159828392,
                -0.7489318409713588,
                1.0565765885467338,
                -0.291525763344855,
                0.8329064298655011,
                -3.1194955889683467
            ]
        },
        {
            "positions": [
                -2.7624551229716108,
                -0.7167704226211947,
                0.957116678657164,
                -0.22466976253973037,
                0.7026940277266096,
                -3.124558706724731
            ]
        },
        {
            "positions": [
                -2.73676308611483,
                -0.6846090042710307,
                0.8576567687675944,
                -0.15781376173460582,
                0.5724816255877181,
                -3.129621824481115
            ]
        },
        {
            "positions": [
                -2.711071049258049,
                -0.6524475859208667,
                0.7581968588780249,
                -0.09095776092948131,
                0.44226922344882674,
                -3.1346849422374996
            ]
        }
    ]
}