{
    "goal": {
        "global_pose": {
            "orientation": {
                "w": -0.4816463035849501,
                "x": 0.5182115481033762,
                "y": 0.4908360881923453,
                "z": -0.5084816262002911
            },
            "position": {
                "x": -0.8240239810943604,
                "y": -0.300875300988555,
                "z": 0.16403168439865112
            }
        },
        "name": "move_to_storage_C"
    },
    "id": "BFMT_move_to_storage_C_41",
    "joint_names": [
        "shoulder_pan_joint",
        "shoulder_lift_joint",
        "elbow_joint",
        "wrist_1_joint",
        "wrist_2_joint",
        "wrist_3_joint"
    ],
    "metrics": {
        "cart_traj_len": 0.5774156551741186,
        "distance_elbow_joint": 0.2563127823524807,
        "distance_shoulder_lift_joint": 0.18909746085966916,
        "distance_shoulder_pan_joint": 0.49580854258659324,
        "distance_wrist_1_joint": 0.06922618132707592,
        "distance_wrist_2_joint": 1.0652898923013319,
        "distance_wrist_3_joint": 0.05851353300667217,
        "smoothness": 0.0,
        "time": 0.471766217,
        "traj_len": 1.4609067021660975,
        "weighted_distance": 1.8400520460235834
    },
    "planner": "BFMT",
    "start": {
        "state": {
            "elbow_joint": 2.010868314990456,
            "shoulder_lift_joint": -1.1634956873337592,
            "shoulder_pan_joint": -2.4736205022346125,
            "wrist_1_joint": -0.8367026794202681,
            "wrist_2_joint": 0.6746043897044499,
            "wrist_3_joint": -3.1496632123970403
        }
    },
    "waypoints": [
        {
            "positions": [
                -2.4736205022346125,
                -1.1634956873337592,
                2.010868314990456,
                -0.8367026794202681,
                0.6746043897044499,
                -3.1496632123970403
            ]
        },
        {
            "positions": [
                -2.556255259332378,
                -1.1319794438571478,
                1.968149517931709,
                -0.8251649825324221,
                0.8521527050880052,
                -3.1399109568959283
            ]
        },
        {
            "positions": [
                -2.6388900164301434,
                -1.1004632003805361,
                1.9254307208729622,
                -0.8136272856445761,
                1.0297010204715606,
                -3.1301587013948162
            ]
        },
        {
            "positions": [
                -2.721524773527909,
                -1.0689469569039245,
                1.8827119238142154,
                -0.8020895887567301,
                1.2072493358551157,
                -3.120406445893704
            ]
        },
        {
            "positions": [
                -2.804159530625675,
                -1.037430713427313,
                1.8399931267554688,
                -0.7905518918688842,
                1.3847976512386713,
                -3.110654190392592
            ]
        },
        {
            "positions": [
                -2.8867942877234403,
                -1.0059144699507017,
                1.797274329696722,
                -0.7790141949810382,
                1.5623459666222264,
                -3.10090193489148
            ]
        },
        {
            "positions": [
                -2.9694290448212057,
                -0.97439822647409,
                1.7545555326379751,
                -0.7674764980931922,
                1.739894282005782,
                -3.091149679390368
            ]
        }
    ]
}