{
    "goal": {
        "global_pose": {
            "orientation": {
                "w": 0.7031023502349854,
                "x": -0.7110244035720825,
                "y": 0.007748599164187908,
                "z": 0.005598929710686207
            },
            "position": {
                "x": 0.11585023208521307,
                "y": 0.44412534475326537,
                "z": 0.3711530566215515
            }
        },
        "name": "move_to_auspresseinheit_A"
    },
    "id": "BFMT_move_to_auspresseinheit_A_120",
    "joint_names": [
        "shoulder_pan_joint",
        "shoulder_lift_joint",
        "elbow_joint",
        "wrist_1_joint",
        "wrist_2_joint",
        "wrist_3_joint"
    ],
    "metrics": {
        "cart_traj_len": 0.6606623016480155,
        "distance_elbow_joint": 0.33308370450429203,
        "distance_shoulder_lift_joint": 0.8129720838298531,
        "distance_shoulder_pan_joint": 1.0443311704341505,
        "distance_wrist_1_joint": 1.162379833588163,
        "distance_wrist_2_joint": 0.5175152356555032,
        "distance_wrist_3_joint": 0.3478251365691718,
        "smoothness": 1.0305366807520402,
        "time": 0.539626283,
        "traj_len": 2.0538030978117483,
        "weighted_distance": 2.5678108394044807
    },
    "planner": "BFMT",
    "start": {
        "state": {
            "elbow_joint": 2.4225746658250005,
            "shoulder_lift_joint": -1.3736534386056498,
            "shoulder_pan_joint": -0.3378633547517467,
            "wrist_1_joint": -1.0288598680537169,
            "wrist_2_joint": 1.233022673432363,
            "wrist_3_joint": -3.0940220416140027
        }
    },
    "waypoints": [
        {
            "positions": [
                -0.3378633547517467,
                -1.3736534386056498,
                2.4225746658250005,
                -1.0288598680537169,
                1.233022673432363,
                -3.0940220416140027
            ]
        },
        {
            "positions": [
                -0.2841033592139704,
                -1.486092655323616,
                2.4479750744894364,
                -0.8848584888207531,
                1.2086913913597082,
                -3.0679763631738974
            ]
        },
        {
            "positions": [
                -0.23034336367619404,
                -1.5985318720415822,
                2.473375483153873,
                -0.7408571095877893,
                1.1843601092870533,
                -3.0419306847337926
            ]
        },
        {
            "positions": [
                -0.17658336813841768,
                -1.7109710887595484,
                2.498775891818309,
                -0.5968557303548254,
                1.1600288272143984,
                -3.0158850062936873
            ]
        },
        {
            "positions": [
                -0.12282337260064136,
                -1.8234103054775144,
                2.524176300482745,
                -0.4528543511218617,
                1.1356975451417433,
                -2.989839327853582
            ]
        },
        {
            "positions": [
                -0.06906337706286497,
                -1.9358495221954808,
                2.549576709147181,
                -0.3088529718888977,
                1.1113662630690884,
                -2.963793649413477
            ]
        },
        {
            "positions": [
                -0.015303381525088637,
                -2.0482887389134468,
                2.5749771178116174,
                -0.16485159265593402,
                1.0870349809964335,
                -2.937747970973372
            ]
        },
        {
            "positions": [
                0.1290508579164098,
                -2.0206213822090353,
                2.5388408673080822,
                -0.22452590429401004,
                1.0127294723525186,
                -2.97605818415908
            ]
        },
        {
            "positions": [
                0.27340509735790824,
                -1.9929540255046243,
                2.5027046168045475,
                -0.2842002159320861,
                0.938423963708604,
                -3.0143683973447883
            ]
        },
        {
            "positions": [
                0.41775933679940663,
                -1.965286668800213,
                2.4665683663010123,
                -0.3438745275701621,
                0.8641184550646893,
                -3.052678610530496
            ]
        },
        {
            "positions": [
                0.5621135762409052,
                -1.9376193120958018,
                2.4304321157974775,
                -0.40354883920823814,
                0.7898129464207746,
                -3.0909888237162044
            ]
        },
        {
            "positions": [
                0.7064678156824036,
                -1.9099519553913906,
                2.3942958652939423,
                -0.46322315084631416,
                0.7155074377768599,
                -3.1292990369019127
            ]
        }
    ]
}