{
    "goal": {
        "global_pose": {
            "orientation": {
                "w": -0.4816463035849501,
                "x": 0.5182115481033762,
                "y": 0.4908360881923453,
                "z": -0.5084816262002911
            },
            "position": {
                "x": -0.8240239810943604,
                "y": -0.300875300988555,
                "z": 0.16403168439865112
            }
        },
        "name": "move_to_storage_C"
    },
    "id": "BFMT_move_to_storage_C_28",
    "joint_names": [
        "shoulder_pan_joint",
        "shoulder_lift_joint",
        "elbow_joint",
        "wrist_1_joint",
        "wrist_2_joint",
        "wrist_3_joint"
    ],
    "metrics": {
        "cart_traj_len": 0.5761826331362602,
        "distance_elbow_joint": 0.2578565594128812,
        "distance_shoulder_lift_joint": 0.18979761420744756,
        "distance_shoulder_pan_joint": 0.4937918310993563,
        "distance_wrist_1_joint": 0.07635207619992357,
        "distance_wrist_2_joint": 1.0694328397859771,
        "distance_wrist_3_joint": 0.06431169268581538,
        "smoothness": 2.5376526478085547e-16,
        "time": 0.492201959,
        "traj_len": 1.466813762340469,
        "weighted_distance": 1.8509324446745572
    },
    "planner": "BFMT",
    "start": {
        "state": {
            "elbow_joint": 2.010868314990456,
            "shoulder_lift_joint": -1.1634956873337592,
            "shoulder_pan_joint": -2.4736205022346125,
            "wrist_1_joint": -0.8367026794202681,
            "wrist_2_joint": 0.6746043897044499,
            "wrist_3_joint": -3.1496632123970403
        }
    },
    "waypoints": [
        {
            "positions": [
                -2.4736205022346125,
                -1.1634956873337592,
                2.010868314990456,
                -0.8367026794202681,
                0.6746043897044499,
                -3.1496632123970403
            ]
        },
        {
            "positions": [
                -2.555919140751172,
                -1.131862751632518,
                1.9678922217549757,
                -0.8239773333869476,
                0.8528431963354461,
                -3.1389445969494045
            ]
        },
        {
            "positions": [
                -2.6382177792677313,
                -1.1002298159312767,
                1.9249161285194953,
                -0.8112519873536269,
                1.0310820029664423,
                -3.1282259815017683
            ]
        },
        {
            "positions": [
                -2.7205164177842907,
                -1.0685968802300354,
                1.8819400352840152,
                -0.7985266413203063,
                1.2093208095974384,
                -3.1175073660541326
            ]
        },
        {
            "positions": [
                -2.80281505630085,
                -1.0369639445287941,
                1.838963942048535,
                -0.7858012952869857,
                1.3875596162284345,
                -3.106788750606497
            ]
        },
        {
            "positions": [
                -2.8851136948174094,
                -1.0053310088275529,
                1.7959878488130547,
                -0.7730759492536652,
                1.565798422859431,
                -3.0960701351588606
            ]
        },
        {
            "positions": [
                -2.967412333333969,
                -0.9736980731263116,
                1.7530117555775746,
                -0.7603506032203445,
                1.7440372294904272,
                -3.085351519711225
            ]
        }
    ]
}