{
    "goal": {
        "global_pose": {
            "orientation": {
                "w": 0.5084816217422485,
                "x": -0.49083608388900757,
                "y": 0.5182115435600281,
                "z": -0.4816462993621826
            },
            "position": {
                "x": 0.5540239810943604,
                "y": 0.030875300988554955,
                "z": 0.16403168439865112
            }
        },
        "name": "move_to_storage_A"
    },
    "id": "BFMT_move_to_storage_A_103",
    "joint_names": [
        "shoulder_pan_joint",
        "shoulder_lift_joint",
        "elbow_joint",
        "wrist_1_joint",
        "wrist_2_joint",
        "wrist_3_joint"
    ],
    "metrics": {
        "cart_traj_len": 0.35348549315433136,
        "distance_elbow_joint": 0.45317812841432814,
        "distance_shoulder_lift_joint": 0.23479200685376012,
        "distance_shoulder_pan_joint": 0.4632329289933971,
        "distance_wrist_1_joint": 0.2510124048663408,
        "distance_wrist_2_joint": 1.0962588436455918,
        "distance_wrist_3_joint": 0.09558378210732332,
        "smoothness": 0.0,
        "time": 0.476051453,
        "traj_len": 1.6106079892018237,
        "weighted_distance": 2.032854374422162
    },
    "planner": "BFMT",
    "start": {
        "state": {
            "elbow_joint": 1.971548259319323,
            "shoulder_lift_joint": -1.1394851275133948,
            "shoulder_pan_joint": 0.1228115487234821,
            "wrist_1_joint": -0.7804723859257726,
            "wrist_2_joint": 0.12958671773740124,
            "wrist_3_joint": -3.192489227718131
        }
    },
    "waypoints": [
        {
            "positions": [
                0.1228115487234821,
                -1.1394851275133948,
                1.971548259319323,
                -0.7804723859257726,
                0.12958671773740124,
                -3.192489227718131
            ]
        },
        {
            "positions": [
                0.05663541601013966,
                -1.1730268427782178,
                2.0362879919499415,
                -0.8163313009066785,
                0.2861951239724858,
                -3.178834401702799
            ]
        },
        {
            "positions": [
                -0.009540716703202778,
                -1.2065685580430405,
                2.1010277245805598,
                -0.8521902158875843,
                0.44280353020757035,
                -3.165179575687467
            ]
        },
        {
            "positions": [
                -0.07571684941654522,
                -1.2401102733078635,
                2.165767457211178,
                -0.8880491308684901,
                0.5994119364426549,
                -3.1515247496721353
            ]
        },
        {
            "positions": [
                -0.14189298212988766,
                -1.2736519885726862,
                2.2305071898417963,
                -0.9239080458493959,
                0.7560203426777394,
                -3.1378699236568037
            ]
        },
        {
            "positions": [
                -0.2080691148432301,
                -1.3071937038375092,
                2.2952469224724146,
                -0.9597669608303018,
                0.912628748912824,
                -3.1242150976414718
            ]
        },
        {
            "positions": [
                -0.27424524755657254,
                -1.340735419102332,
                2.359986655103033,
                -0.9956258758112075,
                1.0692371551479085,
                -3.11056027162614
            ]
        },
        {
            "positions": [
                -0.340421380269915,
                -1.374277134367155,
                2.424726387733651,
                -1.0314847907921134,
                1.225845561382993,
                -3.096905445610808
            ]
        }
    ]
}{
    "goal": {
        "global_pose": {
            "orientation": {
                "w": 0.5084816217422485,
                "x": -0.49083608388900757,
                "y": 0.5182115435600281,
                "z": -0.4816462993621826
            },
            "position": {
                "x": 0.5540239810943604,
                "y": 0.030875300988554955,
                "z": 0.16403168439865112
            }
        },
        "name": "move_to_storage_A"
    },
    "id": "BFMT_move_to_storage_A_103",
    "joint_names": [
        "shoulder_pan_joint",
        "shoulder_lift_joint",
        "elbow_joint",
        "wrist_1_joint",
        "wrist_2_joint",
        "wrist_3_joint"
    ],
    "metrics": {
        "cart_traj_len": 0.35257720503844814,
        "distance_elbow_joint": 0.44937285601102506,
        "distance_shoulder_lift_joint": 0.23262380978005948,
        "distance_shoulder_pan_joint": 0.4566979299145492,
        "distance_wrist_1_joint": 0.24808632982511347,
        "distance_wrist_2_joint": 1.1152097253013535,
        "distance_wrist_3_joint": 0.09259970258820482,
        "smoothness": 9.992007271825419e-16,
        "time": 0.513348205,
        "traj_len": 1.6107732160115855,
        "weighted_distance": 2.035457151040813
    },
    "planner": "BFMT",
    "start": {
        "state": {
            "elbow_joint": 1.97154746011099,
            "shoulder_lift_joint": -1.13948474672311,
            "shoulder_pan_joint": 0.12281154466712228,
            "wrist_1_joint": -0.7804688027058302,
            "wrist_2_joint": 0.12958655903071145,
            "wrist_3_joint": 3.0906928834467795
        }
    },
    "waypoints": [
        {
            "positions": [
                0.12281154466712228,
                -1.13948474672311,
                1.97154746011099,
                -0.7804688027058302,
                0.12958655903071145,
                3.0906928834467795
            ]
        },
        {
            "positions": [
                0.05756898325075811,
                -1.1727167195488328,
                2.035743582398279,
                -0.8159097069665607,
                0.2889022340737619,
                3.1039214123879515
            ]
        },
        {
            "positions": [
                -0.007673578165606057,
                -1.2059486923745555,
                2.0999397046855686,
                -0.8513506112272912,
                0.4482179091168125,
                3.117149941329124
            ]
        },
        {
            "positions": [
                -0.07291613958197023,
                -1.2391806652002784,
                2.1641358269728577,
                -0.8867915154880217,
                0.6075335841598629,
                3.130378470270296
            ]
        },
        {
            "positions": [
                -0.13815870099833438,
                -1.272412638026001,
                2.228331949260147,
                -0.9222324197487521,
                0.7668492592029135,
                3.143606999211468
            ]
        },
        {
            "positions": [
                -0.20340126241469858,
                -1.305644610851724,
                2.2925280715474363,
                -0.9576733240094827,
                0.926164934245964,
                3.15683552815264
            ]
        },
        {
            "positions": [
                -0.2686438238310627,
                -1.3388765836774466,
                2.356724193834726,
                -0.9931142282702131,
                1.0854806092890144,
                3.1700640570938123
            ]
        },
        {
            "positions": [
                -0.3338863852474269,
                -1.3721085565031694,
                2.420920316122015,
                -1.0285551325309437,
                1.244796284332065,
                3.1832925860349843
            ]
        }
    ]
}{
    "goal": {
        "global_pose": {
            "orientation": {
                "w": 0.5084816217422485,
                "x": -0.49083608388900757,
                "y": 0.5182115435600281,
                "z": -0.4816462993621826
            },
            "position": {
                "x": 0.5540239810943604,
                "y": 0.030875300988554955,
                "z": 0.16403168439865112
            }
        },
        "name": "move_to_storage_A"
    },
    "id": "BFMT_move_to_storage_A_103",
    "joint_names": [
        "shoulder_pan_joint",
        "shoulder_lift_joint",
        "elbow_joint",
        "wrist_1_joint",
        "wrist_2_joint",
        "wrist_3_joint"
    ],
    "metrics": {
        "cart_traj_len": 0.3528425296648812,
        "distance_elbow_joint": 0.4518616623379632,
        "distance_shoulder_lift_joint": 0.2329964690625681,
        "distance_shoulder_pan_joint": 0.46126688326528353,
        "distance_wrist_1_joint": 0.2548421423533249,
        "distance_wrist_2_joint": 1.09822418661907,
        "distance_wrist_3_joint": 0.10003157996000711,
        "smoothness": 0.0,
        "time": 0.519890187,
        "traj_len": 1.6122105704895426,
        "weighted_distance": 2.0377321738861136
    },
    "planner": "BFMT",
    "start": {
        "state": {
            "elbow_joint": 1.9715472970024885,
            "shoulder_lift_joint": -1.1394870060712896,
            "shoulder_pan_joint": 0.12281152778156021,
            "wrist_1_joint": -0.780463741449964,
            "wrist_2_joint": 0.12958659822042276,
            "wrist_3_joint": 3.090690232415272
        }
    },
    "waypoints": [
        {
            "positions": [
                0.12281152778156021,
                -1.1394870060712896,
                1.9715472970024885,
                -0.780463741449964,
                0.12958659822042276,
                3.090690232415272
            ]
        },
        {
            "positions": [
                0.05691625874366256,
                -1.1727722159373708,
                2.036098963050769,
                -0.8168697617861532,
                0.2864757677374328,
                3.1049804581238445
            ]
        },
        {
            "positions": [
                -0.00897901029423509,
                -1.206057425803452,
                2.1006506290990496,
                -0.8532757821223426,
                0.4433649372544428,
                3.1192706838324167
            ]
        },
        {
            "positions": [
                -0.07487427933213273,
                -1.2393426356695332,
                2.16520229514733,
                -0.8896818024585318,
                0.6002541067714527,
                3.1335609095409893
            ]
        },
        {
            "positions": [
                -0.1407695483700304,
                -1.2726278455356141,
                2.2297539611956103,
                -0.9260878227947211,
                0.7571432762884628,
                3.1478511352495615
            ]
        },
        {
            "positions": [
                -0.20666481740792805,
                -1.3059130554016953,
                2.294305627243891,
                -0.9624938431309104,
                0.9140324458054728,
                3.162141360958134
            ]
        },
        {
            "positions": [
                -0.27256008644582563,
                -1.3391982652677765,
                2.3588572932921714,
                -0.9988998634670996,
                1.0709216153224828,
                3.1764315866667063
            ]
        },
        {
            "positions": [
                -0.3384553554837233,
                -1.3724834751338577,
                2.4234089593404518,
                -1.035305883803289,
                1.2278107848394928,
                3.190721812375279
            ]
        }
    ]
}