{
    "goal": {
        "global_pose": {
            "orientation": {
                "w": 0.7047431493862688,
                "x": -0.7094548369677653,
                "y": 0.0024358444001904,
                "z": -0.0022348060817251984
            },
            "position": {
                "x": -0.39052492380142206,
                "y": 0.3671506643295288,
                "z": 0.19426114857196808
            }
        },
        "name": "move_to_magneteinheit_D"
    },
    "id": "BFMT_move_to_magneteinheit_D_26",
    "joint_names": [
        "shoulder_pan_joint",
        "shoulder_lift_joint",
        "elbow_joint",
        "wrist_1_joint",
        "wrist_2_joint",
        "wrist_3_joint"
    ],
    "metrics": {
        "cart_traj_len": 5.259803014172627,
        "distance_elbow_joint": 3.127107888049028,
        "distance_shoulder_lift_joint": 2.018156332684345,
        "distance_shoulder_pan_joint": 4.146000772783846,
        "distance_wrist_1_joint": 1.5814816074999434,
        "distance_wrist_2_joint": 0.3211231776306921,
        "distance_wrist_3_joint": 3.8880057649457638,
        "smoothness": 0.29649014733449397,
        "time": 1.047375805,
        "traj_len": 3.883539048805049,
        "weighted_distance": 4.975991545271735
    },
    "planner": "BFMT",
    "start": {
        "state": {
            "elbow_joint": 0.749534889911806,
            "shoulder_lift_joint": -0.6476975780787326,
            "shoulder_pan_joint": -2.711696901376241,
            "wrist_1_joint": -0.07506478083263063,
            "wrist_2_joint": 0.43296659715538205,
            "wrist_3_joint": -3.14703540197715
        }
    },
    "waypoints": [
        {
            "positions": [
                -2.711696901376241,
                -0.6476975780787326,
                0.749534889911806,
                -0.07506478083263063,
                0.43296659715538205,
                -3.14703540197715
            ]
        },
        {
            "positions": [
                -2.7401473249529493,
                -0.7169174507653716,
                0.7288754306472733,
                -0.051885580103442894,
                0.3813275821601039,
                -3.035497096980557
            ]
        },
        {
            "positions": [
                -2.7685977485296576,
                -0.7861373234520106,
                0.7082159713827408,
                -0.028706379374255166,
                0.32968856716482575,
                -2.9239587919839636
            ]
        },
        {
            "positions": [
                -2.6234466022325593,
                -0.8628000307616488,
                0.6936505059218494,
                0.004293219957007266,
                0.3224924177468281,
                -2.816329299766776
            ]
        },
        {
            "positions": [
                -2.4782954559354615,
                -0.939462738071287,
                0.6790850404609579,
                0.0372928192882697,
                0.31529626832883045,
                -2.7086998075495883
            ]
        },
        {
            "positions": [
                -2.3331443096383637,
                -1.0161254453809252,
                0.6645195750000664,
                0.07029241861953212,
                0.3081001189108328,
                -2.6010703153324006
            ]
        },
        {
            "positions": [
                -2.1879931633412655,
                -1.0927881526905634,
                0.6499541095391749,
                0.10329201795079457,
                0.3009039694928351,
                -2.493440823115213
            ]
        },
        {
            "positions": [
                -2.0428420170441672,
                -1.1694508600002016,
                0.6353886440782834,
                0.136291617282057,
                0.2937078200748375,
                -2.3858113308980258
            ]
        },
        {
            "positions": [
                -1.8976908707470694,
                -1.2461135673098396,
                0.6208231786173919,
                0.16929121661331942,
                0.2865116706568398,
                -2.278181838680838
            ]
        },
        {
            "positions": [
                -1.7525397244499714,
                -1.322776274619478,
                0.6062577131565005,
                0.20229081594458187,
                0.2793155212388421,
                -2.1705523464636505
            ]
        },
        {
            "positions": [
                -1.6073885781528734,
                -1.3994389819291162,
                0.5916922476956089,
                0.2352904152758443,
                0.27211937182084445,
                -2.062922854246463
            ]
        },
        {
            "positions": [
                -1.4622374318557754,
                -1.4761016892387544,
                0.5771267822347175,
                0.2682900146071067,
                0.2649232224028468,
                -1.9552933620292752
            ]
        },
        {
            "positions": [
                -1.3170862855586773,
                -1.5527643965483924,
                0.5625613167738259,
                0.3012896139383691,
                0.25772707298484915,
                -1.8476638698120875
            ]
        },
        {
            "positions": [
                -1.1719351392615793,
                -1.6294271038580306,
                0.5479958513129345,
                0.33428921326963157,
                0.25053092356685147,
                -1.7400343775948999
            ]
        },
        {
            "positions": [
                -1.0267839929644815,
                -1.7060898111676686,
                0.533430385852043,
                0.36728881260089397,
                0.24333477414885385,
                -1.6324048853777124
            ]
        },
        {
            "positions": [
                -0.8816328466673833,
                -1.782752518477307,
                0.5188649203911515,
                0.4002884119321565,
                0.23613862473085617,
                -1.5247753931605246
            ]
        },
        {
            "positions": [
                -0.7364817003702853,
                -1.8594152257869452,
                0.50429945493026,
                0.43328801126341887,
                0.22894247531285852,
                -1.4171459009433371
            ]
        },
        {
            "positions": [
                -0.5913305540731875,
                -1.9360779330965832,
                0.4897339894693685,
                0.46628761059468127,
                0.22174632589486087,
                -1.3095164087261495
            ]
        },
        {
            "positions": [
                -0.4461794077760892,
                -2.0127406404062214,
                0.475168524008477,
                0.4992872099259437,
                0.2145501764768632,
                -1.2018869165089618
            ]
        },
        {
            "positions": [
                -0.3010282614789914,
                -2.0894033477158596,
                0.46060305854758554,
                0.5322868092572062,
                0.20735402705886555,
                -1.0942574242917742
            ]
        },
        {
            "positions": [
                -0.15587711518189318,
                -2.1660660550254978,
                0.44603759308669405,
                0.5652864085884687,
                0.20015787764086787,
                -0.9866279320745865
            ]
        },
        {
            "positions": [
                -0.010725968884794934,
                -2.242728762335136,
                0.43147212762580256,
                0.5982860079197311,
                0.19296172822287022,
                -0.8789984398573991
            ]
        },
        {
            "positions": [
                0.13442517741230287,
                -2.319391469644774,
                0.41690666216491107,
                0.6312856072509935,
                0.18576557880487257,
                -0.7713689476402115
            ]
        },
        {
            "positions": [
                0.2795763237094011,
                -2.3960541769544124,
                0.4023411967040196,
                0.664285206582256,
                0.1785694293868749,
                -0.6637394554230238
            ]
        },
        {
            "positions": [
                0.4247274700064989,
                -2.4727168842640506,
                0.3877757312431281,
                0.6972848059135184,
                0.17137327996887725,
                -0.5561099632058359
            ]
        },
        {
            "positions": [
                0.43767640487395165,
                -2.4592144610695725,
                0.17754376037647793,
                0.7592286216300745,
                0.17432724970249663,
                -0.4715254066275891
            ]
        },
        {
            "positions": [
                0.45062533974140434,
                -2.4457120378750945,
                -0.03268821049017223,
                0.8211724373466307,
                0.17728121943611602,
                -0.3869408500493423
            ]
        },
        {
            "positions": [
                0.4635742746088571,
                -2.4322096146806165,
                -0.2429201813568223,
                0.8831162530631868,
                0.1802351891697354,
                -0.30235629347109555
            ]
        },
        {
            "positions": [
                0.47652320947630983,
                -2.4187071914861384,
                -0.45315215222347255,
                0.9450600687797429,
                0.18318915890335483,
                -0.21777173689284873
            ]
        },
        {
            "positions": [
                0.4894721443437625,
                -2.4052047682916604,
                -0.6633841230901227,
                1.007003884496299,
                0.18614312863697421,
                -0.13318718031460197
            ]
        },
        {
            "positions": [
                0.5024210792112153,
                -2.391702345097183,
                -0.8736160939567728,
                1.0689477002128551,
                0.1890970983705936,
                -0.048602623736355155
            ]
        },
        {
            "positions": [
                0.515370014078668,
                -2.378199921902705,
                -1.083848064823423,
                1.1308915159294113,
                0.192051068104213,
                0.03598193284189166
            ]
        },
        {
            "positions": [
                0.5283189489461207,
                -2.3646974987082268,
                -1.2940800356900732,
                1.1928353316459674,
                0.1950050378378324,
                0.12056648942013848
            ]
        },
        {
            "positions": [
                0.5412678838135734,
                -2.3511950755137487,
                -1.5043120065567233,
                1.2547791473625236,
                0.1979590075714518,
                0.2051510459983853
            ]
        },
        {
            "positions": [
                0.5542168186810261,
                -2.3376926523192707,
                -1.7145439774233735,
                1.3167229630790798,
                0.20091297730507118,
                0.289735602576632
            ]
        },
        {
            "positions": [
                0.5671657535484789,
                -2.3241902291247927,
                -1.9247759482900233,
                1.378666778795636,
                0.20386694703869057,
                0.3743201591548788
            ]
        },
        {
            "positions": [
                0.41649846883802,
                -2.3152681548528387,
                -2.0153353582594633,
                1.4042167883699714,
                0.19845970836381577,
                0.30099011839213186
            ]
        },
        {
            "positions": [
                0.2658311841275612,
                -2.306346080580885,
                -2.105894768228903,
                1.4297667979443067,
                0.193052469688941,
                0.22766007762938487
            ]
        },
        {
            "positions": [
                0.11516389941710242,
                -2.297424006308931,
                -2.196454178198343,
                1.4553168075186422,
                0.1876452310140662,
                0.1543300368666379
            ]
        },
        {
            "positions": [
                -0.035503385293356504,
                -2.2885019320369775,
                -2.287013588167783,
                1.4808668170929775,
                0.1822379923391914,
                0.08099999610389091
            ]
        },
        {
            "positions": [
                -0.18617067000381524,
                -2.2795798577650235,
                -2.3775729981372224,
                1.506416826667313,
                0.1768307536643166,
                0.007669955341143933
            ]
        }
    ]
}