{
    "goal": {
        "global_pose": {
            "orientation": {
                "w": -0.00223480608172531,
                "x": 0.0024358444001904467,
                "y": 0.7094548369677653,
                "z": -0.704743149386269
            },
            "position": {
                "x": 0.6205249238014221,
                "y": -0.6371506643295288,
                "z": 0.19426114857196808
            }
        },
        "name": "move_to_magneteinheit_B"
    },
    "id": "BFMT_move_to_magneteinheit_B_137",
    "joint_names": [
        "shoulder_pan_joint",
        "shoulder_lift_joint",
        "elbow_joint",
        "wrist_1_joint",
        "wrist_2_joint",
        "wrist_3_joint"
    ],
    "metrics": {
        "cart_traj_len": 1.4773480006909367,
        "distance_elbow_joint": 0.9808782307261052,
        "distance_shoulder_lift_joint": 1.0994267146201735,
        "distance_shoulder_pan_joint": 1.6210131741687852,
        "distance_wrist_1_joint": 0.2029850524724912,
        "distance_wrist_2_joint": 1.5206806200009433,
        "distance_wrist_3_joint": 0.35323768437170616,
        "smoothness": 0.44863792291047866,
        "time": 0.657674049,
        "traj_len": 2.4037931434214976,
        "weighted_distance": 2.865023999476628
    },
    "planner": "BFMT",
    "start": {
        "state": {
            "elbow_joint": 2.6216224122426386,
            "shoulder_lift_joint": -1.4174107377796124,
            "shoulder_pan_joint": 0.7066234856936794,
            "wrist_1_joint": 1.9546482284002225,
            "wrist_2_joint": -0.7096286983471962,
            "wrist_3_joint": 0.005740856962016249
        }
    },
    "waypoints": [
        {
            "positions": [
                0.7066234856936794,
                -1.4174107377796124,
                2.6216224122426386,
                1.9546482284002225,
                -0.7096286983471962,
                0.005740856962016249
            ]
        },
        {
            "positions": [
                0.6273172390387829,
                -1.4750963710317562,
                2.62610968376274,
                1.983265253367945,
                -0.77760963364164,
                -0.052913809878767204
            ]
        },
        {
            "positions": [
                0.5480109923838864,
                -1.5327820042839002,
                2.6305969552828405,
                2.0118822783356674,
                -0.8455905689360838,
                -0.11156847671955065
            ]
        },
        {
            "positions": [
                0.4687047457289899,
                -1.590467637536044,
                2.6350842268029417,
                2.04049930330339,
                -0.9135715042305276,
                -0.1702231435603341
            ]
        },
        {
            "positions": [
                0.3623128661748287,
                -1.5192084210080639,
                2.5606675794055724,
                2.049509609270261,
                -1.014859028393421,
                -0.1565867063411529
            ]
        },
        {
            "positions": [
                0.2559209866206675,
                -1.4479492044800837,
                2.486250932008203,
                2.0585199152371323,
                -1.1161465525563141,
                -0.14295026912197167
            ]
        },
        {
            "positions": [
                0.1495291070665063,
                -1.3766899879521035,
                2.4118342846108334,
                2.067530221204003,
                -1.2174340767192073,
                -0.12931383190279044
            ]
        },
        {
            "positions": [
                0.043137227512345055,
                -1.3054307714241233,
                2.337417637213464,
                2.076540527170874,
                -1.3187216008821006,
                -0.11567739468360924
            ]
        },
        {
            "positions": [
                -0.06325465204181613,
                -1.2341715548961432,
                2.2630009898160948,
                2.0855508331377455,
                -1.4200091250449938,
                -0.10204095746442803
            ]
        },
        {
            "positions": [
                -0.1696465315959773,
                -1.162912338368163,
                2.1885843424187255,
                2.0945611391046164,
                -1.521296649207887,
                -0.08840452024524681
            ]
        },
        {
            "positions": [
                -0.2760384111501385,
                -1.091653121840183,
                2.114167695021356,
                2.1035714450714873,
                -1.6225841733707802,
                -0.07476808302606561
            ]
        },
        {
            "positions": [
                -0.3824302907042998,
                -1.0203939053122029,
                2.0397510476239864,
                2.112581751038358,
                -1.7238716975336734,
                -0.06113164580688438
            ]
        },
        {
            "positions": [
                -0.48882217025846086,
                -0.9491346887842227,
                1.965334400226617,
                2.1215920570052296,
                -1.8251592216965666,
                -0.047495208587703175
            ]
        },
        {
            "positions": [
                -0.5952140498126222,
                -0.8778754722562424,
                1.8909177528292478,
                2.1306023629721005,
                -1.9264467458594599,
                -0.033858771368521945
            ]
        },
        {
            "positions": [
                -0.7016059293667833,
                -0.8066162557282623,
                1.8165011054318785,
                2.1396126689389714,
                -2.027734270022353,
                -0.020222334149340743
            ]
        },
        {
            "positions": [
                -0.8079978089209445,
                -0.7353570392002821,
                1.742084458034509,
                2.1486229749058428,
                -2.1290217941852463,
                -0.006585896930159513
            ]
        },
        {
            "positions": [
                -0.9143896884751058,
                -0.664097822672302,
                1.6676678106371396,
                2.1576332808727137,
                -2.2303093183481395,
                0.007050540289021684
            ]
        }
    ]
}