{
    "goal": {
        "global_pose": {
            "orientation": {
                "w": 0.7031023502349854,
                "x": -0.7110244035720825,
                "y": 0.007748599164187908,
                "z": 0.005598929710686207
            },
            "position": {
                "x": 0.11585023208521307,
                "y": 0.44412534475326537,
                "z": 0.3711530566215515
            }
        },
        "name": "move_to_auspresseinheit_A"
    },
    "id": "BFMT_move_to_auspresseinheit_A_89",
    "joint_names": [
        "shoulder_pan_joint",
        "shoulder_lift_joint",
        "elbow_joint",
        "wrist_1_joint",
        "wrist_2_joint",
        "wrist_3_joint"
    ],
    "metrics": {
        "cart_traj_len": 0.6592625053879647,
        "distance_elbow_joint": 0.41277648636604125,
        "distance_shoulder_lift_joint": 0.5349291412354298,
        "distance_shoulder_pan_joint": 1.0477858740209993,
        "distance_wrist_1_joint": 0.6930852043433716,
        "distance_wrist_2_joint": 0.9453842092931475,
        "distance_wrist_3_joint": 0.4119708248074634,
        "smoothness": 1.0259817425375852,
        "time": 0.653896892,
        "traj_len": 2.0114501584842843,
        "weighted_distance": 2.5511453904703076
    },
    "planner": "BFMT",
    "start": {
        "state": {
            "elbow_joint": 2.4225746658250005,
            "shoulder_lift_joint": -1.3736534386056498,
            "shoulder_pan_joint": -0.3378633547517467,
            "wrist_1_joint": -1.0288598680537169,
            "wrist_2_joint": 1.233022673432363,
            "wrist_3_joint": -3.0940220416140027
        }
    },
    "waypoints": [
        {
            "positions": [
                -0.3378633547517467,
                -1.3736534386056498,
                2.4225746658250005,
                -1.0288598680537169,
                1.233022673432363,
                -3.0940220416140027
            ]
        },
        {
            "positions": [
                -0.22714308621859497,
                -1.4583316549370418,
                2.4705432155744624,
                -1.0453254311615214,
                1.2866447084973665,
                -3.0475757227015388
            ]
        },
        {
            "positions": [
                -0.11642281768544319,
                -1.5430098712684335,
                2.518511765323925,
                -1.0617909942693258,
                1.34026674356237,
                -3.001129403789075
            ]
        },
        {
            "positions": [
                -0.005702549152291403,
                -1.6276880875998254,
                2.5664803150733873,
                -1.0782565573771303,
                1.3938887786273735,
                -2.954683084876611
            ]
        },
        {
            "positions": [
                0.10501771938086037,
                -1.7123663039312174,
                2.614448864822849,
                -1.094722120484935,
                1.4475108136923769,
                -2.908236765964147
            ]
        },
        {
            "positions": [
                0.19726792006375599,
                -1.7433176897850817,
                2.5825813552496464,
                -1.0017352432425277,
                1.339859421329651,
                -2.9409963679655613
            ]
        },
        {
            "positions": [
                0.28951812074665156,
                -1.7742690756389463,
                2.550713845676443,
                -0.9087483660001205,
                1.2322080289669253,
                -2.9737559699669758
            ]
        },
        {
            "positions": [
                0.3817683214295472,
                -1.805220461492811,
                2.5188463361032403,
                -0.8157614887577133,
                1.1245566366041992,
                -3.0065155719683903
            ]
        },
        {
            "positions": [
                0.4740185221124428,
                -1.8361718473466753,
                2.4869788265300374,
                -0.7227746115153061,
                1.0169052442414734,
                -3.0392751739698043
            ]
        },
        {
            "positions": [
                0.5662687227953385,
                -1.8671232332005396,
                2.455111316956834,
                -0.6297877342728988,
                0.9092538518787475,
                -3.0720347759712188
            ]
        },
        {
            "positions": [
                0.658518923478234,
                -1.8980746190544042,
                2.4232438073836313,
                -0.5368008570304916,
                0.8016024595160217,
                -3.1047943779726332
            ]
        },
        {
            "positions": [
                0.7099225192692525,
                -1.9085825798410796,
                2.3935465774546567,
                -0.4674991685727813,
                0.7166147446592432,
                -3.1344223151217543
            ]
        }
    ]
}