{
    "goal": {
        "global_pose": {
            "orientation": {
                "w": -0.4816463035849501,
                "x": 0.5182115481033762,
                "y": 0.4908360881923453,
                "z": -0.5084816262002911
            },
            "position": {
                "x": -0.8240239810943604,
                "y": 0.19912469901144506,
                "z": 0.16403168439865112
            }
        },
        "name": "move_to_storage_D"
    },
    "id": "BFMT_move_to_storage_D_125",
    "joint_names": [
        "shoulder_pan_joint",
        "shoulder_lift_joint",
        "elbow_joint",
        "wrist_1_joint",
        "wrist_2_joint",
        "wrist_3_joint"
    ],
    "metrics": {
        "cart_traj_len": 3.941042542108728,
        "distance_elbow_joint": 4.210552487710458,
        "distance_shoulder_lift_joint": 1.2637457851986444,
        "distance_shoulder_pan_joint": 2.813076963616521,
        "distance_wrist_1_joint": 2.266430583379367,
        "distance_wrist_2_joint": 0.8742047898569357,
        "distance_wrist_3_joint": 3.1397864512646247,
        "smoothness": 3.97342979721287e-16,
        "time": 0.629580461,
        "traj_len": 3.816778361527763,
        "weighted_distance": 4.897755132383825
    },
    "planner": "BFMT",
    "start": {
        "state": {
            "elbow_joint": -2.384821988534728,
            "shoulder_lift_joint": -2.2788054721415256,
            "shoulder_pan_joint": -0.1854694642142757,
            "wrist_1_joint": 1.4845938289331202,
            "wrist_2_joint": 0.17898776772866878,
            "wrist_3_joint": 0.037105688729662994
        }
    },
    "waypoints": [
        {
            "positions": [
                -0.1854694642142757,
                -2.2788054721415256,
                -2.384821988534728,
                1.4845938289331202,
                0.17898776772866878,
                0.037105688729662994
            ]
        },
        {
            "positions": [
                -0.07132486570825843,
                -2.2467984586429974,
                -2.2928448708506326,
                1.4654930331862943,
                0.21491002179829413,
                -0.06533621215455458
            ]
        },
        {
            "positions": [
                0.04281973279775886,
                -2.2147914451444692,
                -2.200867753166537,
                1.4463922374394682,
                0.25083227586791945,
                -0.16777811303877216
            ]
        },
        {
            "positions": [
                0.15696433130377616,
                -2.182784431645941,
                -2.1088906354824415,
                1.4272914416926423,
                0.2867545299375448,
                -0.2702200139229898
            ]
        },
        {
            "positions": [
                0.2711089298097934,
                -2.150777418147413,
                -2.0169135177983457,
                1.4081906459458162,
                0.32267678400717015,
                -0.37266191480720734
            ]
        },
        {
            "positions": [
                0.3852535283158107,
                -2.118770404648884,
                -1.9249364001142502,
                1.3890898501989903,
                0.3585990380767955,
                -0.4751038156914249
            ]
        },
        {
            "positions": [
                0.49939812682182805,
                -2.086763391150356,
                -1.8329592824301546,
                1.3699890544521645,
                0.39452129214642084,
                -0.5775457165756425
            ]
        },
        {
            "positions": [
                0.6135427253278454,
                -2.054756377651828,
                -1.740982164746059,
                1.3508882587053384,
                0.4304435462160462,
                -0.67998761745986
            ]
        },
        {
            "positions": [
                0.7276873238338626,
                -2.0227493641532996,
                -1.6490050470619635,
                1.3317874629585125,
                0.46636580028567154,
                -0.7824295183440776
            ]
        },
        {
            "positions": [
                0.8418319223398799,
                -1.9907423506547715,
                -1.557027929377868,
                1.3126866672116866,
                0.5022880543552969,
                -0.8848714192282953
            ]
        },
        {
            "positions": [
                0.9559765208458971,
                -1.9587353371562433,
                -1.4650508116937724,
                1.2935858714648605,
                0.5382103084249222,
                -0.9873133201125128
            ]
        },
        {
            "positions": [
                1.0701211193519145,
                -1.926728323657715,
                -1.3730736940096768,
                1.2744850757180346,
                0.5741325624945476,
                -1.0897552209967303
            ]
        },
        {
            "positions": [
                1.1842657178579317,
                -1.8947213101591869,
                -1.2810965763255815,
                1.2553842799712085,
                0.6100548165641729,
                -1.192197121880948
            ]
        },
        {
            "positions": [
                1.2984103163639489,
                -1.8627142966606585,
                -1.189119458641486,
                1.2362834842243826,
                0.6459770706337982,
                -1.2946390227651654
            ]
        },
        {
            "positions": [
                1.4125549148699663,
                -1.8307072831621303,
                -1.0971423409573902,
                1.2171826884775565,
                0.6818993247034236,
                -1.397080923649383
            ]
        },
        {
            "positions": [
                1.5266995133759835,
                -1.798700269663602,
                -1.0051652232732948,
                1.1980818927307306,
                0.7178215787730489,
                -1.4995228245336008
            ]
        },
        {
            "positions": [
                1.6408441118820007,
                -1.7666932561650737,
                -0.9131881055891993,
                1.1789810969839047,
                0.7537438328426742,
                -1.6019647254178182
            ]
        },
        {
            "positions": [
                1.754988710388018,
                -1.7346862426665455,
                -0.8212109879051037,
                1.1598803012370786,
                0.7896660869122996,
                -1.7044066263020357
            ]
        },
        {
            "positions": [
                1.8691333088940354,
                -1.7026792291680173,
                -0.7292338702210079,
                1.1407795054902528,
                0.8255883409819249,
                -1.8068485271862536
            ]
        },
        {
            "positions": [
                1.9832779074000526,
                -1.670672215669489,
                -0.6372567525369126,
                1.1216787097434269,
                0.8615105950515503,
                -1.909290428070471
            ]
        },
        {
            "positions": [
                2.09742250590607,
                -1.638665202170961,
                -0.545279634852817,
                1.1025779139966008,
                0.8974328491211756,
                -2.0117323289546887
            ]
        },
        {
            "positions": [
                2.211567104412087,
                -1.6066581886724327,
                -0.4533025171687215,
                1.0834771182497749,
                0.933355103190801,
                -2.114174229838906
            ]
        },
        {
            "positions": [
                2.3257117029181047,
                -1.5746511751739043,
                -0.3613253994846257,
                1.0643763225029488,
                0.9692773572604263,
                -2.2166161307231236
            ]
        },
        {
            "positions": [
                2.439856301424122,
                -1.542644161675376,
                -0.2693482818005304,
                1.045275526756123,
                1.0051996113300516,
                -2.3190580316073413
            ]
        },
        {
            "positions": [
                2.4532671012797023,
                -1.5049595563373408,
                -0.11969979744508327,
                0.9147675066702394,
                1.008627678919734,
                -2.375031083816457
            ]
        },
        {
            "positions": [
                2.466677901135282,
                -1.4672749509993055,
                0.029948686910363842,
                0.7842594865843558,
                1.0120557465094164,
                -2.4310041360255727
            ]
        },
        {
            "positions": [
                2.4800887009908625,
                -1.42959034566127,
                0.17959717126581093,
                0.6537514664984723,
                1.0154838140990987,
                -2.4869771882346887
            ]
        },
        {
            "positions": [
                2.493499500846443,
                -1.3919057403232347,
                0.32924565562125807,
                0.5232434464125888,
                1.018911881688781,
                -2.5429502404438042
            ]
        },
        {
            "positions": [
                2.5069103007020233,
                -1.3542211349851994,
                0.47889413997670527,
                0.3927354263267052,
                1.0223399492784633,
                -2.5989232926529198
            ]
        },
        {
            "positions": [
                2.520321100557603,
                -1.316536529647164,
                0.6285426243321522,
                0.26222740624082175,
                1.0257680168681458,
                -2.6548963448620357
            ]
        },
        {
            "positions": [
                2.5337319004131835,
                -1.2788519243091288,
                0.7781911086875994,
                0.13171938615493817,
                1.029196084457828,
                -2.7108693970711517
            ]
        },
        {
            "positions": [
                2.547142700268764,
                -1.2411673189710932,
                0.9278395930430465,
                0.001211366069054698,
                1.0326241520475103,
                -2.7668424492802672
            ]
        },
        {
            "positions": [
                2.560553500124344,
                -1.203482713633058,
                1.0774880773984938,
                -0.129296654016829,
                1.0360522196371929,
                -2.8228155014893828
            ]
        },
        {
            "positions": [
                2.573964299979924,
                -1.1657981082950226,
                1.227136561753941,
                -0.25980467410271246,
                1.0394802872268751,
                -2.8787885536984987
            ]
        },
        {
            "positions": [
                2.5873750998355045,
                -1.1281135029569873,
                1.3767850461093878,
                -0.39031269418859593,
                1.0429083548165574,
                -2.9347616059076147
            ]
        },
        {
            "positions": [
                2.600785899691085,
                -1.0904288976189518,
                1.5264335304648349,
                -0.5208207142744794,
                1.0463364224062397,
                -2.9907346581167302
            ]
        },
        {
            "positions": [
                2.614196699546665,
                -1.0527442922809165,
                1.6760820148202822,
                -0.6513287343603631,
                1.0497644899959222,
                -3.0467077103258458
            ]
        },
        {
            "positions": [
                2.627607499402245,
                -1.0150596869428812,
                1.8257304991757295,
                -0.7818367544462466,
                1.0531925575856045,
                -3.1026807625349617
            ]
        }
    ]
}