{
    "goal": {
        "global_pose": {
            "orientation": {
                "w": 0.5084816217422485,
                "x": -0.49083608388900757,
                "y": 0.5182115435600281,
                "z": -0.4816462993621826
            },
            "position": {
                "x": 0.5540239810943604,
                "y": 0.030875300988554955,
                "z": 0.16403168439865112
            }
        },
        "name": "move_to_storage_A"
    },
    "id": "BFMT_move_to_storage_A_57",
    "joint_names": [
        "shoulder_pan_joint",
        "shoulder_lift_joint",
        "elbow_joint",
        "wrist_1_joint",
        "wrist_2_joint",
        "wrist_3_joint"
    ],
    "metrics": {
        "cart_traj_len": 0.35363041237643145,
        "distance_elbow_joint": 0.4537086267966386,
        "distance_shoulder_lift_joint": 0.2328283195187275,
        "distance_shoulder_pan_joint": 0.4600046885478821,
        "distance_wrist_1_joint": 0.2574790206055587,
        "distance_wrist_2_joint": 1.1102275019059729,
        "distance_wrist_3_joint": 0.09733285339779307,
        "smoothness": 0.0,
        "time": 0.497804082,
        "traj_len": 1.61603867861279,
        "weighted_distance": 2.0430255113629125
    },
    "planner": "BFMT",
    "start": {
        "state": {
            "elbow_joint": 1.971548259319323,
            "shoulder_lift_joint": -1.1394851275133948,
            "shoulder_pan_joint": 0.1228115487234821,
            "wrist_1_joint": -0.7804723859257726,
            "wrist_2_joint": 0.12958671773740124,
            "wrist_3_joint": -3.192489227718131
        }
    },
    "waypoints": [
        {
            "positions": [
                0.1228115487234821,
                -1.1394851275133948,
                1.971548259319323,
                -0.7804723859257726,
                0.12958671773740124,
                -3.192489227718131
            ]
        },
        {
            "positions": [
                0.0570965932166418,
                -1.1727463160160703,
                2.0363637774331287,
                -0.8172551031551382,
                0.28819064658111165,
                -3.1785845343755894
            ]
        },
        {
            "positions": [
                -0.008618362290198495,
                -1.2060075045187455,
                2.101179295546934,
                -0.8540378203845037,
                0.44679457542482204,
                -3.1646798410330472
            ]
        },
        {
            "positions": [
                -0.0743333177970388,
                -1.239268693021421,
                2.1659948136607396,
                -0.8908205376138691,
                0.6053985042685325,
                -3.1507751476905055
            ]
        },
        {
            "positions": [
                -0.1400482733038791,
                -1.2725298815240962,
                2.230810331774545,
                -0.9276032548432347,
                0.7640024331122429,
                -3.1368704543479637
            ]
        },
        {
            "positions": [
                -0.2057632288107194,
                -1.3057910700267716,
                2.2956258498883506,
                -0.9643859720726002,
                0.9226063619559534,
                -3.122965761005422
            ]
        },
        {
            "positions": [
                -0.2714781843175597,
                -1.3390522585294469,
                2.360441368002156,
                -1.0011686893019658,
                1.0812102907996637,
                -3.10906106766288
            ]
        },
        {
            "positions": [
                -0.3371931398244,
                -1.3723134470321223,
                2.4252568861159616,
                -1.0379514065313313,
                1.2398142196433741,
                -3.095156374320338
            ]
        }
    ]
}{
    "goal": {
        "global_pose": {
            "orientation": {
                "w": 0.5084816217422485,
                "x": -0.49083608388900757,
                "y": 0.5182115435600281,
                "z": -0.4816462993621826
            },
            "position": {
                "x": 0.5540239810943604,
                "y": 0.030875300988554955,
                "z": 0.16403168439865112
            }
        },
        "name": "move_to_storage_A"
    },
    "id": "BFMT_move_to_storage_A_57",
    "joint_names": [
        "shoulder_pan_joint",
        "shoulder_lift_joint",
        "elbow_joint",
        "wrist_1_joint",
        "wrist_2_joint",
        "wrist_3_joint"
    ],
    "metrics": {
        "cart_traj_len": 0.3527618663481741,
        "distance_elbow_joint": 0.44993108327124265,
        "distance_shoulder_lift_joint": 0.23462941604279308,
        "distance_shoulder_pan_joint": 0.4574933183331786,
        "distance_wrist_1_joint": 0.2416740197635463,
        "distance_wrist_2_joint": 1.1147593086583598,
        "distance_wrist_3_joint": 0.10309231768641336,
        "smoothness": 0.0,
        "time": 0.497584103,
        "traj_len": 1.6129412462193202,
        "weighted_distance": 2.0406365250946252
    },
    "planner": "BFMT",
    "start": {
        "state": {
            "elbow_joint": 1.97154746011099,
            "shoulder_lift_joint": -1.13948474672311,
            "shoulder_pan_joint": 0.12281154466712228,
            "wrist_1_joint": -0.7804688027058302,
            "wrist_2_joint": 0.12958655903071145,
            "wrist_3_joint": 3.0906928834467795
        }
    },
    "waypoints": [
        {
            "positions": [
                0.12281154466712228,
                -1.13948474672311,
                1.97154746011099,
                -0.7804688027058302,
                0.12958655903071145,
                3.0906928834467795
            ]
        },
        {
            "positions": [
                0.05745535633381106,
                -1.1730032347292232,
                2.0358233291497387,
                -0.8149936626720511,
                0.2888378888390486,
                3.1054203574019814
            ]
        },
        {
            "positions": [
                -0.00790083199950016,
                -1.2065217227353366,
                2.100099198188488,
                -0.849518522638272,
                0.4480892186473857,
                3.1201478313571833
            ]
        },
        {
            "positions": [
                -0.07325702033281138,
                -1.2400402107414499,
                2.164375067227237,
                -0.8840433826044929,
                0.6073405484557228,
                3.1348753053123852
            ]
        },
        {
            "positions": [
                -0.1386132086661226,
                -1.2735586987475631,
                2.2286509362659856,
                -0.9185682425707138,
                0.76659187826406,
                3.149602779267587
            ]
        },
        {
            "positions": [
                -0.20396939699943384,
                -1.3070771867536766,
                2.2929268053047345,
                -0.9530931025369347,
                0.9258432080723971,
                3.164330253222789
            ]
        },
        {
            "positions": [
                -0.26932558533274503,
                -1.3405956747597898,
                2.3572026743434837,
                -0.9876179625031556,
                1.0850945378807342,
                3.179057727177991
            ]
        },
        {
            "positions": [
                -0.3346817736660563,
                -1.374114162765903,
                2.4214785433822326,
                -1.0221428224693765,
                1.2443458676890713,
                3.193785201133193
            ]
        }
    ]
}{
    "goal": {
        "global_pose": {
            "orientation": {
                "w": 0.5084816217422485,
                "x": -0.49083608388900757,
                "y": 0.5182115435600281,
                "z": -0.4816462993621826
            },
            "position": {
                "x": 0.5540239810943604,
                "y": 0.030875300988554955,
                "z": 0.16403168439865112
            }
        },
        "name": "move_to_storage_A"
    },
    "id": "BFMT_move_to_storage_A_57",
    "joint_names": [
        "shoulder_pan_joint",
        "shoulder_lift_joint",
        "elbow_joint",
        "wrist_1_joint",
        "wrist_2_joint",
        "wrist_3_joint"
    ],
    "metrics": {
        "cart_traj_len": 0.3529051041415556,
        "distance_elbow_joint": 0.4527314469745276,
        "distance_shoulder_lift_joint": 0.23468460253903922,
        "distance_shoulder_pan_joint": 0.46041442708186014,
        "distance_wrist_1_joint": 0.2512036886186888,
        "distance_wrist_2_joint": 1.1037675569500998,
        "distance_wrist_3_joint": 0.09575458170795681,
        "smoothness": 8.881784197001252e-16,
        "time": 0.5198857020000001,
        "traj_len": 1.6120038163330048,
        "weighted_distance": 2.035936323379706
    },
    "planner": "BFMT",
    "start": {
        "state": {
            "elbow_joint": 1.9715472970024885,
            "shoulder_lift_joint": -1.1394870060712896,
            "shoulder_pan_joint": 0.12281152778156021,
            "wrist_1_joint": -0.780463741449964,
            "wrist_2_joint": 0.12958659822042276,
            "wrist_3_joint": 3.090690232415272
        }
    },
    "waypoints": [
        {
            "positions": [
                0.12281152778156021,
                -1.1394870060712896,
                1.9715472970024885,
                -0.780463741449964,
                0.12958659822042276,
                3.090690232415272
            ]
        },
        {
            "positions": [
                0.05703803819843735,
                -1.1730133778625809,
                2.0362232179988498,
                -0.8163499826812053,
                0.28726767778472273,
                3.1043694583735513
            ]
        },
        {
            "positions": [
                -0.00873545138468551,
                -1.2065397496538723,
                2.1008991389952105,
                -0.8522362239124465,
                0.4449487573490227,
                3.118048684331831
            ]
        },
        {
            "positions": [
                -0.07450894096780838,
                -1.2400661214451636,
                2.1655750599915717,
                -0.8881224651436878,
                0.6026298369133226,
                3.1317279102901106
            ]
        },
        {
            "positions": [
                -0.14028243055093123,
                -1.2735924932364548,
                2.230250980987933,
                -0.924008706374929,
                0.7603109164776226,
                3.14540713624839
            ]
        },
        {
            "positions": [
                -0.20605592013405413,
                -1.3071188650277463,
                2.294926901984294,
                -0.9598949476061702,
                0.9179919960419226,
                3.1590863622066694
            ]
        },
        {
            "positions": [
                -0.27182940971717695,
                -1.3406452368190376,
                2.359602822980655,
                -0.9957811888374115,
                1.0756730756062225,
                3.1727655881649492
            ]
        },
        {
            "positions": [
                -0.3376028993002999,
                -1.3741716086103288,
                2.424278743977016,
                -1.0316674300686528,
                1.2333541551705225,
                3.1864448141232287
            ]
        }
    ]
}