{
    "goal": {
        "global_pose": {
            "orientation": {
                "w": 0.005598929693374612,
                "x": 0.007748599140229565,
                "y": 0.7110244013736278,
                "z": -0.7031023480610252
            },
            "position": {
                "x": -0.8858502320852131,
                "y": -0.7141253447532654,
                "z": 0.3711530566215515
            }
        },
        "name": "move_to_auspresseinheit_C"
    },
    "id": "BFMT_move_to_auspresseinheit_C_73",
    "joint_names": [
        "shoulder_pan_joint",
        "shoulder_lift_joint",
        "elbow_joint",
        "wrist_1_joint",
        "wrist_2_joint",
        "wrist_3_joint"
    ],
    "metrics": {
        "cart_traj_len": 0.49247512797240095,
        "distance_elbow_joint": 0.9886727830686244,
        "distance_shoulder_lift_joint": 0.31985908269382735,
        "distance_shoulder_pan_joint": 0.25656346158618115,
        "distance_wrist_1_joint": 0.6544935203776502,
        "distance_wrist_2_joint": 1.308340358557738,
        "distance_wrist_3_joint": 0.0405934398285428,
        "smoothness": 1.1304089016362695e-15,
        "time": 0.405841638,
        "traj_len": 1.889053373018498,
        "weighted_distance": 2.369080708778204
    },
    "planner": "BFMT",
    "start": {
        "state": {
            "elbow_joint": 1.7527959577737207,
            "shoulder_lift_joint": -0.9740617694225068,
            "shoulder_pan_joint": -2.967991417825858,
            "wrist_1_joint": -0.759517768980727,
            "wrist_2_joint": 1.7443932448377408,
            "wrist_3_joint": -3.0840537646736568
        }
    },
    "waypoints": [
        {
            "positions": [
                -2.967991417825858,
                -0.9740617694225068,
                1.7527959577737207,
                -0.759517768980727,
                1.7443932448377408,
                -3.0840537646736568
            ]
        },
        {
            "positions": [
                -2.94233507166724,
                -0.942075861153124,
                1.6539286794668582,
                -0.694068416942962,
                1.613559208981967,
                -3.0881131086565112
            ]
        },
        {
            "positions": [
                -2.9166787255086217,
                -0.9100899528837413,
                1.5550614011599957,
                -0.6286190649051969,
                1.4827251731261932,
                -3.0921724526393652
            ]
        },
        {
            "positions": [
                -2.8910223793500034,
                -0.8781040446143585,
                1.4561941228531334,
                -0.5631697128674319,
                1.3518911372704194,
                -3.0962317966222197
            ]
        },
        {
            "positions": [
                -2.8653660331913855,
                -0.8461181363449758,
                1.357326844546271,
                -0.4977203608296669,
                1.2210571014146456,
                -3.1002911406050737
            ]
        },
        {
            "positions": [
                -2.8397096870327676,
                -0.8141322280755932,
                1.2584595662394085,
                -0.4322710087919019,
                1.0902230655588718,
                -3.104350484587928
            ]
        },
        {
            "positions": [
                -2.8140533408741493,
                -0.7821463198062104,
                1.1595922879325462,
                -0.36682165675413686,
                0.959389029703098,
                -3.1084098285707826
            ]
        },
        {
            "positions": [
                -2.788396994715531,
                -0.7501604115368277,
                1.0607250096256835,
                -0.3013723047163719,
                0.8285549938473243,
                -3.1124691725536366
            ]
        },
        {
            "positions": [
                -2.762740648556913,
                -0.7181745032674449,
                0.9618577313188211,
                -0.23592295267860686,
                0.6977209579915504,
                -3.116528516536491
            ]
        },
        {
            "positions": [
                -2.737084302398295,
                -0.6861885949980622,
                0.8629904530119586,
                -0.17047360064084183,
                0.5668869221357766,
                -3.120587860519345
            ]
        },
        {
            "positions": [
                -2.711427956239677,
                -0.6542026867286794,
                0.7641231747050963,
                -0.10502424860307683,
                0.43605288628000294,
                -3.1246472045021996
            ]
        }
    ]
}