{
    "goal": {
        "global_pose": {
            "orientation": {
                "w": 0.5084816217422485,
                "x": -0.49083608388900757,
                "y": 0.5182115435600281,
                "z": -0.4816462993621826
            },
            "position": {
                "x": 0.5540239810943604,
                "y": 0.030875300988554955,
                "z": 0.16403168439865112
            }
        },
        "name": "move_to_storage_A"
    },
    "id": "BFMT_move_to_storage_A_87",
    "joint_names": [
        "shoulder_pan_joint",
        "shoulder_lift_joint",
        "elbow_joint",
        "wrist_1_joint",
        "wrist_2_joint",
        "wrist_3_joint"
    ],
    "metrics": {
        "cart_traj_len": 0.3530432189571679,
        "distance_elbow_joint": 0.45100237860886083,
        "distance_shoulder_lift_joint": 0.23535672833779864,
        "distance_shoulder_pan_joint": 0.4606587487787061,
        "distance_wrist_1_joint": 0.24549265226867634,
        "distance_wrist_2_joint": 1.1036528989543142,
        "distance_wrist_3_joint": 0.10340092124119371,
        "smoothness": 4.440892098500626e-16,
        "time": 0.472539221,
        "traj_len": 1.612316447906412,
        "weighted_distance": 2.0385072288061497
    },
    "planner": "BFMT",
    "start": {
        "state": {
            "elbow_joint": 1.971548259319323,
            "shoulder_lift_joint": -1.1394851275133948,
            "shoulder_pan_joint": 0.1228115487234821,
            "wrist_1_joint": -0.7804723859257726,
            "wrist_2_joint": 0.12958671773740124,
            "wrist_3_joint": -3.192489227718131
        }
    },
    "waypoints": [
        {
            "positions": [
                0.1228115487234821,
                -1.1394851275133948,
                1.971548259319323,
                -0.7804723859257726,
                0.12958671773740124,
                -3.192489227718131
            ]
        },
        {
            "positions": [
                0.0570031560408098,
                -1.1731075172759375,
                2.03597717054916,
                -0.8155427648212978,
                0.28725141758801753,
                -3.1777176675408176
            ]
        },
        {
            "positions": [
                -0.008805236641862502,
                -1.20672990703848,
                2.1004060817789973,
                -0.850613143716823,
                0.4449161174386338,
                -3.1629461073635046
            ]
        },
        {
            "positions": [
                -0.0746136293245348,
                -1.2403522968010228,
                2.1648349930088346,
                -0.8856835226123482,
                0.6025808172892502,
                -3.148174547186191
            ]
        },
        {
            "positions": [
                -0.1404220220072071,
                -1.2739746865635655,
                2.229263904238672,
                -0.9207539015078734,
                0.7602455171398664,
                -3.1334029870088775
            ]
        },
        {
            "positions": [
                -0.2062304146898794,
                -1.3075970763261082,
                2.2936928154685092,
                -0.9558242804033985,
                0.9179102169904828,
                -3.118631426831564
            ]
        },
        {
            "positions": [
                -0.2720388073725517,
                -1.3412194660886507,
                2.3581217266983465,
                -0.9908946592989237,
                1.075574916841099,
                -3.103859866654251
            ]
        },
        {
            "positions": [
                -0.337847200055224,
                -1.3748418558511935,
                2.422550637928184,
                -1.025965038194449,
                1.2332396166917154,
                -3.0890883064769374
            ]
        }
    ]
}{
    "goal": {
        "global_pose": {
            "orientation": {
                "w": 0.5084816217422485,
                "x": -0.49083608388900757,
                "y": 0.5182115435600281,
                "z": -0.4816462993621826
            },
            "position": {
                "x": 0.5540239810943604,
                "y": 0.030875300988554955,
                "z": 0.16403168439865112
            }
        },
        "name": "move_to_storage_A"
    },
    "id": "BFMT_move_to_storage_A_87",
    "joint_names": [
        "shoulder_pan_joint",
        "shoulder_lift_joint",
        "elbow_joint",
        "wrist_1_joint",
        "wrist_2_joint",
        "wrist_3_joint"
    ],
    "metrics": {
        "cart_traj_len": 0.35356498445960727,
        "distance_elbow_joint": 0.4499400535389073,
        "distance_shoulder_lift_joint": 0.23477933313620003,
        "distance_shoulder_pan_joint": 0.4626711391688928,
        "distance_wrist_1_joint": 0.2378854270362798,
        "distance_wrist_2_joint": 1.098898494661977,
        "distance_wrist_3_joint": 0.10029560699682438,
        "smoothness": 4.440892133664971e-16,
        "time": 0.516238397,
        "traj_len": 1.6076287054351452,
        "weighted_distance": 2.0302327921277863
    },
    "planner": "BFMT",
    "start": {
        "state": {
            "elbow_joint": 1.97154746011099,
            "shoulder_lift_joint": -1.13948474672311,
            "shoulder_pan_joint": 0.12281154466712228,
            "wrist_1_joint": -0.7804688027058302,
            "wrist_2_joint": 0.12958655903071145,
            "wrist_3_joint": 3.0906928834467795
        }
    },
    "waypoints": [
        {
            "positions": [
                0.12281154466712228,
                -1.13948474672311,
                1.97154746011099,
                -0.7804688027058302,
                0.12958655903071145,
                3.0906928834467795
            ]
        },
        {
            "positions": [
                0.05671566764299474,
                -1.1730246514568528,
                2.0358246106165483,
                -0.8144524351395844,
                0.28657205826813675,
                3.1050208273034685
            ]
        },
        {
            "positions": [
                -0.009380209381132806,
                -1.2065645561905958,
                2.1001017611221062,
                -0.8484360675733387,
                0.44355755750556203,
                3.119348771160158
            ]
        },
        {
            "positions": [
                -0.07547608640526034,
                -1.2401044609243386,
                2.1643789116276646,
                -0.8824197000070929,
                0.6005430567429874,
                3.133676715016847
            ]
        },
        {
            "positions": [
                -0.14157196342938788,
                -1.2736443656580814,
                2.2286560621332225,
                -0.9164033324408472,
                0.7575285559804127,
                3.1480046588735364
            ]
        },
        {
            "positions": [
                -0.20766784045351544,
                -1.3071842703918244,
                2.292933212638781,
                -0.9503869648746015,
                0.914514055217838,
                3.1623326027302254
            ]
        },
        {
            "positions": [
                -0.27376371747764294,
                -1.3407241751255672,
                2.357210363144339,
                -0.9843705973083557,
                1.0714995544552632,
                3.176660546586915
            ]
        },
        {
            "positions": [
                -0.3398595945017705,
                -1.37426407985931,
                2.4214875136498972,
                -1.01835422974211,
                1.2284850536926886,
                3.190988490443604
            ]
        }
    ]
}{
    "goal": {
        "global_pose": {
            "orientation": {
                "w": 0.5084816217422485,
                "x": -0.49083608388900757,
                "y": 0.5182115435600281,
                "z": -0.4816462993621826
            },
            "position": {
                "x": 0.5540239810943604,
                "y": 0.030875300988554955,
                "z": 0.16403168439865112
            }
        },
        "name": "move_to_storage_A"
    },
    "id": "BFMT_move_to_storage_A_87",
    "joint_names": [
        "shoulder_pan_joint",
        "shoulder_lift_joint",
        "elbow_joint",
        "wrist_1_joint",
        "wrist_2_joint",
        "wrist_3_joint"
    ],
    "metrics": {
        "cart_traj_len": 0.35372793047282447,
        "distance_elbow_joint": 0.44981114963406643,
        "distance_shoulder_lift_joint": 0.23328284312324876,
        "distance_shoulder_pan_joint": 0.4596724784095439,
        "distance_wrist_1_joint": 0.24905930189955439,
        "distance_wrist_2_joint": 1.1113658925842833,
        "distance_wrist_3_joint": 0.0956296406603303,
        "smoothness": 6.661338165333112e-16,
        "time": 0.490718631,
        "traj_len": 1.6120860108291453,
        "weighted_distance": 2.0372790143020483
    },
    "planner": "BFMT",
    "start": {
        "state": {
            "elbow_joint": 1.9715472970024885,
            "shoulder_lift_joint": -1.1394870060712896,
            "shoulder_pan_joint": 0.12281152778156021,
            "wrist_1_joint": -0.780463741449964,
            "wrist_2_joint": 0.12958659822042276,
            "wrist_3_joint": 3.090690232415272
        }
    },
    "waypoints": [
        {
            "positions": [
                0.12281152778156021,
                -1.1394870060712896,
                1.9715472970024885,
                -0.780463741449964,
                0.12958659822042276,
                3.090690232415272
            ]
        },
        {
            "positions": [
                0.05714403086591109,
                -1.172813126517468,
                2.0358060326644982,
                -0.8160436417213289,
                0.2883531543038918,
                3.1043516096524617
            ]
        },
        {
            "positions": [
                -0.008523466049738027,
                -1.2061392469636465,
                2.1000647683265075,
                -0.8516235419926939,
                0.44711971038736087,
                3.118012986889652
            ]
        },
        {
            "positions": [
                -0.07419096296538713,
                -1.2394653674098248,
                2.164323503988517,
                -0.8872034422640587,
                0.6058862664708299,
                3.131674364126842
            ]
        },
        {
            "positions": [
                -0.13985845988103626,
                -1.2727914878560032,
                2.2285822396505264,
                -0.9227833425354236,
                0.7646528225542989,
                3.145335741364032
            ]
        },
        {
            "positions": [
                -0.20552595679668542,
                -1.3061176083021815,
                2.292840975312536,
                -0.9583632428067885,
                0.923419378637768,
                3.158997118601222
            ]
        },
        {
            "positions": [
                -0.2711934537123345,
                -1.33944372874836,
                2.3570997109745453,
                -0.9939431430781535,
                1.082185934721237,
                3.1726584958384123
            ]
        },
        {
            "positions": [
                -0.33686095062798366,
                -1.3727698491945384,
                2.421358446636555,
                -1.0295230433495184,
                1.240952490804706,
                3.186319873075602
            ]
        }
    ]
}