{
    "goal": {
        "global_pose": {
            "orientation": {
                "w": 0.7031023502349854,
                "x": -0.7110244035720825,
                "y": 0.007748599164187908,
                "z": 0.005598929710686207
            },
            "position": {
                "x": 0.11585023208521307,
                "y": 0.44412534475326537,
                "z": 0.3711530566215515
            }
        },
        "name": "move_to_auspresseinheit_A"
    },
    "id": "BFMT_move_to_auspresseinheit_A_133",
    "joint_names": [
        "shoulder_pan_joint",
        "shoulder_lift_joint",
        "elbow_joint",
        "wrist_1_joint",
        "wrist_2_joint",
        "wrist_3_joint"
    ],
    "metrics": {
        "cart_traj_len": 0.9208494835816023,
        "distance_elbow_joint": 0.5322791429581137,
        "distance_shoulder_lift_joint": 0.5352201006606729,
        "distance_shoulder_pan_joint": 2.1693668933458534,
        "distance_wrist_1_joint": 0.8059884715701646,
        "distance_wrist_2_joint": 0.51360075420068,
        "distance_wrist_3_joint": 0.054976243068077135,
        "smoothness": 1.1702023409670939,
        "time": 0.538142909,
        "traj_len": 2.147424412128064,
        "weighted_distance": 2.4578391561919917
    },
    "planner": "BFMT",
    "start": {
        "state": {
            "elbow_joint": 2.4225746658250005,
            "shoulder_lift_joint": -1.3736534386056498,
            "shoulder_pan_joint": -0.3378633547517467,
            "wrist_1_joint": -1.0288598680537169,
            "wrist_2_joint": 1.233022673432363,
            "wrist_3_joint": -3.0940220416140027
        }
    },
    "waypoints": [
        {
            "positions": [
                -0.3378633547517467,
                -1.3736534386056498,
                2.4225746658250005,
                -1.0288598680537169,
                1.233022673432363,
                -3.0940220416140027
            ]
        },
        {
            "positions": [
                -0.45013303861142057,
                -1.4605048003416197,
                2.4726322366693316,
                -0.8910020053852212,
                1.2330169523799746,
                -3.1026083754131437
            ]
        },
        {
            "positions": [
                -0.5624027224710944,
                -1.5473561620775893,
                2.522689807513663,
                -0.7531441427167256,
                1.233011231327586,
                -3.1111947092122847
            ]
        },
        {
            "positions": [
                -0.6746724063307682,
                -1.6342075238135592,
                2.5727473783579944,
                -0.6152862800482302,
                1.2330055102751976,
                -3.119781043011426
            ]
        },
        {
            "positions": [
                -0.786942090190442,
                -1.721058885549529,
                2.6228049492023255,
                -0.4774284173797344,
                1.232999789222809,
                -3.128367376810567
            ]
        },
        {
            "positions": [
                -0.8992117740501158,
                -1.8079102472854987,
                2.6728625200466567,
                -0.33957055471123887,
                1.2329940681704206,
                -3.136953710609708
            ]
        },
        {
            "positions": [
                -0.6694948491861894,
                -1.8223335747113307,
                2.632578050227163,
                -0.3562418630294798,
                1.1596266183220294,
                -3.1386743640486183
            ]
        },
        {
            "positions": [
                -0.43977792432226315,
                -1.8367569021371626,
                2.5922935804076688,
                -0.3729131713477208,
                1.0862591684736385,
                -3.1403950174875286
            ]
        },
        {
            "positions": [
                -0.21006099945833678,
                -1.8511802295629947,
                2.552009110588175,
                -0.3895844796659617,
                1.0128917186252473,
                -3.142115670926439
            ]
        },
        {
            "positions": [
                0.01965592540558947,
                -1.8656035569888267,
                2.511724640768681,
                -0.4062557879842027,
                0.9395242687768564,
                -3.143836324365349
            ]
        },
        {
            "positions": [
                0.24937285026951583,
                -1.8800268844146588,
                2.471440170949187,
                -0.42292709630244363,
                0.8661568189284652,
                -3.1455569778042594
            ]
        },
        {
            "positions": [
                0.4790897751334422,
                -1.8944502118404907,
                2.431155701129693,
                -0.43959840462068456,
                0.7927893690800742,
                -3.1472776312431696
            ]
        },
        {
            "positions": [
                0.7088066999973686,
                -1.9088735392663227,
                2.390871231310199,
                -0.45626971293892554,
                0.7194219192316831,
                -3.14899828468208
            ]
        }
    ]
}