{
    "goal": {
        "global_pose": {
            "orientation": {
                "w": 0.005598929693374612,
                "x": 0.007748599140229565,
                "y": 0.7110244013736278,
                "z": -0.7031023480610252
            },
            "position": {
                "x": 0.1141497679147869,
                "y": -0.7141253447532654,
                "z": 0.3711530566215515
            }
        },
        "name": "move_to_auspresseinheit_B"
    },
    "id": "BFMT_move_to_auspresseinheit_B_106",
    "joint_names": [
        "shoulder_pan_joint",
        "shoulder_lift_joint",
        "elbow_joint",
        "wrist_1_joint",
        "wrist_2_joint",
        "wrist_3_joint"
    ],
    "metrics": {
        "cart_traj_len": 0.5650851864759172,
        "distance_elbow_joint": 0.06434580683920399,
        "distance_shoulder_lift_joint": 0.29555218741137934,
        "distance_shoulder_pan_joint": 0.5785339575043067,
        "distance_wrist_1_joint": 0.33308923163862847,
        "distance_wrist_2_joint": 0.9860638307631808,
        "distance_wrist_3_joint": 0.008215332659753383,
        "smoothness": 0.0,
        "time": 0.48527838900000003,
        "traj_len": 1.5052575682641336,
        "weighted_distance": 1.8977312967166264
    },
    "planner": "BFMT",
    "start": {
        "state": {
            "elbow_joint": 2.0193083361928714,
            "shoulder_lift_joint": -1.1220246554650708,
            "shoulder_pan_joint": -1.0952077554168747,
            "wrist_1_joint": -0.8559753972642168,
            "wrist_2_joint": 0.4759566250798843,
            "wrist_3_joint": -3.1240929996934557
        }
    },
    "waypoints": [
        {
            "positions": [
                -1.0952077554168747,
                -1.1220246554650708,
                2.0193083361928714,
                -0.8559753972642168,
                0.4759566250798843,
                -3.1240929996934557
            ]
        },
        {
            "positions": [
                -1.1916300816675924,
                -1.1712833533669673,
                2.008584035053004,
                -0.8004605253244453,
                0.6403005968737477,
                -3.122723777583497
            ]
        },
        {
            "positions": [
                -1.2880524079183102,
                -1.2205420512688638,
                1.9978597339131368,
                -0.744945653384674,
                0.8046445686676111,
                -3.121354555473538
            ]
        },
        {
            "positions": [
                -1.384474734169028,
                -1.2698007491707606,
                1.9871354327732695,
                -0.6894307814449026,
                0.9689885404614746,
                -3.119985333363579
            ]
        },
        {
            "positions": [
                -1.4808970604197458,
                -1.319059447072657,
                1.976411131633402,
                -0.6339159095051312,
                1.1333325122553382,
                -3.11861611125362
            ]
        },
        {
            "positions": [
                -1.5773193866704636,
                -1.3683181449745536,
                1.9656868304935347,
                -0.5784010375653597,
                1.2976764840492017,
                -3.117246889143661
            ]
        },
        {
            "positions": [
                -1.6737417129211813,
                -1.4175768428764501,
                1.9549625293536674,
                -0.5228861656255883,
                1.4620204558430652,
                -3.1158776670337023
            ]
        }
    ]
}