{
    "goal": {
        "global_pose": {
            "orientation": {
                "w": 0.7031023502349854,
                "x": -0.7110244035720825,
                "y": 0.007748599164187908,
                "z": 0.005598929710686207
            },
            "position": {
                "x": 0.11585023208521307,
                "y": 0.44412534475326537,
                "z": 0.3711530566215515
            }
        },
        "name": "move_to_auspresseinheit_A"
    },
    "id": "BFMT_move_to_auspresseinheit_A_15",
    "joint_names": [
        "shoulder_pan_joint",
        "shoulder_lift_joint",
        "elbow_joint",
        "wrist_1_joint",
        "wrist_2_joint",
        "wrist_3_joint"
    ],
    "metrics": {
        "cart_traj_len": 2.571264127386317,
        "distance_elbow_joint": 2.845926736651078,
        "distance_shoulder_lift_joint": 1.056970645104327,
        "distance_shoulder_pan_joint": 1.4203086699442586,
        "distance_wrist_1_joint": 3.39573728342233,
        "distance_wrist_2_joint": 0.5232947084284687,
        "distance_wrist_3_joint": 0.3483620427516372,
        "smoothness": 1.286266564074646,
        "time": 0.768134843,
        "traj_len": 3.096869400911524,
        "weighted_distance": 3.7691320172761493
    },
    "planner": "BFMT",
    "start": {
        "state": {
            "elbow_joint": 2.4225746658250005,
            "shoulder_lift_joint": -1.3736534386056498,
            "shoulder_pan_joint": -0.3378633547517467,
            "wrist_1_joint": -1.0288598680537169,
            "wrist_2_joint": 1.233022673432363,
            "wrist_3_joint": -3.0940220416140027
        }
    },
    "waypoints": [
        {
            "positions": [
                -0.3378633547517467,
                -1.3736534386056498,
                2.4225746658250005,
                -1.0288598680537169,
                1.233022673432363,
                -3.0940220416140027
            ]
        },
        {
            "positions": [
                -0.2710917381219014,
                -1.4236986137416547,
                2.3268412736497783,
                -0.8986800410662579,
                1.2027753780116444,
                -3.106746981779418
            ]
        },
        {
            "positions": [
                -0.20432012149205606,
                -1.4737437888776597,
                2.2311078814745566,
                -0.768500214078799,
                1.1725280825909257,
                -3.1194719219448332
            ]
        },
        {
            "positions": [
                -0.1375485048622107,
                -1.5237889640136646,
                2.135374489299335,
                -0.6383203870913401,
                1.1422807871702072,
                -3.1321968621102485
            ]
        },
        {
            "positions": [
                -0.07077688823236539,
                -1.5738341391496697,
                2.039641097124113,
                -0.5081405601038811,
                1.1120334917494885,
                -3.1449218022756633
            ]
        },
        {
            "positions": [
                -0.004005271602520066,
                -1.6238793142856744,
                1.9439077049488909,
                -0.3779607331164222,
                1.0817861963287698,
                -3.1576467424410786
            ]
        },
        {
            "positions": [
                0.06276634502732531,
                -1.6739244894216796,
                1.848174312773669,
                -0.2477809061289632,
                1.0515389009080511,
                -3.170371682606494
            ]
        },
        {
            "positions": [
                0.12953796165717063,
                -1.7239696645576845,
                1.752440920598447,
                -0.1176010791415043,
                1.0212916054873324,
                -3.183096622771909
            ]
        },
        {
            "positions": [
                0.19630957828701595,
                -1.7740148396936894,
                1.656707528423225,
                0.012578747845954696,
                0.9910443100666139,
                -3.1958215629373243
            ]
        },
        {
            "positions": [
                0.26308119491686127,
                -1.8240600148296944,
                1.5609741362480032,
                0.14275857483341348,
                0.9607970146458952,
                -3.2085465031027396
            ]
        },
        {
            "positions": [
                0.3298528115467066,
                -1.8741051899656993,
                1.4652407440727813,
                0.2729384018208725,
                0.9305497192251766,
                -3.221271443268155
            ]
        },
        {
            "positions": [
                0.3966244281765519,
                -1.9241503651017045,
                1.3695073518975593,
                0.4031182288083315,
                0.9003024238044579,
                -3.2339963834335697
            ]
        },
        {
            "positions": [
                0.46339604480639734,
                -1.9741955402377094,
                1.2737739597223374,
                0.5332980557957905,
                0.8700551283837392,
                -3.246721323598985
            ]
        },
        {
            "positions": [
                0.5301676614362427,
                -2.0242407153737143,
                1.1780405675471155,
                0.6634778827832495,
                0.8398078329630205,
                -3.2594462637644
            ]
        },
        {
            "positions": [
                0.596939278066088,
                -2.074285890509719,
                1.0823071753718936,
                0.7936577097707083,
                0.8095605375423018,
                -3.2721712039298154
            ]
        },
        {
            "positions": [
                0.6637108946959334,
                -2.124331065645724,
                0.9865737831966717,
                0.9238375367581673,
                0.7793132421215833,
                -3.2848961440952307
            ]
        },
        {
            "positions": [
                0.6428043865097287,
                -2.095434158997845,
                1.1232631070217232,
                0.7654627876585098,
                0.774635486535067,
                -3.2676315856005016
            ]
        },
        {
            "positions": [
                0.6218978783235241,
                -2.0665372523499665,
                1.2599524308467749,
                0.6070880385588524,
                0.7699577309485506,
                -3.250367027105773
            ]
        },
        {
            "positions": [
                0.6009913701373195,
                -2.037640345702088,
                1.3966417546718262,
                0.4487132894591951,
                0.7652799753620343,
                -3.233102468611044
            ]
        },
        {
            "positions": [
                0.5800848619511149,
                -2.008743439054209,
                1.5333310784968779,
                0.29033854035953766,
                0.760602219775518,
                -3.2158379101163153
            ]
        },
        {
            "positions": [
                0.5591783537649102,
                -1.9798465324063301,
                1.6700204023219294,
                0.13196379125988023,
                0.7559244641890016,
                -3.198573351621586
            ]
        },
        {
            "positions": [
                0.5382718455787057,
                -1.9509496257584513,
                1.8067097261469809,
                -0.026410957839777094,
                0.7512467086024853,
                -3.1813087931268575
            ]
        },
        {
            "positions": [
                0.5173653373925009,
                -1.9220527191105725,
                1.9433990499720326,
                -0.18478570693943452,
                0.746568953015969,
                -3.1640442346321285
            ]
        },
        {
            "positions": [
                0.49645882920629636,
                -1.8931558124626937,
                2.080088373797084,
                -0.34316045603909195,
                0.7418911974294526,
                -3.1467796761374
            ]
        },
        {
            "positions": [
                0.4755523210200917,
                -1.864258905814815,
                2.2167776976221356,
                -0.5015352051387495,
                0.7372134418429364,
                -3.1295151176426708
            ]
        },
        {
            "positions": [
                0.5524109366270039,
                -1.8796658585592627,
                2.2766850108212306,
                -0.4956461595675727,
                0.7280516162299223,
                -3.128812813036721
            ]
        },
        {
            "positions": [
                0.7061281678408284,
                -1.9104797640481583,
                2.3964996372194207,
                -0.4838680684252191,
                0.7097279650038943,
                -3.1274082038248214
            ]
        }
    ]
}