{
    "goal": {
        "global_pose": {
            "orientation": {
                "w": 0.7031023502349854,
                "x": -0.7110244035720825,
                "y": 0.007748599164187908,
                "z": 0.005598929710686207
            },
            "position": {
                "x": 0.11585023208521307,
                "y": 0.44412534475326537,
                "z": 0.3711530566215515
            }
        },
        "name": "move_to_auspresseinheit_A"
    },
    "id": "BFMT_move_to_auspresseinheit_A_17",
    "joint_names": [
        "shoulder_pan_joint",
        "shoulder_lift_joint",
        "elbow_joint",
        "wrist_1_joint",
        "wrist_2_joint",
        "wrist_3_joint"
    ],
    "metrics": {
        "cart_traj_len": 1.7860297084944219,
        "distance_elbow_joint": 0.320728448933306,
        "distance_shoulder_lift_joint": 0.5361651029660854,
        "distance_shoulder_pan_joint": 3.1940153769754946,
        "distance_wrist_1_joint": 0.5548426326736462,
        "distance_wrist_2_joint": 0.5157597681312526,
        "distance_wrist_3_joint": 0.3859309323486957,
        "smoothness": 1.1906799551751608,
        "time": 0.597576203,
        "traj_len": 2.346794039115593,
        "weighted_distance": 2.7110711033705424
    },
    "planner": "BFMT",
    "start": {
        "state": {
            "elbow_joint": 2.4225746658250005,
            "shoulder_lift_joint": -1.3736534386056498,
            "shoulder_pan_joint": -0.3378633547517467,
            "wrist_1_joint": -1.0288598680537169,
            "wrist_2_joint": 1.233022673432363,
            "wrist_3_joint": -3.0940220416140027
        }
    },
    "waypoints": [
        {
            "positions": [
                -0.3378633547517467,
                -1.3736534386056498,
                2.4225746658250005,
                -1.0288598680537169,
                1.233022673432363,
                -3.0940220416140027
            ]
        },
        {
            "positions": [
                -0.49133114858527804,
                -1.4325103833672699,
                2.3977504919909935,
                -0.9941013830543426,
                1.1748114298697456,
                -3.068803032067823
            ]
        },
        {
            "positions": [
                -0.6447989424188093,
                -1.4913673281288902,
                2.372926318156986,
                -0.9593428980549683,
                1.1166001863071282,
                -3.043584022521643
            ]
        },
        {
            "positions": [
                -0.7982667362523406,
                -1.5502242728905102,
                2.3481021443229793,
                -0.924584413055594,
                1.0583889427445108,
                -3.018365012975463
            ]
        },
        {
            "positions": [
                -0.9517345300858719,
                -1.6090812176521305,
                2.3232779704889723,
                -0.8898259280562199,
                1.0001776991818934,
                -2.9931460034292834
            ]
        },
        {
            "positions": [
                -1.1052023239194033,
                -1.6679381624137506,
                2.2984537966549654,
                -0.8550674430568456,
                0.9419664556192758,
                -2.9679269938831037
            ]
        },
        {
            "positions": [
                -1.2586701177529345,
                -1.7267951071753709,
                2.273629622820958,
                -0.8203089580574713,
                0.8837552120566585,
                -2.9427079843369235
            ]
        },
        {
            "positions": [
                -1.4121379115864658,
                -1.785652051936991,
                2.248805448986951,
                -0.785550473058097,
                0.825543968494041,
                -2.9174889747907438
            ]
        },
        {
            "positions": [
                -1.147170309068869,
                -1.801172863141334,
                2.267175352998858,
                -0.7466088183483437,
                0.8120088355949246,
                -2.943663707981423
            ]
        },
        {
            "positions": [
                -0.8822027065512721,
                -1.816693674345677,
                2.2855452570107655,
                -0.7076671636385904,
                0.7984737026958084,
                -2.969838441172103
            ]
        },
        {
            "positions": [
                -0.6172351040336752,
                -1.83221448555002,
                2.3039151610226725,
                -0.6687255089288371,
                0.7849385697966921,
                -2.9960131743627825
            ]
        },
        {
            "positions": [
                -0.35226750151607833,
                -1.847735296754363,
                2.3222850650345794,
                -0.6297838542190839,
                0.7714034368975757,
                -3.0221879075534623
            ]
        },
        {
            "positions": [
                -0.08729989899848145,
                -1.8632561079587062,
                2.3406549690464864,
                -0.5908421995093305,
                0.7578683039984594,
                -3.0483626407441418
            ]
        },
        {
            "positions": [
                0.17766770351911543,
                -1.8787769191630492,
                2.3590248730583934,
                -0.5519005447995773,
                0.744333171099343,
                -3.074537373934821
            ]
        },
        {
            "positions": [
                0.4426353060367123,
                -1.8942977303673922,
                2.377394777070301,
                -0.512958890089824,
                0.7307980382002268,
                -3.100712107125501
            ]
        },
        {
            "positions": [
                0.7076029085543094,
                -1.9098185415717353,
                2.3957646810822077,
                -0.4740172353800707,
                0.7172629053011105,
                -3.1268868403161805
            ]
        }
    ]
}