{
    "goal": {
        "global_pose": {
            "orientation": {
                "w": -0.4816463035849501,
                "x": 0.5182115481033762,
                "y": 0.4908360881923453,
                "z": -0.5084816262002911
            },
            "position": {
                "x": -0.8240239810943604,
                "y": -0.300875300988555,
                "z": 0.16403168439865112
            }
        },
        "name": "move_to_storage_C"
    },
    "id": "BFMT_move_to_storage_C_107",
    "joint_names": [
        "shoulder_pan_joint",
        "shoulder_lift_joint",
        "elbow_joint",
        "wrist_1_joint",
        "wrist_2_joint",
        "wrist_3_joint"
    ],
    "metrics": {
        "cart_traj_len": 0.577258410345673,
        "distance_elbow_joint": 0.25781113815344625,
        "distance_shoulder_lift_joint": 0.18956109215880212,
        "distance_shoulder_pan_joint": 0.4957036217080564,
        "distance_wrist_1_joint": 0.07771656918228498,
        "distance_wrist_2_joint": 1.0660420813628075,
        "distance_wrist_3_joint": 0.06587512140009544,
        "smoothness": 0.0,
        "time": 0.489092156,
        "traj_len": 1.46721151302922,
        "weighted_distance": 1.8515449001606135
    },
    "planner": "BFMT",
    "start": {
        "state": {
            "elbow_joint": 2.010868314990456,
            "shoulder_lift_joint": -1.1634956873337592,
            "shoulder_pan_joint": -2.4736205022346125,
            "wrist_1_joint": -0.8367026794202681,
            "wrist_2_joint": 0.6746043897044499,
            "wrist_3_joint": -3.1496632123970403
        }
    },
    "waypoints": [
        {
            "positions": [
                -2.4736205022346125,
                -1.1634956873337592,
                2.010868314990456,
                -0.8367026794202681,
                0.6746043897044499,
                -3.1496632123970403
            ]
        },
        {
            "positions": [
                -2.5562377725192884,
                -1.1319021719739588,
                1.9678997919648815,
                -0.8237499178898873,
                0.8522780699315845,
                -3.1386840254970245
            ]
        },
        {
            "positions": [
                -2.6388550428039648,
                -1.1003086566141584,
                1.924931268939307,
                -0.8107971563595064,
                1.0299517501587192,
                -3.1277048385970083
            ]
        },
        {
            "positions": [
                -2.7214723130886407,
                -1.068715141254358,
                1.8819627459137327,
                -0.7978443948291256,
                1.2076254303858538,
                -3.1167256516969926
            ]
        },
        {
            "positions": [
                -2.8040895833733166,
                -1.0371216258945577,
                1.8389942228881584,
                -0.7848916332987448,
                1.3852991106129884,
                -3.105746464796977
            ]
        },
        {
            "positions": [
                -2.886706853657993,
                -1.0055281105347573,
                1.7960256998625839,
                -0.771938871768364,
                1.562972790840123,
                -3.0947672778969606
            ]
        },
        {
            "positions": [
                -2.969324123942669,
                -0.9739345951749571,
                1.7530571768370096,
                -0.7589861102379831,
                1.7406464710672573,
                -3.083788090996945
            ]
        }
    ]
}