{
    "goal": {
        "global_pose": {
            "orientation": {
                "w": 0.005598929693374612,
                "x": 0.007748599140229565,
                "y": 0.7110244013736278,
                "z": -0.7031023480610252
            },
            "position": {
                "x": 0.1141497679147869,
                "y": -0.7141253447532654,
                "z": 0.3711530566215515
            }
        },
        "name": "move_to_auspresseinheit_B"
    },
    "id": "BFMT_move_to_auspresseinheit_B_140",
    "joint_names": [
        "shoulder_pan_joint",
        "shoulder_lift_joint",
        "elbow_joint",
        "wrist_1_joint",
        "wrist_2_joint",
        "wrist_3_joint"
    ],
    "metrics": {
        "cart_traj_len": 0.564698203216277,
        "distance_elbow_joint": 0.06518542342419331,
        "distance_shoulder_lift_joint": 0.29466955855926247,
        "distance_shoulder_pan_joint": 0.57553234717472,
        "distance_wrist_1_joint": 0.3339732665673777,
        "distance_wrist_2_joint": 0.998967143814772,
        "distance_wrist_3_joint": 0.007009014767043187,
        "smoothness": 3.806478935924272e-16,
        "time": 0.48571695800000003,
        "traj_len": 1.5084219417349274,
        "weighted_distance": 1.9032328271190586
    },
    "planner": "BFMT",
    "start": {
        "state": {
            "elbow_joint": 2.0193083361928714,
            "shoulder_lift_joint": -1.1220246554650708,
            "shoulder_pan_joint": -1.0952077554168747,
            "wrist_1_joint": -0.8559753972642168,
            "wrist_2_joint": 0.4759566250798843,
            "wrist_3_joint": -3.1240929996934557
        }
    },
    "waypoints": [
        {
            "positions": [
                -1.0952077554168747,
                -1.1220246554650708,
                2.0193083361928714,
                -0.8559753972642168,
                0.4759566250798843,
                -3.1240929996934557
            ]
        },
        {
            "positions": [
                -1.191129813279328,
                -1.1711362485582812,
                2.008444098955506,
                -0.8003131861696539,
                0.642451149049013,
                -3.122924830565615
            ]
        },
        {
            "positions": [
                -1.2870518711417813,
                -1.2202478416514917,
                1.9975798617181404,
                -0.7446509750750909,
                0.8089456730181417,
                -3.1217566614377747
            ]
        },
        {
            "positions": [
                -1.3829739290042347,
                -1.2693594347447021,
                1.9867156244807749,
                -0.6889887639805279,
                0.9754401969872704,
                -3.120588492309934
            ]
        },
        {
            "positions": [
                -1.478895986866688,
                -1.3184710278379124,
                1.9758513872434091,
                -0.6333265528859651,
                1.141934720956399,
                -3.1194203231820934
            ]
        },
        {
            "positions": [
                -1.5748180447291413,
                -1.3675826209311228,
                1.9649871500060436,
                -0.577664341791402,
                1.3084292449255277,
                -3.118252154054253
            ]
        },
        {
            "positions": [
                -1.6707401025915947,
                -1.4166942140243333,
                1.9541229127686781,
                -0.5220021306968391,
                1.4749237688946564,
                -3.1170839849264125
            ]
        }
    ]
}