{
    "goal": {
        "global_pose": {
            "orientation": {
                "w": 0.005598929693374612,
                "x": 0.007748599140229565,
                "y": 0.7110244013736278,
                "z": -0.7031023480610252
            },
            "position": {
                "x": -0.8858502320852131,
                "y": -0.7141253447532654,
                "z": 0.3711530566215515
            }
        },
        "name": "move_to_auspresseinheit_C"
    },
    "id": "BFMT_move_to_auspresseinheit_C_118",
    "joint_names": [
        "shoulder_pan_joint",
        "shoulder_lift_joint",
        "elbow_joint",
        "wrist_1_joint",
        "wrist_2_joint",
        "wrist_3_joint"
    ],
    "metrics": {
        "cart_traj_len": 0.49215253088257954,
        "distance_elbow_joint": 0.9903632559397345,
        "distance_shoulder_lift_joint": 0.32042121446619687,
        "distance_shoulder_pan_joint": 0.25584777413864135,
        "distance_wrist_1_joint": 0.6580770739836962,
        "distance_wrist_2_joint": 1.3124277513993958,
        "distance_wrist_3_joint": 0.043790035050215614,
        "smoothness": 4.844609574787718e-16,
        "time": 0.43418521099999996,
        "traj_len": 1.8923337720861722,
        "weighted_distance": 2.374660396869709
    },
    "planner": "BFMT",
    "start": {
        "state": {
            "elbow_joint": 1.7527959577737207,
            "shoulder_lift_joint": -0.9740617694225068,
            "shoulder_pan_joint": -2.967991417825858,
            "wrist_1_joint": -0.759517768980727,
            "wrist_2_joint": 1.7443932448377408,
            "wrist_3_joint": -3.0840537646736568
        }
    },
    "waypoints": [
        {
            "positions": [
                -2.967991417825858,
                -0.9740617694225068,
                1.7527959577737207,
                -0.759517768980727,
                1.7443932448377408,
                -3.0840537646736568
            ]
        },
        {
            "positions": [
                -2.9424066404119937,
                -0.9420196479758871,
                1.6537596321797472,
                -0.6937100615823574,
                1.6131504696978012,
                -3.0884327681786785
            ]
        },
        {
            "positions": [
                -2.9168218629981295,
                -0.9099775265292674,
                1.5547233065857737,
                -0.6279023541839878,
                1.4819076945578615,
                -3.0928117716837
            ]
        },
        {
            "positions": [
                -2.8912370855842657,
                -0.8779354050826477,
                1.4556869809918003,
                -0.5620946467856182,
                1.350664919417922,
                -3.0971907751887215
            ]
        },
        {
            "positions": [
                -2.8656523081704015,
                -0.845893283636028,
                1.3566506553978268,
                -0.4962869393872485,
                1.2194221442779825,
                -3.101569778693743
            ]
        },
        {
            "positions": [
                -2.8400675307565373,
                -0.8138511621894083,
                1.2576143298038533,
                -0.4304792319888789,
                1.088179369138043,
                -3.1059487821987646
            ]
        },
        {
            "positions": [
                -2.814482753342673,
                -0.7818090407427887,
                1.1585780042098799,
                -0.3646715245905093,
                0.9569365939981034,
                -3.1103277857037863
            ]
        },
        {
            "positions": [
                -2.788897975928809,
                -0.749766919296169,
                1.0595416786159064,
                -0.29886381719213967,
                0.8256938188581638,
                -3.1147067892088076
            ]
        },
        {
            "positions": [
                -2.763313198514945,
                -0.7177247978495493,
                0.960505353021933,
                -0.23305610979377,
                0.6944510437182241,
                -3.1190857927138294
            ]
        },
        {
            "positions": [
                -2.737728421101081,
                -0.6856826764029296,
                0.8614690274279596,
                -0.1672484023954004,
                0.5632082685782847,
                -3.1234647962188506
            ]
        },
        {
            "positions": [
                -2.7121436436872166,
                -0.6536405549563099,
                0.7624327018339861,
                -0.10144069499703083,
                0.43196549343834495,
                -3.1278437997238724
            ]
        }
    ]
}