{
    "goal": {
        "global_pose": {
            "orientation": {
                "w": -0.4816463035849501,
                "x": 0.5182115481033762,
                "y": 0.4908360881923453,
                "z": -0.5084816262002911
            },
            "position": {
                "x": -0.8240239810943604,
                "y": 0.19912469901144506,
                "z": 0.16403168439865112
            }
        },
        "name": "move_to_storage_D"
    },
    "id": "BFMT_move_to_storage_D_141",
    "joint_names": [
        "shoulder_pan_joint",
        "shoulder_lift_joint",
        "elbow_joint",
        "wrist_1_joint",
        "wrist_2_joint",
        "wrist_3_joint"
    ],
    "metrics": {
        "cart_traj_len": 0.6753301737542474,
        "distance_elbow_joint": 0.5552472759862843,
        "distance_shoulder_lift_joint": 0.15160390993901807,
        "distance_shoulder_pan_joint": 0.37099535186418164,
        "distance_wrist_1_joint": 3.8220945165775535,
        "distance_wrist_2_joint": 1.7797638745952729,
        "distance_wrist_3_joint": 3.123749328855964,
        "smoothness": 0.007415392343149682,
        "time": 0.635640845,
        "traj_len": 3.1310468309845305,
        "weighted_distance": 4.653258138842399
    },
    "planner": "BFMT",
    "start": {
        "state": {
            "elbow_joint": -2.384821988534728,
            "shoulder_lift_joint": -2.2788054721415256,
            "shoulder_pan_joint": -0.1854694642142757,
            "wrist_1_joint": 1.4845938289331202,
            "wrist_2_joint": 0.17898776772866878,
            "wrist_3_joint": 0.037105688729662994
        }
    },
    "waypoints": [
        {
            "positions": [
                -0.1854694642142757,
                -2.2788054721415256,
                -2.384821988534728,
                1.4845938289331202,
                0.17898776772866878,
                0.037105688729662994
            ]
        },
        {
            "positions": [
                -0.20772960624203965,
                -2.262399340102621,
                -2.3696500129663,
                1.4004452046748472,
                0.042011740373389644,
                -0.0035740076558719025
            ]
        },
        {
            "positions": [
                -0.2299897482698036,
                -2.245993208063717,
                -2.3544780373978718,
                1.316296580416574,
                -0.09496428698188947,
                -0.044253704041406806
            ]
        },
        {
            "positions": [
                -0.24623299086607367,
                -2.232140223615911,
                -2.3387142084407335,
                1.2235600045601254,
                -0.2142302370157947,
                -0.09814844611826598
            ]
        },
        {
            "positions": [
                -0.2624762334623438,
                -2.2182872391681054,
                -2.3229503794835953,
                1.130823428703677,
                -0.3334961870496999,
                -0.15204318819512513
            ]
        },
        {
            "positions": [
                -0.27871947605861386,
                -2.2044342547202995,
                -2.307186550526457,
                1.0380868528472282,
                -0.45276213708360513,
                -0.20593793027198432
            ]
        },
        {
            "positions": [
                -0.2811436678128331,
                -2.194831096381613,
                -2.2860217700184986,
                0.8986472202316148,
                -0.5479869283331982,
                -0.31105422213018413
            ]
        },
        {
            "positions": [
                -0.2835678595670523,
                -2.1852279380429267,
                -2.2648569895105406,
                0.7592075876160014,
                -0.6432117195827913,
                -0.41617051398838395
            ]
        },
        {
            "positions": [
                -0.2859920513212716,
                -2.1756247797042403,
                -2.243692209002582,
                0.619767955000388,
                -0.7384365108323843,
                -0.5212868058465838
            ]
        },
        {
            "positions": [
                -0.2884162430754908,
                -2.1660216213655543,
                -2.2225274284946237,
                0.4803283223847745,
                -0.8336613020819774,
                -0.6264030977047836
            ]
        },
        {
            "positions": [
                -0.29084043482971006,
                -2.156418463026868,
                -2.2013626479866653,
                0.340888689769161,
                -0.9288860933315706,
                -0.7315193895629835
            ]
        },
        {
            "positions": [
                -0.29326462658392927,
                -2.1468153046881815,
                -2.1801978674787073,
                0.20144905715354766,
                -1.0241108845811635,
                -0.8366356814211833
            ]
        },
        {
            "positions": [
                -0.29568881833814853,
                -2.137212146349495,
                -2.159033086970749,
                0.062009424537934094,
                -1.1193356758307567,
                -0.9417519732793831
            ]
        },
        {
            "positions": [
                -0.27830375182212796,
                -2.1365447740730295,
                -2.1370691953425953,
                -0.09795791627422368,
                -1.15143170456648,
                -1.0847447510691777
            ]
        },
        {
            "positions": [
                -0.26091868530610735,
                -2.1358774017965634,
                -2.1151053037144414,
                -0.2579252570863815,
                -1.183527733302203,
                -1.227737528858972
            ]
        },
        {
            "positions": [
                -0.24353361879008678,
                -2.1352100295200978,
                -2.093141412086288,
                -0.4178925978985393,
                -1.2156237620379262,
                -1.3707303066487666
            ]
        },
        {
            "positions": [
                -0.2261485522740662,
                -2.1345426572436317,
                -2.071177520458134,
                -0.577859938710697,
                -1.2477197907736493,
                -1.5137230844385612
            ]
        },
        {
            "positions": [
                -0.2087634857580456,
                -2.133875284967166,
                -2.0492136288299805,
                -0.7378272795228548,
                -1.2798158195093725,
                -1.6567158622283555
            ]
        },
        {
            "positions": [
                -0.191378419242025,
                -2.1332079126907,
                -2.0272497372018266,
                -0.8977946203350127,
                -1.3119118482450955,
                -1.7997086400181501
            ]
        },
        {
            "positions": [
                -0.1739933527260044,
                -2.1325405404142344,
                -2.005285845573673,
                -1.0577619611471705,
                -1.3440078769808188,
                -1.9427014178079447
            ]
        },
        {
            "positions": [
                -0.15660828620998385,
                -2.1318731681377683,
                -1.9833219539455194,
                -1.217729301959328,
                -1.3761039057165418,
                -2.085694195597739
            ]
        },
        {
            "positions": [
                -0.13922321969396326,
                -2.1312057958613027,
                -1.9613580623173656,
                -1.3776966427714858,
                -1.408199934452265,
                -2.228686973387534
            ]
        },
        {
            "positions": [
                -0.12183815317794267,
                -2.1305384235848366,
                -1.939394170689212,
                -1.5376639835836436,
                -1.4402959631879881,
                -2.3716797511773278
            ]
        },
        {
            "positions": [
                -0.1044530866619221,
                -2.129871051308371,
                -1.9174302790610582,
                -1.6976313243958014,
                -1.4723919919237114,
                -2.5146725289671226
            ]
        },
        {
            "positions": [
                -0.08706802014590148,
                -2.129203679031905,
                -1.8954663874329047,
                -1.8575986652079595,
                -1.5044880206594344,
                -2.6576653067569174
            ]
        },
        {
            "positions": [
                -0.06968295362988089,
                -2.1285363067554393,
                -1.873502495804751,
                -2.0175660060201173,
                -1.5365840493951577,
                -2.8006580845467117
            ]
        },
        {
            "positions": [
                -0.052297887113860325,
                -2.127868934478973,
                -1.8515386041765973,
                -2.1775333468322753,
                -1.568680078130881,
                -2.943650862336506
            ]
        },
        {
            "positions": [
                -0.03491282059783973,
                -2.1272015622025076,
                -1.8295747125484436,
                -2.337500687644433,
                -1.600776106866604,
                -3.086643640126301
            ]
        }
    ]
}