{
    "goal": {
        "global_pose": {
            "orientation": {
                "w": 0.5084816217422485,
                "x": -0.49083608388900757,
                "y": 0.5182115435600281,
                "z": -0.4816462993621826
            },
            "position": {
                "x": 0.5540239810943604,
                "y": 0.030875300988554955,
                "z": 0.16403168439865112
            }
        },
        "name": "move_to_storage_A"
    },
    "id": "BFMT_move_to_storage_A_28",
    "joint_names": [
        "shoulder_pan_joint",
        "shoulder_lift_joint",
        "elbow_joint",
        "wrist_1_joint",
        "wrist_2_joint",
        "wrist_3_joint"
    ],
    "metrics": {
        "cart_traj_len": 0.3529023804151947,
        "distance_elbow_joint": 0.45274706609163373,
        "distance_shoulder_lift_joint": 0.23299388829363,
        "distance_shoulder_pan_joint": 0.4619634917014839,
        "distance_wrist_1_joint": 0.2602553698678446,
        "distance_wrist_2_joint": 1.0955798964370562,
        "distance_wrist_3_joint": 0.10594901069057272,
        "smoothness": 4.440892098500626e-16,
        "time": 0.494174087,
        "traj_len": 1.6153911981567255,
        "weighted_distance": 2.043825337637311
    },
    "planner": "BFMT",
    "start": {
        "state": {
            "elbow_joint": 1.971548259319323,
            "shoulder_lift_joint": -1.1394851275133948,
            "shoulder_pan_joint": 0.1228115487234821,
            "wrist_1_joint": -0.7804723859257726,
            "wrist_2_joint": 0.12958671773740124,
            "wrist_3_joint": -3.192489227718131
        }
    },
    "waypoints": [
        {
            "positions": [
                0.1228115487234821,
                -1.1394851275133948,
                1.971548259319323,
                -0.7804723859257726,
                0.12958671773740124,
                -3.192489227718131
            ]
        },
        {
            "positions": [
                0.05681676419469869,
                -1.1727699686981992,
                2.0362264116181277,
                -0.8176517244783218,
                0.28609813151412355,
                -3.177353654762335
            ]
        },
        {
            "positions": [
                -0.009178020334084713,
                -1.2060548098830033,
                2.1009045639169326,
                -0.8548310630308711,
                0.44260954529084584,
                -3.162218081806539
            ]
        },
        {
            "positions": [
                -0.07517280486286812,
                -1.2393396510678076,
                2.1655827162157375,
                -0.8920104015834203,
                0.5991209590675681,
                -3.147082508850743
            ]
        },
        {
            "positions": [
                -0.14116758939165153,
                -1.272624492252612,
                2.2302608685145424,
                -0.9291897401359696,
                0.7556323728442905,
                -3.1319469358949465
            ]
        },
        {
            "positions": [
                -0.20716237392043496,
                -1.3059093334374163,
                2.294939020813347,
                -0.9663690786885187,
                0.9121437866210129,
                -3.1168113629391505
            ]
        },
        {
            "positions": [
                -0.27315715844921834,
                -1.3391941746222205,
                2.359617173112152,
                -1.003548417241068,
                1.068655200397735,
                -3.1016757899833545
            ]
        },
        {
            "positions": [
                -0.3391519429780018,
                -1.3724790158070248,
                2.4242953254109567,
                -1.0407277557936172,
                1.2251666141744575,
                -3.0865402170275584
            ]
        }
    ]
}{
    "goal": {
        "global_pose": {
            "orientation": {
                "w": 0.5084816217422485,
                "x": -0.49083608388900757,
                "y": 0.5182115435600281,
                "z": -0.4816462993621826
            },
            "position": {
                "x": 0.5540239810943604,
                "y": 0.030875300988554955,
                "z": 0.16403168439865112
            }
        },
        "name": "move_to_storage_A"
    },
    "id": "BFMT_move_to_storage_A_28",
    "joint_names": [
        "shoulder_pan_joint",
        "shoulder_lift_joint",
        "elbow_joint",
        "wrist_1_joint",
        "wrist_2_joint",
        "wrist_3_joint"
    ],
    "metrics": {
        "cart_traj_len": 0.3526513357856285,
        "distance_elbow_joint": 0.4469269146843984,
        "distance_shoulder_lift_joint": 0.23451044673901467,
        "distance_shoulder_pan_joint": 0.4602558649069196,
        "distance_wrist_1_joint": 0.23514399354500393,
        "distance_wrist_2_joint": 1.101061349140725,
        "distance_wrist_3_joint": 0.10169339809638478,
        "smoothness": 1.3322676330666221e-15,
        "time": 0.513200333,
        "traj_len": 1.6061108203086256,
        "weighted_distance": 2.029577322003511
    },
    "planner": "BFMT",
    "start": {
        "state": {
            "elbow_joint": 1.97154746011099,
            "shoulder_lift_joint": -1.13948474672311,
            "shoulder_pan_joint": 0.12281154466712228,
            "wrist_1_joint": -0.7804688027058302,
            "wrist_2_joint": 0.12958655903071145,
            "wrist_3_joint": 3.0906928834467795
        }
    },
    "waypoints": [
        {
            "positions": [
                0.12281154466712228,
                -1.13948474672311,
                1.97154746011099,
                -0.7804688027058302,
                0.12958655903071145,
                3.0906928834467795
            ]
        },
        {
            "positions": [
                0.05706070682327663,
                -1.1729862391143977,
                2.0353941622087612,
                -0.8140608017836879,
                0.2868810374793864,
                3.1052205117462632
            ]
        },
        {
            "positions": [
                -0.008690131020569022,
                -1.2064877315056857,
                2.099240864306532,
                -0.8476528008615456,
                0.4441755159280615,
                3.1197481400457465
            ]
        },
        {
            "positions": [
                -0.07444096886441469,
                -1.2399892238969734,
                2.1630875664043034,
                -0.8812447999394033,
                0.6014699943767364,
                3.1342757683452303
            ]
        },
        {
            "positions": [
                -0.1401918067082603,
                -1.2734907162882612,
                2.2269342685020748,
                -0.914836799017261,
                0.7587644728254115,
                3.1488033966447135
            ]
        },
        {
            "positions": [
                -0.20594264455210598,
                -1.306992208679549,
                2.290780970599846,
                -0.9484287980951187,
                0.9160589512740865,
                3.1633310249441973
            ]
        },
        {
            "positions": [
                -0.27169348239595165,
                -1.3404937010708369,
                2.354627672697617,
                -0.9820207971729764,
                1.0733534297227614,
                3.1778586532436806
            ]
        },
        {
            "positions": [
                -0.3374443202397973,
                -1.3739951934621246,
                2.4184743747953883,
                -1.0156127962508341,
                1.2306479081714365,
                3.1923862815431643
            ]
        }
    ]
}{
    "goal": {
        "global_pose": {
            "orientation": {
                "w": 0.5084816217422485,
                "x": -0.49083608388900757,
                "y": 0.5182115435600281,
                "z": -0.4816462993621826
            },
            "position": {
                "x": 0.5540239810943604,
                "y": 0.030875300988554955,
                "z": 0.16403168439865112
            }
        },
        "name": "move_to_storage_A"
    },
    "id": "BFMT_move_to_storage_A_28",
    "joint_names": [
        "shoulder_pan_joint",
        "shoulder_lift_joint",
        "elbow_joint",
        "wrist_1_joint",
        "wrist_2_joint",
        "wrist_3_joint"
    ],
    "metrics": {
        "cart_traj_len": 0.3533800274191823,
        "distance_elbow_joint": 0.4497493896777165,
        "distance_shoulder_lift_joint": 0.236402435445779,
        "distance_shoulder_pan_joint": 0.45915749204744555,
        "distance_wrist_1_joint": 0.23591713217065813,
        "distance_wrist_2_joint": 1.1133016565073128,
        "distance_wrist_3_joint": 0.08802493311555804,
        "smoothness": 4.440892098500626e-16,
        "time": 0.485904713,
        "traj_len": 1.6070323702291966,
        "weighted_distance": 2.026776182481321
    },
    "planner": "BFMT",
    "start": {
        "state": {
            "elbow_joint": 1.9715472970024885,
            "shoulder_lift_joint": -1.1394870060712896,
            "shoulder_pan_joint": 0.12281152778156021,
            "wrist_1_joint": -0.780463741449964,
            "wrist_2_joint": 0.12958659822042276,
            "wrist_3_joint": 3.090690232415272
        }
    },
    "waypoints": [
        {
            "positions": [
                0.12281152778156021,
                -1.1394870060712896,
                1.9715472970024885,
                -0.780463741449964,
                0.12958659822042276,
                3.090690232415272
            ]
        },
        {
            "positions": [
                0.05721760034621086,
                -1.1732587825635437,
                2.035797209813591,
                -0.8141661889029151,
                0.2886296920071817,
                3.1032652228603514
            ]
        },
        {
            "positions": [
                -0.008376327089138491,
                -1.207030559055798,
                2.100047122624693,
                -0.8478686363558663,
                0.44767278579394065,
                3.1158402133054315
            ]
        },
        {
            "positions": [
                -0.07397025452448786,
                -1.240802335548052,
                2.1642970354357955,
                -0.8815710838088174,
                0.6067158795806996,
                3.128415203750511
            ]
        },
        {
            "positions": [
                -0.1395641819598372,
                -1.2745741120403062,
                2.228546948246898,
                -0.9152735312617686,
                0.7657589733674586,
                3.1409901941955907
            ]
        },
        {
            "positions": [
                -0.20515810939518656,
                -1.3083458885325603,
                2.2927968610580005,
                -0.9489759787147198,
                0.9248020671542176,
                3.1535651846406703
            ]
        },
        {
            "positions": [
                -0.27075203683053595,
                -1.3421176650248143,
                2.3570467738691026,
                -0.982678426167671,
                1.0838451609409765,
                3.1661401750857503
            ]
        },
        {
            "positions": [
                -0.3363459642658853,
                -1.3758894415170686,
                2.421296686680205,
                -1.0163808736206221,
                1.2428882547277356,
                3.17871516553083
            ]
        }
    ]
}