{
    "goal": {
        "global_pose": {
            "orientation": {
                "w": 0.7031023480610252,
                "x": -0.7110244013736278,
                "y": 0.0077485991402295624,
                "z": 0.005598929693374583
            },
            "position": {
                "x": -0.8841497679147869,
                "y": 0.44412534475326537,
                "z": 0.3711530566215515
            }
        },
        "name": "move_to_auspresseinheit_D"
    },
    "id": "BFMT_move_to_auspresseinheit_D_87",
    "joint_names": [
        "shoulder_pan_joint",
        "shoulder_lift_joint",
        "elbow_joint",
        "wrist_1_joint",
        "wrist_2_joint",
        "wrist_3_joint"
    ],
    "metrics": {
        "cart_traj_len": 0.34333392939492025,
        "distance_elbow_joint": 0.6445355203608834,
        "distance_shoulder_lift_joint": 0.12453294049167596,
        "distance_shoulder_pan_joint": 0.13319475156900787,
        "distance_wrist_1_joint": 0.5447720695977911,
        "distance_wrist_2_joint": 1.4471580723656623,
        "distance_wrist_3_joint": 0.0044284508692946645,
        "smoothness": 0.0,
        "time": 0.47125004800000003,
        "traj_len": 1.7025339365940155,
        "weighted_distance": 2.213460830680398
    },
    "planner": "BFMT",
    "start": {
        "state": {
            "elbow_joint": -1.8275523626775212,
            "shoulder_lift_joint": -2.126789852344167,
            "shoulder_pan_joint": -0.03513704404078235,
            "wrist_1_joint": -2.347782403156801,
            "wrist_2_joint": -1.6058999987535132,
            "wrist_3_joint": -3.0880379163319196
        }
    },
    "waypoints": [
        {
            "positions": [
                -0.03513704404078235,
                -2.126789852344167,
                -1.8275523626775212,
                -2.347782403156801,
                -1.6058999987535132,
                -3.0880379163319196
            ]
        },
        {
            "positions": [
                -0.051786387986908336,
                -2.1423564699056263,
                -1.7469854226324109,
                -2.4158789118565247,
                -1.4250052397078055,
                -3.0874843599732578
            ]
        },
        {
            "positions": [
                -0.06843573193303432,
                -2.157923087467086,
                -1.6664184825873003,
                -2.4839754205562485,
                -1.2441104806620977,
                -3.086930803614596
            ]
        },
        {
            "positions": [
                -0.08508507587916031,
                -2.1734897050285453,
                -1.58585154254219,
                -2.5520719292559724,
                -1.0632157216163898,
                -3.086377247255934
            ]
        },
        {
            "positions": [
                -0.10173441982528628,
                -2.189056322590005,
                -1.5052846024970794,
                -2.620168437955696,
                -0.882320962570682,
                -3.0858236908972723
            ]
        },
        {
            "positions": [
                -0.11838376377141227,
                -2.2046229401514643,
                -1.424717662451969,
                -2.6882649466554205,
                -0.7014262035249743,
                -3.0852701345386104
            ]
        },
        {
            "positions": [
                -0.13503310771753826,
                -2.220189557712924,
                -1.3441507224068587,
                -2.7563614553551443,
                -0.5205314444792664,
                -3.0847165781799486
            ]
        },
        {
            "positions": [
                -0.15168245166366423,
                -2.2357561752743833,
                -1.2635837823617484,
                -2.824457964054868,
                -0.3396366854335586,
                -3.0841630218212868
            ]
        },
        {
            "positions": [
                -0.16833179560979022,
                -2.251322792835843,
                -1.1830168423166378,
                -2.892554472754592,
                -0.15874192638785092,
                -3.083609465462625
            ]
        }
    ]
}