{
    "goal": {
        "global_pose": {
            "orientation": {
                "w": -0.00223480608172531,
                "x": 0.0024358444001904467,
                "y": 0.7094548369677653,
                "z": -0.704743149386269
            },
            "position": {
                "x": -0.37947507619857795,
                "y": -0.6371506643295288,
                "z": 0.19426114857196808
            }
        },
        "name": "move_to_magneteinheit_C"
    },
    "id": "BFMT_move_to_magneteinheit_C_62",
    "joint_names": [
        "shoulder_pan_joint",
        "shoulder_lift_joint",
        "elbow_joint",
        "wrist_1_joint",
        "wrist_2_joint",
        "wrist_3_joint"
    ],
    "metrics": {
        "cart_traj_len": 1.5393860444865946,
        "distance_elbow_joint": 1.8561523874416634,
        "distance_shoulder_lift_joint": 0.7280070303769295,
        "distance_shoulder_pan_joint": 1.906763052103423,
        "distance_wrist_1_joint": 6.073702670407077,
        "distance_wrist_2_joint": 4.457378346240991,
        "distance_wrist_3_joint": 1.7255949080724227,
        "smoothness": 0.9544636487527657,
        "time": 0.622769925,
        "traj_len": 4.092382972626403,
        "weighted_distance": 5.543452825400016
    },
    "planner": "BFMT",
    "start": {
        "state": {
            "elbow_joint": 1.9565354010623817,
            "shoulder_lift_joint": -1.4165861575791021,
            "shoulder_pan_joint": -1.6717766225146293,
            "wrist_1_joint": -0.5286633292919765,
            "wrist_2_joint": 1.472756589071564,
            "wrist_3_joint": -3.1238370188695823
        }
    },
    "waypoints": [
        {
            "positions": [
                -1.6717766225146293,
                -1.4165861575791021,
                1.9565354010623817,
                -0.5286633292919765,
                1.472756589071564,
                -3.1238370188695823
            ]
        },
        {
            "positions": [
                -1.7615162642982929,
                -1.40031934885672,
                1.98733991967731,
                -0.5809829897015258,
                1.287807213433696,
                -3.116807533541592
            ]
        },
        {
            "positions": [
                -1.8512559060819564,
                -1.3840525401343382,
                2.0181444382922384,
                -0.6333026501110751,
                1.1028578377958282,
                -3.109778048213602
            ]
        },
        {
            "positions": [
                -1.94099554786562,
                -1.3677857314119564,
                2.048948956907167,
                -0.6856223105206245,
                0.9179084621579603,
                -3.1027485628856115
            ]
        },
        {
            "positions": [
                -2.0307351896492833,
                -1.3515189226895743,
                2.079753475522095,
                -0.7379419709301738,
                0.7329590865200925,
                -3.095719077557621
            ]
        },
        {
            "positions": [
                -2.120474831432947,
                -1.3352521139671922,
                2.1105579941370234,
                -0.7902616313397233,
                0.5480097108822245,
                -3.088689592229631
            ]
        },
        {
            "positions": [
                -2.2102144732166105,
                -1.3189853052448104,
                2.141362512751952,
                -0.8425812917492725,
                0.36306033524435655,
                -3.0816601069016407
            ]
        },
        {
            "positions": [
                -2.255588400105724,
                -1.3321551525629682,
                2.1841683888222243,
                -0.6826258183458055,
                0.27841656220487754,
                -3.036423760249087
            ]
        },
        {
            "positions": [
                -2.3009623269948376,
                -1.345324999881126,
                2.226974264892496,
                -0.5226703449423384,
                0.1937727891653985,
                -2.9911874135965335
            ]
        },
        {
            "positions": [
                -2.346336253883951,
                -1.358494847199284,
                2.2697801409627685,
                -0.3627148715388714,
                0.10912901612591952,
                -2.9459510669439797
            ]
        },
        {
            "positions": [
                -2.3917101807730647,
                -1.3716646945174418,
                2.3125860170330403,
                -0.20275939813540433,
                0.024485243086440456,
                -2.9007147202914263
            ]
        },
        {
            "positions": [
                -2.4370841076621783,
                -1.3848345418355996,
                2.3553918931033127,
                -0.04280392473193717,
                -0.06015852995303855,
                -2.8554783736388725
            ]
        },
        {
            "positions": [
                -2.482458034551292,
                -1.3980043891537575,
                2.3981977691735845,
                0.11715154867152977,
                -0.1448023029925175,
                -2.810242026986319
            ]
        },
        {
            "positions": [
                -2.5278319614404055,
                -1.4111742364719153,
                2.441003645243857,
                0.27710702207499693,
                -0.22944607603199663,
                -2.7650056803337653
            ]
        },
        {
            "positions": [
                -2.573205888329519,
                -1.4243440837900732,
                2.4838095213141287,
                0.4370624954784639,
                -0.31408984907147564,
                -2.719769333681212
            ]
        },
        {
            "positions": [
                -2.6185798152186326,
                -1.437513931108231,
                2.526615397384401,
                0.597017968881931,
                -0.39873362211095464,
                -2.674532987028658
            ]
        },
        {
            "positions": [
                -2.663953742107746,
                -1.4506837784263888,
                2.5694212734546733,
                0.7569734422853982,
                -0.48337739515043365,
                -2.629296640376104
            ]
        },
        {
            "positions": [
                -2.7093276689968597,
                -1.4638536257445467,
                2.612227149524945,
                0.9169289156888654,
                -0.5680211681899128,
                -2.584060293723551
            ]
        },
        {
            "positions": [
                -2.7547015958859733,
                -1.4770234730627043,
                2.655033025595217,
                1.076884389092332,
                -0.6526649412293916,
                -2.5388239470709975
            ]
        },
        {
            "positions": [
                -2.800075522775087,
                -1.4901933203808622,
                2.6978389016654893,
                1.2368398624957992,
                -0.7373087142688707,
                -2.4935876004184436
            ]
        },
        {
            "positions": [
                -2.8454494496642004,
                -1.50336316769902,
                2.7406447777357617,
                1.3967953358992664,
                -0.8219524873083498,
                -2.44835125376589
            ]
        },
        {
            "positions": [
                -2.890823376553314,
                -1.5165330150171779,
                2.7834506538060335,
                1.5567508093027336,
                -0.9065962603478289,
                -2.403114907113336
            ]
        },
        {
            "positions": [
                -2.9361973034424276,
                -1.5297028623353357,
                2.826256529876306,
                1.7167062827062003,
                -0.9912400333873078,
                -2.3578785604607826
            ]
        },
        {
            "positions": [
                -2.981571230331541,
                -1.5428727096534935,
                2.869062405946578,
                1.8766617561096675,
                -1.0758838064267868,
                -2.312642213808229
            ]
        },
        {
            "positions": [
                -3.0269451572206547,
                -1.5560425569716514,
                2.91186828201685,
                2.036617229513135,
                -1.1605275794662657,
                -2.2674058671556754
            ]
        },
        {
            "positions": [
                -2.997913866831318,
                -1.535339981902399,
                2.8644567290438396,
                1.8850074302137994,
                -1.0645226227450466,
                -2.31315132801665
            ]
        },
        {
            "positions": [
                -2.9688825764419815,
                -1.5146374068331465,
                2.8170451760708293,
                1.7333976309144639,
                -0.9685176660238276,
                -2.358896788877624
            ]
        },
        {
            "positions": [
                -2.9398512860526447,
                -1.493934831763894,
                2.7696336230978194,
                1.5817878316151284,
                -0.8725127093026085,
                -2.404642249738599
            ]
        },
        {
            "positions": [
                -2.910819995663308,
                -1.4732322566946416,
                2.722222070124809,
                1.4301780323157929,
                -0.7765077525813895,
                -2.4503877105995735
            ]
        },
        {
            "positions": [
                -2.881788705273971,
                -1.4525296816253892,
                2.6748105171517986,
                1.2785682330164576,
                -0.6805027958601704,
                -2.496133171460548
            ]
        },
        {
            "positions": [
                -2.8527574148846346,
                -1.4318271065561365,
                2.6273989641787883,
                1.126958433717122,
                -0.5844978391389513,
                -2.5418786323215223
            ]
        },
        {
            "positions": [
                -2.823726124495298,
                -1.411124531486884,
                2.579987411205778,
                0.9753486344177866,
                -0.48849288241773225,
                -2.5876240931824968
            ]
        },
        {
            "positions": [
                -2.794694834105961,
                -1.3904219564176317,
                2.532575858232768,
                0.8237388351184511,
                -0.39248792569651314,
                -2.6333695540434716
            ]
        },
        {
            "positions": [
                -2.765663543716624,
                -1.3697193813483792,
                2.4851643052597576,
                0.6721290358191156,
                -0.296482968975294,
                -2.679115014904446
            ]
        },
        {
            "positions": [
                -2.7366322533272878,
                -1.3490168062791268,
                2.4377527522867473,
                0.5205192365197802,
                -0.20047801225407502,
                -2.7248604757654205
            ]
        },
        {
            "positions": [
                -2.707600962937951,
                -1.3283142312098744,
                2.390341199313737,
                0.36890943722044445,
                -0.10447305553285591,
                -2.770605936626395
            ]
        },
        {
            "positions": [
                -2.678569672548614,
                -1.307611656140622,
                2.3429296463407265,
                0.21729963792110918,
                -0.008468098811636793,
                -2.8163513974873693
            ]
        },
        {
            "positions": [
                -2.6495383821592773,
                -1.2869090810713693,
                2.2955180933677166,
                0.06568983862177347,
                0.08753685790958232,
                -2.862096858348344
            ]
        },
        {
            "positions": [
                -2.620507091769941,
                -1.266206506002117,
                2.2481065403947063,
                -0.08591996067756158,
                0.18354181463080121,
                -2.9078423192093186
            ]
        },
        {
            "positions": [
                -2.591475801380604,
                -1.2455039309328644,
                2.200694987421696,
                -0.2375297599768973,
                0.27954677135202055,
                -2.953587780070293
            ]
        },
        {
            "positions": [
                -2.5624445109912672,
                -1.2248013558636122,
                2.153283434448686,
                -0.38913955927623256,
                0.37555172807323944,
                -2.9993332409312674
            ]
        },
        {
            "positions": [
                -2.533413220601931,
                -1.2040987807943595,
                2.105871881475675,
                -0.5407493585755683,
                0.47155668479445856,
                -3.0450787017922423
            ]
        },
        {
            "positions": [
                -2.504381930212594,
                -1.183396205725107,
                2.0584603285026652,
                -0.6923591578749035,
                0.5675616415156777,
                -3.0908241626532167
            ]
        },
        {
            "positions": [
                -2.475350639823257,
                -1.1626936306558546,
                2.011048775529655,
                -0.8439689571742394,
                0.6635665982368968,
                -3.136569623514191
            ]
        }
    ]
}