{
    "goal": {
        "global_pose": {
            "orientation": {
                "w": 0.5084816262002911,
                "x": -0.4908360881923452,
                "y": 0.5182115481033761,
                "z": -0.48164630358495003
            },
            "position": {
                "x": 0.5540239810943604,
                "y": -0.46912469901144505,
                "z": 0.16403168439865112
            }
        },
        "name": "move_to_storage_B"
    },
    "id": "BFMT_move_to_storage_B_89",
    "joint_names": [
        "shoulder_pan_joint",
        "shoulder_lift_joint",
        "elbow_joint",
        "wrist_1_joint",
        "wrist_2_joint",
        "wrist_3_joint"
    ],
    "metrics": {
        "cart_traj_len": 1.0119929267853245,
        "distance_elbow_joint": 0.9326176914786579,
        "distance_shoulder_lift_joint": 0.6107138575092284,
        "distance_shoulder_pan_joint": 0.6102285482870399,
        "distance_wrist_1_joint": 2.9929681494005598,
        "distance_wrist_2_joint": 2.702336476094641,
        "distance_wrist_3_joint": 3.1311287166179946,
        "smoothness": 0.10321082591375698,
        "time": 0.596155123,
        "traj_len": 3.313607315206212,
        "weighted_distance": 4.789316809119993
    },
    "planner": "BFMT",
    "start": {
        "state": {
            "elbow_joint": 1.664937868594044,
            "shoulder_lift_joint": -0.661644460510453,
            "shoulder_pan_joint": -0.9139846352900073,
            "wrist_1_joint": 2.146753192139373,
            "wrist_2_joint": -2.2341966793290973,
            "wrist_3_joint": 0.005466555786416001
        }
    },
    "waypoints": [
        {
            "positions": [
                -0.9139846352900073,
                -0.661644460510453,
                1.664937868594044,
                2.146753192139373,
                -2.2341966793290973,
                0.005466555786416001
            ]
        },
        {
            "positions": [
                -0.8833633760766727,
                -0.7380368836680777,
                1.756663476370105,
                2.1409321618581334,
                -2.1343110421509373,
                -0.030966835197952396
            ]
        },
        {
            "positions": [
                -0.8527421168633381,
                -0.8144293068257026,
                1.8483890841461663,
                2.135111131576894,
                -2.0344254049727777,
                -0.06740022618232079
            ]
        },
        {
            "positions": [
                -0.8221208576500036,
                -0.8908217299833274,
                1.9401146919222274,
                2.129290101295654,
                -1.9345397677946177,
                -0.1038336171666892
            ]
        },
        {
            "positions": [
                -0.7914995984366691,
                -0.9672141531409522,
                2.0318402996982887,
                2.1234690710144144,
                -1.8346541306164579,
                -0.14026700815105758
            ]
        },
        {
            "positions": [
                -0.7608783392233345,
                -1.043606576298577,
                2.12356590747435,
                2.1176480407331746,
                -1.734768493438298,
                -0.17670039913542598
            ]
        },
        {
            "positions": [
                -0.7302570800099999,
                -1.1199989994562016,
                2.215291515250411,
                2.111827010451935,
                -1.634882856260138,
                -0.2131337901197944
            ]
        },
        {
            "positions": [
                -0.6996358207966653,
                -1.1963914226138266,
                2.307017123026472,
                2.1060059801706954,
                -1.5349972190819783,
                -0.24956718110416276
            ]
        },
        {
            "positions": [
                -0.7176303541509244,
                -1.1929383819135604,
                2.2938108304334617,
                1.9718141193783372,
                -1.4439455365434546,
                -0.38029877109177257
            ]
        },
        {
            "positions": [
                -0.7356248875051833,
                -1.1894853412132944,
                2.280604537840451,
                1.837622258585979,
                -1.3528938540049307,
                -0.5110303610793825
            ]
        },
        {
            "positions": [
                -0.7536194208594423,
                -1.1860323005130282,
                2.267398245247441,
                1.7034303977936207,
                -1.261842171466407,
                -0.6417619510669923
            ]
        },
        {
            "positions": [
                -0.7716139542137013,
                -1.182579259812762,
                2.2541919526544305,
                1.5692385370012623,
                -1.1707904889278833,
                -0.7724935410546021
            ]
        },
        {
            "positions": [
                -0.7896084875679603,
                -1.179126219112496,
                2.24098566006142,
                1.435046676208904,
                -1.0797388063893596,
                -0.9032251310422119
            ]
        },
        {
            "positions": [
                -0.8076030209222193,
                -1.1756731784122298,
                2.2277793674684094,
                1.3008548154165458,
                -0.9886871238508358,
                -1.0339567210298217
            ]
        },
        {
            "positions": [
                -0.8255975542764783,
                -1.1722201377119637,
                2.2145730748753993,
                1.1666629546241876,
                -0.897635441312312,
                -1.1646883110174315
            ]
        },
        {
            "positions": [
                -0.8435920876307372,
                -1.1687670970116977,
                2.201366782282389,
                1.0324710938318291,
                -0.8065837587737882,
                -1.2954199010050416
            ]
        },
        {
            "positions": [
                -0.8615866209849963,
                -1.1653140563114315,
                2.1881604896893783,
                0.8982792330394709,
                -0.7155320762352645,
                -1.4261514909926514
            ]
        },
        {
            "positions": [
                -0.8795811543392553,
                -1.1618610156111653,
                2.1749541970963677,
                0.7640873722471127,
                -0.6244803936967408,
                -1.5568830809802612
            ]
        },
        {
            "positions": [
                -0.8975756876935143,
                -1.158407974910899,
                2.1617479045033576,
                0.6298955114547544,
                -0.533428711158217,
                -1.687614670967871
            ]
        },
        {
            "positions": [
                -0.9155702210477732,
                -1.154954934210633,
                2.148541611910347,
                0.4957036506623962,
                -0.4423770286196933,
                -1.8183462609554808
            ]
        },
        {
            "positions": [
                -0.9335647544020322,
                -1.151501893510367,
                2.1353353193173366,
                0.36151178987003774,
                -0.3513253460811694,
                -1.9490778509430906
            ]
        },
        {
            "positions": [
                -0.9515592877562913,
                -1.1480488528101007,
                2.122129026724326,
                0.22731992907767973,
                -0.2602736635426457,
                -2.0798094409307004
            ]
        },
        {
            "positions": [
                -0.9695538211105502,
                -1.1445958121098347,
                2.1089227341313155,
                0.0931280682853215,
                -0.169221981004122,
                -2.2105410309183102
            ]
        },
        {
            "positions": [
                -0.9875483544648093,
                -1.1411427714095685,
                2.0957164415383054,
                -0.04106379250703718,
                -0.07817029846559809,
                -2.34127262090592
            ]
        },
        {
            "positions": [
                -1.0055428878190682,
                -1.1376897307093023,
                2.082510148945295,
                -0.17525565329939496,
                0.012881384072925384,
                -2.47200421089353
            ]
        },
        {
            "positions": [
                -1.0235374211733272,
                -1.1342366900090364,
                2.0693038563522843,
                -0.30944751409175364,
                0.1039330666114493,
                -2.6027358008811396
            ]
        },
        {
            "positions": [
                -1.0415319545275863,
                -1.1307836493087702,
                2.0560975637592738,
                -0.44363937488411187,
                0.194984749149973,
                -2.7334673908687495
            ]
        },
        {
            "positions": [
                -1.0595264878818451,
                -1.127330608608504,
                2.0428912711662637,
                -0.5778312356764701,
                0.2860364316884967,
                -2.8641989808563593
            ]
        },
        {
            "positions": [
                -1.0775210212361042,
                -1.123877567908238,
                2.029684978573253,
                -0.7120230964688283,
                0.3770881142270206,
                -2.994930570843969
            ]
        },
        {
            "positions": [
                -1.0955155545903632,
                -1.1204245272079718,
                2.0164786859802426,
                -0.8462149572611865,
                0.4681397967655441,
                -3.125662160831579
            ]
        }
    ]
}