{
    "goal": {
        "global_pose": {
            "orientation": {
                "w": 0.005598929693374612,
                "x": 0.007748599140229565,
                "y": 0.7110244013736278,
                "z": -0.7031023480610252
            },
            "position": {
                "x": 0.1141497679147869,
                "y": -0.7141253447532654,
                "z": 0.3711530566215515
            }
        },
        "name": "move_to_auspresseinheit_B"
    },
    "id": "BFMT_move_to_auspresseinheit_B_99",
    "joint_names": [
        "shoulder_pan_joint",
        "shoulder_lift_joint",
        "elbow_joint",
        "wrist_1_joint",
        "wrist_2_joint",
        "wrist_3_joint"
    ],
    "metrics": {
        "cart_traj_len": 0.5654738586064568,
        "distance_elbow_joint": 0.06607764656604465,
        "distance_shoulder_lift_joint": 0.2938163828778628,
        "distance_shoulder_pan_joint": 0.5792253772831342,
        "distance_wrist_1_joint": 0.3365474028872749,
        "distance_wrist_2_joint": 0.9842551489817668,
        "distance_wrist_3_joint": 0.0036824544589979524,
        "smoothness": 5.075305255429287e-16,
        "time": 0.481306008,
        "traj_len": 1.5045279701803755,
        "weighted_distance": 1.8951970540928242
    },
    "planner": "BFMT",
    "start": {
        "state": {
            "elbow_joint": 2.0193083361928714,
            "shoulder_lift_joint": -1.1220246554650708,
            "shoulder_pan_joint": -1.0952077554168747,
            "wrist_1_joint": -0.8559753972642168,
            "wrist_2_joint": 0.4759566250798843,
            "wrist_3_joint": -3.1240929996934557
        }
    },
    "waypoints": [
        {
            "positions": [
                -1.0952077554168747,
                -1.1220246554650708,
                2.0193083361928714,
                -0.8559753972642168,
                0.4759566250798843,
                -3.1240929996934557
            ]
        },
        {
            "positions": [
                -1.191745318297397,
                -1.1709940526113813,
                2.0082953950985307,
                -0.799884163449671,
                0.6399991499101787,
                -3.124706742103289
            ]
        },
        {
            "positions": [
                -1.2882828811779194,
                -1.2199634497576917,
                1.9972824540041898,
                -0.7437929296351251,
                0.8040416747404733,
                -3.1253204845131215
            ]
        },
        {
            "positions": [
                -1.3848204440584417,
                -1.2689328469040022,
                1.986269512909849,
                -0.6877016958205793,
                0.9680841995707676,
                -3.1259342269229546
            ]
        },
        {
            "positions": [
                -1.481358006938964,
                -1.3179022440503128,
                1.9752565718155084,
                -0.6316104620060335,
                1.1321267244010622,
                -3.126547969332788
            ]
        },
        {
            "positions": [
                -1.5778955698194865,
                -1.366871641196623,
                1.9642436307211675,
                -0.5755192281914876,
                1.2961692492313566,
                -3.1271617117426205
            ]
        },
        {
            "positions": [
                -1.6744331327000088,
                -1.4158410383429336,
                1.9532306896268268,
                -0.5194279943769419,
                1.4602117740616511,
                -3.1277754541524536
            ]
        }
    ]
}