{
    "goal": {
        "global_pose": {
            "orientation": {
                "w": -0.4816463035849501,
                "x": 0.5182115481033762,
                "y": 0.4908360881923453,
                "z": -0.5084816262002911
            },
            "position": {
                "x": -0.8240239810943604,
                "y": 0.19912469901144506,
                "z": 0.16403168439865112
            }
        },
        "name": "move_to_storage_D"
    },
    "id": "BFMT_move_to_storage_D_113",
    "joint_names": [
        "shoulder_pan_joint",
        "shoulder_lift_joint",
        "elbow_joint",
        "wrist_1_joint",
        "wrist_2_joint",
        "wrist_3_joint"
    ],
    "metrics": {
        "cart_traj_len": 1.356452101511005,
        "distance_elbow_joint": 0.5654895739093366,
        "distance_shoulder_lift_joint": 0.6711300951347394,
        "distance_shoulder_pan_joint": 1.7928391419769485,
        "distance_wrist_1_joint": 3.8225580074539445,
        "distance_wrist_2_joint": 1.7817471439007766,
        "distance_wrist_3_joint": 3.11830902624363,
        "smoothness": 0.19784726335215475,
        "time": 0.649439805,
        "traj_len": 3.428129663332379,
        "weighted_distance": 4.857262211623063
    },
    "planner": "BFMT",
    "start": {
        "state": {
            "elbow_joint": -2.384821988534728,
            "shoulder_lift_joint": -2.2788054721415256,
            "shoulder_pan_joint": -0.1854694642142757,
            "wrist_1_joint": 1.4845938289331202,
            "wrist_2_joint": 0.17898776772866878,
            "wrist_3_joint": 0.037105688729662994
        }
    },
    "waypoints": [
        {
            "positions": [
                -0.1854694642142757,
                -2.2788054721415256,
                -2.384821988534728,
                1.4845938289331202,
                0.17898776772866878,
                0.037105688729662994
            ]
        },
        {
            "positions": [
                -0.12543074081321498,
                -2.255282616995336,
                -2.387092843394,
                1.4514924672575606,
                0.13998252240982204,
                -0.06386585505224149
            ]
        },
        {
            "positions": [
                -0.06539201741215428,
                -2.2317597618491463,
                -2.3893636982532724,
                1.4183911055820009,
                0.10097727709097527,
                -0.16483739883414597
            ]
        },
        {
            "positions": [
                -0.01530542218857344,
                -2.210331764121219,
                -2.38029853836291,
                1.3178029136654617,
                0.03556087002242353,
                -0.30498413200659313
            ]
        },
        {
            "positions": [
                0.0347811730350074,
                -2.1889037663932913,
                -2.3712333784725472,
                1.2172147217489224,
                -0.029855537046128214,
                -0.4451308651790403
            ]
        },
        {
            "positions": [
                0.08486776825858824,
                -2.167475768665364,
                -2.362168218582185,
                1.1166265298323832,
                -0.09527194411467997,
                -0.5852775983514875
            ]
        },
        {
            "positions": [
                0.13495436348216908,
                -2.1460477709374364,
                -2.3531030586918225,
                1.016038337915844,
                -0.16068835118323171,
                -0.7254243315239346
            ]
        },
        {
            "positions": [
                0.18504095870574994,
                -2.124619773209509,
                -2.34403789880146,
                0.9154501459993046,
                -0.22610475825178344,
                -0.8655710646963818
            ]
        },
        {
            "positions": [
                0.23512755392933077,
                -2.103191775481582,
                -2.3349727389110972,
                0.8148619540827654,
                -0.29152116532033523,
                -1.005717797868829
            ]
        },
        {
            "positions": [
                0.2852141491529116,
                -2.0817637777536544,
                -2.325907579020735,
                0.7142737621662262,
                -0.3569375723888869,
                -1.145864531041276
            ]
        },
        {
            "positions": [
                0.33530074437649243,
                -2.060335780025727,
                -2.3168424191303725,
                0.613685570249687,
                -0.4223539794574387,
                -1.2860112642137234
            ]
        },
        {
            "positions": [
                0.38538733960007326,
                -2.0389077822977995,
                -2.3077772592400096,
                0.5130973783331477,
                -0.48777038652599036,
                -1.4261579973861707
            ]
        },
        {
            "positions": [
                0.43547393482365415,
                -2.017479784569872,
                -2.2987120993496473,
                0.4125091864166084,
                -0.5531867935945421,
                -1.5663047305586177
            ]
        },
        {
            "positions": [
                0.485560530047235,
                -1.9960517868419445,
                -2.289646939459285,
                0.31192099450006916,
                -0.6186032006630939,
                -1.706451463731065
            ]
        },
        {
            "positions": [
                0.5356471252708158,
                -1.974623789114017,
                -2.280581779568922,
                0.21133280258352993,
                -0.6840196077316457,
                -1.8465981969035121
            ]
        },
        {
            "positions": [
                0.5857337204943965,
                -1.9531957913860896,
                -2.2715166196785597,
                0.11074461066699093,
                -0.7494360148001973,
                -1.9867449300759592
            ]
        },
        {
            "positions": [
                0.6358203157179775,
                -1.931767793658162,
                -2.2624514597881973,
                0.010156418750451479,
                -0.8148524218687491,
                -2.126891663248406
            ]
        },
        {
            "positions": [
                0.6859069109415583,
                -1.9103397959302348,
                -2.253386299897835,
                -0.09043177316608775,
                -0.8802688289373009,
                -2.2670383964208534
            ]
        },
        {
            "positions": [
                0.7359935061651391,
                -1.8889117982023074,
                -2.244321140007472,
                -0.19101996508262697,
                -0.9456852360058526,
                -2.4071851295933007
            ]
        },
        {
            "positions": [
                0.78608010138872,
                -1.86748380047438,
                -2.2352559801171097,
                -0.2916081569991662,
                -1.0111016430744042,
                -2.547331862765748
            ]
        },
        {
            "positions": [
                0.7176393033575573,
                -1.8891345024300128,
                -2.201352634612557,
                -0.4621378254593045,
                -1.0604064541658795,
                -2.5918211523280994
            ]
        },
        {
            "positions": [
                0.6491985053263947,
                -1.9107852043856455,
                -2.1674492891080046,
                -0.6326674939194428,
                -1.1097112652573549,
                -2.6363104418904513
            ]
        },
        {
            "positions": [
                0.5807577072952319,
                -1.9324359063412784,
                -2.1335459436034525,
                -0.803197162379581,
                -1.1590160763488302,
                -2.6807997314528027
            ]
        },
        {
            "positions": [
                0.5123169092640693,
                -1.954086608296911,
                -2.0996425980989,
                -0.9737268308397193,
                -1.2083208874403055,
                -2.725289021015154
            ]
        },
        {
            "positions": [
                0.44387611123290655,
                -1.975737310252544,
                -2.0657392525943474,
                -1.1442564992998576,
                -1.2576256985317809,
                -2.769778310577506
            ]
        },
        {
            "positions": [
                0.3754353132017439,
                -1.9973880122081766,
                -2.031835907089795,
                -1.314786167759996,
                -1.306930509623256,
                -2.8142676001398574
            ]
        },
        {
            "positions": [
                0.3069945151705812,
                -2.0190387141638095,
                -1.9979325615852426,
                -1.4853158362201342,
                -1.3562353207147315,
                -2.858756889702209
            ]
        },
        {
            "positions": [
                0.23855371713941853,
                -2.0406894161194424,
                -1.9640292160806903,
                -1.6558455046802725,
                -1.4055401318062066,
                -2.9032461792645607
            ]
        },
        {
            "positions": [
                0.17011291910825588,
                -2.0623401180750753,
                -1.9301258705761377,
                -1.8263751731404108,
                -1.454844942897682,
                -2.947735468826912
            ]
        },
        {
            "positions": [
                0.10167212107709311,
                -2.083990820030708,
                -1.8962225250715852,
                -1.996904841600549,
                -1.5041497539891573,
                -2.9922247583892636
            ]
        },
        {
            "positions": [
                0.03323132304593057,
                -2.1056415219863407,
                -1.8623191795670329,
                -2.167434510060687,
                -1.5534545650806326,
                -3.0367140479516155
            ]
        },
        {
            "positions": [
                -0.03520947498523215,
                -2.1272922239419736,
                -1.8284158340624803,
                -2.3379641785208256,
                -1.602759376172108,
                -3.081203337513967
            ]
        }
    ]
}