{
    "goal": {
        "global_pose": {
            "orientation": {
                "w": 0.7047431468963623,
                "x": -0.7094548344612122,
                "y": 0.0024358443915843964,
                "z": -0.0022348060738295317
            },
            "position": {
                "x": 0.6094750761985779,
                "y": 0.3671506643295288,
                "z": 0.19426114857196808
            }
        },
        "name": "move_to_magneteinheit_A"
    },
    "id": "BFMT_move_to_magneteinheit_A_59",
    "joint_names": [
        "shoulder_pan_joint",
        "shoulder_lift_joint",
        "elbow_joint",
        "wrist_1_joint",
        "wrist_2_joint",
        "wrist_3_joint"
    ],
    "metrics": {
        "cart_traj_len": 3.690474485608399,
        "distance_elbow_joint": 3.907265854027439,
        "distance_shoulder_lift_joint": 0.46884732231780546,
        "distance_shoulder_pan_joint": 2.6205035343047283,
        "distance_wrist_1_joint": 3.4562906125791777,
        "distance_wrist_2_joint": 1.5746439633665763,
        "distance_wrist_3_joint": 0.42456354040286426,
        "smoothness": 0.028476859615337063,
        "time": 0.9804913169999999,
        "traj_len": 3.5287554218163932,
        "weighted_distance": 4.2816090998303515
    },
    "planner": "BFMT",
    "start": {
        "state": {
            "elbow_joint": -1.9196185241190666,
            "shoulder_lift_joint": -1.2443396400964142,
            "shoulder_pan_joint": 2.6996025414629847,
            "wrist_1_joint": -1.5485510000780065,
            "wrist_2_joint": -1.5709468930060704,
            "wrist_3_joint": 0.4420197071253992
        }
    },
    "waypoints": [
        {
            "positions": [
                2.6996025414629847,
                -1.2443396400964142,
                -1.9196185241190666,
                -1.5485510000780065,
                -1.5709468930060704,
                0.4420197071253992
            ]
        },
        {
            "positions": [
                2.577681371881641,
                -1.2271666578442944,
                -1.7860245374782087,
                -1.5067243176410823,
                -1.5001904850533254,
                0.43474119739835737
            ]
        },
        {
            "positions": [
                2.4557602023002976,
                -1.2099936755921745,
                -1.6524305508373507,
                -1.464897635204158,
                -1.4294340771005802,
                0.42746268767131557
            ]
        },
        {
            "positions": [
                2.333839032718954,
                -1.1928206933400547,
                -1.5188365641964925,
                -1.4230709527672338,
                -1.3586776691478353,
                0.42018417794427376
            ]
        },
        {
            "positions": [
                2.2119178631376104,
                -1.1756477110879349,
                -1.3852425775556345,
                -1.3812442703303096,
                -1.2879212611950903,
                0.41290566821723196
            ]
        },
        {
            "positions": [
                2.089996693556267,
                -1.1584747288358153,
                -1.2516485909147765,
                -1.3394175878933856,
                -1.2171648532423454,
                0.40562715849019015
            ]
        },
        {
            "positions": [
                1.9680755239749232,
                -1.1413017465836954,
                -1.1180546042739183,
                -1.2975909054564614,
                -1.1464084452896004,
                0.3983486487631484
            ]
        },
        {
            "positions": [
                1.8461543543935797,
                -1.1241287643315756,
                -0.9844606176330604,
                -1.2557642230195372,
                -1.0756520373368552,
                0.3910701390361066
            ]
        },
        {
            "positions": [
                1.724233184812236,
                -1.1069557820794558,
                -0.8508666309922024,
                -1.213937540582613,
                -1.0048956293841103,
                0.3837916293090648
            ]
        },
        {
            "positions": [
                1.6023120152308925,
                -1.089782799827336,
                -0.7172726443513442,
                -1.1721108581456887,
                -0.9341392214313653,
                0.376513119582023
            ]
        },
        {
            "positions": [
                1.480390845649549,
                -1.0726098175752161,
                -0.5836786577104862,
                -1.1302841757087645,
                -0.8633828134786203,
                0.3692346098549812
            ]
        },
        {
            "positions": [
                1.3584696760682053,
                -1.0554368353230963,
                -0.450084671069628,
                -1.0884574932718403,
                -0.7926264055258752,
                0.3619561001279394
            ]
        },
        {
            "positions": [
                1.2365485064868618,
                -1.0382638530709765,
                -0.31649068442877004,
                -1.046630810834916,
                -0.7218699975731303,
                0.3546775904008976
            ]
        },
        {
            "positions": [
                1.1146273369055182,
                -1.0210908708188566,
                -0.18289669778791184,
                -1.0048041283979918,
                -0.6511135896203852,
                0.3473990806738558
            ]
        },
        {
            "positions": [
                0.9927061673241746,
                -1.0039178885667368,
                -0.04930271114705409,
                -0.9629774459610677,
                -0.5803571816676403,
                0.340120570946814
            ]
        },
        {
            "positions": [
                0.870784997742831,
                -0.9867449063146171,
                0.08429127549380411,
                -0.9211507635241435,
                -0.5096007737148951,
                0.3328420612197722
            ]
        },
        {
            "positions": [
                0.7488638281614874,
                -0.9695719240624973,
                0.21788526213466186,
                -0.8793240810872193,
                -0.43884436576215013,
                0.3255635514927304
            ]
        },
        {
            "positions": [
                0.6269426585801439,
                -0.9523989418103774,
                0.35147924877552006,
                -0.837497398650295,
                -0.3680879578094052,
                0.3182850417656886
            ]
        },
        {
            "positions": [
                0.5050214889988003,
                -0.9352259595582577,
                0.48507323541637826,
                -0.7956707162133709,
                -0.2973315498566602,
                0.3110065320386468
            ]
        },
        {
            "positions": [
                0.3831003194174567,
                -0.9180529773061379,
                0.6186672220572365,
                -0.7538440337764467,
                -0.22657514190391503,
                0.303728022311605
            ]
        },
        {
            "positions": [
                0.2611791498361131,
                -0.9008799950540181,
                0.7522612086980942,
                -0.7120173513395225,
                -0.1558187339511703,
                0.2964495125845632
            ]
        },
        {
            "positions": [
                0.1392579802547695,
                -0.8837070128018982,
                0.8858551953389524,
                -0.6701906689025983,
                -0.085062325998425,
                0.2891710028575214
            ]
        },
        {
            "positions": [
                0.1009257441515688,
                -0.8808814329907898,
                0.9451642230050877,
                -0.6138211825231569,
                -0.05863153107856575,
                0.27704234765605096
            ]
        },
        {
            "positions": [
                0.10290999296914284,
                -0.871300604335137,
                1.03993541454175,
                -0.3845883829754907,
                -0.06429776757302674,
                0.25344360393482224
            ]
        },
        {
            "positions": [
                0.10489424178671687,
                -0.8617197756794841,
                1.1347066060784123,
                -0.15535558342782452,
                -0.06996400406748773,
                0.2298448602135935
            ]
        },
        {
            "positions": [
                0.10687849060429092,
                -0.8521389470238313,
                1.2294777976150746,
                0.07387721611984155,
                -0.07563024056194873,
                0.20624611649236477
            ]
        },
        {
            "positions": [
                0.10886273942186495,
                -0.8425581183681785,
                1.3242489891517368,
                0.30311001566750784,
                -0.08129647705640972,
                0.18264737277113602
            ]
        },
        {
            "positions": [
                0.11084698823943899,
                -0.8329772897125257,
                1.419020180688399,
                0.5323428152151738,
                -0.08696271355087071,
                0.1590486290499073
            ]
        },
        {
            "positions": [
                0.11283123705701302,
                -0.8233964610568728,
                1.5137913722250613,
                0.76157561476284,
                -0.0926289500453317,
                0.13544988532867858
            ]
        },
        {
            "positions": [
                0.11481548587458706,
                -0.81381563240122,
                1.6085625637617236,
                0.9908084143105061,
                -0.09829518653979269,
                0.11185114160744986
            ]
        },
        {
            "positions": [
                0.1167997346921611,
                -0.8042348037455672,
                1.703333755298386,
                1.2200412138581727,
                -0.10396142303425368,
                0.0882523978862211
            ]
        },
        {
            "positions": [
                0.11878398350973514,
                -0.7946539750899144,
                1.7981049468350485,
                1.4492740134058386,
                -0.10962765952871467,
                0.06465365416499236
            ]
        },
        {
            "positions": [
                0.12076823232730918,
                -0.7850731464342615,
                1.8928761383717105,
                1.6785068129535046,
                -0.11529389602317566,
                0.041054910443763665
            ]
        },
        {
            "positions": [
                0.12275248114488321,
                -0.7754923177786087,
                1.9876473299083728,
                1.907739612501171,
                -0.12096013251763665,
                0.017456166722534923
            ]
        }
    ]
}