{
    "goal": {
        "global_pose": {
            "orientation": {
                "w": -0.00223480608172531,
                "x": 0.0024358444001904467,
                "y": 0.7094548369677653,
                "z": -0.704743149386269
            },
            "position": {
                "x": -0.37947507619857795,
                "y": -0.6371506643295288,
                "z": 0.19426114857196808
            }
        },
        "name": "move_to_magneteinheit_C"
    },
    "id": "BFMT_move_to_magneteinheit_C_84",
    "joint_names": [
        "shoulder_pan_joint",
        "shoulder_lift_joint",
        "elbow_joint",
        "wrist_1_joint",
        "wrist_2_joint",
        "wrist_3_joint"
    ],
    "metrics": {
        "cart_traj_len": 0.6562224010068991,
        "distance_elbow_joint": 0.5615861887625133,
        "distance_shoulder_lift_joint": 0.2544021877673943,
        "distance_shoulder_pan_joint": 0.9839135244297832,
        "distance_wrist_1_joint": 0.3407226954577429,
        "distance_wrist_2_joint": 1.783410850932809,
        "distance_wrist_3_joint": 2.793614783959758,
        "smoothness": 1.1734705894827326,
        "time": 0.919197623,
        "traj_len": 2.5918430182613297,
        "weighted_distance": 3.798554112503871
    },
    "planner": "BFMT",
    "start": {
        "state": {
            "elbow_joint": 1.9565354010623817,
            "shoulder_lift_joint": -1.4165861575791021,
            "shoulder_pan_joint": -1.6717766225146293,
            "wrist_1_joint": -0.5286633292919765,
            "wrist_2_joint": 1.472756589071564,
            "wrist_3_joint": -3.1238370188695823
        }
    },
    "waypoints": [
        {
            "positions": [
                -1.6717766225146293,
                -1.4165861575791021,
                1.9565354010623817,
                -0.5286633292919765,
                1.472756589071564,
                -3.1238370188695823
            ]
        },
        {
            "positions": [
                -1.7529750866102727,
                -1.4139776256477896,
                1.9846190547802607,
                -0.5562632049713361,
                1.3551883279505121,
                -2.9974807868943594
            ]
        },
        {
            "positions": [
                -1.834173550705916,
                -1.411369093716477,
                2.0127027084981397,
                -0.5838630806506957,
                1.2376200668294606,
                -2.871124554919136
            ]
        },
        {
            "positions": [
                -1.9153720148015594,
                -1.4087605617851644,
                2.0407863622160183,
                -0.6114629563300553,
                1.120051805708409,
                -2.744768322943913
            ]
        },
        {
            "positions": [
                -1.996570478897203,
                -1.406152029853852,
                2.0688700159338973,
                -0.639062832009415,
                1.0024835445873572,
                -2.6184120909686897
            ]
        },
        {
            "positions": [
                -2.0777689429928463,
                -1.4035434979225392,
                2.0969536696517763,
                -0.6666627076887747,
                0.8849152834663057,
                -2.4920558589934667
            ]
        },
        {
            "positions": [
                -2.1589674070884897,
                -1.4009349659912267,
                2.1250373233696553,
                -0.6942625833681343,
                0.767347022345254,
                -2.3656996270182438
            ]
        },
        {
            "positions": [
                -2.240165871184133,
                -1.398326434059914,
                2.1531209770875344,
                -0.7218624590474939,
                0.6497787612242023,
                -2.2393433950430204
            ]
        },
        {
            "positions": [
                -2.3213643352797764,
                -1.3957179021286015,
                2.1812046308054134,
                -0.7494623347268536,
                0.5322105001031505,
                -2.1129871630677974
            ]
        },
        {
            "positions": [
                -2.4025627993754197,
                -1.393109370197289,
                2.209288284523292,
                -0.7770622104062133,
                0.41464223898209895,
                -1.9866309310925743
            ]
        },
        {
            "positions": [
                -2.483761263471063,
                -1.3905008382659763,
                2.237371938241171,
                -0.8046620860855729,
                0.2970739778610474,
                -1.8602746991173513
            ]
        },
        {
            "positions": [
                -2.5649597275667064,
                -1.3878923063346638,
                2.26545559195905,
                -0.8322619617649325,
                0.17950571673999557,
                -1.7339184671421282
            ]
        },
        {
            "positions": [
                -2.557516927450909,
                -1.3504947732351031,
                2.2264560327795984,
                -0.837762647821763,
                0.24937386114062465,
                -1.9533585427233018
            ]
        },
        {
            "positions": [
                -2.5500741273351117,
                -1.3130972401355425,
                2.187456473600147,
                -0.8432633338785936,
                0.3192420055412537,
                -2.1727986183044754
            ]
        },
        {
            "positions": [
                -2.542631327219315,
                -1.2756997070359821,
                2.1484569144206955,
                -0.8487640199354242,
                0.38911014994188275,
                -2.392238693885649
            ]
        },
        {
            "positions": [
                -2.5351885271035175,
                -1.2383021739364215,
                2.1094573552412443,
                -0.8542647059922548,
                0.4589782943425119,
                -2.6116787694668226
            ]
        },
        {
            "positions": [
                -2.52774572698772,
                -1.2009046408368609,
                2.0704577960617927,
                -0.8597653920490853,
                0.528846438743141,
                -2.831118845047996
            ]
        },
        {
            "positions": [
                -2.50098751758836,
                -1.1815443053242842,
                2.041623695077499,
                -0.8549550756987683,
                0.5992560670421887,
                -2.9843667722112137
            ]
        },
        {
            "positions": [
                -2.4742293081890003,
                -1.1621839698117078,
                2.012789594093205,
                -0.8501447593484512,
                0.6696656953412363,
                -3.137614699374432
            ]
        }
    ]
}