{
    "goal": {
        "global_pose": {
            "orientation": {
                "w": -0.4816463035849501,
                "x": 0.5182115481033762,
                "y": 0.4908360881923453,
                "z": -0.5084816262002911
            },
            "position": {
                "x": -0.8240239810943604,
                "y": 0.19912469901144506,
                "z": 0.16403168439865112
            }
        },
        "name": "move_to_storage_D"
    },
    "id": "BFMT_move_to_storage_D_79",
    "joint_names": [
        "shoulder_pan_joint",
        "shoulder_lift_joint",
        "elbow_joint",
        "wrist_1_joint",
        "wrist_2_joint",
        "wrist_3_joint"
    ],
    "metrics": {
        "cart_traj_len": 0.7592937252920963,
        "distance_elbow_joint": 0.6993253272249937,
        "distance_shoulder_lift_joint": 0.4993052852014248,
        "distance_shoulder_pan_joint": 0.8907752093398773,
        "distance_wrist_1_joint": 3.8239452423925555,
        "distance_wrist_2_joint": 1.7883735187779988,
        "distance_wrist_3_joint": 3.152146009206068,
        "smoothness": 0.13504250192415848,
        "time": 0.654327544,
        "traj_len": 3.2945212993912967,
        "weighted_distance": 4.771842555211311
    },
    "planner": "BFMT",
    "start": {
        "state": {
            "elbow_joint": -2.384821988534728,
            "shoulder_lift_joint": -2.2788054721415256,
            "shoulder_pan_joint": -0.1854694642142757,
            "wrist_1_joint": 1.4845938289331202,
            "wrist_2_joint": 0.17898776772866878,
            "wrist_3_joint": 0.037105688729662994
        }
    },
    "waypoints": [
        {
            "positions": [
                -0.1854694642142757,
                -2.2788054721415256,
                -2.384821988534728,
                1.4845938289331202,
                0.17898776772866878,
                0.037105688729662994
            ]
        },
        {
            "positions": [
                -0.15295786392423946,
                -2.258445916593683,
                -2.3893081697216116,
                1.391262069756698,
                0.10749267708722296,
                0.19231549622959607
            ]
        },
        {
            "positions": [
                -0.12044626363420322,
                -2.2380863610458412,
                -2.393794350908496,
                1.297930310580276,
                0.035997586445777136,
                0.34752530372952917
            ]
        },
        {
            "positions": [
                -0.08793466334416697,
                -2.217726805497999,
                -2.3982805320953795,
                1.204598551403854,
                -0.03549750419566869,
                0.5027351112294622
            ]
        },
        {
            "positions": [
                -0.05542306305413072,
                -2.197367249950157,
                -2.402766713282263,
                1.1112667922274317,
                -0.10699259483711451,
                0.6579449187293953
            ]
        },
        {
            "positions": [
                -0.022911462764094476,
                -2.1770076944023145,
                -2.4072528944691474,
                1.0179350330510095,
                -0.17848768547856034,
                0.8131547262293284
            ]
        },
        {
            "positions": [
                0.009600137525941771,
                -2.1566481388544725,
                -2.411739075656031,
                0.9246032738745875,
                -0.24998277612000616,
                0.9683645337292615
            ]
        },
        {
            "positions": [
                0.04211173781597802,
                -2.13628858330663,
                -2.4162252568429152,
                0.8312715146981654,
                -0.32147786676145207,
                1.1235743412291945
            ]
        },
        {
            "positions": [
                0.07462333810601426,
                -2.1159290277587877,
                -2.420711438029799,
                0.7379397555217433,
                -0.39297295740289784,
                1.2787841487291276
            ]
        },
        {
            "positions": [
                0.10713493839605051,
                -2.0955694722109457,
                -2.4251976192166826,
                0.6446079963453212,
                -0.4644680480443436,
                1.4339939562290607
            ]
        },
        {
            "positions": [
                0.13964653868608676,
                -2.0752099166631033,
                -2.429683800403567,
                0.5512762371688991,
                -0.5359631386857895,
                1.5892037637289937
            ]
        },
        {
            "positions": [
                0.172158138976123,
                -2.0548503611152613,
                -2.4341699815904505,
                0.45794447799247706,
                -0.6074582293272354,
                1.7444135712289268
            ]
        },
        {
            "positions": [
                0.20466973926615925,
                -2.034490805567419,
                -2.4386561627773347,
                0.36461271881605484,
                -0.6789533199686811,
                1.89962337872886
            ]
        },
        {
            "positions": [
                0.2371813395561955,
                -2.014131250019577,
                -2.4431423439642184,
                0.2712809596396326,
                -0.7504484106101269,
                2.0548331862287927
            ]
        },
        {
            "positions": [
                0.26969293984623177,
                -1.9937716944717345,
                -2.447628525151102,
                0.1779492004632106,
                -0.8219435012515729,
                2.210042993728726
            ]
        },
        {
            "positions": [
                0.30220454013626796,
                -1.9734121389238923,
                -2.4521147063379862,
                0.08461744128678861,
                -0.8934385918930187,
                2.3652528012286593
            ]
        },
        {
            "positions": [
                0.3347161404263042,
                -1.9530525833760501,
                -2.45660088752487,
                -0.008714317889633727,
                -0.9649336825344643,
                2.520462608728592
            ]
        },
        {
            "positions": [
                0.3062092477571275,
                -1.966402767717277,
                -2.408328085352958,
                -0.18799409447192622,
                -1.0145069185740694,
                2.5719079232829873
            ]
        },
        {
            "positions": [
                0.27770235508795077,
                -1.979752952058504,
                -2.3600552831810466,
                -0.3672738710542187,
                -1.0640801546136744,
                2.623353237837383
            ]
        },
        {
            "positions": [
                0.24919546241877405,
                -1.9931031363997307,
                -2.3117824810091347,
                -0.5465536476365112,
                -1.1136533906532795,
                2.674798552391778
            ]
        },
        {
            "positions": [
                0.22068856974959733,
                -2.006453320740958,
                -2.2635096788372233,
                -0.7258334242188037,
                -1.1632266266928846,
                2.7262438669461733
            ]
        },
        {
            "positions": [
                0.1921816770804206,
                -2.0198035050821845,
                -2.2152368766653114,
                -0.9051132008010961,
                -1.2127998627324896,
                2.777689181500569
            ]
        },
        {
            "positions": [
                0.1636747844112439,
                -2.0331536894234112,
                -2.1669640744934,
                -1.0843929773833887,
                -1.2623730987720947,
                2.829134496054964
            ]
        },
        {
            "positions": [
                0.13516789174206717,
                -2.0465038737646384,
                -2.118691272321488,
                -1.2636727539656811,
                -1.3119463348116995,
                2.880579810609359
            ]
        },
        {
            "positions": [
                0.10666099907289045,
                -2.059854058105865,
                -2.0704184701495767,
                -1.4429525305479736,
                -1.3615195708513048,
                2.9320251251637544
            ]
        },
        {
            "positions": [
                0.07815410640371373,
                -2.073204242447092,
                -2.022145667977665,
                -1.622232307130266,
                -1.4110928068909097,
                2.98347043971815
            ]
        },
        {
            "positions": [
                0.04964721373453701,
                -2.086554426788319,
                -1.9738728658057532,
                -1.8015120837125584,
                -1.4606660429305147,
                3.034915754272545
            ]
        },
        {
            "positions": [
                0.02114032106536029,
                -2.0999046111295456,
                -1.9256000636338415,
                -1.9807918602948509,
                -1.5102392789701198,
                3.0863610688269403
            ]
        },
        {
            "positions": [
                -0.00736657160381643,
                -2.1132547954707728,
                -1.8773272614619299,
                -2.1600716368771433,
                -1.5598125150097248,
                3.137806383381336
            ]
        },
        {
            "positions": [
                -0.03587346427299313,
                -2.1266049798119995,
                -1.8290544592900182,
                -2.3393514134594358,
                -1.60938575104933,
                3.189251697935731
            ]
        }
    ]
}