{
    "goal": {
        "global_pose": {
            "orientation": {
                "w": 0.5084816217422485,
                "x": -0.49083608388900757,
                "y": 0.5182115435600281,
                "z": -0.4816462993621826
            },
            "position": {
                "x": 0.5540239810943604,
                "y": 0.030875300988554955,
                "z": 0.16403168439865112
            }
        },
        "name": "move_to_storage_A"
    },
    "id": "BFMT_move_to_storage_A_84",
    "joint_names": [
        "shoulder_pan_joint",
        "shoulder_lift_joint",
        "elbow_joint",
        "wrist_1_joint",
        "wrist_2_joint",
        "wrist_3_joint"
    ],
    "metrics": {
        "cart_traj_len": 0.46730788904648907,
        "distance_elbow_joint": 0.45089043870158574,
        "distance_shoulder_lift_joint": 0.28931710512754716,
        "distance_shoulder_pan_joint": 0.7173906448462783,
        "distance_wrist_1_joint": 0.25898253114466174,
        "distance_wrist_2_joint": 1.1126053067745139,
        "distance_wrist_3_joint": 6.3745708130094565,
        "smoothness": 0.10996247783863417,
        "time": 0.644285873,
        "traj_len": 3.033769411079893,
        "weighted_distance": 4.829543073991797
    },
    "planner": "BFMT",
    "start": {
        "state": {
            "elbow_joint": 1.971548259319323,
            "shoulder_lift_joint": -1.1394851275133948,
            "shoulder_pan_joint": 0.1228115487234821,
            "wrist_1_joint": -0.7804723859257726,
            "wrist_2_joint": 0.12958671773740124,
            "wrist_3_joint": -3.192489227718131
        }
    },
    "waypoints": [
        {
            "positions": [
                0.1228115487234821,
                -1.1394851275133948,
                1.971548259319323,
                -0.7804723859257726,
                0.12958671773740124,
                -3.192489227718131
            ]
        },
        {
            "positions": [
                0.14869794784998908,
                -1.133744674352577,
                1.9900415494888355,
                -0.8313231607197453,
                0.2761143800339652,
                -3.074734624319842
            ]
        },
        {
            "positions": [
                0.17458434697649608,
                -1.1280042211917591,
                2.0085348396583482,
                -0.882173935513718,
                0.42264204233052916,
                -2.9569800209215527
            ]
        },
        {
            "positions": [
                0.20047074610300306,
                -1.122263768030941,
                2.0270281298278605,
                -0.9330247103076907,
                0.5691697046270932,
                -2.839225417523264
            ]
        },
        {
            "positions": [
                0.22635714522951006,
                -1.1165233148701232,
                2.045521419997373,
                -0.9838754851016634,
                0.7156973669236572,
                -2.7214708141249746
            ]
        },
        {
            "positions": [
                0.25224354435601704,
                -1.1107828617093054,
                2.0640147101668855,
                -1.0347262598956362,
                0.8622250292202212,
                -2.6037162107266854
            ]
        },
        {
            "positions": [
                0.22129835229213582,
                -1.1244994322000137,
                2.082879130580255,
                -1.0344773832022258,
                0.8822232921303103,
                -2.2992005372520534
            ]
        },
        {
            "positions": [
                0.1903531602282546,
                -1.138216002690722,
                2.101743550993625,
                -1.0342285065088153,
                0.9022215550403995,
                -1.994684863777421
            ]
        },
        {
            "positions": [
                0.15940796816437336,
                -1.1519325731814303,
                2.1206079714069945,
                -1.033979629815405,
                0.9222198179504886,
                -1.6901691903027891
            ]
        },
        {
            "positions": [
                0.12846277610049214,
                -1.1656491436721386,
                2.139472391820364,
                -1.0337307531219944,
                0.9422180808605778,
                -1.385653516828157
            ]
        },
        {
            "positions": [
                0.0975175840366109,
                -1.1793657141628469,
                2.158336812233734,
                -1.033481876428584,
                0.9622163437706669,
                -1.0811378433535248
            ]
        },
        {
            "positions": [
                0.06657239197272968,
                -1.1930822846535551,
                2.1772012326471035,
                -1.0332329997351735,
                0.9822146066807561,
                -0.7766221698788927
            ]
        },
        {
            "positions": [
                0.03562719990884847,
                -1.2067988551442634,
                2.196065653060473,
                -1.0329841230417631,
                1.0022128695908452,
                -0.4721064964042605
            ]
        },
        {
            "positions": [
                0.004682007844967251,
                -1.2205154256349717,
                2.214930073473843,
                -1.0327352463483528,
                1.0222111325009344,
                -0.16759082292962857
            ]
        },
        {
            "positions": [
                -0.026263184218913993,
                -1.23423199612568,
                2.2337944938872125,
                -1.0324863696549422,
                1.0422093954110236,
                0.13692485054500336
            ]
        },
        {
            "positions": [
                -0.05720837628279524,
                -1.2479485666163885,
                2.2526589143005817,
                -1.0322374929615319,
                1.0622076583211126,
                0.44144052401963574
            ]
        },
        {
            "positions": [
                -0.08815356834667648,
                -1.2616651371070968,
                2.2715233347139514,
                -1.0319886162681213,
                1.0822059212312019,
                0.7459561974942681
            ]
        },
        {
            "positions": [
                -0.11909876041055767,
                -1.2753817075978051,
                2.290387755127321,
                -1.031739739574711,
                1.102204184141291,
                1.0504718709689
            ]
        },
        {
            "positions": [
                -0.1500439524744389,
                -1.2890982780885134,
                2.3092521755406907,
                -1.0314908628813007,
                1.12220244705138,
                1.3549875444435324
            ]
        },
        {
            "positions": [
                -0.1809891445383201,
                -1.3028148485792217,
                2.3281165959540604,
                -1.03124198618789,
                1.1422007099614693,
                1.6595032179181644
            ]
        },
        {
            "positions": [
                -0.21193433660220135,
                -1.31653141906993,
                2.34698101636743,
                -1.0309931094944798,
                1.1621989728715585,
                1.9640188913927963
            ]
        },
        {
            "positions": [
                -0.24287952866608253,
                -1.3302479895606383,
                2.3658454367807997,
                -1.0307442328010692,
                1.1821972357816477,
                2.268534564867428
            ]
        },
        {
            "positions": [
                -0.2738247207299638,
                -1.3439645600513466,
                2.3847098571941694,
                -1.0304953561076589,
                1.202195498691737,
                2.573050238342061
            ]
        },
        {
            "positions": [
                -0.304769912793845,
                -1.3576811305420549,
                2.403574277607539,
                -1.0302464794142483,
                1.222193761601826,
                2.877565911816692
            ]
        },
        {
            "positions": [
                -0.33571510485772627,
                -1.3713977010327632,
                2.4224386980209087,
                -1.029997602720838,
                1.2421920245119151,
                3.182081585291325
            ]
        }
    ]
}{
    "goal": {
        "global_pose": {
            "orientation": {
                "w": 0.5084816217422485,
                "x": -0.49083608388900757,
                "y": 0.5182115435600281,
                "z": -0.4816462993621826
            },
            "position": {
                "x": 0.5540239810943604,
                "y": 0.030875300988554955,
                "z": 0.16403168439865112
            }
        },
        "name": "move_to_storage_A"
    },
    "id": "BFMT_move_to_storage_A_84",
    "joint_names": [
        "shoulder_pan_joint",
        "shoulder_lift_joint",
        "elbow_joint",
        "wrist_1_joint",
        "wrist_2_joint",
        "wrist_3_joint"
    ],
    "metrics": {
        "cart_traj_len": 0.3533181356978665,
        "distance_elbow_joint": 0.45013062374548696,
        "distance_shoulder_lift_joint": 0.234936217204895,
        "distance_shoulder_pan_joint": 0.46110322377486573,
        "distance_wrist_1_joint": 0.2455128417887571,
        "distance_wrist_2_joint": 1.1032002186499026,
        "distance_wrist_3_joint": 0.1046564278708515,
        "smoothness": 6.661338165333112e-16,
        "time": 0.5655584800000001,
        "traj_len": 1.6123087647949939,
        "weighted_distance": 2.0390109046336957
    },
    "planner": "BFMT",
    "start": {
        "state": {
            "elbow_joint": 1.97154746011099,
            "shoulder_lift_joint": -1.13948474672311,
            "shoulder_pan_joint": 0.12281154466712228,
            "wrist_1_joint": -0.7804688027058302,
            "wrist_2_joint": 0.12958655903071145,
            "wrist_3_joint": 3.0906928834467795
        }
    },
    "waypoints": [
        {
            "positions": [
                0.12281154466712228,
                -1.13948474672311,
                1.97154746011099,
                -0.7804688027058302,
                0.12958655903071145,
                3.0906928834467795
            ]
        },
        {
            "positions": [
                0.05693965555642719,
                -1.1730470634666663,
                2.0358518349317736,
                -0.8155420658185097,
                0.2871865902664118,
                3.105643801714044
            ]
        },
        {
            "positions": [
                -0.008932233554267907,
                -1.206609380210223,
                2.1001562097525577,
                -0.8506153289311893,
                0.4447866215021121,
                3.1205947199813084
            ]
        },
        {
            "positions": [
                -0.07480412266496302,
                -1.2401716969537793,
                2.1644605845733413,
                -0.885688592043869,
                0.6023866527378126,
                3.135545638248573
            ]
        },
        {
            "positions": [
                -0.14067601177565808,
                -1.2737340136973356,
                2.2287649593941254,
                -0.9207618551565485,
                0.7599866839735129,
                3.1504965565158374
            ]
        },
        {
            "positions": [
                -0.20654790088635322,
                -1.307296330440892,
                2.293069334214909,
                -0.9558351182692282,
                0.9175867152092133,
                3.165447474783102
            ]
        },
        {
            "positions": [
                -0.2724197899970483,
                -1.3408586471844486,
                2.357373709035693,
                -0.9909083813819077,
                1.0751867464449136,
                3.1803983930503663
            ]
        },
        {
            "positions": [
                -0.33829167910774344,
                -1.374420963928005,
                2.421678083856477,
                -1.0259816444945873,
                1.232786777680614,
                3.195349311317631
            ]
        }
    ]
}{
    "goal": {
        "global_pose": {
            "orientation": {
                "w": 0.5084816217422485,
                "x": -0.49083608388900757,
                "y": 0.5182115435600281,
                "z": -0.4816462993621826
            },
            "position": {
                "x": 0.5540239810943604,
                "y": 0.030875300988554955,
                "z": 0.16403168439865112
            }
        },
        "name": "move_to_storage_A"
    },
    "id": "BFMT_move_to_storage_A_84",
    "joint_names": [
        "shoulder_pan_joint",
        "shoulder_lift_joint",
        "elbow_joint",
        "wrist_1_joint",
        "wrist_2_joint",
        "wrist_3_joint"
    ],
    "metrics": {
        "cart_traj_len": 0.3535711777939262,
        "distance_elbow_joint": 0.4525887246231912,
        "distance_shoulder_lift_joint": 0.23531990428184413,
        "distance_shoulder_pan_joint": 0.4609946342829095,
        "distance_wrist_1_joint": 0.25649194938585085,
        "distance_wrist_2_joint": 1.1058863210170693,
        "distance_wrist_3_joint": 0.09687804265075961,
        "smoothness": 8.881784232165597e-16,
        "time": 0.489508301,
        "traj_len": 1.6149797448394283,
        "weighted_distance": 2.0406601706178478
    },
    "planner": "BFMT",
    "start": {
        "state": {
            "elbow_joint": 1.9715472970024885,
            "shoulder_lift_joint": -1.1394870060712896,
            "shoulder_pan_joint": 0.12281152778156021,
            "wrist_1_joint": -0.780463741449964,
            "wrist_2_joint": 0.12958659822042276,
            "wrist_3_joint": 3.090690232415272
        }
    },
    "waypoints": [
        {
            "positions": [
                0.12281152778156021,
                -1.1394870060712896,
                1.9715472970024885,
                -0.780463741449964,
                0.12958659822042276,
                3.090690232415272
            ]
        },
        {
            "positions": [
                0.0569551514554303,
                -1.1731041352544103,
                2.0362028290915157,
                -0.8171054485050856,
                0.28757035836571837,
                3.1045299527939516
            ]
        },
        {
            "positions": [
                -0.008901224870699609,
                -1.2067212644375307,
                2.1008583611805434,
                -0.8537471555602071,
                0.445554118511014,
                3.118369673172632
            ]
        },
        {
            "positions": [
                -0.07475760119682953,
                -1.2403383936206513,
                2.1655138932695706,
                -0.8903888626153287,
                0.6035378786563096,
                3.1322093935513116
            ]
        },
        {
            "positions": [
                -0.14061397752295943,
                -1.273955522803772,
                2.2301694253585977,
                -0.9270305696704502,
                0.7615216388016052,
                3.1460491139299918
            ]
        },
        {
            "positions": [
                -0.20647035384908938,
                -1.3075726519868927,
                2.2948249574476254,
                -0.9636722767255718,
                0.9195053989469009,
                3.1598888343086715
            ]
        },
        {
            "positions": [
                -0.27232673017521924,
                -1.341189781170013,
                2.3594804895366526,
                -1.0003139837806934,
                1.0774891590921964,
                3.1737285546873517
            ]
        },
        {
            "positions": [
                -0.33818310650134925,
                -1.3748069103531337,
                2.4241360216256798,
                -1.0369556908358148,
                1.235472919237492,
                3.1875682750660315
            ]
        }
    ]
}