{
    "goal": {
        "global_pose": {
            "orientation": {
                "w": -0.4816463035849501,
                "x": 0.5182115481033762,
                "y": 0.4908360881923453,
                "z": -0.5084816262002911
            },
            "position": {
                "x": -0.8240239810943604,
                "y": 0.19912469901144506,
                "z": 0.16403168439865112
            }
        },
        "name": "move_to_storage_D"
    },
    "id": "BFMT_move_to_storage_D_5",
    "joint_names": [
        "shoulder_pan_joint",
        "shoulder_lift_joint",
        "elbow_joint",
        "wrist_1_joint",
        "wrist_2_joint",
        "wrist_3_joint"
    ],
    "metrics": {
        "cart_traj_len": 3.8531202922870995,
        "distance_elbow_joint": 4.21014631338661,
        "distance_shoulder_lift_joint": 1.2649149449185524,
        "distance_shoulder_pan_joint": 2.812640497703399,
        "distance_wrist_1_joint": 2.2657301445226024,
        "distance_wrist_2_joint": 0.8748220967153887,
        "distance_wrist_3_joint": 3.1331298450990315,
        "smoothness": 5.237975293715989e-16,
        "time": 0.71999349,
        "traj_len": 3.8159381339777494,
        "weighted_distance": 4.895732404225301
    },
    "planner": "BFMT",
    "start": {
        "state": {
            "elbow_joint": -2.384821988534728,
            "shoulder_lift_joint": -2.2788054721415256,
            "shoulder_pan_joint": -0.1854694642142757,
            "wrist_1_joint": 1.4845938289331202,
            "wrist_2_joint": 0.17898776772866878,
            "wrist_3_joint": 0.037105688729662994
        }
    },
    "waypoints": [
        {
            "positions": [
                -0.1854694642142757,
                -2.2788054721415256,
                -2.384821988534728,
                1.4845938289331202,
                0.17898776772866878,
                0.037105688729662994
            ]
        },
        {
            "positions": [
                -0.04142952996932461,
                -2.2065905944201325,
                -2.3701319162296963,
                1.410082334003559,
                0.18093621582165148,
                -0.021246990627703195
            ]
        },
        {
            "positions": [
                0.10261040427562648,
                -2.134375716698739,
                -2.355441843924665,
                1.3355708390739978,
                0.18288466391463418,
                -0.07959966998506939
            ]
        },
        {
            "positions": [
                0.24665033852057763,
                -2.062160838977346,
                -2.340751771619634,
                1.2610593441444367,
                0.18483311200761687,
                -0.13795234934243558
            ]
        },
        {
            "positions": [
                0.3906902727655287,
                -1.9899459612559527,
                -2.3260616993146024,
                1.1865478492148755,
                0.18678156010059954,
                -0.19630502869980176
            ]
        },
        {
            "positions": [
                0.5347302070104799,
                -1.9177310835345591,
                -2.3113716270095708,
                1.1120363542853142,
                0.18873000819358224,
                -0.25465770805716803
            ]
        },
        {
            "positions": [
                0.678770141255431,
                -1.845516205813166,
                -2.2966815547045396,
                1.0375248593557531,
                0.19067845628656493,
                -0.31301038741453413
            ]
        },
        {
            "positions": [
                0.7396576691377339,
                -1.8195279033572225,
                -2.1678688709684013,
                0.9806916976387146,
                0.21765131279148658,
                -0.3999795676943727
            ]
        },
        {
            "positions": [
                0.8005451970200368,
                -1.793539600901279,
                -2.0390561872322635,
                0.9238585359216759,
                0.24462416929640823,
                -0.4869487479742113
            ]
        },
        {
            "positions": [
                0.8614327249023396,
                -1.7675512984453354,
                -1.9102435034961252,
                0.8670253742046373,
                0.27159702580132983,
                -0.5739179282540499
            ]
        },
        {
            "positions": [
                0.9223202527846425,
                -1.741562995989392,
                -1.7814308197599868,
                0.8101922124875987,
                0.2985698823062515,
                -0.6608871085338884
            ]
        },
        {
            "positions": [
                0.9832077806669454,
                -1.7155746935334484,
                -1.6526181360238488,
                0.7533590507705601,
                0.3255427388111731,
                -0.747856288813727
            ]
        },
        {
            "positions": [
                1.0440953085492481,
                -1.6895863910775049,
                -1.5238054522877107,
                0.6965258890535215,
                0.3525155953160948,
                -0.8348254690935656
            ]
        },
        {
            "positions": [
                1.104982836431551,
                -1.6635980886215613,
                -1.3949927685515724,
                0.639692727336483,
                0.3794884518210164,
                -0.9217946493734042
            ]
        },
        {
            "positions": [
                1.165870364313854,
                -1.6376097861656178,
                -1.2661800848154343,
                0.5828595656194443,
                0.4064613083259381,
                -1.0087638296532426
            ]
        },
        {
            "positions": [
                1.2267578921961568,
                -1.6116214837096743,
                -1.1373674010792962,
                0.5260264039024057,
                0.4334341648308597,
                -1.0957330099330813
            ]
        },
        {
            "positions": [
                1.2876454200784597,
                -1.5856331812537308,
                -1.008554717343158,
                0.46919324218536707,
                0.4604070213357814,
                -1.18270219021292
            ]
        },
        {
            "positions": [
                1.3485329479607624,
                -1.5596448787977872,
                -0.8797420336070199,
                0.4123600804683285,
                0.487379877840703,
                -1.2696713704927585
            ]
        },
        {
            "positions": [
                1.4094204758430653,
                -1.5336565763418437,
                -0.7509293498708818,
                0.35552691875128994,
                0.5143527343456247,
                -1.356640550772597
            ]
        },
        {
            "positions": [
                1.4703080037253682,
                -1.5076682738859002,
                -0.6221166661347435,
                0.2986937570342513,
                0.5413255908505463,
                -1.4436097310524354
            ]
        },
        {
            "positions": [
                1.531195531607671,
                -1.4816799714299567,
                -0.4933039823986054,
                0.2418605953172127,
                0.568298447355468,
                -1.5305789113322743
            ]
        },
        {
            "positions": [
                1.592083059489974,
                -1.4556916689740131,
                -0.3644912986624671,
                0.18502743360017404,
                0.5952713038603896,
                -1.6175480916121128
            ]
        },
        {
            "positions": [
                1.6529705873722769,
                -1.4297033665180696,
                -0.23567861492632902,
                0.12819427188313548,
                0.6222441603653113,
                -1.7045172718919512
            ]
        },
        {
            "positions": [
                1.7138581152545798,
                -1.403715064062126,
                -0.10686593119019072,
                0.07136111016609692,
                0.6492170168702329,
                -1.7914864521717897
            ]
        },
        {
            "positions": [
                1.7747456431368827,
                -1.3777267616061826,
                0.021946752545947135,
                0.014527948449058359,
                0.6761898733751546,
                -1.8784556324516286
            ]
        },
        {
            "positions": [
                1.8356331710191855,
                -1.351738459150239,
                0.15075943628208544,
                -0.042305213267980424,
                0.7031627298800762,
                -1.965424812731467
            ]
        },
        {
            "positions": [
                1.8965206989014884,
                -1.3257501566942955,
                0.27957212001822374,
                -0.09913837498501898,
                0.7301355863849979,
                -2.0523939930113055
            ]
        },
        {
            "positions": [
                1.9574082267837911,
                -1.299761854238352,
                0.4083848037543616,
                -0.15597153670205754,
                0.7571084428899195,
                -2.139363173291144
            ]
        },
        {
            "positions": [
                2.0182957546660942,
                -1.2737735517824085,
                0.5371974874904999,
                -0.2128046984190961,
                0.7840812993948412,
                -2.226332353570983
            ]
        },
        {
            "positions": [
                2.0791832825483967,
                -1.247785249326465,
                0.6660101712266382,
                -0.26963786013613467,
                0.8110541558997628,
                -2.3133015338508214
            ]
        },
        {
            "positions": [
                2.1400708104307,
                -1.2217969468705214,
                0.794822854962776,
                -0.3264710218531732,
                0.8380270124046842,
                -2.40027071413066
            ]
        },
        {
            "positions": [
                2.2009583383130025,
                -1.195808644414578,
                0.9236355386989143,
                -0.383304183570212,
                0.8649998689096059,
                -2.4872398944104983
            ]
        },
        {
            "positions": [
                2.261845866195306,
                -1.1698203419586344,
                1.0524482224350526,
                -0.44013734528725057,
                0.8919727254145275,
                -2.5742090746903368
            ]
        },
        {
            "positions": [
                2.3227333940776083,
                -1.1438320395026909,
                1.181260906171191,
                -0.49697050700428913,
                0.9189455819194492,
                -2.6611782549701757
            ]
        },
        {
            "positions": [
                2.383620921959911,
                -1.1178437370467473,
                1.3100735899073288,
                -0.5538036687213277,
                0.9459184384243708,
                -2.748147435250014
            ]
        },
        {
            "positions": [
                2.444508449842214,
                -1.0918554345908038,
                1.438886273643467,
                -0.6106368304383663,
                0.9728912949292925,
                -2.8351166155298526
            ]
        },
        {
            "positions": [
                2.505395977724517,
                -1.0658671321348603,
                1.5676989573796054,
                -0.667469992155405,
                0.9998641514342141,
                -2.9220857958096915
            ]
        },
        {
            "positions": [
                2.56628350560682,
                -1.0398788296789168,
                1.6965116411157433,
                -0.7243031538724436,
                1.0268370079391358,
                -3.00905497608953
            ]
        },
        {
            "positions": [
                2.6271710334891227,
                -1.0138905272229732,
                1.8253243248518818,
                -0.781136315589482,
                1.0538098644440574,
                -3.0960241563693685
            ]
        }
    ]
}