{
    "goal": {
        "global_pose": {
            "orientation": {
                "w": 0.5084816262002911,
                "x": -0.4908360881923452,
                "y": 0.5182115481033761,
                "z": -0.48164630358495003
            },
            "position": {
                "x": 0.5540239810943604,
                "y": -0.46912469901144505,
                "z": 0.16403168439865112
            }
        },
        "name": "move_to_storage_B"
    },
    "id": "BFMT_move_to_storage_B_98",
    "joint_names": [
        "shoulder_pan_joint",
        "shoulder_lift_joint",
        "elbow_joint",
        "wrist_1_joint",
        "wrist_2_joint",
        "wrist_3_joint"
    ],
    "metrics": {
        "cart_traj_len": 0.6722562092419292,
        "distance_elbow_joint": 0.3498301784672959,
        "distance_shoulder_lift_joint": 0.45896034090686744,
        "distance_shoulder_pan_joint": 0.3082412469282195,
        "distance_wrist_1_joint": 2.991743684081864,
        "distance_wrist_2_joint": 2.70449690881771,
        "distance_wrist_3_joint": 3.144661169341352,
        "smoothness": 0.0370062551782949,
        "time": 0.6258132909999999,
        "traj_len": 3.15561935735971,
        "weighted_distance": 4.684388589786888
    },
    "planner": "BFMT",
    "start": {
        "state": {
            "elbow_joint": 1.664937868594044,
            "shoulder_lift_joint": -0.661644460510453,
            "shoulder_pan_joint": -0.9139846352900073,
            "wrist_1_joint": 2.146753192139373,
            "wrist_2_joint": -2.2341966793290973,
            "wrist_3_joint": 0.005466555786416001
        }
    },
    "waypoints": [
        {
            "positions": [
                -0.9139846352900073,
                -0.661644460510453,
                1.664937868594044,
                2.146753192139373,
                -2.2341966793290973,
                0.005466555786416001
            ]
        },
        {
            "positions": [
                -0.8981463263294683,
                -0.6868700824065221,
                1.687338218286116,
                2.1180074806612463,
                -2.1416344454379743,
                0.1503050901734105
            ]
        },
        {
            "positions": [
                -0.8823080173689294,
                -0.7120957043025912,
                1.7097385679781882,
                2.0892617691831195,
                -2.049072211546852,
                0.29514362456040505
            ]
        },
        {
            "positions": [
                -0.8664697084083904,
                -0.7373213261986602,
                1.7321389176702606,
                2.060516057704992,
                -1.956509977655729,
                0.43998215894739956
            ]
        },
        {
            "positions": [
                -0.8506313994478515,
                -0.7625469480947293,
                1.7545392673623328,
                2.0317703462268653,
                -1.8639477437646064,
                0.584820693334394
            ]
        },
        {
            "positions": [
                -0.8617626726790362,
                -0.778822305063938,
                1.7663678482577423,
                1.90100848994644,
                -1.7578455631621872,
                0.701425558415911
            ]
        },
        {
            "positions": [
                -0.872893945910221,
                -0.7950976620331467,
                1.7781964291531516,
                1.7702466336660148,
                -1.6517433825597683,
                0.818030423497428
            ]
        },
        {
            "positions": [
                -0.8840252191414056,
                -0.8113730190023554,
                1.790025010048561,
                1.6394847773855894,
                -1.5456412019573493,
                0.934635288578945
            ]
        },
        {
            "positions": [
                -0.8951564923725903,
                -0.827648375971564,
                1.8018535909439704,
                1.5087229211051643,
                -1.4395390213549302,
                1.051240153660462
            ]
        },
        {
            "positions": [
                -0.9062877656037751,
                -0.8439237329407727,
                1.8136821718393799,
                1.377961064824739,
                -1.333436840752511,
                1.1678450187419789
            ]
        },
        {
            "positions": [
                -0.9174190388349598,
                -0.8601990899099814,
                1.8255107527347891,
                1.2471992085443135,
                -1.227334660150092,
                1.284449883823496
            ]
        },
        {
            "positions": [
                -0.9285503120661445,
                -0.8764744468791902,
                1.8373393336301986,
                1.1164373522638882,
                -1.121232479547673,
                1.401054748905013
            ]
        },
        {
            "positions": [
                -0.9396815852973293,
                -0.8927498038483989,
                1.8491679145256081,
                0.985675495983463,
                -1.015130298945254,
                1.5176596139865302
            ]
        },
        {
            "positions": [
                -0.9508128585285139,
                -0.9090251608176075,
                1.8609964954210174,
                0.8549136397030377,
                -0.9090281183428348,
                1.634264479068047
            ]
        },
        {
            "positions": [
                -0.9619441317596986,
                -0.9253005177868162,
                1.872825076316427,
                0.7241517834226125,
                -0.8029259377404159,
                1.750869344149564
            ]
        },
        {
            "positions": [
                -0.9730754049908834,
                -0.9415758747560249,
                1.8846536572118362,
                0.5933899271421872,
                -0.6968237571379967,
                1.867474209231081
            ]
        },
        {
            "positions": [
                -0.9842066782220681,
                -0.9578512317252336,
                1.8964822381072457,
                0.46262807086176205,
                -0.5907215765355778,
                1.9840790743125978
            ]
        },
        {
            "positions": [
                -0.9953379514532528,
                -0.9741265886944422,
                1.9083108190026552,
                0.33186621458133647,
                -0.4846193959331586,
                2.100683939394115
            ]
        },
        {
            "positions": [
                -1.0064692246844376,
                -0.9904019456636509,
                1.9201393998980645,
                0.20110435830091133,
                -0.37851721533073945,
                2.217288804475632
            ]
        },
        {
            "positions": [
                -1.0176004979156221,
                -1.0066773026328597,
                1.931967980793474,
                0.0703425020204862,
                -0.2724150347283205,
                2.333893669557149
            ]
        },
        {
            "positions": [
                -1.028731771146807,
                -1.0229526596020684,
                1.9437965616888833,
                -0.06041935425993916,
                -0.16631285412590135,
                2.4504985346386663
            ]
        },
        {
            "positions": [
                -1.0398630443779917,
                -1.039228016571277,
                1.9556251425842928,
                -0.19118121054036452,
                -0.060210673523482416,
                2.5671033997201826
            ]
        },
        {
            "positions": [
                -1.0509943176091763,
                -1.0555033735404857,
                1.9674537234797023,
                -0.3219430668207899,
                0.045891507078936744,
                2.6837082648017
            ]
        },
        {
            "positions": [
                -1.062125590840361,
                -1.0717787305096944,
                1.9792823043751115,
                -0.45270492310121524,
                0.1519936876813559,
                2.800313129883217
            ]
        },
        {
            "positions": [
                -1.0732568640715459,
                -1.088054087478903,
                1.991110885270521,
                -0.5834667793816402,
                0.2580958682837746,
                2.916917994964734
            ]
        },
        {
            "positions": [
                -1.0843881373027304,
                -1.1043294444481118,
                2.0029394661659303,
                -0.7142286356620655,
                0.3641980488861938,
                3.033522860046251
            ]
        },
        {
            "positions": [
                -1.0955194105339152,
                -1.1206048014173204,
                2.01476804706134,
                -0.8449904919424909,
                0.47030022948861305,
                3.150127725127768
            ]
        }
    ]
}