{
    "goal": {
        "global_pose": {
            "orientation": {
                "w": 0.5084816217422485,
                "x": -0.49083608388900757,
                "y": 0.5182115435600281,
                "z": -0.4816462993621826
            },
            "position": {
                "x": 0.5540239810943604,
                "y": 0.030875300988554955,
                "z": 0.16403168439865112
            }
        },
        "name": "move_to_storage_A"
    },
    "id": "BFMT_move_to_storage_A_107",
    "joint_names": [
        "shoulder_pan_joint",
        "shoulder_lift_joint",
        "elbow_joint",
        "wrist_1_joint",
        "wrist_2_joint",
        "wrist_3_joint"
    ],
    "metrics": {
        "cart_traj_len": 0.3528314631101213,
        "distance_elbow_joint": 0.45045113768715095,
        "distance_shoulder_lift_joint": 0.23263378817615488,
        "distance_shoulder_pan_joint": 0.4628540059757818,
        "distance_wrist_1_joint": 0.2450296303452747,
        "distance_wrist_2_joint": 1.0913844254286509,
        "distance_wrist_3_joint": 0.09983517024709876,
        "smoothness": 0.0,
        "time": 0.48658024699999997,
        "traj_len": 1.6069188398485197,
        "weighted_distance": 2.029352742656691
    },
    "planner": "BFMT",
    "start": {
        "state": {
            "elbow_joint": 1.971548259319323,
            "shoulder_lift_joint": -1.1394851275133948,
            "shoulder_pan_joint": 0.1228115487234821,
            "wrist_1_joint": -0.7804723859257726,
            "wrist_2_joint": 0.12958671773740124,
            "wrist_3_joint": -3.192489227718131
        }
    },
    "waypoints": [
        {
            "positions": [
                0.1228115487234821,
                -1.1394851275133948,
                1.971548259319323,
                -0.7804723859257726,
                0.12958671773740124,
                -3.192489227718131
            ]
        },
        {
            "positions": [
                0.05668954786979899,
                -1.172718525824274,
                2.035898421846059,
                -0.8154766188322404,
                0.2854987785129228,
                -3.178227060539974
            ]
        },
        {
            "positions": [
                -0.009432452983884121,
                -1.2059519241351533,
                2.1002485843727947,
                -0.8504808517387082,
                0.4414108392884444,
                -3.1639648933618174
            ]
        },
        {
            "positions": [
                -0.07555445383756723,
                -1.2391853224460325,
                2.1645987468995305,
                -0.8854850846451761,
                0.5973229000639659,
                -3.1497027261836603
            ]
        },
        {
            "positions": [
                -0.14167645469125034,
                -1.272418720756912,
                2.2289489094262662,
                -0.9204893175516439,
                0.7532349608394875,
                -3.1354405590055032
            ]
        },
        {
            "positions": [
                -0.20779845554493348,
                -1.3056521190677912,
                2.2932990719530024,
                -0.9554935504581117,
                0.909147021615009,
                -3.121178391827346
            ]
        },
        {
            "positions": [
                -0.27392045639861656,
                -1.3388855173786705,
                2.357649234479738,
                -0.9904977833645795,
                1.0650590823905306,
                -3.1069162246491895
            ]
        },
        {
            "positions": [
                -0.3400424572522997,
                -1.3721189156895497,
                2.421999397006474,
                -1.0255020162710473,
                1.2209711431660522,
                -3.0926540574710324
            ]
        }
    ]
}{
    "goal": {
        "global_pose": {
            "orientation": {
                "w": 0.5084816217422485,
                "x": -0.49083608388900757,
                "y": 0.5182115435600281,
                "z": -0.4816462993621826
            },
            "position": {
                "x": 0.5540239810943604,
                "y": 0.030875300988554955,
                "z": 0.16403168439865112
            }
        },
        "name": "move_to_storage_A"
    },
    "id": "BFMT_move_to_storage_A_107",
    "joint_names": [
        "shoulder_pan_joint",
        "shoulder_lift_joint",
        "elbow_joint",
        "wrist_1_joint",
        "wrist_2_joint",
        "wrist_3_joint"
    ],
    "metrics": {
        "cart_traj_len": 0.35295484125609444,
        "distance_elbow_joint": 0.4521045172193192,
        "distance_shoulder_lift_joint": 0.2347636200488421,
        "distance_shoulder_pan_joint": 0.45839001093517995,
        "distance_wrist_1_joint": 0.25610994158415634,
        "distance_wrist_2_joint": 1.1120905783534387,
        "distance_wrist_3_joint": 0.10657505990914329,
        "smoothness": 0.0,
        "time": 0.58439827,
        "traj_len": 1.618651824219798,
        "weighted_distance": 2.049727876525555
    },
    "planner": "BFMT",
    "start": {
        "state": {
            "elbow_joint": 1.97154746011099,
            "shoulder_lift_joint": -1.13948474672311,
            "shoulder_pan_joint": 0.12281154466712228,
            "wrist_1_joint": -0.7804688027058302,
            "wrist_2_joint": 0.12958655903071145,
            "wrist_3_joint": 3.0906928834467795
        }
    },
    "waypoints": [
        {
            "positions": [
                0.12281154466712228,
                -1.13948474672311,
                1.97154746011099,
                -0.7804688027058302,
                0.12958655903071145,
                3.0906928834467795
            ]
        },
        {
            "positions": [
                0.057327257390668004,
                -1.1730224067300874,
                2.0361338197137497,
                -0.8170559372178525,
                0.2884566416526313,
                3.1059178920052286
            ]
        },
        {
            "positions": [
                -0.008157029885786274,
                -1.2065600667370648,
                2.1007201793165096,
                -0.8536430717298749,
                0.4473267242745511,
                3.1211429005636777
            ]
        },
        {
            "positions": [
                -0.07364131716224055,
                -1.2400977267440423,
                2.1653065389192694,
                -0.8902302062418972,
                0.6061968068964709,
                3.136367909122127
            ]
        },
        {
            "positions": [
                -0.13912560443869482,
                -1.2736353867510197,
                2.2298928985220297,
                -0.9268173407539195,
                0.7650668895183907,
                3.1515929176805755
            ]
        },
        {
            "positions": [
                -0.2046098917151491,
                -1.3071730467579972,
                2.2944792581247895,
                -0.9634044752659419,
                0.9239369721403106,
                3.1668179262390246
            ]
        },
        {
            "positions": [
                -0.2700941789916034,
                -1.3407107067649746,
                2.3590656177275493,
                -0.9999916097779642,
                1.0828070547622304,
                3.1820429347974737
            ]
        },
        {
            "positions": [
                -0.33557846626805765,
                -1.374248366771952,
                2.423651977330309,
                -1.0365787442899865,
                1.2416771373841502,
                3.197267943355923
            ]
        }
    ]
}{
    "goal": {
        "global_pose": {
            "orientation": {
                "w": 0.5084816217422485,
                "x": -0.49083608388900757,
                "y": 0.5182115435600281,
                "z": -0.4816462993621826
            },
            "position": {
                "x": 0.5540239810943604,
                "y": 0.030875300988554955,
                "z": 0.16403168439865112
            }
        },
        "name": "move_to_storage_A"
    },
    "id": "BFMT_move_to_storage_A_107",
    "joint_names": [
        "shoulder_pan_joint",
        "shoulder_lift_joint",
        "elbow_joint",
        "wrist_1_joint",
        "wrist_2_joint",
        "wrist_3_joint"
    ],
    "metrics": {
        "cart_traj_len": 0.3537779606933017,
        "distance_elbow_joint": 0.44850397273711495,
        "distance_shoulder_lift_joint": 0.23555428399813438,
        "distance_shoulder_pan_joint": 0.4644427649726816,
        "distance_wrist_1_joint": 0.2354091429225993,
        "distance_wrist_2_joint": 1.0925957984837749,
        "distance_wrist_3_joint": 0.086953435542378,
        "smoothness": 2.2204460668324854e-16,
        "time": 0.536303243,
        "traj_len": 1.6010806971095126,
        "weighted_distance": 2.0162765710952986
    },
    "planner": "BFMT",
    "start": {
        "state": {
            "elbow_joint": 1.9715472970024885,
            "shoulder_lift_joint": -1.1394870060712896,
            "shoulder_pan_joint": 0.12281152778156021,
            "wrist_1_joint": -0.780463741449964,
            "wrist_2_joint": 0.12958659822042276,
            "wrist_3_joint": 3.090690232415272
        }
    },
    "waypoints": [
        {
            "positions": [
                0.12281152778156021,
                -1.1394870060712896,
                1.9715472970024885,
                -0.780463741449964,
                0.12958659822042276,
                3.090690232415272
            ]
        },
        {
            "positions": [
                0.056462561356891414,
                -1.1731376180710231,
                2.0356192931077906,
                -0.8140936190103353,
                0.2856717122895335,
                3.1031121517784688
            ]
        },
        {
            "positions": [
                -0.009886405067777382,
                -1.2067882300707566,
                2.099691289213093,
                -0.8477234965707067,
                0.4417568263586441,
                3.1155340711416657
            ]
        },
        {
            "positions": [
                -0.07623537149244616,
                -1.2404388420704902,
                2.163763285318395,
                -0.881353374131078,
                0.5978419404277548,
                3.1279559905048626
            ]
        },
        {
            "positions": [
                -0.14258433791711497,
                -1.2740894540702234,
                2.227835281423697,
                -0.9149832516914493,
                0.7539270544968655,
                3.140377909868059
            ]
        },
        {
            "positions": [
                -0.20893330434178378,
                -1.307740066069957,
                2.291907277528999,
                -0.9486131292518206,
                0.9100121685659762,
                3.152799829231256
            ]
        },
        {
            "positions": [
                -0.2752822707664525,
                -1.3413906780696905,
                2.3559792736343015,
                -0.9822430068121919,
                1.066097282635087,
                3.165221748594453
            ]
        },
        {
            "positions": [
                -0.3416312371911214,
                -1.375041290069424,
                2.4200512697396035,
                -1.0158728843725633,
                1.2221823967041976,
                3.17764366795765
            ]
        }
    ]
}