{
    "goal": {
        "global_pose": {
            "orientation": {
                "w": 0.7031023480610252,
                "x": -0.7110244013736278,
                "y": 0.0077485991402295624,
                "z": 0.005598929693374583
            },
            "position": {
                "x": -0.8841497679147869,
                "y": 0.44412534475326537,
                "z": 0.3711530566215515
            }
        },
        "name": "move_to_auspresseinheit_D"
    },
    "id": "BFMT_move_to_auspresseinheit_D_99",
    "joint_names": [
        "shoulder_pan_joint",
        "shoulder_lift_joint",
        "elbow_joint",
        "wrist_1_joint",
        "wrist_2_joint",
        "wrist_3_joint"
    ],
    "metrics": {
        "cart_traj_len": 0.3425044173477739,
        "distance_elbow_joint": 0.6334670534711275,
        "distance_shoulder_lift_joint": 0.11840367148959441,
        "distance_shoulder_pan_joint": 0.1331876300775371,
        "distance_wrist_1_joint": 0.5184584108351729,
        "distance_wrist_2_joint": 1.4358436686182812,
        "distance_wrist_3_joint": 0.0054518621010437585,
        "smoothness": 9.868649154664964e-16,
        "time": 0.476713534,
        "traj_len": 1.6866571366441836,
        "weighted_distance": 2.1931753464436667
    },
    "planner": "BFMT",
    "start": {
        "state": {
            "elbow_joint": -1.8275523626775212,
            "shoulder_lift_joint": -2.126789852344167,
            "shoulder_pan_joint": -0.03513704404078235,
            "wrist_1_joint": -2.347782403156801,
            "wrist_2_joint": -1.6058999987535132,
            "wrist_3_joint": -3.0880379163319196
        }
    },
    "waypoints": [
        {
            "positions": [
                -0.03513704404078235,
                -2.126789852344167,
                -1.8275523626775212,
                -2.347782403156801,
                -1.6058999987535132,
                -3.0880379163319196
            ]
        },
        {
            "positions": [
                -0.051785497800474485,
                -2.1415903112803663,
                -1.7483689809936303,
                -2.4125897045111975,
                -1.426419540176228,
                -3.08871939909455
            ]
        },
        {
            "positions": [
                -0.06843395156016663,
                -2.1563907702165652,
                -1.6691855993097393,
                -2.477397005865594,
                -1.246939081598943,
                -3.0894008818571805
            ]
        },
        {
            "positions": [
                -0.08508240531985875,
                -2.1711912291527646,
                -1.5900022176258484,
                -2.5422043072199907,
                -1.0674586230216576,
                -3.090082364619811
            ]
        },
        {
            "positions": [
                -0.1017308590795509,
                -2.185991688088964,
                -1.5108188359419574,
                -2.6070116085743873,
                -0.8879781644443726,
                -3.0907638473824415
            ]
        },
        {
            "positions": [
                -0.11837931283924302,
                -2.2007921470251635,
                -1.4316354542580665,
                -2.671818909928784,
                -0.7084977058670875,
                -3.091445330145072
            ]
        },
        {
            "positions": [
                -0.13502776659893517,
                -2.215592605961363,
                -1.3524520725741755,
                -2.7366262112831805,
                -0.5290172472898023,
                -3.0921268129077024
            ]
        },
        {
            "positions": [
                -0.1516762203586273,
                -2.230393064897562,
                -1.2732686908902846,
                -2.801433512637577,
                -0.34953678871251714,
                -3.092808295670333
            ]
        },
        {
            "positions": [
                -0.16832467411831945,
                -2.2451935238337613,
                -1.1940853092063937,
                -2.8662408139919737,
                -0.17005633013523197,
                -3.0934897784329634
            ]
        }
    ]
}