{
    "goal": {
        "global_pose": {
            "orientation": {
                "w": 0.7031023480610252,
                "x": -0.7110244013736278,
                "y": 0.0077485991402295624,
                "z": 0.005598929693374583
            },
            "position": {
                "x": -0.8841497679147869,
                "y": 0.44412534475326537,
                "z": 0.3711530566215515
            }
        },
        "name": "move_to_auspresseinheit_D"
    },
    "id": "BFMT_move_to_auspresseinheit_D_46",
    "joint_names": [
        "shoulder_pan_joint",
        "shoulder_lift_joint",
        "elbow_joint",
        "wrist_1_joint",
        "wrist_2_joint",
        "wrist_3_joint"
    ],
    "metrics": {
        "cart_traj_len": 0.34474700824146387,
        "distance_elbow_joint": 0.6619602329590069,
        "distance_shoulder_lift_joint": 0.13425982730422925,
        "distance_shoulder_pan_joint": 0.13433057899560236,
        "distance_wrist_1_joint": 0.6042427364911087,
        "distance_wrist_2_joint": 1.4354098126369386,
        "distance_wrist_3_joint": 0.06520655616451432,
        "smoothness": 5.921189511553294e-16,
        "time": 0.448365431,
        "traj_len": 1.7422427341077937,
        "weighted_distance": 2.2815510965149293
    },
    "planner": "BFMT",
    "start": {
        "state": {
            "elbow_joint": -1.8275523626775212,
            "shoulder_lift_joint": -2.126789852344167,
            "shoulder_pan_joint": -0.03513704404078235,
            "wrist_1_joint": -2.347782403156801,
            "wrist_2_joint": -1.6058999987535132,
            "wrist_3_joint": -3.0880379163319196
        }
    },
    "waypoints": [
        {
            "positions": [
                -0.03513704404078235,
                -2.126789852344167,
                -1.8275523626775212,
                -2.347782403156801,
                -1.6058999987535132,
                -3.0880379163319196
            ]
        },
        {
            "positions": [
                -0.051928366415232644,
                -2.1435723307571957,
                -1.7448073335576453,
                -2.4233127452181895,
                -1.4264737721738958,
                -3.079887096811355
            ]
        },
        {
            "positions": [
                -0.06871968878968293,
                -2.160354809170224,
                -1.6620623044377694,
                -2.498843087279578,
                -1.2470475455942784,
                -3.071736277290791
            ]
        },
        {
            "positions": [
                -0.08551101116413323,
                -2.177137287583253,
                -1.5793172753178937,
                -2.574373429340967,
                -1.0676213190146613,
                -3.063585457770227
            ]
        },
        {
            "positions": [
                -0.10230233353858353,
                -2.1939197659962817,
                -1.4965722461980178,
                -2.6499037714023554,
                -0.8881950924350439,
                -3.0554346382496624
            ]
        },
        {
            "positions": [
                -0.11909365591303384,
                -2.21070224440931,
                -1.4138272170781419,
                -2.7254341134637436,
                -0.7087688658554265,
                -3.047283818729098
            ]
        },
        {
            "positions": [
                -0.1358849782874841,
                -2.227484722822339,
                -1.3310821879582662,
                -2.8009644555251323,
                -0.5293426392758094,
                -3.039132999208534
            ]
        },
        {
            "positions": [
                -0.1526763006619344,
                -2.2442672012353673,
                -1.2483371588383902,
                -2.876494797586521,
                -0.349916412696192,
                -3.0309821796879697
            ]
        },
        {
            "positions": [
                -0.1694676230363847,
                -2.261049679648396,
                -1.1655921297185143,
                -2.9520251396479096,
                -0.17049018611657457,
                -3.0228313601674053
            ]
        }
    ]
}