{
    "goal": {
        "global_pose": {
            "orientation": {
                "w": 0.7047431468963623,
                "x": -0.7094548344612122,
                "y": 0.0024358443915843964,
                "z": -0.0022348060738295317
            },
            "position": {
                "x": 0.6094750761985779,
                "y": 0.3671506643295288,
                "z": 0.19426114857196808
            }
        },
        "name": "move_to_magneteinheit_A"
    },
    "id": "BFMT_move_to_magneteinheit_A_50",
    "joint_names": [
        "shoulder_pan_joint",
        "shoulder_lift_joint",
        "elbow_joint",
        "wrist_1_joint",
        "wrist_2_joint",
        "wrist_3_joint"
    ],
    "metrics": {
        "cart_traj_len": 3.406426102327061,
        "distance_elbow_joint": 4.08308204562711,
        "distance_shoulder_lift_joint": 1.5124330531171308,
        "distance_shoulder_pan_joint": 3.243175181610774,
        "distance_wrist_1_joint": 3.5729985003550846,
        "distance_wrist_2_joint": 1.528639341664901,
        "distance_wrist_3_joint": 1.1660631337694558,
        "smoothness": 0.3376997856963792,
        "time": 1.0937877219999999,
        "traj_len": 3.8866941294813087,
        "weighted_distance": 4.74764735060465
    },
    "planner": "BFMT",
    "start": {
        "state": {
            "elbow_joint": -1.9196185241190666,
            "shoulder_lift_joint": -1.2443396400964142,
            "shoulder_pan_joint": 2.6996025414629847,
            "wrist_1_joint": -1.5485510000780065,
            "wrist_2_joint": -1.5709468930060704,
            "wrist_3_joint": 0.4420197071253992
        }
    },
    "waypoints": [
        {
            "positions": [
                2.6996025414629847,
                -1.2443396400964142,
                -1.9196185241190666,
                -1.5485510000780065,
                -1.5709468930060704,
                0.4420197071253992
            ]
        },
        {
            "positions": [
                2.591824511320681,
                -1.2206060076974499,
                -1.8352709058395398,
                -1.4561368717478433,
                -1.5229954161920602,
                0.41481589897135085
            ]
        },
        {
            "positions": [
                2.484046481178377,
                -1.1968723752984856,
                -1.7509232875600127,
                -1.36372274341768,
                -1.4750439393780501,
                0.3876120908173025
            ]
        },
        {
            "positions": [
                2.376268451036073,
                -1.1731387428995212,
                -1.6665756692804856,
                -1.2713086150875168,
                -1.4270924625640398,
                0.3604082826632542
            ]
        },
        {
            "positions": [
                2.268490420893769,
                -1.149405110500557,
                -1.5822280510009588,
                -1.1788944867573534,
                -1.3791409857500296,
                0.3332044745092059
            ]
        },
        {
            "positions": [
                2.160712390751465,
                -1.1256714781015926,
                -1.497880432721432,
                -1.0864803584271903,
                -1.3311895089360195,
                0.30600066635515755
            ]
        },
        {
            "positions": [
                2.0529343606091617,
                -1.1019378457026283,
                -1.4135328144419048,
                -0.994066230097027,
                -1.2832380321220094,
                0.2787968582011092
            ]
        },
        {
            "positions": [
                1.9451563304668575,
                -1.078204213303664,
                -1.3291851961623777,
                -0.9016521017668637,
                -1.235286555307999,
                0.2515930500470609
            ]
        },
        {
            "positions": [
                1.8373783003245538,
                -1.0544705809046997,
                -1.2448375778828509,
                -0.8092379734367005,
                -1.187335078493989,
                0.22438924189301263
            ]
        },
        {
            "positions": [
                1.72960027018225,
                -1.0307369485057354,
                -1.1604899596033238,
                -0.7168238451065372,
                -1.1393836016799788,
                0.19718543373896427
            ]
        },
        {
            "positions": [
                1.621822240039946,
                -1.007003316106771,
                -1.076142341323797,
                -0.624409716776374,
                -1.0914321248659686,
                0.16998162558491597
            ]
        },
        {
            "positions": [
                1.514044209897642,
                -0.9832696837078068,
                -0.9917947230442699,
                -0.5319955884462106,
                -1.0434806480519585,
                0.14277781743086765
            ]
        },
        {
            "positions": [
                1.4062661797553382,
                -0.9595360513088425,
                -0.907447104764743,
                -0.4395814601160475,
                -0.9955291712379483,
                0.11557400927681932
            ]
        },
        {
            "positions": [
                1.2984881496130345,
                -0.9358024189098781,
                -0.8230994864852161,
                -0.3471673317858843,
                -0.9475776944239381,
                0.08837020112277105
            ]
        },
        {
            "positions": [
                1.1907101194707304,
                -0.9120687865109137,
                -0.7387518682056888,
                -0.25475320345572094,
                -0.8996262176099279,
                0.06116639296872267
            ]
        },
        {
            "positions": [
                1.0829320893284267,
                -0.8883351541119495,
                -0.654404249926162,
                -0.16233907512555756,
                -0.8516747407959177,
                0.033962584814674346
            ]
        },
        {
            "positions": [
                0.9751540591861227,
                -0.8646015217129852,
                -0.5700566316466351,
                -0.0699249467953944,
                -0.8037232639819075,
                0.006758776660626076
            ]
        },
        {
            "positions": [
                0.8673760290438188,
                -0.8408678893140209,
                -0.48570901336710826,
                0.022489181534768754,
                -0.7557717871678974,
                -0.02044503149342225
            ]
        },
        {
            "positions": [
                0.7595979989015149,
                -0.8171342569150565,
                -0.40136139508758095,
                0.11490330986493213,
                -0.7078203103538871,
                -0.04764883964747063
            ]
        },
        {
            "positions": [
                0.6518199687592112,
                -0.7934006245160922,
                -0.3170137768080541,
                0.2073174381950953,
                -0.659868833539877,
                -0.0748526478015189
            ]
        },
        {
            "positions": [
                0.5440419386169073,
                -0.7696669921171279,
                -0.23266615852852723,
                0.29973156652525845,
                -0.6119173567258669,
                -0.10205645595556723
            ]
        },
        {
            "positions": [
                0.4362639084746034,
                -0.7459333597181637,
                -0.14831854024900037,
                0.39214569485542183,
                -0.5639658799118568,
                -0.12926026410961555
            ]
        },
        {
            "positions": [
                0.3284858783322995,
                -0.7221997273191992,
                -0.06397092196947307,
                0.4845598231855852,
                -0.5160144030978464,
                -0.15646407226366388
            ]
        },
        {
            "positions": [
                0.22070784818999567,
                -0.6984660949202349,
                0.0203766963100539,
                0.5769739515157484,
                -0.4680629262838362,
                -0.1836678804177122
            ]
        },
        {
            "positions": [
                0.18475984248032734,
                -0.7426243087736327,
                0.19312109660594615,
                0.6633098380862849,
                -0.4363867168270312,
                -0.2028517220166948
            ]
        },
        {
            "positions": [
                0.148811836770659,
                -0.7867825226270304,
                0.3658654969018384,
                0.7496457246568212,
                -0.40471050737022607,
                -0.2220355636156774
            ]
        },
        {
            "positions": [
                0.1128638310609907,
                -0.8309407364804282,
                0.5386098971977307,
                0.8359816112273577,
                -0.373034297913421,
                -0.24121940521466
            ]
        },
        {
            "positions": [
                0.07691582535132238,
                -0.8750989503338259,
                0.7113542974936229,
                0.9223174977978941,
                -0.34135808845661597,
                -0.2604032468136426
            ]
        },
        {
            "positions": [
                0.04096781964165405,
                -0.9192571641872237,
                0.8840986977895152,
                1.0086533843684307,
                -0.30968187899981087,
                -0.27958708841262525
            ]
        },
        {
            "positions": [
                0.005019813931985723,
                -0.9634153780406214,
                1.0568430980854076,
                1.094989270938967,
                -0.27800566954300576,
                -0.2987709300116078
            ]
        },
        {
            "positions": [
                -0.030928191777682634,
                -1.0075735918940192,
                1.2295874983812998,
                1.1813251575095034,
                -0.2463294600862007,
                -0.31795477161059044
            ]
        },
        {
            "positions": [
                -0.06687619748735091,
                -1.051731805747417,
                1.402331898677192,
                1.26766104408004,
                -0.21465325062939566,
                -0.337138613209573
            ]
        },
        {
            "positions": [
                -0.10282420319701924,
                -1.0958900196008146,
                1.5750762989730842,
                1.3539969306505764,
                -0.18297704117259056,
                -0.3563224548085556
            ]
        },
        {
            "positions": [
                -0.13877220890668757,
                -1.1400482334542126,
                1.7478206992689764,
                1.4403328172211127,
                -0.1513008317157855,
                -0.37550629640753824
            ]
        },
        {
            "positions": [
                -0.1747202146163559,
                -1.1842064473076102,
                1.9205650995648686,
                1.5266687037916493,
                -0.11962462225898046,
                -0.3946901380065208
            ]
        },
        {
            "positions": [
                -0.21066822032602422,
                -1.228364661161008,
                2.093309499860761,
                1.6130045903621857,
                -0.08794841280217536,
                -0.41387397960550343
            ]
        },
        {
            "positions": [
                -0.14408733636167081,
                -1.1410324728209722,
                2.079278695531304,
                1.695293172345164,
                -0.09707658509437667,
                -0.3518400901977927
            ]
        },
        {
            "positions": [
                -0.07750645239731738,
                -1.0537002844809364,
                2.0652478912018473,
                1.7775817543281427,
                -0.10620475738657796,
                -0.289806200790082
            ]
        },
        {
            "positions": [
                -0.010925568432963967,
                -0.9663680961409007,
                2.05121708687239,
                1.859870336311121,
                -0.11533292967877927,
                -0.2277723113823713
            ]
        },
        {
            "positions": [
                0.05565531553138947,
                -0.8790359078008649,
                2.037186282542933,
                1.9421589182940995,
                -0.12446110197098056,
                -0.1657384219746606
            ]
        },
        {
            "positions": [
                0.12223619949574285,
                -0.7917037194608293,
                2.0231554782134764,
                2.024447500277078,
                -0.13358927426318187,
                -0.1037045325669499
            ]
        }
    ]
}