{
    "goal": {
        "global_pose": {
            "orientation": {
                "w": 0.7031023480610252,
                "x": -0.7110244013736278,
                "y": 0.0077485991402295624,
                "z": 0.005598929693374583
            },
            "position": {
                "x": -0.8841497679147869,
                "y": 0.44412534475326537,
                "z": 0.3711530566215515
            }
        },
        "name": "move_to_auspresseinheit_D"
    },
    "id": "BFMT_move_to_auspresseinheit_D_117",
    "joint_names": [
        "shoulder_pan_joint",
        "shoulder_lift_joint",
        "elbow_joint",
        "wrist_1_joint",
        "wrist_2_joint",
        "wrist_3_joint"
    ],
    "metrics": {
        "cart_traj_len": 0.3447059414969274,
        "distance_elbow_joint": 0.6629420098710639,
        "distance_shoulder_lift_joint": 0.13428244215246377,
        "distance_shoulder_pan_joint": 0.1336166308405758,
        "distance_wrist_1_joint": 0.609152723082222,
        "distance_wrist_2_joint": 1.444551520197817,
        "distance_wrist_3_joint": 0.054161880038074095,
        "smoothness": 2.9605947279411004e-16,
        "time": 0.480188859,
        "traj_len": 1.7431888039401289,
        "weighted_distance": 2.2805120498559974
    },
    "planner": "BFMT",
    "start": {
        "state": {
            "elbow_joint": -1.8275523626775212,
            "shoulder_lift_joint": -2.126789852344167,
            "shoulder_pan_joint": -0.03513704404078235,
            "wrist_1_joint": -2.347782403156801,
            "wrist_2_joint": -1.6058999987535132,
            "wrist_3_joint": -3.0880379163319196
        }
    },
    "waypoints": [
        {
            "positions": [
                -0.03513704404078235,
                -2.126789852344167,
                -1.8275523626775212,
                -2.347782403156801,
                -1.6058999987535132,
                -3.0880379163319196
            ]
        },
        {
            "positions": [
                -0.05183912289585432,
                -2.143575157613225,
                -1.7446846114436383,
                -2.4239264935420786,
                -1.4253310587287862,
                -3.0812676813271604
            ]
        },
        {
            "positions": [
                -0.06854120175092629,
                -2.1603604628822826,
                -1.6618168602097552,
                -2.5000705839273563,
                -1.244762118704059,
                -3.0744974463224013
            ]
        },
        {
            "positions": [
                -0.08524328060599827,
                -2.1771457681513406,
                -1.5789491089758723,
                -2.576214674312634,
                -1.0641931786793317,
                -3.0677272113176417
            ]
        },
        {
            "positions": [
                -0.10194535946107025,
                -2.1939310734203987,
                -1.4960813577419891,
                -2.6523587646979117,
                -0.8836242386546047,
                -3.0609569763128825
            ]
        },
        {
            "positions": [
                -0.11864743831614222,
                -2.210716378689457,
                -1.4132136065081062,
                -2.72850285508319,
                -0.7030552986298776,
                -3.0541867413081234
            ]
        },
        {
            "positions": [
                -0.13534951717121418,
                -2.227501683958515,
                -1.3303458552742233,
                -2.8046469454684675,
                -0.5224863586051505,
                -3.047416506303364
            ]
        },
        {
            "positions": [
                -0.15205159602628618,
                -2.2442869892275725,
                -1.2474781040403404,
                -2.880791035853745,
                -0.34191741858042324,
                -3.0406462712986047
            ]
        },
        {
            "positions": [
                -0.16875367488135815,
                -2.2610722944966306,
                -1.1646103528064573,
                -2.956935126239023,
                -0.1613484785556963,
                -3.0338760362938455
            ]
        }
    ]
}