{
    "goal": {
        "global_pose": {
            "orientation": {
                "w": 0.7047431493862688,
                "x": -0.7094548369677653,
                "y": 0.0024358444001904,
                "z": -0.0022348060817251984
            },
            "position": {
                "x": -0.39052492380142206,
                "y": 0.3671506643295288,
                "z": 0.19426114857196808
            }
        },
        "name": "move_to_magneteinheit_D"
    },
    "id": "BFMT_move_to_magneteinheit_D_78",
    "joint_names": [
        "shoulder_pan_joint",
        "shoulder_lift_joint",
        "elbow_joint",
        "wrist_1_joint",
        "wrist_2_joint",
        "wrist_3_joint"
    ],
    "metrics": {
        "cart_traj_len": 5.588346406804227,
        "distance_elbow_joint": 3.219180501252543,
        "distance_shoulder_lift_joint": 3.8190791661786783,
        "distance_shoulder_pan_joint": 5.839454354929038,
        "distance_wrist_1_joint": 2.9293448196726333,
        "distance_wrist_2_joint": 1.5656323497500413,
        "distance_wrist_3_joint": 4.848465372408939,
        "smoothness": 0.777216155897934,
        "time": 1.261085376,
        "traj_len": 4.713932176452254,
        "weighted_distance": 6.0343238625742
    },
    "planner": "BFMT",
    "start": {
        "state": {
            "elbow_joint": 0.749534889911806,
            "shoulder_lift_joint": -0.6476975780787326,
            "shoulder_pan_joint": -2.711696901376241,
            "wrist_1_joint": -0.07506478083263063,
            "wrist_2_joint": 0.43296659715538205,
            "wrist_3_joint": -3.14703540197715
        }
    },
    "waypoints": [
        {
            "positions": [
                -2.711696901376241,
                -0.6476975780787326,
                0.749534889911806,
                -0.07506478083263063,
                0.43296659715538205,
                -3.14703540197715
            ]
        },
        {
            "positions": [
                -2.7720188479932744,
                -0.6612483909080856,
                0.7651358746527195,
                0.005805378841171022,
                0.3780852417917431,
                -3.081182932210638
            ]
        },
        {
            "positions": [
                -2.832340794610308,
                -0.6747992037374385,
                0.7807368593936331,
                0.08667553851497267,
                0.3232038864281041,
                -3.0153304624441266
            ]
        },
        {
            "positions": [
                -2.8926627412273413,
                -0.6883500165667915,
                0.7963378441345467,
                0.16754569818877432,
                0.26832253106446513,
                -2.9494779926776147
            ]
        },
        {
            "positions": [
                -2.792612054688273,
                -0.7504775786985267,
                0.7310020260319112,
                0.21906916437212662,
                0.2804219382199834,
                -2.855614447147032
            ]
        },
        {
            "positions": [
                -2.692561368149205,
                -0.8126051408302619,
                0.6656662079292759,
                0.27059263055547894,
                0.29252134537550173,
                -2.7617509016164488
            ]
        },
        {
            "positions": [
                -2.5925106816101366,
                -0.8747327029619972,
                0.6003303898266404,
                0.32211609673883124,
                0.30462075253102,
                -2.667887356085866
            ]
        },
        {
            "positions": [
                -2.4924599950710684,
                -0.9368602650937324,
                0.534994571724005,
                0.37363956292218353,
                0.3167201596865383,
                -2.574023810555283
            ]
        },
        {
            "positions": [
                -2.392409308532,
                -0.9989878272254678,
                0.46965875362136966,
                0.42516302910553583,
                0.3288195668420566,
                -2.4801602650247
            ]
        },
        {
            "positions": [
                -2.292358621992932,
                -1.061115389357203,
                0.40432293551873427,
                0.4766864952888882,
                0.34091897399757487,
                -2.3862967194941174
            ]
        },
        {
            "positions": [
                -2.1923079354538637,
                -1.1232429514889382,
                0.33898711741609894,
                0.5282099614722404,
                0.35301838115309314,
                -2.292433173963534
            ]
        },
        {
            "positions": [
                -2.0922572489147955,
                -1.1853705136206734,
                0.27365129931346344,
                0.5797334276555928,
                0.36511778830861147,
                -2.198569628432951
            ]
        },
        {
            "positions": [
                -1.9922065623757275,
                -1.2474980757524086,
                0.2083154812108281,
                0.631256893838945,
                0.3772171954641298,
                -2.1047060829023683
            ]
        },
        {
            "positions": [
                -1.8921558758366592,
                -1.3096256378841438,
                0.14297966310819266,
                0.6827803600222974,
                0.38931660261964807,
                -2.0108425373717855
            ]
        },
        {
            "positions": [
                -1.792105189297591,
                -1.371753200015879,
                0.07764384500555732,
                0.7343038262056496,
                0.40141600977516634,
                -1.9169789918412026
            ]
        },
        {
            "positions": [
                -1.6920545027585228,
                -1.4338807621476142,
                0.012308026902921876,
                0.785827292389002,
                0.41351541693068466,
                -1.8231154463106196
            ]
        },
        {
            "positions": [
                -1.5920038162194545,
                -1.4960083242793494,
                -0.05302779119971346,
                0.8373507585723542,
                0.42561482408620294,
                -1.7292519007800367
            ]
        },
        {
            "positions": [
                -1.4919531296803863,
                -1.5581358864110846,
                -0.1183636093023488,
                0.8888742247557064,
                0.4377142312417212,
                -1.6353883552494537
            ]
        },
        {
            "positions": [
                -1.3919024431413183,
                -1.6202634485428198,
                -0.18369942740498413,
                0.9403976909390587,
                0.44981363839723953,
                -1.541524809718871
            ]
        },
        {
            "positions": [
                -1.2918517566022498,
                -1.6823910106745552,
                -0.2490352455076198,
                0.9919211571224111,
                0.4619130455527578,
                -1.4476612641882878
            ]
        },
        {
            "positions": [
                -1.1918010700631816,
                -1.7445185728062904,
                -0.31437106361025513,
                1.0434446233057635,
                0.4740124527082761,
                -1.353797718657705
            ]
        },
        {
            "positions": [
                -1.0917503835241136,
                -1.8066461349380256,
                -0.37970688171289046,
                1.0949680894891156,
                0.4861118598637944,
                -1.259934173127122
            ]
        },
        {
            "positions": [
                -0.9916996969850453,
                -1.8687736970697608,
                -0.4450426998155258,
                1.146491555672468,
                0.4982112670193127,
                -1.1660706275965391
            ]
        },
        {
            "positions": [
                -0.8916490104459771,
                -1.9309012592014962,
                -0.5103785179181614,
                1.1980150218558205,
                0.510310674174831,
                -1.0722070820659562
            ]
        },
        {
            "positions": [
                -0.7915983239069089,
                -1.9930288213332314,
                -0.5757143360207967,
                1.2495384880391727,
                0.5224100813303493,
                -0.9783435365353732
            ]
        },
        {
            "positions": [
                -0.6915476373678406,
                -2.0551563834649667,
                -0.641050154123432,
                1.301061954222525,
                0.5345094884858675,
                -0.8844799910047905
            ]
        },
        {
            "positions": [
                -0.5914969508287724,
                -2.117283945596702,
                -0.7063859722260674,
                1.3525854204058771,
                0.5466088956413859,
                -0.7906164454742073
            ]
        },
        {
            "positions": [
                -0.49144626428970417,
                -2.179411507728437,
                -0.7717217903287029,
                1.4041088865892297,
                0.5587083027969042,
                -0.6967528999436245
            ]
        },
        {
            "positions": [
                -0.39139557775063594,
                -2.2415390698601723,
                -0.8370576084313383,
                1.4556323527725819,
                0.5708077099524225,
                -0.6028893544130414
            ]
        },
        {
            "positions": [
                -0.29134489121156765,
                -2.3036666319919075,
                -0.9023934265339736,
                1.5071558189559342,
                0.5829071171079407,
                -0.5090258088824586
            ]
        },
        {
            "positions": [
                -0.20348494925731075,
                -2.242946401474473,
                -0.978155290029374,
                1.4702068890741242,
                0.5415247770347831,
                -0.43375017467018906
            ]
        },
        {
            "positions": [
                -0.11562500730305389,
                -2.1822261709570387,
                -1.0539171535247744,
                1.433257959192314,
                0.5001424369616253,
                -0.35847454045791954
            ]
        },
        {
            "positions": [
                -0.027765065348797024,
                -2.1215059404396044,
                -1.129679017020175,
                1.3963090293105038,
                0.45876009688846764,
                -0.28319890624565003
            ]
        },
        {
            "positions": [
                0.06009487660545987,
                -2.06078570992217,
                -1.2054408805155752,
                1.3593600994286938,
                0.41737775681531,
                -0.20792327203338046
            ]
        },
        {
            "positions": [
                0.14795481855971682,
                -2.0000654794047357,
                -1.2812027440109757,
                1.3224111695468839,
                0.3759954167421522,
                -0.1326476378211109
            ]
        },
        {
            "positions": [
                0.2358147605139736,
                -1.9393452488873018,
                -1.356964607506376,
                1.2854622396650737,
                0.33461307666899454,
                -0.05737200360884137
            ]
        },
        {
            "positions": [
                0.32367470246823055,
                -1.8786250183698674,
                -1.4327264710017764,
                1.2485133097832635,
                0.2932307365958368,
                0.017903630603428256
            ]
        },
        {
            "positions": [
                0.4115346444224874,
                -1.817904787852433,
                -1.508488334497177,
                1.2115643799014535,
                0.25184839652267915,
                0.09317926481569772
            ]
        },
        {
            "positions": [
                0.49939458637674433,
                -1.7571845573349987,
                -1.5842501979925774,
                1.1746154500196435,
                0.21046605644952143,
                0.1684548990279673
            ]
        },
        {
            "positions": [
                0.5872545283310013,
                -1.6964643268175643,
                -1.6600120614879779,
                1.1376665201378333,
                0.1690837163763637,
                0.24373053324023686
            ]
        },
        {
            "positions": [
                0.6751144702852583,
                -1.63574409630013,
                -1.7357739249833781,
                1.1007175902560231,
                0.127701376303206,
                0.31900616745250643
            ]
        },
        {
            "positions": [
                0.7629744122395148,
                -1.5750238657826958,
                -1.8115357884787784,
                1.0637686603742131,
                0.08631903623004833,
                0.3942818016647759
            ]
        },
        {
            "positions": [
                0.8508343541937717,
                -1.5143036352652615,
                -1.8872976519741789,
                1.0268197304924032,
                0.044936696156890665,
                0.46955743587704546
            ]
        },
        {
            "positions": [
                0.9386942961480287,
                -1.453583404747827,
                -1.9630595154695794,
                0.989870800610593,
                0.0035543560837328902,
                0.5448330700893151
            ]
        },
        {
            "positions": [
                1.0265542381022856,
                -1.3928631742303927,
                -2.03882137896498,
                0.9529218707287829,
                -0.037827983989424774,
                0.6201087043015847
            ]
        },
        {
            "positions": [
                1.1144141800565424,
                -1.3321429437129586,
                -2.11458324246038,
                0.9159729408469728,
                -0.07921032406258244,
                0.6953843385138541
            ]
        },
        {
            "positions": [
                1.2022741220107993,
                -1.2714227131955242,
                -2.1903451059557804,
                0.8790240109651627,
                -0.12059266413574021,
                0.7706599727261236
            ]
        },
        {
            "positions": [
                1.2901340639650563,
                -1.2107024826780899,
                -2.266106969451181,
                0.8420750810833526,
                -0.16197500420889788,
                0.8459356069383932
            ]
        },
        {
            "positions": [
                1.1671597548079276,
                -1.2998813129240638,
                -2.2752680305715205,
                0.8989120379176433,
                -0.13351487285066366,
                0.7746444099806106
            ]
        },
        {
            "positions": [
                1.044185445650799,
                -1.3890601431700378,
                -2.2844290916918597,
                0.9557489947519339,
                -0.10505474149242944,
                0.7033532130228278
            ]
        },
        {
            "positions": [
                0.9212111364936705,
                -1.4782389734160117,
                -2.2935901528121994,
                1.0125859515862246,
                -0.0765946101341952,
                0.6320620160650452
            ]
        },
        {
            "positions": [
                0.7982368273365419,
                -1.5674178036619857,
                -2.302751213932539,
                1.0694229084205151,
                -0.048134478775960984,
                0.5607708191072625
            ]
        },
        {
            "positions": [
                0.6752625181794133,
                -1.6565966339079596,
                -2.3119122750528787,
                1.126259865254806,
                -0.01967434741772675,
                0.4894796221494798
            ]
        },
        {
            "positions": [
                0.5522882090222847,
                -1.7457754641539336,
                -2.3210733361732183,
                1.1830968220890965,
                0.008785783940507469,
                0.41818842519169713
            ]
        },
        {
            "positions": [
                0.4293138998651561,
                -1.8349542943999075,
                -2.3302343972935575,
                1.2399337789233873,
                0.037245915298741716,
                0.34689722823391445
            ]
        },
        {
            "positions": [
                0.3063395907080275,
                -1.9241331246458815,
                -2.339395458413897,
                1.2967707357576779,
                0.06570604665697591,
                0.2756060312761318
            ]
        },
        {
            "positions": [
                0.18336528155089904,
                -2.013311954891855,
                -2.348556519534237,
                1.3536076925919684,
                0.09416617801521016,
                0.20431483431834907
            ]
        },
        {
            "positions": [
                0.06039097239377034,
                -2.1024907851378294,
                -2.357717580654576,
                1.410444649426259,
                0.12262630937344438,
                0.13302363736056644
            ]
        },
        {
            "positions": [
                -0.06258333676335814,
                -2.1916696153838036,
                -2.3668786417749157,
                1.4672816062605496,
                0.1510864407316786,
                0.061732440402783806
            ]
        },
        {
            "positions": [
                -0.1855576459204869,
                -2.2808484456297773,
                -2.3760397028952553,
                1.5241185630948404,
                0.17954657208991281,
                -0.00955875655499889
            ]
        }
    ]
}