{
    "goal": {
        "global_pose": {
            "orientation": {
                "w": 0.7031023480610252,
                "x": -0.7110244013736278,
                "y": 0.0077485991402295624,
                "z": 0.005598929693374583
            },
            "position": {
                "x": -0.8841497679147869,
                "y": 0.44412534475326537,
                "z": 0.3711530566215515
            }
        },
        "name": "move_to_auspresseinheit_D"
    },
    "id": "BFMT_move_to_auspresseinheit_D_146",
    "joint_names": [
        "shoulder_pan_joint",
        "shoulder_lift_joint",
        "elbow_joint",
        "wrist_1_joint",
        "wrist_2_joint",
        "wrist_3_joint"
    ],
    "metrics": {
        "cart_traj_len": 0.3445759012831087,
        "distance_elbow_joint": 0.6659480409317673,
        "distance_shoulder_lift_joint": 0.1362815598461209,
        "distance_shoulder_pan_joint": 0.13401505910020398,
        "distance_wrist_1_joint": 0.6285990244943114,
        "distance_wrist_2_joint": 1.432113227328578,
        "distance_wrist_3_joint": 0.09006441761835493,
        "smoothness": 0.0,
        "time": 0.506630616,
        "traj_len": 1.756992125571238,
        "weighted_distance": 2.308216284575372
    },
    "planner": "BFMT",
    "start": {
        "state": {
            "elbow_joint": -1.8275523626775212,
            "shoulder_lift_joint": -2.126789852344167,
            "shoulder_pan_joint": -0.03513704404078235,
            "wrist_1_joint": -2.347782403156801,
            "wrist_2_joint": -1.6058999987535132,
            "wrist_3_joint": -3.0880379163319196
        }
    },
    "waypoints": [
        {
            "positions": [
                -0.03513704404078235,
                -2.126789852344167,
                -1.8275523626775212,
                -2.347782403156801,
                -1.6058999987535132,
                -3.0880379163319196
            ]
        },
        {
            "positions": [
                -0.05188892642830785,
                -2.143825047324932,
                -1.7443088575610504,
                -2.4263572812185896,
                -1.426885845337441,
                -3.0767798641296253
            ]
        },
        {
            "positions": [
                -0.06864080881583334,
                -2.160860242305697,
                -1.6610653524445793,
                -2.504932159280379,
                -1.2478716919213686,
                -3.065521811927331
            ]
        },
        {
            "positions": [
                -0.08539269120335885,
                -2.177895437286462,
                -1.5778218473281085,
                -2.5835070373421676,
                -1.0688575385052965,
                -3.0542637597250364
            ]
        },
        {
            "positions": [
                -0.10214457359088433,
                -2.1949306322672273,
                -1.4945783422116374,
                -2.6620819154039568,
                -0.8898433850892242,
                -3.043005707522742
            ]
        },
        {
            "positions": [
                -0.11889645597840984,
                -2.2119658272479925,
                -1.4113348370951666,
                -2.7406567934657455,
                -0.7108292316731519,
                -3.031747655320448
            ]
        },
        {
            "positions": [
                -0.13564833836593534,
                -2.2290010222287577,
                -1.3280913319786958,
                -2.8192316715275343,
                -0.5318150782570799,
                -3.020489603118153
            ]
        },
        {
            "positions": [
                -0.15240022075346082,
                -2.2460362172095225,
                -1.244847826862225,
                -2.8978065495893235,
                -0.35280092484100756,
                -3.009231550915859
            ]
        },
        {
            "positions": [
                -0.16915210314098633,
                -2.2630714121902877,
                -1.161604321745754,
                -2.9763814276511122,
                -0.17378677142493518,
                -2.9979734987135647
            ]
        }
    ]
}