{
    "goal": {
        "global_pose": {
            "orientation": {
                "w": 0.005598929693374612,
                "x": 0.007748599140229565,
                "y": 0.7110244013736278,
                "z": -0.7031023480610252
            },
            "position": {
                "x": -0.8858502320852131,
                "y": -0.7141253447532654,
                "z": 0.3711530566215515
            }
        },
        "name": "move_to_auspresseinheit_C"
    },
    "id": "BFMT_move_to_auspresseinheit_C_27",
    "joint_names": [
        "shoulder_pan_joint",
        "shoulder_lift_joint",
        "elbow_joint",
        "wrist_1_joint",
        "wrist_2_joint",
        "wrist_3_joint"
    ],
    "metrics": {
        "cart_traj_len": 0.49433198327888894,
        "distance_elbow_joint": 1.0183477784156345,
        "distance_shoulder_lift_joint": 0.3337788798688971,
        "distance_shoulder_pan_joint": 0.2557695220104521,
        "distance_wrist_1_joint": 0.7079117131722893,
        "distance_wrist_2_joint": 1.3178644829643034,
        "distance_wrist_3_joint": 0.08148427233788702,
        "smoothness": 6.459479416000911e-16,
        "time": 0.441678862,
        "traj_len": 1.9274741629317533,
        "weighted_distance": 2.4297945159173087
    },
    "planner": "BFMT",
    "start": {
        "state": {
            "elbow_joint": 1.7527959577737207,
            "shoulder_lift_joint": -0.9740617694225068,
            "shoulder_pan_joint": -2.967991417825858,
            "wrist_1_joint": -0.759517768980727,
            "wrist_2_joint": 1.7443932448377408,
            "wrist_3_joint": -3.0840537646736568
        }
    },
    "waypoints": [
        {
            "positions": [
                -2.967991417825858,
                -0.9740617694225068,
                1.7527959577737207,
                -0.759517768980727,
                1.7443932448377408,
                -3.0840537646736568
            ]
        },
        {
            "positions": [
                -2.942414465624813,
                -0.9406838814356171,
                1.6509611799321573,
                -0.6887265976634981,
                1.6126067965413104,
                -3.0922021919074454
            ]
        },
        {
            "positions": [
                -2.9168375134237676,
                -0.9073059934487273,
                1.5491264020905937,
                -0.6179354263462691,
                1.48082034824488,
                -3.100350619141234
            ]
        },
        {
            "positions": [
                -2.8912605612227225,
                -0.8739281054618376,
                1.4472916242490304,
                -0.5471442550290402,
                1.34903389994845,
                -3.108499046375023
            ]
        },
        {
            "positions": [
                -2.8656836090216773,
                -0.840550217474948,
                1.3454568464074668,
                -0.47635308371181123,
                1.2172474516520193,
                -3.1166474736088117
            ]
        },
        {
            "positions": [
                -2.840106656820632,
                -0.8071723294880582,
                1.2436220685659034,
                -0.40556191239458234,
                1.0854610033555891,
                -3.1247959008426003
            ]
        },
        {
            "positions": [
                -2.8145297046195865,
                -0.7737944415011685,
                1.14178729072434,
                -0.33477074107735344,
                0.9536745550591589,
                -3.132944328076389
            ]
        },
        {
            "positions": [
                -2.7889527524185413,
                -0.7404165535142788,
                1.0399525128827767,
                -0.2639795697601245,
                0.8218881067627285,
                -3.1410927553101775
            ]
        },
        {
            "positions": [
                -2.763375800217496,
                -0.707038665527389,
                0.938117735041213,
                -0.19318839844289548,
                0.690101658466298,
                -3.1492411825439666
            ]
        },
        {
            "positions": [
                -2.737798848016451,
                -0.6736607775404994,
                0.8362829571996496,
                -0.12239722712566659,
                0.5583152101698678,
                -3.157389609777755
            ]
        },
        {
            "positions": [
                -2.712221895815406,
                -0.6402828895536097,
                0.7344481793580863,
                -0.051606055808437655,
                0.4265287618734375,
                -3.165538037011544
            ]
        }
    ]
}