{
    "goal": {
        "global_pose": {
            "orientation": {
                "w": -0.00223480608172531,
                "x": 0.0024358444001904467,
                "y": 0.7094548369677653,
                "z": -0.704743149386269
            },
            "position": {
                "x": 0.6205249238014221,
                "y": -0.6371506643295288,
                "z": 0.19426114857196808
            }
        },
        "name": "move_to_magneteinheit_B"
    },
    "id": "BFMT_move_to_magneteinheit_B_3",
    "joint_names": [
        "shoulder_pan_joint",
        "shoulder_lift_joint",
        "elbow_joint",
        "wrist_1_joint",
        "wrist_2_joint",
        "wrist_3_joint"
    ],
    "metrics": {
        "cart_traj_len": 3.988046504867923,
        "distance_elbow_joint": 4.747913824040349,
        "distance_shoulder_lift_joint": 1.518974017577698,
        "distance_shoulder_pan_joint": 2.7833451083022416,
        "distance_wrist_1_joint": 1.7323262883629562,
        "distance_wrist_2_joint": 3.4200070650883596,
        "distance_wrist_3_joint": 0.48056939308364194,
        "smoothness": 1.4451431543432285,
        "time": 1.135549658,
        "traj_len": 3.8318579953405427,
        "weighted_distance": 4.5603297946611105
    },
    "planner": "BFMT",
    "start": {
        "state": {
            "elbow_joint": 2.6216224122426386,
            "shoulder_lift_joint": -1.4174107377796124,
            "shoulder_pan_joint": 0.7066234856936794,
            "wrist_1_joint": 1.9546482284002225,
            "wrist_2_joint": -0.7096286983471962,
            "wrist_3_joint": 0.005740856962016249
        }
    },
    "waypoints": [
        {
            "positions": [
                0.7066234856936794,
                -1.4174107377796124,
                2.6216224122426386,
                1.9546482284002225,
                -0.7096286983471962,
                0.005740856962016249
            ]
        },
        {
            "positions": [
                0.6062665853488092,
                -1.454581784023743,
                2.598101794461121,
                1.9690365056442847,
                -0.7208943890586315,
                -0.00616564980495324
            ]
        },
        {
            "positions": [
                0.5773625592616908,
                -1.3787545893428865,
                2.521012154413046,
                2.0142706270531936,
                -0.6689490190835607,
                0.009290508681713307
            ]
        },
        {
            "positions": [
                0.5484585331745725,
                -1.30292739466203,
                2.443922514364971,
                2.059504748462102,
                -0.61700364910849,
                0.02474666716837985
            ]
        },
        {
            "positions": [
                0.5195545070874541,
                -1.2271001999811735,
                2.3668328743168963,
                2.104738869871011,
                -0.5650582791334193,
                0.040202825655046404
            ]
        },
        {
            "positions": [
                0.5364411601186945,
                -1.3576444652960598,
                2.3125381651062273,
                2.040959401183906,
                -0.6335197115963036,
                -0.015018409383579574
            ]
        },
        {
            "positions": [
                0.5533278131499348,
                -1.488188730610946,
                2.258243455895559,
                1.9771799324968011,
                -0.701981144059188,
                -0.07023964442220555
            ]
        },
        {
            "positions": [
                0.6003311206203596,
                -1.5058163290048798,
                2.049060189440323,
                1.9687805312857796,
                -0.651097309593057,
                -0.09486117949867302
            ]
        },
        {
            "positions": [
                0.6473344280907843,
                -1.5234439273988136,
                1.8398769229850864,
                1.960381130074758,
                -0.600213475126926,
                -0.11948271457514051
            ]
        },
        {
            "positions": [
                0.6943377355612091,
                -1.5410715257927474,
                1.6306936565298504,
                1.9519817288637364,
                -0.549329640660795,
                -0.14410424965160795
            ]
        },
        {
            "positions": [
                0.7413410430316338,
                -1.5586991241866812,
                1.421510390074614,
                1.9435823276527149,
                -0.49844580619466405,
                -0.16872578472807545
            ]
        },
        {
            "positions": [
                0.7883443505020586,
                -1.576326722580615,
                1.212327123619378,
                1.9351829264416933,
                -0.4475619717285331,
                -0.19334731980454292
            ]
        },
        {
            "positions": [
                0.8852784854479618,
                -1.6094805299924015,
                1.0813120120225472,
                1.9013885844668361,
                -0.35746260433915034,
                -0.19211703768667632
            ]
        },
        {
            "positions": [
                0.9822126203938651,
                -1.642634337404188,
                0.9502969004257164,
                1.8675942424919787,
                -0.2673632369497676,
                -0.1908867555688097
            ]
        },
        {
            "positions": [
                1.0791467553397684,
                -1.6757881448159746,
                0.8192817888288855,
                1.8337999005171215,
                -0.1772638695603848,
                -0.1896564734509431
            ]
        },
        {
            "positions": [
                1.1760808902856716,
                -1.7089419522277611,
                0.6882666772320547,
                1.800005558542264,
                -0.08716450217100208,
                -0.1884261913330765
            ]
        },
        {
            "positions": [
                1.2730150252315748,
                -1.7420957596395477,
                0.5572515656352238,
                1.7662112165674069,
                0.002934865218380711,
                -0.1871959092152099
            ]
        },
        {
            "positions": [
                1.369949160177478,
                -1.775249567051334,
                0.42623645403839294,
                1.7324168745925497,
                0.0930342326077635,
                -0.1859656270973433
            ]
        },
        {
            "positions": [
                1.4668832951233814,
                -1.8084033744631205,
                0.2952213424415622,
                1.6986225326176922,
                0.18313359999714623,
                -0.1847353449794767
            ]
        },
        {
            "positions": [
                1.5638174300692844,
                -1.841557181874907,
                0.1642062308447314,
                1.664828190642835,
                0.27323296738652897,
                -0.18350506286161009
            ]
        },
        {
            "positions": [
                1.6607515650151878,
                -1.8747109892866936,
                0.033191119247900414,
                1.6310338486679778,
                0.3633323347759118,
                -0.18227478074374348
            ]
        },
        {
            "positions": [
                1.757685699961091,
                -1.90786479669848,
                -0.09782399234893036,
                1.5972395066931204,
                0.45343170216529455,
                -0.18104449862587688
            ]
        },
        {
            "positions": [
                1.8546198349069944,
                -1.9410186041102666,
                -0.22883910394576135,
                1.5634451647182632,
                0.5435310695546773,
                -0.17981421650801027
            ]
        },
        {
            "positions": [
                1.9515539698528976,
                -1.9741724115220531,
                -0.3598542155425921,
                1.529650822743406,
                0.6336304369440602,
                -0.17858393439014367
            ]
        },
        {
            "positions": [
                2.0484881047988006,
                -2.0073262189338394,
                -0.4908693271394231,
                1.4958564807685486,
                0.723729804333443,
                -0.17735365227227706
            ]
        },
        {
            "positions": [
                2.145422239744704,
                -2.040480026345626,
                -0.6218844387362537,
                1.4620621387936914,
                0.8138291717228257,
                -0.17612337015441046
            ]
        },
        {
            "positions": [
                2.2423563746906074,
                -2.0736338337574125,
                -0.7528995503330846,
                1.428267796818834,
                0.9039285391122085,
                -0.17489308803654385
            ]
        },
        {
            "positions": [
                2.3392905096365104,
                -2.1067876411691993,
                -0.8839146619299152,
                1.3944734548439768,
                0.9940279065015911,
                -0.17366280591867725
            ]
        },
        {
            "positions": [
                2.436224644582414,
                -2.1399414485809856,
                -1.0149297735267462,
                1.3606791128691196,
                1.084127273890974,
                -0.17243252380081064
            ]
        },
        {
            "positions": [
                2.533158779528317,
                -2.173095255992772,
                -1.1459448851235772,
                1.3268847708942624,
                1.1742266412803568,
                -0.17120224168294404
            ]
        },
        {
            "positions": [
                2.6300929144742202,
                -2.2062490634045586,
                -1.2769599967204082,
                1.2930904289194047,
                1.2643260086697397,
                -0.16997195956507744
            ]
        },
        {
            "positions": [
                2.7270270494201236,
                -2.2394028708163454,
                -1.4079751083172387,
                1.2592960869445475,
                1.3544253760591223,
                -0.16874167744721083
            ]
        },
        {
            "positions": [
                2.8239611843660266,
                -2.2725566782281317,
                -1.5389902199140697,
                1.2255017449696903,
                1.4445247434485051,
                -0.16751139532934423
            ]
        },
        {
            "positions": [
                2.836780185352117,
                -2.2879119639422547,
                -1.6101925729024638,
                1.1332709074480616,
                1.3072789315088293,
                -0.14923014189021724
            ]
        },
        {
            "positions": [
                2.849599186338207,
                -2.3032672496563773,
                -1.681394925890858,
                1.041040069926433,
                1.1700331195691538,
                -0.13094888845109026
            ]
        },
        {
            "positions": [
                2.8624181873242978,
                -2.3186225353705003,
                -1.752597278879252,
                0.9488092324048044,
                1.032787307629478,
                -0.11266763501196327
            ]
        },
        {
            "positions": [
                2.875237188310388,
                -2.333977821084623,
                -1.8237996318676464,
                0.8565783948831758,
                0.8955414956898023,
                -0.09438638157283627
            ]
        },
        {
            "positions": [
                2.8880561892964782,
                -2.349333106798746,
                -1.8950019848560404,
                0.7643475573615471,
                0.7582956837501267,
                -0.07610512813370929
            ]
        },
        {
            "positions": [
                2.812131373467481,
                -2.393362600289888,
                -1.8179055092088179,
                0.844962335489115,
                0.6638798663101694,
                -0.0522711035582925
            ]
        },
        {
            "positions": [
                2.7362065576384835,
                -2.4373920937810296,
                -1.740809033561595,
                0.925577113616683,
                0.5694640488702121,
                -0.028437078982875716
            ]
        },
        {
            "positions": [
                2.660281741809486,
                -2.4814215872721714,
                -1.6637125579143726,
                1.006191891744251,
                0.47504823143025476,
                -0.004603054407458918
            ]
        }
    ]
}