{
    "goal": {
        "global_pose": {
            "orientation": {
                "w": 0.7031023502349854,
                "x": -0.7110244035720825,
                "y": 0.007748599164187908,
                "z": 0.005598929710686207
            },
            "position": {
                "x": 0.11585023208521307,
                "y": 0.44412534475326537,
                "z": 0.3711530566215515
            }
        },
        "name": "move_to_auspresseinheit_A"
    },
    "id": "BFMT_move_to_auspresseinheit_A_108",
    "joint_names": [
        "shoulder_pan_joint",
        "shoulder_lift_joint",
        "elbow_joint",
        "wrist_1_joint",
        "wrist_2_joint",
        "wrist_3_joint"
    ],
    "metrics": {
        "cart_traj_len": 1.3027576904313207,
        "distance_elbow_joint": 0.6635635646245794,
        "distance_shoulder_lift_joint": 1.2720015079143636,
        "distance_shoulder_pan_joint": 1.0410117216799122,
        "distance_wrist_1_joint": 0.5484568270312209,
        "distance_wrist_2_joint": 0.8779872278256629,
        "distance_wrist_3_joint": 0.8589424172962783,
        "smoothness": 1.2261393270321461,
        "time": 0.6916682089999999,
        "traj_len": 2.2938969607138016,
        "weighted_distance": 2.899360646042754
    },
    "planner": "BFMT",
    "start": {
        "state": {
            "elbow_joint": 2.4225746658250005,
            "shoulder_lift_joint": -1.3736534386056498,
            "shoulder_pan_joint": -0.3378633547517467,
            "wrist_1_joint": -1.0288598680537169,
            "wrist_2_joint": 1.233022673432363,
            "wrist_3_joint": -3.0940220416140027
        }
    },
    "waypoints": [
        {
            "positions": [
                -0.3378633547517467,
                -1.3736534386056498,
                2.4225746658250005,
                -1.0288598680537169,
                1.233022673432363,
                -3.0940220416140027
            ]
        },
        {
            "positions": [
                -0.23668981332882347,
                -1.4741719708439183,
                2.3842946314849143,
                -1.0036427630181446,
                1.1544509121778337,
                -3.047671628582756
            ]
        },
        {
            "positions": [
                -0.1355162719059002,
                -1.5746905030821865,
                2.346014597144828,
                -0.9784256579825721,
                1.0758791509233046,
                -3.001321215551509
            ]
        },
        {
            "positions": [
                -0.034342730482976924,
                -1.6752090353204547,
                2.307734562804742,
                -0.9532085529469997,
                0.9973073896687753,
                -2.954970802520262
            ]
        },
        {
            "positions": [
                0.0668308109399463,
                -1.7757275675587232,
                2.2694545284646557,
                -0.9279914479114273,
                0.918735628414246,
                -2.9086203894890152
            ]
        },
        {
            "positions": [
                0.16800435236286965,
                -1.8762460997969916,
                2.23117449412457,
                -0.902774342875855,
                0.8401638671597167,
                -2.862269976457768
            ]
        },
        {
            "positions": [
                0.2691778937857929,
                -1.9767646320352599,
                2.1928944597844837,
                -0.8775572378402826,
                0.7615921059051876,
                -2.815919563426521
            ]
        },
        {
            "positions": [
                0.3703514352087161,
                -2.0772831642735285,
                2.1546144254443975,
                -0.8523401328047102,
                0.6830203446506582,
                -2.769569150395274
            ]
        },
        {
            "positions": [
                0.47152497663163934,
                -2.1778016965117963,
                2.1163343911043113,
                -0.8271230277691378,
                0.604448583396129,
                -2.7232187373640273
            ]
        },
        {
            "positions": [
                0.5726985180545627,
                -2.278320228750065,
                2.078054356764225,
                -0.8019059227335654,
                0.5258768221415997,
                -2.6768683243327804
            ]
        },
        {
            "positions": [
                0.5987884878292833,
                -2.204853285196075,
                2.141863007876986,
                -0.7376053463913516,
                0.5600450974485796,
                -2.7652260643357915
            ]
        },
        {
            "positions": [
                0.6248784576040038,
                -2.1313863416420857,
                2.205671658989747,
                -0.6733047700491377,
                0.5942133727555595,
                -2.8535838043388027
            ]
        },
        {
            "positions": [
                0.6509684273787243,
                -2.057919398088096,
                2.2694803101025074,
                -0.6090041937069238,
                0.6283816480625394,
                -2.941941544341814
            ]
        },
        {
            "positions": [
                0.6770583971534448,
                -1.9844524545341062,
                2.3332889612152683,
                -0.54470361736471,
                0.6625499233695193,
                -3.0302992843448253
            ]
        },
        {
            "positions": [
                0.7031483669281654,
                -1.9109855109801166,
                2.397097612328029,
                -0.48040304102249604,
                0.6967181986764992,
                -3.1186570243478364
            ]
        }
    ]
}