{
    "goal": {
        "global_pose": {
            "orientation": {
                "w": -0.4816463035849501,
                "x": 0.5182115481033762,
                "y": 0.4908360881923453,
                "z": -0.5084816262002911
            },
            "position": {
                "x": -0.8240239810943604,
                "y": -0.300875300988555,
                "z": 0.16403168439865112
            }
        },
        "name": "move_to_storage_C"
    },
    "id": "BFMT_move_to_storage_C_74",
    "joint_names": [
        "shoulder_pan_joint",
        "shoulder_lift_joint",
        "elbow_joint",
        "wrist_1_joint",
        "wrist_2_joint",
        "wrist_3_joint"
    ],
    "metrics": {
        "cart_traj_len": 0.5771093486953734,
        "distance_elbow_joint": 0.2589284113025525,
        "distance_shoulder_lift_joint": 0.1907301432336338,
        "distance_shoulder_pan_joint": 0.4935799743753462,
        "distance_wrist_1_joint": 0.07602530050045331,
        "distance_wrist_2_joint": 1.0768604245279416,
        "distance_wrist_3_joint": 0.07210684508843945,
        "smoothness": 2.5376526478085547e-16,
        "time": 0.432380853,
        "traj_len": 1.4724914597471752,
        "weighted_distance": 1.861539823434793
    },
    "planner": "BFMT",
    "start": {
        "state": {
            "elbow_joint": 2.010868314990456,
            "shoulder_lift_joint": -1.1634956873337592,
            "shoulder_pan_joint": -2.4736205022346125,
            "wrist_1_joint": -0.8367026794202681,
            "wrist_2_joint": 0.6746043897044499,
            "wrist_3_joint": -3.1496632123970403
        }
    },
    "waypoints": [
        {
            "positions": [
                -2.4736205022346125,
                -1.1634956873337592,
                2.010868314990456,
                -0.8367026794202681,
                0.6746043897044499,
                -3.1496632123970403
            ]
        },
        {
            "positions": [
                -2.5558838312971703,
                -1.1317073301281535,
                1.9677135797733638,
                -0.8240317960035259,
                0.8540811271257736,
                -3.1376454048823
            ]
        },
        {
            "positions": [
                -2.6381471603597277,
                -1.099918972922548,
                1.9245588445562716,
                -0.8113609125867837,
                1.033557864547097,
                -3.1256275973675605
            ]
        },
        {
            "positions": [
                -2.7204104894222856,
                -1.0681306157169423,
                1.8814041093391796,
                -0.7986900291700414,
                1.2130346019684208,
                -3.1136097898528208
            ]
        },
        {
            "positions": [
                -2.8026738184848434,
                -1.0363422585113367,
                1.8382493741220876,
                -0.7860191457532992,
                1.3925113393897441,
                -3.1015919823380806
            ]
        },
        {
            "positions": [
                -2.884937147547401,
                -1.004553901305731,
                1.7950946389049953,
                -0.7733482623365571,
                1.571988076811068,
                -3.0895741748233405
            ]
        },
        {
            "positions": [
                -2.9672004766099587,
                -0.9727655441001254,
                1.7519399036879033,
                -0.7606773789198148,
                1.7514648142323916,
                -3.077556367308601
            ]
        }
    ]
}