{
    "goal": {
        "global_pose": {
            "orientation": {
                "w": 0.005598929693374612,
                "x": 0.007748599140229565,
                "y": 0.7110244013736278,
                "z": -0.7031023480610252
            },
            "position": {
                "x": 0.1141497679147869,
                "y": -0.7141253447532654,
                "z": 0.3711530566215515
            }
        },
        "name": "move_to_auspresseinheit_B"
    },
    "id": "BFMT_move_to_auspresseinheit_B_125",
    "joint_names": [
        "shoulder_pan_joint",
        "shoulder_lift_joint",
        "elbow_joint",
        "wrist_1_joint",
        "wrist_2_joint",
        "wrist_3_joint"
    ],
    "metrics": {
        "cart_traj_len": 0.5654763501707358,
        "distance_elbow_joint": 0.061583150428564215,
        "distance_shoulder_lift_joint": 0.2939693353070292,
        "distance_shoulder_pan_joint": 0.5750555475352686,
        "distance_wrist_1_joint": 0.31635636836295533,
        "distance_wrist_2_joint": 1.0076495775838956,
        "distance_wrist_3_joint": 0.0014840340778623506,
        "smoothness": 5.075305295617109e-16,
        "time": 0.482613365,
        "traj_len": 1.5020312957111033,
        "weighted_distance": 1.892900427227526
    },
    "planner": "BFMT",
    "start": {
        "state": {
            "elbow_joint": 2.0193083361928714,
            "shoulder_lift_joint": -1.1220246554650708,
            "shoulder_pan_joint": -1.0952077554168747,
            "wrist_1_joint": -0.8559753972642168,
            "wrist_2_joint": 0.4759566250798843,
            "wrist_3_joint": -3.1240929996934557
        }
    },
    "waypoints": [
        {
            "positions": [
                -1.0952077554168747,
                -1.1220246554650708,
                2.0193083361928714,
                -0.8559753972642168,
                0.4759566250798843,
                -3.1240929996934557
            ]
        },
        {
            "positions": [
                -1.1910503466727527,
                -1.171019544682909,
                2.0090444777881107,
                -0.8032493358703909,
                0.6438982213438669,
                -3.124340338706433
            ]
        },
        {
            "positions": [
                -1.286892937928631,
                -1.2200144339007473,
                1.99878061938335,
                -0.750523274476565,
                0.8118398176078494,
                -3.12458767771941
            ]
        },
        {
            "positions": [
                -1.382735529184509,
                -1.2690093231185853,
                1.9885167609785892,
                -0.6977972130827391,
                0.9797814138718322,
                -3.124835016732387
            ]
        },
        {
            "positions": [
                -1.478578120440387,
                -1.3180042123364235,
                1.9782529025738287,
                -0.6450711516889133,
                1.1477230101358147,
                -3.1250823557453637
            ]
        },
        {
            "positions": [
                -1.5744207116962652,
                -1.3669991015542617,
                1.967989044169068,
                -0.5923450902950873,
                1.3156646063997974,
                -3.125329694758341
            ]
        },
        {
            "positions": [
                -1.6702633029521432,
                -1.4159939907721,
                1.9577251857643072,
                -0.5396190289012615,
                1.48360620266378,
                -3.125577033771318
            ]
        }
    ]
}