{
    "goal": {
        "global_pose": {
            "orientation": {
                "w": -0.4816463035849501,
                "x": 0.5182115481033762,
                "y": 0.4908360881923453,
                "z": -0.5084816262002911
            },
            "position": {
                "x": -0.8240239810943604,
                "y": 0.19912469901144506,
                "z": 0.16403168439865112
            }
        },
        "name": "move_to_storage_D"
    },
    "id": "BFMT_move_to_storage_D_131",
    "joint_names": [
        "shoulder_pan_joint",
        "shoulder_lift_joint",
        "elbow_joint",
        "wrist_1_joint",
        "wrist_2_joint",
        "wrist_3_joint"
    ],
    "metrics": {
        "cart_traj_len": 4.035584240170816,
        "distance_elbow_joint": 4.207491324871041,
        "distance_shoulder_lift_joint": 1.26562249650119,
        "distance_shoulder_pan_joint": 2.812487247902573,
        "distance_wrist_1_joint": 2.2645146367498605,
        "distance_wrist_2_joint": 0.871310322542498,
        "distance_wrist_3_joint": 3.1410087116574466,
        "smoothness": 6.376665603605642e-16,
        "time": 0.789217673,
        "traj_len": 3.8160758299887862,
        "weighted_distance": 4.896966114119217
    },
    "planner": "BFMT",
    "start": {
        "state": {
            "elbow_joint": -2.384821988534728,
            "shoulder_lift_joint": -2.2788054721415256,
            "shoulder_pan_joint": -0.1854694642142757,
            "wrist_1_joint": 1.4845938289331202,
            "wrist_2_joint": 0.17898776772866878,
            "wrist_3_joint": 0.037105688729662994
        }
    },
    "waypoints": [
        {
            "positions": [
                -0.1854694642142757,
                -2.2788054721415256,
                -2.384821988534728,
                1.4845938289331202,
                0.17898776772866878,
                0.037105688729662994
            ]
        },
        {
            "positions": [
                -0.08382090315254184,
                -2.2449137031387156,
                -2.2899191856090875,
                1.4199182920561764,
                0.20516770605199103,
                -0.024346594241490868
            ]
        },
        {
            "positions": [
                0.017827657909192024,
                -2.211021934135906,
                -2.1950163826834475,
                1.3552427551792325,
                0.23134764437531327,
                -0.08579887721264473
            ]
        },
        {
            "positions": [
                0.11947621897092589,
                -2.177130165133096,
                -2.100113579757807,
                1.2905672183022887,
                0.2575275826986355,
                -0.14725116018379858
            ]
        },
        {
            "positions": [
                0.22112478003265976,
                -2.1432383961302865,
                -2.005210776832167,
                1.2258916814253449,
                0.2837075210219578,
                -0.20870344315495246
            ]
        },
        {
            "positions": [
                0.3227733410943937,
                -2.1093466271274766,
                -1.9103079739065265,
                1.1612161445484013,
                0.30988745934528006,
                -0.2701557261261063
            ]
        },
        {
            "positions": [
                0.4244219021561275,
                -2.075454858124667,
                -1.8154051709808865,
                1.0965406076714572,
                0.3360673976686023,
                -0.3316080090972602
            ]
        },
        {
            "positions": [
                0.5260704632178614,
                -2.041563089121857,
                -1.720502368055246,
                1.0318650707945136,
                0.3622473359919245,
                -0.393060292068414
            ]
        },
        {
            "positions": [
                0.6277190242795953,
                -2.0076713201190475,
                -1.625599565129606,
                0.9671895339175697,
                0.38842727431524676,
                -0.4545125750395679
            ]
        },
        {
            "positions": [
                0.7293675853413292,
                -1.9737795511162375,
                -1.5306967622039656,
                0.902513997040626,
                0.41460721263856903,
                -0.5159648580107217
            ]
        },
        {
            "positions": [
                0.8310161464030631,
                -1.9398877821134277,
                -1.4357939592783253,
                0.8378384601636821,
                0.44078715096189125,
                -0.5774171409818756
            ]
        },
        {
            "positions": [
                0.9326647074647968,
                -1.905996013110618,
                -1.340891156352685,
                0.7731629232867383,
                0.46696708928521347,
                -0.6388694239530295
            ]
        },
        {
            "positions": [
                1.0343132685265306,
                -1.8721042441078082,
                -1.2459883534270448,
                0.7084873864097945,
                0.4931470276085358,
                -0.7003217069241833
            ]
        },
        {
            "positions": [
                1.1359618295882645,
                -1.8382124751049984,
                -1.1510855505014046,
                0.6438118495328506,
                0.519326965931858,
                -0.7617739898953372
            ]
        },
        {
            "positions": [
                1.2376103906499984,
                -1.8043207061021884,
                -1.0561827475757644,
                0.5791363126559069,
                0.5455069042551802,
                -0.823226272866491
            ]
        },
        {
            "positions": [
                1.3392589517117324,
                -1.7704289370993787,
                -0.9612799446501239,
                0.514460775778963,
                0.5716868425785026,
                -0.884678555837645
            ]
        },
        {
            "positions": [
                1.440907512773466,
                -1.7365371680965689,
                -0.8663771417244839,
                0.44978523890201916,
                0.5978667809018248,
                -0.9461308388087988
            ]
        },
        {
            "positions": [
                1.5425560738352,
                -1.7026453990937591,
                -0.7714743387988434,
                0.38510970202507533,
                0.624046719225147,
                -1.0075831217799527
            ]
        },
        {
            "positions": [
                1.644204634896934,
                -1.6687536300909493,
                -0.6765715358732032,
                0.3204341651481317,
                0.6502266575484692,
                -1.0690354047511064
            ]
        },
        {
            "positions": [
                1.7458531959586678,
                -1.6348618610881396,
                -0.5816687329475629,
                0.25575862827118767,
                0.6764065958717915,
                -1.1304876877222605
            ]
        },
        {
            "positions": [
                1.8475017570204018,
                -1.6009700920853298,
                -0.4867659300219227,
                0.19108309139424406,
                0.7025865341951137,
                -1.1919399706934142
            ]
        },
        {
            "positions": [
                1.9491503180821357,
                -1.5670783230825198,
                -0.39186312709628246,
                0.1264075545173,
                0.728766472518436,
                -1.253392253664568
            ]
        },
        {
            "positions": [
                2.050798879143869,
                -1.5331865540797103,
                -0.2969603241706422,
                0.06173201764035641,
                0.7549464108417582,
                -1.314844536635722
            ]
        },
        {
            "positions": [
                2.152447440205603,
                -1.4992947850769003,
                -0.20205752124500176,
                -0.002943519236587422,
                0.7811263491650805,
                -1.3762968196068759
            ]
        },
        {
            "positions": [
                2.254096001267337,
                -1.4654030160740907,
                -0.10715471831936174,
                -0.06761905611353125,
                0.8073062874884027,
                -1.4377491025780296
            ]
        },
        {
            "positions": [
                2.355744562329071,
                -1.4315112470712807,
                -0.01225191539372128,
                -0.13229459299047508,
                0.8334862258117249,
                -1.4992013855491835
            ]
        },
        {
            "positions": [
                2.457393123390805,
                -1.3976194780684712,
                0.08265088753191874,
                -0.1969701298674189,
                0.8596661641350472,
                -1.5606536685203374
            ]
        },
        {
            "positions": [
                2.5590416844525388,
                -1.3637277090656612,
                0.17755369045755903,
                -0.26164566674436274,
                0.8858461024583695,
                -1.6221059514914913
            ]
        },
        {
            "positions": [
                2.5652213298376076,
                -1.3318600060269952,
                0.3271096582647185,
                -0.30876158866003334,
                0.9007962831686238,
                -1.756814776167518
            ]
        },
        {
            "positions": [
                2.5714009752226765,
                -1.2999923029883294,
                0.476665626071878,
                -0.355877510575704,
                0.915746463878878,
                -1.8915236008435445
            ]
        },
        {
            "positions": [
                2.577580620607746,
                -1.2681245999496633,
                0.6262215938790374,
                -0.4029934324913746,
                0.9306966445891324,
                -2.026232425519571
            ]
        },
        {
            "positions": [
                2.5837602659928147,
                -1.2362568969109975,
                0.775777561686197,
                -0.45010935440704525,
                0.9456468252993867,
                -2.160941250195598
            ]
        },
        {
            "positions": [
                2.5899399113778836,
                -1.2043891938723315,
                0.9253335294933565,
                -0.49722527632271585,
                0.9605970060096409,
                -2.295650074871624
            ]
        },
        {
            "positions": [
                2.5961195567629525,
                -1.1725214908336654,
                1.0748894973005159,
                -0.5443411982383864,
                0.9755471867198953,
                -2.4303588995476506
            ]
        },
        {
            "positions": [
                2.6022992021480214,
                -1.1406537877949994,
                1.2244454651076753,
                -0.591457120154057,
                0.9904973674301496,
                -2.5650677242236775
            ]
        },
        {
            "positions": [
                2.6084788475330902,
                -1.1087860847563336,
                1.374001432914835,
                -0.6385730420697278,
                1.005447548140404,
                -2.699776548899704
            ]
        },
        {
            "positions": [
                2.6146584929181595,
                -1.0769183817176675,
                1.5235574007219945,
                -0.6856889639853984,
                1.020397728850658,
                -2.8344853735757303
            ]
        },
        {
            "positions": [
                2.6208381383032284,
                -1.0450506786790017,
                1.6731133685291537,
                -0.732804885901069,
                1.0353479095609124,
                -2.969194198251757
            ]
        },
        {
            "positions": [
                2.6270177836882973,
                -1.0131829756403357,
                1.8226693363363133,
                -0.7799208078167396,
                1.0502980902711667,
                -3.1039030229277835
            ]
        }
    ]
}