{
    "goal": {
        "global_pose": {
            "orientation": {
                "w": 0.7031023480610252,
                "x": -0.7110244013736278,
                "y": 0.0077485991402295624,
                "z": 0.005598929693374583
            },
            "position": {
                "x": -0.8841497679147869,
                "y": 0.44412534475326537,
                "z": 0.3711530566215515
            }
        },
        "name": "move_to_auspresseinheit_D"
    },
    "id": "BFMT_move_to_auspresseinheit_D_110",
    "joint_names": [
        "shoulder_pan_joint",
        "shoulder_lift_joint",
        "elbow_joint",
        "wrist_1_joint",
        "wrist_2_joint",
        "wrist_3_joint"
    ],
    "metrics": {
        "cart_traj_len": 0.3433898583878426,
        "distance_elbow_joint": 0.6469547288342428,
        "distance_shoulder_lift_joint": 0.1262055374668387,
        "distance_shoulder_pan_joint": 0.13422718923373275,
        "distance_wrist_1_joint": 0.5667111026710283,
        "distance_wrist_2_joint": 1.429341558996073,
        "distance_wrist_3_joint": 0.021693023713811765,
        "smoothness": 0.0,
        "time": 0.46979866600000003,
        "traj_len": 1.7103020613083897,
        "weighted_distance": 2.22813191934644
    },
    "planner": "BFMT",
    "start": {
        "state": {
            "elbow_joint": -1.8275523626775212,
            "shoulder_lift_joint": -2.126789852344167,
            "shoulder_pan_joint": -0.03513704404078235,
            "wrist_1_joint": -2.347782403156801,
            "wrist_2_joint": -1.6058999987535132,
            "wrist_3_joint": -3.0880379163319196
        }
    },
    "waypoints": [
        {
            "positions": [
                -0.03513704404078235,
                -2.126789852344167,
                -1.8275523626775212,
                -2.347782403156801,
                -1.6058999987535132,
                -3.0880379163319196
            ]
        },
        {
            "positions": [
                -0.05191544269499894,
                -2.1425655445275216,
                -1.746683021573241,
                -2.4186212909906795,
                -1.427232303879004,
                -3.085326288367693
            ]
        },
        {
            "positions": [
                -0.06869384134921554,
                -2.1583412367108767,
                -1.6658136804689605,
                -2.489460178824558,
                -1.2485646090044948,
                -3.0826146604034665
            ]
        },
        {
            "positions": [
                -0.08547224000343212,
                -2.1741169288942315,
                -1.58494433936468,
                -2.5602990666584367,
                -1.0698969141299859,
                -3.07990303243924
            ]
        },
        {
            "positions": [
                -0.10225063865764872,
                -2.189892621077586,
                -1.5040749982603998,
                -2.6311379544923152,
                -0.8912292192554767,
                -3.0771914044750135
            ]
        },
        {
            "positions": [
                -0.11902903731186532,
                -2.205668313260941,
                -1.4232056571561196,
                -2.7019768423261934,
                -0.7125615243809675,
                -3.0744797765107874
            ]
        },
        {
            "positions": [
                -0.1358074359660819,
                -2.2214440054442957,
                -1.3423363160518391,
                -2.772815730160072,
                -0.5338938295064586,
                -3.071768148546561
            ]
        },
        {
            "positions": [
                -0.1525858346202985,
                -2.237219697627651,
                -1.2614669749475587,
                -2.8436546179939506,
                -0.3552261346319494,
                -3.0690565205823344
            ]
        },
        {
            "positions": [
                -0.1693642332745151,
                -2.2529953898110056,
                -1.1805976338432784,
                -2.914493505827829,
                -0.1765584397574403,
                -3.066344892618108
            ]
        }
    ]
}