{
    "goal": {
        "global_pose": {
            "orientation": {
                "w": 0.005598929693374612,
                "x": 0.007748599140229565,
                "y": 0.7110244013736278,
                "z": -0.7031023480610252
            },
            "position": {
                "x": -0.8858502320852131,
                "y": -0.7141253447532654,
                "z": 0.3711530566215515
            }
        },
        "name": "move_to_auspresseinheit_C"
    },
    "id": "BFMT_move_to_auspresseinheit_C_62",
    "joint_names": [
        "shoulder_pan_joint",
        "shoulder_lift_joint",
        "elbow_joint",
        "wrist_1_joint",
        "wrist_2_joint",
        "wrist_3_joint"
    ],
    "metrics": {
        "cart_traj_len": 0.49485006646102137,
        "distance_elbow_joint": 1.0178432583886714,
        "distance_shoulder_lift_joint": 0.33307534668454886,
        "distance_shoulder_pan_joint": 0.25674659613135864,
        "distance_wrist_1_joint": 0.7115982964059153,
        "distance_wrist_2_joint": 1.307099273179511,
        "distance_wrist_3_joint": 0.08966271144701254,
        "smoothness": 0.0,
        "time": 0.46261187299999995,
        "traj_len": 1.9276995311087821,
        "weighted_distance": 2.431881673666807
    },
    "planner": "BFMT",
    "start": {
        "state": {
            "elbow_joint": 1.7527959577737207,
            "shoulder_lift_joint": -0.9740617694225068,
            "shoulder_pan_joint": -2.967991417825858,
            "wrist_1_joint": -0.759517768980727,
            "wrist_2_joint": 1.7443932448377408,
            "wrist_3_joint": -3.0840537646736568
        }
    },
    "waypoints": [
        {
            "positions": [
                -2.967991417825858,
                -0.9740617694225068,
                1.7527959577737207,
                -0.759517768980727,
                1.7443932448377408,
                -3.0840537646736568
            ]
        },
        {
            "positions": [
                -2.942316758212722,
                -0.9407542347540518,
                1.6510116319348536,
                -0.6883579393401354,
                1.6136833175197898,
                -3.093020035818358
            ]
        },
        {
            "positions": [
                -2.9166420985995862,
                -0.907446700085597,
                1.5492273060959865,
                -0.6171981096995439,
                1.4829733902018387,
                -3.101986306963059
            ]
        },
        {
            "positions": [
                -2.8909674389864506,
                -0.8741391654171421,
                1.4474429802571191,
                -0.5460382800589524,
                1.3522634628838874,
                -3.1109525781077605
            ]
        },
        {
            "positions": [
                -2.8652927793733145,
                -0.8408316307486872,
                1.345658654418252,
                -0.47487845041836085,
                1.2215535355659364,
                -3.119918849252462
            ]
        },
        {
            "positions": [
                -2.8396181197601784,
                -0.8075240960802323,
                1.243874328579385,
                -0.4037186207777693,
                1.0908436082479853,
                -3.128885120397163
            ]
        },
        {
            "positions": [
                -2.8139434601470428,
                -0.7742165614117775,
                1.1420900027405179,
                -0.3325587911371778,
                0.9601336809300343,
                -3.137851391541864
            ]
        },
        {
            "positions": [
                -2.788268800533907,
                -0.7409090267433226,
                1.0403056769016508,
                -0.2613989614965863,
                0.8294237536120832,
                -3.1468176626865656
            ]
        },
        {
            "positions": [
                -2.762594140920771,
                -0.7076014920748677,
                0.9385213510627834,
                -0.19023913185599473,
                0.6987138262941319,
                -3.155783933831267
            ]
        },
        {
            "positions": [
                -2.736919481307635,
                -0.6742939574064128,
                0.8367370252239164,
                -0.1190793022154032,
                0.5680038989761809,
                -3.164750204975968
            ]
        },
        {
            "positions": [
                -2.7112448216944993,
                -0.6409864227379579,
                0.7349526993850493,
                -0.04791947257481164,
                0.43729397165822975,
                -3.1737164761206693
            ]
        }
    ]
}