{
    "goal": {
        "global_pose": {
            "orientation": {
                "w": -0.4816463035849501,
                "x": 0.5182115481033762,
                "y": 0.4908360881923453,
                "z": -0.5084816262002911
            },
            "position": {
                "x": -0.8240239810943604,
                "y": -0.300875300988555,
                "z": 0.16403168439865112
            }
        },
        "name": "move_to_storage_C"
    },
    "id": "BFMT_move_to_storage_C_48",
    "joint_names": [
        "shoulder_pan_joint",
        "shoulder_lift_joint",
        "elbow_joint",
        "wrist_1_joint",
        "wrist_2_joint",
        "wrist_3_joint"
    ],
    "metrics": {
        "cart_traj_len": 0.5771517264609816,
        "distance_elbow_joint": 0.25787742385696566,
        "distance_shoulder_lift_joint": 0.1894321086057985,
        "distance_shoulder_pan_joint": 0.49612668436927043,
        "distance_wrist_1_joint": 0.07708492712335901,
        "distance_wrist_2_joint": 1.0603865422850616,
        "distance_wrist_3_joint": 0.07401058630129365,
        "smoothness": 2.5376526478085547e-16,
        "time": 0.472948092,
        "traj_len": 1.4679639888436462,
        "weighted_distance": 1.8548344709306965
    },
    "planner": "BFMT",
    "start": {
        "state": {
            "elbow_joint": 2.010868314990456,
            "shoulder_lift_joint": -1.1634956873337592,
            "shoulder_pan_joint": -2.4736205022346125,
            "wrist_1_joint": -0.8367026794202681,
            "wrist_2_joint": 0.6746043897044499,
            "wrist_3_joint": -3.1496632123970403
        }
    },
    "waypoints": [
        {
            "positions": [
                -2.4736205022346125,
                -1.1634956873337592,
                2.010868314990456,
                -0.8367026794202681,
                0.6746043897044499,
                -3.1496632123970403
            ]
        },
        {
            "positions": [
                -2.5563082829628243,
                -1.1319236692327928,
                1.9678887443476283,
                -0.823855191566375,
                0.8513354800852935,
                -3.137328114680158
            ]
        },
        {
            "positions": [
                -2.638996063691036,
                -1.1003516511318263,
                1.9249091737048005,
                -0.8110077037124818,
                1.0280665704661371,
                -3.1249930169632756
            ]
        },
        {
            "positions": [
                -2.721683844419248,
                -1.0687796330308599,
                1.881929603061973,
                -0.7981602158585885,
                1.2047976608469808,
                -3.1126579192463932
            ]
        },
        {
            "positions": [
                -2.8043716251474593,
                -1.0372076149298934,
                1.8389500324191455,
                -0.7853127280046954,
                1.3815287512278243,
                -3.1003228215295113
            ]
        },
        {
            "positions": [
                -2.887059405875671,
                -1.005635596828927,
                1.7959704617763177,
                -0.7724652401508023,
                1.558259841608668,
                -3.087987723812629
            ]
        },
        {
            "positions": [
                -2.969747186603883,
                -0.9740635787279607,
                1.7529908911334902,
                -0.7596177522969091,
                1.7349909319895114,
                -3.0756526260957466
            ]
        }
    ]
}