{
    "goal": {
        "global_pose": {
            "orientation": {
                "w": -0.00223480608172531,
                "x": 0.0024358444001904467,
                "y": 0.7094548369677653,
                "z": -0.704743149386269
            },
            "position": {
                "x": 0.6205249238014221,
                "y": -0.6371506643295288,
                "z": 0.19426114857196808
            }
        },
        "name": "move_to_magneteinheit_B"
    },
    "id": "BFMT_move_to_magneteinheit_B_62",
    "joint_names": [
        "shoulder_pan_joint",
        "shoulder_lift_joint",
        "elbow_joint",
        "wrist_1_joint",
        "wrist_2_joint",
        "wrist_3_joint"
    ],
    "metrics": {
        "cart_traj_len": 1.4430282080950048,
        "distance_elbow_joint": 0.9545006267910165,
        "distance_shoulder_lift_joint": 0.7541785364923872,
        "distance_shoulder_pan_joint": 1.621517654545384,
        "distance_wrist_1_joint": 0.18969470916662612,
        "distance_wrist_2_joint": 1.5147074265861333,
        "distance_wrist_3_joint": 0.008417100652891262,
        "smoothness": 0.0001718095285846405,
        "time": 0.555495717,
        "traj_len": 2.2456660602668506,
        "weighted_distance": 2.6008176389922038
    },
    "planner": "BFMT",
    "start": {
        "state": {
            "elbow_joint": 2.6216224122426386,
            "shoulder_lift_joint": -1.4174107377796124,
            "shoulder_pan_joint": 0.7066234856936794,
            "wrist_1_joint": 1.9546482284002225,
            "wrist_2_joint": -0.7096286983471962,
            "wrist_3_joint": 0.005740856962016249
        }
    },
    "waypoints": [
        {
            "positions": [
                0.7066234856936794,
                -1.4174107377796124,
                2.6216224122426386,
                1.9546482284002225,
                -0.7096286983471962,
                0.005740856962016249
            ]
        },
        {
            "positions": [
                0.5959083098479678,
                -1.3989105413040952,
                2.60405365876756,
                1.9705090034999362,
                -0.8154362505561399,
                0.007780409906966937
            ]
        },
        {
            "positions": [
                0.4851931340022562,
                -1.3804103448285778,
                2.586484905292482,
                1.98636977859965,
                -0.9212438027650834,
                0.009819962851917625
            ]
        },
        {
            "positions": [
                0.3744779581565446,
                -1.3619101483530607,
                2.5689161518174033,
                2.0022305536993636,
                -1.027051354974027,
                0.011859515796868312
            ]
        },
        {
            "positions": [
                0.263762782310833,
                -1.3434099518775433,
                2.551347398342325,
                2.0180913287990774,
                -1.1328589071829707,
                0.013899068741819
            ]
        },
        {
            "positions": [
                0.14589708719457928,
                -1.2753921768185115,
                2.462924837053255,
                2.0307164896758545,
                -1.2420066289580065,
                0.01387317985451015
            ]
        },
        {
            "positions": [
                0.02803139207832553,
                -1.2073744017594796,
                2.3745022757641845,
                2.0433416505526316,
                -1.3511543507330424,
                0.013847290967201298
            ]
        },
        {
            "positions": [
                -0.08983430303792816,
                -1.1393566267004478,
                2.286079714475114,
                2.0559668114294087,
                -1.4603020725080782,
                0.013821402079892449
            ]
        },
        {
            "positions": [
                -0.20769999815418194,
                -1.071338851641416,
                2.197657153186044,
                2.068591972306186,
                -1.5694497942831143,
                0.013795513192583597
            ]
        },
        {
            "positions": [
                -0.32556569327043566,
                -1.0033210765823841,
                2.1092345918969735,
                2.081217133182963,
                -1.67859751605815,
                0.013769624305274746
            ]
        },
        {
            "positions": [
                -0.44343138838668933,
                -0.9353033015233525,
                2.020812030607903,
                2.09384229405974,
                -1.787745237833186,
                0.013743735417965895
            ]
        },
        {
            "positions": [
                -0.5612970835029432,
                -0.8672855264643207,
                1.932389469318833,
                2.106467454936517,
                -1.8968929596082218,
                0.013717846530657043
            ]
        },
        {
            "positions": [
                -0.6791627786191969,
                -0.7992677514052887,
                1.8439669080297625,
                2.1190926158132943,
                -2.006040681383258,
                0.013691957643348194
            ]
        },
        {
            "positions": [
                -0.7970284737354505,
                -0.731249976346257,
                1.7555443467406924,
                2.1317177766900715,
                -2.1151884031582937,
                0.013666068756039342
            ]
        },
        {
            "positions": [
                -0.9148941688517044,
                -0.6632322012872252,
                1.667121785451622,
                2.1443429375668486,
                -2.2243361249333296,
                0.01364017986873049
            ]
        }
    ]
}