{
    "goal": {
        "global_pose": {
            "orientation": {
                "w": 0.7031023502349854,
                "x": -0.7110244035720825,
                "y": 0.007748599164187908,
                "z": 0.005598929710686207
            },
            "position": {
                "x": 0.11585023208521307,
                "y": 0.44412534475326537,
                "z": 0.3711530566215515
            }
        },
        "name": "move_to_auspresseinheit_A"
    },
    "id": "BFMT_move_to_auspresseinheit_A_41",
    "joint_names": [
        "shoulder_pan_joint",
        "shoulder_lift_joint",
        "elbow_joint",
        "wrist_1_joint",
        "wrist_2_joint",
        "wrist_3_joint"
    ],
    "metrics": {
        "cart_traj_len": 1.062343139724619,
        "distance_elbow_joint": 0.5929896065441165,
        "distance_shoulder_lift_joint": 0.5380093230066207,
        "distance_shoulder_pan_joint": 3.241684426430848,
        "distance_wrist_1_joint": 3.8606440443328216,
        "distance_wrist_2_joint": 2.512017165174856,
        "distance_wrist_3_joint": 12.743973829279945,
        "smoothness": 0.541407546089189,
        "time": 0.788761237,
        "traj_len": 4.846578008736599,
        "weighted_distance": 7.439753172171561
    },
    "planner": "BFMT",
    "start": {
        "state": {
            "elbow_joint": 2.4225746658250005,
            "shoulder_lift_joint": -1.3736534386056498,
            "shoulder_pan_joint": -0.3378633547517467,
            "wrist_1_joint": -1.0288598680537169,
            "wrist_2_joint": 1.233022673432363,
            "wrist_3_joint": -3.0940220416140027
        }
    },
    "waypoints": [
        {
            "positions": [
                -0.3378633547517467,
                -1.3736534386056498,
                2.4225746658250005,
                -1.0288598680537169,
                1.233022673432363,
                -3.0940220416140027
            ]
        },
        {
            "positions": [
                -0.3732936140668101,
                -1.3878861995551104,
                2.431739932280614,
                -0.957763517451716,
                1.1841994532210653,
                -2.889053536307575
            ]
        },
        {
            "positions": [
                -0.40872387338187355,
                -1.4021189605045707,
                2.4409051987362274,
                -0.886667166849715,
                1.1353762330097676,
                -2.684085031001147
            ]
        },
        {
            "positions": [
                -0.44415413269693693,
                -1.4163517214540313,
                2.450070465191841,
                -0.8155708162477141,
                1.0865530127984697,
                -2.479116525694719
            ]
        },
        {
            "positions": [
                -0.4795843920120003,
                -1.4305844824034917,
                2.4592357316474542,
                -0.7444744656457132,
                1.037729792587172,
                -2.274148020388291
            ]
        },
        {
            "positions": [
                -0.5150146513270637,
                -1.4448172433529523,
                2.4684009981030677,
                -0.6733781150437121,
                0.9889065723758743,
                -2.069179515081863
            ]
        },
        {
            "positions": [
                -0.5504449106421272,
                -1.4590500043024126,
                2.477566264558681,
                -0.6022817644417113,
                0.9400833521645766,
                -1.8642110097754352
            ]
        },
        {
            "positions": [
                -0.5858751699571905,
                -1.4732827652518732,
                2.4867315310142946,
                -0.5311854138397103,
                0.8912601319532789,
                -1.6592425044690071
            ]
        },
        {
            "positions": [
                -0.621305429272254,
                -1.4875155262013335,
                2.495896797469908,
                -0.4600890632377094,
                0.8424369117419812,
                -1.4542739991625793
            ]
        },
        {
            "positions": [
                -0.6567356885873173,
                -1.5017482871507941,
                2.5050620639255214,
                -0.38899271263570845,
                0.7936136915306834,
                -1.2493054938561512
            ]
        },
        {
            "positions": [
                -0.6921659479023807,
                -1.5159810481002545,
                2.514227330381135,
                -0.3178963620337075,
                0.7447904713193857,
                -1.0443369885497233
            ]
        },
        {
            "positions": [
                -0.7275962072174442,
                -1.530213809049715,
                2.5233925968367483,
                -0.2468000114317066,
                0.6959672511080879,
                -0.8393684832432955
            ]
        },
        {
            "positions": [
                -0.7630264665325075,
                -1.5444465699991754,
                2.5325578632923618,
                -0.17570366082970568,
                0.6471440308967902,
                -0.6343999779368676
            ]
        },
        {
            "positions": [
                -0.798456725847571,
                -1.558679330948636,
                2.541723129747975,
                -0.10460731022770464,
                0.5983208106854925,
                -0.42943147263043935
            ]
        },
        {
            "positions": [
                -0.8338869851626343,
                -1.5729120918980963,
                2.5508883962035886,
                -0.03351095962570383,
                0.5494975904741948,
                -0.2244629673240115
            ]
        },
        {
            "positions": [
                -0.8693172444776978,
                -1.587144852847557,
                2.560053662659202,
                0.037585390976297095,
                0.500674370262897,
                -0.019494462017583647
            ]
        },
        {
            "positions": [
                -0.904747503792761,
                -1.6013776137970173,
                2.5692189291148155,
                0.10868174157829813,
                0.45185115005159926,
                0.1854740432888442
            ]
        },
        {
            "positions": [
                -0.9401777631078245,
                -1.6156103747464778,
                2.578384195570429,
                0.17977809218029894,
                0.40302792984030156,
                0.39044254859527205
            ]
        },
        {
            "positions": [
                -0.975608022422888,
                -1.6298431356959382,
                2.5875494620260424,
                0.2508744427823,
                0.35420470962900374,
                0.5954110539017003
            ]
        },
        {
            "positions": [
                -1.0110382817379513,
                -1.6440758966453988,
                2.596714728481656,
                0.321970793384301,
                0.30538148941770604,
                0.8003795592081282
            ]
        },
        {
            "positions": [
                -1.0464685410530148,
                -1.6583086575948591,
                2.6058799949372693,
                0.3930671439863018,
                0.25655826920640834,
                1.005348064514556
            ]
        },
        {
            "positions": [
                -1.081898800368078,
                -1.6725414185443197,
                2.6150452613928827,
                0.46416349458830264,
                0.20773504899511064,
                1.210316569820984
            ]
        },
        {
            "positions": [
                -1.1173290596831416,
                -1.68677417949378,
                2.624210527848496,
                0.5352598451903037,
                0.15891182878381271,
                1.4152850751274118
            ]
        },
        {
            "positions": [
                -1.152759318998205,
                -1.7010069404432406,
                2.6333757943041096,
                0.6063561957923047,
                0.11008860857251501,
                1.6202535804338396
            ]
        },
        {
            "positions": [
                -1.1881895783132683,
                -1.715239701392701,
                2.642541060759723,
                0.6774525463943055,
                0.06126538836121731,
                1.8252220857402675
            ]
        },
        {
            "positions": [
                -1.2236198376283318,
                -1.7294724623421616,
                2.6517063272153365,
                0.7485488969963063,
                0.012442168149919608,
                2.0301905910466953
            ]
        },
        {
            "positions": [
                -1.2590500969433953,
                -1.743705223291622,
                2.66087159367095,
                0.8196452475983076,
                -0.036381052061378094,
                2.235159096353124
            ]
        },
        {
            "positions": [
                -1.2944803562584586,
                -1.7579379842410825,
                2.6700368601265634,
                0.8907415982003084,
                -0.0852042722726758,
                2.440127601659552
            ]
        },
        {
            "positions": [
                -1.3299106155735219,
                -1.772170745190543,
                2.679202126582177,
                0.9618379488023092,
                -0.1340274924839735,
                2.6450961069659797
            ]
        },
        {
            "positions": [
                -1.3653408748885854,
                -1.7864035061400034,
                2.6883673930377903,
                1.03293429940431,
                -0.1828507126952712,
                2.8500646122724067
            ]
        },
        {
            "positions": [
                -1.4007711342036488,
                -1.8006362670894638,
                2.6975326594934037,
                1.104030650006311,
                -0.23167393290656912,
                3.0550331175788354
            ]
        },
        {
            "positions": [
                -1.4362013935187121,
                -1.8148690280389244,
                2.706697925949017,
                1.1751270006083119,
                -0.2804971531178668,
                3.2600016228852637
            ]
        },
        {
            "positions": [
                -1.364756513929916,
                -1.8180954858247025,
                2.696402381068347,
                1.119905094752619,
                -0.24721390849704603,
                3.0470032840592407
            ]
        },
        {
            "positions": [
                -1.29331163434112,
                -1.8213219436104808,
                2.686106836187677,
                1.064683188896926,
                -0.21393066387622522,
                2.834004945233218
            ]
        },
        {
            "positions": [
                -1.2218667547523239,
                -1.824548401396259,
                2.6758112913070073,
                1.009461283041233,
                -0.1806474192554044,
                2.621006606407195
            ]
        },
        {
            "positions": [
                -1.1504218751635278,
                -1.827774859182037,
                2.6655157464263373,
                0.95423937718554,
                -0.1473641746345836,
                2.4080082675811725
            ]
        },
        {
            "positions": [
                -1.0789769955747317,
                -1.8310013169678154,
                2.655220201545667,
                0.8990174713298471,
                -0.1140809300137628,
                2.1950099287551494
            ]
        },
        {
            "positions": [
                -1.0075321159859354,
                -1.8342277747535936,
                2.644924656664997,
                0.843795565474154,
                -0.08079768539294196,
                1.9820115899291264
            ]
        },
        {
            "positions": [
                -0.9360872363971394,
                -1.837454232539372,
                2.634629111784327,
                0.7885736596184612,
                -0.047514440772121164,
                1.7690132511031036
            ]
        },
        {
            "positions": [
                -0.8646423568083433,
                -1.84068069032515,
                2.6243335669036574,
                0.7333517537627681,
                -0.014231196151300363,
                1.556014912277081
            ]
        },
        {
            "positions": [
                -0.7931974772195473,
                -1.8439071481109282,
                2.6140380220229873,
                0.6781298479070752,
                0.01905204846952041,
                1.3430165734510582
            ]
        },
        {
            "positions": [
                -0.7217525976307512,
                -1.8471336058967065,
                2.603742477142317,
                0.6229079420513822,
                0.05233529309034124,
                1.1300182346250351
            ]
        },
        {
            "positions": [
                -0.6503077180419551,
                -1.8503600636824846,
                2.593446932261647,
                0.5676860361956892,
                0.08561853771116201,
                0.9170198957990126
            ]
        },
        {
            "positions": [
                -0.5788628384531589,
                -1.8535865214682627,
                2.583151387380977,
                0.5124641303399962,
                0.1189017823319829,
                0.7040215569729891
            ]
        },
        {
            "positions": [
                -0.5074179588643628,
                -1.856812979254041,
                2.5728558425003074,
                0.4572422244843033,
                0.15218502695280367,
                0.4910232181469665
            ]
        },
        {
            "positions": [
                -0.4359730792755667,
                -1.8600394370398192,
                2.5625602976196373,
                0.4020203186286103,
                0.1854682715736245,
                0.27802487932094344
            ]
        },
        {
            "positions": [
                -0.36452819968677064,
                -1.8632658948255973,
                2.5522647527389672,
                0.34679841277291734,
                0.21875151619444527,
                0.06502654049492085
            ]
        },
        {
            "positions": [
                -0.29308332009797455,
                -1.8664923526113757,
                2.541969207858297,
                0.29157650691722437,
                0.2520347608152661,
                -0.14797179833110174
            ]
        },
        {
            "positions": [
                -0.22163844050917847,
                -1.8697188103971538,
                2.531673662977627,
                0.2363546010615314,
                0.2853180054360869,
                -0.3609701371571248
            ]
        },
        {
            "positions": [
                -0.15019356092038239,
                -1.8729452681829322,
                2.5213781180969574,
                0.18113269520583852,
                0.31860125005690765,
                -0.5739684759831474
            ]
        },
        {
            "positions": [
                -0.0787486813315863,
                -1.8761717259687103,
                2.5110825732162874,
                0.12591078935014544,
                0.3518844946777284,
                -0.7869668148091704
            ]
        },
        {
            "positions": [
                -0.007303801742790217,
                -1.8793981837544884,
                2.5007870283356173,
                0.07068888349445257,
                0.3851677392985493,
                -0.9999651536351934
            ]
        },
        {
            "positions": [
                0.06414107784600587,
                -1.8826246415402668,
                2.490491483454947,
                0.015466977638759705,
                0.4184509839193701,
                -1.2129634924612156
            ]
        },
        {
            "positions": [
                0.13558595743480195,
                -1.8858510993260449,
                2.480195938574277,
                -0.03975492821693338,
                0.45173422854019085,
                -1.4259618312872386
            ]
        },
        {
            "positions": [
                0.20703083702359826,
                -1.889077557111823,
                2.4699003936936075,
                -0.09497683407262647,
                0.48501747316101174,
                -1.6389601701132626
            ]
        },
        {
            "positions": [
                0.27847571661239434,
                -1.8923040148976014,
                2.4596048488129374,
                -0.15019873992831956,
                0.5183007177818326,
                -1.8519585089392856
            ]
        },
        {
            "positions": [
                0.3499205962011904,
                -1.8955304726833795,
                2.4493093039322673,
                -0.20542064578401242,
                0.5515839624026534,
                -2.0649568477653077
            ]
        },
        {
            "positions": [
                0.4213654757899865,
                -1.8987569304691578,
                2.4390137590515972,
                -0.2606425516397053,
                0.5848672070234742,
                -2.277955186591331
            ]
        },
        {
            "positions": [
                0.4928103553787826,
                -1.901983388254936,
                2.428718214170927,
                -0.3158644574953984,
                0.6181504516442949,
                -2.490953525417354
            ]
        },
        {
            "positions": [
                0.5642552349675787,
                -1.905209846040714,
                2.4184226692902575,
                -0.37108636335109124,
                0.6514336962651158,
                -2.703951864243377
            ]
        },
        {
            "positions": [
                0.6357001145563748,
                -1.9084363038264924,
                2.4081271244095874,
                -0.42630826920678433,
                0.6847169408859366,
                -2.916950203069399
            ]
        },
        {
            "positions": [
                0.7071449941451707,
                -1.9116627616122706,
                2.3978315795289173,
                -0.4815301750624772,
                0.7180001855067574,
                -3.129948541895422
            ]
        }
    ]
}