{
    "goal": {
        "global_pose": {
            "orientation": {
                "w": 0.7031023480610252,
                "x": -0.7110244013736278,
                "y": 0.0077485991402295624,
                "z": 0.005598929693374583
            },
            "position": {
                "x": -0.8841497679147869,
                "y": 0.44412534475326537,
                "z": 0.3711530566215515
            }
        },
        "name": "move_to_auspresseinheit_D"
    },
    "id": "BFMT_move_to_auspresseinheit_D_111",
    "joint_names": [
        "shoulder_pan_joint",
        "shoulder_lift_joint",
        "elbow_joint",
        "wrist_1_joint",
        "wrist_2_joint",
        "wrist_3_joint"
    ],
    "metrics": {
        "cart_traj_len": 0.34339392130207325,
        "distance_elbow_joint": 0.6561421300903927,
        "distance_shoulder_lift_joint": 0.13139965838486978,
        "distance_shoulder_pan_joint": 0.13295286795610545,
        "distance_wrist_1_joint": 0.5869828168196145,
        "distance_wrist_2_joint": 1.4413624949414912,
        "distance_wrist_3_joint": 0.03751582883308435,
        "smoothness": 5.921189480296099e-16,
        "time": 0.49073443,
        "traj_len": 1.7281075768092558,
        "weighted_distance": 2.2560436091646885
    },
    "planner": "BFMT",
    "start": {
        "state": {
            "elbow_joint": -1.8275523626775212,
            "shoulder_lift_joint": -2.126789852344167,
            "shoulder_pan_joint": -0.03513704404078235,
            "wrist_1_joint": -2.347782403156801,
            "wrist_2_joint": -1.6058999987535132,
            "wrist_3_joint": -3.0880379163319196
        }
    },
    "waypoints": [
        {
            "positions": [
                -0.03513704404078235,
                -2.126789852344167,
                -1.8275523626775212,
                -2.347782403156801,
                -1.6058999987535132,
                -3.0880379163319196
            ]
        },
        {
            "positions": [
                -0.05175615253529553,
                -2.1432148096422754,
                -1.745534596416222,
                -2.4211552552592526,
                -1.425729686885827,
                -3.083348437727784
            ]
        },
        {
            "positions": [
                -0.0683752610298087,
                -2.1596397669403844,
                -1.663516830154923,
                -2.4945281073617043,
                -1.2455593750181404,
                -3.0786589591236484
            ]
        },
        {
            "positions": [
                -0.08499436952432189,
                -2.176064724238493,
                -1.581499063893624,
                -2.5679009594641564,
                -1.065389063150454,
                -3.073969480519513
            ]
        },
        {
            "positions": [
                -0.10161347801883508,
                -2.1924896815366015,
                -1.4994812976323248,
                -2.641273811566608,
                -0.8852187512827676,
                -3.069280001915377
            ]
        },
        {
            "positions": [
                -0.11823258651334825,
                -2.2089146388347105,
                -1.4174635313710258,
                -2.71464666366906,
                -0.7050484394150812,
                -3.064590523311242
            ]
        },
        {
            "positions": [
                -0.13485169500786143,
                -2.225339596132819,
                -1.3354457651097267,
                -2.788019515771512,
                -0.5248781275473948,
                -3.0599010447071064
            ]
        },
        {
            "positions": [
                -0.15147080350237463,
                -2.241764553430928,
                -1.2534279988484276,
                -2.8613923678739637,
                -0.3447078156797083,
                -3.0552115661029706
            ]
        },
        {
            "positions": [
                -0.1680899119968878,
                -2.2581895107290366,
                -1.1714102325871285,
                -2.9347652199764154,
                -0.1645375038120221,
                -3.0505220874988352
            ]
        }
    ]
}