{
    "goal": {
        "global_pose": {
            "orientation": {
                "w": 0.7047431493862688,
                "x": -0.7094548369677653,
                "y": 0.0024358444001904,
                "z": -0.0022348060817251984
            },
            "position": {
                "x": -0.39052492380142206,
                "y": 0.3671506643295288,
                "z": 0.19426114857196808
            }
        },
        "name": "move_to_magneteinheit_D"
    },
    "id": "BFMT_move_to_magneteinheit_D_84",
    "joint_names": [
        "shoulder_pan_joint",
        "shoulder_lift_joint",
        "elbow_joint",
        "wrist_1_joint",
        "wrist_2_joint",
        "wrist_3_joint"
    ],
    "metrics": {
        "cart_traj_len": 3.4609577832910348,
        "distance_elbow_joint": 3.360426429057495,
        "distance_shoulder_lift_joint": 1.629653469613291,
        "distance_shoulder_pan_joint": 2.600664482389605,
        "distance_wrist_1_joint": 2.3937214472466195,
        "distance_wrist_2_joint": 2.120052847640266,
        "distance_wrist_3_joint": 3.42860654432178,
        "smoothness": 0.45953059354509634,
        "time": 1.211094557,
        "traj_len": 3.9412085989286405,
        "weighted_distance": 5.18691744717414
    },
    "planner": "BFMT",
    "start": {
        "state": {
            "elbow_joint": 0.749534889911806,
            "shoulder_lift_joint": -0.6476975780787326,
            "shoulder_pan_joint": -2.711696901376241,
            "wrist_1_joint": -0.07506478083263063,
            "wrist_2_joint": 0.43296659715538205,
            "wrist_3_joint": -3.14703540197715
        }
    },
    "waypoints": [
        {
            "positions": [
                -2.711696901376241,
                -0.6476975780787326,
                0.749534889911806,
                -0.07506478083263063,
                0.43296659715538205,
                -3.14703540197715
            ]
        },
        {
            "positions": [
                -2.7239790459576803,
                -0.655116910379975,
                0.6028394852199526,
                -0.0065740980052170495,
                0.37198348817180044,
                -3.1536064354793827
            ]
        },
        {
            "positions": [
                -2.7362611905391194,
                -0.6625362426812174,
                0.4561440805280992,
                0.06191658482219653,
                0.3110003791882188,
                -3.160177468981615
            ]
        },
        {
            "positions": [
                -2.7485433351205586,
                -0.6699555749824597,
                0.3094486758362458,
                0.13040726764961014,
                0.2500172702046372,
                -3.1667485024838475
            ]
        },
        {
            "positions": [
                -2.6618170290967074,
                -0.7114853372651117,
                0.19116621962855965,
                0.1872920631895418,
                0.20415899747331603,
                -3.1229707584030346
            ]
        },
        {
            "positions": [
                -2.575090723072856,
                -0.7530150995477637,
                0.07288376342087349,
                0.24417685872947348,
                0.15830072474199486,
                -3.0791930143222217
            ]
        },
        {
            "positions": [
                -2.488364417049005,
                -0.7945448618304156,
                -0.04539869278681263,
                0.3010616542694051,
                0.11244245201067368,
                -3.0354152702414083
            ]
        },
        {
            "positions": [
                -2.4016381110251537,
                -0.8360746241130677,
                -0.16368114899449882,
                0.3579464498093369,
                0.06658417927935248,
                -2.9916375261605954
            ]
        },
        {
            "positions": [
                -2.3149118050013024,
                -0.8776043863957196,
                -0.2819636052021849,
                0.4148312453492685,
                0.02072590654803133,
                -2.9478597820797825
            ]
        },
        {
            "positions": [
                -2.2281854989774517,
                -0.9191341486783715,
                -0.40024606140987107,
                0.47171604088920016,
                -0.025132366183289845,
                -2.9040820379989696
            ]
        },
        {
            "positions": [
                -2.1414591929536004,
                -0.9606639109610235,
                -0.5185285176175572,
                0.5286008364291319,
                -0.07099063891461105,
                -2.8603042939181567
            ]
        },
        {
            "positions": [
                -2.054732886929749,
                -1.0021936732436756,
                -0.6368109738252434,
                0.5854856319690636,
                -0.11684891164593225,
                -2.8165265498373433
            ]
        },
        {
            "positions": [
                -1.968006580905898,
                -1.0437234355263274,
                -0.7550934300329297,
                0.6423704275089952,
                -0.1627071843772534,
                -2.7727488057565304
            ]
        },
        {
            "positions": [
                -1.8812802748820467,
                -1.0852531978089794,
                -0.8733758862406156,
                0.6992552230489268,
                -0.20856545710857455,
                -2.7289710616757175
            ]
        },
        {
            "positions": [
                -1.7945539688581955,
                -1.1267829600916315,
                -0.9916583424483019,
                0.7561400185888585,
                -0.25442372983989575,
                -2.6851933175949045
            ]
        },
        {
            "positions": [
                -1.7078276628343445,
                -1.1683127223742833,
                -1.109940798655988,
                0.8130248141287901,
                -0.3002820025712169,
                -2.6414155735140916
            ]
        },
        {
            "positions": [
                -1.621101356810493,
                -1.2098424846569353,
                -1.2282232548636742,
                0.869909609668722,
                -0.34614027530253816,
                -2.5976378294332783
            ]
        },
        {
            "positions": [
                -1.534375050786642,
                -1.2513722469395874,
                -1.3465057110713603,
                0.9267944052086536,
                -0.3919985480338593,
                -2.553860085352466
            ]
        },
        {
            "positions": [
                -1.4476487447627908,
                -1.2929020092222392,
                -1.4647881672790464,
                0.9836792007485853,
                -0.43785682076518045,
                -2.5100823412716524
            ]
        },
        {
            "positions": [
                -1.3609224387389396,
                -1.3344317715048912,
                -1.5830706234867327,
                1.040563996288517,
                -0.4837150934965017,
                -2.4663045971908395
            ]
        },
        {
            "positions": [
                -1.2741961327150884,
                -1.3759615337875433,
                -1.7013530796944187,
                1.0974487918284486,
                -0.5295733662278228,
                -2.4225268531100266
            ]
        },
        {
            "positions": [
                -1.1874698266912371,
                -1.417491296070195,
                -1.8196355359021053,
                1.1543335873683804,
                -0.5754316389591441,
                -2.378749109029213
            ]
        },
        {
            "positions": [
                -1.100743520667386,
                -1.4590210583528471,
                -1.9379179921097913,
                1.211218382908312,
                -0.6212899116904651,
                -2.3349713649484007
            ]
        },
        {
            "positions": [
                -1.014017214643535,
                -1.5005508206354992,
                -2.056200448317477,
                1.2681031784482437,
                -0.6671481844217864,
                -2.2911936208675874
            ]
        },
        {
            "positions": [
                -0.9272909086196834,
                -1.542080582918151,
                -2.1744829045251635,
                1.3249879739881754,
                -0.7130064571531076,
                -2.2474158767867745
            ]
        },
        {
            "positions": [
                -0.8405646025958323,
                -1.583610345200803,
                -2.2927653607328495,
                1.381872769528107,
                -0.7588647298844287,
                -2.2036381327059615
            ]
        },
        {
            "positions": [
                -0.767534258862803,
                -1.6290345973842382,
                -2.333946035289891,
                1.2977602409330753,
                -0.6363620261418086,
                -2.224076449297597
            ]
        },
        {
            "positions": [
                -0.6945039151297736,
                -1.6744588495676735,
                -2.375126709846932,
                1.2136477123380434,
                -0.5138593223991885,
                -2.2445147658892326
            ]
        },
        {
            "positions": [
                -0.6214735713967443,
                -1.7198831017511087,
                -2.4163073844039737,
                1.1295351837430117,
                -0.39135661865656846,
                -2.2649530824808686
            ]
        },
        {
            "positions": [
                -0.548443227663715,
                -1.765307353934544,
                -2.457488058961015,
                1.04542265514798,
                -0.2688539149139484,
                -2.285391399072504
            ]
        },
        {
            "positions": [
                -0.47541288393068565,
                -1.8107316061179792,
                -2.4986687335180564,
                0.9613101265529481,
                -0.14635121117132832,
                -2.3058297156641396
            ]
        },
        {
            "positions": [
                -0.448986738707466,
                -1.8531515553519833,
                -2.4884666602791805,
                1.0082393314539229,
                -0.1176504837270234,
                -2.0927759437478652
            ]
        },
        {
            "positions": [
                -0.42256059348424646,
                -1.8955715045859873,
                -2.478264587040305,
                1.0551685363548977,
                -0.08894975628271848,
                -1.8797221718315908
            ]
        },
        {
            "positions": [
                -0.39613444826102684,
                -1.9379914538199914,
                -2.468062513801429,
                1.1020977412558726,
                -0.06024902883841356,
                -1.6666683999153167
            ]
        },
        {
            "positions": [
                -0.3697083030378072,
                -1.9804114030539954,
                -2.4578604405625533,
                1.1490269461568474,
                -0.03154830139410862,
                -1.453614627999042
            ]
        },
        {
            "positions": [
                -0.34328215781458765,
                -2.0228313522879993,
                -2.447658367323678,
                1.195956151057822,
                -0.0028475739498037,
                -1.240560856082768
            ]
        },
        {
            "positions": [
                -0.3168560125913681,
                -2.0652513015220033,
                -2.437456294084802,
                1.242885355958797,
                0.025853153494501208,
                -1.0275070841664937
            ]
        },
        {
            "positions": [
                -0.29042986736814846,
                -2.1076712507560074,
                -2.4272542208459265,
                1.2898145608597718,
                0.05455388093880614,
                -0.8144533122502191
            ]
        },
        {
            "positions": [
                -0.26400372214492884,
                -2.1500911999900114,
                -2.4170521476070506,
                1.3367437657607466,
                0.08325460838311108,
                -0.6013995403339447
            ]
        },
        {
            "positions": [
                -0.23757757692170922,
                -2.1925111492240155,
                -2.4068500743681747,
                1.3836729706617215,
                0.11195533582741601,
                -0.3883457684176703
            ]
        },
        {
            "positions": [
                -0.21115143169848966,
                -2.2349310984580195,
                -2.396648001129299,
                1.430602175562696,
                0.14065606327172092,
                -0.17529199650139615
            ]
        },
        {
            "positions": [
                -0.18472528647527003,
                -2.2773510476920236,
                -2.3864459278904233,
                1.477531380463671,
                0.1693567907160258,
                0.0377617754148784
            ]
        }
    ]
}