{
    "goal": {
        "global_pose": {
            "orientation": {
                "w": -0.00223480608172531,
                "x": 0.0024358444001904467,
                "y": 0.7094548369677653,
                "z": -0.704743149386269
            },
            "position": {
                "x": -0.37947507619857795,
                "y": -0.6371506643295288,
                "z": 0.19426114857196808
            }
        },
        "name": "move_to_magneteinheit_C"
    },
    "id": "BFMT_move_to_magneteinheit_C_81",
    "joint_names": [
        "shoulder_pan_joint",
        "shoulder_lift_joint",
        "elbow_joint",
        "wrist_1_joint",
        "wrist_2_joint",
        "wrist_3_joint"
    ],
    "metrics": {
        "cart_traj_len": 1.3423615865848821,
        "distance_elbow_joint": 0.06001759513564808,
        "distance_shoulder_lift_joint": 1.0083439390134874,
        "distance_shoulder_pan_joint": 1.5163375082307617,
        "distance_wrist_1_joint": 0.3244263982391471,
        "distance_wrist_2_joint": 0.8048055903522743,
        "distance_wrist_3_joint": 0.049446004297060586,
        "smoothness": 1.5857197775431862,
        "time": 0.924439431,
        "traj_len": 1.939942534011866,
        "weighted_distance": 2.234166742312203
    },
    "planner": "BFMT",
    "start": {
        "state": {
            "elbow_joint": 1.9565354010623817,
            "shoulder_lift_joint": -1.4165861575791021,
            "shoulder_pan_joint": -1.6717766225146293,
            "wrist_1_joint": -0.5286633292919765,
            "wrist_2_joint": 1.472756589071564,
            "wrist_3_joint": -3.1238370188695823
        }
    },
    "waypoints": [
        {
            "positions": [
                -1.6717766225146293,
                -1.4165861575791021,
                1.9565354010623817,
                -0.5286633292919765,
                1.472756589071564,
                -3.1238370188695823
            ]
        },
        {
            "positions": [
                -1.5826317123764924,
                -1.5110658291449295,
                1.9711755239665085,
                -0.5778279922823475,
                1.3630512193037796,
                -3.13274893120645
            ]
        },
        {
            "positions": [
                -1.4934868022383554,
                -1.6055455007107566,
                1.9858156468706354,
                -0.6269926552727185,
                1.253345849535995,
                -3.141660843543318
            ]
        },
        {
            "positions": [
                -1.4043418921002184,
                -1.700025172276584,
                2.0004557697747622,
                -0.6761573182630896,
                1.1436404797682105,
                -3.1505727558801864
            ]
        },
        {
            "positions": [
                -1.3151969819620815,
                -1.7945048438424114,
                2.015095892678889,
                -0.7253219812534606,
                1.0339351100004261,
                -3.159484668217054
            ]
        },
        {
            "positions": [
                -1.5084899599084505,
                -1.6894339683840482,
                2.0148530420923656,
                -0.7466166056330711,
                0.9729377581202368,
                -3.1571849423921226
            ]
        },
        {
            "positions": [
                -1.7017829378548193,
                -1.5843630929256853,
                2.014610191505842,
                -0.7679112300126816,
                0.9119404062400474,
                -3.154885216567191
            ]
        },
        {
            "positions": [
                -1.8950759158011885,
                -1.4792922174673224,
                2.0143673409193186,
                -0.7892058543922921,
                0.850943054359858,
                -3.1525854907422595
            ]
        },
        {
            "positions": [
                -2.0883688937475573,
                -1.3742213420089593,
                2.0141244903327955,
                -0.8105004787719026,
                0.7899457024796686,
                -3.1502857649173284
            ]
        },
        {
            "positions": [
                -2.2816618716939265,
                -1.2691504665505962,
                2.013881639746272,
                -0.8317951031515131,
                0.728948350599479,
                -3.147986039092397
            ]
        },
        {
            "positions": [
                -2.4749548496402953,
                -1.1640795910922332,
                2.0136387891597485,
                -0.8530897275311236,
                0.6679509987192896,
                -3.1456863132674653
            ]
        }
    ]
}