{
    "goal": {
        "global_pose": {
            "orientation": {
                "w": -0.00223480608172531,
                "x": 0.0024358444001904467,
                "y": 0.7094548369677653,
                "z": -0.704743149386269
            },
            "position": {
                "x": 0.6205249238014221,
                "y": -0.6371506643295288,
                "z": 0.19426114857196808
            }
        },
        "name": "move_to_magneteinheit_B"
    },
    "id": "BFMT_move_to_magneteinheit_B_43",
    "joint_names": [
        "shoulder_pan_joint",
        "shoulder_lift_joint",
        "elbow_joint",
        "wrist_1_joint",
        "wrist_2_joint",
        "wrist_3_joint"
    ],
    "metrics": {
        "cart_traj_len": 3.1833145926970525,
        "distance_elbow_joint": 4.465974851563513,
        "distance_shoulder_lift_joint": 1.05886653936125,
        "distance_shoulder_pan_joint": 2.203960038017025,
        "distance_wrist_1_joint": 0.9780319356138324,
        "distance_wrist_2_joint": 1.186575615123849,
        "distance_wrist_3_joint": 1.0895615138976291,
        "smoothness": 0.22128851618499384,
        "time": 1.2398592910000001,
        "traj_len": 3.314056501265043,
        "weighted_distance": 3.9149330865431198
    },
    "planner": "BFMT",
    "start": {
        "state": {
            "elbow_joint": 2.6216224122426386,
            "shoulder_lift_joint": -1.4174107377796124,
            "shoulder_pan_joint": 0.7066234856936794,
            "wrist_1_joint": 1.9546482284002225,
            "wrist_2_joint": -0.7096286983471962,
            "wrist_3_joint": 0.005740856962016249
        }
    },
    "waypoints": [
        {
            "positions": [
                0.7066234856936794,
                -1.4174107377796124,
                2.6216224122426386,
                1.9546482284002225,
                -0.7096286983471962,
                0.005740856962016249
            ]
        },
        {
            "positions": [
                0.8099058393897962,
                -1.45166150857476,
                2.6336079540292268,
                1.930802958716682,
                -0.7127262262406882,
                0.13634715583670773
            ]
        },
        {
            "positions": [
                0.9131881930859131,
                -1.4859122793699076,
                2.645593495815815,
                1.9069576890331414,
                -0.7158237541341802,
                0.2669534547113992
            ]
        },
        {
            "positions": [
                0.9946157986180169,
                -1.5216179152711922,
                2.4551918512201283,
                1.871318596728898,
                -0.6850436794484703,
                0.2799257039112428
            ]
        },
        {
            "positions": [
                1.0760434041501206,
                -1.557323551172477,
                2.264790206624441,
                1.8356795044246548,
                -0.6542636047627605,
                0.2928979531110863
            ]
        },
        {
            "positions": [
                1.1574710096822245,
                -1.5930291870737616,
                2.0743885620287545,
                1.8000404121204114,
                -0.6234835300770506,
                0.3058702023109299
            ]
        },
        {
            "positions": [
                1.2388986152143282,
                -1.6287348229750462,
                1.883986917433068,
                1.764401319816168,
                -0.5927034553913406,
                0.3188424515107734
            ]
        },
        {
            "positions": [
                1.320326220746432,
                -1.664440458876331,
                1.6935852728373808,
                1.728762227511925,
                -0.5619233807056307,
                0.33181470071061697
            ]
        },
        {
            "positions": [
                1.4017538262785356,
                -1.7001460947776157,
                1.5031836282416942,
                1.6931231352076817,
                -0.5311433060199209,
                0.34478694991046055
            ]
        },
        {
            "positions": [
                1.4831814318106393,
                -1.7358517306789003,
                1.3127819836460073,
                1.6574840429034383,
                -0.500363231334211,
                0.35775919911030407
            ]
        },
        {
            "positions": [
                1.564609037342743,
                -1.7715573665801851,
                1.1223803390503206,
                1.621844950599195,
                -0.46958315664850114,
                0.37073144831014765
            ]
        },
        {
            "positions": [
                1.646036642874847,
                -1.8072630024814698,
                0.9319786944546335,
                1.5862058582949516,
                -0.4388030819627912,
                0.3837036975099912
            ]
        },
        {
            "positions": [
                1.7274642484069507,
                -1.8429686383827546,
                0.7415770498589469,
                1.5505667659907083,
                -0.4080230072770814,
                0.39667594670983475
            ]
        },
        {
            "positions": [
                1.8088918539390546,
                -1.8786742742840392,
                0.55117540526326,
                1.514927673686465,
                -0.3772429325913715,
                0.4096481959096783
            ]
        },
        {
            "positions": [
                1.8903194594711583,
                -1.9143799101853238,
                0.3607737606675734,
                1.4792885813822219,
                -0.3464628579056616,
                0.42262044510952185
            ]
        },
        {
            "positions": [
                1.9717470650032618,
                -1.9500855460866084,
                0.17037211607188674,
                1.4436494890779785,
                -0.31568278321995175,
                0.4355926943093654
            ]
        },
        {
            "positions": [
                2.0531746705353657,
                -1.9857911819878933,
                -0.020029528523800355,
                1.4080103967737352,
                -0.2849027085342418,
                0.44856494350920895
            ]
        },
        {
            "positions": [
                2.1346022760674694,
                -2.021496817889178,
                -0.210431173119487,
                1.3723713044694918,
                -0.25412263384853195,
                0.4615371927090525
            ]
        },
        {
            "positions": [
                2.216029881599573,
                -2.0572024537904627,
                -0.40083281771517365,
                1.3367322121652485,
                -0.22334255916282209,
                0.4745094419088961
            ]
        },
        {
            "positions": [
                2.297457487131677,
                -2.0929080896917474,
                -0.5912344623108603,
                1.3010931198610054,
                -0.19256248447711222,
                0.4874816911087396
            ]
        },
        {
            "positions": [
                2.378885092663781,
                -2.128613725593032,
                -0.7816361069065478,
                1.2654540275567618,
                -0.16178240979140224,
                0.5004539403085833
            ]
        },
        {
            "positions": [
                2.4603126981958843,
                -2.1643193614943166,
                -0.9720377515022345,
                1.2298149352525187,
                -0.13100233510569237,
                0.5134261895084268
            ]
        },
        {
            "positions": [
                2.5417403037279884,
                -2.2000249973956016,
                -1.1624393960979211,
                1.1941758429482752,
                -0.10022226041998261,
                0.5263984387082703
            ]
        },
        {
            "positions": [
                2.6231679092600917,
                -2.2357306332968863,
                -1.3528410406936078,
                1.158536750644032,
                -0.06944218573427274,
                0.5393706879081138
            ]
        },
        {
            "positions": [
                2.704595514792196,
                -2.271436269198171,
                -1.5432426852892949,
                1.1228976583397887,
                -0.038662111048562764,
                0.5523429371079575
            ]
        },
        {
            "positions": [
                2.7860231203242996,
                -2.3071419050994555,
                -1.7336443298849815,
                1.0872585660355454,
                -0.007882036362852896,
                0.565315186307801
            ]
        },
        {
            "positions": [
                2.7548830194776985,
                -2.349425748109807,
                -1.7179528443125964,
                1.0595979977232566,
                0.1102276740285315,
                0.4328183901698398
            ]
        },
        {
            "positions": [
                2.723742918631097,
                -2.3917095911201587,
                -1.7022613587402113,
                1.0319374294109678,
                0.22833738441991588,
                0.3003215940318787
            ]
        },
        {
            "positions": [
                2.692602817784496,
                -2.4339934341305107,
                -1.6865698731678265,
                1.004276861098679,
                0.34644709481130026,
                0.16782479789391758
            ]
        },
        {
            "positions": [
                2.661462716937895,
                -2.4762772771408623,
                -1.6708783875954414,
                0.9766162927863901,
                0.46455680520268466,
                0.03532800175595642
            ]
        }
    ]
}