{
    "goal": {
        "global_pose": {
            "orientation": {
                "w": 0.7031023480610252,
                "x": -0.7110244013736278,
                "y": 0.0077485991402295624,
                "z": 0.005598929693374583
            },
            "position": {
                "x": -0.8841497679147869,
                "y": 0.44412534475326537,
                "z": 0.3711530566215515
            }
        },
        "name": "move_to_auspresseinheit_D"
    },
    "id": "BFMT_move_to_auspresseinheit_D_148",
    "joint_names": [
        "shoulder_pan_joint",
        "shoulder_lift_joint",
        "elbow_joint",
        "wrist_1_joint",
        "wrist_2_joint",
        "wrist_3_joint"
    ],
    "metrics": {
        "cart_traj_len": 0.34384865418815813,
        "distance_elbow_joint": 0.6340114671193338,
        "distance_shoulder_lift_joint": 0.11843082807222238,
        "distance_shoulder_pan_joint": 0.13442064154711597,
        "distance_wrist_1_joint": 0.5070173974683527,
        "distance_wrist_2_joint": 1.4457497936487946,
        "distance_wrist_3_joint": 0.024683314365792963,
        "smoothness": 1.3816108766519434e-15,
        "time": 0.491372578,
        "traj_len": 1.6924282679693141,
        "weighted_distance": 2.2060025525983296
    },
    "planner": "BFMT",
    "start": {
        "state": {
            "elbow_joint": -1.8275523626775212,
            "shoulder_lift_joint": -2.126789852344167,
            "shoulder_pan_joint": -0.03513704404078235,
            "wrist_1_joint": -2.347782403156801,
            "wrist_2_joint": -1.6058999987535132,
            "wrist_3_joint": -3.0880379163319196
        }
    },
    "waypoints": [
        {
            "positions": [
                -0.03513704404078235,
                -2.126789852344167,
                -1.8275523626775212,
                -2.347782403156801,
                -1.6058999987535132,
                -3.0880379163319196
            ]
        },
        {
            "positions": [
                -0.051939624234171845,
                -2.141593705853195,
                -1.7483009292876044,
                -2.411159577840345,
                -1.425181274547414,
                -3.0911233306276436
            ]
        },
        {
            "positions": [
                -0.06874220442756135,
                -2.1563975593622224,
                -1.6690494958976878,
                -2.474536752523889,
                -1.2444625503413145,
                -3.094208744923368
            ]
        },
        {
            "positions": [
                -0.08554478462095083,
                -2.17120141287125,
                -1.589798062507771,
                -2.537913927207433,
                -1.0637438261352152,
                -3.097294159219092
            ]
        },
        {
            "positions": [
                -0.10234736481434034,
                -2.186005266380278,
                -1.5105466291178544,
                -2.6012911018909772,
                -0.8830251019291159,
                -3.1003795735148163
            ]
        },
        {
            "positions": [
                -0.11914994500772982,
                -2.200809119889306,
                -1.4312951957279376,
                -2.6646682765745213,
                -0.7023063777230165,
                -3.1034649878105403
            ]
        },
        {
            "positions": [
                -0.13595252520111933,
                -2.2156129733983336,
                -1.3520437623380208,
                -2.7280454512580654,
                -0.5215876535169173,
                -3.106550402106264
            ]
        },
        {
            "positions": [
                -0.15275510539450882,
                -2.230416826907361,
                -1.2727923289481042,
                -2.7914226259416095,
                -0.3408689293108178,
                -3.1096358164019886
            ]
        },
        {
            "positions": [
                -0.16955768558789833,
                -2.2452206804163892,
                -1.1935408955581874,
                -2.8547998006251536,
                -0.1601502051047185,
                -3.1127212306977126
            ]
        }
    ]
}