{
    "goal": {
        "global_pose": {
            "orientation": {
                "w": 0.7047431468963623,
                "x": -0.7094548344612122,
                "y": 0.0024358443915843964,
                "z": -0.0022348060738295317
            },
            "position": {
                "x": 0.6094750761985779,
                "y": 0.3671506643295288,
                "z": 0.19426114857196808
            }
        },
        "name": "move_to_magneteinheit_A"
    },
    "id": "BFMT_move_to_magneteinheit_A_107",
    "joint_names": [
        "shoulder_pan_joint",
        "shoulder_lift_joint",
        "elbow_joint",
        "wrist_1_joint",
        "wrist_2_joint",
        "wrist_3_joint"
    ],
    "metrics": {
        "cart_traj_len": 3.47111417996296,
        "distance_elbow_joint": 3.888210959930978,
        "distance_shoulder_lift_joint": 0.10677890997104478,
        "distance_shoulder_pan_joint": 2.6803504944968353,
        "distance_wrist_1_joint": 0.7744939807719936,
        "distance_wrist_2_joint": 1.7007676690316804,
        "distance_wrist_3_joint": 2.6345673446509137,
        "smoothness": 0.055090001336462045,
        "time": 0.898938277,
        "traj_len": 3.4329534454829767,
        "weighted_distance": 4.419226821284346
    },
    "planner": "BFMT",
    "start": {
        "state": {
            "elbow_joint": -1.9196185241190666,
            "shoulder_lift_joint": -1.2443396400964142,
            "shoulder_pan_joint": 2.6996025414629847,
            "wrist_1_joint": -1.5485510000780065,
            "wrist_2_joint": -1.5709468930060704,
            "wrist_3_joint": 0.4420197071253992
        }
    },
    "waypoints": [
        {
            "positions": [
                2.6996025414629847,
                -1.2443396400964142,
                -1.9196185241190666,
                -1.5485510000780065,
                -1.5709468930060704,
                0.4420197071253992
            ]
        },
        {
            "positions": [
                2.5816762615704976,
                -1.242473285475376,
                -1.7925449475755872,
                -1.5387653671457717,
                -1.5137342383568742,
                0.5231409686927632
            ]
        },
        {
            "positions": [
                2.46374998167801,
                -1.240606930854338,
                -1.6654713710321079,
                -1.528979734213537,
                -1.456521583707678,
                0.6042622302601273
            ]
        },
        {
            "positions": [
                2.345823701785523,
                -1.2387405762332997,
                -1.5383977944886285,
                -1.519194101281302,
                -1.3993089290584817,
                0.6853834918274913
            ]
        },
        {
            "positions": [
                2.227897421893035,
                -1.2368742216122615,
                -1.411324217945149,
                -1.5094084683490672,
                -1.3420962744092853,
                0.7665047533948552
            ]
        },
        {
            "positions": [
                2.109971142000548,
                -1.2350078669912234,
                -1.2842506414016697,
                -1.4996228354168324,
                -1.284883619760089,
                0.8476260149622192
            ]
        },
        {
            "positions": [
                1.9920448621080604,
                -1.2331415123701852,
                -1.1571770648581905,
                -1.4898372024845976,
                -1.2276709651108928,
                0.9287472765295832
            ]
        },
        {
            "positions": [
                1.8741185822155733,
                -1.231275157749147,
                -1.030103488314711,
                -1.4800515695523628,
                -1.1704583104616966,
                1.0098685380969474
            ]
        },
        {
            "positions": [
                1.7561923023230857,
                -1.229408803128109,
                -0.9030299117712317,
                -1.470265936620128,
                -1.1132456558125003,
                1.0909897996643112
            ]
        },
        {
            "positions": [
                1.6382660224305985,
                -1.2275424485070707,
                -0.7759563352277523,
                -1.460480303687893,
                -1.0560330011633041,
                1.1721110612316754
            ]
        },
        {
            "positions": [
                1.520339742538111,
                -1.2256760938860325,
                -0.6488827586842729,
                -1.4506946707556583,
                -0.9988203465141078,
                1.2532323227990392
            ]
        },
        {
            "positions": [
                1.4024134626456235,
                -1.2238097392649945,
                -0.5218091821407935,
                -1.4409090378234235,
                -0.9416076918649116,
                1.3343535843664034
            ]
        },
        {
            "positions": [
                1.2844871827531363,
                -1.2219433846439562,
                -0.39473560559731435,
                -1.4311234048911887,
                -0.8843950372157153,
                1.4154748459337674
            ]
        },
        {
            "positions": [
                1.1665609028606487,
                -1.220077030022918,
                -0.26766202905383474,
                -1.421337771958954,
                -0.827182382566519,
                1.4965961075011314
            ]
        },
        {
            "positions": [
                1.0486346229681616,
                -1.21821067540188,
                -0.14058845251035557,
                -1.411552139026719,
                -0.7699697279173228,
                1.5777173690684956
            ]
        },
        {
            "positions": [
                0.9307083430756742,
                -1.2163443207808418,
                -0.01351487596687595,
                -1.4017665060944842,
                -0.7127570732681265,
                1.6588386306358593
            ]
        },
        {
            "positions": [
                0.8127820631831868,
                -1.2144779661598035,
                0.11355870057660322,
                -1.3919808731622494,
                -0.6555444186189303,
                1.7399598922032236
            ]
        },
        {
            "positions": [
                0.6948557832906994,
                -1.2126116115387655,
                0.24063227712008262,
                -1.3821952402300146,
                -0.598331763969734,
                1.8210811537705878
            ]
        },
        {
            "positions": [
                0.5769295033982123,
                -1.2107452569177273,
                0.367705853663562,
                -1.3724096072977798,
                -0.5411191093205379,
                1.9022024153379515
            ]
        },
        {
            "positions": [
                0.45900322350572464,
                -1.208878902296689,
                0.4947794302070414,
                -1.3626239743655448,
                -0.4839064546713414,
                1.9833236769053157
            ]
        },
        {
            "positions": [
                0.3410769436132375,
                -1.207012547675651,
                0.6218530067505208,
                -1.35283834143331,
                -0.4266938000221452,
                2.0644449384726795
            ]
        },
        {
            "positions": [
                0.2231506637207498,
                -1.2051461930546128,
                0.7489265832940001,
                -1.3430527085010753,
                -0.36948114537294885,
                2.1455662000400437
            ]
        },
        {
            "positions": [
                0.20412470231486307,
                -1.1981555249107343,
                0.8964416368877794,
                -1.277950046230002,
                -0.3089425178612365,
                2.241414943431542
            ]
        },
        {
            "positions": [
                0.18509874090897635,
                -1.1911648567668558,
                1.043956690481559,
                -1.2128473839589284,
                -0.2484038903495242,
                2.3372636868230403
            ]
        },
        {
            "positions": [
                0.16607277950308963,
                -1.1841741886229773,
                1.1914717440753384,
                -1.1477447216878551,
                -0.18786526283781185,
                2.4331124302145386
            ]
        },
        {
            "positions": [
                0.1470468180972029,
                -1.1771835204790988,
                1.3389867976691177,
                -1.0826420594167816,
                -0.12732663532609953,
                2.528961173606037
            ]
        },
        {
            "positions": [
                0.1280208566913162,
                -1.1701928523352203,
                1.4865018512628971,
                -1.0175393971457083,
                -0.0667880078143872,
                2.624809916997535
            ]
        },
        {
            "positions": [
                0.10899489528542947,
                -1.1632021841913418,
                1.6340169048566766,
                -0.952436734874635,
                -0.006249380302674856,
                2.7206586603890335
            ]
        },
        {
            "positions": [
                0.08996893387954275,
                -1.1562115160474633,
                1.781531958450456,
                -0.8873340726035616,
                0.05428924720903744,
                2.8165074037805318
            ]
        },
        {
            "positions": [
                0.07094297247365601,
                -1.1492208479035848,
                1.9290470120442356,
                -0.8222314103324881,
                0.11482787472074979,
                2.91235614717203
            ]
        },
        {
            "positions": [
                0.12263389798116418,
                -1.1375607301253694,
                1.9685924358119113,
                -0.7740570193060129,
                0.1298207760256099,
                3.076587051776313
            ]
        }
    ]
}