{
    "goal": {
        "global_pose": {
            "orientation": {
                "w": 0.7047431493862688,
                "x": -0.7094548369677653,
                "y": 0.0024358444001904,
                "z": -0.0022348060817251984
            },
            "position": {
                "x": -0.39052492380142206,
                "y": 0.3671506643295288,
                "z": 0.19426114857196808
            }
        },
        "name": "move_to_magneteinheit_D"
    },
    "id": "BFMT_move_to_magneteinheit_D_57",
    "joint_names": [
        "shoulder_pan_joint",
        "shoulder_lift_joint",
        "elbow_joint",
        "wrist_1_joint",
        "wrist_2_joint",
        "wrist_3_joint"
    ],
    "metrics": {
        "cart_traj_len": 4.385796514822139,
        "distance_elbow_joint": 3.453621068147205,
        "distance_shoulder_lift_joint": 1.6334181621941324,
        "distance_shoulder_pan_joint": 4.323045905500542,
        "distance_wrist_1_joint": 1.7650226871668846,
        "distance_wrist_2_joint": 0.2621336305859111,
        "distance_wrist_3_joint": 3.1283584514718696,
        "smoothness": 0.403488771022586,
        "time": 1.216412515,
        "traj_len": 3.8164905220721494,
        "weighted_distance": 4.780112250330851
    },
    "planner": "BFMT",
    "start": {
        "state": {
            "elbow_joint": 0.749534889911806,
            "shoulder_lift_joint": -0.6476975780787326,
            "shoulder_pan_joint": -2.711696901376241,
            "wrist_1_joint": -0.07506478083263063,
            "wrist_2_joint": 0.43296659715538205,
            "wrist_3_joint": -3.14703540197715
        }
    },
    "waypoints": [
        {
            "positions": [
                -2.711696901376241,
                -0.6476975780787326,
                0.749534889911806,
                -0.07506478083263063,
                0.43296659715538205,
                -3.14703540197715
            ]
        },
        {
            "positions": [
                -2.7281483870570673,
                -0.7413156416848196,
                0.7283713901602951,
                -0.052552543200300596,
                0.42024343160201794,
                -3.0079168318332226
            ]
        },
        {
            "positions": [
                -2.7445998727378935,
                -0.8349337052909065,
                0.7072078904087843,
                -0.030040305567970566,
                0.4075202660486539,
                -2.8687982616892955
            ]
        },
        {
            "positions": [
                -2.6341274051061703,
                -0.8702602286605097,
                0.6025288456520884,
                0.022828163275999066,
                0.40553666638543795,
                -2.7869475712042444
            ]
        },
        {
            "positions": [
                -2.5236549374744466,
                -0.9055867520301129,
                0.4978498008953925,
                0.0756966321199687,
                0.4035530667222221,
                -2.705096880719193
            ]
        },
        {
            "positions": [
                -2.4131824698427233,
                -0.940913275399716,
                0.39317075613869656,
                0.12856510096393833,
                0.40156946705900615,
                -2.6232461902341417
            ]
        },
        {
            "positions": [
                -2.3027100022109996,
                -0.9762397987693192,
                0.2884917113820007,
                0.18143356980790795,
                0.3995858673957903,
                -2.5413954997490906
            ]
        },
        {
            "positions": [
                -2.1922375345792764,
                -1.0115663221389224,
                0.18381266662530482,
                0.23430203865187757,
                0.39760226773257434,
                -2.459544809264039
            ]
        },
        {
            "positions": [
                -2.0817650669475527,
                -1.0468928455085256,
                0.07913362186860884,
                0.28717050749584727,
                0.39561866806935847,
                -2.377694118778988
            ]
        },
        {
            "positions": [
                -1.9712925993158295,
                -1.0822193688781288,
                -0.025545422888087033,
                0.3400389763398169,
                0.39363506840614254,
                -2.2958434282939364
            ]
        },
        {
            "positions": [
                -1.8608201316841058,
                -1.117545892247732,
                -0.1302244676447829,
                0.3929074451837865,
                0.39165146874292667,
                -2.2139927378088853
            ]
        },
        {
            "positions": [
                -1.7503476640523823,
                -1.1528724156173351,
                -0.2349035124014789,
                0.4457759140277562,
                0.38966786907971074,
                -2.1321420473238337
            ]
        },
        {
            "positions": [
                -1.6398751964206588,
                -1.1881989389869383,
                -0.33958255715817465,
                0.49864438287172574,
                0.3876842694164948,
                -2.0502913568387826
            ]
        },
        {
            "positions": [
                -1.5294027287889354,
                -1.2235254623565415,
                -0.44426160191487074,
                0.5515128517156954,
                0.38570066975327894,
                -1.9684406663537315
            ]
        },
        {
            "positions": [
                -1.418930261157212,
                -1.2588519857261447,
                -0.5489406466715666,
                0.6043813205596651,
                0.383717070090063,
                -1.8865899758686802
            ]
        },
        {
            "positions": [
                -1.3084577935254884,
                -1.2941785090957478,
                -0.6536196914282625,
                0.6572497894036348,
                0.38173347042684713,
                -1.8047392853836288
            ]
        },
        {
            "positions": [
                -1.1979853258937652,
                -1.329505032465351,
                -0.7582987361849584,
                0.7101182582476043,
                0.3797498707636312,
                -1.7228885948985775
            ]
        },
        {
            "positions": [
                -1.0875128582620415,
                -1.3648315558349542,
                -0.8629777809416544,
                0.762986727091574,
                0.37776627110041533,
                -1.6410379044135261
            ]
        },
        {
            "positions": [
                -0.9770403906303182,
                -1.4001580792045574,
                -0.9676568256983501,
                0.8158551959355436,
                0.3757826714371994,
                -1.559187213928475
            ]
        },
        {
            "positions": [
                -0.8665679229985948,
                -1.4354846025741603,
                -1.072335870455046,
                0.8687236647795131,
                0.3737990717739835,
                -1.4773365234434237
            ]
        },
        {
            "positions": [
                -0.7560954553668711,
                -1.4708111259437637,
                -1.1770149152117422,
                0.9215921336234829,
                0.3718154721107676,
                -1.3954858329583724
            ]
        },
        {
            "positions": [
                -0.6456229877351478,
                -1.506137649313367,
                -1.2816939599684378,
                0.9744606024674525,
                0.3698318724475517,
                -1.313635142473321
            ]
        },
        {
            "positions": [
                -0.5351505201034241,
                -1.54146417268297,
                -1.3863730047251335,
                1.027329071311422,
                0.3678482727843358,
                -1.23178445198827
            ]
        },
        {
            "positions": [
                -0.4246780524717009,
                -1.576790696052573,
                -1.4910520494818296,
                1.0801975401553916,
                0.3658646731211199,
                -1.1499337615032186
            ]
        },
        {
            "positions": [
                -0.3142055848399772,
                -1.6121172194221765,
                -1.5957310942385257,
                1.1330660089993614,
                0.363881073457904,
                -1.0680830710181672
            ]
        },
        {
            "positions": [
                -0.20373311720825393,
                -1.6474437427917796,
                -1.7004101389952213,
                1.185934477843331,
                0.36189747379468806,
                -0.9862323805331159
            ]
        },
        {
            "positions": [
                -0.09326064957653069,
                -1.6827702661613826,
                -1.8050891837519174,
                1.2388029466873007,
                0.3599138741314722,
                -0.9043816900480648
            ]
        },
        {
            "positions": [
                0.017211818055193007,
                -1.7180967895309858,
                -1.909768228508613,
                1.2916714155312703,
                0.35793027446825626,
                -0.8225309995630137
            ]
        },
        {
            "positions": [
                0.1276842856869167,
                -1.7534233129005892,
                -2.014447273265309,
                1.34453988437524,
                0.3559466748050404,
                -0.7406803090779621
            ]
        },
        {
            "positions": [
                0.23815675331863995,
                -1.7887498362701921,
                -2.1191263180220052,
                1.3974083532192096,
                0.35396307514182446,
                -0.658829618592911
            ]
        },
        {
            "positions": [
                0.3486292209503632,
                -1.8240763596397953,
                -2.223805362778701,
                1.4502768220631792,
                0.3519794754786086,
                -0.5769789281078594
            ]
        },
        {
            "positions": [
                0.4591016885820869,
                -1.8594028830093985,
                -2.3284844075353965,
                1.5031452909071488,
                0.34999587581539265,
                -0.49512823762280833
            ]
        },
        {
            "positions": [
                0.5695741562138106,
                -1.8947294063790017,
                -2.433163452292093,
                1.5560137597511186,
                0.3480122761521768,
                -0.4132775471377568
            ]
        },
        {
            "positions": [
                0.6800466238455338,
                -1.9300559297486048,
                -2.5378424970487887,
                1.6088822285950881,
                0.34602867648896085,
                -0.33142685665270577
            ]
        },
        {
            "positions": [
                0.5069473363344416,
                -2.000267891853457,
                -2.5045937608114666,
                1.5926670930472548,
                0.3109895345050629,
                -0.26887687542322075
            ]
        },
        {
            "positions": [
                0.3338480488233493,
                -2.070479853958309,
                -2.4713450245741444,
                1.5764519574994218,
                0.2759503925211649,
                -0.20632689419373573
            ]
        },
        {
            "positions": [
                0.16074876131225713,
                -2.140691816063161,
                -2.4380962883368227,
                1.5602368219515885,
                0.24091125053726692,
                -0.1437769129642507
            ]
        },
        {
            "positions": [
                -0.012350526198835254,
                -2.2109037781680128,
                -2.4048475520995005,
                1.5440216864037555,
                0.20587210855336893,
                -0.0812269317347657
            ]
        },
        {
            "positions": [
                -0.18544981370992747,
                -2.281115740272865,
                -2.3715988158621784,
                1.5278065508559222,
                0.17083296656947095,
                -0.018676950505280683
            ]
        }
    ]
}