{
    "goal": {
        "global_pose": {
            "orientation": {
                "w": -0.4816463035849501,
                "x": 0.5182115481033762,
                "y": 0.4908360881923453,
                "z": -0.5084816262002911
            },
            "position": {
                "x": -0.8240239810943604,
                "y": 0.19912469901144506,
                "z": 0.16403168439865112
            }
        },
        "name": "move_to_storage_D"
    },
    "id": "BFMT_move_to_storage_D_136",
    "joint_names": [
        "shoulder_pan_joint",
        "shoulder_lift_joint",
        "elbow_joint",
        "wrist_1_joint",
        "wrist_2_joint",
        "wrist_3_joint"
    ],
    "metrics": {
        "cart_traj_len": 3.7428374327553295,
        "distance_elbow_joint": 4.209350918996387,
        "distance_shoulder_lift_joint": 1.2656669963103873,
        "distance_shoulder_pan_joint": 2.81169516066058,
        "distance_wrist_1_joint": 2.268111090639904,
        "distance_wrist_2_joint": 0.876915059423685,
        "distance_wrist_3_joint": 3.1321164504452117,
        "smoothness": 0.0041736608032433885,
        "time": 0.791166173,
        "traj_len": 3.816262003122448,
        "weighted_distance": 4.896234750032945
    },
    "planner": "BFMT",
    "start": {
        "state": {
            "elbow_joint": -2.384821988534728,
            "shoulder_lift_joint": -2.2788054721415256,
            "shoulder_pan_joint": -0.1854694642142757,
            "wrist_1_joint": 1.4845938289331202,
            "wrist_2_joint": 0.17898776772866878,
            "wrist_3_joint": 0.037105688729662994
        }
    },
    "waypoints": [
        {
            "positions": [
                -0.1854694642142757,
                -2.2788054721415256,
                -2.384821988534728,
                1.4845938289331202,
                0.17898776772866878,
                0.037105688729662994
            ]
        },
        {
            "positions": [
                -0.0862760282422827,
                -2.2546762882774627,
                -2.2460485623501594,
                1.4799524680292488,
                0.17735495596651563,
                0.034141279793122925
            ]
        },
        {
            "positions": [
                0.012917407729710312,
                -2.2305471044134,
                -2.107275136165591,
                1.4753111071253777,
                0.1757221442043625,
                0.031176870856582863
            ]
        },
        {
            "positions": [
                0.11211084370170335,
                -2.2064179205493373,
                -1.968501709981022,
                1.4706697462215064,
                0.17408933244220934,
                0.028212461920042797
            ]
        },
        {
            "positions": [
                0.18917695677413787,
                -2.1718646792405,
                -1.8549051194563249,
                1.410754555490564,
                0.19665277002436393,
                -0.05791251321754731
            ]
        },
        {
            "positions": [
                0.2662430698465724,
                -2.1373114379316625,
                -1.7413085289316275,
                1.3508393647596217,
                0.2192162076065185,
                -0.14403748835513744
            ]
        },
        {
            "positions": [
                0.3433091829190069,
                -2.1027581966228253,
                -1.62771193840693,
                1.2909241740286794,
                0.2417796451886731,
                -0.23016246349272756
            ]
        },
        {
            "positions": [
                0.4203752959914414,
                -2.0682049553139876,
                -1.514115347882233,
                1.2310089832977371,
                0.2643430827708277,
                -0.31628743863031766
            ]
        },
        {
            "positions": [
                0.4974414090638759,
                -2.0336517140051504,
                -1.4005187573575357,
                1.1710937925667948,
                0.28690652035298225,
                -0.40241241376790776
            ]
        },
        {
            "positions": [
                0.5745075221363105,
                -1.999098472696313,
                -1.2869221668328383,
                1.1111786018358525,
                0.3094699579351369,
                -0.4885373889054979
            ]
        },
        {
            "positions": [
                0.651573635208745,
                -1.9645452313874756,
                -1.173325576308141,
                1.0512634111049102,
                0.33203339551729144,
                -0.574662364043088
            ]
        },
        {
            "positions": [
                0.7286397482811795,
                -1.9299919900786384,
                -1.0597289857834438,
                0.991348220373968,
                0.354596833099446,
                -0.6607873391806781
            ]
        },
        {
            "positions": [
                0.805705861353614,
                -1.895438748769801,
                -0.9461323952587464,
                0.9314330296430257,
                0.37716027068160063,
                -0.7469123143182682
            ]
        },
        {
            "positions": [
                0.8827719744260485,
                -1.8608855074609636,
                -0.8325358047340492,
                0.8715178389120833,
                0.39972370826375525,
                -0.8330372894558583
            ]
        },
        {
            "positions": [
                0.9598380874984831,
                -1.8263322661521264,
                -0.718939214209352,
                0.811602648181141,
                0.42228714584590976,
                -0.9191622645934484
            ]
        },
        {
            "positions": [
                1.0369042005709177,
                -1.7917790248432888,
                -0.6053426236846546,
                0.7516874574501988,
                0.4448505834280644,
                -1.0052872397310386
            ]
        },
        {
            "positions": [
                1.113970313643352,
                -1.7572257835344516,
                -0.49174603315995724,
                0.6917722667192565,
                0.467414021010219,
                -1.0914122148686287
            ]
        },
        {
            "positions": [
                1.1910364267157867,
                -1.7226725422256142,
                -0.37814944263526007,
                0.6318570759883142,
                0.4899774585923735,
                -1.1775371900062188
            ]
        },
        {
            "positions": [
                1.268102539788221,
                -1.6881193009167768,
                -0.2645528521105629,
                0.5719418852573719,
                0.5125408961745281,
                -1.263662165143809
            ]
        },
        {
            "positions": [
                1.3451686528606557,
                -1.6535660596079396,
                -0.1509562615858655,
                0.5120266945264296,
                0.5351043337566828,
                -1.349787140281399
            ]
        },
        {
            "positions": [
                1.4222347659330903,
                -1.619012818299102,
                -0.03735967106116811,
                0.45211150379548726,
                0.5576677713388373,
                -1.435912115418989
            ]
        },
        {
            "positions": [
                1.4993008790055247,
                -1.5844595769902647,
                0.07623691946352928,
                0.39219631306454494,
                0.5802312089209919,
                -1.5220370905565792
            ]
        },
        {
            "positions": [
                1.5763669920779593,
                -1.5499063356814273,
                0.18983350998822623,
                0.33228112233360263,
                0.6027946465031465,
                -1.6081620656941693
            ]
        },
        {
            "positions": [
                1.6534331051503937,
                -1.51535309437259,
                0.30343010051292363,
                0.2723659316026603,
                0.6253580840853011,
                -1.6942870408317594
            ]
        },
        {
            "positions": [
                1.7304992182228283,
                -1.4807998530637527,
                0.417026691037621,
                0.212450740871718,
                0.6479215216674556,
                -1.7804120159693495
            ]
        },
        {
            "positions": [
                1.8075653312952629,
                -1.4462466117549153,
                0.530623281562318,
                0.1525355501407757,
                0.6704849592496103,
                -1.8665369911069396
            ]
        },
        {
            "positions": [
                1.8846314443676973,
                -1.411693370446078,
                0.6442198720870154,
                0.09262035940983337,
                0.6930483968317649,
                -1.9526619662445297
            ]
        },
        {
            "positions": [
                1.9616975574401319,
                -1.3771401291372405,
                0.7578164626117128,
                0.03270516867889128,
                0.7156118344139194,
                -2.03878694138212
            ]
        },
        {
            "positions": [
                2.0387636705125667,
                -1.342586887828403,
                0.8714130531364102,
                -0.02721002205205103,
                0.738175271996074,
                -2.12491191651971
            ]
        },
        {
            "positions": [
                2.115829783585001,
                -1.3080336465195659,
                0.9850096436611075,
                -0.08712521278299334,
                0.7607387095782286,
                -2.2110368916573
            ]
        },
        {
            "positions": [
                2.1928958966574355,
                -1.2734804052107285,
                1.0986062341858045,
                -0.14704040351393566,
                0.7833021471603833,
                -2.29716186679489
            ]
        },
        {
            "positions": [
                2.2699620097298703,
                -1.238927163901891,
                1.212202824710502,
                -0.20695559424487797,
                0.8058655847425378,
                -2.38328684193248
            ]
        },
        {
            "positions": [
                2.3470281228023047,
                -1.2043739225930536,
                1.3257994152351993,
                -0.2668707849758203,
                0.8284290223246924,
                -2.4694118170700703
            ]
        },
        {
            "positions": [
                2.424094235874739,
                -1.1698206812842165,
                1.4393960057598962,
                -0.3267859757067626,
                0.850992459906847,
                -2.5555367922076604
            ]
        },
        {
            "positions": [
                2.501160348947174,
                -1.135267439975379,
                1.5529925962845936,
                -0.3867011664377049,
                0.8735558974890015,
                -2.6416617673452505
            ]
        },
        {
            "positions": [
                2.5782264620196083,
                -1.1007141986665416,
                1.6665891868092912,
                -0.4466163571686473,
                0.8961193350711562,
                -2.7277867424828406
            ]
        },
        {
            "positions": [
                2.5942262068285067,
                -1.0715222910547406,
                1.7192357680267472,
                -0.5589166586813594,
                0.9461148755739157,
                -2.850194748893743
            ]
        },
        {
            "positions": [
                2.6102259516374056,
                -1.0423303834429394,
                1.7718823492442033,
                -0.6712169601940716,
                0.9961104160766753,
                -2.972602755304646
            ]
        },
        {
            "positions": [
                2.626225696446304,
                -1.0131384758311384,
                1.8245289304616592,
                -0.7835172617067837,
                1.0461059565794348,
                -3.0950107617155487
            ]
        }
    ]
}