{
    "goal": {
        "global_pose": {
            "orientation": {
                "w": 0.5084816262002911,
                "x": -0.4908360881923452,
                "y": 0.5182115481033761,
                "z": -0.48164630358495003
            },
            "position": {
                "x": 0.5540239810943604,
                "y": -0.46912469901144505,
                "z": 0.16403168439865112
            }
        },
        "name": "move_to_storage_B"
    },
    "id": "BFMT_move_to_storage_B_113",
    "joint_names": [
        "shoulder_pan_joint",
        "shoulder_lift_joint",
        "elbow_joint",
        "wrist_1_joint",
        "wrist_2_joint",
        "wrist_3_joint"
    ],
    "metrics": {
        "cart_traj_len": 0.7617071804087677,
        "distance_elbow_joint": 0.47618391983230746,
        "distance_shoulder_lift_joint": 0.4600887580033366,
        "distance_shoulder_pan_joint": 0.19545453749297714,
        "distance_wrist_1_joint": 2.984303968207709,
        "distance_wrist_2_joint": 2.7202370810680416,
        "distance_wrist_3_joint": 3.13435699970184,
        "smoothness": 0.01935981878776541,
        "time": 0.61379712,
        "traj_len": 3.1576296908133816,
        "weighted_distance": 4.684429561108336
    },
    "planner": "BFMT",
    "start": {
        "state": {
            "elbow_joint": 1.664937868594044,
            "shoulder_lift_joint": -0.661644460510453,
            "shoulder_pan_joint": -0.9139846352900073,
            "wrist_1_joint": 2.146753192139373,
            "wrist_2_joint": -2.2341966793290973,
            "wrist_3_joint": 0.005466555786416001
        }
    },
    "waypoints": [
        {
            "positions": [
                -0.9139846352900073,
                -0.661644460510453,
                1.664937868594044,
                2.146753192139373,
                -2.2341966793290973,
                0.005466555786416001
            ]
        },
        {
            "positions": [
                -0.9133802282538115,
                -0.6838844514378914,
                1.6968134972992976,
                2.0722465732089503,
                -2.1576216460858015,
                0.1838080697962353
            ]
        },
        {
            "positions": [
                -0.9127758212176157,
                -0.7061244423653299,
                1.7286891260045514,
                1.997739954278528,
                -2.0810466128425062,
                0.3621495838060546
            ]
        },
        {
            "positions": [
                -0.9121714141814199,
                -0.7283644332927683,
                1.760564754709805,
                1.9232333353481053,
                -2.0044715795992105,
                0.5404910978158739
            ]
        },
        {
            "positions": [
                -0.9115670071452241,
                -0.7506044242202067,
                1.7924403834150586,
                1.8487267164176826,
                -1.9278965463559152,
                0.7188326118256931
            ]
        },
        {
            "positions": [
                -0.9109626001090283,
                -0.7728444151476451,
                1.8243160121203124,
                1.77422009748726,
                -1.8513215131126195,
                0.8971741258355126
            ]
        },
        {
            "positions": [
                -0.9103581930728324,
                -0.7950844060750836,
                1.856191640825566,
                1.6997134785568373,
                -1.774746479869324,
                1.0755156398453318
            ]
        },
        {
            "positions": [
                -0.9097537860366366,
                -0.817324397002522,
                1.8880672695308198,
                1.6252068596264146,
                -1.6981714466260285,
                1.2538571538551513
            ]
        },
        {
            "positions": [
                -0.9091493790004408,
                -0.8395643879299604,
                1.9199428982360733,
                1.550700240695992,
                -1.621596413382733,
                1.4321986678649703
            ]
        },
        {
            "positions": [
                -0.908544971964245,
                -0.8618043788573988,
                1.9518185269413273,
                1.4761936217655693,
                -1.5450213801394375,
                1.6105401818747898
            ]
        },
        {
            "positions": [
                -0.9079405649280492,
                -0.8840443697848372,
                1.9836941556465808,
                1.4016870028351467,
                -1.4684463468961417,
                1.7888816958846092
            ]
        },
        {
            "positions": [
                -0.9073361578918534,
                -0.9062843607122757,
                2.0155697843518343,
                1.327180383904724,
                -1.3918713136528464,
                1.9672232098944282
            ]
        },
        {
            "positions": [
                -0.9067317508556576,
                -0.9285243516397141,
                2.0474454130570883,
                1.2526737649743014,
                -1.3152962804095507,
                2.145564723904248
            ]
        },
        {
            "positions": [
                -0.9096914136757477,
                -0.9430141764557696,
                2.062940789783964,
                1.1786007635537123,
                -1.2460031251511912,
                2.252615639310681
            ]
        },
        {
            "positions": [
                -0.9126510764958377,
                -0.9575040012718251,
                2.078436166510839,
                1.1045277621331233,
                -1.1767099698928314,
                2.359666554717114
            ]
        },
        {
            "positions": [
                -0.9266727939895644,
                -0.9701370179827454,
                2.073614195594261,
                0.9551371053483957,
                -1.0488060951519256,
                2.4196786316995094
            ]
        },
        {
            "positions": [
                -0.9406945114832911,
                -0.9827700346936658,
                2.068792224677683,
                0.8057464485636681,
                -0.9209022204110198,
                2.479690708681905
            ]
        },
        {
            "positions": [
                -0.9547162289770178,
                -0.9954030514045862,
                2.0639702537611053,
                0.6563557917789404,
                -0.7929983456701138,
                2.5397027856643004
            ]
        },
        {
            "positions": [
                -0.9687379464707445,
                -1.0080360681155065,
                2.0591482828445273,
                0.5069651349942128,
                -0.665094470929208,
                2.599714862646696
            ]
        },
        {
            "positions": [
                -0.9827596639644712,
                -1.0206690848264268,
                2.0543263119279493,
                0.3575744782094852,
                -0.5371905961883021,
                2.6597269396290915
            ]
        },
        {
            "positions": [
                -0.9967813814581981,
                -1.0333021015373471,
                2.0495043410113714,
                0.20818382142475755,
                -0.4092867214473963,
                2.719739016611487
            ]
        },
        {
            "positions": [
                -1.0108030989519248,
                -1.0459351182482675,
                2.044682370094794,
                0.05879316464003015,
                -0.2813828467064905,
                2.779751093593883
            ]
        },
        {
            "positions": [
                -1.0248248164456515,
                -1.0585681349591878,
                2.039860399178216,
                -0.0905974921446977,
                -0.1534789719655847,
                2.8397631705762785
            ]
        },
        {
            "positions": [
                -1.0388465339393782,
                -1.0712011516701083,
                2.035038428261638,
                -0.2399881489294251,
                -0.025575097224678878,
                2.899775247558674
            ]
        },
        {
            "positions": [
                -1.052868251433105,
                -1.0838341683810286,
                2.03021645734506,
                -0.38937880571415295,
                0.10232877751622715,
                2.9597873245410695
            ]
        },
        {
            "positions": [
                -1.0668899689268316,
                -1.096467185091949,
                2.0253944864284823,
                -0.5387694624988804,
                0.23023265225713296,
                3.019799401523465
            ]
        },
        {
            "positions": [
                -1.0809116864205583,
                -1.1091002018028693,
                2.0205725155119043,
                -0.6881601192836082,
                0.3581365269980388,
                3.0798114785058606
            ]
        },
        {
            "positions": [
                -1.094933403914285,
                -1.1217332185137896,
                2.0157505445953263,
                -0.8375507760683355,
                0.4860404017389445,
                3.139823555488256
            ]
        }
    ]
}