{
    "goal": {
        "global_pose": {
            "orientation": {
                "w": 0.5084816217422485,
                "x": -0.49083608388900757,
                "y": 0.5182115435600281,
                "z": -0.4816462993621826
            },
            "position": {
                "x": 0.5540239810943604,
                "y": 0.030875300988554955,
                "z": 0.16403168439865112
            }
        },
        "name": "move_to_storage_A"
    },
    "id": "BFMT_move_to_storage_A_95",
    "joint_names": [
        "shoulder_pan_joint",
        "shoulder_lift_joint",
        "elbow_joint",
        "wrist_1_joint",
        "wrist_2_joint",
        "wrist_3_joint"
    ],
    "metrics": {
        "cart_traj_len": 0.3526019186681899,
        "distance_elbow_joint": 0.44854574237114675,
        "distance_shoulder_lift_joint": 0.23314170783331067,
        "distance_shoulder_pan_joint": 0.45981164389701656,
        "distance_wrist_1_joint": 0.24203957924978237,
        "distance_wrist_2_joint": 1.1023003606772188,
        "distance_wrist_3_joint": 0.09699519283810254,
        "smoothness": 8.881784267329941e-16,
        "time": 0.486820187,
        "traj_len": 1.6071198545430823,
        "weighted_distance": 2.0300651596610844
    },
    "planner": "BFMT",
    "start": {
        "state": {
            "elbow_joint": 1.971548259319323,
            "shoulder_lift_joint": -1.1394851275133948,
            "shoulder_pan_joint": 0.1228115487234821,
            "wrist_1_joint": -0.7804723859257726,
            "wrist_2_joint": 0.12958671773740124,
            "wrist_3_joint": -3.192489227718131
        }
    },
    "waypoints": [
        {
            "positions": [
                0.1228115487234821,
                -1.1394851275133948,
                1.971548259319323,
                -0.7804723859257726,
                0.12958671773740124,
                -3.192489227718131
            ]
        },
        {
            "positions": [
                0.05712417102390831,
                -1.1727910857752963,
                2.035626222515201,
                -0.8150494686757416,
                0.28705819783414677,
                -3.1786327715984024
            ]
        },
        {
            "positions": [
                -0.008563206675665486,
                -1.2060970440371979,
                2.0997041857110794,
                -0.8496265514257104,
                0.44452967793089226,
                -3.164776315478673
            ]
        },
        {
            "positions": [
                -0.07425058437523926,
                -1.2394030022990994,
                2.1637821489069573,
                -0.8842036341756794,
                0.6020011580276379,
                -3.1509198593589445
            ]
        },
        {
            "positions": [
                -0.13993796207481307,
                -1.272708960561001,
                2.227860112102835,
                -0.9187807169256482,
                0.7594726381243834,
                -3.1370634032392153
            ]
        },
        {
            "positions": [
                -0.2056253397743869,
                -1.3060149188229024,
                2.2919380752987135,
                -0.9533577996756172,
                0.916944118221129,
                -3.1232069471194865
            ]
        },
        {
            "positions": [
                -0.27131271747396063,
                -1.339320877084804,
                2.356016038494592,
                -0.987934882425586,
                1.0744155983178745,
                -3.1093504909997574
            ]
        },
        {
            "positions": [
                -0.33700009517353446,
                -1.3726268353467055,
                2.4200940016904697,
                -1.022511965175555,
                1.23188707841462,
                -3.0954940348800286
            ]
        }
    ]
}{
    "goal": {
        "global_pose": {
            "orientation": {
                "w": 0.5084816217422485,
                "x": -0.49083608388900757,
                "y": 0.5182115435600281,
                "z": -0.4816462993621826
            },
            "position": {
                "x": 0.5540239810943604,
                "y": 0.030875300988554955,
                "z": 0.16403168439865112
            }
        },
        "name": "move_to_storage_A"
    },
    "id": "BFMT_move_to_storage_A_95",
    "joint_names": [
        "shoulder_pan_joint",
        "shoulder_lift_joint",
        "elbow_joint",
        "wrist_1_joint",
        "wrist_2_joint",
        "wrist_3_joint"
    ],
    "metrics": {
        "cart_traj_len": 0.352304560748635,
        "distance_elbow_joint": 0.4492594044858693,
        "distance_shoulder_lift_joint": 0.2333321515382698,
        "distance_shoulder_pan_joint": 0.4574751769423248,
        "distance_wrist_1_joint": 0.243418806736996,
        "distance_wrist_2_joint": 1.110453187548751,
        "distance_wrist_3_joint": 0.09332263677259789,
        "smoothness": 4.440892098500626e-16,
        "time": 0.5180448839999999,
        "traj_len": 1.6084966161061107,
        "weighted_distance": 2.03169353787813
    },
    "planner": "BFMT",
    "start": {
        "state": {
            "elbow_joint": 1.97154746011099,
            "shoulder_lift_joint": -1.13948474672311,
            "shoulder_pan_joint": 0.12281154466712228,
            "wrist_1_joint": -0.7804688027058302,
            "wrist_2_joint": 0.12958655903071145,
            "wrist_3_joint": 3.0906928834467795
        }
    },
    "waypoints": [
        {
            "positions": [
                0.12281154466712228,
                -1.13948474672311,
                1.97154746011099,
                -0.7804688027058302,
                0.12958655903071145,
                3.0906928834467795
            ]
        },
        {
            "positions": [
                0.05745794796107588,
                -1.172817911228577,
                2.035727375037543,
                -0.8152429179539725,
                0.288222728680533,
                3.1040246887000076
            ]
        },
        {
            "positions": [
                -0.007895648744970521,
                -1.2061510757340441,
                2.0999072899640954,
                -0.8500170332021147,
                0.44685889833035464,
                3.117356493953236
            ]
        },
        {
            "positions": [
                -0.07324924545101692,
                -1.2394842402395112,
                2.1640872048906483,
                -0.8847911484502571,
                0.6054950679801762,
                3.130688299206464
            ]
        },
        {
            "positions": [
                -0.1386028421570633,
                -1.2728174047449783,
                2.228267119817201,
                -0.9195652636983993,
                0.7641312376299978,
                3.1440201044596927
            ]
        },
        {
            "positions": [
                -0.2039564388631097,
                -1.3061505692504456,
                2.2924470347437538,
                -0.9543393789465416,
                0.9227674072798194,
                3.157351909712921
            ]
        },
        {
            "positions": [
                -0.2693100355691561,
                -1.3394837337559127,
                2.3566269496703063,
                -0.9891134941946839,
                1.0814035769296408,
                3.1706837149661493
            ]
        },
        {
            "positions": [
                -0.3346636322752025,
                -1.3728168982613798,
                2.4208068645968592,
                -1.0238876094428262,
                1.2400397465794626,
                3.1840155202193774
            ]
        }
    ]
}{
    "goal": {
        "global_pose": {
            "orientation": {
                "w": 0.5084816217422485,
                "x": -0.49083608388900757,
                "y": 0.5182115435600281,
                "z": -0.4816462993621826
            },
            "position": {
                "x": 0.5540239810943604,
                "y": 0.030875300988554955,
                "z": 0.16403168439865112
            }
        },
        "name": "move_to_storage_A"
    },
    "id": "BFMT_move_to_storage_A_95",
    "joint_names": [
        "shoulder_pan_joint",
        "shoulder_lift_joint",
        "elbow_joint",
        "wrist_1_joint",
        "wrist_2_joint",
        "wrist_3_joint"
    ],
    "metrics": {
        "cart_traj_len": 0.3524337540842968,
        "distance_elbow_joint": 0.4505300874752698,
        "distance_shoulder_lift_joint": 0.23260559944434012,
        "distance_shoulder_pan_joint": 0.4599368449621758,
        "distance_wrist_1_joint": 0.24840421710436256,
        "distance_wrist_2_joint": 1.10070713643986,
        "distance_wrist_3_joint": 0.09540993739274173,
        "smoothness": 0.0,
        "time": 0.519560989,
        "traj_len": 1.6085999573600485,
        "weighted_distance": 2.031631130680089
    },
    "planner": "BFMT",
    "start": {
        "state": {
            "elbow_joint": 1.9715472970024885,
            "shoulder_lift_joint": -1.1394870060712896,
            "shoulder_pan_joint": 0.12281152778156021,
            "wrist_1_joint": -0.780463741449964,
            "wrist_2_joint": 0.12958659822042276,
            "wrist_3_joint": 3.090690232415272
        }
    },
    "waypoints": [
        {
            "positions": [
                0.12281152778156021,
                -1.1394870060712896,
                1.9715472970024885,
                -0.780463741449964,
                0.12958659822042276,
                3.090690232415272
            ]
        },
        {
            "positions": [
                0.057106264215535094,
                -1.172716377420481,
                2.0359087380703844,
                -0.8159500581791587,
                0.2868304748546885,
                3.104320223471378
            ]
        },
        {
            "positions": [
                -0.008598999350490022,
                -1.2059457487696725,
                2.10027017913828,
                -0.8514363749083533,
                0.44407435148895413,
                3.1179502145274838
            ]
        },
        {
            "positions": [
                -0.07430426291651512,
                -1.2391751201188639,
                2.1646316202061757,
                -0.8869226916375479,
                0.6013182281232199,
                3.1315802055835897
            ]
        },
        {
            "positions": [
                -0.14000952648254025,
                -1.2724044914680555,
                2.228993061274071,
                -0.9224090083667426,
                0.7585621047574855,
                3.1452101966396957
            ]
        },
        {
            "positions": [
                -0.20571479004856538,
                -1.3056338628172468,
                2.293354502341967,
                -0.9578953250959372,
                0.9158059813917513,
                3.1588401876958017
            ]
        },
        {
            "positions": [
                -0.27142005361459043,
                -1.3388632341664382,
                2.3577159434098625,
                -0.9933816418251319,
                1.073049858026017,
                3.1724701787519076
            ]
        },
        {
            "positions": [
                -0.33712531718061556,
                -1.3720926055156297,
                2.4220773844777583,
                -1.0288679585543266,
                1.2302937346602827,
                3.1861001698080136
            ]
        }
    ]
}