{
    "goal": {
        "global_pose": {
            "orientation": {
                "w": 0.7047431493862688,
                "x": -0.7094548369677653,
                "y": 0.0024358444001904,
                "z": -0.0022348060817251984
            },
            "position": {
                "x": -0.39052492380142206,
                "y": 0.3671506643295288,
                "z": 0.19426114857196808
            }
        },
        "name": "move_to_magneteinheit_D"
    },
    "id": "BFMT_move_to_magneteinheit_D_32",
    "joint_names": [
        "shoulder_pan_joint",
        "shoulder_lift_joint",
        "elbow_joint",
        "wrist_1_joint",
        "wrist_2_joint",
        "wrist_3_joint"
    ],
    "metrics": {
        "cart_traj_len": 4.9712807971345665,
        "distance_elbow_joint": 3.1391325411363096,
        "distance_shoulder_lift_joint": 2.378433809871118,
        "distance_shoulder_pan_joint": 2.842153353473595,
        "distance_wrist_1_joint": 2.660032374148402,
        "distance_wrist_2_joint": 0.7172185495732724,
        "distance_wrist_3_joint": 3.12370695822326,
        "smoothness": 0.17971057585660144,
        "time": 1.189193453,
        "traj_len": 3.8549549396103138,
        "weighted_distance": 4.948266608277503
    },
    "planner": "BFMT",
    "start": {
        "state": {
            "elbow_joint": 0.749534889911806,
            "shoulder_lift_joint": -0.6476975780787326,
            "shoulder_pan_joint": -2.711696901376241,
            "wrist_1_joint": -0.07506478083263063,
            "wrist_2_joint": 0.43296659715538205,
            "wrist_3_joint": -3.14703540197715
        }
    },
    "waypoints": [
        {
            "positions": [
                -2.711696901376241,
                -0.6476975780787326,
                0.749534889911806,
                -0.07506478083263063,
                0.43296659715538205,
                -3.14703540197715
            ]
        },
        {
            "positions": [
                -2.5658728546608147,
                -0.7475834714190909,
                0.6650764261501203,
                -0.04557764626297903,
                0.44581763766790844,
                -3.1321428117779693
            ]
        },
        {
            "positions": [
                -2.4200488079453883,
                -0.8474693647594491,
                0.5806179623884347,
                -0.016090511693327432,
                0.4586686781804348,
                -3.1172502215787885
            ]
        },
        {
            "positions": [
                -2.274224761229962,
                -0.9473552580998074,
                0.49615949862674913,
                0.013396622876324163,
                0.47151971869296117,
                -3.1023576313796077
            ]
        },
        {
            "positions": [
                -2.1284007145145356,
                -1.0472411514401656,
                0.4117010348650635,
                0.042883757445975765,
                0.48437075920548756,
                -3.087465041180427
            ]
        },
        {
            "positions": [
                -1.9825766677991092,
                -1.147127044780524,
                0.32724257110337784,
                0.07237089201562738,
                0.49722179971801395,
                -3.0725724509812467
            ]
        },
        {
            "positions": [
                -1.8367526210836829,
                -1.247012938120882,
                0.2427841073416923,
                0.10185802658527895,
                0.5100728402305403,
                -3.057679860782066
            ]
        },
        {
            "positions": [
                -1.6909285743682565,
                -1.3468988314612402,
                0.15832564358000656,
                0.13134516115493056,
                0.5229238807430667,
                -3.042787270582885
            ]
        },
        {
            "positions": [
                -1.5451045276528301,
                -1.4467847248015986,
                0.07386717981832103,
                0.16083229572458216,
                0.535774921255593,
                -3.0278946803837044
            ]
        },
        {
            "positions": [
                -1.3992804809374038,
                -1.546670618141957,
                -0.010591283943364616,
                0.19031943029423376,
                0.5486259617681194,
                -3.0130020901845236
            ]
        },
        {
            "positions": [
                -1.2534564342219774,
                -1.646556511482315,
                -0.09504974770505026,
                0.2198065648638854,
                0.5614770022806458,
                -2.998109499985343
            ]
        },
        {
            "positions": [
                -1.1076323875065508,
                -1.7464424048226734,
                -0.1795082114667359,
                0.24929369943353696,
                0.5743280427931722,
                -2.983216909786162
            ]
        },
        {
            "positions": [
                -0.9618083407911246,
                -1.8463282981630316,
                -0.2639666752284213,
                0.27878083400318854,
                0.5871790833056986,
                -2.9683243195869813
            ]
        },
        {
            "positions": [
                -0.8159842940756983,
                -1.9462141915033897,
                -0.34842513899010696,
                0.30826796857284017,
                0.600030123818225,
                -2.9534317293878005
            ]
        },
        {
            "positions": [
                -0.6701602473602719,
                -2.046100084843748,
                -0.43288360275179283,
                0.33775510314249174,
                0.6128811643307512,
                -2.93853913918862
            ]
        },
        {
            "positions": [
                -0.5243362006448455,
                -2.1459859781841066,
                -0.5173420665134785,
                0.36724223771214337,
                0.6257322048432776,
                -2.9236465489894394
            ]
        },
        {
            "positions": [
                -0.37851215392941917,
                -2.2458718715244643,
                -0.6018005302751639,
                0.39672937228179495,
                0.638583245355804,
                -2.9087539587902587
            ]
        },
        {
            "positions": [
                -0.2326881072139928,
                -2.345757764864823,
                -0.6862589940368495,
                0.4262165068514466,
                0.6514342858683304,
                -2.893861368591078
            ]
        },
        {
            "positions": [
                -0.08686406049856657,
                -2.445643658205181,
                -0.7707174577985351,
                0.4557036414210981,
                0.6642853263808568,
                -2.878968778391897
            ]
        },
        {
            "positions": [
                -0.0834174132334933,
                -2.423787141948848,
                -0.8596432635102803,
                0.5499178376027157,
                0.6487726345463951,
                -2.728308902244665
            ]
        },
        {
            "positions": [
                -0.07997076596842005,
                -2.401930625692515,
                -0.9485690692220257,
                0.6441320337843333,
                0.6332599427119334,
                -2.5776490260974327
            ]
        },
        {
            "positions": [
                -0.07652411870334679,
                -2.380074109436182,
                -1.037494874933771,
                0.7383462299659509,
                0.6177472508774717,
                -2.4269891499502005
            ]
        },
        {
            "positions": [
                -0.07307747143827352,
                -2.358217593179849,
                -1.1264206806455161,
                0.8325604261475685,
                0.60223455904301,
                -2.2763292738029683
            ]
        },
        {
            "positions": [
                -0.06963082417320027,
                -2.3363610769235157,
                -1.2153464863572614,
                0.9267746223291862,
                0.5867218672085484,
                -2.1256693976557357
            ]
        },
        {
            "positions": [
                -0.066184176908127,
                -2.314504560667183,
                -1.3042722920690069,
                1.0209888185108038,
                0.5712091753740867,
                -1.9750095215085035
            ]
        },
        {
            "positions": [
                -0.06273752964305374,
                -2.29264804441085,
                -1.3931980977807519,
                1.1152030146924212,
                0.555696483539625,
                -1.8243496453612715
            ]
        },
        {
            "positions": [
                -0.059290882377980476,
                -2.2707915281545166,
                -1.4821239034924973,
                1.2094172108740389,
                0.5401837917051633,
                -1.6736897692140391
            ]
        },
        {
            "positions": [
                -0.05584423511290722,
                -2.2489350118981837,
                -1.5710497092042426,
                1.3036314070556565,
                0.5246710998707016,
                -1.523029893066807
            ]
        },
        {
            "positions": [
                -0.05239758784783395,
                -2.2270784956418503,
                -1.6599755149159878,
                1.3978456032372741,
                0.5091584080362399,
                -1.3723700169195745
            ]
        },
        {
            "positions": [
                -0.04895094058276069,
                -2.2052219793855175,
                -1.7489013206277333,
                1.4920597994188918,
                0.4936457162017782,
                -1.2217101407723423
            ]
        },
        {
            "positions": [
                -0.045504293317687426,
                -2.1833654631291846,
                -1.8378271263394783,
                1.5862739956005094,
                0.47813302436731653,
                -1.07105026462511
            ]
        },
        {
            "positions": [
                -0.042057646052614174,
                -2.1615089468728517,
                -1.9267529320512238,
                1.680488191782127,
                0.4626203325328549,
                -0.9203903884778781
            ]
        },
        {
            "positions": [
                -0.03861099878754091,
                -2.1396524306165183,
                -2.015678737762969,
                1.7747023879637447,
                0.4471076406983932,
                -0.7697305123306459
            ]
        },
        {
            "positions": [
                -0.03516435152246765,
                -2.1177959143601854,
                -2.1046045434747143,
                1.8689165841453623,
                0.4315949488639315,
                -0.6190706361834133
            ]
        },
        {
            "positions": [
                -0.03171770425739438,
                -2.095939398103852,
                -2.1935303491864597,
                1.96313078032698,
                0.4160822570294698,
                -0.4684107600361811
            ]
        },
        {
            "positions": [
                -0.028271056992321124,
                -2.074082881847519,
                -2.2824561548982047,
                2.0573449765085976,
                0.40056956519500814,
                -0.3177508838889487
            ]
        },
        {
            "positions": [
                -0.05244393872422928,
                -2.0855099035493057,
                -2.331714326068445,
                2.034925819127753,
                0.3652449861136956,
                -0.21130533749009914
            ]
        },
        {
            "positions": [
                -0.07661682045613744,
                -2.096936925251092,
                -2.3809724972386856,
                2.0125066617469085,
                0.329920407032383,
                -0.1048597910912496
            ]
        },
        {
            "positions": [
                -0.1134107356647566,
                -2.158961228578904,
                -2.3780974459100794,
                1.8515785610650801,
                0.2794087733659417,
                -0.0776826753121301
            ]
        },
        {
            "positions": [
                -0.15020465087337576,
                -2.2209855319067153,
                -2.3752223945814737,
                1.690650460383252,
                0.22889713969950048,
                -0.0505055595330106
            ]
        },
        {
            "positions": [
                -0.18699856608199494,
                -2.283009835234527,
                -2.3723473432528674,
                1.5297223597014236,
                0.17838550603305922,
                -0.023328443753891093
            ]
        }
    ]
}