{
    "goal": {
        "global_pose": {
            "orientation": {
                "w": 0.7047431468963623,
                "x": -0.7094548344612122,
                "y": 0.0024358443915843964,
                "z": -0.0022348060738295317
            },
            "position": {
                "x": 0.6094750761985779,
                "y": 0.3671506643295288,
                "z": 0.19426114857196808
            }
        },
        "name": "move_to_magneteinheit_A"
    },
    "id": "BFMT_move_to_magneteinheit_A_140",
    "joint_names": [
        "shoulder_pan_joint",
        "shoulder_lift_joint",
        "elbow_joint",
        "wrist_1_joint",
        "wrist_2_joint",
        "wrist_3_joint"
    ],
    "metrics": {
        "cart_traj_len": 3.2866078985841387,
        "distance_elbow_joint": 3.8976028286830027,
        "distance_shoulder_lift_joint": 0.6224195591742105,
        "distance_shoulder_pan_joint": 2.7696788815975095,
        "distance_wrist_1_joint": 0.7311743396778271,
        "distance_wrist_2_joint": 1.6932136007861942,
        "distance_wrist_3_joint": 2.6755712406460033,
        "smoothness": 0.04374423682763534,
        "time": 0.938565871,
        "traj_len": 3.5198949487967317,
        "weighted_distance": 4.490566876500202
    },
    "planner": "BFMT",
    "start": {
        "state": {
            "elbow_joint": -1.9196185241190666,
            "shoulder_lift_joint": -1.2443396400964142,
            "shoulder_pan_joint": 2.6996025414629847,
            "wrist_1_joint": -1.5485510000780065,
            "wrist_2_joint": -1.5709468930060704,
            "wrist_3_joint": 0.4420197071253992
        }
    },
    "waypoints": [
        {
            "positions": [
                2.6996025414629847,
                -1.2443396400964142,
                -1.9196185241190666,
                -1.5485510000780065,
                -1.5709468930060704,
                0.4420197071253992
            ]
        },
        {
            "positions": [
                2.57929842474256,
                -1.2561810078897626,
                -1.7630329491530754,
                -1.5332623248963158,
                -1.5151861405363538,
                0.4652676620016268
            ]
        },
        {
            "positions": [
                2.458994308022135,
                -1.2680223756831108,
                -1.6064473741870842,
                -1.5179736497146248,
                -1.4594253880666372,
                0.48851561687785433
            ]
        },
        {
            "positions": [
                2.33869019130171,
                -1.2798637434764593,
                -1.449861799221093,
                -1.502684974532934,
                -1.4036646355969207,
                0.5117635717540819
            ]
        },
        {
            "positions": [
                2.2183860745812853,
                -1.2917051112698077,
                -1.2932762242551017,
                -1.4873962993512433,
                -1.347903883127204,
                0.5350115266303095
            ]
        },
        {
            "positions": [
                2.0980819578608605,
                -1.303546479063156,
                -1.1366906492891102,
                -1.4721076241695523,
                -1.2921431306574875,
                0.558259481506537
            ]
        },
        {
            "positions": [
                1.9777778411404356,
                -1.3153878468565043,
                -0.9801050743231192,
                -1.4568189489878616,
                -1.236382378187771,
                0.5815074363827646
            ]
        },
        {
            "positions": [
                1.8574737244200108,
                -1.3272292146498526,
                -0.8235194993571278,
                -1.4415302738061706,
                -1.1806216257180544,
                0.6047553912589922
            ]
        },
        {
            "positions": [
                1.737169607699586,
                -1.339070582443201,
                -0.6669339243911365,
                -1.4262415986244799,
                -1.1248608732483378,
                0.6280033461352198
            ]
        },
        {
            "positions": [
                1.616865490979161,
                -1.3509119502365494,
                -0.5103483494251453,
                -1.410952923442789,
                -1.0691001207786213,
                0.6512513010114473
            ]
        },
        {
            "positions": [
                1.4965613742587363,
                -1.3627533180298976,
                -0.35376277445915405,
                -1.3956642482610981,
                -1.0133393683089047,
                0.674499255887675
            ]
        },
        {
            "positions": [
                1.3762572575383114,
                -1.374594685823246,
                -0.1971771994931628,
                -1.3803755730794074,
                -0.9575786158391881,
                0.6977472107639026
            ]
        },
        {
            "positions": [
                1.2559531408178866,
                -1.3864360536165945,
                -0.0405916245271718,
                -1.3650868978977166,
                -0.9018178633694716,
                0.7209951656401301
            ]
        },
        {
            "positions": [
                1.1356490240974617,
                -1.3982774214099427,
                0.11599395043881966,
                -1.3497982227160257,
                -0.846057110899755,
                0.7442431205163578
            ]
        },
        {
            "positions": [
                1.0153449073770369,
                -1.4101187892032911,
                0.2725795254048111,
                -1.334509547534335,
                -0.7902963584300384,
                0.7674910753925853
            ]
        },
        {
            "positions": [
                0.8950407906566122,
                -1.4219601569966396,
                0.42916510037080213,
                -1.3192208723526442,
                -0.734535605960322,
                0.7907390302688129
            ]
        },
        {
            "positions": [
                0.7747366739361872,
                -1.4338015247899878,
                0.5857506753367936,
                -1.3039321971709532,
                -0.6787748534906053,
                0.8139869851450405
            ]
        },
        {
            "positions": [
                0.6544325572157623,
                -1.4456428925833362,
                0.7423362503027846,
                -1.2886435219892625,
                -0.6230141010208887,
                0.837234940021268
            ]
        },
        {
            "positions": [
                0.5341284404953375,
                -1.4574842603766847,
                0.8989218252687761,
                -1.2733548468075715,
                -0.5672533485511722,
                0.8604828948974956
            ]
        },
        {
            "positions": [
                0.41382432377491263,
                -1.4693256281700329,
                1.055507400234767,
                -1.2580661716258807,
                -0.5114925960814556,
                0.8837308497737232
            ]
        },
        {
            "positions": [
                0.2935202070544878,
                -1.4811669959633813,
                1.2120929752007585,
                -1.24277749644419,
                -0.455731843611739,
                0.9069788046499507
            ]
        },
        {
            "positions": [
                0.17321609033406293,
                -1.4930083637567295,
                1.36867855016675,
                -1.227488821262499,
                -0.39997109114202245,
                0.9302267595261784
            ]
        },
        {
            "positions": [
                0.052911973613637864,
                -1.504849731550078,
                1.525264125132741,
                -1.2122001460808083,
                -0.3442103386723059,
                0.9534747144024059
            ]
        },
        {
            "positions": [
                0.04857926540895333,
                -1.4743865675412604,
                1.5721117283740738,
                -1.1755136116776599,
                -0.30060779703331675,
                1.1425310164117173
            ]
        },
        {
            "positions": [
                0.0442465572042688,
                -1.443923403532443,
                1.6189593316154065,
                -1.1388270772745115,
                -0.25700525539432767,
                1.3315873184210285
            ]
        },
        {
            "positions": [
                0.03991384899958428,
                -1.4134602395236255,
                1.6658069348567395,
                -1.1021405428713629,
                -0.21340271375533854,
                1.5206436204303397
            ]
        },
        {
            "positions": [
                0.03558114079489975,
                -1.382997075514808,
                1.7126545380980722,
                -1.0654540084682145,
                -0.16980017211634943,
                1.709699922439651
            ]
        },
        {
            "positions": [
                0.031248432590215213,
                -1.3525339115059907,
                1.759502141339405,
                -1.028767474065066,
                -0.1261976304773603,
                1.8987562244489626
            ]
        },
        {
            "positions": [
                0.026915724385530686,
                -1.3220707474971731,
                1.8063497445807377,
                -0.9920809396619177,
                -0.08259508883837122,
                2.087812526458274
            ]
        },
        {
            "positions": [
                0.03204532298576042,
                -1.300007993570934,
                1.8332459347766945,
                -0.9682651108811693,
                -0.05449999784436027,
                2.2191792749818067
            ]
        },
        {
            "positions": [
                0.037174921585990145,
                -1.277945239644695,
                1.8601421249726515,
                -0.944449282100421,
                -0.02640490685034933,
                2.3505460235053395
            ]
        },
        {
            "positions": [
                0.058858138415889286,
                -1.244193995690904,
                1.8896026698704724,
                -0.9126811266753606,
                0.010762996807268825,
                2.5423072545718552
            ]
        },
        {
            "positions": [
                0.08054135524578843,
                -1.210442751737113,
                1.9190632147682933,
                -0.8809129712503002,
                0.04793090046488698,
                2.734068485638371
            ]
        },
        {
            "positions": [
                0.10222457207568757,
                -1.1766915077833222,
                1.948523759666114,
                -0.8491448158252398,
                0.08509880412250515,
                2.925829716704887
            ]
        },
        {
            "positions": [
                0.12390778890558671,
                -1.1429402638295312,
                1.977984304563935,
                -0.8173766604001794,
                0.12226670778012329,
                3.1175909477714026
            ]
        }
    ]
}