{
    "goal": {
        "global_pose": {
            "orientation": {
                "w": 0.7047431493862688,
                "x": -0.7094548369677653,
                "y": 0.0024358444001904,
                "z": -0.0022348060817251984
            },
            "position": {
                "x": -0.39052492380142206,
                "y": 0.3671506643295288,
                "z": 0.19426114857196808
            }
        },
        "name": "move_to_magneteinheit_D"
    },
    "id": "BFMT_move_to_magneteinheit_D_50",
    "joint_names": [
        "shoulder_pan_joint",
        "shoulder_lift_joint",
        "elbow_joint",
        "wrist_1_joint",
        "wrist_2_joint",
        "wrist_3_joint"
    ],
    "metrics": {
        "cart_traj_len": 4.824858712840869,
        "distance_elbow_joint": 3.1121060192132193,
        "distance_shoulder_lift_joint": 1.5798742222344264,
        "distance_shoulder_pan_joint": 3.0376327117342545,
        "distance_wrist_1_joint": 2.099174296161538,
        "distance_wrist_2_joint": 1.5486165784163661,
        "distance_wrist_3_joint": 0.8624288007380745,
        "smoothness": 0.9805749831046413,
        "time": 1.027109618,
        "traj_len": 3.49854721684557,
        "weighted_distance": 4.196722662334495
    },
    "planner": "BFMT",
    "start": {
        "state": {
            "elbow_joint": 0.749534889911806,
            "shoulder_lift_joint": -0.6476975780787326,
            "shoulder_pan_joint": -2.711696901376241,
            "wrist_1_joint": -0.07506478083263063,
            "wrist_2_joint": 0.43296659715538205,
            "wrist_3_joint": -3.14703540197715
        }
    },
    "waypoints": [
        {
            "positions": [
                -2.711696901376241,
                -0.6476975780787326,
                0.749534889911806,
                -0.07506478083263063,
                0.43296659715538205,
                -3.14703540197715
            ]
        },
        {
            "positions": [
                -2.7368052673002494,
                -0.7798130292992954,
                0.7116407093608691,
                -0.07872216742411388,
                0.4882321049385304,
                -3.142470888762558
            ]
        },
        {
            "positions": [
                -2.5440812504461867,
                -0.8726813842337485,
                0.679210031141709,
                -0.07921034241707586,
                0.47584145657211724,
                -3.1125842958804153
            ]
        },
        {
            "positions": [
                -2.3513572335921236,
                -0.9655497391682016,
                0.6467793529225488,
                -0.07969851741003785,
                0.46345080820570406,
                -3.0826977029982725
            ]
        },
        {
            "positions": [
                -2.1586332167380604,
                -1.0584180941026546,
                0.6143486747033887,
                -0.08018669240299983,
                0.45106015983929093,
                -3.05281111011613
            ]
        },
        {
            "positions": [
                -1.9659091998839977,
                -1.1512864490371078,
                0.5819179964842286,
                -0.08067486739596182,
                0.43866951147287775,
                -3.0229245172339874
            ]
        },
        {
            "positions": [
                -1.7731851830299348,
                -1.2441548039715609,
                0.5494873182650686,
                -0.0811630423889238,
                0.42627886310646457,
                -2.9930379243518446
            ]
        },
        {
            "positions": [
                -1.5804611661758718,
                -1.337023158906014,
                0.5170566400459085,
                -0.08165121738188579,
                0.4138882147400514,
                -2.9631513314697018
            ]
        },
        {
            "positions": [
                -1.387737149321809,
                -1.429891513840467,
                0.48462596182674833,
                -0.08213939237484777,
                0.4014975663736382,
                -2.933264738587559
            ]
        },
        {
            "positions": [
                -1.195013132467746,
                -1.5227598687749202,
                0.45219528360758815,
                -0.08262756736780975,
                0.3891069180072251,
                -2.9033781457054166
            ]
        },
        {
            "positions": [
                -1.002289115613683,
                -1.6156282237093733,
                0.4197646053884281,
                -0.08311574236077174,
                0.3767162696408119,
                -2.873491552823274
            ]
        },
        {
            "positions": [
                -0.8095650987596202,
                -1.7084965786438264,
                0.38733392716926796,
                -0.08360391735373372,
                0.3643256212743987,
                -2.843604959941131
            ]
        },
        {
            "positions": [
                -0.7525507033311294,
                -1.7130517408488326,
                0.22757457253371272,
                -0.20395102333481419,
                0.32922177089083765,
                -2.8576290465240297
            ]
        },
        {
            "positions": [
                -0.6955363079026384,
                -1.717606903053839,
                0.06781521789815748,
                -0.32429812931589463,
                0.29411792050727664,
                -2.871653133106929
            ]
        },
        {
            "positions": [
                -0.6385219124741475,
                -1.7221620652588452,
                -0.09194413673739776,
                -0.44464523529697514,
                0.2590140701237156,
                -2.8856772196898275
            ]
        },
        {
            "positions": [
                -0.5815075170456566,
                -1.7267172274638516,
                -0.251703491372953,
                -0.5649923412780555,
                0.22391021974015454,
                -2.899701306272726
            ]
        },
        {
            "positions": [
                -0.5244931216171658,
                -1.7312723896688578,
                -0.41146284600850813,
                -0.685339447259136,
                0.1888063693565935,
                -2.9137253928556253
            ]
        },
        {
            "positions": [
                -0.4674787261886748,
                -1.735827551873864,
                -0.5712222006440635,
                -0.8056865532402165,
                0.15370251897303244,
                -2.927749479438524
            ]
        },
        {
            "positions": [
                -0.4104643307601839,
                -1.7403827140788704,
                -0.7309815552796186,
                -0.926033659221297,
                0.1185986685894714,
                -2.9417735660214226
            ]
        },
        {
            "positions": [
                -0.35344993533169305,
                -1.7449378762838765,
                -0.890740909915174,
                -1.0463807652023773,
                0.08349481820591037,
                -2.9557976526043217
            ]
        },
        {
            "positions": [
                -0.29643553990320215,
                -1.749493038488883,
                -1.050500264550729,
                -1.1667278711834579,
                0.04839096782234931,
                -2.9698217391872204
            ]
        },
        {
            "positions": [
                -0.2394211444747113,
                -1.7540482006938891,
                -1.2102596191862842,
                -1.2870749771645382,
                0.013287117438788298,
                -2.983845825770119
            ]
        },
        {
            "positions": [
                -0.18240674904622034,
                -1.7586033628988953,
                -1.3700189738218396,
                -1.4074220831456186,
                -0.021816732944772765,
                -2.997869912353018
            ]
        },
        {
            "positions": [
                -0.12539235361772938,
                -1.7631585251039017,
                -1.529778328457395,
                -1.5277691891266993,
                -0.05692058332833383,
                -3.011893998935917
            ]
        },
        {
            "positions": [
                -0.06837795818923853,
                -1.7677136873089079,
                -1.6895376830929503,
                -1.6481162951077797,
                -0.09202443371189489,
                -3.0259180855188155
            ]
        },
        {
            "positions": [
                -0.01136356276074757,
                -1.7722688495139143,
                -1.8492970377285052,
                -1.7684634010888602,
                -0.1271282840954559,
                -3.0399421721017146
            ]
        },
        {
            "positions": [
                0.04565083266774328,
                -1.7768240117189205,
                -2.0090563923640605,
                -1.8888105070699406,
                -0.16223213447901694,
                -3.0539662586846132
            ]
        },
        {
            "positions": [
                0.022000067275419297,
                -1.7166907612625821,
                -2.063783683396105,
                -1.9425632508846347,
                -0.05800874011138776,
                -3.020579251872724
            ]
        },
        {
            "positions": [
                -0.0016506981169046864,
                -1.6565575108062438,
                -2.1185109744281494,
                -1.9963159946993287,
                0.04621465425624141,
                -2.987192245060835
            ]
        },
        {
            "positions": [
                -0.02530146350922867,
                -1.5964242603499055,
                -2.1732382654601934,
                -2.050068738514023,
                0.15043804862387058,
                -2.9538052382489464
            ]
        },
        {
            "positions": [
                -0.04895222890155265,
                -1.5362910098935671,
                -2.227965556492238,
                -2.103821482328717,
                0.25466144299149973,
                -2.9204182314370573
            ]
        },
        {
            "positions": [
                -0.08281852496979167,
                -1.5888447065857885,
                -2.261616949694532,
                -2.12142588099508,
                0.14816312955521127,
                -2.9741904896148115
            ]
        },
        {
            "positions": [
                -0.1166848210380307,
                -1.6413984032780098,
                -2.2952683428968257,
                -2.1390302796614424,
                0.04166481611892284,
                -3.027962747792566
            ]
        },
        {
            "positions": [
                -0.15055111710626973,
                -1.693952099970231,
                -2.3289197360991194,
                -2.1566346783278054,
                -0.0648334973173656,
                -3.0817350059703204
            ]
        },
        {
            "positions": [
                -0.18441741317450874,
                -1.7465057966624524,
                -2.3625711293014136,
                -2.1742390769941684,
                -0.17133181075365406,
                -3.1355072641480746
            ]
        }
    ]
}