{
    "goal": {
        "global_pose": {
            "orientation": {
                "w": 0.7031023480610252,
                "x": -0.7110244013736278,
                "y": 0.0077485991402295624,
                "z": 0.005598929693374583
            },
            "position": {
                "x": -0.8841497679147869,
                "y": 0.44412534475326537,
                "z": 0.3711530566215515
            }
        },
        "name": "move_to_auspresseinheit_D"
    },
    "id": "BFMT_move_to_auspresseinheit_D_136",
    "joint_names": [
        "shoulder_pan_joint",
        "shoulder_lift_joint",
        "elbow_joint",
        "wrist_1_joint",
        "wrist_2_joint",
        "wrist_3_joint"
    ],
    "metrics": {
        "cart_traj_len": 0.34477380736207097,
        "distance_elbow_joint": 0.6694294766494266,
        "distance_shoulder_lift_joint": 0.1384099088175308,
        "distance_shoulder_pan_joint": 0.13376692415760888,
        "distance_wrist_1_joint": 0.6322900825525748,
        "distance_wrist_2_joint": 1.437748597001526,
        "distance_wrist_3_joint": 0.0936304539993551,
        "smoothness": 1.9737298371844314e-16,
        "time": 0.49746583200000005,
        "traj_len": 1.7621791745387363,
        "weighted_distance": 2.3157234357174072
    },
    "planner": "BFMT",
    "start": {
        "state": {
            "elbow_joint": -1.8275523626775212,
            "shoulder_lift_joint": -2.126789852344167,
            "shoulder_pan_joint": -0.03513704404078235,
            "wrist_1_joint": -2.347782403156801,
            "wrist_2_joint": -1.6058999987535132,
            "wrist_3_joint": -3.0880379163319196
        }
    },
    "waypoints": [
        {
            "positions": [
                -0.03513704404078235,
                -2.126789852344167,
                -1.8275523626775212,
                -2.347782403156801,
                -1.6058999987535132,
                -3.0880379163319196
            ]
        },
        {
            "positions": [
                -0.05185790956048346,
                -2.1440910909463584,
                -1.7438736780963429,
                -2.426818663475873,
                -1.4261814241283224,
                -3.076334109582
            ]
        },
        {
            "positions": [
                -0.06857877508018456,
                -2.1613923295485495,
                -1.6601949935151645,
                -2.505854923794945,
                -1.2464628495031316,
                -3.064630302832081
            ]
        },
        {
            "positions": [
                -0.08529964059988568,
                -2.1786935681507407,
                -1.5765163089339862,
                -2.5848911841140163,
                -1.066744274877941,
                -3.0529264960821614
            ]
        },
        {
            "positions": [
                -0.1020205061195868,
                -2.1959948067529322,
                -1.4928376243528079,
                -2.6639274444330883,
                -0.8870257002527502,
                -3.0412226893322423
            ]
        },
        {
            "positions": [
                -0.11874137163928791,
                -2.213296045355124,
                -1.4091589397716295,
                -2.7429637047521602,
                -0.7073071256275594,
                -3.0295188825823227
            ]
        },
        {
            "positions": [
                -0.135462237158989,
                -2.230597283957315,
                -1.3254802551904512,
                -2.8219999650712317,
                -0.5275885510023688,
                -3.017815075832403
            ]
        },
        {
            "positions": [
                -0.15218310267869012,
                -2.247898522559506,
                -1.2418015706092729,
                -2.9010362253903037,
                -0.347869976377178,
                -3.006111269082484
            ]
        },
        {
            "positions": [
                -0.16890396819839124,
                -2.2651997611616976,
                -1.1581228860280945,
                -2.9800724857093757,
                -0.16815140175198723,
                -2.9944074623325645
            ]
        }
    ]
}