{
    "goal": {
        "global_pose": {
            "orientation": {
                "w": -0.4816463035849501,
                "x": 0.5182115481033762,
                "y": 0.4908360881923453,
                "z": -0.5084816262002911
            },
            "position": {
                "x": -0.8240239810943604,
                "y": 0.19912469901144506,
                "z": 0.16403168439865112
            }
        },
        "name": "move_to_storage_D"
    },
    "id": "BFMT_move_to_storage_D_140",
    "joint_names": [
        "shoulder_pan_joint",
        "shoulder_lift_joint",
        "elbow_joint",
        "wrist_1_joint",
        "wrist_2_joint",
        "wrist_3_joint"
    ],
    "metrics": {
        "cart_traj_len": 3.619268905195299,
        "distance_elbow_joint": 4.211314329605729,
        "distance_shoulder_lift_joint": 1.2646092311140982,
        "distance_shoulder_pan_joint": 2.811475854139397,
        "distance_wrist_1_joint": 2.2749400612525283,
        "distance_wrist_2_joint": 0.8728021464172244,
        "distance_wrist_3_joint": 3.1272471939972215,
        "smoothness": 0.018891955387846444,
        "time": 0.748457895,
        "traj_len": 3.816069812847532,
        "weighted_distance": 4.895367750454545
    },
    "planner": "BFMT",
    "start": {
        "state": {
            "elbow_joint": -2.384821988534728,
            "shoulder_lift_joint": -2.2788054721415256,
            "shoulder_pan_joint": -0.1854694642142757,
            "wrist_1_joint": 1.4845938289331202,
            "wrist_2_joint": 0.17898776772866878,
            "wrist_3_joint": 0.037105688729662994
        }
    },
    "waypoints": [
        {
            "positions": [
                -0.1854694642142757,
                -2.2788054721415256,
                -2.384821988534728,
                1.4845938289331202,
                0.17898776772866878,
                0.037105688729662994
            ]
        },
        {
            "positions": [
                -0.16456789287657048,
                -2.274634272700945,
                -2.3736206966705407,
                1.4841616631614238,
                0.17674250294355648,
                0.021168642901132007
            ]
        },
        {
            "positions": [
                -0.07379676260898875,
                -2.2402723891428473,
                -2.262335830919194,
                1.4363997948819147,
                0.18955836097701687,
                -0.06740050568322192
            ]
        },
        {
            "positions": [
                0.016974367658592976,
                -2.20591050558475,
                -2.1510509651678476,
                1.3886379266024054,
                0.20237421901047722,
                -0.15596965426757584
            ]
        },
        {
            "positions": [
                0.10774549792617466,
                -2.171548622026652,
                -2.039766099416501,
                1.3408760583228962,
                0.2151900770439376,
                -0.24453880285192975
            ]
        },
        {
            "positions": [
                0.19851662819375643,
                -2.137186738468554,
                -1.9284812336651544,
                1.2931141900433871,
                0.22800593507739797,
                -0.3331079514362837
            ]
        },
        {
            "positions": [
                0.28928775846133814,
                -2.1028248549104562,
                -1.817196367913808,
                1.2453523217638778,
                0.24082179311085836,
                -0.42167710002063763
            ]
        },
        {
            "positions": [
                0.3800588887289198,
                -2.068462971352359,
                -1.7059115021624616,
                1.1975904534843687,
                0.25363765114431874,
                -0.5102462486049916
            ]
        },
        {
            "positions": [
                0.47083001899650156,
                -2.034101087794261,
                -1.594626636411115,
                1.1498285852048595,
                0.2664535091777791,
                -0.5988153971893455
            ]
        },
        {
            "positions": [
                0.5616011492640833,
                -1.999739204236163,
                -1.4833417706597685,
                1.1020667169253504,
                0.27926936721123946,
                -0.6873845457736995
            ]
        },
        {
            "positions": [
                0.6523722795316651,
                -1.9653773206780654,
                -1.372056904908422,
                1.0543048486458413,
                0.2920852252446998,
                -0.7759536943580534
            ]
        },
        {
            "positions": [
                0.7431434097992468,
                -1.9310154371199677,
                -1.2607720391570754,
                1.006542980366332,
                0.30490108327816023,
                -0.8645228429424073
            ]
        },
        {
            "positions": [
                0.8339145400668284,
                -1.8966535535618698,
                -1.149487173405729,
                0.9587811120868228,
                0.3177169413116206,
                -0.9530919915267612
            ]
        },
        {
            "positions": [
                0.9246856703344101,
                -1.8622916700037722,
                -1.0382023076543825,
                0.9110192438073136,
                0.33053279934508095,
                -1.041661140111115
            ]
        },
        {
            "positions": [
                1.0154568006019917,
                -1.8279297864456743,
                -0.9269174419030359,
                0.8632573755278045,
                0.34334865737854137,
                -1.130230288695469
            ]
        },
        {
            "positions": [
                1.1062279308695735,
                -1.7935679028875766,
                -0.8156325761516894,
                0.8154955072482952,
                0.3561645154120017,
                -1.218799437279823
            ]
        },
        {
            "positions": [
                1.1969990611371553,
                -1.7592060193294787,
                -0.7043477104003428,
                0.767733638968786,
                0.3689803734454621,
                -1.307368585864177
            ]
        },
        {
            "positions": [
                1.287770191404737,
                -1.724844135771381,
                -0.5930628446489963,
                0.7199717706892769,
                0.3817962314789225,
                -1.3959377344485309
            ]
        },
        {
            "positions": [
                1.3785413216723188,
                -1.6904822522132834,
                -0.48177797889764995,
                0.6722099024097677,
                0.3946120895123828,
                -1.4845068830328845
            ]
        },
        {
            "positions": [
                1.4693124519399006,
                -1.6561203686551855,
                -0.3704931131463032,
                0.6244480341302585,
                0.4074279475458432,
                -1.5730760316172387
            ]
        },
        {
            "positions": [
                1.5600835822074823,
                -1.6217584850970876,
                -0.2592082473949566,
                0.5766861658507494,
                0.4202438055793036,
                -1.6616451802015926
            ]
        },
        {
            "positions": [
                1.650854712475064,
                -1.58739660153899,
                -0.14792338164361007,
                0.52892429757124,
                0.433059663612764,
                -1.7502143287859466
            ]
        },
        {
            "positions": [
                1.7416258427426459,
                -1.5530347179808923,
                -0.03663851589226352,
                0.4811624292917309,
                0.44587552164622435,
                -1.8387834773703005
            ]
        },
        {
            "positions": [
                1.8323969730102272,
                -1.5186728344227944,
                0.07464634985908258,
                0.4334005610122218,
                0.4586913796796847,
                -1.9273526259546543
            ]
        },
        {
            "positions": [
                1.9231681032778094,
                -1.4843109508646966,
                0.18593121561042958,
                0.38563869273271245,
                0.4715072377131451,
                -2.015921774539008
            ]
        },
        {
            "positions": [
                2.0139392335453907,
                -1.4499490673065991,
                0.2972160813617757,
                0.33787682445320333,
                0.4843230957466055,
                -2.104490923123362
            ]
        },
        {
            "positions": [
                2.1047103638129725,
                -1.4155871837485012,
                0.40850094711312224,
                0.2901149561736942,
                0.49713895378006584,
                -2.1930600717077158
            ]
        },
        {
            "positions": [
                2.1954814940805543,
                -1.3812253001904033,
                0.5197858128644688,
                0.24235308789418508,
                0.5099548118135262,
                -2.2816292202920696
            ]
        },
        {
            "positions": [
                2.286252624348136,
                -1.3468634166323057,
                0.6310706786158153,
                0.19459121961467596,
                0.5227706698469865,
                -2.3701983688764234
            ]
        },
        {
            "positions": [
                2.377023754615718,
                -1.312501533074208,
                0.7423555443671619,
                0.1468293513351666,
                0.535586527880447,
                -2.4587675174607777
            ]
        },
        {
            "positions": [
                2.4677948848832996,
                -1.2781396495161101,
                0.8536404101185087,
                0.09906748305565759,
                0.5484023859139073,
                -2.5473366660451315
            ]
        },
        {
            "positions": [
                2.4853739409990574,
                -1.2488126041284788,
                0.9617350691132298,
                0.0002437369028724934,
                0.6038353857652141,
                -2.6076483148476233
            ]
        },
        {
            "positions": [
                2.5029529971148157,
                -1.2194855587408473,
                1.069829728107951,
                -0.0985800092499126,
                0.6592683856165209,
                -2.6679599636501155
            ]
        },
        {
            "positions": [
                2.5205320532305735,
                -1.190158513353216,
                1.177924387102672,
                -0.19740375540269767,
                0.7147013854678277,
                -2.728271612452607
            ]
        },
        {
            "positions": [
                2.5381111093463313,
                -1.1608314679655845,
                1.2860190460973933,
                -0.2962275015554828,
                0.7701343853191346,
                -2.788583261255099
            ]
        },
        {
            "positions": [
                2.5556901654620896,
                -1.1315044225779531,
                1.3941137050921144,
                -0.3950512477082679,
                0.8255673851704414,
                -2.848894910057591
            ]
        },
        {
            "positions": [
                2.5732692215778474,
                -1.1021773771903216,
                1.5022083640868358,
                -0.49387499386105294,
                0.8810003850217482,
                -2.909206558860083
            ]
        },
        {
            "positions": [
                2.5908482776936053,
                -1.0728503318026903,
                1.610303023081557,
                -0.592698740013838,
                0.936433384873055,
                -2.9695182076625746
            ]
        },
        {
            "positions": [
                2.6084273338093635,
                -1.0435232864150588,
                1.718397682076278,
                -0.6915224861666232,
                0.9918663847243618,
                -3.0298298564650668
            ]
        },
        {
            "positions": [
                2.6260063899251214,
                -1.0141962410274274,
                1.8264923410709992,
                -0.7903462323194083,
                1.0472993845756686,
                -3.0901415052675585
            ]
        }
    ]
}