{
    "goal": {
        "global_pose": {
            "orientation": {
                "w": -0.4816463035849501,
                "x": 0.5182115481033762,
                "y": 0.4908360881923453,
                "z": -0.5084816262002911
            },
            "position": {
                "x": -0.8240239810943604,
                "y": -0.300875300988555,
                "z": 0.16403168439865112
            }
        },
        "name": "move_to_storage_C"
    },
    "id": "BFMT_move_to_storage_C_42",
    "joint_names": [
        "shoulder_pan_joint",
        "shoulder_lift_joint",
        "elbow_joint",
        "wrist_1_joint",
        "wrist_2_joint",
        "wrist_3_joint"
    ],
    "metrics": {
        "cart_traj_len": 0.5768107443106539,
        "distance_elbow_joint": 0.258308288723083,
        "distance_shoulder_lift_joint": 0.1908076433041398,
        "distance_shoulder_pan_joint": 0.4935199561095813,
        "distance_wrist_1_joint": 0.07547519769760913,
        "distance_wrist_2_joint": 1.0759057348193934,
        "distance_wrist_3_joint": 0.07098648690166742,
        "smoothness": 0.0,
        "time": 0.5036478160000001,
        "traj_len": 1.4713950209088906,
        "weighted_distance": 1.8596658877002104
    },
    "planner": "BFMT",
    "start": {
        "state": {
            "elbow_joint": 2.010868314990456,
            "shoulder_lift_joint": -1.1634956873337592,
            "shoulder_pan_joint": -2.4736205022346125,
            "wrist_1_joint": -0.8367026794202681,
            "wrist_2_joint": 0.6746043897044499,
            "wrist_3_joint": -3.1496632123970403
        }
    },
    "waypoints": [
        {
            "positions": [
                -2.4736205022346125,
                -1.1634956873337592,
                2.010868314990456,
                -0.8367026794202681,
                0.6746043897044499,
                -3.1496632123970403
            ]
        },
        {
            "positions": [
                -2.555873828252876,
                -1.131694413449736,
                1.9678169335366087,
                -0.8241234798039999,
                0.8539220121743488,
                -3.1378321312467623
            ]
        },
        {
            "positions": [
                -2.6381271542711398,
                -1.0998931395657126,
                1.9247655520827616,
                -0.8115442801877317,
                1.0332396346442478,
                -3.1260010500964843
            ]
        },
        {
            "positions": [
                -2.7203804802894034,
                -1.0680918656816893,
                1.8817141706289142,
                -0.7989650805714635,
                1.2125572571141467,
                -3.1141699689462063
            ]
        },
        {
            "positions": [
                -2.8026338063076666,
                -1.036290591797666,
                1.838662789175067,
                -0.7863858809551953,
                1.3918748795840457,
                -3.102338887795929
            ]
        },
        {
            "positions": [
                -2.88488713232593,
                -1.0044893179136427,
                1.79561140772122,
                -0.7738066813389272,
                1.5711925020539446,
                -3.090507806645651
            ]
        },
        {
            "positions": [
                -2.967140458344194,
                -0.9726880440296194,
                1.7525600262673728,
                -0.761227481722659,
                1.7505101245238435,
                -3.078676725495373
            ]
        }
    ]
}