{
    "goal": {
        "global_pose": {
            "orientation": {
                "w": 0.005598929693374612,
                "x": 0.007748599140229565,
                "y": 0.7110244013736278,
                "z": -0.7031023480610252
            },
            "position": {
                "x": 0.1141497679147869,
                "y": -0.7141253447532654,
                "z": 0.3711530566215515
            }
        },
        "name": "move_to_auspresseinheit_B"
    },
    "id": "BFMT_move_to_auspresseinheit_B_30",
    "joint_names": [
        "shoulder_pan_joint",
        "shoulder_lift_joint",
        "elbow_joint",
        "wrist_1_joint",
        "wrist_2_joint",
        "wrist_3_joint"
    ],
    "metrics": {
        "cart_traj_len": 0.5646040627926432,
        "distance_elbow_joint": 0.06553395641979254,
        "distance_shoulder_lift_joint": 0.2925398923341729,
        "distance_shoulder_pan_joint": 0.574866534225114,
        "distance_wrist_1_joint": 0.33287420031242043,
        "distance_wrist_2_joint": 1.0029112400286975,
        "distance_wrist_3_joint": 0.0008252188268476068,
        "smoothness": 2.5376526478085547e-16,
        "time": 0.476847929,
        "traj_len": 1.5065029180678824,
        "weighted_distance": 1.899206918727356
    },
    "planner": "BFMT",
    "start": {
        "state": {
            "elbow_joint": 2.0193083361928714,
            "shoulder_lift_joint": -1.1220246554650708,
            "shoulder_pan_joint": -1.0952077554168747,
            "wrist_1_joint": -0.8559753972642168,
            "wrist_2_joint": 0.4759566250798843,
            "wrist_3_joint": -3.1240929996934557
        }
    },
    "waypoints": [
        {
            "positions": [
                -1.0952077554168747,
                -1.1220246554650708,
                2.0193083361928714,
                -0.8559753972642168,
                0.4759566250798843,
                -3.1240929996934557
            ]
        },
        {
            "positions": [
                -1.1910188444543937,
                -1.1707813041874329,
                2.008386010122906,
                -0.8004963638788134,
                0.6431084984180006,
                -3.124230536164597
            ]
        },
        {
            "positions": [
                -1.2868299334919127,
                -1.2195379529097952,
                1.9974636840529405,
                -0.74501733049341,
                0.8102603717561168,
                -3.1243680726357383
            ]
        },
        {
            "positions": [
                -1.3826410225294317,
                -1.2682946016321572,
                1.9865413579829752,
                -0.6895382971080066,
                0.9774122450942331,
                -3.1245056091068797
            ]
        },
        {
            "positions": [
                -1.4784521115669507,
                -1.3170512503545193,
                1.9756190319130098,
                -0.6340592637226032,
                1.1445641184323492,
                -3.1246431455780206
            ]
        },
        {
            "positions": [
                -1.5742632006044697,
                -1.3658078990768816,
                1.9646967058430442,
                -0.5785802303371997,
                1.3117159917704655,
                -3.124780682049162
            ]
        },
        {
            "positions": [
                -1.6700742896419887,
                -1.4145645477992437,
                1.9537743797730789,
                -0.5231011969517964,
                1.4788678651085818,
                -3.1249182185203033
            ]
        }
    ]
}