{
    "goal": {
        "global_pose": {
            "orientation": {
                "w": 0.005598929693374612,
                "x": 0.007748599140229565,
                "y": 0.7110244013736278,
                "z": -0.7031023480610252
            },
            "position": {
                "x": 0.1141497679147869,
                "y": -0.7141253447532654,
                "z": 0.3711530566215515
            }
        },
        "name": "move_to_auspresseinheit_B"
    },
    "id": "BFMT_move_to_auspresseinheit_B_135",
    "joint_names": [
        "shoulder_pan_joint",
        "shoulder_lift_joint",
        "elbow_joint",
        "wrist_1_joint",
        "wrist_2_joint",
        "wrist_3_joint"
    ],
    "metrics": {
        "cart_traj_len": 0.5652852201949947,
        "distance_elbow_joint": 0.06181009869184173,
        "distance_shoulder_lift_joint": 0.2946988135901698,
        "distance_shoulder_pan_joint": 0.5764495315051847,
        "distance_wrist_1_joint": 0.3255984027563944,
        "distance_wrist_2_joint": 1.0044454936515181,
        "distance_wrist_3_joint": 0.002820236656171815,
        "smoothness": 0.0,
        "time": 0.474343433,
        "traj_len": 1.5052649523759198,
        "weighted_distance": 1.8977636698418319
    },
    "planner": "BFMT",
    "start": {
        "state": {
            "elbow_joint": 2.0193083361928714,
            "shoulder_lift_joint": -1.1220246554650708,
            "shoulder_pan_joint": -1.0952077554168747,
            "wrist_1_joint": -0.8559753972642168,
            "wrist_2_joint": 0.4759566250798843,
            "wrist_3_joint": -3.1240929996934557
        }
    },
    "waypoints": [
        {
            "positions": [
                -1.0952077554168747,
                -1.1220246554650708,
                2.0193083361928714,
                -0.8559753972642168,
                0.4759566250798843,
                -3.1240929996934557
            ]
        },
        {
            "positions": [
                -1.1912826773344054,
                -1.1711411243967658,
                2.0090066530775643,
                -0.8017089968048177,
                0.6433642073551373,
                -3.124563039136151
            ]
        },
        {
            "positions": [
                -1.2873575992519362,
                -1.2202575933284607,
                1.9987049699622574,
                -0.7474425963454187,
                0.8107717896303903,
                -3.1250330785788463
            ]
        },
        {
            "positions": [
                -1.3834325211694671,
                -1.2693740622601557,
                1.9884032868469506,
                -0.6931761958860196,
                0.9781793719056433,
                -3.1255031180215416
            ]
        },
        {
            "positions": [
                -1.4795074430869977,
                -1.3184905311918507,
                1.9781016037316437,
                -0.6389097954266205,
                1.1455869541808963,
                -3.125973157464237
            ]
        },
        {
            "positions": [
                -1.5755823650045286,
                -1.3676070001235456,
                1.9677999206163366,
                -0.5846433949672214,
                1.3129945364561495,
                -3.126443196906932
            ]
        },
        {
            "positions": [
                -1.6716572869220594,
                -1.4167234690552406,
                1.9574982375010297,
                -0.5303769945078224,
                1.4804021187314025,
                -3.1269132363496275
            ]
        }
    ]
}