{
    "goal": {
        "global_pose": {
            "orientation": {
                "w": 0.005598929693374612,
                "x": 0.007748599140229565,
                "y": 0.7110244013736278,
                "z": -0.7031023480610252
            },
            "position": {
                "x": -0.8858502320852131,
                "y": -0.7141253447532654,
                "z": 0.3711530566215515
            }
        },
        "name": "move_to_auspresseinheit_C"
    },
    "id": "BFMT_move_to_auspresseinheit_C_147",
    "joint_names": [
        "shoulder_pan_joint",
        "shoulder_lift_joint",
        "elbow_joint",
        "wrist_1_joint",
        "wrist_2_joint",
        "wrist_3_joint"
    ],
    "metrics": {
        "cart_traj_len": 0.4940549666667227,
        "distance_elbow_joint": 1.0100183537047378,
        "distance_shoulder_lift_joint": 0.3297430245457189,
        "distance_shoulder_pan_joint": 0.2563382163719141,
        "distance_wrist_1_joint": 0.6936554313541026,
        "distance_wrist_2_joint": 1.311848216580501,
        "distance_wrist_3_joint": 0.05943141734934354,
        "smoothness": 6.45947944157498e-16,
        "time": 0.45242611200000005,
        "traj_len": 1.9133830405609638,
        "weighted_distance": 2.4052860833047713
    },
    "planner": "BFMT",
    "start": {
        "state": {
            "elbow_joint": 1.7527959577737207,
            "shoulder_lift_joint": -0.9740617694225068,
            "shoulder_pan_joint": -2.967991417825858,
            "wrist_1_joint": -0.759517768980727,
            "wrist_2_joint": 1.7443932448377408,
            "wrist_3_joint": -3.0840537646736568
        }
    },
    "waypoints": [
        {
            "positions": [
                -2.967991417825858,
                -0.9740617694225068,
                1.7527959577737207,
                -0.759517768980727,
                1.7443932448377408,
                -3.0840537646736568
            ]
        },
        {
            "positions": [
                -2.9423575961886668,
                -0.9410874669679349,
                1.6517941224032469,
                -0.6901522258453168,
                1.6132084231796908,
                -3.089996906408591
            ]
        },
        {
            "positions": [
                -2.916723774551475,
                -0.908113164513363,
                1.550792287032773,
                -0.6207866827099064,
                1.4820236015216406,
                -3.0959400481435253
            ]
        },
        {
            "positions": [
                -2.8910899529142835,
                -0.8751388620587911,
                1.4497904516622993,
                -0.5514211395744962,
                1.3508387798635906,
                -3.10188318987846
            ]
        },
        {
            "positions": [
                -2.8654561312770923,
                -0.8421645596042192,
                1.3487886162918254,
                -0.48205559643908596,
                1.2196539582055403,
                -3.1078263316133943
            ]
        },
        {
            "positions": [
                -2.839822309639901,
                -0.8091902571496473,
                1.2477867809213516,
                -0.4126900533036757,
                1.0884691365474903,
                -3.1137694733483285
            ]
        },
        {
            "positions": [
                -2.8141884880027095,
                -0.7762159546950754,
                1.1467849455508778,
                -0.34332451016826543,
                0.9572843148894402,
                -3.119712615083263
            ]
        },
        {
            "positions": [
                -2.788554666365518,
                -0.7432416522405035,
                1.0457831101804043,
                -0.2739589670328552,
                0.8260994932313902,
                -3.125655756818197
            ]
        },
        {
            "positions": [
                -2.7629208447283267,
                -0.7102673497859316,
                0.9447812748099303,
                -0.20459342389744495,
                0.6949146715733401,
                -3.131598898553132
            ]
        },
        {
            "positions": [
                -2.7372870230911355,
                -0.6772930473313598,
                0.8437794394394567,
                -0.13522788076203462,
                0.5637298499152898,
                -3.137542040288066
            ]
        },
        {
            "positions": [
                -2.711653201453944,
                -0.6443187448767879,
                0.7427776040689829,
                -0.06586233762662438,
                0.43254502825723984,
                -3.1434851820230003
            ]
        }
    ]
}