{
    "goal": {
        "global_pose": {
            "orientation": {
                "w": 0.5084816262002911,
                "x": -0.4908360881923452,
                "y": 0.5182115481033761,
                "z": -0.48164630358495003
            },
            "position": {
                "x": 0.5540239810943604,
                "y": -0.46912469901144505,
                "z": 0.16403168439865112
            }
        },
        "name": "move_to_storage_B"
    },
    "id": "BFMT_move_to_storage_B_99",
    "joint_names": [
        "shoulder_pan_joint",
        "shoulder_lift_joint",
        "elbow_joint",
        "wrist_1_joint",
        "wrist_2_joint",
        "wrist_3_joint"
    ],
    "metrics": {
        "cart_traj_len": 0.9919045607444901,
        "distance_elbow_joint": 0.6442185507392413,
        "distance_shoulder_lift_joint": 0.45806851857384734,
        "distance_shoulder_pan_joint": 0.9020140569848824,
        "distance_wrist_1_joint": 2.9777877232218066,
        "distance_wrist_2_joint": 2.716709155550293,
        "distance_wrist_3_joint": 3.1331694806701096,
        "smoothness": 0.13222161601479174,
        "time": 0.726462398,
        "traj_len": 3.2911954493375473,
        "weighted_distance": 4.774180906276228
    },
    "planner": "BFMT",
    "start": {
        "state": {
            "elbow_joint": 1.664937868594044,
            "shoulder_lift_joint": -0.661644460510453,
            "shoulder_pan_joint": -0.9139846352900073,
            "wrist_1_joint": 2.146753192139373,
            "wrist_2_joint": -2.2341966793290973,
            "wrist_3_joint": 0.005466555786416001
        }
    },
    "waypoints": [
        {
            "positions": [
                -0.9139846352900073,
                -0.661644460510453,
                1.664937868594044,
                2.146753192139373,
                -2.2341966793290973,
                0.005466555786416001
            ]
        },
        {
            "positions": [
                -0.841852648577138,
                -0.6655123201328632,
                1.6353946883891612,
                2.1275154261344085,
                -2.11664655549324,
                0.14330449818113297
            ]
        },
        {
            "positions": [
                -0.7697206618642688,
                -0.6693801797552734,
                1.6058515081842786,
                2.1082776601294433,
                -1.9990964316573834,
                0.28114244057584997
            ]
        },
        {
            "positions": [
                -0.6975886751513996,
                -0.6732480393776836,
                1.5763083279793961,
                2.0890398941244785,
                -1.8815463078215264,
                0.4189803829705669
            ]
        },
        {
            "positions": [
                -0.6254566884385303,
                -0.6771158990000938,
                1.5467651477745135,
                2.0698021281195134,
                -1.7639961839856695,
                0.5568183253652839
            ]
        },
        {
            "positions": [
                -0.5533247017256611,
                -0.680983758622504,
                1.5172219675696308,
                2.0505643621145486,
                -1.6464460601498125,
                0.6946562677600008
            ]
        },
        {
            "positions": [
                -0.576861837526554,
                -0.700058942120843,
                1.5388090392963625,
                1.92527745371468,
                -1.5538826455249861,
                0.800916257703328
            ]
        },
        {
            "positions": [
                -0.6003989733274468,
                -0.719134125619182,
                1.5603961110230942,
                1.799990545314811,
                -1.4613192309001595,
                0.9071762476466552
            ]
        },
        {
            "positions": [
                -0.6239361091283397,
                -0.7382093091175209,
                1.5819831827498259,
                1.6747036369149422,
                -1.368755816275333,
                1.0134362375899824
            ]
        },
        {
            "positions": [
                -0.6474732449292325,
                -0.75728449261586,
                1.6035702544765573,
                1.5494167285150735,
                -1.2761924016505066,
                1.1196962275333093
            ]
        },
        {
            "positions": [
                -0.6710103807301254,
                -0.7763596761141989,
                1.625157326203289,
                1.4241298201152048,
                -1.18362898702568,
                1.2259562174766367
            ]
        },
        {
            "positions": [
                -0.6945475165310183,
                -0.7954348596125379,
                1.6467443979300207,
                1.298842911715336,
                -1.0910655724008536,
                1.3322162074199637
            ]
        },
        {
            "positions": [
                -0.7180846523319112,
                -0.8145100431108768,
                1.6683314696567524,
                1.173556003315467,
                -0.998502157776027,
                1.4384761973632911
            ]
        },
        {
            "positions": [
                -0.741621788132804,
                -0.8335852266092159,
                1.689918541383484,
                1.0482690949155984,
                -0.9059387431512006,
                1.544736187306618
            ]
        },
        {
            "positions": [
                -0.7651589239336969,
                -0.8526604101075548,
                1.7115056131102158,
                0.9229821865157295,
                -0.8133753285263741,
                1.6509961772499453
            ]
        },
        {
            "positions": [
                -0.7886960597345898,
                -0.8717355936058937,
                1.7330926848369475,
                0.7976952781158608,
                -0.7208119139015476,
                1.7572561671932725
            ]
        },
        {
            "positions": [
                -0.8122331955354827,
                -0.8908107771042327,
                1.7546797565636791,
                0.6724083697159919,
                -0.6282484992767212,
                1.8635161571365997
            ]
        },
        {
            "positions": [
                -0.8357703313363756,
                -0.9098859606025717,
                1.7762668282904106,
                0.5471214613161233,
                -0.5356850846518946,
                1.9697761470799267
            ]
        },
        {
            "positions": [
                -0.8593074671372685,
                -0.9289611441009107,
                1.7978539000171423,
                0.4218345529162546,
                -0.44312167002706815,
                2.076036137023254
            ]
        },
        {
            "positions": [
                -0.8828446029381614,
                -0.9480363275992496,
                1.819440971743874,
                0.2965476445163855,
                -0.3505582554022415,
                2.1822961269665813
            ]
        },
        {
            "positions": [
                -0.9063817387390543,
                -0.9671115110975885,
                1.8410280434706057,
                0.17126073611651682,
                -0.2579948407774151,
                2.2885561169099082
            ]
        },
        {
            "positions": [
                -0.929918874539947,
                -0.9861866945959276,
                1.8626151151973374,
                0.04597382771664815,
                -0.16543142615258866,
                2.394816106853235
            ]
        },
        {
            "positions": [
                -0.9534560103408399,
                -1.0052618780942666,
                1.884202186924069,
                -0.07931308068322052,
                -0.07286801152776223,
                2.501076096796562
            ]
        },
        {
            "positions": [
                -0.9769931461417328,
                -1.0243370615926055,
                1.9057892586508007,
                -0.20459998908308963,
                0.019695403097064412,
                2.60733608673989
            ]
        },
        {
            "positions": [
                -1.0005302819426256,
                -1.0434122450909444,
                1.9273763303775322,
                -0.3298868974829583,
                0.11225881772189084,
                2.713596076683217
            ]
        },
        {
            "positions": [
                -1.0240674177435185,
                -1.0624874285892834,
                1.9489634021042639,
                -0.45517380588282697,
                0.20482223234671726,
                2.819856066626544
            ]
        },
        {
            "positions": [
                -1.0476045535444114,
                -1.0815626120876223,
                1.9705504738309956,
                -0.5804607142826956,
                0.2973856469715437,
                2.926116056569871
            ]
        },
        {
            "positions": [
                -1.0711416893453043,
                -1.1006377955859614,
                1.9921375455577273,
                -0.7057476226825647,
                0.3899490615963701,
                3.032376046513199
            ]
        },
        {
            "positions": [
                -1.0946788251461972,
                -1.1197129790843003,
                2.013724617284459,
                -0.8310345310824333,
                0.4825124762211966,
                3.1386360364565253
            ]
        }
    ]
}