{
    "goal": {
        "global_pose": {
            "orientation": {
                "w": 0.7047431468963623,
                "x": -0.7094548344612122,
                "y": 0.0024358443915843964,
                "z": -0.0022348060738295317
            },
            "position": {
                "x": 0.6094750761985779,
                "y": 0.3671506643295288,
                "z": 0.19426114857196808
            }
        },
        "name": "move_to_magneteinheit_A"
    },
    "id": "BFMT_move_to_magneteinheit_A_55",
    "joint_names": [
        "shoulder_pan_joint",
        "shoulder_lift_joint",
        "elbow_joint",
        "wrist_1_joint",
        "wrist_2_joint",
        "wrist_3_joint"
    ],
    "metrics": {
        "cart_traj_len": 3.095105401236103,
        "distance_elbow_joint": 3.9128976521702183,
        "distance_shoulder_lift_joint": 0.8494738015971198,
        "distance_shoulder_pan_joint": 2.7447892471983915,
        "distance_wrist_1_joint": 3.4742091708224665,
        "distance_wrist_2_joint": 1.4438489509473083,
        "distance_wrist_3_joint": 0.6713538204625557,
        "smoothness": 0.21455565465785578,
        "time": 1.0497313209999999,
        "traj_len": 3.6189187118803945,
        "weighted_distance": 4.399697535728217
    },
    "planner": "BFMT",
    "start": {
        "state": {
            "elbow_joint": -1.9196185241190666,
            "shoulder_lift_joint": -1.2443396400964142,
            "shoulder_pan_joint": 2.6996025414629847,
            "wrist_1_joint": -1.5485510000780065,
            "wrist_2_joint": -1.5709468930060704,
            "wrist_3_joint": 0.4420197071253992
        }
    },
    "waypoints": [
        {
            "positions": [
                2.6996025414629847,
                -1.2443396400964142,
                -1.9196185241190666,
                -1.5485510000780065,
                -1.5709468930060704,
                0.4420197071253992
            ]
        },
        {
            "positions": [
                2.5617987573362826,
                -1.2553100603871064,
                -1.8241545836962667,
                -1.4563991308010302,
                -1.5503205906654762,
                0.41627502087792007
            ]
        },
        {
            "positions": [
                2.423994973209581,
                -1.2662804806777987,
                -1.7286906432734668,
                -1.364247261524054,
                -1.529694288324882,
                0.39053033463044096
            ]
        },
        {
            "positions": [
                2.2861911890828788,
                -1.277250900968491,
                -1.633226702850667,
                -1.2720953922470777,
                -1.5090679859842877,
                0.36478564838296185
            ]
        },
        {
            "positions": [
                2.1483874049561766,
                -1.2882213212591833,
                -1.5377627624278671,
                -1.1799435229701012,
                -1.4884416836436936,
                0.33904096213548274
            ]
        },
        {
            "positions": [
                2.010583620829475,
                -1.2991917415498755,
                -1.4422988220050672,
                -1.0877916536931251,
                -1.4678153813030994,
                0.3132962758880036
            ]
        },
        {
            "positions": [
                1.872779836702773,
                -1.3101621618405679,
                -1.3468348815822675,
                -0.9956397844161488,
                -1.4471890789625053,
                0.2875515896405245
            ]
        },
        {
            "positions": [
                1.7349760525760711,
                -1.32113258213126,
                -1.2513709411594676,
                -0.9034879151391725,
                -1.426562776621911,
                0.26180690339304535
            ]
        },
        {
            "positions": [
                1.597172268449369,
                -1.3321030024219525,
                -1.1559070007366676,
                -0.8113360458621961,
                -1.405936474281317,
                0.23606221714556624
            ]
        },
        {
            "positions": [
                1.459368484322667,
                -1.3430734227126446,
                -1.0604430603138677,
                -0.7191841765852198,
                -1.3853101719407226,
                0.21031753089808713
            ]
        },
        {
            "positions": [
                1.3215647001959652,
                -1.3540438430033368,
                -0.964979119891068,
                -0.6270323073082436,
                -1.3646838696001284,
                0.18457284465060803
            ]
        },
        {
            "positions": [
                1.1837609160692633,
                -1.3650142632940292,
                -0.8695151794682681,
                -0.5348804380312672,
                -1.3440575672595343,
                0.15882815840312892
            ]
        },
        {
            "positions": [
                1.120920684826642,
                -1.3367517673030318,
                -0.7521475523396061,
                -0.4197333753362076,
                -1.3001567837793873,
                0.1453575491835127
            ]
        },
        {
            "positions": [
                1.0580804535840207,
                -1.3084892713120346,
                -0.6347799252109442,
                -0.304586312641148,
                -1.2562560002992402,
                0.1318869399638965
            ]
        },
        {
            "positions": [
                0.9952402223413995,
                -1.2802267753210375,
                -0.5174122980822822,
                -0.18943924994608846,
                -1.2123552168190932,
                0.11841633074428029
            ]
        },
        {
            "positions": [
                0.9323999910987784,
                -1.25196427933004,
                -0.40004467095362023,
                -0.07429218725102887,
                -1.1684544333389462,
                0.10494572152466408
            ]
        },
        {
            "positions": [
                0.8695597598561571,
                -1.2237017833390427,
                -0.2826770438249582,
                0.04085487544403077,
                -1.124553649858799,
                0.09147511230504787
            ]
        },
        {
            "positions": [
                0.8067195286135358,
                -1.1954392873480455,
                -0.16530941669629629,
                0.15600193813909025,
                -1.080652866378652,
                0.07800450308543168
            ]
        },
        {
            "positions": [
                0.7438792973709145,
                -1.1671767913570483,
                -0.047941789567634285,
                0.27114900083414983,
                -1.0367520828985048,
                0.06453389386581547
            ]
        },
        {
            "positions": [
                0.6810390661282933,
                -1.138914295366051,
                0.0694258375610276,
                0.3862960635292094,
                -0.9928512994183578,
                0.05106328464619926
            ]
        },
        {
            "positions": [
                0.6181988348856721,
                -1.1106517993750535,
                0.1867934646896896,
                0.501443126224269,
                -0.9489505159382108,
                0.03759267542658305
            ]
        },
        {
            "positions": [
                0.5553586036430508,
                -1.0823893033840564,
                0.3041610918183517,
                0.6165901889193287,
                -0.9050497324580637,
                0.02412206620696683
            ]
        },
        {
            "positions": [
                0.4925183724004295,
                -1.0541268073930592,
                0.4215287189470136,
                0.7317372516143882,
                -0.8611489489779166,
                0.010651456987350622
            ]
        },
        {
            "positions": [
                0.42967814115780834,
                -1.0258643114020618,
                0.5388963460756755,
                0.8468843143094477,
                -0.8172481654977697,
                -0.0028191522322655593
            ]
        },
        {
            "positions": [
                0.36683790991518705,
                -0.9976018154110645,
                0.6562639732043374,
                0.9620313770045074,
                -0.7733473820176225,
                -0.016289761451881768
            ]
        },
        {
            "positions": [
                0.3039976786725659,
                -0.9693393194200672,
                0.7736316003329995,
                1.077178439699567,
                -0.7294465985374755,
                -0.029760370671497977
            ]
        },
        {
            "positions": [
                0.2411574474299446,
                -0.94107682342907,
                0.8909992274616614,
                1.1923255023946266,
                -0.6855458150573284,
                -0.043230979891114185
            ]
        },
        {
            "positions": [
                0.17831721618732344,
                -0.9128143274380727,
                1.0083668545903233,
                1.307472565089686,
                -0.6416450315771814,
                -0.056701589110730394
            ]
        },
        {
            "positions": [
                0.11547698494470215,
                -0.8845518314470754,
                1.1257344817189852,
                1.4226196277847456,
                -0.5977442480970343,
                -0.0701721983303466
            ]
        },
        {
            "positions": [
                0.05263675370208091,
                -0.8562893354560781,
                1.243102108847647,
                1.5377666904798053,
                -0.5538434646168873,
                -0.08364280754996281
            ]
        },
        {
            "positions": [
                0.07369570692939009,
                -0.8187650338960923,
                1.32380039289186,
                1.6224607429648688,
                -0.46163368751677014,
                -0.09269452902394344
            ]
        },
        {
            "positions": [
                0.09475466015669926,
                -0.7812407323361066,
                1.404498676936073,
                1.7071547954499322,
                -0.369423910416653,
                -0.10174625049792407
            ]
        },
        {
            "positions": [
                0.11581361338400845,
                -0.7437164307761207,
                1.485196960980286,
                1.7918488479349957,
                -0.2772141333165358,
                -0.1107979719719047
            ]
        },
        {
            "positions": [
                0.1368725666113176,
                -0.706192129216135,
                1.565895245024499,
                1.8765429004200591,
                -0.1850043562164187,
                -0.11984969344588534
            ]
        },
        {
            "positions": [
                0.13007874334719113,
                -0.7411806513769402,
                1.7795871865378254,
                1.9011005355822599,
                -0.15605114913759044,
                -0.06510748350024953
            ]
        },
        {
            "positions": [
                0.12328492008306467,
                -0.7761691735377455,
                1.993279128051152,
                1.9256581707444607,
                -0.12709794205876215,
                -0.010365273554613723
            ]
        }
    ]
}