{
    "goal": {
        "global_pose": {
            "orientation": {
                "w": 0.7047431468963623,
                "x": -0.7094548344612122,
                "y": 0.0024358443915843964,
                "z": -0.0022348060738295317
            },
            "position": {
                "x": 0.6094750761985779,
                "y": 0.3671506643295288,
                "z": 0.19426114857196808
            }
        },
        "name": "move_to_magneteinheit_A"
    },
    "id": "BFMT_move_to_magneteinheit_A_132",
    "joint_names": [
        "shoulder_pan_joint",
        "shoulder_lift_joint",
        "elbow_joint",
        "wrist_1_joint",
        "wrist_2_joint",
        "wrist_3_joint"
    ],
    "metrics": {
        "cart_traj_len": 2.8924789706750977,
        "distance_elbow_joint": 3.913213310753595,
        "distance_shoulder_lift_joint": 0.4668908107454204,
        "distance_shoulder_pan_joint": 2.8814555937816166,
        "distance_wrist_1_joint": 3.4735924135084355,
        "distance_wrist_2_joint": 1.4380233956410828,
        "distance_wrist_3_joint": 0.4418905604050438,
        "smoothness": 0.09116298966310195,
        "time": 1.160285322,
        "traj_len": 3.5517694301341125,
        "weighted_distance": 4.29074154602614
    },
    "planner": "BFMT",
    "start": {
        "state": {
            "elbow_joint": -1.9196185241190666,
            "shoulder_lift_joint": -1.2443396400964142,
            "shoulder_pan_joint": 2.6996025414629847,
            "wrist_1_joint": -1.5485510000780065,
            "wrist_2_joint": -1.5709468930060704,
            "wrist_3_joint": 0.4420197071253992
        }
    },
    "waypoints": [
        {
            "positions": [
                2.6996025414629847,
                -1.2443396400964142,
                -1.9196185241190666,
                -1.5485510000780065,
                -1.5709468930060704,
                0.4420197071253992
            ]
        },
        {
            "positions": [
                2.549551132608508,
                -1.227868050391543,
                -1.8707921434331911,
                -1.4215999219604099,
                -1.548624896997265,
                0.42910533157311764
            ]
        },
        {
            "positions": [
                2.399499723754031,
                -1.2113964606866716,
                -1.8219657627473158,
                -1.2946488438428132,
                -1.5263029009884594,
                0.4161909560208361
            ]
        },
        {
            "positions": [
                2.2494483148995537,
                -1.1949248709818003,
                -1.7731393820614403,
                -1.1676977657252166,
                -1.5039809049796542,
                0.40327658046855464
            ]
        },
        {
            "positions": [
                2.099396906045077,
                -1.178453281276929,
                -1.724313001375565,
                -1.0407466876076201,
                -1.4816589089708487,
                0.3903622049162731
            ]
        },
        {
            "positions": [
                1.9493454971906,
                -1.1619816915720578,
                -1.6754866206896895,
                -0.9137956094900234,
                -1.4593369129620433,
                0.37744782936399157
            ]
        },
        {
            "positions": [
                1.799294088336123,
                -1.1455101018671865,
                -1.626660240003814,
                -0.7868445313724268,
                -1.4370149169532378,
                0.36453345381171004
            ]
        },
        {
            "positions": [
                1.649242679481646,
                -1.1290385121623152,
                -1.5778338593179386,
                -0.6598934532548302,
                -1.4146929209444323,
                0.3516190782594285
            ]
        },
        {
            "positions": [
                1.499191270627169,
                -1.112566922457444,
                -1.529007478632063,
                -0.5329423751372335,
                -1.392370924935627,
                0.338704702707147
            ]
        },
        {
            "positions": [
                1.349139861772692,
                -1.0960953327525724,
                -1.4801810979461876,
                -0.4059912970196369,
                -1.3700489289268216,
                0.32579032715486544
            ]
        },
        {
            "positions": [
                1.199088452918215,
                -1.0796237430477011,
                -1.4313547172603123,
                -0.2790402189020402,
                -1.3477269329180162,
                0.31287595160258397
            ]
        },
        {
            "positions": [
                1.049037044063738,
                -1.0631521533428299,
                -1.3825283365744367,
                -0.1520891407844438,
                -1.3254049369092107,
                0.2999615760503024
            ]
        },
        {
            "positions": [
                0.8989856352092611,
                -1.0466805636379586,
                -1.3337019558885612,
                -0.02513806266684715,
                -1.3030829409004054,
                0.2870472004980209
            ]
        },
        {
            "positions": [
                0.748934226354784,
                -1.0302089739330873,
                -1.284875575202686,
                0.1018130154507495,
                -1.2807609448916,
                0.2741328249457394
            ]
        },
        {
            "positions": [
                0.5988828175003071,
                -1.013737384228216,
                -1.2360491945168104,
                0.22876409356834604,
                -1.2584389488827945,
                0.26121844939345784
            ]
        },
        {
            "positions": [
                0.5619428591807323,
                -1.0010115513775424,
                -1.0623147890838192,
                0.32376061771140824,
                -1.2040649667031562,
                0.24871340248561588
            ]
        },
        {
            "positions": [
                0.5250029008611575,
                -0.9882857185268689,
                -0.8885803836508281,
                0.41875714185447044,
                -1.1496909845235181,
                0.2362083555777739
            ]
        },
        {
            "positions": [
                0.48806294254158267,
                -0.9755598856761953,
                -0.7148459782178369,
                0.5137536659975326,
                -1.0953170023438799,
                0.22370330866993193
            ]
        },
        {
            "positions": [
                0.45112298422200786,
                -0.9628340528255217,
                -0.5411115727848458,
                0.6087501901405947,
                -1.0409430201642418,
                0.21119826176208997
            ]
        },
        {
            "positions": [
                0.41418302590243306,
                -0.9501082199748482,
                -0.36737716735185455,
                0.703746714283657,
                -0.9865690379846035,
                0.198693214854248
            ]
        },
        {
            "positions": [
                0.3772430675828582,
                -0.9373823871241747,
                -0.19364276191886343,
                0.7987432384267191,
                -0.9321950558049654,
                0.18618816794640602
            ]
        },
        {
            "positions": [
                0.3403031092632834,
                -0.924656554273501,
                -0.019908356485872414,
                0.8937397625697813,
                -0.8778210736253272,
                0.17368312103856406
            ]
        },
        {
            "positions": [
                0.3033631509437086,
                -0.9119307214228275,
                0.15382604894711882,
                0.9887362867128435,
                -0.8234470914456891,
                0.1611780741307221
            ]
        },
        {
            "positions": [
                0.2664231926241337,
                -0.8992048885721539,
                0.32756045438011006,
                1.0837328108559057,
                -0.7690731092660508,
                0.14867302722288012
            ]
        },
        {
            "positions": [
                0.22948323430455891,
                -0.8864790557214803,
                0.5012948598131013,
                1.1787293349989678,
                -0.7146991270864126,
                0.13616798031503816
            ]
        },
        {
            "positions": [
                0.19254327598498405,
                -0.8737532228708067,
                0.6750292652460925,
                1.2737258591420302,
                -0.6603251449067744,
                0.1236629334071962
            ]
        },
        {
            "positions": [
                0.15560331766540925,
                -0.8610273900201332,
                0.8487636706790835,
                1.368722383285092,
                -0.6059511627271362,
                0.11115788649935421
            ]
        },
        {
            "positions": [
                0.1186633593458345,
                -0.8483015571694597,
                1.0224980761120743,
                1.4637189074281545,
                -0.5515771805474982,
                0.09865283959151228
            ]
        },
        {
            "positions": [
                0.08172340102625963,
                -0.835575724318786,
                1.1962324815450656,
                1.5587154315712164,
                -0.49720319836786,
                0.08614779268367029
            ]
        },
        {
            "positions": [
                0.04478344270668477,
                -0.8228498914681125,
                1.3699668869780568,
                1.6537119557142788,
                -0.4428292161882217,
                0.07364274577582833
            ]
        },
        {
            "positions": [
                0.007843484387110022,
                -0.810124058617439,
                1.543701292411048,
                1.7487084798573411,
                -0.3884552340085835,
                0.06113769886798634
            ]
        },
        {
            "positions": [
                -0.029096473932464825,
                -0.7973982257667653,
                1.7174356978440395,
                1.843705004000403,
                -0.3340812518289453,
                0.04863265196014438
            ]
        },
        {
            "positions": [
                0.04728181526061921,
                -0.7874235275588796,
                1.8555152422392838,
                1.8843732087154155,
                -0.2335023745969665,
                0.02438089934024985
            ]
        },
        {
            "positions": [
                0.12366010445370326,
                -0.7774488293509938,
                1.9935947866345278,
                1.925041413430428,
                -0.13292349736498765,
                0.00012914672035531838
            ]
        }
    ]
}