{
    "goal": {
        "global_pose": {
            "orientation": {
                "w": -0.4816463035849501,
                "x": 0.5182115481033762,
                "y": 0.4908360881923453,
                "z": -0.5084816262002911
            },
            "position": {
                "x": -0.8240239810943604,
                "y": -0.300875300988555,
                "z": 0.16403168439865112
            }
        },
        "name": "move_to_storage_C"
    },
    "id": "BFMT_move_to_storage_C_8",
    "joint_names": [
        "shoulder_pan_joint",
        "shoulder_lift_joint",
        "elbow_joint",
        "wrist_1_joint",
        "wrist_2_joint",
        "wrist_3_joint"
    ],
    "metrics": {
        "cart_traj_len": 0.5759512935937199,
        "distance_elbow_joint": 0.2579863735809309,
        "distance_shoulder_lift_joint": 0.18948482389099075,
        "distance_shoulder_pan_joint": 0.49219026950614797,
        "distance_wrist_1_joint": 0.07603789019243079,
        "distance_wrist_2_joint": 1.080390436067281,
        "distance_wrist_3_joint": 0.056206727398560474,
        "smoothness": 0.0,
        "time": 0.467430571,
        "traj_len": 1.467070727891584,
        "weighted_distance": 1.8496319368169372
    },
    "planner": "BFMT",
    "start": {
        "state": {
            "elbow_joint": 2.010868314990456,
            "shoulder_lift_joint": -1.1634956873337592,
            "shoulder_pan_joint": -2.4736205022346125,
            "wrist_1_joint": -0.8367026794202681,
            "wrist_2_joint": 0.6746043897044499,
            "wrist_3_joint": -3.1496632123970403
        }
    },
    "waypoints": [
        {
            "positions": [
                -2.4736205022346125,
                -1.1634956873337592,
                2.010868314990456,
                -0.8367026794202681,
                0.6746043897044499,
                -3.1496632123970403
            ]
        },
        {
            "positions": [
                -2.5556522138189703,
                -1.1319148833519275,
                1.9678705860603007,
                -0.8240296977215297,
                0.8546694623823301,
                -3.14029542449728
            ]
        },
        {
            "positions": [
                -2.6376839254033286,
                -1.1003340793700955,
                1.9248728571301454,
                -0.8113567160227911,
                1.0347345350602102,
                -3.1309276365975203
            ]
        },
        {
            "positions": [
                -2.7197156369876865,
                -1.0687532753882638,
                1.8818751281999904,
                -0.7986837343240527,
                1.2147996077380903,
                -3.12155984869776
            ]
        },
        {
            "positions": [
                -2.8017473485720443,
                -1.037172471406432,
                1.8388773992698353,
                -0.7860107526253143,
                1.3948646804159703,
                -3.112192060798
            ]
        },
        {
            "positions": [
                -2.8837790601564026,
                -1.0055916674246002,
                1.79587967033968,
                -0.7733377709265757,
                1.5749297530938509,
                -3.10282427289824
            ]
        },
        {
            "positions": [
                -2.9658107717407605,
                -0.9740108634427684,
                1.752881941409525,
                -0.7606647892278373,
                1.754994825771731,
                -3.09345648499848
            ]
        }
    ]
}