{
    "goal": {
        "global_pose": {
            "orientation": {
                "w": 0.7047431468963623,
                "x": -0.7094548344612122,
                "y": 0.0024358443915843964,
                "z": -0.0022348060738295317
            },
            "position": {
                "x": 0.6094750761985779,
                "y": 0.3671506643295288,
                "z": 0.19426114857196808
            }
        },
        "name": "move_to_magneteinheit_A"
    },
    "id": "BFMT_move_to_magneteinheit_A_141",
    "joint_names": [
        "shoulder_pan_joint",
        "shoulder_lift_joint",
        "elbow_joint",
        "wrist_1_joint",
        "wrist_2_joint",
        "wrist_3_joint"
    ],
    "metrics": {
        "cart_traj_len": 4.36605213234768,
        "distance_elbow_joint": 3.9081457184754154,
        "distance_shoulder_lift_joint": 0.1661738754063391,
        "distance_shoulder_pan_joint": 3.904950864480921,
        "distance_wrist_1_joint": 0.6913001771871393,
        "distance_wrist_2_joint": 2.8374070894910215,
        "distance_wrist_3_joint": 2.7124598852196145,
        "smoothness": 0.38196550271697194,
        "time": 0.729131553,
        "traj_len": 3.7709995505516107,
        "weighted_distance": 4.813944811417954
    },
    "planner": "BFMT",
    "start": {
        "state": {
            "elbow_joint": -1.9196185241190666,
            "shoulder_lift_joint": -1.2443396400964142,
            "shoulder_pan_joint": 2.6996025414629847,
            "wrist_1_joint": -1.5485510000780065,
            "wrist_2_joint": -1.5709468930060704,
            "wrist_3_joint": 0.4420197071253992
        }
    },
    "waypoints": [
        {
            "positions": [
                2.6996025414629847,
                -1.2443396400964142,
                -1.9196185241190666,
                -1.5485510000780065,
                -1.5709468930060704,
                0.4420197071253992
            ]
        },
        {
            "positions": [
                2.5878243274210977,
                -1.2398083330295069,
                -1.8070495715790065,
                -1.536858616411514,
                -1.4927882542166382,
                0.5125659741325826
            ]
        },
        {
            "positions": [
                2.47604611337921,
                -1.2352770259625996,
                -1.694480619038946,
                -1.5251662327450215,
                -1.4146296154272062,
                0.5831122411397662
            ]
        },
        {
            "positions": [
                2.3642678993373227,
                -1.230745718895692,
                -1.581911666498886,
                -1.5134738490785289,
                -1.336470976637774,
                0.6536585081469497
            ]
        },
        {
            "positions": [
                2.2524896852954357,
                -1.2262144118287848,
                -1.4693427139588258,
                -1.5017814654120363,
                -1.2583123378483418,
                0.7242047751541332
            ]
        },
        {
            "positions": [
                2.140711471253548,
                -1.2216831047618775,
                -1.3567737614187654,
                -1.4900890817455439,
                -1.1801536990589097,
                0.7947510421613168
            ]
        },
        {
            "positions": [
                2.028933257211661,
                -1.2171517976949702,
                -1.2442048088787052,
                -1.4783966980790513,
                -1.1019950602694777,
                0.8652973091685002
            ]
        },
        {
            "positions": [
                1.9171550431697737,
                -1.2126204906280629,
                -1.131635856338645,
                -1.4667043144125587,
                -1.0238364214800455,
                0.9358435761756838
            ]
        },
        {
            "positions": [
                1.8053768291278867,
                -1.2080891835611556,
                -1.0190669037985849,
                -1.4550119307460663,
                -0.9456777826906133,
                1.0063898431828673
            ]
        },
        {
            "positions": [
                1.6935986150859994,
                -1.203557876494248,
                -0.9064979512585245,
                -1.4433195470795737,
                -0.8675191439011812,
                1.0769361101900508
            ]
        },
        {
            "positions": [
                1.581820401044112,
                -1.1990265694273408,
                -0.7939289987184641,
                -1.431627163413081,
                -0.789360505111749,
                1.1474823771972344
            ]
        },
        {
            "positions": [
                1.4700421870022249,
                -1.1944952623604335,
                -0.681360046178404,
                -1.4199347797465887,
                -0.711201866322317,
                1.2180286442044177
            ]
        },
        {
            "positions": [
                1.3582639729603376,
                -1.1899639552935262,
                -0.5687910936383438,
                -1.408242396080096,
                -0.6330432275328849,
                1.2885749112116014
            ]
        },
        {
            "positions": [
                1.2464857589184501,
                -1.1854326482266189,
                -0.4562221410982834,
                -1.3965500124136034,
                -0.5548845887434528,
                1.3591211782187849
            ]
        },
        {
            "positions": [
                1.134707544876563,
                -1.1809013411597116,
                -0.34365318855822324,
                -1.384857628747111,
                -0.4767259499540206,
                1.4296674452259683
            ]
        },
        {
            "positions": [
                1.0229293308346756,
                -1.176370034092804,
                -0.23108423601816286,
                -1.3731652450806184,
                -0.39856731116458843,
                1.500213712233152
            ]
        },
        {
            "positions": [
                0.9111511167927886,
                -1.1718387270258968,
                -0.11851528347810292,
                -1.3614728614141258,
                -0.32040867237515624,
                1.5707599792403353
            ]
        },
        {
            "positions": [
                0.7993729027509013,
                -1.1673074199589895,
                -0.005946330938042754,
                -1.3497804777476334,
                -0.24225003358572428,
                1.6413062462475185
            ]
        },
        {
            "positions": [
                0.6875946887090141,
                -1.1627761128920822,
                0.10662262160201763,
                -1.3380880940811408,
                -0.1640913947962921,
                1.7118525132547022
            ]
        },
        {
            "positions": [
                0.5758164746671266,
                -1.1582448058251749,
                0.2191915741420778,
                -1.3263957104146484,
                -0.0859327560068599,
                1.782398780261886
            ]
        },
        {
            "positions": [
                0.4640382606252391,
                -1.1537134987582673,
                0.3317605266821384,
                -1.3147033267481558,
                -0.007774117217427712,
                1.8529450472690696
            ]
        },
        {
            "positions": [
                0.3522600465833521,
                -1.14918219169136,
                0.44432947922219856,
                -1.3030109430816632,
                0.07038452157200425,
                1.9234913142762529
            ]
        },
        {
            "positions": [
                0.24048183254146505,
                -1.1446508846244527,
                0.5568984317622587,
                -1.2913185594151708,
                0.14854316036143644,
                1.9940375812834361
            ]
        },
        {
            "positions": [
                0.12870361849957757,
                -1.1401195775575454,
                0.6694673843023189,
                -1.2796261757486782,
                0.22670179915086863,
                2.06458384829062
            ]
        },
        {
            "positions": [
                0.01692540445769053,
                -1.1355882704906382,
                0.782036336842379,
                -1.2679337920821856,
                0.3048604379403006,
                2.1351301152978035
            ]
        },
        {
            "positions": [
                -0.09485280958419695,
                -1.1310569634237309,
                0.8946052893824392,
                -1.2562414084156932,
                0.3830190767297328,
                2.2056763823049867
            ]
        },
        {
            "positions": [
                -0.20663102362608443,
                -1.1265256563568236,
                1.0071742419224998,
                -1.2445490247492006,
                0.46117771551916475,
                2.2762226493121704
            ]
        },
        {
            "positions": [
                -0.31840923766797147,
                -1.121994349289916,
                1.1197431944625595,
                -1.232856641082708,
                0.5393363543085969,
                2.3467689163193537
            ]
        },
        {
            "positions": [
                -0.43018745170985895,
                -1.1174630422230087,
                1.2323121470026202,
                -1.2211642574162154,
                0.6174949930980291,
                2.4173151833265374
            ]
        },
        {
            "positions": [
                -0.5419656657517459,
                -1.1129317351561014,
                1.34488109954268,
                -1.209471873749723,
                0.6956536318874615,
                2.487861450333721
            ]
        },
        {
            "positions": [
                -0.459042833593472,
                -1.1172774814643547,
                1.4253368613943884,
                -1.165444242392366,
                0.6243028113127754,
                2.5711887180851325
            ]
        },
        {
            "positions": [
                -0.37612000143519814,
                -1.121623227772608,
                1.505792623246097,
                -1.121416611035009,
                0.5529519907380893,
                2.6545159858365444
            ]
        },
        {
            "positions": [
                -0.2931971692769243,
                -1.1259689740808614,
                1.5862483850978053,
                -1.0773889796776521,
                0.48160117016340315,
                2.7378432535879558
            ]
        },
        {
            "positions": [
                -0.2102743371186504,
                -1.1303147203891146,
                1.6667041469495136,
                -1.033361348320295,
                0.41025034958871703,
                2.8211705213393676
            ]
        },
        {
            "positions": [
                -0.1273515049603765,
                -1.1346604666973679,
                1.7471599088012222,
                -0.9893337169629381,
                0.3388995290140309,
                2.904497789090779
            ]
        },
        {
            "positions": [
                -0.044428672802102664,
                -1.1390062130056213,
                1.8276156706529305,
                -0.9453060856055812,
                0.26754870843934475,
                2.9878250568421905
            ]
        },
        {
            "positions": [
                0.038494159356171176,
                -1.1433519593138746,
                1.9080714325046388,
                -0.9012784542482242,
                0.19619788786465864,
                3.0711523245936023
            ]
        },
        {
            "positions": [
                0.12141699151444513,
                -1.1476977056221278,
                1.9885271943563474,
                -0.8572508228908672,
                0.12484706728997248,
                3.1544795923450137
            ]
        }
    ]
}