{
    "goal": {
        "global_pose": {
            "orientation": {
                "w": 0.7031023480610252,
                "x": -0.7110244013736278,
                "y": 0.0077485991402295624,
                "z": 0.005598929693374583
            },
            "position": {
                "x": -0.8841497679147869,
                "y": 0.44412534475326537,
                "z": 0.3711530566215515
            }
        },
        "name": "move_to_auspresseinheit_D"
    },
    "id": "BFMT_move_to_auspresseinheit_D_49",
    "joint_names": [
        "shoulder_pan_joint",
        "shoulder_lift_joint",
        "elbow_joint",
        "wrist_1_joint",
        "wrist_2_joint",
        "wrist_3_joint"
    ],
    "metrics": {
        "cart_traj_len": 0.3434006688655066,
        "distance_elbow_joint": 0.6421466679756642,
        "distance_shoulder_lift_joint": 0.12281432871611608,
        "distance_shoulder_pan_joint": 0.13402360527285137,
        "distance_wrist_1_joint": 0.5533443897203392,
        "distance_wrist_2_joint": 1.4325189221456271,
        "distance_wrist_3_joint": 0.021983851971782986,
        "smoothness": 7.894919348737726e-16,
        "time": 0.461820617,
        "traj_len": 1.7049433321381626,
        "weighted_distance": 2.221860207486491
    },
    "planner": "BFMT",
    "start": {
        "state": {
            "elbow_joint": -1.8275523626775212,
            "shoulder_lift_joint": -2.126789852344167,
            "shoulder_pan_joint": -0.03513704404078235,
            "wrist_1_joint": -2.347782403156801,
            "wrist_2_joint": -1.6058999987535132,
            "wrist_3_joint": -3.0880379163319196
        }
    },
    "waypoints": [
        {
            "positions": [
                -0.03513704404078235,
                -2.126789852344167,
                -1.8275523626775212,
                -2.347782403156801,
                -1.6058999987535132,
                -3.0880379163319196
            ]
        },
        {
            "positions": [
                -0.05188999469988877,
                -2.1421416434336815,
                -1.7472840291805631,
                -2.4169504518718434,
                -1.4268351334853098,
                -3.085289934835447
            ]
        },
        {
            "positions": [
                -0.06864294535899519,
                -2.1574934345231958,
                -1.667015695683605,
                -2.4861185005868855,
                -1.2477702682171063,
                -3.082541953338974
            ]
        },
        {
            "positions": [
                -0.0853958960181016,
                -2.1728452256127104,
                -1.586747362186647,
                -2.555286549301928,
                -1.0687054029489031,
                -3.079793971842501
            ]
        },
        {
            "positions": [
                -0.10214884667720803,
                -2.188197016702225,
                -1.506479028689689,
                -2.6244545980169702,
                -0.8896405376806996,
                -3.0770459903460283
            ]
        },
        {
            "positions": [
                -0.11890179733631445,
                -2.2035488077917393,
                -1.4262106951927311,
                -2.693622646732013,
                -0.7105756724124962,
                -3.074298008849555
            ]
        },
        {
            "positions": [
                -0.13565474799542088,
                -2.218900598881254,
                -1.345942361695773,
                -2.7627906954470554,
                -0.5315108071442929,
                -3.0715500273530822
            ]
        },
        {
            "positions": [
                -0.1524076986545273,
                -2.2342523899707682,
                -1.265674028198815,
                -2.8319587441620975,
                -0.35244594187608946,
                -3.0688020458566094
            ]
        },
        {
            "positions": [
                -0.16916064931363373,
                -2.249604181060283,
                -1.185405694701857,
                -2.90112679287714,
                -0.17338107660788613,
                -3.0660540643601366
            ]
        }
    ]
}