{
    "goal": {
        "global_pose": {
            "orientation": {
                "w": -0.00223480608172531,
                "x": 0.0024358444001904467,
                "y": 0.7094548369677653,
                "z": -0.704743149386269
            },
            "position": {
                "x": 0.6205249238014221,
                "y": -0.6371506643295288,
                "z": 0.19426114857196808
            }
        },
        "name": "move_to_magneteinheit_B"
    },
    "id": "BFMT_move_to_magneteinheit_B_123",
    "joint_names": [
        "shoulder_pan_joint",
        "shoulder_lift_joint",
        "elbow_joint",
        "wrist_1_joint",
        "wrist_2_joint",
        "wrist_3_joint"
    ],
    "metrics": {
        "cart_traj_len": 1.3943916215192493,
        "distance_elbow_joint": 0.9549592506961657,
        "distance_shoulder_lift_joint": 0.9764082390480993,
        "distance_shoulder_pan_joint": 1.6219581021996872,
        "distance_wrist_1_joint": 0.35600406309553634,
        "distance_wrist_2_joint": 1.5133842737538143,
        "distance_wrist_3_joint": 1.7090255302635666,
        "smoothness": 0.4484204769258745,
        "time": 0.664923825,
        "traj_len": 2.67053168096858,
        "weighted_distance": 3.524085534778257
    },
    "planner": "BFMT",
    "start": {
        "state": {
            "elbow_joint": 2.6216224122426386,
            "shoulder_lift_joint": -1.4174107377796124,
            "shoulder_pan_joint": 0.7066234856936794,
            "wrist_1_joint": 1.9546482284002225,
            "wrist_2_joint": -0.7096286983471962,
            "wrist_3_joint": 0.005740856962016249
        }
    },
    "waypoints": [
        {
            "positions": [
                0.7066234856936794,
                -1.4174107377796124,
                2.6216224122426386,
                1.9546482284002225,
                -0.7096286983471962,
                0.005740856962016249
            ]
        },
        {
            "positions": [
                0.5769220350142958,
                -1.4358747226220234,
                2.6108223033654667,
                1.940465878955464,
                -0.7436401384258193,
                -0.13697093652564957
            ]
        },
        {
            "positions": [
                0.4472205843349124,
                -1.4543387074644345,
                2.600022194488295,
                1.926283529510706,
                -0.7776515785044426,
                -0.2796827300133154
            ]
        },
        {
            "positions": [
                0.3175191336555289,
                -1.4728026923068456,
                2.589222085611123,
                1.9121011800659478,
                -0.8116630185830658,
                -0.4223945235009813
            ]
        },
        {
            "positions": [
                0.18781768297614543,
                -1.4912666771492566,
                2.5784219767339507,
                1.8979188306211894,
                -0.8456744586616889,
                -0.5651063169886471
            ]
        },
        {
            "positions": [
                0.05811623229676188,
                -1.5097306619916677,
                2.567621867856779,
                1.883736481176431,
                -0.879685898740312,
                -0.707818110476313
            ]
        },
        {
            "positions": [
                -0.07158521838262152,
                -1.5281946468340788,
                2.556821758979607,
                1.8695541317316728,
                -0.9136973388189352,
                -0.8505299039639789
            ]
        },
        {
            "positions": [
                -0.13648901823826665,
                -1.4616081599114916,
                2.4883480207155197,
                1.8903933599183642,
                -1.0144139259944795,
                -0.7849333832457042
            ]
        },
        {
            "positions": [
                -0.20139281809391177,
                -1.3950216729889044,
                2.4198742824514325,
                1.9112325881050554,
                -1.1151305131700238,
                -0.7193368625274293
            ]
        },
        {
            "positions": [
                -0.2662966179495569,
                -1.3284351860663173,
                2.3514005441873453,
                1.9320718162917467,
                -1.215847100345568,
                -0.6537403418091546
            ]
        },
        {
            "positions": [
                -0.33120041780520204,
                -1.26184869914373,
                2.282926805923258,
                1.952911044478438,
                -1.3165636875211124,
                -0.5881438210908798
            ]
        },
        {
            "positions": [
                -0.39610421766084714,
                -1.1952622122211431,
                2.214453067659171,
                1.9737502726651293,
                -1.4172802746966566,
                -0.5225473003726051
            ]
        },
        {
            "positions": [
                -0.46100801751649223,
                -1.128675725298556,
                2.1459793293950833,
                1.9945895008518206,
                -1.5179968618722008,
                -0.45695077965433034
            ]
        },
        {
            "positions": [
                -0.5259118173721373,
                -1.0620892383759688,
                2.077505591130996,
                2.015428729038512,
                -1.618713449047745,
                -0.39135425893605563
            ]
        },
        {
            "positions": [
                -0.5908156172277825,
                -0.9955027514533816,
                2.009031852866909,
                2.036267957225203,
                -1.7194300362232893,
                -0.32575773821778087
            ]
        },
        {
            "positions": [
                -0.6557194170834276,
                -0.9289162645307946,
                1.9405581146028217,
                2.0571071854118945,
                -1.8201466233988337,
                -0.26016121749950616
            ]
        },
        {
            "positions": [
                -0.7206232169390728,
                -0.8623297776082074,
                1.8720843763387345,
                2.077946413598586,
                -1.9208632105743781,
                -0.19456469678123134
            ]
        },
        {
            "positions": [
                -0.7855270167947178,
                -0.7957432906856202,
                1.8036106380746473,
                2.098785641785277,
                -2.021579797749922,
                -0.12896817606295663
            ]
        },
        {
            "positions": [
                -0.850430816650363,
                -0.729156803763033,
                1.73513689981056,
                2.119624869971968,
                -2.1222963849254666,
                -0.06337165534468181
            ]
        },
        {
            "positions": [
                -0.9153346165060081,
                -0.662570316840446,
                1.6666631615464729,
                2.1404640981586596,
                -2.2230129721010106,
                0.0022248653735929256
            ]
        }
    ]
}