{
    "goal": {
        "global_pose": {
            "orientation": {
                "w": -0.00223480608172531,
                "x": 0.0024358444001904467,
                "y": 0.7094548369677653,
                "z": -0.704743149386269
            },
            "position": {
                "x": 0.6205249238014221,
                "y": -0.6371506643295288,
                "z": 0.19426114857196808
            }
        },
        "name": "move_to_magneteinheit_B"
    },
    "id": "BFMT_move_to_magneteinheit_B_49",
    "joint_names": [
        "shoulder_pan_joint",
        "shoulder_lift_joint",
        "elbow_joint",
        "wrist_1_joint",
        "wrist_2_joint",
        "wrist_3_joint"
    ],
    "metrics": {
        "cart_traj_len": 1.689438466654523,
        "distance_elbow_joint": 0.97416360995193,
        "distance_shoulder_lift_joint": 1.4373102354965366,
        "distance_shoulder_pan_joint": 1.8144080081107905,
        "distance_wrist_1_joint": 0.48435160408861755,
        "distance_wrist_2_joint": 1.531039617937952,
        "distance_wrist_3_joint": 0.6576119424034681,
        "smoothness": 0.41254681499424173,
        "time": 0.778166308,
        "traj_len": 2.626572865539674,
        "weighted_distance": 3.198358973727433
    },
    "planner": "BFMT",
    "start": {
        "state": {
            "elbow_joint": 2.6216224122426386,
            "shoulder_lift_joint": -1.4174107377796124,
            "shoulder_pan_joint": 0.7066234856936794,
            "wrist_1_joint": 1.9546482284002225,
            "wrist_2_joint": -0.7096286983471962,
            "wrist_3_joint": 0.005740856962016249
        }
    },
    "waypoints": [
        {
            "positions": [
                0.7066234856936794,
                -1.4174107377796124,
                2.6216224122426386,
                1.9546482284002225,
                -0.7096286983471962,
                0.005740856962016249
            ]
        },
        {
            "positions": [
                0.7331898685107747,
                -1.5064916293832458,
                2.6250287512229322,
                2.000461101083755,
                -0.789126411161333,
                0.07162063193253655
            ]
        },
        {
            "positions": [
                0.7597562513278702,
                -1.5955725209868794,
                2.6284350902032254,
                2.046273973767288,
                -0.8686241239754696,
                0.13750040690305687
            ]
        },
        {
            "positions": [
                0.7863226341449655,
                -1.6846534125905128,
                2.631841429183519,
                2.0920868464508207,
                -0.9481218367896064,
                0.20338018187357718
            ]
        },
        {
            "positions": [
                0.8042570717303326,
                -1.759392509495558,
                2.6318014839287116,
                2.1323728606442227,
                -1.0217247191070649,
                0.26039118187887916
            ]
        },
        {
            "positions": [
                0.6966522265134599,
                -1.7205567414969472,
                2.566454525873736,
                2.153156597687504,
                -1.139213100855272,
                0.2700717747559094
            ]
        },
        {
            "positions": [
                0.5890473812965873,
                -1.6817209734983365,
                2.50110756781876,
                2.1739403347307853,
                -1.256701482603479,
                0.27975236763293965
            ]
        },
        {
            "positions": [
                0.48144253607971466,
                -1.6428852054997256,
                2.4357606097637845,
                2.1947240717740666,
                -1.374189864351686,
                0.28943296050996986
            ]
        },
        {
            "positions": [
                0.373837690862842,
                -1.6040494375011147,
                2.370413651708809,
                2.215507808817348,
                -1.4916782460998932,
                0.2991135533870001
            ]
        },
        {
            "positions": [
                0.2662328456459694,
                -1.565213669502504,
                2.3050666936538327,
                2.2362915458606287,
                -1.6091666278481003,
                0.30879414626403034
            ]
        },
        {
            "positions": [
                0.15862800042909675,
                -1.5263779015038932,
                2.239719735598857,
                2.25707528290391,
                -1.7266550095963071,
                0.31847473914106056
            ]
        },
        {
            "positions": [
                0.051023155212224114,
                -1.4875421335052823,
                2.1743727775438813,
                2.2778590199471913,
                -1.8441433913445142,
                0.3281553320180908
            ]
        },
        {
            "positions": [
                -0.056581690004648494,
                -1.4487063655066716,
                2.1090258194889056,
                2.2986427569904726,
                -1.9616317730927213,
                0.33783592489512104
            ]
        },
        {
            "positions": [
                -0.163573647547043,
                -1.3506260755327086,
                2.053884696574351,
                2.2810981225531766,
                -1.9965113409917747,
                0.29714631558632565
            ]
        },
        {
            "positions": [
                -0.27056560508943756,
                -1.2525457855587454,
                1.9987435736597965,
                2.263553488115881,
                -2.031390908890828,
                0.2564567062775302
            ]
        },
        {
            "positions": [
                -0.37755756263183204,
                -1.1544654955847824,
                1.943602450745242,
                2.246008853678585,
                -2.066270476789881,
                0.21576709696873478
            ]
        },
        {
            "positions": [
                -0.4845495201742266,
                -1.0563852056108192,
                1.8884613278306874,
                2.228464219241289,
                -2.101150044688935,
                0.17507748765993936
            ]
        },
        {
            "positions": [
                -0.5915414777166211,
                -0.9583049156368562,
                1.833320204916133,
                2.210919584803993,
                -2.136029612587988,
                0.13438787835114394
            ]
        },
        {
            "positions": [
                -0.6985334352590157,
                -0.860224625662893,
                1.7781790820015786,
                2.193374950366697,
                -2.1709091804870413,
                0.09369826904234851
            ]
        },
        {
            "positions": [
                -0.8055253928014102,
                -0.7621443356889299,
                1.7230379590870242,
                2.1758303159294012,
                -2.205788748386095,
                0.053008659733553065
            ]
        },
        {
            "positions": [
                -0.9125173503438048,
                -0.6640640457149668,
                1.6678968361724695,
                2.158285681492105,
                -2.240668316285148,
                0.012319050424757658
            ]
        }
    ]
}