{
    "goal": {
        "global_pose": {
            "orientation": {
                "w": 0.005598929693374612,
                "x": 0.007748599140229565,
                "y": 0.7110244013736278,
                "z": -0.7031023480610252
            },
            "position": {
                "x": -0.8858502320852131,
                "y": -0.7141253447532654,
                "z": 0.3711530566215515
            }
        },
        "name": "move_to_auspresseinheit_C"
    },
    "id": "BiEST_move_to_auspresseinheit_C_128",
    "joint_names": [
        "shoulder_pan_joint",
        "shoulder_lift_joint",
        "elbow_joint",
        "wrist_1_joint",
        "wrist_2_joint",
        "wrist_3_joint"
    ],
    "metrics": {
        "cart_traj_len": 0.494330526830193,
        "distance_elbow_joint": 1.0078676900609964,
        "distance_shoulder_lift_joint": 0.32818301317203735,
        "distance_shoulder_pan_joint": 0.2570782599665553,
        "distance_wrist_1_joint": 0.6943012645394154,
        "distance_wrist_2_joint": 1.3064322414603917,
        "distance_wrist_3_joint": 0.07835903873241845,
        "smoothness": 6.459479416000911e-16,
        "time": 0.076067176,
        "traj_len": 1.916304127202103,
        "weighted_distance": 2.4144715967259707
    },
    "planner": "BiEST",
    "start": {
        "state": {
            "elbow_joint": 1.7527959577737207,
            "shoulder_lift_joint": -0.9740617694225068,
            "shoulder_pan_joint": -2.967991417825858,
            "wrist_1_joint": -0.759517768980727,
            "wrist_2_joint": 1.7443932448377408,
            "wrist_3_joint": -3.0840537646736568
        }
    },
    "waypoints": [
        {
            "positions": [
                -2.967991417825858,
                -0.9740617694225068,
                1.7527959577737207,
                -0.759517768980727,
                1.7443932448377408,
                -3.0840537646736568
            ]
        },
        {
            "positions": [
                -2.9422835918292023,
                -0.941243468105303,
                1.652009188767621,
                -0.6900876425267854,
                1.6137500206917017,
                -3.091889668546899
            ]
        },
        {
            "positions": [
                -2.916575765832547,
                -0.9084251667880993,
                1.5512224197615214,
                -0.6206575160728439,
                1.4831067965456626,
                -3.0997255724201405
            ]
        },
        {
            "positions": [
                -2.8908679398358914,
                -0.8756068654708956,
                1.4504356507554217,
                -0.5512273896189024,
                1.3524635723996234,
                -3.107561476293382
            ]
        },
        {
            "positions": [
                -2.8651601138392357,
                -0.8427885641536919,
                1.3496488817493222,
                -0.4817972631649608,
                1.221820348253584,
                -3.115397380166624
            ]
        },
        {
            "positions": [
                -2.8394522878425805,
                -0.8099702628364881,
                1.2488621127432225,
                -0.41236713671101927,
                1.091177124107545,
                -3.123233284039866
            ]
        },
        {
            "positions": [
                -2.813744461845925,
                -0.7771519615192843,
                1.1480753437371227,
                -0.34293701025707773,
                0.9605338999615058,
                -3.131069187913108
            ]
        },
        {
            "positions": [
                -2.788036635849269,
                -0.7443336602020807,
                1.0472885747310232,
                -0.2735068838031362,
                0.8298906758154667,
                -3.1389050917863495
            ]
        },
        {
            "positions": [
                -2.7623288098526135,
                -0.7115153588848768,
                0.9465018057249235,
                -0.20407675734919462,
                0.6992474516694274,
                -3.1467409956595915
            ]
        },
        {
            "positions": [
                -2.7366209838559583,
                -0.6786970575676732,
                0.8457150367188239,
                -0.13464663089525308,
                0.5686042275233882,
                -3.1545768995328336
            ]
        },
        {
            "positions": [
                -2.7109131578593026,
                -0.6458787562504694,
                0.7449282677127244,
                -0.06521650444131159,
                0.43796100337734917,
                -3.1624128034060752
            ]
        }
    ]
}