{
    "goal": {
        "global_pose": {
            "orientation": {
                "w": 0.005598929693374612,
                "x": 0.007748599140229565,
                "y": 0.7110244013736278,
                "z": -0.7031023480610252
            },
            "position": {
                "x": -0.8858502320852131,
                "y": -0.7141253447532654,
                "z": 0.3711530566215515
            }
        },
        "name": "move_to_auspresseinheit_C"
    },
    "id": "BiEST_move_to_auspresseinheit_C_8",
    "joint_names": [
        "shoulder_pan_joint",
        "shoulder_lift_joint",
        "elbow_joint",
        "wrist_1_joint",
        "wrist_2_joint",
        "wrist_3_joint"
    ],
    "metrics": {
        "cart_traj_len": 0.49325285252763107,
        "distance_elbow_joint": 1.0035248450246248,
        "distance_shoulder_lift_joint": 0.32602052566731166,
        "distance_shoulder_pan_joint": 0.2570394192668517,
        "distance_wrist_1_joint": 0.6969218407652725,
        "distance_wrist_2_joint": 1.301830792099687,
        "distance_wrist_3_joint": 0.06513915119627223,
        "smoothness": 9.689219124001365e-16,
        "time": 0.305402401,
        "traj_len": 1.910622038504743,
        "weighted_distance": 2.4040606292848614
    },
    "planner": "BiEST",
    "start": {
        "state": {
            "elbow_joint": 1.7527959577737207,
            "shoulder_lift_joint": -0.9740617694225068,
            "shoulder_pan_joint": -2.967991417825858,
            "wrist_1_joint": -0.759517768980727,
            "wrist_2_joint": 1.7443932448377408,
            "wrist_3_joint": -3.0840537646736568
        }
    },
    "waypoints": [
        {
            "positions": [
                -2.967991417825858,
                -0.9740617694225068,
                1.7527959577737207,
                -0.759517768980727,
                1.7443932448377408,
                -3.0840537646736568
            ]
        },
        {
            "positions": [
                -2.942287475899173,
                -0.9414597168557756,
                1.652443473271258,
                -0.6898255849041998,
                1.614210165627772,
                -3.090567679793284
            ]
        },
        {
            "positions": [
                -2.9165835339724877,
                -0.9088576642890445,
                1.5520909887687957,
                -0.6201334008276724,
                1.4840270864178033,
                -3.097081594912911
            ]
        },
        {
            "positions": [
                -2.8908795920458026,
                -0.8762556117223133,
                1.4517385042663333,
                -0.5504412167511452,
                1.3538440072078348,
                -3.1035955100325383
            ]
        },
        {
            "positions": [
                -2.8651756501191175,
                -0.843653559155582,
                1.3513860197638707,
                -0.48074903267461794,
                1.2236609279978659,
                -3.1101094251521655
            ]
        },
        {
            "positions": [
                -2.8394717081924323,
                -0.811051506588851,
                1.2510335352614081,
                -0.4110568485980907,
                1.0934778487878973,
                -3.1166233402717927
            ]
        },
        {
            "positions": [
                -2.8137677662657468,
                -0.7784494540221198,
                1.1506810507589458,
                -0.3413646645215635,
                0.9632947695779287,
                -3.1231372553914203
            ]
        },
        {
            "positions": [
                -2.7880638243390616,
                -0.7458474014553886,
                1.0503285662564834,
                -0.2716724804450362,
                0.83311169036796,
                -3.1296511705110475
            ]
        },
        {
            "positions": [
                -2.7623598824123765,
                -0.7132453488886574,
                0.9499760817540208,
                -0.2019802963685089,
                0.7029286111579911,
                -3.1361650856306746
            ]
        },
        {
            "positions": [
                -2.7366559404856914,
                -0.6806432963219262,
                0.8496235972515583,
                -0.13228811229198167,
                0.5727455319480226,
                -3.142679000750302
            ]
        },
        {
            "positions": [
                -2.7109519985590063,
                -0.6480412437551951,
                0.7492711127490959,
                -0.06259592821545441,
                0.4425624527380539,
                -3.149192915869929
            ]
        }
    ]
}