{
    "goal": {
        "global_pose": {
            "orientation": {
                "w": 0.7047431468963623,
                "x": -0.7094548344612122,
                "y": 0.0024358443915843964,
                "z": -0.0022348060738295317
            },
            "position": {
                "x": 0.6094750761985779,
                "y": 0.3671506643295288,
                "z": 0.19426114857196808
            }
        },
        "name": "move_to_magneteinheit_A"
    },
    "id": "BiEST_move_to_magneteinheit_A_84",
    "joint_names": [
        "shoulder_pan_joint",
        "shoulder_lift_joint",
        "elbow_joint",
        "wrist_1_joint",
        "wrist_2_joint",
        "wrist_3_joint"
    ],
    "metrics": {
        "cart_traj_len": 3.506222413744062,
        "distance_elbow_joint": 3.9401769759439498,
        "distance_shoulder_lift_joint": 1.2069844138391526,
        "distance_shoulder_pan_joint": 4.481505614829797,
        "distance_wrist_1_joint": 3.5674845939232354,
        "distance_wrist_2_joint": 2.1034811816007473,
        "distance_wrist_3_joint": 1.7606201294235548,
        "smoothness": 0.2790642885727325,
        "time": 0.06432257699999999,
        "traj_len": 4.130405901308058,
        "weighted_distance": 5.123715345716575
    },
    "planner": "BiEST",
    "start": {
        "state": {
            "elbow_joint": -1.9196185241190666,
            "shoulder_lift_joint": -1.2443396400964142,
            "shoulder_pan_joint": 2.6996025414629847,
            "wrist_1_joint": -1.5485510000780065,
            "wrist_2_joint": -1.5709468930060704,
            "wrist_3_joint": 0.4420197071253992
        }
    },
    "waypoints": [
        {
            "positions": [
                2.6996025414629847,
                -1.2443396400964142,
                -1.9196185241190666,
                -1.5485510000780065,
                -1.5709468930060704,
                0.4420197071253992
            ]
        },
        {
            "positions": [
                2.581964141501433,
                -1.2568701547825907,
                -1.8237620910367018,
                -1.4851028911952733,
                -1.5119073090822652,
                0.40366666339757507
            ]
        },
        {
            "positions": [
                2.4643257415398816,
                -1.2694006694687674,
                -1.727905657954337,
                -1.4216547823125398,
                -1.45286772515846,
                0.36531361966975096
            ]
        },
        {
            "positions": [
                2.3466873415783303,
                -1.281931184154944,
                -1.6320492248719722,
                -1.3582066734298066,
                -1.393828141234655,
                0.3269605759419268
            ]
        },
        {
            "positions": [
                2.2290489416167785,
                -1.2944616988411206,
                -1.5361927917896074,
                -1.2947585645470734,
                -1.3347885573108498,
                0.2886075322141027
            ]
        },
        {
            "positions": [
                2.1114105416552267,
                -1.306992213527297,
                -1.4403363587072426,
                -1.23131045566434,
                -1.2757489733870446,
                0.25025448848627857
            ]
        },
        {
            "positions": [
                1.9937721416936753,
                -1.3195227282134738,
                -1.3444799256248778,
                -1.1678623467816065,
                -1.2167093894632395,
                0.2119014447584544
            ]
        },
        {
            "positions": [
                1.8761337417321238,
                -1.3320532428996503,
                -1.2486234925425128,
                -1.1044142378988733,
                -1.1576698055394343,
                0.1735484010306303
            ]
        },
        {
            "positions": [
                1.7584953417705722,
                -1.344583757585827,
                -1.1527670594601482,
                -1.04096612901614,
                -1.0986302216156292,
                0.13519535730280619
            ]
        },
        {
            "positions": [
                1.6408569418090206,
                -1.3571142722720035,
                -1.0569106263777832,
                -0.9775180201334067,
                -1.039590637691824,
                0.09684231357498208
            ]
        },
        {
            "positions": [
                1.523218541847469,
                -1.3696447869581803,
                -0.9610541932954185,
                -0.9140699112506734,
                -0.9805510537680189,
                0.058489269847157965
            ]
        },
        {
            "positions": [
                1.4055801418859175,
                -1.3821753016443568,
                -0.8651977602130538,
                -0.8506218023679402,
                -0.9215114698442137,
                0.020136226119333855
            ]
        },
        {
            "positions": [
                1.287941741924366,
                -1.3947058163305335,
                -0.7693413271306888,
                -0.7871736934852067,
                -0.8624718859204086,
                -0.018216817608490365
            ]
        },
        {
            "positions": [
                1.1703033419628144,
                -1.40723633101671,
                -0.673484894048324,
                -0.7237255846024734,
                -0.8034323019966034,
                -0.056569861336314475
            ]
        },
        {
            "positions": [
                1.0526649420012628,
                -1.4197668457028865,
                -0.5776284609659592,
                -0.6602774757197402,
                -0.7443927180727983,
                -0.09492290506413859
            ]
        },
        {
            "positions": [
                0.9350265420397113,
                -1.4322973603890632,
                -0.4817720278835944,
                -0.5968293668370068,
                -0.6853531341489931,
                -0.1332759487919627
            ]
        },
        {
            "positions": [
                0.8173881420781597,
                -1.44482787507524,
                -0.3859155948012296,
                -0.5333812579542736,
                -0.626313550225188,
                -0.1716289925197868
            ]
        },
        {
            "positions": [
                0.6997497421166081,
                -1.4573583897614164,
                -0.2900591617188648,
                -0.46993314907154016,
                -0.5672739663013828,
                -0.20998203624761091
            ]
        },
        {
            "positions": [
                0.5821113421550566,
                -1.469888904447593,
                -0.1942027286365,
                -0.40648504018880693,
                -0.5082343823775777,
                -0.24833507997543502
            ]
        },
        {
            "positions": [
                0.4644729421935052,
                -1.4824194191337696,
                -0.09834629555413521,
                -0.3430369313060737,
                -0.4491947984537725,
                -0.28668812370325913
            ]
        },
        {
            "positions": [
                0.3468345422319534,
                -1.4949499338199461,
                -0.00248986247177041,
                -0.27958882242334027,
                -0.3901552145299674,
                -0.32504116743108324
            ]
        },
        {
            "positions": [
                0.22919614227040208,
                -1.5074804485061228,
                0.09336657061059439,
                -0.21614071354060704,
                -0.3311156306061622,
                -0.36339421115890735
            ]
        },
        {
            "positions": [
                0.1115577423088503,
                -1.5200109631922993,
                0.18922300369295897,
                -0.15269260465787382,
                -0.2720760466823571,
                -0.40174725488673146
            ]
        },
        {
            "positions": [
                -0.006080657652701493,
                -1.532541477878476,
                0.28507943677532444,
                -0.08924449577514015,
                -0.21303646275855193,
                -0.4401002986145558
            ]
        },
        {
            "positions": [
                -0.12371905761425284,
                -1.5450719925646526,
                0.380935869857689,
                -0.02579638689240693,
                -0.15399687883474678,
                -0.4784533423423799
            ]
        },
        {
            "positions": [
                -0.24135745757580462,
                -1.5576025072508293,
                0.47679230294005404,
                0.03765172199032629,
                -0.09495729491094163,
                -0.516806386070204
            ]
        },
        {
            "positions": [
                -0.35899585753735597,
                -1.5701330219370058,
                0.5726487360224186,
                0.10109983087305974,
                -0.035917710987136475,
                -0.5551594297980281
            ]
        },
        {
            "positions": [
                -0.47663425749890775,
                -1.5826635366231825,
                0.6685051691047836,
                0.16454793975579296,
                0.023121872936668675,
                -0.5935124735258522
            ]
        },
        {
            "positions": [
                -0.5942726574604591,
                -1.595194051309359,
                0.7643616021871482,
                0.22799604863852618,
                0.08216145686047382,
                -0.6318655172536763
            ]
        },
        {
            "positions": [
                -0.7119110574220109,
                -1.6077245659955355,
                0.8602180352695132,
                0.29144415752125963,
                0.14120104078427897,
                -0.6702185609815005
            ]
        },
        {
            "positions": [
                -0.8295494573835622,
                -1.6202550806817122,
                0.9560744683518776,
                0.35489226640399296,
                0.20024062470808401,
                -0.7085716047093247
            ]
        },
        {
            "positions": [
                -0.7615241990990442,
                -1.5608930111635797,
                1.0321090385999494,
                0.4737523612212241,
                0.1765053630018988,
                -0.6649981177386939
            ]
        },
        {
            "positions": [
                -0.6934989408145262,
                -1.5015309416454472,
                1.1081436088480214,
                0.5926124560384552,
                0.1527701012957136,
                -0.6214246307680632
            ]
        },
        {
            "positions": [
                -0.6254736825300082,
                -1.442168872127315,
                1.1841781790960932,
                0.7114725508556864,
                0.1290348395895284,
                -0.5778511437974324
            ]
        },
        {
            "positions": [
                -0.5574484242454902,
                -1.3828068026091824,
                1.260212749344165,
                0.8303326456729175,
                0.10529957788334321,
                -0.5342776568268016
            ]
        },
        {
            "positions": [
                -0.48942316596097213,
                -1.32344473309105,
                1.336247319592237,
                0.9491927404901487,
                0.08156431617715801,
                -0.4907041698561709
            ]
        },
        {
            "positions": [
                -0.42139790767645413,
                -1.2640826635729174,
                1.412281889840309,
                1.06805283530738,
                0.05782905447097281,
                -0.44713068288554014
            ]
        },
        {
            "positions": [
                -0.3533726493919361,
                -1.204720594054785,
                1.488316460088381,
                1.186912930124611,
                0.034093792764787606,
                -0.40355719591490935
            ]
        },
        {
            "positions": [
                -0.28534739110741814,
                -1.1453585245366524,
                1.5643510303364527,
                1.3057730249418422,
                0.010358531058602405,
                -0.3599837089442786
            ]
        },
        {
            "positions": [
                -0.21732213282290003,
                -1.08599645501852,
                1.6403856005845245,
                1.4246331197590734,
                -0.013376730647582824,
                -0.3164102219736478
            ]
        },
        {
            "positions": [
                -0.14929687453838203,
                -1.0266343855003877,
                1.7164201708325963,
                1.5434932145763045,
                -0.037111992353768,
                -0.2728367350030171
            ]
        },
        {
            "positions": [
                -0.08127161625386403,
                -0.967272315982255,
                1.7924547410806684,
                1.6623533093935356,
                -0.06084725405995317,
                -0.2292632480323863
            ]
        },
        {
            "positions": [
                -0.013246357969346034,
                -0.9079102464641227,
                1.8684893113287402,
                1.7812134042107668,
                -0.0845825157661384,
                -0.1856897610617556
            ]
        },
        {
            "positions": [
                0.054778900315172074,
                -0.84854817694599,
                1.9445238815768122,
                1.900073499027998,
                -0.10831777747232363,
                -0.14211627409112482
            ]
        },
        {
            "positions": [
                0.1228041585996901,
                -0.7891861074278577,
                2.020558451824884,
                2.018933593845229,
                -0.1320530391785088,
                -0.09854278712049405
            ]
        }
    ]
}