{
    "goal": {
        "global_pose": {
            "orientation": {
                "w": 0.005598929693374612,
                "x": 0.007748599140229565,
                "y": 0.7110244013736278,
                "z": -0.7031023480610252
            },
            "position": {
                "x": -0.8858502320852131,
                "y": -0.7141253447532654,
                "z": 0.3711530566215515
            }
        },
        "name": "move_to_auspresseinheit_C"
    },
    "id": "BiEST_move_to_auspresseinheit_C_31",
    "joint_names": [
        "shoulder_pan_joint",
        "shoulder_lift_joint",
        "elbow_joint",
        "wrist_1_joint",
        "wrist_2_joint",
        "wrist_3_joint"
    ],
    "metrics": {
        "cart_traj_len": 0.4923152849675669,
        "distance_elbow_joint": 0.9990337669295776,
        "distance_shoulder_lift_joint": 0.32445370389100037,
        "distance_shoulder_pan_joint": 0.2556084755380943,
        "distance_wrist_1_joint": 0.679039814830404,
        "distance_wrist_2_joint": 1.3108162300826471,
        "distance_wrist_3_joint": 0.051297774054555934,
        "smoothness": 1.6148698667872622e-16,
        "time": 0.190860806,
        "traj_len": 1.9026953947824332,
        "weighted_distance": 2.3901258038748594
    },
    "planner": "BiEST",
    "start": {
        "state": {
            "elbow_joint": 1.7527959577737207,
            "shoulder_lift_joint": -0.9740617694225068,
            "shoulder_pan_joint": -2.967991417825858,
            "wrist_1_joint": -0.759517768980727,
            "wrist_2_joint": 1.7443932448377408,
            "wrist_3_joint": -3.0840537646736568
        }
    },
    "waypoints": [
        {
            "positions": [
                -2.967991417825858,
                -0.9740617694225068,
                1.7527959577737207,
                -0.759517768980727,
                1.7443932448377408,
                -3.0840537646736568
            ]
        },
        {
            "positions": [
                -2.9424305702720486,
                -0.9416163990334068,
                1.6528925810807629,
                -0.6916137874976865,
                1.613311621829476,
                -3.0891835420791125
            ]
        },
        {
            "positions": [
                -2.916869722718239,
                -0.9091710286443067,
                1.552989204387805,
                -0.6237098060146462,
                1.4822299988212113,
                -3.094313319484568
            ]
        },
        {
            "positions": [
                -2.89130887516443,
                -0.8767256582552067,
                1.4530858276948475,
                -0.5558058245316058,
                1.3511483758129468,
                -3.0994430968900235
            ]
        },
        {
            "positions": [
                -2.8657480276106204,
                -0.8442802878661066,
                1.3531824510018895,
                -0.4879018430485654,
                1.2200667528046818,
                -3.1045728742954792
            ]
        },
        {
            "positions": [
                -2.8401871800568106,
                -0.8118349174770065,
                1.253279074308932,
                -0.419997861565525,
                1.0889851297964173,
                -3.1097026517009345
            ]
        },
        {
            "positions": [
                -2.814626332503001,
                -0.7793895470879065,
                1.1533756976159741,
                -0.3520938800824846,
                0.9579035067881526,
                -3.1148324291063902
            ]
        },
        {
            "positions": [
                -2.789065484949192,
                -0.7469441766988065,
                1.0534723209230163,
                -0.2841898985994442,
                0.8268218837798879,
                -3.119962206511846
            ]
        },
        {
            "positions": [
                -2.7635046373953824,
                -0.7144988063097064,
                0.9535689442300586,
                -0.21628591711640377,
                0.695740260771623,
                -3.1250919839173017
            ]
        },
        {
            "positions": [
                -2.737943789841573,
                -0.6820534359206064,
                0.8536655675371009,
                -0.14838193563336333,
                0.5646586377633585,
                -3.130221761322757
            ]
        },
        {
            "positions": [
                -2.7123829422877637,
                -0.6496080655315064,
                0.7537621908441431,
                -0.08047795415032297,
                0.4335770147550937,
                -3.1353515387282127
            ]
        }
    ]
}