{
    "goal": {
        "global_pose": {
            "orientation": {
                "w": 0.005598929693374612,
                "x": 0.007748599140229565,
                "y": 0.7110244013736278,
                "z": -0.7031023480610252
            },
            "position": {
                "x": 0.1141497679147869,
                "y": -0.7141253447532654,
                "z": 0.3711530566215515
            }
        },
        "name": "move_to_auspresseinheit_B"
    },
    "id": "BiEST_move_to_auspresseinheit_B_30",
    "joint_names": [
        "shoulder_pan_joint",
        "shoulder_lift_joint",
        "elbow_joint",
        "wrist_1_joint",
        "wrist_2_joint",
        "wrist_3_joint"
    ],
    "metrics": {
        "cart_traj_len": 0.5639532330758956,
        "distance_elbow_joint": 0.06443551350510468,
        "distance_shoulder_lift_joint": 0.2938101692322761,
        "distance_shoulder_pan_joint": 0.575643297336341,
        "distance_wrist_1_joint": 0.3335136566199278,
        "distance_wrist_2_joint": 0.995921467524705,
        "distance_wrist_3_joint": 0.0017127916719190672,
        "smoothness": 0.0,
        "time": 0.053415486000000005,
        "traj_len": 1.5050039521178253,
        "weighted_distance": 1.896812485033443
    },
    "planner": "BiEST",
    "start": {
        "state": {
            "elbow_joint": 2.0193083361928714,
            "shoulder_lift_joint": -1.1220246554650708,
            "shoulder_pan_joint": -1.0952077554168747,
            "wrist_1_joint": -0.8559753972642168,
            "wrist_2_joint": 0.4759566250798843,
            "wrist_3_joint": -3.1240929996934557
        }
    },
    "waypoints": [
        {
            "positions": [
                -1.0952077554168747,
                -1.1220246554650708,
                2.0193083361928714,
                -0.8559753972642168,
                0.4759566250798843,
                -3.1240929996934557
            ]
        },
        {
            "positions": [
                -1.1911483049729314,
                -1.1709930170037834,
                2.0085690839420205,
                -0.8003897878275621,
                0.6419435363340018,
                -3.1238075344148024
            ]
        },
        {
            "positions": [
                -1.2870888545289882,
                -1.219961378542496,
                1.9978298316911698,
                -0.7448041783909075,
                0.8079304475881193,
                -3.123522069136149
            ]
        },
        {
            "positions": [
                -1.383029404085045,
                -1.2689297400812087,
                1.987090579440319,
                -0.6892185689542529,
                0.9739173588422367,
                -3.123236603857496
            ]
        },
        {
            "positions": [
                -1.4789699536411018,
                -1.3178981016199216,
                1.9763513271894684,
                -0.6336329595175982,
                1.1399042700963542,
                -3.122951138578843
            ]
        },
        {
            "positions": [
                -1.5749105031971589,
                -1.3668664631586342,
                1.9656120749386174,
                -0.5780473500809435,
                1.3058911813504719,
                -3.12266567330019
            ]
        },
        {
            "positions": [
                -1.6708510527532157,
                -1.415834824697347,
                1.9548728226877667,
                -0.522461740644289,
                1.4718780926045893,
                -3.1223802080215366
            ]
        }
    ]
}