{
    "goal": {
        "global_pose": {
            "orientation": {
                "w": 0.7047431468963623,
                "x": -0.7094548344612122,
                "y": 0.0024358443915843964,
                "z": -0.0022348060738295317
            },
            "position": {
                "x": 0.6094750761985779,
                "y": 0.3671506643295288,
                "z": 0.19426114857196808
            }
        },
        "name": "move_to_magneteinheit_A"
    },
    "id": "BiEST_move_to_magneteinheit_A_118",
    "joint_names": [
        "shoulder_pan_joint",
        "shoulder_lift_joint",
        "elbow_joint",
        "wrist_1_joint",
        "wrist_2_joint",
        "wrist_3_joint"
    ],
    "metrics": {
        "cart_traj_len": 3.6866797121665726,
        "distance_elbow_joint": 3.8841287577085755,
        "distance_shoulder_lift_joint": 0.3033678702639695,
        "distance_shoulder_pan_joint": 4.75056018988775,
        "distance_wrist_1_joint": 1.8805638637982023,
        "distance_wrist_2_joint": 1.7015023970703314,
        "distance_wrist_3_joint": 5.820668183971424,
        "smoothness": 0.25782465160220946,
        "time": 0.089841404,
        "traj_len": 4.282615002857511,
        "weighted_distance": 5.793461304911912
    },
    "planner": "BiEST",
    "start": {
        "state": {
            "elbow_joint": -1.9196185241190666,
            "shoulder_lift_joint": -1.2443396400964142,
            "shoulder_pan_joint": 2.6996025414629847,
            "wrist_1_joint": -1.5485510000780065,
            "wrist_2_joint": -1.5709468930060704,
            "wrist_3_joint": 0.4420197071253992
        }
    },
    "waypoints": [
        {
            "positions": [
                2.6996025414629847,
                -1.2443396400964142,
                -1.9196185241190666,
                -1.5485510000780065,
                -1.5709468930060704,
                0.4420197071253992
            ]
        },
        {
            "positions": [
                2.546965029262644,
                -1.2484051066650923,
                -1.822455054779302,
                -1.4927421250117923,
                -1.5532165616851987,
                0.3754957445918618
            ]
        },
        {
            "positions": [
                2.3943275170623037,
                -1.2524705732337704,
                -1.7252915854395372,
                -1.436933249945578,
                -1.535486230364327,
                0.30897178205832443
            ]
        },
        {
            "positions": [
                2.2416900048619635,
                -1.2565360398024488,
                -1.6281281160997725,
                -1.3811243748793638,
                -1.5177558990434556,
                0.242447819524787
            ]
        },
        {
            "positions": [
                2.0890524926616227,
                -1.260601506371127,
                -1.5309646467600078,
                -1.3253154998131496,
                -1.500025567722584,
                0.17592385699124963
            ]
        },
        {
            "positions": [
                1.9364149804612822,
                -1.264666972939805,
                -1.433801177420243,
                -1.2695066247469353,
                -1.4822952364017123,
                0.1093998944577122
            ]
        },
        {
            "positions": [
                1.7837774682609417,
                -1.2687324395084834,
                -1.3366377080804783,
                -1.213697749680721,
                -1.4645649050808407,
                0.042875931924174826
            ]
        },
        {
            "positions": [
                1.6311399560606012,
                -1.2727979060771615,
                -1.2394742387407136,
                -1.1578888746145068,
                -1.446834573759969,
                -0.023648030609362602
            ]
        },
        {
            "positions": [
                1.4785024438602608,
                -1.2768633726458396,
                -1.1423107694009489,
                -1.1020799995482926,
                -1.4291042424390976,
                -0.09017199314289992
            ]
        },
        {
            "positions": [
                1.3258649316599203,
                -1.2809288392145177,
                -1.0451473000611842,
                -1.0462711244820784,
                -1.411373911118226,
                -0.15669595567643735
            ]
        },
        {
            "positions": [
                1.1732274194595798,
                -1.2849943057831958,
                -0.9479838307214195,
                -0.9904622494158641,
                -1.3936435797973543,
                -0.22321991820997478
            ]
        },
        {
            "positions": [
                1.0205899072592393,
                -1.2890597723518742,
                -0.8508203613816547,
                -0.9346533743496499,
                -1.3759132484764827,
                -0.2897438807435121
            ]
        },
        {
            "positions": [
                0.8679523950588988,
                -1.2931252389205523,
                -0.75365689204189,
                -0.8788444992834357,
                -1.3581829171556112,
                -0.3562678432770495
            ]
        },
        {
            "positions": [
                0.7153148828585585,
                -1.2971907054892304,
                -0.6564934227021253,
                -0.8230356242172214,
                -1.3404525858347396,
                -0.42279180581058684
            ]
        },
        {
            "positions": [
                0.5626773706582178,
                -1.3012561720579088,
                -0.5593299533623606,
                -0.7672267491510072,
                -1.322722254513868,
                -0.4893157683441244
            ]
        },
        {
            "positions": [
                0.41003985845787705,
                -1.305321638626587,
                -0.46216648402259586,
                -0.711417874084793,
                -1.3049919231929963,
                -0.5558397308776617
            ]
        },
        {
            "positions": [
                0.2574023462575368,
                -1.309387105195265,
                -0.36500301468283114,
                -0.6556089990185787,
                -1.2872615918721246,
                -0.622363693411199
            ]
        },
        {
            "positions": [
                0.10476483405719605,
                -1.3134525717639431,
                -0.2678395453430664,
                -0.5998001239523645,
                -1.2695312605512532,
                -0.6888876559447364
            ]
        },
        {
            "positions": [
                -0.04787267814314422,
                -1.3175180383326213,
                -0.1706760760033017,
                -0.5439912488861502,
                -1.2518009292303816,
                -0.7554116184782739
            ]
        },
        {
            "positions": [
                -0.2005101903434845,
                -1.3215835049012996,
                -0.07351260666353698,
                -0.488182373819936,
                -1.23407059790951,
                -0.8219355810118113
            ]
        },
        {
            "positions": [
                -0.3531477025438252,
                -1.3256489714699777,
                0.023650862676227735,
                -0.4323734987537218,
                -1.2163402665886383,
                -0.8884595435453487
            ]
        },
        {
            "positions": [
                -0.5057852147441655,
                -1.3297144380386559,
                0.12081433201599223,
                -0.37656462368750754,
                -1.1986099352677666,
                -0.9549835060788859
            ]
        },
        {
            "positions": [
                -0.6584227269445062,
                -1.3337799046073342,
                0.21797780135575717,
                -0.3207557486212933,
                -1.1808796039468952,
                -1.0215074686124233
            ]
        },
        {
            "positions": [
                -0.8110602391448469,
                -1.3378453711760123,
                0.3151412706955221,
                -0.26494687355507907,
                -1.1631492726260235,
                -1.0880314311459607
            ]
        },
        {
            "positions": [
                -0.9636977513451872,
                -1.3419108377446904,
                0.41230474003528644,
                -0.20913799848886488,
                -1.1454189413051519,
                -1.154555393679498
            ]
        },
        {
            "positions": [
                -0.9164255819069447,
                -1.3329631563266169,
                0.4797919354072091,
                -0.23266629684578055,
                -1.0899417915064817,
                -0.9708991726722578
            ]
        },
        {
            "positions": [
                -0.869153412468702,
                -1.324015474908543,
                0.5472791307791318,
                -0.2561945952026962,
                -1.0344646417078116,
                -0.7872429516650175
            ]
        },
        {
            "positions": [
                -0.8218812430304595,
                -1.3150677934904695,
                0.6147663261510545,
                -0.2797228935596119,
                -0.9789874919091415,
                -0.6035867306577771
            ]
        },
        {
            "positions": [
                -0.7746090735922169,
                -1.306120112072396,
                0.6822535215229772,
                -0.3032511919165276,
                -0.9235103421104713,
                -0.4199305096505368
            ]
        },
        {
            "positions": [
                -0.7273369041539743,
                -1.2971724306543224,
                0.7497407168948999,
                -0.3267794902734433,
                -0.8680331923118012,
                -0.23627428864329647
            ]
        },
        {
            "positions": [
                -0.6800647347157318,
                -1.2882247492362486,
                0.8172279122668226,
                -0.35030778863035894,
                -0.8125560425131311,
                -0.05261806763605614
            ]
        },
        {
            "positions": [
                -0.6327925652774892,
                -1.279277067818175,
                0.8847151076387453,
                -0.37383608698727466,
                -0.7570788927144609,
                0.1310381533711844
            ]
        },
        {
            "positions": [
                -0.5855203958392465,
                -1.2703293864001015,
                0.9522023030106679,
                -0.3973643853441903,
                -0.7016017429157908,
                0.3146943743784245
            ]
        },
        {
            "positions": [
                -0.538248226401004,
                -1.261381704982028,
                1.0196894983825906,
                -0.420892683701106,
                -0.6461245931171207,
                0.49835059538566506
            ]
        },
        {
            "positions": [
                -0.4909760569627615,
                -1.2524340235639542,
                1.0871766937545133,
                -0.44442098205802166,
                -0.5906474433184505,
                0.6820068163929052
            ]
        },
        {
            "positions": [
                -0.44370388752451884,
                -1.2434863421458806,
                1.154663889126436,
                -0.4679492804149374,
                -0.5351702935197804,
                0.8656630374001457
            ]
        },
        {
            "positions": [
                -0.3964317180862763,
                -1.234538660727807,
                1.2221510844983587,
                -0.491477578771853,
                -0.47969314372111027,
                1.0493192584073858
            ]
        },
        {
            "positions": [
                -0.3491595486480338,
                -1.2255909793097335,
                1.2896382798702812,
                -0.5150058771287687,
                -0.42421599392244014,
                1.232975479414626
            ]
        },
        {
            "positions": [
                -0.30188737920979114,
                -1.2166432978916597,
                1.3571254752422042,
                -0.5385341754856844,
                -0.36873884412377,
                1.416631700421867
            ]
        },
        {
            "positions": [
                -0.2546152097715485,
                -1.2076956164735861,
                1.4246126706141267,
                -0.5620624738426001,
                -0.31326169432509987,
                1.600287921429107
            ]
        },
        {
            "positions": [
                -0.20734304033330597,
                -1.1987479350555126,
                1.4920998659860494,
                -0.5855907721995157,
                -0.25778454452642974,
                1.7839441424363471
            ]
        },
        {
            "positions": [
                -0.16007087089506344,
                -1.189800253637439,
                1.5595870613579719,
                -0.6091190705564313,
                -0.20230739472775972,
                1.9676003634435872
            ]
        },
        {
            "positions": [
                -0.1127987014568208,
                -1.1808525722193652,
                1.6270742567298948,
                -0.6326473689133472,
                -0.14683024492908947,
                2.1512565844508282
            ]
        },
        {
            "positions": [
                -0.06552653201857828,
                -1.1719048908012917,
                1.6945614521018175,
                -0.6561756672702628,
                -0.09135309513041934,
                2.3349128054580683
            ]
        },
        {
            "positions": [
                -0.018254362580335748,
                -1.1629572093832181,
                1.76204864747374,
                -0.6797039656271784,
                -0.035875945331749204,
                2.5185690264653084
            ]
        },
        {
            "positions": [
                0.02901780685790689,
                -1.1540095279651446,
                1.8295358428456627,
                -0.7032322639840941,
                0.01960120446692093,
                2.7022252474725486
            ]
        },
        {
            "positions": [
                0.07628997629614953,
                -1.1450618465470708,
                1.8970230382175854,
                -0.7267605623410098,
                0.07507835426559106,
                2.8858814684797895
            ]
        },
        {
            "positions": [
                0.12356214573439211,
                -1.1361141651289972,
                1.9645102335895082,
                -0.7502888606979256,
                0.1305555040642613,
                3.069537689487029
            ]
        }
    ]
}