{
    "goal": {
        "global_pose": {
            "orientation": {
                "w": -0.00223480608172531,
                "x": 0.0024358444001904467,
                "y": 0.7094548369677653,
                "z": -0.704743149386269
            },
            "position": {
                "x": -0.37947507619857795,
                "y": -0.6371506643295288,
                "z": 0.19426114857196808
            }
        },
        "name": "move_to_magneteinheit_C"
    },
    "id": "BiEST_move_to_magneteinheit_C_22",
    "joint_names": [
        "shoulder_pan_joint",
        "shoulder_lift_joint",
        "elbow_joint",
        "wrist_1_joint",
        "wrist_2_joint",
        "wrist_3_joint"
    ],
    "metrics": {
        "cart_traj_len": 2.9690894934361145,
        "distance_elbow_joint": 2.178326283585686,
        "distance_shoulder_lift_joint": 0.5769030744949863,
        "distance_shoulder_pan_joint": 2.9224198909858963,
        "distance_wrist_1_joint": 3.5630469477425,
        "distance_wrist_2_joint": 1.0336663928714351,
        "distance_wrist_3_joint": 8.162299135006915,
        "smoothness": 0.817381438325569,
        "time": 0.12691912300000002,
        "traj_len": 4.293793395668615,
        "weighted_distance": 6.27359333518799
    },
    "planner": "BiEST",
    "start": {
        "state": {
            "elbow_joint": 1.9565354010623817,
            "shoulder_lift_joint": -1.4165861575791021,
            "shoulder_pan_joint": -1.6717766225146293,
            "wrist_1_joint": -0.5286633292919765,
            "wrist_2_joint": 1.472756589071564,
            "wrist_3_joint": -3.1238370188695823
        }
    },
    "waypoints": [
        {
            "positions": [
                -1.6717766225146293,
                -1.4165861575791021,
                1.9565354010623817,
                -0.5286633292919765,
                1.472756589071564,
                -3.1238370188695823
            ]
        },
        {
            "positions": [
                -1.6433474655314275,
                -1.4224689319580879,
                1.9413989832547118,
                -0.5052972310428457,
                1.4635976366756946,
                -3.1256542582626023
            ]
        },
        {
            "positions": [
                -1.5419888386597786,
                -1.4429899397772359,
                1.856187644249406,
                -0.4361437734205167,
                1.4183559382388695,
                -3.054416281307633
            ]
        },
        {
            "positions": [
                -1.4406302117881298,
                -1.463510947596384,
                1.7709763052441003,
                -0.36699031579818764,
                1.3731142398020444,
                -2.983178304352664
            ]
        },
        {
            "positions": [
                -1.339271584916481,
                -1.484031955415532,
                1.6857649662387946,
                -0.29783685817585864,
                1.3278725413652195,
                -2.9119403273976947
            ]
        },
        {
            "positions": [
                -1.237912958044832,
                -1.5045529632346801,
                1.6005536272334888,
                -0.2286834005535296,
                1.2826308429283944,
                -2.8407023504427253
            ]
        },
        {
            "positions": [
                -1.1365543311731832,
                -1.5250739710538281,
                1.515342288228183,
                -0.15952994293120054,
                1.2373891444915692,
                -2.769464373487756
            ]
        },
        {
            "positions": [
                -1.0351957043015343,
                -1.5455949788729761,
                1.4301309492228773,
                -0.09037648530887155,
                1.192147446054744,
                -2.698226396532787
            ]
        },
        {
            "positions": [
                -0.9338370774298854,
                -1.5661159866921242,
                1.3449196102175716,
                -0.021223027686542523,
                1.146905747617919,
                -2.6269884195778177
            ]
        },
        {
            "positions": [
                -0.993727373896704,
                -1.5524891378150676,
                1.3277791450536982,
                -0.11848001806672845,
                1.132800095100083,
                -2.4481813900595313
            ]
        },
        {
            "positions": [
                -1.0536176703635225,
                -1.538862288938011,
                1.3106386798898249,
                -0.21573700844691437,
                1.118694442582247,
                -2.269374360541245
            ]
        },
        {
            "positions": [
                -1.1135079668303411,
                -1.5252354400609545,
                1.2934982147259517,
                -0.31299399882710033,
                1.1045887900644107,
                -2.0905673310229584
            ]
        },
        {
            "positions": [
                -1.1733982632971596,
                -1.5116085911838977,
                1.2763577495620784,
                -0.4102509892072862,
                1.0904831375465747,
                -1.9117603015046718
            ]
        },
        {
            "positions": [
                -1.2332885597639782,
                -1.4979817423068411,
                1.259217284398205,
                -0.5075079795874722,
                1.0763774850287386,
                -1.7329532719863854
            ]
        },
        {
            "positions": [
                -1.2931788562307966,
                -1.4843548934297845,
                1.2420768192343319,
                -0.604764969967658,
                1.0622718325109026,
                -1.554146242468099
            ]
        },
        {
            "positions": [
                -1.3530691526976153,
                -1.470728044552728,
                1.2249363540704585,
                -0.7020219603478439,
                1.0481661799930664,
                -1.3753392129498125
            ]
        },
        {
            "positions": [
                -1.412959449164434,
                -1.4571011956756714,
                1.2077958889065852,
                -0.7992789507280299,
                1.0340605274752304,
                -1.196532183431526
            ]
        },
        {
            "positions": [
                -1.4728497456312524,
                -1.4434743467986149,
                1.1906554237427118,
                -0.8965359411082159,
                1.0199548749573943,
                -1.0177251539132395
            ]
        },
        {
            "positions": [
                -1.5327400420980708,
                -1.4298474979215583,
                1.1735149585788385,
                -0.9937929314884018,
                1.0058492224395583,
                -0.8389181243949531
            ]
        },
        {
            "positions": [
                -1.5926303385648897,
                -1.4162206490445015,
                1.1563744934149653,
                -1.0910499218685878,
                0.9917435699217222,
                -0.6601110948766664
            ]
        },
        {
            "positions": [
                -1.652520635031708,
                -1.402593800167445,
                1.139234028251092,
                -1.1883069122487737,
                0.9776379174038862,
                -0.4813040653583802
            ]
        },
        {
            "positions": [
                -1.7124109314985265,
                -1.3889669512903884,
                1.1220935630872186,
                -1.2855639026289596,
                0.96353226488605,
                -0.3024970358400938
            ]
        },
        {
            "positions": [
                -1.772301227965345,
                -1.3753401024133318,
                1.1049530979233455,
                -1.3828208930091455,
                0.949426612368214,
                -0.12369000632180738
            ]
        },
        {
            "positions": [
                -1.8321915244321636,
                -1.3617132535362753,
                1.0878126327594722,
                -1.4800778833893316,
                0.9353209598503779,
                0.05511702319647949
            ]
        },
        {
            "positions": [
                -1.8920818208989822,
                -1.3480864046592185,
                1.0706721675955988,
                -1.5773348737695174,
                0.9212153073325419,
                0.2339240527147659
            ]
        },
        {
            "positions": [
                -1.9519721173658007,
                -1.334459555782162,
                1.0535317024317254,
                -1.6745918641497033,
                0.9071096548147057,
                0.4127310822330523
            ]
        },
        {
            "positions": [
                -2.0118624138326195,
                -1.3208327069051053,
                1.036391237267852,
                -1.7718488545298894,
                0.8930040022968697,
                0.5915381117513387
            ]
        },
        {
            "positions": [
                -2.071752710299438,
                -1.3072058580280488,
                1.019250772103979,
                -1.869105844910075,
                0.8788983497790337,
                0.7703451412696252
            ]
        },
        {
            "positions": [
                -2.1316430067662564,
                -1.2935790091509922,
                1.0021103069401056,
                -1.9663628352902611,
                0.8647926972611976,
                0.9491521707879116
            ]
        },
        {
            "positions": [
                -2.175950225388834,
                -1.294391698768016,
                1.0766631701448162,
                -1.9428562761479677,
                0.8442190233538571,
                0.7325645296699111
            ]
        },
        {
            "positions": [
                -2.2202574440114113,
                -1.2952043883850397,
                1.1512160333495267,
                -1.9193497170056744,
                0.8236453494465167,
                0.5159768885519107
            ]
        },
        {
            "positions": [
                -2.264564662633989,
                -1.2960170780020634,
                1.2257688965542373,
                -1.895843157863381,
                0.8030716755391762,
                0.2993892474339104
            ]
        },
        {
            "positions": [
                -2.3088718812565667,
                -1.2968297676190872,
                1.3003217597589478,
                -1.8723365987210876,
                0.7824980016318358,
                0.08280160631590994
            ]
        },
        {
            "positions": [
                -2.3531790998791444,
                -1.297642457236111,
                1.3748746229636581,
                -1.8488300395787942,
                0.7619243277244954,
                -0.13378603480209028
            ]
        },
        {
            "positions": [
                -2.3974863185017217,
                -1.2984551468531347,
                1.449427486168369,
                -1.8253234804365008,
                0.7413506538171549,
                -0.35037367592009083
            ]
        },
        {
            "positions": [
                -2.4417935371242994,
                -1.2992678364701584,
                1.5239803493730792,
                -1.8018169212942072,
                0.7207769799098145,
                -0.5669613170380912
            ]
        },
        {
            "positions": [
                -2.486100755746877,
                -1.3000805260871822,
                1.5985332125777898,
                -1.778310362151914,
                0.7002033060024742,
                -0.7835489581560917
            ]
        },
        {
            "positions": [
                -2.5304079743694547,
                -1.300893215704206,
                1.6730860757825003,
                -1.7548038030096205,
                0.6796296320951337,
                -1.000136599274092
            ]
        },
        {
            "positions": [
                -2.574715192992032,
                -1.3017059053212297,
                1.747638938987211,
                -1.731297243867327,
                0.6590559581877933,
                -1.2167242403920921
            ]
        },
        {
            "positions": [
                -2.6190224116146097,
                -1.3025185949382534,
                1.8221918021919215,
                -1.7077906847250337,
                0.6384822842804528,
                -1.4333118815100927
            ]
        },
        {
            "positions": [
                -2.6633296302371874,
                -1.3033312845552771,
                1.896744665396632,
                -1.6842841255827403,
                0.6179086103731124,
                -1.6498995226280933
            ]
        },
        {
            "positions": [
                -2.7076368488597646,
                -1.3041439741723009,
                1.9712975286013426,
                -1.660777566440447,
                0.597334936465772,
                -1.8664871637460938
            ]
        },
        {
            "positions": [
                -2.7519440674823423,
                -1.3049566637893246,
                2.045850391806053,
                -1.6372710072981536,
                0.5767612625584315,
                -2.083074804864094
            ]
        },
        {
            "positions": [
                -2.79625128610492,
                -1.3057693534063484,
                2.1204032550107637,
                -1.6137644481558602,
                0.5561875886510911,
                -2.2996624459820945
            ]
        },
        {
            "positions": [
                -2.742573596567234,
                -1.281995032808769,
                2.102801881445305,
                -1.4874530395893695,
                0.5757038207262515,
                -2.4391392542809904
            ]
        },
        {
            "positions": [
                -2.6888959070295475,
                -1.2582207122111897,
                2.0852005078798466,
                -1.3611416310228788,
                0.5952200528014119,
                -2.5786160625798864
            ]
        },
        {
            "positions": [
                -2.635218217491861,
                -1.2344463916136101,
                2.0675991343143876,
                -1.234830222456388,
                0.6147362848765723,
                -2.7180928708787824
            ]
        },
        {
            "positions": [
                -2.581540527954175,
                -1.2106720710160308,
                2.049997760748929,
                -1.1085188138898974,
                0.6342525169517326,
                -2.8575696791776783
            ]
        },
        {
            "positions": [
                -2.527862838416489,
                -1.1868977504184515,
                2.0323963871834705,
                -0.9822074053234064,
                0.653768749026893,
                -2.9970464874765743
            ]
        },
        {
            "positions": [
                -2.4741851488788025,
                -1.1631234298208721,
                2.014795013618012,
                -0.8558959967569157,
                0.6732849811020534,
                -3.1365232957754703
            ]
        }
    ]
}