{
    "goal": {
        "global_pose": {
            "orientation": {
                "w": 0.5084816262002911,
                "x": -0.4908360881923452,
                "y": 0.5182115481033761,
                "z": -0.48164630358495003
            },
            "position": {
                "x": 0.5540239810943604,
                "y": -0.46912469901144505,
                "z": 0.16403168439865112
            }
        },
        "name": "move_to_storage_B"
    },
    "id": "BiEST_move_to_storage_B_131",
    "joint_names": [
        "shoulder_pan_joint",
        "shoulder_lift_joint",
        "elbow_joint",
        "wrist_1_joint",
        "wrist_2_joint",
        "wrist_3_joint"
    ],
    "metrics": {
        "cart_traj_len": 2.0735264970711906,
        "distance_elbow_joint": 2.1286960071567202,
        "distance_shoulder_lift_joint": 0.45942701631458616,
        "distance_shoulder_pan_joint": 1.9616919882283808,
        "distance_wrist_1_joint": 3.212992255921681,
        "distance_wrist_2_joint": 2.7135853305727453,
        "distance_wrist_3_joint": 3.3312541501820694,
        "smoothness": 0.2683701362070598,
        "time": 0.08406531,
        "traj_len": 3.7158641993991366,
        "weighted_distance": 5.137775066625119
    },
    "planner": "BiEST",
    "start": {
        "state": {
            "elbow_joint": 1.664937868594044,
            "shoulder_lift_joint": -0.661644460510453,
            "shoulder_pan_joint": -0.9139846352900073,
            "wrist_1_joint": 2.146753192139373,
            "wrist_2_joint": -2.2341966793290973,
            "wrist_3_joint": 0.005466555786416001
        }
    },
    "waypoints": [
        {
            "positions": [
                -0.9139846352900073,
                -0.661644460510453,
                1.664937868594044,
                2.146753192139373,
                -2.2341966793290973,
                0.005466555786416001
            ]
        },
        {
            "positions": [
                -0.7867289034503429,
                -0.6775409347318959,
                1.5378760518869368,
                2.162952236313834,
                -2.176340241154085,
                -0.008611258761027512
            ]
        },
        {
            "positions": [
                -0.6594731716106785,
                -0.6934374089533389,
                1.4108142351798298,
                2.1791512804882953,
                -2.1184838029790725,
                -0.022689073308471024
            ]
        },
        {
            "positions": [
                -0.532217439771014,
                -0.7093338831747819,
                1.2837524184727227,
                2.195350324662756,
                -2.06062736480406,
                -0.03676688785591454
            ]
        },
        {
            "positions": [
                -0.40496170793134967,
                -0.7252303573962249,
                1.1566906017656158,
                2.211549368837217,
                -2.0027709266290477,
                -0.05084470240335805
            ]
        },
        {
            "positions": [
                -0.27770597609168524,
                -0.7411268316176678,
                1.0296287850585086,
                2.227748413011678,
                -1.944914488454035,
                -0.06492251695080156
            ]
        },
        {
            "positions": [
                -0.1504502442520208,
                -0.7570233058391107,
                0.9025669683514016,
                2.243947457186139,
                -1.8870580502790226,
                -0.07900033149824508
            ]
        },
        {
            "positions": [
                -0.023194512412356372,
                -0.7729197800605537,
                0.7755051516442945,
                2.2601465013606,
                -1.8292016121040102,
                -0.09307814604568859
            ]
        },
        {
            "positions": [
                -0.060122162941691884,
                -0.784925010983467,
                0.8182383685479832,
                2.1532637790605844,
                -1.7495950512989185,
                0.018394593552586047
            ]
        },
        {
            "positions": [
                -0.0970498134710274,
                -0.7969302419063803,
                0.8609715854516717,
                2.0463810567605685,
                -1.669988490493827,
                0.1298673331508607
            ]
        },
        {
            "positions": [
                -0.13397746400036292,
                -0.8089354728292936,
                0.9037048023553604,
                1.939498334460553,
                -1.5903819296887352,
                0.24134007274913533
            ]
        },
        {
            "positions": [
                -0.17090511452969842,
                -0.8209407037522068,
                0.9464380192590491,
                1.8326156121605373,
                -1.5107753688836436,
                0.35281281234740997
            ]
        },
        {
            "positions": [
                -0.20783276505903395,
                -0.8329459346751202,
                0.9891712361627378,
                1.7257328898605215,
                -1.4311688080785518,
                0.4642855519456846
            ]
        },
        {
            "positions": [
                -0.24476041558836945,
                -0.8449511655980335,
                1.0319044530664265,
                1.618850167560506,
                -1.3515622472734603,
                0.5757582915439592
            ]
        },
        {
            "positions": [
                -0.28168806611770497,
                -0.8569563965209468,
                1.074637669970115,
                1.51196744526049,
                -1.2719556864683685,
                0.6872310311422338
            ]
        },
        {
            "positions": [
                -0.31861571664704047,
                -0.8689616274438601,
                1.1173708868738037,
                1.4050847229604746,
                -1.1923491256632768,
                0.7987037707405085
            ]
        },
        {
            "positions": [
                -0.35554336717637597,
                -0.8809668583667734,
                1.1601041037774924,
                1.2982020006604589,
                -1.112742564858185,
                0.9101765103387831
            ]
        },
        {
            "positions": [
                -0.3924710177057115,
                -0.8929720892896866,
                1.202837320681181,
                1.1913192783604432,
                -1.0331360040530935,
                1.0216492499370577
            ]
        },
        {
            "positions": [
                -0.42939866823504697,
                -0.9049773202125999,
                1.2455705375848698,
                1.0844365560604277,
                -0.9535294432480019,
                1.1331219895353324
            ]
        },
        {
            "positions": [
                -0.4663263187643825,
                -0.9169825511355132,
                1.2883037544885583,
                0.9775538337604119,
                -0.8739228824429102,
                1.244594729133607
            ]
        },
        {
            "positions": [
                -0.503253969293718,
                -0.9289877820584265,
                1.3310369713922472,
                0.8706711114603962,
                -0.7943163216378184,
                1.3560674687318817
            ]
        },
        {
            "positions": [
                -0.5401816198230536,
                -0.9409930129813397,
                1.3737701882959357,
                0.7637883891603805,
                -0.7147097608327269,
                1.4675402083301563
            ]
        },
        {
            "positions": [
                -0.5771092703523891,
                -0.9529982439042531,
                1.4165034051996244,
                0.6569056668603648,
                -0.6351032000276351,
                1.5790129479284312
            ]
        },
        {
            "positions": [
                -0.6140369208817246,
                -0.9650034748271664,
                1.459236622103313,
                0.5500229445603493,
                -0.5554966392225436,
                1.6904856875267056
            ]
        },
        {
            "positions": [
                -0.65096457141106,
                -0.9770087057500796,
                1.5019698390070015,
                0.4431402222603338,
                -0.475890078417452,
                1.80195842712498
            ]
        },
        {
            "positions": [
                -0.6878922219403956,
                -0.989013936672993,
                1.5447030559106905,
                0.33625749996031784,
                -0.39628351761236,
                1.9134311667232549
            ]
        },
        {
            "positions": [
                -0.7248198724697311,
                -1.0010191675959064,
                1.587436272814379,
                0.22937477766030234,
                -0.3166769568072685,
                2.0249039063215295
            ]
        },
        {
            "positions": [
                -0.7617475229990667,
                -1.0130243985188196,
                1.6301694897180679,
                0.1224920553602864,
                -0.23707039600217672,
                2.136376645919804
            ]
        },
        {
            "positions": [
                -0.7986751735284021,
                -1.025029629441733,
                1.6729027066217563,
                0.015609333060270902,
                -0.15746383519708518,
                2.247849385518079
            ]
        },
        {
            "positions": [
                -0.8356028240577376,
                -1.037034860364646,
                1.7156359235254448,
                -0.0912733892397446,
                -0.07785727439199364,
                2.3593221251163534
            ]
        },
        {
            "positions": [
                -0.8725304745870732,
                -1.0490400912875595,
                1.7583691404291337,
                -0.19815611153976054,
                0.0017492864130983499,
                2.470794864714628
            ]
        },
        {
            "positions": [
                -0.9094581251164087,
                -1.0610453222104728,
                1.8011023573328222,
                -0.30503883383977604,
                0.08135584721818989,
                2.5822676043129027
            ]
        },
        {
            "positions": [
                -0.9463857756457441,
                -1.073050553133386,
                1.8438355742365107,
                -0.41192155613979153,
                0.16096240802328143,
                2.6937403439111773
            ]
        },
        {
            "positions": [
                -0.9833134261750797,
                -1.0850557840562993,
                1.8865687911401996,
                -0.5188042784398075,
                0.24056896882837342,
                2.805213083509452
            ]
        },
        {
            "positions": [
                -1.0202410767044152,
                -1.0970610149792126,
                1.929302008043888,
                -0.625687000739823,
                0.32017552963346474,
                2.9166858231077266
            ]
        },
        {
            "positions": [
                -1.0571687272337509,
                -1.1090662459021259,
                1.972035224947577,
                -0.7325697230398389,
                0.3997820904385565,
                3.0281585627060013
            ]
        },
        {
            "positions": [
                -1.0940963777630863,
                -1.1210714768250392,
                2.0147684418512655,
                -0.8394524453398545,
                0.4793886512436481,
                3.139631302304276
            ]
        }
    ]
}