{
    "goal": {
        "global_pose": {
            "orientation": {
                "w": -0.00223480608172531,
                "x": 0.0024358444001904467,
                "y": 0.7094548369677653,
                "z": -0.704743149386269
            },
            "position": {
                "x": 0.6205249238014221,
                "y": -0.6371506643295288,
                "z": 0.19426114857196808
            }
        },
        "name": "move_to_magneteinheit_B"
    },
    "id": "BiEST_move_to_magneteinheit_B_49",
    "joint_names": [
        "shoulder_pan_joint",
        "shoulder_lift_joint",
        "elbow_joint",
        "wrist_1_joint",
        "wrist_2_joint",
        "wrist_3_joint"
    ],
    "metrics": {
        "cart_traj_len": 3.631270144123488,
        "distance_elbow_joint": 4.276620948543737,
        "distance_shoulder_lift_joint": 0.8827076758555168,
        "distance_shoulder_pan_joint": 2.644815228698096,
        "distance_wrist_1_joint": 5.093615754269873,
        "distance_wrist_2_joint": 5.5862027095658116,
        "distance_wrist_3_joint": 4.158477797424652,
        "smoothness": 0.23291952425163817,
        "time": 0.692979063,
        "traj_len": 4.758407308581065,
        "weighted_distance": 6.4528454322913005
    },
    "planner": "BiEST",
    "start": {
        "state": {
            "elbow_joint": 2.6216224122426386,
            "shoulder_lift_joint": -1.4174107377796124,
            "shoulder_pan_joint": 0.7066234856936794,
            "wrist_1_joint": 1.9546482284002225,
            "wrist_2_joint": -0.7096286983471962,
            "wrist_3_joint": 0.005740856962016249
        }
    },
    "waypoints": [
        {
            "positions": [
                0.7066234856936794,
                -1.4174107377796124,
                2.6216224122426386,
                1.9546482284002225,
                -0.7096286983471962,
                0.005740856962016249
            ]
        },
        {
            "positions": [
                0.649040474384755,
                -1.5016564860210664,
                2.5963613287430065,
                1.9987534945492231,
                -0.6041286051598218,
                0.07381415625502277
            ]
        },
        {
            "positions": [
                0.5914574630758305,
                -1.5859022342625202,
                2.5711002452433744,
                2.042858760698224,
                -0.49862851197244745,
                0.1418874555480293
            ]
        },
        {
            "positions": [
                0.5338744517669061,
                -1.6701479825039742,
                2.5458391617437424,
                2.086964026847224,
                -0.39312841878507304,
                0.20996075484103585
            ]
        },
        {
            "positions": [
                0.47629144045798166,
                -1.754393730745428,
                2.5205780782441103,
                2.1310692929962247,
                -0.2876283255976987,
                0.27803405413404236
            ]
        },
        {
            "positions": [
                0.4187084291490572,
                -1.8386394789868823,
                2.495316994744478,
                2.1751745591452254,
                -0.18212823241032428,
                0.3461073534270489
            ]
        },
        {
            "positions": [
                0.3611254178401328,
                -1.922885227228336,
                2.470055911244846,
                2.219279825294226,
                -0.07662813922294989,
                0.41418065272005544
            ]
        },
        {
            "positions": [
                0.4144029864382432,
                -1.9317756194645428,
                2.369424645722478,
                2.070465919018534,
                -0.003015988066857697,
                0.41727865368864453
            ]
        },
        {
            "positions": [
                0.46768055503635353,
                -1.9406660117007493,
                2.26879338020011,
                1.9216520127428427,
                0.0705961630892345,
                0.4203766546572337
            ]
        },
        {
            "positions": [
                0.5209581236344639,
                -1.949556403936956,
                2.1681621146777417,
                1.7728381064671508,
                0.14420831424532668,
                0.42347465562582276
            ]
        },
        {
            "positions": [
                0.5742356922325743,
                -1.9584467961731624,
                2.0675308491553737,
                1.624024200191459,
                0.2178204654014189,
                0.4265726565944119
            ]
        },
        {
            "positions": [
                0.6275132608306846,
                -1.967337188409369,
                1.9668995836330057,
                1.4752102939157674,
                0.29143261655751107,
                0.429670657563001
            ]
        },
        {
            "positions": [
                0.680790829428795,
                -1.9762275806455758,
                1.8662683181106376,
                1.3263963876400755,
                0.3650447677136033,
                0.43276865853159013
            ]
        },
        {
            "positions": [
                0.7340683980269054,
                -1.9851179728817823,
                1.7656370525882696,
                1.1775824813643838,
                0.4386569188696955,
                0.4358666595001792
            ]
        },
        {
            "positions": [
                0.7873459666250158,
                -1.994008365117989,
                1.6650057870659014,
                1.0287685750886921,
                0.5122690700257877,
                0.43896466046876836
            ]
        },
        {
            "positions": [
                0.8406235352231262,
                -2.0028987573541954,
                1.5643745215435332,
                0.8799546688130002,
                0.5858812211818799,
                0.44206266143735745
            ]
        },
        {
            "positions": [
                0.8939011038212366,
                -2.011789149590402,
                1.4637432560211652,
                0.7311407625373085,
                0.659493372337972,
                0.4451606624059466
            ]
        },
        {
            "positions": [
                0.947178672419347,
                -2.020679541826609,
                1.363111990498797,
                0.5823268562616166,
                0.7331055234940643,
                0.4482586633745357
            ]
        },
        {
            "positions": [
                1.0004562410174573,
                -2.0295699340628155,
                1.2624807249764292,
                0.43351294998592516,
                0.8067176746501564,
                0.4513566643431248
            ]
        },
        {
            "positions": [
                1.0537338096155677,
                -2.038460326299022,
                1.161849459454061,
                0.28469904371023325,
                0.8803298258062486,
                0.4544546653117139
            ]
        },
        {
            "positions": [
                1.107011378213678,
                -2.0473507185352284,
                1.061218193931693,
                0.13588513743454156,
                0.9539419769623408,
                0.45755266628030306
            ]
        },
        {
            "positions": [
                1.1602889468117883,
                -2.056241110771435,
                0.9605869284093247,
                -0.012928768841150351,
                1.0275541281184328,
                0.46065066724889214
            ]
        },
        {
            "positions": [
                1.2135665154098987,
                -2.065131503007642,
                0.8599556628869567,
                -0.16174267511684182,
                1.1011662792745252,
                0.4637486682174813
            ]
        },
        {
            "positions": [
                1.266844084008009,
                -2.0740218952438485,
                0.7593243973645887,
                -0.3105565813925337,
                1.1747784304306172,
                0.4668466691860704
            ]
        },
        {
            "positions": [
                1.3201216526061195,
                -2.082912287480055,
                0.6586931318422202,
                -0.45937048766822564,
                1.2483905815867096,
                0.4699446701546595
            ]
        },
        {
            "positions": [
                1.3733992212042299,
                -2.0918026797162614,
                0.5580618663198522,
                -0.6081843939439171,
                1.3220027327428017,
                0.4730426711232486
            ]
        },
        {
            "positions": [
                1.4266767898023403,
                -2.100693071952468,
                0.4574306007974842,
                -0.756998300219609,
                1.3956148838988938,
                0.47614067209183775
            ]
        },
        {
            "positions": [
                1.4799543584004506,
                -2.109583464188675,
                0.3567993352751162,
                -0.9058122064953005,
                1.4692270350549859,
                0.47923867306042683
            ]
        },
        {
            "positions": [
                1.533231926998561,
                -2.1184738564248815,
                0.25616806975274775,
                -1.0546261127709928,
                1.5428391862110784,
                0.482336674029016
            ]
        },
        {
            "positions": [
                1.5865094955966714,
                -2.127364248661088,
                0.15553680423037974,
                -1.2034400190466843,
                1.6164513373671705,
                0.48543467499760506
            ]
        },
        {
            "positions": [
                1.6397870641947818,
                -2.1362546408972944,
                0.05490553870801218,
                -1.3522539253223758,
                1.6900634885232626,
                0.4885326759661942
            ]
        },
        {
            "positions": [
                1.693064632792892,
                -2.145145033133501,
                -0.04572572681435583,
                -1.5010678315980677,
                1.7636756396793547,
                0.4916306769347833
            ]
        },
        {
            "positions": [
                1.7463422013910026,
                -2.154035425369708,
                -0.14635699233672428,
                -1.6498817378737596,
                1.837287790835447,
                0.49472867790337244
            ]
        },
        {
            "positions": [
                1.7996197699891128,
                -2.1629258176059145,
                -0.24698825785909229,
                -1.7986956441494515,
                1.9108999419915391,
                0.4978266788719615
            ]
        },
        {
            "positions": [
                1.8528973385872232,
                -2.171816209842121,
                -0.3476195233814603,
                -1.947509550425143,
                1.9845120931476314,
                0.5009246798405507
            ]
        },
        {
            "positions": [
                1.9061749071853336,
                -2.1807066020783274,
                -0.4482507889038283,
                -2.0963234567008344,
                2.0581242443037233,
                0.5040226808091397
            ]
        },
        {
            "positions": [
                1.959452475783444,
                -2.189596994314534,
                -0.5488820544261968,
                -2.2451373629765268,
                2.1317363954598156,
                0.5071206817777288
            ]
        },
        {
            "positions": [
                2.0127300443815543,
                -2.198487386550741,
                -0.6495133199485648,
                -2.393951269252218,
                2.205348546615908,
                0.510218682746318
            ]
        },
        {
            "positions": [
                2.031122064034424,
                -2.189088191222448,
                -0.746824447813522,
                -2.378096302860956,
                2.1813822677148833,
                0.3454168571116141
            ]
        },
        {
            "positions": [
                2.049514083687293,
                -2.179688995894155,
                -0.8441355756784793,
                -2.362241336469695,
                2.1574159888138587,
                0.18061503147691021
            ]
        },
        {
            "positions": [
                2.0679061033401624,
                -2.1702898005658624,
                -0.9414467035434366,
                -2.346386370078433,
                2.133449709912834,
                0.015813205842206357
            ]
        },
        {
            "positions": [
                2.086298122993032,
                -2.1608906052375696,
                -1.0387578314083938,
                -2.3305314036871714,
                2.1094834310118094,
                -0.14898861979249756
            ]
        },
        {
            "positions": [
                2.1124462041926835,
                -2.1560071476125353,
                -1.1127336695563925,
                -2.3248926926879463,
                2.0264615147907836,
                -0.32599889852452685
            ]
        },
        {
            "positions": [
                2.138594285392335,
                -2.151123689987501,
                -1.1867095077043914,
                -2.3192539816887208,
                1.9434395985697575,
                -0.5030091772565561
            ]
        },
        {
            "positions": [
                2.164742366591987,
                -2.1462402323624667,
                -1.2606853458523901,
                -2.3136152706894952,
                1.8604176823487315,
                -0.6800194559885854
            ]
        },
        {
            "positions": [
                2.1908904477916384,
                -2.1413567747374325,
                -1.3346611840003888,
                -2.30797655969027,
                1.7773957661277056,
                -0.8570297347206147
            ]
        },
        {
            "positions": [
                2.2243089461561243,
                -2.144281814459091,
                -1.3592462078217462,
                -2.317015983188643,
                1.6190432546816673,
                -1.0214048427930749
            ]
        },
        {
            "positions": [
                2.2577274445206106,
                -2.1472068541807494,
                -1.3838312316431036,
                -2.3260554066870163,
                1.460690743235629,
                -1.1857799508655351
            ]
        },
        {
            "positions": [
                2.2911459428850964,
                -2.150131893902408,
                -1.408416255464461,
                -2.335094830185389,
                1.3023382317895908,
                -1.3501550589379954
            ]
        },
        {
            "positions": [
                2.3245644412495823,
                -2.153056933624067,
                -1.4330012792858187,
                -2.3441342536837624,
                1.1439857203435526,
                -1.5145301670104554
            ]
        },
        {
            "positions": [
                2.3579829396140686,
                -2.155981973345725,
                -1.457586303107176,
                -2.353173677182135,
                0.9856332088975145,
                -1.6789052750829156
            ]
        },
        {
            "positions": [
                2.3914014379785544,
                -2.1589070130673838,
                -1.4821713269285335,
                -2.362213100680508,
                0.8272806974514763,
                -1.843280383155376
            ]
        },
        {
            "positions": [
                2.4248199363430403,
                -2.1618320527890424,
                -1.506756350749891,
                -2.3712525241788813,
                0.6689281860054381,
                -2.007655491227836
            ]
        },
        {
            "positions": [
                2.4582384347075266,
                -2.164757092510701,
                -1.5313413745712483,
                -2.380291947677254,
                0.5105756745593999,
                -2.172030599300296
            ]
        },
        {
            "positions": [
                2.4916569330720124,
                -2.1676821322323594,
                -1.5559263983926057,
                -2.389331371175627,
                0.3522231631133619,
                -2.336405707372756
            ]
        },
        {
            "positions": [
                2.5250754314364983,
                -2.170607171954018,
                -1.5805114222139633,
                -2.3983707946740003,
                0.19387065166732342,
                -2.5007808154452165
            ]
        },
        {
            "positions": [
                2.558493929800984,
                -2.173532211675677,
                -1.6050964460353208,
                -2.407410218172373,
                0.03551814022128541,
                -2.6651559235176765
            ]
        },
        {
            "positions": [
                2.5919124281654704,
                -2.176457251397335,
                -1.6296814698566782,
                -2.4164496416707464,
                -0.12283437122475305,
                -2.829531031590137
            ]
        },
        {
            "positions": [
                2.6253309265299563,
                -2.1793822911189937,
                -1.6542664936780356,
                -2.425489065169119,
                -0.28118688267079106,
                -2.993906139662597
            ]
        },
        {
            "positions": [
                2.660442578684682,
                -2.1858571900085124,
                -1.6535344510549717,
                -2.437754912957751,
                -0.4658769179867999,
                -3.1437812888940324
            ]
        }
    ]
}