{
    "goal": {
        "global_pose": {
            "orientation": {
                "w": -0.4816463035849501,
                "x": 0.5182115481033762,
                "y": 0.4908360881923453,
                "z": -0.5084816262002911
            },
            "position": {
                "x": -0.8240239810943604,
                "y": -0.300875300988555,
                "z": 0.16403168439865112
            }
        },
        "name": "move_to_storage_C"
    },
    "id": "BiEST_move_to_storage_C_110",
    "joint_names": [
        "shoulder_pan_joint",
        "shoulder_lift_joint",
        "elbow_joint",
        "wrist_1_joint",
        "wrist_2_joint",
        "wrist_3_joint"
    ],
    "metrics": {
        "cart_traj_len": 0.5762703735219425,
        "distance_elbow_joint": 0.25645592564475894,
        "distance_shoulder_lift_joint": 0.1894786998498087,
        "distance_shoulder_pan_joint": 0.4945703241466157,
        "distance_wrist_1_joint": 0.07065648440652861,
        "distance_wrist_2_joint": 1.0640111435477628,
        "distance_wrist_3_joint": 0.06831456304284789,
        "smoothness": 5.075305295617109e-16,
        "time": 0.04111508,
        "traj_len": 1.464065278817281,
        "weighted_distance": 1.8479133893876925
    },
    "planner": "BiEST",
    "start": {
        "state": {
            "elbow_joint": 2.010868314990456,
            "shoulder_lift_joint": -1.1634956873337592,
            "shoulder_pan_joint": -2.4736205022346125,
            "wrist_1_joint": -0.8367026794202681,
            "wrist_2_joint": 0.6746043897044499,
            "wrist_3_joint": -3.1496632123970403
        }
    },
    "waypoints": [
        {
            "positions": [
                -2.4736205022346125,
                -1.1634956873337592,
                2.010868314990456,
                -0.8367026794202681,
                0.6746043897044499,
                -3.1496632123970403
            ]
        },
        {
            "positions": [
                -2.5560488895923816,
                -1.1319159040254578,
                1.9681256607163293,
                -0.8249265986858467,
                0.8519395802957437,
                -3.138277451889899
            ]
        },
        {
            "positions": [
                -2.638477276950151,
                -1.1003361207171563,
                1.9253830064422028,
                -0.8131505179514252,
                1.0292747708870376,
                -3.126891691382758
            ]
        },
        {
            "positions": [
                -2.7209056643079204,
                -1.068756337408855,
                1.8826403521680763,
                -0.8013744372170037,
                1.2066099614783314,
                -3.1155059308756163
            ]
        },
        {
            "positions": [
                -2.8033340516656895,
                -1.0371765541005533,
                1.8398976978939499,
                -0.7895983564825824,
                1.383945152069625,
                -3.104120170368475
            ]
        },
        {
            "positions": [
                -2.885762439023459,
                -1.005596770792252,
                1.7971550436198234,
                -0.777822275748161,
                1.561280342660919,
                -3.092734409861334
            ]
        },
        {
            "positions": [
                -2.968190826381228,
                -0.9740169874839505,
                1.7544123893456969,
                -0.7660461950137395,
                1.7386155332522129,
                -3.0813486493541924
            ]
        }
    ]
}