{
    "goal": {
        "global_pose": {
            "orientation": {
                "w": -0.4816463035849501,
                "x": 0.5182115481033762,
                "y": 0.4908360881923453,
                "z": -0.5084816262002911
            },
            "position": {
                "x": -0.8240239810943604,
                "y": 0.19912469901144506,
                "z": 0.16403168439865112
            }
        },
        "name": "move_to_storage_D"
    },
    "id": "BiEST_move_to_storage_D_115",
    "joint_names": [
        "shoulder_pan_joint",
        "shoulder_lift_joint",
        "elbow_joint",
        "wrist_1_joint",
        "wrist_2_joint",
        "wrist_3_joint"
    ],
    "metrics": {
        "cart_traj_len": 4.341006384809262,
        "distance_elbow_joint": 4.213548260178985,
        "distance_shoulder_lift_joint": 1.2639259927236144,
        "distance_shoulder_pan_joint": 2.814938653832746,
        "distance_wrist_1_joint": 2.2767793256169293,
        "distance_wrist_2_joint": 0.8852580946884149,
        "distance_wrist_3_joint": 4.243609902681797,
        "smoothness": 0.06999374273498042,
        "time": 0.090603409,
        "traj_len": 3.962077766743415,
        "weighted_distance": 5.2294662686923825
    },
    "planner": "BiEST",
    "start": {
        "state": {
            "elbow_joint": -2.384821988534728,
            "shoulder_lift_joint": -2.2788054721415256,
            "shoulder_pan_joint": -0.1854694642142757,
            "wrist_1_joint": 1.4845938289331202,
            "wrist_2_joint": 0.17898776772866878,
            "wrist_3_joint": 0.037105688729662994
        }
    },
    "waypoints": [
        {
            "positions": [
                -0.1854694642142757,
                -2.2788054721415256,
                -2.384821988534728,
                1.4845938289331202,
                0.17898776772866878,
                0.037105688729662994
            ]
        },
        {
            "positions": [
                -0.08653183322130081,
                -2.261216605402375,
                -2.2630798030974852,
                1.4202194177400451,
                0.22793681954306746,
                0.07179784971183593
            ]
        },
        {
            "positions": [
                0.012405797771674082,
                -2.243627738663224,
                -2.1413376176602426,
                1.35584500654697,
                0.2768858713574662,
                0.10649001069400887
            ]
        },
        {
            "positions": [
                0.11134342876464895,
                -2.2260388719240733,
                -2.019595432223,
                1.291470595353895,
                0.32583492317186485,
                0.1411821716761818
            ]
        },
        {
            "positions": [
                0.21028105975762387,
                -2.2084500051849223,
                -1.897853246785757,
                1.22709618416082,
                0.37478397498626354,
                0.17587433265835475
            ]
        },
        {
            "positions": [
                0.3092186907505988,
                -2.1908611384457717,
                -1.7761110613485143,
                1.1627217729677448,
                0.4237330268006622,
                0.21056649364052768
            ]
        },
        {
            "positions": [
                0.40815632174357364,
                -2.1732722717066206,
                -1.6543688759112714,
                1.0983473617746697,
                0.47268207861506095,
                0.24525865462270063
            ]
        },
        {
            "positions": [
                0.5070939527365486,
                -2.15568340496747,
                -1.5326266904740287,
                1.0339729505815947,
                0.5216311304294596,
                0.27995081560487356
            ]
        },
        {
            "positions": [
                0.6060315837295235,
                -2.1380945382283194,
                -1.410884505036786,
                0.9695985393885195,
                0.5705801822438583,
                0.31464297658704654
            ]
        },
        {
            "positions": [
                0.7049692147224984,
                -2.1205056714891684,
                -1.2891423195995433,
                0.9052241281954444,
                0.619529234058257,
                0.3493351375692194
            ]
        },
        {
            "positions": [
                0.8039068457154733,
                -2.1029168047500177,
                -1.1674001341623006,
                0.8408497170023693,
                0.6684782858726557,
                0.3840272985513924
            ]
        },
        {
            "positions": [
                0.9028444767084481,
                -2.0853279380108667,
                -1.0456579487250577,
                0.7764753058092942,
                0.7174273376870544,
                0.4187194595335654
            ]
        },
        {
            "positions": [
                1.0017821077014228,
                -2.067739071271716,
                -0.923915763287815,
                0.7121008946162191,
                0.766376389501453,
                0.45341162051573825
            ]
        },
        {
            "positions": [
                1.1007197386943979,
                -2.050150204532565,
                -0.8021735778505723,
                0.647726483423144,
                0.8153254413158517,
                0.4881037814979112
            ]
        },
        {
            "positions": [
                1.1996573696873727,
                -2.0325613377934144,
                -0.6804313924133294,
                0.5833520722300689,
                0.8642744931302504,
                0.5227959424800842
            ]
        },
        {
            "positions": [
                1.2985950006803477,
                -2.0149724710542634,
                -0.5586892069760867,
                0.5189776610369938,
                0.9132235449446491,
                0.5574881034622571
            ]
        },
        {
            "positions": [
                1.3975326316733225,
                -1.9973836043151127,
                -0.4369470215388439,
                0.4546032498439187,
                0.9621725967590478,
                0.5921802644444301
            ]
        },
        {
            "positions": [
                1.4468100939911284,
                -1.9580834393192248,
                -0.3463200898115199,
                0.40473169998280956,
                0.9662555273853692,
                0.4446388513657488
            ]
        },
        {
            "positions": [
                1.4960875563089344,
                -1.9187832743233366,
                -0.2556931580841959,
                0.35486015012170036,
                0.9703384580116906,
                0.2970974382870676
            ]
        },
        {
            "positions": [
                1.5453650186267402,
                -1.8794831093274487,
                -0.1650662263568719,
                0.3049886002605912,
                0.9744213886380121,
                0.14955602520838635
            ]
        },
        {
            "positions": [
                1.594642480944546,
                -1.8401829443315605,
                -0.0744392946295479,
                0.255117050399482,
                0.9785043192643335,
                0.0020146121297051067
            ]
        },
        {
            "positions": [
                1.6439199432623521,
                -1.8008827793356725,
                0.016187637097776153,
                0.20524550053837284,
                0.9825872498906549,
                -0.1455268009489762
            ]
        },
        {
            "positions": [
                1.693197405580158,
                -1.7615826143397844,
                0.1068145688251001,
                0.15537395067726373,
                0.9866701805169764,
                -0.29306821402765737
            ]
        },
        {
            "positions": [
                1.7424748678979638,
                -1.7222824493438962,
                0.19744150055242415,
                0.10550240081615447,
                0.9907531111432978,
                -0.44060962710633866
            ]
        },
        {
            "positions": [
                1.7917523302157696,
                -1.6829822843480082,
                0.2880684322797481,
                0.05563085095504533,
                0.9948360417696193,
                -0.5881510401850198
            ]
        },
        {
            "positions": [
                1.8410297925335757,
                -1.6436821193521203,
                0.37869536400707204,
                0.005759301093936187,
                0.9989189723959406,
                -0.735692453263701
            ]
        },
        {
            "positions": [
                1.8903072548513815,
                -1.604381954356232,
                0.4693222957343962,
                -0.04411224876717301,
                1.003001903022262,
                -0.8832338663423824
            ]
        },
        {
            "positions": [
                1.9395847171691876,
                -1.5650817893603441,
                0.5599492274617202,
                -0.09398379862828216,
                1.0070848336485836,
                -1.0307752794210636
            ]
        },
        {
            "positions": [
                1.9888621794869934,
                -1.525781624364456,
                0.6505761591890441,
                -0.14385534848939124,
                1.011167764274905,
                -1.1783166924997448
            ]
        },
        {
            "positions": [
                2.0381396418047992,
                -1.486481459368568,
                0.7412030909163682,
                -0.19372689835050055,
                1.0152506949012263,
                -1.3258581055784262
            ]
        },
        {
            "positions": [
                2.087417104122605,
                -1.4471812943726798,
                0.8318300226436922,
                -0.24359844821160975,
                1.0193336255275478,
                -1.4733995186571074
            ]
        },
        {
            "positions": [
                2.136694566440411,
                -1.4078811293767919,
                0.922456954371016,
                -0.29346999807271884,
                1.0234165561538693,
                -1.6209409317357883
            ]
        },
        {
            "positions": [
                2.1859720287582167,
                -1.3685809643809037,
                1.01308388609834,
                -0.34334154793382804,
                1.0274994867801908,
                -1.7684823448144698
            ]
        },
        {
            "positions": [
                2.235249491076023,
                -1.3292807993850158,
                1.103710817825664,
                -0.39321309779493724,
                1.0315824174065122,
                -1.9160237578931512
            ]
        },
        {
            "positions": [
                2.284526953393829,
                -1.2899806343891278,
                1.194337749552988,
                -0.4430846476560463,
                1.0356653480328335,
                -2.063565170971832
            ]
        },
        {
            "positions": [
                2.3338044157116347,
                -1.2506804693932396,
                1.2849646812803122,
                -0.4929561975171555,
                1.039748278659155,
                -2.2111065840505137
            ]
        },
        {
            "positions": [
                2.3830818780294405,
                -1.2113803043973514,
                1.3755916130076362,
                -0.5428277473782648,
                1.0438312092854765,
                -2.3586479971291947
            ]
        },
        {
            "positions": [
                2.4323593403472463,
                -1.1720801394014635,
                1.4662185447349603,
                -0.5926992972393736,
                1.047914139911798,
                -2.5061894102078757
            ]
        },
        {
            "positions": [
                2.4816368026650526,
                -1.1327799744055755,
                1.5568454764622843,
                -0.642570847100483,
                1.0519970705381194,
                -2.6537308232865575
            ]
        },
        {
            "positions": [
                2.5309142649828584,
                -1.0934798094096874,
                1.647472408189608,
                -0.6924423969615923,
                1.0560800011644407,
                -2.8012722363652385
            ]
        },
        {
            "positions": [
                2.5801917273006643,
                -1.0541796444137992,
                1.738099339916932,
                -0.7423139468227011,
                1.0601629317907622,
                -2.9488136494439194
            ]
        },
        {
            "positions": [
                2.62946918961847,
                -1.0148794794179112,
                1.8287262716442563,
                -0.7921854966838104,
                1.0642458624170836,
                -3.096355062522601
            ]
        }
    ]
}