{
    "goal": {
        "global_pose": {
            "orientation": {
                "w": 0.5084816262002911,
                "x": -0.4908360881923452,
                "y": 0.5182115481033761,
                "z": -0.48164630358495003
            },
            "position": {
                "x": 0.5540239810943604,
                "y": -0.46912469901144505,
                "z": 0.16403168439865112
            }
        },
        "name": "move_to_storage_B"
    },
    "id": "BiEST_move_to_storage_B_43",
    "joint_names": [
        "shoulder_pan_joint",
        "shoulder_lift_joint",
        "elbow_joint",
        "wrist_1_joint",
        "wrist_2_joint",
        "wrist_3_joint"
    ],
    "metrics": {
        "cart_traj_len": 1.3764119465087992,
        "distance_elbow_joint": 0.3514938541772401,
        "distance_shoulder_lift_joint": 0.6647818436266781,
        "distance_shoulder_pan_joint": 0.9888492386625448,
        "distance_wrist_1_joint": 2.988194005176519,
        "distance_wrist_2_joint": 2.719390783833861,
        "distance_wrist_3_joint": 4.99536327436208,
        "smoothness": 0.3768162972697091,
        "time": 0.116496412,
        "traj_len": 3.5648384254884435,
        "weighted_distance": 5.329764003928641
    },
    "planner": "BiEST",
    "start": {
        "state": {
            "elbow_joint": 1.664937868594044,
            "shoulder_lift_joint": -0.661644460510453,
            "shoulder_pan_joint": -0.9139846352900073,
            "wrist_1_joint": 2.146753192139373,
            "wrist_2_joint": -2.2341966793290973,
            "wrist_3_joint": 0.005466555786416001
        }
    },
    "waypoints": [
        {
            "positions": [
                -0.9139846352900073,
                -0.661644460510453,
                1.664937868594044,
                2.146753192139373,
                -2.2341966793290973,
                0.005466555786416001
            ]
        },
        {
            "positions": [
                -0.8634331724706283,
                -0.7318837636810945,
                1.6671085677263773,
                2.106658259459573,
                -2.1331053028720723,
                -0.11056368908893272
            ]
        },
        {
            "positions": [
                -0.8128817096512494,
                -0.8021230668517361,
                1.6692792668587106,
                2.0665633267797725,
                -2.032013926415047,
                -0.22659393396428143
            ]
        },
        {
            "positions": [
                -0.7623302468318705,
                -0.8723623700223776,
                1.671449965991044,
                2.0264683940999726,
                -1.930922549958022,
                -0.3426241788396301
            ]
        },
        {
            "positions": [
                -0.7117787840124915,
                -0.9426016731930191,
                1.6736206651233774,
                1.9863734614201722,
                -1.829831173500997,
                -0.45865442371497883
            ]
        },
        {
            "positions": [
                -0.6612273211931126,
                -1.0128409763636608,
                1.675791364255711,
                1.9462785287403719,
                -1.7287397970439722,
                -0.5746846685903276
            ]
        },
        {
            "positions": [
                -0.6106758583737336,
                -1.0830802795343022,
                1.6779620633880443,
                1.9061835960605717,
                -1.627648420586947,
                -0.6907149134656763
            ]
        },
        {
            "positions": [
                -0.5601243955543547,
                -1.1533195827049436,
                1.6801327625203777,
                1.8660886633807716,
                -1.5265570441299219,
                -0.806745158341025
            ]
        },
        {
            "positions": [
                -0.5095729327349757,
                -1.2235588858755853,
                1.682303461652711,
                1.8259937307009713,
                -1.425465667672897,
                -0.9227754032163737
            ]
        },
        {
            "positions": [
                -0.5329504341792762,
                -1.2194441891451233,
                1.695668592097454,
                1.7192963489514466,
                -1.3490392767857906,
                -0.7600905506020021
            ]
        },
        {
            "positions": [
                -0.5563279356235767,
                -1.2153294924146616,
                1.709033722542197,
                1.6125989672019219,
                -1.272612885898684,
                -0.5974056979876305
            ]
        },
        {
            "positions": [
                -0.5797054370678774,
                -1.2112147956841997,
                1.7223988529869398,
                1.5059015854523974,
                -1.1961864950115775,
                -0.43472084537325895
            ]
        },
        {
            "positions": [
                -0.6030829385121779,
                -1.207100098953738,
                1.7357639834316827,
                1.3992042037028725,
                -1.1197601041244711,
                -0.27203599275888735
            ]
        },
        {
            "positions": [
                -0.6264604399564784,
                -1.202985402223276,
                1.7491291138764256,
                1.292506821953348,
                -1.0433337132373646,
                -0.10935114014451575
            ]
        },
        {
            "positions": [
                -0.6498379414007789,
                -1.1988707054928143,
                1.7624942443211686,
                1.1858094402038233,
                -0.9669073223502582,
                0.053333712469855854
            ]
        },
        {
            "positions": [
                -0.6732154428450794,
                -1.1947560087623523,
                1.7758593747659115,
                1.0791120584542986,
                -0.8904809314631517,
                0.21601856508422745
            ]
        },
        {
            "positions": [
                -0.69659294428938,
                -1.1906413120318906,
                1.7892245052106543,
                0.9724146767047739,
                -0.8140545405760453,
                0.37870341769859905
            ]
        },
        {
            "positions": [
                -0.7199704457336805,
                -1.1865266153014287,
                1.8025896356553974,
                0.8657172949552492,
                -0.7376281496889389,
                0.5413882703129707
            ]
        },
        {
            "positions": [
                -0.743347947177981,
                -1.182411918570967,
                1.8159547661001403,
                0.7590199132057245,
                -0.6612017588018323,
                0.7040731229273423
            ]
        },
        {
            "positions": [
                -0.7667254486222815,
                -1.178297221840505,
                1.8293198965448831,
                0.6523225314561998,
                -0.584775367914726,
                0.8667579755417139
            ]
        },
        {
            "positions": [
                -0.7901029500665822,
                -1.1741825251100433,
                1.842685026989626,
                0.5456251497066753,
                -0.5083489770276195,
                1.0294428281560855
            ]
        },
        {
            "positions": [
                -0.8134804515108827,
                -1.1700678283795813,
                1.856050157434369,
                0.4389277679571504,
                -0.43192258614051293,
                1.192127680770457
            ]
        },
        {
            "positions": [
                -0.8368579529551832,
                -1.1659531316491196,
                1.869415287879112,
                0.3322303862076257,
                -0.35549619525340637,
                1.3548125333848287
            ]
        },
        {
            "positions": [
                -0.8602354543994837,
                -1.1618384349186577,
                1.8827804183238548,
                0.2255330044581012,
                -0.2790698043663,
                1.5174973859992003
            ]
        },
        {
            "positions": [
                -0.8836129558437842,
                -1.157723738188196,
                1.8961455487685979,
                0.1188356227085765,
                -0.20264341347919368,
                1.6801822386135719
            ]
        },
        {
            "positions": [
                -0.9069904572880847,
                -1.153609041457734,
                1.9095106792133407,
                0.012138240959051583,
                -0.1262170225920871,
                1.8428670912279435
            ]
        },
        {
            "positions": [
                -0.9303679587323852,
                -1.1494943447272723,
                1.9228758096580836,
                -0.0945591407904729,
                -0.04979063170498077,
                2.005551943842315
            ]
        },
        {
            "positions": [
                -0.9537454601766858,
                -1.1453796479968104,
                1.9362409401028264,
                -0.20125652253999737,
                0.026635759182125796,
                2.1682367964566867
            ]
        },
        {
            "positions": [
                -0.9771229616209863,
                -1.1412649512663486,
                1.9496060705475695,
                -0.3079539042895223,
                0.10306215006923236,
                2.3309216490710583
            ]
        },
        {
            "positions": [
                -1.0005004630652867,
                -1.1371502545358867,
                1.9629712009923124,
                -0.4146512860390468,
                0.1794885409563387,
                2.49360650168543
            ]
        },
        {
            "positions": [
                -1.0238779645095875,
                -1.133035557805425,
                1.9763363314370552,
                -0.5213486677885717,
                0.25591493184344505,
                2.6562913542998015
            ]
        },
        {
            "positions": [
                -1.047255465953888,
                -1.128920861074963,
                1.9897014618817983,
                -0.6280460495380962,
                0.3323413227305516,
                2.818976206914173
            ]
        },
        {
            "positions": [
                -1.0706329673981885,
                -1.1248061643445013,
                2.003066592326541,
                -0.7347434312876207,
                0.40876771361765796,
                2.9816610595285447
            ]
        },
        {
            "positions": [
                -1.094010468842489,
                -1.1206914676140394,
                2.016431722771284,
                -0.8414408130371456,
                0.4851941045047646,
                3.1443459121429163
            ]
        }
    ]
}