{
    "goal": {
        "global_pose": {
            "orientation": {
                "w": 0.5084816262002911,
                "x": -0.4908360881923452,
                "y": 0.5182115481033761,
                "z": -0.48164630358495003
            },
            "position": {
                "x": 0.5540239810943604,
                "y": -0.46912469901144505,
                "z": 0.16403168439865112
            }
        },
        "name": "move_to_storage_B"
    },
    "id": "BiEST_move_to_storage_B_55",
    "joint_names": [
        "shoulder_pan_joint",
        "shoulder_lift_joint",
        "elbow_joint",
        "wrist_1_joint",
        "wrist_2_joint",
        "wrist_3_joint"
    ],
    "metrics": {
        "cart_traj_len": 1.8459409736453738,
        "distance_elbow_joint": 0.3472905186547841,
        "distance_shoulder_lift_joint": 1.6158020947514073,
        "distance_shoulder_pan_joint": 1.3457462208925384,
        "distance_wrist_1_joint": 2.9771097664643777,
        "distance_wrist_2_joint": 2.7039321891738464,
        "distance_wrist_3_joint": 3.1254454526434,
        "smoothness": 0.19737447729645713,
        "time": 0.067510666,
        "traj_len": 3.4807077215101465,
        "weighted_distance": 4.903800475499119
    },
    "planner": "BiEST",
    "start": {
        "state": {
            "elbow_joint": 1.664937868594044,
            "shoulder_lift_joint": -0.661644460510453,
            "shoulder_pan_joint": -0.9139846352900073,
            "wrist_1_joint": 2.146753192139373,
            "wrist_2_joint": -2.2341966793290973,
            "wrist_3_joint": 0.005466555786416001
        }
    },
    "waypoints": [
        {
            "positions": [
                -0.9139846352900073,
                -0.661644460510453,
                1.664937868594044,
                2.146753192139373,
                -2.2341966793290973,
                0.005466555786416001
            ]
        },
        {
            "positions": [
                -0.8692004745274978,
                -0.7414157435669633,
                1.6758408879002458,
                2.017370989781597,
                -2.110760416462554,
                0.0058456091963361686
            ]
        },
        {
            "positions": [
                -0.8244163137649884,
                -0.8211870266234735,
                1.6867439072064476,
                1.8879887874238201,
                -1.9873241535960113,
                0.006224662606256337
            ]
        },
        {
            "positions": [
                -0.7796321530024788,
                -0.9009583096799837,
                1.6976469265126495,
                1.7586065850660437,
                -1.8638878907294685,
                0.006603716016176505
            ]
        },
        {
            "positions": [
                -0.7348479922399693,
                -0.980729592736494,
                1.7085499458188513,
                1.629224382708267,
                -1.7404516278629254,
                0.006982769426096673
            ]
        },
        {
            "positions": [
                -0.6900638314774599,
                -1.0605008757930041,
                1.7194529651250532,
                1.4998421803504907,
                -1.6170153649963823,
                0.007361822836016841
            ]
        },
        {
            "positions": [
                -0.6452796707149504,
                -1.1402721588495144,
                1.730355984431255,
                1.3704599779927142,
                -1.4935791021298395,
                0.007740876245937009
            ]
        },
        {
            "positions": [
                -0.6004955099524409,
                -1.2200434419060247,
                1.7412590037374567,
                1.2410777756349378,
                -1.3701428392632966,
                0.008119929655857177
            ]
        },
        {
            "positions": [
                -0.5557113491899315,
                -1.299814724962535,
                1.7521620230436585,
                1.1116955732771612,
                -1.2467065763967535,
                0.008498983065777347
            ]
        },
        {
            "positions": [
                -0.510927188427422,
                -1.3795860080190452,
                1.7630650423498604,
                0.9823133709193848,
                -1.1232703135302107,
                0.008878036475697515
            ]
        },
        {
            "positions": [
                -0.46614302766491245,
                -1.4593572910755555,
                1.7739680616560622,
                0.8529311685616081,
                -0.9998340506636676,
                0.009257089885617683
            ]
        },
        {
            "positions": [
                -0.42135886690240304,
                -1.5391285741320657,
                1.784871080962264,
                0.7235489662038317,
                -0.8763977877971247,
                0.009636143295537851
            ]
        },
        {
            "positions": [
                -0.3765747061398935,
                -1.618899857188576,
                1.795774100268466,
                0.594166763846055,
                -0.7529615249305817,
                0.010015196705458019
            ]
        },
        {
            "positions": [
                -0.33179054537738406,
                -1.698671140245086,
                1.8066771195746678,
                0.4647845614882786,
                -0.6295252620640388,
                0.010394250115378187
            ]
        },
        {
            "positions": [
                -0.37421010820960154,
                -1.666516950521932,
                1.8180966344454546,
                0.39283227616531846,
                -0.5684552191802172,
                0.18375634779951366
            ]
        },
        {
            "positions": [
                -0.4166296710418191,
                -1.6343627607987778,
                1.829516149316241,
                0.32087999084235835,
                -0.5073851762963957,
                0.3571184454836491
            ]
        },
        {
            "positions": [
                -0.4590492338740366,
                -1.6022085710756238,
                1.8409356641870278,
                0.24892770551939822,
                -0.44631513341257417,
                0.5304805431677846
            ]
        },
        {
            "positions": [
                -0.5014687967062541,
                -1.5700543813524694,
                1.8523551790578145,
                0.17697542019643808,
                -0.3852450905287526,
                0.70384264085192
            ]
        },
        {
            "positions": [
                -0.5438883595384716,
                -1.5379001916293153,
                1.8637746939286013,
                0.10502313487347792,
                -0.32417504764493105,
                0.8772047385360555
            ]
        },
        {
            "positions": [
                -0.5863079223706891,
                -1.5057460019061613,
                1.8751942087993878,
                0.03307084955051781,
                -0.26310500476110954,
                1.050566836220191
            ]
        },
        {
            "positions": [
                -0.6287274852029067,
                -1.4735918121830072,
                1.8866137236701745,
                -0.03888143577244241,
                -0.20203496187728792,
                1.2239289339043264
            ]
        },
        {
            "positions": [
                -0.6711470480351241,
                -1.441437622459853,
                1.8980332385409613,
                -0.11083372109540246,
                -0.14096491899346641,
                1.397291031588462
            ]
        },
        {
            "positions": [
                -0.7135666108673417,
                -1.4092834327366988,
                1.909452753411748,
                -0.18278600641836262,
                -0.07989487610964485,
                1.5706531292725974
            ]
        },
        {
            "positions": [
                -0.7559861736995592,
                -1.3771292430135447,
                1.9208722682825345,
                -0.2547382917413228,
                -0.01882483322582329,
                1.7440152269567328
            ]
        },
        {
            "positions": [
                -0.7984057365317767,
                -1.3449750532903906,
                1.9322917831533213,
                -0.32669057706428295,
                0.04224520965799827,
                1.9173773246408685
            ]
        },
        {
            "positions": [
                -0.8408252993639942,
                -1.3128208635672365,
                1.943711298024108,
                -0.398642862387243,
                0.10331525254181972,
                2.0907394223250035
            ]
        },
        {
            "positions": [
                -0.8832448621962118,
                -1.2806666738440824,
                1.9551308128948945,
                -0.47059514771020317,
                0.1643852954256413,
                2.264101520009139
            ]
        },
        {
            "positions": [
                -0.9256644250284293,
                -1.2485124841209283,
                1.9665503277656813,
                -0.5425474330331634,
                0.22545533830946296,
                2.4374636176932745
            ]
        },
        {
            "positions": [
                -0.9680839878606468,
                -1.2163582943977742,
                1.977969842636468,
                -0.6144997183561236,
                0.2865253811932845,
                2.61082571537741
            ]
        },
        {
            "positions": [
                -1.0105035506928641,
                -1.18420410467462,
                1.9893893575072545,
                -0.6864520036790835,
                0.347595424077106,
                2.7841878130615454
            ]
        },
        {
            "positions": [
                -1.0529231135250818,
                -1.1520499149514658,
                2.0008088723780415,
                -0.7584042890020437,
                0.40866546696092754,
                2.957549910745681
            ]
        },
        {
            "positions": [
                -1.0953426763572993,
                -1.1198957252283117,
                2.012228387248828,
                -0.830356574325004,
                0.4697355098447491,
                3.1309120084298163
            ]
        }
    ]
}