{
    "goal": {
        "global_pose": {
            "orientation": {
                "w": 0.5084816262002911,
                "x": -0.4908360881923452,
                "y": 0.5182115481033761,
                "z": -0.48164630358495003
            },
            "position": {
                "x": 0.5540239810943604,
                "y": -0.46912469901144505,
                "z": 0.16403168439865112
            }
        },
        "name": "move_to_storage_B"
    },
    "id": "BiEST_move_to_storage_B_41",
    "joint_names": [
        "shoulder_pan_joint",
        "shoulder_lift_joint",
        "elbow_joint",
        "wrist_1_joint",
        "wrist_2_joint",
        "wrist_3_joint"
    ],
    "metrics": {
        "cart_traj_len": 1.6183687061715426,
        "distance_elbow_joint": 0.3994588593676167,
        "distance_shoulder_lift_joint": 0.5589946815112836,
        "distance_shoulder_pan_joint": 1.6977985204093158,
        "distance_wrist_1_joint": 3.0155406703969634,
        "distance_wrist_2_joint": 2.71496416882876,
        "distance_wrist_3_joint": 3.1570103828569156,
        "smoothness": 0.13173738022493633,
        "time": 0.09491750299999999,
        "traj_len": 3.3976119971784384,
        "weighted_distance": 4.85677803572599
    },
    "planner": "BiEST",
    "start": {
        "state": {
            "elbow_joint": 1.664937868594044,
            "shoulder_lift_joint": -0.661644460510453,
            "shoulder_pan_joint": -0.9139846352900073,
            "wrist_1_joint": 2.146753192139373,
            "wrist_2_joint": -2.2341966793290973,
            "wrist_3_joint": 0.005466555786416001
        }
    },
    "waypoints": [
        {
            "positions": [
                -0.9139846352900073,
                -0.661644460510453,
                1.664937868594044,
                2.146753192139373,
                -2.2341966793290973,
                0.005466555786416001
            ]
        },
        {
            "positions": [
                -0.8296870389879395,
                -0.7183881157937662,
                1.662592462636085,
                2.020148072360762,
                -2.1503982509208797,
                0.005734872802546154
            ]
        },
        {
            "positions": [
                -0.7453894426858717,
                -0.7751317710770793,
                1.660247056678126,
                1.893542952582151,
                -2.0665998225126625,
                0.006003189818676307
            ]
        },
        {
            "positions": [
                -0.661091846383804,
                -0.8318754263603925,
                1.6579016507201672,
                1.7669378328035397,
                -1.982801394104445,
                0.0062715068348064605
            ]
        },
        {
            "positions": [
                -0.5767942500817362,
                -0.8886190816437057,
                1.6555562447622083,
                1.6403327130249286,
                -1.8990029656962273,
                0.006539823850936615
            ]
        },
        {
            "positions": [
                -0.4924966537796684,
                -0.9453627369270189,
                1.6532108388042492,
                1.5137275932463172,
                -1.81520453728801,
                0.006808140867066768
            ]
        },
        {
            "positions": [
                -0.40819905747760066,
                -1.0021063922103322,
                1.6508654328462904,
                1.3871224734677061,
                -1.7314061088797925,
                0.007076457883196921
            ]
        },
        {
            "positions": [
                -0.32390146117553287,
                -1.0588500474936453,
                1.6485200268883315,
                1.260517353689095,
                -1.647607680471575,
                0.007344774899327075
            ]
        },
        {
            "positions": [
                -0.23960386487346508,
                -1.1155937027769585,
                1.6461746209303725,
                1.133912233910484,
                -1.5638092520633573,
                0.007613091915457228
            ]
        },
        {
            "positions": [
                -0.15530626857139732,
                -1.1723373580602716,
                1.6438292149724136,
                1.0073071141318726,
                -1.48001082365514,
                0.007881408931587381
            ]
        },
        {
            "positions": [
                -0.19799354828461124,
                -1.1701418224256597,
                1.6610269515972311,
                0.9220300872050788,
                -1.3908845366935578,
                0.15127211482757574
            ]
        },
        {
            "positions": [
                -0.24068082799782517,
                -1.1679462867910475,
                1.6782246882220488,
                0.836753060278285,
                -1.301758249731976,
                0.29466282072356415
            ]
        },
        {
            "positions": [
                -0.28336810771103904,
                -1.1657507511564356,
                1.6954224248468663,
                0.7514760333514913,
                -1.212631962770394,
                0.43805352661955244
            ]
        },
        {
            "positions": [
                -0.326055387424253,
                -1.1635552155218234,
                1.7126201614716838,
                0.6661990064246974,
                -1.123505675808812,
                0.5814442325155409
            ]
        },
        {
            "positions": [
                -0.36874266713746695,
                -1.1613596798872114,
                1.7298178980965015,
                0.5809219794979037,
                -1.03437938884723,
                0.7248349384115291
            ]
        },
        {
            "positions": [
                -0.4114299468506808,
                -1.1591641442525993,
                1.747015634721319,
                0.49564495257110996,
                -0.945253101885648,
                0.8682256443075175
            ]
        },
        {
            "positions": [
                -0.45411722656389475,
                -1.1569686086179873,
                1.7642133713461365,
                0.41036792564431623,
                -0.856126814924066,
                1.0116163502035058
            ]
        },
        {
            "positions": [
                -0.4968045062771087,
                -1.1547730729833752,
                1.7814111079709543,
                0.3250908987175224,
                -0.767000527962484,
                1.1550070560994943
            ]
        },
        {
            "positions": [
                -0.5394917859903227,
                -1.1525775373487632,
                1.7986088445957717,
                0.23981387179072855,
                -0.677874241000902,
                1.2983977619954825
            ]
        },
        {
            "positions": [
                -0.5821790657035365,
                -1.150382001714151,
                1.8158065812205892,
                0.15453684486393493,
                -0.58874795403932,
                1.4417884678914707
            ]
        },
        {
            "positions": [
                -0.6248663454167505,
                -1.1481864660795391,
                1.8330043178454067,
                0.06925981793714109,
                -0.49962166707773803,
                1.5851791737874592
            ]
        },
        {
            "positions": [
                -0.6675536251299643,
                -1.1459909304449272,
                1.8502020544702245,
                -0.016017208989652643,
                -0.41049538011615616,
                1.7285698796834474
            ]
        },
        {
            "positions": [
                -0.7102409048431784,
                -1.143795394810315,
                1.867399791095042,
                -0.1012942359164466,
                -0.32136909315457407,
                1.8719605855794361
            ]
        },
        {
            "positions": [
                -0.7529281845563922,
                -1.141599859175703,
                1.8845975277198594,
                -0.1865712628432401,
                -0.23224280619299198,
                2.0153512914754246
            ]
        },
        {
            "positions": [
                -0.795615464269606,
                -1.139404323541091,
                1.9017952643446772,
                -0.27184828977003384,
                -0.1431165192314101,
                2.1587419973714126
            ]
        },
        {
            "positions": [
                -0.8383027439828201,
                -1.137208787906479,
                1.9189930009694947,
                -0.3571253166968278,
                -0.05399023226982802,
                2.3021327032674015
            ]
        },
        {
            "positions": [
                -0.880990023696034,
                -1.1350132522718668,
                1.9361907375943122,
                -0.4424023436236215,
                0.03513605469175385,
                2.4455234091633895
            ]
        },
        {
            "positions": [
                -0.923677303409248,
                -1.1328177166372548,
                1.9533884742191299,
                -0.5276793705504155,
                0.12426234165333594,
                2.588914115059378
            ]
        },
        {
            "positions": [
                -0.9663645831224619,
                -1.1306221810026427,
                1.9705862108439474,
                -0.6129563974772092,
                0.2133886286149178,
                2.7323048209553664
            ]
        },
        {
            "positions": [
                -1.0090518628356757,
                -1.1284266453680307,
                1.9877839474687649,
                -0.6982334244040027,
                0.3025149155764999,
                2.8756955268513544
            ]
        },
        {
            "positions": [
                -1.0517391425488898,
                -1.1262311097334186,
                2.0049816840935826,
                -0.7835104513307967,
                0.391641202538082,
                3.0190862327473433
            ]
        },
        {
            "positions": [
                -1.0944264222621036,
                -1.1240355740988066,
                2.0221794207184,
                -0.8687874782575903,
                0.48076748949966386,
                3.1624769386433313
            ]
        }
    ]
}