{
    "goal": {
        "global_pose": {
            "orientation": {
                "w": -0.4816463035849501,
                "x": 0.5182115481033762,
                "y": 0.4908360881923453,
                "z": -0.5084816262002911
            },
            "position": {
                "x": -0.8240239810943604,
                "y": 0.19912469901144506,
                "z": 0.16403168439865112
            }
        },
        "name": "move_to_storage_D"
    },
    "id": "BiEST_move_to_storage_D_99",
    "joint_names": [
        "shoulder_pan_joint",
        "shoulder_lift_joint",
        "elbow_joint",
        "wrist_1_joint",
        "wrist_2_joint",
        "wrist_3_joint"
    ],
    "metrics": {
        "cart_traj_len": 1.0242752589713993,
        "distance_elbow_joint": 0.9873998989819417,
        "distance_shoulder_lift_joint": 0.15232144668500824,
        "distance_shoulder_pan_joint": 0.7956973013768904,
        "distance_wrist_1_joint": 3.8227591898352844,
        "distance_wrist_2_joint": 1.8293471539971213,
        "distance_wrist_3_joint": 3.1232187847999797,
        "smoothness": 0.08474049287631141,
        "time": 0.090619639,
        "traj_len": 3.272727268758615,
        "weighted_distance": 4.75492246930574
    },
    "planner": "BiEST",
    "start": {
        "state": {
            "elbow_joint": -2.384821988534728,
            "shoulder_lift_joint": -2.2788054721415256,
            "shoulder_pan_joint": -0.1854694642142757,
            "wrist_1_joint": 1.4845938289331202,
            "wrist_2_joint": 0.17898776772866878,
            "wrist_3_joint": 0.037105688729662994
        }
    },
    "waypoints": [
        {
            "positions": [
                -0.1854694642142757,
                -2.2788054721415256,
                -2.384821988534728,
                1.4845938289331202,
                0.17898776772866878,
                0.037105688729662994
            ]
        },
        {
            "positions": [
                -0.09078741509601045,
                -2.25636439292081,
                -2.2306444016546423,
                1.441875345616436,
                0.1842328711719937,
                -0.015296662253838487
            ]
        },
        {
            "positions": [
                0.003894634022254817,
                -2.2339233137000947,
                -2.076466814774557,
                1.399156862299752,
                0.1894779746153186,
                -0.06769901323733997
            ]
        },
        {
            "positions": [
                0.09857668314052007,
                -2.2114822344793788,
                -1.9222892278944714,
                1.3564383789830676,
                0.19472307805864353,
                -0.12010136422084144
            ]
        },
        {
            "positions": [
                0.19325873225878534,
                -2.1890411552586633,
                -1.768111641014386,
                1.3137198956663836,
                0.19996818150196843,
                -0.17250371520434293
            ]
        },
        {
            "positions": [
                0.2879407813770506,
                -2.166600076037948,
                -1.6139340541343006,
                1.2710014123496993,
                0.20521328494529334,
                -0.22490606618784437
            ]
        },
        {
            "positions": [
                0.2739283006907217,
                -2.1648558999257115,
                -1.6233476178117576,
                1.114081117860488,
                0.12681669204179347,
                -0.34930637183490837
            ]
        },
        {
            "positions": [
                0.2599158200043928,
                -2.1631117238134756,
                -1.632761181489215,
                0.9571608233712764,
                0.04842009913829362,
                -0.47370667748197237
            ]
        },
        {
            "positions": [
                0.2459033393180639,
                -2.1613675477012393,
                -1.642174745166672,
                0.800240528882065,
                -0.029976493765206225,
                -0.5981069831290364
            ]
        },
        {
            "positions": [
                0.23189085863173498,
                -2.1596233715890034,
                -1.6515883088441292,
                0.6433202343928535,
                -0.1083730866687061,
                -0.7225072887761004
            ]
        },
        {
            "positions": [
                0.2178783779454061,
                -2.157879195476767,
                -1.6610018725215863,
                0.48639993990364205,
                -0.18676967957220592,
                -0.8469075944231644
            ]
        },
        {
            "positions": [
                0.2038658972590772,
                -2.1561350193645312,
                -1.6704154361990435,
                0.32947964541443064,
                -0.2651662724757058,
                -0.9713079000702284
            ]
        },
        {
            "positions": [
                0.1898534165727483,
                -2.154390843252295,
                -1.6798289998765006,
                0.172559350925219,
                -0.34356286537920566,
                -1.0957082057172927
            ]
        },
        {
            "positions": [
                0.17584093588641939,
                -2.152646667140059,
                -1.6892425635539579,
                0.015639056436007603,
                -0.42195945828270554,
                -1.2201085113643564
            ]
        },
        {
            "positions": [
                0.16182845520009048,
                -2.1509024910278227,
                -1.698656127231415,
                -0.1412812380532038,
                -0.5003560511862054,
                -1.3445088170114206
            ]
        },
        {
            "positions": [
                0.14781597451376158,
                -2.149158314915587,
                -1.708069690908872,
                -0.2982015325424152,
                -0.5787526440897052,
                -1.4689091226584845
            ]
        },
        {
            "positions": [
                0.13380349382743267,
                -2.1474141388033505,
                -1.7174832545863292,
                -0.45512182703162685,
                -0.6571492369932052,
                -1.5933094283055487
            ]
        },
        {
            "positions": [
                0.1197910131411038,
                -2.1456699626911147,
                -1.7268968182637863,
                -0.612042121520838,
                -0.7355458298967049,
                -1.7177097339526124
            ]
        },
        {
            "positions": [
                0.10577853245477489,
                -2.1439257865788783,
                -1.7363103819412435,
                -0.7689624160100497,
                -0.8139424228002047,
                -1.8421100395996763
            ]
        },
        {
            "positions": [
                0.09176605176844596,
                -2.1421816104666425,
                -1.7457239456187006,
                -0.9258827104992613,
                -0.8923390157037047,
                -1.9665103452467407
            ]
        },
        {
            "positions": [
                0.07775357108211708,
                -2.140437434354406,
                -1.7551375092961576,
                -1.0828030049884725,
                -0.9707356086072046,
                -2.0909106508938047
            ]
        },
        {
            "positions": [
                0.06374109039578818,
                -2.1386932582421703,
                -1.764551072973615,
                -1.2397232994776841,
                -1.0491322015107043,
                -2.2153109565408684
            ]
        },
        {
            "positions": [
                0.049728609709459304,
                -2.136949082129934,
                -1.773964636651072,
                -1.3966435939668953,
                -1.127528794414204,
                -2.3397112621879326
            ]
        },
        {
            "positions": [
                0.03571612902313037,
                -2.135204906017698,
                -1.7833782003285292,
                -1.553563888456107,
                -1.2059253873177043,
                -2.4641115678349967
            ]
        },
        {
            "positions": [
                0.021703648336801495,
                -2.1334607299054618,
                -1.7927917640059863,
                -1.7104841829453186,
                -1.284321980221204,
                -2.5885118734820605
            ]
        },
        {
            "positions": [
                0.0076911676504725635,
                -2.131716553793226,
                -1.8022053276834435,
                -1.8674044774345298,
                -1.3627185731247038,
                -2.7129121791291246
            ]
        },
        {
            "positions": [
                -0.006321313035856313,
                -2.1299723776809896,
                -1.8116188913609006,
                -2.024324771923741,
                -1.4411151660282036,
                -2.8373124847761884
            ]
        },
        {
            "positions": [
                -0.020333793722185245,
                -2.1282282015687537,
                -1.8210324550383579,
                -2.181245066412953,
                -1.5195117589317038,
                -2.961712790423253
            ]
        },
        {
            "positions": [
                -0.034346274408514094,
                -2.1264840254565174,
                -1.830446018715815,
                -2.338165360902164,
                -1.5979083518352033,
                -3.0861130960703167
            ]
        }
    ]
}