{
    "goal": {
        "global_pose": {
            "orientation": {
                "w": -0.00223480608172531,
                "x": 0.0024358444001904467,
                "y": 0.7094548369677653,
                "z": -0.704743149386269
            },
            "position": {
                "x": -0.37947507619857795,
                "y": -0.6371506643295288,
                "z": 0.19426114857196808
            }
        },
        "name": "move_to_magneteinheit_C"
    },
    "id": "BiEST_move_to_magneteinheit_C_87",
    "joint_names": [
        "shoulder_pan_joint",
        "shoulder_lift_joint",
        "elbow_joint",
        "wrist_1_joint",
        "wrist_2_joint",
        "wrist_3_joint"
    ],
    "metrics": {
        "cart_traj_len": 1.8434269076474492,
        "distance_elbow_joint": 1.713744993226153,
        "distance_shoulder_lift_joint": 0.585477597395194,
        "distance_shoulder_pan_joint": 1.984964450203999,
        "distance_wrist_1_joint": 1.9614192927467036,
        "distance_wrist_2_joint": 2.7602009557481977,
        "distance_wrist_3_joint": 3.1498879161273385,
        "smoothness": 1.2463431212140974,
        "time": 0.241255564,
        "traj_len": 3.486501857944089,
        "weighted_distance": 4.814259162757772
    },
    "planner": "BiEST",
    "start": {
        "state": {
            "elbow_joint": 1.9565354010623817,
            "shoulder_lift_joint": -1.4165861575791021,
            "shoulder_pan_joint": -1.6717766225146293,
            "wrist_1_joint": -0.5286633292919765,
            "wrist_2_joint": 1.472756589071564,
            "wrist_3_joint": -3.1238370188695823
        }
    },
    "waypoints": [
        {
            "positions": [
                -1.6717766225146293,
                -1.4165861575791021,
                1.9565354010623817,
                -0.5286633292919765,
                1.472756589071564,
                -3.1238370188695823
            ]
        },
        {
            "positions": [
                -1.6174079783303568,
                -1.4271388579977105,
                1.9316955449261766,
                -0.5302622427795146,
                1.4208252321162624,
                -3.017423658261467
            ]
        },
        {
            "positions": [
                -1.5630393341460842,
                -1.437691558416319,
                1.9068556887899715,
                -0.5318611562670528,
                1.368893875160961,
                -2.911010297653352
            ]
        },
        {
            "positions": [
                -1.5683922856419685,
                -1.453497790862328,
                1.8720751445773254,
                -0.5234560796215394,
                1.2287412273852383,
                -2.741939653283283
            ]
        },
        {
            "positions": [
                -1.5737452371378526,
                -1.4693040233083372,
                1.8372946003646793,
                -0.515051002976026,
                1.0885885796095156,
                -2.5728690089132145
            ]
        },
        {
            "positions": [
                -1.579098188633737,
                -1.4851102557543465,
                1.8025140561520332,
                -0.5066459263305125,
                0.9484359318337927,
                -2.4037983645431455
            ]
        },
        {
            "positions": [
                -1.5844511401296213,
                -1.5009164882003556,
                1.767733511939387,
                -0.49824084968499915,
                0.80828328405807,
                -2.234727720173077
            ]
        },
        {
            "positions": [
                -1.5898040916255056,
                -1.5167227206463647,
                1.732952967726741,
                -0.4898357730394858,
                0.6681306362823474,
                -2.065657075803008
            ]
        },
        {
            "positions": [
                -1.59515704312139,
                -1.532528953092374,
                1.698172423514095,
                -0.48143069639397235,
                0.5279779885066246,
                -1.8965864314329393
            ]
        },
        {
            "positions": [
                -1.600509994617274,
                -1.5483351855383831,
                1.6633918793014488,
                -0.4730256197484589,
                0.3878253407309018,
                -1.7275157870628706
            ]
        },
        {
            "positions": [
                -1.6058629461131584,
                -1.5641414179843922,
                1.6286113350888027,
                -0.46462054310294554,
                0.24767269295517902,
                -1.5584451426928019
            ]
        },
        {
            "positions": [
                -1.7532667528352452,
                -1.5293255914659933,
                1.6948283582262085,
                -0.4395576837841261,
                0.2705985412173994,
                -1.6351875092131682
            ]
        },
        {
            "positions": [
                -1.9006705595573319,
                -1.4945097649475947,
                1.761045381363614,
                -0.41449482446530655,
                0.29352438947961984,
                -1.7119298757335348
            ]
        },
        {
            "positions": [
                -2.048074366279419,
                -1.4596939384291958,
                1.8272624045010197,
                -0.38943196514648704,
                0.3164502377418402,
                -1.7886722422539012
            ]
        },
        {
            "positions": [
                -2.1954781730015056,
                -1.424878111910797,
                1.8934794276384252,
                -0.36436910582766757,
                0.3393760860040606,
                -1.8654146087742676
            ]
        },
        {
            "positions": [
                -2.3428819797235927,
                -1.3900622853923983,
                1.959696450775831,
                -0.3393062465088481,
                0.36230193426628104,
                -1.9421569752946342
            ]
        },
        {
            "positions": [
                -2.4902857864456793,
                -1.3552464588739994,
                2.0259134739132367,
                -0.3142433871900286,
                0.38522778252850143,
                -2.0188993418150005
            ]
        },
        {
            "positions": [
                -2.53698426708074,
                -1.3342449504548106,
                2.074580775410265,
                -0.4273196535328727,
                0.4692574268232388,
                -2.080408760996233
            ]
        },
        {
            "positions": [
                -2.5836827477158013,
                -1.3132434420356218,
                2.1232480769072932,
                -0.5403959198757169,
                0.5532870711179761,
                -2.141918180177466
            ]
        },
        {
            "positions": [
                -2.630381228350862,
                -1.292241933616433,
                2.171915378404321,
                -0.6534721862185608,
                0.6373167154127135,
                -2.2034275993586983
            ]
        },
        {
            "positions": [
                -2.6770797089859233,
                -1.2712404251972442,
                2.2205826799013493,
                -0.766548452561405,
                0.721346359707451,
                -2.264937018539931
            ]
        },
        {
            "positions": [
                -2.723778189620984,
                -1.2502389167780554,
                2.2692499813983775,
                -0.8796247189042492,
                0.8053760040021882,
                -2.3264464377211636
            ]
        },
        {
            "positions": [
                -2.770476670256045,
                -1.2292374083588666,
                2.3179172828954058,
                -0.9927009852470932,
                0.8894056482969256,
                -2.387955856902396
            ]
        },
        {
            "positions": [
                -2.817175150891106,
                -1.2082358999396778,
                2.3665845843924336,
                -1.1057772515899373,
                0.973435292591663,
                -2.449465276083629
            ]
        },
        {
            "positions": [
                -2.863873631526167,
                -1.187234391520489,
                2.415251885889462,
                -1.2188535179327815,
                1.0574649368864004,
                -2.5109746952648613
            ]
        },
        {
            "positions": [
                -2.910572112161228,
                -1.1662328831013002,
                2.46391918738649,
                -1.3319297842756255,
                1.1414945811811377,
                -2.572484114446094
            ]
        },
        {
            "positions": [
                -2.957270592796289,
                -1.1452313746821114,
                2.5125864888835183,
                -1.4450060506184697,
                1.2255242254758751,
                -2.6339935336273266
            ]
        },
        {
            "positions": [
                -2.8884140351983962,
                -1.1479474166374861,
                2.4408942355323955,
                -1.357885903009018,
                1.1459148644600012,
                -2.706700340629617
            ]
        },
        {
            "positions": [
                -2.8195574776005032,
                -1.150663458592861,
                2.369201982181273,
                -1.2707657553995664,
                1.0663055034441271,
                -2.7794071476319075
            ]
        },
        {
            "positions": [
                -2.7507009200026107,
                -1.1533795005482357,
                2.2975097288301503,
                -1.1836456077901145,
                0.9866961424282532,
                -2.852113954634198
            ]
        },
        {
            "positions": [
                -2.6818443624047177,
                -1.1560955425036104,
                2.225817475479028,
                -1.0965254601806629,
                0.9070867814123793,
                -2.9248207616364885
            ]
        },
        {
            "positions": [
                -2.612987804806825,
                -1.158811584458985,
                2.154125222127905,
                -1.0094053125712112,
                0.8274774203965053,
                -2.997527568638779
            ]
        },
        {
            "positions": [
                -2.5441312472089326,
                -1.16152762641436,
                2.0824329687767826,
                -0.9222851649617595,
                0.7478680593806314,
                -3.0702343756410695
            ]
        },
        {
            "positions": [
                -2.4752746896110396,
                -1.1642436683697346,
                2.01074071542566,
                -0.8351650173523077,
                0.6682586983647574,
                -3.14294118264336
            ]
        }
    ]
}