{
    "goal": {
        "global_pose": {
            "orientation": {
                "w": 0.005598929693374612,
                "x": 0.007748599140229565,
                "y": 0.7110244013736278,
                "z": -0.7031023480610252
            },
            "position": {
                "x": 0.1141497679147869,
                "y": -0.7141253447532654,
                "z": 0.3711530566215515
            }
        },
        "name": "move_to_auspresseinheit_B"
    },
    "id": "BiEST_move_to_auspresseinheit_B_80",
    "joint_names": [
        "shoulder_pan_joint",
        "shoulder_lift_joint",
        "elbow_joint",
        "wrist_1_joint",
        "wrist_2_joint",
        "wrist_3_joint"
    ],
    "metrics": {
        "cart_traj_len": 0.5645482164113594,
        "distance_elbow_joint": 0.06653276675566988,
        "distance_shoulder_lift_joint": 0.29322342842104443,
        "distance_shoulder_pan_joint": 0.5765753472606623,
        "distance_wrist_1_joint": 0.33750520258046335,
        "distance_wrist_2_joint": 0.9917206118802697,
        "distance_wrist_3_joint": 0.0023725906543670128,
        "smoothness": 3.806478935924272e-16,
        "time": 0.06809067199999999,
        "traj_len": 1.5059647896124522,
        "weighted_distance": 1.897867472539098
    },
    "planner": "BiEST",
    "start": {
        "state": {
            "elbow_joint": 2.0193083361928714,
            "shoulder_lift_joint": -1.1220246554650708,
            "shoulder_pan_joint": -1.0952077554168747,
            "wrist_1_joint": -0.8559753972642168,
            "wrist_2_joint": 0.4759566250798843,
            "wrist_3_joint": -3.1240929996934557
        }
    },
    "waypoints": [
        {
            "positions": [
                -1.0952077554168747,
                -1.1220246554650708,
                2.0193083361928714,
                -0.8559753972642168,
                0.4759566250798843,
                -3.1240929996934557
            ]
        },
        {
            "positions": [
                -1.191303646626985,
                -1.1708952268685782,
                2.008219541733593,
                -0.7997245301674729,
                0.6412433937265959,
                -3.123697567917728
            ]
        },
        {
            "positions": [
                -1.2873995378370955,
                -1.2197657982720855,
                1.9971307472743147,
                -0.743473663070729,
                0.8065301623733074,
                -3.123302136142
            ]
        },
        {
            "positions": [
                -1.3834954290472057,
                -1.2686363696755931,
                1.9860419528150364,
                -0.6872227959739852,
                0.9718169310200191,
                -3.1229067043662724
            ]
        },
        {
            "positions": [
                -1.479591320257316,
                -1.3175069410791005,
                1.9749531583557582,
                -0.6309719288772413,
                1.1371036996667307,
                -3.122511272590544
            ]
        },
        {
            "positions": [
                -1.5756872114674265,
                -1.3663775124826079,
                1.96386436389648,
                -0.5747210617804973,
                1.3023904683134424,
                -3.1221158408148164
            ]
        },
        {
            "positions": [
                -1.671783102677537,
                -1.4152480838861152,
                1.9527755694372015,
                -0.5184701946837534,
                1.467677236960154,
                -3.1217204090390887
            ]
        }
    ]
}