{
    "goal": {
        "global_pose": {
            "orientation": {
                "w": 0.5084816217422485,
                "x": -0.49083608388900757,
                "y": 0.5182115435600281,
                "z": -0.4816462993621826
            },
            "position": {
                "x": 0.5540239810943604,
                "y": 0.030875300988554955,
                "z": 0.16403168439865112
            }
        },
        "name": "move_to_storage_A"
    },
    "id": "BiEST_move_to_storage_A_112",
    "joint_names": [
        "shoulder_pan_joint",
        "shoulder_lift_joint",
        "elbow_joint",
        "wrist_1_joint",
        "wrist_2_joint",
        "wrist_3_joint"
    ],
    "metrics": {
        "cart_traj_len": 0.3537964181025253,
        "distance_elbow_joint": 0.45037093512396065,
        "distance_shoulder_lift_joint": 0.23560162211791114,
        "distance_shoulder_pan_joint": 0.46465673574089816,
        "distance_wrist_1_joint": 0.24177179227263135,
        "distance_wrist_2_joint": 1.092172643156262,
        "distance_wrist_3_joint": 0.10348128357659636,
        "smoothness": 0.0,
        "time": 0.085449631,
        "traj_len": 1.60874330208031,
        "weighted_distance": 2.0319847476224684
    },
    "planner": "BiEST",
    "start": {
        "state": {
            "elbow_joint": 1.971548259319323,
            "shoulder_lift_joint": -1.1394851275133948,
            "shoulder_pan_joint": 0.1228115487234821,
            "wrist_1_joint": -0.7804723859257726,
            "wrist_2_joint": 0.12958671773740124,
            "wrist_3_joint": -3.192489227718131
        }
    },
    "waypoints": [
        {
            "positions": [
                0.1228115487234821,
                -1.1394851275133948,
                1.971548259319323,
                -0.7804723859257726,
                0.12958671773740124,
                -3.192489227718131
            ]
        },
        {
            "positions": [
                0.05643201504621094,
                -1.173142502101668,
                2.0358869643370316,
                -0.8150112133932914,
                0.28561138104543865,
                -3.177706187207189
            ]
        },
        {
            "positions": [
                -0.00994751863106022,
                -1.2067998766899408,
                2.1002256693547405,
                -0.8495500408608101,
                0.44163604435347603,
                -3.1629231466962464
            ]
        },
        {
            "positions": [
                -0.0763270523083314,
                -1.240457251278214,
                2.164564374372449,
                -0.8840888683283289,
                0.5976607076615135,
                -3.1481401061853043
            ]
        },
        {
            "positions": [
                -0.14270658598560254,
                -1.2741146258664868,
                2.2289030793901574,
                -0.9186276957958477,
                0.7536853709695509,
                -3.1333570656743617
            ]
        },
        {
            "positions": [
                -0.20908611966287372,
                -1.30777200045476,
                2.2932417844078663,
                -0.9531665232633664,
                0.9097100342775883,
                -3.1185740251634195
            ]
        },
        {
            "positions": [
                -0.2754656533401449,
                -1.3414293750430328,
                2.357580489425575,
                -0.9877053507308852,
                1.0657346975856257,
                -3.103790984652477
            ]
        },
        {
            "positions": [
                -0.34184518701741606,
                -1.375086749631306,
                2.4219191944432836,
                -1.022244178198404,
                1.2217593608936632,
                -3.089007944141535
            ]
        }
    ]
}{
    "goal": {
        "global_pose": {
            "orientation": {
                "w": 0.5084816217422485,
                "x": -0.49083608388900757,
                "y": 0.5182115435600281,
                "z": -0.4816462993621826
            },
            "position": {
                "x": 0.5540239810943604,
                "y": 0.030875300988554955,
                "z": 0.16403168439865112
            }
        },
        "name": "move_to_storage_A"
    },
    "id": "BiEST_move_to_storage_A_112",
    "joint_names": [
        "shoulder_pan_joint",
        "shoulder_lift_joint",
        "elbow_joint",
        "wrist_1_joint",
        "wrist_2_joint",
        "wrist_3_joint"
    ],
    "metrics": {
        "cart_traj_len": 0.3528146392683037,
        "distance_elbow_joint": 0.4526596297712526,
        "distance_shoulder_lift_joint": 0.2348302093919088,
        "distance_shoulder_pan_joint": 0.462899451440047,
        "distance_wrist_1_joint": 0.2531734393148659,
        "distance_wrist_2_joint": 1.0921657090439214,
        "distance_wrist_3_joint": 0.09252611244257514,
        "smoothness": 0.0,
        "time": 0.065114199,
        "traj_len": 1.6088053180557835,
        "weighted_distance": 2.0294447330855077
    },
    "planner": "BiEST",
    "start": {
        "state": {
            "elbow_joint": 1.97154746011099,
            "shoulder_lift_joint": -1.13948474672311,
            "shoulder_pan_joint": 0.12281154466712228,
            "wrist_1_joint": -0.7804688027058302,
            "wrist_2_joint": 0.12958655903071145,
            "wrist_3_joint": 3.0906928834467795
        }
    },
    "waypoints": [
        {
            "positions": [
                0.12281154466712228,
                -1.13948474672311,
                1.97154746011099,
                -0.7804688027058302,
                0.12958655903071145,
                3.0906928834467795
            ]
        },
        {
            "positions": [
                0.05668305160425843,
                -1.1730319194933827,
                2.0362131215068833,
                -0.8166364368936682,
                0.28561023175127165,
                3.1039108995100047
            ]
        },
        {
            "positions": [
                -0.009445441458605416,
                -1.2065790922636552,
                2.100878782902776,
                -0.8528040710815061,
                0.4416339044718318,
                3.1171289155732294
            ]
        },
        {
            "positions": [
                -0.07557393452146928,
                -1.240126265033928,
                2.1655444442986695,
                -0.8889717052693441,
                0.597657577192392,
                3.1303469316364545
            ]
        },
        {
            "positions": [
                -0.1417024275843331,
                -1.2736734378042007,
                2.230210105694563,
                -0.9251393394571821,
                0.7536812499129523,
                3.1435649476996796
            ]
        },
        {
            "positions": [
                -0.207830920647197,
                -1.3072206105744735,
                2.2948757670904563,
                -0.9613069736450202,
                0.9097049226335125,
                3.156782963762905
            ]
        },
        {
            "positions": [
                -0.27395941371006083,
                -1.340767783344746,
                2.359541428486349,
                -0.9974746078328581,
                1.0657285953540725,
                3.1700009798261295
            ]
        },
        {
            "positions": [
                -0.3400879067729247,
                -1.3743149561150187,
                2.4242070898822425,
                -1.033642242020696,
                1.2217522680746329,
                3.1832189958893546
            ]
        }
    ]
}{
    "goal": {
        "global_pose": {
            "orientation": {
                "w": 0.5084816217422485,
                "x": -0.49083608388900757,
                "y": 0.5182115435600281,
                "z": -0.4816462993621826
            },
            "position": {
                "x": 0.5540239810943604,
                "y": 0.030875300988554955,
                "z": 0.16403168439865112
            }
        },
        "name": "move_to_storage_A"
    },
    "id": "BiEST_move_to_storage_A_112",
    "joint_names": [
        "shoulder_pan_joint",
        "shoulder_lift_joint",
        "elbow_joint",
        "wrist_1_joint",
        "wrist_2_joint",
        "wrist_3_joint"
    ],
    "metrics": {
        "cart_traj_len": 0.3534981082641019,
        "distance_elbow_joint": 0.44999636979569635,
        "distance_shoulder_lift_joint": 0.23504880751316248,
        "distance_shoulder_pan_joint": 0.4614089730920594,
        "distance_wrist_1_joint": 0.2403672835426336,
        "distance_wrist_2_joint": 1.1037195829687558,
        "distance_wrist_3_joint": 0.09914526456859152,
        "smoothness": 4.440892098500626e-16,
        "time": 0.0579031,
        "traj_len": 1.6092502233900416,
        "weighted_distance": 2.0327478144446425
    },
    "planner": "BiEST",
    "start": {
        "state": {
            "elbow_joint": 1.9715472970024885,
            "shoulder_lift_joint": -1.1394870060712896,
            "shoulder_pan_joint": 0.12281152778156021,
            "wrist_1_joint": -0.780463741449964,
            "wrist_2_joint": 0.12958659822042276,
            "wrist_3_joint": 3.090690232415272
        }
    },
    "waypoints": [
        {
            "positions": [
                0.12281152778156021,
                -1.1394870060712896,
                1.9715472970024885,
                -0.780463741449964,
                0.12958659822042276,
                3.090690232415272
            ]
        },
        {
            "positions": [
                0.0568959601969803,
                -1.1730654071445985,
                2.035832492687588,
                -0.8148019248131974,
                0.28726082435881645,
                3.1048538416393563
            ]
        },
        {
            "positions": [
                -0.009019607387599604,
                -1.2066438082179074,
                2.1001176883726873,
                -0.8491401081764307,
                0.44493505049721016,
                3.1190174508634407
            ]
        },
        {
            "positions": [
                -0.07493517497217952,
                -1.2402222092912163,
                2.164402884057787,
                -0.8834782915396641,
                0.6026092766356038,
                3.133181060087525
            ]
        },
        {
            "positions": [
                -0.14085074255675942,
                -1.2738006103645252,
                2.2286880797428865,
                -0.9178164749028974,
                0.7602835027739975,
                3.14734466931161
            ]
        },
        {
            "positions": [
                -0.20676631014133937,
                -1.3073790114378343,
                2.292973275427986,
                -0.9521546582661309,
                0.9179577289123912,
                3.1615082785356945
            ]
        },
        {
            "positions": [
                -0.27268187772591923,
                -1.3409574125111432,
                2.3572584711130853,
                -0.9864928416293642,
                1.075631955050785,
                3.175671887759779
            ]
        },
        {
            "positions": [
                -0.3385974453104992,
                -1.374535813584452,
                2.421543666798185,
                -1.0208310249925976,
                1.2333061811891786,
                3.1898354969838634
            ]
        }
    ]
}