{
    "goal": {
        "global_pose": {
            "orientation": {
                "w": 0.005598929693374612,
                "x": 0.007748599140229565,
                "y": 0.7110244013736278,
                "z": -0.7031023480610252
            },
            "position": {
                "x": 0.1141497679147869,
                "y": -0.7141253447532654,
                "z": 0.3711530566215515
            }
        },
        "name": "move_to_auspresseinheit_B"
    },
    "id": "BiEST_move_to_auspresseinheit_B_60",
    "joint_names": [
        "shoulder_pan_joint",
        "shoulder_lift_joint",
        "elbow_joint",
        "wrist_1_joint",
        "wrist_2_joint",
        "wrist_3_joint"
    ],
    "metrics": {
        "cart_traj_len": 0.5647766041689911,
        "distance_elbow_joint": 0.06507634686364527,
        "distance_shoulder_lift_joint": 0.29456192379076396,
        "distance_shoulder_pan_joint": 0.5763848460505097,
        "distance_wrist_1_joint": 0.3375982749069568,
        "distance_wrist_2_joint": 0.9986562906106893,
        "distance_wrist_3_joint": 0.006060180467686749,
        "smoothness": 0.0,
        "time": 0.06281294700000001,
        "traj_len": 1.5094163980460302,
        "weighted_distance": 1.904393023811858
    },
    "planner": "BiEST",
    "start": {
        "state": {
            "elbow_joint": 2.0193083361928714,
            "shoulder_lift_joint": -1.1220246554650708,
            "shoulder_pan_joint": -1.0952077554168747,
            "wrist_1_joint": -0.8559753972642168,
            "wrist_2_joint": 0.4759566250798843,
            "wrist_3_joint": -3.1240929996934557
        }
    },
    "waypoints": [
        {
            "positions": [
                -1.0952077554168747,
                -1.1220246554650708,
                2.0193083361928714,
                -0.8559753972642168,
                0.4759566250798843,
                -3.1240929996934557
            ]
        },
        {
            "positions": [
                -1.1912718964252929,
                -1.1711183094301982,
                2.0084622783822637,
                -0.7997090181130573,
                0.6423993401816659,
                -3.123082969615508
            ]
        },
        {
            "positions": [
                -1.2873360374337113,
                -1.2202119633953254,
                1.9976162205716563,
                -0.7434426389618979,
                0.8088420552834474,
                -3.12207293953756
            ]
        },
        {
            "positions": [
                -1.3834001784421295,
                -1.2693056173604527,
                1.9867701627610488,
                -0.6871762598107384,
                0.975284770385229,
                -3.1210629094596123
            ]
        },
        {
            "positions": [
                -1.4794643194505477,
                -1.31839927132558,
                1.9759241049504412,
                -0.630909880659579,
                1.1417274854870105,
                -3.1200528793816646
            ]
        },
        {
            "positions": [
                -1.575528460458966,
                -1.3674929252907075,
                1.9650780471398337,
                -0.5746435015084195,
                1.308170200588792,
                -3.1190428493037166
            ]
        },
        {
            "positions": [
                -1.6715926014673843,
                -1.4165865792558348,
                1.9542319893292261,
                -0.51837712235726,
                1.4746129156905736,
                -3.118032819225769
            ]
        }
    ]
}