{
    "goal": {
        "global_pose": {
            "orientation": {
                "w": -0.4816463035849501,
                "x": 0.5182115481033762,
                "y": 0.4908360881923453,
                "z": -0.5084816262002911
            },
            "position": {
                "x": -0.8240239810943604,
                "y": -0.300875300988555,
                "z": 0.16403168439865112
            }
        },
        "name": "move_to_storage_C"
    },
    "id": "BiEST_move_to_storage_C_135",
    "joint_names": [
        "shoulder_pan_joint",
        "shoulder_lift_joint",
        "elbow_joint",
        "wrist_1_joint",
        "wrist_2_joint",
        "wrist_3_joint"
    ],
    "metrics": {
        "cart_traj_len": 0.5770699854470125,
        "distance_elbow_joint": 0.26040595945598244,
        "distance_shoulder_lift_joint": 0.19042120825693054,
        "distance_shoulder_pan_joint": 0.49314473835551187,
        "distance_wrist_1_joint": 0.07758391020113353,
        "distance_wrist_2_joint": 1.0761223876536516,
        "distance_wrist_3_joint": 0.06826256410363696,
        "smoothness": 0.0,
        "time": 0.143292896,
        "traj_len": 1.4717135482242618,
        "weighted_distance": 1.8590783184387112
    },
    "planner": "BiEST",
    "start": {
        "state": {
            "elbow_joint": 2.010868314990456,
            "shoulder_lift_joint": -1.1634956873337592,
            "shoulder_pan_joint": -2.4736205022346125,
            "wrist_1_joint": -0.8367026794202681,
            "wrist_2_joint": 0.6746043897044499,
            "wrist_3_joint": -3.1496632123970403
        }
    },
    "waypoints": [
        {
            "positions": [
                -2.4736205022346125,
                -1.1634956873337592,
                2.010868314990456,
                -0.8367026794202681,
                0.6746043897044499,
                -3.1496632123970403
            ]
        },
        {
            "positions": [
                -2.555811291960531,
                -1.1317588192909374,
                1.967467321747792,
                -0.8237720277200792,
                0.8539581209800585,
                -3.1382861183797672
            ]
        },
        {
            "positions": [
                -2.63800208168645,
                -1.1000219512481157,
                1.9240663285051283,
                -0.8108413760198903,
                1.0333118522556672,
                -3.1269090243624946
            ]
        },
        {
            "positions": [
                -2.7201928714123684,
                -1.068285083205294,
                1.8806653352624645,
                -0.7979107243197013,
                1.2126655835312756,
                -3.115531930345222
            ]
        },
        {
            "positions": [
                -2.802383661138287,
                -1.036548215162472,
                1.837264342019801,
                -0.7849800726195124,
                1.3920193148068845,
                -3.104154836327949
            ]
        },
        {
            "positions": [
                -2.8845744508642057,
                -1.0048113471196505,
                1.7938633487771372,
                -0.7720494209193235,
                1.5713730460824928,
                -3.092777742310676
            ]
        },
        {
            "positions": [
                -2.9667652405901244,
                -0.9730744790768286,
                1.7504623555344734,
                -0.7591187692191346,
                1.7507267773581014,
                -3.0814006482934033
            ]
        }
    ]
}