{
    "goal": {
        "global_pose": {
            "orientation": {
                "w": -0.4816463035849501,
                "x": 0.5182115481033762,
                "y": 0.4908360881923453,
                "z": -0.5084816262002911
            },
            "position": {
                "x": -0.8240239810943604,
                "y": 0.19912469901144506,
                "z": 0.16403168439865112
            }
        },
        "name": "move_to_storage_D"
    },
    "id": "BiEST_move_to_storage_D_77",
    "joint_names": [
        "shoulder_pan_joint",
        "shoulder_lift_joint",
        "elbow_joint",
        "wrist_1_joint",
        "wrist_2_joint",
        "wrist_3_joint"
    ],
    "metrics": {
        "cart_traj_len": 3.855514080480126,
        "distance_elbow_joint": 4.22834698023523,
        "distance_shoulder_lift_joint": 1.2634396289577443,
        "distance_shoulder_pan_joint": 2.8116614400914783,
        "distance_wrist_1_joint": 2.288827324577625,
        "distance_wrist_2_joint": 3.561629358380942,
        "distance_wrist_3_joint": 4.289038349240149,
        "smoothness": 0.1814958048950617,
        "time": 0.130754025,
        "traj_len": 4.294524779470153,
        "weighted_distance": 5.7333651953213325
    },
    "planner": "BiEST",
    "start": {
        "state": {
            "elbow_joint": -2.384821988534728,
            "shoulder_lift_joint": -2.2788054721415256,
            "shoulder_pan_joint": -0.1854694642142757,
            "wrist_1_joint": 1.4845938289331202,
            "wrist_2_joint": 0.17898776772866878,
            "wrist_3_joint": 0.037105688729662994
        }
    },
    "waypoints": [
        {
            "positions": [
                -0.1854694642142757,
                -2.2788054721415256,
                -2.384821988534728,
                1.4845938289331202,
                0.17898776772866878,
                0.037105688729662994
            ]
        },
        {
            "positions": [
                -0.12461294937926608,
                -2.2446051484069964,
                -2.3856050406352867,
                1.357111005496672,
                0.08517190435282306,
                -0.0055590863435186905
            ]
        },
        {
            "positions": [
                -0.06375643454425645,
                -2.210404824672467,
                -2.386388092735846,
                1.2296281820602235,
                -0.008643959023022674,
                -0.048223861416700375
            ]
        },
        {
            "positions": [
                -0.0028999197092468287,
                -2.1762045009379376,
                -2.3871711448364046,
                1.1021453586237753,
                -0.10245982239886839,
                -0.09088863648988207
            ]
        },
        {
            "positions": [
                0.057956595125762816,
                -2.1420041772034084,
                -2.3879541969369633,
                0.9746625351873269,
                -0.19627568577471413,
                -0.13355341156306375
            ]
        },
        {
            "positions": [
                0.11881310996077246,
                -2.1078038534688788,
                -2.388737249037522,
                0.8471797117508786,
                -0.2900915491505599,
                -0.17621818663624542
            ]
        },
        {
            "positions": [
                0.17966962479578205,
                -2.0736035297343496,
                -2.389520301138081,
                0.7196968883144303,
                -0.3839074125264056,
                -0.21888296170942714
            ]
        },
        {
            "positions": [
                0.2405261396307917,
                -2.03940320599982,
                -2.39030335323864,
                0.592214064877982,
                -0.4777232759022514,
                -0.2615477367826088
            ]
        },
        {
            "positions": [
                0.30138265446580137,
                -2.0052028822652908,
                -2.3910864053391987,
                0.4647312414415337,
                -0.5715391392780971,
                -0.30421251185579046
            ]
        },
        {
            "positions": [
                0.36775746241015705,
                -1.9696629991820982,
                -2.3773208572936184,
                0.33742896975562836,
                -0.6565609988740774,
                -0.3362440071431889
            ]
        },
        {
            "positions": [
                0.43413227035451274,
                -1.9341231160989056,
                -2.363555309248038,
                0.210126698069723,
                -0.7415828584700578,
                -0.3682755024305873
            ]
        },
        {
            "positions": [
                0.5005070782988683,
                -1.898583233015713,
                -2.349789761202458,
                0.08282442638381765,
                -0.8266047180660381,
                -0.4003069977179858
            ]
        },
        {
            "positions": [
                0.5668818862432241,
                -1.8630433499325207,
                -2.3360242131568776,
                -0.044477845302087704,
                -0.9116265776620185,
                -0.4323384930053842
            ]
        },
        {
            "positions": [
                0.6332566941875797,
                -1.8275034668493282,
                -2.3222586651112973,
                -0.17178011698799306,
                -0.9966484372579988,
                -0.46436998829278264
            ]
        },
        {
            "positions": [
                0.6996315021319354,
                -1.7919635837661356,
                -2.308493117065717,
                -0.2990823886738984,
                -1.081670296853979,
                -0.4964014835801811
            ]
        },
        {
            "positions": [
                0.766006310076291,
                -1.756423700682943,
                -2.2947275690201367,
                -0.4263846603598038,
                -1.1666921564499595,
                -0.5284329788675796
            ]
        },
        {
            "positions": [
                0.8223755726763187,
                -1.7339674019708473,
                -2.16970563789554,
                -0.4378346250654008,
                -1.099542173595344,
                -0.41559965518143094
            ]
        },
        {
            "positions": [
                0.8787448352763463,
                -1.7115111032587516,
                -2.044683706770943,
                -0.4492845897709977,
                -1.0323921907407283,
                -0.30276633149528226
            ]
        },
        {
            "positions": [
                0.9351140978763739,
                -1.6890548045466556,
                -1.919661775646346,
                -0.4607345544765947,
                -0.9652422078861129,
                -0.18993300780913358
            ]
        },
        {
            "positions": [
                0.9914833604764016,
                -1.6665985058345598,
                -1.794639844521749,
                -0.4721845191821917,
                -0.8980922250314973,
                -0.07709968412298496
            ]
        },
        {
            "positions": [
                1.0478526230764293,
                -1.644142207122464,
                -1.6696179133971523,
                -0.4836344838877886,
                -0.8309422421768817,
                0.03573363956316378
            ]
        },
        {
            "positions": [
                1.104221885676457,
                -1.621685908410368,
                -1.5445959822725555,
                -0.4950844485933856,
                -0.7637922593222662,
                0.1485669632493124
            ]
        },
        {
            "positions": [
                1.1605911482764846,
                -1.5992296096982723,
                -1.4195740511479584,
                -0.5065344132989825,
                -0.6966422764676508,
                0.261400286935461
            ]
        },
        {
            "positions": [
                1.2169604108765122,
                -1.5767733109861766,
                -1.2945521200233614,
                -0.5179843780045795,
                -0.6294922936130352,
                0.37423361062160965
            ]
        },
        {
            "positions": [
                1.2733296734765398,
                -1.5543170122740808,
                -1.1695301888987648,
                -0.5294343427101764,
                -0.5623423107584197,
                0.48706693430775816
            ]
        },
        {
            "positions": [
                1.3296989360765674,
                -1.531860713561985,
                -1.0445082577741678,
                -0.5408843074157734,
                -0.4951923279038041,
                0.5999002579939071
            ]
        },
        {
            "positions": [
                1.386068198676595,
                -1.509404414849889,
                -0.919486326649571,
                -0.5523342721213704,
                -0.4280423450491886,
                0.7127335816800556
            ]
        },
        {
            "positions": [
                1.4424374612766226,
                -1.4869481161377933,
                -0.7944643955249739,
                -0.5637842368269673,
                -0.360892362194573,
                0.8255669053662044
            ]
        },
        {
            "positions": [
                1.4988067238766503,
                -1.4644918174256976,
                -0.6694424644003771,
                -0.5752342015325643,
                -0.2937423793399575,
                0.9384002290523529
            ]
        },
        {
            "positions": [
                1.5551759864766779,
                -1.4420355187136016,
                -0.5444205332757801,
                -0.5866841662381612,
                -0.2265923964853419,
                1.0512335527385015
            ]
        },
        {
            "positions": [
                1.6115452490767055,
                -1.419579220001506,
                -0.4193986021511833,
                -0.5981341309437582,
                -0.15944241363072642,
                1.1640668764246502
            ]
        },
        {
            "positions": [
                1.667914511676733,
                -1.39712292128941,
                -0.29437667102658605,
                -0.6095840956493552,
                -0.09229243077611082,
                1.276900200110799
            ]
        },
        {
            "positions": [
                1.7242837742767607,
                -1.3746666225773143,
                -0.16935473990198968,
                -0.6210340603549521,
                -0.025142447921495226,
                1.3897335237969477
            ]
        },
        {
            "positions": [
                1.7806530368767883,
                -1.3522103238652186,
                -0.044332808777392874,
                -0.6324840250605491,
                0.04200753493312015,
                1.502566847483096
            ]
        },
        {
            "positions": [
                1.8370222994768162,
                -1.3297540251531226,
                0.08068912234720438,
                -0.6439339897661461,
                0.10915751778773597,
                1.6154001711692452
            ]
        },
        {
            "positions": [
                1.8933915620768438,
                -1.3072977264410268,
                0.2057110534718012,
                -0.655383954471743,
                0.17630750064235134,
                1.728233494855394
            ]
        },
        {
            "positions": [
                1.9497608246768714,
                -1.284841427728931,
                0.330732984596398,
                -0.66683391917734,
                0.24345748349696694,
                1.8410668185415422
            ]
        },
        {
            "positions": [
                2.0061300872768992,
                -1.2623851290168353,
                0.4557549157209948,
                -0.6782838838829369,
                0.3106074663515823,
                1.953900142227691
            ]
        },
        {
            "positions": [
                2.0624993498769264,
                -1.2399288303047395,
                0.580776846845592,
                -0.6897338485885339,
                0.37775744920619814,
                2.0667334659138397
            ]
        },
        {
            "positions": [
                2.1188686124769545,
                -1.2174725315926436,
                0.7057987779701889,
                -0.7011838132941308,
                0.4449074320608135,
                2.1795667895999884
            ]
        },
        {
            "positions": [
                2.1752378750769816,
                -1.1950162328805478,
                0.8308207090947857,
                -0.7126337779997278,
                0.5120574149154291,
                2.2924001132861367
            ]
        },
        {
            "positions": [
                2.2316071376770097,
                -1.172559934168452,
                0.9558426402193825,
                -0.7240837427053248,
                0.5792073977700445,
                2.4052334369722854
            ]
        },
        {
            "positions": [
                2.2879764002770373,
                -1.150103635456356,
                1.0808645713439797,
                -0.7355337074109218,
                0.6463573806246603,
                2.5180667606584346
            ]
        },
        {
            "positions": [
                2.344345662877065,
                -1.1276473367442603,
                1.2058865024685765,
                -0.7469836721165187,
                0.7135073634792757,
                2.630900084344583
            ]
        },
        {
            "positions": [
                2.4007149254770925,
                -1.1051910380321646,
                1.3309084335931733,
                -0.7584336368221156,
                0.7806573463338913,
                2.7437334080307316
            ]
        },
        {
            "positions": [
                2.45708418807712,
                -1.0827347393200688,
                1.4559303647177702,
                -0.7698836015277126,
                0.8478073291885067,
                2.85656673171688
            ]
        },
        {
            "positions": [
                2.5134534506771478,
                -1.060278440607973,
                1.5809522958423674,
                -0.7813335662333096,
                0.9149573120431227,
                2.969400055403029
            ]
        },
        {
            "positions": [
                2.5698227132771754,
                -1.037822141895877,
                1.7059742269669647,
                -0.7927835309389066,
                0.9821072948977378,
                3.0822333790891774
            ]
        },
        {
            "positions": [
                2.626191975877203,
                -1.0153658431837813,
                1.8309961580915615,
                -0.8042334956445035,
                1.0492572777523534,
                3.195066702775326
            ]
        }
    ]
}