{
    "goal": {
        "global_pose": {
            "orientation": {
                "w": 0.7031023502349854,
                "x": -0.7110244035720825,
                "y": 0.007748599164187908,
                "z": 0.005598929710686207
            },
            "position": {
                "x": 0.11585023208521307,
                "y": 0.44412534475326537,
                "z": 0.3711530566215515
            }
        },
        "name": "move_to_auspresseinheit_A"
    },
    "id": "BiEST_move_to_auspresseinheit_A_29",
    "joint_names": [
        "shoulder_pan_joint",
        "shoulder_lift_joint",
        "elbow_joint",
        "wrist_1_joint",
        "wrist_2_joint",
        "wrist_3_joint"
    ],
    "metrics": {
        "cart_traj_len": 2.4180223549456934,
        "distance_elbow_joint": 1.1058753674063748,
        "distance_shoulder_lift_joint": 3.1596606793338182,
        "distance_shoulder_pan_joint": 1.0422400456129095,
        "distance_wrist_1_joint": 0.6143789706181904,
        "distance_wrist_2_joint": 1.192113278616556,
        "distance_wrist_3_joint": 6.177583325544495,
        "smoothness": 0.7970101544955477,
        "time": 0.160003098,
        "traj_len": 3.645799180856282,
        "weighted_distance": 5.2396097724407
    },
    "planner": "BiEST",
    "start": {
        "state": {
            "elbow_joint": 2.4225746658250005,
            "shoulder_lift_joint": -1.3736534386056498,
            "shoulder_pan_joint": -0.3378633547517467,
            "wrist_1_joint": -1.0288598680537169,
            "wrist_2_joint": 1.233022673432363,
            "wrist_3_joint": -3.0940220416140027
        }
    },
    "waypoints": [
        {
            "positions": [
                -0.3378633547517467,
                -1.3736534386056498,
                2.4225746658250005,
                -1.0288598680537169,
                1.233022673432363,
                -3.0940220416140027
            ]
        },
        {
            "positions": [
                -0.30549703851022725,
                -1.4659409726985304,
                2.3941511222852667,
                -0.9992697911107686,
                1.1898706497471747,
                -2.9408182248733508
            ]
        },
        {
            "positions": [
                -0.2731307222687077,
                -1.558228506791411,
                2.365727578745533,
                -0.9696797141678204,
                1.1467186260619864,
                -2.7876144081326992
            ]
        },
        {
            "positions": [
                -0.24076440602718827,
                -1.6505160408842916,
                2.3373040352057997,
                -0.9400896372248722,
                1.103566602376798,
                -2.6344105913920473
            ]
        },
        {
            "positions": [
                -0.20839808978566876,
                -1.742803574977172,
                2.308880491666066,
                -0.9104995602819239,
                1.0604145786916097,
                -2.4812067746513953
            ]
        },
        {
            "positions": [
                -0.17603177354414928,
                -1.8350911090700526,
                2.280456948126332,
                -0.8809094833389757,
                1.0172625550064214,
                -2.3280029579107437
            ]
        },
        {
            "positions": [
                -0.1436654573026298,
                -1.9273786431629332,
                2.2520334045865984,
                -0.8513194063960274,
                0.974110531321233,
                -2.1747991411700918
            ]
        },
        {
            "positions": [
                -0.11129914106111033,
                -2.0196661772558135,
                2.2236098610468646,
                -0.8217293294530792,
                0.9309585076360447,
                -2.0215953244294402
            ]
        },
        {
            "positions": [
                -0.0789328248195908,
                -2.1119537113486944,
                2.1951863175071313,
                -0.7921392525101308,
                0.8878064839508563,
                -1.868391507688788
            ]
        },
        {
            "positions": [
                -0.04656650857807132,
                -2.2042412454415747,
                2.1667627739673976,
                -0.7625491755671826,
                0.8446544602656679,
                -1.7151876909481363
            ]
        },
        {
            "positions": [
                -0.014200192336551842,
                -2.2965287795344556,
                2.138339230427664,
                -0.7329590986242344,
                0.8015024365804796,
                -1.5619838742074845
            ]
        },
        {
            "positions": [
                0.01816612390496769,
                -2.388816313627336,
                2.10991568688793,
                -0.703369021681286,
                0.7583504128952911,
                -1.4087800574668325
            ]
        },
        {
            "positions": [
                0.05053244014648711,
                -2.4811038477202167,
                2.0814921433481963,
                -0.6737789447383379,
                0.7151983892101029,
                -1.255576240726181
            ]
        },
        {
            "positions": [
                0.08289875638800664,
                -2.573391381813097,
                2.053068599808463,
                -0.6441888677953895,
                0.6720463655249146,
                -1.102372423985529
            ]
        },
        {
            "positions": [
                0.11526507262952607,
                -2.6656789159059775,
                2.0246450562687293,
                -0.6145987908524414,
                0.6288943418397263,
                -0.9491686072448773
            ]
        },
        {
            "positions": [
                0.1476313888710456,
                -2.7579664499988583,
                1.9962215127289955,
                -0.585008713909493,
                0.5857423181545378,
                -0.7959647905042253
            ]
        },
        {
            "positions": [
                0.17999770511256513,
                -2.850253984091739,
                1.9677979691892618,
                -0.5554186369665448,
                0.5425902944693495,
                -0.6427609737635733
            ]
        },
        {
            "positions": [
                0.21236402135408455,
                -2.942541518184619,
                1.9393744256495282,
                -0.5258285600235966,
                0.49943827078416114,
                -0.4895571570229218
            ]
        },
        {
            "positions": [
                0.24473033759560409,
                -3.0348290522775,
                1.9109508821097945,
                -0.49623848308064833,
                0.4562862470989728,
                -0.3363533402822698
            ]
        },
        {
            "positions": [
                0.2770966538371235,
                -3.1271165863703807,
                1.882527338570061,
                -0.4666484061377001,
                0.4131342234137845,
                -0.1831495235416183
            ]
        },
        {
            "positions": [
                0.3094629700786431,
                -3.219404120463261,
                1.8541037950303272,
                -0.43705832919475185,
                0.36998219972859614,
                -0.02994570680096631
            ]
        },
        {
            "positions": [
                0.33579055146414444,
                -3.131810120631514,
                1.8899307614711074,
                -0.43856349131203354,
                0.3919203867227821,
                -0.23751283951639657
            ]
        },
        {
            "positions": [
                0.3621181328496458,
                -3.0442161207997667,
                1.9257577279118874,
                -0.4400686534293153,
                0.41385857371696805,
                -0.4450799722318268
            ]
        },
        {
            "positions": [
                0.3884457142351471,
                -2.9566221209680195,
                1.9615846943526676,
                -0.44157381554659697,
                0.43579676071115403,
                -0.6526471049472571
            ]
        },
        {
            "positions": [
                0.41477329562064846,
                -2.8690281211362727,
                1.9974116607934476,
                -0.4430789776638787,
                0.45773494770534,
                -0.8602142376626873
            ]
        },
        {
            "positions": [
                0.44110087700614975,
                -2.7814341213045255,
                2.0332386272342275,
                -0.4445841397811604,
                0.47967313469952594,
                -1.0677813703781176
            ]
        },
        {
            "positions": [
                0.46742845839165115,
                -2.6938401214727783,
                2.069065593675008,
                -0.4460893018984421,
                0.5016113216937119,
                -1.2753485030935479
            ]
        },
        {
            "positions": [
                0.49375603977715243,
                -2.606246121641031,
                2.104892560115788,
                -0.44759446401572384,
                0.5235495086878978,
                -1.4829156358089781
            ]
        },
        {
            "positions": [
                0.5200836211626538,
                -2.518652121809284,
                2.140719526556568,
                -0.4490996261330055,
                0.5454876956820839,
                -1.6904827685244084
            ]
        },
        {
            "positions": [
                0.5464112025481551,
                -2.4310581219775367,
                2.176546492997348,
                -0.45060478825028727,
                0.5674258826762698,
                -1.8980499012398386
            ]
        },
        {
            "positions": [
                0.5727387839336564,
                -2.3434641221457895,
                2.2123734594381284,
                -0.45210995036756896,
                0.5893640696704557,
                -2.105617033955269
            ]
        },
        {
            "positions": [
                0.5990663653191578,
                -2.2558701223140423,
                2.2482004258789083,
                -0.45361511248485065,
                0.6113022566646418,
                -2.313184166670699
            ]
        },
        {
            "positions": [
                0.6253939467046592,
                -2.168276122482295,
                2.2840273923196883,
                -0.4551202746021324,
                0.6332404436588277,
                -2.5207512993861294
            ]
        },
        {
            "positions": [
                0.6517215280901605,
                -2.080682122650548,
                2.3198543587604687,
                -0.4566254367194141,
                0.6551786306530136,
                -2.7283184321015597
            ]
        },
        {
            "positions": [
                0.6780491094756618,
                -1.993088122818801,
                2.3556813252012487,
                -0.4581305988366958,
                0.6771168176471996,
                -2.93588556481699
            ]
        },
        {
            "positions": [
                0.7043766908611632,
                -1.905494122987054,
                2.3915082916420287,
                -0.4596357609539775,
                0.6990550046413856,
                -3.14345269753242
            ]
        }
    ]
}