{
    "goal": {
        "global_pose": {
            "orientation": {
                "w": 0.7047431468963623,
                "x": -0.7094548344612122,
                "y": 0.0024358443915843964,
                "z": -0.0022348060738295317
            },
            "position": {
                "x": 0.6094750761985779,
                "y": 0.3671506643295288,
                "z": 0.19426114857196808
            }
        },
        "name": "move_to_magneteinheit_A"
    },
    "id": "BiEST_move_to_magneteinheit_A_117",
    "joint_names": [
        "shoulder_pan_joint",
        "shoulder_lift_joint",
        "elbow_joint",
        "wrist_1_joint",
        "wrist_2_joint",
        "wrist_3_joint"
    ],
    "metrics": {
        "cart_traj_len": 3.674844570495622,
        "distance_elbow_joint": 3.899501899751253,
        "distance_shoulder_lift_joint": 0.23007716856035199,
        "distance_shoulder_pan_joint": 3.4682623430491377,
        "distance_wrist_1_joint": 1.2367671753162015,
        "distance_wrist_2_joint": 1.7089752598686323,
        "distance_wrist_3_joint": 3.602563473860825,
        "smoothness": 0.29863574535918636,
        "time": 0.131751186,
        "traj_len": 3.7611364400146936,
        "weighted_distance": 4.929200412167565
    },
    "planner": "BiEST",
    "start": {
        "state": {
            "elbow_joint": -1.9196185241190666,
            "shoulder_lift_joint": -1.2443396400964142,
            "shoulder_pan_joint": 2.6996025414629847,
            "wrist_1_joint": -1.5485510000780065,
            "wrist_2_joint": -1.5709468930060704,
            "wrist_3_joint": 0.4420197071253992
        }
    },
    "waypoints": [
        {
            "positions": [
                2.6996025414629847,
                -1.2443396400964142,
                -1.9196185241190666,
                -1.5485510000780065,
                -1.5709468930060704,
                0.4420197071253992
            ]
        },
        {
            "positions": [
                2.6051608217635795,
                -1.2463491034193297,
                -1.8086896377233364,
                -1.5177583358834226,
                -1.517599392538602,
                0.3457796214121621
            ]
        },
        {
            "positions": [
                2.510719102064175,
                -1.2483585667422452,
                -1.6977607513276063,
                -1.4869656716888389,
                -1.4642518920711334,
                0.24953953569892504
            ]
        },
        {
            "positions": [
                2.4162773823647696,
                -1.2503680300651607,
                -1.586831864931876,
                -1.456173007494255,
                -1.410904391603665,
                0.15329944998568795
            ]
        },
        {
            "positions": [
                2.3218356626653645,
                -1.2523774933880765,
                -1.475902978536146,
                -1.425380343299671,
                -1.3575568911361964,
                0.057059364272450896
            ]
        },
        {
            "positions": [
                2.2273939429659593,
                -1.254386956710992,
                -1.3649740921404157,
                -1.3945876791050873,
                -1.304209390668728,
                -0.03918072144078616
            ]
        },
        {
            "positions": [
                2.132952223266554,
                -1.2563964200339075,
                -1.2540452057446854,
                -1.3637950149105034,
                -1.2508618902012594,
                -0.13542080715402327
            ]
        },
        {
            "positions": [
                2.0385105035671494,
                -1.258405883356823,
                -1.1431163193489553,
                -1.3330023507159194,
                -1.197514389733791,
                -0.23166089286726033
            ]
        },
        {
            "positions": [
                1.9440687838677442,
                -1.2604153466797385,
                -1.0321874329532252,
                -1.3022096865213357,
                -1.1441668892663226,
                -0.3279009785804974
            ]
        },
        {
            "positions": [
                1.849627064168339,
                -1.262424810002654,
                -0.921258546557495,
                -1.2714170223267518,
                -1.090819388798854,
                -0.42414106429373444
            ]
        },
        {
            "positions": [
                1.755185344468934,
                -1.2644342733255698,
                -0.8103296601617647,
                -1.2406243581321679,
                -1.0374718883313856,
                -0.5203811500069715
            ]
        },
        {
            "positions": [
                1.660743624769529,
                -1.2664437366484853,
                -0.6994007737660346,
                -1.2098316939375842,
                -0.9841243878639171,
                -0.6166212357202087
            ]
        },
        {
            "positions": [
                1.566301905070124,
                -1.2684531999714008,
                -0.5884718873703043,
                -1.1790390297430002,
                -0.9307768873964486,
                -0.7128613214334457
            ]
        },
        {
            "positions": [
                1.4718601853707187,
                -1.2704626632943163,
                -0.47754300097457425,
                -1.1482463655484163,
                -0.8774293869289801,
                -0.8091014071466828
            ]
        },
        {
            "positions": [
                1.3774184656713138,
                -1.2724721266172319,
                -0.36661411457884396,
                -1.1174537013538326,
                -0.8240818864615117,
                -0.9053414928599198
            ]
        },
        {
            "positions": [
                1.2829767459719088,
                -1.2744815899401474,
                -0.2556852281831139,
                -1.0866610371592487,
                -0.7707343859940432,
                -1.0015815785731568
            ]
        },
        {
            "positions": [
                1.1885350262725036,
                -1.276491053263063,
                -0.1447563417873836,
                -1.0558683729646647,
                -0.7173868855265747,
                -1.097821664286394
            ]
        },
        {
            "positions": [
                1.0940933065730984,
                -1.2785005165859786,
                -0.03382745539165333,
                -1.025075708770081,
                -0.6640393850591062,
                -1.1940617499996309
            ]
        },
        {
            "positions": [
                0.9996515868736935,
                -1.2805099799088941,
                0.07710143100407674,
                -0.9942830445754971,
                -0.6106918845916377,
                -1.2903018357128682
            ]
        },
        {
            "positions": [
                0.9052098671742885,
                -1.2825194432318097,
                0.1880303173998068,
                -0.9634903803809133,
                -0.5573443841241692,
                -1.386541921426105
            ]
        },
        {
            "positions": [
                0.8107681474748833,
                -1.2845289065547252,
                0.2989592037955373,
                -0.9326977161863295,
                -0.5039968836567008,
                -1.4827820071393423
            ]
        },
        {
            "positions": [
                0.7163264277754782,
                -1.2865383698776407,
                0.4098880901912674,
                -0.9019050519917455,
                -0.4506493831892322,
                -1.579022092852579
            ]
        },
        {
            "positions": [
                0.6218847080760734,
                -1.2885478332005562,
                0.5208169765869974,
                -0.8711123877971617,
                -0.3973018827217638,
                -1.6752621785658164
            ]
        },
        {
            "positions": [
                0.5274429883766683,
                -1.290557296523472,
                0.6317458629827275,
                -0.8403197236025779,
                -0.3439543822542954,
                -1.7715022642790532
            ]
        },
        {
            "positions": [
                0.4330012686772631,
                -1.2925667598463875,
                0.742674749378458,
                -0.809527059407994,
                -0.2906068817868268,
                -1.8677423499922905
            ]
        },
        {
            "positions": [
                0.3385595489778579,
                -1.294576223169303,
                0.8536036357741881,
                -0.7787343952134101,
                -0.23725938131935842,
                -1.9639824357055273
            ]
        },
        {
            "positions": [
                0.2441178292784527,
                -1.2965856864922185,
                0.9645325221699181,
                -0.7479417310188263,
                -0.1839118808518898,
                -2.0602225214187646
            ]
        },
        {
            "positions": [
                0.14967610957904798,
                -1.298595149815134,
                1.0754614085656486,
                -0.7171490668242425,
                -0.13056438038442142,
                -2.1564626071320014
            ]
        },
        {
            "positions": [
                0.0552343898796428,
                -1.3006046131380495,
                1.1863902949613787,
                -0.6863564026296586,
                -0.07721687991695303,
                -2.2527026928452387
            ]
        },
        {
            "positions": [
                -0.03920732981976238,
                -1.3026140764609653,
                1.2973191813571088,
                -0.6555637384350748,
                -0.023869379449484418,
                -2.3489427785584756
            ]
        },
        {
            "positions": [
                -0.13364904951916712,
                -1.3046235397838808,
                1.4082480677528388,
                -0.6247710742404909,
                0.02947812101798397,
                -2.445182864271713
            ]
        },
        {
            "positions": [
                -0.2280907692185723,
                -1.3066330031067963,
                1.5191769541485693,
                -0.593978410045907,
                0.08282562148545258,
                -2.5414229499849497
            ]
        },
        {
            "positions": [
                -0.3225324889179773,
                -1.3086424664297118,
                1.6301058405442994,
                -0.5631857458513232,
                0.13617312195292106,
                -2.637663035698187
            ]
        },
        {
            "positions": [
                -0.23330702638434225,
                -1.275487597984301,
                1.7000613475618769,
                -0.6134661300692269,
                0.13580207297099284,
                -2.7422391819056346
            ]
        },
        {
            "positions": [
                -0.1440815638507072,
                -1.2423327295388902,
                1.7700168545794541,
                -0.6637465142871305,
                0.1354310239890646,
                -2.8468153281130824
            ]
        },
        {
            "positions": [
                -0.05485610131707219,
                -1.2091778610934791,
                1.8399723615970316,
                -0.7140268985050342,
                0.13505997500713637,
                -2.9513914743205305
            ]
        },
        {
            "positions": [
                0.03436936121656292,
                -1.1760229926480683,
                1.9099278686146088,
                -0.7643072827229378,
                0.13468892602520813,
                -3.055967620527978
            ]
        },
        {
            "positions": [
                0.12359482375019792,
                -1.1428681242026575,
                1.9798833756321863,
                -0.8145876669408415,
                0.1343178770432799,
                -3.160543766735426
            ]
        }
    ]
}