{
    "goal": {
        "global_pose": {
            "orientation": {
                "w": 0.7047431468963623,
                "x": -0.7094548344612122,
                "y": 0.0024358443915843964,
                "z": -0.0022348060738295317
            },
            "position": {
                "x": 0.6094750761985779,
                "y": 0.3671506643295288,
                "z": 0.19426114857196808
            }
        },
        "name": "move_to_magneteinheit_A"
    },
    "id": "BiEST_move_to_magneteinheit_A_68",
    "joint_names": [
        "shoulder_pan_joint",
        "shoulder_lift_joint",
        "elbow_joint",
        "wrist_1_joint",
        "wrist_2_joint",
        "wrist_3_joint"
    ],
    "metrics": {
        "cart_traj_len": 3.443677250134024,
        "distance_elbow_joint": 3.8739369840305895,
        "distance_shoulder_lift_joint": 0.46571236008544825,
        "distance_shoulder_pan_joint": 2.708450827857235,
        "distance_wrist_1_joint": 1.1860178375403279,
        "distance_wrist_2_joint": 3.062339691008727,
        "distance_wrist_3_joint": 2.575114665302512,
        "smoothness": 0.3567919825884498,
        "time": 0.09809959900000001,
        "traj_len": 3.724455982532864,
        "weighted_distance": 4.823915341813009
    },
    "planner": "BiEST",
    "start": {
        "state": {
            "elbow_joint": -1.9196185241190666,
            "shoulder_lift_joint": -1.2443396400964142,
            "shoulder_pan_joint": 2.6996025414629847,
            "wrist_1_joint": -1.5485510000780065,
            "wrist_2_joint": -1.5709468930060704,
            "wrist_3_joint": 0.4420197071253992
        }
    },
    "waypoints": [
        {
            "positions": [
                2.6996025414629847,
                -1.2443396400964142,
                -1.9196185241190666,
                -1.5485510000780065,
                -1.5709468930060704,
                0.4420197071253992
            ]
        },
        {
            "positions": [
                2.6101755683015715,
                -1.2504026243297452,
                -1.8016376640528156,
                -1.5153070631361913,
                -1.48883956522339,
                0.4963912839546259
            ]
        },
        {
            "positions": [
                2.520748595140158,
                -1.2564656085630765,
                -1.6836568039865643,
                -1.4820631261943764,
                -1.4067322374407094,
                0.5507628607838526
            ]
        },
        {
            "positions": [
                2.4313216219787446,
                -1.2625285927964076,
                -1.5656759439203132,
                -1.4488191892525613,
                -1.324624909658029,
                0.6051344376130793
            ]
        },
        {
            "positions": [
                2.3418946488173313,
                -1.2685915770297387,
                -1.447695083854062,
                -1.4155752523107463,
                -1.2425175818753484,
                0.659506014442306
            ]
        },
        {
            "positions": [
                2.252467675655918,
                -1.27465456126307,
                -1.329714223787811,
                -1.3823313153689312,
                -1.160410254092668,
                0.7138775912715327
            ]
        },
        {
            "positions": [
                2.163040702494505,
                -1.280717545496401,
                -1.2117333637215597,
                -1.3490873784271162,
                -1.0783029263099875,
                0.7682491681007595
            ]
        },
        {
            "positions": [
                2.073613729333091,
                -1.2867805297297321,
                -1.0937525036553084,
                -1.315843441485301,
                -0.9961955985273069,
                0.8226207449299863
            ]
        },
        {
            "positions": [
                1.984186756171678,
                -1.2928435139630632,
                -0.9757716435890574,
                -1.282599504543486,
                -0.9140882707446265,
                0.8769923217592128
            ]
        },
        {
            "positions": [
                1.8947597830102647,
                -1.2989064981963945,
                -0.8577907835228062,
                -1.249355567601671,
                -0.8319809429619459,
                0.9313638985884396
            ]
        },
        {
            "positions": [
                1.8053328098488512,
                -1.3049694824297255,
                -0.7398099234565552,
                -1.216111630659856,
                -0.7498736151792654,
                0.9857354754176664
            ]
        },
        {
            "positions": [
                1.715905836687438,
                -1.3110324666630566,
                -0.6218290633903041,
                -1.182867693718041,
                -0.6677662873965851,
                1.040107052246893
            ]
        },
        {
            "positions": [
                1.6264788635260246,
                -1.317095450896388,
                -0.5038482033240528,
                -1.1496237567762257,
                -0.5856589596139045,
                1.0944786290761197
            ]
        },
        {
            "positions": [
                1.5370518903646113,
                -1.323158435129719,
                -0.3858673432578017,
                -1.1163798198344108,
                -0.5035516318312239,
                1.1488502059053465
            ]
        },
        {
            "positions": [
                1.4476249172031979,
                -1.32922141936305,
                -0.2678864831915504,
                -1.0831358828925957,
                -0.4214443040485434,
                1.2032217827345733
            ]
        },
        {
            "positions": [
                1.3581979440417844,
                -1.3352844035963813,
                -0.14990562312529931,
                -1.0498919459507805,
                -0.3393369762658629,
                1.2575933595638
            ]
        },
        {
            "positions": [
                1.2687709708803712,
                -1.3413473878297124,
                -0.03192476305904823,
                -1.0166480090089656,
                -0.25722964848318264,
                1.3119649363930266
            ]
        },
        {
            "positions": [
                1.179343997718958,
                -1.3474103720630435,
                0.08605609700720285,
                -0.9834040720671506,
                -0.17512232070050215,
                1.3663365132222531
            ]
        },
        {
            "positions": [
                1.0899170245575445,
                -1.3534733562963748,
                0.20403695707345415,
                -0.9501601351253355,
                -0.09301499291782145,
                1.42070809005148
            ]
        },
        {
            "positions": [
                1.0004900513961312,
                -1.3595363405297058,
                0.322017817139705,
                -0.9169161981835204,
                -0.010907665135141187,
                1.4750796668807067
            ]
        },
        {
            "positions": [
                0.9110630782347178,
                -1.365599324763037,
                0.4399986772059563,
                -0.8836722612417054,
                0.07119966264753952,
                1.5294512437099335
            ]
        },
        {
            "positions": [
                0.8216361050733045,
                -1.3716623089963682,
                0.5579795372722076,
                -0.8504283242998903,
                0.15330699043022,
                1.5838228205391602
            ]
        },
        {
            "positions": [
                0.7322091319118913,
                -1.3777252932296993,
                0.6759603973384585,
                -0.8171843873580753,
                0.23541431821290026,
                1.638194397368387
            ]
        },
        {
            "positions": [
                0.6427821587504776,
                -1.3837882774630303,
                0.7939412574047098,
                -0.7839404504162601,
                0.31752164599558097,
                1.6925659741976138
            ]
        },
        {
            "positions": [
                0.5533551855890644,
                -1.3898512616963616,
                0.9119221174709611,
                -0.7506965134744452,
                0.39962897377826145,
                1.7469375510268401
            ]
        },
        {
            "positions": [
                0.46392821242765114,
                -1.3959142459296927,
                1.029902977537212,
                -0.7174525765326302,
                0.48173630156094194,
                1.801309127856067
            ]
        },
        {
            "positions": [
                0.3745012392662379,
                -1.4019772301630238,
                1.1478838376034632,
                -0.684208639590815,
                0.5638436293436226,
                1.8556807046852937
            ]
        },
        {
            "positions": [
                0.28507426610482467,
                -1.4080402143963549,
                1.265864697669714,
                -0.650964702649,
                0.6459509571263029,
                1.9100522815145204
            ]
        },
        {
            "positions": [
                0.195647292943411,
                -1.4141031986296861,
                1.3838455577359658,
                -0.6177207657071849,
                0.7280582849089836,
                1.9644238583437472
            ]
        },
        {
            "positions": [
                0.10622031978199792,
                -1.4201661828630172,
                1.5018264178022167,
                -0.5844768287653699,
                0.8101656126916637,
                2.018795435172974
            ]
        },
        {
            "positions": [
                0.0992198316722585,
                -1.3850424252166291,
                1.5657249547827057,
                -0.6086797799358317,
                0.7261526379848835,
                2.1584387231389766
            ]
        },
        {
            "positions": [
                0.09221934356251905,
                -1.349918667570241,
                1.6296234917631947,
                -0.6328827311062935,
                0.6421396632781033,
                2.298082011104979
            ]
        },
        {
            "positions": [
                0.08521885545277963,
                -1.314794909923853,
                1.6935220287436836,
                -0.6570856822767552,
                0.5581266885713232,
                2.437725299070982
            ]
        },
        {
            "positions": [
                0.07821836734304019,
                -1.279671152277465,
                1.7574205657241726,
                -0.681288633447217,
                0.4741137138645431,
                2.5773685870369847
            ]
        },
        {
            "positions": [
                0.07121787923330077,
                -1.244547394631077,
                1.8213191027046618,
                -0.7054915846176788,
                0.39010073915776294,
                2.7170118750029877
            ]
        },
        {
            "positions": [
                0.06421739112356134,
                -1.209423636984689,
                1.8852176396851508,
                -0.7296945357881406,
                0.30608776445098285,
                2.8566551629689902
            ]
        },
        {
            "positions": [
                0.0572169030138219,
                -1.1742998793383008,
                1.9491161766656397,
                -0.7538974869586024,
                0.2220747897442027,
                2.996298450934993
            ]
        },
        {
            "positions": [
                0.1232820924218939,
                -1.130280365544172,
                1.9543184599115226,
                -0.7013744789241437,
                0.128938427380671,
                3.017134372427911
            ]
        }
    ]
}