{
    "goal": {
        "global_pose": {
            "orientation": {
                "w": 0.7047431468963623,
                "x": -0.7094548344612122,
                "y": 0.0024358443915843964,
                "z": -0.0022348060738295317
            },
            "position": {
                "x": 0.6094750761985779,
                "y": 0.3671506643295288,
                "z": 0.19426114857196808
            }
        },
        "name": "move_to_magneteinheit_A"
    },
    "id": "BiEST_move_to_magneteinheit_A_142",
    "joint_names": [
        "shoulder_pan_joint",
        "shoulder_lift_joint",
        "elbow_joint",
        "wrist_1_joint",
        "wrist_2_joint",
        "wrist_3_joint"
    ],
    "metrics": {
        "cart_traj_len": 4.043708613465816,
        "distance_elbow_joint": 3.907116899353321,
        "distance_shoulder_lift_joint": 1.6829630561795186,
        "distance_shoulder_pan_joint": 4.871445154317614,
        "distance_wrist_1_joint": 3.4585053470607234,
        "distance_wrist_2_joint": 1.449271674792941,
        "distance_wrist_3_joint": 2.4370109185368434,
        "smoothness": 0.21880653990686622,
        "time": 0.08505726699999999,
        "traj_len": 4.219752723826475,
        "weighted_distance": 5.2524386630562665
    },
    "planner": "BiEST",
    "start": {
        "state": {
            "elbow_joint": -1.9196185241190666,
            "shoulder_lift_joint": -1.2443396400964142,
            "shoulder_pan_joint": 2.6996025414629847,
            "wrist_1_joint": -1.5485510000780065,
            "wrist_2_joint": -1.5709468930060704,
            "wrist_3_joint": 0.4420197071253992
        }
    },
    "waypoints": [
        {
            "positions": [
                2.6996025414629847,
                -1.2443396400964142,
                -1.9196185241190666,
                -1.5485510000780065,
                -1.5709468930060704,
                0.4420197071253992
            ]
        },
        {
            "positions": [
                2.503605917559987,
                -1.1876915374896917,
                -1.8990767298510616,
                -1.528248185630562,
                -1.5324980326297502,
                0.49522403462906767
            ]
        },
        {
            "positions": [
                2.3076092936569896,
                -1.131043434882969,
                -1.8785349355830567,
                -1.5079453711831174,
                -1.49404917225343,
                0.5484283621327362
            ]
        },
        {
            "positions": [
                2.111612669753992,
                -1.0743953322762465,
                -1.8579931413150517,
                -1.487642556735673,
                -1.4556003118771095,
                0.6016326896364046
            ]
        },
        {
            "positions": [
                1.9156160458509943,
                -1.017747229669524,
                -1.8374513470470468,
                -1.4673397422882286,
                -1.4171514515007892,
                0.654837017140073
            ]
        },
        {
            "positions": [
                1.7196194219479968,
                -0.9610991270628013,
                -1.8169095527790418,
                -1.447036927840784,
                -1.378702591124469,
                0.7080413446437415
            ]
        },
        {
            "positions": [
                1.5236227980449992,
                -0.9044510244560788,
                -1.796367758511037,
                -1.4267341133933396,
                -1.3402537307481488,
                0.7612456721474099
            ]
        },
        {
            "positions": [
                1.3276261741420017,
                -0.8478029218493562,
                -1.7758259642430319,
                -1.4064312989458951,
                -1.3018048703718286,
                0.8144499996510784
            ]
        },
        {
            "positions": [
                1.131629550239004,
                -0.7911548192426336,
                -1.7552841699750268,
                -1.3861284844984505,
                -1.2633560099955081,
                0.867654327154747
            ]
        },
        {
            "positions": [
                0.9356329263360064,
                -0.7345067166359112,
                -1.734742375707022,
                -1.365825670051006,
                -1.224907149619188,
                0.9208586546584154
            ]
        },
        {
            "positions": [
                0.7396363024330088,
                -0.6778586140291886,
                -1.7142005814390169,
                -1.3455228556035614,
                -1.1864582892428677,
                0.9740629821620839
            ]
        },
        {
            "positions": [
                0.543639678530011,
                -0.621210511422466,
                -1.693658787171012,
                -1.325220041156117,
                -1.1480094288665472,
                1.0272673096657523
            ]
        },
        {
            "positions": [
                0.3476430546270137,
                -0.5645624088157434,
                -1.673116992903007,
                -1.3049172267086726,
                -1.109560568490227,
                1.0804716371694207
            ]
        },
        {
            "positions": [
                0.15164643072401596,
                -0.5079143062090208,
                -1.652575198635002,
                -1.284614412261228,
                -1.0711117081139068,
                1.1336759646730892
            ]
        },
        {
            "positions": [
                -0.04435019317898137,
                -0.4512662036022983,
                -1.632033404366997,
                -1.2643115978137835,
                -1.0326628477375865,
                1.1868802921767578
            ]
        },
        {
            "positions": [
                -0.24034681708197958,
                -0.3946181009955757,
                -1.611491610098992,
                -1.244008783366339,
                -0.9942139873612662,
                1.2400846196804263
            ]
        },
        {
            "positions": [
                -0.4363434409849769,
                -0.3379699983888532,
                -1.5909498158309872,
                -1.2237059689188945,
                -0.955765126984946,
                1.2932889471840947
            ]
        },
        {
            "positions": [
                -0.6323400648879747,
                -0.2813218957821305,
                -1.570408021562982,
                -1.20340315447145,
                -0.9173162666086256,
                1.3464932746877631
            ]
        },
        {
            "positions": [
                -0.828336688790972,
                -0.22467379317540814,
                -1.5498662272949773,
                -1.1831003400240054,
                -0.8788674062323054,
                1.3996976021914316
            ]
        },
        {
            "positions": [
                -1.0243333126939698,
                -0.1680256905686855,
                -1.5293244330269722,
                -1.162797525576561,
                -0.8404185458559851,
                1.4529019296951002
            ]
        },
        {
            "positions": [
                -0.9818329682435751,
                -0.19049417600023325,
                -1.3990717364247045,
                -1.0489919006669581,
                -0.8137984226099534,
                1.4000823483629838
            ]
        },
        {
            "positions": [
                -0.9393326237931805,
                -0.212962661431781,
                -1.268819039822437,
                -0.9351862757573552,
                -0.7871782993639217,
                1.3472627670308674
            ]
        },
        {
            "positions": [
                -0.8968322793427859,
                -0.23543114686332875,
                -1.1385663432201694,
                -0.8213806508477524,
                -0.76055817611789,
                1.294443185698751
            ]
        },
        {
            "positions": [
                -0.8543319348923913,
                -0.2578996322948765,
                -1.0083136466179017,
                -0.7075750259381496,
                -0.7339380528718583,
                1.2416236043666347
            ]
        },
        {
            "positions": [
                -0.8118315904419967,
                -0.2803681177264243,
                -0.878060950015634,
                -0.5937694010285467,
                -0.7073179296258266,
                1.188804023034518
            ]
        },
        {
            "positions": [
                -0.7693312459916021,
                -0.302836603157972,
                -0.7478082534133664,
                -0.4799637761189438,
                -0.6806978063797949,
                1.1359844417024019
            ]
        },
        {
            "positions": [
                -0.7268309015412074,
                -0.3253050885895198,
                -0.6175555568110987,
                -0.3661581512093409,
                -0.6540776831337632,
                1.0831648603702853
            ]
        },
        {
            "positions": [
                -0.6843305570908129,
                -0.34777357402106757,
                -0.4873028602088312,
                -0.25235252629973814,
                -0.6274575598877316,
                1.0303452790381689
            ]
        },
        {
            "positions": [
                -0.6418302126404183,
                -0.3702420594526153,
                -0.3570501636065635,
                -0.13854690139013526,
                -0.6008374366416999,
                0.9775256977060525
            ]
        },
        {
            "positions": [
                -0.5993298681900237,
                -0.392710544884163,
                -0.22679746700429582,
                -0.02474127648053237,
                -0.5742173133956682,
                0.9247061163739361
            ]
        },
        {
            "positions": [
                -0.556829523739629,
                -0.4151790303157108,
                -0.09654477040202813,
                0.08906434842907052,
                -0.5475971901496365,
                0.8718865350418197
            ]
        },
        {
            "positions": [
                -0.5143291792892344,
                -0.4376475157472585,
                0.033707926200239324,
                0.2028699733386734,
                -0.5209770669036048,
                0.8190669537097033
            ]
        },
        {
            "positions": [
                -0.47182883483883975,
                -0.4601160011788063,
                0.163960622802507,
                0.3166755982482763,
                -0.4943569436575731,
                0.7662473723775868
            ]
        },
        {
            "positions": [
                -0.4293284903884451,
                -0.482584486610354,
                0.2942133194047747,
                0.4304812231578792,
                -0.4677368204115414,
                0.7134277910454704
            ]
        },
        {
            "positions": [
                -0.3868281459380505,
                -0.5050529720419019,
                0.4244660160070426,
                0.5442868480674821,
                -0.4411166971655097,
                0.6606082097133539
            ]
        },
        {
            "positions": [
                -0.34432780148765596,
                -0.5275214574734496,
                0.5547187126093098,
                0.6580924729770847,
                -0.41449657391947803,
                0.6077886283812376
            ]
        },
        {
            "positions": [
                -0.3018274570372612,
                -0.5499899429049974,
                0.6849714092115777,
                0.7718980978866878,
                -0.38787645067344634,
                0.5549690470491211
            ]
        },
        {
            "positions": [
                -0.2593271125868667,
                -0.572458428336545,
                0.8152241058138452,
                0.8857037227962905,
                -0.36125632742741465,
                0.5021494657170047
            ]
        },
        {
            "positions": [
                -0.21682676813647206,
                -0.5949269137680928,
                0.9454768024161131,
                0.9995093477058934,
                -0.33463620418138296,
                0.4493298843848883
            ]
        },
        {
            "positions": [
                -0.17432642368607743,
                -0.6173953991996406,
                1.0757294990183806,
                1.1133149726154963,
                -0.30801608093535127,
                0.3965103030527719
            ]
        },
        {
            "positions": [
                -0.1318260792356828,
                -0.6398638846311884,
                1.2059821956206485,
                1.2271205975250992,
                -0.2813959576893196,
                0.3436907217206555
            ]
        },
        {
            "positions": [
                -0.08932573478528827,
                -0.6623323700627362,
                1.336234892222916,
                1.340926222434702,
                -0.2547758344432879,
                0.2908711403885391
            ]
        },
        {
            "positions": [
                -0.046825390334893524,
                -0.6848008554942839,
                1.4664875888251834,
                1.454731847344305,
                -0.2281557111972562,
                0.2380515590564225
            ]
        },
        {
            "positions": [
                -0.004325045884499001,
                -0.7072693409258315,
                1.5967402854274508,
                1.5685374722539078,
                -0.2015355879512245,
                0.18523197772430633
            ]
        },
        {
            "positions": [
                0.03817529856589563,
                -0.7297378263573793,
                1.7269929820297187,
                1.6823430971635107,
                -0.1749154647051928,
                0.1324123963921897
            ]
        },
        {
            "positions": [
                0.08067564301629027,
                -0.752206311788927,
                1.8572456786319862,
                1.7961487220731136,
                -0.14829534145916112,
                0.07959281506007332
            ]
        },
        {
            "positions": [
                0.12317598746668489,
                -0.7746747972204748,
                1.987498375234254,
                1.9099543469827165,
                -0.12167521821312949,
                0.02677323372795691
            ]
        }
    ]
}