{
    "goal": {
        "global_pose": {
            "orientation": {
                "w": 0.7047431493862688,
                "x": -0.7094548369677653,
                "y": 0.0024358444001904,
                "z": -0.0022348060817251984
            },
            "position": {
                "x": -0.39052492380142206,
                "y": 0.3671506643295288,
                "z": 0.19426114857196808
            }
        },
        "name": "move_to_magneteinheit_D"
    },
    "id": "BiEST_move_to_magneteinheit_D_49",
    "joint_names": [
        "shoulder_pan_joint",
        "shoulder_lift_joint",
        "elbow_joint",
        "wrist_1_joint",
        "wrist_2_joint",
        "wrist_3_joint"
    ],
    "metrics": {
        "cart_traj_len": 5.079964229899614,
        "distance_elbow_joint": 4.24044853806531,
        "distance_shoulder_lift_joint": 2.5007036034725747,
        "distance_shoulder_pan_joint": 4.992814492218067,
        "distance_wrist_1_joint": 2.6493547546205107,
        "distance_wrist_2_joint": 1.1590750804001382,
        "distance_wrist_3_joint": 6.325084828566717,
        "smoothness": 0.3991981438014645,
        "time": 0.24177357100000002,
        "traj_len": 4.676267881264215,
        "weighted_distance": 6.19080615021157
    },
    "planner": "BiEST",
    "start": {
        "state": {
            "elbow_joint": 0.749534889911806,
            "shoulder_lift_joint": -0.6476975780787326,
            "shoulder_pan_joint": -2.711696901376241,
            "wrist_1_joint": -0.07506478083263063,
            "wrist_2_joint": 0.43296659715538205,
            "wrist_3_joint": -3.14703540197715
        }
    },
    "waypoints": [
        {
            "positions": [
                -2.711696901376241,
                -0.6476975780787326,
                0.749534889911806,
                -0.07506478083263063,
                0.43296659715538205,
                -3.14703540197715
            ]
        },
        {
            "positions": [
                -2.7269965982701994,
                -0.7554170507806877,
                0.7962119108021346,
                -0.21621797415402524,
                0.39815997880838416,
                -3.158975753811057
            ]
        },
        {
            "positions": [
                -2.7422962951641576,
                -0.8631365234826427,
                0.8428889316924634,
                -0.35737116747541986,
                0.3633533604613862,
                -3.1709161056449635
            ]
        },
        {
            "positions": [
                -2.5963842484287873,
                -0.9130671074475356,
                0.8070410332537259,
                -0.34160816260542054,
                0.3666571272033329,
                -3.0326177150121967
            ]
        },
        {
            "positions": [
                -2.4504722016934175,
                -0.9629976914124284,
                0.7711931348149884,
                -0.32584515773542116,
                0.36996089394527953,
                -2.89431932437943
            ]
        },
        {
            "positions": [
                -2.3045601549580472,
                -1.0129282753773212,
                0.7353452363762509,
                -0.31008215286542185,
                0.3732646606872262,
                -2.7560209337466635
            ]
        },
        {
            "positions": [
                -2.158648108222677,
                -1.0628588593422141,
                0.6994973379375133,
                -0.29431914799542247,
                0.37656842742917285,
                -2.6177225431138966
            ]
        },
        {
            "positions": [
                -2.0127360614873067,
                -1.112789443307107,
                0.6636494394987759,
                -0.27855614312542315,
                0.37987219417111945,
                -2.47942415248113
            ]
        },
        {
            "positions": [
                -1.8668240147519368,
                -1.162720027272,
                0.6278015410600384,
                -0.26279313825542383,
                0.3831759609130661,
                -2.341125761848363
            ]
        },
        {
            "positions": [
                -1.7209119680165665,
                -1.2126506112368927,
                0.5919536426213009,
                -0.24703013338542446,
                0.38647972765501276,
                -2.202827371215596
            ]
        },
        {
            "positions": [
                -1.5749999212811965,
                -1.2625811952017856,
                0.5561057441825634,
                -0.2312671285154251,
                0.3897834943969594,
                -2.0645289805828293
            ]
        },
        {
            "positions": [
                -1.4290878745458262,
                -1.3125117791666785,
                0.5202578457438258,
                -0.21550412364542576,
                0.3930872611389061,
                -1.9262305899500627
            ]
        },
        {
            "positions": [
                -1.283175827810456,
                -1.3624423631315714,
                0.48440994730508835,
                -0.1997411187754264,
                0.39639102788085273,
                -1.7879321993172959
            ]
        },
        {
            "positions": [
                -1.1372637810750859,
                -1.4123729470964643,
                0.44856204886635087,
                -0.18397811390542707,
                0.3996947946227994,
                -1.649633808684529
            ]
        },
        {
            "positions": [
                -0.9913517343397158,
                -1.462303531061357,
                0.4127141504276134,
                -0.16821510903542775,
                0.40299856136474604,
                -1.5113354180517624
            ]
        },
        {
            "positions": [
                -0.8454396876043455,
                -1.51223411502625,
                0.3768662519888759,
                -0.1524521041654284,
                0.40630232810669265,
                -1.3730370274189956
            ]
        },
        {
            "positions": [
                -0.6995276408689755,
                -1.5621646989911429,
                0.34101835355013843,
                -0.13668909929542902,
                0.4096060948486393,
                -1.234738636786229
            ]
        },
        {
            "positions": [
                -0.5536155941336052,
                -1.6120952829560358,
                0.30517045511140084,
                -0.12092609442542968,
                0.41290986159058596,
                -1.096440246153462
            ]
        },
        {
            "positions": [
                -0.40770354739823533,
                -1.6620258669209285,
                0.26932255667266347,
                -0.10516308955543036,
                0.4162136283325326,
                -0.9581418555206955
            ]
        },
        {
            "positions": [
                -0.26179150066286505,
                -1.7119564508858214,
                0.23347465823392588,
                -0.08940008468543104,
                0.41951739507447927,
                -0.8198434648879287
            ]
        },
        {
            "positions": [
                -0.1158794539274949,
                -1.7618870348507143,
                0.1976267597951884,
                -0.07363707981543166,
                0.42282116181642593,
                -0.6815450742551619
            ]
        },
        {
            "positions": [
                -0.059224116589772134,
                -1.726805735698698,
                0.046027450986006385,
                -0.08846848769952827,
                0.4336854251047999,
                -0.5706049407128424
            ]
        },
        {
            "positions": [
                -0.0025687792520493746,
                -1.6917244365466821,
                -0.10557185782317563,
                -0.10329989558362487,
                0.4445496883931739,
                -0.4596648071705228
            ]
        },
        {
            "positions": [
                0.05408655808567338,
                -1.656643137394666,
                -0.25717116663235756,
                -0.1181313034677215,
                0.45541395168154786,
                -0.34872467362820336
            ]
        },
        {
            "positions": [
                0.11074189542339614,
                -1.6215618382426498,
                -0.40877047544153966,
                -0.13296271135181809,
                0.46627821496992183,
                -0.2377845400858838
            ]
        },
        {
            "positions": [
                0.1673972327611189,
                -1.5864805390906336,
                -0.5603697842507216,
                -0.1477941192359147,
                0.4771424782582958,
                -0.12684440654356433
            ]
        },
        {
            "positions": [
                0.22405257009884166,
                -1.5513992399386174,
                -0.7119690930599035,
                -0.16262552712001133,
                0.4880067415466698,
                -0.015904273001244862
            ]
        },
        {
            "positions": [
                0.2807079074365644,
                -1.5163179407866014,
                -0.8635684018690855,
                -0.17745693500410792,
                0.49887100483504376,
                0.0950358605410746
            ]
        },
        {
            "positions": [
                0.3373632447742872,
                -1.4812366416345852,
                -1.0151677106782677,
                -0.19228834288820454,
                0.5097352681234177,
                0.2059759940833943
            ]
        },
        {
            "positions": [
                0.3940185821120099,
                -1.446155342482569,
                -1.1667670194874495,
                -0.20711975077230116,
                0.5205995314117917,
                0.31691612762571375
            ]
        },
        {
            "positions": [
                0.4506739194497327,
                -1.411074043330553,
                -1.3183663282966316,
                -0.22195115865639775,
                0.5314637947001657,
                0.4278562611680332
            ]
        },
        {
            "positions": [
                0.5073292567874554,
                -1.3759927441785367,
                -1.4699656371058136,
                -0.23678256654049437,
                0.5423280579885397,
                0.5387963947103529
            ]
        },
        {
            "positions": [
                0.5639845941251782,
                -1.3409114450265207,
                -1.6215649459149954,
                -0.251613974424591,
                0.5531923212769136,
                0.6497365282526721
            ]
        },
        {
            "positions": [
                0.620639931462901,
                -1.3058301458745045,
                -1.7731642547241777,
                -0.2664453823086876,
                0.5640565845652876,
                0.7606766617949918
            ]
        },
        {
            "positions": [
                0.6772952688006236,
                -1.2707488467224886,
                -1.9247635635333593,
                -0.2812767901927842,
                0.5749208478536616,
                0.8716167953373111
            ]
        },
        {
            "positions": [
                0.7339506061383464,
                -1.2356675475704724,
                -2.076362872342542,
                -0.2961081980768808,
                0.5857851111420356,
                0.9825569288796308
            ]
        },
        {
            "positions": [
                0.7906059434760693,
                -1.2005862484184562,
                -2.2279621811517236,
                -0.3109396059609774,
                0.5966493744304096,
                1.0934970624219504
            ]
        },
        {
            "positions": [
                0.8472612808137919,
                -1.16550494926644,
                -2.3795614899609054,
                -0.325771013845074,
                0.6075136377187835,
                1.2044371959642697
            ]
        },
        {
            "positions": [
                0.9039166181515147,
                -1.130423650114424,
                -2.5311607987700873,
                -0.34060242172917066,
                0.6183779010071575,
                1.3153773295065894
            ]
        },
        {
            "positions": [
                0.9605719554892375,
                -1.0953423509624078,
                -2.682760107579269,
                -0.3554338296132672,
                0.6292421642955315,
                1.4263174630489086
            ]
        },
        {
            "positions": [
                1.0172272928269601,
                -1.0602610518103917,
                -2.834359416388452,
                -0.37026523749736384,
                0.6401064275839055,
                1.5372575965912285
            ]
        },
        {
            "positions": [
                0.9464807333893701,
                -1.100548590849231,
                -2.806721407670585,
                -0.47536442118182276,
                0.5923000289613394,
                1.6309652685125644
            ]
        },
        {
            "positions": [
                0.8757341739517802,
                -1.1408361298880703,
                -2.779083398952718,
                -0.5804636048662817,
                0.5444936303387733,
                1.7246729404339003
            ]
        },
        {
            "positions": [
                0.8049876145141902,
                -1.1811236689269098,
                -2.751445390234851,
                -0.6855627885507405,
                0.49668723171620727,
                1.8183806123552362
            ]
        },
        {
            "positions": [
                0.7342410550766003,
                -1.221411207965749,
                -2.723807381516984,
                -0.7906619722351994,
                0.44888083309364124,
                1.9120882842765718
            ]
        },
        {
            "positions": [
                0.6634944956390103,
                -1.2616987470045884,
                -2.696169372799117,
                -0.8957611559196583,
                0.40107443447107516,
                2.005795956197908
            ]
        },
        {
            "positions": [
                0.5927479362014203,
                -1.301986286043428,
                -2.6685313640812502,
                -1.0008603396041171,
                0.3532680358485091,
                2.0995036281192436
            ]
        },
        {
            "positions": [
                0.5220013767638303,
                -1.342273825082267,
                -2.6408933553633833,
                -1.105959523288576,
                0.3054616372259431,
                2.1932113000405797
            ]
        },
        {
            "positions": [
                0.4512548173262404,
                -1.3825613641211065,
                -2.6132553466455164,
                -1.211058706973035,
                0.257655238603377,
                2.2869189719619154
            ]
        },
        {
            "positions": [
                0.3805082578886504,
                -1.4228489031599458,
                -2.5856173379276495,
                -1.3161578906574938,
                0.20984883998081094,
                2.380626643883251
            ]
        },
        {
            "positions": [
                0.3097616984510604,
                -1.4631364421987851,
                -2.5579793292097825,
                -1.4212570743419528,
                0.16204244135824486,
                2.474334315804587
            ]
        },
        {
            "positions": [
                0.2390151390134705,
                -1.5034239812376247,
                -2.5303413204919156,
                -1.5263562580264116,
                0.11423604273567878,
                2.5680419877259233
            ]
        },
        {
            "positions": [
                0.16826857957588048,
                -1.543711520276464,
                -2.5027033117740487,
                -1.6314554417108706,
                0.0664296441131127,
                2.661749659647259
            ]
        },
        {
            "positions": [
                0.09752202013829059,
                -1.5839990593153033,
                -2.4750653030561818,
                -1.7365546253953292,
                0.018623245490546725,
                2.7554573315685946
            ]
        },
        {
            "positions": [
                0.026775460700700582,
                -1.6242865983541426,
                -2.447427294338315,
                -1.8416538090797883,
                -0.029183153132019246,
                2.8491650034899303
            ]
        },
        {
            "positions": [
                -0.043971098736889314,
                -1.6645741373929819,
                -2.419789285620448,
                -1.946752992764247,
                -0.07698955175458533,
                2.9428726754112664
            ]
        },
        {
            "positions": [
                -0.11471765817447932,
                -1.7048616764318214,
                -2.392151276902581,
                -2.051852176448706,
                -0.12479595037715141,
                3.0365803473326025
            ]
        },
        {
            "positions": [
                -0.18546421761206935,
                -1.7451492154706607,
                -2.364513268184714,
                -2.156951360133165,
                -0.17260234899971744,
                3.130288019253938
            ]
        }
    ]
}