{
    "goal": {
        "global_pose": {
            "orientation": {
                "w": 0.7031023502349854,
                "x": -0.7110244035720825,
                "y": 0.007748599164187908,
                "z": 0.005598929710686207
            },
            "position": {
                "x": 0.11585023208521307,
                "y": 0.44412534475326537,
                "z": 0.3711530566215515
            }
        },
        "name": "move_to_auspresseinheit_A"
    },
    "id": "BiEST_move_to_auspresseinheit_A_24",
    "joint_names": [
        "shoulder_pan_joint",
        "shoulder_lift_joint",
        "elbow_joint",
        "wrist_1_joint",
        "wrist_2_joint",
        "wrist_3_joint"
    ],
    "metrics": {
        "cart_traj_len": 3.570004635257304,
        "distance_elbow_joint": 3.988947059279828,
        "distance_shoulder_lift_joint": 0.6349227392767658,
        "distance_shoulder_pan_joint": 4.191649418054089,
        "distance_wrist_1_joint": 3.1425987033838565,
        "distance_wrist_2_joint": 4.0542736325582265,
        "distance_wrist_3_joint": 2.200415639017026,
        "smoothness": 0.5325828663972169,
        "time": 0.131121704,
        "traj_len": 4.267646563572222,
        "weighted_distance": 5.459900256007056
    },
    "planner": "BiEST",
    "start": {
        "state": {
            "elbow_joint": 2.4225746658250005,
            "shoulder_lift_joint": -1.3736534386056498,
            "shoulder_pan_joint": -0.3378633547517467,
            "wrist_1_joint": -1.0288598680537169,
            "wrist_2_joint": 1.233022673432363,
            "wrist_3_joint": -3.0940220416140027
        }
    },
    "waypoints": [
        {
            "positions": [
                -0.3378633547517467,
                -1.3736534386056498,
                2.4225746658250005,
                -1.0288598680537169,
                1.233022673432363,
                -3.0940220416140027
            ]
        },
        {
            "positions": [
                -0.3831458871023177,
                -1.3777360511098249,
                2.304479972012544,
                -0.9558615216770766,
                1.1610051763073574,
                -3.0302545540174126
            ]
        },
        {
            "positions": [
                -0.4284284194528887,
                -1.381818663614,
                2.1863852782000874,
                -0.8828631753004365,
                1.0889876791823516,
                -2.9664870664208225
            ]
        },
        {
            "positions": [
                -0.4737109518034597,
                -1.3859012761181748,
                2.0682905843876305,
                -0.8098648289237962,
                1.016970182057346,
                -2.9027195788242324
            ]
        },
        {
            "positions": [
                -0.5189934841540307,
                -1.38998388862235,
                1.950195890575174,
                -0.736866482547156,
                0.9449526849323404,
                -2.8389520912276422
            ]
        },
        {
            "positions": [
                -0.5642760165046017,
                -1.394066501126525,
                1.8321011967627174,
                -0.6638681361705158,
                0.8729351878073347,
                -2.7751846036310517
            ]
        },
        {
            "positions": [
                -0.6095585488551726,
                -1.3981491136307,
                1.7140065029502607,
                -0.5908697897938755,
                0.800917690682329,
                -2.7114171160344616
            ]
        },
        {
            "positions": [
                -0.6548410812057435,
                -1.4022317261348751,
                1.5959118091378042,
                -0.5178714434172353,
                0.7289001935573234,
                -2.6476496284378714
            ]
        },
        {
            "positions": [
                -0.7001236135563145,
                -1.4063143386390502,
                1.4778171153253474,
                -0.4448730970405951,
                0.6568826964323177,
                -2.5838821408412813
            ]
        },
        {
            "positions": [
                -0.7454061459068855,
                -1.410396951143225,
                1.359722421512891,
                -0.3718747506639549,
                0.5848651993073121,
                -2.520114653244691
            ]
        },
        {
            "positions": [
                -0.7906886782574565,
                -1.4144795636474001,
                1.2416277277004342,
                -0.29887640428731466,
                0.5128477021823064,
                -2.456347165648101
            ]
        },
        {
            "positions": [
                -0.8359712106080275,
                -1.4185621761515752,
                1.1235330338879777,
                -0.2258780579106744,
                0.44083020505730064,
                -2.392579678051511
            ]
        },
        {
            "positions": [
                -0.8812537429585985,
                -1.4226447886557503,
                1.005438340075521,
                -0.15287971153403412,
                0.3688127079322949,
                -2.3288121904549204
            ]
        },
        {
            "positions": [
                -0.9265362753091695,
                -1.4267274011599254,
                0.8873436462630644,
                -0.07988136515739408,
                0.29679521080728943,
                -2.2650447028583303
            ]
        },
        {
            "positions": [
                -0.9718188076597403,
                -1.4308100136641004,
                0.7692489524506079,
                -0.0068830187807538135,
                0.22477771368228372,
                -2.20127721526174
            ]
        },
        {
            "positions": [
                -1.0171013400103113,
                -1.4348926261682753,
                0.6511542586381511,
                0.06611532759588634,
                0.15276021655727812,
                -2.13750972766515
            ]
        },
        {
            "positions": [
                -1.0623838723608823,
                -1.4389752386724504,
                0.5330595648256946,
                0.13911367397252672,
                0.08074271943227229,
                -2.07374224006856
            ]
        },
        {
            "positions": [
                -1.1076664047114533,
                -1.4430578511766254,
                0.4149648710132381,
                0.21211202034916693,
                0.008725222307266654,
                -2.0099747524719698
            ]
        },
        {
            "positions": [
                -0.9610796202816019,
                -1.4663519359532615,
                0.4635611915221556,
                0.11941459925331667,
                -0.06769335743410626,
                -2.0130249247535628
            ]
        },
        {
            "positions": [
                -0.8144928358517505,
                -1.4896460207298976,
                0.5121575120310731,
                0.02671717815746641,
                -0.14411193717547918,
                -2.016075097035156
            ]
        },
        {
            "positions": [
                -0.6679060514218991,
                -1.5129401055065335,
                0.5607538325399906,
                -0.06598024293838384,
                -0.2205305169168521,
                -2.019125269316749
            ]
        },
        {
            "positions": [
                -0.5213192669920476,
                -1.5362341902831695,
                0.609350153048908,
                -0.1586776640342341,
                -0.29694909665822505,
                -2.0221754415983426
            ]
        },
        {
            "positions": [
                -0.37473248256219605,
                -1.5595282750598056,
                0.6579464735578255,
                -0.2513750851300844,
                -0.373367676399598,
                -2.0252256138799356
            ]
        },
        {
            "positions": [
                -0.22814569813234475,
                -1.5828223598364417,
                0.706542794066743,
                -0.3440725062259346,
                -0.4497862561409709,
                -2.028275786161529
            ]
        },
        {
            "positions": [
                -0.08155891370249324,
                -1.6061164446130776,
                0.7551391145756605,
                -0.43676992732178493,
                -0.5262048358823438,
                -2.031325958443122
            ]
        },
        {
            "positions": [
                0.06502787072735816,
                -1.6294105293897136,
                0.803735435084578,
                -0.5294673484176351,
                -0.6026234156237167,
                -2.034376130724715
            ]
        },
        {
            "positions": [
                0.21161465515720979,
                -1.6527046141663497,
                0.8523317555934955,
                -0.6221647695134855,
                -0.6790419953650897,
                -2.0374263030063084
            ]
        },
        {
            "positions": [
                0.3582014395870612,
                -1.6759986989429858,
                0.900928076102413,
                -0.7148621906093358,
                -0.7554605751064626,
                -2.0404764752879014
            ]
        },
        {
            "positions": [
                0.5047882240169124,
                -1.699292783719622,
                0.9495243966113305,
                -0.807559611705186,
                -0.8318791548478355,
                -2.043526647569495
            ]
        },
        {
            "positions": [
                0.6513750084467638,
                -1.7225868684962578,
                0.998120717120248,
                -0.9002570328010362,
                -0.9082977345892084,
                -2.046576819851088
            ]
        },
        {
            "positions": [
                0.7979617928766154,
                -1.7458809532728938,
                1.0467170376291655,
                -0.9929544538968866,
                -0.9847163143305814,
                -2.0496269921326813
            ]
        },
        {
            "positions": [
                0.9445485773064667,
                -1.76917503804953,
                1.095313358138083,
                -1.0856518749927369,
                -1.0611348940719543,
                -2.0526771644142743
            ]
        },
        {
            "positions": [
                1.001079269153666,
                -1.788214722820144,
                1.2214766050843464,
                -1.0841687686121868,
                -1.003810566413788,
                -2.1554504293325722
            ]
        },
        {
            "positions": [
                1.0576099610008654,
                -1.807254407590758,
                1.34763985203061,
                -1.0826856622316368,
                -0.9464862387556218,
                -2.2582236942508707
            ]
        },
        {
            "positions": [
                1.1141406528480646,
                -1.826294092361372,
                1.4738030989768736,
                -1.081202555851087,
                -0.8891619110974555,
                -2.3609969591691686
            ]
        },
        {
            "positions": [
                1.170671344695264,
                -1.845333777131986,
                1.599966345923137,
                -1.0797194494705369,
                -0.8318375834392893,
                -2.463770224087467
            ]
        },
        {
            "positions": [
                1.2272020365424632,
                -1.8643734619025998,
                1.7261295928694005,
                -1.0782363430899868,
                -0.774513255781123,
                -2.566543489005765
            ]
        },
        {
            "positions": [
                1.2837327283896625,
                -1.8834131466732138,
                1.852292839815664,
                -1.0767532367094368,
                -0.7171889281229566,
                -2.669316753924063
            ]
        },
        {
            "positions": [
                1.340263420236862,
                -1.9024528314438278,
                1.9784560867619276,
                -1.0752701303288867,
                -0.6598646004647905,
                -2.7720900188423614
            ]
        },
        {
            "positions": [
                1.3967941120840612,
                -1.9214925162144418,
                2.1046193337081913,
                -1.073787023948337,
                -0.6025402728066241,
                -2.8748632837606594
            ]
        },
        {
            "positions": [
                1.4533248039312605,
                -1.9405322009850559,
                2.230782580654455,
                -1.0723039175677869,
                -0.5452159451484578,
                -2.9776365486789578
            ]
        },
        {
            "positions": [
                1.5098554957784598,
                -1.9595718857556699,
                2.3569458276007182,
                -1.0708208111872368,
                -0.4878916174902916,
                -3.0804098135972557
            ]
        },
        {
            "positions": [
                1.3949520004063931,
                -1.9525712725947062,
                2.362568157297945,
                -0.9866734032110128,
                -0.3183383619942567,
                -3.086971711990071
            ]
        },
        {
            "positions": [
                1.2800485050343264,
                -1.9455706594337425,
                2.3681904869951715,
                -0.9025259952347888,
                -0.1487851064982218,
                -3.0935336103828863
            ]
        },
        {
            "positions": [
                1.1651450096622598,
                -1.9385700462727788,
                2.373812816692398,
                -0.8183785872585649,
                0.02076814899781304,
                -3.1000955087757016
            ]
        },
        {
            "positions": [
                1.050241514290193,
                -1.9315694331118152,
                2.3794351463896244,
                -0.7342311792823408,
                0.190321404493848,
                -3.106657407168517
            ]
        },
        {
            "positions": [
                0.9353380189181263,
                -1.9245688199508515,
                2.385057476086851,
                -0.6500837713061169,
                0.35987465998988294,
                -3.113219305561332
            ]
        },
        {
            "positions": [
                0.8204345235460596,
                -1.9175682067898878,
                2.3906798057840777,
                -0.5659363633298929,
                0.5294279154859176,
                -3.1197812039541475
            ]
        },
        {
            "positions": [
                0.7055310281739929,
                -1.9105675936289241,
                2.3963021354813043,
                -0.48178895535366895,
                0.6989811709819528,
                -3.1263431023469628
            ]
        }
    ]
}