{
    "goal": {
        "global_pose": {
            "orientation": {
                "w": 0.005598929693374612,
                "x": 0.007748599140229565,
                "y": 0.7110244013736278,
                "z": -0.7031023480610252
            },
            "position": {
                "x": 0.1141497679147869,
                "y": -0.7141253447532654,
                "z": 0.3711530566215515
            }
        },
        "name": "move_to_auspresseinheit_B"
    },
    "id": "BiEST_move_to_auspresseinheit_B_25",
    "joint_names": [
        "shoulder_pan_joint",
        "shoulder_lift_joint",
        "elbow_joint",
        "wrist_1_joint",
        "wrist_2_joint",
        "wrist_3_joint"
    ],
    "metrics": {
        "cart_traj_len": 0.564275414969983,
        "distance_elbow_joint": 0.06442934775501596,
        "distance_shoulder_lift_joint": 0.29558896902189136,
        "distance_shoulder_pan_joint": 0.5775596706417205,
        "distance_wrist_1_joint": 0.3393128068534018,
        "distance_wrist_2_joint": 0.9902003546369218,
        "distance_wrist_3_joint": 0.00246836229127112,
        "smoothness": 5.075305295617109e-16,
        "time": 0.093495299,
        "traj_len": 1.506505728897246,
        "weighted_distance": 1.8984228710361368
    },
    "planner": "BiEST",
    "start": {
        "state": {
            "elbow_joint": 2.0193083361928714,
            "shoulder_lift_joint": -1.1220246554650708,
            "shoulder_pan_joint": -1.0952077554168747,
            "wrist_1_joint": -0.8559753972642168,
            "wrist_2_joint": 0.4759566250798843,
            "wrist_3_joint": -3.1240929996934557
        }
    },
    "waypoints": [
        {
            "positions": [
                -1.0952077554168747,
                -1.1220246554650708,
                2.0193083361928714,
                -0.8559753972642168,
                0.4759566250798843,
                -3.1240929996934557
            ]
        },
        {
            "positions": [
                -1.191467700523828,
                -1.171289483635386,
                2.0085701115670354,
                -0.7994232627886498,
                0.6409900175193712,
                -3.123681605978244
            ]
        },
        {
            "positions": [
                -1.2877276456307816,
                -1.2205543118057012,
                1.9978318869411995,
                -0.7428711283130829,
                0.8060234099588581,
                -3.123270212263032
            ]
        },
        {
            "positions": [
                -1.383987590737735,
                -1.2698191399760166,
                1.9870936623153634,
                -0.6863189938375158,
                0.9710568023983452,
                -3.12285881854782
            ]
        },
        {
            "positions": [
                -1.4802475358446883,
                -1.3190839681463318,
                1.9763554376895274,
                -0.629766859361949,
                1.1360901948378321,
                -3.1224474248326084
            ]
        },
        {
            "positions": [
                -1.5765074809516417,
                -1.368348796316647,
                1.9656172130636915,
                -0.5732147248863819,
                1.3011235872773192,
                -3.1220360311173962
            ]
        },
        {
            "positions": [
                -1.6727674260585952,
                -1.4176136244869622,
                1.9548789884378555,
                -0.516662590410815,
                1.4661569797168061,
                -3.1216246374021845
            ]
        }
    ]
}