{
    "goal": {
        "global_pose": {
            "orientation": {
                "w": 0.7031023502349854,
                "x": -0.7110244035720825,
                "y": 0.007748599164187908,
                "z": 0.005598929710686207
            },
            "position": {
                "x": 0.11585023208521307,
                "y": 0.44412534475326537,
                "z": 0.3711530566215515
            }
        },
        "name": "move_to_auspresseinheit_A"
    },
    "id": "BiEST_move_to_auspresseinheit_A_23",
    "joint_names": [
        "shoulder_pan_joint",
        "shoulder_lift_joint",
        "elbow_joint",
        "wrist_1_joint",
        "wrist_2_joint",
        "wrist_3_joint"
    ],
    "metrics": {
        "cart_traj_len": 0.7066614764471484,
        "distance_elbow_joint": 0.06057576918336505,
        "distance_shoulder_lift_joint": 0.5579608284068434,
        "distance_shoulder_pan_joint": 1.0460445771404414,
        "distance_wrist_1_joint": 0.5499386354973085,
        "distance_wrist_2_joint": 0.5144285266960728,
        "distance_wrist_3_joint": 0.037833919075714206,
        "smoothness": 0.1509070951009445,
        "time": 0.07621098,
        "traj_len": 1.6633647393159883,
        "weighted_distance": 1.9765670381610019
    },
    "planner": "BiEST",
    "start": {
        "state": {
            "elbow_joint": 2.4225746658250005,
            "shoulder_lift_joint": -1.3736534386056498,
            "shoulder_pan_joint": -0.3378633547517467,
            "wrist_1_joint": -1.0288598680537169,
            "wrist_2_joint": 1.233022673432363,
            "wrist_3_joint": -3.0940220416140027
        }
    },
    "waypoints": [
        {
            "positions": [
                -0.3378633547517467,
                -1.3736534386056498,
                2.4225746658250005,
                -1.0288598680537169,
                1.233022673432363,
                -3.0940220416140027
            ]
        },
        {
            "positions": [
                -0.2113478431158936,
                -1.4647596498567317,
                2.415355466998704,
                -0.9625094431442476,
                1.1536083141598215,
                -3.098464580686982
            ]
        },
        {
            "positions": [
                -0.08483233148004049,
                -1.5558658611078136,
                2.4081362681724077,
                -0.8961590182347783,
                1.07419395488728,
                -3.102907119759961
            ]
        },
        {
            "positions": [
                0.04168318015581268,
                -1.6469720723588956,
                2.4009170693461117,
                -0.829808593325309,
                0.9947795956147386,
                -3.1073496588329403
            ]
        },
        {
            "positions": [
                0.16819869179166574,
                -1.7380782836099775,
                2.3936978705198153,
                -0.7634581684158397,
                0.9153652363421971,
                -3.111792197905919
            ]
        },
        {
            "positions": [
                0.29471420342751903,
                -1.8291844948610594,
                2.386478671693519,
                -0.6971077435063703,
                0.8359508770696557,
                -3.1162347369788983
            ]
        },
        {
            "positions": [
                0.42122971506337215,
                -1.9202907061121413,
                2.3792594728672225,
                -0.630757318596901,
                0.7565365177971142,
                -3.1206772760518775
            ]
        },
        {
            "positions": [
                0.5647054687260334,
                -1.9146289256619653,
                2.3878897609800163,
                -0.5548392755766547,
                0.7375653322667022,
                -3.1262666183707974
            ]
        },
        {
            "positions": [
                0.7081812223886947,
                -1.9089671452117893,
                2.3965200490928096,
                -0.4789212325564084,
                0.7185941467362903,
                -3.131855960689717
            ]
        }
    ]
}