{
    "goal": {
        "global_pose": {
            "orientation": {
                "w": 0.7047431468963623,
                "x": -0.7094548344612122,
                "y": 0.0024358443915843964,
                "z": -0.0022348060738295317
            },
            "position": {
                "x": 0.6094750761985779,
                "y": 0.3671506643295288,
                "z": 0.19426114857196808
            }
        },
        "name": "move_to_magneteinheit_A"
    },
    "id": "BiEST_move_to_magneteinheit_A_121",
    "joint_names": [
        "shoulder_pan_joint",
        "shoulder_lift_joint",
        "elbow_joint",
        "wrist_1_joint",
        "wrist_2_joint",
        "wrist_3_joint"
    ],
    "metrics": {
        "cart_traj_len": 3.2464893012429434,
        "distance_elbow_joint": 3.9287618156835755,
        "distance_shoulder_lift_joint": 0.4612832539433417,
        "distance_shoulder_pan_joint": 3.001127808630701,
        "distance_wrist_1_joint": 3.533462463763554,
        "distance_wrist_2_joint": 2.240751745252475,
        "distance_wrist_3_joint": 0.9123462036018986,
        "smoothness": 0.2528292466075069,
        "time": 0.11052893,
        "traj_len": 3.7520305556958817,
        "weighted_distance": 4.65581785587617
    },
    "planner": "BiEST",
    "start": {
        "state": {
            "elbow_joint": -1.9196185241190666,
            "shoulder_lift_joint": -1.2443396400964142,
            "shoulder_pan_joint": 2.6996025414629847,
            "wrist_1_joint": -1.5485510000780065,
            "wrist_2_joint": -1.5709468930060704,
            "wrist_3_joint": 0.4420197071253992
        }
    },
    "waypoints": [
        {
            "positions": [
                2.6996025414629847,
                -1.2443396400964142,
                -1.9196185241190666,
                -1.5485510000780065,
                -1.5709468930060704,
                0.4420197071253992
            ]
        },
        {
            "positions": [
                2.6096386012884154,
                -1.238778222467759,
                -1.8205935206302486,
                -1.4382614821875992,
                -1.5114945430766122,
                0.41902141709858565
            ]
        },
        {
            "positions": [
                2.519674661113846,
                -1.233216804839104,
                -1.7215685171414306,
                -1.3279719642971919,
                -1.4520421931471539,
                0.39602312707177206
            ]
        },
        {
            "positions": [
                2.4297107209392763,
                -1.2276553872104488,
                -1.6225435136526125,
                -1.2176824464067846,
                -1.3925898432176957,
                0.37302483704495853
            ]
        },
        {
            "positions": [
                2.339746780764707,
                -1.2220939695817934,
                -1.5235185101637945,
                -1.1073929285163773,
                -1.3331374932882374,
                0.350026547018145
            ]
        },
        {
            "positions": [
                2.2497828405901377,
                -1.2165325519531383,
                -1.4244935066749762,
                -0.9971034106259699,
                -1.2736851433587792,
                0.3270282569913314
            ]
        },
        {
            "positions": [
                2.1598189004155683,
                -1.2109711343244831,
                -1.3254685031861584,
                -0.8868138927355625,
                -1.2142327934293209,
                0.3040299669645179
            ]
        },
        {
            "positions": [
                2.069854960240999,
                -1.205409716695828,
                -1.2264434996973401,
                -0.7765243748451552,
                -1.1547804434998628,
                0.28103167693770437
            ]
        },
        {
            "positions": [
                1.9798910200664297,
                -1.1998482990671728,
                -1.1274184962085223,
                -0.6662348569547479,
                -1.0953280935704046,
                0.25803338691089084
            ]
        },
        {
            "positions": [
                1.8899270798918602,
                -1.1942868814385177,
                -1.028393492719704,
                -0.5559453390643405,
                -1.0358757436409463,
                0.23503509688407725
            ]
        },
        {
            "positions": [
                1.7999631397172908,
                -1.1887254638098623,
                -0.929368489230886,
                -0.4456558211739332,
                -0.976423393711488,
                0.21203680685726373
            ]
        },
        {
            "positions": [
                1.7099991995427213,
                -1.1831640461812072,
                -0.830343485742068,
                -0.3353663032835259,
                -0.9169710437820298,
                0.18903851683045014
            ]
        },
        {
            "positions": [
                1.620035259368152,
                -1.177602628552552,
                -0.7313184822532499,
                -0.2250767853931186,
                -0.8575186938525715,
                0.16604022680363661
            ]
        },
        {
            "positions": [
                1.5300713191935826,
                -1.172041210923897,
                -0.6322934787644319,
                -0.11478726750271129,
                -0.7980663439231133,
                0.1430419367768231
            ]
        },
        {
            "positions": [
                1.4401073790190133,
                -1.1664797932952418,
                -0.5332684752756138,
                -0.004497749612303981,
                -0.7386139939936551,
                0.12004364675000956
            ]
        },
        {
            "positions": [
                1.3501434388444438,
                -1.1609183756665866,
                -0.43424347178679557,
                0.10579176827810333,
                -0.6791616440641968,
                0.09704535672319597
            ]
        },
        {
            "positions": [
                1.2601794986698744,
                -1.1553569580379313,
                -0.33521846829797775,
                0.21608128616851063,
                -0.6197092941347386,
                0.07404706669638245
            ]
        },
        {
            "positions": [
                1.1702155584953051,
                -1.1497955404092761,
                -0.2361934648091597,
                0.3263708040589177,
                -0.5602569442052805,
                0.05104877666956892
            ]
        },
        {
            "positions": [
                1.0802516183207356,
                -1.144234122780621,
                -0.13716846132034144,
                0.43666032194932547,
                -0.5008045942758221,
                0.028050486642755335
            ]
        },
        {
            "positions": [
                0.9902876781461663,
                -1.1386727051519658,
                -0.0381434578315234,
                0.5469498398397328,
                -0.4413522443463638,
                0.005052196615941806
            ]
        },
        {
            "positions": [
                0.9003237379715969,
                -1.1331112875233107,
                0.060881545657294645,
                0.6572393577301401,
                -0.38189989441690564,
                -0.017946093410871722
            ]
        },
        {
            "positions": [
                0.8103597977970276,
                -1.1275498698946556,
                0.15990654914611246,
                0.767528875620547,
                -0.3224475444874475,
                -0.04094438343768525
            ]
        },
        {
            "positions": [
                0.7203958576224578,
                -1.1219884522660002,
                0.25893155263493073,
                0.8778183935109547,
                -0.26299519455798914,
                -0.06394267346449889
            ]
        },
        {
            "positions": [
                0.6304319174478885,
                -1.116427034637345,
                0.357956556123749,
                0.988107911401362,
                -0.203542844628531,
                -0.08694096349131242
            ]
        },
        {
            "positions": [
                0.5404679772733192,
                -1.11086561700869,
                0.4569815596125668,
                1.0983974292917693,
                -0.14409049469907265,
                -0.10993925351812595
            ]
        },
        {
            "positions": [
                0.45050403709874987,
                -1.1053041993800348,
                0.5560065631013846,
                1.2086869471821762,
                -0.08463814476961451,
                -0.13293754354493947
            ]
        },
        {
            "positions": [
                0.36054009692418054,
                -1.0997427817513796,
                0.6550315665902029,
                1.318976465072584,
                -0.02518579484015615,
                -0.155935833571753
            ]
        },
        {
            "positions": [
                0.2705761567496112,
                -1.0941813641227245,
                0.7540565700790212,
                1.4292659829629912,
                0.03426655508930199,
                -0.17893412359856653
            ]
        },
        {
            "positions": [
                0.1806122165750419,
                -1.0886199464940693,
                0.853081573567839,
                1.5395555008533985,
                0.09371890501876012,
                -0.20193241362538006
            ]
        },
        {
            "positions": [
                0.09064827640047257,
                -1.083058528865414,
                0.9521065770566572,
                1.6498450187438058,
                0.15317125494821848,
                -0.2249307036521936
            ]
        },
        {
            "positions": [
                0.0006843362259028041,
                -1.0774971112367588,
                1.0511315805454755,
                1.7601345366342132,
                0.21262360487767684,
                -0.24792899367900723
            ]
        },
        {
            "positions": [
                -0.08927960394866652,
                -1.0719356936081037,
                1.1501565840342933,
                1.8704240545246202,
                0.2720759548071349,
                -0.27092728370582075
            ]
        },
        {
            "positions": [
                -0.06597670024947547,
                -1.021675952025976,
                1.3080038007364654,
                1.887008895971793,
                0.20485488580785574,
                -0.23096066353954942
            ]
        },
        {
            "positions": [
                -0.0426737965502844,
                -0.9714162104438482,
                1.4658510174386374,
                1.903593737418966,
                0.13763381680857656,
                -0.19099404337327808
            ]
        },
        {
            "positions": [
                -0.019370892851093335,
                -0.9211564688617203,
                1.6236982341408093,
                1.920178578866139,
                0.07041274780929738,
                -0.1510274232070067
            ]
        },
        {
            "positions": [
                0.003932010848097717,
                -0.8708967272795926,
                1.7815454508429813,
                1.9367634203133117,
                0.003191678810018167,
                -0.11106080304073537
            ]
        },
        {
            "positions": [
                0.0634490350592401,
                -0.8269765567163325,
                1.8953443712037448,
                1.9608374419994292,
                -0.061230631911058334,
                -0.09129443698793877
            ]
        },
        {
            "positions": [
                0.1229660592703825,
                -0.7830563861530725,
                2.0091432915645084,
                1.984911463685547,
                -0.12565294263213483,
                -0.07152807093514217
            ]
        }
    ]
}