{
    "goal": {
        "global_pose": {
            "orientation": {
                "w": 0.5084816262002911,
                "x": -0.4908360881923452,
                "y": 0.5182115481033761,
                "z": -0.48164630358495003
            },
            "position": {
                "x": 0.5540239810943604,
                "y": -0.46912469901144505,
                "z": 0.16403168439865112
            }
        },
        "name": "move_to_storage_B"
    },
    "id": "BiEST_move_to_storage_B_90",
    "joint_names": [
        "shoulder_pan_joint",
        "shoulder_lift_joint",
        "elbow_joint",
        "wrist_1_joint",
        "wrist_2_joint",
        "wrist_3_joint"
    ],
    "metrics": {
        "cart_traj_len": 2.77976445756775,
        "distance_elbow_joint": 1.6872867797994235,
        "distance_shoulder_lift_joint": 0.45830030637879227,
        "distance_shoulder_pan_joint": 2.9177324575490147,
        "distance_wrist_1_joint": 3.0010912390218034,
        "distance_wrist_2_joint": 2.6996513850152057,
        "distance_wrist_3_joint": 3.16078951978932,
        "smoothness": 0.26580178630857326,
        "time": 0.084978293,
        "traj_len": 3.7316017589707453,
        "weighted_distance": 5.093836800602197
    },
    "planner": "BiEST",
    "start": {
        "state": {
            "elbow_joint": 1.664937868594044,
            "shoulder_lift_joint": -0.661644460510453,
            "shoulder_pan_joint": -0.9139846352900073,
            "wrist_1_joint": 2.146753192139373,
            "wrist_2_joint": -2.2341966793290973,
            "wrist_3_joint": 0.005466555786416001
        }
    },
    "waypoints": [
        {
            "positions": [
                -0.9139846352900073,
                -0.661644460510453,
                1.664937868594044,
                2.146753192139373,
                -2.2341966793290973,
                0.005466555786416001
            ]
        },
        {
            "positions": [
                -0.8087906200688244,
                -0.6967204582174986,
                1.6136129301625,
                2.0701720334248157,
                -2.154140877080609,
                0.028024835515498336
            ]
        },
        {
            "positions": [
                -0.7035966048476415,
                -0.7317964559245442,
                1.5622879917309558,
                1.9935908747102586,
                -2.074085074832121,
                0.05058311524458067
            ]
        },
        {
            "positions": [
                -0.5984025896264586,
                -0.7668724536315898,
                1.5109630532994118,
                1.9170097159957011,
                -1.9940292725836328,
                0.07314139497366301
            ]
        },
        {
            "positions": [
                -0.4932085744052757,
                -0.8019484513386355,
                1.4596381148678677,
                1.8404285572811439,
                -1.9139734703351445,
                0.09569967470274535
            ]
        },
        {
            "positions": [
                -0.3880145591840928,
                -0.8370244490456811,
                1.4083131764363237,
                1.7638473985665866,
                -1.8339176680866562,
                0.11825795443182768
            ]
        },
        {
            "positions": [
                -0.2828205439629099,
                -0.8721004467527267,
                1.3569882380047795,
                1.687266239852029,
                -1.7538618658381682,
                0.14081623416091002
            ]
        },
        {
            "positions": [
                -0.17762652874172713,
                -0.9071764444597723,
                1.3056632995732356,
                1.610685081137472,
                -1.67380606358968,
                0.16337451388999233
            ]
        },
        {
            "positions": [
                -0.07243251352054414,
                -0.9422524421668179,
                1.2543383611416914,
                1.5341039224229145,
                -1.5937502613411918,
                0.1859327936190747
            ]
        },
        {
            "positions": [
                0.03276150170063863,
                -0.9773284398738635,
                1.2030134227101474,
                1.4575227637083572,
                -1.5136944590927037,
                0.208491073348157
            ]
        },
        {
            "positions": [
                0.13795551692182173,
                -1.0124044375809091,
                1.1516884842786035,
                1.3809416049938,
                -1.4336386568442154,
                0.23104935307723937
            ]
        },
        {
            "positions": [
                0.2431495321430045,
                -1.0474804352879548,
                1.1003635458470593,
                1.3043604462792424,
                -1.3535828545957274,
                0.2536076328063217
            ]
        },
        {
            "positions": [
                0.3483435473641875,
                -1.0825564329950004,
                1.0490386074155151,
                1.2277792875646851,
                -1.273527052347239,
                0.27616591253540407
            ]
        },
        {
            "positions": [
                0.4535375625853702,
                -1.117632430702046,
                0.9977136689839712,
                1.1511981288501278,
                -1.193471250098751,
                0.2987241922644864
            ]
        },
        {
            "positions": [
                0.3861371165126034,
                -1.1177329670580112,
                1.0420642159487257,
                1.0640009038182774,
                -1.121344034629844,
                0.4233994915388885
            ]
        },
        {
            "positions": [
                0.31873667043983656,
                -1.1178335034139764,
                1.08641476291348,
                0.9768036787864272,
                -1.049216819160937,
                0.5480747908132906
            ]
        },
        {
            "positions": [
                0.2513362243670697,
                -1.1179340397699415,
                1.1307653098782344,
                0.8896064537545767,
                -0.9770896036920301,
                0.6727500900876928
            ]
        },
        {
            "positions": [
                0.1839357782943029,
                -1.1180345761259067,
                1.1751158568429887,
                0.8024092287227264,
                -0.9049623882231231,
                0.7974253893620948
            ]
        },
        {
            "positions": [
                0.11653533222153606,
                -1.118135112481872,
                1.2194664038077432,
                0.715212003690876,
                -0.8328351727542163,
                0.9221006886364971
            ]
        },
        {
            "positions": [
                0.04913488614876921,
                -1.118235648837837,
                1.2638169507724974,
                0.6280147786590257,
                -0.7607079572853093,
                1.046775987910899
            ]
        },
        {
            "positions": [
                -0.018265559923997643,
                -1.1183361851938023,
                1.308167497737252,
                0.5408175536271752,
                -0.6885807418164023,
                1.1714512871853013
            ]
        },
        {
            "positions": [
                -0.08566600599676438,
                -1.1184367215497675,
                1.3525180447020062,
                0.45362032859532486,
                -0.6164535263474953,
                1.2961265864597034
            ]
        },
        {
            "positions": [
                -0.15306645206953134,
                -1.1185372579057327,
                1.3968685916667607,
                0.3664231035634745,
                -0.5443263108785883,
                1.4208018857341056
            ]
        },
        {
            "positions": [
                -0.22046689814229808,
                -1.1186377942616978,
                1.441219138631515,
                0.27922587853162417,
                -0.4721990954096814,
                1.5454771850085076
            ]
        },
        {
            "positions": [
                -0.28786734421506494,
                -1.118738330617663,
                1.4855696855962695,
                0.19202865349977372,
                -0.4000718799407744,
                1.6701524842829099
            ]
        },
        {
            "positions": [
                -0.3552677902878318,
                -1.1188388669736282,
                1.5299202325610237,
                0.10483142846792348,
                -0.32794466447186743,
                1.7948277835573119
            ]
        },
        {
            "positions": [
                -0.4226682363605985,
                -1.1189394033295934,
                1.574270779525778,
                0.017634203436073026,
                -0.25581744900296055,
                1.919503082831714
            ]
        },
        {
            "positions": [
                -0.4900686824333655,
                -1.1190399396855586,
                1.6186213264905325,
                -0.06956302159577743,
                -0.18369023353405356,
                2.0441783821061166
            ]
        },
        {
            "positions": [
                -0.5574691285061324,
                -1.1191404760415238,
                1.662971873455287,
                -0.15676024662762766,
                -0.11156301806514657,
                2.1688536813805186
            ]
        },
        {
            "positions": [
                -0.624869574578899,
                -1.119241012397489,
                1.7073224204200415,
                -0.24395747165947812,
                -0.03943580259623958,
                2.2935289806549206
            ]
        },
        {
            "positions": [
                -0.6922700206516659,
                -1.1193415487534542,
                1.7516729673847955,
                -0.33115469669132835,
                0.03269141287266719,
                2.4182042799293226
            ]
        },
        {
            "positions": [
                -0.759670466724433,
                -1.1194420851094193,
                1.79602351434955,
                -0.4183519217231788,
                0.1048186283415744,
                2.542879579203725
            ]
        },
        {
            "positions": [
                -0.8270709127971996,
                -1.1195426214653845,
                1.8403740613143045,
                -0.5055491467550293,
                0.1769458438104814,
                2.667554878478127
            ]
        },
        {
            "positions": [
                -0.8944713588699664,
                -1.1196431578213497,
                1.884724608279059,
                -0.5927463717868795,
                0.24907305927938816,
                2.792230177752529
            ]
        },
        {
            "positions": [
                -0.9618718049427333,
                -1.119743694177315,
                1.929075155243813,
                -0.6799435968187297,
                0.32120027474829516,
                2.916905477026931
            ]
        },
        {
            "positions": [
                -1.0292722510155001,
                -1.11984423053328,
                1.9734257022085675,
                -0.7671408218505804,
                0.39332749021720215,
                3.0415807763013336
            ]
        },
        {
            "positions": [
                -1.096672697088267,
                -1.1199447668892453,
                2.017776249173322,
                -0.8543380468824305,
                0.4654547056861091,
                3.1662560755757356
            ]
        }
    ]
}