{
    "goal": {
        "global_pose": {
            "orientation": {
                "w": -0.00223480608172531,
                "x": 0.0024358444001904467,
                "y": 0.7094548369677653,
                "z": -0.704743149386269
            },
            "position": {
                "x": 0.6205249238014221,
                "y": -0.6371506643295288,
                "z": 0.19426114857196808
            }
        },
        "name": "move_to_magneteinheit_B"
    },
    "id": "BiEST_move_to_magneteinheit_B_116",
    "joint_names": [
        "shoulder_pan_joint",
        "shoulder_lift_joint",
        "elbow_joint",
        "wrist_1_joint",
        "wrist_2_joint",
        "wrist_3_joint"
    ],
    "metrics": {
        "cart_traj_len": 3.7961359314018845,
        "distance_elbow_joint": 5.3870425445294385,
        "distance_shoulder_lift_joint": 1.1087595859763546,
        "distance_shoulder_pan_joint": 2.69653681729031,
        "distance_wrist_1_joint": 3.858274516650611,
        "distance_wrist_2_joint": 1.1732123322651262,
        "distance_wrist_3_joint": 4.861420115113754,
        "smoothness": 0.41214037369153994,
        "time": 0.240431956,
        "traj_len": 4.368666376804892,
        "weighted_distance": 5.817179126601556
    },
    "planner": "BiEST",
    "start": {
        "state": {
            "elbow_joint": 2.6216224122426386,
            "shoulder_lift_joint": -1.4174107377796124,
            "shoulder_pan_joint": 0.7066234856936794,
            "wrist_1_joint": 1.9546482284002225,
            "wrist_2_joint": -0.7096286983471962,
            "wrist_3_joint": 0.005740856962016249
        }
    },
    "waypoints": [
        {
            "positions": [
                0.7066234856936794,
                -1.4174107377796124,
                2.6216224122426386,
                1.9546482284002225,
                -0.7096286983471962,
                0.005740856962016249
            ]
        },
        {
            "positions": [
                0.6820054416293474,
                -1.441382453752922,
                2.5756095253966618,
                1.8112537272798328,
                -0.6770277535094276,
                -0.0797653460951753
            ]
        },
        {
            "positions": [
                0.6573873975650154,
                -1.4653541697262318,
                2.529596638550685,
                1.6678592261594432,
                -0.6444268086716588,
                -0.16527154915236683
            ]
        },
        {
            "positions": [
                0.6327693535006834,
                -1.4893258856995413,
                2.483583751704708,
                1.5244647250390533,
                -0.6118258638338901,
                -0.2507777522095584
            ]
        },
        {
            "positions": [
                0.6081513094363514,
                -1.513297601672851,
                2.4375708648587313,
                1.3810702239186636,
                -0.5792249189961215,
                -0.3362839552667499
            ]
        },
        {
            "positions": [
                0.5835332653720193,
                -1.5372693176461607,
                2.391557978012755,
                1.2376757227982738,
                -0.5466239741583527,
                -0.4217901583239415
            ]
        },
        {
            "positions": [
                0.5589152213076873,
                -1.5612410336194704,
                2.345545091166778,
                1.094281221677884,
                -0.5140230293205841,
                -0.5072963613811331
            ]
        },
        {
            "positions": [
                0.5342971772433553,
                -1.5852127495927801,
                2.2995322043208013,
                0.9508867205574945,
                -0.4814220844828154,
                -0.5928025644383247
            ]
        },
        {
            "positions": [
                0.5096791331790234,
                -1.6091844655660896,
                2.2535193174748245,
                0.8074922194371048,
                -0.4488211396450467,
                -0.6783087674955162
            ]
        },
        {
            "positions": [
                0.48506108911469137,
                -1.6331561815393993,
                2.2075064306288477,
                0.664097718316715,
                -0.416220194807278,
                -0.7638149705527078
            ]
        },
        {
            "positions": [
                0.4637525726721568,
                -1.6562141377516961,
                2.1541157019609476,
                0.5263468521452189,
                -0.38220878480202464,
                -0.8391102412813843
            ]
        },
        {
            "positions": [
                0.44244405622962224,
                -1.679272093963993,
                2.1007249732930475,
                0.38859598597372275,
                -0.3481973747967713,
                -0.914405512010061
            ]
        },
        {
            "positions": [
                0.4211355397870877,
                -1.7023300501762897,
                2.0473342446251475,
                0.25084511980222657,
                -0.31418596479151795,
                -0.9897007827387376
            ]
        },
        {
            "positions": [
                0.3998270233445531,
                -1.7253880063885867,
                1.9939435159572476,
                0.11309425363073045,
                -0.28017455478626463,
                -1.0649960534674143
            ]
        },
        {
            "positions": [
                0.3785185069020185,
                -1.7484459626008835,
                1.9405527872893478,
                -0.024656612540765788,
                -0.24616314478101123,
                -1.1402913241960908
            ]
        },
        {
            "positions": [
                0.357209990459484,
                -1.7715039188131803,
                1.8871620586214477,
                -0.1624074787122619,
                -0.21215173477575788,
                -1.2155865949247675
            ]
        },
        {
            "positions": [
                0.33590147401694936,
                -1.794561875025477,
                1.8337713299535476,
                -0.30015834488375814,
                -0.1781403247705045,
                -1.2908818656534442
            ]
        },
        {
            "positions": [
                0.4249682250990454,
                -1.793462536135505,
                1.6496376789883442,
                -0.30764625285711095,
                -0.17605008949438802,
                -1.1798586981082393
            ]
        },
        {
            "positions": [
                0.5140349761811415,
                -1.792363197245533,
                1.4655040280231408,
                -0.31513416083046375,
                -0.17395985421827154,
                -1.0688355305630342
            ]
        },
        {
            "positions": [
                0.6031017272632375,
                -1.7912638583555607,
                1.2813703770579377,
                -0.3226220688038165,
                -0.17186961894215508,
                -0.9578123630178292
            ]
        },
        {
            "positions": [
                0.6921684783453335,
                -1.7901645194655886,
                1.097236726092734,
                -0.3301099767771693,
                -0.1697793836660386,
                -0.8467891954726243
            ]
        },
        {
            "positions": [
                0.7812352294274296,
                -1.7890651805756166,
                0.9131030751275307,
                -0.3375978847505221,
                -0.1676891483899221,
                -0.7357660279274193
            ]
        },
        {
            "positions": [
                0.8703019805095256,
                -1.7879658416856445,
                0.7289694241623275,
                -0.3450857927238749,
                -0.16559891311380562,
                -0.6247428603822144
            ]
        },
        {
            "positions": [
                0.9593687315916216,
                -1.7868665027956723,
                0.5448357731971241,
                -0.3525737006972277,
                -0.16350867783768913,
                -0.5137196928370094
            ]
        },
        {
            "positions": [
                1.0484354826737177,
                -1.7857671639057002,
                0.36070212223192066,
                -0.3600616086705805,
                -0.16141844256157267,
                -0.40269652529180433
            ]
        },
        {
            "positions": [
                1.1375022337558138,
                -1.7846678250157282,
                0.17656847126671704,
                -0.3675495166439333,
                -0.15932820728545619,
                -0.2916733577465994
            ]
        },
        {
            "positions": [
                1.2265689848379098,
                -1.7835684861257561,
                -0.007565179698486135,
                -0.37503742461728606,
                -0.1572379720093397,
                -0.1806501902013944
            ]
        },
        {
            "positions": [
                1.3156357359200057,
                -1.7824691472357839,
                -0.19169883066368953,
                -0.38252533259063887,
                -0.1551477367332232,
                -0.06962702265618947
            ]
        },
        {
            "positions": [
                1.4047024870021017,
                -1.7813698083458118,
                -0.3758324816288927,
                -0.39001324056399167,
                -0.15305750145710673,
                0.04139614488901544
            ]
        },
        {
            "positions": [
                1.493769238084198,
                -1.7802704694558398,
                -0.5599661325940963,
                -0.3975011485373445,
                -0.15096726618099024,
                0.15241931243422058
            ]
        },
        {
            "positions": [
                1.582835989166294,
                -1.7791711305658677,
                -0.7440997835592995,
                -0.4049890565106973,
                -0.14887703090487375,
                0.2634424799794255
            ]
        },
        {
            "positions": [
                1.67190274024839,
                -1.7780717916758957,
                -0.9282334345245027,
                -0.41247696448405,
                -0.1467867956287573,
                0.3744656475246304
            ]
        },
        {
            "positions": [
                1.7609694913304859,
                -1.7769724527859234,
                -1.1123670854897063,
                -0.4199648724574028,
                -0.1446965603526408,
                0.48548881506983554
            ]
        },
        {
            "positions": [
                1.8500362424125822,
                -1.7758731138959514,
                -1.29650073645491,
                -0.42745278043075563,
                -0.14260632507652432,
                0.5965119826150402
            ]
        },
        {
            "positions": [
                1.9391029934946782,
                -1.7747737750059793,
                -1.4806343874201136,
                -0.43494068840410843,
                -0.14051608980040783,
                0.7075351501602454
            ]
        },
        {
            "positions": [
                2.028169744576774,
                -1.7736744361160073,
                -1.6647680383853167,
                -0.44242859637746124,
                -0.13842585452429135,
                0.8185583177054503
            ]
        },
        {
            "positions": [
                2.11723649565887,
                -1.772575097226035,
                -1.84890168935052,
                -0.449916504350814,
                -0.1363356192481749,
                0.9295814852506554
            ]
        },
        {
            "positions": [
                2.2063032467409665,
                -1.771475758336063,
                -2.0330353403157235,
                -0.45740441232416684,
                -0.1342453839720584,
                1.0406046527958606
            ]
        },
        {
            "positions": [
                2.2953699978230624,
                -1.770376419446091,
                -2.2171689912809263,
                -0.4648923202975196,
                -0.13215514869594192,
                1.151627820341065
            ]
        },
        {
            "positions": [
                2.32846832430757,
                -1.8289537148538237,
                -2.1741440958382747,
                -0.35465361966112696,
                -0.08657466481033937,
                1.0610705563743628
            ]
        },
        {
            "positions": [
                2.361566650792078,
                -1.8875310102615566,
                -2.1311192003956227,
                -0.24441491902473428,
                -0.040994180924736834,
                0.9705132924076607
            ]
        },
        {
            "positions": [
                2.3946649772765856,
                -1.9461083056692896,
                -2.088094304952971,
                -0.13417621838834165,
                0.004586302960865707,
                0.8799560284409584
            ]
        },
        {
            "positions": [
                2.4277633037610933,
                -2.004685601077022,
                -2.0450694095103192,
                -0.023937517751948967,
                0.05016678684646825,
                0.7893987644742563
            ]
        },
        {
            "positions": [
                2.460861630245601,
                -2.0632628964847552,
                -2.0020445140676677,
                0.08630118288444366,
                0.09574727073207079,
                0.6988415005075541
            ]
        },
        {
            "positions": [
                2.4939599567301087,
                -2.1218401918924883,
                -1.959019618625016,
                0.1965398835208363,
                0.14132775461767333,
                0.608284236540852
            ]
        },
        {
            "positions": [
                2.5270582832146165,
                -2.180417487300221,
                -1.9159947231823642,
                0.3067785841572289,
                0.18690823850327587,
                0.5177269725741498
            ]
        },
        {
            "positions": [
                2.560156609699124,
                -2.238994782707954,
                -1.8729698277397127,
                0.41701728479362166,
                0.2324887223888784,
                0.4271697086074475
            ]
        },
        {
            "positions": [
                2.593254936183632,
                -2.297572078115687,
                -1.829944932297061,
                0.5272559854300143,
                0.27806920627448095,
                0.33661244464074536
            ]
        },
        {
            "positions": [
                2.6263532626681396,
                -2.3561493735234196,
                -1.7869200368544091,
                0.6374946860664068,
                0.3236496901600835,
                0.24605518067404317
            ]
        },
        {
            "positions": [
                2.638140934988936,
                -2.3966993865480113,
                -1.7475859746612898,
                0.7496103399293876,
                0.3702943380793654,
                0.17381682506178903
            ]
        },
        {
            "positions": [
                2.649928607309733,
                -2.437249399572603,
                -1.7082519124681708,
                0.8617259937923685,
                0.4169389859986473,
                0.10157846944953491
            ]
        },
        {
            "positions": [
                2.661716279630529,
                -2.4777994125971947,
                -1.6689178502750515,
                0.9738416476553493,
                0.4635836339179292,
                0.029340113837280763
            ]
        }
    ]
}