{
    "goal": {
        "global_pose": {
            "orientation": {
                "w": -0.4816463035849501,
                "x": 0.5182115481033762,
                "y": 0.4908360881923453,
                "z": -0.5084816262002911
            },
            "position": {
                "x": -0.8240239810943604,
                "y": -0.300875300988555,
                "z": 0.16403168439865112
            }
        },
        "name": "move_to_storage_C"
    },
    "id": "BiEST_move_to_storage_C_138",
    "joint_names": [
        "shoulder_pan_joint",
        "shoulder_lift_joint",
        "elbow_joint",
        "wrist_1_joint",
        "wrist_2_joint",
        "wrist_3_joint"
    ],
    "metrics": {
        "cart_traj_len": 0.5767535355638376,
        "distance_elbow_joint": 0.25894553349769667,
        "distance_shoulder_lift_joint": 0.1902619720396318,
        "distance_shoulder_pan_joint": 0.49346680107873464,
        "distance_wrist_1_joint": 0.0776781909831542,
        "distance_wrist_2_joint": 1.0754877343615354,
        "distance_wrist_3_joint": 0.06759706247649477,
        "smoothness": 0.0,
        "time": 0.179403795,
        "traj_len": 1.470862772129762,
        "weighted_distance": 1.8579013280405736
    },
    "planner": "BiEST",
    "start": {
        "state": {
            "elbow_joint": 2.010868314990456,
            "shoulder_lift_joint": -1.1634956873337592,
            "shoulder_pan_joint": -2.4736205022346125,
            "wrist_1_joint": -0.8367026794202681,
            "wrist_2_joint": 0.6746043897044499,
            "wrist_3_joint": -3.1496632123970403
        }
    },
    "waypoints": [
        {
            "positions": [
                -2.4736205022346125,
                -1.1634956873337592,
                2.010868314990456,
                -0.8367026794202681,
                0.6746043897044499,
                -3.1496632123970403
            ]
        },
        {
            "positions": [
                -2.5558649690810684,
                -1.1317853586604871,
                1.967710726074173,
                -0.823756314256409,
                0.8538523454313725,
                -3.1383970353176247
            ]
        },
        {
            "positions": [
                -2.638109435927524,
                -1.1000750299872153,
                1.9245531371578903,
                -0.81080994909255,
                1.033100301158295,
                -3.1271308582382087
            ]
        },
        {
            "positions": [
                -2.72035390277398,
                -1.0683647013139432,
                1.8813955482416076,
                -0.797863583928691,
                1.2123482568852175,
                -3.1158646811587927
            ]
        },
        {
            "positions": [
                -2.8025983696204357,
                -1.0366543726406714,
                1.8382379593253246,
                -0.784917218764832,
                1.3915962126121402,
                -3.104598504079377
            ]
        },
        {
            "positions": [
                -2.884842836466891,
                -1.0049440439673993,
                1.795080370409042,
                -0.771970853600973,
                1.5708441683390628,
                -3.0933323269999615
            ]
        },
        {
            "positions": [
                -2.967087303313347,
                -0.9732337152941274,
                1.7519227814927592,
                -0.7590244884371139,
                1.7500921240659855,
                -3.0820661499205455
            ]
        }
    ]
}