{
    "goal": {
        "global_pose": {
            "orientation": {
                "w": 0.005598929693374612,
                "x": 0.007748599140229565,
                "y": 0.7110244013736278,
                "z": -0.7031023480610252
            },
            "position": {
                "x": 0.1141497679147869,
                "y": -0.7141253447532654,
                "z": 0.3711530566215515
            }
        },
        "name": "move_to_auspresseinheit_B"
    },
    "id": "BiEST_move_to_auspresseinheit_B_40",
    "joint_names": [
        "shoulder_pan_joint",
        "shoulder_lift_joint",
        "elbow_joint",
        "wrist_1_joint",
        "wrist_2_joint",
        "wrist_3_joint"
    ],
    "metrics": {
        "cart_traj_len": 0.5640747708554928,
        "distance_elbow_joint": 0.06432363855537582,
        "distance_shoulder_lift_joint": 0.2936164770713934,
        "distance_shoulder_pan_joint": 0.5769779969065683,
        "distance_wrist_1_joint": 0.33393062702680354,
        "distance_wrist_2_joint": 0.9903520525315721,
        "distance_wrist_3_joint": 0.006733974809860488,
        "smoothness": 0.0,
        "time": 0.075648166,
        "traj_len": 1.5053022177960058,
        "weighted_distance": 1.89833753481294
    },
    "planner": "BiEST",
    "start": {
        "state": {
            "elbow_joint": 2.0193083361928714,
            "shoulder_lift_joint": -1.1220246554650708,
            "shoulder_pan_joint": -1.0952077554168747,
            "wrist_1_joint": -0.8559753972642168,
            "wrist_2_joint": 0.4759566250798843,
            "wrist_3_joint": -3.1240929996934557
        }
    },
    "waypoints": [
        {
            "positions": [
                -1.0952077554168747,
                -1.1220246554650708,
                2.0193083361928714,
                -0.8559753972642168,
                0.4759566250798843,
                -3.1240929996934557
            ]
        },
        {
            "positions": [
                -1.1913707549013026,
                -1.1709607349769697,
                2.0085877297669756,
                -0.8003202927597495,
                0.641015300501813,
                -3.122970670558479
            ]
        },
        {
            "positions": [
                -1.2875337543857308,
                -1.2198968144888687,
                1.9978671233410794,
                -0.7446651882552823,
                0.8060739759237416,
                -3.1218483414235023
            ]
        },
        {
            "positions": [
                -1.3836967538701588,
                -1.2688328940007674,
                1.9871465169151836,
                -0.6890100837508151,
                0.9711326513456704,
                -3.120726012288525
            ]
        },
        {
            "positions": [
                -1.4798597533545867,
                -1.3177689735126663,
                1.9764259104892876,
                -0.6333549792463478,
                1.136191326767599,
                -3.1196036831535485
            ]
        },
        {
            "positions": [
                -1.576022752839015,
                -1.3667050530245652,
                1.9657053040633916,
                -0.5776998747418804,
                1.3012500021895277,
                -3.118481354018572
            ]
        },
        {
            "positions": [
                -1.672185752323443,
                -1.4156411325364642,
                1.9549846976374956,
                -0.5220447702374132,
                1.4663086776114564,
                -3.117359024883595
            ]
        }
    ]
}