{
    "goal": {
        "global_pose": {
            "orientation": {
                "w": -0.00223480608172531,
                "x": 0.0024358444001904467,
                "y": 0.7094548369677653,
                "z": -0.704743149386269
            },
            "position": {
                "x": -0.37947507619857795,
                "y": -0.6371506643295288,
                "z": 0.19426114857196808
            }
        },
        "name": "move_to_magneteinheit_C"
    },
    "id": "BiEST_move_to_magneteinheit_C_30",
    "joint_names": [
        "shoulder_pan_joint",
        "shoulder_lift_joint",
        "elbow_joint",
        "wrist_1_joint",
        "wrist_2_joint",
        "wrist_3_joint"
    ],
    "metrics": {
        "cart_traj_len": 0.6885496231440411,
        "distance_elbow_joint": 0.12101788723789131,
        "distance_shoulder_lift_joint": 0.3117063754437446,
        "distance_shoulder_pan_joint": 0.8676292319274375,
        "distance_wrist_1_joint": 2.407137880737424,
        "distance_wrist_2_joint": 0.823391592405771,
        "distance_wrist_3_joint": 0.6256562873456271,
        "smoothness": 1.2125316955692982,
        "time": 0.141189691,
        "traj_len": 2.27080145655623,
        "weighted_distance": 3.104574254697791
    },
    "planner": "BiEST",
    "start": {
        "state": {
            "elbow_joint": 1.9565354010623817,
            "shoulder_lift_joint": -1.4165861575791021,
            "shoulder_pan_joint": -1.6717766225146293,
            "wrist_1_joint": -0.5286633292919765,
            "wrist_2_joint": 1.472756589071564,
            "wrist_3_joint": -3.1238370188695823
        }
    },
    "waypoints": [
        {
            "positions": [
                -1.6717766225146293,
                -1.4165861575791021,
                1.9565354010623817,
                -0.5286633292919765,
                1.472756589071564,
                -3.1238370188695823
            ]
        },
        {
            "positions": [
                -1.7701118580995805,
                -1.4202023334291194,
                1.9539994927169206,
                -0.3975196101117476,
                1.3707871075087976,
                -3.0865847955372656
            ]
        },
        {
            "positions": [
                -1.8684470936845317,
                -1.423818509279137,
                1.9514635843714596,
                -0.2663758909315187,
                1.2688176259460313,
                -3.049332572204949
            ]
        },
        {
            "positions": [
                -1.966782329269483,
                -1.4274346851291542,
                1.9489276760259986,
                -0.13523217175128982,
                1.1668481443832648,
                -3.0120803488726327
            ]
        },
        {
            "positions": [
                -2.065117564854434,
                -1.4310508609791714,
                1.9463917676805376,
                -0.004088452571060941,
                1.0648786628204985,
                -2.974828125540316
            ]
        },
        {
            "positions": [
                -2.1634528004393854,
                -1.4346670368291887,
                1.9438558593350765,
                0.127055266609168,
                0.9629091812577322,
                -2.9375759022079992
            ]
        },
        {
            "positions": [
                -2.2617880360243365,
                -1.438283212679206,
                1.9413199509896155,
                0.2581989857893968,
                0.8609396996949658,
                -2.900323678875683
            ]
        },
        {
            "positions": [
                -2.3601232716092877,
                -1.4418993885292235,
                1.9387840426441545,
                0.38934270496962564,
                0.7589702181321993,
                -2.8630714555433663
            ]
        },
        {
            "positions": [
                -2.458458507194239,
                -1.4455155643792408,
                1.9362481342986935,
                0.5204864241498547,
                0.657000736569433,
                -2.8258192322110496
            ]
        },
        {
            "positions": [
                -2.4746853431001923,
                -1.4034402467993035,
                1.9653734776140022,
                0.3129319957093597,
                0.6572063695907359,
                -2.8829981971637624
            ]
        },
        {
            "positions": [
                -2.490912179006146,
                -1.361364929219366,
                1.9944988209293109,
                0.10537756726886466,
                0.6574120026120386,
                -2.9401771621164756
            ]
        },
        {
            "positions": [
                -2.5071390149120996,
                -1.3192896116394286,
                2.0236241642446195,
                -0.10217686117163038,
                0.6576176356333414,
                -2.9973561270691884
            ]
        },
        {
            "positions": [
                -2.496383401735444,
                -1.2671059396714974,
                2.019172634068527,
                -0.34728514182966624,
                0.6599572492465853,
                -3.0493899956788404
            ]
        },
        {
            "positions": [
                -2.485627788558788,
                -1.214922267703566,
                2.014721103892435,
                -0.5923934224877021,
                0.6622968628598292,
                -3.101423864288492
            ]
        },
        {
            "positions": [
                -2.4748721753821323,
                -1.1627385957356349,
                2.0102695737163425,
                -0.837501703145738,
                0.6646364764730731,
                -3.153457732898144
            ]
        }
    ]
}