{
    "goal": {
        "global_pose": {
            "orientation": {
                "w": 0.005598929693374612,
                "x": 0.007748599140229565,
                "y": 0.7110244013736278,
                "z": -0.7031023480610252
            },
            "position": {
                "x": 0.1141497679147869,
                "y": -0.7141253447532654,
                "z": 0.3711530566215515
            }
        },
        "name": "move_to_auspresseinheit_B"
    },
    "id": "BiEST_move_to_auspresseinheit_B_143",
    "joint_names": [
        "shoulder_pan_joint",
        "shoulder_lift_joint",
        "elbow_joint",
        "wrist_1_joint",
        "wrist_2_joint",
        "wrist_3_joint"
    ],
    "metrics": {
        "cart_traj_len": 0.5648579192495823,
        "distance_elbow_joint": 0.06649663501023029,
        "distance_shoulder_lift_joint": 0.2925468246780565,
        "distance_shoulder_pan_joint": 0.5762557772537171,
        "distance_wrist_1_joint": 0.33812814466646435,
        "distance_wrist_2_joint": 0.9979764371732507,
        "distance_wrist_3_joint": 0.00855973570976687,
        "smoothness": 0.0,
        "time": 0.090048637,
        "traj_len": 1.509954818692098,
        "weighted_distance": 1.9060922348487586
    },
    "planner": "BiEST",
    "start": {
        "state": {
            "elbow_joint": 2.0193083361928714,
            "shoulder_lift_joint": -1.1220246554650708,
            "shoulder_pan_joint": -1.0952077554168747,
            "wrist_1_joint": -0.8559753972642168,
            "wrist_2_joint": 0.4759566250798843,
            "wrist_3_joint": -3.1240929996934557
        }
    },
    "waypoints": [
        {
            "positions": [
                -1.0952077554168747,
                -1.1220246554650708,
                2.0193083361928714,
                -0.8559753972642168,
                0.4759566250798843,
                -3.1240929996934557
            ]
        },
        {
            "positions": [
                -1.191250384959161,
                -1.1707824595780802,
                2.0082255636911666,
                -0.7996207064864728,
                0.642286031275426,
                -3.1255196223117503
            ]
        },
        {
            "positions": [
                -1.287293014501447,
                -1.2195402636910897,
                1.9971427911894613,
                -0.7432660157087286,
                0.8086154374709678,
                -3.1269462449300445
            ]
        },
        {
            "positions": [
                -1.3833356440437332,
                -1.268298067804099,
                1.9860600186877564,
                -0.6869113249309846,
                0.9749448436665096,
                -3.128372867548339
            ]
        },
        {
            "positions": [
                -1.4793782735860193,
                -1.3170558719171084,
                1.9749772461860513,
                -0.6305566341532406,
                1.1412742498620514,
                -3.1297994901666337
            ]
        },
        {
            "positions": [
                -1.5754209031283057,
                -1.3658136760301178,
                1.9638944736843462,
                -0.5742019433754965,
                1.3076036560575932,
                -3.131226112784928
            ]
        },
        {
            "positions": [
                -1.6714635326705918,
                -1.4145714801431273,
                1.9528117011826411,
                -0.5178472525977524,
                1.473933062253135,
                -3.1326527354032225
            ]
        }
    ]
}