{
    "goal": {
        "global_pose": {
            "orientation": {
                "w": 0.5084816217422485,
                "x": -0.49083608388900757,
                "y": 0.5182115435600281,
                "z": -0.4816462993621826
            },
            "position": {
                "x": 0.5540239810943604,
                "y": 0.030875300988554955,
                "z": 0.16403168439865112
            }
        },
        "name": "move_to_storage_A"
    },
    "id": "BiEST_move_to_storage_A_104",
    "joint_names": [
        "shoulder_pan_joint",
        "shoulder_lift_joint",
        "elbow_joint",
        "wrist_1_joint",
        "wrist_2_joint",
        "wrist_3_joint"
    ],
    "metrics": {
        "cart_traj_len": 0.3535208795005539,
        "distance_elbow_joint": 0.44907110197183076,
        "distance_shoulder_lift_joint": 0.23401550554515382,
        "distance_shoulder_pan_joint": 0.46232718268063133,
        "distance_wrist_1_joint": 0.24054365351276907,
        "distance_wrist_2_joint": 1.0990656833875219,
        "distance_wrist_3_joint": 0.09929503273857865,
        "smoothness": 0.0,
        "time": 0.049445464,
        "traj_len": 1.6075814628927785,
        "weighted_distance": 2.0303983752490384
    },
    "planner": "BiEST",
    "start": {
        "state": {
            "elbow_joint": 1.971548259319323,
            "shoulder_lift_joint": -1.1394851275133948,
            "shoulder_pan_joint": 0.1228115487234821,
            "wrist_1_joint": -0.7804723859257726,
            "wrist_2_joint": 0.12958671773740124,
            "wrist_3_joint": -3.192489227718131
        }
    },
    "waypoints": [
        {
            "positions": [
                0.1228115487234821,
                -1.1394851275133948,
                1.971548259319323,
                -0.7804723859257726,
                0.12958671773740124,
                -3.192489227718131
            ]
        },
        {
            "positions": [
                0.05676480834053477,
                -1.1729159140198453,
                2.0357012738867275,
                -0.8148357649990253,
                0.2865961010784758,
                -3.1783042230411915
            ]
        },
        {
            "positions": [
                -0.009281932042412566,
                -1.206346700526296,
                2.099854288454132,
                -0.849199144072278,
                0.4436054844195503,
                -3.1641192183642515
            ]
        },
        {
            "positions": [
                -0.0753286724253599,
                -1.2397774870327465,
                2.164007303021536,
                -0.8835625231455307,
                0.6006148677606249,
                -3.149934213687312
            ]
        },
        {
            "positions": [
                -0.14137541280830723,
                -1.273208273539197,
                2.2281603175889404,
                -0.9179259022187836,
                0.7576242511016994,
                -3.135749209010372
            ]
        },
        {
            "positions": [
                -0.20742215319125457,
                -1.3066390600456477,
                2.292313332156345,
                -0.9522892812920363,
                0.914633634442774,
                -3.121564204333432
            ]
        },
        {
            "positions": [
                -0.2734688935742019,
                -1.3400698465520982,
                2.3564663467237494,
                -0.986652660365289,
                1.0716430177838485,
                -3.107379199656492
            ]
        },
        {
            "positions": [
                -0.33951563395714923,
                -1.3735006330585486,
                2.4206193612911537,
                -1.0210160394385417,
                1.2286524011249231,
                -3.0931941949795525
            ]
        }
    ]
}{
    "goal": {
        "global_pose": {
            "orientation": {
                "w": 0.5084816217422485,
                "x": -0.49083608388900757,
                "y": 0.5182115435600281,
                "z": -0.4816462993621826
            },
            "position": {
                "x": 0.5540239810943604,
                "y": 0.030875300988554955,
                "z": 0.16403168439865112
            }
        },
        "name": "move_to_storage_A"
    },
    "id": "BiEST_move_to_storage_A_104",
    "joint_names": [
        "shoulder_pan_joint",
        "shoulder_lift_joint",
        "elbow_joint",
        "wrist_1_joint",
        "wrist_2_joint",
        "wrist_3_joint"
    ],
    "metrics": {
        "cart_traj_len": 0.352726319387265,
        "distance_elbow_joint": 0.4489688191824399,
        "distance_shoulder_lift_joint": 0.23399645010891423,
        "distance_shoulder_pan_joint": 0.4617210693989709,
        "distance_wrist_1_joint": 0.24214852031606982,
        "distance_wrist_2_joint": 1.0954795585370896,
        "distance_wrist_3_joint": 0.09455654867286123,
        "smoothness": 4.440892133664971e-16,
        "time": 0.076172676,
        "traj_len": 1.6052635192442222,
        "weighted_distance": 2.025737431755465
    },
    "planner": "BiEST",
    "start": {
        "state": {
            "elbow_joint": 1.97154746011099,
            "shoulder_lift_joint": -1.13948474672311,
            "shoulder_pan_joint": 0.12281154466712228,
            "wrist_1_joint": -0.7804688027058302,
            "wrist_2_joint": 0.12958655903071145,
            "wrist_3_joint": 3.0906928834467795
        }
    },
    "waypoints": [
        {
            "positions": [
                0.12281154466712228,
                -1.13948474672311,
                1.97154746011099,
                -0.7804688027058302,
                0.12958655903071145,
                3.0906928834467795
            ]
        },
        {
            "positions": [
                0.056851391895840736,
                -1.1729128110243834,
                2.0356858628513383,
                -0.8150614484652687,
                0.2860836388217243,
                3.104200961828617
            ]
        },
        {
            "positions": [
                -0.00910876087544081,
                -1.2063408753256568,
                2.0998242655916872,
                -0.8496540942247073,
                0.44258071861273707,
                3.117709040210454
            ]
        },
        {
            "positions": [
                -0.07506891364672237,
                -1.2397689396269302,
                2.1639626683320357,
                -0.8842467399841458,
                0.5990777984037499,
                3.1312171185922915
            ]
        },
        {
            "positions": [
                -0.1410290664180039,
                -1.2731970039282037,
                2.228101071072384,
                -0.9188393857435844,
                0.7555748781947627,
                3.1447251969741288
            ]
        },
        {
            "positions": [
                -0.20698921918928548,
                -1.3066250682294773,
                2.2922394738127325,
                -0.9534320315030229,
                0.9120719579857754,
                3.158233275355966
            ]
        },
        {
            "positions": [
                -0.272949371960567,
                -1.3400531325307508,
                2.3563778765530814,
                -0.9880246772624615,
                1.0685690377767882,
                3.1717413537378034
            ]
        },
        {
            "positions": [
                -0.3389095247318486,
                -1.3734811968320242,
                2.42051627929343,
                -1.0226173230219,
                1.225066117567801,
                3.1852494321196407
            ]
        }
    ]
}{
    "goal": {
        "global_pose": {
            "orientation": {
                "w": 0.5084816217422485,
                "x": -0.49083608388900757,
                "y": 0.5182115435600281,
                "z": -0.4816462993621826
            },
            "position": {
                "x": 0.5540239810943604,
                "y": 0.030875300988554955,
                "z": 0.16403168439865112
            }
        },
        "name": "move_to_storage_A"
    },
    "id": "BiEST_move_to_storage_A_104",
    "joint_names": [
        "shoulder_pan_joint",
        "shoulder_lift_joint",
        "elbow_joint",
        "wrist_1_joint",
        "wrist_2_joint",
        "wrist_3_joint"
    ],
    "metrics": {
        "cart_traj_len": 0.3526962693603436,
        "distance_elbow_joint": 0.45354639092619475,
        "distance_shoulder_lift_joint": 0.2348551736075477,
        "distance_shoulder_pan_joint": 0.4594421597708435,
        "distance_wrist_1_joint": 0.25898569269698757,
        "distance_wrist_2_joint": 1.1061047529925738,
        "distance_wrist_3_joint": 0.09514677175907371,
        "smoothness": 2.2204460668324854e-16,
        "time": 0.069412374,
        "traj_len": 1.61495539930774,
        "weighted_distance": 2.0404570397244166
    },
    "planner": "BiEST",
    "start": {
        "state": {
            "elbow_joint": 1.9715472970024885,
            "shoulder_lift_joint": -1.1394870060712896,
            "shoulder_pan_joint": 0.12281152778156021,
            "wrist_1_joint": -0.780463741449964,
            "wrist_2_joint": 0.12958659822042276,
            "wrist_3_joint": 3.090690232415272
        }
    },
    "waypoints": [
        {
            "positions": [
                0.12281152778156021,
                -1.1394870060712896,
                1.9715472970024885,
                -0.780463741449964,
                0.12958659822042276,
                3.090690232415272
            ]
        },
        {
            "positions": [
                0.05717693352858258,
                -1.1730377451580822,
                2.0363396385633736,
                -0.8174616975495337,
                0.2876015629336476,
                3.104282628380854
            ]
        },
        {
            "positions": [
                -0.00845766072439505,
                -1.2065884842448746,
                2.1011319801242583,
                -0.8544596536491033,
                0.44561652764687243,
                3.1178750243464357
            ]
        },
        {
            "positions": [
                -0.07409225497737268,
                -1.2401392233316673,
                2.1659243216851434,
                -0.8914576097486729,
                0.6036314923600973,
                3.131467420312018
            ]
        },
        {
            "positions": [
                -0.1397268492303503,
                -1.2736899624184597,
                2.2307166632460285,
                -0.9284555658482426,
                0.761646457073322,
                3.1450598162775996
            ]
        },
        {
            "positions": [
                -0.205361443483328,
                -1.3072407015052523,
                2.2955090048069136,
                -0.9654535219478122,
                0.9196614217865469,
                3.1586522122431817
            ]
        },
        {
            "positions": [
                -0.27099603773630554,
                -1.3407914405920447,
                2.360301346367798,
                -1.0024514780473819,
                1.0776763864997718,
                3.1722446082087634
            ]
        },
        {
            "positions": [
                -0.3366306319892833,
                -1.3743421796788373,
                2.4250936879286833,
                -1.0394494341469516,
                1.2356913512129966,
                3.1858370041743456
            ]
        }
    ]
}