{
    "goal": {
        "global_pose": {
            "orientation": {
                "w": 0.5084816262002911,
                "x": -0.4908360881923452,
                "y": 0.5182115481033761,
                "z": -0.48164630358495003
            },
            "position": {
                "x": 0.5540239810943604,
                "y": -0.46912469901144505,
                "z": 0.16403168439865112
            }
        },
        "name": "move_to_storage_B"
    },
    "id": "BiEST_move_to_storage_B_10",
    "joint_names": [
        "shoulder_pan_joint",
        "shoulder_lift_joint",
        "elbow_joint",
        "wrist_1_joint",
        "wrist_2_joint",
        "wrist_3_joint"
    ],
    "metrics": {
        "cart_traj_len": 1.760318879266592,
        "distance_elbow_joint": 0.9356130723171567,
        "distance_shoulder_lift_joint": 1.8015906504899495,
        "distance_shoulder_pan_joint": 0.3619140867391196,
        "distance_wrist_1_joint": 3.0212276401443274,
        "distance_wrist_2_joint": 2.7126548332079072,
        "distance_wrist_3_joint": 3.127938827177523,
        "smoothness": 0.28058935536478435,
        "time": 0.124777721,
        "traj_len": 3.4584590658378453,
        "weighted_distance": 4.893945160888429
    },
    "planner": "BiEST",
    "start": {
        "state": {
            "elbow_joint": 1.664937868594044,
            "shoulder_lift_joint": -0.661644460510453,
            "shoulder_pan_joint": -0.9139846352900073,
            "wrist_1_joint": 2.146753192139373,
            "wrist_2_joint": -2.2341966793290973,
            "wrist_3_joint": 0.005466555786416001
        }
    },
    "waypoints": [
        {
            "positions": [
                -0.9139846352900073,
                -0.661644460510453,
                1.664937868594044,
                2.146753192139373,
                -2.2341966793290973,
                0.005466555786416001
            ]
        },
        {
            "positions": [
                -0.8232823549882362,
                -0.7268628629119646,
                1.6296799687783257,
                2.1677079384305546,
                -2.15040717294021,
                0.03627832199738579
            ]
        },
        {
            "positions": [
                -0.8384155263743225,
                -0.7895517033494106,
                1.614525021891745,
                2.0598429253095634,
                -2.0319407335255026,
                0.1127239057213213
            ]
        },
        {
            "positions": [
                -0.8535486977604089,
                -0.8522405437868565,
                1.5993700750051645,
                1.9519779121885723,
                -1.9134742941107954,
                0.1891694894452568
            ]
        },
        {
            "positions": [
                -0.8686818691464951,
                -0.9149293842243026,
                1.5842151281185841,
                1.8441128990675812,
                -1.7950078546960881,
                0.2656150731691923
            ]
        },
        {
            "positions": [
                -0.8838150405325814,
                -0.9776182246617486,
                1.5690601812320035,
                1.73624788594659,
                -1.676541415281381,
                0.3420606568931278
            ]
        },
        {
            "positions": [
                -0.8989482119186678,
                -1.0403070650991946,
                1.553905234345423,
                1.628382872825599,
                -1.5580749758666737,
                0.4185062406170633
            ]
        },
        {
            "positions": [
                -0.9140813833047541,
                -1.1029959055366407,
                1.5387502874588423,
                1.5205178597046078,
                -1.4396085364519662,
                0.4949518243409989
            ]
        },
        {
            "positions": [
                -0.9292145546908404,
                -1.1656847459740867,
                1.5235953405722618,
                1.4126528465836166,
                -1.321142097037259,
                0.5713974080649343
            ]
        },
        {
            "positions": [
                -0.9443477260769267,
                -1.2283735864115326,
                1.5084403936856812,
                1.3047878334626255,
                -1.2026756576225517,
                0.6478429917888698
            ]
        },
        {
            "positions": [
                -0.959480897463013,
                -1.2910624268489785,
                1.4932854467991008,
                1.1969228203416342,
                -1.0842092182078442,
                0.7242885755128053
            ]
        },
        {
            "positions": [
                -0.9746140688490994,
                -1.3537512672864247,
                1.4781304999125202,
                1.0890578072206432,
                -0.965742778793137,
                0.8007341592367409
            ]
        },
        {
            "positions": [
                -0.9897472402351857,
                -1.4164401077238709,
                1.4629755530259396,
                0.9811927940996519,
                -0.8472763393784295,
                0.8771797429606764
            ]
        },
        {
            "positions": [
                -1.004880411621272,
                -1.4791289481613168,
                1.447820606139359,
                0.8733277809786608,
                -0.7288098999637223,
                0.953625326684612
            ]
        },
        {
            "positions": [
                -1.0200135830073582,
                -1.5418177885987627,
                1.4326656592527784,
                0.7654627678576698,
                -0.6103434605490152,
                1.0300709104085473
            ]
        },
        {
            "positions": [
                -1.0351467543934445,
                -1.6045066290362087,
                1.417510712366198,
                0.6575977547366787,
                -0.49187702113430776,
                1.106516494132483
            ]
        },
        {
            "positions": [
                -1.050279925779531,
                -1.6671954694736546,
                1.4023557654796175,
                0.5497327416156874,
                -0.3734105817196005,
                1.1829620778564185
            ]
        },
        {
            "positions": [
                -1.0654130971656173,
                -1.729884309911101,
                1.387200818593037,
                0.44186772849469635,
                -0.25494414230489304,
                1.259407661580354
            ]
        },
        {
            "positions": [
                -1.0805462685517035,
                -1.792573150348547,
                1.3720458717064563,
                0.3340027153737052,
                -0.1364777028901859,
                1.3358532453042893
            ]
        },
        {
            "positions": [
                -1.0816191833881559,
                -1.7409837687599425,
                1.4214859544318077,
                0.2442667406970671,
                -0.08917494467718606,
                1.474126486662724
            ]
        },
        {
            "positions": [
                -1.0826920982246084,
                -1.6893943871713384,
                1.4709260371571593,
                0.15453076602042906,
                -0.04187218646418621,
                1.6123997280211584
            ]
        },
        {
            "positions": [
                -1.0837650130610608,
                -1.637805005582734,
                1.5203661198825107,
                0.06479479134379101,
                0.005430571748813645,
                1.750672969379593
            ]
        },
        {
            "positions": [
                -1.084837927897513,
                -1.5862156239941299,
                1.5698062026078623,
                -0.02494118333284706,
                0.052733329961813485,
                1.8889462107380277
            ]
        },
        {
            "positions": [
                -1.0859108427339657,
                -1.5346262424055255,
                1.6192462853332137,
                -0.11467715800948508,
                0.10003608817481333,
                2.027219452096462
            ]
        },
        {
            "positions": [
                -1.086983757570418,
                -1.4830368608169213,
                1.668686368058565,
                -0.20441313268612316,
                0.1473388463878132,
                2.165492693454897
            ]
        },
        {
            "positions": [
                -1.0880566724068703,
                -1.431447479228317,
                1.7181264507839167,
                -0.2941491073627611,
                0.19464160460081298,
                2.3037659348133315
            ]
        },
        {
            "positions": [
                -1.0891295872433226,
                -1.3798580976397128,
                1.767566533509268,
                -0.3838850820393993,
                0.24194436281381287,
                2.4420391761717664
            ]
        },
        {
            "positions": [
                -1.0902025020797752,
                -1.3282687160511084,
                1.8170066162346195,
                -0.47362105671603727,
                0.2892471210268127,
                2.580312417530201
            ]
        },
        {
            "positions": [
                -1.0912754169162275,
                -1.276679334462504,
                1.866446698959971,
                -0.5633570313926753,
                0.33654987923981255,
                2.7185856588886352
            ]
        },
        {
            "positions": [
                -1.0923483317526799,
                -1.2250899528738999,
                1.9158867816853224,
                -0.6530930060693133,
                0.3838526374528124,
                2.8568589002470697
            ]
        },
        {
            "positions": [
                -1.0934212465891324,
                -1.1735005712852957,
                1.965326864410674,
                -0.7428289807459515,
                0.4311553956658123,
                2.9951321416055046
            ]
        },
        {
            "positions": [
                -1.0944941614255848,
                -1.1219111896966913,
                2.0147669471360254,
                -0.8325649554225896,
                0.478458153878812,
                3.133405382963939
            ]
        }
    ]
}