{
    "goal": {
        "global_pose": {
            "orientation": {
                "w": 0.7047431468963623,
                "x": -0.7094548344612122,
                "y": 0.0024358443915843964,
                "z": -0.0022348060738295317
            },
            "position": {
                "x": 0.6094750761985779,
                "y": 0.3671506643295288,
                "z": 0.19426114857196808
            }
        },
        "name": "move_to_magneteinheit_A"
    },
    "id": "BiEST_move_to_magneteinheit_A_112",
    "joint_names": [
        "shoulder_pan_joint",
        "shoulder_lift_joint",
        "elbow_joint",
        "wrist_1_joint",
        "wrist_2_joint",
        "wrist_3_joint"
    ],
    "metrics": {
        "cart_traj_len": 4.048219644623652,
        "distance_elbow_joint": 3.871122355255686,
        "distance_shoulder_lift_joint": 0.1160745951881208,
        "distance_shoulder_pan_joint": 5.24606274106409,
        "distance_wrist_1_joint": 4.001033936539723,
        "distance_wrist_2_joint": 1.6932207961387071,
        "distance_wrist_3_joint": 2.575214558129809,
        "smoothness": 0.3128662008555409,
        "time": 0.08274119099999999,
        "traj_len": 4.183626295729116,
        "weighted_distance": 5.324228848505123
    },
    "planner": "BiEST",
    "start": {
        "state": {
            "elbow_joint": -1.9196185241190666,
            "shoulder_lift_joint": -1.2443396400964142,
            "shoulder_pan_joint": 2.6996025414629847,
            "wrist_1_joint": -1.5485510000780065,
            "wrist_2_joint": -1.5709468930060704,
            "wrist_3_joint": 0.4420197071253992
        }
    },
    "waypoints": [
        {
            "positions": [
                2.6996025414629847,
                -1.2443396400964142,
                -1.9196185241190666,
                -1.5485510000780065,
                -1.5709468930060704,
                0.4420197071253992
            ]
        },
        {
            "positions": [
                2.5547447677362065,
                -1.2409579632299854,
                -1.829952070531792,
                -1.4586781903338224,
                -1.5270051187661824,
                0.46419233903328994
            ]
        },
        {
            "positions": [
                2.409886994009428,
                -1.2375762863635567,
                -1.7402856169445173,
                -1.3688053805896385,
                -1.4830633445262944,
                0.48636497094118075
            ]
        },
        {
            "positions": [
                2.2650292202826496,
                -1.2341946094971277,
                -1.6506191633572427,
                -1.2789325708454544,
                -1.4391215702864066,
                0.5085376028490716
            ]
        },
        {
            "positions": [
                2.1201714465558714,
                -1.230812932630699,
                -1.5609527097699678,
                -1.1890597611012703,
                -1.3951797960465186,
                0.5307102347569623
            ]
        },
        {
            "positions": [
                1.9753136728290932,
                -1.2274312557642701,
                -1.4712862561826932,
                -1.0991869513570864,
                -1.3512380218066307,
                0.5528828666648531
            ]
        },
        {
            "positions": [
                1.8304558991023148,
                -1.2240495788978414,
                -1.3816198025954185,
                -1.0093141416129023,
                -1.3072962475667427,
                0.5750554985727439
            ]
        },
        {
            "positions": [
                1.6855981253755365,
                -1.2206679020314126,
                -1.2919533490081436,
                -0.9194413318687183,
                -1.263354473326855,
                0.5972281304806346
            ]
        },
        {
            "positions": [
                1.540740351648758,
                -1.2172862251649839,
                -1.202286895420869,
                -0.8295685221245344,
                -1.219412699086967,
                0.6194007623885254
            ]
        },
        {
            "positions": [
                1.39588257792198,
                -1.2139045482985549,
                -1.1126204418335943,
                -0.7396957123803503,
                -1.175470924847079,
                0.6415733942964161
            ]
        },
        {
            "positions": [
                1.2510248041952015,
                -1.2105228714321261,
                -1.0229539882463197,
                -0.6498229026361663,
                -1.131529150607191,
                0.663746026204307
            ]
        },
        {
            "positions": [
                1.1061670304684232,
                -1.2071411945656974,
                -0.933287534659045,
                -0.5599500928919823,
                -1.0875873763673032,
                0.6859186581121978
            ]
        },
        {
            "positions": [
                0.9613092567416448,
                -1.2037595176992686,
                -0.8436210810717704,
                -0.4700772831477982,
                -1.0436456021274152,
                0.7080912900200885
            ]
        },
        {
            "positions": [
                0.8164514830148666,
                -1.2003778408328398,
                -0.7539546274844955,
                -0.3802044734036143,
                -0.9997038278875272,
                0.7302639219279794
            ]
        },
        {
            "positions": [
                0.6715937092880884,
                -1.1969961639664108,
                -0.6642881738972208,
                -0.2903316636594302,
                -0.9557620536476393,
                0.7524365538358702
            ]
        },
        {
            "positions": [
                0.5267359355613097,
                -1.193614487099982,
                -0.574621720309946,
                -0.2004588539152461,
                -0.9118202794077512,
                0.7746091857437609
            ]
        },
        {
            "positions": [
                0.3818781618345315,
                -1.1902328102335533,
                -0.48495526672267153,
                -0.11058604417106221,
                -0.8678785051678634,
                0.7967818176516517
            ]
        },
        {
            "positions": [
                0.23702038810775283,
                -1.1868511333671246,
                -0.39528881313539665,
                -0.02071323442687789,
                -0.8239367309279754,
                0.8189544495595424
            ]
        },
        {
            "positions": [
                0.09216261438097506,
                -1.1834694565006958,
                -0.305622359548122,
                0.06915957531730599,
                -0.7799949566880875,
                0.8411270814674332
            ]
        },
        {
            "positions": [
                -0.0526951593458036,
                -1.1800877796342668,
                -0.21595590596084735,
                0.1590323850614901,
                -0.7360531824481995,
                0.863299713375324
            ]
        },
        {
            "positions": [
                -0.19755293307258182,
                -1.176706102767838,
                -0.1262894523735727,
                0.24890519480567397,
                -0.6921114082083116,
                0.8854723452832147
            ]
        },
        {
            "positions": [
                -0.3424107067993605,
                -1.1733244259014093,
                -0.03662299878629782,
                0.33877800454985807,
                -0.6481696339684236,
                0.9076449771911056
            ]
        },
        {
            "positions": [
                -0.48726848052613825,
                -1.1699427490349805,
                0.05304345480097661,
                0.42865081429404195,
                -0.6042278597285358,
                0.9298176090989964
            ]
        },
        {
            "positions": [
                -0.6321262542529169,
                -1.1665610721685518,
                0.1427099083882517,
                0.5185236240382263,
                -0.5602860854886478,
                0.9519902410068871
            ]
        },
        {
            "positions": [
                -0.7769840279796951,
                -1.163179395302123,
                0.2323763619755259,
                0.6083964337824102,
                -0.51634431124876,
                0.9741628729147779
            ]
        },
        {
            "positions": [
                -0.9218418017064738,
                -1.159797718435694,
                0.322042815562801,
                0.698269243526594,
                -0.472402537008872,
                0.9963355048226687
            ]
        },
        {
            "positions": [
                -1.0666995754332516,
                -1.1564160415692653,
                0.41170926915007566,
                0.7881420532707779,
                -0.42846076276898404,
                1.0185081367305595
            ]
        },
        {
            "positions": [
                -1.2115573491600304,
                -1.1530343647028365,
                0.5013757227373503,
                0.8780148630149622,
                -0.3845189885290961,
                1.0406807686384503
            ]
        },
        {
            "positions": [
                -1.137396079691082,
                -1.1516582913809175,
                0.5819383954261986,
                0.7905444144901426,
                -0.356363827881222,
                1.1504892962282702
            ]
        },
        {
            "positions": [
                -1.0632348102221336,
                -1.1502822180589984,
                0.662501068115047,
                0.7030739659653229,
                -0.3282086672333479,
                1.26029782381809
            ]
        },
        {
            "positions": [
                -0.9890735407531852,
                -1.1489061447370794,
                0.7430637408038954,
                0.6156035174405032,
                -0.3000535065854738,
                1.37010635140791
            ]
        },
        {
            "positions": [
                -0.9149122712842368,
                -1.1475300714151602,
                0.8236264134927438,
                0.5281330689156836,
                -0.27189834593759976,
                1.4799148789977297
            ]
        },
        {
            "positions": [
                -0.8407510018152884,
                -1.1461539980932411,
                0.9041890861815922,
                0.4406626203908639,
                -0.24374318528972563,
                1.5897234065875496
            ]
        },
        {
            "positions": [
                -0.76658973234634,
                -1.1447779247713221,
                0.9847517588704404,
                0.35319217186604424,
                -0.21558802464185156,
                1.6995319341773696
            ]
        },
        {
            "positions": [
                -0.6924284628773916,
                -1.143401851449403,
                1.0653144315592888,
                0.26572172334122457,
                -0.18743286399397743,
                1.8093404617671895
            ]
        },
        {
            "positions": [
                -0.6182671934084432,
                -1.142025778127484,
                1.1458771042481373,
                0.1782512748164049,
                -0.15927770334610336,
                1.9191489893570093
            ]
        },
        {
            "positions": [
                -0.5441059239394948,
                -1.1406497048055648,
                1.2264397769369855,
                0.09078082629158524,
                -0.13112254269822926,
                2.0289575169468295
            ]
        },
        {
            "positions": [
                -0.46994465447054634,
                -1.1392736314836458,
                1.3070024496258341,
                0.003310377766765571,
                -0.10296738205035516,
                2.1387660445366494
            ]
        },
        {
            "positions": [
                -0.3957833850015978,
                -1.1378975581617268,
                1.3875651223146823,
                -0.0841600707580542,
                -0.07481222140248106,
                2.2485745721264694
            ]
        },
        {
            "positions": [
                -0.3216221155326495,
                -1.1365214848398077,
                1.4681277950035305,
                -0.17163051928287376,
                -0.046657060754607016,
                2.358383099716289
            ]
        },
        {
            "positions": [
                -0.2474608460637011,
                -1.1351454115178887,
                1.548690467692379,
                -0.2591009678076934,
                -0.018501900106732916,
                2.468191627306109
            ]
        },
        {
            "positions": [
                -0.1732995765947527,
                -1.1337693381959697,
                1.6292531403812274,
                -0.3465714163325131,
                0.00965326054114124,
                2.5780001548959284
            ]
        },
        {
            "positions": [
                -0.09913830712580429,
                -1.1323932648740507,
                1.7098158130700758,
                -0.43404186485733276,
                0.03780842118901534,
                2.6878086824857483
            ]
        },
        {
            "positions": [
                -0.024977037656855883,
                -1.1310171915521314,
                1.790378485758924,
                -0.5215123133821524,
                0.06596358183688938,
                2.7976172100755683
            ]
        },
        {
            "positions": [
                0.04918423181209253,
                -1.1296411182302124,
                1.8709411584477724,
                -0.6089827619069721,
                0.09411874248476348,
                2.9074257376653883
            ]
        },
        {
            "positions": [
                0.12334550128104099,
                -1.1282650449082934,
                1.9515038311366208,
                -0.6964532104317916,
                0.12227390313263761,
                3.017234265255208
            ]
        }
    ]
}