{
    "goal": {
        "global_pose": {
            "orientation": {
                "w": -0.4816463035849501,
                "x": 0.5182115481033762,
                "y": 0.4908360881923453,
                "z": -0.5084816262002911
            },
            "position": {
                "x": -0.8240239810943604,
                "y": 0.19912469901144506,
                "z": 0.16403168439865112
            }
        },
        "name": "move_to_storage_D"
    },
    "id": "BiEST_move_to_storage_D_130",
    "joint_names": [
        "shoulder_pan_joint",
        "shoulder_lift_joint",
        "elbow_joint",
        "wrist_1_joint",
        "wrist_2_joint",
        "wrist_3_joint"
    ],
    "metrics": {
        "cart_traj_len": 3.2905014957875895,
        "distance_elbow_joint": 4.210612994269564,
        "distance_shoulder_lift_joint": 1.264144039585097,
        "distance_shoulder_pan_joint": 2.8142613341111393,
        "distance_wrist_1_joint": 2.2679618629049996,
        "distance_wrist_2_joint": 1.7327255373496346,
        "distance_wrist_3_joint": 3.136155388818815,
        "smoothness": 0.041546390118714305,
        "time": 0.10148902700000001,
        "traj_len": 3.9275770084161614,
        "weighted_distance": 5.069404238658772
    },
    "planner": "BiEST",
    "start": {
        "state": {
            "elbow_joint": -2.384821988534728,
            "shoulder_lift_joint": -2.2788054721415256,
            "shoulder_pan_joint": -0.1854694642142757,
            "wrist_1_joint": 1.4845938289331202,
            "wrist_2_joint": 0.17898776772866878,
            "wrist_3_joint": 0.037105688729662994
        }
    },
    "waypoints": [
        {
            "positions": [
                -0.1854694642142757,
                -2.2788054721415256,
                -2.384821988534728,
                1.4845938289331202,
                0.17898776772866878,
                0.037105688729662994
            ]
        },
        {
            "positions": [
                -0.060952557125373355,
                -2.236263886507339,
                -2.2496305674828943,
                1.4782472343278568,
                0.15867032412145782,
                -0.027116356906561043
            ]
        },
        {
            "positions": [
                0.063564349963529,
                -2.193722300873153,
                -2.11443914643106,
                1.471900639722593,
                0.13835288051424688,
                -0.09133840254278508
            ]
        },
        {
            "positions": [
                0.18808125705243137,
                -2.1511807152389664,
                -1.9792477253792267,
                1.4655540451173297,
                0.11803543690703593,
                -0.1555604481790091
            ]
        },
        {
            "positions": [
                0.3125981641413337,
                -2.1086391296047795,
                -1.8440563043273928,
                1.459207450512066,
                0.09771799329982497,
                -0.21978249381523315
            ]
        },
        {
            "positions": [
                0.4371150712302361,
                -2.066097543970593,
                -1.708864883275559,
                1.4528608559068026,
                0.07740054969261402,
                -0.2840045394514572
            ]
        },
        {
            "positions": [
                0.5616319783191385,
                -2.0235559583364067,
                -1.5736734622237254,
                1.4465142613015392,
                0.05708310608540307,
                -0.34822658508768123
            ]
        },
        {
            "positions": [
                0.6861488854080408,
                -1.9810143727022202,
                -1.4384820411718915,
                1.4401676666962755,
                0.0367656624781921,
                -0.41244863072390525
            ]
        },
        {
            "positions": [
                0.8106657924969431,
                -1.9384727870680338,
                -1.3032906201200576,
                1.433821072091012,
                0.016448218870981163,
                -0.4766706763601293
            ]
        },
        {
            "positions": [
                0.9351826995858455,
                -1.8959312014338474,
                -1.168099199068224,
                1.4274744774857486,
                -0.003869224736229804,
                -0.5408927219963533
            ]
        },
        {
            "positions": [
                1.0596996066747477,
                -1.8533896157996608,
                -1.0329077780163902,
                1.421127882880485,
                -0.024186668343440743,
                -0.6051147676325773
            ]
        },
        {
            "positions": [
                1.1842165137636502,
                -1.8108480301654744,
                -0.8977163569645561,
                1.4147812882752215,
                -0.04450411195065174,
                -0.6693368132688015
            ]
        },
        {
            "positions": [
                1.3087334208525525,
                -1.7683064445312877,
                -0.7625249359127226,
                1.4084346936699579,
                -0.06482155555786265,
                -0.7335588589050254
            ]
        },
        {
            "positions": [
                1.433250327941455,
                -1.7257648588971013,
                -0.6273335148608887,
                1.4020880990646944,
                -0.08513899916507364,
                -0.7977809045412495
            ]
        },
        {
            "positions": [
                1.557767235030357,
                -1.6832232732629149,
                -0.49214209380905505,
                1.395741504459431,
                -0.10545644277228458,
                -0.8620029501774735
            ]
        },
        {
            "positions": [
                1.6822841421192596,
                -1.6406816876287285,
                -0.3569506727572209,
                1.3893949098541674,
                -0.12577388637949552,
                -0.9262249958136975
            ]
        },
        {
            "positions": [
                1.8068010492081619,
                -1.598140101994542,
                -0.22175925170538724,
                1.383048315248904,
                -0.14609132998670646,
                -0.9904470414499216
            ]
        },
        {
            "positions": [
                1.9313179562970642,
                -1.5555985163603554,
                -0.08656783065355356,
                1.3767017206436405,
                -0.16640877359391745,
                -1.0546690870861457
            ]
        },
        {
            "positions": [
                2.0558348633859667,
                -1.513056930726169,
                0.048623590398280125,
                1.3703551260383768,
                -0.1867262172011284,
                -1.1188911327223696
            ]
        },
        {
            "positions": [
                2.180351770474869,
                -1.4705153450919823,
                0.18381501145011425,
                1.3640085314331134,
                -0.20704366080833933,
                -1.1831131783585938
            ]
        },
        {
            "positions": [
                2.3048686775637712,
                -1.427973759457796,
                0.3190064325019475,
                1.3576619368278497,
                -0.22736110441555027,
                -1.2473352239948177
            ]
        },
        {
            "positions": [
                2.4293855846526737,
                -1.3854321738236095,
                0.4541978535537815,
                1.3513153422225863,
                -0.24767854802276126,
                -1.3115572696310418
            ]
        },
        {
            "positions": [
                2.439880652297105,
                -1.3659179242832316,
                0.5263869668264686,
                1.2389635855807724,
                -0.17893858899127682,
                -1.4056358186025213
            ]
        },
        {
            "positions": [
                2.450375719941536,
                -1.3464036747428536,
                0.5985760800991555,
                1.1266118289389584,
                -0.11019862995979238,
                -1.4997143675740008
            ]
        },
        {
            "positions": [
                2.460870787585967,
                -1.3268894252024757,
                0.6707651933718426,
                1.0142600722971444,
                -0.041458670928307934,
                -1.5937929165454803
            ]
        },
        {
            "positions": [
                2.471365855230398,
                -1.3073751756620977,
                0.7429543066445297,
                0.9019083156553305,
                0.02728128810317651,
                -1.6878714655169598
            ]
        },
        {
            "positions": [
                2.4818609228748287,
                -1.2878609261217198,
                0.8151434199172167,
                0.7895565590135164,
                0.09602124713466095,
                -1.781950014488439
            ]
        },
        {
            "positions": [
                2.49235599051926,
                -1.2683466765813418,
                0.8873325331899038,
                0.6772048023717024,
                0.1647612061661454,
                -1.8760285634599185
            ]
        },
        {
            "positions": [
                2.502851058163691,
                -1.2488324270409639,
                0.9595216464625907,
                0.5648530457298885,
                0.23350116519762984,
                -1.970107112431398
            ]
        },
        {
            "positions": [
                2.513346125808122,
                -1.229318177500586,
                1.0317107597352777,
                0.4525012890880745,
                0.3022411242291143,
                -2.0641856614028775
            ]
        },
        {
            "positions": [
                2.523841193452553,
                -1.2098039279602082,
                1.1038998730079648,
                0.34014953244626045,
                0.37098108326059875,
                -2.158264210374357
            ]
        },
        {
            "positions": [
                2.534336261096984,
                -1.1902896784198302,
                1.1760889862806518,
                0.2277977758044465,
                0.4397210422920832,
                -2.2523427593458365
            ]
        },
        {
            "positions": [
                2.5448313287414153,
                -1.1707754288794523,
                1.248278099553339,
                0.11544601916263253,
                0.5084610013235678,
                -2.346421308317316
            ]
        },
        {
            "positions": [
                2.5553263963858464,
                -1.1512611793390743,
                1.320467212826026,
                0.0030942625208185692,
                0.5772009603550521,
                -2.4404998572887955
            ]
        },
        {
            "positions": [
                2.5658214640302774,
                -1.1317469297986964,
                1.392656326098713,
                -0.10925749412099561,
                0.6459409193865366,
                -2.534578406260275
            ]
        },
        {
            "positions": [
                2.576316531674708,
                -1.1122326802583185,
                1.4648454393714,
                -0.22160925076280935,
                0.714680878418021,
                -2.6286569552317545
            ]
        },
        {
            "positions": [
                2.586811599319139,
                -1.0927184307179405,
                1.5370345526440872,
                -0.33396100740462353,
                0.7834208374495055,
                -2.722735504203234
            ]
        },
        {
            "positions": [
                2.5973066669635703,
                -1.0732041811775626,
                1.6092236659167742,
                -0.44631276404643727,
                0.8521607964809899,
                -2.8168140531747135
            ]
        },
        {
            "positions": [
                2.6078017346080014,
                -1.0536899316371846,
                1.6814127791894613,
                -0.5586645206882515,
                0.9209007555124744,
                -2.910892602146193
            ]
        },
        {
            "positions": [
                2.6182968022524324,
                -1.0341756820968067,
                1.7536018924621484,
                -0.6710162773300654,
                0.9896407145439587,
                -3.0049711511176724
            ]
        },
        {
            "positions": [
                2.6287918698968635,
                -1.0146614325564287,
                1.8257910057348354,
                -0.7833680339718795,
                1.0583806735754433,
                -3.099049700089152
            ]
        }
    ]
}