{
    "goal": {
        "global_pose": {
            "orientation": {
                "w": 0.5084816262002911,
                "x": -0.4908360881923452,
                "y": 0.5182115481033761,
                "z": -0.48164630358495003
            },
            "position": {
                "x": 0.5540239810943604,
                "y": -0.46912469901144505,
                "z": 0.16403168439865112
            }
        },
        "name": "move_to_storage_B"
    },
    "id": "BiEST_move_to_storage_B_24",
    "joint_names": [
        "shoulder_pan_joint",
        "shoulder_lift_joint",
        "elbow_joint",
        "wrist_1_joint",
        "wrist_2_joint",
        "wrist_3_joint"
    ],
    "metrics": {
        "cart_traj_len": 0.8272709233001454,
        "distance_elbow_joint": 0.3499076463681843,
        "distance_shoulder_lift_joint": 0.45894270825239536,
        "distance_shoulder_pan_joint": 0.5023894051926562,
        "distance_wrist_1_joint": 3.4944420745470537,
        "distance_wrist_2_joint": 2.7073867493940513,
        "distance_wrist_3_joint": 3.7846692867124996,
        "smoothness": 0.47453216537393855,
        "time": 0.131769359,
        "traj_len": 3.3612107744779767,
        "weighted_distance": 5.006885785379265
    },
    "planner": "BiEST",
    "start": {
        "state": {
            "elbow_joint": 1.664937868594044,
            "shoulder_lift_joint": -0.661644460510453,
            "shoulder_pan_joint": -0.9139846352900073,
            "wrist_1_joint": 2.146753192139373,
            "wrist_2_joint": -2.2341966793290973,
            "wrist_3_joint": 0.005466555786416001
        }
    },
    "waypoints": [
        {
            "positions": [
                -0.9139846352900073,
                -0.661644460510453,
                1.664937868594044,
                2.146753192139373,
                -2.2341966793290973,
                0.005466555786416001
            ]
        },
        {
            "positions": [
                -0.8740422160651731,
                -0.7264713173843126,
                1.7285750945485059,
                2.2109810033638135,
                -2.171227506696668,
                0.08594172962140752
            ]
        },
        {
            "positions": [
                -0.8340997968403387,
                -0.7912981742581722,
                1.7922123205029679,
                2.2752088145882543,
                -2.1082583340642396,
                0.16641690345639903
            ]
        },
        {
            "positions": [
                -0.7941573776155044,
                -0.8561250311320318,
                1.85584954645743,
                2.339436625812695,
                -2.0452891614318105,
                0.24689207729139054
            ]
        },
        {
            "positions": [
                -0.7542149583906702,
                -0.9209518880058913,
                1.919486772411892,
                2.4036644370371354,
                -1.9823199887993814,
                0.3273672511263821
            ]
        },
        {
            "positions": [
                -0.767919747522403,
                -0.9289372992361696,
                1.9233011221139056,
                2.2741632038511637,
                -1.884099586444808,
                0.18885650747148078
            ]
        },
        {
            "positions": [
                -0.7816245366541358,
                -0.9369227104664479,
                1.927115471815919,
                2.144661970665192,
                -1.7858791840902346,
                0.05034576381657946
            ]
        },
        {
            "positions": [
                -0.7953293257858685,
                -0.9449081216967262,
                1.9309298215179325,
                2.01516073747922,
                -1.6876587817356612,
                -0.08816497983832189
            ]
        },
        {
            "positions": [
                -0.8090341149176012,
                -0.9528935329270045,
                1.9347441712199458,
                1.8856595042932487,
                -1.5894383793810878,
                -0.22667572349322318
            ]
        },
        {
            "positions": [
                -0.822738904049334,
                -0.9608789441572827,
                1.9385585209219593,
                1.756158271107277,
                -1.4912179770265144,
                -0.36518646714812464
            ]
        },
        {
            "positions": [
                -0.8364436931810668,
                -0.968864355387561,
                1.9423728706239727,
                1.6266570379213054,
                -1.392997574671941,
                -0.5036972108030259
            ]
        },
        {
            "positions": [
                -0.8501484823127996,
                -0.9768497666178393,
                1.9461872203259862,
                1.4971558047353337,
                -1.2947771723173673,
                -0.6422079544579273
            ]
        },
        {
            "positions": [
                -0.8638532714445323,
                -0.9848351778481176,
                1.9500015700279996,
                1.367654571549362,
                -1.1965567699627941,
                -0.7807186981128285
            ]
        },
        {
            "positions": [
                -0.8775580605762651,
                -0.9928205890783959,
                1.9538159197300131,
                1.2381533383633903,
                -1.0983363676082207,
                -0.9192294417677298
            ]
        },
        {
            "positions": [
                -0.8912628497079979,
                -1.000806000308674,
                1.9576302694320264,
                1.1086521051774185,
                -1.0001159652536473,
                -1.0577401854226314
            ]
        },
        {
            "positions": [
                -0.9049676388397306,
                -1.0087914115389525,
                1.96144461913404,
                0.979150871991447,
                -0.9018955628990739,
                -1.1962509290775325
            ]
        },
        {
            "positions": [
                -0.9186724279714633,
                -1.0167768227692306,
                1.9652589688360533,
                0.8496496388054753,
                -0.8036751605445005,
                -1.3347616727324338
            ]
        },
        {
            "positions": [
                -0.9323772171031961,
                -1.024762233999509,
                1.9690733185380669,
                0.7201484056195036,
                -0.7054547581899269,
                -1.4732724163873352
            ]
        },
        {
            "positions": [
                -0.9460820062349289,
                -1.0327476452297872,
                1.9728876682400802,
                0.5906471724335318,
                -0.6072343558353535,
                -1.6117831600422368
            ]
        },
        {
            "positions": [
                -0.9597867953666617,
                -1.0407330564600656,
                1.9767020179420938,
                0.4611459392475603,
                -0.5090139534807803,
                -1.7502939036971377
            ]
        },
        {
            "positions": [
                -0.9734915844983945,
                -1.0487184676903438,
                1.980516367644107,
                0.3316447060615886,
                -0.41079355112620664,
                -1.888804647352039
            ]
        },
        {
            "positions": [
                -0.9871963736301272,
                -1.0567038789206222,
                1.9843307173461207,
                0.20214347287561685,
                -0.3125731487716332,
                -2.027315391006941
            ]
        },
        {
            "positions": [
                -1.00090116276186,
                -1.0646892901509004,
                1.988145067048134,
                0.07264223968964512,
                -0.21435274641706004,
                -2.1658261346618417
            ]
        },
        {
            "positions": [
                -1.0146059518935928,
                -1.0726747013811786,
                1.9919594167501475,
                -0.056858993496326615,
                -0.1161323440624864,
                -2.304336878316743
            ]
        },
        {
            "positions": [
                -1.0283107410253254,
                -1.080660112611457,
                1.9957737664521609,
                -0.18636022668229835,
                -0.017911941707912993,
                -2.442847621971645
            ]
        },
        {
            "positions": [
                -1.0420155301570582,
                -1.0886455238417352,
                1.9995881161541744,
                -0.31586145986826963,
                0.08030846064666042,
                -2.5813583656265457
            ]
        },
        {
            "positions": [
                -1.055720319288791,
                -1.0966309350720136,
                2.0034024658561878,
                -0.44536269305424137,
                0.1785288630012336,
                -2.719869109281447
            ]
        },
        {
            "positions": [
                -1.0694251084205237,
                -1.1046163463022918,
                2.007216815558201,
                -0.5748639262402135,
                0.27674926535580724,
                -2.8583798529363484
            ]
        },
        {
            "positions": [
                -1.0831298975522565,
                -1.1126017575325702,
                2.011031165260215,
                -0.7043651594261848,
                0.3749696677103804,
                -2.99689059659125
            ]
        },
        {
            "positions": [
                -1.0968346866839893,
                -1.1205871687628484,
                2.014845514962228,
                -0.8338663926121564,
                0.47319007006495395,
                -3.135401340246151
            ]
        }
    ]
}