{
    "goal": {
        "global_pose": {
            "orientation": {
                "w": -0.00223480608172531,
                "x": 0.0024358444001904467,
                "y": 0.7094548369677653,
                "z": -0.704743149386269
            },
            "position": {
                "x": -0.37947507619857795,
                "y": -0.6371506643295288,
                "z": 0.19426114857196808
            }
        },
        "name": "move_to_magneteinheit_C"
    },
    "id": "BiEST_move_to_magneteinheit_C_106",
    "joint_names": [
        "shoulder_pan_joint",
        "shoulder_lift_joint",
        "elbow_joint",
        "wrist_1_joint",
        "wrist_2_joint",
        "wrist_3_joint"
    ],
    "metrics": {
        "cart_traj_len": 1.439803422655176,
        "distance_elbow_joint": 1.848374320828802,
        "distance_shoulder_lift_joint": 0.6888130804426369,
        "distance_shoulder_pan_joint": 1.0811810161232007,
        "distance_wrist_1_joint": 2.979075070108326,
        "distance_wrist_2_joint": 3.2649297175804657,
        "distance_wrist_3_joint": 2.5580700467208777,
        "smoothness": 0.7714671232703565,
        "time": 0.109504068,
        "traj_len": 3.5242649236123422,
        "weighted_distance": 4.876534438813578
    },
    "planner": "BiEST",
    "start": {
        "state": {
            "elbow_joint": 1.9565354010623817,
            "shoulder_lift_joint": -1.4165861575791021,
            "shoulder_pan_joint": -1.6717766225146293,
            "wrist_1_joint": -0.5286633292919765,
            "wrist_2_joint": 1.472756589071564,
            "wrist_3_joint": -3.1238370188695823
        }
    },
    "waypoints": [
        {
            "positions": [
                -1.6717766225146293,
                -1.4165861575791021,
                1.9565354010623817,
                -0.5286633292919765,
                1.472756589071564,
                -3.1238370188695823
            ]
        },
        {
            "positions": [
                -1.6822569170976882,
                -1.4571613771840282,
                1.9953729907385407,
                -0.5101220415466263,
                1.3754276396790486,
                -3.0267745648495326
            ]
        },
        {
            "positions": [
                -1.6927372116807473,
                -1.4977365967889544,
                2.0342105804146997,
                -0.4915807538012761,
                1.278098690286533,
                -2.929712110829483
            ]
        },
        {
            "positions": [
                -1.685068188717674,
                -1.5074060160332434,
                1.990244179305202,
                -0.4941269998752446,
                1.1400610960590598,
                -2.7768451878061824
            ]
        },
        {
            "positions": [
                -1.6773991657546008,
                -1.5170754352775322,
                1.9462777781957041,
                -0.49667324594921314,
                1.0020235018315864,
                -2.6239782647828824
            ]
        },
        {
            "positions": [
                -1.6697301427915274,
                -1.5267448545218212,
                1.9023113770862063,
                -0.49921949202318167,
                0.8639859076041132,
                -2.471111341759582
            ]
        },
        {
            "positions": [
                -1.662061119828454,
                -1.53641427376611,
                1.8583449759767086,
                -0.5017657380971502,
                0.7259483133766399,
                -2.318244418736282
            ]
        },
        {
            "positions": [
                -1.6543920968653807,
                -1.546083693010399,
                1.8143785748672108,
                -0.5043119841711187,
                0.5879107191491666,
                -2.1653774957129817
            ]
        },
        {
            "positions": [
                -1.6467230739023075,
                -1.5557531122546877,
                1.770412173757713,
                -0.5068582302450872,
                0.4498731249216933,
                -2.0125105726896817
            ]
        },
        {
            "positions": [
                -1.6390540509392342,
                -1.5654225314989767,
                1.7264457726482152,
                -0.5094044763190557,
                0.31183553069421993,
                -1.8596436496663813
            ]
        },
        {
            "positions": [
                -1.7081516175536118,
                -1.5243667414368032,
                1.6727205184011706,
                -0.3908738453086697,
                0.23233598241618264,
                -1.8668339684723538
            ]
        },
        {
            "positions": [
                -1.7772491841679894,
                -1.4833109513746296,
                1.618995264154126,
                -0.2723432142982837,
                0.15283643413814532,
                -1.8740242872783262
            ]
        },
        {
            "positions": [
                -1.8463467507823668,
                -1.4422551613124563,
                1.5652700099070818,
                -0.1538125832878977,
                0.07333688586010806,
                -1.8812146060842987
            ]
        },
        {
            "positions": [
                -1.9154443173967444,
                -1.4011993712502828,
                1.5115447556600372,
                -0.035281952277511686,
                -0.006162662417929288,
                -1.8884049248902712
            ]
        },
        {
            "positions": [
                -1.984541884011122,
                -1.3601435811881093,
                1.4578195014129927,
                0.08324867873287434,
                -0.08566221069596658,
                -1.8955952436962438
            ]
        },
        {
            "positions": [
                -2.0536394506254996,
                -1.3190877911259358,
                1.404094247165948,
                0.2017793097432603,
                -0.16516175897400381,
                -1.902785562502216
            ]
        },
        {
            "positions": [
                -2.122737017239877,
                -1.2780320010637622,
                1.3503689929189036,
                0.32030994075364627,
                -0.24466130725204122,
                -1.9099758813081886
            ]
        },
        {
            "positions": [
                -2.191834583854255,
                -1.236976211001589,
                1.2966437386718592,
                0.43884057176403235,
                -0.3241608555300785,
                -1.9171662001141612
            ]
        },
        {
            "positions": [
                -2.260932150468632,
                -1.1959204209394154,
                1.2429184844248145,
                0.5573712027744184,
                -0.4036604038081158,
                -1.9243565189201337
            ]
        },
        {
            "positions": [
                -2.3300297170830095,
                -1.154864630877242,
                1.1891932301777701,
                0.6759018337848044,
                -0.4831599520861531,
                -1.931546837726106
            ]
        },
        {
            "positions": [
                -2.3991272836973874,
                -1.1138088408150684,
                1.1354679759307256,
                0.7944324647951905,
                -0.5626595003641903,
                -1.9387371565320786
            ]
        },
        {
            "positions": [
                -2.4243934074085205,
                -1.1232138931147315,
                1.2152609072118568,
                0.7372796899186921,
                -0.4817291131691394,
                -2.041512666650356
            ]
        },
        {
            "positions": [
                -2.449659531119653,
                -1.1326189454143947,
                1.2950538384929882,
                0.6801269150421937,
                -0.4007987259740885,
                -2.1442881767686335
            ]
        },
        {
            "positions": [
                -2.4749256548307863,
                -1.1420239977140576,
                1.3748467697741193,
                0.6229741401656953,
                -0.3198683387790376,
                -2.2470636868869107
            ]
        },
        {
            "positions": [
                -2.500191778541919,
                -1.1514290500137208,
                1.4546397010552508,
                0.5658213652891969,
                -0.23893795158398667,
                -2.3498391970051884
            ]
        },
        {
            "positions": [
                -2.525457902253052,
                -1.160834102313384,
                1.534432632336382,
                0.5086685904126985,
                -0.15800756438893576,
                -2.4526147071234656
            ]
        },
        {
            "positions": [
                -2.531156241984712,
                -1.1643290652963043,
                1.5927763176077305,
                0.4029708449494521,
                -0.07747561838731083,
                -2.5319986688136784
            ]
        },
        {
            "positions": [
                -2.536854581716372,
                -1.1678240282792247,
                1.651120002879079,
                0.29727309948620567,
                0.003056327614314097,
                -2.6113826305038916
            ]
        },
        {
            "positions": [
                -2.5425529214480314,
                -1.1713189912621451,
                1.7094636881504273,
                0.19157535402295922,
                0.08358827361593904,
                -2.6907665921941044
            ]
        },
        {
            "positions": [
                -2.5482512611796913,
                -1.1748139542450657,
                1.7678073734217759,
                0.08587760855971283,
                0.16412021961756396,
                -2.770150553884317
            ]
        },
        {
            "positions": [
                -2.553949600911351,
                -1.1783089172279861,
                1.8261510586931244,
                -0.01982013690353368,
                0.2446521656191889,
                -2.8495345155745304
            ]
        },
        {
            "positions": [
                -2.559647940643011,
                -1.1818038802109065,
                1.8844947439644728,
                -0.12551788236678008,
                0.32518411162081384,
                -2.928918477264743
            ]
        },
        {
            "positions": [
                -2.538162096515063,
                -1.1767118861001526,
                1.9152271862041634,
                -0.3006132533226874,
                0.4106016156607407,
                -2.985068939744572
            ]
        },
        {
            "positions": [
                -2.5166762523871147,
                -1.1716198919893985,
                1.945959628443854,
                -0.4757086242785948,
                0.49601911970066753,
                -3.0412194022244003
            ]
        },
        {
            "positions": [
                -2.4951904082591665,
                -1.1665278978786446,
                1.9766920706835447,
                -0.6508039952345022,
                0.5814366237405943,
                -3.097369864704229
            ]
        },
        {
            "positions": [
                -2.4737045641312183,
                -1.1614359037678907,
                2.0074245129232353,
                -0.8258993661904095,
                0.6668541277805212,
                -3.153520327184058
            ]
        }
    ]
}