{
    "goal": {
        "global_pose": {
            "orientation": {
                "w": -0.00223480608172531,
                "x": 0.0024358444001904467,
                "y": 0.7094548369677653,
                "z": -0.704743149386269
            },
            "position": {
                "x": -0.37947507619857795,
                "y": -0.6371506643295288,
                "z": 0.19426114857196808
            }
        },
        "name": "move_to_magneteinheit_C"
    },
    "id": "BiEST_move_to_magneteinheit_C_105",
    "joint_names": [
        "shoulder_pan_joint",
        "shoulder_lift_joint",
        "elbow_joint",
        "wrist_1_joint",
        "wrist_2_joint",
        "wrist_3_joint"
    ],
    "metrics": {
        "cart_traj_len": 2.673868895817566,
        "distance_elbow_joint": 0.16745469431916682,
        "distance_shoulder_lift_joint": 1.0186194667405593,
        "distance_shoulder_pan_joint": 3.48566464146049,
        "distance_wrist_1_joint": 0.2980874809750229,
        "distance_wrist_2_joint": 0.7925855776464081,
        "distance_wrist_3_joint": 2.5835317902620276,
        "smoothness": 1.2277052725221242,
        "time": 0.12391972400000001,
        "traj_len": 2.8889346914396796,
        "weighted_distance": 3.8214761925922245
    },
    "planner": "BiEST",
    "start": {
        "state": {
            "elbow_joint": 1.9565354010623817,
            "shoulder_lift_joint": -1.4165861575791021,
            "shoulder_pan_joint": -1.6717766225146293,
            "wrist_1_joint": -0.5286633292919765,
            "wrist_2_joint": 1.472756589071564,
            "wrist_3_joint": -3.1238370188695823
        }
    },
    "waypoints": [
        {
            "positions": [
                -1.6717766225146293,
                -1.4165861575791021,
                1.9565354010623817,
                -0.5286633292919765,
                1.472756589071564,
                -3.1238370188695823
            ]
        },
        {
            "positions": [
                -1.537512975903805,
                -1.4548561007786962,
                1.9508276385575618,
                -0.5379217480239219,
                1.4211125706494552,
                -2.9958735870750224
            ]
        },
        {
            "positions": [
                -1.4032493292929809,
                -1.4931260439782903,
                1.945119876052742,
                -0.5471801667558674,
                1.3694685522273464,
                -2.8679101552804624
            ]
        },
        {
            "positions": [
                -1.2689856826821568,
                -1.5313959871778842,
                1.9394121135479219,
                -0.5564385854878129,
                1.3178245338052377,
                -2.739946723485903
            ]
        },
        {
            "positions": [
                -1.1347220360713326,
                -1.5696659303774783,
                1.933704351043102,
                -0.5656970042197584,
                1.266180515383129,
                -2.611983291691343
            ]
        },
        {
            "positions": [
                -1.0004583894605084,
                -1.6079358735770723,
                1.9279965885382822,
                -0.5749554229517039,
                1.2145364969610202,
                -2.484019859896783
            ]
        },
        {
            "positions": [
                -0.8661947428496842,
                -1.6462058167766664,
                1.9222888260334623,
                -0.5842138416836493,
                1.1628924785389114,
                -2.356056428102223
            ]
        },
        {
            "positions": [
                -0.73193109623886,
                -1.6844757599762605,
                1.9165810635286424,
                -0.5934722604155949,
                1.1112484601168027,
                -2.228092996307663
            ]
        },
        {
            "positions": [
                -0.5976674496280356,
                -1.7227457031758546,
                1.9108733010238224,
                -0.6027306791475403,
                1.059604441694694,
                -2.1001295645131037
            ]
        },
        {
            "positions": [
                -0.4634038030172116,
                -1.7610156463754485,
                1.9051655385190025,
                -0.6119890978794859,
                1.0079604232725852,
                -1.9721661327185436
            ]
        },
        {
            "positions": [
                -0.3291401564063874,
                -1.7992855895750426,
                1.8994577760141826,
                -0.6212475166114313,
                0.9563164048504764,
                -1.8442027009239839
            ]
        },
        {
            "positions": [
                -0.5077258376857414,
                -1.7462922533463243,
                1.9086558651200967,
                -0.6383727910827286,
                0.9333042887316997,
                -1.9528608236170197
            ]
        },
        {
            "positions": [
                -0.6863115189650955,
                -1.693298917117606,
                1.9178539542260107,
                -0.655498065554026,
                0.910292172612923,
                -2.0615189463100556
            ]
        },
        {
            "positions": [
                -0.8648972002444495,
                -1.6403055808888878,
                1.9270520433319245,
                -0.6726233400253233,
                0.8872800564941463,
                -2.170177069003091
            ]
        },
        {
            "positions": [
                -1.0434828815238035,
                -1.5873122446601697,
                1.9362501324378385,
                -0.6897486144966206,
                0.8642679403753696,
                -2.278835191696127
            ]
        },
        {
            "positions": [
                -1.2220685628031576,
                -1.5343189084314515,
                1.9454482215437525,
                -0.706873888967918,
                0.8412558242565928,
                -2.387493314389163
            ]
        },
        {
            "positions": [
                -1.4006542440825116,
                -1.4813255722027332,
                1.9546463106496665,
                -0.7239991634392153,
                0.8182437081378161,
                -2.496151437082198
            ]
        },
        {
            "positions": [
                -1.5792399253618656,
                -1.428332235974015,
                1.9638443997555806,
                -0.7411244379105126,
                0.7952315920190394,
                -2.604809559775234
            ]
        },
        {
            "positions": [
                -1.7578256066412197,
                -1.3753388997452967,
                1.9730424888614946,
                -0.7582497123818099,
                0.7722194759002627,
                -2.71346768246827
            ]
        },
        {
            "positions": [
                -1.9364112879205737,
                -1.3223455635165786,
                1.9822405779674086,
                -0.7753749868531074,
                0.7492073597814859,
                -2.822125805161306
            ]
        },
        {
            "positions": [
                -2.114996969199928,
                -1.2693522272878601,
                1.9914386670733224,
                -0.7925002613244048,
                0.7261952436627093,
                -2.9307839278543417
            ]
        },
        {
            "positions": [
                -2.293582650479282,
                -1.216358891059142,
                2.0006367561792366,
                -0.8096255357957021,
                0.7031831275439325,
                -3.039442050547377
            ]
        },
        {
            "positions": [
                -2.472168331758636,
                -1.1633655548304238,
                2.0098348452851504,
                -0.8267508102669994,
                0.6801710114251558,
                -3.148100173240413
            ]
        }
    ]
}