{
    "goal": {
        "global_pose": {
            "orientation": {
                "w": 0.7031023480610252,
                "x": -0.7110244013736278,
                "y": 0.0077485991402295624,
                "z": 0.005598929693374583
            },
            "position": {
                "x": -0.8841497679147869,
                "y": 0.44412534475326537,
                "z": 0.3711530566215515
            }
        },
        "name": "move_to_auspresseinheit_D"
    },
    "id": "BiEST_move_to_auspresseinheit_D_93",
    "joint_names": [
        "shoulder_pan_joint",
        "shoulder_lift_joint",
        "elbow_joint",
        "wrist_1_joint",
        "wrist_2_joint",
        "wrist_3_joint"
    ],
    "metrics": {
        "cart_traj_len": 0.34268652728369275,
        "distance_elbow_joint": 0.627243466702474,
        "distance_shoulder_lift_joint": 0.11452662102265077,
        "distance_shoulder_pan_joint": 0.13382442778439285,
        "distance_wrist_1_joint": 0.5039111594419188,
        "distance_wrist_2_joint": 1.431078290644616,
        "distance_wrist_3_joint": 0.01676322414727638,
        "smoothness": 0.0,
        "time": 0.068876417,
        "traj_len": 1.681471733257306,
        "weighted_distance": 2.1899459098627108
    },
    "planner": "BiEST",
    "start": {
        "state": {
            "elbow_joint": -1.8275523626775212,
            "shoulder_lift_joint": -2.126789852344167,
            "shoulder_pan_joint": -0.03513704404078235,
            "wrist_1_joint": -2.347782403156801,
            "wrist_2_joint": -1.6058999987535132,
            "wrist_3_joint": -3.0880379163319196
        }
    },
    "waypoints": [
        {
            "positions": [
                -0.03513704404078235,
                -2.126789852344167,
                -1.8275523626775212,
                -2.347782403156801,
                -1.6058999987535132,
                -3.0880379163319196
            ]
        },
        {
            "positions": [
                -0.051865097513831455,
                -2.1411056799719983,
                -1.749146929339712,
                -2.410771298087041,
                -1.4270152124229363,
                -3.090133319350329
            ]
        },
        {
            "positions": [
                -0.06859315098688057,
                -2.1554215075998293,
                -1.6707414960019027,
                -2.473760193017281,
                -1.2481304260923591,
                -3.0922287223687386
            ]
        },
        {
            "positions": [
                -0.08532120445992966,
                -2.1697373352276608,
                -1.5923360626640934,
                -2.5367490879475203,
                -1.0692456397617822,
                -3.094324125387148
            ]
        },
        {
            "positions": [
                -0.10204925793297878,
                -2.1840531628554922,
                -1.5139306293262842,
                -2.5997379828777603,
                -0.8903608534312052,
                -3.0964195284055576
            ]
        },
        {
            "positions": [
                -0.11877731140602787,
                -2.1983689904833237,
                -1.435525195988475,
                -2.662726877808,
                -0.7114760671006282,
                -3.0985149314239675
            ]
        },
        {
            "positions": [
                -0.135505364879077,
                -2.212684818111155,
                -1.3571197626506657,
                -2.7257157727382397,
                -0.5325912807700512,
                -3.100610334442377
            ]
        },
        {
            "positions": [
                -0.1522334183521261,
                -2.227000645738986,
                -1.2787143293128564,
                -2.7887046676684797,
                -0.3537064944394741,
                -3.1027057374607865
            ]
        },
        {
            "positions": [
                -0.1689614718251752,
                -2.2413164733668176,
                -1.2003088959750472,
                -2.8516935625987196,
                -0.17482170810889727,
                -3.104801140479196
            ]
        }
    ]
}