{
    "goal": {
        "global_pose": {
            "orientation": {
                "w": -0.4816463035849501,
                "x": 0.5182115481033762,
                "y": 0.4908360881923453,
                "z": -0.5084816262002911
            },
            "position": {
                "x": -0.8240239810943604,
                "y": -0.300875300988555,
                "z": 0.16403168439865112
            }
        },
        "name": "move_to_storage_C"
    },
    "id": "BiEST_move_to_storage_C_40",
    "joint_names": [
        "shoulder_pan_joint",
        "shoulder_lift_joint",
        "elbow_joint",
        "wrist_1_joint",
        "wrist_2_joint",
        "wrist_3_joint"
    ],
    "metrics": {
        "cart_traj_len": 0.5760055656586976,
        "distance_elbow_joint": 0.2565702975007331,
        "distance_shoulder_lift_joint": 0.18903445512864248,
        "distance_shoulder_pan_joint": 0.4955001466171782,
        "distance_wrist_1_joint": 0.07765474431696395,
        "distance_wrist_2_joint": 1.058843486169819,
        "distance_wrist_3_joint": 0.07375538367240342,
        "smoothness": 0.0,
        "time": 0.02466094,
        "traj_len": 1.4667510059330928,
        "weighted_distance": 1.8534744431033652
    },
    "planner": "BiEST",
    "start": {
        "state": {
            "elbow_joint": 2.010868314990456,
            "shoulder_lift_joint": -1.1634956873337592,
            "shoulder_pan_joint": -2.4736205022346125,
            "wrist_1_joint": -0.8367026794202681,
            "wrist_2_joint": 0.6746043897044499,
            "wrist_3_joint": -3.1496632123970403
        }
    },
    "waypoints": [
        {
            "positions": [
                -2.4736205022346125,
                -1.1634956873337592,
                2.010868314990456,
                -0.8367026794202681,
                0.6746043897044499,
                -3.1496632123970403
            ]
        },
        {
            "positions": [
                -2.556203860004142,
                -1.1319899448123187,
                1.9681065987403337,
                -0.8237602220341075,
                0.8510783040660864,
                -3.1373706484516397
            ]
        },
        {
            "positions": [
                -2.6387872177736718,
                -1.1004842022908783,
                1.9253448824902115,
                -0.8108177646479467,
                1.027552218427723,
                -3.125078084506239
            ]
        },
        {
            "positions": [
                -2.721370575543202,
                -1.068978459769438,
                1.8825831662400891,
                -0.7978753072617861,
                1.2040261327893593,
                -3.1127855205608386
            ]
        },
        {
            "positions": [
                -2.8039539333127315,
                -1.0374727172479976,
                1.839821449989967,
                -0.7849328498756255,
                1.380500047150996,
                -3.100492956615438
            ]
        },
        {
            "positions": [
                -2.886537291082261,
                -1.0059669747265572,
                1.7970597337398448,
                -0.7719903924894648,
                1.5569739615126323,
                -3.0882003926700374
            ]
        },
        {
            "positions": [
                -2.9691206488517907,
                -0.9744612322051167,
                1.7542980174897227,
                -0.7590479351033041,
                1.7334478758742689,
                -3.075907828724637
            ]
        }
    ]
}