{
    "goal": {
        "global_pose": {
            "orientation": {
                "w": 0.7031023502349854,
                "x": -0.7110244035720825,
                "y": 0.007748599164187908,
                "z": 0.005598929710686207
            },
            "position": {
                "x": 0.11585023208521307,
                "y": 0.44412534475326537,
                "z": 0.3711530566215515
            }
        },
        "name": "move_to_auspresseinheit_A"
    },
    "id": "BiEST_move_to_auspresseinheit_A_84",
    "joint_names": [
        "shoulder_pan_joint",
        "shoulder_lift_joint",
        "elbow_joint",
        "wrist_1_joint",
        "wrist_2_joint",
        "wrist_3_joint"
    ],
    "metrics": {
        "cart_traj_len": 2.356151953878381,
        "distance_elbow_joint": 1.9009593393263664,
        "distance_shoulder_lift_joint": 0.9124114669657111,
        "distance_shoulder_pan_joint": 2.3496046718359884,
        "distance_wrist_1_joint": 1.4154276963915287,
        "distance_wrist_2_joint": 2.2192704793300537,
        "distance_wrist_3_joint": 2.1050639340164814,
        "smoothness": 0.448416181740288,
        "time": 0.155310271,
        "traj_len": 3.3019293735430097,
        "weighted_distance": 4.329845682194768
    },
    "planner": "BiEST",
    "start": {
        "state": {
            "elbow_joint": 2.4225746658250005,
            "shoulder_lift_joint": -1.3736534386056498,
            "shoulder_pan_joint": -0.3378633547517467,
            "wrist_1_joint": -1.0288598680537169,
            "wrist_2_joint": 1.233022673432363,
            "wrist_3_joint": -3.0940220416140027
        }
    },
    "waypoints": [
        {
            "positions": [
                -0.3378633547517467,
                -1.3736534386056498,
                2.4225746658250005,
                -1.0288598680537169,
                1.233022673432363,
                -3.0940220416140027
            ]
        },
        {
            "positions": [
                -0.2951866299295021,
                -1.3928486780718883,
                2.3262580438704066,
                -0.9511801967802236,
                1.17643268499468,
                -3.0183835158997248
            ]
        },
        {
            "positions": [
                -0.25250990510725757,
                -1.4120439175381267,
                2.2299414219158127,
                -0.8735005255067304,
                1.1198426965569968,
                -2.9427449901854468
            ]
        },
        {
            "positions": [
                -0.20983318028501297,
                -1.4312391570043652,
                2.133624799961219,
                -0.7958208542332372,
                1.0632527081193137,
                -2.867106464471169
            ]
        },
        {
            "positions": [
                -0.16715645546276836,
                -1.4504343964706037,
                2.037308178006625,
                -0.7181411829597439,
                1.0066627196816307,
                -2.791467938756891
            ]
        },
        {
            "positions": [
                -0.12447973064052378,
                -1.4696296359368421,
                1.940991556052031,
                -0.6404615116862507,
                0.9500727312439475,
                -2.715829413042613
            ]
        },
        {
            "positions": [
                -0.0818030058182792,
                -1.4888248754030804,
                1.844674934097437,
                -0.5627818404127575,
                0.8934827428062644,
                -2.6401908873283353
            ]
        },
        {
            "positions": [
                -0.0391262809960346,
                -1.5080201148693189,
                1.7483583121428432,
                -0.4851021691392643,
                0.8368927543685813,
                -2.5645523616140573
            ]
        },
        {
            "positions": [
                0.0035504438262100035,
                -1.5272153543355573,
                1.6520416901882493,
                -0.407422497865771,
                0.7803027659308982,
                -2.4889138358997793
            ]
        },
        {
            "positions": [
                0.04622716864845455,
                -1.5464105938017958,
                1.5557250682336554,
                -0.3297428265922777,
                0.723712777493215,
                -2.4132753101855013
            ]
        },
        {
            "positions": [
                0.08890389347069914,
                -1.5656058332680343,
                1.4594084462790615,
                -0.25206315531878454,
                0.667122789055532,
                -2.3376367844712234
            ]
        },
        {
            "positions": [
                0.22618598312254157,
                -1.6135531791053008,
                1.477953405172885,
                -0.23894005436977206,
                0.5660113666884581,
                -2.302329864528776
            ]
        },
        {
            "positions": [
                0.363468072774384,
                -1.6615005249425674,
                1.4964983640667087,
                -0.22581695342075958,
                0.46489994432138415,
                -2.267022944586329
            ]
        },
        {
            "positions": [
                0.5007501624262264,
                -1.709447870779834,
                1.5150433229605325,
                -0.21269385247174713,
                0.36378852195431016,
                -2.2317160246438816
            ]
        },
        {
            "positions": [
                0.6380322520780688,
                -1.7573952166171005,
                1.533588281854356,
                -0.19957075152273465,
                0.26267709958723623,
                -2.1964091047014342
            ]
        },
        {
            "positions": [
                0.7753143417299112,
                -1.805342562454367,
                1.5521332407481796,
                -0.18644765057372217,
                0.16156567722016224,
                -2.161102184758987
            ]
        },
        {
            "positions": [
                0.9125964313817536,
                -1.8532899082916336,
                1.5706781996420034,
                -0.17332454962470972,
                0.06045425485308831,
                -2.1257952648165395
            ]
        },
        {
            "positions": [
                1.049878521033596,
                -1.9012372541289002,
                1.589223158535827,
                -0.16020144867569724,
                -0.040657167513985626,
                -2.0904883448740925
            ]
        },
        {
            "positions": [
                1.1871606106854384,
                -1.9491845999661668,
                1.6077681174296505,
                -0.14707834772668477,
                -0.1417685898810596,
                -2.055181424931645
            ]
        },
        {
            "positions": [
                1.215724606075203,
                -1.9739137415984507,
                1.7214387846288917,
                -0.2195582848834598,
                -0.12787469257986336,
                -2.1445315025698015
            ]
        },
        {
            "positions": [
                1.2442886014649677,
                -1.9986428832307348,
                1.835109451828133,
                -0.29203822204023483,
                -0.11398079527866713,
                -2.2338815802079584
            ]
        },
        {
            "positions": [
                1.2728525968547322,
                -2.0233720248630185,
                1.9487801190273741,
                -0.3645181591970099,
                -0.10008689797747089,
                -2.323231657846115
            ]
        },
        {
            "positions": [
                1.3014165922444967,
                -2.048101166495303,
                2.0624507862266155,
                -0.4369980963537849,
                -0.08619300067627467,
                -2.4125817354842716
            ]
        },
        {
            "positions": [
                1.3299805876342614,
                -2.0728303081275867,
                2.1761214534258566,
                -0.50947803351056,
                -0.07229910337507842,
                -2.501931813122428
            ]
        },
        {
            "positions": [
                1.358544583024026,
                -2.0975594497598706,
                2.2897921206250977,
                -0.581957970667335,
                -0.05840520607388219,
                -2.591281890760585
            ]
        },
        {
            "positions": [
                1.2496784606806566,
                -2.066141873791289,
                2.307693694864163,
                -0.5654968784800273,
                0.06844743262769351,
                -2.6796356993447823
            ]
        },
        {
            "positions": [
                1.1408123383372872,
                -2.034724297822707,
                2.325595269103228,
                -0.5490357862927195,
                0.19530007132926921,
                -2.7679895079289794
            ]
        },
        {
            "positions": [
                1.031946215993918,
                -2.0033067218541256,
                2.3434968433422934,
                -0.5325746941054118,
                0.322152710030845,
                -2.856343316513177
            ]
        },
        {
            "positions": [
                0.9230800936505488,
                -1.9718891458855439,
                2.3613984175813587,
                -0.5161136019181041,
                0.4490053487324206,
                -2.9446971250973744
            ]
        },
        {
            "positions": [
                0.8142139713071793,
                -1.9404715699169621,
                2.3792999918204236,
                -0.4996525097307963,
                0.5758579874339964,
                -3.0330509336815714
            ]
        },
        {
            "positions": [
                0.7053478489638101,
                -1.9090539939483804,
                2.397201566059489,
                -0.48319141754348854,
                0.7027106261355721,
                -3.121404742265769
            ]
        }
    ]
}