{
    "goal": {
        "global_pose": {
            "orientation": {
                "w": 0.7031023480610252,
                "x": -0.7110244013736278,
                "y": 0.0077485991402295624,
                "z": 0.005598929693374583
            },
            "position": {
                "x": -0.8841497679147869,
                "y": 0.44412534475326537,
                "z": 0.3711530566215515
            }
        },
        "name": "move_to_auspresseinheit_D"
    },
    "id": "BiEST_move_to_auspresseinheit_D_73",
    "joint_names": [
        "shoulder_pan_joint",
        "shoulder_lift_joint",
        "elbow_joint",
        "wrist_1_joint",
        "wrist_2_joint",
        "wrist_3_joint"
    ],
    "metrics": {
        "cart_traj_len": 0.34270004193539744,
        "distance_elbow_joint": 0.6471270820573123,
        "distance_shoulder_lift_joint": 0.12669392386174394,
        "distance_shoulder_pan_joint": 0.1331256932232616,
        "distance_wrist_1_joint": 0.5622826996584198,
        "distance_wrist_2_joint": 1.4361594453952546,
        "distance_wrist_3_joint": 0.034872763609030244,
        "smoothness": 5.921189511553294e-16,
        "time": 0.093962593,
        "traj_len": 1.7147191046363899,
        "weighted_distance": 2.2379564964665324
    },
    "planner": "BiEST",
    "start": {
        "state": {
            "elbow_joint": -1.8275523626775212,
            "shoulder_lift_joint": -2.126789852344167,
            "shoulder_pan_joint": -0.03513704404078235,
            "wrist_1_joint": -2.347782403156801,
            "wrist_2_joint": -1.6058999987535132,
            "wrist_3_joint": -3.0880379163319196
        }
    },
    "waypoints": [
        {
            "positions": [
                -0.03513704404078235,
                -2.126789852344167,
                -1.8275523626775212,
                -2.347782403156801,
                -1.6058999987535132,
                -3.0880379163319196
            ]
        },
        {
            "positions": [
                -0.051777755693690045,
                -2.142626592826885,
                -1.746661477420357,
                -2.418067740614103,
                -1.4263800680791063,
                -3.083678820880791
            ]
        },
        {
            "positions": [
                -0.06841846734659775,
                -2.158463333309603,
                -1.6657705921631931,
                -2.488353078071406,
                -1.2468601374046995,
                -3.079319725429662
            ]
        },
        {
            "positions": [
                -0.08505917899950544,
                -2.174300073792321,
                -1.5848797069060292,
                -2.5586384155287085,
                -1.0673402067302926,
                -3.0749606299785333
            ]
        },
        {
            "positions": [
                -0.10169989065241314,
                -2.190136814275039,
                -1.503988821648865,
                -2.6289237529860108,
                -0.8878202760558859,
                -3.0706015345274045
            ]
        },
        {
            "positions": [
                -0.11834060230532084,
                -2.205973554757757,
                -1.423097936391701,
                -2.699209090443313,
                -0.708300345381479,
                -3.0662424390762757
            ]
        },
        {
            "positions": [
                -0.13498131395822854,
                -2.221810295240475,
                -1.342207051134537,
                -2.7694944279006157,
                -0.5287804147070723,
                -3.061883343625147
            ]
        },
        {
            "positions": [
                -0.15162202561113625,
                -2.237647035723193,
                -1.261316165877373,
                -2.8397797653579184,
                -0.3492604840326654,
                -3.057524248174018
            ]
        },
        {
            "positions": [
                -0.16826273726404395,
                -2.253483776205911,
                -1.180425280620209,
                -2.9100651028152207,
                -0.1697405533582585,
                -3.0531651527228894
            ]
        }
    ]
}