{
    "goal": {
        "global_pose": {
            "orientation": {
                "w": -0.00223480608172531,
                "x": 0.0024358444001904467,
                "y": 0.7094548369677653,
                "z": -0.704743149386269
            },
            "position": {
                "x": 0.6205249238014221,
                "y": -0.6371506643295288,
                "z": 0.19426114857196808
            }
        },
        "name": "move_to_magneteinheit_B"
    },
    "id": "BiEST_move_to_magneteinheit_B_37",
    "joint_names": [
        "shoulder_pan_joint",
        "shoulder_lift_joint",
        "elbow_joint",
        "wrist_1_joint",
        "wrist_2_joint",
        "wrist_3_joint"
    ],
    "metrics": {
        "cart_traj_len": 1.7471855400679,
        "distance_elbow_joint": 1.4868556515999796,
        "distance_shoulder_lift_joint": 0.7585406868072102,
        "distance_shoulder_pan_joint": 2.7802721492781437,
        "distance_wrist_1_joint": 1.361572661972584,
        "distance_wrist_2_joint": 2.0807850164690658,
        "distance_wrist_3_joint": 1.368305020934783,
        "smoothness": 0.6636616282758865,
        "time": 0.18754431700000002,
        "traj_len": 3.136292586328923,
        "weighted_distance": 4.001911906498315
    },
    "planner": "BiEST",
    "start": {
        "state": {
            "elbow_joint": 2.6216224122426386,
            "shoulder_lift_joint": -1.4174107377796124,
            "shoulder_pan_joint": 0.7066234856936794,
            "wrist_1_joint": 1.9546482284002225,
            "wrist_2_joint": -0.7096286983471962,
            "wrist_3_joint": 0.005740856962016249
        }
    },
    "waypoints": [
        {
            "positions": [
                0.7066234856936794,
                -1.4174107377796124,
                2.6216224122426386,
                1.9546482284002225,
                -0.7096286983471962,
                0.005740856962016249
            ]
        },
        {
            "positions": [
                0.5599458690225498,
                -1.4168288105458082,
                2.639220369035887,
                2.0060757737982944,
                -0.8299045617133691,
                0.05124040199623986
            ]
        },
        {
            "positions": [
                0.41326825235142034,
                -1.4162468833120043,
                2.656818325829135,
                2.0575033191963663,
                -0.9501804250795419,
                0.09673994703046347
            ]
        },
        {
            "positions": [
                0.26659063568029084,
                -1.4156649560782002,
                2.6744162826223836,
                2.108930864594438,
                -1.0704562884457147,
                0.1422394920646871
            ]
        },
        {
            "positions": [
                0.11991301900916129,
                -1.415083028844396,
                2.6920142394156317,
                2.1603584099925097,
                -1.1907321518118876,
                0.1877390370989107
            ]
        },
        {
            "positions": [
                -0.026764597661968148,
                -1.4145011016105922,
                2.70961219620888,
                2.2117859553905816,
                -1.3110080151780603,
                0.2332385821331343
            ]
        },
        {
            "positions": [
                -0.1734422143330977,
                -1.413919174376788,
                2.7272101530021287,
                2.2632135007886536,
                -1.4312838785442334,
                0.27873812716735796
            ]
        },
        {
            "positions": [
                -0.32011983100422714,
                -1.413337247142984,
                2.7448081097953767,
                2.3146410461867255,
                -1.5515597419104061,
                0.32423767220158156
            ]
        },
        {
            "positions": [
                -0.4667974476753568,
                -1.41275531990918,
                2.762406066588625,
                2.366068591584797,
                -1.671835605276579,
                0.36973721723580516
            ]
        },
        {
            "positions": [
                -0.6134750643464862,
                -1.412173392675376,
                2.7800040233818732,
                2.417496136982869,
                -1.7921114686427517,
                0.41523676227002876
            ]
        },
        {
            "positions": [
                -0.7601526810176157,
                -1.4115914654415718,
                2.7976019801751217,
                2.468923682380941,
                -1.9123873320089246,
                0.46073630730425236
            ]
        },
        {
            "positions": [
                -0.9068302976887451,
                -1.4110095382077679,
                2.8151999369683702,
                2.5203512277790128,
                -2.0326631953750978,
                0.5062358523384759
            ]
        },
        {
            "positions": [
                -1.0535079143598747,
                -1.4104276109739637,
                2.8327978937616183,
                2.5717787731770847,
                -2.1529390587412705,
                0.5517353973726996
            ]
        },
        {
            "positions": [
                -1.2001855310310043,
                -1.4098456837401596,
                2.8503958505548668,
                2.623206318575156,
                -2.273214922107443,
                0.5972349424069232
            ]
        },
        {
            "positions": [
                -1.3468631477021336,
                -1.4092637565063557,
                2.867993807348115,
                2.674633863973228,
                -2.393490785473616,
                0.6427344874411468
            ]
        },
        {
            "positions": [
                -1.4935407643732632,
                -1.4086818292725516,
                2.8855917641413633,
                2.7260614093713,
                -2.513766648839789,
                0.6882340324753704
            ]
        },
        {
            "positions": [
                -1.4408036826267903,
                -1.3405171221543561,
                2.77442028235034,
                2.6724105474620723,
                -2.4886169155692004,
                0.6258875010734224
            ]
        },
        {
            "positions": [
                -1.3880666008803175,
                -1.2723524150361607,
                2.663248800559317,
                2.618759685552844,
                -2.463467182298612,
                0.5635409696714743
            ]
        },
        {
            "positions": [
                -1.3353295191338446,
                -1.2041877079179655,
                2.5520773187682937,
                2.5651088236436164,
                -2.4383174490280237,
                0.5011944382695263
            ]
        },
        {
            "positions": [
                -1.2825924373873718,
                -1.13602300079977,
                2.4409058369772705,
                2.5114579617343886,
                -2.413167715757435,
                0.4388479068675782
            ]
        },
        {
            "positions": [
                -1.2298553556408989,
                -1.0678582936815746,
                2.3297343551862477,
                2.457807099825161,
                -2.3880179824868466,
                0.3765013754656302
            ]
        },
        {
            "positions": [
                -1.177118273894426,
                -0.9996935865633791,
                2.2185628733952245,
                2.4041562379159327,
                -2.362868249216258,
                0.3141548440636821
            ]
        },
        {
            "positions": [
                -1.1243811921479532,
                -0.9315288794451837,
                2.1073913916042013,
                2.350505376006705,
                -2.3377185159456695,
                0.25180831266173404
            ]
        },
        {
            "positions": [
                -1.0716441104014802,
                -0.8633641723269884,
                1.996219909813178,
                2.296854514097477,
                -2.312568782675081,
                0.18946178125978597
            ]
        },
        {
            "positions": [
                -1.0189070286550073,
                -0.7951994652087929,
                1.8850484280221547,
                2.2432036521882495,
                -2.287419049404493,
                0.12711524985783784
            ]
        },
        {
            "positions": [
                -0.9661699469085345,
                -0.7270347580905976,
                1.7738769462311317,
                2.1895527902790213,
                -2.2622693161339043,
                0.06476871845588994
            ]
        },
        {
            "positions": [
                -0.9134328651620617,
                -0.6588700509724021,
                1.6627054644401085,
                2.1359019283697935,
                -2.2371195828633157,
                0.002422187053941765
            ]
        }
    ]
}