{
    "goal": {
        "global_pose": {
            "orientation": {
                "w": 0.7031023502349854,
                "x": -0.7110244035720825,
                "y": 0.007748599164187908,
                "z": 0.005598929710686207
            },
            "position": {
                "x": 0.11585023208521307,
                "y": 0.44412534475326537,
                "z": 0.3711530566215515
            }
        },
        "name": "move_to_auspresseinheit_A"
    },
    "id": "BiEST_move_to_auspresseinheit_A_67",
    "joint_names": [
        "shoulder_pan_joint",
        "shoulder_lift_joint",
        "elbow_joint",
        "wrist_1_joint",
        "wrist_2_joint",
        "wrist_3_joint"
    ],
    "metrics": {
        "cart_traj_len": 1.8840567156978807,
        "distance_elbow_joint": 0.09785960970043472,
        "distance_shoulder_lift_joint": 0.5375124627179506,
        "distance_shoulder_pan_joint": 3.862401290320561,
        "distance_wrist_1_joint": 1.3491463178964642,
        "distance_wrist_2_joint": 1.410780304302603,
        "distance_wrist_3_joint": 0.37620003645298583,
        "smoothness": 1.2036983472257472,
        "time": 0.08705779,
        "traj_len": 2.7629513244700856,
        "weighted_distance": 3.3385965189726114
    },
    "planner": "BiEST",
    "start": {
        "state": {
            "elbow_joint": 2.4225746658250005,
            "shoulder_lift_joint": -1.3736534386056498,
            "shoulder_pan_joint": -0.3378633547517467,
            "wrist_1_joint": -1.0288598680537169,
            "wrist_2_joint": 1.233022673432363,
            "wrist_3_joint": -3.0940220416140027
        }
    },
    "waypoints": [
        {
            "positions": [
                -0.3378633547517467,
                -1.3736534386056498,
                2.4225746658250005,
                -1.0288598680537169,
                1.233022673432363,
                -3.0940220416140027
            ]
        },
        {
            "positions": [
                -0.4944681166294317,
                -1.4208833774377576,
                2.426538648575843,
                -1.0732878822371015,
                1.125047726197313,
                -3.0751457848306334
            ]
        },
        {
            "positions": [
                -0.6510728785071166,
                -1.4681133162698652,
                2.4305026313266858,
                -1.1177158964204859,
                1.0170727789622631,
                -3.0562695280472636
            ]
        },
        {
            "positions": [
                -0.8076776403848015,
                -1.515343255101973,
                2.4344666140775284,
                -1.1621439106038705,
                0.9090978317272131,
                -3.0373932712638942
            ]
        },
        {
            "positions": [
                -0.9642824022624865,
                -1.5625731939340806,
                2.438430596828371,
                -1.206571924787255,
                0.8011228844921632,
                -3.0185170144805245
            ]
        },
        {
            "positions": [
                -1.1208871641401714,
                -1.6098031327661884,
                2.4423945795792132,
                -1.2509999389706394,
                0.6931479372571132,
                -2.999640757697155
            ]
        },
        {
            "positions": [
                -1.2774919260178563,
                -1.657033071598296,
                2.446358562330056,
                -1.295427953154024,
                0.5851729900220634,
                -2.9807645009137853
            ]
        },
        {
            "positions": [
                -1.4340966878955412,
                -1.7042630104304037,
                2.4503225450808985,
                -1.3398559673374086,
                0.4771980427870134,
                -2.961888244130416
            ]
        },
        {
            "positions": [
                -1.5907014497732261,
                -1.7514929492625113,
                2.454286527831741,
                -1.384283981520793,
                0.3692230955519634,
                -2.943011987347046
            ]
        },
        {
            "positions": [
                -1.747306211650911,
                -1.798722888094619,
                2.458250510582584,
                -1.4287119957041776,
                0.26124814831691345,
                -2.924135730563677
            ]
        },
        {
            "positions": [
                -1.524309990430784,
                -1.8089449802063446,
                2.452597441042325,
                -1.3424125238636317,
                0.30115776460665467,
                -2.9428915237821003
            ]
        },
        {
            "positions": [
                -1.301313769210657,
                -1.8191670723180702,
                2.4469443715020653,
                -1.256113052023086,
                0.3410673808963959,
                -2.961647317000524
            ]
        },
        {
            "positions": [
                -1.07831754799053,
                -1.829389164429796,
                2.4412913019618063,
                -1.1698135801825402,
                0.38097699718613703,
                -2.9804031102189477
            ]
        },
        {
            "positions": [
                -0.8553213267704028,
                -1.8396112565415215,
                2.435638232421547,
                -1.0835141083419946,
                0.4208866134758783,
                -2.999158903437371
            ]
        },
        {
            "positions": [
                -0.6323251055502759,
                -1.849833348653247,
                2.429985162881288,
                -0.9972146365014487,
                0.46079622976561946,
                -3.017914696655795
            ]
        },
        {
            "positions": [
                -0.4093288843301488,
                -1.8600554407649725,
                2.4243320933410284,
                -0.910915164660903,
                0.5007058460553606,
                -3.0366704898742185
            ]
        },
        {
            "positions": [
                -0.18633266311002172,
                -1.870277532876698,
                2.4186790238007694,
                -0.8246156928203572,
                0.5406154623451018,
                -3.0554262830926424
            ]
        },
        {
            "positions": [
                0.036663558110105354,
                -1.8804996249884236,
                2.41302595426051,
                -0.7383162209798114,
                0.580525078634843,
                -3.074182076311066
            ]
        },
        {
            "positions": [
                0.25965977933023243,
                -1.8907217171001494,
                2.407372884720251,
                -0.6520167491392657,
                0.6204346949245843,
                -3.0929378695294893
            ]
        },
        {
            "positions": [
                0.4826560005503593,
                -1.900943809211875,
                2.4017198151799914,
                -0.5657172772987199,
                0.6603443112143255,
                -3.1116936627479133
            ]
        },
        {
            "positions": [
                0.7056522217704867,
                -1.9111659013236004,
                2.3960667456397324,
                -0.4794178054581741,
                0.7002539275040667,
                -3.1304494559663367
            ]
        }
    ]
}