{
    "goal": {
        "global_pose": {
            "orientation": {
                "w": -0.4816463035849501,
                "x": 0.5182115481033762,
                "y": 0.4908360881923453,
                "z": -0.5084816262002911
            },
            "position": {
                "x": -0.8240239810943604,
                "y": -0.300875300988555,
                "z": 0.16403168439865112
            }
        },
        "name": "move_to_storage_C"
    },
    "id": "BiEST_move_to_storage_C_5",
    "joint_names": [
        "shoulder_pan_joint",
        "shoulder_lift_joint",
        "elbow_joint",
        "wrist_1_joint",
        "wrist_2_joint",
        "wrist_3_joint"
    ],
    "metrics": {
        "cart_traj_len": 0.576758494462126,
        "distance_elbow_joint": 0.25988024284070255,
        "distance_shoulder_lift_joint": 0.1899157709104191,
        "distance_shoulder_pan_joint": 0.49569753786736914,
        "distance_wrist_1_joint": 0.0878036329343792,
        "distance_wrist_2_joint": 1.0614553752720752,
        "distance_wrist_3_joint": 0.07420090447831917,
        "smoothness": 0.0,
        "time": 0.115447299,
        "traj_len": 1.472736726065886,
        "weighted_distance": 1.8618846047664601
    },
    "planner": "BiEST",
    "start": {
        "state": {
            "elbow_joint": 2.010868314990456,
            "shoulder_lift_joint": -1.1634956873337592,
            "shoulder_pan_joint": -2.4736205022346125,
            "wrist_1_joint": -0.8367026794202681,
            "wrist_2_joint": 0.6746043897044499,
            "wrist_3_joint": -3.1496632123970403
        }
    },
    "waypoints": [
        {
            "positions": [
                -2.4736205022346125,
                -1.1634956873337592,
                2.010868314990456,
                -0.8367026794202681,
                0.6746043897044499,
                -3.1496632123970403
            ]
        },
        {
            "positions": [
                -2.5562367585458405,
                -1.1318430588486894,
                1.9675549411836721,
                -0.8220687405978716,
                0.8515136189164625,
                -3.137296394983987
            ]
        },
        {
            "positions": [
                -2.638853014857069,
                -1.1001904303636194,
                1.9242415673768882,
                -0.807434801775475,
                1.028422848128475,
                -3.124929577570934
            ]
        },
        {
            "positions": [
                -2.721469271168297,
                -1.0685378018785496,
                1.8809281935701045,
                -0.7928008629530785,
                1.2053320773404876,
                -3.1125627601578807
            ]
        },
        {
            "positions": [
                -2.804085527479525,
                -1.0368851733934799,
                1.8376148197633209,
                -0.778166924130682,
                1.3822413065524999,
                -3.1001959427448273
            ]
        },
        {
            "positions": [
                -2.8867017837907536,
                -1.0052325449084099,
                1.794301445956537,
                -0.7635329853082854,
                1.5591505357645126,
                -3.0878291253317744
            ]
        },
        {
            "positions": [
                -2.9693180401019816,
                -0.9735799164233401,
                1.7509880721497533,
                -0.7488990464858889,
                1.7360597649765253,
                -3.075462307918721
            ]
        }
    ]
}