{
    "goal": {
        "global_pose": {
            "orientation": {
                "w": -0.4816463035849501,
                "x": 0.5182115481033762,
                "y": 0.4908360881923453,
                "z": -0.5084816262002911
            },
            "position": {
                "x": -0.8240239810943604,
                "y": -0.300875300988555,
                "z": 0.16403168439865112
            }
        },
        "name": "move_to_storage_C"
    },
    "id": "BiEST_move_to_storage_C_28",
    "joint_names": [
        "shoulder_pan_joint",
        "shoulder_lift_joint",
        "elbow_joint",
        "wrist_1_joint",
        "wrist_2_joint",
        "wrist_3_joint"
    ],
    "metrics": {
        "cart_traj_len": 0.5768514057548493,
        "distance_elbow_joint": 0.2603871474845638,
        "distance_shoulder_lift_joint": 0.19028343772950385,
        "distance_shoulder_pan_joint": 0.49363293503748507,
        "distance_wrist_1_joint": 0.08623511981165988,
        "distance_wrist_2_joint": 1.0772060121754703,
        "distance_wrist_3_joint": 0.06222148095014646,
        "smoothness": 2.5376526478085547e-16,
        "time": 0.17045411700000002,
        "traj_len": 1.4730804910760407,
        "weighted_distance": 1.8595295714444156
    },
    "planner": "BiEST",
    "start": {
        "state": {
            "elbow_joint": 2.010868314990456,
            "shoulder_lift_joint": -1.1634956873337592,
            "shoulder_pan_joint": -2.4736205022346125,
            "wrist_1_joint": -0.8367026794202681,
            "wrist_2_joint": 0.6746043897044499,
            "wrist_3_joint": -3.1496632123970403
        }
    },
    "waypoints": [
        {
            "positions": [
                -2.4736205022346125,
                -1.1634956873337592,
                2.010868314990456,
                -0.8367026794202681,
                0.6746043897044499,
                -3.1496632123970403
            ]
        },
        {
            "positions": [
                -2.5558926580741934,
                -1.1317817810455086,
                1.967470457076362,
                -0.8223301594516581,
                0.8541387250670283,
                -3.139292965572016
            ]
        },
        {
            "positions": [
                -2.6381648139137743,
                -1.1000678747572579,
                1.9240725991622678,
                -0.8079576394830481,
                1.0336730604296067,
                -3.1289227187469915
            ]
        },
        {
            "positions": [
                -2.7204369697533552,
                -1.0683539684690073,
                1.880674741248174,
                -0.7935851195144381,
                1.213207395792185,
                -3.118552471921967
            ]
        },
        {
            "positions": [
                -2.8027091255929357,
                -1.0366400621807565,
                1.83727688333408,
                -0.7792125995458282,
                1.3927417311547634,
                -3.1081822250969426
            ]
        },
        {
            "positions": [
                -2.8849812814325166,
                -1.004926155892506,
                1.793879025419986,
                -0.7648400795772182,
                1.5722760665173419,
                -3.0978119782719182
            ]
        },
        {
            "positions": [
                -2.9672534372720976,
                -0.9732122496042553,
                1.750481167505892,
                -0.7504675596086082,
                1.75181040187992,
                -3.087441731446894
            ]
        }
    ]
}