{
    "goal": {
        "global_pose": {
            "orientation": {
                "w": -0.4816463035849501,
                "x": 0.5182115481033762,
                "y": 0.4908360881923453,
                "z": -0.5084816262002911
            },
            "position": {
                "x": -0.8240239810943604,
                "y": 0.19912469901144506,
                "z": 0.16403168439865112
            }
        },
        "name": "move_to_storage_D"
    },
    "id": "BiEST_move_to_storage_D_146",
    "joint_names": [
        "shoulder_pan_joint",
        "shoulder_lift_joint",
        "elbow_joint",
        "wrist_1_joint",
        "wrist_2_joint",
        "wrist_3_joint"
    ],
    "metrics": {
        "cart_traj_len": 3.2887944152453916,
        "distance_elbow_joint": 4.635784401668461,
        "distance_shoulder_lift_joint": 1.2635175299297148,
        "distance_shoulder_pan_joint": 2.8121879405936965,
        "distance_wrist_1_joint": 2.2848457624183363,
        "distance_wrist_2_joint": 0.8699247407938989,
        "distance_wrist_3_joint": 4.633625443113307,
        "smoothness": 0.08595127831273429,
        "time": 0.15893086899999997,
        "traj_len": 4.062005147524732,
        "weighted_distance": 5.37790918554379
    },
    "planner": "BiEST",
    "start": {
        "state": {
            "elbow_joint": -2.384821988534728,
            "shoulder_lift_joint": -2.2788054721415256,
            "shoulder_pan_joint": -0.1854694642142757,
            "wrist_1_joint": 1.4845938289331202,
            "wrist_2_joint": 0.17898776772866878,
            "wrist_3_joint": 0.037105688729662994
        }
    },
    "waypoints": [
        {
            "positions": [
                -0.1854694642142757,
                -2.2788054721415256,
                -2.384821988534728,
                1.4845938289331202,
                0.17898776772866878,
                0.037105688729662994
            ]
        },
        {
            "positions": [
                -0.08812374853315008,
                -2.24546211898621,
                -2.1836701560431138,
                1.4778339441699633,
                0.19740255560817183,
                0.07109958313777434
            ]
        },
        {
            "positions": [
                0.009221967147975546,
                -2.212118765830895,
                -1.9825183235514998,
                1.4710740594068064,
                0.2158173434876749,
                0.10509347754588569
            ]
        },
        {
            "positions": [
                0.10656768282910115,
                -2.17877541267558,
                -1.7813664910598859,
                1.4643141746436494,
                0.23423213136717794,
                0.139087371953997
            ]
        },
        {
            "positions": [
                0.2039133985102268,
                -2.1454320595202643,
                -1.5802146585682717,
                1.4575542898804925,
                0.252646919246681,
                0.17308126636210838
            ]
        },
        {
            "positions": [
                0.30125911419135243,
                -2.1120887063649487,
                -1.3790628260766578,
                1.4507944051173356,
                0.27106170712618405,
                0.20707516077021973
            ]
        },
        {
            "positions": [
                0.39860482987247803,
                -2.0787453532096336,
                -1.1779109935850438,
                1.4440345203541787,
                0.28947649500568706,
                0.24106905517833105
            ]
        },
        {
            "positions": [
                0.49595054555360374,
                -2.0454020000543185,
                -0.9767591610934296,
                1.4372746355910218,
                0.30789128288519013,
                0.2750629495864424
            ]
        },
        {
            "positions": [
                0.5932962612347293,
                -2.012058646899003,
                -0.7756073286018155,
                1.4305147508278648,
                0.3263060707646932,
                0.3090568439945538
            ]
        },
        {
            "positions": [
                0.690641976915855,
                -1.9787152937436876,
                -0.5744554961102013,
                1.423754866064708,
                0.3447208586441962,
                0.3430507384026651
            ]
        },
        {
            "positions": [
                0.7879876925969805,
                -1.9453719405883723,
                -0.3733036636185876,
                1.416994981301551,
                0.3631356465236993,
                0.3770446328107765
            ]
        },
        {
            "positions": [
                0.8853334082781062,
                -1.912028587433057,
                -0.1721518311269734,
                1.410235096538394,
                0.38155043440320235,
                0.4110385272188878
            ]
        },
        {
            "positions": [
                0.9826791239592317,
                -1.8786852342777416,
                0.029000001364640315,
                1.4034752117752372,
                0.39996522228270537,
                0.4450324216269991
            ]
        },
        {
            "positions": [
                1.0800248396403576,
                -1.8453418811224263,
                0.23015183385625493,
                1.3967153270120802,
                0.41838001016220844,
                0.4790263160351105
            ]
        },
        {
            "positions": [
                1.177370555321483,
                -1.811998527967111,
                0.43130366634786865,
                1.3899554422489233,
                0.4367947980417115,
                0.5130202104432219
            ]
        },
        {
            "positions": [
                1.2747162710026085,
                -1.7786551748117956,
                0.6324554988394824,
                1.3831955574857664,
                0.4552095859212145,
                0.5470141048513332
            ]
        },
        {
            "positions": [
                1.3720619866837342,
                -1.7453118216564802,
                0.833607331331097,
                1.3764356727226095,
                0.47362437380071754,
                0.5810079992594446
            ]
        },
        {
            "positions": [
                1.46940770236486,
                -1.711968468501165,
                1.0347591638227107,
                1.3696757879594526,
                0.49203916168022066,
                0.6150018936675559
            ]
        },
        {
            "positions": [
                1.5667534180459857,
                -1.6786251153458496,
                1.2359109963143253,
                1.3629159031962956,
                0.5104539495597237,
                0.6489957880756673
            ]
        },
        {
            "positions": [
                1.6640991337271112,
                -1.6452817621905342,
                1.437062828805939,
                1.3561560184331387,
                0.5288687374392267,
                0.6829896824837787
            ]
        },
        {
            "positions": [
                1.7614448494082366,
                -1.611938409035219,
                1.6382146612975528,
                1.3493961336699818,
                0.5472835253187298,
                0.71698357689189
            ]
        },
        {
            "positions": [
                1.8587905650893624,
                -1.5785950558799036,
                1.8393664937891674,
                1.3426362489068249,
                0.5656983131982328,
                0.7509774713000014
            ]
        },
        {
            "positions": [
                1.956136280770488,
                -1.5452517027245882,
                2.040518326280781,
                1.335876364143668,
                0.5841131010777358,
                0.7849713657081127
            ]
        },
        {
            "positions": [
                1.9896653905509347,
                -1.5187535146989493,
                2.029996121938133,
                1.2290699492622237,
                0.6073530714499774,
                0.5906833774013697
            ]
        },
        {
            "positions": [
                2.0231945003313814,
                -1.4922553266733105,
                2.0194739175954854,
                1.1222635343807794,
                0.630593041822219,
                0.39639538909462674
            ]
        },
        {
            "positions": [
                2.056723610111828,
                -1.4657571386476715,
                2.0089517132528374,
                1.0154571194993354,
                0.6538330121944607,
                0.2021074007878838
            ]
        },
        {
            "positions": [
                2.0902527198922747,
                -1.4392589506220328,
                1.9984295089101896,
                0.9086507046178911,
                0.6770729825667022,
                0.00781941248114082
            ]
        },
        {
            "positions": [
                2.1237818296727213,
                -1.4127607625963938,
                1.9879073045675417,
                0.801844289736447,
                0.7003129529389438,
                -0.18646857582560206
            ]
        },
        {
            "positions": [
                2.157310939453168,
                -1.386262574570755,
                1.9773851002248939,
                0.6950378748550028,
                0.7235529233111854,
                -0.38075656413234504
            ]
        },
        {
            "positions": [
                2.1908400492336146,
                -1.359764386545116,
                1.966862895882246,
                0.5882314599735586,
                0.7467928936834269,
                -0.5750445524390878
            ]
        },
        {
            "positions": [
                2.2243691590140613,
                -1.3332661985194774,
                1.9563406915395982,
                0.48142504509211426,
                0.7700328640556686,
                -0.769332540745831
            ]
        },
        {
            "positions": [
                2.257898268794508,
                -1.3067680104938384,
                1.9458184871969504,
                0.3746186302106701,
                0.7932728344279102,
                -0.9636205290525738
            ]
        },
        {
            "positions": [
                2.291427378574954,
                -1.2802698224681994,
                1.9352962828543023,
                0.26781221532922594,
                0.8165128048001518,
                -1.1579085173593167
            ]
        },
        {
            "positions": [
                2.324956488355401,
                -1.2537716344425607,
                1.9247740785116545,
                0.16100580044778168,
                0.8397527751723934,
                -1.3521965056660599
            ]
        },
        {
            "positions": [
                2.3584855981358475,
                -1.227273446416922,
                1.9142518741690067,
                0.05419938556633763,
                0.8629927455446349,
                -1.5464844939728026
            ]
        },
        {
            "positions": [
                2.392014707916294,
                -1.200775258391283,
                1.9037296698263588,
                -0.052607029315106635,
                0.8862327159168766,
                -1.7407724822795454
            ]
        },
        {
            "positions": [
                2.4255438176967408,
                -1.174277070365644,
                1.893207465483711,
                -0.15941344419655068,
                0.909472686289118,
                -1.9350604705862882
            ]
        },
        {
            "positions": [
                2.4590729274771874,
                -1.1477788823400052,
                1.8826852611410632,
                -0.26621985907799495,
                0.9327126566613597,
                -2.1293484588930314
            ]
        },
        {
            "positions": [
                2.492602037257634,
                -1.1212806943143663,
                1.8721630567984153,
                -0.37302627395943944,
                0.9559526270336014,
                -2.3236364471997746
            ]
        },
        {
            "positions": [
                2.5261311470380807,
                -1.0947825062887275,
                1.8616408524557673,
                -0.4798326888408835,
                0.9791925974058429,
                -2.5179244355065173
            ]
        },
        {
            "positions": [
                2.5596602568185274,
                -1.0682843182630886,
                1.8511186481131194,
                -0.5866391037223277,
                1.0024325677780845,
                -2.71221242381326
            ]
        },
        {
            "positions": [
                2.593189366598974,
                -1.0417861302374498,
                1.8405964437704716,
                -0.6934455186037716,
                1.025672538150326,
                -2.906500412120003
            ]
        },
        {
            "positions": [
                2.6267184763794207,
                -1.0152879422118108,
                1.8300742394278238,
                -0.8002519334852162,
                1.0489125085225677,
                -3.100788400426746
            ]
        }
    ]
}