{
    "goal": {
        "global_pose": {
            "orientation": {
                "w": 0.7047431468963623,
                "x": -0.7094548344612122,
                "y": 0.0024358443915843964,
                "z": -0.0022348060738295317
            },
            "position": {
                "x": 0.6094750761985779,
                "y": 0.3671506643295288,
                "z": 0.19426114857196808
            }
        },
        "name": "move_to_magneteinheit_A"
    },
    "id": "BiEST_move_to_magneteinheit_A_113",
    "joint_names": [
        "shoulder_pan_joint",
        "shoulder_lift_joint",
        "elbow_joint",
        "wrist_1_joint",
        "wrist_2_joint",
        "wrist_3_joint"
    ],
    "metrics": {
        "cart_traj_len": 3.4286814404386425,
        "distance_elbow_joint": 3.8977860443062156,
        "distance_shoulder_lift_joint": 0.8836569153796663,
        "distance_shoulder_pan_joint": 2.969399369539403,
        "distance_wrist_1_joint": 3.012577549545997,
        "distance_wrist_2_joint": 2.2716869335997334,
        "distance_wrist_3_joint": 3.6418571510421414,
        "smoothness": 0.4045293969347941,
        "time": 0.103910484,
        "traj_len": 4.083743866039246,
        "weighted_distance": 5.40785934993165
    },
    "planner": "BiEST",
    "start": {
        "state": {
            "elbow_joint": -1.9196185241190666,
            "shoulder_lift_joint": -1.2443396400964142,
            "shoulder_pan_joint": 2.6996025414629847,
            "wrist_1_joint": -1.5485510000780065,
            "wrist_2_joint": -1.5709468930060704,
            "wrist_3_joint": 0.4420197071253992
        }
    },
    "waypoints": [
        {
            "positions": [
                2.6996025414629847,
                -1.2443396400964142,
                -1.9196185241190666,
                -1.5485510000780065,
                -1.5709468930060704,
                0.4420197071253992
            ]
        },
        {
            "positions": [
                2.5886968160477215,
                -1.2582979892400155,
                -1.8197726310505176,
                -1.4923940801630176,
                -1.5114536539810284,
                0.4003506203019646
            ]
        },
        {
            "positions": [
                2.4777910906324587,
                -1.272256338383617,
                -1.7199267379819685,
                -1.4362371602480288,
                -1.4519604149559864,
                0.3586815334785301
            ]
        },
        {
            "positions": [
                2.3668853652171955,
                -1.2862146875272182,
                -1.6200808449134194,
                -1.3800802403330399,
                -1.3924671759309444,
                0.31701244665509554
            ]
        },
        {
            "positions": [
                2.2559796398019323,
                -1.3001730366708197,
                -1.5202349518448703,
                -1.3239233204180512,
                -1.3329739369059024,
                0.275343359831661
            ]
        },
        {
            "positions": [
                2.1450739143866695,
                -1.314131385814421,
                -1.4203890587763213,
                -1.2677664005030622,
                -1.2734806978808604,
                0.23367427300822646
            ]
        },
        {
            "positions": [
                2.0341681889714063,
                -1.3280897349580225,
                -1.3205431657077722,
                -1.2116094805880735,
                -1.2139874588558184,
                0.19200518618479195
            ]
        },
        {
            "positions": [
                1.923262463556143,
                -1.3420480841016238,
                -1.220697272639223,
                -1.1554525606730845,
                -1.1544942198307764,
                0.1503360993613574
            ]
        },
        {
            "positions": [
                1.8123567381408803,
                -1.3560064332452253,
                -1.120851379570674,
                -1.0992956407580956,
                -1.0950009808057344,
                0.10866701253792282
            ]
        },
        {
            "positions": [
                1.701451012725617,
                -1.3699647823888266,
                -1.021005486502125,
                -1.0431387208431069,
                -1.0355077417806924,
                0.06699792571448832
            ]
        },
        {
            "positions": [
                1.590545287310354,
                -1.383923131532428,
                -0.9211595934335757,
                -0.986981800928118,
                -0.9760145027556505,
                0.02532883889105375
            ]
        },
        {
            "positions": [
                1.479639561895091,
                -1.3978814806760294,
                -0.8213137003650266,
                -0.9308248810131292,
                -0.9165212637306085,
                -0.016340247932380758
            ]
        },
        {
            "positions": [
                1.368733836479828,
                -1.4118398298196309,
                -0.7214678072964775,
                -0.8746679610981404,
                -0.8570280247055665,
                -0.05800933475581527
            ]
        },
        {
            "positions": [
                1.2578281110645648,
                -1.4257981789632321,
                -0.6216219142279285,
                -0.8185110411831514,
                -0.7975347856805245,
                -0.09967842157924989
            ]
        },
        {
            "positions": [
                1.1469223856493016,
                -1.4397565281068336,
                -0.5217760211593792,
                -0.7623541212681626,
                -0.7380415466554824,
                -0.1413475084026844
            ]
        },
        {
            "positions": [
                1.0360166602340388,
                -1.453714877250435,
                -0.4219301280908303,
                -0.7061972013531738,
                -0.6785483076304405,
                -0.1830165952261189
            ]
        },
        {
            "positions": [
                0.9251109348187756,
                -1.4676732263940364,
                -0.32208423502228123,
                -0.6500402814381849,
                -0.6190550686053985,
                -0.22468568204955353
            ]
        },
        {
            "positions": [
                0.8142052094035126,
                -1.4816315755376377,
                -0.22223834195373193,
                -0.593883361523196,
                -0.5595618295803564,
                -0.26635476887298803
            ]
        },
        {
            "positions": [
                0.7032994839882496,
                -1.495589924681239,
                -0.12239244888518308,
                -0.5377264416082073,
                -0.5000685905553146,
                -0.30802385569642254
            ]
        },
        {
            "positions": [
                0.5923937585729866,
                -1.5095482738248405,
                -0.022546555816633784,
                -0.4815695216932183,
                -0.4405753515302726,
                -0.34969294251985705
            ]
        },
        {
            "positions": [
                0.48148803315772337,
                -1.523506622968442,
                0.07729933725191529,
                -0.4254126017782296,
                -0.3810821125052306,
                -0.3913620293432917
            ]
        },
        {
            "positions": [
                0.3705823077424606,
                -1.5374649721120432,
                0.17714523032046436,
                -0.36925568186324065,
                -0.3215888734801886,
                -0.4330311161667262
            ]
        },
        {
            "positions": [
                0.25967658232719737,
                -1.5514233212556445,
                0.27699112338901344,
                -0.3130987619482519,
                -0.2620956344551466,
                -0.4747002029901607
            ]
        },
        {
            "positions": [
                0.14877085691193415,
                -1.565381670399246,
                0.3768370164575625,
                -0.256941842033263,
                -0.2026023954301046,
                -0.5163692898135953
            ]
        },
        {
            "positions": [
                0.03786513149667137,
                -1.5793400195428475,
                0.4766829095261116,
                -0.20078492211827426,
                -0.1431091564050626,
                -0.5580383766370297
            ]
        },
        {
            "positions": [
                -0.07304059391859163,
                -1.5932983686864488,
                0.5765288025946607,
                -0.1446280022032852,
                -0.08361591738002065,
                -0.5997074634604643
            ]
        },
        {
            "positions": [
                -0.0724410428386876,
                -1.5604307191432985,
                0.6541772404499487,
                -0.22036374787794086,
                -0.05015744533447837,
                -0.7721762900516659
            ]
        },
        {
            "positions": [
                -0.07184149175878356,
                -1.527563069600148,
                0.7318256783052369,
                -0.2960994935525965,
                -0.01669897328893609,
                -0.9446451166428673
            ]
        },
        {
            "positions": [
                -0.07124194067887953,
                -1.4946954200569975,
                0.809474116160525,
                -0.37183523922725215,
                0.016759498756606192,
                -1.1171139432340689
            ]
        },
        {
            "positions": [
                -0.07064238959897548,
                -1.4618277705138472,
                0.8871225540158132,
                -0.44757098490190783,
                0.05021797080214847,
                -1.2895827698252704
            ]
        },
        {
            "positions": [
                -0.07004283851907145,
                -1.4289601209706968,
                0.9647709918711012,
                -0.5233067305765635,
                0.08367644284769073,
                -1.462051596416472
            ]
        },
        {
            "positions": [
                -0.06944328743916742,
                -1.3960924714275462,
                1.0424194297263893,
                -0.5990424762512192,
                0.11713491489323304,
                -1.6345204230076735
            ]
        },
        {
            "positions": [
                -0.06884373635926337,
                -1.3632248218843959,
                1.1200678675816773,
                -0.6747782219258748,
                0.15059338693877533,
                -1.806989249598875
            ]
        },
        {
            "positions": [
                -0.06824418527935934,
                -1.3303571723412455,
                1.1977163054369657,
                -0.7505139676005305,
                0.18405185898431758,
                -1.9794580761900766
            ]
        },
        {
            "positions": [
                -0.0676446341994553,
                -1.2974895227980952,
                1.2753647432922537,
                -0.826249713275186,
                0.21751033102985984,
                -2.151926902781278
            ]
        },
        {
            "positions": [
                -0.06704508311955126,
                -1.2646218732549448,
                1.3530131811475417,
                -0.9019854589498417,
                0.2509688030754021,
                -2.3243957293724793
            ]
        },
        {
            "positions": [
                -0.06644553203964723,
                -1.2317542237117942,
                1.4306616190028298,
                -0.9777212046244974,
                0.2844272751209444,
                -2.496864555963681
            ]
        },
        {
            "positions": [
                -0.06584598095974319,
                -1.1988865741686439,
                1.508310056858118,
                -1.053456950299153,
                0.3178857471664867,
                -2.6693333825548824
            ]
        },
        {
            "positions": [
                -0.06524642987983915,
                -1.1660189246254933,
                1.5859584947134062,
                -1.1291926959738088,
                0.35134421921202896,
                -2.841802209146084
            ]
        },
        {
            "positions": [
                -0.06464687879993511,
                -1.133151275082343,
                1.6636069325686942,
                -1.2049284416484642,
                0.38480269125757127,
                -3.0142710357372855
            ]
        },
        {
            "positions": [
                -0.06404732772003108,
                -1.1002836255391926,
                1.7412553704239824,
                -1.28066418732312,
                0.4182611633031135,
                -3.186739862328487
            ]
        },
        {
            "positions": [
                -0.017106585730214924,
                -1.1107044864497864,
                1.8004834078647742,
                -1.1625095956852598,
                0.347641443980476,
                -3.1834654669314233
            ]
        },
        {
            "positions": [
                0.02983415625960123,
                -1.1211253473603802,
                1.8597114453055663,
                -1.0443550040473997,
                0.2770217246578384,
                -3.1801910715343595
            ]
        },
        {
            "positions": [
                0.07677489824941738,
                -1.1315462082709742,
                1.9189394827463584,
                -0.9262004124095394,
                0.20640200533520087,
                -3.176916676137296
            ]
        },
        {
            "positions": [
                0.12371564023923355,
                -1.141967069181568,
                1.9781675201871503,
                -0.8080458207716793,
                0.13578228601256329,
                -3.173642280740232
            ]
        }
    ]
}