{
    "goal": {
        "global_pose": {
            "orientation": {
                "w": -0.4816463035849501,
                "x": 0.5182115481033762,
                "y": 0.4908360881923453,
                "z": -0.5084816262002911
            },
            "position": {
                "x": -0.8240239810943604,
                "y": -0.300875300988555,
                "z": 0.16403168439865112
            }
        },
        "name": "move_to_storage_C"
    },
    "id": "BiEST_move_to_storage_C_95",
    "joint_names": [
        "shoulder_pan_joint",
        "shoulder_lift_joint",
        "elbow_joint",
        "wrist_1_joint",
        "wrist_2_joint",
        "wrist_3_joint"
    ],
    "metrics": {
        "cart_traj_len": 0.5755531178202402,
        "distance_elbow_joint": 0.2544425071947256,
        "distance_shoulder_lift_joint": 0.18782143239265892,
        "distance_shoulder_pan_joint": 0.4948694325951899,
        "distance_wrist_1_joint": 0.07010805334238357,
        "distance_wrist_2_joint": 1.0613344537436422,
        "distance_wrist_3_joint": 0.06074204668038963,
        "smoothness": 2.5376526478085547e-16,
        "time": 0.070600392,
        "traj_len": 1.4592182585031581,
        "weighted_distance": 1.8390879604836183
    },
    "planner": "BiEST",
    "start": {
        "state": {
            "elbow_joint": 2.010868314990456,
            "shoulder_lift_joint": -1.1634956873337592,
            "shoulder_pan_joint": -2.4736205022346125,
            "wrist_1_joint": -0.8367026794202681,
            "wrist_2_joint": 0.6746043897044499,
            "wrist_3_joint": -3.1496632123970403
        }
    },
    "waypoints": [
        {
            "positions": [
                -2.4736205022346125,
                -1.1634956873337592,
                2.010868314990456,
                -0.8367026794202681,
                0.6746043897044499,
                -3.1496632123970403
            ]
        },
        {
            "positions": [
                -2.5560987410004774,
                -1.132192115268316,
                1.9684612304580016,
                -0.8250180038632042,
                0.8514934653283903,
                -3.139539537950309
            ]
        },
        {
            "positions": [
                -2.6385769797663423,
                -1.1008885432028728,
                1.9260541459255474,
                -0.8133333283061402,
                1.0283825409523306,
                -3.129415863503577
            ]
        },
        {
            "positions": [
                -2.721055218532207,
                -1.0695849711374297,
                1.8836470613930931,
                -0.8016486527490763,
                1.2052716165762711,
                -3.1192921890568455
            ]
        },
        {
            "positions": [
                -2.8035334572980726,
                -1.0382813990719866,
                1.8412399768606387,
                -0.7899639771920124,
                1.3821606922002112,
                -3.109168514610114
            ]
        },
        {
            "positions": [
                -2.8860116960639375,
                -1.0069778270065435,
                1.7988328923281844,
                -0.7782793016349485,
                1.5590497678241517,
                -3.099044840163382
            ]
        },
        {
            "positions": [
                -2.9684899348298024,
                -0.9756742549411003,
                1.7564258077957302,
                -0.7665946260778845,
                1.735938843448092,
                -3.0889211657166507
            ]
        }
    ]
}