{
    "goal": {
        "global_pose": {
            "orientation": {
                "w": 0.005598929693374612,
                "x": 0.007748599140229565,
                "y": 0.7110244013736278,
                "z": -0.7031023480610252
            },
            "position": {
                "x": -0.8858502320852131,
                "y": -0.7141253447532654,
                "z": 0.3711530566215515
            }
        },
        "name": "move_to_auspresseinheit_C"
    },
    "id": "BiEST_move_to_auspresseinheit_C_72",
    "joint_names": [
        "shoulder_pan_joint",
        "shoulder_lift_joint",
        "elbow_joint",
        "wrist_1_joint",
        "wrist_2_joint",
        "wrist_3_joint"
    ],
    "metrics": {
        "cart_traj_len": 0.4936486642625893,
        "distance_elbow_joint": 1.0040196499893863,
        "distance_shoulder_lift_joint": 0.32699594473033256,
        "distance_shoulder_pan_joint": 0.25689877832766594,
        "distance_wrist_1_joint": 0.6872053765429056,
        "distance_wrist_2_joint": 1.310573046513792,
        "distance_wrist_3_joint": 0.05549401895854933,
        "smoothness": 3.2297397335745243e-16,
        "time": 0.106982844,
        "traj_len": 1.9081894075438717,
        "weighted_distance": 2.397906019016681
    },
    "planner": "BiEST",
    "start": {
        "state": {
            "elbow_joint": 1.7527959577737207,
            "shoulder_lift_joint": -0.9740617694225068,
            "shoulder_pan_joint": -2.967991417825858,
            "wrist_1_joint": -0.759517768980727,
            "wrist_2_joint": 1.7443932448377408,
            "wrist_3_joint": -3.0840537646736568
        }
    },
    "waypoints": [
        {
            "positions": [
                -2.967991417825858,
                -0.9740617694225068,
                1.7527959577737207,
                -0.759517768980727,
                1.7443932448377408,
                -3.0840537646736568
            ]
        },
        {
            "positions": [
                -2.942301539993091,
                -0.9413621749494735,
                1.652393992774782,
                -0.6907972313264364,
                1.6133359401863616,
                -3.089603166569512
            ]
        },
        {
            "positions": [
                -2.916611662160325,
                -0.9086625804764402,
                1.5519920277758434,
                -0.6220766936721458,
                1.4822786355349824,
                -3.0951525684653665
            ]
        },
        {
            "positions": [
                -2.890921784327558,
                -0.875962986003407,
                1.4515900627769047,
                -0.5533561560178553,
                1.3512213308836032,
                -3.1007019703612215
            ]
        },
        {
            "positions": [
                -2.8652319064947918,
                -0.8432633915303738,
                1.3511880977779662,
                -0.4846356183635647,
                1.220164026232224,
                -3.1062513722570766
            ]
        },
        {
            "positions": [
                -2.839542028662025,
                -0.8105637970573405,
                1.2507861327790275,
                -0.4159150807092742,
                1.089106721580845,
                -3.1118007741529317
            ]
        },
        {
            "positions": [
                -2.813852150829258,
                -0.7778642025843072,
                1.1503841677800888,
                -0.34719454305498365,
                0.9580494169294657,
                -3.1173501760487863
            ]
        },
        {
            "positions": [
                -2.788162272996492,
                -0.7451646081112739,
                1.0499822027811503,
                -0.2784740054006931,
                0.8269921122780866,
                -3.1228995779446413
            ]
        },
        {
            "positions": [
                -2.762472395163725,
                -0.7124650136382407,
                0.9495802377822116,
                -0.20975346774640247,
                0.6959348076267073,
                -3.1284489798404964
            ]
        },
        {
            "positions": [
                -2.736782517330959,
                -0.6797654191652074,
                0.849178272783273,
                -0.14103293009211193,
                0.5648775029753281,
                -3.133998381736351
            ]
        },
        {
            "positions": [
                -2.711092639498192,
                -0.6470658246921742,
                0.7487763077843342,
                -0.07231239243782145,
                0.43382019832394897,
                -3.139547783632206
            ]
        }
    ]
}