{
    "goal": {
        "global_pose": {
            "orientation": {
                "w": 0.7031023480610252,
                "x": -0.7110244013736278,
                "y": 0.0077485991402295624,
                "z": 0.005598929693374583
            },
            "position": {
                "x": -0.8841497679147869,
                "y": 0.44412534475326537,
                "z": 0.3711530566215515
            }
        },
        "name": "move_to_auspresseinheit_D"
    },
    "id": "BiEST_move_to_auspresseinheit_D_54",
    "joint_names": [
        "shoulder_pan_joint",
        "shoulder_lift_joint",
        "elbow_joint",
        "wrist_1_joint",
        "wrist_2_joint",
        "wrist_3_joint"
    ],
    "metrics": {
        "cart_traj_len": 0.3450307712884828,
        "distance_elbow_joint": 0.6656363715301881,
        "distance_shoulder_lift_joint": 0.1355749705714886,
        "distance_shoulder_pan_joint": 0.1335792102982929,
        "distance_wrist_1_joint": 0.6141658630069786,
        "distance_wrist_2_joint": 1.441658581934396,
        "distance_wrist_3_joint": 0.0759508853194828,
        "smoothness": 0.0,
        "time": 0.089688901,
        "traj_len": 1.7511612954439197,
        "weighted_distance": 2.296582700065723
    },
    "planner": "BiEST",
    "start": {
        "state": {
            "elbow_joint": -1.8275523626775212,
            "shoulder_lift_joint": -2.126789852344167,
            "shoulder_pan_joint": -0.03513704404078235,
            "wrist_1_joint": -2.347782403156801,
            "wrist_2_joint": -1.6058999987535132,
            "wrist_3_joint": -3.0880379163319196
        }
    },
    "waypoints": [
        {
            "positions": [
                -0.03513704404078235,
                -2.126789852344167,
                -1.8275523626775212,
                -2.347782403156801,
                -1.6058999987535132,
                -3.0880379163319196
            ]
        },
        {
            "positions": [
                -0.05183444532806896,
                -2.143736723665603,
                -1.7443478162362478,
                -2.424553136032673,
                -1.4256926760117137,
                -3.0785440556669843
            ]
        },
        {
            "positions": [
                -0.06853184661535558,
                -2.160683594987039,
                -1.6611432697949742,
                -2.5013238689085453,
                -1.2454853532699142,
                -3.069050195002049
            ]
        },
        {
            "positions": [
                -0.08522924790264219,
                -2.177630466308475,
                -1.5779387233537006,
                -2.578094601784418,
                -1.0652780305281147,
                -3.0595563343371137
            ]
        },
        {
            "positions": [
                -0.1019266491899288,
                -2.1945773376299114,
                -1.4947341769124272,
                -2.65486533466029,
                -0.8850707077863151,
                -3.0500624736721784
            ]
        },
        {
            "positions": [
                -0.11862405047721541,
                -2.211524208951347,
                -1.4115296304711538,
                -2.7316360675361624,
                -0.7048633850445156,
                -3.0405686130072427
            ]
        },
        {
            "positions": [
                -0.13532145176450203,
                -2.2284710802727834,
                -1.3283250840298801,
                -2.808406800412035,
                -0.5246560623027161,
                -3.0310747523423074
            ]
        },
        {
            "positions": [
                -0.15201885305178864,
                -2.245417951594219,
                -1.2451205375886065,
                -2.8851775332879073,
                -0.3444487395609166,
                -3.021580891677372
            ]
        },
        {
            "positions": [
                -0.16871625433907525,
                -2.2623648229156554,
                -1.1619159911473331,
                -2.9619482661637795,
                -0.1642414168191172,
                -3.012087031012437
            ]
        }
    ]
}