{
    "goal": {
        "global_pose": {
            "orientation": {
                "w": 0.5084816262002911,
                "x": -0.4908360881923452,
                "y": 0.5182115481033761,
                "z": -0.48164630358495003
            },
            "position": {
                "x": 0.5540239810943604,
                "y": -0.46912469901144505,
                "z": 0.16403168439865112
            }
        },
        "name": "move_to_storage_B"
    },
    "id": "BiEST_move_to_storage_B_73",
    "joint_names": [
        "shoulder_pan_joint",
        "shoulder_lift_joint",
        "elbow_joint",
        "wrist_1_joint",
        "wrist_2_joint",
        "wrist_3_joint"
    ],
    "metrics": {
        "cart_traj_len": 3.8957273934447616,
        "distance_elbow_joint": 1.4345452168101587,
        "distance_shoulder_lift_joint": 2.107624095114843,
        "distance_shoulder_pan_joint": 4.315843156290302,
        "distance_wrist_1_joint": 3.002969654310024,
        "distance_wrist_2_joint": 3.4439436212190757,
        "distance_wrist_3_joint": 3.1193896037976265,
        "smoothness": 0.2274451965840837,
        "time": 0.093927345,
        "traj_len": 4.174244284603146,
        "weighted_distance": 5.487258680859356
    },
    "planner": "BiEST",
    "start": {
        "state": {
            "elbow_joint": 1.664937868594044,
            "shoulder_lift_joint": -0.661644460510453,
            "shoulder_pan_joint": -0.9139846352900073,
            "wrist_1_joint": 2.146753192139373,
            "wrist_2_joint": -2.2341966793290973,
            "wrist_3_joint": 0.005466555786416001
        }
    },
    "waypoints": [
        {
            "positions": [
                -0.9139846352900073,
                -0.661644460510453,
                1.664937868594044,
                2.146753192139373,
                -2.2341966793290973,
                0.005466555786416001
            ]
        },
        {
            "positions": [
                -0.8480212384678957,
                -0.7028553941423658,
                1.6824244981200607,
                2.0789992218521816,
                -2.1603481729592473,
                -0.026830100775883645
            ]
        },
        {
            "positions": [
                -0.7820578416457841,
                -0.7440663277742786,
                1.6999111276460772,
                2.0112452515649903,
                -2.086499666589398,
                -0.05912675733818329
            ]
        },
        {
            "positions": [
                -0.7160944448236725,
                -0.7852772614061914,
                1.717397757172094,
                1.943491281277799,
                -2.012651160219548,
                -0.09142341390048295
            ]
        },
        {
            "positions": [
                -0.6298502133131025,
                -0.8389930175819675,
                1.7365513846825729,
                1.8513378085970689,
                -1.9114404120223414,
                -0.13342161658674997
            ]
        },
        {
            "positions": [
                -0.5436059818025327,
                -0.8927087737577437,
                1.755705012193052,
                1.7591843359163386,
                -1.810229663825135,
                -0.175419819273017
            ]
        },
        {
            "positions": [
                -0.45736175029196285,
                -0.9464245299335199,
                1.7748586397035309,
                1.6670308632356086,
                -1.7090189156279287,
                -0.217418021959284
            ]
        },
        {
            "positions": [
                -0.37111751878139293,
                -1.000140286109296,
                1.79401226721401,
                1.5748773905548783,
                -1.6078081674307223,
                -0.25941622464555103
            ]
        },
        {
            "positions": [
                -0.28487328727082306,
                -1.0538560422850722,
                1.8131658947244889,
                1.4827239178741483,
                -1.5065974192335159,
                -0.30141442733181806
            ]
        },
        {
            "positions": [
                -0.19862905576025325,
                -1.1075717984608484,
                1.8323195222349677,
                1.390570445193418,
                -1.4053866710363097,
                -0.3434126300180851
            ]
        },
        {
            "positions": [
                -0.11238482424968332,
                -1.1612875546366244,
                1.8514731497454469,
                1.298416972512688,
                -1.3041759228391032,
                -0.38541083270435206
            ]
        },
        {
            "positions": [
                -0.0261405927391134,
                -1.2150033108124008,
                1.8706267772559257,
                1.2062634998319577,
                -1.2029651746418968,
                -0.42740903539061914
            ]
        },
        {
            "positions": [
                0.060103638771456525,
                -1.2687190669881767,
                1.8897804047664049,
                1.1141100271512276,
                -1.1017544264446903,
                -0.4694072380768861
            ]
        },
        {
            "positions": [
                0.14634787028202634,
                -1.3224348231639529,
                1.9089340322768837,
                1.0219565544704974,
                -1.000543678247484,
                -0.5114054407631532
            ]
        },
        {
            "positions": [
                0.23259210179259626,
                -1.376150579339729,
                1.9280876597873626,
                0.9298030817897673,
                -0.8993329300502775,
                -0.5534036434494203
            ]
        },
        {
            "positions": [
                0.31883633330316596,
                -1.4298663355155052,
                1.9472412872978417,
                0.8376496091090373,
                -0.7981221818530713,
                -0.5954018461356871
            ]
        },
        {
            "positions": [
                0.405080564813736,
                -1.4835820916912814,
                1.9663949148083206,
                0.745496136428307,
                -0.6969114336558646,
                -0.6374000488219542
            ]
        },
        {
            "positions": [
                0.4913247963243058,
                -1.5372978478670576,
                1.9855485423187997,
                0.653342663747577,
                -0.5957006854586584,
                -0.6793982515082212
            ]
        },
        {
            "positions": [
                0.5775690278348758,
                -1.5910136040428338,
                2.0047021698292786,
                0.5611891910668467,
                -0.49448993726145196,
                -0.7213964541944883
            ]
        },
        {
            "positions": [
                0.6638132593454457,
                -1.64472936021861,
                2.0238557973397575,
                0.46903571838611646,
                -0.3932791890642455,
                -0.7633946568807554
            ]
        },
        {
            "positions": [
                0.7500574908560155,
                -1.6984451163943861,
                2.0430094248502364,
                0.37688224570538664,
                -0.2920684408670393,
                -0.8053928595670222
            ]
        },
        {
            "positions": [
                0.8363017223665855,
                -1.7521608725701623,
                2.0621630523607157,
                0.2847287730246564,
                -0.19085769266983266,
                -0.8473910622532893
            ]
        },
        {
            "positions": [
                0.9225459538771551,
                -1.8058766287459385,
                2.0813166798711946,
                0.19257530034392634,
                -0.08964694447262644,
                -0.8893892649395563
            ]
        },
        {
            "positions": [
                1.0087901853877252,
                -1.8595923849217146,
                2.1004703073816735,
                0.10042182766319598,
                0.011563803724579894,
                -0.9313874676258234
            ]
        },
        {
            "positions": [
                1.045139939156741,
                -1.8811963646628813,
                2.046660755218033,
                -0.008939733786917287,
                0.14204873444930727,
                -0.9554830116472549
            ]
        },
        {
            "positions": [
                1.0814896929257571,
                -1.902800344404048,
                1.992851203054393,
                -0.11830129523703055,
                0.27253366517403466,
                -0.9795785556686865
            ]
        },
        {
            "positions": [
                1.117839446694773,
                -1.9244043241452147,
                1.9390416508907529,
                -0.2276628566871438,
                0.40301859589876204,
                -1.0036740996901181
            ]
        },
        {
            "positions": [
                1.1541892004637888,
                -1.9460083038863814,
                1.8852320987271125,
                -0.3370244181372571,
                0.5335035266234894,
                -1.0277696437115496
            ]
        },
        {
            "positions": [
                1.110813770500859,
                -1.929161575965839,
                1.8323337640486372,
                -0.40925929349934226,
                0.6078609158454475,
                -1.0754004122465082
            ]
        },
        {
            "positions": [
                1.067438340537929,
                -1.9123148480452965,
                1.779435429370162,
                -0.4814941688614274,
                0.6822183050674058,
                -1.1230311807814666
            ]
        },
        {
            "positions": [
                1.024062910574999,
                -1.895468120124754,
                1.7265370946916865,
                -0.5537290442235125,
                0.7565756942893639,
                -1.170661949316425
            ]
        },
        {
            "positions": [
                0.9806874806120691,
                -1.8786213922042116,
                1.6736387600132112,
                -0.6259639195855977,
                0.830933083511322,
                -1.2182927178513836
            ]
        },
        {
            "positions": [
                0.877228026762307,
                -1.8319690742571184,
                1.635994504549048,
                -0.6468034467164382,
                0.8360347390898943,
                -1.275832324323929
            ]
        },
        {
            "positions": [
                0.773768572912545,
                -1.785316756310025,
                1.5983502490848849,
                -0.6676429738472788,
                0.8411363946684668,
                -1.3333719307964744
            ]
        },
        {
            "positions": [
                0.6703091190627829,
                -1.7386644383629317,
                1.5607059936207217,
                -0.6884825009781192,
                0.8462380502470391,
                -1.3909115372690197
            ]
        },
        {
            "positions": [
                0.5346330237446675,
                -1.691286254807896,
                1.59603279856392,
                -0.7013851133775448,
                0.818275827812967,
                -1.5234508842491883
            ]
        },
        {
            "positions": [
                0.39895692842655217,
                -1.6439080712528602,
                1.6313596035071183,
                -0.7142877257769704,
                0.790313605378895,
                -1.6559902312293566
            ]
        },
        {
            "positions": [
                0.26328083310843686,
                -1.5965298876978244,
                1.6666864084503166,
                -0.7271903381763959,
                0.7623513829448229,
                -1.7885295782095252
            ]
        },
        {
            "positions": [
                0.12760473779032144,
                -1.5491517041427887,
                1.7020132133935146,
                -0.7400929505758215,
                0.7343891605107509,
                -1.9210689251896937
            ]
        },
        {
            "positions": [
                -0.008071357527793865,
                -1.501773520587753,
                1.737340018336713,
                -0.7529955629752471,
                0.7064269380766788,
                -2.0536082721698623
            ]
        },
        {
            "positions": [
                -0.14374745284590917,
                -1.4543953370327172,
                1.7726668232799112,
                -0.7658981753746726,
                0.6784647156426067,
                -2.186147619150031
            ]
        },
        {
            "positions": [
                -0.2794235481640245,
                -1.4070171534776814,
                1.8079936282231095,
                -0.7788007877740981,
                0.6505024932085346,
                -2.3186869661301994
            ]
        },
        {
            "positions": [
                -0.41509964348214,
                -1.3596389699226454,
                1.8433204331663078,
                -0.7917034001735237,
                0.6225402707744625,
                -2.451226313110368
            ]
        },
        {
            "positions": [
                -0.5507757388002551,
                -1.3122607863676097,
                1.8786472381095058,
                -0.8046060125729493,
                0.5945780483403904,
                -2.5837656600905365
            ]
        },
        {
            "positions": [
                -0.6864518341183706,
                -1.264882602812574,
                1.9139740430527041,
                -0.8175086249723749,
                0.5666158259063183,
                -2.716305007070705
            ]
        },
        {
            "positions": [
                -0.8221279294364859,
                -1.2175044192575382,
                1.9493008479959024,
                -0.8304112373718004,
                0.5386536034722462,
                -2.848844354050873
            ]
        },
        {
            "positions": [
                -0.9578040247546012,
                -1.1701262357025024,
                1.9846276529391007,
                -0.8433138497712259,
                0.5106913810381741,
                -2.981383701031042
            ]
        },
        {
            "positions": [
                -1.0934801200727167,
                -1.1227480521474666,
                2.019954457882299,
                -0.8562164621706515,
                0.48272915860410215,
                -3.1139230480112103
            ]
        }
    ]
}