{
    "goal": {
        "global_pose": {
            "orientation": {
                "w": 0.7031023480610252,
                "x": -0.7110244013736278,
                "y": 0.0077485991402295624,
                "z": 0.005598929693374583
            },
            "position": {
                "x": -0.8841497679147869,
                "y": 0.44412534475326537,
                "z": 0.3711530566215515
            }
        },
        "name": "move_to_auspresseinheit_D"
    },
    "id": "BiEST_move_to_auspresseinheit_D_35",
    "joint_names": [
        "shoulder_pan_joint",
        "shoulder_lift_joint",
        "elbow_joint",
        "wrist_1_joint",
        "wrist_2_joint",
        "wrist_3_joint"
    ],
    "metrics": {
        "cart_traj_len": 0.34227002417536073,
        "distance_elbow_joint": 0.636841881244006,
        "distance_shoulder_lift_joint": 0.12101196083359778,
        "distance_shoulder_pan_joint": 0.13338699577666763,
        "distance_wrist_1_joint": 0.5318075824359276,
        "distance_wrist_2_joint": 1.43588754921503,
        "distance_wrist_3_joint": 0.004749568162547124,
        "smoothness": 0.0,
        "time": 0.07807736400000001,
        "traj_len": 1.6922427537642986,
        "weighted_distance": 2.2001999467420745
    },
    "planner": "BiEST",
    "start": {
        "state": {
            "elbow_joint": -1.8275523626775212,
            "shoulder_lift_joint": -2.126789852344167,
            "shoulder_pan_joint": -0.03513704404078235,
            "wrist_1_joint": -2.347782403156801,
            "wrist_2_joint": -1.6058999987535132,
            "wrist_3_joint": -3.0880379163319196
        }
    },
    "waypoints": [
        {
            "positions": [
                -0.03513704404078235,
                -2.126789852344167,
                -1.8275523626775212,
                -2.347782403156801,
                -1.6058999987535132,
                -3.0880379163319196
            ]
        },
        {
            "positions": [
                -0.0518104185128658,
                -2.1419163474483667,
                -1.7479471275220204,
                -2.414258350961292,
                -1.4264140551016344,
                -3.087444220311601
            ]
        },
        {
            "positions": [
                -0.06848379298494925,
                -2.157042842552566,
                -1.6683418923665196,
                -2.4807342987657828,
                -1.2469281114497557,
                -3.086850524291283
            ]
        },
        {
            "positions": [
                -0.08515716745703271,
                -2.172169337656766,
                -1.5887366572110189,
                -2.5472102465702737,
                -1.067442167797877,
                -3.0862568282709644
            ]
        },
        {
            "positions": [
                -0.10183054192911617,
                -2.1872958327609657,
                -1.509131422055518,
                -2.6136861943747647,
                -0.8879562241459982,
                -3.0856631322506463
            ]
        },
        {
            "positions": [
                -0.11850391640119962,
                -2.2024223278651656,
                -1.4295261869000173,
                -2.6801621421792556,
                -0.7084702804941194,
                -3.0850694362303277
            ]
        },
        {
            "positions": [
                -0.13517729087328306,
                -2.2175488229693654,
                -1.3499209517445168,
                -2.7466380899837466,
                -0.5289843368422407,
                -3.084475740210009
            ]
        },
        {
            "positions": [
                -0.15185066534536654,
                -2.232675318073565,
                -1.270315716589016,
                -2.8131140377882375,
                -0.3494983931903619,
                -3.083882044189691
            ]
        },
        {
            "positions": [
                -0.16852403981744998,
                -2.2478018131777646,
                -1.1907104814335152,
                -2.8795899855927285,
                -0.1700124495384831,
                -3.0832883481693725
            ]
        }
    ]
}