{
    "goal": {
        "global_pose": {
            "orientation": {
                "w": 0.005598929693374612,
                "x": 0.007748599140229565,
                "y": 0.7110244013736278,
                "z": -0.7031023480610252
            },
            "position": {
                "x": -0.8858502320852131,
                "y": -0.7141253447532654,
                "z": 0.3711530566215515
            }
        },
        "name": "move_to_auspresseinheit_C"
    },
    "id": "BiEST_move_to_auspresseinheit_C_74",
    "joint_names": [
        "shoulder_pan_joint",
        "shoulder_lift_joint",
        "elbow_joint",
        "wrist_1_joint",
        "wrist_2_joint",
        "wrist_3_joint"
    ],
    "metrics": {
        "cart_traj_len": 0.4920547162224808,
        "distance_elbow_joint": 0.9932943853932175,
        "distance_shoulder_lift_joint": 0.32219240121050086,
        "distance_shoulder_pan_joint": 0.2554767256244297,
        "distance_wrist_1_joint": 0.6619286330526906,
        "distance_wrist_2_joint": 1.316555999102917,
        "distance_wrist_3_joint": 0.037834974668029986,
        "smoothness": 1.6148698667872622e-16,
        "time": 0.067762722,
        "traj_len": 1.8940124389907753,
        "weighted_distance": 2.375171088688866
    },
    "planner": "BiEST",
    "start": {
        "state": {
            "elbow_joint": 1.7527959577737207,
            "shoulder_lift_joint": -0.9740617694225068,
            "shoulder_pan_joint": -2.967991417825858,
            "wrist_1_joint": -0.759517768980727,
            "wrist_2_joint": 1.7443932448377408,
            "wrist_3_joint": -3.0840537646736568
        }
    },
    "waypoints": [
        {
            "positions": [
                -2.967991417825858,
                -0.9740617694225068,
                1.7527959577737207,
                -0.759517768980727,
                1.7443932448377408,
                -3.0840537646736568
            ]
        },
        {
            "positions": [
                -2.942443745263415,
                -0.9418425293014567,
                1.653466519234399,
                -0.6933249056754579,
                1.612737644927449,
                -3.08783726214046
            ]
        },
        {
            "positions": [
                -2.916896072700972,
                -0.9096232891804066,
                1.5541370806950772,
                -0.6271320423701888,
                1.4810820450171573,
                -3.0916207596072627
            ]
        },
        {
            "positions": [
                -2.8913484001385292,
                -0.8774040490593565,
                1.4548076421557554,
                -0.5609391790649199,
                1.3494264451068658,
                -3.095404257074066
            ]
        },
        {
            "positions": [
                -2.865800727576086,
                -0.8451848089383064,
                1.3554782036164337,
                -0.4947463157596507,
                1.2177708451965739,
                -3.0991877545408686
            ]
        },
        {
            "positions": [
                -2.840253055013643,
                -0.8129655688172563,
                1.256148765077112,
                -0.4285534524543817,
                1.0861152452862823,
                -3.1029712520076718
            ]
        },
        {
            "positions": [
                -2.8147053824512,
                -0.7807463286962063,
                1.1568193265377902,
                -0.3623605891491127,
                0.9544596453759907,
                -3.106754749474475
            ]
        },
        {
            "positions": [
                -2.789157709888757,
                -0.7485270885751562,
                1.0574898879984684,
                -0.2961677258438436,
                0.822804045465699,
                -3.1105382469412777
            ]
        },
        {
            "positions": [
                -2.7636100373263144,
                -0.7163078484541061,
                0.9581604494591467,
                -0.22997486253857446,
                0.6911484455554071,
                -3.114321744408081
            ]
        },
        {
            "positions": [
                -2.7380623647638713,
                -0.684088608333056,
                0.8588310109198249,
                -0.1637819992333055,
                0.5594928456451156,
                -3.1181052418748836
            ]
        },
        {
            "positions": [
                -2.7125146922014283,
                -0.6518693682120059,
                0.7595015723805032,
                -0.09758913592803636,
                0.4278372457348238,
                -3.1218887393416868
            ]
        }
    ]
}