{
    "goal": {
        "global_pose": {
            "orientation": {
                "w": -0.00223480608172531,
                "x": 0.0024358444001904467,
                "y": 0.7094548369677653,
                "z": -0.704743149386269
            },
            "position": {
                "x": 0.6205249238014221,
                "y": -0.6371506643295288,
                "z": 0.19426114857196808
            }
        },
        "name": "move_to_magneteinheit_B"
    },
    "id": "BiEST_move_to_magneteinheit_B_25",
    "joint_names": [
        "shoulder_pan_joint",
        "shoulder_lift_joint",
        "elbow_joint",
        "wrist_1_joint",
        "wrist_2_joint",
        "wrist_3_joint"
    ],
    "metrics": {
        "cart_traj_len": 1.3969263330447845,
        "distance_elbow_joint": 0.9565801233496962,
        "distance_shoulder_lift_joint": 0.7561382280344797,
        "distance_shoulder_pan_joint": 1.7029986027391186,
        "distance_wrist_1_joint": 0.3907395760831256,
        "distance_wrist_2_joint": 1.7607465241604299,
        "distance_wrist_3_joint": 2.0397569322398974,
        "smoothness": 0.4350410327897004,
        "time": 0.131130325,
        "traj_len": 2.758071787790656,
        "weighted_distance": 3.719940853203193
    },
    "planner": "BiEST",
    "start": {
        "state": {
            "elbow_joint": 2.6216224122426386,
            "shoulder_lift_joint": -1.4174107377796124,
            "shoulder_pan_joint": 0.7066234856936794,
            "wrist_1_joint": 1.9546482284002225,
            "wrist_2_joint": -0.7096286983471962,
            "wrist_3_joint": 0.005740856962016249
        }
    },
    "waypoints": [
        {
            "positions": [
                0.7066234856936794,
                -1.4174107377796124,
                2.6216224122426386,
                1.9546482284002225,
                -0.7096286983471962,
                0.005740856962016249
            ]
        },
        {
            "positions": [
                0.5981409107747553,
                -1.4062309098399757,
                2.6151773923428125,
                1.9477813786110072,
                -0.65989251187706,
                -0.04269780569358147
            ]
        },
        {
            "positions": [
                0.4896583358558312,
                -1.395051081900339,
                2.6087323724429865,
                1.940914528821792,
                -0.6101563254069239,
                -0.09113646834917918
            ]
        },
        {
            "positions": [
                0.30682036129139245,
                -1.383849382834875,
                2.5718951219831165,
                1.9281580844277826,
                -0.607222853025888,
                -0.22277950318712453
            ]
        },
        {
            "positions": [
                0.12398238672695372,
                -1.3726476837694108,
                2.535057871523247,
                1.915401640033773,
                -0.604289380644852,
                -0.35442253802506984
            ]
        },
        {
            "positions": [
                -0.05885558783748501,
                -1.3614459847039468,
                2.498220621063377,
                1.9026451956397636,
                -0.6013559082638161,
                -0.4860655728630152
            ]
        },
        {
            "positions": [
                -0.24169356240192374,
                -1.3502442856384829,
                2.4613833706035075,
                1.8898887512457543,
                -0.5984224358827802,
                -0.6177086077009606
            ]
        },
        {
            "positions": [
                -0.4245315369663626,
                -1.339042586573019,
                2.4245461201436376,
                1.877132306851745,
                -0.5954889635017443,
                -0.749351642538906
            ]
        },
        {
            "positions": [
                -0.6073695115308012,
                -1.3278408875075547,
                2.387708869683768,
                1.8643758624577353,
                -0.5925554911207084,
                -0.8809946773768513
            ]
        },
        {
            "positions": [
                -0.7902074860952399,
                -1.3166391884420907,
                2.350871619223898,
                1.851619418063726,
                -0.5896220187396725,
                -1.0126377122147967
            ]
        },
        {
            "positions": [
                -0.7856746154772972,
                -1.265140588254078,
                2.290960529082041,
                1.8765292369150297,
                -0.7450285959056294,
                -0.9292842194515554
            ]
        },
        {
            "positions": [
                -0.7811417448593544,
                -1.2136419880660654,
                2.2310494389401834,
                1.9014390557663337,
                -0.9004351730715864,
                -0.845930726688314
            ]
        },
        {
            "positions": [
                -0.7766088742414117,
                -1.1621433878780527,
                2.1711383487983262,
                1.9263488746176374,
                -1.0558417502375432,
                -0.7625772339250728
            ]
        },
        {
            "positions": [
                -0.772076003623469,
                -1.11064478769004,
                2.111227258656469,
                1.951258693468941,
                -1.2112483274035002,
                -0.6792237411618315
            ]
        },
        {
            "positions": [
                -0.7675431330055261,
                -1.0591461875020274,
                2.0513161685146115,
                1.976168512320245,
                -1.3666549045694572,
                -0.5958702483985902
            ]
        },
        {
            "positions": [
                -0.7630102623875834,
                -1.007647587314015,
                1.9914050783727544,
                2.0010783311715485,
                -1.5220614817354141,
                -0.5125167556353489
            ]
        },
        {
            "positions": [
                -0.7584773917696407,
                -0.9561489871260023,
                1.931493988230897,
                2.0259881500228527,
                -1.677468058901371,
                -0.4291632628721075
            ]
        },
        {
            "positions": [
                -0.7539445211516979,
                -0.9046503869379896,
                1.8715828980890399,
                2.0508979688741564,
                -1.832874636067328,
                -0.34580977010886627
            ]
        },
        {
            "positions": [
                -0.7494116505337551,
                -0.8531517867499769,
                1.8116718079471825,
                2.07580778772546,
                -1.9882812132332852,
                -0.2624562773456249
            ]
        },
        {
            "positions": [
                -0.804535582329993,
                -0.7891920277483622,
                1.7627953015957691,
                2.0969819197537585,
                -2.0689747632530495,
                -0.17205730128098728
            ]
        },
        {
            "positions": [
                -0.8596595141262309,
                -0.7252322687467474,
                1.7139187952443558,
                2.118156051782057,
                -2.149668313272814,
                -0.08165832521634969
            ]
        },
        {
            "positions": [
                -0.9147834459224687,
                -0.6612725097451326,
                1.6650422888929424,
                2.139330183810355,
                -2.2303618632925786,
                0.008740650848287889
            ]
        }
    ]
}