{
    "goal": {
        "global_pose": {
            "orientation": {
                "w": 0.7031023480610252,
                "x": -0.7110244013736278,
                "y": 0.0077485991402295624,
                "z": 0.005598929693374583
            },
            "position": {
                "x": -0.8841497679147869,
                "y": 0.44412534475326537,
                "z": 0.3711530566215515
            }
        },
        "name": "move_to_auspresseinheit_D"
    },
    "id": "BiEST_move_to_auspresseinheit_D_137",
    "joint_names": [
        "shoulder_pan_joint",
        "shoulder_lift_joint",
        "elbow_joint",
        "wrist_1_joint",
        "wrist_2_joint",
        "wrist_3_joint"
    ],
    "metrics": {
        "cart_traj_len": 0.3426987923040612,
        "distance_elbow_joint": 0.6376443861812908,
        "distance_shoulder_lift_joint": 0.12159848001938034,
        "distance_shoulder_pan_joint": 0.1332252733309971,
        "distance_wrist_1_joint": 0.516670630418588,
        "distance_wrist_2_joint": 1.4500526486334406,
        "distance_wrist_3_joint": 0.00638004688628957,
        "smoothness": 7.894919286223335e-16,
        "time": 0.104042741,
        "traj_len": 1.6927998893755833,
        "weighted_distance": 2.2011485270863926
    },
    "planner": "BiEST",
    "start": {
        "state": {
            "elbow_joint": -1.8275523626775212,
            "shoulder_lift_joint": -2.126789852344167,
            "shoulder_pan_joint": -0.03513704404078235,
            "wrist_1_joint": -2.347782403156801,
            "wrist_2_joint": -1.6058999987535132,
            "wrist_3_joint": -3.0880379163319196
        }
    },
    "waypoints": [
        {
            "positions": [
                -0.03513704404078235,
                -2.126789852344167,
                -1.8275523626775212,
                -2.347782403156801,
                -1.6058999987535132,
                -3.0880379163319196
            ]
        },
        {
            "positions": [
                -0.051790203207156986,
                -2.1419896623465893,
                -1.7478468144048598,
                -2.4123662319591244,
                -1.424643417674333,
                -3.0888354221927057
            ]
        },
        {
            "positions": [
                -0.06844336237353163,
                -2.157189472349012,
                -1.6681412661321984,
                -2.476950060761448,
                -1.243386836595153,
                -3.0896329280534918
            ]
        },
        {
            "positions": [
                -0.08509652153990627,
                -2.1723892823514346,
                -1.5884357178595372,
                -2.5415338895637714,
                -1.062130255515973,
                -3.0904304339142783
            ]
        },
        {
            "positions": [
                -0.1017496807062809,
                -2.187589092353857,
                -1.5087301695868758,
                -2.606117718366095,
                -0.8808736744367929,
                -3.0912279397750644
            ]
        },
        {
            "positions": [
                -0.11840283987265554,
                -2.2027889023562794,
                -1.4290246213142144,
                -2.6707015471684183,
                -0.6996170933576128,
                -3.0920254456358505
            ]
        },
        {
            "positions": [
                -0.13505599903903018,
                -2.217988712358702,
                -1.3493190730415532,
                -2.735285375970742,
                -0.5183605122784327,
                -3.092822951496637
            ]
        },
        {
            "positions": [
                -0.15170915820540481,
                -2.2331885223611248,
                -1.2696135247688918,
                -2.7998692047730653,
                -0.33710393119925275,
                -3.093620457357423
            ]
        },
        {
            "positions": [
                -0.16836231737177945,
                -2.248388332363547,
                -1.1899079764962304,
                -2.864453033575389,
                -0.1558473501200726,
                -3.094417963218209
            ]
        }
    ]
}