{
    "goal": {
        "global_pose": {
            "orientation": {
                "w": 0.7031023502349854,
                "x": -0.7110244035720825,
                "y": 0.007748599164187908,
                "z": 0.005598929710686207
            },
            "position": {
                "x": 0.11585023208521307,
                "y": 0.44412534475326537,
                "z": 0.3711530566215515
            }
        },
        "name": "move_to_auspresseinheit_A"
    },
    "id": "BiEST_move_to_auspresseinheit_A_122",
    "joint_names": [
        "shoulder_pan_joint",
        "shoulder_lift_joint",
        "elbow_joint",
        "wrist_1_joint",
        "wrist_2_joint",
        "wrist_3_joint"
    ],
    "metrics": {
        "cart_traj_len": 1.2214345802005142,
        "distance_elbow_joint": 0.21870917693666625,
        "distance_shoulder_lift_joint": 0.7212567763784554,
        "distance_shoulder_pan_joint": 1.9467589425213827,
        "distance_wrist_1_joint": 0.5721592399229258,
        "distance_wrist_2_joint": 0.6994872342806451,
        "distance_wrist_3_joint": 0.2566777512923668,
        "smoothness": 1.135198120779936,
        "time": 0.061475811,
        "traj_len": 2.1012018278433993,
        "weighted_distance": 2.4899901803261684
    },
    "planner": "BiEST",
    "start": {
        "state": {
            "elbow_joint": 2.4225746658250005,
            "shoulder_lift_joint": -1.3736534386056498,
            "shoulder_pan_joint": -0.3378633547517467,
            "wrist_1_joint": -1.0288598680537169,
            "wrist_2_joint": 1.233022673432363,
            "wrist_3_joint": -3.0940220416140027
        }
    },
    "waypoints": [
        {
            "positions": [
                -0.3378633547517467,
                -1.3736534386056498,
                2.4225746658250005,
                -1.0288598680537169,
                1.233022673432363,
                -3.0940220416140027
            ]
        },
        {
            "positions": [
                -0.42798909938401125,
                -1.4994237432723936,
                2.397722747586238,
                -0.9572347808652795,
                1.2515370496280007,
                -3.0736719662771645
            ]
        },
        {
            "positions": [
                -0.5181148440162757,
                -1.6251940479391376,
                2.3728708293474754,
                -0.8856096936768421,
                1.2700514258236386,
                -3.0533218909403264
            ]
        },
        {
            "positions": [
                -0.6082405886485402,
                -1.7509643526058813,
                2.348018911108713,
                -0.8139846064884046,
                1.2885658020192763,
                -3.0329718156034877
            ]
        },
        {
            "positions": [
                -0.6983663332808048,
                -1.8767346572726251,
                2.3231669928699503,
                -0.7423595192999672,
                1.3070801782149142,
                -3.0126217402666495
            ]
        },
        {
            "positions": [
                -0.7884920779130693,
                -2.002504961939369,
                2.298315074631188,
                -0.6707344321115298,
                1.3255945544105519,
                -2.9922716649298113
            ]
        },
        {
            "positions": [
                -0.5747591894330608,
                -1.9893042115044068,
                2.3118078725944526,
                -0.6401581743999958,
                1.2388923610816296,
                -3.0144041470166933
            ]
        },
        {
            "positions": [
                -0.3610263009530522,
                -1.9761034610694446,
                2.3253006705577177,
                -0.6095819166884616,
                1.1521901677527073,
                -3.036536629103576
            ]
        },
        {
            "positions": [
                -0.14729341247304373,
                -1.9629027106344823,
                2.3387934685209824,
                -0.5790056589769275,
                1.0654879744237848,
                -3.058669111190458
            ]
        },
        {
            "positions": [
                0.06643947600696487,
                -1.9497019601995198,
                2.3522862664842474,
                -0.5484294012653934,
                0.9787857810948626,
                -3.0808015932773403
            ]
        },
        {
            "positions": [
                0.2801723644869736,
                -1.9365012097645575,
                2.365779064447512,
                -0.5178531435538594,
                0.8920835877659402,
                -3.1029340753642223
            ]
        },
        {
            "positions": [
                0.49390525296698184,
                -1.9233004593295953,
                2.379271862410777,
                -0.4872768858423252,
                0.805381394437018,
                -3.1250665574511047
            ]
        },
        {
            "positions": [
                0.7076381414469907,
                -1.910099708894633,
                2.392764660374042,
                -0.4567006281307911,
                0.7186792011080956,
                -3.1471990395379867
            ]
        }
    ]
}