{
    "goal": {
        "global_pose": {
            "orientation": {
                "w": -0.4816463035849501,
                "x": 0.5182115481033762,
                "y": 0.4908360881923453,
                "z": -0.5084816262002911
            },
            "position": {
                "x": -0.8240239810943604,
                "y": -0.300875300988555,
                "z": 0.16403168439865112
            }
        },
        "name": "move_to_storage_C"
    },
    "id": "BiEST_move_to_storage_C_146",
    "joint_names": [
        "shoulder_pan_joint",
        "shoulder_lift_joint",
        "elbow_joint",
        "wrist_1_joint",
        "wrist_2_joint",
        "wrist_3_joint"
    ],
    "metrics": {
        "cart_traj_len": 0.5772614483533449,
        "distance_elbow_joint": 0.2622185986902861,
        "distance_shoulder_lift_joint": 0.1911947183081405,
        "distance_shoulder_pan_joint": 0.49366320903072625,
        "distance_wrist_1_joint": 0.08983382290768782,
        "distance_wrist_2_joint": 1.0773280242490801,
        "distance_wrist_3_joint": 0.06448611746003996,
        "smoothness": 0.0,
        "time": 0.098691693,
        "traj_len": 1.4760503008522305,
        "weighted_distance": 1.8640972540945413
    },
    "planner": "BiEST",
    "start": {
        "state": {
            "elbow_joint": 2.010868314990456,
            "shoulder_lift_joint": -1.1634956873337592,
            "shoulder_pan_joint": -2.4736205022346125,
            "wrist_1_joint": -0.8367026794202681,
            "wrist_2_joint": 0.6746043897044499,
            "wrist_3_joint": -3.1496632123970403
        }
    },
    "waypoints": [
        {
            "positions": [
                -2.4736205022346125,
                -1.1634956873337592,
                2.010868314990456,
                -0.8367026794202681,
                0.6746043897044499,
                -3.1496632123970403
            ]
        },
        {
            "positions": [
                -2.5558977037397335,
                -1.1316299009490691,
                1.9671652152087415,
                -0.8217303756023201,
                0.8541590604126299,
                -3.1389155261537
            ]
        },
        {
            "positions": [
                -2.6381749052448544,
                -1.099764114564379,
                1.923462115427027,
                -0.8067580717843722,
                1.03371373112081,
                -3.1281678399103603
            ]
        },
        {
            "positions": [
                -2.720452106749976,
                -1.067898328179689,
                1.8797590156453128,
                -0.7917857679664242,
                1.2132684018289899,
                -3.1174201536670205
            ]
        },
        {
            "positions": [
                -2.802729308255097,
                -1.036032541794999,
                1.8360559158635985,
                -0.7768134641484762,
                1.39282307253717,
                -3.1066724674236803
            ]
        },
        {
            "positions": [
                -2.8850065097602178,
                -1.0041667554103086,
                1.792352816081884,
                -0.7618411603305283,
                1.57237774324535,
                -3.09592478118034
            ]
        },
        {
            "positions": [
                -2.9672837112653387,
                -0.9723009690256187,
                1.7486497163001697,
                -0.7468688565125803,
                1.75193241395353,
                -3.0851770949370003
            ]
        }
    ]
}