{
    "goal": {
        "global_pose": {
            "orientation": {
                "w": 0.005598929693374612,
                "x": 0.007748599140229565,
                "y": 0.7110244013736278,
                "z": -0.7031023480610252
            },
            "position": {
                "x": -0.8858502320852131,
                "y": -0.7141253447532654,
                "z": 0.3711530566215515
            }
        },
        "name": "move_to_auspresseinheit_C"
    },
    "id": "BiEST_move_to_auspresseinheit_C_83",
    "joint_names": [
        "shoulder_pan_joint",
        "shoulder_lift_joint",
        "elbow_joint",
        "wrist_1_joint",
        "wrist_2_joint",
        "wrist_3_joint"
    ],
    "metrics": {
        "cart_traj_len": 0.8924933217144306,
        "distance_elbow_joint": 0.9885416508360944,
        "distance_shoulder_lift_joint": 0.31938719514269887,
        "distance_shoulder_pan_joint": 0.25646909444188815,
        "distance_wrist_1_joint": 0.6536373505240465,
        "distance_wrist_2_joint": 1.3107516806870922,
        "distance_wrist_3_joint": 0.9490622579184325,
        "smoothness": 0.3566422723252412,
        "time": 0.10346641200000001,
        "traj_len": 2.1160929160956647,
        "weighted_distance": 2.887968624586884
    },
    "planner": "BiEST",
    "start": {
        "state": {
            "elbow_joint": 1.7527959577737207,
            "shoulder_lift_joint": -0.9740617694225068,
            "shoulder_pan_joint": -2.967991417825858,
            "wrist_1_joint": -0.759517768980727,
            "wrist_2_joint": 1.7443932448377408,
            "wrist_3_joint": -3.0840537646736568
        }
    },
    "waypoints": [
        {
            "positions": [
                -2.967991417825858,
                -0.9740617694225068,
                1.7527959577737207,
                -0.759517768980727,
                1.7443932448377408,
                -3.0840537646736568
            ]
        },
        {
            "positions": [
                -2.9416346496108865,
                -0.9716613610559449,
                1.654897012931383,
                -0.7018619974230726,
                1.6217757772617256,
                -3.033191250511249
            ]
        },
        {
            "positions": [
                -2.915277881395915,
                -0.9692609526893832,
                1.5569980680890452,
                -0.6442062258654184,
                1.4991583096857104,
                -2.9823287363488413
            ]
        },
        {
            "positions": [
                -2.888921113180943,
                -0.9668605443228213,
                1.4590991232467074,
                -0.5865504543077641,
                1.3765408421096952,
                -2.9314662221864336
            ]
        },
        {
            "positions": [
                -2.8625643449659717,
                -0.9644601359562596,
                1.3612001784043697,
                -0.5288946827501098,
                1.25392337453368,
                -2.880603708024026
            ]
        },
        {
            "positions": [
                -2.836207576751,
                -0.9620597275896977,
                1.263301233562032,
                -0.4712389111924554,
                1.1313059069576648,
                -2.8297411938616186
            ]
        },
        {
            "positions": [
                -2.8098508085360288,
                -0.959659319223136,
                1.1654022887196942,
                -0.41358313963480114,
                1.0086884393816495,
                -2.778878679699211
            ]
        },
        {
            "positions": [
                -2.783494040321057,
                -0.9572589108565741,
                1.0675033438773565,
                -0.3559273680771468,
                0.8860709718056341,
                -2.728016165536803
            ]
        },
        {
            "positions": [
                -2.7571372721060854,
                -0.9548585024900124,
                0.9696043990350187,
                -0.29827159651949253,
                0.763453504229619,
                -2.6771536513743954
            ]
        },
        {
            "positions": [
                -2.730780503891114,
                -0.9524580941234505,
                0.871705454192681,
                -0.2406158249618382,
                0.6408360366536037,
                -2.6262911372119877
            ]
        },
        {
            "positions": [
                -2.725965958764328,
                -0.8780122141625398,
                0.8448426673789173,
                -0.20693197333554875,
                0.5890374185278648,
                -2.7491160448261787
            ]
        },
        {
            "positions": [
                -2.721151413637542,
                -0.8035663342016293,
                0.8179798805651537,
                -0.1732481217092593,
                0.537238800402126,
                -2.8719409524403696
            ]
        },
        {
            "positions": [
                -2.716336868510756,
                -0.7291204542407186,
                0.7911170937513899,
                -0.13956427008296984,
                0.4854401822763873,
                -2.99476586005456
            ]
        },
        {
            "positions": [
                -2.71152232338397,
                -0.6546745742798079,
                0.7642543069376263,
                -0.10588041845668039,
                0.4336415641506485,
                -3.117590767668751
            ]
        }
    ]
}