{
    "goal": {
        "global_pose": {
            "orientation": {
                "w": -0.00223480608172531,
                "x": 0.0024358444001904467,
                "y": 0.7094548369677653,
                "z": -0.704743149386269
            },
            "position": {
                "x": 0.6205249238014221,
                "y": -0.6371506643295288,
                "z": 0.19426114857196808
            }
        },
        "name": "move_to_magneteinheit_B"
    },
    "id": "BiEST_move_to_magneteinheit_B_32",
    "joint_names": [
        "shoulder_pan_joint",
        "shoulder_lift_joint",
        "elbow_joint",
        "wrist_1_joint",
        "wrist_2_joint",
        "wrist_3_joint"
    ],
    "metrics": {
        "cart_traj_len": 1.4685876370985655,
        "distance_elbow_joint": 0.9546399498511127,
        "distance_shoulder_lift_joint": 0.7547303954964433,
        "distance_shoulder_pan_joint": 1.6229883410225259,
        "distance_wrist_1_joint": 0.4331089111959989,
        "distance_wrist_2_joint": 1.5149286453346857,
        "distance_wrist_3_joint": 0.5785049920038878,
        "smoothness": 0.2511508165996526,
        "time": 0.068260793,
        "traj_len": 2.4205167289041105,
        "weighted_distance": 2.993985433405298
    },
    "planner": "BiEST",
    "start": {
        "state": {
            "elbow_joint": 2.6216224122426386,
            "shoulder_lift_joint": -1.4174107377796124,
            "shoulder_pan_joint": 0.7066234856936794,
            "wrist_1_joint": 1.9546482284002225,
            "wrist_2_joint": -0.7096286983471962,
            "wrist_3_joint": 0.005740856962016249
        }
    },
    "waypoints": [
        {
            "positions": [
                0.7066234856936794,
                -1.4174107377796124,
                2.6216224122426386,
                1.9546482284002225,
                -0.7096286983471962,
                0.005740856962016249
            ]
        },
        {
            "positions": [
                0.6013296220463684,
                -1.4032367317885626,
                2.601228430015476,
                1.9138752439344031,
                -0.718549154981261,
                -0.0901500016124744
            ]
        },
        {
            "positions": [
                0.49603575839905756,
                -1.3890627257975126,
                2.580834447788313,
                1.8731022594685838,
                -0.7274696116153259,
                -0.18604086018696503
            ]
        },
        {
            "positions": [
                0.39074189475174664,
                -1.3748887198064628,
                2.5604404655611503,
                1.8323292750027644,
                -0.7363900682493907,
                -0.2819317187614557
            ]
        },
        {
            "positions": [
                0.29021601088727955,
                -1.320498682764203,
                2.4921699294735133,
                1.8554218106019493,
                -0.8498492877941032,
                -0.26097535075091155
            ]
        },
        {
            "positions": [
                0.1896901270228125,
                -1.2661086457219428,
                2.423899393385876,
                1.878514346201134,
                -0.9633085073388156,
                -0.24001898274036748
            ]
        },
        {
            "positions": [
                0.08916424315834537,
                -1.211718608679683,
                2.355628857298239,
                1.901606881800319,
                -1.076767726883528,
                -0.21906261472982336
            ]
        },
        {
            "positions": [
                -0.011361640706121667,
                -1.157328571637423,
                2.2873583212106015,
                1.9246994173995036,
                -1.1902269464282405,
                -0.19810624671927926
            ]
        },
        {
            "positions": [
                -0.11188752457058876,
                -1.1029385345951632,
                2.2190877851229645,
                1.9477919529986885,
                -1.303686165972953,
                -0.17714987870873516
            ]
        },
        {
            "positions": [
                -0.2124134084350559,
                -1.0485484975529031,
                2.150817249035327,
                1.9708844885978731,
                -1.4171453855176654,
                -0.15619351069819104
            ]
        },
        {
            "positions": [
                -0.31293929229952283,
                -0.9941584605106433,
                2.08254671294769,
                1.993977024197058,
                -1.5306046050623778,
                -0.13523714268764697
            ]
        },
        {
            "positions": [
                -0.41346517616399,
                -0.9397684234683834,
                2.0142761768600526,
                2.017069559796243,
                -1.6440638246070902,
                -0.11428077467710285
            ]
        },
        {
            "positions": [
                -0.513991060028457,
                -0.8853783864261235,
                1.9460056407724156,
                2.0401620953954276,
                -1.7575230441518028,
                -0.09332440666655875
            ]
        },
        {
            "positions": [
                -0.6145169438929241,
                -0.8309883493838635,
                1.8777351046847786,
                2.0632546309946123,
                -1.8709822636965152,
                -0.07236803865601463
            ]
        },
        {
            "positions": [
                -0.7150428277573913,
                -0.7765983123416036,
                1.809464568597141,
                2.0863471665937974,
                -1.9844414832412276,
                -0.05141167064547056
            ]
        },
        {
            "positions": [
                -0.8155687116218584,
                -0.7222082752993436,
                1.741194032509504,
                2.109439702192982,
                -2.09790070278594,
                -0.030455302634926407
            ]
        },
        {
            "positions": [
                -0.9160945954863253,
                -0.6678182382570838,
                1.6729234964218669,
                2.1325322377921667,
                -2.2113599223306526,
                -0.009498934624382355
            ]
        },
        {
            "positions": [
                -0.915824335643804,
                -0.6626803422831691,
                1.666982462391526,
                2.1431192328013053,
                -2.224557343681882,
                0.008900697518960402
            ]
        }
    ]
}