{
    "goal": {
        "global_pose": {
            "orientation": {
                "w": -0.4816463035849501,
                "x": 0.5182115481033762,
                "y": 0.4908360881923453,
                "z": -0.5084816262002911
            },
            "position": {
                "x": -0.8240239810943604,
                "y": 0.19912469901144506,
                "z": 0.16403168439865112
            }
        },
        "name": "move_to_storage_D"
    },
    "id": "BiEST_move_to_storage_D_37",
    "joint_names": [
        "shoulder_pan_joint",
        "shoulder_lift_joint",
        "elbow_joint",
        "wrist_1_joint",
        "wrist_2_joint",
        "wrist_3_joint"
    ],
    "metrics": {
        "cart_traj_len": 3.899750099292644,
        "distance_elbow_joint": 4.207586216321164,
        "distance_shoulder_lift_joint": 1.2660497478787738,
        "distance_shoulder_pan_joint": 2.8269232025373126,
        "distance_wrist_1_joint": 2.2771278926225955,
        "distance_wrist_2_joint": 0.9296300265653449,
        "distance_wrist_3_joint": 3.158438105856782,
        "smoothness": 0.196597352630627,
        "time": 0.09023756,
        "traj_len": 3.8295894286179,
        "weighted_distance": 4.918270968814495
    },
    "planner": "BiEST",
    "start": {
        "state": {
            "elbow_joint": -2.384821988534728,
            "shoulder_lift_joint": -2.2788054721415256,
            "shoulder_pan_joint": -0.1854694642142757,
            "wrist_1_joint": 1.4845938289331202,
            "wrist_2_joint": 0.17898776772866878,
            "wrist_3_joint": 0.037105688729662994
        }
    },
    "waypoints": [
        {
            "positions": [
                -0.1854694642142757,
                -2.2788054721415256,
                -2.384821988534728,
                1.4845938289331202,
                0.17898776772866878,
                0.037105688729662994
            ]
        },
        {
            "positions": [
                -0.14682409779413216,
                -2.253840976234292,
                -2.3708810444308526,
                1.4884289100928338,
                0.15507437566405996,
                0.04872475389951079
            ]
        },
        {
            "positions": [
                -0.06955166859427378,
                -2.220396105438506,
                -2.2626506123618957,
                1.4253575828462153,
                0.17823802885351642,
                -0.032777322562355084
            ]
        },
        {
            "positions": [
                0.007720760605584603,
                -2.1869512346427205,
                -2.154420180292939,
                1.3622862555995967,
                0.20140168204297287,
                -0.11427939902422096
            ]
        },
        {
            "positions": [
                0.08499318980544299,
                -2.153506363846935,
                -2.0461897482239815,
                1.2992149283529784,
                0.22456533523242933,
                -0.19578147548608685
            ]
        },
        {
            "positions": [
                0.16226561900530137,
                -2.120061493051149,
                -1.9379593161550246,
                1.2361436011063598,
                0.2477289884218858,
                -0.2772835519479527
            ]
        },
        {
            "positions": [
                0.2395380482051598,
                -2.086616622255363,
                -1.8297288840860677,
                1.1730722738597412,
                0.27089264161134224,
                -0.3587856284098186
            ]
        },
        {
            "positions": [
                0.3168104774050181,
                -2.0531717514595775,
                -1.7214984520171108,
                1.1100009466131229,
                0.2940562948007987,
                -0.44028770487168445
            ]
        },
        {
            "positions": [
                0.39408290660487655,
                -2.019726880663792,
                -1.6132680199481537,
                1.0469296193665043,
                0.31721994799025516,
                -0.5217897813335504
            ]
        },
        {
            "positions": [
                0.4713553358047349,
                -1.986282009868006,
                -1.5050375878791968,
                0.9838582921198857,
                0.3403836011797116,
                -0.6032918577954162
            ]
        },
        {
            "positions": [
                0.5486277650045933,
                -1.9528371390722203,
                -1.3968071558102397,
                0.9207869648732672,
                0.36354725436916807,
                -0.6847939342572821
            ]
        },
        {
            "positions": [
                0.6259001942044518,
                -1.9193922682764346,
                -1.2885767237412828,
                0.8577156376266486,
                0.38671090755862453,
                -0.766296010719148
            ]
        },
        {
            "positions": [
                0.7031726234043102,
                -1.8859473974806489,
                -1.1803462916723257,
                0.79464431038003,
                0.409874560748081,
                -0.8477980871810139
            ]
        },
        {
            "positions": [
                0.7804450526041684,
                -1.8525025266848631,
                -1.072115859603369,
                0.7315729831334117,
                0.43303821393753744,
                -0.9293001636428797
            ]
        },
        {
            "positions": [
                0.857717481804027,
                -1.8190576558890774,
                -0.963885427534412,
                0.6685016558867931,
                0.4562018671269939,
                -1.0108022401047456
            ]
        },
        {
            "positions": [
                0.9349899110038853,
                -1.7856127850932917,
                -0.8556549954654549,
                0.6054303286401745,
                0.47936552031645036,
                -1.0923043165666115
            ]
        },
        {
            "positions": [
                1.0122623402037436,
                -1.752167914297506,
                -0.747424563396498,
                0.542359001393556,
                0.5025291735059068,
                -1.1738063930284774
            ]
        },
        {
            "positions": [
                1.089534769403602,
                -1.7187230435017202,
                -0.6391941313275411,
                0.4792876741469376,
                0.5256928266953633,
                -1.2553084694903431
            ]
        },
        {
            "positions": [
                1.1668071986034605,
                -1.6852781727059345,
                -0.5309636992585842,
                0.41621634690031906,
                0.5488564798848197,
                -1.336810545952209
            ]
        },
        {
            "positions": [
                1.2440796278033188,
                -1.6518333019101488,
                -0.4227332671896271,
                0.3531450196537005,
                0.5720201330742762,
                -1.418312622414075
            ]
        },
        {
            "positions": [
                1.3213520570031771,
                -1.618388431114363,
                -0.31450283512067,
                0.2900736924070819,
                0.5951837862637326,
                -1.4998146988759409
            ]
        },
        {
            "positions": [
                1.3986244862030357,
                -1.5849435603185773,
                -0.20627240305171313,
                0.22700236516046335,
                0.6183474394531892,
                -1.5813167753378068
            ]
        },
        {
            "positions": [
                1.475896915402894,
                -1.5514986895227916,
                -0.09804197098275624,
                0.16393103791384478,
                0.6415110926426456,
                -1.6628188517996727
            ]
        },
        {
            "positions": [
                1.5531693446027526,
                -1.5180538187270058,
                0.010188461086201084,
                0.10085971066722621,
                0.6646747458321021,
                -1.7443209282615386
            ]
        },
        {
            "positions": [
                1.6304417738026107,
                -1.4846089479312203,
                0.11841889315515752,
                0.037788383420608085,
                0.6878383990215584,
                -1.8258230047234043
            ]
        },
        {
            "positions": [
                1.707714203002469,
                -1.4511640771354344,
                0.2266493252241144,
                -0.025282943826010484,
                0.711002052211015,
                -1.9073250811852702
            ]
        },
        {
            "positions": [
                1.7849866322023276,
                -1.4177192063396487,
                0.33487975729307173,
                -0.08835427107262905,
                0.7341657054004713,
                -1.988827157647136
            ]
        },
        {
            "positions": [
                1.8622590614021861,
                -1.384274335543863,
                0.4431101893620286,
                -0.15142559831924762,
                0.7573293585899279,
                -2.070329234109002
            ]
        },
        {
            "positions": [
                1.9395314906020442,
                -1.3508294647480772,
                0.5513406214309855,
                -0.2144969255658662,
                0.7804930117793842,
                -2.1518313105708677
            ]
        },
        {
            "positions": [
                2.016803919801903,
                -1.3173845939522915,
                0.6595710534999428,
                -0.27756825281248476,
                0.8036566649688408,
                -2.233333387032734
            ]
        },
        {
            "positions": [
                2.0940763490017615,
                -1.2839397231565057,
                0.7678014855688997,
                -0.34063958005910333,
                0.8268203181582972,
                -2.3148354634945996
            ]
        },
        {
            "positions": [
                2.1713487782016196,
                -1.25049485236072,
                0.8760319176378566,
                -0.4037109073057219,
                0.8499839713477537,
                -2.3963375399564657
            ]
        },
        {
            "positions": [
                2.248621207401478,
                -1.2170499815649343,
                0.9842623497068135,
                -0.46678223455234047,
                0.8731476245372101,
                -2.4778396164183314
            ]
        },
        {
            "positions": [
                2.3258936366013363,
                -1.1836051107691485,
                1.0924927817757704,
                -0.5298535617989586,
                0.8963112777266666,
                -2.559341692880197
            ]
        },
        {
            "positions": [
                2.403166065801195,
                -1.1501602399733628,
                1.2007232138447272,
                -0.5929248890455772,
                0.919474930916123,
                -2.640843769342063
            ]
        },
        {
            "positions": [
                2.4804384950010534,
                -1.116715369177577,
                1.3089536459136841,
                -0.6559962162921957,
                0.9426385841055795,
                -2.722345845803929
            ]
        },
        {
            "positions": [
                2.5577109242009115,
                -1.0832704983817913,
                1.4171840779826415,
                -0.7190675435388143,
                0.9658022372950359,
                -2.803847922265795
            ]
        },
        {
            "positions": [
                2.63498335340077,
                -1.0498256275860056,
                1.5254145100515983,
                -0.7821388707854331,
                0.9889658904844925,
                -2.8853499987276607
            ]
        },
        {
            "positions": [
                2.6317481609396367,
                -1.0312906759243787,
                1.6740893689190173,
                -0.7807763554931259,
                1.0248784503246442,
                -2.991722142757542
            ]
        },
        {
            "positions": [
                2.6285129684785034,
                -1.0127557242627518,
                1.8227642277864362,
                -0.7794138402008186,
                1.060791010164796,
                -3.0980942867874233
            ]
        }
    ]
}