{
    "goal": {
        "global_pose": {
            "orientation": {
                "w": 0.5084816217422485,
                "x": -0.49083608388900757,
                "y": 0.5182115435600281,
                "z": -0.4816462993621826
            },
            "position": {
                "x": 0.5540239810943604,
                "y": 0.030875300988554955,
                "z": 0.16403168439865112
            }
        },
        "name": "move_to_storage_A"
    },
    "id": "BiEST_move_to_storage_A_125",
    "joint_names": [
        "shoulder_pan_joint",
        "shoulder_lift_joint",
        "elbow_joint",
        "wrist_1_joint",
        "wrist_2_joint",
        "wrist_3_joint"
    ],
    "metrics": {
        "cart_traj_len": 0.35385873412411945,
        "distance_elbow_joint": 0.45114598402501316,
        "distance_shoulder_lift_joint": 0.23508967802743408,
        "distance_shoulder_pan_joint": 0.4642889268114016,
        "distance_wrist_1_joint": 0.24502161954522228,
        "distance_wrist_2_joint": 1.0941421611593125,
        "distance_wrist_3_joint": 0.10407484376714438,
        "smoothness": 1.3322676295501878e-15,
        "time": 0.062388218999999995,
        "traj_len": 1.6105164430503427,
        "weighted_distance": 2.034963557800078
    },
    "planner": "BiEST",
    "start": {
        "state": {
            "elbow_joint": 1.971548259319323,
            "shoulder_lift_joint": -1.1394851275133948,
            "shoulder_pan_joint": 0.1228115487234821,
            "wrist_1_joint": -0.7804723859257726,
            "wrist_2_joint": 0.12958671773740124,
            "wrist_3_joint": -3.192489227718131
        }
    },
    "waypoints": [
        {
            "positions": [
                0.1228115487234821,
                -1.1394851275133948,
                1.971548259319323,
                -0.7804723859257726,
                0.12958671773740124,
                -3.192489227718131
            ]
        },
        {
            "positions": [
                0.056484559178996155,
                -1.1730693672315997,
                2.0359976856086104,
                -0.8154754744322329,
                0.28589274076016014,
                -3.1776213928942534
            ]
        },
        {
            "positions": [
                -0.00984243036548979,
                -1.2066536069498046,
                2.100447111897898,
                -0.8504785629386933,
                0.4421987637829191,
                -3.1627535580703756
            ]
        },
        {
            "positions": [
                -0.07616941990997572,
                -1.2402378466680095,
                2.1648965381871856,
                -0.8854816514451536,
                0.598504786805678,
                -3.147885723246498
            ]
        },
        {
            "positions": [
                -0.14249640945446168,
                -1.2738220863862142,
                2.2293459644764733,
                -0.920484739951614,
                0.754810809828437,
                -3.13301788842262
            ]
        },
        {
            "positions": [
                -0.20882339899894764,
                -1.307406326104419,
                2.293795390765761,
                -0.9554878284580742,
                0.9111168328511959,
                -3.1181500535987423
            ]
        },
        {
            "positions": [
                -0.27515038854343354,
                -1.340990565822624,
                2.3582448170550485,
                -0.9904909169645346,
                1.0674228558739547,
                -3.1032822187748645
            ]
        },
        {
            "positions": [
                -0.3414773780879195,
                -1.374574805540829,
                2.422694243344336,
                -1.025494005470995,
                1.2237288788967138,
                -3.0884143839509868
            ]
        }
    ]
}{
    "goal": {
        "global_pose": {
            "orientation": {
                "w": 0.5084816217422485,
                "x": -0.49083608388900757,
                "y": 0.5182115435600281,
                "z": -0.4816462993621826
            },
            "position": {
                "x": 0.5540239810943604,
                "y": 0.030875300988554955,
                "z": 0.16403168439865112
            }
        },
        "name": "move_to_storage_A"
    },
    "id": "BiEST_move_to_storage_A_125",
    "joint_names": [
        "shoulder_pan_joint",
        "shoulder_lift_joint",
        "elbow_joint",
        "wrist_1_joint",
        "wrist_2_joint",
        "wrist_3_joint"
    ],
    "metrics": {
        "cart_traj_len": 0.3534703705938131,
        "distance_elbow_joint": 0.44887679181702556,
        "distance_shoulder_lift_joint": 0.23274964089813266,
        "distance_shoulder_pan_joint": 0.4588456563376239,
        "distance_wrist_1_joint": 0.23890522208491927,
        "distance_wrist_2_joint": 1.1133326243330577,
        "distance_wrist_3_joint": 0.08840300085175734,
        "smoothness": 2.2204460668324854e-16,
        "time": 0.082254785,
        "traj_len": 1.606584245012541,
        "weighted_distance": 2.0273521609340612
    },
    "planner": "BiEST",
    "start": {
        "state": {
            "elbow_joint": 1.97154746011099,
            "shoulder_lift_joint": -1.13948474672311,
            "shoulder_pan_joint": 0.12281154466712228,
            "wrist_1_joint": -0.7804688027058302,
            "wrist_2_joint": 0.12958655903071145,
            "wrist_3_joint": 3.0906928834467795
        }
    },
    "waypoints": [
        {
            "positions": [
                0.12281154466712228,
                -1.13948474672311,
                1.97154746011099,
                -0.7804688027058302,
                0.12958655903071145,
                3.0906928834467795
            ]
        },
        {
            "positions": [
                0.057262165190318876,
                -1.1727346954228433,
                2.035672716084851,
                -0.814598120146533,
                0.2886340767925768,
                3.103321883568459
            ]
        },
        {
            "positions": [
                -0.008287214286484532,
                -1.2059846441225763,
                2.0997979720587114,
                -0.8487274375872357,
                0.44768159455444223,
                3.1159508836901386
            ]
        },
        {
            "positions": [
                -0.07383659376328795,
                -1.2392345928223096,
                2.1639232280325724,
                -0.8828567550279385,
                0.6067291123163076,
                3.128579883811818
            ]
        },
        {
            "positions": [
                -0.13938597324009133,
                -1.272484541522043,
                2.228048484006433,
                -0.9169860724686412,
                0.765776630078173,
                3.141208883933498
            ]
        },
        {
            "positions": [
                -0.20493535271689478,
                -1.3057344902217762,
                2.292173739980294,
                -0.951115389909344,
                0.9248241478400384,
                3.1538378840551777
            ]
        },
        {
            "positions": [
                -0.2704847321936982,
                -1.3389844389215093,
                2.3562989959541545,
                -0.9852447073500467,
                1.0838716656019036,
                3.1664668841768573
            ]
        },
        {
            "positions": [
                -0.3360341116705016,
                -1.3722343876212426,
                2.4204242519280155,
                -1.0193740247907495,
                1.2429191833637692,
                3.179095884298537
            ]
        }
    ]
}{
    "goal": {
        "global_pose": {
            "orientation": {
                "w": 0.5084816217422485,
                "x": -0.49083608388900757,
                "y": 0.5182115435600281,
                "z": -0.4816462993621826
            },
            "position": {
                "x": 0.5540239810943604,
                "y": 0.030875300988554955,
                "z": 0.16403168439865112
            }
        },
        "name": "move_to_storage_A"
    },
    "id": "BiEST_move_to_storage_A_125",
    "joint_names": [
        "shoulder_pan_joint",
        "shoulder_lift_joint",
        "elbow_joint",
        "wrist_1_joint",
        "wrist_2_joint",
        "wrist_3_joint"
    ],
    "metrics": {
        "cart_traj_len": 0.35246244597496046,
        "distance_elbow_joint": 0.4528029664152293,
        "distance_shoulder_lift_joint": 0.23371156136620086,
        "distance_shoulder_pan_joint": 0.46184583368915033,
        "distance_wrist_1_joint": 0.25909511424335907,
        "distance_wrist_2_joint": 1.0931662936454496,
        "distance_wrist_3_joint": 0.1057618248869141,
        "smoothness": 2.2204460668324854e-16,
        "time": 0.056687759000000004,
        "traj_len": 1.61442980468223,
        "weighted_distance": 2.0420990798462597
    },
    "planner": "BiEST",
    "start": {
        "state": {
            "elbow_joint": 1.9715472970024885,
            "shoulder_lift_joint": -1.1394870060712896,
            "shoulder_pan_joint": 0.12281152778156021,
            "wrist_1_joint": -0.780463741449964,
            "wrist_2_joint": 0.12958659822042276,
            "wrist_3_joint": 3.090690232415272
        }
    },
    "waypoints": [
        {
            "positions": [
                0.12281152778156021,
                -1.1394870060712896,
                1.9715472970024885,
                -0.780463741449964,
                0.12958659822042276,
                3.090690232415272
            ]
        },
        {
            "positions": [
                0.05683355154025302,
                -1.1728743719807468,
                2.036233435061807,
                -0.8174773291990153,
                0.2857532115983441,
                3.1057990645419737
            ]
        },
        {
            "positions": [
                -0.009144424701054171,
                -1.206261737890204,
                2.1009195731211254,
                -0.8544909169480666,
                0.4419198249762655,
                3.120907896668676
            ]
        },
        {
            "positions": [
                -0.07512240094236136,
                -1.2396491037996613,
                2.165605711180444,
                -0.8915045046971178,
                0.5980864383541868,
                3.136016728795378
            ]
        },
        {
            "positions": [
                -0.14110037718366855,
                -1.2730364697091185,
                2.2302918492397623,
                -0.9285180924461691,
                0.7542530517321082,
                3.15112556092208
            ]
        },
        {
            "positions": [
                -0.20707835342497574,
                -1.306423835618576,
                2.294977987299081,
                -0.9655316801952205,
                0.9104196651100296,
                3.1662343930487817
            ]
        },
        {
            "positions": [
                -0.2730563296662829,
                -1.3398112015280332,
                2.359664125358399,
                -1.0025452679442717,
                1.066586278487951,
                3.181343225175484
            ]
        },
        {
            "positions": [
                -0.3390343059075901,
                -1.3731985674374905,
                2.424350263417718,
                -1.039558855693323,
                1.2227528918658723,
                3.196452057302186
            ]
        }
    ]
}