{
    "goal": {
        "global_pose": {
            "orientation": {
                "w": 0.5084816262002911,
                "x": -0.4908360881923452,
                "y": 0.5182115481033761,
                "z": -0.48164630358495003
            },
            "position": {
                "x": 0.5540239810943604,
                "y": -0.46912469901144505,
                "z": 0.16403168439865112
            }
        },
        "name": "move_to_storage_B"
    },
    "id": "BiEST_move_to_storage_B_33",
    "joint_names": [
        "shoulder_pan_joint",
        "shoulder_lift_joint",
        "elbow_joint",
        "wrist_1_joint",
        "wrist_2_joint",
        "wrist_3_joint"
    ],
    "metrics": {
        "cart_traj_len": 0.9017112315858199,
        "distance_elbow_joint": 0.5800723676622375,
        "distance_shoulder_lift_joint": 0.45723133302270913,
        "distance_shoulder_pan_joint": 0.6522123474466056,
        "distance_wrist_1_joint": 2.977454140743881,
        "distance_wrist_2_joint": 2.7015750764549202,
        "distance_wrist_3_joint": 3.1487840327986305,
        "smoothness": 0.12396259309627282,
        "time": 0.094637925,
        "traj_len": 3.243043215581467,
        "weighted_distance": 4.7427762524627965
    },
    "planner": "BiEST",
    "start": {
        "state": {
            "elbow_joint": 1.664937868594044,
            "shoulder_lift_joint": -0.661644460510453,
            "shoulder_pan_joint": -0.9139846352900073,
            "wrist_1_joint": 2.146753192139373,
            "wrist_2_joint": -2.2341966793290973,
            "wrist_3_joint": 0.005466555786416001
        }
    },
    "waypoints": [
        {
            "positions": [
                -0.9139846352900073,
                -0.661644460510453,
                1.664937868594044,
                2.146753192139373,
                -2.2341966793290973,
                0.005466555786416001
            ]
        },
        {
            "positions": [
                -0.8357863589253733,
                -0.7279518453423399,
                1.6262373913491892,
                2.119525555673675,
                -2.2221580185236443,
                -0.04500892178471344
            ]
        },
        {
            "positions": [
                -0.7575880825607395,
                -0.7942592301742268,
                1.5875369141043347,
                2.0922979192079767,
                -2.2101193577181912,
                -0.09548439935584288
            ]
        },
        {
            "positions": [
                -0.6793898061961056,
                -0.8605666150061139,
                1.54883643685948,
                2.0650702827422784,
                -2.198080696912738,
                -0.14595987692697232
            ]
        },
        {
            "positions": [
                -0.6960945069302137,
                -0.8708989821471957,
                1.5673952742965869,
                1.949239433488407,
                -2.091462333151196,
                -0.26585418093038204
            ]
        },
        {
            "positions": [
                -0.7127992076643219,
                -0.8812313492882777,
                1.585954111733694,
                1.8334085842345356,
                -1.9848439693896534,
                -0.3857484849337917
            ]
        },
        {
            "positions": [
                -0.72950390839843,
                -0.8915637164293596,
                1.6045129491708008,
                1.7175777349806642,
                -1.8782256056281108,
                -0.5056427889372014
            ]
        },
        {
            "positions": [
                -0.7462086091325382,
                -0.9018960835704416,
                1.6230717866079079,
                1.6017468857267927,
                -1.7716072418665685,
                -0.6255370929406111
            ]
        },
        {
            "positions": [
                -0.7629133098666463,
                -0.9122284507115235,
                1.6416306240450147,
                1.4859160364729211,
                -1.664988878105026,
                -0.7454313969440208
            ]
        },
        {
            "positions": [
                -0.7796180106007545,
                -0.9225608178526055,
                1.6601894614821218,
                1.3700851872190498,
                -1.5583705143434834,
                -0.8653257009474304
            ]
        },
        {
            "positions": [
                -0.7963227113348627,
                -0.9328931849936873,
                1.6787482989192286,
                1.2542543379651783,
                -1.451752150581941,
                -0.9852200049508403
            ]
        },
        {
            "positions": [
                -0.8130274120689708,
                -0.9432255521347693,
                1.6973071363563355,
                1.138423488711307,
                -1.3451337868203987,
                -1.10511430895425
            ]
        },
        {
            "positions": [
                -0.829732112803079,
                -0.9535579192758512,
                1.7158659737934425,
                1.0225926394574354,
                -1.2385154230588562,
                -1.2250086129576596
            ]
        },
        {
            "positions": [
                -0.8464368135371871,
                -0.9638902864169332,
                1.7344248112305496,
                0.9067617902035641,
                -1.1318970592973137,
                -1.3449029169610693
            ]
        },
        {
            "positions": [
                -0.8631415142712953,
                -0.9742226535580151,
                1.7529836486676564,
                0.7909309409496925,
                -1.0252786955357713,
                -1.464797220964479
            ]
        },
        {
            "positions": [
                -0.8798462150054034,
                -0.9845550206990971,
                1.7715424861047633,
                0.6751000916958212,
                -0.9186603317742288,
                -1.5846915249678886
            ]
        },
        {
            "positions": [
                -0.8965509157395116,
                -0.9948873878401789,
                1.7901013235418703,
                0.5592692424419496,
                -0.8120419680126865,
                -1.7045858289712985
            ]
        },
        {
            "positions": [
                -0.9132556164736197,
                -1.005219754981261,
                1.8086601609789772,
                0.4434383931880781,
                -0.7054236042511439,
                -1.8244801329747082
            ]
        },
        {
            "positions": [
                -0.9299603172077279,
                -1.015552122122343,
                1.8272189984160843,
                0.32760754393420677,
                -0.5988052404896016,
                -1.9443744369781177
            ]
        },
        {
            "positions": [
                -0.9466650179418361,
                -1.0258844892634247,
                1.845777835853191,
                0.21177669468033544,
                -0.49218687672805905,
                -2.0642687409815275
            ]
        },
        {
            "positions": [
                -0.9633697186759442,
                -1.0362168564045067,
                1.864336673290298,
                0.0959458454264639,
                -0.3855685129665165,
                -2.1841630449849374
            ]
        },
        {
            "positions": [
                -0.9800744194100524,
                -1.0465492235455887,
                1.882895510727405,
                -0.019885003827407655,
                -0.2789501492049742,
                -2.304057348988347
            ]
        },
        {
            "positions": [
                -0.9967791201441605,
                -1.0568815906866706,
                1.901454348164512,
                -0.13571585308127876,
                -0.17233178544343186,
                -2.4239516529917564
            ]
        },
        {
            "positions": [
                -1.0134838208782688,
                -1.0672139578277524,
                1.920013185601619,
                -0.2515467023351503,
                -0.0657134216818891,
                -2.5438459569951664
            ]
        },
        {
            "positions": [
                -1.0301885216123767,
                -1.0775463249688344,
                1.9385720230387258,
                -0.36737755158902186,
                0.04090494207965323,
                -2.663740260998576
            ]
        },
        {
            "positions": [
                -1.046893222346485,
                -1.0878786921099164,
                1.9571308604758328,
                -0.4832084008428934,
                0.14752330584119555,
                -2.783634565001986
            ]
        },
        {
            "positions": [
                -1.0635979230805932,
                -1.0982110592509984,
                1.9756896979129397,
                -0.599039250096765,
                0.2541416696027383,
                -2.9035288690053953
            ]
        },
        {
            "positions": [
                -1.0803026238147013,
                -1.1085434263920801,
                1.9942485353500468,
                -0.7148700993506361,
                0.36076003336428064,
                -3.023423173008805
            ]
        },
        {
            "positions": [
                -1.0970073245488094,
                -1.1188757935331621,
                2.0128073727871536,
                -0.8307009486045076,
                0.4673783971258228,
                -3.1433174770122148
            ]
        }
    ]
}