{
    "goal": {
        "global_pose": {
            "orientation": {
                "w": 0.7031023480610252,
                "x": -0.7110244013736278,
                "y": 0.0077485991402295624,
                "z": 0.005598929693374583
            },
            "position": {
                "x": -0.8841497679147869,
                "y": 0.44412534475326537,
                "z": 0.3711530566215515
            }
        },
        "name": "move_to_auspresseinheit_D"
    },
    "id": "BiEST_move_to_auspresseinheit_D_33",
    "joint_names": [
        "shoulder_pan_joint",
        "shoulder_lift_joint",
        "elbow_joint",
        "wrist_1_joint",
        "wrist_2_joint",
        "wrist_3_joint"
    ],
    "metrics": {
        "cart_traj_len": 0.34193613767635067,
        "distance_elbow_joint": 0.6275125816710057,
        "distance_shoulder_lift_joint": 0.1152496799434708,
        "distance_shoulder_pan_joint": 0.1332012969950084,
        "distance_wrist_1_joint": 0.5066282712642085,
        "distance_wrist_2_joint": 1.4333382189069588,
        "distance_wrist_3_joint": 0.01737262305626963,
        "smoothness": 1.3816108749606242e-15,
        "time": 0.038247802,
        "traj_len": 1.683241715214105,
        "weighted_distance": 2.1927184972359375
    },
    "planner": "BiEST",
    "start": {
        "state": {
            "elbow_joint": -1.8275523626775212,
            "shoulder_lift_joint": -2.126789852344167,
            "shoulder_pan_joint": -0.03513704404078235,
            "wrist_1_joint": -2.347782403156801,
            "wrist_2_joint": -1.6058999987535132,
            "wrist_3_joint": -3.0880379163319196
        }
    },
    "waypoints": [
        {
            "positions": [
                -0.03513704404078235,
                -2.126789852344167,
                -1.8275523626775212,
                -2.347782403156801,
                -1.6058999987535132,
                -3.0880379163319196
            ]
        },
        {
            "positions": [
                -0.0517872061651584,
                -2.1411960623371007,
                -1.7491132899686455,
                -2.411110937064827,
                -1.4267327213901433,
                -3.090209494213953
            ]
        },
        {
            "positions": [
                -0.06843736828953445,
                -2.1556022723300345,
                -1.6706742172597697,
                -2.474439470972853,
                -1.2475654440267734,
                -3.092381072095987
            ]
        },
        {
            "positions": [
                -0.08508753041391051,
                -2.1700084823229684,
                -1.592235144550894,
                -2.537768004880879,
                -1.0683981666634037,
                -3.094552649978021
            ]
        },
        {
            "positions": [
                -0.10173769253828654,
                -2.1844146923159022,
                -1.5137960718420183,
                -2.601096538788905,
                -0.8892308893000338,
                -3.0967242278600544
            ]
        },
        {
            "positions": [
                -0.1183878546626626,
                -2.198820902308836,
                -1.4353569991331425,
                -2.664425072696931,
                -0.7100636119366639,
                -3.098895805742088
            ]
        },
        {
            "positions": [
                -0.13503801678703867,
                -2.21322711230177,
                -1.356917926424267,
                -2.7277536066049572,
                -0.5308963345732942,
                -3.101067383624122
            ]
        },
        {
            "positions": [
                -0.1516881789114147,
                -2.227633322294704,
                -1.2784788537153913,
                -2.7910821405129833,
                -0.3517290572099243,
                -3.1032389615061557
            ]
        },
        {
            "positions": [
                -0.16833834103579076,
                -2.2420395322876376,
                -1.2000397810065155,
                -2.8544106744210094,
                -0.17256177984655435,
                -3.1054105393881892
            ]
        }
    ]
}