{
    "goal": {
        "global_pose": {
            "orientation": {
                "w": 0.7047431468963623,
                "x": -0.7094548344612122,
                "y": 0.0024358443915843964,
                "z": -0.0022348060738295317
            },
            "position": {
                "x": 0.6094750761985779,
                "y": 0.3671506643295288,
                "z": 0.19426114857196808
            }
        },
        "name": "move_to_magneteinheit_A"
    },
    "id": "BiEST_move_to_magneteinheit_A_29",
    "joint_names": [
        "shoulder_pan_joint",
        "shoulder_lift_joint",
        "elbow_joint",
        "wrist_1_joint",
        "wrist_2_joint",
        "wrist_3_joint"
    ],
    "metrics": {
        "cart_traj_len": 3.5153267426384374,
        "distance_elbow_joint": 3.9078104359195147,
        "distance_shoulder_lift_joint": 0.20085650607657168,
        "distance_shoulder_pan_joint": 3.732462251336114,
        "distance_wrist_1_joint": 3.5551613583775463,
        "distance_wrist_2_joint": 1.694049944586,
        "distance_wrist_3_joint": 3.5623512378480413,
        "smoothness": 0.23963119077109515,
        "time": 0.062367473,
        "traj_len": 4.080770973007894,
        "weighted_distance": 5.38763450066942
    },
    "planner": "BiEST",
    "start": {
        "state": {
            "elbow_joint": -1.9196185241190666,
            "shoulder_lift_joint": -1.2443396400964142,
            "shoulder_pan_joint": 2.6996025414629847,
            "wrist_1_joint": -1.5485510000780065,
            "wrist_2_joint": -1.5709468930060704,
            "wrist_3_joint": 0.4420197071253992
        }
    },
    "waypoints": [
        {
            "positions": [
                2.6996025414629847,
                -1.2443396400964142,
                -1.9196185241190666,
                -1.5485510000780065,
                -1.5709468930060704,
                0.4420197071253992
            ]
        },
        {
            "positions": [
                2.6010145674714367,
                -1.2459941846774134,
                -1.81115802443311,
                -1.482299392465813,
                -1.5189081886328395,
                0.38065230181096693
            ]
        },
        {
            "positions": [
                2.502426593479888,
                -1.2476487292584129,
                -1.7026975247471534,
                -1.4160477848536197,
                -1.4668694842596084,
                0.3192848964965347
            ]
        },
        {
            "positions": [
                2.40383861948834,
                -1.249303273839412,
                -1.5942370250611968,
                -1.3497961772414262,
                -1.4148307798863775,
                0.2579174911821025
            ]
        },
        {
            "positions": [
                2.305250645496792,
                -1.2509578184204113,
                -1.4857765253752402,
                -1.2835445696292327,
                -1.3627920755131466,
                0.19655008586767025
            ]
        },
        {
            "positions": [
                2.2066626715052435,
                -1.2526123630014108,
                -1.3773160256892836,
                -1.2172929620170392,
                -1.3107533711399157,
                0.135182680553238
            ]
        },
        {
            "positions": [
                2.1080746975136955,
                -1.25426690758241,
                -1.268855526003327,
                -1.1510413544048457,
                -1.2587146667666846,
                0.07381527523880582
            ]
        },
        {
            "positions": [
                2.009486723522147,
                -1.2559214521634092,
                -1.1603950263173703,
                -1.0847897467926524,
                -1.2066759623934538,
                0.012447869924373578
            ]
        },
        {
            "positions": [
                1.910898749530599,
                -1.2575759967444085,
                -1.0519345266314137,
                -1.0185381391804589,
                -1.1546372580202227,
                -0.048919535390058666
            ]
        },
        {
            "positions": [
                1.8123107755390506,
                -1.259230541325408,
                -0.9434740269454572,
                -0.9522865315682654,
                -1.1025985536469918,
                -0.11028694070449085
            ]
        },
        {
            "positions": [
                1.7137228015475023,
                -1.2608850859064071,
                -0.8350135272595007,
                -0.886034923956072,
                -1.050559849273761,
                -0.17165434601892315
            ]
        },
        {
            "positions": [
                1.6151348275559543,
                -1.2625396304874064,
                -0.7265530275735441,
                -0.8197833163438786,
                -0.9985211449005299,
                -0.23302175133335534
            ]
        },
        {
            "positions": [
                1.516546853564406,
                -1.2641941750684058,
                -0.6180925278875875,
                -0.7535317087316851,
                -0.9464824405272989,
                -0.29438915664778753
            ]
        },
        {
            "positions": [
                1.4179588795728577,
                -1.265848719649405,
                -0.5096320282016309,
                -0.6872801011194916,
                -0.894443736154068,
                -0.35575656196221983
            ]
        },
        {
            "positions": [
                1.3193709055813096,
                -1.2675032642304043,
                -0.4011715285156743,
                -0.6210284935072982,
                -0.842405031780837,
                -0.417123967276652
            ]
        },
        {
            "positions": [
                1.2207829315897614,
                -1.2691578088114037,
                -0.29271102882971767,
                -0.5547768858951048,
                -0.7903663274076062,
                -0.4784913725910843
            ]
        },
        {
            "positions": [
                1.122194957598213,
                -1.270812353392403,
                -0.18425052914376105,
                -0.48852527828291126,
                -0.7383276230343752,
                -0.5398587779055165
            ]
        },
        {
            "positions": [
                1.0236069836066648,
                -1.2724668979734022,
                -0.07579002945780444,
                -0.42227367067071775,
                -0.6862889186611442,
                -0.6012261832199487
            ]
        },
        {
            "positions": [
                0.9250190096151165,
                -1.2741214425544016,
                0.03267047022815217,
                -0.35602206305852424,
                -0.6342502142879133,
                -0.6625935885343809
            ]
        },
        {
            "positions": [
                0.8264310356235685,
                -1.2757759871354009,
                0.14113096991410856,
                -0.28977045544633095,
                -0.5822115099146823,
                -0.7239609938488133
            ]
        },
        {
            "positions": [
                0.7278430616320202,
                -1.2774305317164,
                0.24959146960006517,
                -0.22351884783413745,
                -0.5301728055414514,
                -0.7853283991632455
            ]
        },
        {
            "positions": [
                0.6292550876404719,
                -1.2790850762973995,
                0.3580519692860218,
                -0.15726724022194394,
                -0.4781341011682203,
                -0.8466958044776777
            ]
        },
        {
            "positions": [
                0.5306671136489238,
                -1.2807396208783988,
                0.4665124689719784,
                -0.09101563260975065,
                -0.4260953967949894,
                -0.9080632097921099
            ]
        },
        {
            "positions": [
                0.4320791396573753,
                -1.282394165459398,
                0.574972968657935,
                -0.024764024997557144,
                -0.37405669242175854,
                -0.969430615106542
            ]
        },
        {
            "positions": [
                0.33349116566582726,
                -1.2840487100403974,
                0.6834334683438916,
                0.041487582614636365,
                -0.32201798804852744,
                -1.0307980204209741
            ]
        },
        {
            "positions": [
                0.2349031916742792,
                -1.2857032546213967,
                0.7918939680298482,
                0.10773919022682987,
                -0.26997928367529656,
                -1.0921654257354065
            ]
        },
        {
            "positions": [
                0.1363152176827307,
                -1.287357799202396,
                0.9003544677158049,
                0.17399079783902338,
                -0.21794057930206567,
                -1.153532831049839
            ]
        },
        {
            "positions": [
                0.03772724369118263,
                -1.2890123437833951,
                1.0088149674017615,
                0.24024240545121667,
                -0.1659018749288348,
                -1.214900236364271
            ]
        },
        {
            "positions": [
                -0.06086073030036543,
                -1.2906668883643946,
                1.117275467087718,
                0.3064940130634102,
                -0.11386317055560369,
                -1.2762676416787033
            ]
        },
        {
            "positions": [
                -0.15944870429191393,
                -1.2923214329453938,
                1.2257359667736747,
                0.3727456206756037,
                -0.061824466182372806,
                -1.3376350469931353
            ]
        },
        {
            "positions": [
                -0.258036678283462,
                -1.293975977526393,
                1.3341964664596313,
                0.43899722828779697,
                -0.009785761809141924,
                -1.3990024523075677
            ]
        },
        {
            "positions": [
                -0.3566246522750105,
                -1.2956305221073925,
                1.442656966145588,
                0.5052488358999907,
                0.04225294256408918,
                -1.4603698576220001
            ]
        },
        {
            "positions": [
                -0.4552126262665584,
                -1.2972850666883917,
                1.5511174658315445,
                0.571500443512184,
                0.09429164693732008,
                -1.5217372629364323
            ]
        },
        {
            "positions": [
                -0.4026992550295974,
                -1.283838604917065,
                1.590851506374172,
                0.44103590580424257,
                0.09691086554119377,
                -1.6670640145533604
            ]
        },
        {
            "positions": [
                -0.3501858837926364,
                -1.2703921431457383,
                1.6305855469167996,
                0.3105713680963011,
                0.09953008414506745,
                -1.8123907661702887
            ]
        },
        {
            "positions": [
                -0.2976725125556754,
                -1.2569456813744115,
                1.670319587459427,
                0.18010683038835967,
                0.10214930274894114,
                -1.9577175177872168
            ]
        },
        {
            "positions": [
                -0.2451591413187144,
                -1.2434992196030847,
                1.7100536280020546,
                0.0496422926804182,
                0.10476852135281482,
                -2.103044269404145
            ]
        },
        {
            "positions": [
                -0.19264577008175343,
                -1.230052757831758,
                1.749787668544682,
                -0.08082224502752322,
                0.10738773995668852,
                -2.248371021021073
            ]
        },
        {
            "positions": [
                -0.14013239884479245,
                -1.2166062960604314,
                1.7895217090873097,
                -0.21128678273546464,
                0.1100069585605622,
                -2.393697772638001
            ]
        },
        {
            "positions": [
                -0.08761902760783147,
                -1.2031598342891046,
                1.829255749629937,
                -0.34175132044340606,
                0.11262617716443589,
                -2.5390245242549296
            ]
        },
        {
            "positions": [
                -0.03510565637087043,
                -1.1897133725177778,
                1.8689897901725647,
                -0.4722158581513476,
                0.11524539576830958,
                -2.6843512758718573
            ]
        },
        {
            "positions": [
                0.01740771486609055,
                -1.176266910746451,
                1.9087238307151921,
                -0.602680395859289,
                0.11786461437218326,
                -2.829678027488786
            ]
        },
        {
            "positions": [
                0.06992108610305153,
                -1.1628204489751244,
                1.9484578712578196,
                -0.7331449335672304,
                0.12048383297605694,
                -2.975004779105714
            ]
        },
        {
            "positions": [
                0.12243445734001249,
                -1.1493739872037976,
                1.9881919118004472,
                -0.8636094712751718,
                0.12310305157993064,
                -3.120331530722642
            ]
        }
    ]
}