{
    "goal": {
        "global_pose": {
            "orientation": {
                "w": -0.4816463035849501,
                "x": 0.5182115481033762,
                "y": 0.4908360881923453,
                "z": -0.5084816262002911
            },
            "position": {
                "x": -0.8240239810943604,
                "y": 0.19912469901144506,
                "z": 0.16403168439865112
            }
        },
        "name": "move_to_storage_D"
    },
    "id": "BiEST_move_to_storage_D_55",
    "joint_names": [
        "shoulder_pan_joint",
        "shoulder_lift_joint",
        "elbow_joint",
        "wrist_1_joint",
        "wrist_2_joint",
        "wrist_3_joint"
    ],
    "metrics": {
        "cart_traj_len": 0.9634856609081045,
        "distance_elbow_joint": 0.9308930259143948,
        "distance_shoulder_lift_joint": 0.23397003923138504,
        "distance_shoulder_pan_joint": 0.49931203905486043,
        "distance_wrist_1_joint": 3.824687654434609,
        "distance_wrist_2_joint": 1.8258153431383977,
        "distance_wrist_3_joint": 3.3855890085217486,
        "smoothness": 0.1673538152764004,
        "time": 0.100802878,
        "traj_len": 3.2711262755044164,
        "weighted_distance": 4.808528686085995
    },
    "planner": "BiEST",
    "start": {
        "state": {
            "elbow_joint": -2.384821988534728,
            "shoulder_lift_joint": -2.2788054721415256,
            "shoulder_pan_joint": -0.1854694642142757,
            "wrist_1_joint": 1.4845938289331202,
            "wrist_2_joint": 0.17898776772866878,
            "wrist_3_joint": 0.037105688729662994
        }
    },
    "waypoints": [
        {
            "positions": [
                -0.1854694642142757,
                -2.2788054721415256,
                -2.384821988534728,
                1.4845938289331202,
                0.17898776772866878,
                0.037105688729662994
            ]
        },
        {
            "positions": [
                -0.10408287812199282,
                -2.2303173645956917,
                -2.1992531506733477,
                1.4537830636960218,
                0.18532088931027701,
                0.0707642838645704
            ]
        },
        {
            "positions": [
                -0.022696292029709936,
                -2.181829257049858,
                -2.013684312811968,
                1.4229722984589235,
                0.19165401089188527,
                0.10442287899947782
            ]
        },
        {
            "positions": [
                0.05869029406257295,
                -2.133341149504024,
                -1.8281154749505877,
                1.3921615332218251,
                0.19798713247349353,
                0.13808147413438523
            ]
        },
        {
            "positions": [
                0.14007688015485587,
                -2.08485304195819,
                -1.6425466370892075,
                1.3613507679847268,
                0.20432025405510176,
                0.17174006926929264
            ]
        },
        {
            "positions": [
                0.13283664287628383,
                -2.086520442335192,
                -1.6504057068587439,
                1.207123909922801,
                0.1293001350212699,
                0.03628362643670435
            ]
        },
        {
            "positions": [
                0.12559640559771182,
                -2.0881878427121943,
                -1.6582647766282803,
                1.0528970518608753,
                0.054280015987438035,
                -0.09917281639588393
            ]
        },
        {
            "positions": [
                0.11835616831913978,
                -2.0898552430891963,
                -1.6661238463978167,
                0.8986701937989499,
                -0.020740103046393843,
                -0.23462925922847228
            ]
        },
        {
            "positions": [
                0.11111593104056774,
                -2.0915226434661984,
                -1.6739829161673532,
                0.7444433357370241,
                -0.0957602220802257,
                -0.3700857020610605
            ]
        },
        {
            "positions": [
                0.10387569376199572,
                -2.0931900438432005,
                -1.6818419859368896,
                0.5902164776750984,
                -0.17078034111405757,
                -0.5055421448936489
            ]
        },
        {
            "positions": [
                0.0966354564834237,
                -2.0948574442202026,
                -1.689701055706426,
                0.43598961961317284,
                -0.24580046014788945,
                -0.6409985877262372
            ]
        },
        {
            "positions": [
                0.08939521920485166,
                -2.0965248445972047,
                -1.6975601254759625,
                0.281762761551247,
                -0.32082057918172135,
                -0.7764550305588256
            ]
        },
        {
            "positions": [
                0.08215498192627964,
                -2.0981922449742068,
                -1.705419195245499,
                0.12753590348932153,
                -0.3958406982155531,
                -0.9119114733914137
            ]
        },
        {
            "positions": [
                0.0749147446477076,
                -2.099859645351209,
                -1.7132782650150353,
                -0.026690954572604175,
                -0.470860817249385,
                -1.047367916224002
            ]
        },
        {
            "positions": [
                0.06767450736913558,
                -2.101527045728211,
                -1.7211373347845718,
                -0.18091781263452988,
                -0.5458809362832169,
                -1.1828243590565903
            ]
        },
        {
            "positions": [
                0.060434270090563555,
                -2.103194446105213,
                -1.7289964045541082,
                -0.33514467069645537,
                -0.6209010553170488,
                -1.3182808018891787
            ]
        },
        {
            "positions": [
                0.05319403281199152,
                -2.1048618464822146,
                -1.7368554743236446,
                -0.4893715287583811,
                -0.6959211743508806,
                -1.4537372447217671
            ]
        },
        {
            "positions": [
                0.045953795533419495,
                -2.1065292468592167,
                -1.744714544093181,
                -0.6435983868203068,
                -0.7709412933847124,
                -1.589193687554355
            ]
        },
        {
            "positions": [
                0.03871355825484746,
                -2.108196647236219,
                -1.7525736138627175,
                -0.7978252448822327,
                -0.8459614124185445,
                -1.724650130386944
            ]
        },
        {
            "positions": [
                0.031473320976275435,
                -2.109864047613221,
                -1.760432683632254,
                -0.9520521029441582,
                -0.9209815314523763,
                -1.8601065732195319
            ]
        },
        {
            "positions": [
                0.02423308369770341,
                -2.111531447990223,
                -1.7682917534017903,
                -1.1062789610060837,
                -0.996001650486208,
                -1.9955630160521198
            ]
        },
        {
            "positions": [
                0.01699284641913136,
                -2.113198848367225,
                -1.7761508231713268,
                -1.2605058190680096,
                -1.0710217695200401,
                -2.1310194588847087
            ]
        },
        {
            "positions": [
                0.009752609140559337,
                -2.114866248744227,
                -1.7840098929408632,
                -1.4147326771299351,
                -1.146041888553872,
                -2.2664759017172966
            ]
        },
        {
            "positions": [
                0.002512371861987328,
                -2.116533649121229,
                -1.7918689627103996,
                -1.5689595351918606,
                -1.2210620075877037,
                -2.401932344549885
            ]
        },
        {
            "positions": [
                -0.004727865416584709,
                -2.1182010494982313,
                -1.799728032479936,
                -1.7231863932537865,
                -1.2960821266215357,
                -2.5373887873824734
            ]
        },
        {
            "positions": [
                -0.011968102695156746,
                -2.1198684498752334,
                -1.8075871022494725,
                -1.877413251315712,
                -1.3711022456553676,
                -2.672845230215062
            ]
        },
        {
            "positions": [
                -0.019208339973728755,
                -2.1215358502522355,
                -1.815446172019009,
                -2.0316401093776375,
                -1.4461223646891994,
                -2.8083016730476498
            ]
        },
        {
            "positions": [
                -0.02644857725230082,
                -2.1232032506292375,
                -1.8233052417885454,
                -2.1858669674395634,
                -1.5211424837230314,
                -2.943758115880238
            ]
        },
        {
            "positions": [
                -0.03368881453087283,
                -2.1248706510062396,
                -1.8311643115580818,
                -2.340093825501489,
                -1.5961626027568632,
                -3.0792145587128266
            ]
        }
    ]
}