{
    "goal": {
        "global_pose": {
            "orientation": {
                "w": 0.7031023502349854,
                "x": -0.7110244035720825,
                "y": 0.007748599164187908,
                "z": 0.005598929710686207
            },
            "position": {
                "x": 0.11585023208521307,
                "y": 0.44412534475326537,
                "z": 0.3711530566215515
            }
        },
        "name": "move_to_auspresseinheit_A"
    },
    "id": "BiEST_move_to_auspresseinheit_A_144",
    "joint_names": [
        "shoulder_pan_joint",
        "shoulder_lift_joint",
        "elbow_joint",
        "wrist_1_joint",
        "wrist_2_joint",
        "wrist_3_joint"
    ],
    "metrics": {
        "cart_traj_len": 1.922047558812165,
        "distance_elbow_joint": 2.784509337970495,
        "distance_shoulder_lift_joint": 0.6295321132111782,
        "distance_shoulder_pan_joint": 1.0610077413311607,
        "distance_wrist_1_joint": 2.7376372899472887,
        "distance_wrist_2_joint": 1.2462740304262576,
        "distance_wrist_3_joint": 3.76915186318953,
        "smoothness": 0.38523107876288953,
        "time": 0.175393254,
        "traj_len": 3.49687179863316,
        "weighted_distance": 4.873430765162107
    },
    "planner": "BiEST",
    "start": {
        "state": {
            "elbow_joint": 2.4225746658250005,
            "shoulder_lift_joint": -1.3736534386056498,
            "shoulder_pan_joint": -0.3378633547517467,
            "wrist_1_joint": -1.0288598680537169,
            "wrist_2_joint": 1.233022673432363,
            "wrist_3_joint": -3.0940220416140027
        }
    },
    "waypoints": [
        {
            "positions": [
                -0.3378633547517467,
                -1.3736534386056498,
                2.4225746658250005,
                -1.0288598680537169,
                1.233022673432363,
                -3.0940220416140027
            ]
        },
        {
            "positions": [
                -0.2918597011508709,
                -1.3955353580692373,
                2.3397038147528324,
                -0.9355438484545495,
                1.191760401554213,
                -2.9881818547288708
            ]
        },
        {
            "positions": [
                -0.24585604754999502,
                -1.417417277532825,
                2.2568329636806643,
                -0.8422278288553822,
                1.1504981296760628,
                -2.8823416678437384
            ]
        },
        {
            "positions": [
                -0.19985239394911916,
                -1.4392991969964126,
                2.173962112608496,
                -0.7489118092562147,
                1.1092358577979127,
                -2.7765014809586064
            ]
        },
        {
            "positions": [
                -0.1538487403482433,
                -1.4611811164600004,
                2.0910912615363277,
                -0.6555957896570473,
                1.0679735859197628,
                -2.6706612940734744
            ]
        },
        {
            "positions": [
                -0.10784508674736742,
                -1.483063035923588,
                2.0082204104641597,
                -0.5622797700578799,
                1.0267113140416124,
                -2.564821107188342
            ]
        },
        {
            "positions": [
                -0.0618414331464916,
                -1.5049449553871757,
                1.9253495593919914,
                -0.4689637504587125,
                0.9854490421634624,
                -2.45898092030321
            ]
        },
        {
            "positions": [
                -0.01583777954561577,
                -1.5268268748507632,
                1.8424787083198233,
                -0.3756477308595453,
                0.9441867702853124,
                -2.353140733418078
            ]
        },
        {
            "positions": [
                0.03016587405526011,
                -1.548708794314351,
                1.759607857247655,
                -0.2823317112603778,
                0.9029244984071623,
                -2.247300546532946
            ]
        },
        {
            "positions": [
                0.076169527656136,
                -1.5705907137779385,
                1.676737006175487,
                -0.18901569166121046,
                0.8616622265290121,
                -2.1414603596478137
            ]
        },
        {
            "positions": [
                0.12217318125701188,
                -1.5924726332415262,
                1.5938661551033186,
                -0.095699672062043,
                0.820399954650862,
                -2.0356201727626817
            ]
        },
        {
            "positions": [
                0.16817683485788776,
                -1.6143545527051137,
                1.5109953040311503,
                -0.0023836524628755296,
                0.7791376827727119,
                -1.9297799858775495
            ]
        },
        {
            "positions": [
                0.21418048845876353,
                -1.6362364721687015,
                1.4281244529589823,
                0.09093236713629183,
                0.7378754108945618,
                -1.8239397989924175
            ]
        },
        {
            "positions": [
                0.2601841420596394,
                -1.658118391632289,
                1.3452536018868142,
                0.18424838673545896,
                0.6966131390164118,
                -1.7180996121072856
            ]
        },
        {
            "positions": [
                0.3061877956605152,
                -1.6800003110958768,
                1.2623827508146461,
                0.2775644063346263,
                0.6553508671382617,
                -1.6122594252221534
            ]
        },
        {
            "positions": [
                0.35219144926139107,
                -1.7018822305594643,
                1.1795118997424778,
                0.3708804259337939,
                0.6140885952601116,
                -1.5064192383370212
            ]
        },
        {
            "positions": [
                0.39819510286226695,
                -1.7237641500230518,
                1.0966410486703098,
                0.46419644553296124,
                0.5728263233819615,
                -1.4005790514518892
            ]
        },
        {
            "positions": [
                0.4441987564631428,
                -1.7456460694866396,
                1.0137701975981415,
                0.5575124651321286,
                0.5315640515038114,
                -1.294738864566757
            ]
        },
        {
            "positions": [
                0.488539819332321,
                -1.7967149895429195,
                1.1957693317353357,
                0.5808650520634502,
                0.48362470542035174,
                -1.2754675403575761
            ]
        },
        {
            "positions": [
                0.5328808822014992,
                -1.8477839095991997,
                1.37776846587253,
                0.6042176389947718,
                0.4356853593368921,
                -1.256196216148395
            ]
        },
        {
            "positions": [
                0.5772219450706775,
                -1.8988528296554796,
                1.5597676000097245,
                0.6275702259260934,
                0.3877460132534325,
                -1.2369248919392142
            ]
        },
        {
            "positions": [
                0.612588498571415,
                -1.917283077119247,
                1.6795351804977068,
                0.593776312728728,
                0.37317783230827084,
                -1.333807917310556
            ]
        },
        {
            "positions": [
                0.6479550520721523,
                -1.9357133245830145,
                1.7993027609856889,
                0.5599823995313626,
                0.3586096513631092,
                -1.4306909426818974
            ]
        },
        {
            "positions": [
                0.6833216055728898,
                -1.954143572046782,
                1.9190703414736712,
                0.5261884863339973,
                0.3440414704179475,
                -1.5275739680532392
            ]
        },
        {
            "positions": [
                0.6908654746458978,
                -1.95151300296332,
                1.977203083856,
                0.42460858726483064,
                0.37885391326446255,
                -1.699177377056749
            ]
        },
        {
            "positions": [
                0.6984093437189056,
                -1.9488824338798585,
                2.0353358262383288,
                0.323028688195664,
                0.4136663561109776,
                -1.8707807860602588
            ]
        },
        {
            "positions": [
                0.7059532127919135,
                -1.9462518647963967,
                2.0934685686206578,
                0.2214487891264973,
                0.4484787989574926,
                -2.0423841950637684
            ]
        },
        {
            "positions": [
                0.7134970818649214,
                -1.9436212957129348,
                2.1516013110029863,
                0.11986889005733066,
                0.4832912418040076,
                -2.2139876040672783
            ]
        },
        {
            "positions": [
                0.7118891977458394,
                -1.937201345140235,
                2.191246937059452,
                0.024284580040878204,
                0.519631751141638,
                -2.3698196042983914
            ]
        },
        {
            "positions": [
                0.7102813136267573,
                -1.9307813945675352,
                2.230892563115917,
                -0.07129972997557425,
                0.5559722604792682,
                -2.525651604529504
            ]
        },
        {
            "positions": [
                0.7086734295076751,
                -1.9243614439948353,
                2.270538189172382,
                -0.16688403999202672,
                0.5923127698168984,
                -2.681483604760617
            ]
        },
        {
            "positions": [
                0.707065545388593,
                -1.9179414934221355,
                2.3101838152288474,
                -0.2624683500084792,
                0.6286532791545287,
                -2.83731560499173
            ]
        },
        {
            "positions": [
                0.7054576612695109,
                -1.9115215428494357,
                2.349829441285313,
                -0.35805266002493163,
                0.6649937884921591,
                -2.993147605222843
            ]
        },
        {
            "positions": [
                0.7038497771504288,
                -1.9051015922767358,
                2.389475067341778,
                -0.45363697004138404,
                0.7013342978297893,
                -3.148979605453956
            ]
        }
    ]
}