{
    "goal": {
        "global_pose": {
            "orientation": {
                "w": -0.00223480608172531,
                "x": 0.0024358444001904467,
                "y": 0.7094548369677653,
                "z": -0.704743149386269
            },
            "position": {
                "x": -0.37947507619857795,
                "y": -0.6371506643295288,
                "z": 0.19426114857196808
            }
        },
        "name": "move_to_magneteinheit_C"
    },
    "id": "BiEST_move_to_magneteinheit_C_61",
    "joint_names": [
        "shoulder_pan_joint",
        "shoulder_lift_joint",
        "elbow_joint",
        "wrist_1_joint",
        "wrist_2_joint",
        "wrist_3_joint"
    ],
    "metrics": {
        "cart_traj_len": 2.552781372527507,
        "distance_elbow_joint": 1.7250712113044715,
        "distance_shoulder_lift_joint": 1.240415871119169,
        "distance_shoulder_pan_joint": 4.086509699560141,
        "distance_wrist_1_joint": 4.598979622374893,
        "distance_wrist_2_joint": 5.707314603408568,
        "distance_wrist_3_joint": 0.24925808253551018,
        "smoothness": 0.7278283984809198,
        "time": 0.180620579,
        "traj_len": 4.19613501812117,
        "weighted_distance": 5.330324519309984
    },
    "planner": "BiEST",
    "start": {
        "state": {
            "elbow_joint": 1.9565354010623817,
            "shoulder_lift_joint": -1.4165861575791021,
            "shoulder_pan_joint": -1.6717766225146293,
            "wrist_1_joint": -0.5286633292919765,
            "wrist_2_joint": 1.472756589071564,
            "wrist_3_joint": -3.1238370188695823
        }
    },
    "waypoints": [
        {
            "positions": [
                -1.6717766225146293,
                -1.4165861575791021,
                1.9565354010623817,
                -0.5286633292919765,
                1.472756589071564,
                -3.1238370188695823
            ]
        },
        {
            "positions": [
                -1.5971588388730797,
                -1.4390056007390413,
                1.9968674881001964,
                -0.4307020884731053,
                1.3246981679468401,
                -3.130160137715915
            ]
        },
        {
            "positions": [
                -1.5225410552315302,
                -1.4614250438989806,
                2.037199575138011,
                -0.3327408476542342,
                1.1766397468221161,
                -3.1364832565622485
            ]
        },
        {
            "positions": [
                -1.4479232715899806,
                -1.4838444870589198,
                2.077531662175826,
                -0.23477960683536309,
                1.0285813256973924,
                -3.1428063754085813
            ]
        },
        {
            "positions": [
                -1.373305487948431,
                -1.506263930218859,
                2.117863749213641,
                -0.13681836601649194,
                0.8805229045726685,
                -3.1491294942549146
            ]
        },
        {
            "positions": [
                -1.2986877043068814,
                -1.5286833733787983,
                2.1581958362514557,
                -0.0388571251976208,
                0.7324644834479447,
                -3.1554526131012475
            ]
        },
        {
            "positions": [
                -1.2240699206653318,
                -1.5511028165387375,
                2.1985279232892707,
                0.059104115621250286,
                0.5844060623232208,
                -3.1617757319475803
            ]
        },
        {
            "positions": [
                -1.1494521370237822,
                -1.5735222596986767,
                2.2388600103270857,
                0.15706535644012143,
                0.436347641198497,
                -3.1680988507939136
            ]
        },
        {
            "positions": [
                -1.0748343533822324,
                -1.595941702858616,
                2.2791920973649002,
                0.25502659725899257,
                0.288289220073773,
                -3.1744219696402465
            ]
        },
        {
            "positions": [
                -1.000216569740683,
                -1.6183611460185552,
                2.3195241844027152,
                0.3529878380778638,
                0.140230798949049,
                -3.1807450884865798
            ]
        },
        {
            "positions": [
                -0.9255987860991334,
                -1.6407805891784943,
                2.3598562714405302,
                0.45094907889673486,
                -0.007827622175674565,
                -3.1870682073329126
            ]
        },
        {
            "positions": [
                -0.8509810024575838,
                -1.6632000323384335,
                2.4001883584783448,
                0.548910319715606,
                -0.15588604330039857,
                -3.1933913261792455
            ]
        },
        {
            "positions": [
                -0.7763632188160343,
                -1.6856194754983729,
                2.4405204455161598,
                0.646871560534477,
                -0.30394446442512235,
                -3.199714445025579
            ]
        },
        {
            "positions": [
                -0.7017454351744845,
                -1.708038918658312,
                2.4808525325539748,
                0.7448328013533483,
                -0.45200288554984636,
                -3.2060375638719116
            ]
        },
        {
            "positions": [
                -0.6271276515329349,
                -1.7304583618182514,
                2.5211846195917893,
                0.8427940421722193,
                -0.6000613066745699,
                -3.212360682718245
            ]
        },
        {
            "positions": [
                -0.5525098678913856,
                -1.7528778049781906,
                2.5615167066296043,
                0.9407552829910903,
                -0.7481197277992937,
                -3.218683801564578
            ]
        },
        {
            "positions": [
                -0.47789208424983576,
                -1.7752972481381297,
                2.6018487936674193,
                1.0387165238099616,
                -0.8961781489240179,
                -3.225006920410911
            ]
        },
        {
            "positions": [
                -0.4032743006082862,
                -1.7977166912980689,
                2.642180880705234,
                1.1366777646288329,
                -1.0442365700487417,
                -3.231330039257244
            ]
        },
        {
            "positions": [
                -0.3286565169667366,
                -1.8201361344580083,
                2.682512967743049,
                1.234639005447704,
                -1.192294991173466,
                -3.237653158103577
            ]
        },
        {
            "positions": [
                -0.254038733325187,
                -1.8425555776179474,
                2.722845054780864,
                1.3326002462665751,
                -1.3403534122981897,
                -3.24397627694991
            ]
        },
        {
            "positions": [
                -0.17942094968363742,
                -1.8649750207778866,
                2.7631771418186784,
                1.4305614870854462,
                -1.488411833422913,
                -3.250299395796243
            ]
        },
        {
            "positions": [
                -0.10480316604208784,
                -1.887394463937826,
                2.803509228856494,
                1.5285227279043172,
                -1.6364702545476373,
                -3.2566225146425762
            ]
        },
        {
            "positions": [
                -0.030185382400538252,
                -1.909813907097765,
                2.8438413158943083,
                1.6264839687231887,
                -1.7845286756723613,
                -3.262945633488909
            ]
        },
        {
            "positions": [
                -0.13648618498514908,
                -1.8773274670281779,
                2.8074167377868062,
                1.5202303894032003,
                -1.6780056609478118,
                -3.2581565261882055
            ]
        },
        {
            "positions": [
                -0.24278698756975992,
                -1.8448410269585906,
                2.7709921596793046,
                1.4139768100832122,
                -1.5714826462232625,
                -3.253367418887502
            ]
        },
        {
            "positions": [
                -0.34908779015437075,
                -1.8123545868890034,
                2.7345675815718025,
                1.3077232307632238,
                -1.464959631498713,
                -3.2485783115867983
            ]
        },
        {
            "positions": [
                -0.4553885927389816,
                -1.7798681468194162,
                2.6981430034643004,
                1.2014696514432355,
                -1.3584366167741635,
                -3.2437892042860947
            ]
        },
        {
            "positions": [
                -0.5616893953235924,
                -1.747381706749829,
                2.6617184253567987,
                1.0952160721232471,
                -1.251913602049614,
                -3.239000096985391
            ]
        },
        {
            "positions": [
                -0.6679901979082032,
                -1.7148952666802417,
                2.6252938472492966,
                0.988962492803259,
                -1.1453905873250645,
                -3.234210989684687
            ]
        },
        {
            "positions": [
                -0.7742910004928141,
                -1.6824088266106545,
                2.5888692691417945,
                0.8827089134832706,
                -1.0388675726005152,
                -3.2294218823839835
            ]
        },
        {
            "positions": [
                -0.8805918030774249,
                -1.6499223865410673,
                2.552444691034293,
                0.7764553341632824,
                -0.9323445578759657,
                -3.22463277508328
            ]
        },
        {
            "positions": [
                -0.9868926056620357,
                -1.61743594647148,
                2.5160201129267907,
                0.670201754843294,
                -0.8258215431514162,
                -3.2198436677825764
            ]
        },
        {
            "positions": [
                -1.0931934082466466,
                -1.5849495064018928,
                2.479595534819289,
                0.5639481755233058,
                -0.7192985284268667,
                -3.2150545604818728
            ]
        },
        {
            "positions": [
                -1.1994942108312574,
                -1.5524630663323058,
                2.443170956711787,
                0.4576945962033174,
                -0.6127755137023172,
                -3.210265453181169
            ]
        },
        {
            "positions": [
                -1.3057950134158682,
                -1.5199766262627183,
                2.406746378604285,
                0.3514410168833293,
                -0.5062524989777679,
                -3.2054763458804656
            ]
        },
        {
            "positions": [
                -1.412095816000479,
                -1.4874901861931313,
                2.370321800496783,
                0.24518743756334094,
                -0.3997294842532184,
                -3.200687238579762
            ]
        },
        {
            "positions": [
                -1.51839661858509,
                -1.4550037461235439,
                2.333897222389281,
                0.13893385824335258,
                -0.2932064695286689,
                -3.1958981312790584
            ]
        },
        {
            "positions": [
                -1.6246974211697007,
                -1.4225173060539569,
                2.297472644281779,
                0.032680278923364225,
                -0.1866834548041194,
                -3.191109023978355
            ]
        },
        {
            "positions": [
                -1.7309982237543116,
                -1.3900308659843696,
                2.2610480661742773,
                -0.07357330039662391,
                -0.08016044007957013,
                -3.1863199166776512
            ]
        },
        {
            "positions": [
                -1.8372990263389222,
                -1.3575444259147824,
                2.2246234880667752,
                -0.17982687971661204,
                0.026362574644979375,
                -3.1815308093769477
            ]
        },
        {
            "positions": [
                -1.9435998289235332,
                -1.325057985845195,
                2.188198909959273,
                -0.2860804590366006,
                0.13288558936952888,
                -3.1767417020762436
            ]
        },
        {
            "positions": [
                -2.049900631508144,
                -1.292571545775608,
                2.1517743318517715,
                -0.392334038356589,
                0.23940860409407816,
                -3.17195259477554
            ]
        },
        {
            "positions": [
                -2.156201434092755,
                -1.2600851057060207,
                2.1153497537442694,
                -0.4985876176765771,
                0.3459316188186279,
                -3.1671634874748364
            ]
        },
        {
            "positions": [
                -2.2625022366773657,
                -1.2275986656364335,
                2.0789251756367673,
                -0.6048411969965652,
                0.45245463354317716,
                -3.162374380174133
            ]
        },
        {
            "positions": [
                -2.3688030392619766,
                -1.1951122255668463,
                2.0425005975292656,
                -0.7110947763165538,
                0.5589776482677269,
                -3.1575852728734293
            ]
        },
        {
            "positions": [
                -2.4751038418465874,
                -1.162625785497259,
                2.0060760194217635,
                -0.8173483556365421,
                0.6655006629922762,
                -3.1527961655727257
            ]
        }
    ]
}