{
    "goal": {
        "global_pose": {
            "orientation": {
                "w": 0.005598929693374612,
                "x": 0.007748599140229565,
                "y": 0.7110244013736278,
                "z": -0.7031023480610252
            },
            "position": {
                "x": 0.1141497679147869,
                "y": -0.7141253447532654,
                "z": 0.3711530566215515
            }
        },
        "name": "move_to_auspresseinheit_B"
    },
    "id": "BiEST_move_to_auspresseinheit_B_87",
    "joint_names": [
        "shoulder_pan_joint",
        "shoulder_lift_joint",
        "elbow_joint",
        "wrist_1_joint",
        "wrist_2_joint",
        "wrist_3_joint"
    ],
    "metrics": {
        "cart_traj_len": 0.5650703191966735,
        "distance_elbow_joint": 0.06299557681284162,
        "distance_shoulder_lift_joint": 0.2938709233872785,
        "distance_shoulder_pan_joint": 0.5782848635887625,
        "distance_wrist_1_joint": 0.3237908137793586,
        "distance_wrist_2_joint": 0.9867957526314499,
        "distance_wrist_3_joint": 0.009694236099429432,
        "smoothness": 0.0,
        "time": 0.050978629,
        "traj_len": 1.5018096305121769,
        "weighted_distance": 1.893517151997517
    },
    "planner": "BiEST",
    "start": {
        "state": {
            "elbow_joint": 2.0193083361928714,
            "shoulder_lift_joint": -1.1220246554650708,
            "shoulder_pan_joint": -1.0952077554168747,
            "wrist_1_joint": -0.8559753972642168,
            "wrist_2_joint": 0.4759566250798843,
            "wrist_3_joint": -3.1240929996934557
        }
    },
    "waypoints": [
        {
            "positions": [
                -1.0952077554168747,
                -1.1220246554650708,
                2.0193083361928714,
                -0.8559753972642168,
                0.4759566250798843,
                -3.1240929996934557
            ]
        },
        {
            "positions": [
                -1.1915885660150018,
                -1.171003142696284,
                2.008809073390731,
                -0.8020102616343237,
                0.6404225838517926,
                -3.122477293676884
            ]
        },
        {
            "positions": [
                -1.2879693766131288,
                -1.219981629927497,
                1.9983098105885908,
                -0.7480451260044306,
                0.8048885426237009,
                -3.1208615876603125
            ]
        },
        {
            "positions": [
                -1.3843501872112558,
                -1.2689601171587102,
                1.9878105477864505,
                -0.6940799903745375,
                0.9693545013956093,
                -3.119245881643741
            ]
        },
        {
            "positions": [
                -1.480730997809383,
                -1.317938604389923,
                1.9773112849843104,
                -0.6401148547446445,
                1.1338204601675175,
                -3.1176301756271694
            ]
        },
        {
            "positions": [
                -1.5771118084075102,
                -1.3669170916211362,
                1.96681202218217,
                -0.5861497191147513,
                1.2982864189394259,
                -3.116014469610598
            ]
        },
        {
            "positions": [
                -1.6734926190056372,
                -1.4158955788523493,
                1.9563127593800298,
                -0.5321845834848582,
                1.4627523777113343,
                -3.1143987635940262
            ]
        }
    ]
}