{
    "goal": {
        "global_pose": {
            "orientation": {
                "w": -0.00223480608172531,
                "x": 0.0024358444001904467,
                "y": 0.7094548369677653,
                "z": -0.704743149386269
            },
            "position": {
                "x": 0.6205249238014221,
                "y": -0.6371506643295288,
                "z": 0.19426114857196808
            }
        },
        "name": "move_to_magneteinheit_B"
    },
    "id": "BiEST_move_to_magneteinheit_B_113",
    "joint_names": [
        "shoulder_pan_joint",
        "shoulder_lift_joint",
        "elbow_joint",
        "wrist_1_joint",
        "wrist_2_joint",
        "wrist_3_joint"
    ],
    "metrics": {
        "cart_traj_len": 1.8379914505604524,
        "distance_elbow_joint": 0.9568312315057528,
        "distance_shoulder_lift_joint": 1.2900342594123515,
        "distance_shoulder_pan_joint": 1.6891004718715834,
        "distance_wrist_1_joint": 0.23458321470331578,
        "distance_wrist_2_joint": 1.5245665570342364,
        "distance_wrist_3_joint": 0.11266249218144155,
        "smoothness": 0.905238283991424,
        "time": 0.29919884399999996,
        "traj_len": 2.4099332411311067,
        "weighted_distance": 2.7914607256433173
    },
    "planner": "BiEST",
    "start": {
        "state": {
            "elbow_joint": 2.6216224122426386,
            "shoulder_lift_joint": -1.4174107377796124,
            "shoulder_pan_joint": 0.7066234856936794,
            "wrist_1_joint": 1.9546482284002225,
            "wrist_2_joint": -0.7096286983471962,
            "wrist_3_joint": 0.005740856962016249
        }
    },
    "waypoints": [
        {
            "positions": [
                0.7066234856936794,
                -1.4174107377796124,
                2.6216224122426386,
                1.9546482284002225,
                -0.7096286983471962,
                0.005740856962016249
            ]
        },
        {
            "positions": [
                0.557352786394345,
                -1.4328286145548446,
                2.6060340597388048,
                1.9900814310476118,
                -0.7538183271096923,
                0.03077472770616771
            ]
        },
        {
            "positions": [
                0.5687845675413732,
                -1.516781473901596,
                2.490161327428007,
                1.984132632000154,
                -0.7843154941082837,
                0.013847568497616335
            ]
        },
        {
            "positions": [
                0.5802163486884014,
                -1.600734333248347,
                2.3742885951172092,
                1.9781838329526964,
                -0.8148126611068751,
                -0.00307959071093504
            ]
        },
        {
            "positions": [
                0.5916481298354296,
                -1.6846871925950984,
                2.2584158628064115,
                1.9722350339052386,
                -0.8453098281054665,
                -0.020006749919486422
            ]
        },
        {
            "positions": [
                0.4661869274078325,
                -1.5994573755453596,
                2.2089471393006175,
                1.9873436684813681,
                -0.9610502803784637,
                -0.016936154601850092
            ]
        },
        {
            "positions": [
                0.34072572498023546,
                -1.5142275584956209,
                2.159478415794824,
                2.002452303057497,
                -1.0767907326514607,
                -0.013865559284213763
            ]
        },
        {
            "positions": [
                0.2152645225526384,
                -1.4289977414458819,
                2.11000969228903,
                2.0175609376336268,
                -1.192531184924458,
                -0.010794963966577434
            ]
        },
        {
            "positions": [
                0.08980332012504133,
                -1.3437679243961431,
                2.0605409687832363,
                2.0326695722097563,
                -1.3082716371974552,
                -0.0077243686489411045
            ]
        },
        {
            "positions": [
                -0.03565788230255573,
                -1.2585381073464044,
                2.0110722452774423,
                2.047778206785886,
                -1.4240120894704524,
                -0.004653773331304775
            ]
        },
        {
            "positions": [
                -0.1611190847301528,
                -1.1733082902966654,
                1.9616035217716488,
                2.0628868413620154,
                -1.5397525417434497,
                -0.001583178013668446
            ]
        },
        {
            "positions": [
                -0.28658028715774997,
                -1.0880784732469266,
                1.9121347982658548,
                2.0779954759381445,
                -1.6554929940164467,
                0.0014874173039678834
            ]
        },
        {
            "positions": [
                -0.4120414895853469,
                -1.0028486561971879,
                1.8626660747600612,
                2.093104110514274,
                -1.771233446289444,
                0.004558012621604213
            ]
        },
        {
            "positions": [
                -0.5375026920129439,
                -0.9176188391474491,
                1.8131973512542672,
                2.1082127450904036,
                -1.8869738985624411,
                0.007628607939240542
            ]
        },
        {
            "positions": [
                -0.662963894440541,
                -0.8323890220977103,
                1.7637286277484734,
                2.1233213796665327,
                -2.002714350835438,
                0.010699203256876871
            ]
        },
        {
            "positions": [
                -0.788425096868138,
                -0.7471592050479715,
                1.7142599042426796,
                2.138430014242662,
                -2.1184548031084356,
                0.0137697985745132
            ]
        },
        {
            "positions": [
                -0.9138862992957351,
                -0.6619293879982326,
                1.6647911807368858,
                2.1535386488187918,
                -2.2341952553814326,
                0.016840393892149527
            ]
        }
    ]
}