{
    "goal": {
        "global_pose": {
            "orientation": {
                "w": 0.7031023480610252,
                "x": -0.7110244013736278,
                "y": 0.0077485991402295624,
                "z": 0.005598929693374583
            },
            "position": {
                "x": -0.8841497679147869,
                "y": 0.44412534475326537,
                "z": 0.3711530566215515
            }
        },
        "name": "move_to_auspresseinheit_D"
    },
    "id": "BiEST_move_to_auspresseinheit_D_142",
    "joint_names": [
        "shoulder_pan_joint",
        "shoulder_lift_joint",
        "elbow_joint",
        "wrist_1_joint",
        "wrist_2_joint",
        "wrist_3_joint"
    ],
    "metrics": {
        "cart_traj_len": 0.34455646794285893,
        "distance_elbow_joint": 0.663738901338492,
        "distance_shoulder_lift_joint": 0.1353094538625914,
        "distance_shoulder_pan_joint": 0.1338322230356091,
        "distance_wrist_1_joint": 0.6082652664879138,
        "distance_wrist_2_joint": 1.43461736834454,
        "distance_wrist_3_joint": 0.07266380415605722,
        "smoothness": 2.9605947279411004e-16,
        "time": 0.088643487,
        "traj_len": 1.7459745179197788,
        "weighted_distance": 2.288370000758132
    },
    "planner": "BiEST",
    "start": {
        "state": {
            "elbow_joint": -1.8275523626775212,
            "shoulder_lift_joint": -2.126789852344167,
            "shoulder_pan_joint": -0.03513704404078235,
            "wrist_1_joint": -2.347782403156801,
            "wrist_2_joint": -1.6058999987535132,
            "wrist_3_joint": -3.0880379163319196
        }
    },
    "waypoints": [
        {
            "positions": [
                -0.03513704404078235,
                -2.126789852344167,
                -1.8275523626775212,
                -2.347782403156801,
                -1.6058999987535132,
                -3.0880379163319196
            ]
        },
        {
            "positions": [
                -0.051866071920233486,
                -2.143703534076991,
                -1.7445850000102097,
                -2.42381556146779,
                -1.4265728277104457,
                -3.0789549408124124
            ]
        },
        {
            "positions": [
                -0.06859509979968462,
                -2.1606172158098147,
                -1.6616176373428981,
                -2.4998487197787793,
                -1.2472456566673782,
                -3.069871965292905
            ]
        },
        {
            "positions": [
                -0.08532412767913576,
                -2.1775308975426384,
                -1.5786502746755866,
                -2.5758818780897688,
                -1.0679184856243107,
                -3.060788989773398
            ]
        },
        {
            "positions": [
                -0.1020531555585869,
                -2.1944445792754625,
                -1.495682912008275,
                -2.6519150364007578,
                -0.8885913145812432,
                -3.0517060142538908
            ]
        },
        {
            "positions": [
                -0.11878218343803804,
                -2.2113582610082867,
                -1.4127155493409638,
                -2.7279481947117468,
                -0.7092641435381757,
                -3.042623038734384
            ]
        },
        {
            "positions": [
                -0.13551121131748917,
                -2.2282719427411104,
                -1.3297481866736522,
                -2.803981353022736,
                -0.5299369724951082,
                -3.033540063214877
            ]
        },
        {
            "positions": [
                -0.15224023919694032,
                -2.245185624473934,
                -1.2467808240063407,
                -2.8800145113337257,
                -0.3506098014520407,
                -3.0244570876953696
            ]
        },
        {
            "positions": [
                -0.16896926707639146,
                -2.2620993062067583,
                -1.1638134613390292,
                -2.9560476696447147,
                -0.1712826304089731,
                -3.0153741121758624
            ]
        }
    ]
}