{
    "goal": {
        "global_pose": {
            "orientation": {
                "w": -0.00223480608172531,
                "x": 0.0024358444001904467,
                "y": 0.7094548369677653,
                "z": -0.704743149386269
            },
            "position": {
                "x": 0.6205249238014221,
                "y": -0.6371506643295288,
                "z": 0.19426114857196808
            }
        },
        "name": "move_to_magneteinheit_B"
    },
    "id": "BiEST_move_to_magneteinheit_B_122",
    "joint_names": [
        "shoulder_pan_joint",
        "shoulder_lift_joint",
        "elbow_joint",
        "wrist_1_joint",
        "wrist_2_joint",
        "wrist_3_joint"
    ],
    "metrics": {
        "cart_traj_len": 4.001177012184638,
        "distance_elbow_joint": 4.596846140677515,
        "distance_shoulder_lift_joint": 0.839369126105403,
        "distance_shoulder_pan_joint": 2.582323950060635,
        "distance_wrist_1_joint": 5.204294307975003,
        "distance_wrist_2_joint": 1.6981614335077366,
        "distance_wrist_3_joint": 3.483981541641258,
        "smoothness": 0.299686318470465,
        "time": 0.23352531399999998,
        "traj_len": 4.2901021549571,
        "weighted_distance": 5.68114383946867
    },
    "planner": "BiEST",
    "start": {
        "state": {
            "elbow_joint": 2.6216224122426386,
            "shoulder_lift_joint": -1.4174107377796124,
            "shoulder_pan_joint": 0.7066234856936794,
            "wrist_1_joint": 1.9546482284002225,
            "wrist_2_joint": -0.7096286983471962,
            "wrist_3_joint": 0.005740856962016249
        }
    },
    "waypoints": [
        {
            "positions": [
                0.7066234856936794,
                -1.4174107377796124,
                2.6216224122426386,
                1.9546482284002225,
                -0.7096286983471962,
                0.005740856962016249
            ]
        },
        {
            "positions": [
                0.5789065370937361,
                -1.4281320124517225,
                2.6144774766492986,
                1.949489154333174,
                -0.6069438898132277,
                -0.0797685652331616
            ]
        },
        {
            "positions": [
                0.45118958849379287,
                -1.4388532871238324,
                2.607332541055959,
                1.9443300802661256,
                -0.5042590812792591,
                -0.16527798742833943
            ]
        },
        {
            "positions": [
                0.44273159006686447,
                -1.4350806690728446,
                2.4332048650657008,
                1.8038645301204077,
                -0.46156612681733367,
                -0.13949105087354624
            ]
        },
        {
            "positions": [
                0.434273591639936,
                -1.4313080510218565,
                2.2590771890754424,
                1.6633989799746896,
                -0.4188731723554083,
                -0.11370411431875306
            ]
        },
        {
            "positions": [
                0.4258155932130076,
                -1.4275354329708687,
                2.084949513085184,
                1.5229334298289716,
                -0.3761802178934828,
                -0.08791717776395987
            ]
        },
        {
            "positions": [
                0.41735759478607914,
                -1.4237628149198807,
                1.9108218370949257,
                1.3824678796832535,
                -0.33348726343155743,
                -0.06213024120916669
            ]
        },
        {
            "positions": [
                0.40889959635915074,
                -1.4199901968688928,
                1.7366941611046673,
                1.2420023295375355,
                -0.290794308969632,
                -0.03634330465437349
            ]
        },
        {
            "positions": [
                0.40044159793222234,
                -1.4162175788179048,
                1.562566485114409,
                1.1015367793918176,
                -0.24810135450770654,
                -0.010556368099580299
            ]
        },
        {
            "positions": [
                0.3919835995052939,
                -1.412444960766917,
                1.3884388091241506,
                0.9610712292460996,
                -0.2054084000457811,
                0.015230568455212895
            ]
        },
        {
            "positions": [
                0.4434498069082,
                -1.4116708191358298,
                1.2463764709005891,
                0.8123645371849022,
                -0.19637451177499932,
                0.05614969012869809
            ]
        },
        {
            "positions": [
                0.4949160143111061,
                -1.410896677504743,
                1.1043141326770274,
                0.663657845123705,
                -0.1873406235042175,
                0.09706881180218328
            ]
        },
        {
            "positions": [
                0.5463822217140122,
                -1.4101225358736558,
                0.9622517944534659,
                0.5149511530625077,
                -0.17830673523343574,
                0.13798793347566846
            ]
        },
        {
            "positions": [
                0.5978484291169184,
                -1.4093483942425689,
                0.8201894562299042,
                0.36624446100131036,
                -0.16927284696265396,
                0.17890705514915367
            ]
        },
        {
            "positions": [
                0.6493146365198245,
                -1.4085742526114817,
                0.6781271180063427,
                0.217537768940113,
                -0.16023895869187216,
                0.21982617682263886
            ]
        },
        {
            "positions": [
                0.7007808439227305,
                -1.4078001109803948,
                0.5360647797827811,
                0.06883107687891576,
                -0.15120507042109038,
                0.26074529849612404
            ]
        },
        {
            "positions": [
                0.7522470513256366,
                -1.4070259693493077,
                0.3940024415592196,
                -0.07987561518228137,
                -0.1421711821503086,
                0.30166442016960926
            ]
        },
        {
            "positions": [
                0.8037132587285427,
                -1.4062518277182208,
                0.25194010333565786,
                -0.22858230724347883,
                -0.13313729387952683,
                0.3425835418430945
            ]
        },
        {
            "positions": [
                0.8551794661314489,
                -1.4054776860871336,
                0.10987776511209635,
                -0.3772889993046761,
                -0.12410340560874504,
                0.3835026635165796
            ]
        },
        {
            "positions": [
                0.9066456735343551,
                -1.4047035444560467,
                -0.032184573111465165,
                -0.5259956913658735,
                -0.11506951733796325,
                0.4244217851900648
            ]
        },
        {
            "positions": [
                0.9581118809372611,
                -1.4039294028249596,
                -0.17424691133502668,
                -0.6747023834270706,
                -0.10603562906718147,
                0.46534090686355
            ]
        },
        {
            "positions": [
                1.0095780883401673,
                -1.4031552611938727,
                -0.3163092495585884,
                -0.823409075488268,
                -0.09700174079639969,
                0.5062600285370352
            ]
        },
        {
            "positions": [
                1.0610442957430732,
                -1.4023811195627855,
                -0.45837158778214987,
                -0.9721157675494652,
                -0.08796785252561791,
                0.5471791502105203
            ]
        },
        {
            "positions": [
                1.1427474324402493,
                -1.42655347340416,
                -0.5297966162983403,
                -1.0708343467861638,
                -0.126726957371664,
                0.608074398678848
            ]
        },
        {
            "positions": [
                1.2244505691374252,
                -1.4507258272455348,
                -0.6012216448145308,
                -1.1695529260228625,
                -0.1654860622177101,
                0.6689696471471759
            ]
        },
        {
            "positions": [
                1.3061537058346013,
                -1.4748981810869093,
                -0.6726466733307213,
                -1.2682715052595612,
                -0.20424516706375617,
                0.7298648956155036
            ]
        },
        {
            "positions": [
                1.3878568425317772,
                -1.4990705349282838,
                -0.7440717018469117,
                -1.36699008449626,
                -0.24300427190980228,
                0.7907601440838313
            ]
        },
        {
            "positions": [
                1.4695599792289533,
                -1.5232428887696585,
                -0.8154967303631022,
                -1.4657086637329586,
                -0.28176337675584834,
                0.851655392552159
            ]
        },
        {
            "positions": [
                1.5512631159261292,
                -1.547415242611033,
                -0.8869217588792927,
                -1.5644272429696575,
                -0.32052248160189445,
                0.9125506410204869
            ]
        },
        {
            "positions": [
                1.6329662526233053,
                -1.5715875964524075,
                -0.9583467873954832,
                -1.663145822206356,
                -0.3592815864479405,
                0.9734458894888147
            ]
        },
        {
            "positions": [
                1.7146693893204814,
                -1.595759950293782,
                -1.0297718159116735,
                -1.761864401443055,
                -0.3980406912939866,
                1.0343411379571423
            ]
        },
        {
            "positions": [
                1.7963725260176573,
                -1.6199323041351568,
                -1.1011968444278641,
                -1.8605829806797534,
                -0.43679979614003267,
                1.0952363864254702
            ]
        },
        {
            "positions": [
                1.8780756627148332,
                -1.6441046579765313,
                -1.1726218729440545,
                -1.9593015599164523,
                -0.4755589009860788,
                1.1561316348937978
            ]
        },
        {
            "positions": [
                1.9597787994120095,
                -1.668277011817906,
                -1.244046901460245,
                -2.058020139153151,
                -0.514318005832125,
                1.2170268833621258
            ]
        },
        {
            "positions": [
                2.0414819361091854,
                -1.6924493656592805,
                -1.3154719299764355,
                -2.1567387183898497,
                -0.553077110678171,
                1.2779221318304534
            ]
        },
        {
            "positions": [
                2.1231850728063613,
                -1.716621719500655,
                -1.386896958492626,
                -2.2554572976265486,
                -0.5918362155242171,
                1.3388173802987813
            ]
        },
        {
            "positions": [
                2.2048882095035376,
                -1.7407940733420295,
                -1.4583219870088164,
                -2.354175876863247,
                -0.6305953203702631,
                1.3997126287671091
            ]
        },
        {
            "positions": [
                2.2865913462007135,
                -1.7649664271834042,
                -1.529747015525007,
                -2.452894456099946,
                -0.6693544252163093,
                1.4606078772354367
            ]
        },
        {
            "positions": [
                2.3682944828978894,
                -1.7891387810247787,
                -1.6011720440411974,
                -2.5516130353366444,
                -0.7081135300623553,
                1.5215031257037643
            ]
        },
        {
            "positions": [
                2.4499976195950657,
                -1.8133111348661535,
                -1.672597072557388,
                -2.6503316145733433,
                -0.7468726349084014,
                1.5823983741720924
            ]
        },
        {
            "positions": [
                2.531700756292241,
                -1.837483488707528,
                -1.7440221010735784,
                -2.749050193810042,
                -0.7856317397544474,
                1.64329362264042
            ]
        },
        {
            "positions": [
                2.6134038929894174,
                -1.8616558425489025,
                -1.815447129589769,
                -2.8477687730467407,
                -0.8243908446004936,
                1.7041888711087478
            ]
        },
        {
            "positions": [
                2.620013003044864,
                -1.9076815120080481,
                -1.7926219011833249,
                -2.7903577292570203,
                -0.7758083309417388,
                1.9104025623535785
            ]
        },
        {
            "positions": [
                2.6266221131003107,
                -1.9537071814671936,
                -1.7697966727768806,
                -2.7329466854672995,
                -0.727225817282984,
                2.1166162535984094
            ]
        },
        {
            "positions": [
                2.6332312231557573,
                -1.9997328509263392,
                -1.7469714443704365,
                -2.675535641677579,
                -0.6786433036242292,
                2.32282994484324
            ]
        },
        {
            "positions": [
                2.639840333211204,
                -2.0457585203854847,
                -1.7241462159639924,
                -2.6181245978878582,
                -0.6300607899654744,
                2.529043636088071
            ]
        },
        {
            "positions": [
                2.6464494432666505,
                -2.0917841898446303,
                -1.7013209875575483,
                -2.560713554098138,
                -0.5814782763067197,
                2.735257327332902
            ]
        },
        {
            "positions": [
                2.653058553322097,
                -2.137809859303776,
                -1.678495759151104,
                -2.5033025103084174,
                -0.5328957626479649,
                2.941471018577732
            ]
        },
        {
            "positions": [
                2.659667663377544,
                -2.1838355287629216,
                -1.65567053074466,
                -2.4458914665186966,
                -0.48431324898921,
                3.1476847098225633
            ]
        }
    ]
}