{
    "goal": {
        "global_pose": {
            "orientation": {
                "w": 0.005598929693374612,
                "x": 0.007748599140229565,
                "y": 0.7110244013736278,
                "z": -0.7031023480610252
            },
            "position": {
                "x": 0.1141497679147869,
                "y": -0.7141253447532654,
                "z": 0.3711530566215515
            }
        },
        "name": "move_to_auspresseinheit_B"
    },
    "id": "BiEST_move_to_auspresseinheit_B_100",
    "joint_names": [
        "shoulder_pan_joint",
        "shoulder_lift_joint",
        "elbow_joint",
        "wrist_1_joint",
        "wrist_2_joint",
        "wrist_3_joint"
    ],
    "metrics": {
        "cart_traj_len": 0.5641321927320182,
        "distance_elbow_joint": 0.061913368625992504,
        "distance_shoulder_lift_joint": 0.29512568219298396,
        "distance_shoulder_pan_joint": 0.5767008081529403,
        "distance_wrist_1_joint": 0.325991471360792,
        "distance_wrist_2_joint": 0.9924779765261371,
        "distance_wrist_3_joint": 0.0013857376881496464,
        "smoothness": 2.5376526478085547e-16,
        "time": 0.090910215,
        "traj_len": 1.5011978698849113,
        "weighted_distance": 1.8907236624663646
    },
    "planner": "BiEST",
    "start": {
        "state": {
            "elbow_joint": 2.0193083361928714,
            "shoulder_lift_joint": -1.1220246554650708,
            "shoulder_pan_joint": -1.0952077554168747,
            "wrist_1_joint": -0.8559753972642168,
            "wrist_2_joint": 0.4759566250798843,
            "wrist_3_joint": -3.1240929996934557
        }
    },
    "waypoints": [
        {
            "positions": [
                -1.0952077554168747,
                -1.1220246554650708,
                2.0193083361928714,
                -0.8559753972642168,
                0.4759566250798843,
                -3.1240929996934557
            ]
        },
        {
            "positions": [
                -1.191324556775698,
                -1.1712122691639015,
                2.0089894414218725,
                -0.8016434853707515,
                0.6413696211675738,
                -3.1238620434120974
            ]
        },
        {
            "positions": [
                -1.2874413581345214,
                -1.220399882862732,
                1.9986705466508738,
                -0.7473115734772862,
                0.8067826172552632,
                -3.123631087130739
            ]
        },
        {
            "positions": [
                -1.3835581594933448,
                -1.2695874965615628,
                1.9883516518798752,
                -0.6929796615838208,
                0.9721956133429528,
                -3.123400130849381
            ]
        },
        {
            "positions": [
                -1.4796749608521682,
                -1.3187751102603935,
                1.9780327571088765,
                -0.6386477496903555,
                1.1376086094306423,
                -3.1231691745680226
            ]
        },
        {
            "positions": [
                -1.5757917622109916,
                -1.367962723959224,
                1.9677138623378776,
                -0.5843158377968901,
                1.303021605518332,
                -3.1229382182866643
            ]
        },
        {
            "positions": [
                -1.671908563569815,
                -1.4171503376580548,
                1.957394967566879,
                -0.5299839259034248,
                1.4684346016060215,
                -3.122707262005306
            ]
        }
    ]
}