{
    "goal": {
        "global_pose": {
            "orientation": {
                "w": 0.7047431493862688,
                "x": -0.7094548369677653,
                "y": 0.0024358444001904,
                "z": -0.0022348060817251984
            },
            "position": {
                "x": -0.39052492380142206,
                "y": 0.3671506643295288,
                "z": 0.19426114857196808
            }
        },
        "name": "move_to_magneteinheit_D"
    },
    "id": "BiEST_move_to_magneteinheit_D_102",
    "joint_names": [
        "shoulder_pan_joint",
        "shoulder_lift_joint",
        "elbow_joint",
        "wrist_1_joint",
        "wrist_2_joint",
        "wrist_3_joint"
    ],
    "metrics": {
        "cart_traj_len": 6.706079504866852,
        "distance_elbow_joint": 3.2831830139854845,
        "distance_shoulder_lift_joint": 1.4101642274392063,
        "distance_shoulder_pan_joint": 7.134509492204233,
        "distance_wrist_1_joint": 5.493558447642357,
        "distance_wrist_2_joint": 2.95846261541082,
        "distance_wrist_3_joint": 6.996417511279306,
        "smoothness": 0.3744772698679005,
        "time": 0.133091911,
        "traj_len": 5.22267128086398,
        "weighted_distance": 7.051322669795587
    },
    "planner": "BiEST",
    "start": {
        "state": {
            "elbow_joint": 0.749534889911806,
            "shoulder_lift_joint": -0.6476975780787326,
            "shoulder_pan_joint": -2.711696901376241,
            "wrist_1_joint": -0.07506478083263063,
            "wrist_2_joint": 0.43296659715538205,
            "wrist_3_joint": -3.14703540197715
        }
    },
    "waypoints": [
        {
            "positions": [
                -2.711696901376241,
                -0.6476975780787326,
                0.749534889911806,
                -0.07506478083263063,
                0.43296659715538205,
                -3.14703540197715
            ]
        },
        {
            "positions": [
                -2.722587573344152,
                -0.7062630635562122,
                0.5890156817296116,
                -0.07215887042701706,
                0.4670967133556052,
                -3.0202513243013205
            ]
        },
        {
            "positions": [
                -2.733478245312063,
                -0.7648285490336917,
                0.42849647354741727,
                -0.06925296002140349,
                0.5012268295558283,
                -2.893467246625491
            ]
        },
        {
            "positions": [
                -2.744368917279974,
                -0.8233940345111713,
                0.2679772653652229,
                -0.06634704961578991,
                0.5353569457560515,
                -2.766683168949661
            ]
        },
        {
            "positions": [
                -2.755259589247885,
                -0.8819595199886509,
                0.10745805718302859,
                -0.06344113921017634,
                0.5694870619562746,
                -2.6398990912738314
            ]
        },
        {
            "positions": [
                -2.5827454667728365,
                -0.9123279272472506,
                0.11045595564070607,
                -0.04012376664207998,
                0.6064413122379821,
                -2.513885037960749
            ]
        },
        {
            "positions": [
                -2.4102313442977885,
                -0.9426963345058504,
                0.11345385409838354,
                -0.016806394073983613,
                0.6433955625196898,
                -2.387870984647667
            ]
        },
        {
            "positions": [
                -2.23771722182274,
                -0.9730647417644502,
                0.11645175255606102,
                0.006510978494112751,
                0.6803498128013974,
                -2.2618569313345844
            ]
        },
        {
            "positions": [
                -2.065203099347692,
                -1.0034331490230501,
                0.1194496510137385,
                0.029828351062209116,
                0.7173040630831049,
                -2.1358428780215024
            ]
        },
        {
            "positions": [
                -1.8926889768726438,
                -1.0338015562816498,
                0.12244754947141598,
                0.053145723630305494,
                0.7542583133648124,
                -2.00982882470842
            ]
        },
        {
            "positions": [
                -1.7201748543975957,
                -1.0641699635402495,
                0.12544544792909346,
                0.07646309619840184,
                0.79121256364652,
                -1.883814771395338
            ]
        },
        {
            "positions": [
                -1.5476607319225475,
                -1.0945383707988494,
                0.12844334638677093,
                0.09978046876649822,
                0.8281668139282277,
                -1.7578007180822555
            ]
        },
        {
            "positions": [
                -1.3751466094474993,
                -1.1249067780574493,
                0.1314412448444484,
                0.12309784133459457,
                0.8651210642099352,
                -1.6317866647691732
            ]
        },
        {
            "positions": [
                -1.202632486972451,
                -1.155275185316049,
                0.1344391433021259,
                0.14641521390269097,
                0.9020753144916427,
                -1.5057726114560908
            ]
        },
        {
            "positions": [
                -1.0301183644974028,
                -1.185643592574649,
                0.13743704175980337,
                0.16973258647078732,
                0.9390295647733503,
                -1.3797585581430085
            ]
        },
        {
            "positions": [
                -0.8576042420223549,
                -1.2160119998332486,
                0.14043494021748085,
                0.19304995903888367,
                0.9759838150550579,
                -1.2537445048299265
            ]
        },
        {
            "positions": [
                -0.6850901195473065,
                -1.2463804070918485,
                0.14343283867515833,
                0.21636733160698002,
                1.0129380653367654,
                -1.1277304515168443
            ]
        },
        {
            "positions": [
                -0.5125759970722581,
                -1.2767488143504482,
                0.14643073713283583,
                0.23968470417507642,
                1.049892315618473,
                -1.0017163982037618
            ]
        },
        {
            "positions": [
                -0.34006187459721016,
                -1.307117221609048,
                0.14942863559051328,
                0.2630020767431728,
                1.0868465659001805,
                -0.8757023448906796
            ]
        },
        {
            "positions": [
                -0.16754775212216222,
                -1.3374856288676478,
                0.1524265340481908,
                0.2863194493112691,
                1.123800816181888,
                -0.7496882915775973
            ]
        },
        {
            "positions": [
                0.0049663703528861625,
                -1.3678540361262477,
                0.15542443250586824,
                0.3096368218793655,
                1.1607550664635957,
                -0.6236742382645151
            ]
        },
        {
            "positions": [
                0.1774804928279341,
                -1.3982224433848474,
                0.15842233096354574,
                0.3329541944474618,
                1.1977093167453032,
                -0.49766018495143305
            ]
        },
        {
            "positions": [
                0.3499946153029829,
                -1.4285908506434473,
                0.16142022942122322,
                0.3562715670155583,
                1.234663567027011,
                -0.37164613163835014
            ]
        },
        {
            "positions": [
                0.5225087377780309,
                -1.458959257902047,
                0.1644181278789007,
                0.37958893958365464,
                1.2716178173087185,
                -0.24563207832526812
            ]
        },
        {
            "positions": [
                0.6950228602530792,
                -1.4893276651606469,
                0.16741602633657818,
                0.402906312151751,
                1.308572067590426,
                -0.11961802501218566
            ]
        },
        {
            "positions": [
                0.8675369827281272,
                -1.5196960724192468,
                0.17041392479425566,
                0.42622368471984734,
                1.3455263178721335,
                0.006396028300896361
            ]
        },
        {
            "positions": [
                1.0400511052031751,
                -1.5500644796778464,
                0.1734118232519331,
                0.4495410572879437,
                1.382480568153841,
                0.13241008161397838
            ]
        },
        {
            "positions": [
                1.2125652276782235,
                -1.5804328869364461,
                0.1764097217096106,
                0.4728584298560401,
                1.4194348184355485,
                0.25842413492706084
            ]
        },
        {
            "positions": [
                1.3850793501532719,
                -1.610801294195046,
                0.17940762016728806,
                0.4961758024241364,
                1.4563890687172563,
                0.38443818824014286
            ]
        },
        {
            "positions": [
                1.5575934726283203,
                -1.641169701453646,
                0.18240551862496557,
                0.5194931749922328,
                1.493343318998964,
                0.5104522415532258
            ]
        },
        {
            "positions": [
                1.7301075951033686,
                -1.6715381087122456,
                0.18540341708264305,
                0.5428105475603292,
                1.5302975692806715,
                0.6364662948663078
            ]
        },
        {
            "positions": [
                1.9026217175784161,
                -1.7019065159708453,
                0.18840131554032052,
                0.5661279201284255,
                1.567251819562379,
                0.7624803481793903
            ]
        },
        {
            "positions": [
                2.075135840053465,
                -1.7322749232294452,
                0.191399213997998,
                0.5894452926965219,
                1.6042060698440865,
                0.888494401492472
            ]
        },
        {
            "positions": [
                2.027239266739233,
                -1.7378683184269659,
                0.10711697692893472,
                0.4629839134112902,
                1.5677977307692275,
                0.9751749367050743
            ]
        },
        {
            "positions": [
                1.9793426934250011,
                -1.7434617136244863,
                0.022834739859871445,
                0.3365225341260584,
                1.5313893916943684,
                1.0618554719176765
            ]
        },
        {
            "positions": [
                1.931446120110769,
                -1.749055108822007,
                -0.061447497209191876,
                0.21006115484082666,
                1.494981052619509,
                1.1485360071302788
            ]
        },
        {
            "positions": [
                1.8835495467965373,
                -1.7546485040195277,
                -0.1457297342782551,
                0.08359977555559495,
                1.45857271354465,
                1.2352165423428811
            ]
        },
        {
            "positions": [
                1.8356529734823053,
                -1.760241899217048,
                -0.2300119713473184,
                -0.042861603729636766,
                1.422164374469791,
                1.3218970775554832
            ]
        },
        {
            "positions": [
                1.7877564001680732,
                -1.7658352944145688,
                -0.3142942084163818,
                -0.1693229830148686,
                1.3857560353949319,
                1.4085776127680856
            ]
        },
        {
            "positions": [
                1.7398598268538414,
                -1.7714286896120892,
                -0.398576445485445,
                -0.2957843623001003,
                1.3493476963200726,
                1.495258147980688
            ]
        },
        {
            "positions": [
                1.6919632535396096,
                -1.7770220848096099,
                -0.48285868255450826,
                -0.422245741585332,
                1.3129393572452135,
                1.58193868319329
            ]
        },
        {
            "positions": [
                1.6440666802253776,
                -1.7826154800071305,
                -0.5671409196235715,
                -0.5487071208705638,
                1.2765310181703544,
                1.6686192184058923
            ]
        },
        {
            "positions": [
                1.5961701069111456,
                -1.788208875204651,
                -0.6514231566926348,
                -0.6751685001557954,
                1.2401226790954953,
                1.7552997536184947
            ]
        },
        {
            "positions": [
                1.5482735335969138,
                -1.7938022704021717,
                -0.7357053937616981,
                -0.8016298794410273,
                1.2037143400206363,
                1.8419802888310968
            ]
        },
        {
            "positions": [
                1.5003769602826817,
                -1.7993956655996923,
                -0.8199876308307615,
                -0.9280912587262591,
                1.1673060009457772,
                1.928660824043699
            ]
        },
        {
            "positions": [
                1.4524803869684497,
                -1.8049890607972128,
                -0.9042698678998248,
                -1.054552638011491,
                1.130897661870918,
                2.0153413592563014
            ]
        },
        {
            "positions": [
                1.404583813654218,
                -1.8105824559947334,
                -0.988552104968888,
                -1.1810140172967225,
                1.0944893227960588,
                2.1020218944689035
            ]
        },
        {
            "positions": [
                1.3566872403399861,
                -1.8161758511922539,
                -1.0728343420379511,
                -1.3074753965819543,
                1.0580809837211997,
                2.1887024296815056
            ]
        },
        {
            "positions": [
                1.308790667025754,
                -1.8217692463897746,
                -1.1571165791070144,
                -1.433936775867186,
                1.0216726446463407,
                2.275382964894108
            ]
        },
        {
            "positions": [
                1.260894093711522,
                -1.8273626415872952,
                -1.2413988161760776,
                -1.560398155152418,
                0.9852643055714815,
                2.3620635001067103
            ]
        },
        {
            "positions": [
                1.2129975203972903,
                -1.8329560367848157,
                -1.3256810532451409,
                -1.6868595344376496,
                0.9488559664966224,
                2.4487440353193124
            ]
        },
        {
            "positions": [
                1.1651009470830584,
                -1.8385494319823363,
                -1.409963290314204,
                -1.8133209137228812,
                0.9124476274217633,
                2.535424570531915
            ]
        },
        {
            "positions": [
                1.1172043737688264,
                -1.844142827179857,
                -1.4942455273832675,
                -1.9397822930081128,
                0.8760392883469041,
                2.622105105744517
            ]
        },
        {
            "positions": [
                1.0693078004545944,
                -1.8497362223773774,
                -1.5785277644523308,
                -2.0662436722933446,
                0.8396309492720451,
                2.708785640957119
            ]
        },
        {
            "positions": [
                1.0214112271403626,
                -1.8553296175748981,
                -1.662810001521394,
                -2.192705051578576,
                0.803222610197186,
                2.7954661761697217
            ]
        },
        {
            "positions": [
                0.9735146538261306,
                -1.8609230127724188,
                -1.7470922385904575,
                -2.3191664308638087,
                0.7668142711223267,
                2.8821467113823243
            ]
        },
        {
            "positions": [
                0.9256180805118985,
                -1.8665164079699392,
                -1.831374475659521,
                -2.4456278101490403,
                0.7304059320474676,
                2.968827246594926
            ]
        },
        {
            "positions": [
                0.8777215071976667,
                -1.87210980316746,
                -1.915656712728584,
                -2.572089189434272,
                0.6939975929726085,
                3.0555077818075285
            ]
        },
        {
            "positions": [
                0.8298249338834347,
                -1.8777031983649803,
                -1.9999389497976474,
                -2.6985505687195035,
                0.6575892538977494,
                3.142188317020131
            ]
        },
        {
            "positions": [
                0.7819283605692029,
                -1.883296593562501,
                -2.0842211868667104,
                -2.825011948004735,
                0.6211809148228903,
                3.2288688522327327
            ]
        },
        {
            "positions": [
                0.7340317872549709,
                -1.8888899887600217,
                -2.168503423935774,
                -2.9514733272899667,
                0.5847725757480311,
                3.3155493874453352
            ]
        },
        {
            "positions": [
                0.6861352139407391,
                -1.8944833839575421,
                -2.252785661004837,
                -3.077934706575199,
                0.548364236673172,
                3.4022299226579378
            ]
        },
        {
            "positions": [
                0.638238640626507,
                -1.9000767791550628,
                -2.3370678980739004,
                -3.204396085860431,
                0.511955897598313,
                3.48891045787054
            ]
        },
        {
            "positions": [
                0.5352818686759716,
                -1.8803536508597032,
                -2.3406551371201303,
                -3.0749952114158994,
                0.4250842762887703,
                3.443851501441589
            ]
        },
        {
            "positions": [
                0.4323250967254361,
                -1.8606305225643438,
                -2.34424237616636,
                -2.9455943369713675,
                0.3382126549792277,
                3.3987925450126384
            ]
        },
        {
            "positions": [
                0.32936832477490063,
                -1.8409073942689842,
                -2.34782961521259,
                -2.816193462526836,
                0.251341033669685,
                3.3537335885836876
            ]
        },
        {
            "positions": [
                0.2264115528243652,
                -1.8211842659736246,
                -2.35141685425882,
                -2.6867925880823043,
                0.1644694123601424,
                3.308674632154737
            ]
        },
        {
            "positions": [
                0.12345478087382977,
                -1.8014611376782652,
                -2.35500409330505,
                -2.557391713637773,
                0.07759779105059977,
                3.263615675725786
            ]
        },
        {
            "positions": [
                0.02049800892329423,
                -1.7817380093829056,
                -2.35859133235128,
                -2.4279908391932414,
                -0.009273830258942906,
                3.2185567192968354
            ]
        },
        {
            "positions": [
                -0.0824587630272412,
                -1.7620148810875462,
                -2.36217857139751,
                -2.29858996474871,
                -0.09614545156848553,
                3.1734977628678847
            ]
        },
        {
            "positions": [
                -0.1854155349777766,
                -1.7422917527921866,
                -2.36576581044374,
                -2.169189090304178,
                -0.18301707287802818,
                3.128438806438934
            ]
        }
    ]
}