{
    "goal": {
        "global_pose": {
            "orientation": {
                "w": -0.4816463035849501,
                "x": 0.5182115481033762,
                "y": 0.4908360881923453,
                "z": -0.5084816262002911
            },
            "position": {
                "x": -0.8240239810943604,
                "y": 0.19912469901144506,
                "z": 0.16403168439865112
            }
        },
        "name": "move_to_storage_D"
    },
    "id": "BiEST_move_to_storage_D_3",
    "joint_names": [
        "shoulder_pan_joint",
        "shoulder_lift_joint",
        "elbow_joint",
        "wrist_1_joint",
        "wrist_2_joint",
        "wrist_3_joint"
    ],
    "metrics": {
        "cart_traj_len": 4.01946192540622,
        "distance_elbow_joint": 4.2151734587009555,
        "distance_shoulder_lift_joint": 1.2642254019021208,
        "distance_shoulder_pan_joint": 2.81264928630761,
        "distance_wrist_1_joint": 3.769652163010139,
        "distance_wrist_2_joint": 4.5194130685575,
        "distance_wrist_3_joint": 3.205134791708784,
        "smoothness": 0.1406022680692881,
        "time": 0.102278522,
        "traj_len": 4.4481735768950275,
        "weighted_distance": 5.872442676192958
    },
    "planner": "BiEST",
    "start": {
        "state": {
            "elbow_joint": -2.384821988534728,
            "shoulder_lift_joint": -2.2788054721415256,
            "shoulder_pan_joint": -0.1854694642142757,
            "wrist_1_joint": 1.4845938289331202,
            "wrist_2_joint": 0.17898776772866878,
            "wrist_3_joint": 0.037105688729662994
        }
    },
    "waypoints": [
        {
            "positions": [
                -0.1854694642142757,
                -2.2788054721415256,
                -2.384821988534728,
                1.4845938289331202,
                0.17898776772866878,
                0.037105688729662994
            ]
        },
        {
            "positions": [
                -0.17712065718885614,
                -2.250235560103633,
                -2.3393641054249747,
                1.3525850501294914,
                0.053511335637272894,
                0.0323980361433327
            ]
        },
        {
            "positions": [
                -0.16877185016343657,
                -2.22166564806574,
                -2.2939062223152216,
                1.2205762713258625,
                -0.071965096454123,
                0.0276903835570024
            ]
        },
        {
            "positions": [
                -0.160423043138017,
                -2.193095736027847,
                -2.248448339205468,
                1.088567492522234,
                -0.1974415285455189,
                0.0229827309706721
            ]
        },
        {
            "positions": [
                -0.15207423611259743,
                -2.1645258239899543,
                -2.2029904560957148,
                0.9565587137186051,
                -0.3229179606369148,
                0.018275078384341805
            ]
        },
        {
            "positions": [
                -0.14372542908717786,
                -2.1359559119520615,
                -2.1575325729859616,
                0.8245499349149762,
                -0.4483943927283107,
                0.013567425798011505
            ]
        },
        {
            "positions": [
                -0.1353766220617583,
                -2.1073859999141686,
                -2.1120746898762084,
                0.6925411561113475,
                -0.5738708248197066,
                0.008859773211681209
            ]
        },
        {
            "positions": [
                -0.03407712626339644,
                -2.0917166941320073,
                -2.000451355685451,
                0.5859714023703853,
                -0.6249552166579913,
                0.016436245129645408
            ]
        },
        {
            "positions": [
                0.06722236953496541,
                -2.0760473883498465,
                -1.8888280214946935,
                0.47940164862942314,
                -0.676039608496276,
                0.024012717047609607
            ]
        },
        {
            "positions": [
                0.16852186533332728,
                -2.060378082567685,
                -1.7772046873039362,
                0.3728318948884609,
                -0.7271240003345606,
                0.031589188965573806
            ]
        },
        {
            "positions": [
                0.2698213611316891,
                -2.0447087767855243,
                -1.6655813531131787,
                0.26626214114749874,
                -0.7782083921728453,
                0.039165660883538005
            ]
        },
        {
            "positions": [
                0.37112085693005104,
                -2.029039471003363,
                -1.5539580189224214,
                0.15969238740653657,
                -0.8292927840111299,
                0.046742132801502204
            ]
        },
        {
            "positions": [
                0.4724203527284129,
                -2.0133701652212017,
                -1.442334684731664,
                0.05312263366557435,
                -0.8803771758494146,
                0.0543186047194664
            ]
        },
        {
            "positions": [
                0.5737198485267747,
                -1.9977008594390409,
                -1.3307113505409065,
                -0.05344712007538788,
                -0.9314615676876992,
                0.0618950766374306
            ]
        },
        {
            "positions": [
                0.6750193443251365,
                -1.9820315536568796,
                -1.2190880163501492,
                -0.16001687381635,
                -0.9825459595259839,
                0.06947154855539481
            ]
        },
        {
            "positions": [
                0.7763188401234985,
                -1.9663622478747185,
                -1.1074646821593916,
                -0.2665866275573122,
                -1.0336303513642684,
                0.07704802047335899
            ]
        },
        {
            "positions": [
                0.8776183359218603,
                -1.9506929420925574,
                -0.9958413479686343,
                -0.37315638129827433,
                -1.0847147432025532,
                0.08462449239132319
            ]
        },
        {
            "positions": [
                0.9789178317202223,
                -1.9350236363103963,
                -0.8842180137778768,
                -0.4797261350392368,
                -1.1357991350408378,
                0.0922009643092874
            ]
        },
        {
            "positions": [
                1.080217327518584,
                -1.9193543305282352,
                -0.7725946795871195,
                -0.5862958887801988,
                -1.1868835268791225,
                0.0997774362272516
            ]
        },
        {
            "positions": [
                1.181516823316946,
                -1.903685024746074,
                -0.6609713453963619,
                -0.692865642521161,
                -1.2379679187174073,
                0.10735390814521581
            ]
        },
        {
            "positions": [
                1.2828163191153077,
                -1.8880157189639128,
                -0.5493480112056046,
                -0.7994353962621232,
                -1.2890523105556917,
                0.11493038006317999
            ]
        },
        {
            "positions": [
                1.3841158149136696,
                -1.8723464131817518,
                -0.4377246770148471,
                -0.9060051500030855,
                -1.3401367023939765,
                0.1225068519811442
            ]
        },
        {
            "positions": [
                1.4854153107120314,
                -1.8566771073995907,
                -0.32610134282409,
                -1.0125749037440475,
                -1.3912210942322611,
                0.1300833238991084
            ]
        },
        {
            "positions": [
                1.5867148065103935,
                -1.8410078016174296,
                -0.21447800863333244,
                -1.11914465748501,
                -1.4423054860705458,
                0.1376597958170726
            ]
        },
        {
            "positions": [
                1.6880143023087553,
                -1.8253384958352685,
                -0.1028546744425749,
                -1.225714411225972,
                -1.4933898779088304,
                0.14523626773503678
            ]
        },
        {
            "positions": [
                1.7893137981071172,
                -1.8096691900531072,
                0.008768659748182639,
                -1.3322841649669341,
                -1.544474269747115,
                0.15281273965300102
            ]
        },
        {
            "positions": [
                1.890613293905479,
                -1.7939998842709461,
                0.12039199393893973,
                -1.4388539187078961,
                -1.5955586615853998,
                0.1603892115709652
            ]
        },
        {
            "positions": [
                1.9919127897038407,
                -1.778330578488785,
                0.23201532812969716,
                -1.5454236724488584,
                -1.6466430534236844,
                0.1679656834889294
            ]
        },
        {
            "positions": [
                2.018382249386736,
                -1.7465076406450608,
                0.2986126673812193,
                -1.514605561547685,
                -1.53440212644847,
                0.2937066404019941
            ]
        },
        {
            "positions": [
                2.044851709069632,
                -1.7146847028013368,
                0.3652100066327414,
                -1.4837874506465119,
                -1.4221611994732555,
                0.4194475973150589
            ]
        },
        {
            "positions": [
                2.0713211687525273,
                -1.6828617649576125,
                0.4318073458842635,
                -1.4529693397453385,
                -1.309920272498041,
                0.5451885542281236
            ]
        },
        {
            "positions": [
                2.097790628435423,
                -1.6510388271138883,
                0.4984046851357856,
                -1.4221512288441651,
                -1.1976793455228267,
                0.6709295111411884
            ]
        },
        {
            "positions": [
                2.1242600881183185,
                -1.6192158892701642,
                0.5650020243873077,
                -1.3913331179429917,
                -1.085438418547612,
                0.7966704680542531
            ]
        },
        {
            "positions": [
                2.1507295478012143,
                -1.58739295142644,
                0.6315993636388298,
                -1.3605150070418186,
                -0.9731974915723978,
                0.9224114249673179
            ]
        },
        {
            "positions": [
                2.1771990074841097,
                -1.5555700135827157,
                0.698196702890352,
                -1.3296968961406452,
                -0.8609565645971833,
                1.0481523818803828
            ]
        },
        {
            "positions": [
                2.203668467167005,
                -1.5237470757389917,
                0.7647940421418741,
                -1.2988787852394719,
                -0.7487156376219689,
                1.1738933387934474
            ]
        },
        {
            "positions": [
                2.230137926849901,
                -1.4919241378952675,
                0.8313913813933962,
                -1.2680606743382987,
                -0.6364747106467543,
                1.2996342957065121
            ]
        },
        {
            "positions": [
                2.2566073865327962,
                -1.4601012000515432,
                0.8979887206449183,
                -1.2372425634371254,
                -0.5242337836715398,
                1.4253752526195769
            ]
        },
        {
            "positions": [
                2.2830768462156916,
                -1.4282782622078192,
                0.9645860598964404,
                -1.206424452535952,
                -0.41199285669632557,
                1.5511162095326416
            ]
        },
        {
            "positions": [
                2.3095463058985874,
                -1.396455324364095,
                1.0311833991479626,
                -1.1756063416347786,
                -0.2997519297211111,
                1.6768571664457064
            ]
        },
        {
            "positions": [
                2.336015765581483,
                -1.3646323865203707,
                1.0977807383994844,
                -1.1447882307336055,
                -0.18751100274589683,
                1.802598123358771
            ]
        },
        {
            "positions": [
                2.3624852252643787,
                -1.3328094486766466,
                1.1643780776510069,
                -1.113970119832432,
                -0.07527007577068212,
                1.928339080271836
            ]
        },
        {
            "positions": [
                2.388954684947274,
                -1.3009865108329224,
                1.2309754169025289,
                -1.0831520089312587,
                0.03697085120453214,
                2.054080037184901
            ]
        },
        {
            "positions": [
                2.41542414463017,
                -1.2691635729891981,
                1.297572756154051,
                -1.0523338980300854,
                0.14921177817974662,
                2.1798209940979656
            ]
        },
        {
            "positions": [
                2.4418936043130652,
                -1.237340635145474,
                1.3641700954055733,
                -1.0215157871289122,
                0.26145270515496133,
                2.3055619510110303
            ]
        },
        {
            "positions": [
                2.4683630639959606,
                -1.2055176973017498,
                1.430767434657095,
                -0.9906976762277389,
                0.3736936321301758,
                2.431302907924095
            ]
        },
        {
            "positions": [
                2.4948325236788564,
                -1.1736947594580256,
                1.4973647739086173,
                -0.9598795653265656,
                0.4859345591053901,
                2.55704386483716
            ]
        },
        {
            "positions": [
                2.5213019833617523,
                -1.1418718216143016,
                1.5639621131601396,
                -0.9290614544253922,
                0.5981754860806048,
                2.6827848217502246
            ]
        },
        {
            "positions": [
                2.5477714430446476,
                -1.1100488837705773,
                1.6305594524116618,
                -0.8982433435242189,
                0.710416413055819,
                2.8085257786632893
            ]
        },
        {
            "positions": [
                2.574240902727543,
                -1.078225945926853,
                1.6971567916631836,
                -0.8674252326230456,
                0.8226573400310333,
                2.934266735576354
            ]
        },
        {
            "positions": [
                2.600710362410439,
                -1.046403008083129,
                1.7637541309147058,
                -0.8366071217218722,
                0.934898267006248,
                3.060007692489419
            ]
        },
        {
            "positions": [
                2.6271798220933342,
                -1.0145800702394048,
                1.8303514701662278,
                -0.805789010820699,
                1.047139193981462,
                3.1857486494024836
            ]
        }
    ]
}