{
    "goal": {
        "global_pose": {
            "orientation": {
                "w": 0.005598929693374612,
                "x": 0.007748599140229565,
                "y": 0.7110244013736278,
                "z": -0.7031023480610252
            },
            "position": {
                "x": 0.1141497679147869,
                "y": -0.7141253447532654,
                "z": 0.3711530566215515
            }
        },
        "name": "move_to_auspresseinheit_B"
    },
    "id": "BiEST_move_to_auspresseinheit_B_85",
    "joint_names": [
        "shoulder_pan_joint",
        "shoulder_lift_joint",
        "elbow_joint",
        "wrist_1_joint",
        "wrist_2_joint",
        "wrist_3_joint"
    ],
    "metrics": {
        "cart_traj_len": 0.5647489727189262,
        "distance_elbow_joint": 0.059734174419925345,
        "distance_shoulder_lift_joint": 0.29424131487551186,
        "distance_shoulder_pan_joint": 0.5777814103379519,
        "distance_wrist_1_joint": 0.3162956663903701,
        "distance_wrist_2_joint": 0.9926179295722666,
        "distance_wrist_3_joint": 0.007695151495106245,
        "smoothness": 5.075305255429287e-16,
        "time": 0.061807931999999996,
        "traj_len": 1.4994551167311183,
        "weighted_distance": 1.8901506675511297
    },
    "planner": "BiEST",
    "start": {
        "state": {
            "elbow_joint": 2.0193083361928714,
            "shoulder_lift_joint": -1.1220246554650708,
            "shoulder_pan_joint": -1.0952077554168747,
            "wrist_1_joint": -0.8559753972642168,
            "wrist_2_joint": 0.4759566250798843,
            "wrist_3_joint": -3.1240929996934557
        }
    },
    "waypoints": [
        {
            "positions": [
                -1.0952077554168747,
                -1.1220246554650708,
                2.0193083361928714,
                -0.8559753972642168,
                0.4759566250798843,
                -3.1240929996934557
            ]
        },
        {
            "positions": [
                -1.1915046571398666,
                -1.1710648746109895,
                2.009352640456217,
                -0.8032594528658218,
                0.641392946675262,
                -3.1228104744442713
            ]
        },
        {
            "positions": [
                -1.2878015588628586,
                -1.220105093756908,
                1.999396944719563,
                -0.7505435084674268,
                0.8068292682706397,
                -3.121527949195087
            ]
        },
        {
            "positions": [
                -1.3840984605858506,
                -1.2691453129028267,
                1.9894412489829087,
                -0.6978275640690317,
                0.9722655898660175,
                -3.1202454239459025
            ]
        },
        {
            "positions": [
                -1.4803953623088426,
                -1.3181855320487454,
                1.9794855532462545,
                -0.6451116196706368,
                1.1377019114613953,
                -3.118962898696718
            ]
        },
        {
            "positions": [
                -1.5766922640318346,
                -1.367225751194664,
                1.9695298575096003,
                -0.5923956752722417,
                1.3031382330567731,
                -3.117680373447534
            ]
        },
        {
            "positions": [
                -1.6729891657548266,
                -1.4162659703405827,
                1.959574161772946,
                -0.5396797308738467,
                1.468574554652151,
                -3.1163978481983494
            ]
        }
    ]
}