{
    "goal": {
        "global_pose": {
            "orientation": {
                "w": -0.4816463035849501,
                "x": 0.5182115481033762,
                "y": 0.4908360881923453,
                "z": -0.5084816262002911
            },
            "position": {
                "x": -0.8240239810943604,
                "y": 0.19912469901144506,
                "z": 0.16403168439865112
            }
        },
        "name": "move_to_storage_D"
    },
    "id": "BiEST_move_to_storage_D_89",
    "joint_names": [
        "shoulder_pan_joint",
        "shoulder_lift_joint",
        "elbow_joint",
        "wrist_1_joint",
        "wrist_2_joint",
        "wrist_3_joint"
    ],
    "metrics": {
        "cart_traj_len": 0.6241814486650608,
        "distance_elbow_joint": 0.5534049721878949,
        "distance_shoulder_lift_joint": 0.19481706205264304,
        "distance_shoulder_pan_joint": 0.18945410539640062,
        "distance_wrist_1_joint": 4.1473309921146475,
        "distance_wrist_2_joint": 1.779634549008613,
        "distance_wrist_3_joint": 3.1612046055358727,
        "smoothness": 0.2957528029173923,
        "time": 0.119037892,
        "traj_len": 3.166361679640542,
        "weighted_distance": 4.719663233588927
    },
    "planner": "BiEST",
    "start": {
        "state": {
            "elbow_joint": -2.384821988534728,
            "shoulder_lift_joint": -2.2788054721415256,
            "shoulder_pan_joint": -0.1854694642142757,
            "wrist_1_joint": 1.4845938289331202,
            "wrist_2_joint": 0.17898776772866878,
            "wrist_3_joint": 0.037105688729662994
        }
    },
    "waypoints": [
        {
            "positions": [
                -0.1854694642142757,
                -2.2788054721415256,
                -2.384821988534728,
                1.4845938289331202,
                0.17898776772866878,
                0.037105688729662994
            ]
        },
        {
            "positions": [
                -0.13406994825759366,
                -2.255043629571717,
                -2.360607730742361,
                1.5158714848256545,
                0.18083343021962917,
                0.038285638890383084
            ]
        },
        {
            "positions": [
                -0.07432525774463435,
                -2.1799188278995767,
                -2.348160614263043,
                1.5814291822324331,
                0.17424892442949128,
                0.04343141637305892
            ]
        },
        {
            "positions": [
                -0.014580567231675029,
                -2.1047940262274363,
                -2.335713497783725,
                1.646986879639212,
                0.16766441863935339,
                0.04857719385573475
            ]
        },
        {
            "positions": [
                -0.015354117582250033,
                -2.105660926899876,
                -2.314701144390521,
                1.4809477987471888,
                0.09413859051696269,
                0.17981607303947644
            ]
        },
        {
            "positions": [
                -0.016127667932825038,
                -2.106527827572316,
                -2.2936887909973174,
                1.3149087178551657,
                0.020612762394571993,
                0.3110549522232181
            ]
        },
        {
            "positions": [
                -0.016901218283400042,
                -2.1073947282447554,
                -2.2726764376041135,
                1.1488696369631426,
                -0.05291306572781873,
                0.4422938314069599
            ]
        },
        {
            "positions": [
                -0.017674768633975046,
                -2.1082616289171954,
                -2.2516640842109097,
                0.9828305560711194,
                -0.1264388938502094,
                0.5735327105907015
            ]
        },
        {
            "positions": [
                -0.01844831898455005,
                -2.109128529589635,
                -2.230651730817706,
                0.8167914751790961,
                -0.19996472197260018,
                0.7047715897744433
            ]
        },
        {
            "positions": [
                -0.019221869335125055,
                -2.1099954302620745,
                -2.209639377424502,
                0.650752394287073,
                -0.27349055009499085,
                0.836010468958185
            ]
        },
        {
            "positions": [
                -0.019995419685700063,
                -2.1108623309345145,
                -2.188627024031298,
                0.48471331339504986,
                -0.34701637821738157,
                0.9672493481419268
            ]
        },
        {
            "positions": [
                -0.020768970036275064,
                -2.111729231606954,
                -2.1676146706380943,
                0.31867423250302673,
                -0.4205422063397722,
                1.0984882273256682
            ]
        },
        {
            "positions": [
                -0.021542520386850072,
                -2.112596132279394,
                -2.1466023172448905,
                0.1526351516110036,
                -0.4940680344621629,
                1.22972710650941
            ]
        },
        {
            "positions": [
                -0.022316070737425076,
                -2.1134630329518336,
                -2.1255899638516866,
                -0.013403929281019744,
                -0.5675938625845538,
                1.3609659856931517
            ]
        },
        {
            "positions": [
                -0.02308962108800008,
                -2.1143299336242736,
                -2.104577610458483,
                -0.17944301017304287,
                -0.6411196907069443,
                1.4922048648768933
            ]
        },
        {
            "positions": [
                -0.023863171438575085,
                -2.115196834296713,
                -2.083565257065279,
                -0.345482091065066,
                -0.714645518829335,
                1.623443744060635
            ]
        },
        {
            "positions": [
                -0.02463672178915009,
                -2.1160637349691527,
                -2.062552903672075,
                -0.5115211719570889,
                -0.7881713469517257,
                1.7546826232443766
            ]
        },
        {
            "positions": [
                -0.025410272139725097,
                -2.1169306356415927,
                -2.0415405502788713,
                -0.6775602528491123,
                -0.8616971750741165,
                1.8859215024281186
            ]
        },
        {
            "positions": [
                -0.026183822490300098,
                -2.1177975363140322,
                -2.0205281968856674,
                -0.8435993337411356,
                -0.9352230031965072,
                2.0171603816118604
            ]
        },
        {
            "positions": [
                -0.026957372840875102,
                -2.118664436986472,
                -1.9995158434924638,
                -1.0096384146331585,
                -1.0087488313188977,
                2.148399260795602
            ]
        },
        {
            "positions": [
                -0.02773092319145011,
                -2.1195313376589118,
                -1.9785034900992597,
                -1.1756774955251819,
                -1.0822746594412886,
                2.279638139979344
            ]
        },
        {
            "positions": [
                -0.028504473542025115,
                -2.1203982383313518,
                -1.9574911367060561,
                -1.3417165764172048,
                -1.1558004875636791,
                2.4108770191630855
            ]
        },
        {
            "positions": [
                -0.02927802389260012,
                -2.1212651390037913,
                -1.9364787833128523,
                -1.5077556573092281,
                -1.2293263156860699,
                2.542115898346827
            ]
        },
        {
            "positions": [
                -0.030051574243175123,
                -2.122132039676231,
                -1.9154664299196484,
                -1.6737947382012515,
                -1.3028521438084608,
                2.673354777530569
            ]
        },
        {
            "positions": [
                -0.030825124593750128,
                -2.122998940348671,
                -1.8944540765264446,
                -1.8398338190932744,
                -1.3763779719308513,
                2.8045936567143106
            ]
        },
        {
            "positions": [
                -0.03159867494432513,
                -2.1238658410211104,
                -1.8734417231332408,
                -2.005872899985298,
                -1.449903800053242,
                2.935832535898052
            ]
        },
        {
            "positions": [
                -0.03237222529490014,
                -2.1247327416935504,
                -1.852429369740037,
                -2.1719119808773213,
                -1.5234296281756328,
                3.067071415081794
            ]
        },
        {
            "positions": [
                -0.03314577564547514,
                -2.12559964236599,
                -1.831417016346833,
                -2.3379510617693438,
                -1.5969554562980235,
                3.1983102942655357
            ]
        }
    ]
}