{
    "goal": {
        "global_pose": {
            "orientation": {
                "w": 0.5084816217422485,
                "x": -0.49083608388900757,
                "y": 0.5182115435600281,
                "z": -0.4816462993621826
            },
            "position": {
                "x": 0.5540239810943604,
                "y": 0.030875300988554955,
                "z": 0.16403168439865112
            }
        },
        "name": "move_to_storage_A"
    },
    "id": "BiEST_move_to_storage_A_42",
    "joint_names": [
        "shoulder_pan_joint",
        "shoulder_lift_joint",
        "elbow_joint",
        "wrist_1_joint",
        "wrist_2_joint",
        "wrist_3_joint"
    ],
    "metrics": {
        "cart_traj_len": 0.35315178818820986,
        "distance_elbow_joint": 0.4478779997925344,
        "distance_shoulder_lift_joint": 0.23284813228139112,
        "distance_shoulder_pan_joint": 0.46206430068859855,
        "distance_wrist_1_joint": 0.23742688128929712,
        "distance_wrist_2_joint": 1.0967038467864976,
        "distance_wrist_3_joint": 0.09966757069311871,
        "smoothness": 0.0,
        "time": 0.080191925,
        "traj_len": 1.6051756076926404,
        "weighted_distance": 2.027326959568552
    },
    "planner": "BiEST",
    "start": {
        "state": {
            "elbow_joint": 1.971548259319323,
            "shoulder_lift_joint": -1.1394851275133948,
            "shoulder_pan_joint": 0.1228115487234821,
            "wrist_1_joint": -0.7804723859257726,
            "wrist_2_joint": 0.12958671773740124,
            "wrist_3_joint": -3.192489227718131
        }
    },
    "waypoints": [
        {
            "positions": [
                0.1228115487234821,
                -1.1394851275133948,
                1.971548259319323,
                -0.7804723859257726,
                0.12958671773740124,
                -3.192489227718131
            ]
        },
        {
            "positions": [
                0.056802362910825174,
                -1.1727491464107365,
                2.0355308307182565,
                -0.8143905118242436,
                0.28625869584975805,
                -3.1782510033333997
            ]
        },
        {
            "positions": [
                -0.009206822901831752,
                -1.206013165308078,
                2.09951340211719,
                -0.8483086377227147,
                0.44293067396211483,
                -3.1640127789486687
            ]
        },
        {
            "positions": [
                -0.07521600871448869,
                -1.2392771842054195,
                2.1634959735161234,
                -0.8822267636211857,
                0.5996026520744716,
                -3.1497745545639373
            ]
        },
        {
            "positions": [
                -0.1412251945271456,
                -1.2725412031027612,
                2.2274785449150567,
                -0.9161448895196567,
                0.7562746301868284,
                -3.1355363301792063
            ]
        },
        {
            "positions": [
                -0.20723438033980257,
                -1.3058052220001028,
                2.2914611163139904,
                -0.9500630154181278,
                0.9129466082991853,
                -3.121298105794475
            ]
        },
        {
            "positions": [
                -0.2732435661524595,
                -1.3390692408974443,
                2.355443687712924,
                -0.9839811413165986,
                1.069618586411542,
                -3.107059881409744
            ]
        },
        {
            "positions": [
                -0.33925275196511645,
                -1.372333259794786,
                2.4194262591118574,
                -1.0178992672150697,
                1.2262905645238988,
                -3.0928216570250124
            ]
        }
    ]
}{
    "goal": {
        "global_pose": {
            "orientation": {
                "w": 0.5084816217422485,
                "x": -0.49083608388900757,
                "y": 0.5182115435600281,
                "z": -0.4816462993621826
            },
            "position": {
                "x": 0.5540239810943604,
                "y": 0.030875300988554955,
                "z": 0.16403168439865112
            }
        },
        "name": "move_to_storage_A"
    },
    "id": "BiEST_move_to_storage_A_42",
    "joint_names": [
        "shoulder_pan_joint",
        "shoulder_lift_joint",
        "elbow_joint",
        "wrist_1_joint",
        "wrist_2_joint",
        "wrist_3_joint"
    ],
    "metrics": {
        "cart_traj_len": 0.3528224987030789,
        "distance_elbow_joint": 0.44758991984214713,
        "distance_shoulder_lift_joint": 0.2331464033262174,
        "distance_shoulder_pan_joint": 0.4603063344525445,
        "distance_wrist_1_joint": 0.2371499518282687,
        "distance_wrist_2_joint": 1.1018112225124002,
        "distance_wrist_3_joint": 0.09346470094983461,
        "smoothness": 0.0,
        "time": 0.071031758,
        "traj_len": 1.6042033951190269,
        "weighted_distance": 2.0246874102319476
    },
    "planner": "BiEST",
    "start": {
        "state": {
            "elbow_joint": 1.97154746011099,
            "shoulder_lift_joint": -1.13948474672311,
            "shoulder_pan_joint": 0.12281154466712228,
            "wrist_1_joint": -0.7804688027058302,
            "wrist_2_joint": 0.12958655903071145,
            "wrist_3_joint": 3.0906928834467795
        }
    },
    "waypoints": [
        {
            "positions": [
                0.12281154466712228,
                -1.13948474672311,
                1.97154746011099,
                -0.7804688027058302,
                0.12958655903071145,
                3.0906928834467795
            ]
        },
        {
            "positions": [
                0.057053496888187366,
                -1.1727913757697124,
                2.0354888772312965,
                -0.8143473672527257,
                0.2869881622467686,
                3.10404498358247
            ]
        },
        {
            "positions": [
                -0.00870455089074755,
                -1.206098004816315,
                2.0994302943516034,
                -0.8482259317996212,
                0.4443897654628257,
                3.117397083718161
            ]
        },
        {
            "positions": [
                -0.07446259866968248,
                -1.2394046338629174,
                2.16337171147191,
                -0.8821044963465168,
                0.6017913686788829,
                3.1307491838538515
            ]
        },
        {
            "positions": [
                -0.14022064644861737,
                -1.2727112629095199,
                2.227313128592217,
                -0.9159830608934123,
                0.7591929718949401,
                3.144101283989542
            ]
        },
        {
            "positions": [
                -0.20597869422755233,
                -1.3060178919561225,
                2.2912545457125235,
                -0.9498616254403078,
                0.9165945751109973,
                3.157453384125233
            ]
        },
        {
            "positions": [
                -0.27173674200648723,
                -1.339324521002725,
                2.3551959628328305,
                -0.9837401899872034,
                1.0739961783270544,
                3.1708054842609235
            ]
        },
        {
            "positions": [
                -0.3374947897854222,
                -1.3726311500493273,
                2.419137379953137,
                -1.017618754534099,
                1.2313977815431116,
                3.184157584396614
            ]
        }
    ]
}{
    "goal": {
        "global_pose": {
            "orientation": {
                "w": 0.5084816217422485,
                "x": -0.49083608388900757,
                "y": 0.5182115435600281,
                "z": -0.4816462993621826
            },
            "position": {
                "x": 0.5540239810943604,
                "y": 0.030875300988554955,
                "z": 0.16403168439865112
            }
        },
        "name": "move_to_storage_A"
    },
    "id": "BiEST_move_to_storage_A_42",
    "joint_names": [
        "shoulder_pan_joint",
        "shoulder_lift_joint",
        "elbow_joint",
        "wrist_1_joint",
        "wrist_2_joint",
        "wrist_3_joint"
    ],
    "metrics": {
        "cart_traj_len": 0.3536411495676427,
        "distance_elbow_joint": 0.45438470806183195,
        "distance_shoulder_lift_joint": 0.23429363893699762,
        "distance_shoulder_pan_joint": 0.46237341867910703,
        "distance_wrist_1_joint": 0.2581823626556672,
        "distance_wrist_2_joint": 1.1008874552844776,
        "distance_wrist_3_joint": 0.09822403068069274,
        "smoothness": 4.440892098500626e-16,
        "time": 0.058884804,
        "traj_len": 1.6150373414564674,
        "weighted_distance": 2.0405547024278237
    },
    "planner": "BiEST",
    "start": {
        "state": {
            "elbow_joint": 1.9715472970024885,
            "shoulder_lift_joint": -1.1394870060712896,
            "shoulder_pan_joint": 0.12281152778156021,
            "wrist_1_joint": -0.780463741449964,
            "wrist_2_joint": 0.12958659822042276,
            "wrist_3_joint": 3.090690232415272
        }
    },
    "waypoints": [
        {
            "positions": [
                0.12281152778156021,
                -1.1394870060712896,
                1.9715472970024885,
                -0.780463741449964,
                0.12958659822042276,
                3.090690232415272
            ]
        },
        {
            "positions": [
                0.0567581822559735,
                -1.172957525919432,
                2.0364593981541788,
                -0.8173469361150593,
                0.28685623468963384,
                3.104722236798228
            ]
        },
        {
            "positions": [
                -0.009295163269613216,
                -1.2064280457675747,
                2.101371499305869,
                -0.8542301307801546,
                0.44412587115884494,
                3.118754241181184
            ]
        },
        {
            "positions": [
                -0.07534850879519991,
                -1.239898565615717,
                2.166283600457559,
                -0.8911133254452499,
                0.601395507628056,
                3.13278624556414
            ]
        },
        {
            "positions": [
                -0.14140185432078664,
                -1.2733690854638597,
                2.2311957016092494,
                -0.9279965201103453,
                0.758665144097267,
                3.1468182499470965
            ]
        },
        {
            "positions": [
                -0.20745519984637337,
                -1.3068396053120022,
                2.29610780276094,
                -0.9648797147754405,
                0.9159347805664781,
                3.1608502543300525
            ]
        },
        {
            "positions": [
                -0.27350854537196,
                -1.3403101251601446,
                2.3610199039126303,
                -1.0017629094405358,
                1.0732044170356894,
                3.1748822587130086
            ]
        },
        {
            "positions": [
                -0.3395618908975468,
                -1.3737806450082872,
                2.4259320050643205,
                -1.0386461041056312,
                1.2304740535049004,
                3.1889142630959646
            ]
        }
    ]
}