{
    "goal": {
        "global_pose": {
            "orientation": {
                "w": 0.7031023480610252,
                "x": -0.7110244013736278,
                "y": 0.0077485991402295624,
                "z": 0.005598929693374583
            },
            "position": {
                "x": -0.8841497679147869,
                "y": 0.44412534475326537,
                "z": 0.3711530566215515
            }
        },
        "name": "move_to_auspresseinheit_D"
    },
    "id": "BiEST_move_to_auspresseinheit_D_57",
    "joint_names": [
        "shoulder_pan_joint",
        "shoulder_lift_joint",
        "elbow_joint",
        "wrist_1_joint",
        "wrist_2_joint",
        "wrist_3_joint"
    ],
    "metrics": {
        "cart_traj_len": 0.34409616082584465,
        "distance_elbow_joint": 0.6666996861595886,
        "distance_shoulder_lift_joint": 0.13765463661291344,
        "distance_shoulder_pan_joint": 0.13332046072155931,
        "distance_wrist_1_joint": 0.6198459106474821,
        "distance_wrist_2_joint": 1.448969703278627,
        "distance_wrist_3_joint": 0.08098388192103201,
        "smoothness": 0.0,
        "time": 0.046861992000000005,
        "traj_len": 1.757121020118194,
        "weighted_distance": 2.3061347872813887
    },
    "planner": "BiEST",
    "start": {
        "state": {
            "elbow_joint": -1.8275523626775212,
            "shoulder_lift_joint": -2.126789852344167,
            "shoulder_pan_joint": -0.03513704404078235,
            "wrist_1_joint": -2.347782403156801,
            "wrist_2_joint": -1.6058999987535132,
            "wrist_3_joint": -3.0880379163319196
        }
    },
    "waypoints": [
        {
            "positions": [
                -0.03513704404078235,
                -2.126789852344167,
                -1.8275523626775212,
                -2.347782403156801,
                -1.6058999987535132,
                -3.0880379163319196
            ]
        },
        {
            "positions": [
                -0.05180210163097726,
                -2.143996681920781,
                -1.7442149019075726,
                -2.425263141987736,
                -1.424778785843685,
                -3.0779149310917906
            ]
        },
        {
            "positions": [
                -0.06846715922117218,
                -2.161203511497395,
                -1.660877441137624,
                -2.5027438808186715,
                -1.2436575729338564,
                -3.0677919458516616
            ]
        },
        {
            "positions": [
                -0.0851322168113671,
                -2.1784103410740094,
                -1.5775399803676755,
                -2.5802246196496066,
                -1.062536360024028,
                -3.0576689606115326
            ]
        },
        {
            "positions": [
                -0.101797274401562,
                -2.195617170650624,
                -1.4942025195977269,
                -2.657705358480542,
                -0.8814151471141997,
                -3.0475459753714036
            ]
        },
        {
            "positions": [
                -0.11846233199175693,
                -2.2128240002272377,
                -1.4108650588277782,
                -2.735186097311477,
                -0.7002939342043712,
                -3.0374229901312746
            ]
        },
        {
            "positions": [
                -0.13512738958195183,
                -2.230030829803852,
                -1.3275275980578298,
                -2.8126668361424123,
                -0.519172721294543,
                -3.0273000048911456
            ]
        },
        {
            "positions": [
                -0.15179244717214674,
                -2.247237659380466,
                -1.2441901372878812,
                -2.890147574973348,
                -0.3380515083847144,
                -3.0171770196510166
            ]
        },
        {
            "positions": [
                -0.16845750476234167,
                -2.2644444889570803,
                -1.1608526765179326,
                -2.967628313804283,
                -0.1569302954748862,
                -3.0070540344108876
            ]
        }
    ]
}