{
    "goal": {
        "global_pose": {
            "orientation": {
                "w": -0.4816463035849501,
                "x": 0.5182115481033762,
                "y": 0.4908360881923453,
                "z": -0.5084816262002911
            },
            "position": {
                "x": -0.8240239810943604,
                "y": -0.300875300988555,
                "z": 0.16403168439865112
            }
        },
        "name": "move_to_storage_C"
    },
    "id": "BiEST_move_to_storage_C_86",
    "joint_names": [
        "shoulder_pan_joint",
        "shoulder_lift_joint",
        "elbow_joint",
        "wrist_1_joint",
        "wrist_2_joint",
        "wrist_3_joint"
    ],
    "metrics": {
        "cart_traj_len": 0.5766086081923777,
        "distance_elbow_joint": 0.25510116571428054,
        "distance_shoulder_lift_joint": 0.1878391845932592,
        "distance_shoulder_pan_joint": 0.49591201490026515,
        "distance_wrist_1_joint": 0.07090426370919922,
        "distance_wrist_2_joint": 1.0620639592361294,
        "distance_wrist_3_joint": 0.0731932343790116,
        "smoothness": 5.075305295617109e-16,
        "time": 0.057826445000000004,
        "traj_len": 1.464586570514746,
        "weighted_distance": 1.8505049349395146
    },
    "planner": "BiEST",
    "start": {
        "state": {
            "elbow_joint": 2.010868314990456,
            "shoulder_lift_joint": -1.1634956873337592,
            "shoulder_pan_joint": -2.4736205022346125,
            "wrist_1_joint": -0.8367026794202681,
            "wrist_2_joint": 0.6746043897044499,
            "wrist_3_joint": -3.1496632123970403
        }
    },
    "waypoints": [
        {
            "positions": [
                -2.4736205022346125,
                -1.1634956873337592,
                2.010868314990456,
                -0.8367026794202681,
                0.6746043897044499,
                -3.1496632123970403
            ]
        },
        {
            "positions": [
                -2.55627250471799,
                -1.132189156568216,
                1.9683514540380758,
                -0.8248853021354016,
                0.8516150495771382,
                -3.1374643400005384
            ]
        },
        {
            "positions": [
                -2.6389245072013674,
                -1.1008826258026727,
                1.9258345930856957,
                -0.813067924850535,
                1.0286257094498263,
                -3.1252654676040366
            ]
        },
        {
            "positions": [
                -2.721576509684745,
                -1.0695760950371296,
                1.8833177321333157,
                -0.8012505475656685,
                1.2056363693225145,
                -3.1130665952075347
            ]
        },
        {
            "positions": [
                -2.8042285121681227,
                -1.0382695642715865,
                1.8408008711809354,
                -0.789433170280802,
                1.3826470291952027,
                -3.1008677228110324
            ]
        },
        {
            "positions": [
                -2.8868805146515,
                -1.006963033506043,
                1.7982840102285553,
                -0.7776157929959354,
                1.5596576890678913,
                -3.0886688504145305
            ]
        },
        {
            "positions": [
                -2.9695325171348776,
                -0.9756565027405,
                1.7557671492761753,
                -0.7657984157110689,
                1.7366683489405794,
                -3.0764699780180287
            ]
        }
    ]
}