{
    "goal": {
        "global_pose": {
            "orientation": {
                "w": 0.005598929693374612,
                "x": 0.007748599140229565,
                "y": 0.7110244013736278,
                "z": -0.7031023480610252
            },
            "position": {
                "x": 0.1141497679147869,
                "y": -0.7141253447532654,
                "z": 0.3711530566215515
            }
        },
        "name": "move_to_auspresseinheit_B"
    },
    "id": "BiEST_move_to_auspresseinheit_B_105",
    "joint_names": [
        "shoulder_pan_joint",
        "shoulder_lift_joint",
        "elbow_joint",
        "wrist_1_joint",
        "wrist_2_joint",
        "wrist_3_joint"
    ],
    "metrics": {
        "cart_traj_len": 0.5641639424895665,
        "distance_elbow_joint": 0.059774988179023936,
        "distance_shoulder_lift_joint": 0.29510510840236237,
        "distance_shoulder_pan_joint": 0.5753694045387288,
        "distance_wrist_1_joint": 0.3148794416921178,
        "distance_wrist_2_joint": 0.9988275097841928,
        "distance_wrist_3_joint": 0.0066646971290245105,
        "smoothness": 5.075305255429287e-16,
        "time": 0.067009145,
        "traj_len": 1.5002070356205675,
        "weighted_distance": 1.8914696654876095
    },
    "planner": "BiEST",
    "start": {
        "state": {
            "elbow_joint": 2.0193083361928714,
            "shoulder_lift_joint": -1.1220246554650708,
            "shoulder_pan_joint": -1.0952077554168747,
            "wrist_1_joint": -0.8559753972642168,
            "wrist_2_joint": 0.4759566250798843,
            "wrist_3_joint": -3.1240929996934557
        }
    },
    "waypoints": [
        {
            "positions": [
                -1.0952077554168747,
                -1.1220246554650708,
                2.0193083361928714,
                -0.8559753972642168,
                0.4759566250798843,
                -3.1240929996934557
            ]
        },
        {
            "positions": [
                -1.1911026561733293,
                -1.171208840198798,
                2.0093458381630342,
                -0.8034954903155305,
                0.6424278767105831,
                -3.122982216838618
            ]
        },
        {
            "positions": [
                -1.2869975569297842,
                -1.220393024932525,
                1.9993833401331969,
                -0.7510155833668442,
                0.8088991283412819,
                -3.121871433983781
            ]
        },
        {
            "positions": [
                -1.3828924576862391,
                -1.2695772096662519,
                1.9894208421033595,
                -0.6985356764181578,
                0.9753703799719806,
                -3.1207606511289434
            ]
        },
        {
            "positions": [
                -1.4787873584426938,
                -1.318761394399979,
                1.979458344073522,
                -0.6460557694694716,
                1.1418416316026794,
                -3.119649868274106
            ]
        },
        {
            "positions": [
                -1.5746822591991485,
                -1.367945579133706,
                1.9694958460436849,
                -0.5935758625207852,
                1.3083128832333784,
                -3.1185390854192687
            ]
        },
        {
            "positions": [
                -1.6705771599556034,
                -1.4171297638674332,
                1.9595333480138475,
                -0.541095955572099,
                1.4747841348640771,
                -3.117428302564431
            ]
        }
    ]
}