{
    "goal": {
        "global_pose": {
            "orientation": {
                "w": -0.4816463035849501,
                "x": 0.5182115481033762,
                "y": 0.4908360881923453,
                "z": -0.5084816262002911
            },
            "position": {
                "x": -0.8240239810943604,
                "y": 0.19912469901144506,
                "z": 0.16403168439865112
            }
        },
        "name": "move_to_storage_D"
    },
    "id": "BiEST_move_to_storage_D_2",
    "joint_names": [
        "shoulder_pan_joint",
        "shoulder_lift_joint",
        "elbow_joint",
        "wrist_1_joint",
        "wrist_2_joint",
        "wrist_3_joint"
    ],
    "metrics": {
        "cart_traj_len": 4.007078976734949,
        "distance_elbow_joint": 4.20938221408818,
        "distance_shoulder_lift_joint": 1.2647794033457918,
        "distance_shoulder_pan_joint": 2.814950337665841,
        "distance_wrist_1_joint": 2.2698617476766234,
        "distance_wrist_2_joint": 0.8852127083663617,
        "distance_wrist_3_joint": 3.660017872797815,
        "smoothness": 0.037182722785372053,
        "time": 0.109071948,
        "traj_len": 3.8864127783781037,
        "weighted_distance": 5.057599676287086
    },
    "planner": "BiEST",
    "start": {
        "state": {
            "elbow_joint": -2.384821988534728,
            "shoulder_lift_joint": -2.2788054721415256,
            "shoulder_pan_joint": -0.1854694642142757,
            "wrist_1_joint": 1.4845938289331202,
            "wrist_2_joint": 0.17898776772866878,
            "wrist_3_joint": 0.037105688729662994
        }
    },
    "waypoints": [
        {
            "positions": [
                -0.1854694642142757,
                -2.2788054721415256,
                -2.384821988534728,
                1.4845938289331202,
                0.17898776772866878,
                0.037105688729662994
            ]
        },
        {
            "positions": [
                -0.0674181804789782,
                -2.253943552068388,
                -2.242840497026986,
                1.4280625390149542,
                0.19418274191163698,
                0.05484181757419602
            ]
        },
        {
            "positions": [
                0.05063310325631931,
                -2.2290816319952507,
                -2.100859005519244,
                1.3715312490967881,
                0.2093777160946052,
                0.07257794641872904
            ]
        },
        {
            "positions": [
                0.1686843869916169,
                -2.204219711922113,
                -1.9588775140115018,
                1.3149999591786221,
                0.2245726902775734,
                0.09031407526326207
            ]
        },
        {
            "positions": [
                0.2867356707269143,
                -2.1793577918489753,
                -1.8168960225037598,
                1.2584686692604563,
                0.2397676644605416,
                0.10805020410779509
            ]
        },
        {
            "positions": [
                0.4047869544622119,
                -2.154495871775838,
                -1.6749145309960178,
                1.2019373793422903,
                0.2549626386435098,
                0.1257863329523281
            ]
        },
        {
            "positions": [
                0.5228382381975095,
                -2.1296339517027003,
                -1.5329330394882756,
                1.1454060894241243,
                0.27015761282647804,
                0.14352246179686115
            ]
        },
        {
            "positions": [
                0.640889521932807,
                -2.1047720316295626,
                -1.3909515479805337,
                1.0888747995059582,
                0.2853525870094462,
                0.16125859064139417
            ]
        },
        {
            "positions": [
                0.7589408056681044,
                -2.0799101115564254,
                -1.2489700564727917,
                1.0323435095877924,
                0.30054756119241444,
                0.17899471948592718
            ]
        },
        {
            "positions": [
                0.8769920894034019,
                -2.0550481914832877,
                -1.1069885649650497,
                0.9758122196696264,
                0.31574253537538266,
                0.1967308483304602
            ]
        },
        {
            "positions": [
                0.9950433731386995,
                -2.03018627141015,
                -0.9650070734573077,
                0.9192809297514604,
                0.3309375095583509,
                0.21446697717499322
            ]
        },
        {
            "positions": [
                1.1130946568739968,
                -2.0053243513370127,
                -0.8230255819495658,
                0.8627496398332944,
                0.34613248374131905,
                0.23220310601952623
            ]
        },
        {
            "positions": [
                1.2311459406092946,
                -1.980462431263875,
                -0.6810440904418233,
                0.8062183499151283,
                0.3613274579242873,
                0.2499392348640593
            ]
        },
        {
            "positions": [
                1.349197224344592,
                -1.9556005111907373,
                -0.5390625989340814,
                0.7496870599969624,
                0.37652243210725544,
                0.26767536370859235
            ]
        },
        {
            "positions": [
                1.4672485080798896,
                -1.9307385911175998,
                -0.3970811074263394,
                0.6931557700787964,
                0.39171740629022367,
                0.28541149255312537
            ]
        },
        {
            "positions": [
                1.585299791815187,
                -1.9058766710444623,
                -0.25509961591859753,
                0.6366244801606304,
                0.4069123804731919,
                0.30314762139765833
            ]
        },
        {
            "positions": [
                1.6288073368833693,
                -1.8687162292840986,
                -0.16844712252392874,
                0.5773789635396248,
                0.43429938445743516,
                0.1617319572255825
            ]
        },
        {
            "positions": [
                1.6723148819515519,
                -1.831555787523735,
                -0.08179462912925994,
                0.5181334469186193,
                0.4616863884416784,
                0.020316293053506684
            ]
        },
        {
            "positions": [
                1.7158224270197342,
                -1.7943953457633712,
                0.004857864265408851,
                0.45888793029761366,
                0.48907339242592174,
                -0.12109937111856917
            ]
        },
        {
            "positions": [
                1.7593299720879165,
                -1.7572349040030075,
                0.09151035766007765,
                0.39964241367660813,
                0.5164603964101651,
                -0.26251503529064496
            ]
        },
        {
            "positions": [
                1.802837517156099,
                -1.7200744622426438,
                0.17816285105474644,
                0.3403968970556025,
                0.5438474003944083,
                -0.4039306994627208
            ]
        },
        {
            "positions": [
                1.8463450622242814,
                -1.6829140204822801,
                0.26481534444941524,
                0.2811513804345969,
                0.5712344043786516,
                -0.5453463636347966
            ]
        },
        {
            "positions": [
                1.8898526072924637,
                -1.6457535787219166,
                0.3514678378440841,
                0.2219058638135913,
                0.5986214083628949,
                -0.6867620278068725
            ]
        },
        {
            "positions": [
                1.933360152360646,
                -1.608593136961553,
                0.4381203312387528,
                0.16266034719258576,
                0.6260084123471381,
                -0.8281776919789483
            ]
        },
        {
            "positions": [
                1.9768676974288284,
                -1.5714326952011892,
                0.5247728246334217,
                0.10341483057158019,
                0.6533954163313813,
                -0.9695933561510242
            ]
        },
        {
            "positions": [
                2.020375242497011,
                -1.5342722534408255,
                0.6114253180280904,
                0.04416931395057455,
                0.6807824203156247,
                -1.1110090203231
            ]
        },
        {
            "positions": [
                2.063882787565193,
                -1.4971118116804618,
                0.6980778114227592,
                -0.015076202670430972,
                0.708169424299868,
                -1.2524246844951759
            ]
        },
        {
            "positions": [
                2.1073903326333756,
                -1.459951369920098,
                0.784730304817428,
                -0.0743217192914366,
                0.7355564282841112,
                -1.3938403486672517
            ]
        },
        {
            "positions": [
                2.150897877701558,
                -1.4227909281597344,
                0.8713827982120966,
                -0.13356723591244213,
                0.7629434322683545,
                -1.5352560128393273
            ]
        },
        {
            "positions": [
                2.1944054227697407,
                -1.3856304863993707,
                0.9580352916067657,
                -0.19281275253344787,
                0.7903304362525978,
                -1.6766716770114034
            ]
        },
        {
            "positions": [
                2.237912967837923,
                -1.348470044639007,
                1.0446877850014342,
                -0.2520582691544534,
                0.817717440236841,
                -1.818087341183479
            ]
        },
        {
            "positions": [
                2.2814205129061054,
                -1.3113096028786435,
                1.1313402783961033,
                -0.3113037857754589,
                0.8451044442210843,
                -1.9595030053555549
            ]
        },
        {
            "positions": [
                2.3249280579742875,
                -1.2741491611182796,
                1.217992771790772,
                -0.37054930239646455,
                0.8724914482053276,
                -2.100918669527631
            ]
        },
        {
            "positions": [
                2.36843560304247,
                -1.236988719357916,
                1.304645265185441,
                -0.4297948190174701,
                0.8998784521895709,
                -2.2423343336997066
            ]
        },
        {
            "positions": [
                2.4119431481106526,
                -1.1998282775975522,
                1.3912977585801096,
                -0.4890403356384756,
                0.9272654561738142,
                -2.3837499978717824
            ]
        },
        {
            "positions": [
                2.455450693178835,
                -1.1626678358371887,
                1.4779502519747783,
                -0.5482858522594813,
                0.9546524601580575,
                -2.5251656620438583
            ]
        },
        {
            "positions": [
                2.4989582382470172,
                -1.125507394076825,
                1.5646027453694473,
                -0.6075313688804869,
                0.9820394641423007,
                -2.666581326215934
            ]
        },
        {
            "positions": [
                2.5424657833151993,
                -1.0883469523164613,
                1.651255238764116,
                -0.6667768855014924,
                1.0094264681265441,
                -2.80799699038801
            ]
        },
        {
            "positions": [
                2.585973328383382,
                -1.0511865105560976,
                1.737907732158785,
                -0.7260224021224981,
                1.0368134721107873,
                -2.949412654560086
            ]
        },
        {
            "positions": [
                2.6294808734515644,
                -1.0140260687957339,
                1.8245602255534534,
                -0.7852679187435037,
                1.0642004760950305,
                -3.0908283187321617
            ]
        }
    ]
}