{
    "goal": {
        "global_pose": {
            "orientation": {
                "w": 0.7031023480610252,
                "x": -0.7110244013736278,
                "y": 0.0077485991402295624,
                "z": 0.005598929693374583
            },
            "position": {
                "x": -0.8841497679147869,
                "y": 0.44412534475326537,
                "z": 0.3711530566215515
            }
        },
        "name": "move_to_auspresseinheit_D"
    },
    "id": "BiEST_move_to_auspresseinheit_D_38",
    "joint_names": [
        "shoulder_pan_joint",
        "shoulder_lift_joint",
        "elbow_joint",
        "wrist_1_joint",
        "wrist_2_joint",
        "wrist_3_joint"
    ],
    "metrics": {
        "cart_traj_len": 0.34431917204359386,
        "distance_elbow_joint": 0.6631390002692723,
        "distance_shoulder_lift_joint": 0.13544711892838635,
        "distance_shoulder_pan_joint": 0.1338801041140027,
        "distance_wrist_1_joint": 0.6071806849292187,
        "distance_wrist_2_joint": 1.4423842767490394,
        "distance_wrist_3_joint": 0.07139845291218982,
        "smoothness": 1.9737298371844314e-16,
        "time": 0.051095468000000005,
        "traj_len": 1.7474065462570836,
        "weighted_distance": 2.2903692945472236
    },
    "planner": "BiEST",
    "start": {
        "state": {
            "elbow_joint": -1.8275523626775212,
            "shoulder_lift_joint": -2.126789852344167,
            "shoulder_pan_joint": -0.03513704404078235,
            "wrist_1_joint": -2.347782403156801,
            "wrist_2_joint": -1.6058999987535132,
            "wrist_3_joint": -3.0880379163319196
        }
    },
    "waypoints": [
        {
            "positions": [
                -0.03513704404078235,
                -2.126789852344167,
                -1.8275523626775212,
                -2.347782403156801,
                -1.6058999987535132,
                -3.0880379163319196
            ]
        },
        {
            "positions": [
                -0.051872057055032686,
                -2.143720742210215,
                -1.7446599876438622,
                -2.423679988772953,
                -1.4256019641598834,
                -3.0791131097178956
            ]
        },
        {
            "positions": [
                -0.06860707006928302,
                -2.1606516320762634,
                -1.6617676126102032,
                -2.4995775743891055,
                -1.2453039295662534,
                -3.070188303103872
            ]
        },
        {
            "positions": [
                -0.08534208308353336,
                -2.1775825219423117,
                -1.578875237576544,
                -2.575475160005258,
                -1.0650058949726233,
                -3.0612634964898486
            ]
        },
        {
            "positions": [
                -0.1020770960977837,
                -2.19451341180836,
                -1.495982862542885,
                -2.6513727456214102,
                -0.8847078603789935,
                -3.0523386898758247
            ]
        },
        {
            "positions": [
                -0.11881210911203405,
                -2.2114443016744083,
                -1.413090487509226,
                -2.7272703312375626,
                -0.7044098257853636,
                -3.0434138832618007
            ]
        },
        {
            "positions": [
                -0.13554712212628436,
                -2.2283751915404566,
                -1.3301981124755669,
                -2.803167916853715,
                -0.5241117911917337,
                -3.0344890766477772
            ]
        },
        {
            "positions": [
                -0.1522821351405347,
                -2.245306081406505,
                -1.2473057374419079,
                -2.8790655024698673,
                -0.34381375659810365,
                -3.0255642700337537
            ]
        },
        {
            "positions": [
                -0.16901714815478505,
                -2.262236971272553,
                -1.1644133624082489,
                -2.9549630880860196,
                -0.1635157220044739,
                -3.0166394634197298
            ]
        }
    ]
}