{
    "goal": {
        "global_pose": {
            "orientation": {
                "w": 0.005598929693374612,
                "x": 0.007748599140229565,
                "y": 0.7110244013736278,
                "z": -0.7031023480610252
            },
            "position": {
                "x": -0.8858502320852131,
                "y": -0.7141253447532654,
                "z": 0.3711530566215515
            }
        },
        "name": "move_to_auspresseinheit_C"
    },
    "id": "BiEST_move_to_auspresseinheit_C_77",
    "joint_names": [
        "shoulder_pan_joint",
        "shoulder_lift_joint",
        "elbow_joint",
        "wrist_1_joint",
        "wrist_2_joint",
        "wrist_3_joint"
    ],
    "metrics": {
        "cart_traj_len": 0.49319428774654755,
        "distance_elbow_joint": 0.9949354349181448,
        "distance_shoulder_lift_joint": 0.3218673362771487,
        "distance_shoulder_pan_joint": 0.2561214167280754,
        "distance_wrist_1_joint": 0.6639588354590897,
        "distance_wrist_2_joint": 1.3124008406696317,
        "distance_wrist_3_joint": 0.03958380823702168,
        "smoothness": 4.844609600361787e-16,
        "time": 0.069803592,
        "traj_len": 1.8944306987295976,
        "weighted_distance": 2.375793544248295
    },
    "planner": "BiEST",
    "start": {
        "state": {
            "elbow_joint": 1.7527959577737207,
            "shoulder_lift_joint": -0.9740617694225068,
            "shoulder_pan_joint": -2.967991417825858,
            "wrist_1_joint": -0.759517768980727,
            "wrist_2_joint": 1.7443932448377408,
            "wrist_3_joint": -3.0840537646736568
        }
    },
    "waypoints": [
        {
            "positions": [
                -2.967991417825858,
                -0.9740617694225068,
                1.7527959577737207,
                -0.759517768980727,
                1.7443932448377408,
                -3.0840537646736568
            ]
        },
        {
            "positions": [
                -2.9423792761530505,
                -0.9418750357947919,
                1.6533024142819062,
                -0.693121885434818,
                1.6131531607707776,
                -3.088012145497359
            ]
        },
        {
            "positions": [
                -2.916767134480243,
                -0.9096883021670771,
                1.5538088707900917,
                -0.626726001888909,
                1.4819130767038144,
                -3.0919705263210613
            ]
        },
        {
            "positions": [
                -2.891154992807435,
                -0.8775015685393621,
                1.4543153272982772,
                -0.5603301183430001,
                1.3506729926368513,
                -3.095928907144763
            ]
        },
        {
            "positions": [
                -2.8655428511346277,
                -0.8453148349116473,
                1.3548217838064627,
                -0.4939342347970911,
                1.219432908569888,
                -3.0998872879684654
            ]
        },
        {
            "positions": [
                -2.8399307094618202,
                -0.8131281012839324,
                1.2553282403146482,
                -0.4275383512511821,
                1.0881928245029249,
                -3.1038456687921676
            ]
        },
        {
            "positions": [
                -2.814318567789013,
                -0.7809413676562176,
                1.1558346968228337,
                -0.36114246770527314,
                0.9569527404359618,
                -3.10780404961587
            ]
        },
        {
            "positions": [
                -2.7887064261162053,
                -0.7487546340285027,
                1.0563411533310192,
                -0.2947465841593642,
                0.8257126563689987,
                -3.111762430439572
            ]
        },
        {
            "positions": [
                -2.7630942844433974,
                -0.7165679004007879,
                0.9568476098392047,
                -0.2283507006134552,
                0.6944725723020355,
                -3.115720811263274
            ]
        },
        {
            "positions": [
                -2.73748214277059,
                -0.6843811667730729,
                0.8573540663473903,
                -0.16195481706754622,
                0.5632324882350723,
                -3.119679192086976
            ]
        },
        {
            "positions": [
                -2.7118700010977825,
                -0.6521944331453581,
                0.7578605228555758,
                -0.0955589335216373,
                0.4319924041681091,
                -3.1236375729106785
            ]
        }
    ]
}