{
    "goal": {
        "global_pose": {
            "orientation": {
                "w": 0.5084816217422485,
                "x": -0.49083608388900757,
                "y": 0.5182115435600281,
                "z": -0.4816462993621826
            },
            "position": {
                "x": 0.5540239810943604,
                "y": 0.030875300988554955,
                "z": 0.16403168439865112
            }
        },
        "name": "move_to_storage_A"
    },
    "id": "BiEST_move_to_storage_A_7",
    "joint_names": [
        "shoulder_pan_joint",
        "shoulder_lift_joint",
        "elbow_joint",
        "wrist_1_joint",
        "wrist_2_joint",
        "wrist_3_joint"
    ],
    "metrics": {
        "cart_traj_len": 0.3533779249837687,
        "distance_elbow_joint": 0.4535288620096687,
        "distance_shoulder_lift_joint": 0.23435116055163974,
        "distance_shoulder_pan_joint": 0.4638364454560966,
        "distance_wrist_1_joint": 0.25333263682550655,
        "distance_wrist_2_joint": 1.0926395838761167,
        "distance_wrist_3_joint": 0.10128626699389276,
        "smoothness": 4.440892133664971e-16,
        "time": 0.033403817,
        "traj_len": 1.6121336655851215,
        "weighted_distance": 2.0365460246216704
    },
    "planner": "BiEST",
    "start": {
        "state": {
            "elbow_joint": 1.971548259319323,
            "shoulder_lift_joint": -1.1394851275133948,
            "shoulder_pan_joint": 0.1228115487234821,
            "wrist_1_joint": -0.7804723859257726,
            "wrist_2_joint": 0.12958671773740124,
            "wrist_3_joint": -3.192489227718131
        }
    },
    "waypoints": [
        {
            "positions": [
                0.1228115487234821,
                -1.1394851275133948,
                1.971548259319323,
                -0.7804723859257726,
                0.12958671773740124,
                -3.192489227718131
            ]
        },
        {
            "positions": [
                0.05654919937261116,
                -1.1729638647350575,
                2.0363380967492755,
                -0.8166627626151307,
                0.2856780868625608,
                -3.178019761004718
            ]
        },
        {
            "positions": [
                -0.009713149978259783,
                -1.2064426019567205,
                2.101127934179228,
                -0.8528531393044888,
                0.4417694559877203,
                -3.1635502942913045
            ]
        },
        {
            "positions": [
                -0.07597549932913072,
                -1.2399213391783832,
                2.165917771609181,
                -0.8890435159938468,
                0.5978608251128799,
                -3.149080827577891
            ]
        },
        {
            "positions": [
                -0.14223784868000167,
                -1.2734000764000462,
                2.2307076090391336,
                -0.9252338926832049,
                0.7539521942380394,
                -3.1346113608644783
            ]
        },
        {
            "positions": [
                -0.2085001980308726,
                -1.3068788136217089,
                2.2954974464690863,
                -0.961424269372563,
                0.9100435633631989,
                -3.120141894151065
            ]
        },
        {
            "positions": [
                -0.27476254738174355,
                -1.3403575508433718,
                2.360287283899039,
                -0.9976146460619211,
                1.0661349324883584,
                -3.1056724274376517
            ]
        },
        {
            "positions": [
                -0.3410248967326145,
                -1.3738362880650345,
                2.4250771213289917,
                -1.0338050227512792,
                1.222226301613518,
                -3.0912029607242384
            ]
        }
    ]
}{
    "goal": {
        "global_pose": {
            "orientation": {
                "w": 0.5084816217422485,
                "x": -0.49083608388900757,
                "y": 0.5182115435600281,
                "z": -0.4816462993621826
            },
            "position": {
                "x": 0.5540239810943604,
                "y": 0.030875300988554955,
                "z": 0.16403168439865112
            }
        },
        "name": "move_to_storage_A"
    },
    "id": "BiEST_move_to_storage_A_7",
    "joint_names": [
        "shoulder_pan_joint",
        "shoulder_lift_joint",
        "elbow_joint",
        "wrist_1_joint",
        "wrist_2_joint",
        "wrist_3_joint"
    ],
    "metrics": {
        "cart_traj_len": 0.3529011913844837,
        "distance_elbow_joint": 0.4518796283513802,
        "distance_shoulder_lift_joint": 0.234191166699955,
        "distance_shoulder_pan_joint": 0.4618101500768633,
        "distance_wrist_1_joint": 0.25517224289486573,
        "distance_wrist_2_joint": 1.09669928638074,
        "distance_wrist_3_joint": 0.09764242213727714,
        "smoothness": 1.998401446083499e-15,
        "time": 0.037745376,
        "traj_len": 1.6116435389195347,
        "weighted_distance": 2.0358171013357858
    },
    "planner": "BiEST",
    "start": {
        "state": {
            "elbow_joint": 1.97154746011099,
            "shoulder_lift_joint": -1.13948474672311,
            "shoulder_pan_joint": 0.12281154466712228,
            "wrist_1_joint": -0.7804688027058302,
            "wrist_2_joint": 0.12958655903071145,
            "wrist_3_joint": 3.0906928834467795
        }
    },
    "waypoints": [
        {
            "positions": [
                0.12281154466712228,
                -1.13948474672311,
                1.97154746011099,
                -0.7804688027058302,
                0.12958655903071145,
                3.0906928834467795
            ]
        },
        {
            "positions": [
                0.056838666084713246,
                -1.1729406276802463,
                2.0361016927326157,
                -0.8169219802622396,
                0.28625788565653143,
                3.104641800894962
            ]
        },
        {
            "positions": [
                -0.00913421249769579,
                -1.206396508637383,
                2.1006559253542414,
                -0.8533751578186489,
                0.4429292122823515,
                3.1185907183431443
            ]
        },
        {
            "positions": [
                -0.07510709108010484,
                -1.2398523895945193,
                2.165210157975867,
                -0.8898283353750583,
                0.5996005389081714,
                3.1325396357913267
            ]
        },
        {
            "positions": [
                -0.14107996966251385,
                -1.2733082705516556,
                2.229764390597493,
                -0.9262815129314678,
                0.7562718655339915,
                3.1464885532395095
            ]
        },
        {
            "positions": [
                -0.20705284824492293,
                -1.306764151508792,
                2.2943186232191186,
                -0.9627346904878771,
                0.9129431921598116,
                3.160437470687692
            ]
        },
        {
            "positions": [
                -0.27302572682733195,
                -1.3402200324659286,
                2.3588728558407444,
                -0.9991878680442865,
                1.0696145187856314,
                3.1743863881358743
            ]
        },
        {
            "positions": [
                -0.338998605409741,
                -1.373675913423065,
                2.42342708846237,
                -1.035641045600696,
                1.2262858454114516,
                3.1883353055840566
            ]
        }
    ]
}{
    "goal": {
        "global_pose": {
            "orientation": {
                "w": 0.5084816217422485,
                "x": -0.49083608388900757,
                "y": 0.5182115435600281,
                "z": -0.4816462993621826
            },
            "position": {
                "x": 0.5540239810943604,
                "y": 0.030875300988554955,
                "z": 0.16403168439865112
            }
        },
        "name": "move_to_storage_A"
    },
    "id": "BiEST_move_to_storage_A_7",
    "joint_names": [
        "shoulder_pan_joint",
        "shoulder_lift_joint",
        "elbow_joint",
        "wrist_1_joint",
        "wrist_2_joint",
        "wrist_3_joint"
    ],
    "metrics": {
        "cart_traj_len": 0.35263954336575637,
        "distance_elbow_joint": 0.44959003439428624,
        "distance_shoulder_lift_joint": 0.23246848818562715,
        "distance_shoulder_pan_joint": 0.4614611272943851,
        "distance_wrist_1_joint": 0.2466906004955074,
        "distance_wrist_2_joint": 1.095293826475019,
        "distance_wrist_3_joint": 0.09130346021955216,
        "smoothness": 1.3322676311638882e-15,
        "time": 0.053906385,
        "traj_len": 1.6052437625059868,
        "weighted_distance": 2.02519107357158
    },
    "planner": "BiEST",
    "start": {
        "state": {
            "elbow_joint": 1.9715472970024885,
            "shoulder_lift_joint": -1.1394870060712896,
            "shoulder_pan_joint": 0.12281152778156021,
            "wrist_1_joint": -0.780463741449964,
            "wrist_2_joint": 0.12958659822042276,
            "wrist_3_joint": 3.090690232415272
        }
    },
    "waypoints": [
        {
            "positions": [
                0.12281152778156021,
                -1.1394870060712896,
                1.9715472970024885,
                -0.780463741449964,
                0.12958659822042276,
                3.090690232415272
            ]
        },
        {
            "positions": [
                0.05688850959664807,
                -1.1726967900978078,
                2.035774444773101,
                -0.815705255806465,
                0.2860571448597112,
                3.103733583875208
            ]
        },
        {
            "positions": [
                -0.009034508588264073,
                -1.205906574124326,
                2.100001592543713,
                -0.850946770162966,
                0.4425276914989996,
                3.1167769353351438
            ]
        },
        {
            "positions": [
                -0.07495752677317621,
                -1.2391163581508442,
                2.1642287403143254,
                -0.8861882845194672,
                0.598998238138288,
                3.1298202867950797
            ]
        },
        {
            "positions": [
                -0.14088054495808836,
                -1.2723261421773622,
                2.228455888084938,
                -0.9214297988759682,
                0.7554687847775764,
                3.142863638255016
            ]
        },
        {
            "positions": [
                -0.20680356314300055,
                -1.3055359262038804,
                2.2926830358555503,
                -0.9566713132324693,
                0.9119393314168649,
                3.155906989714952
            ]
        },
        {
            "positions": [
                -0.2727265813279126,
                -1.3387457102303986,
                2.3569101836261623,
                -0.9919128275889704,
                1.0684098780561533,
                3.168950341174888
            ]
        },
        {
            "positions": [
                -0.33864959951282486,
                -1.3719554942569168,
                2.421137331396775,
                -1.0271543419454714,
                1.2248804246954417,
                3.181993692634824
            ]
        }
    ]
}