{
    "goal": {
        "global_pose": {
            "orientation": {
                "w": 0.7047431468963623,
                "x": -0.7094548344612122,
                "y": 0.0024358443915843964,
                "z": -0.0022348060738295317
            },
            "position": {
                "x": 0.6094750761985779,
                "y": 0.3671506643295288,
                "z": 0.19426114857196808
            }
        },
        "name": "move_to_magneteinheit_A"
    },
    "id": "BiEST_move_to_magneteinheit_A_116",
    "joint_names": [
        "shoulder_pan_joint",
        "shoulder_lift_joint",
        "elbow_joint",
        "wrist_1_joint",
        "wrist_2_joint",
        "wrist_3_joint"
    ],
    "metrics": {
        "cart_traj_len": 3.3179538239885704,
        "distance_elbow_joint": 3.8931105024297885,
        "distance_shoulder_lift_joint": 0.6098672446497115,
        "distance_shoulder_pan_joint": 2.7290356752852927,
        "distance_wrist_1_joint": 0.7532098283129375,
        "distance_wrist_2_joint": 1.6937868145414994,
        "distance_wrist_3_joint": 2.654648344112265,
        "smoothness": 0.04367418005538929,
        "time": 0.07118617199999999,
        "traj_len": 3.5119308662517112,
        "weighted_distance": 4.4821815827128715
    },
    "planner": "BiEST",
    "start": {
        "state": {
            "elbow_joint": -1.9196185241190666,
            "shoulder_lift_joint": -1.2443396400964142,
            "shoulder_pan_joint": 2.6996025414629847,
            "wrist_1_joint": -1.5485510000780065,
            "wrist_2_joint": -1.5709468930060704,
            "wrist_3_joint": 0.4420197071253992
        }
    },
    "waypoints": [
        {
            "positions": [
                2.6996025414629847,
                -1.2443396400964142,
                -1.9196185241190666,
                -1.5485510000780065,
                -1.5709468930060704,
                0.4420197071253992
            ]
        },
        {
            "positions": [
                2.5946068709736045,
                -1.2544636171499584,
                -1.7884638956676726,
                -1.5430997107064717,
                -1.5245262375796012,
                0.5331210337306105
            ]
        },
        {
            "positions": [
                2.4896112004842244,
                -1.2645875942035028,
                -1.6573092672162786,
                -1.537648421334937,
                -1.4781055821531321,
                0.6242223603358218
            ]
        },
        {
            "positions": [
                2.384615529994844,
                -1.274711571257047,
                -1.5261546387648843,
                -1.5321971319634022,
                -1.431684926726663,
                0.7153236869410331
            ]
        },
        {
            "positions": [
                2.279619859505464,
                -1.284835548310591,
                -1.3950000103134903,
                -1.5267458425918676,
                -1.385264271300194,
                0.8064250135462444
            ]
        },
        {
            "positions": [
                2.174624189016084,
                -1.2949595253641353,
                -1.263845381862096,
                -1.5212945532203328,
                -1.3388436158737247,
                0.8975263401514557
            ]
        },
        {
            "positions": [
                2.0696285185267036,
                -1.3050835024176797,
                -1.132690753410702,
                -1.5158432638487982,
                -1.2924229604472557,
                0.988627666756667
            ]
        },
        {
            "positions": [
                1.9646328480373232,
                -1.3152074794712239,
                -1.001536124959308,
                -1.5103919744772634,
                -1.2460023050207865,
                1.0797289933618783
            ]
        },
        {
            "positions": [
                1.8596371775479432,
                -1.325331456524768,
                -0.870381496507914,
                -1.5049406851057288,
                -1.1995816495943172,
                1.1708303199670897
            ]
        },
        {
            "positions": [
                1.754641507058563,
                -1.3354554335783124,
                -0.7392268680565199,
                -1.499489395734194,
                -1.1531609941678482,
                1.261931646572301
            ]
        },
        {
            "positions": [
                1.6496458365691826,
                -1.3455794106318566,
                -0.6080722396051257,
                -1.4940381063626593,
                -1.106740338741379,
                1.3530329731775124
            ]
        },
        {
            "positions": [
                1.5446501660798024,
                -1.3557033876854008,
                -0.47691761115373166,
                -1.4885868169911245,
                -1.0603196833149098,
                1.4441342997827236
            ]
        },
        {
            "positions": [
                1.4396544955904222,
                -1.365827364738945,
                -0.34576298270233763,
                -1.4831355276195899,
                -1.0138990278884408,
                1.535235626387935
            ]
        },
        {
            "positions": [
                1.334658825101042,
                -1.3759513417924893,
                -0.2146083542509436,
                -1.477684238248055,
                -0.9674783724619715,
                1.6263369529931464
            ]
        },
        {
            "positions": [
                1.2296631546116616,
                -1.3860753188460335,
                -0.08345372579954935,
                -1.4722329488765205,
                -0.9210577170355024,
                1.7174382795983578
            ]
        },
        {
            "positions": [
                1.1246674841222817,
                -1.3961992958995777,
                0.04770090265184446,
                -1.4667816595049856,
                -0.8746370616090333,
                1.8085396062035688
            ]
        },
        {
            "positions": [
                1.0196718136329015,
                -1.4063232729531219,
                0.1788555311032387,
                -1.461330370133451,
                -0.8282164061825642,
                1.8996409328087802
            ]
        },
        {
            "positions": [
                0.9146761431435211,
                -1.4164472500066663,
                0.31001015955463274,
                -1.4558790807619162,
                -0.781795750756095,
                1.9907422594139916
            ]
        },
        {
            "positions": [
                0.8096804726541411,
                -1.4265712270602104,
                0.44116478800602676,
                -1.4504277913903816,
                -0.735375095329626,
                2.0818435860192026
            ]
        },
        {
            "positions": [
                0.7046848021647607,
                -1.4366952041137546,
                0.5723194164574208,
                -1.4449765020188468,
                -0.6889544399031567,
                2.172944912624414
            ]
        },
        {
            "positions": [
                0.5996891316753805,
                -1.446819181167299,
                0.7034740449088153,
                -1.4395252126473121,
                -0.6425337844766876,
                2.2640462392296254
            ]
        },
        {
            "positions": [
                0.4946934611860003,
                -1.4569431582208432,
                0.8346286733602089,
                -1.4340739232757773,
                -0.5961131290502185,
                2.355147565834837
            ]
        },
        {
            "positions": [
                0.38969779069662014,
                -1.4670671352743874,
                0.9657833018116033,
                -1.4286226339042427,
                -0.5496924736237494,
                2.4462488924400483
            ]
        },
        {
            "positions": [
                0.28470212020723995,
                -1.4771911123279318,
                1.0969379302629974,
                -1.4231713445327079,
                -0.5032718181972802,
                2.5373502190452597
            ]
        },
        {
            "positions": [
                0.17970644971785976,
                -1.487315089381476,
                1.2280925587143914,
                -1.417720055161173,
                -0.45685116277081117,
                2.6284515456504707
            ]
        },
        {
            "positions": [
                0.07471077922847971,
                -1.4974390664350201,
                1.3592471871657854,
                -1.4122687657896384,
                -0.410430507344342,
                2.719552872255682
            ]
        },
        {
            "positions": [
                0.0690312078699602,
                -1.4540317821631068,
                1.446530210137614,
                -1.3282744789991279,
                -0.3398198434764999,
                2.7693940916022
            ]
        },
        {
            "positions": [
                0.06335163651144068,
                -1.4106244978911933,
                1.5338132331094425,
                -1.2442801922086173,
                -0.26920917960865787,
                2.8192353109487183
            ]
        },
        {
            "positions": [
                0.05767206515292117,
                -1.36721721361928,
                1.6210962560812712,
                -1.1602859054181067,
                -0.1985985157408158,
                2.869076530295237
            ]
        },
        {
            "positions": [
                0.051992493794401656,
                -1.3238099293473664,
                1.7083792790530996,
                -1.076291618627596,
                -0.12798785187297368,
                2.918917749641755
            ]
        },
        {
            "positions": [
                0.04631292243588215,
                -1.280402645075453,
                1.7956623020249283,
                -0.9922973318370854,
                -0.05737718800513163,
                2.968758968988273
            ]
        },
        {
            "positions": [
                0.06711694534444469,
                -1.2394575955190015,
                1.8392509148532805,
                -0.9176951440389177,
                -0.007255920794833955,
                2.98829897482016
            ]
        },
        {
            "positions": [
                0.08792096825300724,
                -1.1985125459625499,
                1.8828395276816328,
                -0.8430929562407501,
                0.04286534641546372,
                3.007838980652047
            ]
        },
        {
            "positions": [
                0.10498997347353976,
                -1.1695918970432322,
                1.9281657529961769,
                -0.8192170640029095,
                0.08285263397544626,
                3.0522535159448556
            ]
        },
        {
            "positions": [
                0.12205897869407228,
                -1.1406712481239145,
                1.9734919783107212,
                -0.795341171765069,
                0.12283992153542882,
                3.096668051237664
            ]
        }
    ]
}