{
    "goal": {
        "global_pose": {
            "orientation": {
                "w": 0.005598929693374612,
                "x": 0.007748599140229565,
                "y": 0.7110244013736278,
                "z": -0.7031023480610252
            },
            "position": {
                "x": -0.8858502320852131,
                "y": -0.7141253447532654,
                "z": 0.3711530566215515
            }
        },
        "name": "move_to_auspresseinheit_C"
    },
    "id": "BiEST_move_to_auspresseinheit_C_57",
    "joint_names": [
        "shoulder_pan_joint",
        "shoulder_lift_joint",
        "elbow_joint",
        "wrist_1_joint",
        "wrist_2_joint",
        "wrist_3_joint"
    ],
    "metrics": {
        "cart_traj_len": 0.4929216135379954,
        "distance_elbow_joint": 0.9880034024112323,
        "distance_shoulder_lift_joint": 0.31875022961834465,
        "distance_shoulder_pan_joint": 0.2568652527371298,
        "distance_wrist_1_joint": 0.6540862689365906,
        "distance_wrist_2_joint": 1.3049979218552639,
        "distance_wrist_3_joint": 0.05096980563126108,
        "smoothness": 1.6148698667872622e-16,
        "time": 0.134764613,
        "traj_len": 1.8904160603395808,
        "weighted_distance": 2.3737516052115053
    },
    "planner": "BiEST",
    "start": {
        "state": {
            "elbow_joint": 1.7527959577737207,
            "shoulder_lift_joint": -0.9740617694225068,
            "shoulder_pan_joint": -2.967991417825858,
            "wrist_1_joint": -0.759517768980727,
            "wrist_2_joint": 1.7443932448377408,
            "wrist_3_joint": -3.0840537646736568
        }
    },
    "waypoints": [
        {
            "positions": [
                -2.967991417825858,
                -0.9740617694225068,
                1.7527959577737207,
                -0.759517768980727,
                1.7443932448377408,
                -3.0840537646736568
            ]
        },
        {
            "positions": [
                -2.942304892552145,
                -0.9421867464606724,
                1.6539956175325974,
                -0.694109142087068,
                1.6138934526522144,
                -3.089150745236783
            ]
        },
        {
            "positions": [
                -2.916618367278432,
                -0.9103117234988378,
                1.555195277291474,
                -0.6287005151934089,
                1.483393660466688,
                -3.094247725799909
            ]
        },
        {
            "positions": [
                -2.890931842004719,
                -0.8784367005370034,
                1.456394937050351,
                -0.5632918882997497,
                1.3528938682811618,
                -3.099344706363035
            ]
        },
        {
            "positions": [
                -2.865245316731006,
                -0.8465616775751689,
                1.3575945968092278,
                -0.49788326140609074,
                1.222394076095635,
                -3.1044416869261613
            ]
        },
        {
            "positions": [
                -2.839558791457293,
                -0.8146866546133344,
                1.2587942565681045,
                -0.4324746345124317,
                1.091894283910109,
                -3.1095386674892875
            ]
        },
        {
            "positions": [
                -2.81387226618358,
                -0.7828116316515,
                1.1599939163269815,
                -0.3670660076187726,
                0.9613944917245826,
                -3.1146356480524133
            ]
        },
        {
            "positions": [
                -2.788185740909867,
                -0.7509366086896655,
                1.061193576085858,
                -0.3016573807251136,
                0.8308946995390561,
                -3.1197326286155396
            ]
        },
        {
            "positions": [
                -2.7624992156361543,
                -0.7190615857278311,
                0.9623932358447348,
                -0.2362487538314545,
                0.7003949073535296,
                -3.124829609178666
            ]
        },
        {
            "positions": [
                -2.736812690362441,
                -0.6871865627659965,
                0.8635928956036115,
                -0.17084012693779538,
                0.5698951151680034,
                -3.1299265897417916
            ]
        },
        {
            "positions": [
                -2.711126165088728,
                -0.6553115398041621,
                0.7647925553624884,
                -0.10543150004413641,
                0.439395322982477,
                -3.135023570304918
            ]
        }
    ]
}