{
    "goal": {
        "global_pose": {
            "orientation": {
                "w": 0.7047431468963623,
                "x": -0.7094548344612122,
                "y": 0.0024358443915843964,
                "z": -0.0022348060738295317
            },
            "position": {
                "x": 0.6094750761985779,
                "y": 0.3671506643295288,
                "z": 0.19426114857196808
            }
        },
        "name": "move_to_magneteinheit_A"
    },
    "id": "BiEST_move_to_magneteinheit_A_24",
    "joint_names": [
        "shoulder_pan_joint",
        "shoulder_lift_joint",
        "elbow_joint",
        "wrist_1_joint",
        "wrist_2_joint",
        "wrist_3_joint"
    ],
    "metrics": {
        "cart_traj_len": 3.133389970993177,
        "distance_elbow_joint": 3.930337016008281,
        "distance_shoulder_lift_joint": 0.9530670505183225,
        "distance_shoulder_pan_joint": 2.7227761018484724,
        "distance_wrist_1_joint": 3.5268515031168173,
        "distance_wrist_2_joint": 1.715246286796234,
        "distance_wrist_3_joint": 0.5738132745664508,
        "smoothness": 0.11304556545377241,
        "time": 0.095832252,
        "traj_len": 3.663617233398513,
        "weighted_distance": 4.4510465704034745
    },
    "planner": "BiEST",
    "start": {
        "state": {
            "elbow_joint": -1.9196185241190666,
            "shoulder_lift_joint": -1.2443396400964142,
            "shoulder_pan_joint": 2.6996025414629847,
            "wrist_1_joint": -1.5485510000780065,
            "wrist_2_joint": -1.5709468930060704,
            "wrist_3_joint": 0.4420197071253992
        }
    },
    "waypoints": [
        {
            "positions": [
                2.6996025414629847,
                -1.2443396400964142,
                -1.9196185241190666,
                -1.5485510000780065,
                -1.5709468930060704,
                0.4420197071253992
            ]
        },
        {
            "positions": [
                2.589533207607153,
                -1.2560650313012964,
                -1.8205838218068997,
                -1.4689314935435163,
                -1.497007951671783,
                0.43779027066297377
            ]
        },
        {
            "positions": [
                2.479463873751322,
                -1.2677904225061787,
                -1.7215491194947328,
                -1.3893119870090263,
                -1.4230690103374957,
                0.43356083420054836
            ]
        },
        {
            "positions": [
                2.3693945398954903,
                -1.279515813711061,
                -1.622514417182566,
                -1.309692480474536,
                -1.3491300690032082,
                0.429331397738123
            ]
        },
        {
            "positions": [
                2.259325206039659,
                -1.2912412049159432,
                -1.5234797148703991,
                -1.2300729739400458,
                -1.2751911276689207,
                0.4251019612756976
            ]
        },
        {
            "positions": [
                2.1492558721838275,
                -1.3029665961208254,
                -1.4244450125582322,
                -1.1504534674055558,
                -1.2012521863346333,
                0.4208725248132722
            ]
        },
        {
            "positions": [
                2.039186538327996,
                -1.3146919873257077,
                -1.3254103102460653,
                -1.0708339608710655,
                -1.127313245000346,
                0.4166430883508468
            ]
        },
        {
            "positions": [
                1.9291172044721647,
                -1.32641737853059,
                -1.2263756079338983,
                -0.9912144543365753,
                -1.0533743036660586,
                0.4124136518884214
            ]
        },
        {
            "positions": [
                1.819047870616333,
                -1.3381427697354722,
                -1.1273409056217316,
                -0.9115949478020852,
                -0.9794353623317712,
                0.40818421542599603
            ]
        },
        {
            "positions": [
                1.7089785367605017,
                -1.3498681609403544,
                -1.0283062033095645,
                -0.831975441267595,
                -0.9054964209974837,
                0.4039547789635706
            ]
        },
        {
            "positions": [
                1.5989092029046703,
                -1.3615935521452367,
                -0.9292715009973976,
                -0.7523559347331048,
                -0.8315574796631964,
                0.3997253425011452
            ]
        },
        {
            "positions": [
                1.4888398690488387,
                -1.3733189433501187,
                -0.8302367986852306,
                -0.6727364281986146,
                -0.7576185383289089,
                0.3954959060387198
            ]
        },
        {
            "positions": [
                1.3787705351930073,
                -1.385044334555001,
                -0.7312020963730639,
                -0.5931169216641244,
                -0.6836795969946216,
                0.3912664695762944
            ]
        },
        {
            "positions": [
                1.268701201337176,
                -1.3967697257598832,
                -0.632167394060897,
                -0.5134974151296343,
                -0.6097406556603341,
                0.38703703311386906
            ]
        },
        {
            "positions": [
                1.1586318674813445,
                -1.4084951169647655,
                -0.53313269174873,
                -0.4338779085951441,
                -0.5358017143260467,
                0.38280759665144365
            ]
        },
        {
            "positions": [
                1.0485625336255129,
                -1.4202205081696477,
                -0.4340979894365631,
                -0.35425840206065384,
                -0.46186277299175926,
                0.37857816018901824
            ]
        },
        {
            "positions": [
                0.9384931997696817,
                -1.43194589937453,
                -0.33506328712439637,
                -0.27463889552616383,
                -0.387923831657472,
                0.37434872372659284
            ]
        },
        {
            "positions": [
                0.8284238659138501,
                -1.4436712905794122,
                -0.23602858481222921,
                -0.1950193889916736,
                -0.31398489032318455,
                0.37011928726416743
            ]
        },
        {
            "positions": [
                0.7183545320580187,
                -1.4553966817842945,
                -0.1369938825000625,
                -0.11539988245718358,
                -0.24004594898889708,
                0.3658898508017421
            ]
        },
        {
            "positions": [
                0.6082851982021871,
                -1.4671220729891767,
                -0.03795918018789557,
                -0.03578037592269312,
                -0.16610700765460962,
                0.3616604143393166
            ]
        },
        {
            "positions": [
                0.4982158643463559,
                -1.478847464194059,
                0.061075522124271364,
                0.043839130611796895,
                -0.09216806632032237,
                0.35743097787689126
            ]
        },
        {
            "positions": [
                0.3881465304905241,
                -1.4905728553989412,
                0.1601102244364383,
                0.12345863714628712,
                -0.01822912498603501,
                0.35320154141446586
            ]
        },
        {
            "positions": [
                0.3574387131785789,
                -1.441031250575522,
                0.2657557984229849,
                0.252121381655502,
                -0.03079786207723069,
                0.3168478073125108
            ]
        },
        {
            "positions": [
                0.32673089586663373,
                -1.3914896457521029,
                0.3714013724095316,
                0.38078412616471696,
                -0.04336659916842637,
                0.2804940732105557
            ]
        },
        {
            "positions": [
                0.29602307855468857,
                -1.341948040928684,
                0.4770469463960782,
                0.5094468706739318,
                -0.05593533625962204,
                0.2441403391086006
            ]
        },
        {
            "positions": [
                0.26531526124274335,
                -1.2924064361052647,
                0.5826925203826249,
                0.6381096151831468,
                -0.06850407335081773,
                0.2077866050066455
            ]
        },
        {
            "positions": [
                0.2346074439307982,
                -1.2428648312818456,
                0.6883380943691715,
                0.7667723596923617,
                -0.0810728104420134,
                0.17143287090469042
            ]
        },
        {
            "positions": [
                0.203899626618853,
                -1.1933232264584264,
                0.7939836683557181,
                0.8954351042015766,
                -0.09364154753320908,
                0.13507913680273534
            ]
        },
        {
            "positions": [
                0.1731918093069078,
                -1.1437816216350072,
                0.8996292423422648,
                1.0240978487107915,
                -0.10621028462440477,
                0.09872540270078023
            ]
        },
        {
            "positions": [
                0.1424839919949626,
                -1.0942400168115882,
                1.0052748163288114,
                1.1527605932200065,
                -0.11877902171560045,
                0.06237166859882515
            ]
        },
        {
            "positions": [
                0.11177617468301743,
                -1.0446984119881688,
                1.1109203903153582,
                1.2814233377292215,
                -0.13134775880679614,
                0.026017934496870065
            ]
        },
        {
            "positions": [
                0.08106835737107226,
                -0.9951568071647499,
                1.2165659643019047,
                1.4100860822384362,
                -0.1439164958979918,
                -0.010335799605085016
            ]
        },
        {
            "positions": [
                0.050360540059127046,
                -0.9456152023413307,
                1.3222115382884514,
                1.5387488267476512,
                -0.15648523298918748,
                -0.04668953370704012
            ]
        },
        {
            "positions": [
                0.05462250344362863,
                -0.8985289720081785,
                1.4900436299956934,
                1.6691851195754863,
                -0.15727113122977435,
                -0.06514635087480575
            ]
        },
        {
            "positions": [
                0.058884466828130214,
                -0.8514427416750264,
                1.6578757217029354,
                1.7996214124033214,
                -0.15805702947036124,
                -0.08360316804257137
            ]
        },
        {
            "positions": [
                0.0631464302126318,
                -0.8043565113418742,
                1.8257078134101774,
                1.9300577052311567,
                -0.1588429277109481,
                -0.10205998521033699
            ]
        },
        {
            "positions": [
                0.1238946405037411,
                -0.7837390201831458,
                2.0107184918892136,
                1.9783005030388106,
                -0.13692821165966307,
                -0.07232640297962223
            ]
        }
    ]
}