{
    "goal": {
        "global_pose": {
            "orientation": {
                "w": 0.7031023502349854,
                "x": -0.7110244035720825,
                "y": 0.007748599164187908,
                "z": 0.005598929710686207
            },
            "position": {
                "x": 0.11585023208521307,
                "y": 0.44412534475326537,
                "z": 0.3711530566215515
            }
        },
        "name": "move_to_auspresseinheit_A"
    },
    "id": "BiEST_move_to_auspresseinheit_A_25",
    "joint_names": [
        "shoulder_pan_joint",
        "shoulder_lift_joint",
        "elbow_joint",
        "wrist_1_joint",
        "wrist_2_joint",
        "wrist_3_joint"
    ],
    "metrics": {
        "cart_traj_len": 4.999994721304678,
        "distance_elbow_joint": 3.420610393610306,
        "distance_shoulder_lift_joint": 1.2506385716855186,
        "distance_shoulder_pan_joint": 6.094074147006069,
        "distance_wrist_1_joint": 1.6893040096168859,
        "distance_wrist_2_joint": 0.8499750149437705,
        "distance_wrist_3_joint": 8.767009937081824,
        "smoothness": 0.3173581456502825,
        "time": 0.134156626,
        "traj_len": 4.698043430402105,
        "weighted_distance": 6.491911195685651
    },
    "planner": "BiEST",
    "start": {
        "state": {
            "elbow_joint": 2.4225746658250005,
            "shoulder_lift_joint": -1.3736534386056498,
            "shoulder_pan_joint": -0.3378633547517467,
            "wrist_1_joint": -1.0288598680537169,
            "wrist_2_joint": 1.233022673432363,
            "wrist_3_joint": -3.0940220416140027
        }
    },
    "waypoints": [
        {
            "positions": [
                -0.3378633547517467,
                -1.3736534386056498,
                2.4225746658250005,
                -1.0288598680537169,
                1.233022673432363,
                -3.0940220416140027
            ]
        },
        {
            "positions": [
                -0.4018812507322294,
                -1.3613622791669857,
                2.322604203553771,
                -1.0647457561852065,
                1.2349456045341196,
                -2.960841271138261
            ]
        },
        {
            "positions": [
                -0.4658991467127121,
                -1.3490711197283216,
                2.222633741282541,
                -1.1006316443166961,
                1.2368685356358764,
                -2.8276605006625193
            ]
        },
        {
            "positions": [
                -0.5299170426931947,
                -1.3367799602896575,
                2.1226632790113116,
                -1.1365175324481858,
                1.238791466737633,
                -2.6944797301867776
            ]
        },
        {
            "positions": [
                -0.5939349386736774,
                -1.3244888008509936,
                2.022692816740082,
                -1.1724034205796752,
                1.2407143978393897,
                -2.561298959711036
            ]
        },
        {
            "positions": [
                -0.6579528346541602,
                -1.3121976414123295,
                1.922722354468852,
                -1.2082893087111648,
                1.2426373289411463,
                -2.4281181892352937
            ]
        },
        {
            "positions": [
                -0.7219707306346428,
                -1.2999064819736654,
                1.8227518921976227,
                -1.2441751968426544,
                1.244560260042903,
                -2.294937418759552
            ]
        },
        {
            "positions": [
                -0.7859886266151256,
                -1.2876153225350013,
                1.7227814299263928,
                -1.280061084974144,
                1.2464831911446597,
                -2.16175664828381
            ]
        },
        {
            "positions": [
                -0.8748662405916444,
                -1.2713798830877074,
                1.646232789838745,
                -1.2991994454130866,
                1.2313105562444326,
                -2.005895419106866
            ]
        },
        {
            "positions": [
                -0.9637438545681631,
                -1.2551444436404136,
                1.5696841497510972,
                -1.3183378058520292,
                1.2161379213442056,
                -1.8500341899299215
            ]
        },
        {
            "positions": [
                -1.052621468544682,
                -1.2389090041931197,
                1.4931355096634493,
                -1.337476166290972,
                1.2009652864439784,
                -1.6941729607529774
            ]
        },
        {
            "positions": [
                -1.1414990825212008,
                -1.2226735647458258,
                1.4165868695758013,
                -1.3566145267299146,
                1.1857926515437514,
                -1.538311731576033
            ]
        },
        {
            "positions": [
                -1.2303766964977196,
                -1.206438125298532,
                1.3400382294881537,
                -1.3757528871688571,
                1.1706200166435243,
                -1.382450502399089
            ]
        },
        {
            "positions": [
                -1.3192543104742382,
                -1.1902026858512378,
                1.2634895894005056,
                -1.3948912476077997,
                1.1554473817432973,
                -1.2265892732221446
            ]
        },
        {
            "positions": [
                -1.4081319244507573,
                -1.173967246403944,
                1.186940949312858,
                -1.4140296080467423,
                1.1402747468430703,
                -1.0707280440452003
            ]
        },
        {
            "positions": [
                -1.497009538427276,
                -1.15773180695665,
                1.11039230922521,
                -1.433167968485685,
                1.125102111942843,
                -0.9148668148682559
            ]
        },
        {
            "positions": [
                -1.5858871524037947,
                -1.1414963675093561,
                1.033843669137562,
                -1.4523063289246276,
                1.109929477042616,
                -0.7590055856913118
            ]
        },
        {
            "positions": [
                -1.6747647663803136,
                -1.1252609280620622,
                0.9572950290499143,
                -1.4714446893635702,
                1.094756842142389,
                -0.6031443565143675
            ]
        },
        {
            "positions": [
                -1.7822646665742758,
                -1.1084381398696617,
                0.9506173084104095,
                -1.4896017869835463,
                1.052264054189344,
                -0.46789147061381053
            ]
        },
        {
            "positions": [
                -1.8897645667682383,
                -1.091615351677261,
                0.9439395877709047,
                -1.5077588846035226,
                1.0097712662362988,
                -0.3326385847132536
            ]
        },
        {
            "positions": [
                -1.9972644669622008,
                -1.0747925634848605,
                0.9372618671314,
                -1.525915982223499,
                0.9672784782832538,
                -0.19738569881269663
            ]
        },
        {
            "positions": [
                -2.104764367156163,
                -1.05796977529246,
                0.9305841464918952,
                -1.544073079843475,
                0.9247856903302086,
                -0.062132812912139734
            ]
        },
        {
            "positions": [
                -2.207111762503784,
                -1.0440766132551875,
                0.9425166549605088,
                -1.5612954542662705,
                0.8791078723299218,
                0.05070391951363079
            ]
        },
        {
            "positions": [
                -2.3094591578514048,
                -1.030183451217915,
                0.9544491634291224,
                -1.5785178286890662,
                0.833430054329635,
                0.16354065193940132
            ]
        },
        {
            "positions": [
                -2.4118065531990256,
                -1.0162902891806427,
                0.966381671897736,
                -1.5957402031118617,
                0.7877522363293482,
                0.27637738436517184
            ]
        },
        {
            "positions": [
                -2.46199245491347,
                -1.0523132218312035,
                1.1135100201810957,
                -1.5928022196004918,
                0.7622528285652234,
                0.3869595800975533
            ]
        },
        {
            "positions": [
                -2.512178356627914,
                -1.0883361544817642,
                1.2606383684644555,
                -1.5898642360891222,
                0.7367534208010984,
                0.49754177582993475
            ]
        },
        {
            "positions": [
                -2.5623642583423583,
                -1.1243590871323248,
                1.4077667167478152,
                -1.5869262525777523,
                0.7112540130369736,
                0.6081239715623162
            ]
        },
        {
            "positions": [
                -2.6125501600568026,
                -1.1603820197828856,
                1.5548950650311748,
                -1.5839882690663827,
                0.6857546052728487,
                0.7187061672946977
            ]
        },
        {
            "positions": [
                -2.6627360617712466,
                -1.1964049524334464,
                1.7020234133145347,
                -1.5810502855550128,
                0.6602551975087237,
                0.8292883630270793
            ]
        },
        {
            "positions": [
                -2.712921963485691,
                -1.2324278850840071,
                1.8491517615978945,
                -1.5781123020436432,
                0.6347557897445989,
                0.9398705587594607
            ]
        },
        {
            "positions": [
                -2.7631078652001353,
                -1.2684508177345677,
                1.9962801098812542,
                -1.5751743185322733,
                0.609256381980474,
                1.050452754491842
            ]
        },
        {
            "positions": [
                -2.813293766914579,
                -1.3044737503851285,
                2.143408458164614,
                -1.5722363350209037,
                0.5837569742163491,
                1.1610349502242236
            ]
        },
        {
            "positions": [
                -2.8634796686290236,
                -1.3404966830356893,
                2.2905368064479736,
                -1.5692983515095338,
                0.5582575664522242,
                1.271617145956605
            ]
        },
        {
            "positions": [
                -2.736446968680621,
                -1.3782658573366862,
                2.3386575636245976,
                -1.52211445160979,
                0.5704217838812933,
                1.1597715986582484
            ]
        },
        {
            "positions": [
                -2.6094142687322184,
                -1.416035031637683,
                2.386778320801222,
                -1.474930551710046,
                0.5825860013103623,
                1.0479260513598916
            ]
        },
        {
            "positions": [
                -2.4823815687838153,
                -1.45380420593868,
                2.434899077977846,
                -1.4277466518103021,
                0.5947502187394313,
                0.936080504061535
            ]
        },
        {
            "positions": [
                -2.3553488688354127,
                -1.491573380239677,
                2.4830198351544706,
                -1.380562751910558,
                0.6069144361685003,
                0.8242349567631783
            ]
        },
        {
            "positions": [
                -2.22831616888701,
                -1.5293425545406738,
                2.5311405923310946,
                -1.3333788520108143,
                0.6190786535975693,
                0.7123894094648215
            ]
        },
        {
            "positions": [
                -2.1012834689386075,
                -1.5671117288416707,
                2.5792613495077186,
                -1.2861949521110705,
                0.6312428710266383,
                0.6005438621664648
            ]
        },
        {
            "positions": [
                -1.9742507689902047,
                -1.6048809031426676,
                2.627382106684343,
                -1.2390110522113265,
                0.6434070884557074,
                0.4886983148681081
            ]
        },
        {
            "positions": [
                -1.8367537837651815,
                -1.6205809818660168,
                2.6156426089055147,
                -1.1996865642070558,
                0.6466812632030222,
                0.3031788433303926
            ]
        },
        {
            "positions": [
                -1.6992567985401583,
                -1.6362810605893663,
                2.6039031111266864,
                -1.1603620762027853,
                0.649955437950337,
                0.11765937179267699
            ]
        },
        {
            "positions": [
                -1.5617598133151351,
                -1.6519811393127155,
                2.592163613347858,
                -1.1210375881985146,
                0.6532296126976518,
                -0.06786009974503848
            ]
        },
        {
            "positions": [
                -1.4242628280901122,
                -1.667681218036065,
                2.58042411556903,
                -1.0817131001942442,
                0.6565037874449666,
                -0.2533795712827541
            ]
        },
        {
            "positions": [
                -1.2867658428650888,
                -1.6833812967594142,
                2.568684617790202,
                -1.0423886121899735,
                0.6597779621922815,
                -0.43889904282046965
            ]
        },
        {
            "positions": [
                -1.1492688576400658,
                -1.6990813754827634,
                2.5569451200113735,
                -1.0030641241857028,
                0.6630521369395962,
                -0.6244185143581851
            ]
        },
        {
            "positions": [
                -1.0117718724150424,
                -1.7147814542061128,
                2.545205622232545,
                -0.9637396361814323,
                0.666326311686911,
                -0.8099379858959008
            ]
        },
        {
            "positions": [
                -0.8742748871900194,
                -1.730481532929462,
                2.533466124453717,
                -0.9244151481771616,
                0.6696004864342259,
                -0.9954574574336164
            ]
        },
        {
            "positions": [
                -0.7367779019649963,
                -1.7461816116528115,
                2.521726626674889,
                -0.8850906601728911,
                0.6728746611815406,
                -1.1809769289713319
            ]
        },
        {
            "positions": [
                -0.5992809167399731,
                -1.7618816903761607,
                2.5099871288960607,
                -0.8457661721686205,
                0.6761488359288554,
                -1.3664964005090474
            ]
        },
        {
            "positions": [
                -0.4617839315149499,
                -1.77758176909951,
                2.4982476311172324,
                -0.8064416841643498,
                0.6794230106761703,
                -1.552015872046763
            ]
        },
        {
            "positions": [
                -0.32428694628992694,
                -1.7932818478228594,
                2.486508133338404,
                -0.7671171961600793,
                0.6826971854234851,
                -1.7375353435844783
            ]
        },
        {
            "positions": [
                -0.18678996106490375,
                -1.8089819265462086,
                2.4747686355595757,
                -0.7277927081558087,
                0.6859713601707998,
                -1.923054815122194
            ]
        },
        {
            "positions": [
                -0.04929297583988035,
                -1.8246820052695578,
                2.4630291377807474,
                -0.6884682201515381,
                0.6892455349181147,
                -2.10857428665991
            ]
        },
        {
            "positions": [
                0.08820400938514283,
                -1.8403820839929073,
                2.451289640001919,
                -0.6491437321472674,
                0.6925197096654295,
                -2.2940937581976257
            ]
        },
        {
            "positions": [
                0.2257009946101658,
                -1.8560821627162565,
                2.439550142223091,
                -0.6098192441429969,
                0.6957938844127443,
                -2.4796132297353406
            ]
        },
        {
            "positions": [
                0.36319797983518876,
                -1.8717822414396057,
                2.427810644444263,
                -0.5704947561387262,
                0.6990680591600591,
                -2.6651327012730563
            ]
        },
        {
            "positions": [
                0.5006949650602122,
                -1.8874823201629551,
                2.4160711466654345,
                -0.5311702681344557,
                0.7023422339073739,
                -2.850652172810772
            ]
        },
        {
            "positions": [
                0.6028365647799914,
                -1.8985240158020547,
                2.4058156696325126,
                -0.5022433983437881,
                0.7044443364493183,
                -2.9902028881826905
            ]
        },
        {
            "positions": [
                0.7049781644997707,
                -1.9095657114411542,
                2.395560192599591,
                -0.47331652855312045,
                0.7065464389912627,
                -3.129753603554609
            ]
        }
    ]
}