{
    "goal": {
        "global_pose": {
            "orientation": {
                "w": -0.4816463035849501,
                "x": 0.5182115481033762,
                "y": 0.4908360881923453,
                "z": -0.5084816262002911
            },
            "position": {
                "x": -0.8240239810943604,
                "y": 0.19912469901144506,
                "z": 0.16403168439865112
            }
        },
        "name": "move_to_storage_D"
    },
    "id": "BiEST_move_to_storage_D_78",
    "joint_names": [
        "shoulder_pan_joint",
        "shoulder_lift_joint",
        "elbow_joint",
        "wrist_1_joint",
        "wrist_2_joint",
        "wrist_3_joint"
    ],
    "metrics": {
        "cart_traj_len": 3.7226673971756647,
        "distance_elbow_joint": 2.932186487486856,
        "distance_shoulder_lift_joint": 1.210747350724989,
        "distance_shoulder_pan_joint": 4.142328876809255,
        "distance_wrist_1_joint": 3.820973184934225,
        "distance_wrist_2_joint": 3.2996296007011265,
        "distance_wrist_3_joint": 5.814278999775721,
        "smoothness": 0.3599742856862155,
        "time": 0.130653238,
        "traj_len": 4.606532806833375,
        "weighted_distance": 6.322128224389232
    },
    "planner": "BiEST",
    "start": {
        "state": {
            "elbow_joint": -2.384821988534728,
            "shoulder_lift_joint": -2.2788054721415256,
            "shoulder_pan_joint": -0.1854694642142757,
            "wrist_1_joint": 1.4845938289331202,
            "wrist_2_joint": 0.17898776772866878,
            "wrist_3_joint": 0.037105688729662994
        }
    },
    "waypoints": [
        {
            "positions": [
                -0.1854694642142757,
                -2.2788054721415256,
                -2.384821988534728,
                1.4845938289331202,
                0.17898776772866878,
                0.037105688729662994
            ]
        },
        {
            "positions": [
                -0.06621358741718568,
                -2.24094745602773,
                -2.2879511508425034,
                1.4762640028517677,
                0.22135544059844656,
                0.11198878104829697
            ]
        },
        {
            "positions": [
                0.05304228937990435,
                -2.203089439913935,
                -2.191080313150279,
                1.4679341767704155,
                0.2637231134682243,
                0.18687187336693095
            ]
        },
        {
            "positions": [
                0.17229816617699437,
                -2.1652314238001393,
                -2.0942094754580545,
                1.459604350689063,
                0.30609078633800213,
                0.2617549656855649
            ]
        },
        {
            "positions": [
                0.2915540429740844,
                -2.127373407686344,
                -1.9973386377658298,
                1.4512745246077106,
                0.34845845920777985,
                0.3366380580041989
            ]
        },
        {
            "positions": [
                0.41080991977117454,
                -2.0895153915725486,
                -1.9004678000736053,
                1.442944698526358,
                0.3908261320775577,
                0.4115211503228329
            ]
        },
        {
            "positions": [
                0.5300657965682645,
                -2.0516573754587535,
                -1.8035969623813808,
                1.4346148724450059,
                0.4331938049473354,
                0.48640424264146687
            ]
        },
        {
            "positions": [
                0.6493216733653545,
                -2.013799359344958,
                -1.706726124689156,
                1.4262850463636534,
                0.4755614778171132,
                0.5612873349601009
            ]
        },
        {
            "positions": [
                0.7685775501624446,
                -1.9759413432311626,
                -1.6098552869969316,
                1.417955220282301,
                0.5179291506868909,
                0.6361704272787349
            ]
        },
        {
            "positions": [
                0.8878334269595346,
                -1.9380833271173672,
                -1.512984449304707,
                1.4096253942009485,
                0.5602968235566688,
                0.7110535195973688
            ]
        },
        {
            "positions": [
                1.0070893037566246,
                -1.9002253110035716,
                -1.4161136116124826,
                1.4012955681195962,
                0.6026644964264465,
                0.7859366119160028
            ]
        },
        {
            "positions": [
                1.1263451805537146,
                -1.8623672948897763,
                -1.319242773920258,
                1.3929657420382437,
                0.6450321692962243,
                0.8608197042346368
            ]
        },
        {
            "positions": [
                1.2456010573508045,
                -1.824509278775981,
                -1.2223719362280336,
                1.3846359159568913,
                0.687399842166002,
                0.9357027965532707
            ]
        },
        {
            "positions": [
                1.3648569341478947,
                -1.7866512626621855,
                -1.125501098535809,
                1.376306089875539,
                0.7297675150357797,
                1.0105858888719046
            ]
        },
        {
            "positions": [
                1.4841128109449846,
                -1.7487932465483902,
                -1.0286302608435844,
                1.3679762637941866,
                0.7721351879055576,
                1.0854689811905387
            ]
        },
        {
            "positions": [
                1.6033686877420747,
                -1.7109352304345946,
                -0.9317594231513597,
                1.359646437712834,
                0.8145028607753354,
                1.1603520735091728
            ]
        },
        {
            "positions": [
                1.7226245645391647,
                -1.6730772143207995,
                -0.8348885854591355,
                1.3513166116314816,
                0.8568705336451131,
                1.2352351658278067
            ]
        },
        {
            "positions": [
                1.8418804413362548,
                -1.635219198207004,
                -0.7380177477669108,
                1.3429867855501294,
                0.8992382065148908,
                1.3101182581464406
            ]
        },
        {
            "positions": [
                1.961136318133345,
                -1.5973611820932085,
                -0.6411469100746864,
                1.334656959468777,
                0.9416058793846687,
                1.3850013504650747
            ]
        },
        {
            "positions": [
                1.9071978561208685,
                -1.6116666702196052,
                -0.673268840048384,
                1.2354397617533748,
                0.873038001302368,
                1.264288287274796
            ]
        },
        {
            "positions": [
                1.8532593941083917,
                -1.6259721583460016,
                -0.7053907700220818,
                1.1362225640379726,
                0.8044701232200673,
                1.1435752240845174
            ]
        },
        {
            "positions": [
                1.7993209320959151,
                -1.6402776464723983,
                -0.7375126999957795,
                1.0370053663225702,
                0.7359022451377666,
                1.0228621608942388
            ]
        },
        {
            "positions": [
                1.7453824700834386,
                -1.6545831345987947,
                -0.7696346299694772,
                0.9377881686071681,
                0.6673343670554659,
                0.9021490977039601
            ]
        },
        {
            "positions": [
                1.691444008070962,
                -1.6688886227251913,
                -0.8017565599431749,
                0.8385709708917659,
                0.5987664889731652,
                0.7814360345136815
            ]
        },
        {
            "positions": [
                1.6375055460584855,
                -1.6831941108515878,
                -0.8338784899168725,
                0.7393537731763637,
                0.5301986108908646,
                0.6607229713234029
            ]
        },
        {
            "positions": [
                1.5835670840460088,
                -1.6974995989779844,
                -0.8660004198905703,
                0.6401365754609615,
                0.4616307328085639,
                0.5400099081331242
            ]
        },
        {
            "positions": [
                1.5296286220335322,
                -1.7118050871043808,
                -0.898122349864268,
                0.5409193777455593,
                0.39306285472626323,
                0.4192968449428456
            ]
        },
        {
            "positions": [
                1.4756901600210557,
                -1.7261105752307775,
                -0.9302442798379656,
                0.44170218003015715,
                0.32449497664396254,
                0.29858378175256695
            ]
        },
        {
            "positions": [
                1.421751698008579,
                -1.740416063357174,
                -0.9623662098116634,
                0.3424849823147549,
                0.25592709856166185,
                0.1778707185622883
            ]
        },
        {
            "positions": [
                1.3678132359961024,
                -1.7547215514835706,
                -0.9944881397853611,
                0.24326778459935272,
                0.18735922047936115,
                0.057157655372009675
            ]
        },
        {
            "positions": [
                1.3138747739836258,
                -1.769027039609967,
                -1.0266100697590588,
                0.14405058688395056,
                0.11879134239706057,
                -0.06355540781826896
            ]
        },
        {
            "positions": [
                1.259936311971149,
                -1.7833325277363636,
                -1.0587319997327564,
                0.0448333891685484,
                0.05022346431475988,
                -0.1842684710085476
            ]
        },
        {
            "positions": [
                1.2059978499586728,
                -1.79763801586276,
                -1.0908539297064541,
                -0.054383808546853984,
                -0.018344413767540813,
                -0.30498153419882623
            ]
        },
        {
            "positions": [
                1.152059387946196,
                -1.8119435039891567,
                -1.1229758596801518,
                -0.15360100626225615,
                -0.0869122918498415,
                -0.42569459738910487
            ]
        },
        {
            "positions": [
                1.0981209259337195,
                -1.8262489921155531,
                -1.1550977896538495,
                -0.2528182039776583,
                -0.1554801699321422,
                -0.5464076605793835
            ]
        },
        {
            "positions": [
                1.044182463921243,
                -1.8405544802419498,
                -1.1872197196275471,
                -0.35203540169306047,
                -0.2240480480144429,
                -0.6671207237696621
            ]
        },
        {
            "positions": [
                0.9902440019087663,
                -1.8548599683683462,
                -1.2193416496012448,
                -0.45125259940846263,
                -0.2926159260967436,
                -0.7878337869599408
            ]
        },
        {
            "positions": [
                0.9363055398962898,
                -1.8691654564947429,
                -1.2514635795749425,
                -0.5504697971238648,
                -0.36118380417904405,
                -0.908546850150219
            ]
        },
        {
            "positions": [
                0.8823670778838131,
                -1.8834709446211393,
                -1.2835855095486404,
                -0.6496869948392672,
                -0.42975168226134497,
                -1.029259913340498
            ]
        },
        {
            "positions": [
                0.8284286158713365,
                -1.897776432747536,
                -1.3157074395223378,
                -0.7489041925546693,
                -0.49831956034364544,
                -1.1499729765307762
            ]
        },
        {
            "positions": [
                0.7744901538588598,
                -1.9120819208739324,
                -1.3478293694960357,
                -0.8481213902700715,
                -0.5668874384259464,
                -1.2706860397210553
            ]
        },
        {
            "positions": [
                0.7205516918463835,
                -1.926387409000329,
                -1.3799512994697334,
                -0.9473385879854737,
                -0.6354553165082468,
                -1.3913991029113335
            ]
        },
        {
            "positions": [
                0.6666132298339067,
                -1.9406928971267257,
                -1.4120732294434313,
                -1.0465557857008758,
                -0.7040231945905475,
                -1.5121121661016126
            ]
        },
        {
            "positions": [
                0.6126747678214302,
                -1.954998385253122,
                -1.4441951594171287,
                -1.145772983416278,
                -0.7725910726728482,
                -1.6328252292918908
            ]
        },
        {
            "positions": [
                0.5587363058089534,
                -1.9693038733795185,
                -1.4763170893908266,
                -1.2449901811316801,
                -0.8411589507551489,
                -1.7535382924821699
            ]
        },
        {
            "positions": [
                0.5047978437964771,
                -1.9836093615059152,
                -1.5084390193645243,
                -1.3442073788470823,
                -0.9097268288374496,
                -1.874251355672448
            ]
        },
        {
            "positions": [
                0.4508593817840003,
                -1.9979148496323118,
                -1.540560949338222,
                -1.443424576562485,
                -0.9782947069197503,
                -1.9949644188627271
            ]
        },
        {
            "positions": [
                0.3969209197715238,
                -2.0122203377587082,
                -1.5726828793119196,
                -1.5426417742778866,
                -1.046862585002051,
                -2.1156774820530053
            ]
        },
        {
            "positions": [
                0.342982457759047,
                -2.0265258258851047,
                -1.6048048092856173,
                -1.6418589719932892,
                -1.1154304630843517,
                -2.2363905452432844
            ]
        },
        {
            "positions": [
                0.2890439957465707,
                -2.040831314011501,
                -1.636926739259315,
                -1.741076169708691,
                -1.1839983411666521,
                -2.3571036084335626
            ]
        },
        {
            "positions": [
                0.23510553373409393,
                -2.055136802137898,
                -1.6690486692330126,
                -1.8402933674240936,
                -1.252566219248953,
                -2.4778166716238417
            ]
        },
        {
            "positions": [
                0.1811670717216174,
                -2.0694422902642944,
                -1.7011705992067103,
                -1.9395105651394957,
                -1.3211340973312535,
                -2.59852973481412
            ]
        },
        {
            "positions": [
                0.12722860970914063,
                -2.083747778390691,
                -1.733292529180408,
                -2.038727762854898,
                -1.3897019754135544,
                -2.719242798004399
            ]
        },
        {
            "positions": [
                0.07329014769666431,
                -2.0980532665170877,
                -1.7654144591541057,
                -2.1379449605703,
                -1.458269853495855,
                -2.839955861194677
            ]
        },
        {
            "positions": [
                0.019351685684187547,
                -2.112358754643484,
                -1.7975363891278033,
                -2.2371621582857024,
                -1.5268377315781558,
                -2.960668924384956
            ]
        },
        {
            "positions": [
                -0.03458677632828896,
                -2.1266642427698805,
                -1.8296583191015012,
                -2.3363793560011046,
                -1.5954056096604563,
                -3.0813819875752344
            ]
        }
    ]
}