{
    "goal": {
        "global_pose": {
            "orientation": {
                "w": -0.4816463035849501,
                "x": 0.5182115481033762,
                "y": 0.4908360881923453,
                "z": -0.5084816262002911
            },
            "position": {
                "x": -0.8240239810943604,
                "y": 0.19912469901144506,
                "z": 0.16403168439865112
            }
        },
        "name": "move_to_storage_D"
    },
    "id": "BiEST_move_to_storage_D_13",
    "joint_names": [
        "shoulder_pan_joint",
        "shoulder_lift_joint",
        "elbow_joint",
        "wrist_1_joint",
        "wrist_2_joint",
        "wrist_3_joint"
    ],
    "metrics": {
        "cart_traj_len": 3.6006513572522922,
        "distance_elbow_joint": 4.209200654510907,
        "distance_shoulder_lift_joint": 1.264613398278653,
        "distance_shoulder_pan_joint": 2.8119384355064008,
        "distance_wrist_1_joint": 2.2638350678518915,
        "distance_wrist_2_joint": 1.103618901162735,
        "distance_wrist_3_joint": 3.1455656384439195,
        "smoothness": 0.012414753571193685,
        "time": 0.093485623,
        "traj_len": 3.8469172197689026,
        "weighted_distance": 4.945438033345173
    },
    "planner": "BiEST",
    "start": {
        "state": {
            "elbow_joint": -2.384821988534728,
            "shoulder_lift_joint": -2.2788054721415256,
            "shoulder_pan_joint": -0.1854694642142757,
            "wrist_1_joint": 1.4845938289331202,
            "wrist_2_joint": 0.17898776772866878,
            "wrist_3_joint": 0.037105688729662994
        }
    },
    "waypoints": [
        {
            "positions": [
                -0.1854694642142757,
                -2.2788054721415256,
                -2.384821988534728,
                1.4845938289331202,
                0.17898776772866878,
                0.037105688729662994
            ]
        },
        {
            "positions": [
                -0.07980755965278859,
                -2.2688169315678004,
                -2.2205820747903076,
                1.4315477709967002,
                0.1731067301701949,
                -0.007578244032907959
            ]
        },
        {
            "positions": [
                0.025854344908698534,
                -2.2588283909940756,
                -2.0563421610458867,
                1.3785017130602801,
                0.16722569261172102,
                -0.05226217679547891
            ]
        },
        {
            "positions": [
                0.13151624947018561,
                -2.2488398504203504,
                -1.8921022473014664,
                1.3254556551238603,
                0.16134465505324713,
                -0.09694610955804986
            ]
        },
        {
            "positions": [
                0.23717815403167278,
                -2.238851309846625,
                -1.727862333557046,
                1.2724095971874403,
                0.15546361749477325,
                -0.14163004232062082
            ]
        },
        {
            "positions": [
                0.3428400585931599,
                -2.2288627692729004,
                -1.5636224198126254,
                1.2193635392510203,
                0.14958257993629936,
                -0.18631397508319175
            ]
        },
        {
            "positions": [
                0.44850196315464697,
                -2.218874228699175,
                -1.3993825060682048,
                1.1663174813146002,
                0.14370154237782548,
                -0.2309979078457627
            ]
        },
        {
            "positions": [
                0.5541638677161341,
                -2.20888568812545,
                -1.2351425923237844,
                1.1132714233781802,
                0.1378205048193516,
                -0.2756818406083337
            ]
        },
        {
            "positions": [
                0.6598257722776213,
                -2.198897147551725,
                -1.0709026785793638,
                1.0602253654417604,
                0.1319394672608777,
                -0.32036577337090466
            ]
        },
        {
            "positions": [
                0.7654876768391085,
                -2.188908606978,
                -0.9066627648349432,
                1.0071793075053403,
                0.12605842970240383,
                -0.36504970613347554
            ]
        },
        {
            "positions": [
                0.8711495814005955,
                -2.1789200664042747,
                -0.7424228510905229,
                0.9541332495689203,
                0.12017739214392995,
                -0.4097336388960465
            ]
        },
        {
            "positions": [
                0.9768114859620828,
                -2.16893152583055,
                -0.5781829373461023,
                0.9010871916325003,
                0.11429635458545605,
                -0.4544175716586175
            ]
        },
        {
            "positions": [
                1.0824733905235695,
                -2.1589429852568247,
                -0.4139430236016819,
                0.8480411336960804,
                0.10841531702698218,
                -0.4991015044211884
            ]
        },
        {
            "positions": [
                1.1881352950850568,
                -2.1489544446831,
                -0.2497031098572613,
                0.7949950757596603,
                0.10253427946850828,
                -0.5437854371837594
            ]
        },
        {
            "positions": [
                1.2937971996465438,
                -2.1389659041093747,
                -0.08546319611284092,
                0.7419490178232404,
                0.09665324191003441,
                -0.5884693699463303
            ]
        },
        {
            "positions": [
                1.3994591042080309,
                -2.1289773635356495,
                0.0787767176315799,
                0.6889029598868204,
                0.09077220435156051,
                -0.6331533027089012
            ]
        },
        {
            "positions": [
                1.5051210087695182,
                -2.1189888229619247,
                0.24301663137600027,
                0.6358569019504003,
                0.08489116679308663,
                -0.6778372354714722
            ]
        },
        {
            "positions": [
                1.6107829133310052,
                -2.1090002823881995,
                0.40725654512042064,
                0.5828108440139804,
                0.07901012923461274,
                -0.7225211682340431
            ]
        },
        {
            "positions": [
                1.7164448178924925,
                -2.0990117418144743,
                0.5714964588648415,
                0.5297647860775604,
                0.07312909167613886,
                -0.7672051009966141
            ]
        },
        {
            "positions": [
                1.8221067224539795,
                -2.0890232012407495,
                0.7357363726092614,
                0.47671872814114047,
                0.06724805411766498,
                -0.811889033759185
            ]
        },
        {
            "positions": [
                1.9277686270154666,
                -2.0790346606670242,
                0.8999762863536821,
                0.4236726702047203,
                0.06136701655919109,
                -0.856572966521756
            ]
        },
        {
            "positions": [
                1.9665853128086144,
                -2.0198767391779047,
                0.9513319741104876,
                0.3568441196978597,
                0.11614469155881652,
                -0.9816777989213393
            ]
        },
        {
            "positions": [
                2.005401998601762,
                -1.960718817688785,
                1.002687661867293,
                0.290015569190999,
                0.17092236655844192,
                -1.1067826313209226
            ]
        },
        {
            "positions": [
                2.0442186843949095,
                -1.9015608961996657,
                1.0540433496240986,
                0.22318701868413837,
                0.22570004155806733,
                -1.231887463720506
            ]
        },
        {
            "positions": [
                2.0830353701880573,
                -1.8424029747105461,
                1.1053990373809042,
                0.15635846817727772,
                0.28047771655769277,
                -1.3569922961200893
            ]
        },
        {
            "positions": [
                2.121852055981205,
                -1.7832450532214266,
                1.1567547251377097,
                0.08952991767041707,
                0.3352553915573182,
                -1.4820971285196727
            ]
        },
        {
            "positions": [
                2.160668741774353,
                -1.7240871317323072,
                1.2081104128945153,
                0.02270136716355642,
                0.3900330665569436,
                -1.607201960919256
            ]
        },
        {
            "positions": [
                2.1994854275675007,
                -1.6649292102431876,
                1.2594661006513208,
                -0.04412718334330423,
                0.444810741556569,
                -1.7323067933188394
            ]
        },
        {
            "positions": [
                2.238302113360648,
                -1.605771288754068,
                1.3108217884081264,
                -0.11095573385016488,
                0.4995884165561944,
                -1.8574116257184228
            ]
        },
        {
            "positions": [
                2.277118799153796,
                -1.5466133672649485,
                1.362177476164932,
                -0.17778428435702553,
                0.5543660915558198,
                -1.9825164581180061
            ]
        },
        {
            "positions": [
                2.3159354849469436,
                -1.4874554457758289,
                1.4135331639217377,
                -0.24461283486388619,
                0.6091437665554453,
                -2.1076212905175895
            ]
        },
        {
            "positions": [
                2.3547521707400914,
                -1.4282975242867093,
                1.464888851678543,
                -0.31144138537074695,
                0.6639214415550707,
                -2.2327261229171733
            ]
        },
        {
            "positions": [
                2.3935688565332387,
                -1.36913960279759,
                1.5162445394353485,
                -0.3782699358776075,
                0.7186991165546961,
                -2.3578309553167562
            ]
        },
        {
            "positions": [
                2.4323855423263865,
                -1.3099816813084704,
                1.567600227192154,
                -0.44509848638446814,
                0.7734767915543215,
                -2.4829357877163396
            ]
        },
        {
            "positions": [
                2.4712022281195343,
                -1.2508237598193508,
                1.6189559149489596,
                -0.5119270368913288,
                0.828254466553947,
                -2.608040620115923
            ]
        },
        {
            "positions": [
                2.510018913912682,
                -1.1916658383302312,
                1.6703116027057652,
                -0.5787555873981894,
                0.8830321415535723,
                -2.7331454525155063
            ]
        },
        {
            "positions": [
                2.5488355997058294,
                -1.1325079168411119,
                1.7216672904625707,
                -0.6455841379050501,
                0.9378098165531977,
                -2.8582502849150897
            ]
        },
        {
            "positions": [
                2.587652285498977,
                -1.0733499953519923,
                1.7730229782193763,
                -0.7124126884119107,
                0.9925874915528231,
                -2.983355117314673
            ]
        },
        {
            "positions": [
                2.626468971292125,
                -1.0141920738628727,
                1.8243786659761818,
                -0.7792412389187715,
                1.0473651665524486,
                -3.1084599497142564
            ]
        }
    ]
}