{
    "goal": {
        "global_pose": {
            "orientation": {
                "w": 0.7047431468963623,
                "x": -0.7094548344612122,
                "y": 0.0024358443915843964,
                "z": -0.0022348060738295317
            },
            "position": {
                "x": 0.6094750761985779,
                "y": 0.3671506643295288,
                "z": 0.19426114857196808
            }
        },
        "name": "move_to_magneteinheit_A"
    },
    "id": "BiEST_move_to_magneteinheit_A_120",
    "joint_names": [
        "shoulder_pan_joint",
        "shoulder_lift_joint",
        "elbow_joint",
        "wrist_1_joint",
        "wrist_2_joint",
        "wrist_3_joint"
    ],
    "metrics": {
        "cart_traj_len": 3.715857033527623,
        "distance_elbow_joint": 3.910394004157965,
        "distance_shoulder_lift_joint": 1.0021933043138376,
        "distance_shoulder_pan_joint": 3.336457469010649,
        "distance_wrist_1_joint": 0.8282199160741147,
        "distance_wrist_2_joint": 1.6959483142690108,
        "distance_wrist_3_joint": 3.6675500742889064,
        "smoothness": 0.3306325311041665,
        "time": 0.08346743400000001,
        "traj_len": 3.800100404214931,
        "weighted_distance": 4.929506208641533
    },
    "planner": "BiEST",
    "start": {
        "state": {
            "elbow_joint": -1.9196185241190666,
            "shoulder_lift_joint": -1.2443396400964142,
            "shoulder_pan_joint": 2.6996025414629847,
            "wrist_1_joint": -1.5485510000780065,
            "wrist_2_joint": -1.5709468930060704,
            "wrist_3_joint": 0.4420197071253992
        }
    },
    "waypoints": [
        {
            "positions": [
                2.6996025414629847,
                -1.2443396400964142,
                -1.9196185241190666,
                -1.5485510000780065,
                -1.5709468930060704,
                0.4420197071253992
            ]
        },
        {
            "positions": [
                2.581341822435129,
                -1.2583646524401386,
                -1.831150030805452,
                -1.5514939461055146,
                -1.5114921133613761,
                0.33743812937757184
            ]
        },
        {
            "positions": [
                2.463081103407273,
                -1.272389664783863,
                -1.7426815374918374,
                -1.5544368921330227,
                -1.452037333716682,
                0.23285655162974453
            ]
        },
        {
            "positions": [
                2.344820384379417,
                -1.2864146771275875,
                -1.654213044178223,
                -1.5573798381605308,
                -1.3925825540719878,
                0.12827497388191722
            ]
        },
        {
            "positions": [
                2.2265596653515614,
                -1.300439689471312,
                -1.5657445508646084,
                -1.560322784188039,
                -1.3331277744272936,
                0.023693396134089884
            ]
        },
        {
            "positions": [
                2.108298946323705,
                -1.3144647018150364,
                -1.4772760575509938,
                -1.563265730215547,
                -1.2736729947825993,
                -0.08088818161373745
            ]
        },
        {
            "positions": [
                1.9900382272958494,
                -1.3284897141587608,
                -1.3888075642373794,
                -1.5662086762430552,
                -1.2142182151379053,
                -0.18546975936156473
            ]
        },
        {
            "positions": [
                1.8717775082679933,
                -1.3425147265024853,
                -1.3003390709237648,
                -1.569151622270563,
                -1.154763435493211,
                -0.2900513371093921
            ]
        },
        {
            "positions": [
                1.7535167892401375,
                -1.3565397388462097,
                -1.2118705776101502,
                -1.5720945682980711,
                -1.095308655848517,
                -0.3946329148572194
            ]
        },
        {
            "positions": [
                1.6352560702122818,
                -1.3705647511899341,
                -1.1234020842965355,
                -1.5750375143255793,
                -1.0358538762038227,
                -0.4992144926050467
            ]
        },
        {
            "positions": [
                1.5169953511844259,
                -1.3845897635336586,
                -1.034933590982921,
                -1.5779804603530874,
                -0.9763990965591285,
                -0.6037960703528741
            ]
        },
        {
            "positions": [
                1.39873463215657,
                -1.398614775877383,
                -0.9464650976693064,
                -1.5809234063805955,
                -0.9169443169144343,
                -0.7083776481007015
            ]
        },
        {
            "positions": [
                1.2804739131287142,
                -1.4126397882211075,
                -0.8579966043556919,
                -1.5838663524081036,
                -0.8574895372697402,
                -0.8129592258485286
            ]
        },
        {
            "positions": [
                1.162213194100858,
                -1.426664800564832,
                -0.7695281110420773,
                -1.5868092984356117,
                -0.7980347576250459,
                -0.917540803596356
            ]
        },
        {
            "positions": [
                1.043952475073002,
                -1.4406898129085566,
                -0.6810596177284627,
                -1.5897522444631198,
                -0.7385799779803517,
                -1.0221223813441833
            ]
        },
        {
            "positions": [
                0.9256917560451463,
                -1.454714825252281,
                -0.5925911244148483,
                -1.592695190490628,
                -0.6791251983356577,
                -1.1267039590920107
            ]
        },
        {
            "positions": [
                0.8074310370172904,
                -1.4687398375960055,
                -0.5041226311012337,
                -1.595638136518136,
                -0.6196704186909634,
                -1.231285536839838
            ]
        },
        {
            "positions": [
                0.6891703179894346,
                -1.48276484993973,
                -0.41565413778761906,
                -1.5985810825456441,
                -0.5602156390462691,
                -1.3358671145876655
            ]
        },
        {
            "positions": [
                0.5709095989615789,
                -1.4967898622834543,
                -0.32718564447400467,
                -1.6015240285731522,
                -0.5007608594015751,
                -1.4404486923354924
            ]
        },
        {
            "positions": [
                0.4526488799337227,
                -1.5108148746271788,
                -0.23871715116038983,
                -1.6044669746006601,
                -0.44130607975688085,
                -1.5450302700833198
            ]
        },
        {
            "positions": [
                0.334388160905867,
                -1.5248398869709032,
                -0.1502486578467752,
                -1.6074099206281682,
                -0.3818513001121866,
                -1.6496118478311472
            ]
        },
        {
            "positions": [
                0.21612744187801125,
                -1.5388648993146277,
                -0.06178016453316082,
                -1.6103528666556763,
                -0.32239652046749256,
                -1.7541934255789742
            ]
        },
        {
            "positions": [
                0.09786672285015507,
                -1.552889911658352,
                0.026688328780453796,
                -1.6132958126831844,
                -0.2629417408227983,
                -1.858775003326802
            ]
        },
        {
            "positions": [
                -0.0203939961777011,
                -1.5669149240020765,
                0.11515682209406819,
                -1.6162387587106926,
                -0.20348696117810405,
                -1.9633565810746294
            ]
        },
        {
            "positions": [
                -0.1386547152055564,
                -1.580939936345801,
                0.2036253154076828,
                -1.6191817047382007,
                -0.14403218153341002,
                -2.0679381588224564
            ]
        },
        {
            "positions": [
                -0.25691543423341257,
                -1.5949649486895254,
                0.2920938087212973,
                -1.6221246507657088,
                -0.0845774018887158,
                -2.1725197365702837
            ]
        },
        {
            "positions": [
                -0.23158775352656397,
                -1.5492495678201927,
                0.42814946951905025,
                -1.5631382373755152,
                -0.0674626131962921,
                -2.255894232008953
            ]
        },
        {
            "positions": [
                -0.2062600728197154,
                -1.5035341869508598,
                0.5642051303168032,
                -1.5041518239853215,
                -0.050347824503868405,
                -2.339268727447622
            ]
        },
        {
            "positions": [
                -0.1809323921128668,
                -1.4578188060815271,
                0.7002607911145562,
                -1.445165410595128,
                -0.033233035811444704,
                -2.422643222886291
            ]
        },
        {
            "positions": [
                -0.15560471140601823,
                -1.4121034252121945,
                0.8363164519123091,
                -1.386178997204934,
                -0.016118247119021004,
                -2.5060177183249603
            ]
        },
        {
            "positions": [
                -0.1302770306991696,
                -1.3663880443428618,
                0.9723721127100622,
                -1.3271925838147405,
                0.0009965415734027039,
                -2.589392213763629
            ]
        },
        {
            "positions": [
                -0.10494934999232103,
                -1.320672663473529,
                1.108427773507815,
                -1.2682061704245469,
                0.018111330265826397,
                -2.6727667092022984
            ]
        },
        {
            "positions": [
                -0.07962166928547243,
                -1.2749572826041962,
                1.2444834343055682,
                -1.2092197570343532,
                0.035226118958250105,
                -2.7561412046409677
            ]
        },
        {
            "positions": [
                -0.05429398857862386,
                -1.2292419017348635,
                1.380539095103321,
                -1.1502333436441596,
                0.0523409076506738,
                -2.8395157000796365
            ]
        },
        {
            "positions": [
                -0.02896630787177526,
                -1.1835265208655308,
                1.5165947559010742,
                -1.0912469302539658,
                0.06945569634309749,
                -2.9228901955183058
            ]
        },
        {
            "positions": [
                -0.0036386271649266333,
                -1.1378111399961979,
                1.652650416698827,
                -1.0322605168637722,
                0.08657048503552121,
                -3.006264690956975
            ]
        },
        {
            "positions": [
                0.02168905354192191,
                -1.0920957591268654,
                1.7887060774965797,
                -0.9732741034735787,
                0.10368527372794488,
                -3.089639186395644
            ]
        },
        {
            "positions": [
                0.04701673424877052,
                -1.0463803782575325,
                1.9247617382943327,
                -0.914287690083385,
                0.1208000624203686,
                -3.173013681834313
            ]
        },
        {
            "positions": [
                0.12302405908083988,
                -1.1493638035462659,
                1.9907754800388988,
                -0.8674783853792963,
                0.12500142126294084,
                -3.120496996505119
            ]
        }
    ]
}