{
    "goal": {
        "global_pose": {
            "orientation": {
                "w": -0.00223480608172531,
                "x": 0.0024358444001904467,
                "y": 0.7094548369677653,
                "z": -0.704743149386269
            },
            "position": {
                "x": 0.6205249238014221,
                "y": -0.6371506643295288,
                "z": 0.19426114857196808
            }
        },
        "name": "move_to_magneteinheit_B"
    },
    "id": "BiEST_move_to_magneteinheit_B_76",
    "joint_names": [
        "shoulder_pan_joint",
        "shoulder_lift_joint",
        "elbow_joint",
        "wrist_1_joint",
        "wrist_2_joint",
        "wrist_3_joint"
    ],
    "metrics": {
        "cart_traj_len": 1.7205405394512003,
        "distance_elbow_joint": 1.3716250365146914,
        "distance_shoulder_lift_joint": 1.2138450674965244,
        "distance_shoulder_pan_joint": 1.782453415852706,
        "distance_wrist_1_joint": 0.19984664186806844,
        "distance_wrist_2_joint": 1.557217440923567,
        "distance_wrist_3_joint": 0.6219228146627315,
        "smoothness": 0.6765153381433496,
        "time": 0.216742384,
        "traj_len": 2.597481552835032,
        "weighted_distance": 3.122149921037647
    },
    "planner": "BiEST",
    "start": {
        "state": {
            "elbow_joint": 2.6216224122426386,
            "shoulder_lift_joint": -1.4174107377796124,
            "shoulder_pan_joint": 0.7066234856936794,
            "wrist_1_joint": 1.9546482284002225,
            "wrist_2_joint": -0.7096286983471962,
            "wrist_3_joint": 0.005740856962016249
        }
    },
    "waypoints": [
        {
            "positions": [
                0.7066234856936794,
                -1.4174107377796124,
                2.6216224122426386,
                1.9546482284002225,
                -0.7096286983471962,
                0.005740856962016249
            ]
        },
        {
            "positions": [
                0.733562241846439,
                -1.4939814007119894,
                2.691293015971595,
                1.9892245658165046,
                -0.7515495495657046,
                0.11027029689378827
            ]
        },
        {
            "positions": [
                0.7605009979991986,
                -1.5705520636443664,
                2.760963619700552,
                2.023800903232787,
                -0.793470400784213,
                0.2147997368255603
            ]
        },
        {
            "positions": [
                0.7874397541519582,
                -1.6471227265767434,
                2.8306342234295085,
                2.0583772406490692,
                -0.8353912520027215,
                0.31932917675733236
            ]
        },
        {
            "positions": [
                0.5798095027830057,
                -1.6424003507465936,
                2.698620093809097,
                2.0655802866422963,
                -0.830132782854693,
                0.29204546627567296
            ]
        },
        {
            "positions": [
                0.37217925141405306,
                -1.6376779749164436,
                2.566605964188685,
                2.0727833326355234,
                -0.8248743137066645,
                0.2647617557940135
            ]
        },
        {
            "positions": [
                0.1645490000451004,
                -1.6329555990862938,
                2.4345918345682733,
                2.0799863786287505,
                -0.8196158445586361,
                0.2374780453123541
            ]
        },
        {
            "positions": [
                0.07465346727113631,
                -1.5521251031522152,
                2.3707109315293913,
                2.0861954195987122,
                -0.9375891345439659,
                0.21860443169381769
            ]
        },
        {
            "positions": [
                -0.015242065502827779,
                -1.4712946072181365,
                2.3068300284905088,
                2.092404460568674,
                -1.0555624245292956,
                0.19973081807528129
            ]
        },
        {
            "positions": [
                -0.1051375982767919,
                -1.390464111284058,
                2.2429491254516267,
                2.098613501538636,
                -1.1735357145146252,
                0.18085720445674486
            ]
        },
        {
            "positions": [
                -0.19503313105075595,
                -1.3096336153499792,
                2.1790682224127447,
                2.104822542508597,
                -1.2915090044999549,
                0.16198359083820846
            ]
        },
        {
            "positions": [
                -0.28492866382472015,
                -1.2288031194159006,
                2.115187319373862,
                2.111031583478559,
                -1.4094822944852847,
                0.143109977219672
            ]
        },
        {
            "positions": [
                -0.37482419659868416,
                -1.147972623481822,
                2.05130641633498,
                2.1172406244485207,
                -1.5274555844706144,
                0.1242363636011356
            ]
        },
        {
            "positions": [
                -0.46471972937264827,
                -1.067142127547743,
                1.987425513296098,
                2.1234496654184825,
                -1.645428874455944,
                0.10536274998259917
            ]
        },
        {
            "positions": [
                -0.5546152621466123,
                -0.9863116316136646,
                1.923544610257216,
                2.1296587063884442,
                -1.7634021644412736,
                0.08648913636406277
            ]
        },
        {
            "positions": [
                -0.6445107949205764,
                -0.9054811356795859,
                1.8596637072183337,
                2.1358677473584056,
                -1.8813754544266035,
                0.06761552274552635
            ]
        },
        {
            "positions": [
                -0.7344063276945406,
                -0.8246506397455072,
                1.7957828041794515,
                2.1420767883283673,
                -1.9993487444119333,
                0.04874190912698992
            ]
        },
        {
            "positions": [
                -0.8243018604685046,
                -0.7438201438114286,
                1.7319019011405694,
                2.148285829298329,
                -2.1173220343972625,
                0.02986829550845352
            ]
        },
        {
            "positions": [
                -0.9141973932424688,
                -0.6629896478773499,
                1.6680209981016871,
                2.154494870268291,
                -2.2352953243825926,
                0.010994681889917078
            ]
        }
    ]
}