{
    "goal": {
        "global_pose": {
            "orientation": {
                "w": 0.005598929693374612,
                "x": 0.007748599140229565,
                "y": 0.7110244013736278,
                "z": -0.7031023480610252
            },
            "position": {
                "x": -0.8858502320852131,
                "y": -0.7141253447532654,
                "z": 0.3711530566215515
            }
        },
        "name": "move_to_auspresseinheit_C"
    },
    "id": "BiEST_move_to_auspresseinheit_C_119",
    "joint_names": [
        "shoulder_pan_joint",
        "shoulder_lift_joint",
        "elbow_joint",
        "wrist_1_joint",
        "wrist_2_joint",
        "wrist_3_joint"
    ],
    "metrics": {
        "cart_traj_len": 0.49320418921788517,
        "distance_elbow_joint": 0.9963867981936853,
        "distance_shoulder_lift_joint": 0.32274690334120837,
        "distance_shoulder_pan_joint": 0.25709929319625546,
        "distance_wrist_1_joint": 0.6769490056923329,
        "distance_wrist_2_joint": 1.306240586343585,
        "distance_wrist_3_joint": 0.06113068992616144,
        "smoothness": 3.2297397335745243e-16,
        "time": 0.158744624,
        "traj_len": 1.9027751513758078,
        "weighted_distance": 2.3929070706112823
    },
    "planner": "BiEST",
    "start": {
        "state": {
            "elbow_joint": 1.7527959577737207,
            "shoulder_lift_joint": -0.9740617694225068,
            "shoulder_pan_joint": -2.967991417825858,
            "wrist_1_joint": -0.759517768980727,
            "wrist_2_joint": 1.7443932448377408,
            "wrist_3_joint": -3.0840537646736568
        }
    },
    "waypoints": [
        {
            "positions": [
                -2.967991417825858,
                -0.9740617694225068,
                1.7527959577737207,
                -0.759517768980727,
                1.7443932448377408,
                -3.0840537646736568
            ]
        },
        {
            "positions": [
                -2.9422814885062323,
                -0.941787079088386,
                1.6531572779543522,
                -0.6918228684114937,
                1.6137691862033823,
                -3.090166833666273
            ]
        },
        {
            "positions": [
                -2.916571559186607,
                -0.9095123887542651,
                1.5535185981349837,
                -0.6241279678422604,
                1.4831451275690237,
                -3.096279902658889
            ]
        },
        {
            "positions": [
                -2.8908616298669814,
                -0.8772376984201442,
                1.453879918315615,
                -0.5564330672730271,
                1.3525210689346654,
                -3.102392971651505
            ]
        },
        {
            "positions": [
                -2.8651517005473557,
                -0.8449630080860234,
                1.3542412384962466,
                -0.48873816670379383,
                1.2218970103003066,
                -3.108506040644121
            ]
        },
        {
            "positions": [
                -2.8394417712277304,
                -0.8126883177519026,
                1.254602558676878,
                -0.42104326613456056,
                1.0912729516659483,
                -3.1146191096367373
            ]
        },
        {
            "positions": [
                -2.8137318419081048,
                -0.7804136274177818,
                1.1549638788575094,
                -0.3533483655653273,
                0.9606488930315898,
                -3.120732178629354
            ]
        },
        {
            "positions": [
                -2.788021912588479,
                -0.748138937083661,
                1.055325199038141,
                -0.285653464996094,
                0.8300248343972313,
                -3.12684524762197
            ]
        },
        {
            "positions": [
                -2.7623119832688534,
                -0.7158642467495401,
                0.9556865192187725,
                -0.21795856442686068,
                0.6994007757628726,
                -3.132958316614586
            ]
        },
        {
            "positions": [
                -2.736602053949228,
                -0.6835895564154193,
                0.8560478393994039,
                -0.15026366385762735,
                0.5687767171285143,
                -3.139071385607202
            ]
        },
        {
            "positions": [
                -2.7108921246296025,
                -0.6513148660812984,
                0.7564091595800354,
                -0.08256876328839415,
                0.43815265849415586,
                -3.145184454599818
            ]
        }
    ]
}