{
    "goal": {
        "global_pose": {
            "orientation": {
                "w": 0.5084816262002911,
                "x": -0.4908360881923452,
                "y": 0.5182115481033761,
                "z": -0.48164630358495003
            },
            "position": {
                "x": 0.5540239810943604,
                "y": -0.46912469901144505,
                "z": 0.16403168439865112
            }
        },
        "name": "move_to_storage_B"
    },
    "id": "BiEST_move_to_storage_B_101",
    "joint_names": [
        "shoulder_pan_joint",
        "shoulder_lift_joint",
        "elbow_joint",
        "wrist_1_joint",
        "wrist_2_joint",
        "wrist_3_joint"
    ],
    "metrics": {
        "cart_traj_len": 3.985371862562541,
        "distance_elbow_joint": 3.5807871554517856,
        "distance_shoulder_lift_joint": 0.45883318426466513,
        "distance_shoulder_pan_joint": 3.393820616397181,
        "distance_wrist_1_joint": 4.067312543636088,
        "distance_wrist_2_joint": 2.704623298253448,
        "distance_wrist_3_joint": 3.1269938647975155,
        "smoothness": 0.32232032160151963,
        "time": 0.109289915,
        "traj_len": 4.1632163843356365,
        "weighted_distance": 5.509836134975817
    },
    "planner": "BiEST",
    "start": {
        "state": {
            "elbow_joint": 1.664937868594044,
            "shoulder_lift_joint": -0.661644460510453,
            "shoulder_pan_joint": -0.9139846352900073,
            "wrist_1_joint": 2.146753192139373,
            "wrist_2_joint": -2.2341966793290973,
            "wrist_3_joint": 0.005466555786416001
        }
    },
    "waypoints": [
        {
            "positions": [
                -0.9139846352900073,
                -0.661644460510453,
                1.664937868594044,
                2.146753192139373,
                -2.2341966793290973,
                0.005466555786416001
            ]
        },
        {
            "positions": [
                -0.8068718013284746,
                -0.6835470508124588,
                1.5573163956335216,
                2.182409744748068,
                -2.126621371349222,
                -0.005034421848835953
            ]
        },
        {
            "positions": [
                -0.699758967366942,
                -0.7054496411144645,
                1.4496949226729994,
                2.218066297356762,
                -2.019046063369347,
                -0.015535399484087907
            ]
        },
        {
            "positions": [
                -0.5926461334054092,
                -0.7273522314164703,
                1.3420734497124773,
                2.253722849965457,
                -1.9114707553894716,
                -0.026036377119339864
            ]
        },
        {
            "positions": [
                -0.4855332994438766,
                -0.7492548217184761,
                1.234451976751955,
                2.2893794025741516,
                -1.8038954474095963,
                -0.036537354754591814
            ]
        },
        {
            "positions": [
                -0.37842046548234387,
                -0.7711574120204819,
                1.126830503791433,
                2.325035955182846,
                -1.6963201394297212,
                -0.047038332389843764
            ]
        },
        {
            "positions": [
                -0.27130763152081117,
                -0.7930600023224876,
                1.0192090308309107,
                2.3606925077915406,
                -1.588744831449846,
                -0.05753931002509573
            ]
        },
        {
            "positions": [
                -0.16419479755927846,
                -0.8149625926244934,
                0.9115875578703885,
                2.3963490604002353,
                -1.4811695234699707,
                -0.06804028766034767
            ]
        },
        {
            "positions": [
                -0.057081963597745866,
                -0.8368651829264993,
                0.8039660849098662,
                2.4320056130089296,
                -1.3735942154900955,
                -0.07854126529559963
            ]
        },
        {
            "positions": [
                0.05003087036378684,
                -0.8587677732285051,
                0.696344611949344,
                2.4676621656176243,
                -1.2660189075102202,
                -0.08904224293085157
            ]
        },
        {
            "positions": [
                0.15714370432531954,
                -0.8806703635305108,
                0.5887231389888219,
                2.503318718226319,
                -1.158443599530345,
                -0.09954322056610353
            ]
        },
        {
            "positions": [
                0.26425653828685214,
                -0.9025729538325166,
                0.4811016660282996,
                2.5389752708350133,
                -1.05086829155047,
                -0.11004419820135547
            ]
        },
        {
            "positions": [
                0.37136937224838495,
                -0.9244755441345224,
                0.37348019306777736,
                2.574631823443708,
                -0.9432929835705945,
                -0.12054517583660745
            ]
        },
        {
            "positions": [
                0.47848220620991755,
                -0.9463781344365281,
                0.2658587201072551,
                2.6102883760524027,
                -0.8357176755907194,
                -0.13104615347185938
            ]
        },
        {
            "positions": [
                0.5855950401714504,
                -0.9682807247385339,
                0.15823724714673304,
                2.645944928661097,
                -0.728142367610844,
                -0.14154713110711134
            ]
        },
        {
            "positions": [
                0.6927078741329828,
                -0.9901833150405397,
                0.050615774186210716,
                2.6816014812697917,
                -0.6205670596309689,
                -0.1520481087423633
            ]
        },
        {
            "positions": [
                0.6310827669959418,
                -0.9946762229624218,
                0.11842491422220912,
                2.559792369045458,
                -0.5829465879566476,
                -0.2544439432343887
            ]
        },
        {
            "positions": [
                0.5694576598589007,
                -0.9991691308843037,
                0.18623405425820752,
                2.437983256821125,
                -0.5453261162823262,
                -0.35683977772641406
            ]
        },
        {
            "positions": [
                0.5078325527218597,
                -1.0036620388061857,
                0.25404319429420597,
                2.3161741445967916,
                -0.5077056446080048,
                -0.4592356122184395
            ]
        },
        {
            "positions": [
                0.4462074455848186,
                -1.0081549467280677,
                0.3218523343302043,
                2.194365032372458,
                -0.47008517293368346,
                -0.5616314467104648
            ]
        },
        {
            "positions": [
                0.3845823384477775,
                -1.0126478546499498,
                0.3896614743662028,
                2.0725559201481243,
                -0.4324647012593621,
                -0.6640272812024903
            ]
        },
        {
            "positions": [
                0.32295723131073645,
                -1.0171407625718318,
                0.45747061440220116,
                1.950746807923791,
                -0.39484422958504073,
                -0.7664231156945157
            ]
        },
        {
            "positions": [
                0.2613321241736954,
                -1.021633670493714,
                0.5252797544381995,
                1.8289376956994574,
                -0.35722375791071936,
                -0.8688189501865411
            ]
        },
        {
            "positions": [
                0.19970701703665433,
                -1.0261265784155957,
                0.5930888944741979,
                1.7071285834751242,
                -0.319603286236398,
                -0.9712147846785665
            ]
        },
        {
            "positions": [
                0.13808190989961322,
                -1.0306194863374778,
                0.6608980345101965,
                1.5853194712507908,
                -0.28198281456207663,
                -1.0736106191705919
            ]
        },
        {
            "positions": [
                0.07645680276257216,
                -1.0351123942593599,
                0.7287071745461948,
                1.463510359026457,
                -0.24436234288775527,
                -1.1760064536626174
            ]
        },
        {
            "positions": [
                0.014831695625531216,
                -1.039605302181242,
                0.7965163145821932,
                1.3417012468021239,
                -0.2067418712134339,
                -1.2784022881546426
            ]
        },
        {
            "positions": [
                -0.04679341151150995,
                -1.0440982101031238,
                0.8643254546181915,
                1.2198921345777904,
                -0.16912139953911254,
                -1.3807981226466681
            ]
        },
        {
            "positions": [
                -0.10841851864855101,
                -1.0485911180250058,
                0.9321345946541901,
                1.0980830223534568,
                -0.13150092786479117,
                -1.4831939571386934
            ]
        },
        {
            "positions": [
                -0.17004362578559207,
                -1.0530840259468879,
                0.9999437346901885,
                0.9762739101291233,
                -0.09388045619046981,
                -1.585589791630719
            ]
        },
        {
            "positions": [
                -0.23166873292263324,
                -1.05757693386877,
                1.0677528747261869,
                0.8544647979047899,
                -0.05625998451614844,
                -1.6879856261227444
            ]
        },
        {
            "positions": [
                -0.2932938400596742,
                -1.062069841790652,
                1.1355620147621852,
                0.7326556856804567,
                -0.018639512841827077,
                -1.7903814606147697
            ]
        },
        {
            "positions": [
                -0.35491894719671513,
                -1.0665627497125338,
                1.2033711547981836,
                0.6108465734561235,
                0.018980958832494288,
                -1.892777295106795
            ]
        },
        {
            "positions": [
                -0.4165440543337564,
                -1.071055657634416,
                1.2711802948341822,
                0.4890374612317898,
                0.05660143050681565,
                -1.9951731295988204
            ]
        },
        {
            "positions": [
                -0.47816916147079724,
                -1.075548565556298,
                1.3389894348701805,
                0.36722834900745616,
                0.09422190218113702,
                -2.0975689640908457
            ]
        },
        {
            "positions": [
                -0.5397942686078385,
                -1.08004147347818,
                1.406798574906179,
                0.2454192367831225,
                0.13184237385545838,
                -2.1999647985828714
            ]
        },
        {
            "positions": [
                -0.6014193757448796,
                -1.084534381400062,
                1.4746077149421772,
                0.12361012455878928,
                0.16946284552977975,
                -2.3023606330748967
            ]
        },
        {
            "positions": [
                -0.6630444828819204,
                -1.089027289321944,
                1.5424168549781756,
                0.0018010123344560647,
                0.20708331720410111,
                -2.404756467566922
            ]
        },
        {
            "positions": [
                -0.7246695900189617,
                -1.093520197243826,
                1.6102259950141742,
                -0.1200080998898776,
                0.24470378887842248,
                -2.5071523020589477
            ]
        },
        {
            "positions": [
                -0.7862946971560028,
                -1.098013105165708,
                1.6780351350501725,
                -0.2418172121142108,
                0.28232426055274384,
                -2.609548136550973
            ]
        },
        {
            "positions": [
                -0.8479198042930436,
                -1.10250601308759,
                1.745844275086171,
                -0.36362632433854447,
                0.3199447322270651,
                -2.7119439710429982
            ]
        },
        {
            "positions": [
                -0.9095449114300849,
                -1.1069989210094722,
                1.8136534151221695,
                -0.48543543656287813,
                0.3575652039013866,
                -2.8143398055350235
            ]
        },
        {
            "positions": [
                -0.9711700185671259,
                -1.111491828931354,
                1.8814625551581676,
                -0.6072445487872113,
                0.39518567557570794,
                -2.9167356400270488
            ]
        },
        {
            "positions": [
                -1.032795125704167,
                -1.115984736853236,
                1.9492716951941662,
                -0.729053661011545,
                0.4328061472500293,
                -3.0191314745190745
            ]
        },
        {
            "positions": [
                -1.094420232841208,
                -1.1204776447751181,
                2.0170808352301646,
                -0.8508627732358781,
                0.4704266189243508,
                -3.1215273090110998
            ]
        }
    ]
}