{
    "goal": {
        "global_pose": {
            "orientation": {
                "w": 0.005598929693374612,
                "x": 0.007748599140229565,
                "y": 0.7110244013736278,
                "z": -0.7031023480610252
            },
            "position": {
                "x": -0.8858502320852131,
                "y": -0.7141253447532654,
                "z": 0.3711530566215515
            }
        },
        "name": "move_to_auspresseinheit_C"
    },
    "id": "BiEST_move_to_auspresseinheit_C_149",
    "joint_names": [
        "shoulder_pan_joint",
        "shoulder_lift_joint",
        "elbow_joint",
        "wrist_1_joint",
        "wrist_2_joint",
        "wrist_3_joint"
    ],
    "metrics": {
        "cart_traj_len": 0.8360707704889535,
        "distance_elbow_joint": 0.9836032126942524,
        "distance_shoulder_lift_joint": 0.31645207065936365,
        "distance_shoulder_pan_joint": 0.25673786714491476,
        "distance_wrist_1_joint": 0.6529302377286063,
        "distance_wrist_2_joint": 1.3024293488863654,
        "distance_wrist_3_joint": 0.06588329506504964,
        "smoothness": 0.05010198986600407,
        "time": 0.061659527,
        "traj_len": 1.8915697270200091,
        "weighted_distance": 2.3801601225387388
    },
    "planner": "BiEST",
    "start": {
        "state": {
            "elbow_joint": 1.7527959577737207,
            "shoulder_lift_joint": -0.9740617694225068,
            "shoulder_pan_joint": -2.967991417825858,
            "wrist_1_joint": -0.759517768980727,
            "wrist_2_joint": 1.7443932448377408,
            "wrist_3_joint": -3.0840537646736568
        }
    },
    "waypoints": [
        {
            "positions": [
                -2.967991417825858,
                -0.9740617694225068,
                1.7527959577737207,
                -0.759517768980727,
                1.7443932448377408,
                -3.0840537646736568
            ]
        },
        {
            "positions": [
                -2.9406561546255316,
                -0.9629262239900462,
                1.6457016005272713,
                -0.691212055237422,
                1.6047964032427264,
                -3.090078835162786
            ]
        },
        {
            "positions": [
                -2.9133208914252053,
                -0.9517906785575857,
                1.5386072432808222,
                -0.622906341494117,
                1.465199561647712,
                -3.096103905651915
            ]
        },
        {
            "positions": [
                -2.885985628224879,
                -0.9406551331251253,
                1.4315128860343729,
                -0.5546006277508121,
                1.3256027200526979,
                -3.1021289761410444
            ]
        },
        {
            "positions": [
                -2.8586503650245527,
                -0.9295195876926647,
                1.3244185287879238,
                -0.48629491400750713,
                1.1860058784576832,
                -3.108154046630174
            ]
        },
        {
            "positions": [
                -2.831315101824227,
                -0.9183840422602042,
                1.2173241715414744,
                -0.41798920026420217,
                1.046409036862669,
                -3.1141791171193027
            ]
        },
        {
            "positions": [
                -2.8039798386239005,
                -0.9072484968277437,
                1.110229814295025,
                -0.3496834865208972,
                0.9068121952676547,
                -3.120204187608432
            ]
        },
        {
            "positions": [
                -2.7766445754235742,
                -0.8961129513952832,
                1.0031354570485758,
                -0.28137777277759224,
                0.7672153536726402,
                -3.1262292580975615
            ]
        },
        {
            "positions": [
                -2.749309312223248,
                -0.8849774059628227,
                0.8960410998021267,
                -0.21307205903428728,
                0.6276185120776259,
                -3.1322543285866904
            ]
        },
        {
            "positions": [
                -2.7219740490229216,
                -0.8738418605303622,
                0.7889467425556773,
                -0.14476634529098237,
                0.48802167048261136,
                -3.1382793990758198
            ]
        },
        {
            "positions": [
                -2.711253550680943,
                -0.6576096987631431,
                0.7691927450794682,
                -0.10658753125212077,
                0.44196389595137536,
                -3.126621738412933
            ]
        }
    ]
}