{
    "goal": {
        "global_pose": {
            "orientation": {
                "w": 0.7047431493862688,
                "x": -0.7094548369677653,
                "y": 0.0024358444001904,
                "z": -0.0022348060817251984
            },
            "position": {
                "x": -0.39052492380142206,
                "y": 0.3671506643295288,
                "z": 0.19426114857196808
            }
        },
        "name": "move_to_magneteinheit_D"
    },
    "id": "BiEST_move_to_magneteinheit_D_12",
    "joint_names": [
        "shoulder_pan_joint",
        "shoulder_lift_joint",
        "elbow_joint",
        "wrist_1_joint",
        "wrist_2_joint",
        "wrist_3_joint"
    ],
    "metrics": {
        "cart_traj_len": 4.266390770095694,
        "distance_elbow_joint": 3.752762320661385,
        "distance_shoulder_lift_joint": 1.6266484989439205,
        "distance_shoulder_pan_joint": 3.0320858357502125,
        "distance_wrist_1_joint": 2.2103198205967907,
        "distance_wrist_2_joint": 0.5400907693163856,
        "distance_wrist_3_joint": 4.085854349725607,
        "smoothness": 0.44749606717170126,
        "time": 0.133119221,
        "traj_len": 3.904838229042825,
        "weighted_distance": 5.115650582707804
    },
    "planner": "BiEST",
    "start": {
        "state": {
            "elbow_joint": 0.749534889911806,
            "shoulder_lift_joint": -0.6476975780787326,
            "shoulder_pan_joint": -2.711696901376241,
            "wrist_1_joint": -0.07506478083263063,
            "wrist_2_joint": 0.43296659715538205,
            "wrist_3_joint": -3.14703540197715
        }
    },
    "waypoints": [
        {
            "positions": [
                -2.711696901376241,
                -0.6476975780787326,
                0.749534889911806,
                -0.07506478083263063,
                0.43296659715538205,
                -3.14703540197715
            ]
        },
        {
            "positions": [
                -2.720911832204342,
                -0.6929615792536745,
                0.7917564439954878,
                -0.11869537163571531,
                0.428154883583871,
                -3.093575400464437
            ]
        },
        {
            "positions": [
                -2.730126763032443,
                -0.7382255804286164,
                0.8339779980791697,
                -0.1623259624388,
                0.42334317001235994,
                -3.0401153989517247
            ]
        },
        {
            "positions": [
                -2.7399587537384003,
                -0.7979831195972602,
                0.8891430091599325,
                -0.22709750251662497,
                0.4046670928095283,
                -2.932771000056306
            ]
        },
        {
            "positions": [
                -2.7497907444443577,
                -0.8577406587659039,
                0.9443080202406953,
                -0.29186904259444996,
                0.3859910156066966,
                -2.8254266011608875
            ]
        },
        {
            "positions": [
                -2.7596227351503146,
                -0.9174981979345476,
                0.999473031321458,
                -0.35664058267227494,
                0.36731493840386487,
                -2.7180822022654687
            ]
        },
        {
            "positions": [
                -2.769454725856272,
                -0.9772557371031914,
                1.0546380424022208,
                -0.4214121227500999,
                0.3486388612010332,
                -2.61073780337005
            ]
        },
        {
            "positions": [
                -2.674010207293419,
                -1.0105728904694484,
                0.9571197573526941,
                -0.37667542732564574,
                0.33970847670704263,
                -2.4992609578655705
            ]
        },
        {
            "positions": [
                -2.578565688730566,
                -1.0438900438357053,
                0.8596014723031672,
                -0.3319387319011916,
                0.33077809221305204,
                -2.3877841123610906
            ]
        },
        {
            "positions": [
                -2.483121170167713,
                -1.0772071972019623,
                0.7620831872536404,
                -0.28720203647673737,
                0.32184770771906146,
                -2.276307266856611
            ]
        },
        {
            "positions": [
                -2.3876766516048598,
                -1.1105243505682192,
                0.6645649022041136,
                -0.24246534105228323,
                0.31291732322507093,
                -2.1648304213521317
            ]
        },
        {
            "positions": [
                -2.292232133042007,
                -1.1438415039344763,
                0.5670466171545868,
                -0.19772864562782902,
                0.30398693873108035,
                -2.0533535758476518
            ]
        },
        {
            "positions": [
                -2.196787614479154,
                -1.1771586573007333,
                0.46952833210506006,
                -0.15299195020337486,
                0.29505655423708976,
                -1.9418767303431723
            ]
        },
        {
            "positions": [
                -2.1013430959163006,
                -1.2104758106669902,
                0.3720100470555332,
                -0.10825525477892067,
                0.2861261697430992,
                -1.8303998848386926
            ]
        },
        {
            "positions": [
                -2.005898577353448,
                -1.2437929640332472,
                0.27449176200600645,
                -0.06351855935446654,
                0.2771957852491086,
                -1.718923039334213
            ]
        },
        {
            "positions": [
                -1.9104540587905947,
                -1.2771101173995043,
                0.17697347695647958,
                -0.0187818639300123,
                0.268265400755118,
                -1.6074461938297333
            ]
        },
        {
            "positions": [
                -1.8150095402277415,
                -1.3104272707657612,
                0.07945519190695283,
                0.025954831494441888,
                0.2593350162611274,
                -1.4959693483252539
            ]
        },
        {
            "positions": [
                -1.7195650216648886,
                -1.3437444241320182,
                -0.018063093142574038,
                0.07069152691889602,
                0.2504046317671369,
                -1.3844925028207742
            ]
        },
        {
            "positions": [
                -1.6241205031020356,
                -1.377061577498275,
                -0.11558137819210068,
                0.1154282223433502,
                0.24147424727314631,
                -1.2730156573162947
            ]
        },
        {
            "positions": [
                -1.5286759845391824,
                -1.4103787308645321,
                -0.21309966324162755,
                0.16016491776780445,
                0.23254386277915573,
                -1.1615388118118148
            ]
        },
        {
            "positions": [
                -1.4332314659763294,
                -1.443695884230789,
                -0.3106179482911544,
                0.20490161319225858,
                0.22361347828516515,
                -1.0500619663073354
            ]
        },
        {
            "positions": [
                -1.3377869474134765,
                -1.477013037597046,
                -0.4081362333406813,
                0.2496383086167127,
                0.21468309379117456,
                -0.9385851208028559
            ]
        },
        {
            "positions": [
                -1.2423424288506235,
                -1.5103301909633031,
                -0.5056545183902079,
                0.29437500404116684,
                0.205752709297184,
                -0.8271082752983763
            ]
        },
        {
            "positions": [
                -1.1468979102877706,
                -1.54364734432956,
                -0.6031728034397348,
                0.3391116994656211,
                0.19682232480319342,
                -0.7156314297938968
            ]
        },
        {
            "positions": [
                -1.0514533917249171,
                -1.576964497695817,
                -0.7006910884892616,
                0.38384839489007533,
                0.18789194030920284,
                -0.6041545842894167
            ]
        },
        {
            "positions": [
                -0.9560088731620642,
                -1.610281651062074,
                -0.7982093735387885,
                0.42858509031452957,
                0.17896155581521225,
                -0.49267773878493726
            ]
        },
        {
            "positions": [
                -0.8605643545992112,
                -1.643598804428331,
                -0.8957276585883152,
                0.4733217857389837,
                0.1700311713212217,
                -0.3812008932804578
            ]
        },
        {
            "positions": [
                -0.7651198360363582,
                -1.676915957794588,
                -0.9932459436378418,
                0.5180584811634379,
                0.1611007868272311,
                -0.2697240477759779
            ]
        },
        {
            "positions": [
                -0.6696753174735051,
                -1.710233111160845,
                -1.0907642286873689,
                0.562795176587892,
                0.15217040233324053,
                -0.15824720227149847
            ]
        },
        {
            "positions": [
                -0.5742307989106523,
                -1.743550264527102,
                -1.1882825137368955,
                0.6075318720123462,
                0.14324001783924997,
                -0.04677035676701902
            ]
        },
        {
            "positions": [
                -0.47878628034779913,
                -1.7768674178933588,
                -1.2858007987864222,
                0.6522685674368003,
                0.1343096333452594,
                0.06470648873746043
            ]
        },
        {
            "positions": [
                -0.38334176178494594,
                -1.810184571259616,
                -1.3833190838359493,
                0.6970052628612546,
                0.1253792488512688,
                0.17618333424194033
            ]
        },
        {
            "positions": [
                -0.28789724322209276,
                -1.843501724625873,
                -1.480837368885476,
                0.7417419582857088,
                0.11644886435727822,
                0.2876601797464202
            ]
        },
        {
            "positions": [
                -0.19245272465924002,
                -1.8768188779921298,
                -1.578355653935003,
                0.7864786537101629,
                0.10751847986328766,
                0.39913702525089967
            ]
        },
        {
            "positions": [
                -0.09700820609638687,
                -1.9101360313583868,
                -1.6758739389845299,
                0.8312153491346171,
                0.0985880953692971,
                0.5106138707553791
            ]
        },
        {
            "positions": [
                -0.0757686890594009,
                -1.9402992306787663,
                -1.7756763739306718,
                0.9206177265483801,
                0.12705788499120807,
                0.4518991532890185
            ]
        },
        {
            "positions": [
                -0.05452917202241492,
                -1.9704624299991456,
                -1.8754788088768137,
                1.0100201039621433,
                0.15552767461311906,
                0.39318443582265783
            ]
        },
        {
            "positions": [
                -0.03328965498542895,
                -2.000625629319525,
                -1.9752812438229554,
                1.0994224813759064,
                0.18399746423503002,
                0.33446971835629713
            ]
        },
        {
            "positions": [
                -0.012050137948442965,
                -2.0307888286399045,
                -2.0750836787690976,
                1.1888248587896695,
                0.212467253856941,
                0.2757550008899365
            ]
        },
        {
            "positions": [
                0.009189379088543004,
                -2.0609520279602838,
                -2.1748861137152393,
                1.2782272362034324,
                0.240937043478852,
                0.21704028342357584
            ]
        },
        {
            "positions": [
                -0.02633332351155003,
                -2.1197746570359204,
                -2.259620442371732,
                1.3484817738744423,
                0.2396433051346547,
                0.16348981915660582
            ]
        },
        {
            "positions": [
                -0.061856026111643064,
                -2.1785972861115566,
                -2.3443547710282244,
                1.418736311545452,
                0.23834956679045738,
                0.10993935488963583
            ]
        },
        {
            "positions": [
                -0.18649452723682275,
                -2.274346077022653,
                -2.39302112576875,
                1.4425603559292217,
                0.1775737240581063,
                0.082408793762302
            ]
        }
    ]
}