{
    "goal": {
        "global_pose": {
            "orientation": {
                "w": 0.5084816262002911,
                "x": -0.4908360881923452,
                "y": 0.5182115481033761,
                "z": -0.48164630358495003
            },
            "position": {
                "x": 0.5540239810943604,
                "y": -0.46912469901144505,
                "z": 0.16403168439865112
            }
        },
        "name": "move_to_storage_B"
    },
    "id": "BiEST_move_to_storage_B_68",
    "joint_names": [
        "shoulder_pan_joint",
        "shoulder_lift_joint",
        "elbow_joint",
        "wrist_1_joint",
        "wrist_2_joint",
        "wrist_3_joint"
    ],
    "metrics": {
        "cart_traj_len": 1.0414619736754,
        "distance_elbow_joint": 0.34978010088181,
        "distance_shoulder_lift_joint": 0.5084324492485397,
        "distance_shoulder_pan_joint": 0.849593198197904,
        "distance_wrist_1_joint": 3.138083771660046,
        "distance_wrist_2_joint": 2.7217952293720535,
        "distance_wrist_3_joint": 4.051644507972891,
        "smoothness": 0.37762293621209814,
        "time": 0.104681999,
        "traj_len": 3.4087137247550197,
        "weighted_distance": 5.057914320578308
    },
    "planner": "BiEST",
    "start": {
        "state": {
            "elbow_joint": 1.664937868594044,
            "shoulder_lift_joint": -0.661644460510453,
            "shoulder_pan_joint": -0.9139846352900073,
            "wrist_1_joint": 2.146753192139373,
            "wrist_2_joint": -2.2341966793290973,
            "wrist_3_joint": 0.005466555786416001
        }
    },
    "waypoints": [
        {
            "positions": [
                -0.9139846352900073,
                -0.661644460510453,
                1.664937868594044,
                2.146753192139373,
                -2.2341966793290973,
                0.005466555786416001
            ]
        },
        {
            "positions": [
                -0.8469241516363145,
                -0.7584682331134946,
                1.7308793948339571,
                2.162662608960426,
                -2.2164452344647616,
                0.09626941143748743
            ]
        },
        {
            "positions": [
                -0.7798636679826219,
                -0.8552920057165364,
                1.7968209210738704,
                2.178572025781479,
                -2.1986937896004255,
                0.18707226708855887
            ]
        },
        {
            "positions": [
                -0.7128031843289291,
                -0.952115778319578,
                1.8627624473137834,
                2.1944814426025325,
                -2.18094234473609,
                0.27787512273963033
            ]
        },
        {
            "positions": [
                -0.6457427006752363,
                -1.0489395509226198,
                1.9287039735536966,
                2.2103908594235855,
                -2.1631908998717537,
                0.36867797839070177
            ]
        },
        {
            "positions": [
                -0.5786822170215437,
                -1.1457633235256615,
                1.9946454997936098,
                2.2263002762446384,
                -2.145439455007418,
                0.4594808340417732
            ]
        },
        {
            "positions": [
                -0.5992538482187213,
                -1.1447907800763282,
                1.9954483985808995,
                2.1039588087424472,
                -2.0401179348054033,
                0.3155756248530719
            ]
        },
        {
            "positions": [
                -0.6198254794158988,
                -1.1438182366269949,
                1.9962512973681894,
                1.981617341240256,
                -1.934796414603388,
                0.17167041566437052
            ]
        },
        {
            "positions": [
                -0.6403971106130765,
                -1.1428456931776616,
                1.997054196155479,
                1.8592758737380648,
                -1.8294748944013732,
                0.027765206475669213
            ]
        },
        {
            "positions": [
                -0.6609687418102541,
                -1.1418731497283285,
                1.997857094942769,
                1.7369344062358734,
                -1.7241533741993582,
                -0.11614000271303215
            ]
        },
        {
            "positions": [
                -0.6815403730074318,
                -1.1409006062789953,
                1.9986599937300586,
                1.6145929387336821,
                -1.6188318539973432,
                -0.2600452119017336
            ]
        },
        {
            "positions": [
                -0.7021120042046094,
                -1.139928062829662,
                1.9994628925173483,
                1.492251471231491,
                -1.5135103337953284,
                -0.4039504210904348
            ]
        },
        {
            "positions": [
                -0.7226836354017869,
                -1.1389555193803287,
                2.000265791304638,
                1.3699100037292995,
                -1.4081888135933132,
                -0.5478556302791363
            ]
        },
        {
            "positions": [
                -0.7432552665989646,
                -1.1379829759309954,
                2.001068690091928,
                1.2475685362271083,
                -1.3028672933912984,
                -0.6917608394678375
            ]
        },
        {
            "positions": [
                -0.7638268977961422,
                -1.1370104324816621,
                2.001871588879218,
                1.1252270687249173,
                -1.1975457731892833,
                -0.8356660486565389
            ]
        },
        {
            "positions": [
                -0.7843985289933199,
                -1.136037889032329,
                2.0026744876665075,
                1.0028856012227259,
                -1.0922242529872683,
                -0.9795712578452404
            ]
        },
        {
            "positions": [
                -0.8049701601904974,
                -1.1350653455829958,
                2.003477386453797,
                0.8805441337205346,
                -0.9869027327852533,
                -1.1234764670339414
            ]
        },
        {
            "positions": [
                -0.825541791387675,
                -1.1340928021336625,
                2.004280285241087,
                0.7582026662183434,
                -0.8815812125832385,
                -1.2673816762226426
            ]
        },
        {
            "positions": [
                -0.8461134225848527,
                -1.1331202586843292,
                2.005083184028377,
                0.6358611987161522,
                -0.7762596923812233,
                -1.4112868854113443
            ]
        },
        {
            "positions": [
                -0.8666850537820303,
                -1.132147715234996,
                2.0058860828156666,
                0.5135197312139608,
                -0.6709381721792083,
                -1.555192094600046
            ]
        },
        {
            "positions": [
                -0.8872566849792078,
                -1.1311751717856626,
                2.0066889816029563,
                0.3911782637117698,
                -0.5656166519771935,
                -1.6990973037887471
            ]
        },
        {
            "positions": [
                -0.9078283161763855,
                -1.1302026283363296,
                2.007491880390246,
                0.26883679620957834,
                -0.46029513177517845,
                -1.8430025129774483
            ]
        },
        {
            "positions": [
                -0.9283999473735631,
                -1.1292300848869963,
                2.0082947791775356,
                0.1464953287073869,
                -0.35497361157316343,
                -1.98690772216615
            ]
        },
        {
            "positions": [
                -0.9489715785707407,
                -1.128257541437663,
                2.0090976779648257,
                0.024153861205196137,
                -0.24965209137114863,
                -2.130812931354851
            ]
        },
        {
            "positions": [
                -0.9695432097679184,
                -1.1272849979883297,
                2.0099005767521154,
                -0.09818760629699552,
                -0.1443305711691334,
                -2.2747181405435524
            ]
        },
        {
            "positions": [
                -0.9901148409650959,
                -1.1263124545389964,
                2.010703475539405,
                -0.22052907379918674,
                -0.0390090509671186,
                -2.418623349732254
            ]
        },
        {
            "positions": [
                -1.0106864721622735,
                -1.1253399110896631,
                2.0115063743266948,
                -0.3428705413013775,
                0.0663124692348962,
                -2.5625285589209548
            ]
        },
        {
            "positions": [
                -1.0312581033594512,
                -1.12436736764033,
                2.0123092731139844,
                -0.46521200880356917,
                0.17163398943691144,
                -2.7064337681096564
            ]
        },
        {
            "positions": [
                -1.0518297345566288,
                -1.1233948241909968,
                2.0131121719012746,
                -0.5875534763057604,
                0.27695550963892623,
                -2.850338977298358
            ]
        },
        {
            "positions": [
                -1.0724013657538065,
                -1.1224222807416635,
                2.0139150706885642,
                -0.7098949438079516,
                0.38227702984094103,
                -2.994244186487059
            ]
        },
        {
            "positions": [
                -1.092972996950984,
                -1.1214497372923302,
                2.014717969475854,
                -0.832236411310143,
                0.48759855004295616,
                -3.1381493956757605
            ]
        }
    ]
}