{
    "goal": {
        "global_pose": {
            "orientation": {
                "w": 0.005598929693374612,
                "x": 0.007748599140229565,
                "y": 0.7110244013736278,
                "z": -0.7031023480610252
            },
            "position": {
                "x": -0.8858502320852131,
                "y": -0.7141253447532654,
                "z": 0.3711530566215515
            }
        },
        "name": "move_to_auspresseinheit_C"
    },
    "id": "BiEST_move_to_auspresseinheit_C_47",
    "joint_names": [
        "shoulder_pan_joint",
        "shoulder_lift_joint",
        "elbow_joint",
        "wrist_1_joint",
        "wrist_2_joint",
        "wrist_3_joint"
    ],
    "metrics": {
        "cart_traj_len": 0.4938709242313288,
        "distance_elbow_joint": 1.011902530138984,
        "distance_shoulder_lift_joint": 0.33070566174905747,
        "distance_shoulder_pan_joint": 0.256743680364238,
        "distance_wrist_1_joint": 0.705159082008574,
        "distance_wrist_2_joint": 1.3033615059394796,
        "distance_wrist_3_joint": 0.07932303022768394,
        "smoothness": 4.844609574787718e-16,
        "time": 0.104645408,
        "traj_len": 1.9202071477910962,
        "weighted_distance": 2.419578917669651
    },
    "planner": "BiEST",
    "start": {
        "state": {
            "elbow_joint": 1.7527959577737207,
            "shoulder_lift_joint": -0.9740617694225068,
            "shoulder_pan_joint": -2.967991417825858,
            "wrist_1_joint": -0.759517768980727,
            "wrist_2_joint": 1.7443932448377408,
            "wrist_3_joint": -3.0840537646736568
        }
    },
    "waypoints": [
        {
            "positions": [
                -2.967991417825858,
                -0.9740617694225068,
                1.7527959577737207,
                -0.759517768980727,
                1.7443932448377408,
                -3.0840537646736568
            ]
        },
        {
            "positions": [
                -2.942317049789434,
                -0.940991203247601,
                1.6516057047598223,
                -0.6890018607798696,
                1.6140570942437928,
                -3.0919860676964253
            ]
        },
        {
            "positions": [
                -2.9166426817530104,
                -0.9079206370726953,
                1.5504154517459239,
                -0.6184859525790122,
                1.4837209436498449,
                -3.0999183707191937
            ]
        },
        {
            "positions": [
                -2.8909683137165865,
                -0.8748500708977895,
                1.4492251987320255,
                -0.5479700443781548,
                1.3533847930558969,
                -3.1078506737419618
            ]
        },
        {
            "positions": [
                -2.865293945680163,
                -0.8417795047228838,
                1.348034945718127,
                -0.4774541361772974,
                1.2230486424619489,
                -3.1157829767647303
            ]
        },
        {
            "positions": [
                -2.839619577643739,
                -0.808708938547978,
                1.2468446927042287,
                -0.40693822797643997,
                1.0927124918680011,
                -3.1237152797874987
            ]
        },
        {
            "positions": [
                -2.813945209607315,
                -0.7756383723730723,
                1.1456544396903303,
                -0.33642231977558257,
                0.962376341274053,
                -3.1316475828102672
            ]
        },
        {
            "positions": [
                -2.7882708415708914,
                -0.7425678061981665,
                1.044464186676432,
                -0.2659064115747252,
                0.8320401906801052,
                -3.1395798858330357
            ]
        },
        {
            "positions": [
                -2.7625964735344675,
                -0.7094972400232609,
                0.9432739336625335,
                -0.19539050337386776,
                0.7017040400861572,
                -3.1475121888558037
            ]
        },
        {
            "positions": [
                -2.736922105498044,
                -0.6764266738483551,
                0.8420836806486351,
                -0.12487459517301036,
                0.5713678894922092,
                -3.1554444918785722
            ]
        },
        {
            "positions": [
                -2.71124773746162,
                -0.6433561076734493,
                0.7408934276347369,
                -0.05435868697215291,
                0.44103173889826114,
                -3.1633767949013407
            ]
        }
    ]
}