{
    "goal": {
        "global_pose": {
            "orientation": {
                "w": -0.4816463035849501,
                "x": 0.5182115481033762,
                "y": 0.4908360881923453,
                "z": -0.5084816262002911
            },
            "position": {
                "x": -0.8240239810943604,
                "y": 0.19912469901144506,
                "z": 0.16403168439865112
            }
        },
        "name": "move_to_storage_D"
    },
    "id": "BiEST_move_to_storage_D_7",
    "joint_names": [
        "shoulder_pan_joint",
        "shoulder_lift_joint",
        "elbow_joint",
        "wrist_1_joint",
        "wrist_2_joint",
        "wrist_3_joint"
    ],
    "metrics": {
        "cart_traj_len": 3.6367481061846494,
        "distance_elbow_joint": 4.206435237286037,
        "distance_shoulder_lift_joint": 1.2661618212180359,
        "distance_shoulder_pan_joint": 2.8118211843253613,
        "distance_wrist_1_joint": 2.261553755989941,
        "distance_wrist_2_joint": 2.636523011855033,
        "distance_wrist_3_joint": 3.259937114738331,
        "smoothness": 0.11132937105033745,
        "time": 0.110042149,
        "traj_len": 4.054926895199559,
        "weighted_distance": 5.278293580574538
    },
    "planner": "BiEST",
    "start": {
        "state": {
            "elbow_joint": -2.384821988534728,
            "shoulder_lift_joint": -2.2788054721415256,
            "shoulder_pan_joint": -0.1854694642142757,
            "wrist_1_joint": 1.4845938289331202,
            "wrist_2_joint": 0.17898776772866878,
            "wrist_3_joint": 0.037105688729662994
        }
    },
    "waypoints": [
        {
            "positions": [
                -0.1854694642142757,
                -2.2788054721415256,
                -2.384821988534728,
                1.4845938289331202,
                0.17898776772866878,
                0.037105688729662994
            ]
        },
        {
            "positions": [
                -0.09880197599921589,
                -2.2388327129602517,
                -2.227917634923266,
                1.4037320407416631,
                0.18150509005360002,
                0.01732288354031782
            ]
        },
        {
            "positions": [
                -0.012134487784156073,
                -2.1988599537789772,
                -2.0710132813118043,
                1.322870252550206,
                0.18402241237853129,
                -0.0024599216490273565
            ]
        },
        {
            "positions": [
                0.07453300043090375,
                -2.1588871945977033,
                -1.9141089277003427,
                1.242008464358749,
                0.18653973470346252,
                -0.022242726838372535
            ]
        },
        {
            "positions": [
                0.15440816612125366,
                -2.1168396210200973,
                -1.8127388723081297,
                1.1676378283610003,
                0.15117149697536347,
                0.04068407368661301
            ]
        },
        {
            "positions": [
                0.23428333181160357,
                -2.0747920474424912,
                -1.711368816915917,
                1.0932671923632515,
                0.11580325924726441,
                0.10361087421159856
            ]
        },
        {
            "positions": [
                0.31415849750195346,
                -2.032744473864885,
                -1.6099987615237041,
                1.0188965563655026,
                0.08043502151916535,
                0.1665376747365841
            ]
        },
        {
            "positions": [
                0.3940336631923034,
                -1.990696900287279,
                -1.5086287061314911,
                0.9445259203677538,
                0.045066783791066295,
                0.22946447526156966
            ]
        },
        {
            "positions": [
                0.4739088288826534,
                -1.9486493267096727,
                -1.4072586507392781,
                0.8701552843700051,
                0.009698546062967217,
                0.2923912757865552
            ]
        },
        {
            "positions": [
                0.5537839945730032,
                -1.9066017531320667,
                -1.3058885953470654,
                0.7957846483722564,
                -0.025669691665131833,
                0.3553180763115407
            ]
        },
        {
            "positions": [
                0.6336591602633532,
                -1.8645541795544607,
                -1.2045185399548526,
                0.7214140123745074,
                -0.06103792939323091,
                0.41824487683652634
            ]
        },
        {
            "positions": [
                0.713534325953703,
                -1.8225066059768547,
                -1.1031484845626396,
                0.6470433763767587,
                -0.09640616712132993,
                0.48117167736151184
            ]
        },
        {
            "positions": [
                0.7934094916440529,
                -1.7804590323992484,
                -1.0017784291704268,
                0.57267274037901,
                -0.13177440484942898,
                0.5440984778864973
            ]
        },
        {
            "positions": [
                0.873284657334403,
                -1.7384114588216424,
                -0.9004083737782138,
                0.4983021043812611,
                -0.1671426425775281,
                0.6070252784114829
            ]
        },
        {
            "positions": [
                0.9531598230247528,
                -1.6963638852440361,
                -0.799038318386001,
                0.42393146838351237,
                -0.20251088030562714,
                0.6699520789364685
            ]
        },
        {
            "positions": [
                1.0330349887151027,
                -1.6543163116664301,
                -0.697668262993788,
                0.34956083238576363,
                -0.2378791180337262,
                0.7328788794614539
            ]
        },
        {
            "positions": [
                1.1129101544054527,
                -1.612268738088824,
                -0.5962982076015753,
                0.2751901963880147,
                -0.27324735576182524,
                0.7958056799864396
            ]
        },
        {
            "positions": [
                1.1927853200958027,
                -1.570221164511218,
                -0.49492815220936226,
                0.20081956039026583,
                -0.30861559348992434,
                0.8587324805114251
            ]
        },
        {
            "positions": [
                1.2726604857861525,
                -1.528173590933612,
                -0.3935580968171495,
                0.12644892439251731,
                -0.34398383121802334,
                0.9216592810364106
            ]
        },
        {
            "positions": [
                1.3525356514765023,
                -1.4861260173560058,
                -0.2921880414249365,
                0.05207828839476836,
                -0.3793520689461224,
                0.9845860815613962
            ]
        },
        {
            "positions": [
                1.4324108171668524,
                -1.4440784437783996,
                -0.19081798603272349,
                -0.022292347602980378,
                -0.41472030667422155,
                1.047512882086382
            ]
        },
        {
            "positions": [
                1.5122859828572022,
                -1.4020308702007935,
                -0.08944793064051093,
                -0.09666298360072911,
                -0.4500885444023205,
                1.1104396826113674
            ]
        },
        {
            "positions": [
                1.5921611485475522,
                -1.3599832966231875,
                0.011922124751702068,
                -0.17103361959847807,
                -0.48545678213041965,
                1.1733664831363528
            ]
        },
        {
            "positions": [
                1.6720363142379022,
                -1.3179357230455815,
                0.11329218014391507,
                -0.2454042555962268,
                -0.5208250198585187,
                1.2362932836613385
            ]
        },
        {
            "positions": [
                1.751911479928252,
                -1.2758881494679755,
                0.21466223553612784,
                -0.31977489159397554,
                -0.5561932575866176,
                1.299220084186324
            ]
        },
        {
            "positions": [
                1.8317866456186018,
                -1.2338405758903692,
                0.3160322909283406,
                -0.3941455275917243,
                -0.5915614953147168,
                1.3621468847113096
            ]
        },
        {
            "positions": [
                1.9116618113089519,
                -1.191793002312763,
                0.41740234632055384,
                -0.46851616358947323,
                -0.6269297330428159,
                1.425073685236295
            ]
        },
        {
            "positions": [
                1.9915369769993017,
                -1.149745428735157,
                0.5187724017127666,
                -0.5428867995872217,
                -0.6622979707709149,
                1.4880004857612805
            ]
        },
        {
            "positions": [
                2.0714121426896517,
                -1.107697855157551,
                0.6201424571049792,
                -0.6172574355849707,
                -0.697666208499014,
                1.5509272862862662
            ]
        },
        {
            "positions": [
                2.1110506839340397,
                -1.1009082691408323,
                0.7059617993654314,
                -0.6286647564043886,
                -0.5730401298077451,
                1.6671714781466702
            ]
        },
        {
            "positions": [
                2.150689225178428,
                -1.0941186831241136,
                0.7917811416258834,
                -0.6400720772238064,
                -0.4484140511164763,
                1.7834156700070742
            ]
        },
        {
            "positions": [
                2.1903277664228162,
                -1.087329097107395,
                0.8776004838863356,
                -0.6514793980432243,
                -0.32378797242520746,
                1.8996598618674785
            ]
        },
        {
            "positions": [
                2.2299663076672043,
                -1.0805395110906764,
                0.9634198261467877,
                -0.6628867188626422,
                -0.19916189373393867,
                2.0159040537278825
            ]
        },
        {
            "positions": [
                2.2696048489115923,
                -1.0737499250739577,
                1.04923916840724,
                -0.67429403968206,
                -0.07453581504266982,
                2.1321482455882865
            ]
        },
        {
            "positions": [
                2.309243390155981,
                -1.066960339057239,
                1.135058510667692,
                -0.6857013605014779,
                0.05009026364859903,
                2.2483924374486906
            ]
        },
        {
            "positions": [
                2.348881931400369,
                -1.0601707530405204,
                1.2208778529281443,
                -0.6971086813208958,
                0.17471634233986788,
                2.3646366293090946
            ]
        },
        {
            "positions": [
                2.388520472644757,
                -1.0533811670238016,
                1.3066971951885962,
                -0.7085160021403136,
                0.2993424210311366,
                2.4808808211694986
            ]
        },
        {
            "positions": [
                2.4281590138891453,
                -1.046591581007083,
                1.3925165374490485,
                -0.7199233229597316,
                0.4239684997224056,
                2.5971250130299026
            ]
        },
        {
            "positions": [
                2.4677975551335334,
                -1.0398019949903643,
                1.4783358797095008,
                -0.7313306437791495,
                0.5485945784136743,
                2.7133692048903066
            ]
        },
        {
            "positions": [
                2.5074360963779214,
                -1.0330124089736457,
                1.5641552219699528,
                -0.7427379645985673,
                0.6732206571049433,
                2.8296133967507107
            ]
        },
        {
            "positions": [
                2.5470746376223095,
                -1.026222822956927,
                1.649974564230405,
                -0.7541452854179852,
                0.797846735796212,
                2.9458575886111147
            ]
        },
        {
            "positions": [
                2.586713178866698,
                -1.0194332369402084,
                1.7357939064908572,
                -0.7655526062374031,
                0.922472814487481,
                3.062101780471519
            ]
        },
        {
            "positions": [
                2.626351720111086,
                -1.0126436509234897,
                1.8216132487513093,
                -0.7769599270568209,
                1.0470988931787497,
                3.178345972331923
            ]
        }
    ]
}