{
    "goal": {
        "global_pose": {
            "orientation": {
                "w": 0.7047431493862688,
                "x": -0.7094548369677653,
                "y": 0.0024358444001904,
                "z": -0.0022348060817251984
            },
            "position": {
                "x": -0.39052492380142206,
                "y": 0.3671506643295288,
                "z": 0.19426114857196808
            }
        },
        "name": "move_to_magneteinheit_D"
    },
    "id": "BiEST_move_to_magneteinheit_D_105",
    "joint_names": [
        "shoulder_pan_joint",
        "shoulder_lift_joint",
        "elbow_joint",
        "wrist_1_joint",
        "wrist_2_joint",
        "wrist_3_joint"
    ],
    "metrics": {
        "cart_traj_len": 7.612176293619309,
        "distance_elbow_joint": 5.504152010529025,
        "distance_shoulder_lift_joint": 2.2692686386091534,
        "distance_shoulder_pan_joint": 8.79742978026261,
        "distance_wrist_1_joint": 10.782694179768217,
        "distance_wrist_2_joint": 2.7263780645465774,
        "distance_wrist_3_joint": 9.434114357179224,
        "smoothness": 0.6583182486393976,
        "time": 0.297662871,
        "traj_len": 6.286019172011393,
        "weighted_distance": 8.478875986212332
    },
    "planner": "BiEST",
    "start": {
        "state": {
            "elbow_joint": 0.749534889911806,
            "shoulder_lift_joint": -0.6476975780787326,
            "shoulder_pan_joint": -2.711696901376241,
            "wrist_1_joint": -0.07506478083263063,
            "wrist_2_joint": 0.43296659715538205,
            "wrist_3_joint": -3.14703540197715
        }
    },
    "waypoints": [
        {
            "positions": [
                -2.711696901376241,
                -0.6476975780787326,
                0.749534889911806,
                -0.07506478083263063,
                0.43296659715538205,
                -3.14703540197715
            ]
        },
        {
            "positions": [
                -2.7096290882928007,
                -0.6621788529583174,
                0.7540001635792972,
                0.03948526110340954,
                0.3326068591592761,
                -3.001990314031788
            ]
        },
        {
            "positions": [
                -2.7075612752093603,
                -0.6766601278379021,
                0.7584654372467886,
                0.1540353030394497,
                0.23224712116317023,
                -2.8569452260864256
            ]
        },
        {
            "positions": [
                -2.7054934621259203,
                -0.6911414027174868,
                0.7629307109142799,
                0.26858534497548986,
                0.13188738316706433,
                -2.7119001381410635
            ]
        },
        {
            "positions": [
                -2.70342564904248,
                -0.7056226775970715,
                0.7673959845817712,
                0.38313538691153004,
                0.03152764517095841,
                -2.5668550501957013
            ]
        },
        {
            "positions": [
                -2.7013578359590396,
                -0.7201039524766562,
                0.7718612582492625,
                0.4976854288475702,
                -0.06883209282514752,
                -2.4218099622503386
            ]
        },
        {
            "positions": [
                -2.699290022875599,
                -0.7345852273562409,
                0.7763265319167538,
                0.6122354707836104,
                -0.16919183082125339,
                -2.276764874304977
            ]
        },
        {
            "positions": [
                -2.6972222097921588,
                -0.7490665022358256,
                0.7807918055842452,
                0.7267855127196505,
                -0.26955156881735926,
                -2.1317197863596142
            ]
        },
        {
            "positions": [
                -2.6951543967087184,
                -0.7635477771154103,
                0.7852570792517365,
                0.8413355546556907,
                -0.36991130681346523,
                -1.986674698414252
            ]
        },
        {
            "positions": [
                -2.6930865836252784,
                -0.7780290519949951,
                0.7897223529192278,
                0.955885596591731,
                -0.4702710448095712,
                -1.8416296104688898
            ]
        },
        {
            "positions": [
                -2.691018770541838,
                -0.7925103268745798,
                0.7941876265867192,
                1.0704356385277711,
                -0.5706307828056771,
                -1.6965845225235276
            ]
        },
        {
            "positions": [
                -2.6889509574583976,
                -0.8069916017541645,
                0.7986529002542104,
                1.1849856804638113,
                -0.670990520801783,
                -1.5515394345781655
            ]
        },
        {
            "positions": [
                -2.6174910272616843,
                -0.8330250083990753,
                0.7259536044632736,
                1.0944715004456307,
                -0.6597327767619531,
                -1.4358545593619367
            ]
        },
        {
            "positions": [
                -2.5460310970649704,
                -0.8590584150439862,
                0.6532543086723367,
                1.0039573204274501,
                -0.6484750327221231,
                -1.320169684145708
            ]
        },
        {
            "positions": [
                -2.474571166868257,
                -0.8850918216888969,
                0.5805550128813999,
                0.9134431404092694,
                -0.6372172886822932,
                -1.2044848089294793
            ]
        },
        {
            "positions": [
                -2.4031112366715432,
                -0.9111252283338077,
                0.507855717090463,
                0.8229289603910889,
                -0.6259595446424634,
                -1.0887999337132506
            ]
        },
        {
            "positions": [
                -2.33165130647483,
                -0.9371586349787185,
                0.43515642129952614,
                0.7324147803729082,
                -0.6147018006026335,
                -0.9731150584970217
            ]
        },
        {
            "positions": [
                -2.260191376278116,
                -0.9631920416236294,
                0.3624571255085893,
                0.6419006003547276,
                -0.6034440565628035,
                -0.857430183280793
            ]
        },
        {
            "positions": [
                -2.1887314460814027,
                -0.9892254482685401,
                0.2897578297176524,
                0.5513864203365471,
                -0.5921863125229736,
                -0.7417453080645643
            ]
        },
        {
            "positions": [
                -2.1172715158846893,
                -1.015258854913451,
                0.2170585339267156,
                0.4608722403183665,
                -0.5809285684831437,
                -0.6260604328483356
            ]
        },
        {
            "positions": [
                -2.0458115856879755,
                -1.0412922615583617,
                0.14435923813577867,
                0.3703580603001859,
                -0.5696708244433137,
                -0.5103755576321067
            ]
        },
        {
            "positions": [
                -1.9743516554912621,
                -1.0673256682032726,
                0.07165994234484185,
                0.27984388028200524,
                -0.5584130804034838,
                -0.394690682415878
            ]
        },
        {
            "positions": [
                -1.9028917252945483,
                -1.0933590748481834,
                -0.0010393534460951814,
                0.18932970026382456,
                -0.5471553363636539,
                -0.2790058071996493
            ]
        },
        {
            "positions": [
                -1.831431795097835,
                -1.1193924814930942,
                -0.07373864923703188,
                0.098815520245644,
                -0.5358975923238241,
                -0.16332093198342057
            ]
        },
        {
            "positions": [
                -1.7599718649011213,
                -1.145425888138005,
                -0.1464379450279688,
                0.008301340227463427,
                -0.5246398482839941,
                -0.047636056767191626
            ]
        },
        {
            "positions": [
                -1.6885119347044077,
                -1.1714592947829159,
                -0.21913724081890562,
                -0.08221283979071714,
                -0.5133821042441642,
                0.06804881844903687
            ]
        },
        {
            "positions": [
                -1.6170520045076942,
                -1.1974927014278265,
                -0.29183653660984255,
                -0.1727270198088977,
                -0.5021243602043343,
                0.18373369366526582
            ]
        },
        {
            "positions": [
                -1.5455920743109808,
                -1.2235261080727373,
                -0.36453583240077925,
                -0.2632411998270783,
                -0.49086661616450433,
                0.2994185688814943
            ]
        },
        {
            "positions": [
                -1.4741321441142672,
                -1.2495595147176481,
                -0.4372351281917164,
                -0.35375537984525907,
                -0.4796088721246744,
                0.41510344409772326
            ]
        },
        {
            "positions": [
                -1.4026722139175536,
                -1.275592921362559,
                -0.5099344239826531,
                -0.4442695598634394,
                -0.4683511280848445,
                0.530788319313952
            ]
        },
        {
            "positions": [
                -1.33121228372084,
                -1.3016263280074698,
                -0.58263371977359,
                -0.5347837398816202,
                -0.4570933840450146,
                0.6464731945301807
            ]
        },
        {
            "positions": [
                -1.2597523535241266,
                -1.3276597346523806,
                -0.6553330155645267,
                -0.6252979198998008,
                -0.4458356400051847,
                0.7621580697464094
            ]
        },
        {
            "positions": [
                -1.1882924233274128,
                -1.3536931412972915,
                -0.7280323113554639,
                -0.7158120999179816,
                -0.43457789596535473,
                0.8778429449626386
            ]
        },
        {
            "positions": [
                -1.1168324931306992,
                -1.3797265479422023,
                -0.8007316071464008,
                -0.8063262799361621,
                -0.42332015192552486,
                0.9935278201788669
            ]
        },
        {
            "positions": [
                -1.0453725629339858,
                -1.4057599545871131,
                -0.8734309029373375,
                -0.8968404599543427,
                -0.4120624078856949,
                1.1092126953950956
            ]
        },
        {
            "positions": [
                -0.9739126327372722,
                -1.4317933612320237,
                -0.9461301987282742,
                -0.9873546399725233,
                -0.40080466384586505,
                1.2248975706113243
            ]
        },
        {
            "positions": [
                -0.9024527025405584,
                -1.4578267678769348,
                -1.0188294945192113,
                -1.0778688199907038,
                -0.38954691980603506,
                1.3405824458275535
            ]
        },
        {
            "positions": [
                -0.830992772343845,
                -1.4838601745218454,
                -1.091528790310148,
                -1.1683830000088844,
                -0.3782891757662052,
                1.4562673210437822
            ]
        },
        {
            "positions": [
                -0.7595328421471315,
                -1.5098935811667562,
                -1.164228086101085,
                -1.258897180027065,
                -0.36703143172637526,
                1.5719521962600105
            ]
        },
        {
            "positions": [
                -0.6880729119504179,
                -1.535926987811667,
                -1.2369273818920217,
                -1.3494113600452455,
                -0.3557736876865454,
                1.6876370714762392
            ]
        },
        {
            "positions": [
                -0.6166129817537045,
                -1.5619603944565779,
                -1.3096266776829588,
                -1.4399255400634265,
                -0.3445159436467154,
                1.8033219466924684
            ]
        },
        {
            "positions": [
                -0.5451530515569907,
                -1.5879938011014887,
                -1.3823259734738955,
                -1.5304397200816067,
                -0.3332581996068855,
                1.919006821908697
            ]
        },
        {
            "positions": [
                -0.4736931213602773,
                -1.6140272077463993,
                -1.4550252692648322,
                -1.6209539000997872,
                -0.3220004555670556,
                2.0346916971249254
            ]
        },
        {
            "positions": [
                -0.40223319116356393,
                -1.6400606143913103,
                -1.527724565055769,
                -1.7114680801179678,
                -0.3107427115272257,
                2.150376572341154
            ]
        },
        {
            "positions": [
                -0.3307732609668501,
                -1.666094021036221,
                -1.600423860846706,
                -1.8019822601361488,
                -0.2994849674873957,
                2.2660614475573833
            ]
        },
        {
            "positions": [
                -0.25931333077013674,
                -1.692127427681132,
                -1.6731231566376432,
                -1.8924964401543294,
                -0.28822722344756585,
                2.381746322773612
            ]
        },
        {
            "positions": [
                -0.18785340057342292,
                -1.7181608343260426,
                -1.74582245242858,
                -1.98301062017251,
                -0.2769694794077359,
                2.4974311979898403
            ]
        },
        {
            "positions": [
                -0.11639347037670955,
                -1.7441942409709534,
                -1.8185217482195166,
                -2.07352480019069,
                -0.26571173536790604,
                2.6131160732060694
            ]
        },
        {
            "positions": [
                -0.044933540179995735,
                -1.7702276476158643,
                -1.8912210440104538,
                -2.164038980208871,
                -0.2544539913280761,
                2.7288009484222986
            ]
        },
        {
            "positions": [
                0.02652639001671743,
                -1.796261054260775,
                -1.9639203398013907,
                -2.2545531602270517,
                -0.24319624728824618,
                2.844485823638527
            ]
        },
        {
            "positions": [
                0.14349028136273573,
                -1.772956413020235,
                -1.9177973056351623,
                -2.1324860680874207,
                -0.2656144950944929,
                2.7826186593155913
            ]
        },
        {
            "positions": [
                0.260454172708754,
                -1.7496517717796953,
                -1.871674271468934,
                -2.0104189759477897,
                -0.2880327429007396,
                2.7207514949926552
            ]
        },
        {
            "positions": [
                0.37741806405477224,
                -1.7263471305391553,
                -1.8255512373027056,
                -1.8883518838081583,
                -0.31045099070698634,
                2.6588843306697196
            ]
        },
        {
            "positions": [
                0.49438195540079055,
                -1.7030424892986156,
                -1.7794282031364772,
                -1.7662847916685274,
                -0.332869238513233,
                2.5970171663467836
            ]
        },
        {
            "positions": [
                0.6113458467468088,
                -1.6797378480580756,
                -1.733305168970249,
                -1.6442176995288964,
                -0.35528748631947976,
                2.535150002023848
            ]
        },
        {
            "positions": [
                0.7283097380928271,
                -1.6564332068175358,
                -1.6871821348040206,
                -1.5221506073892652,
                -0.3777057341257265,
                2.473282837700912
            ]
        },
        {
            "positions": [
                0.8452736294388454,
                -1.6331285655769958,
                -1.6410591006377921,
                -1.400083515249634,
                -0.4001239819319732,
                2.4114156733779764
            ]
        },
        {
            "positions": [
                0.9622375207848637,
                -1.609823924336456,
                -1.594936066471564,
                -1.278016423110003,
                -0.42254222973821987,
                2.3495485090550403
            ]
        },
        {
            "positions": [
                1.079201412130882,
                -1.586519283095916,
                -1.5488130323053355,
                -1.1559493309703721,
                -0.4449604775444666,
                2.2876813447321047
            ]
        },
        {
            "positions": [
                1.1961653034769002,
                -1.5632146418553763,
                -1.502689998139107,
                -1.033882238830741,
                -0.46737872535071334,
                2.225814180409169
            ]
        },
        {
            "positions": [
                1.3131291948229185,
                -1.5399100006148363,
                -1.4565669639728789,
                -0.91181514669111,
                -0.48979697315696,
                2.163947016086233
            ]
        },
        {
            "positions": [
                1.4300930861689367,
                -1.5166053593742965,
                -1.4104439298066505,
                -0.7897480545514788,
                -0.5122152209632067,
                2.1020798517632975
            ]
        },
        {
            "positions": [
                1.5470569775149552,
                -1.4933007181337565,
                -1.364320895640422,
                -0.6676809624118478,
                -0.5346334687694534,
                2.0402126874403614
            ]
        },
        {
            "positions": [
                1.6640208688609734,
                -1.4699960768932168,
                -1.3181978614741936,
                -0.5456138702722166,
                -0.5570517165757002,
                1.9783455231174258
            ]
        },
        {
            "positions": [
                1.7809847602069917,
                -1.4466914356526768,
                -1.2720748273079654,
                -0.4235467781325857,
                -0.5794699643819469,
                1.91647835879449
            ]
        },
        {
            "positions": [
                1.89794865155301,
                -1.423386794412137,
                -1.225951793141737,
                -0.3014796859929545,
                -0.6018882121881937,
                1.8546111944715542
            ]
        },
        {
            "positions": [
                2.0149125428990287,
                -1.400082153171597,
                -1.1798287589755085,
                -0.17941259385332353,
                -0.6243064599944403,
                1.7927440301486184
            ]
        },
        {
            "positions": [
                2.1318764342450467,
                -1.3767775119310572,
                -1.1337057248092803,
                -0.05734550171369257,
                -0.646724707800687,
                1.7308768658256826
            ]
        },
        {
            "positions": [
                2.248840325591065,
                -1.3534728706905172,
                -1.087582690643052,
                0.06472159042593884,
                -0.6691429556069337,
                1.6690097015027467
            ]
        },
        {
            "positions": [
                2.365804216937083,
                -1.3301682294499773,
                -1.0414596564768235,
                0.1867886825655698,
                -0.6915612034131805,
                1.607142537179811
            ]
        },
        {
            "positions": [
                2.4827681082831017,
                -1.3068635882094375,
                -0.9953366223105953,
                0.30885577470520076,
                -0.7139794512194271,
                1.5452753728568753
            ]
        },
        {
            "positions": [
                2.5997319996291197,
                -1.2835589469688977,
                -0.9492135881443668,
                0.4309228668448317,
                -0.7363976990256739,
                1.4834082085339395
            ]
        },
        {
            "positions": [
                2.716695890975138,
                -1.2602543057283577,
                -0.9030905539781384,
                0.5529899589844631,
                -0.7588159468319207,
                1.4215410442110035
            ]
        },
        {
            "positions": [
                2.8336597823211562,
                -1.2369496644878177,
                -0.8569675198119102,
                0.6750570511240941,
                -0.7812341946381673,
                1.3596738798880679
            ]
        },
        {
            "positions": [
                2.9506236736671747,
                -1.213645023247278,
                -0.8108444856456818,
                0.797124143263725,
                -0.803652442444414,
                1.297806715565132
            ]
        },
        {
            "positions": [
                2.8386554877664896,
                -1.2328624922263356,
                -0.865822518001943,
                0.6888588727533625,
                -0.7810034968044245,
                1.3655179306897804
            ]
        },
        {
            "positions": [
                2.726687301865804,
                -1.2520799612053932,
                -0.9208005503582042,
                0.580593602243,
                -0.7583545511644351,
                1.433229145814429
            ]
        },
        {
            "positions": [
                2.614719115965119,
                -1.2712974301844508,
                -0.9757785827144654,
                0.4723283317326375,
                -0.7357056055244455,
                1.5009403609390775
            ]
        },
        {
            "positions": [
                2.5027509300644337,
                -1.2905148991635085,
                -1.0307566150707266,
                0.36406306122227494,
                -0.7130566598844561,
                1.5686515760637258
            ]
        },
        {
            "positions": [
                2.390782744163748,
                -1.309732368142566,
                -1.085734647426988,
                0.25579779071191233,
                -0.6904077142444666,
                1.6363627911883745
            ]
        },
        {
            "positions": [
                2.278814558263063,
                -1.3289498371216237,
                -1.140712679783249,
                0.14753252020154994,
                -0.667758768604477,
                1.7040740063130229
            ]
        },
        {
            "positions": [
                2.166846372362378,
                -1.3481673061006814,
                -1.1956907121395104,
                0.039267249691187334,
                -0.6451098229644876,
                1.7717852214376713
            ]
        },
        {
            "positions": [
                2.0548781864616927,
                -1.367384775079739,
                -1.2506687444957714,
                -0.06899802081917517,
                -0.6224608773244981,
                1.8394964365623196
            ]
        },
        {
            "positions": [
                1.9429100005610072,
                -1.3866022440587968,
                -1.3056467768520328,
                -0.17726329132953778,
                -0.5998119316845085,
                1.9072076516869685
            ]
        },
        {
            "positions": [
                1.8309418146603218,
                -1.4058197130378545,
                -1.360624809208294,
                -0.2855285618399004,
                -0.5771629860445191,
                1.9749188668116169
            ]
        },
        {
            "positions": [
                1.7189736287596367,
                -1.425037182016912,
                -1.4156028415645552,
                -0.3937938323502628,
                -0.5545140404045296,
                2.0426300819362653
            ]
        },
        {
            "positions": [
                1.6070054428589515,
                -1.4442546509959697,
                -1.4705808739208162,
                -0.5020591028606252,
                -0.53186509476454,
                2.1103412970609137
            ]
        },
        {
            "positions": [
                1.495037256958266,
                -1.4634721199750274,
                -1.5255589062770776,
                -0.610324373370988,
                -0.5092161491245506,
                2.1780525121855625
            ]
        },
        {
            "positions": [
                1.3830690710575808,
                -1.482689588954085,
                -1.5805369386333388,
                -0.7185896438813504,
                -0.48656720348456106,
                2.2457637273102105
            ]
        },
        {
            "positions": [
                1.2711008851568957,
                -1.5019070579331426,
                -1.6355149709896,
                -0.8268549143917128,
                -0.4639182578445716,
                2.3134749424348593
            ]
        },
        {
            "positions": [
                1.1591326992562103,
                -1.5211245269122002,
                -1.6904930033458612,
                -0.9351201849020754,
                -0.4412693122045821,
                2.3811861575595072
            ]
        },
        {
            "positions": [
                1.0471645133555252,
                -1.5403419958912579,
                -1.7454710357021224,
                -1.0433854554124378,
                -0.4186203665645926,
                2.448897372684156
            ]
        },
        {
            "positions": [
                0.9351963274548396,
                -1.5595594648703157,
                -1.8004490680583838,
                -1.1516507259228006,
                -0.395971420924603,
                2.516608587808805
            ]
        },
        {
            "positions": [
                0.8232281415541545,
                -1.5787769338493733,
                -1.855427100414645,
                -1.259915996433163,
                -0.37332247528461354,
                2.584319802933453
            ]
        },
        {
            "positions": [
                0.7112599556534689,
                -1.597994402828431,
                -1.9104051327709062,
                -1.3681812669435258,
                -0.35067352964462406,
                2.6520310180581017
            ]
        },
        {
            "positions": [
                0.5992917697527838,
                -1.6172118718074886,
                -1.9653831651271672,
                -1.4764465374538882,
                -0.3280245840046346,
                2.71974223318275
            ]
        },
        {
            "positions": [
                0.4873235838520986,
                -1.6364293407865462,
                -2.020361197483428,
                -1.5847118079642506,
                -0.3053756383646451,
                2.7874534483073985
            ]
        },
        {
            "positions": [
                0.3753553979514135,
                -1.6556468097656039,
                -2.0753392298396895,
                -1.692977078474613,
                -0.28272669272465556,
                2.855164663432047
            ]
        },
        {
            "positions": [
                0.26338721205072835,
                -1.6748642787446615,
                -2.130317262195951,
                -1.8012423489849754,
                -0.26007774708466613,
                2.9228758785566953
            ]
        },
        {
            "positions": [
                0.15141902615004277,
                -1.6940817477237191,
                -2.185295294552212,
                -1.9095076194953382,
                -0.2374288014446766,
                2.990587093681344
            ]
        },
        {
            "positions": [
                0.03945084024935719,
                -1.7132992167027767,
                -2.2402733269084734,
                -2.017772890005701,
                -0.21477985580468706,
                3.0582983088059925
            ]
        },
        {
            "positions": [
                -0.07251734565132795,
                -1.7325166856818344,
                -2.295251359264735,
                -2.1260381605160634,
                -0.19213091016469763,
                3.126009523930641
            ]
        },
        {
            "positions": [
                -0.18448553155201294,
                -1.751734154660892,
                -2.3502293916209958,
                -2.234303431026426,
                -0.16948196452470812,
                3.1937207390552893
            ]
        }
    ]
}