{
    "goal": {
        "global_pose": {
            "orientation": {
                "w": 0.7031023502349854,
                "x": -0.7110244035720825,
                "y": 0.007748599164187908,
                "z": 0.005598929710686207
            },
            "position": {
                "x": 0.11585023208521307,
                "y": 0.44412534475326537,
                "z": 0.3711530566215515
            }
        },
        "name": "move_to_auspresseinheit_A"
    },
    "id": "BiEST_move_to_auspresseinheit_A_55",
    "joint_names": [
        "shoulder_pan_joint",
        "shoulder_lift_joint",
        "elbow_joint",
        "wrist_1_joint",
        "wrist_2_joint",
        "wrist_3_joint"
    ],
    "metrics": {
        "cart_traj_len": 1.0015020998303177,
        "distance_elbow_joint": 0.41407343017659004,
        "distance_shoulder_lift_joint": 1.0872231000579204,
        "distance_shoulder_pan_joint": 1.688789854531449,
        "distance_wrist_1_joint": 0.5519694841639669,
        "distance_wrist_2_joint": 0.9817843945649251,
        "distance_wrist_3_joint": 6.120912303965126,
        "smoothness": 0.7340078572828109,
        "time": 0.087625058,
        "traj_len": 3.293137192322843,
        "weighted_distance": 4.961887851828086
    },
    "planner": "BiEST",
    "start": {
        "state": {
            "elbow_joint": 2.4225746658250005,
            "shoulder_lift_joint": -1.3736534386056498,
            "shoulder_pan_joint": -0.3378633547517467,
            "wrist_1_joint": -1.0288598680537169,
            "wrist_2_joint": 1.233022673432363,
            "wrist_3_joint": -3.0940220416140027
        }
    },
    "waypoints": [
        {
            "positions": [
                -0.3378633547517467,
                -1.3736534386056498,
                2.4225746658250005,
                -1.0288598680537169,
                1.233022673432363,
                -3.0940220416140027
            ]
        },
        {
            "positions": [
                -0.2653926904695377,
                -1.4202291405861447,
                2.4355025322508603,
                -0.9982931244966666,
                1.2485567017331314,
                -2.891162668594149
            ]
        },
        {
            "positions": [
                -0.1929220261873286,
                -1.4668048425666396,
                2.44843039867672,
                -0.9677263809396165,
                1.2640907300339,
                -2.688303295574295
            ]
        },
        {
            "positions": [
                -0.12045136190511951,
                -1.5133805445471344,
                2.4613582651025796,
                -0.9371596373825662,
                1.2796247583346683,
                -2.485443922554441
            ]
        },
        {
            "positions": [
                -0.04798069762291046,
                -1.5599562465276293,
                2.4742861315284395,
                -0.9065928938255161,
                1.2951587866354366,
                -2.282584549534587
            ]
        },
        {
            "positions": [
                0.02448996665929859,
                -1.6065319485081242,
                2.4872139979542993,
                -0.8760261502684659,
                1.3106928149362052,
                -2.0797251765147333
            ]
        },
        {
            "positions": [
                0.0969606309415077,
                -1.653107650488619,
                2.500141864380159,
                -0.8454594067114156,
                1.3262268432369735,
                -1.876865803494879
            ]
        },
        {
            "positions": [
                0.16943129522371675,
                -1.6996833524691137,
                2.513069730806019,
                -0.8148926631543655,
                1.3417608715377418,
                -1.6740064304750253
            ]
        },
        {
            "positions": [
                0.2419019595059258,
                -1.7462590544496086,
                2.5259975972318784,
                -0.7843259195973152,
                1.3572948998385104,
                -1.4711470574551715
            ]
        },
        {
            "positions": [
                0.31437262378813485,
                -1.7928347564301035,
                2.5389254636577383,
                -0.7537591760402651,
                1.3728289281392787,
                -1.2682876844353177
            ]
        },
        {
            "positions": [
                0.3868432880703439,
                -1.8394104584105984,
                2.551853330083598,
                -0.7231924324832149,
                1.388362956440047,
                -1.065428311415464
            ]
        },
        {
            "positions": [
                0.45931395235255296,
                -1.8859861603910932,
                2.564781196509458,
                -0.6926256889261646,
                1.4038969847408156,
                -0.8625689383956097
            ]
        },
        {
            "positions": [
                0.5317846166347622,
                -1.9325618623715881,
                2.577709062935318,
                -0.6620589453691144,
                1.419431013041584,
                -0.6597095653757554
            ]
        },
        {
            "positions": [
                0.6042552809169712,
                -1.979137564352083,
                2.5906369293611773,
                -0.6314922018120642,
                1.4349650413423523,
                -0.45685019235590163
            ]
        },
        {
            "positions": [
                0.6767259451991803,
                -2.025713266332578,
                2.603564795787037,
                -0.6009254582550141,
                1.4504990696431208,
                -0.25399081933604784
            ]
        },
        {
            "positions": [
                0.7491966094813893,
                -2.0722889683130727,
                2.616492662212897,
                -0.5703587146979638,
                1.4660330979438891,
                -0.05113144631619393
            ]
        },
        {
            "positions": [
                0.819297135044739,
                -2.100741441815374,
                2.564563679158108,
                -0.5698267224425859,
                1.3993481056686472,
                -0.20131547369686847
            ]
        },
        {
            "positions": [
                0.8893976606080887,
                -2.1291939153176753,
                2.5126346961033192,
                -0.5692947301872081,
                1.3326631133934055,
                -0.351499501077543
            ]
        },
        {
            "positions": [
                0.9594981861714383,
                -2.157646388819977,
                2.4607057130485304,
                -0.5687627379318303,
                1.2659781211181635,
                -0.5016835284582175
            ]
        },
        {
            "positions": [
                1.029598711734788,
                -2.186098862322278,
                2.4087767299937415,
                -0.5682307456764524,
                1.1992931288429216,
                -0.6518675558388921
            ]
        },
        {
            "positions": [
                0.9974659329302967,
                -2.1586210946881486,
                2.407532779836788,
                -0.5590967094977821,
                1.1510897287476785,
                -0.8995961157533544
            ]
        },
        {
            "positions": [
                0.9653331541258054,
                -2.131143327054019,
                2.4062888296798337,
                -0.549962673319112,
                1.1028863286524353,
                -1.1473246756678166
            ]
        },
        {
            "positions": [
                0.9332003753213142,
                -2.1036655594198903,
                2.40504487952288,
                -0.5408286371404417,
                1.0546829285571921,
                -1.395053235582279
            ]
        },
        {
            "positions": [
                0.9010675965168229,
                -2.076187791785761,
                2.4038009293659264,
                -0.5316946009617715,
                1.006479528461949,
                -1.6427817954967412
            ]
        },
        {
            "positions": [
                0.8689348177123316,
                -2.0487100241516316,
                2.4025569792089723,
                -0.5225605647831013,
                0.9582761283667058,
                -1.8905103554112035
            ]
        },
        {
            "positions": [
                0.8368020389078403,
                -2.0212322565175027,
                2.4013130290520186,
                -0.513426528604431,
                0.9100727282714627,
                -2.138238915325666
            ]
        },
        {
            "positions": [
                0.804669260103349,
                -1.9937544888833734,
                2.400069078895065,
                -0.5042924924257608,
                0.8618693281762196,
                -2.385967475240128
            ]
        },
        {
            "positions": [
                0.7725364812988578,
                -1.966276721249244,
                2.3988251287381113,
                -0.4951584562470906,
                0.8136659280809764,
                -2.6336960351545904
            ]
        },
        {
            "positions": [
                0.7404037024943665,
                -1.9387989536151147,
                2.397581178581157,
                -0.48602442006842034,
                0.7654625279857333,
                -2.8814245950690527
            ]
        },
        {
            "positions": [
                0.7082709236898752,
                -1.9113211859809855,
                2.3963372284242035,
                -0.47689038388975014,
                0.7172591278904902,
                -3.129153154983515
            ]
        }
    ]
}