{
    "goal": {
        "global_pose": {
            "orientation": {
                "w": -0.4816463035849501,
                "x": 0.5182115481033762,
                "y": 0.4908360881923453,
                "z": -0.5084816262002911
            },
            "position": {
                "x": -0.8240239810943604,
                "y": -0.300875300988555,
                "z": 0.16403168439865112
            }
        },
        "name": "move_to_storage_C"
    },
    "id": "BiEST_move_to_storage_C_81",
    "joint_names": [
        "shoulder_pan_joint",
        "shoulder_lift_joint",
        "elbow_joint",
        "wrist_1_joint",
        "wrist_2_joint",
        "wrist_3_joint"
    ],
    "metrics": {
        "cart_traj_len": 0.5767769801921531,
        "distance_elbow_joint": 0.2568882583834966,
        "distance_shoulder_lift_joint": 0.19102221619529047,
        "distance_shoulder_pan_joint": 0.4926957809469372,
        "distance_wrist_1_joint": 0.06563509289347724,
        "distance_wrist_2_joint": 1.0794870120424567,
        "distance_wrist_3_joint": 0.06968246398186473,
        "smoothness": 5.075305295617109e-16,
        "time": 0.20030872,
        "traj_len": 1.4681317462828474,
        "weighted_distance": 1.8546961630798686
    },
    "planner": "BiEST",
    "start": {
        "state": {
            "elbow_joint": 2.010868314990456,
            "shoulder_lift_joint": -1.1634956873337592,
            "shoulder_pan_joint": -2.4736205022346125,
            "wrist_1_joint": -0.8367026794202681,
            "wrist_2_joint": 0.6746043897044499,
            "wrist_3_joint": -3.1496632123970403
        }
    },
    "waypoints": [
        {
            "positions": [
                -2.4736205022346125,
                -1.1634956873337592,
                2.010868314990456,
                -0.8367026794202681,
                0.6746043897044499,
                -3.1496632123970403
            ]
        },
        {
            "positions": [
                -2.5557364657257686,
                -1.1316586513012108,
                1.9680536052598732,
                -0.8257634972713552,
                0.8545188917115261,
                -3.138049468400063
            ]
        },
        {
            "positions": [
                -2.6378524292169248,
                -1.0998216152686624,
                1.9252388955292903,
                -0.8148243151224424,
                1.034433393718602,
                -3.1264357244030854
            ]
        },
        {
            "positions": [
                -2.719968392708081,
                -1.067984579236114,
                1.8824241857987074,
                -0.8038851329735295,
                1.2143478957256781,
                -3.114821980406108
            ]
        },
        {
            "positions": [
                -2.8020843561992375,
                -1.0361475432035656,
                1.8396094760681247,
                -0.7929459508246166,
                1.3942623977327542,
                -3.1032082364091305
            ]
        },
        {
            "positions": [
                -2.8842003196903936,
                -1.004310507171017,
                1.796794766337542,
                -0.7820067686757037,
                1.5741768997398307,
                -3.091594492412153
            ]
        },
        {
            "positions": [
                -2.9663162831815497,
                -0.9724734711384687,
                1.7539800566069592,
                -0.7710675865267909,
                1.7540914017469067,
                -3.0799807484151756
            ]
        }
    ]
}