{
    "goal": {
        "global_pose": {
            "orientation": {
                "w": 0.005598929693374612,
                "x": 0.007748599140229565,
                "y": 0.7110244013736278,
                "z": -0.7031023480610252
            },
            "position": {
                "x": -0.8858502320852131,
                "y": -0.7141253447532654,
                "z": 0.3711530566215515
            }
        },
        "name": "move_to_auspresseinheit_C"
    },
    "id": "BiEST_move_to_auspresseinheit_C_146",
    "joint_names": [
        "shoulder_pan_joint",
        "shoulder_lift_joint",
        "elbow_joint",
        "wrist_1_joint",
        "wrist_2_joint",
        "wrist_3_joint"
    ],
    "metrics": {
        "cart_traj_len": 0.6183700831143321,
        "distance_elbow_joint": 0.9851622068819107,
        "distance_shoulder_lift_joint": 0.3177203020130491,
        "distance_shoulder_pan_joint": 0.25635350400739787,
        "distance_wrist_1_joint": 0.6515104196936039,
        "distance_wrist_2_joint": 1.3107010579849463,
        "distance_wrist_3_joint": 0.3469462140968851,
        "smoothness": 0.15095882975156769,
        "time": 0.152627075,
        "traj_len": 1.9668232520177793,
        "weighted_distance": 2.5543096152483384
    },
    "planner": "BiEST",
    "start": {
        "state": {
            "elbow_joint": 1.7527959577737207,
            "shoulder_lift_joint": -0.9740617694225068,
            "shoulder_pan_joint": -2.967991417825858,
            "wrist_1_joint": -0.759517768980727,
            "wrist_2_joint": 1.7443932448377408,
            "wrist_3_joint": -3.0840537646736568
        }
    },
    "waypoints": [
        {
            "positions": [
                -2.967991417825858,
                -0.9740617694225068,
                1.7527959577737207,
                -0.759517768980727,
                1.7443932448377408,
                -3.0840537646736568
            ]
        },
        {
            "positions": [
                -2.940386871811134,
                -0.9545455467436263,
                1.6542543806631878,
                -0.6902966156396488,
                1.6052176096766306,
                -3.0667920047127613
            ]
        },
        {
            "positions": [
                -2.91278232579641,
                -0.935029324064746,
                1.5557128035526546,
                -0.6210754622985707,
                1.4660419745155207,
                -3.0495302447518653
            ]
        },
        {
            "positions": [
                -2.885177779781686,
                -0.9155131013858656,
                1.4571712264421217,
                -0.5518543089574925,
                1.3268663393544105,
                -3.0322684847909698
            ]
        },
        {
            "positions": [
                -2.857573233766962,
                -0.8959968787069853,
                1.3586296493315886,
                -0.4826331556164144,
                1.1876907041933005,
                -3.015006724830074
            ]
        },
        {
            "positions": [
                -2.829968687752238,
                -0.8764806560281049,
                1.2600880722210557,
                -0.41341200227533625,
                1.0485150690321903,
                -2.9977449648691783
            ]
        },
        {
            "positions": [
                -2.802364141737514,
                -0.8569644333492246,
                1.1615464951105228,
                -0.3441908489342581,
                0.9093394338710801,
                -2.9804832049082823
            ]
        },
        {
            "positions": [
                -2.77475959572279,
                -0.8374482106703441,
                1.0630049179999896,
                -0.27496969559317996,
                0.77016379870997,
                -2.963221444947387
            ]
        },
        {
            "positions": [
                -2.747155049708066,
                -0.8179319879914638,
                0.9644633408894566,
                -0.20574854225210182,
                0.6309881635488599,
                -2.945959684986491
            ]
        },
        {
            "positions": [
                -2.719550503693342,
                -0.7984157653125834,
                0.8659217637789236,
                -0.13652738891102367,
                0.4918125283877497,
                -2.9286979250255953
            ]
        },
        {
            "positions": [
                -2.715594208755901,
                -0.7273786163610205,
                0.8167777573353667,
                -0.12226736909907338,
                0.4627523576202722,
                -3.024493112250007
            ]
        },
        {
            "positions": [
                -2.71163791381846,
                -0.6563414674094576,
                0.76763375089181,
                -0.10800734928712309,
                0.4336921868527947,
                -3.120288299474419
            ]
        }
    ]
}