{
    "goal": {
        "global_pose": {
            "orientation": {
                "w": -0.4816463035849501,
                "x": 0.5182115481033762,
                "y": 0.4908360881923453,
                "z": -0.5084816262002911
            },
            "position": {
                "x": -0.8240239810943604,
                "y": 0.19912469901144506,
                "z": 0.16403168439865112
            }
        },
        "name": "move_to_storage_D"
    },
    "id": "BiEST_move_to_storage_D_148",
    "joint_names": [
        "shoulder_pan_joint",
        "shoulder_lift_joint",
        "elbow_joint",
        "wrist_1_joint",
        "wrist_2_joint",
        "wrist_3_joint"
    ],
    "metrics": {
        "cart_traj_len": 3.4713936426073144,
        "distance_elbow_joint": 4.210947615195843,
        "distance_shoulder_lift_joint": 1.263648828574825,
        "distance_shoulder_pan_joint": 2.8118796914644446,
        "distance_wrist_1_joint": 3.271390694000915,
        "distance_wrist_2_joint": 4.532573862246132,
        "distance_wrist_3_joint": 3.1308340524148925,
        "smoothness": 0.2640304440585352,
        "time": 0.18336526,
        "traj_len": 4.384207424825728,
        "weighted_distance": 5.769480687633323
    },
    "planner": "BiEST",
    "start": {
        "state": {
            "elbow_joint": -2.384821988534728,
            "shoulder_lift_joint": -2.2788054721415256,
            "shoulder_pan_joint": -0.1854694642142757,
            "wrist_1_joint": 1.4845938289331202,
            "wrist_2_joint": 0.17898776772866878,
            "wrist_3_joint": 0.037105688729662994
        }
    },
    "waypoints": [
        {
            "positions": [
                -0.1854694642142757,
                -2.2788054721415256,
                -2.384821988534728,
                1.4845938289331202,
                0.17898776772866878,
                0.037105688729662994
            ]
        },
        {
            "positions": [
                -0.12376490743354235,
                -2.2473322534215057,
                -2.3438368748854046,
                1.443076410402124,
                0.06890525237689707,
                0.0314707607986872
            ]
        },
        {
            "positions": [
                -0.062060350652809,
                -2.2158590347014857,
                -2.3028517612360813,
                1.401558991871128,
                -0.041177262974874645,
                0.0258358328677114
            ]
        },
        {
            "positions": [
                0.01901905923705796,
                -2.177853873208261,
                -2.1969450463353146,
                1.4371610281082594,
                -0.1562861445921869,
                0.010399891069452506
            ]
        },
        {
            "positions": [
                0.10009846912692492,
                -2.139848711715037,
                -2.0910383314345475,
                1.4727630643453908,
                -0.2713950262094992,
                -0.005036050728806387
            ]
        },
        {
            "positions": [
                0.1811778790167919,
                -2.1018435502218122,
                -1.985131616533781,
                1.5083651005825223,
                -0.38650390782681143,
                -0.02047199252706528
            ]
        },
        {
            "positions": [
                0.26225728890665884,
                -2.0638383887285876,
                -1.8792249016330143,
                1.5439671368196537,
                -0.5016127894441237,
                -0.03590793432532417
            ]
        },
        {
            "positions": [
                0.34333669879652584,
                -2.025833227235363,
                -1.7733181867322476,
                1.5795691730567851,
                -0.6167216710614359,
                -0.05134387612358308
            ]
        },
        {
            "positions": [
                0.42441610868639273,
                -1.9878280657421386,
                -1.6674114718314808,
                1.6151712092939166,
                -0.7318305526787482,
                -0.06677981792184196
            ]
        },
        {
            "positions": [
                0.5054955185762597,
                -1.9498229042489141,
                -1.5615047569307139,
                1.650773245531048,
                -0.8469394342960604,
                -0.08221575972010087
            ]
        },
        {
            "positions": [
                0.5865749284661267,
                -1.9118177427556895,
                -1.4555980420299472,
                1.6863752817681794,
                -0.9620483159133727,
                -0.09765170151835975
            ]
        },
        {
            "positions": [
                0.6676543383559937,
                -1.8738125812624649,
                -1.3496913271291804,
                1.721977318005311,
                -1.0771571975306848,
                -0.11308764331661866
            ]
        },
        {
            "positions": [
                0.7487337482458607,
                -1.8358074197692404,
                -1.2437846122284137,
                1.7575793542424425,
                -1.192266079147997,
                -0.12852358511487755
            ]
        },
        {
            "positions": [
                0.8298131581357275,
                -1.797802258276016,
                -1.137877897327647,
                1.793181390479574,
                -1.3073749607653093,
                -0.14395952691313643
            ]
        },
        {
            "positions": [
                0.9108925680255945,
                -1.7597970967827914,
                -1.0319711824268802,
                1.8287834267167054,
                -1.4224838423826216,
                -0.15939546871139532
            ]
        },
        {
            "positions": [
                0.9919719779154617,
                -1.7217919352895668,
                -0.9260644675261134,
                1.8643854629538368,
                -1.5375927239999339,
                -0.17483141050965423
            ]
        },
        {
            "positions": [
                1.0730513878053285,
                -1.6837867737963423,
                -0.8201577526253467,
                1.8999874991909682,
                -1.652701605617246,
                -0.1902673523079131
            ]
        },
        {
            "positions": [
                1.119986977527055,
                -1.6639593116869416,
                -0.7403156260797777,
                1.8197593450043612,
                -1.5719506995487793,
                -0.27718000494939316
            ]
        },
        {
            "positions": [
                1.1669225672487813,
                -1.6441318495775408,
                -0.6604734995342088,
                1.739531190817754,
                -1.4911997934803125,
                -0.36409265759087317
            ]
        },
        {
            "positions": [
                1.2138581569705078,
                -1.6243043874681402,
                -0.5806313729886398,
                1.659303036631147,
                -1.4104488874118457,
                -0.45100531023235324
            ]
        },
        {
            "positions": [
                1.2607937466922343,
                -1.6044769253587394,
                -0.5007892464430708,
                1.57907488244454,
                -1.329697981343379,
                -0.5379179628738332
            ]
        },
        {
            "positions": [
                1.3077293364139606,
                -1.5846494632493386,
                -0.4209471198975018,
                1.498846728257933,
                -1.248947075274912,
                -0.6248306155153133
            ]
        },
        {
            "positions": [
                1.3546649261356871,
                -1.5648220011399379,
                -0.3411049933519328,
                1.4186185740713257,
                -1.1681961692064453,
                -0.7117432681567933
            ]
        },
        {
            "positions": [
                1.4016005158574136,
                -1.544994539030537,
                -0.2612628668063638,
                1.3383904198847187,
                -1.0874452631379783,
                -0.7986559207982733
            ]
        },
        {
            "positions": [
                1.44853610557914,
                -1.5251670769211365,
                -0.1814207402607948,
                1.2581622656981115,
                -1.0066943570695117,
                -0.8855685734397534
            ]
        },
        {
            "positions": [
                1.4954716953008664,
                -1.5053396148117357,
                -0.10157861371522592,
                1.1779341115115045,
                -0.9259434510010449,
                -0.9724812260812333
            ]
        },
        {
            "positions": [
                1.542407285022593,
                -1.485512152702335,
                -0.021736487169656815,
                1.0977059573248975,
                -0.845192544932578,
                -1.0593938787227133
            ]
        },
        {
            "positions": [
                1.5893428747443192,
                -1.4656846905929342,
                0.058105639375912066,
                1.0174778031382905,
                -0.7644416388641113,
                -1.1463065313641934
            ]
        },
        {
            "positions": [
                1.6362784644660457,
                -1.4458572284835336,
                0.13794776592148117,
                0.9372496489516833,
                -0.6836907327956444,
                -1.2332191840056734
            ]
        },
        {
            "positions": [
                1.683214054187772,
                -1.4260297663741328,
                0.21778989246705005,
                0.8570214947650763,
                -0.6029398267271777,
                -1.3201318366471533
            ]
        },
        {
            "positions": [
                1.7301496439094985,
                -1.406202304264732,
                0.29763201901261915,
                0.7767933405784693,
                -0.5221889206587107,
                -1.4070444892886333
            ]
        },
        {
            "positions": [
                1.777085233631225,
                -1.3863748421553312,
                0.37747414555818803,
                0.6965651863918623,
                -0.4414380145902441,
                -1.4939571419301134
            ]
        },
        {
            "positions": [
                1.8240208233529516,
                -1.3665473800459305,
                0.45731627210375714,
                0.616337032205255,
                -0.3606871085217771,
                -1.5808697945715935
            ]
        },
        {
            "positions": [
                1.8709564130746779,
                -1.34671991793653,
                0.537158398649326,
                0.536108878018648,
                -0.2799362024533105,
                -1.6677824472130733
            ]
        },
        {
            "positions": [
                1.9178920027964041,
                -1.3268924558271291,
                0.6170005251948949,
                0.45588072383204103,
                -0.19918529638484372,
                -1.7546950998545534
            ]
        },
        {
            "positions": [
                1.9648275925181309,
                -1.3070649937177283,
                0.6968426517404642,
                0.3756525696454338,
                -0.1184343903163767,
                -1.8416077524960337
            ]
        },
        {
            "positions": [
                2.011763182239857,
                -1.2872375316083275,
                0.7766847782860331,
                0.2954244154588268,
                -0.037683484247909904,
                -1.9285204051375135
            ]
        },
        {
            "positions": [
                2.0586987719615837,
                -1.267410069498927,
                0.856526904831602,
                0.2151962612722198,
                0.043067421820556895,
                -2.0154330577789934
            ]
        },
        {
            "positions": [
                2.10563436168331,
                -1.2475826073895262,
                0.9363690313771709,
                0.1349681070856128,
                0.12381832788902347,
                -2.1023457104204737
            ]
        },
        {
            "positions": [
                2.1525699514050367,
                -1.2277551452801254,
                1.0162111579227402,
                0.05473995289900535,
                0.2045692339574905,
                -2.189258363061954
            ]
        },
        {
            "positions": [
                2.199505541126763,
                -1.2079276831707246,
                1.096053284468309,
                -0.025488201287601653,
                0.2853201400259573,
                -2.276171015703434
            ]
        },
        {
            "positions": [
                2.2464411308484893,
                -1.1881002210613238,
                1.175895411013878,
                -0.10571635547420866,
                0.3660710460944241,
                -2.3630836683449137
            ]
        },
        {
            "positions": [
                2.293376720570216,
                -1.168272758951923,
                1.2557375375594468,
                -0.18594450966081566,
                0.44682195216289067,
                -2.4499963209863935
            ]
        },
        {
            "positions": [
                2.3403123102919423,
                -1.1484452968425223,
                1.3355796641050162,
                -0.26617266384742266,
                0.5275728582313577,
                -2.536908973627874
            ]
        },
        {
            "positions": [
                2.387247900013669,
                -1.1286178347331217,
                1.415421790650585,
                -0.34640081803402967,
                0.6083237642998247,
                -2.6238216262693537
            ]
        },
        {
            "positions": [
                2.4341834897353953,
                -1.108790372623721,
                1.495263917196154,
                -0.42662897222063667,
                0.6890746703682913,
                -2.7107342789108335
            ]
        },
        {
            "positions": [
                2.4811190794571214,
                -1.0889629105143204,
                1.5751060437417228,
                -0.5068571264072437,
                0.7698255764367579,
                -2.797646931552314
            ]
        },
        {
            "positions": [
                2.5280546691788484,
                -1.0691354484049196,
                1.6549481702872921,
                -0.5870852805938511,
                0.8505764825052249,
                -2.884559584193794
            ]
        },
        {
            "positions": [
                2.5749902589005744,
                -1.0493079862955188,
                1.734790296832861,
                -0.6673134347804581,
                0.9313273885736919,
                -2.971472236835274
            ]
        },
        {
            "positions": [
                2.621925848622301,
                -1.029480524186118,
                1.8146324233784301,
                -0.7475415889670654,
                1.0120782946421585,
                -3.058384889476754
            ]
        },
        {
            "positions": [
                2.6264102272501693,
                -1.0151566435667005,
                1.8261256266611163,
                -0.7899398504281144,
                1.048182883282973,
                -3.0937283636852295
            ]
        }
    ]
}