{
    "goal": {
        "global_pose": {
            "orientation": {
                "w": -0.00223480608172531,
                "x": 0.0024358444001904467,
                "y": 0.7094548369677653,
                "z": -0.704743149386269
            },
            "position": {
                "x": -0.37947507619857795,
                "y": -0.6371506643295288,
                "z": 0.19426114857196808
            }
        },
        "name": "move_to_magneteinheit_C"
    },
    "id": "BiEST_move_to_magneteinheit_C_126",
    "joint_names": [
        "shoulder_pan_joint",
        "shoulder_lift_joint",
        "elbow_joint",
        "wrist_1_joint",
        "wrist_2_joint",
        "wrist_3_joint"
    ],
    "metrics": {
        "cart_traj_len": 3.880343268644256,
        "distance_elbow_joint": 0.41844070346421525,
        "distance_shoulder_lift_joint": 1.5435735437783737,
        "distance_shoulder_pan_joint": 5.841338887894503,
        "distance_wrist_1_joint": 1.6713311781240496,
        "distance_wrist_2_joint": 1.753544598113455,
        "distance_wrist_3_joint": 0.7895549829136783,
        "smoothness": 1.024659122671542,
        "time": 0.215278195,
        "traj_len": 3.4666675488555683,
        "weighted_distance": 4.125744737178142
    },
    "planner": "BiEST",
    "start": {
        "state": {
            "elbow_joint": 1.9565354010623817,
            "shoulder_lift_joint": -1.4165861575791021,
            "shoulder_pan_joint": -1.6717766225146293,
            "wrist_1_joint": -0.5286633292919765,
            "wrist_2_joint": 1.472756589071564,
            "wrist_3_joint": -3.1238370188695823
        }
    },
    "waypoints": [
        {
            "positions": [
                -1.6717766225146293,
                -1.4165861575791021,
                1.9565354010623817,
                -0.5286633292919765,
                1.472756589071564,
                -3.1238370188695823
            ]
        },
        {
            "positions": [
                -1.5075577341912005,
                -1.459598321271362,
                1.9723246741377376,
                -0.48343268468156403,
                1.387650779346236,
                -3.0979190114096475
            ]
        },
        {
            "positions": [
                -1.3433388458677715,
                -1.5026104849636217,
                1.9881139472130935,
                -0.4382020400711516,
                1.3025449696209082,
                -3.0720010039497128
            ]
        },
        {
            "positions": [
                -1.1791199575443425,
                -1.5456226486558813,
                2.0039032202884495,
                -0.39297139546073917,
                1.2174391598955803,
                -3.046082996489778
            ]
        },
        {
            "positions": [
                -1.0149010692209137,
                -1.588634812348141,
                2.0196924933638054,
                -0.34774075085032674,
                1.1323333501702524,
                -3.020164989029843
            ]
        },
        {
            "positions": [
                -0.8506821808974849,
                -1.6316469760404009,
                2.0354817664391613,
                -0.30251010623991437,
                1.0472275404449245,
                -2.9942469815699084
            ]
        },
        {
            "positions": [
                -0.6864632925740559,
                -1.6746591397326607,
                2.0512710395145173,
                -0.2572794616295019,
                0.9621217307195966,
                -2.9683289741099737
            ]
        },
        {
            "positions": [
                -0.5222444042506271,
                -1.7176713034249205,
                2.067060312589873,
                -0.21204881701908945,
                0.8770159209942687,
                -2.942410966650039
            ]
        },
        {
            "positions": [
                -0.3580255159271981,
                -1.7606834671171803,
                2.0828495856652296,
                -0.16681817240867708,
                0.7919101112689408,
                -2.916492959190104
            ]
        },
        {
            "positions": [
                -0.19380662760376932,
                -1.8036956308094398,
                2.0986388587405855,
                -0.12158752779826465,
                0.706804301543613,
                -2.8905749517301693
            ]
        },
        {
            "positions": [
                -0.02958773928034053,
                -1.8467077945016996,
                2.1144281318159415,
                -0.07635688318785222,
                0.6216984918182851,
                -2.8646569442702345
            ]
        },
        {
            "positions": [
                0.13463114904308848,
                -1.8897199581939594,
                2.1302174048912974,
                -0.03112623857743979,
                0.5365926820929573,
                -2.8387389368102998
            ]
        },
        {
            "positions": [
                0.2988500373665175,
                -1.932732121886219,
                2.1460066779666533,
                0.014104406032972694,
                0.4514868723676293,
                -2.812820929350365
            ]
        },
        {
            "positions": [
                0.4630689256899465,
                -1.9757442855784788,
                2.1617959510420093,
                0.05933505064338507,
                0.3663810626423014,
                -2.78690292189043
            ]
        },
        {
            "positions": [
                0.6272878140133751,
                -2.0187564492707386,
                2.177585224117365,
                0.10456569525379755,
                0.28127525291697353,
                -2.7609849144304954
            ]
        },
        {
            "positions": [
                0.7915067023368043,
                -2.0617686129629984,
                2.193374497192721,
                0.14979633986420993,
                0.1961694431916456,
                -2.7350669069705607
            ]
        },
        {
            "positions": [
                0.575786082524661,
                -2.010333182961593,
                2.184389110220209,
                0.08252665516160869,
                0.20467195604629715,
                -2.7523583231171043
            ]
        },
        {
            "positions": [
                0.3600654627125177,
                -1.9588977529601879,
                2.1754037232476966,
                0.015256970459007452,
                0.2131744689009487,
                -2.7696497392636474
            ]
        },
        {
            "positions": [
                0.14434484290037441,
                -1.9074623229587828,
                2.1664183362751843,
                -0.05201271424359377,
                0.22167698175560024,
                -2.786941155410191
            ]
        },
        {
            "positions": [
                -0.07137577691176888,
                -1.8560268929573775,
                2.157432949302672,
                -0.11928239894619502,
                0.2301794946102518,
                -2.804232571556734
            ]
        },
        {
            "positions": [
                -0.2870963967239122,
                -1.8045914629559723,
                2.1484475623301598,
                -0.18655208364879627,
                0.23868200746490337,
                -2.821523987703278
            ]
        },
        {
            "positions": [
                -0.5028170165360555,
                -1.753156032954567,
                2.1394621753576475,
                -0.25382176835139747,
                0.24718452031955493,
                -2.838815403849821
            ]
        },
        {
            "positions": [
                -0.7185376363481988,
                -1.701720602953162,
                2.1304767883851357,
                -0.3210914530539987,
                0.2556870331742065,
                -2.8561068199963646
            ]
        },
        {
            "positions": [
                -0.9342582561603421,
                -1.6502851729517567,
                2.1214914014126234,
                -0.38836113775659997,
                0.264189546028858,
                -2.8733982361429082
            ]
        },
        {
            "positions": [
                -1.1499788759724856,
                -1.5988497429503514,
                2.112506014440111,
                -0.4556308224592013,
                0.2726920588835096,
                -2.8906896522894514
            ]
        },
        {
            "positions": [
                -1.3656994957846287,
                -1.5474143129489462,
                2.103520627467599,
                -0.5229005071618025,
                0.28119457173816115,
                -2.907981068435995
            ]
        },
        {
            "positions": [
                -1.5814201155967718,
                -1.4959788829475409,
                2.0945352404950865,
                -0.5901701918644037,
                0.28969708459281274,
                -2.925272484582538
            ]
        },
        {
            "positions": [
                -1.7971407354089153,
                -1.4445434529461356,
                2.0855498535225743,
                -0.6574398765670049,
                0.29819959744746427,
                -2.942563900729082
            ]
        },
        {
            "positions": [
                -2.012861355221059,
                -1.3931080229447304,
                2.076564466550062,
                -0.7247095612696062,
                0.30670211030211586,
                -2.959855316875625
            ]
        },
        {
            "positions": [
                -2.228581975033202,
                -1.3416725929433253,
                2.0675790795775497,
                -0.7919792459722074,
                0.3152046231567674,
                -2.9771467330221686
            ]
        },
        {
            "positions": [
                -2.2004624629734844,
                -1.2925701209612983,
                2.04167169584566,
                -0.8059138388794909,
                0.4015927992323167,
                -3.0271856040881593
            ]
        },
        {
            "positions": [
                -2.1723429509137673,
                -1.2434676489792713,
                2.0157643121137703,
                -0.8198484317867742,
                0.4879809753078661,
                -3.07722447515415
            ]
        },
        {
            "positions": [
                -2.323206881690582,
                -1.2034225867738961,
                2.0137686009863076,
                -0.8314618004452136,
                0.5805539353665238,
                -3.1065381265696836
            ]
        },
        {
            "positions": [
                -2.474070812467397,
                -1.163377524568521,
                2.0117728898588454,
                -0.8430751691036529,
                0.6731268954251814,
                -3.1358517779852173
            ]
        }
    ]
}