{
    "goal": {
        "global_pose": {
            "orientation": {
                "w": 0.5084816217422485,
                "x": -0.49083608388900757,
                "y": 0.5182115435600281,
                "z": -0.4816462993621826
            },
            "position": {
                "x": 0.5540239810943604,
                "y": 0.030875300988554955,
                "z": 0.16403168439865112
            }
        },
        "name": "move_to_storage_A"
    },
    "id": "BiEST_move_to_storage_A_145",
    "joint_names": [
        "shoulder_pan_joint",
        "shoulder_lift_joint",
        "elbow_joint",
        "wrist_1_joint",
        "wrist_2_joint",
        "wrist_3_joint"
    ],
    "metrics": {
        "cart_traj_len": 0.35391186492070104,
        "distance_elbow_joint": 0.45447453706288843,
        "distance_shoulder_lift_joint": 0.23365758818172977,
        "distance_shoulder_pan_joint": 0.46160488569143804,
        "distance_wrist_1_joint": 0.26220048669964424,
        "distance_wrist_2_joint": 1.1056665214281187,
        "distance_wrist_3_joint": 0.10234827656464551,
        "smoothness": 4.440892098500626e-16,
        "time": 0.055021933,
        "traj_len": 1.6186266696272074,
        "weighted_distance": 2.0475633950834142
    },
    "planner": "BiEST",
    "start": {
        "state": {
            "elbow_joint": 1.971548259319323,
            "shoulder_lift_joint": -1.1394851275133948,
            "shoulder_pan_joint": 0.1228115487234821,
            "wrist_1_joint": -0.7804723859257726,
            "wrist_2_joint": 0.12958671773740124,
            "wrist_3_joint": -3.192489227718131
        }
    },
    "waypoints": [
        {
            "positions": [
                0.1228115487234821,
                -1.1394851275133948,
                1.971548259319323,
                -0.7804723859257726,
                0.12958671773740124,
                -3.192489227718131
            ]
        },
        {
            "positions": [
                0.05686799362470524,
                -1.1728647829679277,
                2.03647319318545,
                -0.8179295983114361,
                0.2875390779414182,
                -3.177868045351753
            ]
        },
        {
            "positions": [
                -0.009075561474071625,
                -1.2062444384224604,
                2.101398127051577,
                -0.8553868106970995,
                0.4454914381454351,
                -3.163246862985375
            ]
        },
        {
            "positions": [
                -0.07501911657284849,
                -1.2396240938769933,
                2.1663230609177035,
                -0.892844023082763,
                0.603443798349452,
                -3.148625680618997
            ]
        },
        {
            "positions": [
                -0.14096267167162535,
                -1.273003749331526,
                2.2312479947838306,
                -0.9303012354684265,
                0.7613961585534691,
                -3.1340044982526196
            ]
        },
        {
            "positions": [
                -0.2069062267704022,
                -1.306383404786059,
                2.2961729286499577,
                -0.9677584478540899,
                0.9193485187574861,
                -3.1193833158862416
            ]
        },
        {
            "positions": [
                -0.2728497818691791,
                -1.3397630602405917,
                2.3610978625160843,
                -1.0052156602397533,
                1.0773008789615028,
                -3.1047621335198636
            ]
        },
        {
            "positions": [
                -0.33879333696795594,
                -1.3731427156951246,
                2.4260227963822114,
                -1.0426728726254169,
                1.23525323916552,
                -3.0901409511534856
            ]
        }
    ]
}{
    "goal": {
        "global_pose": {
            "orientation": {
                "w": 0.5084816217422485,
                "x": -0.49083608388900757,
                "y": 0.5182115435600281,
                "z": -0.4816462993621826
            },
            "position": {
                "x": 0.5540239810943604,
                "y": 0.030875300988554955,
                "z": 0.16403168439865112
            }
        },
        "name": "move_to_storage_A"
    },
    "id": "BiEST_move_to_storage_A_145",
    "joint_names": [
        "shoulder_pan_joint",
        "shoulder_lift_joint",
        "elbow_joint",
        "wrist_1_joint",
        "wrist_2_joint",
        "wrist_3_joint"
    ],
    "metrics": {
        "cart_traj_len": 0.35285542064468756,
        "distance_elbow_joint": 0.45107070464932386,
        "distance_shoulder_lift_joint": 0.23693405418055136,
        "distance_shoulder_pan_joint": 0.4636548443282656,
        "distance_wrist_1_joint": 0.24086069953335865,
        "distance_wrist_2_joint": 1.0903216964717066,
        "distance_wrist_3_joint": 0.08775379505365288,
        "smoothness": 8.881784232165597e-16,
        "time": 0.08789875,
        "traj_len": 1.6033077665304498,
        "weighted_distance": 2.0192290064104244
    },
    "planner": "BiEST",
    "start": {
        "state": {
            "elbow_joint": 1.97154746011099,
            "shoulder_lift_joint": -1.13948474672311,
            "shoulder_pan_joint": 0.12281154466712228,
            "wrist_1_joint": -0.7804688027058302,
            "wrist_2_joint": 0.12958655903071145,
            "wrist_3_joint": 3.0906928834467795
        }
    },
    "waypoints": [
        {
            "positions": [
                0.12281154466712228,
                -1.13948474672311,
                1.97154746011099,
                -0.7804688027058302,
                0.12958655903071145,
                3.0906928834467795
            ]
        },
        {
            "positions": [
                0.056575138334512914,
                -1.173332468748903,
                2.0359861322037505,
                -0.8148774740677386,
                0.2853468013838124,
                3.1032291398830156
            ]
        },
        {
            "positions": [
                -0.009661267998096454,
                -1.207180190774696,
                2.100424804296511,
                -0.849286145429647,
                0.44110704373691334,
                3.1157653963192518
            ]
        },
        {
            "positions": [
                -0.07589767433070581,
                -1.241027912800489,
                2.1648634763892716,
                -0.8836948167915553,
                0.5968672860900143,
                3.128301652755488
            ]
        },
        {
            "positions": [
                -0.14213408066331518,
                -1.2748756348262822,
                2.229302148482032,
                -0.9181034881534637,
                0.7526275284431152,
                3.140837909191724
            ]
        },
        {
            "positions": [
                -0.2083704869959246,
                -1.3087233568520753,
                2.2937408205747927,
                -0.952512159515372,
                0.9083877707962162,
                3.15337416562796
            ]
        },
        {
            "positions": [
                -0.2746068933285339,
                -1.3425710788778682,
                2.3581794926675532,
                -0.9869208308772804,
                1.064148013149317,
                3.1659104220641963
            ]
        },
        {
            "positions": [
                -0.3408432996611433,
                -1.3764188009036613,
                2.4226181647603138,
                -1.0213295022391888,
                1.219908255502418,
                3.1784466785004324
            ]
        }
    ]
}{
    "goal": {
        "global_pose": {
            "orientation": {
                "w": 0.5084816217422485,
                "x": -0.49083608388900757,
                "y": 0.5182115435600281,
                "z": -0.4816462993621826
            },
            "position": {
                "x": 0.5540239810943604,
                "y": 0.030875300988554955,
                "z": 0.16403168439865112
            }
        },
        "name": "move_to_storage_A"
    },
    "id": "BiEST_move_to_storage_A_145",
    "joint_names": [
        "shoulder_pan_joint",
        "shoulder_lift_joint",
        "elbow_joint",
        "wrist_1_joint",
        "wrist_2_joint",
        "wrist_3_joint"
    ],
    "metrics": {
        "cart_traj_len": 0.352997906285942,
        "distance_elbow_joint": 0.44933354960961225,
        "distance_shoulder_lift_joint": 0.2339145011442776,
        "distance_shoulder_pan_joint": 0.4623341818973487,
        "distance_wrist_1_joint": 0.24412584999620712,
        "distance_wrist_2_joint": 1.0948367729760617,
        "distance_wrist_3_joint": 0.08794986046496334,
        "smoothness": 1.3322676295501878e-15,
        "time": 0.096076778,
        "traj_len": 1.6038998460279466,
        "weighted_distance": 2.0217213111580605
    },
    "planner": "BiEST",
    "start": {
        "state": {
            "elbow_joint": 1.9715472970024885,
            "shoulder_lift_joint": -1.1394870060712896,
            "shoulder_pan_joint": 0.12281152778156021,
            "wrist_1_joint": -0.780463741449964,
            "wrist_2_joint": 0.12958659822042276,
            "wrist_3_joint": 3.090690232415272
        }
    },
    "waypoints": [
        {
            "positions": [
                0.12281152778156021,
                -1.1394870060712896,
                1.9715472970024885,
                -0.780463741449964,
                0.12958659822042276,
                3.090690232415272
            ]
        },
        {
            "positions": [
                0.05676378751051041,
                -1.172903363377615,
                2.035737804089576,
                -0.8153388628779936,
                0.2859918515027173,
                3.103254498195981
            ]
        },
        {
            "positions": [
                -0.009283952760539393,
                -1.2063197206839404,
                2.0999283111766633,
                -0.8502139843060231,
                0.4423971047850118,
                3.11581876397669
            ]
        },
        {
            "positions": [
                -0.07533169303158921,
                -1.2397360779902658,
                2.1641188182637507,
                -0.8850891057340528,
                0.5988023580673063,
                3.128383029757399
            ]
        },
        {
            "positions": [
                -0.141379433302639,
                -1.273152435296591,
                2.228309325350838,
                -0.9199642271620824,
                0.7552076113496008,
                3.140947295538108
            ]
        },
        {
            "positions": [
                -0.2074271735736888,
                -1.3065687926029166,
                2.292499832437926,
                -0.9548393485901119,
                0.9116128646318954,
                3.153511561318817
            ]
        },
        {
            "positions": [
                -0.27347491384473865,
                -1.339985149909242,
                2.3566903395250134,
                -0.9897144700181415,
                1.0680181179141899,
                3.166075827099526
            ]
        },
        {
            "positions": [
                -0.33952265411578847,
                -1.3734015072155672,
                2.420880846612101,
                -1.0245895914461711,
                1.2244233711964845,
                3.178640092880235
            ]
        }
    ]
}