{
    "goal": {
        "global_pose": {
            "orientation": {
                "w": 0.7047431493862688,
                "x": -0.7094548369677653,
                "y": 0.0024358444001904,
                "z": -0.0022348060817251984
            },
            "position": {
                "x": -0.39052492380142206,
                "y": 0.3671506643295288,
                "z": 0.19426114857196808
            }
        },
        "name": "move_to_magneteinheit_D"
    },
    "id": "BiEST_move_to_magneteinheit_D_143",
    "joint_names": [
        "shoulder_pan_joint",
        "shoulder_lift_joint",
        "elbow_joint",
        "wrist_1_joint",
        "wrist_2_joint",
        "wrist_3_joint"
    ],
    "metrics": {
        "cart_traj_len": 4.761062222388752,
        "distance_elbow_joint": 3.9131817940020284,
        "distance_shoulder_lift_joint": 1.62724189895591,
        "distance_shoulder_pan_joint": 2.973199446988033,
        "distance_wrist_1_joint": 2.864342839192021,
        "distance_wrist_2_joint": 1.0257782837703857,
        "distance_wrist_3_joint": 3.724868078531021,
        "smoothness": 0.5357013875624758,
        "time": 0.14615497700000002,
        "traj_len": 4.016044364973998,
        "weighted_distance": 5.241037074994209
    },
    "planner": "BiEST",
    "start": {
        "state": {
            "elbow_joint": 0.749534889911806,
            "shoulder_lift_joint": -0.6476975780787326,
            "shoulder_pan_joint": -2.711696901376241,
            "wrist_1_joint": -0.07506478083263063,
            "wrist_2_joint": 0.43296659715538205,
            "wrist_3_joint": -3.14703540197715
        }
    },
    "waypoints": [
        {
            "positions": [
                -2.711696901376241,
                -0.6476975780787326,
                0.749534889911806,
                -0.07506478083263063,
                0.43296659715538205,
                -3.14703540197715
            ]
        },
        {
            "positions": [
                -2.728780539805745,
                -0.7166246418112803,
                0.7837395438319535,
                -0.2050669351111536,
                0.42429463971372045,
                -3.0112245956965324
            ]
        },
        {
            "positions": [
                -2.745864178235249,
                -0.785551705543828,
                0.8179441977521011,
                -0.33506908938967656,
                0.4156226822720589,
                -2.875413789415915
            ]
        },
        {
            "positions": [
                -2.7629478166647528,
                -0.8544787692763758,
                0.8521488516722487,
                -0.4650712436681995,
                0.4069507248303973,
                -2.7396029831352973
            ]
        },
        {
            "positions": [
                -2.7800314550942566,
                -0.9234058330089234,
                0.8863535055923963,
                -0.5950733979467224,
                0.3982787673887357,
                -2.6037921768546797
            ]
        },
        {
            "positions": [
                -2.7096914688718567,
                -0.9559190455882256,
                0.8108934833463931,
                -0.6238444826109227,
                0.3471382697210315,
                -2.479760793670735
            ]
        },
        {
            "positions": [
                -2.639351482649457,
                -0.9884322581675277,
                0.7354334611003899,
                -0.6526155672751232,
                0.29599777205332733,
                -2.35572941048679
            ]
        },
        {
            "positions": [
                -2.5690114964270565,
                -1.0209454707468297,
                0.6599734388543865,
                -0.6813866519393235,
                0.24485727438562319,
                -2.2316980273028455
            ]
        },
        {
            "positions": [
                -2.4986715102046566,
                -1.053458683326132,
                0.5845134166083833,
                -0.7101577366035239,
                0.193716776717919,
                -2.1076666441189005
            ]
        },
        {
            "positions": [
                -2.4283315239822567,
                -1.085971895905434,
                0.5090533943623801,
                -0.7389288212677242,
                0.1425762790502149,
                -1.983635260934956
            ]
        },
        {
            "positions": [
                -2.3020926992516526,
                -1.0895827484492546,
                0.4586310936091717,
                -0.6600433663751916,
                0.1630141731128814,
                -1.8695969709763156
            ]
        },
        {
            "positions": [
                -2.1758538745210485,
                -1.0931936009930752,
                0.40820879285596334,
                -0.5811579114826589,
                0.18345206717554796,
                -1.7555586810176753
            ]
        },
        {
            "positions": [
                -2.0496150497904444,
                -1.0968044535368957,
                0.35778649210275504,
                -0.5022724565901263,
                0.20388996123821448,
                -1.641520391059035
            ]
        },
        {
            "positions": [
                -1.9233762250598403,
                -1.1004153060807162,
                0.3073641913495467,
                -0.4233870016975937,
                0.224327855300881,
                -1.5274821011003947
            ]
        },
        {
            "positions": [
                -1.7971374003292362,
                -1.1040261586245366,
                0.2569418905963383,
                -0.34450154680506107,
                0.24476574936354756,
                -1.4134438111417544
            ]
        },
        {
            "positions": [
                -1.6708985755986323,
                -1.107637011168357,
                0.20651958984312996,
                -0.26561609191252844,
                0.2652036434262141,
                -1.2994055211831141
            ]
        },
        {
            "positions": [
                -1.5446597508680282,
                -1.1112478637121777,
                0.1560972890899216,
                -0.18673063701999582,
                0.28564153748888066,
                -1.1853672312244738
            ]
        },
        {
            "positions": [
                -1.418420926137424,
                -1.1148587162559982,
                0.1056749883367133,
                -0.10784518212746319,
                0.30607943155154715,
                -1.0713289412658336
            ]
        },
        {
            "positions": [
                -1.29218210140682,
                -1.1184695687998187,
                0.055252687583504934,
                -0.028959727234930566,
                0.3265173256142137,
                -0.9572906513071933
            ]
        },
        {
            "positions": [
                -1.165943276676216,
                -1.1220804213436393,
                0.0048303868302965736,
                0.04992572765760206,
                0.34695521967688026,
                -0.843252361348553
            ]
        },
        {
            "positions": [
                -1.0397044519456118,
                -1.1256912738874598,
                -0.04559191392291184,
                0.12881118255013468,
                0.3673931137395468,
                -0.7292140713899125
            ]
        },
        {
            "positions": [
                -0.9134656272150079,
                -1.1293021264312804,
                -0.09601421467612015,
                0.2076966374426673,
                0.3878310078022133,
                -0.6151757814312724
            ]
        },
        {
            "positions": [
                -0.7872268024844036,
                -1.132912978975101,
                -0.14643651542932856,
                0.28658209233519993,
                0.40826890186487985,
                -0.5011374914726319
            ]
        },
        {
            "positions": [
                -0.6609879777537997,
                -1.1365238315189212,
                -0.19685881618253687,
                0.36546754722773256,
                0.42870679592754635,
                -0.3870992015139918
            ]
        },
        {
            "positions": [
                -0.5347491530231954,
                -1.1401346840627418,
                -0.24728111693574517,
                0.4443530021202652,
                0.44914468999021295,
                -0.2730609115553513
            ]
        },
        {
            "positions": [
                -0.4085103282925915,
                -1.1437455366065623,
                -0.2977034176889535,
                0.5232384570127978,
                0.46958258405287945,
                -0.1590226215967112
            ]
        },
        {
            "positions": [
                -0.2822715035619874,
                -1.1473563891503828,
                -0.3481257184421619,
                0.6021239119053304,
                0.49002047811554605,
                -0.044984331638070696
            ]
        },
        {
            "positions": [
                -0.15603267883138328,
                -1.1509672416942034,
                -0.3985480191953702,
                0.6810093667978631,
                0.5104583721782125,
                0.06905395832056938
            ]
        },
        {
            "positions": [
                -0.029793854100779366,
                -1.154578094238024,
                -0.44897031994857867,
                0.7598948216903956,
                0.530896266240879,
                0.1830922482792097
            ]
        },
        {
            "positions": [
                -0.030708179958136295,
                -1.2473796198352158,
                -0.6482829548582657,
                0.8074432717605431,
                0.5053201384842188,
                0.15973667972064137
            ]
        },
        {
            "positions": [
                -0.031622505815493224,
                -1.3401811454324077,
                -0.8475955897679528,
                0.8549917218306906,
                0.47974401072755846,
                0.13638111116207308
            ]
        },
        {
            "positions": [
                -0.03253683167285015,
                -1.4329826710295996,
                -1.0469082246776398,
                0.902540171900838,
                0.45416788297089816,
                0.11302554260350477
            ]
        },
        {
            "positions": [
                -0.03345115753020708,
                -1.5257841966267915,
                -1.246220859587327,
                0.9500886219709855,
                0.42859175521423787,
                0.08966997404493644
            ]
        },
        {
            "positions": [
                -0.03436548338756401,
                -1.6185857222239837,
                -1.445533494497014,
                0.997637072041133,
                0.4030156274575776,
                0.06631440548636815
            ]
        },
        {
            "positions": [
                -0.03527980924492094,
                -1.7113872478211754,
                -1.644846129406701,
                1.0451855221112805,
                0.37743949970091734,
                0.04295883692779984
            ]
        },
        {
            "positions": [
                -0.03619413510227787,
                -1.8041887734183675,
                -1.844158764316388,
                1.092733972181428,
                0.351863371944257,
                0.019603268369231514
            ]
        },
        {
            "positions": [
                -0.0371084609596348,
                -1.8969902990155594,
                -2.043471399226075,
                1.1402824222515755,
                0.3262872441875967,
                -0.00375230018933681
            ]
        },
        {
            "positions": [
                -0.03802278681699173,
                -1.9897918246127513,
                -2.2427840341357625,
                1.187830872321723,
                0.3007111164309364,
                -0.027107868747905106
            ]
        },
        {
            "positions": [
                -0.038937112674348656,
                -2.082593350209943,
                -2.442096669045449,
                1.2353793223918705,
                0.27513498867427616,
                -0.0504634373064734
            ]
        },
        {
            "positions": [
                -0.039851438531705585,
                -2.175394875807135,
                -2.6414093039551365,
                1.282927772462018,
                0.24955886091761587,
                -0.0738190058650417
            ]
        },
        {
            "positions": [
                -0.0880413411469102,
                -2.2085764095496376,
                -2.5585425143638343,
                1.3424685074710803,
                0.2276486698671855,
                -0.027875947821571448
            ]
        },
        {
            "positions": [
                -0.13623124376211482,
                -2.24175794329214,
                -2.4756757247725325,
                1.4020092424801425,
                0.2057384788167551,
                0.018067110221898802
            ]
        },
        {
            "positions": [
                -0.18442114637731946,
                -2.2749394770346427,
                -2.3928089351812303,
                1.4615499774892047,
                0.1838282877663247,
                0.06401016826536907
            ]
        }
    ]
}