{
    "goal": {
        "global_pose": {
            "orientation": {
                "w": -0.00223480608172531,
                "x": 0.0024358444001904467,
                "y": 0.7094548369677653,
                "z": -0.704743149386269
            },
            "position": {
                "x": 0.6205249238014221,
                "y": -0.6371506643295288,
                "z": 0.19426114857196808
            }
        },
        "name": "move_to_magneteinheit_B"
    },
    "id": "BiEST_move_to_magneteinheit_B_51",
    "joint_names": [
        "shoulder_pan_joint",
        "shoulder_lift_joint",
        "elbow_joint",
        "wrist_1_joint",
        "wrist_2_joint",
        "wrist_3_joint"
    ],
    "metrics": {
        "cart_traj_len": 1.4874655154616332,
        "distance_elbow_joint": 0.9557958829080337,
        "distance_shoulder_lift_joint": 1.3751351105020693,
        "distance_shoulder_pan_joint": 1.6213545616626988,
        "distance_wrist_1_joint": 1.598164241624227,
        "distance_wrist_2_joint": 2.9457992777008926,
        "distance_wrist_3_joint": 0.2561853094573692,
        "smoothness": 0.7478956112666576,
        "time": 0.19810624799999998,
        "traj_len": 2.958451348907954,
        "weighted_distance": 3.7160151401864803
    },
    "planner": "BiEST",
    "start": {
        "state": {
            "elbow_joint": 2.6216224122426386,
            "shoulder_lift_joint": -1.4174107377796124,
            "shoulder_pan_joint": 0.7066234856936794,
            "wrist_1_joint": 1.9546482284002225,
            "wrist_2_joint": -0.7096286983471962,
            "wrist_3_joint": 0.005740856962016249
        }
    },
    "waypoints": [
        {
            "positions": [
                0.7066234856936794,
                -1.4174107377796124,
                2.6216224122426386,
                1.9546482284002225,
                -0.7096286983471962,
                0.005740856962016249
            ]
        },
        {
            "positions": [
                0.6389259007233159,
                -1.4538748845391203,
                2.6107044709646074,
                1.8790091685130172,
                -0.6254227244065462,
                -0.013909533413012256
            ]
        },
        {
            "positions": [
                0.5712283157529524,
                -1.4903390312986284,
                2.599786529686576,
                1.803370108625812,
                -0.5412167504658962,
                -0.03355992378804076
            ]
        },
        {
            "positions": [
                0.5035307307825889,
                -1.5268031780581364,
                2.5888685884085447,
                1.7277310487386068,
                -0.4570107765252462,
                -0.053210314163069275
            ]
        },
        {
            "positions": [
                0.4175616387557628,
                -1.5669227673741757,
                2.5543930994006856,
                1.63232768124452,
                -0.36452133763126104,
                -0.06797455949003547
            ]
        },
        {
            "positions": [
                0.3315925467289367,
                -1.6070423566902152,
                2.519917610392827,
                1.5369243137504334,
                -0.2720318987372759,
                -0.08273880481700169
            ]
        },
        {
            "positions": [
                0.24562345470211056,
                -1.6471619460062545,
                2.485442121384968,
                1.4415209462563465,
                -0.1795424598432908,
                -0.09750305014396789
            ]
        },
        {
            "positions": [
                0.15965436267528443,
                -1.687281535322294,
                2.450966632377109,
                1.34611757876226,
                -0.08705302094930562,
                -0.1122672954709341
            ]
        },
        {
            "positions": [
                0.07368527064845834,
                -1.7274011246383334,
                2.41649114336925,
                1.250714211268173,
                0.005436417944679445,
                -0.1270315407979003
            ]
        },
        {
            "positions": [
                0.01190924898486595,
                -1.660829579410624,
                2.3695746049920845,
                1.306603600298934,
                -0.1339844671433841,
                -0.11931823381680952
            ]
        },
        {
            "positions": [
                -0.04986677267872644,
                -1.594258034182915,
                2.3226580666149195,
                1.3624929893296953,
                -0.2734053522314477,
                -0.11160492683571874
            ]
        },
        {
            "positions": [
                -0.11164279434231883,
                -1.5276864889552058,
                2.275741528237754,
                1.4183823783604563,
                -0.4128262373195112,
                -0.10389161985462794
            ]
        },
        {
            "positions": [
                -0.17341881600591122,
                -1.4611149437274964,
                2.2288249898605885,
                1.4742717673912176,
                -0.5522471224075748,
                -0.09617831287353718
            ]
        },
        {
            "positions": [
                -0.23519483766950364,
                -1.394543398499787,
                2.1819084514834235,
                1.5301611564219786,
                -0.6916680074956384,
                -0.08846500589244638
            ]
        },
        {
            "positions": [
                -0.29697085933309597,
                -1.327971853272078,
                2.134991913106258,
                1.5860505454527396,
                -0.8310888925837019,
                -0.0807516989113556
            ]
        },
        {
            "positions": [
                -0.3587468809966884,
                -1.2614003080443688,
                2.0880753747290925,
                1.6419399344835006,
                -0.9705097776717654,
                -0.07303839193026482
            ]
        },
        {
            "positions": [
                -0.4205229026602808,
                -1.1948287628166594,
                2.0411588363519275,
                1.6978293235142619,
                -1.1099306627598289,
                -0.06532508494917404
            ]
        },
        {
            "positions": [
                -0.4822989243238732,
                -1.12825721758895,
                1.994242297974762,
                1.753718712545023,
                -1.2493515478478925,
                -0.057611777968083255
            ]
        },
        {
            "positions": [
                -0.5440749459874656,
                -1.061685672361241,
                1.9473257595975968,
                1.8096081015757841,
                -1.388772432935956,
                -0.049898470986992474
            ]
        },
        {
            "positions": [
                -0.605850967651058,
                -0.9951141271335316,
                1.9004092212204315,
                1.8654974906065451,
                -1.5281933180240195,
                -0.04218516400590169
            ]
        },
        {
            "positions": [
                -0.6676269893146504,
                -0.9285425819058224,
                1.853492682843266,
                1.9213868796373061,
                -1.667614203112083,
                -0.0344718570248109
            ]
        },
        {
            "positions": [
                -0.7294030109782428,
                -0.8619710366781131,
                1.8065761444661008,
                1.9772762686680674,
                -1.8070350882001467,
                -0.026758550043720117
            ]
        },
        {
            "positions": [
                -0.7911790326418351,
                -0.7953994914504039,
                1.7596596060889356,
                2.033165657698828,
                -1.94645597328821,
                -0.019045243062629336
            ]
        },
        {
            "positions": [
                -0.8529550543054275,
                -0.7288279462226946,
                1.71274306771177,
                2.0890550467295896,
                -2.085876858376274,
                -0.011331936081538554
            ]
        },
        {
            "positions": [
                -0.9147310759690199,
                -0.6622564009949855,
                1.6658265293346048,
                2.1449444357603507,
                -2.2252977434643375,
                -0.0036186291004477794
            ]
        }
    ]
}