{
    "goal": {
        "global_pose": {
            "orientation": {
                "w": -0.4816463035849501,
                "x": 0.5182115481033762,
                "y": 0.4908360881923453,
                "z": -0.5084816262002911
            },
            "position": {
                "x": -0.8240239810943604,
                "y": -0.300875300988555,
                "z": 0.16403168439865112
            }
        },
        "name": "move_to_storage_C"
    },
    "id": "BiEST_move_to_storage_C_121",
    "joint_names": [
        "shoulder_pan_joint",
        "shoulder_lift_joint",
        "elbow_joint",
        "wrist_1_joint",
        "wrist_2_joint",
        "wrist_3_joint"
    ],
    "metrics": {
        "cart_traj_len": 0.5760379532794526,
        "distance_elbow_joint": 0.25770542383862804,
        "distance_shoulder_lift_joint": 0.18985631897380306,
        "distance_shoulder_pan_joint": 0.49474648683448574,
        "distance_wrist_1_joint": 0.07952112726916205,
        "distance_wrist_2_joint": 1.0627796296356302,
        "distance_wrist_3_joint": 0.0760305060097779,
        "smoothness": 2.5376526478085547e-16,
        "time": 0.07801169399999999,
        "traj_len": 1.4699113893570208,
        "weighted_distance": 1.8587633688788456
    },
    "planner": "BiEST",
    "start": {
        "state": {
            "elbow_joint": 2.010868314990456,
            "shoulder_lift_joint": -1.1634956873337592,
            "shoulder_pan_joint": -2.4736205022346125,
            "wrist_1_joint": -0.8367026794202681,
            "wrist_2_joint": 0.6746043897044499,
            "wrist_3_joint": -3.1496632123970403
        }
    },
    "waypoints": [
        {
            "positions": [
                -2.4736205022346125,
                -1.1634956873337592,
                2.010868314990456,
                -0.8367026794202681,
                0.6746043897044499,
                -3.1496632123970403
            ]
        },
        {
            "positions": [
                -2.5560782500403603,
                -1.131852967504792,
                1.9679174110173512,
                -0.8234491582087411,
                0.851734327977055,
                -3.136991461395411
            ]
        },
        {
            "positions": [
                -2.6385359978461076,
                -1.1002102476758249,
                1.9249665070442465,
                -0.8101956369972141,
                1.02886426624966,
                -3.124319710393781
            ]
        },
        {
            "positions": [
                -2.7209937456518554,
                -1.0685675278468576,
                1.882015603071142,
                -0.7969421157856871,
                1.205994204522265,
                -3.111647959392151
            ]
        },
        {
            "positions": [
                -2.803451493457603,
                -1.0369248080178906,
                1.839064699098037,
                -0.7836885945741601,
                1.3831241427948702,
                -3.0989762083905217
            ]
        },
        {
            "positions": [
                -2.8859092412633505,
                -1.0052820881889233,
                1.7961137951249324,
                -0.7704350733626331,
                1.560254081067475,
                -3.0863044573888923
            ]
        },
        {
            "positions": [
                -2.9683669890690982,
                -0.9736393683599561,
                1.7531628911518278,
                -0.757181552151106,
                1.7373840193400802,
                -3.0736327063872624
            ]
        }
    ]
}