{
    "goal": {
        "global_pose": {
            "orientation": {
                "w": -0.4816463035849501,
                "x": 0.5182115481033762,
                "y": 0.4908360881923453,
                "z": -0.5084816262002911
            },
            "position": {
                "x": -0.8240239810943604,
                "y": 0.19912469901144506,
                "z": 0.16403168439865112
            }
        },
        "name": "move_to_storage_D"
    },
    "id": "BiEST_move_to_storage_D_93",
    "joint_names": [
        "shoulder_pan_joint",
        "shoulder_lift_joint",
        "elbow_joint",
        "wrist_1_joint",
        "wrist_2_joint",
        "wrist_3_joint"
    ],
    "metrics": {
        "cart_traj_len": 4.127587414402888,
        "distance_elbow_joint": 4.207552979321804,
        "distance_shoulder_lift_joint": 1.264579116053278,
        "distance_shoulder_pan_joint": 2.812590388743255,
        "distance_wrist_1_joint": 2.2620236744021622,
        "distance_wrist_2_joint": 0.8680887984551978,
        "distance_wrist_3_joint": 3.1379371386804586,
        "smoothness": 4.884981311867123e-16,
        "time": 0.114039359,
        "traj_len": 3.8148095752810716,
        "weighted_distance": 4.894768518109354
    },
    "planner": "BiEST",
    "start": {
        "state": {
            "elbow_joint": -2.384821988534728,
            "shoulder_lift_joint": -2.2788054721415256,
            "shoulder_pan_joint": -0.1854694642142757,
            "wrist_1_joint": 1.4845938289331202,
            "wrist_2_joint": 0.17898776772866878,
            "wrist_3_joint": 0.037105688729662994
        }
    },
    "waypoints": [
        {
            "positions": [
                -0.1854694642142757,
                -2.2788054721415256,
                -2.384821988534728,
                1.4845938289331202,
                0.17898776772866878,
                0.037105688729662994
            ]
        },
        {
            "positions": [
                -0.07721615380180277,
                -2.2387186390477862,
                -2.280333317850325,
                1.3951912983608095,
                0.20263761864388044,
                0.02418311733532813
            ]
        },
        {
            "positions": [
                0.031037156610670164,
                -2.198631805954047,
                -2.1758446471659214,
                1.3057887677884985,
                0.22628746955909207,
                0.011260545940993266
            ]
        },
        {
            "positions": [
                0.1392904670231431,
                -2.1585449728603074,
                -2.0713559764815184,
                1.2163862372161878,
                0.24993732047430373,
                -0.001662025453341598
            ]
        },
        {
            "positions": [
                0.24754377743561604,
                -2.118458139766568,
                -1.966867305797115,
                1.126983706643877,
                0.2735871713895154,
                -0.014584596847676462
            ]
        },
        {
            "positions": [
                0.35579708784808906,
                -2.0783713066728287,
                -1.8623786351127118,
                1.037581176071566,
                0.29723702230472704,
                -0.027507168242011326
            ]
        },
        {
            "positions": [
                0.46405039826056194,
                -2.0382844735790893,
                -1.7578899644283086,
                0.9481786454992553,
                0.3208868732199387,
                -0.04042973963634619
            ]
        },
        {
            "positions": [
                0.5723037086730349,
                -1.9981976404853496,
                -1.6534012937439053,
                0.8587761149269445,
                0.34453672413515035,
                -0.053352311030681054
            ]
        },
        {
            "positions": [
                0.6805570190855078,
                -1.9581108073916105,
                -1.5489126230595023,
                0.7693735843546338,
                0.36818657505036195,
                -0.06627488242501592
            ]
        },
        {
            "positions": [
                0.7888103294979808,
                -1.9180239742978709,
                -1.4444239523750988,
                0.6799710537823229,
                0.3918364259655736,
                -0.07919745381935078
            ]
        },
        {
            "positions": [
                0.8970636399104538,
                -1.8779371412041315,
                -1.3399352816906955,
                0.5905685232100121,
                0.41548627688078527,
                -0.09212002521368565
            ]
        },
        {
            "positions": [
                1.0053169503229265,
                -1.837850308110392,
                -1.2354466110062925,
                0.5011659926377013,
                0.43913612779599687,
                -0.10504259660802051
            ]
        },
        {
            "positions": [
                1.1135702607353994,
                -1.7977634750166527,
                -1.1309579403218892,
                0.41176346206539055,
                0.4627859787112086,
                -0.11796516800235536
            ]
        },
        {
            "positions": [
                1.1790110983788886,
                -1.762162327687373,
                -1.0452538719157896,
                0.3428433929994361,
                0.4858604729727481,
                -0.2103338431543102
            ]
        },
        {
            "positions": [
                1.244451936022378,
                -1.7265611803580931,
                -0.95954980350969,
                0.2739233239334816,
                0.5089349672342875,
                -0.302702518306265
            ]
        },
        {
            "positions": [
                1.3098927736658672,
                -1.6909600330288135,
                -0.8738457351035904,
                0.20500325486752718,
                0.5320094614958271,
                -0.39507119345821984
            ]
        },
        {
            "positions": [
                1.3753336113093564,
                -1.6553588856995338,
                -0.7881416666974908,
                0.13608318580157275,
                0.5550839557573666,
                -0.48743986861017463
            ]
        },
        {
            "positions": [
                1.4407744489528456,
                -1.619757738370254,
                -0.7024375982913912,
                0.06716311673561831,
                0.5781584500189061,
                -0.5798085437621294
            ]
        },
        {
            "positions": [
                1.506215286596335,
                -1.5841565910409743,
                -0.6167335298852915,
                -0.0017569523303361811,
                0.6012329442804456,
                -0.6721772189140843
            ]
        },
        {
            "positions": [
                1.5716561242398241,
                -1.5485554437116946,
                -0.5310294614791919,
                -0.07067702139629062,
                0.6243074385419851,
                -0.7645458940660391
            ]
        },
        {
            "positions": [
                1.6370969618833133,
                -1.5129542963824147,
                -0.44532539307309227,
                -0.13959709046224505,
                0.6473819328035246,
                -0.8569145692179939
            ]
        },
        {
            "positions": [
                1.7025377995268025,
                -1.477353149053135,
                -0.3596213246669927,
                -0.20851715952819955,
                0.6704564270650641,
                -0.9492832443699487
            ]
        },
        {
            "positions": [
                1.767978637170292,
                -1.4417520017238554,
                -0.27391725626089314,
                -0.27743722859415393,
                0.6935309213266037,
                -1.0416519195219036
            ]
        },
        {
            "positions": [
                1.8334194748137809,
                -1.4061508543945758,
                -0.18821318785479346,
                -0.3463572976601084,
                0.7166054155881432,
                -1.1340205946738584
            ]
        },
        {
            "positions": [
                1.8988603124572703,
                -1.3705497070652959,
                -0.10250911944869379,
                -0.4152773667260629,
                0.7396799098496827,
                -1.2263892698258134
            ]
        },
        {
            "positions": [
                1.9643011501007597,
                -1.334948559736016,
                -0.01680505104259411,
                -0.4841974357920174,
                0.7627544041112222,
                -1.3187579449777682
            ]
        },
        {
            "positions": [
                2.0297419877442486,
                -1.2993474124067363,
                0.06889901736350534,
                -0.5531175048579717,
                0.7858288983727617,
                -1.411126620129723
            ]
        },
        {
            "positions": [
                2.095182825387738,
                -1.2637462650774567,
                0.15460308576960505,
                -0.6220375739239263,
                0.8089033926343012,
                -1.5034952952816778
            ]
        },
        {
            "positions": [
                2.139511000316175,
                -1.2429529393283558,
                0.2936137445210609,
                -0.6349869298860192,
                0.828751157096765,
                -1.6366066415041043
            ]
        },
        {
            "positions": [
                2.1838391752446116,
                -1.2221596135792552,
                0.4326244032725167,
                -0.6479362858481121,
                0.8485989215592288,
                -1.7697179877265308
            ]
        },
        {
            "positions": [
                2.2281673501730483,
                -1.2013662878301545,
                0.5716350620239726,
                -0.6608856418102051,
                0.8684466860216926,
                -1.9028293339489573
            ]
        },
        {
            "positions": [
                2.272495525101485,
                -1.1805729620810537,
                0.7106457207754284,
                -0.673834997772298,
                0.8882944504841563,
                -2.0359406801713837
            ]
        },
        {
            "positions": [
                2.316823700029922,
                -1.1597796363319528,
                0.8496563795268843,
                -0.686784353734391,
                0.9081422149466201,
                -2.1690520263938105
            ]
        },
        {
            "positions": [
                2.3611518749583587,
                -1.1389863105828522,
                0.9886670382783401,
                -0.699733709696484,
                0.9279899794090839,
                -2.3021633726162367
            ]
        },
        {
            "positions": [
                2.4054800498867954,
                -1.1181929848337515,
                1.1276776970297961,
                -0.7126830656585769,
                0.9478377438715477,
                -2.4352747188386634
            ]
        },
        {
            "positions": [
                2.449808224815232,
                -1.0973996590846506,
                1.2666883557812518,
                -0.7256324216206698,
                0.9676855083340115,
                -2.5683860650610897
            ]
        },
        {
            "positions": [
                2.494136399743669,
                -1.0766063333355498,
                1.4056990145327077,
                -0.7385817775827627,
                0.9875332727964752,
                -2.7014974112835164
            ]
        },
        {
            "positions": [
                2.5384645746721057,
                -1.0558130075864491,
                1.5447096732841636,
                -0.7515311335448556,
                1.0073810372589391,
                -2.8346087575059427
            ]
        },
        {
            "positions": [
                2.5827927496005425,
                -1.0350196818373485,
                1.6837203320356193,
                -0.7644804895069486,
                1.0272288017214029,
                -2.967720103728369
            ]
        },
        {
            "positions": [
                2.6271209245289793,
                -1.0142263560882476,
                1.8227309907870752,
                -0.7774298454690415,
                1.0470765661838666,
                -3.1008314499507956
            ]
        }
    ]
}