{
    "goal": {
        "global_pose": {
            "orientation": {
                "w": 0.005598929693374612,
                "x": 0.007748599140229565,
                "y": 0.7110244013736278,
                "z": -0.7031023480610252
            },
            "position": {
                "x": -0.8858502320852131,
                "y": -0.7141253447532654,
                "z": 0.3711530566215515
            }
        },
        "name": "move_to_auspresseinheit_C"
    },
    "id": "BiEST_move_to_auspresseinheit_C_71",
    "joint_names": [
        "shoulder_pan_joint",
        "shoulder_lift_joint",
        "elbow_joint",
        "wrist_1_joint",
        "wrist_2_joint",
        "wrist_3_joint"
    ],
    "metrics": {
        "cart_traj_len": 0.492471531813159,
        "distance_elbow_joint": 0.9887484678682147,
        "distance_shoulder_lift_joint": 0.3200083364464624,
        "distance_shoulder_pan_joint": 0.2566008811928753,
        "distance_wrist_1_joint": 0.6544721810896498,
        "distance_wrist_2_joint": 1.3084242685630083,
        "distance_wrist_3_joint": 0.04136683709078426,
        "smoothness": 3.2297397080004555e-16,
        "time": 0.136389936,
        "traj_len": 1.8893440587280537,
        "weighted_distance": 2.3696521044417516
    },
    "planner": "BiEST",
    "start": {
        "state": {
            "elbow_joint": 1.7527959577737207,
            "shoulder_lift_joint": -0.9740617694225068,
            "shoulder_pan_joint": -2.967991417825858,
            "wrist_1_joint": -0.759517768980727,
            "wrist_2_joint": 1.7443932448377408,
            "wrist_3_joint": -3.0840537646736568
        }
    },
    "waypoints": [
        {
            "positions": [
                -2.967991417825858,
                -0.9740617694225068,
                1.7527959577737207,
                -0.759517768980727,
                1.7443932448377408,
                -3.0840537646736568
            ]
        },
        {
            "positions": [
                -2.9423313297065703,
                -0.9420609357778605,
                1.6539211109868992,
                -0.694070550871762,
                1.61355081798144,
                -3.0881904483827354
            ]
        },
        {
            "positions": [
                -2.916671241587283,
                -0.9100601021332143,
                1.5550462642000777,
                -0.628623332762797,
                1.482708391125139,
                -3.0923271320918135
            ]
        },
        {
            "positions": [
                -2.8910111534679954,
                -0.8780592684885681,
                1.4561714174132563,
                -0.5631761146538321,
                1.3518659642688384,
                -3.096463815800892
            ]
        },
        {
            "positions": [
                -2.8653510653487078,
                -0.8460584348439217,
                1.3572965706264348,
                -0.49772889654486707,
                1.2210235374125373,
                -3.1006004995099703
            ]
        },
        {
            "positions": [
                -2.83969097722942,
                -0.8140576011992755,
                1.2584217238396134,
                -0.4322816784359021,
                1.0901811105562367,
                -3.104737183219049
            ]
        },
        {
            "positions": [
                -2.814030889110133,
                -0.7820567675546293,
                1.159546877052792,
                -0.3668344603269371,
                0.9593386836999359,
                -3.1088738669281275
            ]
        },
        {
            "positions": [
                -2.7883708009908452,
                -0.750055933909983,
                1.0606720302659705,
                -0.3013872422179722,
                0.828496256843635,
                -3.1130105506372057
            ]
        },
        {
            "positions": [
                -2.7627107128715576,
                -0.7180551002653368,
                0.9617971834791489,
                -0.23594002410900716,
                0.697653829987334,
                -3.1171472343462843
            ]
        },
        {
            "positions": [
                -2.7370506247522703,
                -0.6860542666206906,
                0.8629223366923274,
                -0.17049280600004213,
                0.5668114031310334,
                -3.1212839180553624
            ]
        },
        {
            "positions": [
                -2.7113905366329827,
                -0.6540534329760443,
                0.764047489905506,
                -0.10504558789107725,
                0.4359689762747326,
                -3.125420601764441
            ]
        }
    ]
}