{
    "goal": {
        "global_pose": {
            "orientation": {
                "w": 0.5084816217422485,
                "x": -0.49083608388900757,
                "y": 0.5182115435600281,
                "z": -0.4816462993621826
            },
            "position": {
                "x": 0.5540239810943604,
                "y": 0.030875300988554955,
                "z": 0.16403168439865112
            }
        },
        "name": "move_to_storage_A"
    },
    "id": "BiEST_move_to_storage_A_36",
    "joint_names": [
        "shoulder_pan_joint",
        "shoulder_lift_joint",
        "elbow_joint",
        "wrist_1_joint",
        "wrist_2_joint",
        "wrist_3_joint"
    ],
    "metrics": {
        "cart_traj_len": 0.35280928399074957,
        "distance_elbow_joint": 0.4491146045349834,
        "distance_shoulder_lift_joint": 0.23475215593959442,
        "distance_shoulder_pan_joint": 0.4574353246956971,
        "distance_wrist_1_joint": 0.2424616726401404,
        "distance_wrist_2_joint": 1.1149162985143766,
        "distance_wrist_3_joint": 0.10699503865157967,
        "smoothness": 8.881784232165597e-16,
        "time": 0.055139192000000004,
        "traj_len": 1.614210362677793,
        "weighted_distance": 2.043781579189432
    },
    "planner": "BiEST",
    "start": {
        "state": {
            "elbow_joint": 1.971548259319323,
            "shoulder_lift_joint": -1.1394851275133948,
            "shoulder_pan_joint": 0.1228115487234821,
            "wrist_1_joint": -0.7804723859257726,
            "wrist_2_joint": 0.12958671773740124,
            "wrist_3_joint": -3.192489227718131
        }
    },
    "waypoints": [
        {
            "positions": [
                0.1228115487234821,
                -1.1394851275133948,
                1.971548259319323,
                -0.7804723859257726,
                0.12958671773740124,
                -3.192489227718131
            ]
        },
        {
            "positions": [
                0.05746364519552538,
                -1.1730211497904797,
                2.0357074885386064,
                -0.815109767731507,
                0.28886047466802645,
                -3.177204222196477
            ]
        },
        {
            "positions": [
                -0.007884258332431338,
                -1.2065571720675647,
                2.0998667177578896,
                -0.8497471495372413,
                0.4481342315986516,
                -3.1619192166748227
            ]
        },
        {
            "positions": [
                -0.07323216186038806,
                -1.2400931943446496,
                2.164025946977173,
                -0.8843845313429757,
                0.6074079885292769,
                -3.1466342111531684
            ]
        },
        {
            "positions": [
                -0.13858006538834478,
                -1.2736292166217345,
                2.2281851761964564,
                -0.91902191314871,
                0.7666817454599021,
                -3.131349205631514
            ]
        },
        {
            "positions": [
                -0.20392796891630155,
                -1.3071652388988193,
                2.2923444054157396,
                -0.9536592949544443,
                0.9259555023905274,
                -3.11606420010986
            ]
        },
        {
            "positions": [
                -0.2692758724442582,
                -1.3407012611759044,
                2.356503634635023,
                -0.9882966767601786,
                1.0852292593211526,
                -3.1007791945882057
            ]
        },
        {
            "positions": [
                -0.334623775972215,
                -1.3742372834529892,
                2.4206628638543064,
                -1.022934058565913,
                1.2445030162517778,
                -3.0854941890665515
            ]
        }
    ]
}{
    "goal": {
        "global_pose": {
            "orientation": {
                "w": 0.5084816217422485,
                "x": -0.49083608388900757,
                "y": 0.5182115435600281,
                "z": -0.4816462993621826
            },
            "position": {
                "x": 0.5540239810943604,
                "y": 0.030875300988554955,
                "z": 0.16403168439865112
            }
        },
        "name": "move_to_storage_A"
    },
    "id": "BiEST_move_to_storage_A_36",
    "joint_names": [
        "shoulder_pan_joint",
        "shoulder_lift_joint",
        "elbow_joint",
        "wrist_1_joint",
        "wrist_2_joint",
        "wrist_3_joint"
    ],
    "metrics": {
        "cart_traj_len": 0.3536044760381378,
        "distance_elbow_joint": 0.4528933692693631,
        "distance_shoulder_lift_joint": 0.23553967617733895,
        "distance_shoulder_pan_joint": 0.4604699786605005,
        "distance_wrist_1_joint": 0.256569605087698,
        "distance_wrist_2_joint": 1.1086239577916728,
        "distance_wrist_3_joint": 0.0974850258099269,
        "smoothness": 4.440892098500626e-16,
        "time": 0.050773111999999995,
        "traj_len": 1.6160388648781008,
        "weighted_distance": 2.042485061706872
    },
    "planner": "BiEST",
    "start": {
        "state": {
            "elbow_joint": 1.97154746011099,
            "shoulder_lift_joint": -1.13948474672311,
            "shoulder_pan_joint": 0.12281154466712228,
            "wrist_1_joint": -0.7804688027058302,
            "wrist_2_joint": 0.12958655903071145,
            "wrist_3_joint": 3.0906928834467795
        }
    },
    "waypoints": [
        {
            "positions": [
                0.12281154466712228,
                -1.13948474672311,
                1.97154746011099,
                -0.7804688027058302,
                0.12958655903071145,
                3.0906928834467795
            ]
        },
        {
            "positions": [
                0.05703011914419365,
                -1.1731332718913012,
                2.036246512863756,
                -0.8171216034326442,
                0.28796141014380755,
                3.1046193157053406
            ]
        },
        {
            "positions": [
                -0.008751306378734988,
                -1.2067817970594925,
                2.1009455656165223,
                -0.8537744041594582,
                0.4463362612569036,
                3.1185457479639016
            ]
        },
        {
            "positions": [
                -0.07453273190166364,
                -1.2404303222276838,
                2.1656446183692886,
                -0.8904272048862721,
                0.6047111123699997,
                3.1324721802224627
            ]
        },
        {
            "positions": [
                -0.14031415742459225,
                -1.274078847395875,
                2.2303436711220543,
                -0.9270800056130861,
                0.7630859634830959,
                3.1463986124810233
            ]
        },
        {
            "positions": [
                -0.2060955829475209,
                -1.3077273725640663,
                2.2950427238748206,
                -0.9637328063399002,
                0.921460814596192,
                3.1603250447395843
            ]
        },
        {
            "positions": [
                -0.27187700847044954,
                -1.3413758977322576,
                2.3597417766275868,
                -1.000385607066714,
                1.079835665709288,
                3.1742514769981454
            ]
        },
        {
            "positions": [
                -0.3376584339933782,
                -1.375024422900449,
                2.424440829380353,
                -1.0370384077935282,
                1.2382105168223843,
                3.1881779092567064
            ]
        }
    ]
}{
    "goal": {
        "global_pose": {
            "orientation": {
                "w": 0.5084816217422485,
                "x": -0.49083608388900757,
                "y": 0.5182115435600281,
                "z": -0.4816462993621826
            },
            "position": {
                "x": 0.5540239810943604,
                "y": 0.030875300988554955,
                "z": 0.16403168439865112
            }
        },
        "name": "move_to_storage_A"
    },
    "id": "BiEST_move_to_storage_A_36",
    "joint_names": [
        "shoulder_pan_joint",
        "shoulder_lift_joint",
        "elbow_joint",
        "wrist_1_joint",
        "wrist_2_joint",
        "wrist_3_joint"
    ],
    "metrics": {
        "cart_traj_len": 0.3525617608598961,
        "distance_elbow_joint": 0.4541610188684668,
        "distance_shoulder_lift_joint": 0.234190156727335,
        "distance_shoulder_pan_joint": 0.45665339793326937,
        "distance_wrist_1_joint": 0.26061549323471356,
        "distance_wrist_2_joint": 1.1170296093327963,
        "distance_wrist_3_joint": 0.10444258735069756,
        "smoothness": 2.2204460668324854e-16,
        "time": 0.070602166,
        "traj_len": 1.6208307325094988,
        "weighted_distance": 2.052711022213352
    },
    "planner": "BiEST",
    "start": {
        "state": {
            "elbow_joint": 1.9715472970024885,
            "shoulder_lift_joint": -1.1394870060712896,
            "shoulder_pan_joint": 0.12281152778156021,
            "wrist_1_joint": -0.780463741449964,
            "wrist_2_joint": 0.12958659822042276,
            "wrist_3_joint": 3.090690232415272
        }
    },
    "waypoints": [
        {
            "positions": [
                0.12281152778156021,
                -1.1394870060712896,
                1.9715472970024885,
                -0.780463741449964,
                0.12958659822042276,
                3.090690232415272
            ]
        },
        {
            "positions": [
                0.05757532807680746,
                -1.1729427427466232,
                2.0364274425551265,
                -0.8176945261977803,
                0.2891622566965365,
                3.1056106020368
            ]
        },
        {
            "positions": [
                -0.007660871627945293,
                -1.2063984794219567,
                2.101307588107765,
                -0.8549253109455964,
                0.44873791517265027,
                3.1205309716583285
            ]
        },
        {
            "positions": [
                -0.07289707133269804,
                -1.2398542160972903,
                2.166187733660403,
                -0.8921560956934127,
                0.608313573648764,
                3.1354513412798566
            ]
        },
        {
            "positions": [
                -0.1381332710374508,
                -1.273309952772624,
                2.231067879213041,
                -0.9293868804412289,
                0.7678892321248777,
                3.1503717109013847
            ]
        },
        {
            "positions": [
                -0.2033694707422036,
                -1.3067656894479576,
                2.2959480247656794,
                -0.9666176651890451,
                0.9274648906009915,
                3.1652920805229128
            ]
        },
        {
            "positions": [
                -0.26860567044695627,
                -1.340221426123291,
                2.3608281703183174,
                -1.0038484499368614,
                1.0870405490771053,
                3.1802124501444413
            ]
        },
        {
            "positions": [
                -0.33384187015170913,
                -1.3736771627986246,
                2.4257083158709554,
                -1.0410792346846776,
                1.246616207553219,
                3.1951328197659694
            ]
        }
    ]
}