{
    "goal": {
        "global_pose": {
            "orientation": {
                "w": 0.005598929693374612,
                "x": 0.007748599140229565,
                "y": 0.7110244013736278,
                "z": -0.7031023480610252
            },
            "position": {
                "x": -0.8858502320852131,
                "y": -0.7141253447532654,
                "z": 0.3711530566215515
            }
        },
        "name": "move_to_auspresseinheit_C"
    },
    "id": "BiEST_move_to_auspresseinheit_C_143",
    "joint_names": [
        "shoulder_pan_joint",
        "shoulder_lift_joint",
        "elbow_joint",
        "wrist_1_joint",
        "wrist_2_joint",
        "wrist_3_joint"
    ],
    "metrics": {
        "cart_traj_len": 0.4924674788409245,
        "distance_elbow_joint": 0.9935839434593615,
        "distance_shoulder_lift_joint": 0.32187295806906213,
        "distance_shoulder_pan_joint": 0.25570948216801614,
        "distance_wrist_1_joint": 0.6621565287000395,
        "distance_wrist_2_joint": 1.316160048927454,
        "distance_wrist_3_joint": 0.0439370315196741,
        "smoothness": 1.6148698667872622e-16,
        "time": 0.050965783,
        "traj_len": 1.895631818904612,
        "weighted_distance": 2.3789936177952327
    },
    "planner": "BiEST",
    "start": {
        "state": {
            "elbow_joint": 1.7527959577737207,
            "shoulder_lift_joint": -0.9740617694225068,
            "shoulder_pan_joint": -2.967991417825858,
            "wrist_1_joint": -0.759517768980727,
            "wrist_2_joint": 1.7443932448377408,
            "wrist_3_joint": -3.0840537646736568
        }
    },
    "waypoints": [
        {
            "positions": [
                -2.967991417825858,
                -0.9740617694225068,
                1.7527959577737207,
                -0.759517768980727,
                1.7443932448377408,
                -3.0840537646736568
            ]
        },
        {
            "positions": [
                -2.9424204696090563,
                -0.9418744736156006,
                1.6534375634277845,
                -0.693302116110723,
                1.6127772399449953,
                -3.088447467825624
            ]
        },
        {
            "positions": [
                -2.9168495213922547,
                -0.9096871778086943,
                1.5540791690818483,
                -0.627086463240719,
                1.48116123505225,
                -3.0928411709775916
            ]
        },
        {
            "positions": [
                -2.891278573175453,
                -0.8774998820017881,
                1.4547207747359123,
                -0.5608708103707152,
                1.3495452301595046,
                -3.0972348741295592
            ]
        },
        {
            "positions": [
                -2.8657076249586515,
                -0.8453125861948819,
                1.355362380389976,
                -0.49465515750071115,
                1.2179292252667593,
                -3.1016285772815264
            ]
        },
        {
            "positions": [
                -2.84013667674185,
                -0.8131252903879758,
                1.25600398604404,
                -0.42843950463070724,
                1.0863132203740138,
                -3.1060222804334936
            ]
        },
        {
            "positions": [
                -2.8145657285250483,
                -0.7809379945810695,
                1.1566455916981038,
                -0.3622238517607033,
                0.9546972154812684,
                -3.1104159835854612
            ]
        },
        {
            "positions": [
                -2.7889947803082467,
                -0.7487506987741633,
                1.0572871973521676,
                -0.29600819889069935,
                0.823081210588523,
                -3.1148096867374284
            ]
        },
        {
            "positions": [
                -2.763423832091445,
                -0.7165634029672571,
                0.9579288030062314,
                -0.22979254602069532,
                0.6914652056957775,
                -3.119203389889396
            ]
        },
        {
            "positions": [
                -2.7378528838746434,
                -0.6843761071603509,
                0.8585704086602953,
                -0.16357689315069146,
                0.559849200803032,
                -3.1235970930413632
            ]
        },
        {
            "positions": [
                -2.712281935657842,
                -0.6521888113534446,
                0.7592120143143591,
                -0.09736124028068745,
                0.42823319591028675,
                -3.127990796193331
            ]
        }
    ]
}