{
    "goal": {
        "global_pose": {
            "orientation": {
                "w": -0.4816463035849501,
                "x": 0.5182115481033762,
                "y": 0.4908360881923453,
                "z": -0.5084816262002911
            },
            "position": {
                "x": -0.8240239810943604,
                "y": 0.19912469901144506,
                "z": 0.16403168439865112
            }
        },
        "name": "move_to_storage_D"
    },
    "id": "BiEST_move_to_storage_D_98",
    "joint_names": [
        "shoulder_pan_joint",
        "shoulder_lift_joint",
        "elbow_joint",
        "wrist_1_joint",
        "wrist_2_joint",
        "wrist_3_joint"
    ],
    "metrics": {
        "cart_traj_len": 0.5797241765998641,
        "distance_elbow_joint": 0.5740985656817266,
        "distance_shoulder_lift_joint": 0.1518799748434252,
        "distance_shoulder_pan_joint": 0.15259332814405618,
        "distance_wrist_1_joint": 3.991509184001814,
        "distance_wrist_2_joint": 1.7734373956626752,
        "distance_wrist_3_joint": 3.1164082388468564,
        "smoothness": 0.18844968845766435,
        "time": 0.11622932,
        "traj_len": 3.1240881369098017,
        "weighted_distance": 4.664513880838898
    },
    "planner": "BiEST",
    "start": {
        "state": {
            "elbow_joint": -2.384821988534728,
            "shoulder_lift_joint": -2.2788054721415256,
            "shoulder_pan_joint": -0.1854694642142757,
            "wrist_1_joint": 1.4845938289331202,
            "wrist_2_joint": 0.17898776772866878,
            "wrist_3_joint": 0.037105688729662994
        }
    },
    "waypoints": [
        {
            "positions": [
                -0.1854694642142757,
                -2.2788054721415256,
                -2.384821988534728,
                1.4845938289331202,
                0.17898776772866878,
                0.037105688729662994
            ]
        },
        {
            "positions": [
                -0.15423937509471342,
                -2.24476847533317,
                -2.389185704755217,
                1.5237033921960157,
                0.09522591656867602,
                0.007352809935840948
            ]
        },
        {
            "positions": [
                -0.1230092859751511,
                -2.2107314785248144,
                -2.393549420975706,
                1.5628129554589112,
                0.011464065408683236,
                -0.022400068857981098
            ]
        },
        {
            "positions": [
                -0.11925373806244562,
                -2.207239562640368,
                -2.3699922904240083,
                1.3997592030640769,
                -0.05544900514726217,
                -0.14977100557711492
            ]
        },
        {
            "positions": [
                -0.11549819014974014,
                -2.2037476467559216,
                -2.34643515987231,
                1.2367054506692425,
                -0.12236207570320758,
                -0.2771419422962488
            ]
        },
        {
            "positions": [
                -0.11174264223703466,
                -2.200255730871475,
                -2.3228780293206124,
                1.0736516982744084,
                -0.18927514625915298,
                -0.4045128790153826
            ]
        },
        {
            "positions": [
                -0.10798709432432918,
                -2.1967638149870288,
                -2.2993208987689147,
                0.9105979458795741,
                -0.2561882168150984,
                -0.5318838157345164
            ]
        },
        {
            "positions": [
                -0.10423154641162369,
                -2.1932718991025824,
                -2.275763768217217,
                0.7475441934847397,
                -0.3231012873710438,
                -0.6592547524536503
            ]
        },
        {
            "positions": [
                -0.10047599849891822,
                -2.189779983218136,
                -2.2522066376655188,
                0.5844904410899054,
                -0.39001435792698924,
                -0.7866256891727841
            ]
        },
        {
            "positions": [
                -0.09672045058621273,
                -2.1862880673336895,
                -2.228649507113821,
                0.4214366886950711,
                -0.45692742848293466,
                -0.913996625891918
            ]
        },
        {
            "positions": [
                -0.09296490267350727,
                -2.182796151449243,
                -2.2050923765621233,
                0.258382936300237,
                -0.52384049903888,
                -1.0413675626110517
            ]
        },
        {
            "positions": [
                -0.08920935476080177,
                -2.1793042355647967,
                -2.181535246010425,
                0.09532918390540246,
                -0.5907535695948254,
                -1.1687384993301857
            ]
        },
        {
            "positions": [
                -0.0854538068480963,
                -2.1758123196803503,
                -2.1579781154587274,
                -0.06772456848943187,
                -0.6576666401507708,
                -1.2961094360493195
            ]
        },
        {
            "positions": [
                -0.08169825893539082,
                -2.172320403795904,
                -2.1344209849070297,
                -0.23077832088426598,
                -0.7245797107067162,
                -1.4234803727684533
            ]
        },
        {
            "positions": [
                -0.07794271102268534,
                -2.1688284879114574,
                -2.1108638543553315,
                -0.3938320732791003,
                -0.7914927812626616,
                -1.550851309487587
            ]
        },
        {
            "positions": [
                -0.07418716310997986,
                -2.165336572027011,
                -2.087306723803634,
                -0.5568858256739344,
                -0.858405851818607,
                -1.678222246206721
            ]
        },
        {
            "positions": [
                -0.07043161519727437,
                -2.1618446561425646,
                -2.063749593251936,
                -0.719939578068769,
                -0.9253189223745525,
                -1.805593182925855
            ]
        },
        {
            "positions": [
                -0.0666760672845689,
                -2.158352740258118,
                -2.0401924627002384,
                -0.8829933304636031,
                -0.9922319929304979,
                -1.9329641196449885
            ]
        },
        {
            "positions": [
                -0.06292051937186342,
                -2.1548608243736718,
                -2.01663533214854,
                -1.0460470828584372,
                -1.0591450634864432,
                -2.0603350563641225
            ]
        },
        {
            "positions": [
                -0.05916497145915793,
                -2.1513689084892254,
                -1.9930782015968425,
                -1.2091008352532717,
                -1.1260581340423887,
                -2.1877059930832568
            ]
        },
        {
            "positions": [
                -0.05540942354645245,
                -2.147876992604779,
                -1.9695210710451447,
                -1.3721545876481063,
                -1.192971204598334,
                -2.3150769298023905
            ]
        },
        {
            "positions": [
                -0.05165387563374699,
                -2.1443850767203325,
                -1.9459639404934468,
                -1.5352083400429404,
                -1.2598842751542794,
                -2.442447866521524
            ]
        },
        {
            "positions": [
                -0.047898327721041495,
                -2.140893160835886,
                -1.9224068099417488,
                -1.698262092437775,
                -1.326797345710225,
                -2.569818803240658
            ]
        },
        {
            "positions": [
                -0.044142779808336016,
                -2.1374012449514397,
                -1.8988496793900511,
                -1.861315844832609,
                -1.3937104162661704,
                -2.697189739959792
            ]
        },
        {
            "positions": [
                -0.04038723189563054,
                -2.1339093290669933,
                -1.8752925488383534,
                -2.024369597227443,
                -1.4606234868221157,
                -2.8245606766789257
            ]
        },
        {
            "positions": [
                -0.03663168398292506,
                -2.130417413182547,
                -1.8517354182866552,
                -2.1874233496222777,
                -1.5275365573780613,
                -2.9519316133980595
            ]
        },
        {
            "positions": [
                -0.03287613607021957,
                -2.1269254972981004,
                -1.8281782877349575,
                -2.350477102017112,
                -1.5944496279340066,
                -3.0793025501171933
            ]
        }
    ]
}