{
    "goal": {
        "global_pose": {
            "orientation": {
                "w": 0.5084816217422485,
                "x": -0.49083608388900757,
                "y": 0.5182115435600281,
                "z": -0.4816462993621826
            },
            "position": {
                "x": 0.5540239810943604,
                "y": 0.030875300988554955,
                "z": 0.16403168439865112
            }
        },
        "name": "move_to_storage_A"
    },
    "id": "BiEST_move_to_storage_A_26",
    "joint_names": [
        "shoulder_pan_joint",
        "shoulder_lift_joint",
        "elbow_joint",
        "wrist_1_joint",
        "wrist_2_joint",
        "wrist_3_joint"
    ],
    "metrics": {
        "cart_traj_len": 0.35330224137375194,
        "distance_elbow_joint": 0.4532205288929332,
        "distance_shoulder_lift_joint": 0.23305160927658863,
        "distance_shoulder_pan_joint": 0.4640044781672588,
        "distance_wrist_1_joint": 0.25584143022208583,
        "distance_wrist_2_joint": 1.0904764460067442,
        "distance_wrist_3_joint": 0.09377102178199648,
        "smoothness": 6.661338165333112e-16,
        "time": 0.063794747,
        "traj_len": 1.6094612497191745,
        "weighted_distance": 2.030818907273721
    },
    "planner": "BiEST",
    "start": {
        "state": {
            "elbow_joint": 1.971548259319323,
            "shoulder_lift_joint": -1.1394851275133948,
            "shoulder_pan_joint": 0.1228115487234821,
            "wrist_1_joint": -0.7804723859257726,
            "wrist_2_joint": 0.12958671773740124,
            "wrist_3_joint": -3.192489227718131
        }
    },
    "waypoints": [
        {
            "positions": [
                0.1228115487234821,
                -1.1394851275133948,
                1.971548259319323,
                -0.7804723859257726,
                0.12958671773740124,
                -3.192489227718131
            ]
        },
        {
            "positions": [
                0.056525194699587986,
                -1.1727782145529075,
                2.0362940491611705,
                -0.8170211616717848,
                0.2853690671669361,
                -3.1790933674635604
            ]
        },
        {
            "positions": [
                -0.009761159324306129,
                -1.20607130159242,
                2.1010398390030183,
                -0.8535699374177972,
                0.44115141659647095,
                -3.1656975072089892
            ]
        },
        {
            "positions": [
                -0.07604751334820023,
                -1.2393643886319328,
                2.1657856288448656,
                -0.8901187131638094,
                0.5969337660260059,
                -3.1523016469544185
            ]
        },
        {
            "positions": [
                -0.14233386737209436,
                -1.2726574756714455,
                2.2305314186867133,
                -0.9266674889098216,
                0.7527161154555407,
                -3.1389057866998473
            ]
        },
        {
            "positions": [
                -0.20862022139598851,
                -1.3059505627109582,
                2.295277208528561,
                -0.963216264655834,
                0.9084984648850757,
                -3.1255099264452766
            ]
        },
        {
            "positions": [
                -0.27490657541988256,
                -1.3392436497504707,
                2.3600229983704084,
                -0.9997650404018461,
                1.0642808143146105,
                -3.1121140661907054
            ]
        },
        {
            "positions": [
                -0.3411929294437767,
                -1.3725367367899834,
                2.424768788212256,
                -1.0363138161478584,
                1.2200631637441455,
                -3.0987182059361347
            ]
        }
    ]
}{
    "goal": {
        "global_pose": {
            "orientation": {
                "w": 0.5084816217422485,
                "x": -0.49083608388900757,
                "y": 0.5182115435600281,
                "z": -0.4816462993621826
            },
            "position": {
                "x": 0.5540239810943604,
                "y": 0.030875300988554955,
                "z": 0.16403168439865112
            }
        },
        "name": "move_to_storage_A"
    },
    "id": "BiEST_move_to_storage_A_26",
    "joint_names": [
        "shoulder_pan_joint",
        "shoulder_lift_joint",
        "elbow_joint",
        "wrist_1_joint",
        "wrist_2_joint",
        "wrist_3_joint"
    ],
    "metrics": {
        "cart_traj_len": 0.35335296839904934,
        "distance_elbow_joint": 0.4527368533945908,
        "distance_shoulder_lift_joint": 0.23233727010913352,
        "distance_shoulder_pan_joint": 0.4621768384197247,
        "distance_wrist_1_joint": 0.2545437340558063,
        "distance_wrist_2_joint": 1.098389103956381,
        "distance_wrist_3_joint": 0.0950308687787702,
        "smoothness": 4.440892133664971e-16,
        "time": 0.06150224,
        "traj_len": 1.6109669980215007,
        "weighted_distance": 2.034258893131387
    },
    "planner": "BiEST",
    "start": {
        "state": {
            "elbow_joint": 1.97154746011099,
            "shoulder_lift_joint": -1.13948474672311,
            "shoulder_pan_joint": 0.12281154466712228,
            "wrist_1_joint": -0.7804688027058302,
            "wrist_2_joint": 0.12958655903071145,
            "wrist_3_joint": 3.0906928834467795
        }
    },
    "waypoints": [
        {
            "positions": [
                0.12281154466712228,
                -1.13948474672311,
                1.97154746011099,
                -0.7804688027058302,
                0.12958655903071145,
                3.0906928834467795
            ]
        },
        {
            "positions": [
                0.05678628203573305,
                -1.172675785310129,
                2.0362241534530745,
                -0.816832193285231,
                0.2864992881673373,
                3.104268721843747
            ]
        },
        {
            "positions": [
                -0.009238980595656185,
                -1.2058668238971482,
                2.1009008467951586,
                -0.853195583864632,
                0.44341201730396307,
                3.1178445602407137
            ]
        },
        {
            "positions": [
                -0.07526424322704543,
                -1.2390578624841673,
                2.1655775401372432,
                -0.8895589744440329,
                0.600324746440589,
                3.131420398637681
            ]
        },
        {
            "positions": [
                -0.14128950585843464,
                -1.2722489010711862,
                2.2302542334793274,
                -0.9259223650234338,
                0.7572374755772148,
                3.1449962370346483
            ]
        },
        {
            "positions": [
                -0.2073147684898239,
                -1.3054399396582053,
                2.294930926821412,
                -0.9622857556028347,
                0.9141502047138407,
                3.1585720754316156
            ]
        },
        {
            "positions": [
                -0.27334003112121313,
                -1.3386309782452244,
                2.359607620163496,
                -0.9986491461822355,
                1.0710629338504665,
                3.1721479138285824
            ]
        },
        {
            "positions": [
                -0.3393652937526024,
                -1.3718220168322435,
                2.4242843135055807,
                -1.0350125367616365,
                1.2279756629870924,
                3.1857237522255497
            ]
        }
    ]
}{
    "goal": {
        "global_pose": {
            "orientation": {
                "w": 0.5084816217422485,
                "x": -0.49083608388900757,
                "y": 0.5182115435600281,
                "z": -0.4816462993621826
            },
            "position": {
                "x": 0.5540239810943604,
                "y": 0.030875300988554955,
                "z": 0.16403168439865112
            }
        },
        "name": "move_to_storage_A"
    },
    "id": "BiEST_move_to_storage_A_26",
    "joint_names": [
        "shoulder_pan_joint",
        "shoulder_lift_joint",
        "elbow_joint",
        "wrist_1_joint",
        "wrist_2_joint",
        "wrist_3_joint"
    ],
    "metrics": {
        "cart_traj_len": 0.35304184564285734,
        "distance_elbow_joint": 0.4492375789835221,
        "distance_shoulder_lift_joint": 0.23605471298216152,
        "distance_shoulder_pan_joint": 0.4614602558075916,
        "distance_wrist_1_joint": 0.23672788444156545,
        "distance_wrist_2_joint": 1.1003743959655055,
        "distance_wrist_3_joint": 0.0881986495186946,
        "smoothness": 1.3322676295501878e-15,
        "time": 0.048135481,
        "traj_len": 1.6037622884015699,
        "weighted_distance": 2.021275106744132
    },
    "planner": "BiEST",
    "start": {
        "state": {
            "elbow_joint": 1.9715472970024885,
            "shoulder_lift_joint": -1.1394870060712896,
            "shoulder_pan_joint": 0.12281152778156021,
            "wrist_1_joint": -0.780463741449964,
            "wrist_2_joint": 0.12958659822042276,
            "wrist_3_joint": 3.090690232415272
        }
    },
    "waypoints": [
        {
            "positions": [
                0.12281152778156021,
                -1.1394870060712896,
                1.9715472970024885,
                -0.780463741449964,
                0.12958659822042276,
                3.090690232415272
            ]
        },
        {
            "positions": [
                0.05688863409476143,
                -1.1732091079258842,
                2.0357240940001344,
                -0.8142820106559019,
                0.2867829405012092,
                3.103290039489371
            ]
        },
        {
            "positions": [
                -0.009034259592037353,
                -1.2069312097804785,
                2.0999008909977808,
                -0.8481002798618398,
                0.4439792827819957,
                3.11588984656347
            ]
        },
        {
            "positions": [
                -0.07495715327883615,
                -1.240653311635073,
                2.1640776879954267,
                -0.8819185490677778,
                0.6011756250627822,
                3.1284896536375695
            ]
        },
        {
            "positions": [
                -0.14088004696563491,
                -1.2743754134896677,
                2.2282544849930725,
                -0.9157368182737157,
                0.7583719673435687,
                3.141089460711669
            ]
        },
        {
            "positions": [
                -0.20680294065243374,
                -1.3080975153442622,
                2.2924312819907184,
                -0.9495550874796537,
                0.9155683096243552,
                3.153689267785768
            ]
        },
        {
            "positions": [
                -0.2727258343392325,
                -1.3418196171988566,
                2.3566080789883648,
                -0.9833733566855916,
                1.0727646519051417,
                3.166289074859867
            ]
        },
        {
            "positions": [
                -0.33864872802603135,
                -1.3755417190534511,
                2.4207848759860107,
                -1.0171916258915294,
                1.2299609941859282,
                3.1788888819339665
            ]
        }
    ]
}