{
    "goal": {
        "global_pose": {
            "orientation": {
                "w": 0.005598929693374612,
                "x": 0.007748599140229565,
                "y": 0.7110244013736278,
                "z": -0.7031023480610252
            },
            "position": {
                "x": 0.1141497679147869,
                "y": -0.7141253447532654,
                "z": 0.3711530566215515
            }
        },
        "name": "move_to_auspresseinheit_B"
    },
    "id": "BiEST_move_to_auspresseinheit_B_141",
    "joint_names": [
        "shoulder_pan_joint",
        "shoulder_lift_joint",
        "elbow_joint",
        "wrist_1_joint",
        "wrist_2_joint",
        "wrist_3_joint"
    ],
    "metrics": {
        "cart_traj_len": 0.5652766160865724,
        "distance_elbow_joint": 0.06565004645472494,
        "distance_shoulder_lift_joint": 0.29463566176344314,
        "distance_shoulder_pan_joint": 0.5769996960097519,
        "distance_wrist_1_joint": 0.3374592818034087,
        "distance_wrist_2_joint": 0.9967841080814963,
        "distance_wrist_3_joint": 0.007868546094700779,
        "smoothness": 0.0,
        "time": 0.061236175,
        "traj_len": 1.509767313266361,
        "weighted_distance": 1.9050926020227552
    },
    "planner": "BiEST",
    "start": {
        "state": {
            "elbow_joint": 2.0193083361928714,
            "shoulder_lift_joint": -1.1220246554650708,
            "shoulder_pan_joint": -1.0952077554168747,
            "wrist_1_joint": -0.8559753972642168,
            "wrist_2_joint": 0.4759566250798843,
            "wrist_3_joint": -3.1240929996934557
        }
    },
    "waypoints": [
        {
            "positions": [
                -1.0952077554168747,
                -1.1220246554650708,
                2.0193083361928714,
                -0.8559753972642168,
                0.4759566250798843,
                -3.1240929996934557
            ]
        },
        {
            "positions": [
                -1.1913743714184999,
                -1.1711305990923113,
                2.0083666617837506,
                -0.7997321836303153,
                0.6420873097601336,
                -3.122781575344339
            ]
        },
        {
            "positions": [
                -1.2875409874201253,
                -1.2202365427195518,
                1.9974249873746297,
                -0.7434889699964139,
                0.8082179944403831,
                -3.121470150995222
            ]
        },
        {
            "positions": [
                -1.3837076034217506,
                -1.2693424863467924,
                1.9864833129655088,
                -0.6872457563625125,
                0.9743486791206324,
                -3.120158726646105
            ]
        },
        {
            "positions": [
                -1.4798742194233758,
                -1.3184484299740329,
                1.9755416385563882,
                -0.631002542728611,
                1.1404793638008819,
                -3.1188473022969885
            ]
        },
        {
            "positions": [
                -1.5760408354250013,
                -1.3675543736012734,
                1.9645999641472673,
                -0.5747593290947095,
                1.3066100484811312,
                -3.117535877947872
            ]
        },
        {
            "positions": [
                -1.6722074514266265,
                -1.416660317228514,
                1.9536582897381465,
                -0.5185161154608081,
                1.4727407331613807,
                -3.116224453598755
            ]
        }
    ]
}