{
    "goal": {
        "global_pose": {
            "orientation": {
                "w": -0.00223480608172531,
                "x": 0.0024358444001904467,
                "y": 0.7094548369677653,
                "z": -0.704743149386269
            },
            "position": {
                "x": -0.37947507619857795,
                "y": -0.6371506643295288,
                "z": 0.19426114857196808
            }
        },
        "name": "move_to_magneteinheit_C"
    },
    "id": "BiEST_move_to_magneteinheit_C_85",
    "joint_names": [
        "shoulder_pan_joint",
        "shoulder_lift_joint",
        "elbow_joint",
        "wrist_1_joint",
        "wrist_2_joint",
        "wrist_3_joint"
    ],
    "metrics": {
        "cart_traj_len": 0.71627594429739,
        "distance_elbow_joint": 0.9208573859571025,
        "distance_shoulder_lift_joint": 0.8380414737223334,
        "distance_shoulder_pan_joint": 1.0424863651874106,
        "distance_wrist_1_joint": 0.5518258003730132,
        "distance_wrist_2_joint": 1.1901449451474237,
        "distance_wrist_3_joint": 1.6612523267177526,
        "smoothness": 1.2787536585406922,
        "time": 0.049680014,
        "traj_len": 2.4909051160381512,
        "weighted_distance": 3.3569455902741376
    },
    "planner": "BiEST",
    "start": {
        "state": {
            "elbow_joint": 1.9565354010623817,
            "shoulder_lift_joint": -1.4165861575791021,
            "shoulder_pan_joint": -1.6717766225146293,
            "wrist_1_joint": -0.5286633292919765,
            "wrist_2_joint": 1.472756589071564,
            "wrist_3_joint": -3.1238370188695823
        }
    },
    "waypoints": [
        {
            "positions": [
                -1.6717766225146293,
                -1.4165861575791021,
                1.9565354010623817,
                -0.5286633292919765,
                1.472756589071564,
                -3.1238370188695823
            ]
        },
        {
            "positions": [
                -1.7640027158105367,
                -1.4458535453824322,
                2.0052586720566974,
                -0.5711985862794662,
                1.3732208563074675,
                -3.0419653998443104
            ]
        },
        {
            "positions": [
                -1.856228809106444,
                -1.4751209331857622,
                2.0539819430510127,
                -0.613733843266956,
                1.273685123543371,
                -2.960093780819038
            ]
        },
        {
            "positions": [
                -1.9484549024023514,
                -1.5043883209890923,
                2.1027052140453284,
                -0.6562691002544457,
                1.1741493907792744,
                -2.878222161793766
            ]
        },
        {
            "positions": [
                -2.040680995698259,
                -1.5336557087924223,
                2.1514284850396437,
                -0.6988043572419356,
                1.074613658015178,
                -2.796350542768494
            ]
        },
        {
            "positions": [
                -2.132907088994166,
                -1.5629230965957523,
                2.2001517560339594,
                -0.7413396142294253,
                0.9750779252510815,
                -2.714478923743222
            ]
        },
        {
            "positions": [
                -2.2251331822900737,
                -1.5921904843990822,
                2.248875027028275,
                -0.783874871216915,
                0.875542192486985,
                -2.6326073047179497
            ]
        },
        {
            "positions": [
                -2.317359275585981,
                -1.6214578722024122,
                2.2975982980225904,
                -0.8264101282044047,
                0.7760064597228885,
                -2.5507356856926777
            ]
        },
        {
            "positions": [
                -2.4095853688818885,
                -1.6507252600057423,
                2.346321569016906,
                -0.8689453851918947,
                0.676470726958792,
                -2.4688640666674058
            ]
        },
        {
            "positions": [
                -2.5018114621777956,
                -1.6799926478090723,
                2.3950448400112214,
                -0.9114806421793844,
                0.5769349941946954,
                -2.3869924476421334
            ]
        },
        {
            "positions": [
                -2.594037555473703,
                -1.7092600356124024,
                2.443768111005537,
                -0.9540158991668741,
                0.47739926143059896,
                -2.3051208286168614
            ]
        },
        {
            "positions": [
                -2.5739999834356473,
                -1.6183654363308968,
                2.3714973316698793,
                -0.9329370274171882,
                0.5098638643483421,
                -2.4455435180277
            ]
        },
        {
            "positions": [
                -2.553962411397591,
                -1.5274708370493912,
                2.2992265523342215,
                -0.9118581556675023,
                0.5423284672660852,
                -2.5859662074385388
            ]
        },
        {
            "positions": [
                -2.5339248393595346,
                -1.436576237767886,
                2.2269557729985636,
                -0.8907792839178164,
                0.5747930701838284,
                -2.726388896849377
            ]
        },
        {
            "positions": [
                -2.5138872673214787,
                -1.3456816384863803,
                2.154684993662906,
                -0.8697004121681304,
                0.6072576731015715,
                -2.8668115862602157
            ]
        },
        {
            "positions": [
                -2.493849695283423,
                -1.2547870392048748,
                2.082414214327248,
                -0.8486215404184445,
                0.6397222760193146,
                -3.0072342756710544
            ]
        },
        {
            "positions": [
                -2.4738121232453665,
                -1.1638924399233692,
                2.01014343499159,
                -0.8275426686687586,
                0.6721868789370578,
                -3.147656965081893
            ]
        }
    ]
}