{
    "goal": {
        "global_pose": {
            "orientation": {
                "w": 0.7047431493862688,
                "x": -0.7094548369677653,
                "y": 0.0024358444001904,
                "z": -0.0022348060817251984
            },
            "position": {
                "x": -0.39052492380142206,
                "y": 0.3671506643295288,
                "z": 0.19426114857196808
            }
        },
        "name": "move_to_magneteinheit_D"
    },
    "id": "BiEST_move_to_magneteinheit_D_114",
    "joint_names": [
        "shoulder_pan_joint",
        "shoulder_lift_joint",
        "elbow_joint",
        "wrist_1_joint",
        "wrist_2_joint",
        "wrist_3_joint"
    ],
    "metrics": {
        "cart_traj_len": 4.569654353582532,
        "distance_elbow_joint": 4.641670437812763,
        "distance_shoulder_lift_joint": 1.7019981361199192,
        "distance_shoulder_pan_joint": 3.1104396509632046,
        "distance_wrist_1_joint": 1.6371739892406747,
        "distance_wrist_2_joint": 1.8652574339012595,
        "distance_wrist_3_joint": 3.8529596051305983,
        "smoothness": 0.5298654825673387,
        "time": 0.2185114,
        "traj_len": 4.099938932858442,
        "weighted_distance": 5.293189009148601
    },
    "planner": "BiEST",
    "start": {
        "state": {
            "elbow_joint": 0.749534889911806,
            "shoulder_lift_joint": -0.6476975780787326,
            "shoulder_pan_joint": -2.711696901376241,
            "wrist_1_joint": -0.07506478083263063,
            "wrist_2_joint": 0.43296659715538205,
            "wrist_3_joint": -3.14703540197715
        }
    },
    "waypoints": [
        {
            "positions": [
                -2.711696901376241,
                -0.6476975780787326,
                0.749534889911806,
                -0.07506478083263063,
                0.43296659715538205,
                -3.14703540197715
            ]
        },
        {
            "positions": [
                -2.720009838857386,
                -0.683213374292502,
                0.8123728413055745,
                -0.09216434904768417,
                0.4829008234155209,
                -3.0318844608214017
            ]
        },
        {
            "positions": [
                -2.728322776338531,
                -0.7187291705062713,
                0.875210792699343,
                -0.10926391726273772,
                0.5328350496756598,
                -2.9167335196656534
            ]
        },
        {
            "positions": [
                -2.736635713819676,
                -0.7542449667200406,
                0.9380487440931116,
                -0.12636348547779128,
                0.5827692759357985,
                -2.801582578509905
            ]
        },
        {
            "positions": [
                -2.737307403539625,
                -0.7865802573363436,
                0.9752719045400083,
                -0.12195752992070698,
                0.6198344615271941,
                -2.692700489991987
            ]
        },
        {
            "positions": [
                -2.7379790932595744,
                -0.8189155479526465,
                1.0124950649869051,
                -0.11755157436362268,
                0.6568996471185897,
                -2.5838184014740686
            ]
        },
        {
            "positions": [
                -2.7178956902334526,
                -0.8718094415895399,
                1.0252106954161402,
                -0.0676514445839478,
                0.6969565333980063,
                -2.3967595875676118
            ]
        },
        {
            "positions": [
                -2.6978122872073307,
                -0.9247033352264332,
                1.0379263258453753,
                -0.017751314804272916,
                0.737013419677423,
                -2.2097007736611545
            ]
        },
        {
            "positions": [
                -2.677728884181209,
                -0.9775972288633266,
                1.05064195627461,
                0.03214881497540195,
                0.7770703059568396,
                -2.0226419597546976
            ]
        },
        {
            "positions": [
                -2.657645481155087,
                -1.03049112250022,
                1.0633575867038452,
                0.08204894475507685,
                0.8171271922362562,
                -1.8355831458482408
            ]
        },
        {
            "positions": [
                -2.637562078128965,
                -1.0833850161371132,
                1.0760732171330802,
                0.13194907453475174,
                0.8571840785156728,
                -1.648524331941784
            ]
        },
        {
            "positions": [
                -2.617478675102843,
                -1.1362789097740067,
                1.088788847562315,
                0.18184920431442658,
                0.8972409647950894,
                -1.4614655180353269
            ]
        },
        {
            "positions": [
                -2.5973952720767213,
                -1.1891728034109001,
                1.1015044779915502,
                0.23174933409410148,
                0.937297851074506,
                -1.2744067041288698
            ]
        },
        {
            "positions": [
                -2.5773118690505994,
                -1.2420666970477934,
                1.1142201084207852,
                0.2816494638737764,
                0.9773547373539226,
                -1.087347890222413
            ]
        },
        {
            "positions": [
                -2.4709905121772135,
                -1.280480690512836,
                0.9900043123567454,
                0.3219823045323284,
                0.9541256011456041,
                -1.0321300225134031
            ]
        },
        {
            "positions": [
                -2.3646691553038273,
                -1.318894683977879,
                0.8657885162927055,
                0.3623151451908804,
                0.9308964649372855,
                -0.9769121548043931
            ]
        },
        {
            "positions": [
                -2.2583477984304414,
                -1.3573086774429217,
                0.7415727202286655,
                0.40264798584943245,
                0.9076673287289669,
                -0.9216942870953833
            ]
        },
        {
            "positions": [
                -2.152026441557055,
                -1.3957226709079646,
                0.6173569241646256,
                0.44298082650798454,
                0.8844381925206484,
                -0.8664764193863733
            ]
        },
        {
            "positions": [
                -2.0457050846836693,
                -1.4341366643730074,
                0.49314112810058575,
                0.48331366716653656,
                0.8612090563123298,
                -0.8112585516773634
            ]
        },
        {
            "positions": [
                -1.9393837278102835,
                -1.4725506578380503,
                0.36892533203654587,
                0.5236465078250886,
                0.8379799201040112,
                -0.7560406839683536
            ]
        },
        {
            "positions": [
                -1.8330623709368972,
                -1.5109646513030932,
                0.2447095359725059,
                0.5639793484836406,
                0.8147507838956927,
                -0.7008228162593435
            ]
        },
        {
            "positions": [
                -1.7267410140635113,
                -1.549378644768136,
                0.12049373990846601,
                0.6043121891421926,
                0.7915216476873741,
                -0.6456049485503337
            ]
        },
        {
            "positions": [
                -1.6204196571901255,
                -1.5877926382331786,
                -0.0037220561555737497,
                0.6446450298007447,
                0.7682925114790555,
                -0.5903870808413237
            ]
        },
        {
            "positions": [
                -1.5140983003167394,
                -1.6262066316982215,
                -0.12793785221961373,
                0.6849778704592967,
                0.745063375270737,
                -0.5351692131323138
            ]
        },
        {
            "positions": [
                -1.4077769434433534,
                -1.6646206251632643,
                -0.2521536482836537,
                0.7253107111178487,
                0.7218342390624184,
                -0.47995134542330387
            ]
        },
        {
            "positions": [
                -1.3014555865699675,
                -1.7030346186283072,
                -0.3763694443476935,
                0.7656435517764008,
                0.6986051028540998,
                -0.42473347771429404
            ]
        },
        {
            "positions": [
                -1.1951342296965812,
                -1.74144861209335,
                -0.5005852404117335,
                0.8059763924349528,
                0.6753759666457813,
                -0.369515610005284
            ]
        },
        {
            "positions": [
                -1.0888128728231952,
                -1.7798626055583928,
                -0.6248010364757735,
                0.8463092330935049,
                0.6521468304374626,
                -0.31429774229627405
            ]
        },
        {
            "positions": [
                -0.9824915159498093,
                -1.8182765990234355,
                -0.7490168325398132,
                0.8866420737520568,
                0.6289176942291441,
                -0.2590798745872642
            ]
        },
        {
            "positions": [
                -0.8761701590764233,
                -1.8566905924884782,
                -0.8732326286038532,
                0.926974914410609,
                0.6056885580208256,
                -0.2038620068782543
            ]
        },
        {
            "positions": [
                -0.7698488022030372,
                -1.8951045859535212,
                -0.9974484246678932,
                0.9673077550691609,
                0.5824594218125069,
                -0.14864413916924435
            ]
        },
        {
            "positions": [
                -0.6635274453296514,
                -1.933518579418564,
                -1.1216642207319327,
                1.0076405957277128,
                0.5592302856041884,
                -0.09342627146023452
            ]
        },
        {
            "positions": [
                -0.5572060884562653,
                -1.9719325728836068,
                -1.2458800167959727,
                1.047973436386265,
                0.5360011493958697,
                -0.03820840375122447
            ]
        },
        {
            "positions": [
                -0.45088473158287945,
                -2.01034656634865,
                -1.3700958128600127,
                1.088306277044817,
                0.5127720131875512,
                0.017009463957785353
            ]
        },
        {
            "positions": [
                -0.3445633747094936,
                -2.0487605598136924,
                -1.4943116089240527,
                1.128639117703369,
                0.48954287697923266,
                0.07222733166679518
            ]
        },
        {
            "positions": [
                -0.23824201783610732,
                -2.0871745532787354,
                -1.6185274049880927,
                1.1689719583619211,
                0.46631374077091403,
                0.12744519937580523
            ]
        },
        {
            "positions": [
                -0.13192066096272104,
                -2.125588546743778,
                -1.7427432010521327,
                1.209304799020473,
                0.44308460456259546,
                0.18266306708481506
            ]
        },
        {
            "positions": [
                -0.02559930408933564,
                -2.1640025402088208,
                -1.8669589971161722,
                1.2496376396790252,
                0.4198554683542769,
                0.23788093479382488
            ]
        },
        {
            "positions": [
                0.08072205278405081,
                -2.2024165336738637,
                -1.9911747931802122,
                1.289970480337577,
                0.3966263321459583,
                0.293098802502835
            ]
        },
        {
            "positions": [
                0.06512651624445322,
                -2.2296760154399533,
                -2.1883554761281605,
                1.2864976344863985,
                0.2757196969414742,
                0.3188333384908327
            ]
        },
        {
            "positions": [
                0.04953097970485562,
                -2.256935497206043,
                -2.385536159076109,
                1.28302478863522,
                0.15481306173699005,
                0.3445678744788303
            ]
        },
        {
            "positions": [
                0.033935443165258025,
                -2.2841949789721325,
                -2.5827168420240576,
                1.2795519427840414,
                0.03390642653250592,
                0.370302410466828
            ]
        },
        {
            "positions": [
                0.01833990662566043,
                -2.311454460738222,
                -2.779897524972006,
                1.2760790969328628,
                -0.08700020867197822,
                0.3960369464548257
            ]
        },
        {
            "positions": [
                -0.03242863509380377,
                -2.3018941473731145,
                -2.684180628494257,
                1.3149915807767205,
                -0.022871621752773658,
                0.31856513228017
            ]
        },
        {
            "positions": [
                -0.08319717681326796,
                -2.2923338340080073,
                -2.5884637320165087,
                1.3539040646205784,
                0.0412569651664309,
                0.24109331810551432
            ]
        },
        {
            "positions": [
                -0.13396571853273215,
                -2.2827735206429,
                -2.49274683553876,
                1.3928165484644364,
                0.10538555208563546,
                0.16362150393085864
            ]
        },
        {
            "positions": [
                -0.18473426025219636,
                -2.2732132072777924,
                -2.397029939061011,
                1.431729032308294,
                0.16951413900484,
                0.08614968975620295
            ]
        }
    ]
}