{
    "goal": {
        "global_pose": {
            "orientation": {
                "w": 0.7031023502349854,
                "x": -0.7110244035720825,
                "y": 0.007748599164187908,
                "z": 0.005598929710686207
            },
            "position": {
                "x": 0.11585023208521307,
                "y": 0.44412534475326537,
                "z": 0.3711530566215515
            }
        },
        "name": "move_to_auspresseinheit_A"
    },
    "id": "BiEST_move_to_auspresseinheit_A_40",
    "joint_names": [
        "shoulder_pan_joint",
        "shoulder_lift_joint",
        "elbow_joint",
        "wrist_1_joint",
        "wrist_2_joint",
        "wrist_3_joint"
    ],
    "metrics": {
        "cart_traj_len": 1.9356322498358982,
        "distance_elbow_joint": 0.5893160257087224,
        "distance_shoulder_lift_joint": 1.1979658941100915,
        "distance_shoulder_pan_joint": 3.635384604707288,
        "distance_wrist_1_joint": 0.5436298425065564,
        "distance_wrist_2_joint": 0.5358601327360228,
        "distance_wrist_3_joint": 0.32491051094997525,
        "smoothness": 1.1405474372417816,
        "time": 0.052901811,
        "traj_len": 2.612865670239987,
        "weighted_distance": 2.9251287164603865
    },
    "planner": "BiEST",
    "start": {
        "state": {
            "elbow_joint": 2.4225746658250005,
            "shoulder_lift_joint": -1.3736534386056498,
            "shoulder_pan_joint": -0.3378633547517467,
            "wrist_1_joint": -1.0288598680537169,
            "wrist_2_joint": 1.233022673432363,
            "wrist_3_joint": -3.0940220416140027
        }
    },
    "waypoints": [
        {
            "positions": [
                -0.3378633547517467,
                -1.3736534386056498,
                2.4225746658250005,
                -1.0288598680537169,
                1.233022673432363,
                -3.0940220416140027
            ]
        },
        {
            "positions": [
                -0.4820153225640756,
                -1.4699617321340988,
                2.3884127995273223,
                -0.9995550758479701,
                1.1822901885174693,
                -3.0773299092887054
            ]
        },
        {
            "positions": [
                -0.6261672903764044,
                -1.5662700256625477,
                2.354250933229644,
                -0.9702502836422232,
                1.1315577036025757,
                -3.060637776963408
            ]
        },
        {
            "positions": [
                -0.7703192581887333,
                -1.6625783191909966,
                2.3200890669319665,
                -0.9409454914364764,
                1.0808252186876819,
                -3.0439456446381112
            ]
        },
        {
            "positions": [
                -0.9144712260010621,
                -1.7588866127194458,
                2.2859272006342883,
                -0.9116406992307295,
                1.030092733772788,
                -3.027253512312814
            ]
        },
        {
            "positions": [
                -1.058623193813391,
                -1.8551949062478947,
                2.25176533433661,
                -0.8823359070249828,
                0.9793602488578943,
                -3.0105613799875166
            ]
        },
        {
            "positions": [
                -1.2027751616257198,
                -1.9515031997763437,
                2.217603468038932,
                -0.853031114819236,
                0.9286277639430006,
                -2.9938692476622193
            ]
        },
        {
            "positions": [
                -1.3469271294380487,
                -2.047811493304793,
                2.1834416017412543,
                -0.8237263226134891,
                0.8778952790281068,
                -2.9771771153369224
            ]
        },
        {
            "positions": [
                -1.4910790972503776,
                -2.1441197868332416,
                2.149279735443576,
                -0.7944215304077422,
                0.8271627941132131,
                -2.960484983011625
            ]
        },
        {
            "positions": [
                -1.6352310650627064,
                -2.2404280803616907,
                2.115117869145898,
                -0.7651167382019954,
                0.7764303091983193,
                -2.943792850686328
            ]
        },
        {
            "positions": [
                -1.3754514101297812,
                -2.2036290523223516,
                2.1464355612603003,
                -0.7340182145736804,
                0.7676227793647661,
                -2.963201886244361
            ]
        },
        {
            "positions": [
                -1.1156717551968558,
                -2.166830024283013,
                2.1777532533747026,
                -0.7029196909453654,
                0.7588152495312128,
                -2.9826109218023946
            ]
        },
        {
            "positions": [
                -0.8558921002639304,
                -2.130030996243674,
                2.209070945489105,
                -0.6718211673170504,
                0.7500077196976597,
                -3.002019957360428
            ]
        },
        {
            "positions": [
                -0.5961124453310052,
                -2.0932319682043348,
                2.240388637603507,
                -0.6407226436887354,
                0.7412001898641064,
                -3.0214289929184615
            ]
        },
        {
            "positions": [
                -0.3363327903980795,
                -2.056432940164996,
                2.271706329717909,
                -0.6096241200604204,
                0.7323926600305531,
                -3.0408380284764944
            ]
        },
        {
            "positions": [
                -0.0765531354651543,
                -2.019633912125657,
                2.3030240218323113,
                -0.5785255964321054,
                0.7235851301969999,
                -3.060247064034528
            ]
        },
        {
            "positions": [
                0.18322651946777113,
                -1.9828348840863181,
                2.3343417139467135,
                -0.5474270728037904,
                0.7147776003634467,
                -3.0796560995925613
            ]
        },
        {
            "positions": [
                0.4430061744006961,
                -1.9460358560469793,
                2.365659406061116,
                -0.5163285491754754,
                0.7059700705298935,
                -3.0990651351505947
            ]
        },
        {
            "positions": [
                0.702785829333622,
                -1.9092368280076402,
                2.396977098175518,
                -0.4852300255471605,
                0.6971625406963402,
                -3.118474170708628
            ]
        }
    ]
}