{
    "goal": {
        "global_pose": {
            "orientation": {
                "w": -0.4816463035849501,
                "x": 0.5182115481033762,
                "y": 0.4908360881923453,
                "z": -0.5084816262002911
            },
            "position": {
                "x": -0.8240239810943604,
                "y": -0.300875300988555,
                "z": 0.16403168439865112
            }
        },
        "name": "move_to_storage_C"
    },
    "id": "BiEST_move_to_storage_C_24",
    "joint_names": [
        "shoulder_pan_joint",
        "shoulder_lift_joint",
        "elbow_joint",
        "wrist_1_joint",
        "wrist_2_joint",
        "wrist_3_joint"
    ],
    "metrics": {
        "cart_traj_len": 0.5765457443264929,
        "distance_elbow_joint": 0.25928772135817124,
        "distance_shoulder_lift_joint": 0.18803485459035674,
        "distance_shoulder_pan_joint": 0.49500528754487494,
        "distance_wrist_1_joint": 0.085326745016151,
        "distance_wrist_2_joint": 1.066030561634606,
        "distance_wrist_3_joint": 0.07492170798578135,
        "smoothness": 0.0,
        "time": 0.126118224,
        "traj_len": 1.472619053974904,
        "weighted_distance": 1.8627419576399358
    },
    "planner": "BiEST",
    "start": {
        "state": {
            "elbow_joint": 2.010868314990456,
            "shoulder_lift_joint": -1.1634956873337592,
            "shoulder_pan_joint": -2.4736205022346125,
            "wrist_1_joint": -0.8367026794202681,
            "wrist_2_joint": 0.6746043897044499,
            "wrist_3_joint": -3.1496632123970403
        }
    },
    "waypoints": [
        {
            "positions": [
                -2.4736205022346125,
                -1.1634956873337592,
                2.010868314990456,
                -0.8367026794202681,
                0.6746043897044499,
                -3.1496632123970403
            ]
        },
        {
            "positions": [
                -2.5561213834920915,
                -1.132156544902033,
                1.967653694764094,
                -0.8224815552509096,
                0.8522761499768843,
                -3.1371762610660765
            ]
        },
        {
            "positions": [
                -2.638622264749571,
                -1.100817402470307,
                1.924439074537732,
                -0.8082604310815511,
                1.0299479102493185,
                -3.124689309735113
            ]
        },
        {
            "positions": [
                -2.72112314600705,
                -1.0694782600385808,
                1.8812244543113703,
                -0.7940393069121926,
                1.207619670521753,
                -3.11220235840415
            ]
        },
        {
            "positions": [
                -2.803624027264529,
                -1.0381391176068546,
                1.8380098340850084,
                -0.7798181827428341,
                1.385291430794187,
                -3.099715407073186
            ]
        },
        {
            "positions": [
                -2.8861249085220084,
                -1.0067999751751286,
                1.7947952138586465,
                -0.7655970585734756,
                1.5629631910666215,
                -3.0872284557422223
            ]
        },
        {
            "positions": [
                -2.9686257897794874,
                -0.9754608327434025,
                1.7515805936322846,
                -0.7513759344041171,
                1.740634951339056,
                -3.074741504411259
            ]
        }
    ]
}