{
    "goal": {
        "global_pose": {
            "orientation": {
                "w": 0.7031023502349854,
                "x": -0.7110244035720825,
                "y": 0.007748599164187908,
                "z": 0.005598929710686207
            },
            "position": {
                "x": 0.11585023208521307,
                "y": 0.44412534475326537,
                "z": 0.3711530566215515
            }
        },
        "name": "move_to_auspresseinheit_A"
    },
    "id": "BiEST_move_to_auspresseinheit_A_111",
    "joint_names": [
        "shoulder_pan_joint",
        "shoulder_lift_joint",
        "elbow_joint",
        "wrist_1_joint",
        "wrist_2_joint",
        "wrist_3_joint"
    ],
    "metrics": {
        "cart_traj_len": 2.5944626135078384,
        "distance_elbow_joint": 1.7883877432824105,
        "distance_shoulder_lift_joint": 1.0656916339874651,
        "distance_shoulder_pan_joint": 2.6153338647592053,
        "distance_wrist_1_joint": 1.1989379790564147,
        "distance_wrist_2_joint": 2.3694687391001277,
        "distance_wrist_3_joint": 6.208602046642426,
        "smoothness": 0.5952161124146539,
        "time": 0.131137849,
        "traj_len": 3.90466669599699,
        "weighted_distance": 5.5885626791035845
    },
    "planner": "BiEST",
    "start": {
        "state": {
            "elbow_joint": 2.4225746658250005,
            "shoulder_lift_joint": -1.3736534386056498,
            "shoulder_pan_joint": -0.3378633547517467,
            "wrist_1_joint": -1.0288598680537169,
            "wrist_2_joint": 1.233022673432363,
            "wrist_3_joint": -3.0940220416140027
        }
    },
    "waypoints": [
        {
            "positions": [
                -0.3378633547517467,
                -1.3736534386056498,
                2.4225746658250005,
                -1.0288598680537169,
                1.233022673432363,
                -3.0940220416140027
            ]
        },
        {
            "positions": [
                -0.40484431388360226,
                -1.3940960520721728,
                2.342364220266815,
                -1.040679230275932,
                1.209245029259115,
                -2.923314857176826
            ]
        },
        {
            "positions": [
                -0.47182527301545774,
                -1.4145386655386956,
                2.2621537747086293,
                -1.0524985924981471,
                1.185467385085867,
                -2.752607672739649
            ]
        },
        {
            "positions": [
                -0.5388062321473133,
                -1.4349812790052185,
                2.1819433291504438,
                -1.0643179547203623,
                1.1616897409126188,
                -2.5819004883024723
            ]
        },
        {
            "positions": [
                -0.6057871912791688,
                -1.4554238924717415,
                2.101732883592258,
                -1.0761373169425774,
                1.1379120967393708,
                -2.4111933038652955
            ]
        },
        {
            "positions": [
                -0.6727681504110243,
                -1.4758665059382643,
                2.0215224380340726,
                -1.0879566791647926,
                1.1141344525661228,
                -2.2404861194281187
            ]
        },
        {
            "positions": [
                -0.7397491095428798,
                -1.4963091194047873,
                1.9413119924758868,
                -1.0997760413870077,
                1.0903568083928747,
                -2.069778934990942
            ]
        },
        {
            "positions": [
                -0.8067300686747353,
                -1.51675173287131,
                1.8611015469177012,
                -1.1115954036092228,
                1.0665791642196267,
                -1.8990717505537649
            ]
        },
        {
            "positions": [
                -0.8737110278065909,
                -1.537194346337833,
                1.7808911013595154,
                -1.123414765831438,
                1.0428015200463787,
                -1.7283645661165878
            ]
        },
        {
            "positions": [
                -0.9406919869384465,
                -1.557636959804356,
                1.7006806558013299,
                -1.135234128053653,
                1.0190238758731305,
                -1.557657381679411
            ]
        },
        {
            "positions": [
                -1.0076729460703018,
                -1.5780795732708788,
                1.6204702102431443,
                -1.1470534902758682,
                0.9952462316998825,
                -1.3869501972422342
            ]
        },
        {
            "positions": [
                -1.0746539052021573,
                -1.5985221867374018,
                1.5402597646849587,
                -1.1588728524980834,
                0.9714685875266345,
                -1.2162430128050574
            ]
        },
        {
            "positions": [
                -0.9622234897128727,
                -1.6396226286490634,
                1.570271186269392,
                -1.1729399610498992,
                0.886761481208284,
                -1.1294271870214407
            ]
        },
        {
            "positions": [
                -0.8497930742235882,
                -1.680723070560725,
                1.6002826078538257,
                -1.187007069601715,
                0.8020543748899337,
                -1.0426113612378243
            ]
        },
        {
            "positions": [
                -0.7373626587343036,
                -1.7218235124723869,
                1.630294029438259,
                -1.2010741781535308,
                0.7173472685715834,
                -0.9557955354542077
            ]
        },
        {
            "positions": [
                -0.6249322432450191,
                -1.7629239543840485,
                1.6603054510226927,
                -1.2151412867053468,
                0.6326401622532329,
                -0.8689797096705911
            ]
        },
        {
            "positions": [
                -0.5125018277557344,
                -1.80402439629571,
                1.690316872607126,
                -1.2292083952571626,
                0.5479330559348825,
                -0.7821638838869746
            ]
        },
        {
            "positions": [
                -0.4000714122664498,
                -1.8451248382073717,
                1.7203282941915594,
                -1.2432755038089784,
                0.4632259496165322,
                -0.695348058103358
            ]
        },
        {
            "positions": [
                -0.28764099677716526,
                -1.8862252801190333,
                1.750339715775993,
                -1.2573426123607943,
                0.37851884329818175,
                -0.6085322323197414
            ]
        },
        {
            "positions": [
                -0.1752105812878807,
                -1.9273257220306952,
                1.7803511373604264,
                -1.27140972091261,
                0.29381173697983143,
                -0.5217164065361248
            ]
        },
        {
            "positions": [
                -0.06278016579859602,
                -1.9684261639423568,
                1.81036255894486,
                -1.2854768294644259,
                0.20910463066148088,
                -0.43490058075250815
            ]
        },
        {
            "positions": [
                0.04965024969068854,
                -2.0095266058540187,
                1.8403739805292934,
                -1.299543938016242,
                0.12439752434313056,
                -0.3480847549688917
            ]
        },
        {
            "positions": [
                0.1620806651799731,
                -2.0506270477656803,
                1.870385402113727,
                -1.3136110465680577,
                0.03969041802478024,
                -0.2612689291852751
            ]
        },
        {
            "positions": [
                0.27451108066925767,
                -2.091727489677342,
                1.9003968236981603,
                -1.3276781551198735,
                -0.045016688293570084,
                -0.17445310340165854
            ]
        },
        {
            "positions": [
                0.38694149615854223,
                -2.1328279315890035,
                1.930408245282594,
                -1.3417452636716893,
                -0.12972379461192052,
                -0.08763727761804185
            ]
        },
        {
            "positions": [
                0.49937191164782685,
                -2.173928373500665,
                1.9604196668670273,
                -1.3558123722235051,
                -0.214430900930271,
                -0.000821451834425474
            ]
        },
        {
            "positions": [
                0.5239958948287391,
                -2.1610177273359725,
                2.0021581813541434,
                -1.3025676856476285,
                -0.15864121172472823,
                -0.1909299580627415
            ]
        },
        {
            "positions": [
                0.5486198780096514,
                -2.14810708117128,
                2.0438966958412594,
                -1.2493229990717518,
                -0.10285152251918546,
                -0.3810384642910575
            ]
        },
        {
            "positions": [
                0.5732438611905637,
                -2.1351964350065873,
                2.085635210328375,
                -1.1960783124958752,
                -0.04706183331364269,
                -0.5711469705193735
            ]
        },
        {
            "positions": [
                0.597867844371476,
                -2.1222857888418947,
                2.127373724815491,
                -1.1428336259199985,
                0.008727855891900088,
                -0.7612554767476896
            ]
        },
        {
            "positions": [
                0.6224918275523883,
                -2.109375142677202,
                2.169112239302607,
                -1.0895889393441218,
                0.06451754509744284,
                -0.9513639829760056
            ]
        },
        {
            "positions": [
                0.6471158107333006,
                -2.0964644965125094,
                2.2108507537897233,
                -1.0363442527682452,
                0.12030723430298562,
                -1.1414724892043213
            ]
        },
        {
            "positions": [
                0.6717397939142128,
                -2.083553850347817,
                2.2525892682768394,
                -0.9830995661923685,
                0.17609692350852835,
                -1.3315809954326374
            ]
        },
        {
            "positions": [
                0.6963637770951252,
                -2.070643204183124,
                2.294327782763955,
                -0.9298548796164918,
                0.23188661271407118,
                -1.5216895016609535
            ]
        },
        {
            "positions": [
                0.7209877602760374,
                -2.0577325580184316,
                2.336066297251071,
                -0.8766101930406152,
                0.28767630191961396,
                -1.7117980078892696
            ]
        },
        {
            "positions": [
                0.7456117434569497,
                -2.044821911853739,
                2.377804811738187,
                -0.8233655064647385,
                0.34346599112515674,
                -1.9019065141175855
            ]
        },
        {
            "positions": [
                0.7503649471010332,
                -2.0337999465585597,
                2.3994442798992077,
                -0.7820867535089326,
                0.39002255128414515,
                -2.0394945257651544
            ]
        },
        {
            "positions": [
                0.7551181507451168,
                -2.022777981263381,
                2.421083748060228,
                -0.7408080005531267,
                0.43657911144313355,
                -2.1770825374127236
            ]
        },
        {
            "positions": [
                0.7459735398023316,
                -2.0013530487280375,
                2.4163495870413967,
                -0.6926240437000801,
                0.48739257751140047,
                -2.353171357028576
            ]
        },
        {
            "positions": [
                0.7368289288595464,
                -1.9799281161926938,
                2.4116154260225655,
                -0.6444400868470336,
                0.5382060435796674,
                -2.529260176644429
            ]
        },
        {
            "positions": [
                0.7266682500342296,
                -1.9561226355978676,
                2.406355247112753,
                -0.5909023570103152,
                0.5946654503221861,
                -2.7249144206620435
            ]
        },
        {
            "positions": [
                0.7165075712089128,
                -1.9323171550030416,
                2.401095068202941,
                -0.5373646271735968,
                0.6511248570647049,
                -2.920568664679658
            ]
        },
        {
            "positions": [
                0.706346892383596,
                -1.9085116744082153,
                2.3958348892931283,
                -0.48382689733687845,
                0.7075842638072236,
                -3.116222908697272
            ]
        }
    ]
}