{
    "goal": {
        "global_pose": {
            "orientation": {
                "w": -0.00223480608172531,
                "x": 0.0024358444001904467,
                "y": 0.7094548369677653,
                "z": -0.704743149386269
            },
            "position": {
                "x": -0.37947507619857795,
                "y": -0.6371506643295288,
                "z": 0.19426114857196808
            }
        },
        "name": "move_to_magneteinheit_C"
    },
    "id": "BiEST_move_to_magneteinheit_C_98",
    "joint_names": [
        "shoulder_pan_joint",
        "shoulder_lift_joint",
        "elbow_joint",
        "wrist_1_joint",
        "wrist_2_joint",
        "wrist_3_joint"
    ],
    "metrics": {
        "cart_traj_len": 1.8657400259513726,
        "distance_elbow_joint": 1.488854774540616,
        "distance_shoulder_lift_joint": 2.497101077122349,
        "distance_shoulder_pan_joint": 1.05404824141475,
        "distance_wrist_1_joint": 4.354098123986255,
        "distance_wrist_2_joint": 1.311992722056374,
        "distance_wrist_3_joint": 5.588150824848821,
        "smoothness": 1.0943684416440644,
        "time": 0.113036588,
        "traj_len": 4.0366131551053,
        "weighted_distance": 5.7564431952126
    },
    "planner": "BiEST",
    "start": {
        "state": {
            "elbow_joint": 1.9565354010623817,
            "shoulder_lift_joint": -1.4165861575791021,
            "shoulder_pan_joint": -1.6717766225146293,
            "wrist_1_joint": -0.5286633292919765,
            "wrist_2_joint": 1.472756589071564,
            "wrist_3_joint": -3.1238370188695823
        }
    },
    "waypoints": [
        {
            "positions": [
                -1.6717766225146293,
                -1.4165861575791021,
                1.9565354010623817,
                -0.5286633292919765,
                1.472756589071564,
                -3.1238370188695823
            ]
        },
        {
            "positions": [
                -1.6475990462864458,
                -1.4227198199221256,
                1.9517758939662813,
                -0.5368917913517516,
                1.4492100593687849,
                -3.1159342058682338
            ]
        },
        {
            "positions": [
                -1.5961204361017605,
                -1.4180006564396508,
                1.9981792677838714,
                -0.5123190434881507,
                1.4176899304501536,
                -3.059077630467302
            ]
        },
        {
            "positions": [
                -1.5446418259170749,
                -1.413281492957176,
                2.0445826416014614,
                -0.48774629562454985,
                1.3861698015315222,
                -3.0022210550663706
            ]
        },
        {
            "positions": [
                -1.588053603251066,
                -1.469079863846646,
                2.0784912641889615,
                -0.6036149150748751,
                1.399245031085134,
                -2.8692573976535134
            ]
        },
        {
            "positions": [
                -1.6314653805850567,
                -1.5248782347361158,
                2.1123998867764615,
                -0.7194835345252003,
                1.4123202606387462,
                -2.736293740240656
            ]
        },
        {
            "positions": [
                -1.6748771579190478,
                -1.5806766056255859,
                2.1463085093639616,
                -0.8353521539755255,
                1.425395490192358,
                -2.603330082827799
            ]
        },
        {
            "positions": [
                -1.7182889352530386,
                -1.6364749765150557,
                2.1802171319514616,
                -0.9512207734258508,
                1.43847071974597,
                -2.470366425414942
            ]
        },
        {
            "positions": [
                -1.7617007125870296,
                -1.6922733474045257,
                2.2141257545389617,
                -1.067089392876176,
                1.451545949299582,
                -2.3374027680020846
            ]
        },
        {
            "positions": [
                -1.8051124899210205,
                -1.7480717182939958,
                2.2480343771264617,
                -1.1829580123265013,
                1.4646211788531938,
                -2.2044391105892274
            ]
        },
        {
            "positions": [
                -1.8485242672550115,
                -1.8038700891834656,
                2.2819429997139618,
                -1.2988266317768264,
                1.4776964084068058,
                -2.0714754531763706
            ]
        },
        {
            "positions": [
                -1.8919360445890026,
                -1.8596684600729356,
                2.315851622301462,
                -1.4146952512271516,
                1.4907716379604177,
                -1.9385117957635132
            ]
        },
        {
            "positions": [
                -1.9353478219229934,
                -1.9154668309624054,
                2.349760244888962,
                -1.5305638706774771,
                1.5038468675140297,
                -1.805548138350656
            ]
        },
        {
            "positions": [
                -1.9787595992569842,
                -1.9712652018518755,
                2.3836688674764615,
                -1.6464324901278022,
                1.5169220970676416,
                -1.6725844809377988
            ]
        },
        {
            "positions": [
                -2.0221713765909755,
                -2.0270635727413455,
                2.4175774900639615,
                -1.7623011095781274,
                1.5299973266212534,
                -1.5396208235249416
            ]
        },
        {
            "positions": [
                -2.0655831539249663,
                -2.0828619436308156,
                2.4514861126514615,
                -1.8781697290284525,
                1.5430725561748655,
                -1.4066571661120844
            ]
        },
        {
            "positions": [
                -2.108994931258957,
                -2.138660314520285,
                2.4853947352389616,
                -1.994038348478778,
                1.5561477857284773,
                -1.2736935086992272
            ]
        },
        {
            "positions": [
                -2.152406708592948,
                -2.194458685409755,
                2.5193033578264616,
                -2.109906967929103,
                1.5692230152820894,
                -1.1407298512863702
            ]
        },
        {
            "positions": [
                -2.1958184859269387,
                -2.2502570562992252,
                2.5532119804139617,
                -2.2257755873794283,
                1.5822982448357013,
                -1.007766193873513
            ]
        },
        {
            "positions": [
                -2.23923026326093,
                -2.3060554271886953,
                2.5871206030014617,
                -2.3416442068297534,
                1.595373474389313,
                -0.8748025364606558
            ]
        },
        {
            "positions": [
                -2.282642040594921,
                -2.3618537980781653,
                2.621029225588962,
                -2.4575128262800785,
                1.6084487039429252,
                -0.7418388790477985
            ]
        },
        {
            "positions": [
                -2.326053817928912,
                -2.417652168967635,
                2.654937848176462,
                -2.573381445730404,
                1.621523933496537,
                -0.6088752216349413
            ]
        },
        {
            "positions": [
                -2.369465595262903,
                -2.473450539857105,
                2.688846470763962,
                -2.689250065180729,
                1.634599163050149,
                -0.47591156422208414
            ]
        },
        {
            "positions": [
                -2.4128773725968937,
                -2.529248910746575,
                2.722755093351462,
                -2.8051186846310543,
                1.647674392603761,
                -0.34294790680922693
            ]
        },
        {
            "positions": [
                -2.4158112675037624,
                -2.460970827245326,
                2.6870992899484953,
                -2.7061510957714154,
                1.5994793254315562,
                -0.48331099244865017
            ]
        },
        {
            "positions": [
                -2.4187451624106315,
                -2.3926927437440773,
                2.6514434865455283,
                -2.6071835069117766,
                1.5512842582593516,
                -0.6236740780880734
            ]
        },
        {
            "positions": [
                -2.4216790573175,
                -2.3244146602428284,
                2.6157876831425617,
                -2.508215918052138,
                1.503089191087147,
                -0.7640371637274965
            ]
        },
        {
            "positions": [
                -2.424612952224369,
                -2.2561365767415795,
                2.580131879739595,
                -2.4092483291924993,
                1.4548941239149422,
                -0.9044002493669198
            ]
        },
        {
            "positions": [
                -2.427546847131238,
                -2.1878584932403307,
                2.544476076336628,
                -2.3102807403328605,
                1.4066990567427375,
                -1.044763335006343
            ]
        },
        {
            "positions": [
                -2.4304807420381067,
                -2.119580409739082,
                2.5088202729336615,
                -2.211313151473222,
                1.3585039895705329,
                -1.1851264206457661
            ]
        },
        {
            "positions": [
                -2.4334146369449754,
                -2.051302326237833,
                2.473164469530695,
                -2.112345562613583,
                1.3103089223983282,
                -1.3254895062851895
            ]
        },
        {
            "positions": [
                -2.4363485318518445,
                -1.983024242736584,
                2.437508666127728,
                -2.0133779737539443,
                1.2621138552261235,
                -1.4658525919246126
            ]
        },
        {
            "positions": [
                -2.439282426758713,
                -1.9147461592353352,
                2.4018528627247613,
                -1.9144103848943055,
                1.2139187880539188,
                -1.606215677564036
            ]
        },
        {
            "positions": [
                -2.4422163216655823,
                -1.8464680757340863,
                2.3661970593217942,
                -1.8154427960346666,
                1.1657237208817142,
                -1.746578763203459
            ]
        },
        {
            "positions": [
                -2.445150216572451,
                -1.7781899922328372,
                2.3305412559188277,
                -1.716475207175028,
                1.1175286537095093,
                -1.8869418488428824
            ]
        },
        {
            "positions": [
                -2.4480841114793197,
                -1.7099119087315886,
                2.294885452515861,
                -1.6175076183153894,
                1.0693335865373048,
                -2.0273049344823058
            ]
        },
        {
            "positions": [
                -2.451018006386189,
                -1.6416338252303395,
                2.259229649112894,
                -1.5185400294557505,
                1.0211385193651,
                -2.1676680201217287
            ]
        },
        {
            "positions": [
                -2.4539519012930575,
                -1.5733557417290909,
                2.2235738457099274,
                -1.4195724405961119,
                0.9729434521928955,
                -2.3080311057611516
            ]
        },
        {
            "positions": [
                -2.456885796199926,
                -1.5050776582278418,
                2.187918042306961,
                -1.320604851736473,
                0.9247483850206907,
                -2.4483941914005753
            ]
        },
        {
            "positions": [
                -2.4598196911067953,
                -1.436799574726593,
                2.152262238903994,
                -1.2216372628768342,
                0.876553317848486,
                -2.5887572770399983
            ]
        },
        {
            "positions": [
                -2.462753586013664,
                -1.368521491225344,
                2.1166064355010272,
                -1.1226696740171955,
                0.8283582506762813,
                -2.7291203626794216
            ]
        },
        {
            "positions": [
                -2.4656874809205327,
                -1.3002434077240952,
                2.0809506320980606,
                -1.0237020851575567,
                0.7801631835040767,
                -2.869483448318845
            ]
        },
        {
            "positions": [
                -2.468621375827402,
                -1.2319653242228463,
                2.045294828695094,
                -0.924734496297918,
                0.731968116331872,
                -3.009846533958268
            ]
        },
        {
            "positions": [
                -2.4715552707342705,
                -1.1636872407215975,
                2.009639025292127,
                -0.8257669074382792,
                0.6837730491596673,
                -3.150209619597691
            ]
        }
    ]
}