{
    "goal": {
        "global_pose": {
            "orientation": {
                "w": -0.00223480608172531,
                "x": 0.0024358444001904467,
                "y": 0.7094548369677653,
                "z": -0.704743149386269
            },
            "position": {
                "x": -0.37947507619857795,
                "y": -0.6371506643295288,
                "z": 0.19426114857196808
            }
        },
        "name": "move_to_magneteinheit_C"
    },
    "id": "BiEST_move_to_magneteinheit_C_84",
    "joint_names": [
        "shoulder_pan_joint",
        "shoulder_lift_joint",
        "elbow_joint",
        "wrist_1_joint",
        "wrist_2_joint",
        "wrist_3_joint"
    ],
    "metrics": {
        "cart_traj_len": 1.9349281460308412,
        "distance_elbow_joint": 1.9854063308465526,
        "distance_shoulder_lift_joint": 0.8180134673545498,
        "distance_shoulder_pan_joint": 1.352785998239013,
        "distance_wrist_1_joint": 1.1273137525526546,
        "distance_wrist_2_joint": 1.5362763744162344,
        "distance_wrist_3_joint": 3.2435869730310967,
        "smoothness": 0.7436762823238021,
        "time": 0.223230171,
        "traj_len": 3.1722835460343233,
        "weighted_distance": 4.383394457434921
    },
    "planner": "BiEST",
    "start": {
        "state": {
            "elbow_joint": 1.9565354010623817,
            "shoulder_lift_joint": -1.4165861575791021,
            "shoulder_pan_joint": -1.6717766225146293,
            "wrist_1_joint": -0.5286633292919765,
            "wrist_2_joint": 1.472756589071564,
            "wrist_3_joint": -3.1238370188695823
        }
    },
    "waypoints": [
        {
            "positions": [
                -1.6717766225146293,
                -1.4165861575791021,
                1.9565354010623817,
                -0.5286633292919765,
                1.472756589071564,
                -3.1238370188695823
            ]
        },
        {
            "positions": [
                -1.6218682339875476,
                -1.4411301799095053,
                1.958782574103108,
                -0.4921923830091362,
                1.4536669408486274,
                -3.034906083871375
            ]
        },
        {
            "positions": [
                -1.571959845460466,
                -1.4656742022399087,
                1.9610297471438345,
                -0.45572143672629595,
                1.4345772926256908,
                -2.9459751488731682
            ]
        },
        {
            "positions": [
                -1.5364291260405103,
                -1.4593809164713578,
                1.8952366713063173,
                -0.4538902260017149,
                1.3880122378677024,
                -2.8667225971277155
            ]
        },
        {
            "positions": [
                -1.5008984066205546,
                -1.4530876307028067,
                1.8294435954688004,
                -0.4520590152771339,
                1.3414471831097141,
                -2.7874700453822623
            ]
        },
        {
            "positions": [
                -1.5101825284769486,
                -1.4568923106743001,
                1.7324532724244186,
                -0.427777674351154,
                1.2720351215498413,
                -2.6294434946141116
            ]
        },
        {
            "positions": [
                -1.5194666503333425,
                -1.4606969906457938,
                1.635462949380037,
                -0.40349633342517405,
                1.2026230599899683,
                -2.4714169438459614
            ]
        },
        {
            "positions": [
                -1.5287507721897364,
                -1.4645016706172873,
                1.5384726263356552,
                -0.3792149924991941,
                1.1332109984300955,
                -2.313390393077811
            ]
        },
        {
            "positions": [
                -1.5380348940461301,
                -1.4683063505887808,
                1.4414823032912736,
                -0.3549336515732142,
                1.0637989368702225,
                -2.1553638423096606
            ]
        },
        {
            "positions": [
                -1.547319015902524,
                -1.4721110305602743,
                1.3444919802468918,
                -0.3306523106472343,
                0.9943868753103497,
                -1.99733729154151
            ]
        },
        {
            "positions": [
                -1.556603137758918,
                -1.4759157105317677,
                1.24750165720251,
                -0.3063709697212544,
                0.924974813750477,
                -1.8393107407733593
            ]
        },
        {
            "positions": [
                -1.565887259615312,
                -1.4797203905032614,
                1.1505113341581281,
                -0.28208962879527444,
                0.8555627521906041,
                -1.681284190005209
            ]
        },
        {
            "positions": [
                -1.5751713814717059,
                -1.483525070474755,
                1.0535210111137465,
                -0.25780828786929455,
                0.7861506906307312,
                -1.5232576392370585
            ]
        },
        {
            "positions": [
                -1.7145479159986825,
                -1.5250048869045125,
                1.1600369031905944,
                -0.22095709873110303,
                0.8359414126871513,
                -1.5227322287927112
            ]
        },
        {
            "positions": [
                -1.8539244505256591,
                -1.5664847033342701,
                1.266552795267442,
                -0.18410590959291148,
                0.8857321347435714,
                -1.522206818348364
            ]
        },
        {
            "positions": [
                -1.9933009850526358,
                -1.6079645197640278,
                1.3730686873442899,
                -0.14725472045471993,
                0.9355228567999914,
                -1.5216814079040168
            ]
        },
        {
            "positions": [
                -2.1326775195796124,
                -1.6494443361937854,
                1.4795845794211377,
                -0.11040353131652841,
                0.9853135788564115,
                -1.5211559974596696
            ]
        },
        {
            "positions": [
                -2.2193655752247583,
                -1.6567564086442146,
                1.5806375350561377,
                -0.12790892549005622,
                1.0203988823280425,
                -1.6011029399334111
            ]
        },
        {
            "positions": [
                -2.3060536308699047,
                -1.6640684810946436,
                1.6816904906911379,
                -0.14541431966358406,
                1.0554841857996735,
                -1.681049882407153
            ]
        },
        {
            "positions": [
                -2.3927416865150506,
                -1.6713805535450728,
                1.7827434463261378,
                -0.16291971383711187,
                1.0905694892713045,
                -1.7609968248808945
            ]
        },
        {
            "positions": [
                -2.479429742160197,
                -1.6786926259955017,
                1.883796401961138,
                -0.1804251080106397,
                1.1256547927429357,
                -1.8409437673546363
            ]
        },
        {
            "positions": [
                -2.566117797805343,
                -1.686004698445931,
                1.984849357596138,
                -0.19793050218416752,
                1.1607400962145666,
                -1.9208907098283778
            ]
        },
        {
            "positions": [
                -2.5690252501303976,
                -1.6375633468237503,
                2.0054758658868685,
                -0.2743981442043479,
                1.125612422527206,
                -2.0414238696664078
            ]
        },
        {
            "positions": [
                -2.5719327024554524,
                -1.5891219952015696,
                2.026102374177599,
                -0.35086578622452824,
                1.0904847488398453,
                -2.161957029504438
            ]
        },
        {
            "positions": [
                -2.574840154780507,
                -1.5406806435793892,
                2.04672888246833,
                -0.4273334282447086,
                1.0553570751524846,
                -2.282490189342468
            ]
        },
        {
            "positions": [
                -2.577747607105562,
                -1.4922392919572085,
                2.0673553907590603,
                -0.503801070264889,
                1.0202294014651239,
                -2.403023349180498
            ]
        },
        {
            "positions": [
                -2.5583012657393605,
                -1.4305073722413593,
                2.0567432595040267,
                -0.564461662050006,
                0.9574837451571722,
                -2.5444529684783426
            ]
        },
        {
            "positions": [
                -2.538854924373159,
                -1.36877545252551,
                2.046131128248993,
                -0.625122253835123,
                0.8947380888492205,
                -2.685882587776187
            ]
        },
        {
            "positions": [
                -2.5194085830069577,
                -1.3070435328096606,
                2.035518996993959,
                -0.6857828456202401,
                0.8319924325412689,
                -2.8273122070740317
            ]
        },
        {
            "positions": [
                -2.4999622416407563,
                -1.2453116130938113,
                2.0249068657389255,
                -0.746443437405357,
                0.769246776233317,
                -2.9687418263718763
            ]
        },
        {
            "positions": [
                -2.480515900274555,
                -1.183579693377962,
                2.014294734483892,
                -0.8071040291904741,
                0.7065011199253655,
                -3.110171445669721
            ]
        },
        {
            "positions": [
                -2.472689025245631,
                -1.162582915032414,
                2.0077865216693622,
                -0.8194574858937349,
                0.6856590258230003,
                -3.1620619490808535
            ]
        }
    ]
}