{
    "goal": {
        "global_pose": {
            "orientation": {
                "w": -0.00223480608172531,
                "x": 0.0024358444001904467,
                "y": 0.7094548369677653,
                "z": -0.704743149386269
            },
            "position": {
                "x": -0.37947507619857795,
                "y": -0.6371506643295288,
                "z": 0.19426114857196808
            }
        },
        "name": "move_to_magneteinheit_C"
    },
    "id": "BiEST_move_to_magneteinheit_C_78",
    "joint_names": [
        "shoulder_pan_joint",
        "shoulder_lift_joint",
        "elbow_joint",
        "wrist_1_joint",
        "wrist_2_joint",
        "wrist_3_joint"
    ],
    "metrics": {
        "cart_traj_len": 3.2782992556874904,
        "distance_elbow_joint": 5.395624342940755,
        "distance_shoulder_lift_joint": 2.008951430414345,
        "distance_shoulder_pan_joint": 2.7327860022939228,
        "distance_wrist_1_joint": 6.379808810412837,
        "distance_wrist_2_joint": 2.891771848737533,
        "distance_wrist_3_joint": 1.562775297950731,
        "smoothness": 0.27690175336603495,
        "time": 0.310687267,
        "traj_len": 4.579488806924866,
        "weighted_distance": 5.776577618954145
    },
    "planner": "BiEST",
    "start": {
        "state": {
            "elbow_joint": 1.9565354010623817,
            "shoulder_lift_joint": -1.4165861575791021,
            "shoulder_pan_joint": -1.6717766225146293,
            "wrist_1_joint": -0.5286633292919765,
            "wrist_2_joint": 1.472756589071564,
            "wrist_3_joint": -3.1238370188695823
        }
    },
    "waypoints": [
        {
            "positions": [
                -1.6717766225146293,
                -1.4165861575791021,
                1.9565354010623817,
                -0.5286633292919765,
                1.472756589071564,
                -3.1238370188695823
            ]
        },
        {
            "positions": [
                -1.640063751152585,
                -1.429162348952418,
                1.9521742105065332,
                -0.5231315609195277,
                1.4548670025383688,
                -3.1080144802841225
            ]
        },
        {
            "positions": [
                -1.5467845710090604,
                -1.4422852780197837,
                1.8822149801958434,
                -0.47367098805217817,
                1.3925059641872923,
                -3.0107118969556494
            ]
        },
        {
            "positions": [
                -1.4535053908655358,
                -1.4554082070871495,
                1.8122557498851537,
                -0.4242104151848286,
                1.330144925836216,
                -2.9134093136271764
            ]
        },
        {
            "positions": [
                -1.3602262107220113,
                -1.4685311361545155,
                1.742296519574464,
                -0.374749842317479,
                1.2677838874851393,
                -2.816106730298703
            ]
        },
        {
            "positions": [
                -1.2669470305784867,
                -1.4816540652218813,
                1.6723372892637742,
                -0.3252892694501294,
                1.2054228491340628,
                -2.7188041469702298
            ]
        },
        {
            "positions": [
                -1.173667850434962,
                -1.494776994289247,
                1.6023780589530845,
                -0.27582869658277986,
                1.1430618107829864,
                -2.6215015636417567
            ]
        },
        {
            "positions": [
                -1.1724986823166341,
                -1.4548617723234116,
                1.4960527151702567,
                -0.19237852026428548,
                1.098871798447621,
                -2.568634232531434
            ]
        },
        {
            "positions": [
                -1.1713295141983062,
                -1.4149465503575762,
                1.389727371387429,
                -0.10892834394579112,
                1.0546817861122557,
                -2.5157669014211113
            ]
        },
        {
            "positions": [
                -1.1701603460799785,
                -1.3750313283917408,
                1.283402027604601,
                -0.025478167627296766,
                1.0104917737768906,
                -2.462899570310788
            ]
        },
        {
            "positions": [
                -1.1689911779616506,
                -1.3351161064259054,
                1.1770766838217732,
                0.05797200869119762,
                0.9663017614415252,
                -2.4100322392004654
            ]
        },
        {
            "positions": [
                -1.1678220098433227,
                -1.29520088446007,
                1.0707513400389455,
                0.14142218500969195,
                0.9221117491061599,
                -2.3571649080901427
            ]
        },
        {
            "positions": [
                -1.201897781248169,
                -1.2494855459379954,
                0.971522638507063,
                0.26909677768778045,
                0.8500164034939764,
                -2.3723381559939165
            ]
        },
        {
            "positions": [
                -1.2359735526530151,
                -1.2037702074159211,
                0.8722939369751807,
                0.39677137036586896,
                0.777921057881793,
                -2.387511403897691
            ]
        },
        {
            "positions": [
                -1.2700493240578614,
                -1.1580548688938466,
                0.7730652354432983,
                0.5244459630439575,
                0.7058257122696094,
                -2.4026846518014646
            ]
        },
        {
            "positions": [
                -1.3041250954627077,
                -1.1123395303717722,
                0.6738365339114158,
                0.652120555722046,
                0.6337303666574261,
                -2.417857899705239
            ]
        },
        {
            "positions": [
                -1.3382008668675538,
                -1.0666241918496977,
                0.5746078323795334,
                0.7797951484001346,
                0.5616350210452425,
                -2.4330311476090127
            ]
        },
        {
            "positions": [
                -1.3722766382724,
                -1.0209088533276232,
                0.47537913084765104,
                0.9074697410782231,
                0.4895396754330591,
                -2.448204395512787
            ]
        },
        {
            "positions": [
                -1.4063524096772464,
                -0.9751935148055488,
                0.3761504293157686,
                1.0351443337563118,
                0.41744432982087554,
                -2.463377643416561
            ]
        },
        {
            "positions": [
                -1.4404281810820925,
                -0.9294781762834743,
                0.27692172778388624,
                1.1628189264344,
                0.3453489842086922,
                -2.478550891320335
            ]
        },
        {
            "positions": [
                -1.4745039524869388,
                -0.8837628377613999,
                0.17769302625200378,
                1.2904935191124887,
                0.27325363859650864,
                -2.493724139224109
            ]
        },
        {
            "positions": [
                -1.508579723891785,
                -0.8380474992393254,
                0.07846432472012133,
                1.4181681117905773,
                0.20115829298432508,
                -2.508897387127883
            ]
        },
        {
            "positions": [
                -1.5426554952966312,
                -0.7923321607172509,
                -0.02076437681176113,
                1.5458427044686658,
                0.12906294737214163,
                -2.524070635031657
            ]
        },
        {
            "positions": [
                -1.5767312667014775,
                -0.7466168221951766,
                -0.11999307834364337,
                1.6735172971467542,
                0.0569676017599583,
                -2.539243882935431
            ]
        },
        {
            "positions": [
                -1.6108070381063238,
                -0.700901483673102,
                -0.21922177987552582,
                1.8011918898248427,
                -0.015127743852225262,
                -2.554417130839205
            ]
        },
        {
            "positions": [
                -1.6448828095111698,
                -0.6551861451510276,
                -0.3184504814074083,
                1.9288664825029314,
                -0.08722308946440882,
                -2.569590378742979
            ]
        },
        {
            "positions": [
                -1.6789585809160161,
                -0.609470806628953,
                -0.41767918293929074,
                2.05654107518102,
                -0.15931843507659216,
                -2.5847636266467533
            ]
        },
        {
            "positions": [
                -1.7130343523208622,
                -0.5637554681068787,
                -0.516907884471173,
                2.184215667859108,
                -0.2314137806887755,
                -2.599936874550527
            ]
        },
        {
            "positions": [
                -1.7471101237257085,
                -0.5180401295848042,
                -0.6161365860030554,
                2.3118902605371967,
                -0.30350912630095905,
                -2.6151101224543014
            ]
        },
        {
            "positions": [
                -1.7811858951305548,
                -0.47232479106272973,
                -0.7153652875349379,
                2.4395648532152854,
                -0.3756044719131426,
                -2.6302833703580752
            ]
        },
        {
            "positions": [
                -1.9126233012126452,
                -0.44380410663456843,
                -0.6439707042327842,
                2.46445250805362,
                -0.35713676665462524,
                -2.6620344420383386
            ]
        },
        {
            "positions": [
                -2.0440607072947357,
                -0.4152834222064071,
                -0.5725761209306306,
                2.489340162891955,
                -0.33866906139610786,
                -2.693785513718602
            ]
        },
        {
            "positions": [
                -2.175498113376826,
                -0.3867627377782458,
                -0.501181537628477,
                2.5142278177302897,
                -0.3202013561375905,
                -2.7255365853988653
            ]
        },
        {
            "positions": [
                -2.2841478932448998,
                -0.3834425135958545,
                -0.3642728848082802,
                2.4935160941775836,
                -0.29077571448111506,
                -2.773184070069701
            ]
        },
        {
            "positions": [
                -2.392797673112974,
                -0.3801222894134632,
                -0.22736423198808342,
                2.4728043706248775,
                -0.2613500728246396,
                -2.8208315547405367
            ]
        },
        {
            "positions": [
                -2.501447452981048,
                -0.3768020652310719,
                -0.09045557916788666,
                2.4520926470721713,
                -0.2319244311681642,
                -2.868479039411372
            ]
        },
        {
            "positions": [
                -2.6100972328491223,
                -0.37348184104868065,
                0.046453073652310106,
                2.431380923519465,
                -0.2024987895116888,
                -2.9161265240822076
            ]
        },
        {
            "positions": [
                -2.718747012717196,
                -0.37016161686628934,
                0.18336172647250693,
                2.410669199966759,
                -0.17307314785521336,
                -2.963774008753043
            ]
        },
        {
            "positions": [
                -2.8273967925852705,
                -0.36684139268389804,
                0.32027037929270363,
                2.389957476414053,
                -0.14364750619873792,
                -3.011421493423879
            ]
        },
        {
            "positions": [
                -2.9360465724533444,
                -0.36352116850150673,
                0.45717903211290045,
                2.369245752861347,
                -0.11422186454226249,
                -3.0590689780947145
            ]
        },
        {
            "positions": [
                -2.9104573042859783,
                -0.40793810005242115,
                0.5433556618182112,
                2.191915997387923,
                -0.07077585452104321,
                -3.0643022623817546
            ]
        },
        {
            "positions": [
                -2.8848680361186116,
                -0.45235503160333557,
                0.629532291523522,
                2.014586241914499,
                -0.02732984449982391,
                -3.0695355466687944
            ]
        },
        {
            "positions": [
                -2.8592787679512455,
                -0.49677196315425,
                0.7157089212288328,
                1.8372564864410754,
                0.01611616552139536,
                -3.0747688309558345
            ]
        },
        {
            "positions": [
                -2.833689499783879,
                -0.5411888947051644,
                0.8018855509341435,
                1.6599267309676513,
                0.05956217554261467,
                -3.0800021152428743
            ]
        },
        {
            "positions": [
                -2.8081002316165127,
                -0.5856058262560789,
                0.8880621806394543,
                1.4825969754942276,
                0.10300818556383395,
                -3.0852353995299144
            ]
        },
        {
            "positions": [
                -2.782510963449146,
                -0.6300227578069932,
                0.974238810344765,
                1.3052672200208038,
                0.1464541955850532,
                -3.090468683816954
            ]
        },
        {
            "positions": [
                -2.75692169528178,
                -0.6744396893579078,
                1.0604154400500758,
                1.1279374645473799,
                0.18990020560627255,
                -3.0957019681039943
            ]
        },
        {
            "positions": [
                -2.7313324271144133,
                -0.7188566209088221,
                1.1465920697553864,
                0.950607709073956,
                0.23334621562749183,
                -3.100935252391034
            ]
        },
        {
            "positions": [
                -2.705743158947047,
                -0.7632735524597366,
                1.2327686994606974,
                0.7732779536005321,
                0.2767922256487111,
                -3.1061685366780742
            ]
        },
        {
            "positions": [
                -2.680153890779681,
                -0.8076904840106511,
                1.318945329166008,
                0.5959481981271082,
                0.32023823566993037,
                -3.1114018209651144
            ]
        },
        {
            "positions": [
                -2.6545646226123143,
                -0.8521074155615656,
                1.405121958871319,
                0.4186184426536843,
                0.36368424569114977,
                -3.116635105252154
            ]
        },
        {
            "positions": [
                -2.628975354444948,
                -0.8965243471124799,
                1.4912985885766297,
                0.24128868718026064,
                0.40713025571236894,
                -3.1218683895391943
            ]
        },
        {
            "positions": [
                -2.6033860862775815,
                -0.9409412786633943,
                1.5774752182819403,
                0.06395893170683653,
                0.45057626573358833,
                -3.127101673826234
            ]
        },
        {
            "positions": [
                -2.5777968181102153,
                -0.9853582102143088,
                1.6636518479872513,
                -0.11337082376658714,
                0.4940222757548076,
                -3.1323349581132742
            ]
        },
        {
            "positions": [
                -2.5522075499428487,
                -1.0297751417652232,
                1.749828477692562,
                -0.29070057924001125,
                0.5374682857760269,
                -3.137568242400314
            ]
        },
        {
            "positions": [
                -2.5266182817754825,
                -1.0741920733161376,
                1.8360051073978725,
                -0.4680303347134349,
                0.5809142957972462,
                -3.142801526687354
            ]
        },
        {
            "positions": [
                -2.5010290136081164,
                -1.118609004867052,
                1.9221817371031835,
                -0.6453600901868586,
                0.6243603058184655,
                -3.148034810974394
            ]
        },
        {
            "positions": [
                -2.4754397454407497,
                -1.1630259364179665,
                2.008358366808494,
                -0.8226898456602825,
                0.6678063158396847,
                -3.153268095261434
            ]
        }
    ]
}