{
    "goal": {
        "global_pose": {
            "orientation": {
                "w": 0.5084816217422485,
                "x": -0.49083608388900757,
                "y": 0.5182115435600281,
                "z": -0.4816462993621826
            },
            "position": {
                "x": 0.5540239810943604,
                "y": 0.030875300988554955,
                "z": 0.16403168439865112
            }
        },
        "name": "move_to_storage_A"
    },
    "id": "BiEST_move_to_storage_A_45",
    "joint_names": [
        "shoulder_pan_joint",
        "shoulder_lift_joint",
        "elbow_joint",
        "wrist_1_joint",
        "wrist_2_joint",
        "wrist_3_joint"
    ],
    "metrics": {
        "cart_traj_len": 0.3526698573492779,
        "distance_elbow_joint": 0.4506101082572529,
        "distance_shoulder_lift_joint": 0.23533901073332442,
        "distance_shoulder_pan_joint": 0.4620204102689822,
        "distance_wrist_1_joint": 0.2393579289965434,
        "distance_wrist_2_joint": 1.0953573251359663,
        "distance_wrist_3_joint": 0.08819454124059423,
        "smoothness": 2.6645352591003757e-15,
        "time": 0.049636924,
        "traj_len": 1.6033961845509872,
        "weighted_distance": 2.020391957330647
    },
    "planner": "BiEST",
    "start": {
        "state": {
            "elbow_joint": 1.971548259319323,
            "shoulder_lift_joint": -1.1394851275133948,
            "shoulder_pan_joint": 0.1228115487234821,
            "wrist_1_joint": -0.7804723859257726,
            "wrist_2_joint": 0.12958671773740124,
            "wrist_3_joint": -3.192489227718131
        }
    },
    "waypoints": [
        {
            "positions": [
                0.1228115487234821,
                -1.1394851275133948,
                1.971548259319323,
                -0.7804723859257726,
                0.12958671773740124,
                -3.192489227718131
            ]
        },
        {
            "positions": [
                0.056808632970770365,
                -1.173104986189584,
                2.035921131927502,
                -0.8146663757824216,
                0.2860663356139679,
                -3.1798900075409033
            ]
        },
        {
            "positions": [
                -0.00919428278194137,
                -1.2067248448657732,
                2.100294004535681,
                -0.8488603656390707,
                0.4425459534905345,
                -3.1672907873636755
            ]
        },
        {
            "positions": [
                -0.07519719853465312,
                -1.2403447035419624,
                2.1646668771438597,
                -0.8830543554957198,
                0.5990255713671011,
                -3.1546915671864477
            ]
        },
        {
            "positions": [
                -0.14120011428736484,
                -1.2739645622181517,
                2.229039749752039,
                -0.9172483453523689,
                0.7555051892436677,
                -3.1420923470092204
            ]
        },
        {
            "positions": [
                -0.20720303004007662,
                -1.3075844208943408,
                2.293412622360218,
                -0.9514423352090179,
                0.9119848071202343,
                -3.1294931268319925
            ]
        },
        {
            "positions": [
                -0.27320594579278834,
                -1.3412042795705301,
                2.3577854949683967,
                -0.985636325065667,
                1.068464424996801,
                -3.1168939066547647
            ]
        },
        {
            "positions": [
                -0.3392088615455001,
                -1.3748241382467192,
                2.422158367576576,
                -1.019830314922316,
                1.2249440428733676,
                -3.104294686477537
            ]
        }
    ]
}{
    "goal": {
        "global_pose": {
            "orientation": {
                "w": 0.5084816217422485,
                "x": -0.49083608388900757,
                "y": 0.5182115435600281,
                "z": -0.4816462993621826
            },
            "position": {
                "x": 0.5540239810943604,
                "y": 0.030875300988554955,
                "z": 0.16403168439865112
            }
        },
        "name": "move_to_storage_A"
    },
    "id": "BiEST_move_to_storage_A_45",
    "joint_names": [
        "shoulder_pan_joint",
        "shoulder_lift_joint",
        "elbow_joint",
        "wrist_1_joint",
        "wrist_2_joint",
        "wrist_3_joint"
    ],
    "metrics": {
        "cart_traj_len": 0.3536232345299517,
        "distance_elbow_joint": 0.44905559764716463,
        "distance_shoulder_lift_joint": 0.2351355273880582,
        "distance_shoulder_pan_joint": 0.464497671302408,
        "distance_wrist_1_joint": 0.2402401479503471,
        "distance_wrist_2_joint": 1.0908434166414007,
        "distance_wrist_3_joint": 0.0943997826182974,
        "smoothness": 2.2204460668324854e-16,
        "time": 0.08138542800000001,
        "traj_len": 1.604422682321487,
        "weighted_distance": 2.023377195032112
    },
    "planner": "BiEST",
    "start": {
        "state": {
            "elbow_joint": 1.97154746011099,
            "shoulder_lift_joint": -1.13948474672311,
            "shoulder_pan_joint": 0.12281154466712228,
            "wrist_1_joint": -0.7804688027058302,
            "wrist_2_joint": 0.12958655903071145,
            "wrist_3_joint": 3.0906928834467795
        }
    },
    "waypoints": [
        {
            "positions": [
                0.12281154466712228,
                -1.13948474672311,
                1.97154746011099,
                -0.7804688027058302,
                0.12958655903071145,
                3.0906928834467795
            ]
        },
        {
            "positions": [
                0.056454734481064,
                -1.1730755363499754,
                2.0356982597748705,
                -0.814788823841594,
                0.28542133283662585,
                3.1041785666779647
            ]
        },
        {
            "positions": [
                -0.009902075704994281,
                -1.2066663259768409,
                2.099849059438751,
                -0.849108844977358,
                0.4412561066425402,
                3.1176642499091503
            ]
        },
        {
            "positions": [
                -0.07625888589105255,
                -1.2402571156037063,
                2.1639998591026317,
                -0.8834288661131218,
                0.5970908804484546,
                3.1311499331403354
            ]
        },
        {
            "positions": [
                -0.14261569607711083,
                -1.2738479052305718,
                2.2281506587665127,
                -0.9177488872488857,
                0.752925654254369,
                3.144635616371521
            ]
        },
        {
            "positions": [
                -0.20897250626316916,
                -1.3074386948574372,
                2.2923014584303933,
                -0.9520689083846495,
                0.9087604280602835,
                3.158121299602706
            ]
        },
        {
            "positions": [
                -0.27532931644922737,
                -1.3410294844843027,
                2.356452258094274,
                -0.9863889295204133,
                1.0645952018661977,
                3.1716069828338918
            ]
        },
        {
            "positions": [
                -0.3416861266352857,
                -1.3746202741111682,
                2.4206030577581545,
                -1.0207089506561773,
                1.2204299756721122,
                3.185092666065077
            ]
        }
    ]
}{
    "goal": {
        "global_pose": {
            "orientation": {
                "w": 0.5084816217422485,
                "x": -0.49083608388900757,
                "y": 0.5182115435600281,
                "z": -0.4816462993621826
            },
            "position": {
                "x": 0.5540239810943604,
                "y": 0.030875300988554955,
                "z": 0.16403168439865112
            }
        },
        "name": "move_to_storage_A"
    },
    "id": "BiEST_move_to_storage_A_45",
    "joint_names": [
        "shoulder_pan_joint",
        "shoulder_lift_joint",
        "elbow_joint",
        "wrist_1_joint",
        "wrist_2_joint",
        "wrist_3_joint"
    ],
    "metrics": {
        "cart_traj_len": 0.35220353856840036,
        "distance_elbow_joint": 0.44821570058741145,
        "distance_shoulder_lift_joint": 0.2337962262880957,
        "distance_shoulder_pan_joint": 0.461300803286466,
        "distance_wrist_1_joint": 0.23665140540567142,
        "distance_wrist_2_joint": 1.0934470372396807,
        "distance_wrist_3_joint": 0.089305012895045,
        "smoothness": 0.0,
        "time": 0.06400452100000001,
        "traj_len": 1.600848583002893,
        "weighted_distance": 2.0177771567092866
    },
    "planner": "BiEST",
    "start": {
        "state": {
            "elbow_joint": 1.9715472970024885,
            "shoulder_lift_joint": -1.1394870060712896,
            "shoulder_pan_joint": 0.12281152778156021,
            "wrist_1_joint": -0.780463741449964,
            "wrist_2_joint": 0.12958659822042276,
            "wrist_3_joint": 3.090690232415272
        }
    },
    "waypoints": [
        {
            "positions": [
                0.12281152778156021,
                -1.1394870060712896,
                1.9715472970024885,
                -0.780463741449964,
                0.12958659822042276,
                3.090690232415272
            ]
        },
        {
            "positions": [
                0.05691141302635079,
                -1.172886466969589,
                2.0355781113721187,
                -0.8142710850793456,
                0.2857933178260914,
                3.103448091400278
            ]
        },
        {
            "positions": [
                -0.008988701728858628,
                -1.2062859278678884,
                2.099608925741749,
                -0.8480784287087273,
                0.4420000374317601,
                3.1162059503852846
            ]
        },
        {
            "positions": [
                -0.07488881648406803,
                -1.2396853887661878,
                2.163639740111379,
                -0.8818857723381088,
                0.5982067570374288,
                3.128963809370291
            ]
        },
        {
            "positions": [
                -0.14078893123927747,
                -1.273084849664487,
                2.2276705544810094,
                -0.9156931159674905,
                0.7544134766430974,
                3.1417216683552978
            ]
        },
        {
            "positions": [
                -0.20668904599448693,
                -1.3064843105627866,
                2.2917013688506396,
                -0.9495004595968721,
                0.9106201962487661,
                3.154479527340304
            ]
        },
        {
            "positions": [
                -0.2725891607496963,
                -1.3398837714610858,
                2.35573218322027,
                -0.9833078032262538,
                1.0668269158544348,
                3.1672373863253105
            ]
        },
        {
            "positions": [
                -0.33848927550490576,
                -1.3732832323593853,
                2.4197629975899,
                -1.0171151468556354,
                1.2230336354601035,
                3.179995245310317
            ]
        }
    ]
}