{
    "goal": {
        "global_pose": {
            "orientation": {
                "w": -0.00223480608172531,
                "x": 0.0024358444001904467,
                "y": 0.7094548369677653,
                "z": -0.704743149386269
            },
            "position": {
                "x": 0.6205249238014221,
                "y": -0.6371506643295288,
                "z": 0.19426114857196808
            }
        },
        "name": "move_to_magneteinheit_B"
    },
    "id": "BiEST_move_to_magneteinheit_B_103",
    "joint_names": [
        "shoulder_pan_joint",
        "shoulder_lift_joint",
        "elbow_joint",
        "wrist_1_joint",
        "wrist_2_joint",
        "wrist_3_joint"
    ],
    "metrics": {
        "cart_traj_len": 1.441023741115324,
        "distance_elbow_joint": 0.9528343504509833,
        "distance_shoulder_lift_joint": 0.7535570039869661,
        "distance_shoulder_pan_joint": 1.6208851455973043,
        "distance_wrist_1_joint": 0.7031915277307732,
        "distance_wrist_2_joint": 1.9988426287213013,
        "distance_wrist_3_joint": 1.5051805378533187,
        "smoothness": 0.5428717753486453,
        "time": 0.07779699400000001,
        "traj_len": 2.744902765917337,
        "weighted_distance": 3.6396272373004575
    },
    "planner": "BiEST",
    "start": {
        "state": {
            "elbow_joint": 2.6216224122426386,
            "shoulder_lift_joint": -1.4174107377796124,
            "shoulder_pan_joint": 0.7066234856936794,
            "wrist_1_joint": 1.9546482284002225,
            "wrist_2_joint": -0.7096286983471962,
            "wrist_3_joint": 0.005740856962016249
        }
    },
    "waypoints": [
        {
            "positions": [
                0.7066234856936794,
                -1.4174107377796124,
                2.6216224122426386,
                1.9546482284002225,
                -0.7096286983471962,
                0.005740856962016249
            ]
        },
        {
            "positions": [
                0.6098986422717415,
                -1.3854011824371015,
                2.6101187461515645,
                1.9044604232033118,
                -0.6616633495683881,
                0.15757252166757849
            ]
        },
        {
            "positions": [
                0.5131737988498036,
                -1.3533916270945907,
                2.598615080060491,
                1.8542726180064009,
                -0.61369800078958,
                0.3094041863731407
            ]
        },
        {
            "positions": [
                0.4164489554278658,
                -1.3213820717520801,
                2.5871114139694167,
                1.8040848128094902,
                -0.5657326520107719,
                0.4612358510787029
            ]
        },
        {
            "positions": [
                0.3197241120059279,
                -1.2893725164095693,
                2.575607747878343,
                1.7538970076125793,
                -0.5177673032319638,
                0.6130675157842651
            ]
        },
        {
            "positions": [
                0.22299926858399005,
                -1.2573629610670585,
                2.564104081787269,
                1.7037092024156686,
                -0.46980195445315576,
                0.7648991804898273
            ]
        },
        {
            "positions": [
                0.1471818733514824,
                -1.2177956792487643,
                2.5044163471208947,
                1.7338593691987498,
                -0.5870696801083065,
                0.7151643662014602
            ]
        },
        {
            "positions": [
                0.07136447811897473,
                -1.1782283974304701,
                2.4447286124545204,
                1.764009535981831,
                -0.7043374057634572,
                0.6654295519130929
            ]
        },
        {
            "positions": [
                -0.0044529171135329615,
                -1.138661115612176,
                2.385040877788146,
                1.7941597027649125,
                -0.8216051314186079,
                0.6156947376247257
            ]
        },
        {
            "positions": [
                -0.0802703123460406,
                -1.0990938337938818,
                2.325353143121772,
                1.8243098695479938,
                -0.9388728570737586,
                0.5659599233363586
            ]
        },
        {
            "positions": [
                -0.15608770757854823,
                -1.0595265519755876,
                2.2656654084553978,
                1.854460036331075,
                -1.0561405827289092,
                0.5162251090479915
            ]
        },
        {
            "positions": [
                -0.23190510281105597,
                -1.0199592701572935,
                2.2059776737890235,
                1.8846102031141563,
                -1.17340830838406,
                0.46649029475962417
            ]
        },
        {
            "positions": [
                -0.3077224980435636,
                -0.9803919883389994,
                2.1462899391226493,
                1.9147603698972375,
                -1.290676034039211,
                0.416755480471257
            ]
        },
        {
            "positions": [
                -0.38353989327607124,
                -0.9408247065207053,
                2.086602204456275,
                1.944910536680319,
                -1.4079437596943616,
                0.36702066618288987
            ]
        },
        {
            "positions": [
                -0.4593572885085789,
                -0.9012574247024112,
                2.026914469789901,
                1.9750607034634002,
                -1.5252114853495122,
                0.3172858518945227
            ]
        },
        {
            "positions": [
                -0.5351746837410865,
                -0.861690142884117,
                1.9672267351235266,
                2.0052108702464815,
                -1.6424792110046629,
                0.2675510376061555
            ]
        },
        {
            "positions": [
                -0.6109920789735941,
                -0.8221228610658229,
                1.9075390004571524,
                2.0353610370295625,
                -1.7597469366598135,
                0.21781622331778827
            ]
        },
        {
            "positions": [
                -0.6868094742061019,
                -0.7825555792475287,
                1.847851265790778,
                2.065511203812644,
                -1.8770146623149644,
                0.16808140902942104
            ]
        },
        {
            "positions": [
                -0.7626268694386096,
                -0.7429882974292346,
                1.7881635311244037,
                2.0956613705957254,
                -1.9942823879701153,
                0.11834659474105391
            ]
        },
        {
            "positions": [
                -0.8384442646711172,
                -0.7034210156109404,
                1.7284757964580295,
                2.1258115373788065,
                -2.111550113625266,
                0.06861178045268668
            ]
        },
        {
            "positions": [
                -0.914261659903625,
                -0.6638537337926462,
                1.6687880617916553,
                2.155961704161888,
                -2.2288178392804165,
                0.018876966164319543
            ]
        }
    ]
}