{
    "goal": {
        "global_pose": {
            "orientation": {
                "w": 0.5084816217422485,
                "x": -0.49083608388900757,
                "y": 0.5182115435600281,
                "z": -0.4816462993621826
            },
            "position": {
                "x": 0.5540239810943604,
                "y": 0.030875300988554955,
                "z": 0.16403168439865112
            }
        },
        "name": "move_to_storage_A"
    },
    "id": "BiEST_move_to_storage_A_127",
    "joint_names": [
        "shoulder_pan_joint",
        "shoulder_lift_joint",
        "elbow_joint",
        "wrist_1_joint",
        "wrist_2_joint",
        "wrist_3_joint"
    ],
    "metrics": {
        "cart_traj_len": 0.353578629132481,
        "distance_elbow_joint": 0.45257659783475046,
        "distance_shoulder_lift_joint": 0.23492873868625797,
        "distance_shoulder_pan_joint": 0.4622652854302577,
        "distance_wrist_1_joint": 0.24876820150822965,
        "distance_wrist_2_joint": 1.101094225379059,
        "distance_wrist_3_joint": 0.10160963853519656,
        "smoothness": 9.992007271825419e-16,
        "time": 0.039955471,
        "traj_len": 1.6128368446230859,
        "weighted_distance": 2.0382159825031874
    },
    "planner": "BiEST",
    "start": {
        "state": {
            "elbow_joint": 1.971548259319323,
            "shoulder_lift_joint": -1.1394851275133948,
            "shoulder_pan_joint": 0.1228115487234821,
            "wrist_1_joint": -0.7804723859257726,
            "wrist_2_joint": 0.12958671773740124,
            "wrist_3_joint": -3.192489227718131
        }
    },
    "waypoints": [
        {
            "positions": [
                0.1228115487234821,
                -1.1394851275133948,
                1.971548259319323,
                -0.7804723859257726,
                0.12958671773740124,
                -3.192489227718131
            ]
        },
        {
            "positions": [
                0.05677365080487386,
                -1.1730463758971459,
                2.0362020590100016,
                -0.8160107004269482,
                0.2868858927915525,
                -3.177973565070246
            ]
        },
        {
            "positions": [
                -0.009264247113734386,
                -1.2066076242808972,
                2.1008558587006805,
                -0.851549014928124,
                0.4441850678457038,
                -3.1634579024223606
            ]
        },
        {
            "positions": [
                -0.07530214503234262,
                -1.2401688726646483,
                2.165509658391359,
                -0.8870873294292996,
                0.601484242899855,
                -3.1489422397744753
            ]
        },
        {
            "positions": [
                -0.14134004295095087,
                -1.2737301210483993,
                2.2301634580820373,
                -0.9226256439304753,
                0.7587834179540064,
                -3.1344265771265905
            ]
        },
        {
            "positions": [
                -0.20737794086955913,
                -1.3072913694321504,
                2.294817257772716,
                -0.9581639584316509,
                0.9160825930081578,
                -3.119910914478705
            ]
        },
        {
            "positions": [
                -0.27341583878816733,
                -1.3408526178159017,
                2.359471057463395,
                -0.9937022729328266,
                1.0733817680623088,
                -3.10539525183082
            ]
        },
        {
            "positions": [
                -0.3394537367067756,
                -1.3744138661996528,
                2.4241248571540734,
                -1.0292405874340023,
                1.2306809431164603,
                -3.0908795891829346
            ]
        }
    ]
}{
    "goal": {
        "global_pose": {
            "orientation": {
                "w": 0.5084816217422485,
                "x": -0.49083608388900757,
                "y": 0.5182115435600281,
                "z": -0.4816462993621826
            },
            "position": {
                "x": 0.5540239810943604,
                "y": 0.030875300988554955,
                "z": 0.16403168439865112
            }
        },
        "name": "move_to_storage_A"
    },
    "id": "BiEST_move_to_storage_A_127",
    "joint_names": [
        "shoulder_pan_joint",
        "shoulder_lift_joint",
        "elbow_joint",
        "wrist_1_joint",
        "wrist_2_joint",
        "wrist_3_joint"
    ],
    "metrics": {
        "cart_traj_len": 0.35380103023552983,
        "distance_elbow_joint": 0.4501537662185826,
        "distance_shoulder_lift_joint": 0.23544033177121193,
        "distance_shoulder_pan_joint": 0.45940455297881333,
        "distance_wrist_1_joint": 0.24534285287977076,
        "distance_wrist_2_joint": 1.1143485583958446,
        "distance_wrist_3_joint": 0.0970314815294584,
        "smoothness": 4.440892098500626e-16,
        "time": 0.07222242599999999,
        "traj_len": 1.6129852893853935,
        "weighted_distance": 2.0384984469231795
    },
    "planner": "BiEST",
    "start": {
        "state": {
            "elbow_joint": 1.97154746011099,
            "shoulder_lift_joint": -1.13948474672311,
            "shoulder_pan_joint": 0.12281154466712228,
            "wrist_1_joint": -0.7804688027058302,
            "wrist_2_joint": 0.12958655903071145,
            "wrist_3_joint": 3.0906928834467795
        }
    },
    "waypoints": [
        {
            "positions": [
                0.12281154466712228,
                -1.13948474672311,
                1.97154746011099,
                -0.7804688027058302,
                0.12958655903071145,
                3.0906928834467795
            ]
        },
        {
            "positions": [
                0.0571823228130061,
                -1.1731190798332831,
                2.035855140999359,
                -0.8155177816886546,
                0.2887792102301178,
                3.1045545236652736
            ]
        },
        {
            "positions": [
                -0.008446899041110081,
                -1.2067534129434563,
                2.1001628218877277,
                -0.850566760671479,
                0.44797186142952417,
                3.1184161638837677
            ]
        },
        {
            "positions": [
                -0.07407612089522626,
                -1.2403877460536294,
                2.164470502776097,
                -0.8856157396543034,
                0.6071645126289306,
                3.132277804102262
            ]
        },
        {
            "positions": [
                -0.13970534274934243,
                -1.2740220791638024,
                2.2287781836644656,
                -0.9206647186371277,
                0.766357163828337,
                3.1461394443207555
            ]
        },
        {
            "positions": [
                -0.20533456460345867,
                -1.3076564122739756,
                2.2930858645528347,
                -0.9557136976199522,
                0.9255498150277434,
                3.1600010845392497
            ]
        },
        {
            "positions": [
                -0.2709637864575748,
                -1.3412907453841487,
                2.3573935454412034,
                -0.9907626766027765,
                1.0847424662271496,
                3.173862724757744
            ]
        },
        {
            "positions": [
                -0.33659300831169103,
                -1.3749250784943219,
                2.4217012263295725,
                -1.025811655585601,
                1.243935117426556,
                3.187724364976238
            ]
        }
    ]
}{
    "goal": {
        "global_pose": {
            "orientation": {
                "w": 0.5084816217422485,
                "x": -0.49083608388900757,
                "y": 0.5182115435600281,
                "z": -0.4816462993621826
            },
            "position": {
                "x": 0.5540239810943604,
                "y": 0.030875300988554955,
                "z": 0.16403168439865112
            }
        },
        "name": "move_to_storage_A"
    },
    "id": "BiEST_move_to_storage_A_127",
    "joint_names": [
        "shoulder_pan_joint",
        "shoulder_lift_joint",
        "elbow_joint",
        "wrist_1_joint",
        "wrist_2_joint",
        "wrist_3_joint"
    ],
    "metrics": {
        "cart_traj_len": 0.35329154666446916,
        "distance_elbow_joint": 0.4536388114695682,
        "distance_shoulder_lift_joint": 0.23114034988249244,
        "distance_shoulder_pan_joint": 0.4609145995328958,
        "distance_wrist_1_joint": 0.2646311189867494,
        "distance_wrist_2_joint": 1.1024325749087696,
        "distance_wrist_3_joint": 0.10634919870977777,
        "smoothness": 4.440892098500626e-16,
        "time": 0.034948115,
        "traj_len": 1.6183654264381249,
        "weighted_distance": 2.049114136597893
    },
    "planner": "BiEST",
    "start": {
        "state": {
            "elbow_joint": 1.9715472970024885,
            "shoulder_lift_joint": -1.1394870060712896,
            "shoulder_pan_joint": 0.12281152778156021,
            "wrist_1_joint": -0.780463741449964,
            "wrist_2_joint": 0.12958659822042276,
            "wrist_3_joint": 3.090690232415272
        }
    },
    "waypoints": [
        {
            "positions": [
                0.12281152778156021,
                -1.1394870060712896,
                1.9715472970024885,
                -0.780463741449964,
                0.12958659822042276,
                3.090690232415272
            ]
        },
        {
            "positions": [
                0.05696658499114653,
                -1.1725070560545028,
                2.0363528414981413,
                -0.8182681870194997,
                0.2870769660645327,
                3.105882975088097
            ]
        },
        {
            "positions": [
                -0.008878357799267156,
                -1.205527106037716,
                2.1011583859937937,
                -0.8560726325890352,
                0.44456733390864267,
                3.1210757177609225
            ]
        },
        {
            "positions": [
                -0.07472330058968085,
                -1.2385471560209291,
                2.1659639304894465,
                -0.8938770781585709,
                0.6020577017527525,
                3.136268460433748
            ]
        },
        {
            "positions": [
                -0.14056824338009452,
                -1.2715672060041423,
                2.230769474985099,
                -0.9316815237281065,
                0.7595480695968625,
                3.1514612031065736
            ]
        },
        {
            "positions": [
                -0.20641318617050822,
                -1.3045872559873557,
                2.2955750194807516,
                -0.9694859692976421,
                0.9170384374409725,
                3.166653945779399
            ]
        },
        {
            "positions": [
                -0.27225812896092194,
                -1.3376073059705689,
                2.360380563976404,
                -1.0072904148671777,
                1.0745288052850823,
                3.1818466884522243
            ]
        },
        {
            "positions": [
                -0.3381030717513356,
                -1.370627355953782,
                2.4251861084720567,
                -1.0450948604367134,
                1.2320191731291923,
                3.1970394311250496
            ]
        }
    ]
}