{
    "goal": {
        "global_pose": {
            "orientation": {
                "w": 0.7047431468963623,
                "x": -0.7094548344612122,
                "y": 0.0024358443915843964,
                "z": -0.0022348060738295317
            },
            "position": {
                "x": 0.6094750761985779,
                "y": 0.3671506643295288,
                "z": 0.19426114857196808
            }
        },
        "name": "move_to_magneteinheit_A"
    },
    "id": "BiEST_move_to_magneteinheit_A_48",
    "joint_names": [
        "shoulder_pan_joint",
        "shoulder_lift_joint",
        "elbow_joint",
        "wrist_1_joint",
        "wrist_2_joint",
        "wrist_3_joint"
    ],
    "metrics": {
        "cart_traj_len": 3.332818763882958,
        "distance_elbow_joint": 3.921801974763061,
        "distance_shoulder_lift_joint": 0.46381323801639707,
        "distance_shoulder_pan_joint": 3.370892379845312,
        "distance_wrist_1_joint": 3.4900709676005137,
        "distance_wrist_2_joint": 1.633385601304956,
        "distance_wrist_3_joint": 1.1834629740575269,
        "smoothness": 0.19746990962310418,
        "time": 0.094112923,
        "traj_len": 3.7501236160409124,
        "weighted_distance": 4.642608065797532
    },
    "planner": "BiEST",
    "start": {
        "state": {
            "elbow_joint": -1.9196185241190666,
            "shoulder_lift_joint": -1.2443396400964142,
            "shoulder_pan_joint": 2.6996025414629847,
            "wrist_1_joint": -1.5485510000780065,
            "wrist_2_joint": -1.5709468930060704,
            "wrist_3_joint": 0.4420197071253992
        }
    },
    "waypoints": [
        {
            "positions": [
                2.6996025414629847,
                -1.2443396400964142,
                -1.9196185241190666,
                -1.5485510000780065,
                -1.5709468930060704,
                0.4420197071253992
            ]
        },
        {
            "positions": [
                2.600462598330387,
                -1.239667137847211,
                -1.8090021570860757,
                -1.4400623716455876,
                -1.5197637712944905,
                0.45417857670650263
            ]
        },
        {
            "positions": [
                2.5013226551977894,
                -1.234994635598008,
                -1.6983857900530845,
                -1.3315737432131687,
                -1.4685806495829103,
                0.46633744628760615
            ]
        },
        {
            "positions": [
                2.4021827120651915,
                -1.2303221333488048,
                -1.5877694230200934,
                -1.2230851147807498,
                -1.4173975278713304,
                0.4784963158687096
            ]
        },
        {
            "positions": [
                2.303042768932594,
                -1.2256496310996017,
                -1.4771530559871024,
                -1.114596486348331,
                -1.3662144061597503,
                0.49065518544981307
            ]
        },
        {
            "positions": [
                2.203902825799996,
                -1.2209771288503986,
                -1.3665366889541115,
                -1.0061078579159122,
                -1.3150312844481704,
                0.5028140550309166
            ]
        },
        {
            "positions": [
                2.1047628826673987,
                -1.2163046266011954,
                -1.2559203219211204,
                -0.8976192294834932,
                -1.2638481627365903,
                0.51497292461202
            ]
        },
        {
            "positions": [
                2.005622939534801,
                -1.2116321243519923,
                -1.1453039548881292,
                -0.7891306010510744,
                -1.2126650410250104,
                0.5271317941931235
            ]
        },
        {
            "positions": [
                1.9064829964022034,
                -1.2069596221027894,
                -1.0346875878551383,
                -0.6806419726186554,
                -1.1614819193134305,
                0.539290663774227
            ]
        },
        {
            "positions": [
                1.8073430532696055,
                -1.2022871198535863,
                -0.9240712208221473,
                -0.5721533441862366,
                -1.1102987976018506,
                0.5514495333553304
            ]
        },
        {
            "positions": [
                1.708203110137008,
                -1.1976146176043831,
                -0.8134548537891564,
                -0.46366471575381785,
                -1.0591156758902704,
                0.563608402936434
            ]
        },
        {
            "positions": [
                1.6090631670044104,
                -1.19294211535518,
                -0.7028384867561652,
                -0.35517608732139894,
                -1.0079325541786905,
                0.5757672725175375
            ]
        },
        {
            "positions": [
                1.5099232238718125,
                -1.188269613105977,
                -0.5922221197231741,
                -0.2466874588889798,
                -0.9567494324671104,
                0.5879261420986409
            ]
        },
        {
            "positions": [
                1.4107832807392149,
                -1.1835971108567738,
                -0.48160575269018313,
                -0.13819883045656112,
                -0.9055663107555304,
                0.6000850116797444
            ]
        },
        {
            "positions": [
                1.3116433376066172,
                -1.1789246086075706,
                -0.370989385657192,
                -0.029710202024142207,
                -0.8543831890439505,
                0.6122438812608478
            ]
        },
        {
            "positions": [
                1.2125033944740196,
                -1.1742521063583675,
                -0.26037301862420104,
                0.0787784264082767,
                -0.8032000673323705,
                0.6244027508419514
            ]
        },
        {
            "positions": [
                1.113363451341422,
                -1.1695796041091644,
                -0.1497566515912101,
                0.1872670548406956,
                -0.7520169456207905,
                0.6365616204230549
            ]
        },
        {
            "positions": [
                1.0142235082088242,
                -1.1649071018599613,
                -0.03914028455821894,
                0.2957556832731145,
                -0.7008338239092106,
                0.6487204900041583
            ]
        },
        {
            "positions": [
                0.9150835650762266,
                -1.1602345996107581,
                0.071476082474772,
                0.4042443117055332,
                -0.6496507021976305,
                0.6608793595852618
            ]
        },
        {
            "positions": [
                0.8159436219436289,
                -1.155562097361555,
                0.18209244950776293,
                0.5127329401379523,
                -0.5984675804860505,
                0.6730382291663652
            ]
        },
        {
            "positions": [
                0.7168036788110312,
                -1.150889595112352,
                0.29270881654075387,
                0.6212215685703708,
                -0.5472844587744705,
                0.6851970987474687
            ]
        },
        {
            "positions": [
                0.6176637356784336,
                -1.1462170928631488,
                0.40332518357374525,
                0.7297101970027897,
                -0.4961013370628906,
                0.6973559683285722
            ]
        },
        {
            "positions": [
                0.5185237925458361,
                -1.1415445906139459,
                0.5139415506067362,
                0.8381988254352086,
                -0.4449182153513107,
                0.7095148379096756
            ]
        },
        {
            "positions": [
                0.4193838494132378,
                -1.1368720883647425,
                0.6245579176397276,
                0.946687453867628,
                -0.39373509363973036,
                0.7216737074907792
            ]
        },
        {
            "positions": [
                0.32024390628064037,
                -1.1321995861155396,
                0.7351742846727185,
                1.055176082300047,
                -0.34255197192815046,
                0.7338325770718827
            ]
        },
        {
            "positions": [
                0.22110396314804248,
                -1.1275270838663365,
                0.8457906517057094,
                1.1636647107324658,
                -0.29136885021657055,
                0.7459914466529862
            ]
        },
        {
            "positions": [
                0.12196402001544504,
                -1.1228545816171334,
                0.9564070187387004,
                1.2721533391648843,
                -0.24018572850499043,
                0.7581503162340897
            ]
        },
        {
            "positions": [
                0.022824076882847155,
                -1.1181820793679302,
                1.0670233857716913,
                1.3806419675973032,
                -0.18900260679341052,
                0.7703091858151931
            ]
        },
        {
            "positions": [
                -0.07631586624975029,
                -1.1135095771187271,
                1.1776397528046827,
                1.489130596029722,
                -0.13781948508183062,
                0.7824680553962966
            ]
        },
        {
            "positions": [
                -0.17545580938234817,
                -1.108837074869524,
                1.2882561198376736,
                1.597619224462141,
                -0.08663636337025049,
                0.7946269249774001
            ]
        },
        {
            "positions": [
                -0.27459575251494545,
                -1.1041645726203209,
                1.3988724868706646,
                1.7061078528945601,
                -0.035453241658670566,
                0.8067857945585035
            ]
        },
        {
            "positions": [
                -0.21477335337139303,
                -1.0541571577254572,
                1.4925972513250758,
                1.7436448862713707,
                -0.050097158857875274,
                0.6803689502910907
            ]
        },
        {
            "positions": [
                -0.1549509542278406,
                -1.0041497428305937,
                1.5863220157794873,
                1.7811819196481815,
                -0.06474107605707999,
                0.5539521060236778
            ]
        },
        {
            "positions": [
                -0.09512855508428822,
                -0.95414232793573,
                1.6800467802338985,
                1.818718953024992,
                -0.07938499325628469,
                0.427535261756265
            ]
        },
        {
            "positions": [
                -0.0353061559407358,
                -0.9041349130408664,
                1.77377154468831,
                1.856255986401803,
                -0.0940289104554894,
                0.30111841748885215
            ]
        },
        {
            "positions": [
                0.024516243202816618,
                -0.8541274981460028,
                1.8674963091427212,
                1.8937930197786135,
                -0.10867282765469412,
                0.17470157322143928
            ]
        },
        {
            "positions": [
                0.07330728827762624,
                -0.8173269501130099,
                1.9348398798933577,
                1.9176564936505605,
                -0.12100900963546027,
                0.0813952405777601
            ]
        },
        {
            "positions": [
                0.12209833335243586,
                -0.7805264020800171,
                2.002183450643994,
                1.9415199675225077,
                -0.1333451916162264,
                -0.01191109206591909
            ]
        }
    ]
}