{
    "goal": {
        "global_pose": {
            "orientation": {
                "w": -0.00223480608172531,
                "x": 0.0024358444001904467,
                "y": 0.7094548369677653,
                "z": -0.704743149386269
            },
            "position": {
                "x": -0.37947507619857795,
                "y": -0.6371506643295288,
                "z": 0.19426114857196808
            }
        },
        "name": "move_to_magneteinheit_C"
    },
    "id": "BiEST_move_to_magneteinheit_C_68",
    "joint_names": [
        "shoulder_pan_joint",
        "shoulder_lift_joint",
        "elbow_joint",
        "wrist_1_joint",
        "wrist_2_joint",
        "wrist_3_joint"
    ],
    "metrics": {
        "cart_traj_len": 2.6085339813862998,
        "distance_elbow_joint": 2.3222706759810334,
        "distance_shoulder_lift_joint": 0.5276708122589853,
        "distance_shoulder_pan_joint": 2.2081361065385177,
        "distance_wrist_1_joint": 2.4801585811946305,
        "distance_wrist_2_joint": 1.7909601109473638,
        "distance_wrist_3_joint": 1.1484374036869127,
        "smoothness": 0.7862320001894633,
        "time": 0.127594502,
        "traj_len": 3.2369173129086026,
        "weighted_distance": 4.128635027478604
    },
    "planner": "BiEST",
    "start": {
        "state": {
            "elbow_joint": 1.9565354010623817,
            "shoulder_lift_joint": -1.4165861575791021,
            "shoulder_pan_joint": -1.6717766225146293,
            "wrist_1_joint": -0.5286633292919765,
            "wrist_2_joint": 1.472756589071564,
            "wrist_3_joint": -3.1238370188695823
        }
    },
    "waypoints": [
        {
            "positions": [
                -1.6717766225146293,
                -1.4165861575791021,
                1.9565354010623817,
                -0.5286633292919765,
                1.472756589071564,
                -3.1238370188695823
            ]
        },
        {
            "positions": [
                -1.5733964660072002,
                -1.4465111430395048,
                1.94620969967275,
                -0.49995502230000727,
                1.4165650188075847,
                -3.085630354805514
            ]
        },
        {
            "positions": [
                -1.475016309499771,
                -1.4764361284999077,
                1.9358839982831184,
                -0.4712467153080381,
                1.3603734485436056,
                -3.047423690741445
            ]
        },
        {
            "positions": [
                -1.4293263210133826,
                -1.4783889405684552,
                1.824537990566207,
                -0.43003109031574593,
                1.2418701643623884,
                -2.9984196280972193
            ]
        },
        {
            "positions": [
                -1.383636332526994,
                -1.4803417526370029,
                1.7131919828492952,
                -0.3888154653234538,
                1.1233668801811711,
                -2.949415565452994
            ]
        },
        {
            "positions": [
                -1.3379463440406054,
                -1.4822945647055503,
                1.6018459751323837,
                -0.34759984033116165,
                1.004863595999954,
                -2.900411502808768
            ]
        },
        {
            "positions": [
                -1.292256355554217,
                -1.484247376774098,
                1.490499967415472,
                -0.30638421533886945,
                0.8863603118187365,
                -2.851407440164542
            ]
        },
        {
            "positions": [
                -1.2465663670678286,
                -1.4862001888426455,
                1.3791539596985605,
                -0.2651685903465773,
                0.7678570276375193,
                -2.8024033775203163
            ]
        },
        {
            "positions": [
                -1.20087637858144,
                -1.488153000911193,
                1.267807951981649,
                -0.22395296535428516,
                0.649353743456302,
                -2.753399314876091
            ]
        },
        {
            "positions": [
                -1.1551863900950514,
                -1.4901058129797407,
                1.1564619442647373,
                -0.18273734036199302,
                0.5308504592750848,
                -2.704395252231865
            ]
        },
        {
            "positions": [
                -1.109496401608663,
                -1.4920586250482881,
                1.0451159365478255,
                -0.14152171536970082,
                0.4123471750938674,
                -2.655391189587639
            ]
        },
        {
            "positions": [
                -1.0638064131222746,
                -1.4940114371168358,
                0.933769928830914,
                -0.10030609037740867,
                0.2938438909126502,
                -2.606387126943414
            ]
        },
        {
            "positions": [
                -1.018116424635886,
                -1.4959642491853833,
                0.8224239211140024,
                -0.05909046538511653,
                0.17534060673143295,
                -2.557383064299188
            ]
        },
        {
            "positions": [
                -1.1929229051893513,
                -1.5032085727009739,
                0.8857271889627414,
                0.017758552478680995,
                0.2147211896090186,
                -2.5696941485314455
            ]
        },
        {
            "positions": [
                -1.3677293857428166,
                -1.5104528962165644,
                0.9490304568114803,
                0.09460757034247852,
                0.25410177248660426,
                -2.582005232763703
            ]
        },
        {
            "positions": [
                -1.542535866296282,
                -1.517697219732155,
                1.0123337246602193,
                0.17145658820627604,
                0.29348235536418993,
                -2.5943163169959607
            ]
        },
        {
            "positions": [
                -1.7173423468497473,
                -1.5249415432477456,
                1.0756369925089582,
                0.24830560607007357,
                0.3328629382417756,
                -2.6066274012282182
            ]
        },
        {
            "positions": [
                -1.8921488274032126,
                -1.5321858667633363,
                1.1389402603576972,
                0.32515462393387107,
                0.3722435211193612,
                -2.618938485460476
            ]
        },
        {
            "positions": [
                -2.066955307956678,
                -1.539430190278927,
                1.202243528206436,
                0.4020036417976686,
                0.4116241039969469,
                -2.6312495696927334
            ]
        },
        {
            "positions": [
                -2.2417617885101433,
                -1.5466745137945175,
                1.2655467960551752,
                0.4788526596614662,
                0.45100468687453255,
                -2.643560653924991
            ]
        },
        {
            "positions": [
                -2.4165682690636086,
                -1.553918837310108,
                1.328850063903914,
                0.5557016775252637,
                0.49038526975211816,
                -2.6558717381572485
            ]
        },
        {
            "positions": [
                -2.4460331447125285,
                -1.5422627585723496,
                1.4251870353192695,
                0.47559996635158935,
                0.5339966257927906,
                -2.6989493430209825
            ]
        },
        {
            "positions": [
                -2.475498020361449,
                -1.530606679834591,
                1.521524006734625,
                0.39549825517791504,
                0.5776079818334631,
                -2.742026947884716
            ]
        },
        {
            "positions": [
                -2.504962896010369,
                -1.5189506010968326,
                1.6178609781499804,
                0.31539654400424066,
                0.6212193378741355,
                -2.78510455274845
            ]
        },
        {
            "positions": [
                -2.513949442289121,
                -1.4936516754695734,
                1.6761924351946285,
                0.21892016860044855,
                0.6402269450228248,
                -2.822907298352968
            ]
        },
        {
            "positions": [
                -2.5229359885678737,
                -1.4683527498423143,
                1.7345238922392765,
                0.12244379319665644,
                0.6592345521715143,
                -2.8607100439574857
            ]
        },
        {
            "positions": [
                -2.5130047196223164,
                -1.4073983408302773,
                1.7897357372207525,
                -0.07006334481310031,
                0.6611645888049444,
                -2.91644133784913
            ]
        },
        {
            "positions": [
                -2.503073450676759,
                -1.3464439318182402,
                1.8449475822022285,
                -0.26257048282285705,
                0.6630946254383746,
                -2.972172631740774
            ]
        },
        {
            "positions": [
                -2.493142181731202,
                -1.2854895228062029,
                1.9001594271837048,
                -0.4550776208326137,
                0.6650246620718049,
                -3.027903925632418
            ]
        },
        {
            "positions": [
                -2.4832109127856445,
                -1.2245351137941658,
                1.9553712721651808,
                -0.6475847588423705,
                0.666954698705235,
                -3.083635219524062
            ]
        },
        {
            "positions": [
                -2.4732796438400872,
                -1.1635807047821287,
                2.010583117146657,
                -0.8400918968521273,
                0.6688847353386652,
                -3.1393665134157063
            ]
        }
    ]
}