{
    "goal": {
        "global_pose": {
            "orientation": {
                "w": 0.7047431493862688,
                "x": -0.7094548369677653,
                "y": 0.0024358444001904,
                "z": -0.0022348060817251984
            },
            "position": {
                "x": -0.39052492380142206,
                "y": 0.3671506643295288,
                "z": 0.19426114857196808
            }
        },
        "name": "move_to_magneteinheit_D"
    },
    "id": "BiEST_move_to_magneteinheit_D_80",
    "joint_names": [
        "shoulder_pan_joint",
        "shoulder_lift_joint",
        "elbow_joint",
        "wrist_1_joint",
        "wrist_2_joint",
        "wrist_3_joint"
    ],
    "metrics": {
        "cart_traj_len": 4.562841610752495,
        "distance_elbow_joint": 3.190895776857632,
        "distance_shoulder_lift_joint": 1.63502172264174,
        "distance_shoulder_pan_joint": 3.890651184325181,
        "distance_wrist_1_joint": 1.5857691155690408,
        "distance_wrist_2_joint": 0.3752137597385533,
        "distance_wrist_3_joint": 3.1825218712071215,
        "smoothness": 0.39044473469515195,
        "time": 0.192095295,
        "traj_len": 3.722911955759801,
        "weighted_distance": 4.7102123145417885
    },
    "planner": "BiEST",
    "start": {
        "state": {
            "elbow_joint": 0.749534889911806,
            "shoulder_lift_joint": -0.6476975780787326,
            "shoulder_pan_joint": -2.711696901376241,
            "wrist_1_joint": -0.07506478083263063,
            "wrist_2_joint": 0.43296659715538205,
            "wrist_3_joint": -3.14703540197715
        }
    },
    "waypoints": [
        {
            "positions": [
                -2.711696901376241,
                -0.6476975780787326,
                0.749534889911806,
                -0.07506478083263063,
                0.43296659715538205,
                -3.14703540197715
            ]
        },
        {
            "positions": [
                -2.737767415490353,
                -0.6817601346208723,
                0.7651333532137243,
                0.07966541177869599,
                0.3015027428132108,
                -3.1513642580353745
            ]
        },
        {
            "positions": [
                -2.763837929604465,
                -0.7158226911630119,
                0.7807318165156427,
                0.2343956043900226,
                0.1700388884710396,
                -3.155693114093599
            ]
        },
        {
            "positions": [
                -2.653219605230459,
                -0.7650498860656174,
                0.677712825200649,
                0.26488463311774013,
                0.1722798262132809,
                -3.059322735780669
            ]
        },
        {
            "positions": [
                -2.542601280856453,
                -0.8142770809682228,
                0.5746938338856553,
                0.29537366184545766,
                0.17452076395552218,
                -2.962952357467739
            ]
        },
        {
            "positions": [
                -2.431982956482447,
                -0.8635042758708282,
                0.47167484257066156,
                0.3258626905731752,
                0.17676170169776345,
                -2.866581979154809
            ]
        },
        {
            "positions": [
                -2.321364632108441,
                -0.9127314707734338,
                0.36865585125566785,
                0.3563517193008927,
                0.17900263944000475,
                -2.770211600841879
            ]
        },
        {
            "positions": [
                -2.210746307734435,
                -0.9619586656760393,
                0.2656368599406741,
                0.38684074802861024,
                0.18124357718224604,
                -2.6738412225289494
            ]
        },
        {
            "positions": [
                -2.100127983360429,
                -1.0111858605786446,
                0.1626178686256804,
                0.4173297767563277,
                0.18348451492448734,
                -2.5774708442160192
            ]
        },
        {
            "positions": [
                -1.9895096589864232,
                -1.0604130554812503,
                0.05959887731068669,
                0.44781880548404523,
                0.18572545266672863,
                -2.481100465903089
            ]
        },
        {
            "positions": [
                -1.8788913346124172,
                -1.1096402503838556,
                -0.04342011400430701,
                0.47830783421176276,
                0.18796639040896992,
                -2.3847300875901594
            ]
        },
        {
            "positions": [
                -1.768273010238411,
                -1.1588674452864611,
                -0.1464391053193007,
                0.5087968629394803,
                0.19020732815121122,
                -2.2883597092772296
            ]
        },
        {
            "positions": [
                -1.657654685864405,
                -1.2080946401890666,
                -0.24945809663429452,
                0.5392858916671979,
                0.19244826589345249,
                -2.1919893309642995
            ]
        },
        {
            "positions": [
                -1.5470363614903992,
                -1.257321835091672,
                -0.3524770879492882,
                0.5697749203949153,
                0.19468920363569378,
                -2.0956189526513698
            ]
        },
        {
            "positions": [
                -1.436418037116393,
                -1.3065490299942775,
                -0.45549607926428193,
                0.6002639491226328,
                0.19693014137793508,
                -1.9992485743384396
            ]
        },
        {
            "positions": [
                -1.325799712742387,
                -1.355776224896883,
                -0.5585150705792756,
                0.6307529778503503,
                0.19917107912017637,
                -1.9028781960255097
            ]
        },
        {
            "positions": [
                -1.215181388368381,
                -1.4050034197994885,
                -0.6615340618942693,
                0.6612420065780679,
                0.20141201686241766,
                -1.8065078177125797
            ]
        },
        {
            "positions": [
                -1.1045630639943749,
                -1.454230614702094,
                -0.764553053209263,
                0.6917310353057854,
                0.20365295460465893,
                -1.7101374393996498
            ]
        },
        {
            "positions": [
                -0.9939447396203691,
                -1.5034578096046993,
                -0.8675720445242567,
                0.7222200640335029,
                0.20589389234690023,
                -1.61376706108672
            ]
        },
        {
            "positions": [
                -0.8833264152463634,
                -1.5526850045073046,
                -0.9705910358392504,
                0.7527090927612203,
                0.20813483008914152,
                -1.5173966827737901
            ]
        },
        {
            "positions": [
                -0.7727080908723569,
                -1.6019121994099104,
                -1.0736100271542441,
                0.783198121488938,
                0.21037576783138281,
                -1.42102630446086
            ]
        },
        {
            "positions": [
                -0.6620897664983514,
                -1.6511393943125157,
                -1.1766290184692378,
                0.8136871502166555,
                0.2126167055736241,
                -1.3246559261479303
            ]
        },
        {
            "positions": [
                -0.551471442124345,
                -1.7003665892151214,
                -1.2796480097842318,
                0.844176178944373,
                0.2148576433158654,
                -1.228285547835
            ]
        },
        {
            "positions": [
                -0.440853117750339,
                -1.7495937841177267,
                -1.3826670010992255,
                0.8746652076720905,
                0.2170985810581067,
                -1.1319151695220704
            ]
        },
        {
            "positions": [
                -0.33023479337633344,
                -1.798820979020332,
                -1.4856859924142192,
                0.905154236399808,
                0.21933951880034797,
                -1.0355447912091407
            ]
        },
        {
            "positions": [
                -0.219616469002327,
                -1.8480481739229377,
                -1.5887049837292129,
                0.9356432651275256,
                0.22158045654258926,
                -0.9391744128962105
            ]
        },
        {
            "positions": [
                -0.10899814462832103,
                -1.897275368825543,
                -1.6917239750442066,
                0.966132293855243,
                0.22382139428483055,
                -0.8428040345832803
            ]
        },
        {
            "positions": [
                0.0016201797456845135,
                -1.9465025637281486,
                -1.7947429663592003,
                0.9966213225829605,
                0.22606233202707182,
                -0.7464336562703506
            ]
        },
        {
            "positions": [
                0.11223850411969094,
                -1.995729758630754,
                -1.897761957674194,
                1.027110351310678,
                0.22830326976931314,
                -0.6500632779574205
            ]
        },
        {
            "positions": [
                0.22285682849369692,
                -2.0449569535333594,
                -2.0007809489891875,
                1.0575993800383956,
                0.2305442075115544,
                -0.5536928996444908
            ]
        },
        {
            "positions": [
                0.3334751528677029,
                -2.094184148435965,
                -2.1037999403041816,
                1.0880884087661131,
                0.23278514525379573,
                -0.4573225213315606
            ]
        },
        {
            "positions": [
                0.4440934772417091,
                -2.1434113433385704,
                -2.206818931619175,
                1.1185774374938307,
                0.235026082996037,
                -0.3609521430186307
            ]
        },
        {
            "positions": [
                0.3179777273915527,
                -2.171272934814951,
                -2.24124855204297,
                1.1970028169423466,
                0.22556631169019437,
                -0.28512750541548965
            ]
        },
        {
            "positions": [
                0.19186197754139628,
                -2.1991345262913313,
                -2.275678172466766,
                1.2754281963908625,
                0.21610654038435176,
                -0.20930286781234858
            ]
        },
        {
            "positions": [
                0.06574622769123989,
                -2.226996117767712,
                -2.310107792890561,
                1.3538535758393784,
                0.20664676907850912,
                -0.13347823020920752
            ]
        },
        {
            "positions": [
                -0.060369522158916555,
                -2.2548577092440922,
                -2.344537413314357,
                1.4322789552878943,
                0.19718699777266652,
                -0.05765359260606645
            ]
        },
        {
            "positions": [
                -0.18648527200907297,
                -2.2827193007204727,
                -2.378967033738152,
                1.5107043347364102,
                0.18772722646682388,
                0.01817104499707464
            ]
        }
    ]
}