{
    "goal": {
        "global_pose": {
            "orientation": {
                "w": 0.5084816262002911,
                "x": -0.4908360881923452,
                "y": 0.5182115481033761,
                "z": -0.48164630358495003
            },
            "position": {
                "x": 0.5540239810943604,
                "y": -0.46912469901144505,
                "z": 0.16403168439865112
            }
        },
        "name": "move_to_storage_B"
    },
    "id": "BiEST_move_to_storage_B_52",
    "joint_names": [
        "shoulder_pan_joint",
        "shoulder_lift_joint",
        "elbow_joint",
        "wrist_1_joint",
        "wrist_2_joint",
        "wrist_3_joint"
    ],
    "metrics": {
        "cart_traj_len": 0.9916433140712816,
        "distance_elbow_joint": 0.3571249734626396,
        "distance_shoulder_lift_joint": 1.2104327031642044,
        "distance_shoulder_pan_joint": 0.40575705762011516,
        "distance_wrist_1_joint": 3.002565605457659,
        "distance_wrist_2_joint": 2.7203386711968727,
        "distance_wrist_3_joint": 3.1614647351933063,
        "smoothness": 0.1522719252448937,
        "time": 0.098152712,
        "traj_len": 3.2950999599549022,
        "weighted_distance": 4.785761955335424
    },
    "planner": "BiEST",
    "start": {
        "state": {
            "elbow_joint": 1.664937868594044,
            "shoulder_lift_joint": -0.661644460510453,
            "shoulder_pan_joint": -0.9139846352900073,
            "wrist_1_joint": 2.146753192139373,
            "wrist_2_joint": -2.2341966793290973,
            "wrist_3_joint": 0.005466555786416001
        }
    },
    "waypoints": [
        {
            "positions": [
                -0.9139846352900073,
                -0.661644460510453,
                1.664937868594044,
                2.146753192139373,
                -2.2341966793290973,
                0.005466555786416001
            ]
        },
        {
            "positions": [
                -0.857700444831792,
                -0.7267447805591041,
                1.6708443262757369,
                2.112880192391995,
                -2.125825213222337,
                0.03211818242323745
            ]
        },
        {
            "positions": [
                -0.8014162543735767,
                -0.7918451006077551,
                1.6767507839574296,
                2.0790071926446165,
                -2.0174537471155767,
                0.058769809060058895
            ]
        },
        {
            "positions": [
                -0.818579048754086,
                -0.8359990220653742,
                1.6886096372538857,
                1.977387081441736,
                -1.8764807491279267,
                0.12796548265885205
            ]
        },
        {
            "positions": [
                -0.8357418431345954,
                -0.8801529435229934,
                1.700468490550342,
                1.8757669702388555,
                -1.735507751140277,
                0.1971611562576452
            ]
        },
        {
            "positions": [
                -0.8529046375151047,
                -0.9243068649806125,
                1.712327343846798,
                1.7741468590359752,
                -1.594534753152627,
                0.2663568298564383
            ]
        },
        {
            "positions": [
                -0.8700674318956141,
                -0.9684607864382317,
                1.7241861971432544,
                1.6725267478330947,
                -1.4535617551649773,
                0.33555250345523147
            ]
        },
        {
            "positions": [
                -0.8872302262761235,
                -1.012614707895851,
                1.7360450504397105,
                1.5709066366302142,
                -1.3125887571773274,
                0.4047481770540246
            ]
        },
        {
            "positions": [
                -0.9043930206566329,
                -1.05676862935347,
                1.7479039037361668,
                1.469286525427334,
                -1.1716157591896774,
                0.47394385065281774
            ]
        },
        {
            "positions": [
                -0.9215558150371422,
                -1.1009225508110891,
                1.7597627570326229,
                1.3676664142244535,
                -1.0306427612020275,
                0.5431395242516108
            ]
        },
        {
            "positions": [
                -0.9387186094176516,
                -1.1450764722687081,
                1.771621610329079,
                1.266046303021573,
                -0.8896697632143777,
                0.612335197850404
            ]
        },
        {
            "positions": [
                -0.9558814037981609,
                -1.1892303937263273,
                1.7834804636255353,
                1.1644261918186924,
                -0.7486967652267278,
                0.6815308714491971
            ]
        },
        {
            "positions": [
                -0.9730441981786703,
                -1.2333843151839465,
                1.7953393169219913,
                1.062806080615812,
                -0.6077237672390781,
                0.7507265450479903
            ]
        },
        {
            "positions": [
                -0.9902069925591797,
                -1.2775382366415657,
                1.8071981702184476,
                0.9611859694129317,
                -0.4667507692514281,
                0.8199222186467835
            ]
        },
        {
            "positions": [
                -1.007369786939689,
                -1.3216921580991847,
                1.8190570235149037,
                0.8595658582100512,
                -0.32577777126377816,
                0.8891178922455766
            ]
        },
        {
            "positions": [
                -1.0245325813201984,
                -1.365846079556804,
                1.83091587681136,
                0.7579457470071707,
                -0.18480477327612843,
                0.9583135658443697
            ]
        },
        {
            "positions": [
                -1.0416953757007077,
                -1.410000001014423,
                1.8427747301078161,
                0.6563256358042904,
                -0.04383177528847848,
                1.0275092394431629
            ]
        },
        {
            "positions": [
                -1.058858170081217,
                -1.4541539224720421,
                1.8546335834042722,
                0.5547055246014099,
                0.09714122269917125,
                1.096704913041956
            ]
        },
        {
            "positions": [
                -1.0760209644617265,
                -1.4983078439296613,
                1.8664924367007285,
                0.45308541339852926,
                0.23811422068682117,
                1.165900586640749
            ]
        },
        {
            "positions": [
                -1.0777104159722297,
                -1.4643288148619344,
                1.880635200823997,
                0.33409470187881873,
                0.2606621998850896,
                1.347812468853383
            ]
        },
        {
            "positions": [
                -1.0793998674827328,
                -1.4303497857942076,
                1.8947779649472658,
                0.21510399035910815,
                0.283210179083358,
                1.529724351066017
            ]
        },
        {
            "positions": [
                -1.081089318993236,
                -1.3963707567264807,
                1.9089207290705343,
                0.09611327883939763,
                0.30575815828162645,
                1.711636233278651
            ]
        },
        {
            "positions": [
                -1.082778770503739,
                -1.3623917276587536,
                1.923063493193803,
                -0.022877432680312948,
                0.32830613747989484,
                1.893548115491285
            ]
        },
        {
            "positions": [
                -1.0844682220142423,
                -1.3284126985910267,
                1.9372062573170716,
                -0.14186814420002347,
                0.35085411667816324,
                2.075459997703919
            ]
        },
        {
            "positions": [
                -1.0861576735247453,
                -1.2944336695232999,
                1.9513490214403404,
                -0.260858855719734,
                0.3734020958764317,
                2.257371879916553
            ]
        },
        {
            "positions": [
                -1.0878471250352486,
                -1.260454640455573,
                1.965491785563609,
                -0.37984956723944463,
                0.39595007507470015,
                2.439283762129187
            ]
        },
        {
            "positions": [
                -1.0895365765457516,
                -1.2264756113878459,
                1.9796345496868777,
                -0.49884027875915515,
                0.41849805427296854,
                2.621195644341821
            ]
        },
        {
            "positions": [
                -1.091226028056255,
                -1.192496582320119,
                1.9937773138101462,
                -0.6178309902788658,
                0.44104603347123694,
                2.803107526554455
            ]
        },
        {
            "positions": [
                -1.092915479566758,
                -1.1585175532523921,
                2.0079200779334148,
                -0.7368217017985762,
                0.4635940126695054,
                2.9850194087670885
            ]
        },
        {
            "positions": [
                -1.0946049310772612,
                -1.1245385241846653,
                2.0220628420566835,
                -0.8558124133182868,
                0.4861419918677738,
                3.1669312909797225
            ]
        }
    ]
}