{
    "goal": {
        "global_pose": {
            "orientation": {
                "w": -0.4816463035849501,
                "x": 0.5182115481033762,
                "y": 0.4908360881923453,
                "z": -0.5084816262002911
            },
            "position": {
                "x": -0.8240239810943604,
                "y": 0.19912469901144506,
                "z": 0.16403168439865112
            }
        },
        "name": "move_to_storage_D"
    },
    "id": "BiEST_move_to_storage_D_14",
    "joint_names": [
        "shoulder_pan_joint",
        "shoulder_lift_joint",
        "elbow_joint",
        "wrist_1_joint",
        "wrist_2_joint",
        "wrist_3_joint"
    ],
    "metrics": {
        "cart_traj_len": 3.7330645387486983,
        "distance_elbow_joint": 4.210729452954308,
        "distance_shoulder_lift_joint": 1.8377922933778803,
        "distance_shoulder_pan_joint": 2.81313458255421,
        "distance_wrist_1_joint": 2.263563334762672,
        "distance_wrist_2_joint": 2.0097097601763596,
        "distance_wrist_3_joint": 3.134157223658414,
        "smoothness": 0.07562337643740831,
        "time": 0.065704754,
        "traj_len": 4.033495586644895,
        "weighted_distance": 5.177902489400482
    },
    "planner": "BiEST",
    "start": {
        "state": {
            "elbow_joint": -2.384821988534728,
            "shoulder_lift_joint": -2.2788054721415256,
            "shoulder_pan_joint": -0.1854694642142757,
            "wrist_1_joint": 1.4845938289331202,
            "wrist_2_joint": 0.17898776772866878,
            "wrist_3_joint": 0.037105688729662994
        }
    },
    "waypoints": [
        {
            "positions": [
                -0.1854694642142757,
                -2.2788054721415256,
                -2.384821988534728,
                1.4845938289331202,
                0.17898776772866878,
                0.037105688729662994
            ]
        },
        {
            "positions": [
                -0.10095571105295631,
                -2.291859086910669,
                -2.223680535211976,
                1.4096263625252405,
                0.15332062206401947,
                0.05851830946425876
            ]
        },
        {
            "positions": [
                -0.01644195789163691,
                -2.3049127016798123,
                -2.0625390818892244,
                1.3346588961173609,
                0.1276534763993702,
                0.07993093019885453
            ]
        },
        {
            "positions": [
                0.06807179526968246,
                -2.3179663164489557,
                -1.9013976285664727,
                1.2596914297094812,
                0.1019863307347209,
                0.1013435509334503
            ]
        },
        {
            "positions": [
                0.1525855484310019,
                -2.331019931218099,
                -1.740256175243721,
                1.1847239633016016,
                0.07631918507007159,
                0.12275617166804606
            ]
        },
        {
            "positions": [
                0.23709930159232126,
                -2.3440735459872424,
                -1.5791147219209691,
                1.1097564968937217,
                0.05065203940542229,
                0.14416879240264183
            ]
        },
        {
            "positions": [
                0.32161305475364066,
                -2.3571271607563853,
                -1.4179732685982174,
                1.034789030485842,
                0.024984893740773007,
                0.1655814131372376
            ]
        },
        {
            "positions": [
                0.40612680791496003,
                -2.3701807755255286,
                -1.2568318152754656,
                0.9598215640779624,
                -0.0006822519238763036,
                0.18699403387183336
            ]
        },
        {
            "positions": [
                0.4906405610762795,
                -2.383234390294672,
                -1.0956903619527139,
                0.8848540976700827,
                -0.026349397588525614,
                0.20840665460642913
            ]
        },
        {
            "positions": [
                0.5751543142375989,
                -2.3962880050638153,
                -0.9345489086299621,
                0.809886631262203,
                -0.052016543253174896,
                0.2298192753410249
            ]
        },
        {
            "positions": [
                0.6596680673989183,
                -2.4093416198329587,
                -0.7734074553072103,
                0.7349191648543233,
                -0.0776836889178242,
                0.2512318960756207
            ]
        },
        {
            "positions": [
                0.7441818205602376,
                -2.422395234602102,
                -0.6122660019844586,
                0.6599516984464436,
                -0.10335083458247349,
                0.2726445168102164
            ]
        },
        {
            "positions": [
                0.828695573721557,
                -2.4354488493712454,
                -0.45112454866170704,
                0.584984232038564,
                -0.12901798024712277,
                0.2940571375448122
            ]
        },
        {
            "positions": [
                0.9132093268828764,
                -2.4485024641403887,
                -0.28998309533895483,
                0.5100167656306842,
                -0.1546851259117721,
                0.31546975827940793
            ]
        },
        {
            "positions": [
                0.9977230800441957,
                -2.461556078909532,
                -0.1288416420162033,
                0.43504929922280455,
                -0.1803522715764214,
                0.33688237901400375
            ]
        },
        {
            "positions": [
                1.082236833205515,
                -2.4746096936786754,
                0.03229981130654824,
                0.3600818328149249,
                -0.20601941724107067,
                0.35829499974859946
            ]
        },
        {
            "positions": [
                1.1667505863668346,
                -2.487663308447819,
                0.19344126462930022,
                0.28511436640704524,
                -0.23168656290572,
                0.3797076204831953
            ]
        },
        {
            "positions": [
                1.2512643395281537,
                -2.5007169232169617,
                0.35458271795205176,
                0.21014689999916558,
                -0.2573537085703692,
                0.401120241217791
            ]
        },
        {
            "positions": [
                1.3357780926894733,
                -2.513770537986105,
                0.5157241712748037,
                0.1351794335912857,
                -0.28302085423501855,
                0.4225328619523868
            ]
        },
        {
            "positions": [
                1.4202918458507927,
                -2.5268241527552484,
                0.6768656245975557,
                0.060211967183406045,
                -0.3086879998996679,
                0.44394548268698253
            ]
        },
        {
            "positions": [
                1.504805599012112,
                -2.5398777675243918,
                0.8380070779203073,
                -0.014755499224473612,
                -0.3343551455643172,
                0.46535810342157835
            ]
        },
        {
            "positions": [
                1.5893193521734315,
                -2.552931382293535,
                0.9991485312430592,
                -0.08972296563235327,
                -0.36002229122896656,
                0.48677072415617406
            ]
        },
        {
            "positions": [
                1.6738331053347508,
                -2.5659849970626785,
                1.1602899845658108,
                -0.16469043204023295,
                -0.3856894368936158,
                0.5081833448907699
            ]
        },
        {
            "positions": [
                1.72152470598501,
                -2.488454358639842,
                1.1935708585584992,
                -0.19540438572969887,
                -0.313437809115912,
                0.6413373232656352
            ]
        },
        {
            "positions": [
                1.7692163066352693,
                -2.4109237202170055,
                1.2268517325511878,
                -0.22611833941916476,
                -0.24118618133820827,
                0.7744913016405006
            ]
        },
        {
            "positions": [
                1.8169079072855283,
                -2.3333930817941693,
                1.2601326065438763,
                -0.25683229310863065,
                -0.16893455356050455,
                0.9076452800153659
            ]
        },
        {
            "positions": [
                1.8645995079357875,
                -2.255862443371333,
                1.2934134805365647,
                -0.2875462467980966,
                -0.09668292578280074,
                1.0407992583902312
            ]
        },
        {
            "positions": [
                1.9122911085860468,
                -2.1783318049484968,
                1.3266943545292533,
                -0.3182602004875625,
                -0.024431298005097024,
                1.1739532367650967
            ]
        },
        {
            "positions": [
                1.959982709236306,
                -2.10080116652566,
                1.3599752285219417,
                -0.3489741541770284,
                0.047820329772606696,
                1.307107215139962
            ]
        },
        {
            "positions": [
                2.007674309886565,
                -2.023270528102824,
                1.3932561025146302,
                -0.3796881078664943,
                0.12007195755031042,
                1.4402611935148273
            ]
        },
        {
            "positions": [
                2.0553659105368243,
                -1.9457398896799876,
                1.4265369765073188,
                -0.4104020615559602,
                0.1923235853280143,
                1.573415171889693
            ]
        },
        {
            "positions": [
                2.1030575111870835,
                -1.868209251257151,
                1.4598178505000072,
                -0.4411160152454261,
                0.26457521310571797,
                1.7065691502645581
            ]
        },
        {
            "positions": [
                2.1507491118373427,
                -1.7906786128343146,
                1.4930987244926959,
                -0.47182996893489204,
                0.33682684088342174,
                1.8397231286394233
            ]
        },
        {
            "positions": [
                2.198440712487602,
                -1.7131479744114784,
                1.5263795984853843,
                -0.502543922624358,
                0.4090784686611255,
                1.972877107014289
            ]
        },
        {
            "positions": [
                2.246132313137861,
                -1.6356173359886421,
                1.5596604724780727,
                -0.5332578763138238,
                0.4813300964388292,
                2.106031085389154
            ]
        },
        {
            "positions": [
                2.2938239137881204,
                -1.5580866975658056,
                1.5929413464707611,
                -0.5639718300032898,
                0.5535817242165331,
                2.2391850637640194
            ]
        },
        {
            "positions": [
                2.3415155144383792,
                -1.4805560591429694,
                1.6262222204634498,
                -0.5946857836927556,
                0.6258333519942366,
                2.3723390421388846
            ]
        },
        {
            "positions": [
                2.389207115088639,
                -1.403025420720133,
                1.6595030944561382,
                -0.6253997373822215,
                0.6980849797719405,
                2.5054930205137502
            ]
        },
        {
            "positions": [
                2.4368987157388977,
                -1.3254947822972964,
                1.6927839684488268,
                -0.6561136910716875,
                0.7703366075496444,
                2.638646998888616
            ]
        },
        {
            "positions": [
                2.484590316389157,
                -1.2479641438744602,
                1.7260648424415153,
                -0.6868276447611533,
                0.8425882353273481,
                2.771800977263481
            ]
        },
        {
            "positions": [
                2.532281917039416,
                -1.1704335054516237,
                1.7593457164342037,
                -0.7175415984506193,
                0.9148398631050517,
                2.9049549556383463
            ]
        },
        {
            "positions": [
                2.5799735176896754,
                -1.0929028670287875,
                1.792626590426892,
                -0.7482555521400851,
                0.9870914908827554,
                3.0381089340132115
            ]
        },
        {
            "positions": [
                2.6276651183399347,
                -1.015372228605951,
                1.8259074644195807,
                -0.778969505829551,
                1.0593431186604594,
                3.171262912388077
            ]
        }
    ]
}