{
    "goal": {
        "global_pose": {
            "orientation": {
                "w": 0.005598929693374612,
                "x": 0.007748599140229565,
                "y": 0.7110244013736278,
                "z": -0.7031023480610252
            },
            "position": {
                "x": 0.1141497679147869,
                "y": -0.7141253447532654,
                "z": 0.3711530566215515
            }
        },
        "name": "move_to_auspresseinheit_B"
    },
    "id": "BiEST_move_to_auspresseinheit_B_124",
    "joint_names": [
        "shoulder_pan_joint",
        "shoulder_lift_joint",
        "elbow_joint",
        "wrist_1_joint",
        "wrist_2_joint",
        "wrist_3_joint"
    ],
    "metrics": {
        "cart_traj_len": 0.5645160987595095,
        "distance_elbow_joint": 0.06475990794440811,
        "distance_shoulder_lift_joint": 0.2952747826130404,
        "distance_shoulder_pan_joint": 0.5759088592579453,
        "distance_wrist_1_joint": 0.340019213663056,
        "distance_wrist_2_joint": 1.0016144494763533,
        "distance_wrist_3_joint": 0.0060981122660490605,
        "smoothness": 0.0,
        "time": 0.065719642,
        "traj_len": 1.5111834187883522,
        "weighted_distance": 1.9072244788939658
    },
    "planner": "BiEST",
    "start": {
        "state": {
            "elbow_joint": 2.0193083361928714,
            "shoulder_lift_joint": -1.1220246554650708,
            "shoulder_pan_joint": -1.0952077554168747,
            "wrist_1_joint": -0.8559753972642168,
            "wrist_2_joint": 0.4759566250798843,
            "wrist_3_joint": -3.1240929996934557
        }
    },
    "waypoints": [
        {
            "positions": [
                -1.0952077554168747,
                -1.1220246554650708,
                2.0193083361928714,
                -0.8559753972642168,
                0.4759566250798843,
                -3.1240929996934557
            ]
        },
        {
            "positions": [
                -1.191192565293199,
                -1.1712371192339108,
                2.0085150182021367,
                -0.7993055283203742,
                0.6428923666592765,
                -3.123076647649114
            ]
        },
        {
            "positions": [
                -1.287177375169523,
                -1.2204495830027509,
                1.997721700211402,
                -0.7426356593765314,
                0.8098281082386687,
                -3.1220602956047725
            ]
        },
        {
            "positions": [
                -1.3831621850458473,
                -1.269662046771591,
                1.9869283822206674,
                -0.6859657904326888,
                0.9767638498180609,
                -3.121043943560431
            ]
        },
        {
            "positions": [
                -1.4791469949221714,
                -1.3188745105404311,
                1.9761350642299327,
                -0.6292959214888462,
                1.143699591397453,
                -3.1200275915160898
            ]
        },
        {
            "positions": [
                -1.5751318047984957,
                -1.3680869743092712,
                1.965341746239198,
                -0.5726260525450034,
                1.3106353329768454,
                -3.119011239471748
            ]
        },
        {
            "positions": [
                -1.67111661467482,
                -1.4172994380781112,
                1.9545484282484633,
                -0.5159561836011608,
                1.4775710745562376,
                -3.1179948874274066
            ]
        }
    ]
}