{
    "goal": {
        "global_pose": {
            "orientation": {
                "w": 0.005598929693374612,
                "x": 0.007748599140229565,
                "y": 0.7110244013736278,
                "z": -0.7031023480610252
            },
            "position": {
                "x": 0.1141497679147869,
                "y": -0.7141253447532654,
                "z": 0.3711530566215515
            }
        },
        "name": "move_to_auspresseinheit_B"
    },
    "id": "BiEST_move_to_auspresseinheit_B_94",
    "joint_names": [
        "shoulder_pan_joint",
        "shoulder_lift_joint",
        "elbow_joint",
        "wrist_1_joint",
        "wrist_2_joint",
        "wrist_3_joint"
    ],
    "metrics": {
        "cart_traj_len": 0.5637743687102845,
        "distance_elbow_joint": 0.059337841185219675,
        "distance_shoulder_lift_joint": 0.29620078597008614,
        "distance_shoulder_pan_joint": 0.5764418567624956,
        "distance_wrist_1_joint": 0.3184112872145174,
        "distance_wrist_2_joint": 0.992640833795291,
        "distance_wrist_3_joint": 0.005554683028126117,
        "smoothness": 5.075305255429287e-16,
        "time": 0.032100802,
        "traj_len": 1.4995290220451674,
        "weighted_distance": 1.8896424992632328
    },
    "planner": "BiEST",
    "start": {
        "state": {
            "elbow_joint": 2.0193083361928714,
            "shoulder_lift_joint": -1.1220246554650708,
            "shoulder_pan_joint": -1.0952077554168747,
            "wrist_1_joint": -0.8559753972642168,
            "wrist_2_joint": 0.4759566250798843,
            "wrist_3_joint": -3.1240929996934557
        }
    },
    "waypoints": [
        {
            "positions": [
                -1.0952077554168747,
                -1.1220246554650708,
                2.0193083361928714,
                -0.8559753972642168,
                0.4759566250798843,
                -3.1240929996934557
            ]
        },
        {
            "positions": [
                -1.1912813982106238,
                -1.1713914531267517,
                2.009418695995335,
                -0.8029068493951306,
                0.6413967640457661,
                -3.123167219188768
            ]
        },
        {
            "positions": [
                -1.2873550410043733,
                -1.220758250788433,
                1.9995290557977983,
                -0.7498383015260444,
                0.806836903011648,
                -3.1222414386840804
            ]
        },
        {
            "positions": [
                -1.3834286837981224,
                -1.2701250484501139,
                1.9896394156002617,
                -0.6967697536569581,
                0.9722770419775297,
                -3.121315658179393
            ]
        },
        {
            "positions": [
                -1.4795023265918716,
                -1.3194918461117948,
                1.979749775402725,
                -0.6437012057878719,
                1.1377171809434117,
                -3.1203898776747048
            ]
        },
        {
            "positions": [
                -1.575575969385621,
                -1.368858643773476,
                1.9698601352051883,
                -0.5906326579187856,
                1.3031573199092934,
                -3.119464097170017
            ]
        },
        {
            "positions": [
                -1.6716496121793702,
                -1.418225441435157,
                1.9599704950076517,
                -0.5375641100496994,
                1.4685974588751753,
                -3.1185383166653295
            ]
        }
    ]
}