{
    "goal": {
        "global_pose": {
            "orientation": {
                "w": 0.7047431493862688,
                "x": -0.7094548369677653,
                "y": 0.0024358444001904,
                "z": -0.0022348060817251984
            },
            "position": {
                "x": -0.39052492380142206,
                "y": 0.3671506643295288,
                "z": 0.19426114857196808
            }
        },
        "name": "move_to_magneteinheit_D"
    },
    "id": "BiEST_move_to_magneteinheit_D_63",
    "joint_names": [
        "shoulder_pan_joint",
        "shoulder_lift_joint",
        "elbow_joint",
        "wrist_1_joint",
        "wrist_2_joint",
        "wrist_3_joint"
    ],
    "metrics": {
        "cart_traj_len": 4.332596573762733,
        "distance_elbow_joint": 4.023289050979335,
        "distance_shoulder_lift_joint": 1.6349841072789733,
        "distance_shoulder_pan_joint": 3.029881390056746,
        "distance_wrist_1_joint": 2.2911095500832053,
        "distance_wrist_2_joint": 0.5640407267492478,
        "distance_wrist_3_joint": 3.4863482452707752,
        "smoothness": 0.5301647624779784,
        "time": 0.345018952,
        "traj_len": 3.8768096510427603,
        "weighted_distance": 4.98572961940299
    },
    "planner": "BiEST",
    "start": {
        "state": {
            "elbow_joint": 0.749534889911806,
            "shoulder_lift_joint": -0.6476975780787326,
            "shoulder_pan_joint": -2.711696901376241,
            "wrist_1_joint": -0.07506478083263063,
            "wrist_2_joint": 0.43296659715538205,
            "wrist_3_joint": -3.14703540197715
        }
    },
    "waypoints": [
        {
            "positions": [
                -2.711696901376241,
                -0.6476975780787326,
                0.749534889911806,
                -0.07506478083263063,
                0.43296659715538205,
                -3.14703540197715
            ]
        },
        {
            "positions": [
                -2.7242624560315005,
                -0.7009117515102137,
                0.8292534078392577,
                -0.14453670262949536,
                0.41324373036504103,
                -3.0029261798539335
            ]
        },
        {
            "positions": [
                -2.73682801068676,
                -0.7541259249416946,
                0.9089719257667096,
                -0.2140086244263601,
                0.3935208635747,
                -2.858816957730717
            ]
        },
        {
            "positions": [
                -2.7493935653420194,
                -0.8073400983731757,
                0.9886904436941614,
                -0.2834805462232248,
                0.37379799678435904,
                -2.7147077356075
            ]
        },
        {
            "positions": [
                -2.761959119997279,
                -0.8605542718046566,
                1.0684089616216133,
                -0.35295246802008956,
                0.354075129994018,
                -2.5705985134842835
            ]
        },
        {
            "positions": [
                -2.7745246746525383,
                -0.9137684452361376,
                1.148127479549065,
                -0.4224243898169543,
                0.334352263203677,
                -2.426489291361067
            ]
        },
        {
            "positions": [
                -2.6732607293312167,
                -0.9500408355541894,
                1.033971623433835,
                -0.3830403928601347,
                0.3283721575260757,
                -2.3309675213967624
            ]
        },
        {
            "positions": [
                -2.571996784009895,
                -0.986313225872241,
                0.9198157673186048,
                -0.34365639590331504,
                0.3223920518484743,
                -2.2354457514324575
            ]
        },
        {
            "positions": [
                -2.4707328386885736,
                -1.0225856161902926,
                0.8056599112033747,
                -0.3042723989464954,
                0.316411946170873,
                -2.1399239814681525
            ]
        },
        {
            "positions": [
                -2.369468893367252,
                -1.0588580065083444,
                0.6915040550881446,
                -0.2648884019896758,
                0.31043184049327166,
                -2.044402211503848
            ]
        },
        {
            "positions": [
                -2.2682049480459305,
                -1.0951303968263961,
                0.5773481989729145,
                -0.22550440503285615,
                0.3044517348156703,
                -1.9488804415395433
            ]
        },
        {
            "positions": [
                -2.166941002724609,
                -1.1314027871444479,
                0.4631923428576843,
                -0.18612040807603653,
                0.29847162913806896,
                -1.8533586715752386
            ]
        },
        {
            "positions": [
                -2.0656770574032874,
                -1.1676751774624996,
                0.34903648674245413,
                -0.14673641111921693,
                0.29249152346046764,
                -1.7578369016109339
            ]
        },
        {
            "positions": [
                -1.9644131120819661,
                -1.2039475677805513,
                0.23488063062722409,
                -0.10735241416239727,
                0.28651141778286626,
                -1.6623151316466291
            ]
        },
        {
            "positions": [
                -1.8631491667606446,
                -1.2402199580986029,
                0.12072477451199393,
                -0.06796841720557767,
                0.28053131210526494,
                -1.5667933616823244
            ]
        },
        {
            "positions": [
                -1.761885221439323,
                -1.2764923484166546,
                0.006568918396763879,
                -0.028584420248758013,
                0.2745512064276636,
                -1.4712715917180197
            ]
        },
        {
            "positions": [
                -1.6606212761180015,
                -1.3127647387347063,
                -0.10758693771846639,
                0.010799576708061587,
                0.2685711007500623,
                -1.375749821753715
            ]
        },
        {
            "positions": [
                -1.55935733079668,
                -1.349037129052758,
                -0.22174279383369644,
                0.05018357366488124,
                0.2625909950724609,
                -1.2802280517894102
            ]
        },
        {
            "positions": [
                -1.4580933854753584,
                -1.3853095193708098,
                -0.3358986499489265,
                0.08956757062170084,
                0.2566108893948596,
                -1.1847062818251055
            ]
        },
        {
            "positions": [
                -1.3568294401540368,
                -1.4215819096888613,
                -0.45005450606415676,
                0.12895156757852044,
                0.2506307837172583,
                -1.0891845118608008
            ]
        },
        {
            "positions": [
                -1.2555654948327153,
                -1.4578543000069133,
                -0.564210362179387,
                0.16833556453534015,
                0.2446506780396569,
                -0.9936627418964958
            ]
        },
        {
            "positions": [
                -1.154301549511394,
                -1.4941266903249648,
                -0.6783662182946169,
                0.20771956149215975,
                0.23867057236205558,
                -0.8981409719321913
            ]
        },
        {
            "positions": [
                -1.0530376041900722,
                -1.5303990806430166,
                -0.7925220744098473,
                0.24710355844897947,
                0.23269046668445423,
                -0.8026192019678864
            ]
        },
        {
            "positions": [
                -0.9517736588687509,
                -1.5666714709610683,
                -0.9066779305250772,
                0.28648755540579895,
                0.2267103610068529,
                -0.7070974320035819
            ]
        },
        {
            "positions": [
                -0.8505097135474291,
                -1.6029438612791198,
                -1.0208337866403077,
                0.32587155236261867,
                0.22073025532925156,
                -0.6115756620392769
            ]
        },
        {
            "positions": [
                -0.7492457682261078,
                -1.6392162515971715,
                -1.1349896427555373,
                0.36525554931943827,
                0.21475014965165024,
                -0.5160538920749724
            ]
        },
        {
            "positions": [
                -0.6479818229047862,
                -1.6754886419152233,
                -1.2491454988707678,
                0.404639546276258,
                0.20877004397404889,
                -0.4205321221106675
            ]
        },
        {
            "positions": [
                -0.5467178775834647,
                -1.7117610322332748,
                -1.3633013549859978,
                0.44402354323307747,
                0.20278993829644754,
                -0.325010352146363
            ]
        },
        {
            "positions": [
                -0.44545393226214314,
                -1.7480334225513268,
                -1.4774572111012279,
                0.4834075401898972,
                0.1968098326188462,
                -0.22948858218205803
            ]
        },
        {
            "positions": [
                -0.3441899869408216,
                -1.7843058128693783,
                -1.591613067216458,
                0.5227915371467168,
                0.19082972694124486,
                -0.13396681221775353
            ]
        },
        {
            "positions": [
                -0.24292604161950004,
                -1.8205782031874302,
                -1.7057689233316884,
                0.5621755341035365,
                0.18484962126364352,
                -0.03844504225344858
            ]
        },
        {
            "positions": [
                -0.1416620962981785,
                -1.8568505935054818,
                -1.819924779446918,
                0.601559531060356,
                0.1788695155860422,
                0.05707672771085592
            ]
        },
        {
            "positions": [
                -0.040398150976856784,
                -1.8931229838235335,
                -1.9340806355621483,
                0.6409435280171757,
                0.17288940990844084,
                0.15259849767516098
            ]
        },
        {
            "positions": [
                -0.03162621979224778,
                -1.948145941724759,
                -2.032376815980121,
                0.7823767578461349,
                0.14331108595179204,
                0.11863607136876428
            ]
        },
        {
            "positions": [
                -0.022854288607638773,
                -2.003168899625985,
                -2.1306729963980935,
                0.9238099876750941,
                0.11373276199514323,
                0.08467364506236759
            ]
        },
        {
            "positions": [
                -0.014082357423029768,
                -2.0581918575272105,
                -2.228969176816066,
                1.0652432175040534,
                0.08415443803849443,
                0.050711218755970885
            ]
        },
        {
            "positions": [
                -0.005310426238420762,
                -2.113214815428436,
                -2.3272653572340385,
                1.2066764473330127,
                0.05457611408184562,
                0.016748792449574196
            ]
        },
        {
            "positions": [
                0.003461504946188243,
                -2.1682377733296616,
                -2.425561537652011,
                1.3481096771619718,
                0.024997790125196817,
                -0.017213633856822508
            ]
        },
        {
            "positions": [
                -0.0910722136446734,
                -2.225459729343684,
                -2.400057815581511,
                1.4347176142219498,
                0.10303374998472804,
                -0.008762526813582009
            ]
        },
        {
            "positions": [
                -0.18560593223553504,
                -2.282681685357706,
                -2.3745540935110108,
                1.5213255512819277,
                0.18106970984425927,
                -0.0003114197703415083
            ]
        }
    ]
}