{
    "goal": {
        "global_pose": {
            "orientation": {
                "w": 0.7031023502349854,
                "x": -0.7110244035720825,
                "y": 0.007748599164187908,
                "z": 0.005598929710686207
            },
            "position": {
                "x": 0.11585023208521307,
                "y": 0.44412534475326537,
                "z": 0.3711530566215515
            }
        },
        "name": "move_to_auspresseinheit_A"
    },
    "id": "BiEST_move_to_auspresseinheit_A_114",
    "joint_names": [
        "shoulder_pan_joint",
        "shoulder_lift_joint",
        "elbow_joint",
        "wrist_1_joint",
        "wrist_2_joint",
        "wrist_3_joint"
    ],
    "metrics": {
        "cart_traj_len": 0.7418090449376127,
        "distance_elbow_joint": 0.17538673790339798,
        "distance_shoulder_lift_joint": 0.9354999246634179,
        "distance_shoulder_pan_joint": 1.044256604092074,
        "distance_wrist_1_joint": 1.8870523534703705,
        "distance_wrist_2_joint": 0.9327246501733212,
        "distance_wrist_3_joint": 1.9660732153948373,
        "smoothness": 1.1293700966007587,
        "time": 0.118215405,
        "traj_len": 2.634576528722864,
        "weighted_distance": 3.7003941574014494
    },
    "planner": "BiEST",
    "start": {
        "state": {
            "elbow_joint": 2.4225746658250005,
            "shoulder_lift_joint": -1.3736534386056498,
            "shoulder_pan_joint": -0.3378633547517467,
            "wrist_1_joint": -1.0288598680537169,
            "wrist_2_joint": 1.233022673432363,
            "wrist_3_joint": -3.0940220416140027
        }
    },
    "waypoints": [
        {
            "positions": [
                -0.3378633547517467,
                -1.3736534386056498,
                2.4225746658250005,
                -1.0288598680537169,
                1.233022673432363,
                -3.0940220416140027
            ]
        },
        {
            "positions": [
                -0.31584605256310744,
                -1.4403596006740487,
                2.4131776685616213,
                -0.917357665188733,
                1.1663822251309468,
                -3.006663816948014
            ]
        },
        {
            "positions": [
                -0.2938287503744682,
                -1.5070657627424475,
                2.4037806712982426,
                -0.8058554623237489,
                1.0997417768295306,
                -2.919305592282026
            ]
        },
        {
            "positions": [
                -0.2718114481858289,
                -1.5737719248108464,
                2.3943836740348634,
                -0.694353259458765,
                1.0331013285281145,
                -2.8319473676160376
            ]
        },
        {
            "positions": [
                -0.24979414599718966,
                -1.6404780868792452,
                2.3849866767714847,
                -0.582851056593781,
                0.9664608802266983,
                -2.7445891429500495
            ]
        },
        {
            "positions": [
                -0.2277768438085504,
                -1.707184248947644,
                2.3755896795081055,
                -0.4713488537287971,
                0.899820431925282,
                -2.657230918284061
            ]
        },
        {
            "positions": [
                -0.20575954161991114,
                -1.773890411016043,
                2.366192682244727,
                -0.3598466508638132,
                0.8331799836238658,
                -2.569872693618073
            ]
        },
        {
            "positions": [
                -0.18374223943127188,
                -1.8405965730844418,
                2.3567956849813476,
                -0.24834444799882927,
                0.7665395353224496,
                -2.4825144689520844
            ]
        },
        {
            "positions": [
                -0.1617249372426326,
                -1.9073027351528407,
                2.347398687717969,
                -0.13684224513384524,
                0.6998990870210334,
                -2.3951562442860963
            ]
        },
        {
            "positions": [
                -0.13970763505399333,
                -1.9740088972212395,
                2.3380016904545897,
                -0.025340042268861218,
                0.6332586387196172,
                -2.3077980196201078
            ]
        },
        {
            "positions": [
                -0.11769033286535407,
                -2.0407150592896386,
                2.328604693191211,
                0.0861621605961227,
                0.566618190418201,
                -2.2204397949541193
            ]
        },
        {
            "positions": [
                -0.09567303067671482,
                -2.1074212213580372,
                2.319207695927832,
                0.19766436346110658,
                0.4999777421167848,
                -2.133081570288131
            ]
        },
        {
            "positions": [
                0.004585254325415455,
                -2.0822047036191584,
                2.3282101669286104,
                0.11509834821666327,
                0.5249377069740027,
                -2.258723163296752
            ]
        },
        {
            "positions": [
                0.10484353932754573,
                -2.0569881858802797,
                2.3372126379293894,
                0.03253233297221997,
                0.5498976718312205,
                -2.3843647563053727
            ]
        },
        {
            "positions": [
                0.20510182432967597,
                -2.031771668141401,
                2.346215108930168,
                -0.05003368227222335,
                0.5748576366884384,
                -2.5100063493139935
            ]
        },
        {
            "positions": [
                0.30536010933180624,
                -2.006555150402522,
                2.3552175799309465,
                -0.13259969751666664,
                0.5998176015456562,
                -2.6356479423226142
            ]
        },
        {
            "positions": [
                0.40561839433393654,
                -1.981338632663643,
                2.364220050931725,
                -0.21516571276110993,
                0.6247775664028742,
                -2.761289535331235
            ]
        },
        {
            "positions": [
                0.5058766793360667,
                -1.9561221149247643,
                2.3732225219325036,
                -0.29773172800555325,
                0.649737531260092,
                -2.8869311283398553
            ]
        },
        {
            "positions": [
                0.606134964338197,
                -1.9309055971858855,
                2.3822249929332826,
                -0.38029774324999654,
                0.6746974961173099,
                -3.012572721348476
            ]
        },
        {
            "positions": [
                0.7063932493403273,
                -1.9056890794470067,
                2.391227463934061,
                -0.4628637584944399,
                0.6996574609745277,
                -3.138214314357097
            ]
        }
    ]
}