{
    "goal": {
        "global_pose": {
            "orientation": {
                "w": 0.5084816217422485,
                "x": -0.49083608388900757,
                "y": 0.5182115435600281,
                "z": -0.4816462993621826
            },
            "position": {
                "x": 0.5540239810943604,
                "y": 0.030875300988554955,
                "z": 0.16403168439865112
            }
        },
        "name": "move_to_storage_A"
    },
    "id": "BiEST_move_to_storage_A_88",
    "joint_names": [
        "shoulder_pan_joint",
        "shoulder_lift_joint",
        "elbow_joint",
        "wrist_1_joint",
        "wrist_2_joint",
        "wrist_3_joint"
    ],
    "metrics": {
        "cart_traj_len": 0.3532279816967502,
        "distance_elbow_joint": 0.44912159196623436,
        "distance_shoulder_lift_joint": 0.2343025193891355,
        "distance_shoulder_pan_joint": 0.46133450089837835,
        "distance_wrist_1_joint": 0.23603669635337876,
        "distance_wrist_2_joint": 1.1017271155696375,
        "distance_wrist_3_joint": 0.10168163870776148,
        "smoothness": 1.3322676330666223e-15,
        "time": 0.066953452,
        "traj_len": 1.6075459753563894,
        "weighted_distance": 2.0310911235646385
    },
    "planner": "BiEST",
    "start": {
        "state": {
            "elbow_joint": 1.971548259319323,
            "shoulder_lift_joint": -1.1394851275133948,
            "shoulder_pan_joint": 0.1228115487234821,
            "wrist_1_joint": -0.7804723859257726,
            "wrist_2_joint": 0.12958671773740124,
            "wrist_3_joint": -3.192489227718131
        }
    },
    "waypoints": [
        {
            "positions": [
                0.1228115487234821,
                -1.1394851275133948,
                1.971548259319323,
                -0.7804723859257726,
                0.12958671773740124,
                -3.192489227718131
            ]
        },
        {
            "positions": [
                0.05690662002371377,
                -1.172956915997557,
                2.035708486743071,
                -0.8141919139762553,
                0.2869763056759209,
                -3.177963279331308
            ]
        },
        {
            "positions": [
                -0.008998308676054556,
                -1.2064287044817192,
                2.0998687141668184,
                -0.847911442026738,
                0.44436589361444057,
                -3.163437330944485
            ]
        },
        {
            "positions": [
                -0.07490323737582288,
                -1.2399004929658815,
                2.1640289415905665,
                -0.8816309700772207,
                0.6017554815529602,
                -3.148911382557662
            ]
        },
        {
            "positions": [
                -0.1408081660755912,
                -1.2733722814500437,
                2.228189169014314,
                -0.9153504981277033,
                0.7591450694914799,
                -3.134385434170839
            ]
        },
        {
            "positions": [
                -0.2067130947753596,
                -1.3068440699342059,
                2.2923493964380617,
                -0.949070026178186,
                0.9165346574299995,
                -3.1198594857840156
            ]
        },
        {
            "positions": [
                -0.27261802347512787,
                -1.340315858418368,
                2.3565096238618097,
                -0.9827895542286686,
                1.0739242453685192,
                -3.105333537397193
            ]
        },
        {
            "positions": [
                -0.33852295217489625,
                -1.3737876469025303,
                2.4206698512855573,
                -1.0165090822791514,
                1.2313138333070388,
                -3.0908075890103697
            ]
        }
    ]
}{
    "goal": {
        "global_pose": {
            "orientation": {
                "w": 0.5084816217422485,
                "x": -0.49083608388900757,
                "y": 0.5182115435600281,
                "z": -0.4816462993621826
            },
            "position": {
                "x": 0.5540239810943604,
                "y": 0.030875300988554955,
                "z": 0.16403168439865112
            }
        },
        "name": "move_to_storage_A"
    },
    "id": "BiEST_move_to_storage_A_88",
    "joint_names": [
        "shoulder_pan_joint",
        "shoulder_lift_joint",
        "elbow_joint",
        "wrist_1_joint",
        "wrist_2_joint",
        "wrist_3_joint"
    ],
    "metrics": {
        "cart_traj_len": 0.35288491222591467,
        "distance_elbow_joint": 0.4506141722694732,
        "distance_shoulder_lift_joint": 0.23586118420664492,
        "distance_shoulder_pan_joint": 0.4618667844126382,
        "distance_wrist_1_joint": 0.24247381707964366,
        "distance_wrist_2_joint": 1.0975134649848801,
        "distance_wrist_3_joint": 0.09002572540437859,
        "smoothness": 1.1102230263833737e-15,
        "time": 0.06361345,
        "traj_len": 1.6057257388351407,
        "weighted_distance": 2.0244490315221424
    },
    "planner": "BiEST",
    "start": {
        "state": {
            "elbow_joint": 1.97154746011099,
            "shoulder_lift_joint": -1.13948474672311,
            "shoulder_pan_joint": 0.12281154466712228,
            "wrist_1_joint": -0.7804688027058302,
            "wrist_2_joint": 0.12958655903071145,
            "wrist_3_joint": 3.0906928834467795
        }
    },
    "waypoints": [
        {
            "positions": [
                0.12281154466712228,
                -1.13948474672311,
                1.97154746011099,
                -0.7804688027058302,
                0.12958655903071145,
                3.0906928834467795
            ]
        },
        {
            "positions": [
                0.056830575465316835,
                -1.1731792016097735,
                2.035920913292343,
                -0.8151079194314935,
                0.2863741968856943,
                3.1035537013616907
            ]
        },
        {
            "positions": [
                -0.009150393736488613,
                -1.206873656496437,
                2.1002943664736966,
                -0.849747036157157,
                0.44316183474067716,
                3.116414519276602
            ]
        },
        {
            "positions": [
                -0.07513136293829407,
                -1.2405681113831006,
                2.1646678196550497,
                -0.8843861528828203,
                0.59994947259566,
                3.129275337191513
            ]
        },
        {
            "positions": [
                -0.1411123321400995,
                -1.2742625662697642,
                2.2290412728364033,
                -0.9190252696084837,
                0.756737110450643,
                3.1421361551064244
            ]
        },
        {
            "positions": [
                -0.20709330134190496,
                -1.3079570211564278,
                2.2934147260177564,
                -0.9536643863341471,
                0.9135247483056259,
                3.1549969730213356
            ]
        },
        {
            "positions": [
                -0.2730742705437104,
                -1.3416514760430913,
                2.35778817919911,
                -0.9883035030598104,
                1.0703123861606085,
                3.167857790936247
            ]
        },
        {
            "positions": [
                -0.3390552397455159,
                -1.3753459309297549,
                2.422161632380463,
                -1.0229426197854739,
                1.2271000240155916,
                3.180718608851158
            ]
        }
    ]
}{
    "goal": {
        "global_pose": {
            "orientation": {
                "w": 0.5084816217422485,
                "x": -0.49083608388900757,
                "y": 0.5182115435600281,
                "z": -0.4816462993621826
            },
            "position": {
                "x": 0.5540239810943604,
                "y": 0.030875300988554955,
                "z": 0.16403168439865112
            }
        },
        "name": "move_to_storage_A"
    },
    "id": "BiEST_move_to_storage_A_88",
    "joint_names": [
        "shoulder_pan_joint",
        "shoulder_lift_joint",
        "elbow_joint",
        "wrist_1_joint",
        "wrist_2_joint",
        "wrist_3_joint"
    ],
    "metrics": {
        "cart_traj_len": 0.35380464543891416,
        "distance_elbow_joint": 0.4511189176572472,
        "distance_shoulder_lift_joint": 0.23495504282658164,
        "distance_shoulder_pan_joint": 0.4649672208332167,
        "distance_wrist_1_joint": 0.2444461935411677,
        "distance_wrist_2_joint": 1.090799110971317,
        "distance_wrist_3_joint": 0.09988339424281589,
        "smoothness": 2.2204460668324854e-16,
        "time": 0.055161361,
        "traj_len": 1.6081572933243644,
        "weighted_distance": 2.030069450307172
    },
    "planner": "BiEST",
    "start": {
        "state": {
            "elbow_joint": 1.9715472970024885,
            "shoulder_lift_joint": -1.1394870060712896,
            "shoulder_pan_joint": 0.12281152778156021,
            "wrist_1_joint": -0.780463741449964,
            "wrist_2_joint": 0.12958659822042276,
            "wrist_3_joint": 3.090690232415272
        }
    },
    "waypoints": [
        {
            "positions": [
                0.12281152778156021,
                -1.1394870060712896,
                1.9715472970024885,
                -0.780463741449964,
                0.12958659822042276,
                3.090690232415272
            ]
        },
        {
            "positions": [
                0.0563876390911007,
                -1.1730520121893726,
                2.0359928566678094,
                -0.8153846262415594,
                0.2854150426448966,
                3.104959288735674
            ]
        },
        {
            "positions": [
                -0.01003624959935881,
                -1.2066170183074558,
                2.1004384163331307,
                -0.8503055110331548,
                0.44124348706937044,
                3.1192283450560763
            ]
        },
        {
            "positions": [
                -0.07646013828981832,
                -1.2401820244255388,
                2.1648839759984515,
                -0.8852263958247502,
                0.5970719314938443,
                3.1334974013764785
            ]
        },
        {
            "positions": [
                -0.14288402698027783,
                -1.273747030543622,
                2.229329535663773,
                -0.9201472806163455,
                0.7529003759183182,
                3.147766457696881
            ]
        },
        {
            "positions": [
                -0.2093079156707374,
                -1.307312036661705,
                2.2937750953290936,
                -0.9550681654079409,
                0.9087288203427921,
                3.1620355140172833
            ]
        },
        {
            "positions": [
                -0.2757318043611968,
                -1.340877042779788,
                2.3582206549944145,
                -0.9899890501995363,
                1.0645572647672659,
                3.1763045703376855
            ]
        },
        {
            "positions": [
                -0.34215569305165644,
                -1.3744420488978712,
                2.4226662146597358,
                -1.0249099349911317,
                1.2203857091917398,
                3.1905736266580877
            ]
        }
    ]
}