{
    "goal": {
        "global_pose": {
            "orientation": {
                "w": -0.00223480608172531,
                "x": 0.0024358444001904467,
                "y": 0.7094548369677653,
                "z": -0.704743149386269
            },
            "position": {
                "x": -0.37947507619857795,
                "y": -0.6371506643295288,
                "z": 0.19426114857196808
            }
        },
        "name": "move_to_magneteinheit_C"
    },
    "id": "BiEST_move_to_magneteinheit_C_74",
    "joint_names": [
        "shoulder_pan_joint",
        "shoulder_lift_joint",
        "elbow_joint",
        "wrist_1_joint",
        "wrist_2_joint",
        "wrist_3_joint"
    ],
    "metrics": {
        "cart_traj_len": 0.6332128206061491,
        "distance_elbow_joint": 0.4326107192849462,
        "distance_shoulder_lift_joint": 0.25417714819145654,
        "distance_shoulder_pan_joint": 0.8347081028637129,
        "distance_wrist_1_joint": 0.7087731783046222,
        "distance_wrist_2_joint": 1.4777950790615892,
        "distance_wrist_3_joint": 0.1725795596766111,
        "smoothness": 1.3784185395559845,
        "time": 0.09486736000000001,
        "traj_len": 1.9699349703436755,
        "weighted_distance": 2.5322660136925528
    },
    "planner": "BiEST",
    "start": {
        "state": {
            "elbow_joint": 1.9565354010623817,
            "shoulder_lift_joint": -1.4165861575791021,
            "shoulder_pan_joint": -1.6717766225146293,
            "wrist_1_joint": -0.5286633292919765,
            "wrist_2_joint": 1.472756589071564,
            "wrist_3_joint": -3.1238370188695823
        }
    },
    "waypoints": [
        {
            "positions": [
                -1.6717766225146293,
                -1.4165861575791021,
                1.9565354010623817,
                -0.5286633292919765,
                1.472756589071564,
                -3.1238370188695823
            ]
        },
        {
            "positions": [
                -1.7886328053410792,
                -1.4045382269101174,
                1.991151812628906,
                -0.49942988910557035,
                1.3102547285000965,
                -3.1382841362851908
            ]
        },
        {
            "positions": [
                -1.9054889881675292,
                -1.3924902962411327,
                2.0257682241954305,
                -0.47019644891916423,
                1.147752867928629,
                -3.152731253700799
            ]
        },
        {
            "positions": [
                -2.022345170993979,
                -1.380442365572148,
                2.060384635761955,
                -0.4409630087327582,
                0.9852510073571614,
                -3.1671783711164077
            ]
        },
        {
            "positions": [
                -2.139201353820429,
                -1.3683944349031634,
                2.0950010473284792,
                -0.41172956854635206,
                0.822749146785694,
                -3.1816254885320157
            ]
        },
        {
            "positions": [
                -2.256057536646879,
                -1.3563465042341787,
                2.129617458895004,
                -0.38249612835994595,
                0.6602472862142265,
                -3.196072605947624
            ]
        },
        {
            "positions": [
                -2.372913719473329,
                -1.344298573565194,
                2.164233870461528,
                -0.35326268817353984,
                0.49774542564275903,
                -3.2105197233632325
            ]
        },
        {
            "positions": [
                -2.489769902299779,
                -1.3322506428962093,
                2.1988502820280527,
                -0.32402924798713373,
                0.33524356507129155,
                -3.224966840778841
            ]
        },
        {
            "positions": [
                -2.488363959658404,
                -1.2801069697408602,
                2.1420354927322163,
                -0.4776467221559824,
                0.43404308956111126,
                -3.2036915242580313
            ]
        },
        {
            "positions": [
                -2.4869580170170296,
                -1.2279632965855114,
                2.0852207034363803,
                -0.6312641963248311,
                0.532842614050931,
                -3.182416207737222
            ]
        },
        {
            "positions": [
                -2.4855520743756547,
                -1.1758196234301623,
                2.028405914140544,
                -0.7848816704936799,
                0.6316421385407507,
                -3.1611408912164123
            ]
        },
        {
            "positions": [
                -2.4730550792212154,
                -1.1624090093876456,
                2.0085544437087774,
                -0.8281683449869132,
                0.6755256201326083,
                -3.1535171030114886
            ]
        }
    ]
}