{
    "goal": {
        "global_pose": {
            "orientation": {
                "w": 0.005598929693374612,
                "x": 0.007748599140229565,
                "y": 0.7110244013736278,
                "z": -0.7031023480610252
            },
            "position": {
                "x": 0.1141497679147869,
                "y": -0.7141253447532654,
                "z": 0.3711530566215515
            }
        },
        "name": "move_to_auspresseinheit_B"
    },
    "id": "BiEST_move_to_auspresseinheit_B_33",
    "joint_names": [
        "shoulder_pan_joint",
        "shoulder_lift_joint",
        "elbow_joint",
        "wrist_1_joint",
        "wrist_2_joint",
        "wrist_3_joint"
    ],
    "metrics": {
        "cart_traj_len": 0.5647393052417036,
        "distance_elbow_joint": 0.06468587876960896,
        "distance_shoulder_lift_joint": 0.294297733257634,
        "distance_shoulder_pan_joint": 0.5771692605174348,
        "distance_wrist_1_joint": 0.33536036997917995,
        "distance_wrist_2_joint": 0.9937005508892427,
        "distance_wrist_3_joint": 0.0023773126992954197,
        "smoothness": 2.5376526478085547e-16,
        "time": 0.06940075600000001,
        "traj_len": 1.5058522856217988,
        "weighted_distance": 1.8977372453475772
    },
    "planner": "BiEST",
    "start": {
        "state": {
            "elbow_joint": 2.0193083361928714,
            "shoulder_lift_joint": -1.1220246554650708,
            "shoulder_pan_joint": -1.0952077554168747,
            "wrist_1_joint": -0.8559753972642168,
            "wrist_2_joint": 0.4759566250798843,
            "wrist_3_joint": -3.1240929996934557
        }
    },
    "waypoints": [
        {
            "positions": [
                -1.0952077554168747,
                -1.1220246554650708,
                2.0193083361928714,
                -0.8559753972642168,
                0.4759566250798843,
                -3.1240929996934557
            ]
        },
        {
            "positions": [
                -1.1914026321697804,
                -1.1710742776746765,
                2.0085273563979364,
                -0.8000820022676868,
                0.6415733835614248,
                -3.12369678091024
            ]
        },
        {
            "positions": [
                -1.2875975089226863,
                -1.220123899884282,
                1.9977463766030017,
                -0.7441886072711568,
                0.8071901420429652,
                -3.123300562127024
            ]
        },
        {
            "positions": [
                -1.383792385675592,
                -1.2691735220938878,
                1.986965396808067,
                -0.6882952122746269,
                0.9728069005245057,
                -3.1229043433438077
            ]
        },
        {
            "positions": [
                -1.4799872624284978,
                -1.3182231443034935,
                1.9761844170131322,
                -0.6324018172780969,
                1.1384236590060461,
                -3.122508124560592
            ]
        },
        {
            "positions": [
                -1.5761821391814037,
                -1.367272766513099,
                1.9654034372181972,
                -0.5765084222815668,
                1.3040404174875866,
                -3.122111905777376
            ]
        },
        {
            "positions": [
                -1.6723770159343094,
                -1.4163223887227048,
                1.9546224574232625,
                -0.5206150272850368,
                1.469657175969127,
                -3.1217156869941602
            ]
        }
    ]
}