{
    "goal": {
        "global_pose": {
            "orientation": {
                "w": 0.5084816262002911,
                "x": -0.4908360881923452,
                "y": 0.5182115481033761,
                "z": -0.48164630358495003
            },
            "position": {
                "x": 0.5540239810943604,
                "y": -0.46912469901144505,
                "z": 0.16403168439865112
            }
        },
        "name": "move_to_storage_B"
    },
    "id": "BiEST_move_to_storage_B_15",
    "joint_names": [
        "shoulder_pan_joint",
        "shoulder_lift_joint",
        "elbow_joint",
        "wrist_1_joint",
        "wrist_2_joint",
        "wrist_3_joint"
    ],
    "metrics": {
        "cart_traj_len": 1.392728123006066,
        "distance_elbow_joint": 0.8769762886600914,
        "distance_shoulder_lift_joint": 0.6445516835488028,
        "distance_shoulder_pan_joint": 1.2837850899075036,
        "distance_wrist_1_joint": 3.0026705418447515,
        "distance_wrist_2_joint": 2.700693362793587,
        "distance_wrist_3_joint": 5.102348217815102,
        "smoothness": 0.11103775224429267,
        "time": 0.128743604,
        "traj_len": 3.6893122915483634,
        "weighted_distance": 5.433146926490979
    },
    "planner": "BiEST",
    "start": {
        "state": {
            "elbow_joint": 1.664937868594044,
            "shoulder_lift_joint": -0.661644460510453,
            "shoulder_pan_joint": -0.9139846352900073,
            "wrist_1_joint": 2.146753192139373,
            "wrist_2_joint": -2.2341966793290973,
            "wrist_3_joint": 0.005466555786416001
        }
    },
    "waypoints": [
        {
            "positions": [
                -0.9139846352900073,
                -0.661644460510453,
                1.664937868594044,
                2.146753192139373,
                -2.2341966793290973,
                0.005466555786416001
            ]
        },
        {
            "positions": [
                -0.8683286000751643,
                -0.7056641931497791,
                1.7143551354739128,
                2.075291488041335,
                -2.1526352687417636,
                0.09544660489510072
            ]
        },
        {
            "positions": [
                -0.8226725648603214,
                -0.7496839257891053,
                1.7637724023537817,
                2.0038297839432966,
                -2.07107385815443,
                0.18542665400378544
            ]
        },
        {
            "positions": [
                -0.7770165296454784,
                -0.7937036584284313,
                1.8131896692336507,
                1.9323680798452583,
                -1.989512447567096,
                0.2754067031124702
            ]
        },
        {
            "positions": [
                -0.7313604944306353,
                -0.8377233910677574,
                1.8626069361135198,
                1.8609063757472197,
                -1.9079510369797623,
                0.3653867522211549
            ]
        },
        {
            "positions": [
                -0.6857044592157924,
                -0.8817431237070835,
                1.9120242029933887,
                1.7894446716491814,
                -1.8263896263924286,
                0.45536680132983964
            ]
        },
        {
            "positions": [
                -0.6400484240009494,
                -0.9257628563464095,
                1.9614414698732576,
                1.717982967551143,
                -1.7448282158050947,
                0.5453468504385243
            ]
        },
        {
            "positions": [
                -0.5943923887861065,
                -0.9697825889857357,
                2.0108587367531268,
                1.6465212634531048,
                -1.663266805217761,
                0.635326899547209
            ]
        },
        {
            "positions": [
                -0.5487363535712635,
                -1.0138023216250618,
                2.0602760036329957,
                1.5750595593550663,
                -1.5817053946304274,
                0.7253069486558937
            ]
        },
        {
            "positions": [
                -0.5030803183564205,
                -1.057822054264388,
                2.1096932705128646,
                1.503597855257028,
                -1.5001439840430937,
                0.8152869977645786
            ]
        },
        {
            "positions": [
                -0.45742428314157757,
                -1.101841786903714,
                2.1591105373927335,
                1.4321361511589896,
                -1.41858257345576,
                0.9052670468732632
            ]
        },
        {
            "positions": [
                -0.4117682479267346,
                -1.1458615195430402,
                2.2085278042726024,
                1.3606744470609513,
                -1.337021162868426,
                0.9952470959819479
            ]
        },
        {
            "positions": [
                -0.38749293663078566,
                -1.179932956503509,
                2.244037333558362,
                1.2674932103949303,
                -1.242694179099969,
                0.9964182474694745
            ]
        },
        {
            "positions": [
                -0.3632176253348367,
                -1.214004393463978,
                2.2795468628441213,
                1.1743119737289094,
                -1.148367195331512,
                0.9975893989570012
            ]
        },
        {
            "positions": [
                -0.39508797663711204,
                -1.2099960564815746,
                2.2681395891741207,
                1.0860411335795925,
                -1.0781557223403815,
                0.8188839478855006
            ]
        },
        {
            "positions": [
                -0.42695832793938737,
                -1.205987719499171,
                2.25673231550412,
                0.9977702934302758,
                -1.007944249349251,
                0.6401784968139999
            ]
        },
        {
            "positions": [
                -0.4588286792416627,
                -1.2019793825167677,
                2.2453250418341195,
                0.909499453280959,
                -0.9377327763581204,
                0.46147304574249914
            ]
        },
        {
            "positions": [
                -0.49069903054393804,
                -1.1979710455343644,
                2.233917768164119,
                0.8212286131316422,
                -0.8675213033669898,
                0.28276759467099855
            ]
        },
        {
            "positions": [
                -0.5225693818462134,
                -1.193962708551961,
                2.2225104944941183,
                0.7329577729823253,
                -0.7973098303758593,
                0.10406214359949784
            ]
        },
        {
            "positions": [
                -0.5544397331484887,
                -1.1899543715695575,
                2.2111032208241177,
                0.6446869328330086,
                -0.7270983573847287,
                -0.07464330747200287
            ]
        },
        {
            "positions": [
                -0.5863100844507642,
                -1.1859460345871542,
                2.199695947154117,
                0.5564160926836917,
                -0.6568868843935982,
                -0.2533487585435036
            ]
        },
        {
            "positions": [
                -0.6181804357530394,
                -1.1819376976047509,
                2.1882886734841165,
                0.468145252534375,
                -0.5866754114024677,
                -0.43205420961500407
            ]
        },
        {
            "positions": [
                -0.6500507870553148,
                -1.1779293606223475,
                2.176881399814116,
                0.37987441238505815,
                -0.5164639384113371,
                -0.6107596606865048
            ]
        },
        {
            "positions": [
                -0.6819211383575902,
                -1.173921023639944,
                2.1654741261441153,
                0.2916035722357414,
                -0.4462524654202067,
                -0.7894651117580055
            ]
        },
        {
            "positions": [
                -0.7137914896598655,
                -1.1699126866575407,
                2.1540668524741147,
                0.20333273208642455,
                -0.37604099242907607,
                -0.9681705628295062
            ]
        },
        {
            "positions": [
                -0.7456618409621408,
                -1.1659043496751373,
                2.142659578804114,
                0.11506189193710781,
                -0.30582951943794556,
                -1.1468760139010068
            ]
        },
        {
            "positions": [
                -0.7775321922644162,
                -1.161896012692734,
                2.1312523051341135,
                0.026791051787791176,
                -0.23561804644681505,
                -1.3255814649725073
            ]
        },
        {
            "positions": [
                -0.8094025435666916,
                -1.1578876757103305,
                2.119845031464113,
                -0.0614797883615259,
                -0.16540657345568444,
                -1.5042869160440082
            ]
        },
        {
            "positions": [
                -0.841272894868967,
                -1.1538793387279271,
                2.1084377577941122,
                -0.14975062851084253,
                -0.09519510046455393,
                -1.6829923671155087
            ]
        },
        {
            "positions": [
                -0.8731432461712422,
                -1.1498710017455238,
                2.0970304841241116,
                -0.23802146866015939,
                -0.02498362747342342,
                -1.8616978181870092
            ]
        },
        {
            "positions": [
                -0.9050135974735175,
                -1.1458626647631205,
                2.085623210454111,
                -0.326292308809476,
                0.04522784551770709,
                -2.0404032692585097
            ]
        },
        {
            "positions": [
                -0.936883948775793,
                -1.141854327780717,
                2.0742159367841104,
                -0.4145631489587931,
                0.11543931850883782,
                -2.2191087203300106
            ]
        },
        {
            "positions": [
                -0.9687543000780683,
                -1.1378459907983136,
                2.06280866311411,
                -0.5028339891081097,
                0.18565079149996833,
                -2.397814171401511
            ]
        },
        {
            "positions": [
                -1.0006246513803436,
                -1.1338376538159103,
                2.051401389444109,
                -0.5911048292574266,
                0.2558622644910986,
                -2.576519622473012
            ]
        },
        {
            "positions": [
                -1.032495002682619,
                -1.129829316833507,
                2.0399941157741086,
                -0.6793756694067432,
                0.3260737374822291,
                -2.7552250735445125
            ]
        },
        {
            "positions": [
                -1.0643653539848943,
                -1.1258209798511034,
                2.028586842104108,
                -0.7676465095560603,
                0.39628521047335985,
                -2.9339305246160134
            ]
        },
        {
            "positions": [
                -1.0962357052871696,
                -1.1218126428687,
                2.0171795684341074,
                -0.855917349705377,
                0.4664966834644903,
                -3.112635975687514
            ]
        }
    ]
}