{
    "goal": {
        "global_pose": {
            "orientation": {
                "w": -0.00223480608172531,
                "x": 0.0024358444001904467,
                "y": 0.7094548369677653,
                "z": -0.704743149386269
            },
            "position": {
                "x": 0.6205249238014221,
                "y": -0.6371506643295288,
                "z": 0.19426114857196808
            }
        },
        "name": "move_to_magneteinheit_B"
    },
    "id": "BiEST_move_to_magneteinheit_B_82",
    "joint_names": [
        "shoulder_pan_joint",
        "shoulder_lift_joint",
        "elbow_joint",
        "wrist_1_joint",
        "wrist_2_joint",
        "wrist_3_joint"
    ],
    "metrics": {
        "cart_traj_len": 1.368995254615166,
        "distance_elbow_joint": 0.9556064209994295,
        "distance_shoulder_lift_joint": 0.7561658708128229,
        "distance_shoulder_pan_joint": 1.79227178388266,
        "distance_wrist_1_joint": 1.9831491179324434,
        "distance_wrist_2_joint": 3.378868757882623,
        "distance_wrist_3_joint": 0.3904693356275589,
        "smoothness": 0.6641942754220426,
        "time": 0.251104565,
        "traj_len": 3.0424548126697855,
        "weighted_distance": 3.924218117562748
    },
    "planner": "BiEST",
    "start": {
        "state": {
            "elbow_joint": 2.6216224122426386,
            "shoulder_lift_joint": -1.4174107377796124,
            "shoulder_pan_joint": 0.7066234856936794,
            "wrist_1_joint": 1.9546482284002225,
            "wrist_2_joint": -0.7096286983471962,
            "wrist_3_joint": 0.005740856962016249
        }
    },
    "waypoints": [
        {
            "positions": [
                0.7066234856936794,
                -1.4174107377796124,
                2.6216224122426386,
                1.9546482284002225,
                -0.7096286983471962,
                0.005740856962016249
            ]
        },
        {
            "positions": [
                0.551502271032099,
                -1.4173566825067017,
                2.5940399445627538,
                1.8730930319340695,
                -0.6251044984294684,
                -0.01191491265089195
            ]
        },
        {
            "positions": [
                0.3963810563705186,
                -1.417302627233791,
                2.566457476882869,
                1.7915378354679166,
                -0.5405802985117405,
                -0.02957068226380015
            ]
        },
        {
            "positions": [
                0.24125984170893833,
                -1.4172485719608805,
                2.5388750092029837,
                1.7099826390017638,
                -0.45605609859401264,
                -0.04722645187670834
            ]
        },
        {
            "positions": [
                0.08613862704735786,
                -1.4171945166879698,
                2.511292541523099,
                1.628427442535611,
                -0.3715318986762847,
                -0.06488222148961655
            ]
        },
        {
            "positions": [
                -0.06898258761422249,
                -1.4171404614150591,
                2.483710073843214,
                1.546872246069458,
                -0.28700769875855686,
                -0.08253799110252473
            ]
        },
        {
            "positions": [
                -0.22410380227580273,
                -1.4170864061421484,
                2.4561276061633293,
                1.465317049603305,
                -0.20248349884082906,
                -0.10019376071543293
            ]
        },
        {
            "positions": [
                -0.3792250169373833,
                -1.4170323508692377,
                2.4285451384834444,
                1.3837618531371523,
                -0.11795929892310109,
                -0.11784953032834113
            ]
        },
        {
            "positions": [
                -0.5343462315989637,
                -1.416978295596327,
                2.4009626708035596,
                1.3022066566709993,
                -0.033435099005373226,
                -0.13550529994124932
            ]
        },
        {
            "positions": [
                -0.689467446260544,
                -1.4169242403234166,
                2.3733802031236744,
                1.2206514602048464,
                0.051089100912354635,
                -0.1531610695541575
            ]
        },
        {
            "positions": [
                -0.8445886609221244,
                -1.4168701850505059,
                2.3457977354437896,
                1.1390962637386934,
                0.1356133008300825,
                -0.1708168391670657
            ]
        },
        {
            "positions": [
                -0.9997098755837047,
                -1.4168161297775952,
                2.3182152677639047,
                1.0575410672725405,
                0.22013750074781038,
                -0.1884726087799739
            ]
        },
        {
            "positions": [
                -0.993571416826185,
                -1.3628467538625377,
                2.2716296051552836,
                1.135115492758595,
                0.045201603691552045,
                -0.17445433235957614
            ]
        },
        {
            "positions": [
                -0.9874329580686653,
                -1.30887737794748,
                2.2250439425466624,
                1.2126899182446493,
                -0.1297342933647063,
                -0.16043605593917837
            ]
        },
        {
            "positions": [
                -0.9812944993111457,
                -1.2549080020324226,
                2.178458279938041,
                1.2902643437307035,
                -0.30467019042096466,
                -0.1464177795187806
            ]
        },
        {
            "positions": [
                -0.9751560405536259,
                -1.200938626117365,
                2.1318726173294205,
                1.367838769216758,
                -0.479606087477223,
                -0.13239950309838283
            ]
        },
        {
            "positions": [
                -0.9690175817961062,
                -1.1469692502023074,
                2.0852869547207993,
                1.4454131947028124,
                -0.6545419845334814,
                -0.11838122667798508
            ]
        },
        {
            "positions": [
                -0.9628791230385865,
                -1.09299987428725,
                2.038701292112178,
                1.5229876201888668,
                -0.8294778815897397,
                -0.10436295025758731
            ]
        },
        {
            "positions": [
                -0.9567406642810667,
                -1.0390304983721923,
                1.992115629503557,
                1.6005620456749212,
                -1.0044137786459981,
                -0.09034467383718954
            ]
        },
        {
            "positions": [
                -0.9506022055235471,
                -0.9850611224571348,
                1.9455299668949357,
                1.6781364711609754,
                -1.1793496757022564,
                -0.07632639741679179
            ]
        },
        {
            "positions": [
                -0.9444637467660274,
                -0.9310917465420772,
                1.8989443042863146,
                1.75571089664703,
                -1.354285572758515,
                -0.06230812099639399
            ]
        },
        {
            "positions": [
                -0.9383252880085077,
                -0.8771223706270196,
                1.8523586416776936,
                1.8332853221330843,
                -1.5292214698147732,
                -0.04828984457599625
            ]
        },
        {
            "positions": [
                -0.932186829250988,
                -0.8231529947119621,
                1.8057729790690724,
                1.910859747619139,
                -1.7041573668710315,
                -0.03427156815559848
            ]
        },
        {
            "positions": [
                -0.9260483704934683,
                -0.7691836187969046,
                1.7591873164604515,
                1.988434173105193,
                -1.8790932639272897,
                -0.020253291735200712
            ]
        },
        {
            "positions": [
                -0.9199099117359486,
                -0.715214242881847,
                1.7126016538518303,
                2.0660085985912477,
                -2.054029160983548,
                -0.006235015314802944
            ]
        },
        {
            "positions": [
                -0.9137714529784289,
                -0.6612448669667894,
                1.666015991243209,
                2.143583024077302,
                -2.2289650580398064,
                0.007783261105594815
            ]
        }
    ]
}