{
    "goal": {
        "global_pose": {
            "orientation": {
                "w": 0.5084816262002911,
                "x": -0.4908360881923452,
                "y": 0.5182115481033761,
                "z": -0.48164630358495003
            },
            "position": {
                "x": 0.5540239810943604,
                "y": -0.46912469901144505,
                "z": 0.16403168439865112
            }
        },
        "name": "move_to_storage_B"
    },
    "id": "BiEST_move_to_storage_B_29",
    "joint_names": [
        "shoulder_pan_joint",
        "shoulder_lift_joint",
        "elbow_joint",
        "wrist_1_joint",
        "wrist_2_joint",
        "wrist_3_joint"
    ],
    "metrics": {
        "cart_traj_len": 1.8931403423023452,
        "distance_elbow_joint": 1.3422081098748895,
        "distance_shoulder_lift_joint": 0.45867683520034785,
        "distance_shoulder_pan_joint": 1.890769502453409,
        "distance_wrist_1_joint": 3.49145957747809,
        "distance_wrist_2_joint": 2.7040612905563632,
        "distance_wrist_3_joint": 3.688767784149451,
        "smoothness": 0.3592852527504005,
        "time": 0.125442527,
        "traj_len": 3.6845546677600747,
        "weighted_distance": 5.210470183778611
    },
    "planner": "BiEST",
    "start": {
        "state": {
            "elbow_joint": 1.664937868594044,
            "shoulder_lift_joint": -0.661644460510453,
            "shoulder_pan_joint": -0.9139846352900073,
            "wrist_1_joint": 2.146753192139373,
            "wrist_2_joint": -2.2341966793290973,
            "wrist_3_joint": 0.005466555786416001
        }
    },
    "waypoints": [
        {
            "positions": [
                -0.9139846352900073,
                -0.661644460510453,
                1.664937868594044,
                2.146753192139373,
                -2.2341966793290973,
                0.005466555786416001
            ]
        },
        {
            "positions": [
                -0.7918702269640224,
                -0.6908278441996369,
                1.594077044765245,
                2.1824462630921766,
                -2.168336674573473,
                0.04530717860571568
            ]
        },
        {
            "positions": [
                -0.6697558186380377,
                -0.720011227888821,
                1.5232162209364462,
                2.2181393340449804,
                -2.102476669817849,
                0.08514780142501537
            ]
        },
        {
            "positions": [
                -0.5476414103120528,
                -0.7491946115780049,
                1.4523553971076475,
                2.253832404997784,
                -2.0366166650622253,
                0.12498842424431504
            ]
        },
        {
            "positions": [
                -0.425527001986068,
                -0.7783779952671889,
                1.3814945732788486,
                2.2895254759505876,
                -1.9707566603066011,
                0.16482904706361473
            ]
        },
        {
            "positions": [
                -0.3034125936600831,
                -0.8075613789563729,
                1.3106337494500497,
                2.325218546903391,
                -1.904896655550977,
                0.20466966988291443
            ]
        },
        {
            "positions": [
                -0.18129818533409836,
                -0.8367447626455569,
                1.2397729256212509,
                2.360911617856195,
                -1.839036650795353,
                0.24451029270221408
            ]
        },
        {
            "positions": [
                -0.0591837770081135,
                -0.8659281463347408,
                1.168912101792452,
                2.3966046888089982,
                -1.773176646039729,
                0.2843509155215138
            ]
        },
        {
            "positions": [
                -0.09618265715709623,
                -0.8750136159553144,
                1.1991328997593556,
                2.2808329716372673,
                -1.6930680297087648,
                0.1625693646495726
            ]
        },
        {
            "positions": [
                -0.13318153730607896,
                -0.8840990855758879,
                1.229353697726259,
                2.1650612544655363,
                -1.6129594133778007,
                0.04078781377763138
            ]
        },
        {
            "positions": [
                -0.17018041745506166,
                -0.8931845551964616,
                1.2595744956931625,
                2.049289537293806,
                -1.5328507970468366,
                -0.08099373709430979
            ]
        },
        {
            "positions": [
                -0.20717929760404438,
                -0.9022700248170351,
                1.2897952936600658,
                1.9335178201220746,
                -1.4527421807158725,
                -0.20277528796625105
            ]
        },
        {
            "positions": [
                -0.2441781777530271,
                -0.9113554944376087,
                1.3200160916269694,
                1.817746102950344,
                -1.3726335643849084,
                -0.3245568388381923
            ]
        },
        {
            "positions": [
                -0.2811770579020098,
                -0.9204409640581822,
                1.3502368895938728,
                1.701974385778613,
                -1.2925249480539442,
                -0.4463383897101334
            ]
        },
        {
            "positions": [
                -0.31817593805099254,
                -0.9295264336787559,
                1.3804576875607764,
                1.586202668606882,
                -1.2124163317229801,
                -0.5681199405820747
            ]
        },
        {
            "positions": [
                -0.35517481819997526,
                -0.9386119032993294,
                1.4106784855276797,
                1.470430951435151,
                -1.132307715392016,
                -0.6899014914540159
            ]
        },
        {
            "positions": [
                -0.392173698348958,
                -0.947697372919903,
                1.4408992834945833,
                1.35465923426342,
                -1.052199099061052,
                -0.8116830423259573
            ]
        },
        {
            "positions": [
                -0.4291725784979407,
                -0.9567828425404765,
                1.4711200814614869,
                1.2388875170916893,
                -0.9720904827300878,
                -0.9334645931978984
            ]
        },
        {
            "positions": [
                -0.4661714586469234,
                -0.9658683121610501,
                1.5013408794283902,
                1.1231157999199584,
                -0.8919818663991237,
                -1.0552461440698395
            ]
        },
        {
            "positions": [
                -0.5031703387959061,
                -0.9749537817816236,
                1.5315616773952938,
                1.0073440827482276,
                -0.8118732500681596,
                -1.1770276949417806
            ]
        },
        {
            "positions": [
                -0.5401692189448888,
                -0.9840392514021973,
                1.5617824753621972,
                0.8915723655764964,
                -0.7317646337371955,
                -1.2988092458137221
            ]
        },
        {
            "positions": [
                -0.5771680990938716,
                -0.9931247210227708,
                1.5920032733291007,
                0.7758006484047657,
                -0.6516560174062314,
                -1.4205907966856632
            ]
        },
        {
            "positions": [
                -0.6141669792428542,
                -1.0022101906433445,
                1.6222240712960043,
                0.660028931233035,
                -0.5715474010752672,
                -1.5423723475576043
            ]
        },
        {
            "positions": [
                -0.651165859391837,
                -1.011295660263918,
                1.6524448692629077,
                0.544257214061304,
                -0.49143878474430314,
                -1.6641538984295456
            ]
        },
        {
            "positions": [
                -0.6881647395408197,
                -1.0203811298844916,
                1.682665667229811,
                0.42848549688957327,
                -0.411330168413339,
                -1.7859354493014867
            ]
        },
        {
            "positions": [
                -0.7251636196898025,
                -1.0294665995050651,
                1.7128864651967146,
                0.31271377971784187,
                -0.3312215520823749,
                -1.9077170001734285
            ]
        },
        {
            "positions": [
                -0.7621624998387851,
                -1.0385520691256387,
                1.7431072631636182,
                0.1969420625461109,
                -0.2511129357514108,
                -2.0294985510453696
            ]
        },
        {
            "positions": [
                -0.7991613799877679,
                -1.0476375387462122,
                1.7733280611305218,
                0.08117034537438039,
                -0.1710043194204467,
                -2.151280101917311
            ]
        },
        {
            "positions": [
                -0.8361602601367506,
                -1.0567230083667858,
                1.8035488590974251,
                -0.034601371797350566,
                -0.09089570308948258,
                -2.273061652789252
            ]
        },
        {
            "positions": [
                -0.8731591402857333,
                -1.0658084779873593,
                1.8337696570643285,
                -0.15037308896908153,
                -0.010787086758518472,
                -2.3948432036611926
            ]
        },
        {
            "positions": [
                -0.910158020434716,
                -1.0748939476079329,
                1.863990455031232,
                -0.26614480614081204,
                0.06932152957244564,
                -2.516624754533134
            ]
        },
        {
            "positions": [
                -0.9471569005836987,
                -1.0839794172285067,
                1.8942112529981356,
                -0.381916523312543,
                0.14943014590340975,
                -2.6384063054050753
            ]
        },
        {
            "positions": [
                -0.9841557807326815,
                -1.0930648868490802,
                1.9244320509650392,
                -0.4976882404842744,
                0.22953876223437386,
                -2.7601878562770166
            ]
        },
        {
            "positions": [
                -1.0211546608816642,
                -1.1021503564696538,
                1.9546528489319426,
                -0.6134599576560054,
                0.30964737856533797,
                -2.881969407148958
            ]
        },
        {
            "positions": [
                -1.0581535410306468,
                -1.1112358260902273,
                1.984873646898846,
                -0.7292316748277359,
                0.3897559948963021,
                -3.003750958020899
            ]
        },
        {
            "positions": [
                -1.0951524211796297,
                -1.1203212957108009,
                2.0150944448657495,
                -0.8450033919994668,
                0.46986461122726625,
                -3.12553250889284
            ]
        }
    ]
}