{
    "goal": {
        "global_pose": {
            "orientation": {
                "w": -0.00223480608172531,
                "x": 0.0024358444001904467,
                "y": 0.7094548369677653,
                "z": -0.704743149386269
            },
            "position": {
                "x": 0.6205249238014221,
                "y": -0.6371506643295288,
                "z": 0.19426114857196808
            }
        },
        "name": "move_to_magneteinheit_B"
    },
    "id": "BiEST_move_to_magneteinheit_B_55",
    "joint_names": [
        "shoulder_pan_joint",
        "shoulder_lift_joint",
        "elbow_joint",
        "wrist_1_joint",
        "wrist_2_joint",
        "wrist_3_joint"
    ],
    "metrics": {
        "cart_traj_len": 1.6859249677019,
        "distance_elbow_joint": 1.4479733765387364,
        "distance_shoulder_lift_joint": 0.7556855937684754,
        "distance_shoulder_pan_joint": 1.752736708329477,
        "distance_wrist_1_joint": 0.6226944565884129,
        "distance_wrist_2_joint": 1.5307367201037223,
        "distance_wrist_3_joint": 0.027381990134504274,
        "smoothness": 0.8324915882299728,
        "time": 0.103196049,
        "traj_len": 2.477339065502203,
        "weighted_distance": 2.8888412906257885
    },
    "planner": "BiEST",
    "start": {
        "state": {
            "elbow_joint": 2.6216224122426386,
            "shoulder_lift_joint": -1.4174107377796124,
            "shoulder_pan_joint": 0.7066234856936794,
            "wrist_1_joint": 1.9546482284002225,
            "wrist_2_joint": -0.7096286983471962,
            "wrist_3_joint": 0.005740856962016249
        }
    },
    "waypoints": [
        {
            "positions": [
                0.7066234856936794,
                -1.4174107377796124,
                2.6216224122426386,
                1.9546482284002225,
                -0.7096286983471962,
                0.005740856962016249
            ]
        },
        {
            "positions": [
                0.7398124439295555,
                -1.3936169462932262,
                2.74420179863442,
                1.8484474927249774,
                -0.7604427496058541,
                0.011890209774446873
            ]
        },
        {
            "positions": [
                0.7730014021654316,
                -1.3698231548068402,
                2.866781185026201,
                1.7422467570497322,
                -0.811256800864512,
                0.0180395625868775
            ]
        },
        {
            "positions": [
                0.6525472027470227,
                -1.31924472546429,
                2.7808658561865456,
                1.771553398852441,
                -0.9133359878349696,
                0.016962185121903
            ]
        },
        {
            "positions": [
                0.5320930033286138,
                -1.2686662961217399,
                2.6949505273468906,
                1.8008600406551498,
                -1.0154151748054272,
                0.015884807656928495
            ]
        },
        {
            "positions": [
                0.4116388039102049,
                -1.2180878667791895,
                2.609035198507235,
                1.8301666824578584,
                -1.1174943617758848,
                0.014807430191953994
            ]
        },
        {
            "positions": [
                0.291184604491796,
                -1.1675094374366393,
                2.52311986966758,
                1.8594733242605672,
                -1.2195735487463424,
                0.01373005272697949
            ]
        },
        {
            "positions": [
                0.1707304050733871,
                -1.116931008094089,
                2.4372045408279246,
                1.888779966063276,
                -1.3216527357168002,
                0.01265267526200499
            ]
        },
        {
            "positions": [
                0.05027620565497826,
                -1.0663525787515389,
                2.3512892119882696,
                1.9180866078659848,
                -1.4237319226872578,
                0.011575297797030487
            ]
        },
        {
            "positions": [
                -0.0701779937634307,
                -1.0157741494089887,
                2.265373883148614,
                1.9473932496686936,
                -1.5258111096577154,
                0.010497920332055984
            ]
        },
        {
            "positions": [
                -0.19063219318183955,
                -0.9651957200664384,
                2.179458554308959,
                1.9766998914714022,
                -1.627890296628173,
                0.009420542867081482
            ]
        },
        {
            "positions": [
                -0.3110863926002486,
                -0.9146172907238881,
                2.0935432254693036,
                2.0060065332741113,
                -1.7299694835986306,
                0.00834316540210698
            ]
        },
        {
            "positions": [
                -0.43154059201865735,
                -0.8640388613813379,
                2.007627896629648,
                2.03531317507682,
                -1.8320486705690882,
                0.007265787937132477
            ]
        },
        {
            "positions": [
                -0.5519947914370663,
                -0.8134604320387876,
                1.921712567789993,
                2.0646198168795284,
                -1.9341278575395457,
                0.006188410472157976
            ]
        },
        {
            "positions": [
                -0.672448990855475,
                -0.7628820026962374,
                1.8357972389503379,
                2.0939264586822373,
                -2.0362070445100033,
                0.0051110330071834735
            ]
        },
        {
            "positions": [
                -0.7929031902738842,
                -0.7123035733536871,
                1.7498819101106824,
                2.123233100484946,
                -2.138286231480461,
                0.004033655542208971
            ]
        },
        {
            "positions": [
                -0.913357389692293,
                -0.6617251440111369,
                1.6639665812710271,
                2.152539742287655,
                -2.2403654184509185,
                0.0029562780772344676
            ]
        }
    ]
}