{
    "goal": {
        "global_pose": {
            "orientation": {
                "w": 0.5084816217422485,
                "x": -0.49083608388900757,
                "y": 0.5182115435600281,
                "z": -0.4816462993621826
            },
            "position": {
                "x": 0.5540239810943604,
                "y": 0.030875300988554955,
                "z": 0.16403168439865112
            }
        },
        "name": "move_to_storage_A"
    },
    "id": "BiEST_move_to_storage_A_84",
    "joint_names": [
        "shoulder_pan_joint",
        "shoulder_lift_joint",
        "elbow_joint",
        "wrist_1_joint",
        "wrist_2_joint",
        "wrist_3_joint"
    ],
    "metrics": {
        "cart_traj_len": 0.35329581756677697,
        "distance_elbow_joint": 0.45044854679664836,
        "distance_shoulder_lift_joint": 0.23327772130010693,
        "distance_shoulder_pan_joint": 0.46347721890086413,
        "distance_wrist_1_joint": 0.24530258775743363,
        "distance_wrist_2_joint": 1.0923867064704886,
        "distance_wrist_3_joint": 0.10533577178579279,
        "smoothness": 0.0,
        "time": 0.059721845999999995,
        "traj_len": 1.609418700342249,
        "weighted_distance": 2.034352327108272
    },
    "planner": "BiEST",
    "start": {
        "state": {
            "elbow_joint": 1.971548259319323,
            "shoulder_lift_joint": -1.1394851275133948,
            "shoulder_pan_joint": 0.1228115487234821,
            "wrist_1_joint": -0.7804723859257726,
            "wrist_2_joint": 0.12958671773740124,
            "wrist_3_joint": -3.192489227718131
        }
    },
    "waypoints": [
        {
            "positions": [
                0.1228115487234821,
                -1.1394851275133948,
                1.971548259319323,
                -0.7804723859257726,
                0.12958671773740124,
                -3.192489227718131
            ]
        },
        {
            "positions": [
                0.05660051745193008,
                -1.1728105162705529,
                2.0358980517188443,
                -0.8155156127482631,
                0.28564196151889965,
                -3.177441260320161
            ]
        },
        {
            "positions": [
                -0.00961051381962194,
                -1.2061359050277112,
                2.1002478441183654,
                -0.8505588395707536,
                0.441697205300398,
                -3.1623932929221903
            ]
        },
        {
            "positions": [
                -0.07582154509117395,
                -1.2394612937848692,
                2.1645976365178865,
                -0.8856020663932441,
                0.5977524490818964,
                -3.14734532552422
            ]
        },
        {
            "positions": [
                -0.14203257636272598,
                -1.2727866825420273,
                2.2289474289174076,
                -0.9206452932157347,
                0.7538076928633948,
                -3.1322973581262494
            ]
        },
        {
            "positions": [
                -0.20824360763427802,
                -1.3061120712991854,
                2.293297221316929,
                -0.9556885200382252,
                0.9098629366448931,
                -3.1172493907282792
            ]
        },
        {
            "positions": [
                -0.27445463890583,
                -1.3394374600563437,
                2.3576470137164502,
                -0.9907317468607157,
                1.0659181804263915,
                -3.1022014233303086
            ]
        },
        {
            "positions": [
                -0.34066567017738203,
                -1.3727628488135017,
                2.4219968061159713,
                -1.0257749736832062,
                1.22197342420789,
                -3.0871534559323384
            ]
        }
    ]
}{
    "goal": {
        "global_pose": {
            "orientation": {
                "w": 0.5084816217422485,
                "x": -0.49083608388900757,
                "y": 0.5182115435600281,
                "z": -0.4816462993621826
            },
            "position": {
                "x": 0.5540239810943604,
                "y": 0.030875300988554955,
                "z": 0.16403168439865112
            }
        },
        "name": "move_to_storage_A"
    },
    "id": "BiEST_move_to_storage_A_84",
    "joint_names": [
        "shoulder_pan_joint",
        "shoulder_lift_joint",
        "elbow_joint",
        "wrist_1_joint",
        "wrist_2_joint",
        "wrist_3_joint"
    ],
    "metrics": {
        "cart_traj_len": 0.35234891479692715,
        "distance_elbow_joint": 0.44953827804864765,
        "distance_shoulder_lift_joint": 0.23441223834445757,
        "distance_shoulder_pan_joint": 0.46137966709767386,
        "distance_wrist_1_joint": 0.24182575998764078,
        "distance_wrist_2_joint": 1.0945877840879301,
        "distance_wrist_3_joint": 0.0931243512721287,
        "smoothness": 8.881784197001252e-16,
        "time": 0.028198932000000003,
        "traj_len": 1.6046395479479119,
        "weighted_distance": 2.0242357386081067
    },
    "planner": "BiEST",
    "start": {
        "state": {
            "elbow_joint": 1.97154746011099,
            "shoulder_lift_joint": -1.13948474672311,
            "shoulder_pan_joint": 0.12281154466712228,
            "wrist_1_joint": -0.7804688027058302,
            "wrist_2_joint": 0.12958655903071145,
            "wrist_3_joint": 3.0906928834467795
        }
    },
    "waypoints": [
        {
            "positions": [
                0.12281154466712228,
                -1.13948474672311,
                1.97154746011099,
                -0.7804688027058302,
                0.12958655903071145,
                3.0906928834467795
            ]
        },
        {
            "positions": [
                0.056900163653168884,
                -1.1729722093437467,
                2.0357672141179397,
                -0.8150153398469218,
                0.2859562424718443,
                3.1039963621999407
            ]
        },
        {
            "positions": [
                -0.009011217360784515,
                -1.2064596719643836,
                2.099986968124889,
                -0.8495618769880132,
                0.44232592591297715,
                3.117299840953102
            ]
        },
        {
            "positions": [
                -0.07492259837473793,
                -1.2399471345850204,
                2.164206722131839,
                -0.8841084141291048,
                0.59869560935411,
                3.130603319706263
            ]
        },
        {
            "positions": [
                -0.1408339793886913,
                -1.273434597205657,
                2.2284264761387886,
                -0.9186549512701964,
                0.7550652927952429,
                3.1439067984594247
            ]
        },
        {
            "positions": [
                -0.20674536040264474,
                -1.3069220598262938,
                2.2926462301457384,
                -0.9532014884112878,
                0.9114349762363758,
                3.157210277212586
            ]
        },
        {
            "positions": [
                -0.2726567414165981,
                -1.3404095224469308,
                2.3568659841526878,
                -0.9877480255523794,
                1.0678046596775086,
                3.170513755965747
            ]
        },
        {
            "positions": [
                -0.33856812243055157,
                -1.3738969850675675,
                2.4210857381596376,
                -1.022294562693471,
                1.2241743431186416,
                3.183817234718908
            ]
        }
    ]
}{
    "goal": {
        "global_pose": {
            "orientation": {
                "w": 0.5084816217422485,
                "x": -0.49083608388900757,
                "y": 0.5182115435600281,
                "z": -0.4816462993621826
            },
            "position": {
                "x": 0.5540239810943604,
                "y": 0.030875300988554955,
                "z": 0.16403168439865112
            }
        },
        "name": "move_to_storage_A"
    },
    "id": "BiEST_move_to_storage_A_84",
    "joint_names": [
        "shoulder_pan_joint",
        "shoulder_lift_joint",
        "elbow_joint",
        "wrist_1_joint",
        "wrist_2_joint",
        "wrist_3_joint"
    ],
    "metrics": {
        "cart_traj_len": 0.35311822152487493,
        "distance_elbow_joint": 0.4480744118816973,
        "distance_shoulder_lift_joint": 0.23506048688678138,
        "distance_shoulder_pan_joint": 0.4636974210758403,
        "distance_wrist_1_joint": 0.23562651139815438,
        "distance_wrist_2_joint": 1.0904264279003306,
        "distance_wrist_3_joint": 0.10047986232494743,
        "smoothness": 4.440892098500626e-16,
        "time": 0.02340241,
        "traj_len": 1.6041711633949014,
        "weighted_distance": 2.02493895844199
    },
    "planner": "BiEST",
    "start": {
        "state": {
            "elbow_joint": 1.9715472970024885,
            "shoulder_lift_joint": -1.1394870060712896,
            "shoulder_pan_joint": 0.12281152778156021,
            "wrist_1_joint": -0.780463741449964,
            "wrist_2_joint": 0.12958659822042276,
            "wrist_3_joint": 3.090690232415272
        }
    },
    "waypoints": [
        {
            "positions": [
                0.12281152778156021,
                -1.1394870060712896,
                1.9715472970024885,
                -0.780463741449964,
                0.12958659822042276,
                3.090690232415272
            ]
        },
        {
            "positions": [
                0.05656903905644019,
                -1.173067075626544,
                2.0355579272713022,
                -0.8141246716497004,
                0.28536180220618423,
                3.1050444984616927
            ]
        },
        {
            "positions": [
                -0.009673449668679834,
                -1.2066471451817986,
                2.0995685575401164,
                -0.8477856018494366,
                0.44113700619194574,
                3.119398764508114
            ]
        },
        {
            "positions": [
                -0.07591593839379987,
                -1.240227214737053,
                2.16357918780893,
                -0.881446532049173,
                0.5969122101777072,
                3.133753030554535
            ]
        },
        {
            "positions": [
                -0.14215842711891988,
                -1.2738072842923076,
                2.2275898180777443,
                -0.9151074622489094,
                0.7526874141634687,
                3.1481072966009562
            ]
        },
        {
            "positions": [
                -0.20840091584403994,
                -1.307387353847562,
                2.291600448346558,
                -0.9487683924486456,
                0.9084626181492303,
                3.162461562647377
            ]
        },
        {
            "positions": [
                -0.2746434045691599,
                -1.3409674234028164,
                2.3556110786153717,
                -0.982429322648382,
                1.0642378221349917,
                3.1768158286937984
            ]
        },
        {
            "positions": [
                -0.34088589329428004,
                -1.374547492958071,
                2.419621708884186,
                -1.0160902528481184,
                1.2200130261207534,
                3.1911700947402193
            ]
        }
    ]
}