{
    "goal": {
        "global_pose": {
            "orientation": {
                "w": 0.5084816217422485,
                "x": -0.49083608388900757,
                "y": 0.5182115435600281,
                "z": -0.4816462993621826
            },
            "position": {
                "x": 0.5540239810943604,
                "y": 0.030875300988554955,
                "z": 0.16403168439865112
            }
        },
        "name": "move_to_storage_A"
    },
    "id": "BiEST_move_to_storage_A_18",
    "joint_names": [
        "shoulder_pan_joint",
        "shoulder_lift_joint",
        "elbow_joint",
        "wrist_1_joint",
        "wrist_2_joint",
        "wrist_3_joint"
    ],
    "metrics": {
        "cart_traj_len": 0.35227831836809087,
        "distance_elbow_joint": 0.4498778715987599,
        "distance_shoulder_lift_joint": 0.23435720865870802,
        "distance_shoulder_pan_joint": 0.45920099876016574,
        "distance_wrist_1_joint": 0.24198001212078946,
        "distance_wrist_2_joint": 1.1036165474174127,
        "distance_wrist_3_joint": 0.10075603579840031,
        "smoothness": 4.440892133664971e-16,
        "time": 0.048855891,
        "traj_len": 1.6092820369202647,
        "weighted_distance": 2.0339364064515975
    },
    "planner": "BiEST",
    "start": {
        "state": {
            "elbow_joint": 1.971548259319323,
            "shoulder_lift_joint": -1.1394851275133948,
            "shoulder_pan_joint": 0.1228115487234821,
            "wrist_1_joint": -0.7804723859257726,
            "wrist_2_joint": 0.12958671773740124,
            "wrist_3_joint": -3.192489227718131
        }
    },
    "waypoints": [
        {
            "positions": [
                0.1228115487234821,
                -1.1394851275133948,
                1.971548259319323,
                -0.7804723859257726,
                0.12958671773740124,
                -3.192489227718131
            ]
        },
        {
            "positions": [
                0.057211406043458424,
                -1.172964728750353,
                2.0358165266905743,
                -0.8150409590858854,
                0.2872462245113173,
                -3.1780955083183597
            ]
        },
        {
            "positions": [
                -0.008388736636565253,
                -1.2064443299873113,
                2.100084794061826,
                -0.8496095322459982,
                0.44490573128523336,
                -3.1637017889185883
            ]
        },
        {
            "positions": [
                -0.07398887931658893,
                -1.2399239312242696,
                2.164353061433077,
                -0.884178105406111,
                0.6025652380591495,
                -3.149308069518817
            ]
        },
        {
            "positions": [
                -0.1395890219966126,
                -1.273403532461228,
                2.2286213288043286,
                -0.9187466785662237,
                0.7602247448330656,
                -3.134914350119045
            ]
        },
        {
            "positions": [
                -0.20518916467663628,
                -1.3068831336981863,
                2.29288959617558,
                -0.9533152517263366,
                0.9178842516069817,
                -3.1205206307192737
            ]
        },
        {
            "positions": [
                -0.27078930735665996,
                -1.3403627349351446,
                2.3571578635468313,
                -0.9878838248864492,
                1.0755437583808978,
                -3.1061269113195022
            ]
        },
        {
            "positions": [
                -0.33638945003668363,
                -1.3738423361721028,
                2.421426130918083,
                -1.022452398046562,
                1.233203265154814,
                -3.091733191919731
            ]
        }
    ]
}{
    "goal": {
        "global_pose": {
            "orientation": {
                "w": 0.5084816217422485,
                "x": -0.49083608388900757,
                "y": 0.5182115435600281,
                "z": -0.4816462993621826
            },
            "position": {
                "x": 0.5540239810943604,
                "y": 0.030875300988554955,
                "z": 0.16403168439865112
            }
        },
        "name": "move_to_storage_A"
    },
    "id": "BiEST_move_to_storage_A_18",
    "joint_names": [
        "shoulder_pan_joint",
        "shoulder_lift_joint",
        "elbow_joint",
        "wrist_1_joint",
        "wrist_2_joint",
        "wrist_3_joint"
    ],
    "metrics": {
        "cart_traj_len": 0.3535704515175491,
        "distance_elbow_joint": 0.44906730224080604,
        "distance_shoulder_lift_joint": 0.2348221111409634,
        "distance_shoulder_pan_joint": 0.4622559035445778,
        "distance_wrist_1_joint": 0.23538105264263143,
        "distance_wrist_2_joint": 1.1005420123241934,
        "distance_wrist_3_joint": 0.0981771218712173,
        "smoothness": 4.440892133664971e-16,
        "time": 0.086612026,
        "traj_len": 1.6063142605867597,
        "weighted_distance": 2.027935603630857
    },
    "planner": "BiEST",
    "start": {
        "state": {
            "elbow_joint": 1.97154746011099,
            "shoulder_lift_joint": -1.13948474672311,
            "shoulder_pan_joint": 0.12281154466712228,
            "wrist_1_joint": -0.7804688027058302,
            "wrist_2_joint": 0.12958655903071145,
            "wrist_3_joint": 3.0906928834467795
        }
    },
    "waypoints": [
        {
            "positions": [
                0.12281154466712228,
                -1.13948474672311,
                1.97154746011099,
                -0.7804688027058302,
                0.12958655903071145,
                3.0906928834467795
            ]
        },
        {
            "positions": [
                0.05677498701789689,
                -1.1730307626003904,
                2.0356999318596767,
                -0.8140946673690632,
                0.2868068465055962,
                3.104718186571239
            ]
        },
        {
            "positions": [
                -0.0092615706313285,
                -1.2065767784776709,
                2.099852403608363,
                -0.8477205320322962,
                0.444027133980481,
                3.118743489695699
            ]
        },
        {
            "positions": [
                -0.07529812828055389,
                -1.2401227943549513,
                2.1640048753570498,
                -0.8813463966955294,
                0.6012474214553657,
                3.1327687928201584
            ]
        },
        {
            "positions": [
                -0.14133468592977927,
                -1.2736688102322318,
                2.228157347105736,
                -0.9149722613587624,
                0.7584677089302505,
                3.146794095944618
            ]
        },
        {
            "positions": [
                -0.20737124357900472,
                -1.3072148261095125,
                2.292309818854423,
                -0.9485981260219956,
                0.9156879964051353,
                3.1608193990690774
            ]
        },
        {
            "positions": [
                -0.27340780122823005,
                -1.340760841986793,
                2.356462290603109,
                -0.9822239906852286,
                1.07290828388002,
                3.1748447021935373
            ]
        },
        {
            "positions": [
                -0.3394443588774555,
                -1.3743068578640734,
                2.420614762351796,
                -1.0158498553484616,
                1.2301285713549048,
                3.188870005317997
            ]
        }
    ]
}{
    "goal": {
        "global_pose": {
            "orientation": {
                "w": 0.5084816217422485,
                "x": -0.49083608388900757,
                "y": 0.5182115435600281,
                "z": -0.4816462993621826
            },
            "position": {
                "x": 0.5540239810943604,
                "y": 0.030875300988554955,
                "z": 0.16403168439865112
            }
        },
        "name": "move_to_storage_A"
    },
    "id": "BiEST_move_to_storage_A_18",
    "joint_names": [
        "shoulder_pan_joint",
        "shoulder_lift_joint",
        "elbow_joint",
        "wrist_1_joint",
        "wrist_2_joint",
        "wrist_3_joint"
    ],
    "metrics": {
        "cart_traj_len": 0.35398291724439895,
        "distance_elbow_joint": 0.4540136657829619,
        "distance_shoulder_lift_joint": 0.23450361568848255,
        "distance_shoulder_pan_joint": 0.46461772426471154,
        "distance_wrist_1_joint": 0.2581724018668765,
        "distance_wrist_2_joint": 1.0936456718000587,
        "distance_wrist_3_joint": 0.10172892710485115,
        "smoothness": 6.661338200497456e-16,
        "time": 0.038385642,
        "traj_len": 1.6145222223642333,
        "weighted_distance": 2.0400877271295417
    },
    "planner": "BiEST",
    "start": {
        "state": {
            "elbow_joint": 1.9715472970024885,
            "shoulder_lift_joint": -1.1394870060712896,
            "shoulder_pan_joint": 0.12281152778156021,
            "wrist_1_joint": -0.780463741449964,
            "wrist_2_joint": 0.12958659822042276,
            "wrist_3_joint": 3.090690232415272
        }
    },
    "waypoints": [
        {
            "positions": [
                0.12281152778156021,
                -1.1394870060712896,
                1.9715472970024885,
                -0.780463741449964,
                0.12958659822042276,
                3.090690232415272
            ]
        },
        {
            "positions": [
                0.05643756717231571,
                -1.1729875225982156,
                2.03640639211434,
                -0.8173455131452321,
                0.2858216941918597,
                3.1052229362873933
            ]
        },
        {
            "positions": [
                -0.009936393436928787,
                -1.2064880391251418,
                2.101265487226192,
                -0.8542272848405001,
                0.4420567901632967,
                3.1197556401595152
            ]
        },
        {
            "positions": [
                -0.07631035404617328,
                -1.2399885556520678,
                2.1661245823380435,
                -0.8911090565357682,
                0.5982918861347336,
                3.1342883440316367
            ]
        },
        {
            "positions": [
                -0.14268431465541778,
                -1.273489072178994,
                2.2309836774498955,
                -0.9279908282310363,
                0.7545269821061705,
                3.148821047903758
            ]
        },
        {
            "positions": [
                -0.20905827526466228,
                -1.30698958870592,
                2.295842772561747,
                -0.9648725999263044,
                0.9107620780776076,
                3.1633537517758796
            ]
        },
        {
            "positions": [
                -0.27543223587390675,
                -1.340490105232846,
                2.3607018676735985,
                -1.0017543716215724,
                1.0669971740490445,
                3.1778864556480015
            ]
        },
        {
            "positions": [
                -0.3418061964831513,
                -1.3739906217597722,
                2.4255609627854504,
                -1.0386361433168405,
                1.2232322700204814,
                3.192419159520123
            ]
        }
    ]
}