{
    "goal": {
        "global_pose": {
            "orientation": {
                "w": -0.4816463035849501,
                "x": 0.5182115481033762,
                "y": 0.4908360881923453,
                "z": -0.5084816262002911
            },
            "position": {
                "x": -0.8240239810943604,
                "y": -0.300875300988555,
                "z": 0.16403168439865112
            }
        },
        "name": "move_to_storage_C"
    },
    "id": "BiEST_move_to_storage_C_33",
    "joint_names": [
        "shoulder_pan_joint",
        "shoulder_lift_joint",
        "elbow_joint",
        "wrist_1_joint",
        "wrist_2_joint",
        "wrist_3_joint"
    ],
    "metrics": {
        "cart_traj_len": 0.5765914361397511,
        "distance_elbow_joint": 0.25760044266245163,
        "distance_shoulder_lift_joint": 0.19093038654211247,
        "distance_shoulder_pan_joint": 0.4923454268815983,
        "distance_wrist_1_joint": 0.06920320454397577,
        "distance_wrist_2_joint": 1.0809811076806897,
        "distance_wrist_3_joint": 0.06910667990193886,
        "smoothness": 2.5376526478085547e-16,
        "time": 0.082471507,
        "traj_len": 1.4697507435659853,
        "weighted_distance": 1.8570312114343448
    },
    "planner": "BiEST",
    "start": {
        "state": {
            "elbow_joint": 2.010868314990456,
            "shoulder_lift_joint": -1.1634956873337592,
            "shoulder_pan_joint": -2.4736205022346125,
            "wrist_1_joint": -0.8367026794202681,
            "wrist_2_joint": 0.6746043897044499,
            "wrist_3_joint": -3.1496632123970403
        }
    },
    "waypoints": [
        {
            "positions": [
                -2.4736205022346125,
                -1.1634956873337592,
                2.010868314990456,
                -0.8367026794202681,
                0.6746043897044499,
                -3.1496632123970403
            ]
        },
        {
            "positions": [
                -2.5556780733815456,
                -1.131673956243407,
                1.9679349078800472,
                -0.8251688119962721,
                0.8547679076512316,
                -3.138145432413384
            ]
        },
        {
            "positions": [
                -2.6377356445284788,
                -1.0998522251530551,
                1.9250015007696386,
                -0.8136349445722761,
                1.034931425598013,
                -3.126627652429727
            ]
        },
        {
            "positions": [
                -2.719793215675412,
                -1.068030494062703,
                1.88206809365923,
                -0.8021010771482802,
                1.2150949435447949,
                -3.115109872446071
            ]
        },
        {
            "positions": [
                -2.8018507868223446,
                -1.0362087629723509,
                1.8391346865488214,
                -0.7905672097242843,
                1.3952584614915762,
                -3.1035920924624145
            ]
        },
        {
            "positions": [
                -2.8839083579692777,
                -1.0043870318819987,
                1.7962012794384128,
                -0.7790333423002883,
                1.575421979438358,
                -3.0920743124787577
            ]
        },
        {
            "positions": [
                -2.965965929116211,
                -0.9725653007916467,
                1.7532678723280042,
                -0.7674994748762923,
                1.7555854973851397,
                -3.0805565324951014
            ]
        }
    ]
}