{
    "goal": {
        "global_pose": {
            "orientation": {
                "w": 0.005598929693374612,
                "x": 0.007748599140229565,
                "y": 0.7110244013736278,
                "z": -0.7031023480610252
            },
            "position": {
                "x": -0.8858502320852131,
                "y": -0.7141253447532654,
                "z": 0.3711530566215515
            }
        },
        "name": "move_to_auspresseinheit_C"
    },
    "id": "BiEST_move_to_auspresseinheit_C_30",
    "joint_names": [
        "shoulder_pan_joint",
        "shoulder_lift_joint",
        "elbow_joint",
        "wrist_1_joint",
        "wrist_2_joint",
        "wrist_3_joint"
    ],
    "metrics": {
        "cart_traj_len": 0.4937641854975112,
        "distance_elbow_joint": 1.0055039164928705,
        "distance_shoulder_lift_joint": 0.32785953197479034,
        "distance_shoulder_pan_joint": 0.2568700176015648,
        "distance_wrist_1_joint": 0.6881990306645203,
        "distance_wrist_2_joint": 1.3042950557357749,
        "distance_wrist_3_joint": 0.06998227744185348,
        "smoothness": 3.2297397080004555e-16,
        "time": 0.293718993,
        "traj_len": 1.9112063807740323,
        "weighted_distance": 2.4052377161510203
    },
    "planner": "BiEST",
    "start": {
        "state": {
            "elbow_joint": 1.7527959577737207,
            "shoulder_lift_joint": -0.9740617694225068,
            "shoulder_pan_joint": -2.967991417825858,
            "wrist_1_joint": -0.759517768980727,
            "wrist_2_joint": 1.7443932448377408,
            "wrist_3_joint": -3.0840537646736568
        }
    },
    "waypoints": [
        {
            "positions": [
                -2.967991417825858,
                -0.9740617694225068,
                1.7527959577737207,
                -0.759517768980727,
                1.7443932448377408,
                -3.0840537646736568
            ]
        },
        {
            "positions": [
                -2.9423044160657015,
                -0.9412758162250278,
                1.6522455661244335,
                -0.690697865914275,
                1.6139637392641633,
                -3.0910519924178423
            ]
        },
        {
            "positions": [
                -2.916617414305545,
                -0.9084898630275487,
                1.5516951744751466,
                -0.6218779628478229,
                1.483534233690586,
                -3.0980502201620275
            ]
        },
        {
            "positions": [
                -2.8909304125453885,
                -0.8757039098300696,
                1.4511447828258595,
                -0.5530580597813709,
                1.3531047281170083,
                -3.1050484479062126
            ]
        },
        {
            "positions": [
                -2.865243410785232,
                -0.8429179566325906,
                1.3505943911765725,
                -0.4842381567149189,
                1.222675222543431,
                -3.112046675650398
            ]
        },
        {
            "positions": [
                -2.8395564090250756,
                -0.8101320034351116,
                1.2500439995272854,
                -0.41541825364846685,
                1.0922457169698534,
                -3.1190449033945837
            ]
        },
        {
            "positions": [
                -2.813869407264919,
                -0.7773460502376326,
                1.1494936078779983,
                -0.3465983505820148,
                0.9618162113962759,
                -3.126043131138769
            ]
        },
        {
            "positions": [
                -2.7881824055047626,
                -0.7445600970401536,
                1.0489432162287113,
                -0.27777844751556285,
                0.8313867058226985,
                -3.133041358882954
            ]
        },
        {
            "positions": [
                -2.762495403744606,
                -0.7117741438426746,
                0.9483928245794242,
                -0.20895854444911077,
                0.7009572002491209,
                -3.1400395866271396
            ]
        },
        {
            "positions": [
                -2.7368084019844496,
                -0.6789881906451954,
                0.8478424329301372,
                -0.14013864138265875,
                0.5705276946755433,
                -3.147037814371325
            ]
        },
        {
            "positions": [
                -2.711121400224293,
                -0.6462022374477164,
                0.7472920412808502,
                -0.07131873831620673,
                0.44009818910196596,
                -3.1540360421155103
            ]
        }
    ]
}