{
    "goal": {
        "global_pose": {
            "orientation": {
                "w": -0.4816463035849501,
                "x": 0.5182115481033762,
                "y": 0.4908360881923453,
                "z": -0.5084816262002911
            },
            "position": {
                "x": -0.8240239810943604,
                "y": 0.19912469901144506,
                "z": 0.16403168439865112
            }
        },
        "name": "move_to_storage_D"
    },
    "id": "BiEST_move_to_storage_D_92",
    "joint_names": [
        "shoulder_pan_joint",
        "shoulder_lift_joint",
        "elbow_joint",
        "wrist_1_joint",
        "wrist_2_joint",
        "wrist_3_joint"
    ],
    "metrics": {
        "cart_traj_len": 1.9733836323522556,
        "distance_elbow_joint": 0.9074983626744155,
        "distance_shoulder_lift_joint": 1.421082084552308,
        "distance_shoulder_pan_joint": 3.041804681245081,
        "distance_wrist_1_joint": 3.8211879702244573,
        "distance_wrist_2_joint": 1.782375668433792,
        "distance_wrist_3_joint": 5.286881077568497,
        "smoothness": 0.32349842942524704,
        "time": 0.09299290399999999,
        "traj_len": 4.032471927329259,
        "weighted_distance": 5.695450433327797
    },
    "planner": "BiEST",
    "start": {
        "state": {
            "elbow_joint": -2.384821988534728,
            "shoulder_lift_joint": -2.2788054721415256,
            "shoulder_pan_joint": -0.1854694642142757,
            "wrist_1_joint": 1.4845938289331202,
            "wrist_2_joint": 0.17898776772866878,
            "wrist_3_joint": 0.037105688729662994
        }
    },
    "waypoints": [
        {
            "positions": [
                -0.1854694642142757,
                -2.2788054721415256,
                -2.384821988534728,
                1.4845938289331202,
                0.17898776772866878,
                0.037105688729662994
            ]
        },
        {
            "positions": [
                -0.1056383478637362,
                -2.2394627581735285,
                -2.393652774286193,
                1.3639088372346893,
                0.09005575630836063,
                -0.01604918946447622
            ]
        },
        {
            "positions": [
                -0.025807231513196693,
                -2.2001200442055313,
                -2.4024835600376577,
                1.2432238455362583,
                0.0011237448880524747,
                -0.06920406765861543
            ]
        },
        {
            "positions": [
                0.05402388483734277,
                -2.160777330237534,
                -2.4113143457891226,
                1.1225388538378276,
                -0.08780826653225562,
                -0.12235894585275464
            ]
        },
        {
            "positions": [
                0.13385500118788232,
                -2.1214346162695366,
                -2.4201451315405875,
                1.0018538621393966,
                -0.17674027795256383,
                -0.17551382404689386
            ]
        },
        {
            "positions": [
                0.2136861175384218,
                -2.0820919023015394,
                -2.4289759172920524,
                0.8811688704409658,
                -0.2656722893728719,
                -0.22866870224103306
            ]
        },
        {
            "positions": [
                0.2935172338889612,
                -2.0427491883335422,
                -2.4378067030435173,
                0.760483878742535,
                -0.35460430079318006,
                -0.2818235804351723
            ]
        },
        {
            "positions": [
                0.37334835023950075,
                -2.003406474365545,
                -2.446637488794982,
                0.6397988870441041,
                -0.4435363122134882,
                -0.3349784586293114
            ]
        },
        {
            "positions": [
                0.4531794665900404,
                -1.964063760397548,
                -2.455468274546447,
                0.5191138953456731,
                -0.5324683236337965,
                -0.38813333682345075
            ]
        },
        {
            "positions": [
                0.5330105829405798,
                -1.9247210464295508,
                -2.464299060297912,
                0.39842890364724237,
                -0.6214003350541045,
                -0.44128821501758986
            ]
        },
        {
            "positions": [
                0.6128416992911193,
                -1.8853783324615536,
                -2.473129846049377,
                0.27774391194881143,
                -0.7103323464744127,
                -0.4944430932117291
            ]
        },
        {
            "positions": [
                0.6926728156416588,
                -1.8460356184935562,
                -2.481960631800842,
                0.15705892025038048,
                -0.799264357894721,
                -0.5475979714058683
            ]
        },
        {
            "positions": [
                0.7725039319921982,
                -1.806692904525559,
                -2.4907914175523067,
                0.036373928551949763,
                -0.8881963693150289,
                -0.6007528496000075
            ]
        },
        {
            "positions": [
                0.8523350483427378,
                -1.7673501905575617,
                -2.4996222033037716,
                -0.08431106314648118,
                -0.9771283807353371,
                -0.6539077277941467
            ]
        },
        {
            "positions": [
                0.9321661646932772,
                -1.7280074765895646,
                -2.5084529890552365,
                -0.2049960548449119,
                -1.066060392155645,
                -0.7070626059882859
            ]
        },
        {
            "positions": [
                1.0119972810438167,
                -1.6886647626215674,
                -2.5172837748067014,
                -0.32568104654334284,
                -1.1549924035759533,
                -0.7602174841824252
            ]
        },
        {
            "positions": [
                1.0918283973943563,
                -1.6493220486535702,
                -2.5261145605581663,
                -0.446366038241774,
                -1.2439244149962616,
                -0.8133723623765644
            ]
        },
        {
            "positions": [
                1.1716595137448957,
                -1.609979334685573,
                -2.534945346309631,
                -0.5670510299402047,
                -1.3328564264165694,
                -0.8665272405707035
            ]
        },
        {
            "positions": [
                1.2514906300954352,
                -1.570636620717576,
                -2.543776132061096,
                -0.6877360216386355,
                -1.4217884378368777,
                -0.9196821187648427
            ]
        },
        {
            "positions": [
                1.3313217464459746,
                -1.5312939067495788,
                -2.552606917812561,
                -0.8084210133370662,
                -1.5107204492571857,
                -0.9728369969589818
            ]
        },
        {
            "positions": [
                1.4111528627965142,
                -1.4919511927815814,
                -2.561437703564026,
                -0.9291060050354973,
                -1.599652460677494,
                -1.0259918751531212
            ]
        },
        {
            "positions": [
                1.3454627557858647,
                -1.5207797293812342,
                -2.5282157650347026,
                -0.9930827385016718,
                -1.5998222534060227,
                -0.8340017154401342
            ]
        },
        {
            "positions": [
                1.279772648775215,
                -1.5496082659808872,
                -2.494993826505379,
                -1.0570594719678463,
                -1.5999920461345511,
                -0.6420115557271473
            ]
        },
        {
            "positions": [
                1.2140825417645655,
                -1.5784368025805402,
                -2.4617718879760555,
                -1.121036205434021,
                -1.6001618388630798,
                -0.45002139601416047
            ]
        },
        {
            "positions": [
                1.1483924347539158,
                -1.607265339180193,
                -2.4285499494467317,
                -1.1850129389001955,
                -1.6003316315916083,
                -0.25803123630117353
            ]
        },
        {
            "positions": [
                1.0827023277432664,
                -1.6360938757798458,
                -2.3953280109174084,
                -1.24898967236637,
                -1.600501424320137,
                -0.0660410765881867
            ]
        },
        {
            "positions": [
                1.0170122207326169,
                -1.6649224123794988,
                -2.3621060723880847,
                -1.3129664058325448,
                -1.6006712170486657,
                0.12594908312480024
            ]
        },
        {
            "positions": [
                0.9513221137219672,
                -1.6937509489791518,
                -2.3288841338587614,
                -1.3769431392987193,
                -1.6008410097771941,
                0.3179392428377872
            ]
        },
        {
            "positions": [
                0.8856320067113176,
                -1.7225794855788046,
                -2.2956621953294376,
                -1.4409198727648937,
                -1.6010108025057228,
                0.5099294025507741
            ]
        },
        {
            "positions": [
                0.819941899700668,
                -1.7514080221784574,
                -2.2624402568001143,
                -1.5048966062310685,
                -1.6011805952342513,
                0.7019195622637611
            ]
        },
        {
            "positions": [
                0.7542517926900185,
                -1.7802365587781104,
                -2.2292183182707905,
                -1.5688733396972427,
                -1.60135038796278,
                0.8939097219767478
            ]
        },
        {
            "positions": [
                0.6885616856793689,
                -1.8090650953777634,
                -2.195996379741467,
                -1.6328500731634175,
                -1.6015201806913084,
                1.0858998816897347
            ]
        },
        {
            "positions": [
                0.6228715786687195,
                -1.8378936319774162,
                -2.1627744412121435,
                -1.696826806629592,
                -1.601689973419837,
                1.2778900414027217
            ]
        },
        {
            "positions": [
                0.5571814716580697,
                -1.866722168577069,
                -2.12955250268282,
                -1.7608035400957665,
                -1.6018597661483658,
                1.4698802011157086
            ]
        },
        {
            "positions": [
                0.49149136464742027,
                -1.895550705176722,
                -2.0963305641534964,
                -1.8247802735619412,
                -1.6020295588768942,
                1.6618703608286955
            ]
        },
        {
            "positions": [
                0.4258012576367707,
                -1.9243792417763748,
                -2.063108625624173,
                -1.8887570070281157,
                -1.602199351605423,
                1.853860520541682
            ]
        },
        {
            "positions": [
                0.360111150626121,
                -1.9532077783760278,
                -2.0298866870948493,
                -1.9527337404942902,
                -1.6023691443339514,
                2.045850680254669
            ]
        },
        {
            "positions": [
                0.2944210436154715,
                -1.9820363149756806,
                -1.996664748565526,
                -2.016710473960465,
                -1.60253893706248,
                2.2378408399676557
            ]
        },
        {
            "positions": [
                0.2287309366048218,
                -2.0108648515753336,
                -1.9634428100362022,
                -2.0806872074266396,
                -1.6027087297910088,
                2.429830999680643
            ]
        },
        {
            "positions": [
                0.16304082959417232,
                -2.0396933881749866,
                -1.930220871506879,
                -2.144663940892814,
                -1.6028785225195372,
                2.6218211593936296
            ]
        },
        {
            "positions": [
                0.09735072258352284,
                -2.0685219247746396,
                -1.8969989329775554,
                -2.208640674358988,
                -1.603048315248066,
                2.813811319106617
            ]
        },
        {
            "positions": [
                0.03166061557287314,
                -2.097350461374292,
                -1.8637769944482319,
                -2.2726174078251633,
                -1.6032181079765944,
                3.0058014788196044
            ]
        },
        {
            "positions": [
                -0.03402949143777628,
                -2.126178997973945,
                -1.8305550559189083,
                -2.3365941412913376,
                -1.603387900705123,
                3.197791638532591
            ]
        }
    ]
}