{
    "goal": {
        "global_pose": {
            "orientation": {
                "w": 0.005598929693374612,
                "x": 0.007748599140229565,
                "y": 0.7110244013736278,
                "z": -0.7031023480610252
            },
            "position": {
                "x": -0.8858502320852131,
                "y": -0.7141253447532654,
                "z": 0.3711530566215515
            }
        },
        "name": "move_to_auspresseinheit_C"
    },
    "id": "BiEST_move_to_auspresseinheit_C_24",
    "joint_names": [
        "shoulder_pan_joint",
        "shoulder_lift_joint",
        "elbow_joint",
        "wrist_1_joint",
        "wrist_2_joint",
        "wrist_3_joint"
    ],
    "metrics": {
        "cart_traj_len": 0.492004446097362,
        "distance_elbow_joint": 0.992356247442732,
        "distance_shoulder_lift_joint": 0.3217593786462353,
        "distance_shoulder_pan_joint": 0.2558738758271528,
        "distance_wrist_1_joint": 0.6639823197881488,
        "distance_wrist_2_joint": 1.3147441404926545,
        "distance_wrist_3_joint": 0.0544629881765859,
        "smoothness": 3.2297397080004555e-16,
        "time": 0.116324993,
        "traj_len": 1.8982041382247352,
        "weighted_distance": 2.3855463497923246
    },
    "planner": "BiEST",
    "start": {
        "state": {
            "elbow_joint": 1.7527959577737207,
            "shoulder_lift_joint": -0.9740617694225068,
            "shoulder_pan_joint": -2.967991417825858,
            "wrist_1_joint": -0.759517768980727,
            "wrist_2_joint": 1.7443932448377408,
            "wrist_3_joint": -3.0840537646736568
        }
    },
    "waypoints": [
        {
            "positions": [
                -2.967991417825858,
                -0.9740617694225068,
                1.7527959577737207,
                -0.759517768980727,
                1.7443932448377408,
                -3.0840537646736568
            ]
        },
        {
            "positions": [
                -2.942404030243143,
                -0.9418858315578833,
                1.6535603330294475,
                -0.6931195370019121,
                1.6129188307884754,
                -3.0895000634913155
            ]
        },
        {
            "positions": [
                -2.9168166426604274,
                -0.9097098936932597,
                1.5543247082851743,
                -0.6267213050230972,
                1.48144441673921,
                -3.094946362308974
            ]
        },
        {
            "positions": [
                -2.891229255077712,
                -0.8775339558286361,
                1.455089083540901,
                -0.5603230730442823,
                1.3499700026899446,
                -3.1003926611266324
            ]
        },
        {
            "positions": [
                -2.865641867494997,
                -0.8453580179640127,
                1.3558534587966278,
                -0.49392484106546747,
                1.218495588640679,
                -3.105838959944291
            ]
        },
        {
            "positions": [
                -2.8400544799122818,
                -0.8131820800993892,
                1.2566178340523546,
                -0.4275266090866526,
                1.0870211745914136,
                -3.1112852587619497
            ]
        },
        {
            "positions": [
                -2.8144670923295663,
                -0.7810061422347656,
                1.1573822093080814,
                -0.3611283771078377,
                0.9555467605421482,
                -3.1167315575796084
            ]
        },
        {
            "positions": [
                -2.7888797047468508,
                -0.7488302043701421,
                1.0581465845638083,
                -0.29473014512902285,
                0.8240723464928827,
                -3.122177856397267
            ]
        },
        {
            "positions": [
                -2.7632923171641357,
                -0.7166542665055186,
                0.958910959819535,
                -0.22833191315020795,
                0.6925979324436171,
                -3.1276241552149253
            ]
        },
        {
            "positions": [
                -2.7377049295814206,
                -0.6844783286408951,
                0.8596753350752618,
                -0.16193368117139306,
                0.5611235183943517,
                -3.133070454032584
            ]
        },
        {
            "positions": [
                -2.712117541998705,
                -0.6523023907762715,
                0.7604397103309887,
                -0.0955354491925782,
                0.4296491043450864,
                -3.1385167528502427
            ]
        }
    ]
}