{
    "goal": {
        "global_pose": {
            "orientation": {
                "w": -0.00223480608172531,
                "x": 0.0024358444001904467,
                "y": 0.7094548369677653,
                "z": -0.704743149386269
            },
            "position": {
                "x": 0.6205249238014221,
                "y": -0.6371506643295288,
                "z": 0.19426114857196808
            }
        },
        "name": "move_to_magneteinheit_B"
    },
    "id": "BiEST_move_to_magneteinheit_B_130",
    "joint_names": [
        "shoulder_pan_joint",
        "shoulder_lift_joint",
        "elbow_joint",
        "wrist_1_joint",
        "wrist_2_joint",
        "wrist_3_joint"
    ],
    "metrics": {
        "cart_traj_len": 3.5469903187109924,
        "distance_elbow_joint": 3.6732063631573957,
        "distance_shoulder_lift_joint": 1.3158858214901128,
        "distance_shoulder_pan_joint": 3.654574741747717,
        "distance_wrist_1_joint": 2.1256226256228756,
        "distance_wrist_2_joint": 3.3324076416453825,
        "distance_wrist_3_joint": 1.8034942922323554,
        "smoothness": 0.44060261628415043,
        "time": 0.119499668,
        "traj_len": 3.9881313275638046,
        "weighted_distance": 4.99702014580978
    },
    "planner": "BiEST",
    "start": {
        "state": {
            "elbow_joint": 2.6216224122426386,
            "shoulder_lift_joint": -1.4174107377796124,
            "shoulder_pan_joint": 0.7066234856936794,
            "wrist_1_joint": 1.9546482284002225,
            "wrist_2_joint": -0.7096286983471962,
            "wrist_3_joint": 0.005740856962016249
        }
    },
    "waypoints": [
        {
            "positions": [
                0.7066234856936794,
                -1.4174107377796124,
                2.6216224122426386,
                1.9546482284002225,
                -0.7096286983471962,
                0.005740856962016249
            ]
        },
        {
            "positions": [
                0.7814060268107699,
                -1.4835303553026349,
                2.618013982940281,
                1.9747355775316406,
                -0.5837293970799577,
                0.051219745442567646
            ]
        },
        {
            "positions": [
                0.8561885679278605,
                -1.5496499728256572,
                2.6144055536379236,
                1.9948229266630588,
                -0.4578300958127193,
                0.09669863392311905
            ]
        },
        {
            "positions": [
                0.930971109044951,
                -1.6157695903486795,
                2.6107971243355657,
                2.014910275794477,
                -0.3319307945454808,
                0.14217752240367046
            ]
        },
        {
            "positions": [
                1.0057536501620414,
                -1.681889207871702,
                2.607188695033208,
                2.034997624925895,
                -0.20603149327824233,
                0.18765641088422186
            ]
        },
        {
            "positions": [
                1.1621513743273475,
                -1.689632322068265,
                2.5382433350928566,
                2.056632679768766,
                -0.1693750823822709,
                0.21256211678973658
            ]
        },
        {
            "positions": [
                1.3185490984926536,
                -1.6973754362648281,
                2.469297975152505,
                2.078267734611637,
                -0.13271867148629943,
                0.2374678226952513
            ]
        },
        {
            "positions": [
                1.3634970228409788,
                -1.684407625084116,
                2.32741858768991,
                2.000442577528097,
                -0.09577757612976391,
                0.3125344290243684
            ]
        },
        {
            "positions": [
                1.4084449471893044,
                -1.6714398139034041,
                2.185539200227315,
                1.9226174204445567,
                -0.058836480773228395,
                0.38760103535348545
            ]
        },
        {
            "positions": [
                1.4533928715376296,
                -1.658472002722692,
                2.04365981276472,
                1.8447922633610163,
                -0.021895385416692864,
                0.46266764168260255
            ]
        },
        {
            "positions": [
                1.4983407958859551,
                -1.64550419154198,
                1.9017804253021247,
                1.766967106277476,
                0.015045709939842639,
                0.5377342480117197
            ]
        },
        {
            "positions": [
                1.5432887202342804,
                -1.632536380361268,
                1.7599010378395294,
                1.689141949193936,
                0.0519868052963782,
                0.6128008543408368
            ]
        },
        {
            "positions": [
                1.5882366445826057,
                -1.619568569180556,
                1.6180216503769345,
                1.6113167921103957,
                0.0889279006529137,
                0.6878674606699537
            ]
        },
        {
            "positions": [
                1.6331845689309312,
                -1.6066007579998438,
                1.4761422629143393,
                1.5334916350268553,
                0.1258689960094492,
                0.762934066999071
            ]
        },
        {
            "positions": [
                1.6781324932792567,
                -1.593632946819132,
                1.3342628754517443,
                1.455666477943315,
                0.1628100913659847,
                0.838000673328188
            ]
        },
        {
            "positions": [
                1.723080417627582,
                -1.5806651356384198,
                1.192383487989149,
                1.3778413208597748,
                0.1997511867225203,
                0.913067279657305
            ]
        },
        {
            "positions": [
                1.6075674004773164,
                -1.5042314587483818,
                1.1038895816577505,
                1.3512446984591782,
                0.11578556877207302,
                0.9130118724936953
            ]
        },
        {
            "positions": [
                1.4920543833270505,
                -1.4277977818583436,
                1.015395675326352,
                1.3246480760585815,
                0.03181995082162575,
                0.9129564653300857
            ]
        },
        {
            "positions": [
                1.376541366176785,
                -1.3513641049683056,
                0.9269017689949534,
                1.2980514536579848,
                -0.05214566712882146,
                0.912901058166476
            ]
        },
        {
            "positions": [
                1.261028349026519,
                -1.2749304280782674,
                0.8384078626635547,
                1.2714548312573881,
                -0.13611128507926878,
                0.9128456510028663
            ]
        },
        {
            "positions": [
                1.1455153318762534,
                -1.1984967511882294,
                0.7499139563321562,
                1.2448582088567914,
                -0.220076903029716,
                0.9127902438392566
            ]
        },
        {
            "positions": [
                1.0300023147259876,
                -1.1220630742981914,
                0.6614200500007577,
                1.2182615864561948,
                -0.3040425209801632,
                0.9127348366756469
            ]
        },
        {
            "positions": [
                0.9144892975757221,
                -1.0456293974081534,
                0.5729261436693591,
                1.191664964055598,
                -0.3880081389306104,
                0.9126794295120373
            ]
        },
        {
            "positions": [
                0.7989762804254562,
                -0.9691957205181151,
                0.48443223733796037,
                1.1650683416550014,
                -0.47197375688105786,
                0.9126240223484275
            ]
        },
        {
            "positions": [
                0.6834632632751905,
                -0.8927620436280771,
                0.39593833100656184,
                1.1384717192544047,
                -0.5559393748315051,
                0.9125686151848178
            ]
        },
        {
            "positions": [
                0.5679502461249247,
                -0.816328366738039,
                0.3074444246751633,
                1.111875096853808,
                -0.6399049927819522,
                0.9125132080212082
            ]
        },
        {
            "positions": [
                0.480715679165445,
                -0.8072181282981503,
                0.38738727029809983,
                1.1727933604804923,
                -0.7330444973155518,
                0.8598300434387982
            ]
        },
        {
            "positions": [
                0.3934811122059652,
                -0.7981078898582615,
                0.46733011592103635,
                1.2337116241071764,
                -0.8261840018491513,
                0.8071468788563881
            ]
        },
        {
            "positions": [
                0.3062465452464854,
                -0.7889976514183729,
                0.5472729615439729,
                1.2946298877338607,
                -0.919323506382751,
                0.7544637142739782
            ]
        },
        {
            "positions": [
                0.2190119782870057,
                -0.7798874129784842,
                0.6272158071669094,
                1.355548151360545,
                -1.0124630109163504,
                0.7017805496915681
            ]
        },
        {
            "positions": [
                0.1317774113275259,
                -0.7707771745385954,
                0.7071586527898459,
                1.4164664149872292,
                -1.10560251544995,
                0.6490973851091582
            ]
        },
        {
            "positions": [
                0.04454284436804612,
                -0.7616669360987067,
                0.7871014984127824,
                1.4773846786139133,
                -1.1987420199835497,
                0.5964142205267482
            ]
        },
        {
            "positions": [
                -0.04269172259143361,
                -0.752556697658818,
                0.867044344035719,
                1.5383029422405976,
                -1.2918815245171493,
                0.5437310559443382
            ]
        },
        {
            "positions": [
                -0.12992628955091334,
                -0.7434464592189294,
                0.9469871896586555,
                1.599221205867282,
                -1.3850210290507488,
                0.49104789136192817
            ]
        },
        {
            "positions": [
                -0.21716085651039319,
                -0.7343362207790406,
                1.026930035281592,
                1.660139469493966,
                -1.4781605335843484,
                0.4383647267795182
            ]
        },
        {
            "positions": [
                -0.3043954234698729,
                -0.7252259823391519,
                1.1068728809045285,
                1.7210577331206502,
                -1.5713000381179478,
                0.38568156219710814
            ]
        },
        {
            "positions": [
                -0.39162999042935276,
                -0.7161157438992632,
                1.186815726527465,
                1.7819759967473345,
                -1.6644395426515475,
                0.3329983976146982
            ]
        },
        {
            "positions": [
                -0.4788645573888325,
                -0.7070055054593745,
                1.2667585721504016,
                1.8428942603740186,
                -1.7575790471851471,
                0.2803152330322881
            ]
        },
        {
            "positions": [
                -0.5660991243483121,
                -0.6978952670194858,
                1.346701417773338,
                1.9038125240007029,
                -1.8507185517187466,
                0.22763206844987827
            ]
        },
        {
            "positions": [
                -0.653333691307792,
                -0.6887850285795971,
                1.4266442633962746,
                1.9647307876273872,
                -1.9438580562523462,
                0.1749489038674682
            ]
        },
        {
            "positions": [
                -0.7405682582672718,
                -0.6796747901397084,
                1.5065871090192111,
                2.0256490512540712,
                -2.036997560785946,
                0.12226573928505824
            ]
        },
        {
            "positions": [
                -0.8278028252267514,
                -0.6705645516998197,
                1.5865299546421476,
                2.0865673148807558,
                -2.1301370653195453,
                0.06958257470264817
            ]
        },
        {
            "positions": [
                -0.9150373921862314,
                -0.661454313259931,
                1.6664728002650842,
                2.14748557850744,
                -2.223276569853145,
                0.016899410120238222
            ]
        }
    ]
}