{
    "goal": {
        "global_pose": {
            "orientation": {
                "w": 0.7031023480610252,
                "x": -0.7110244013736278,
                "y": 0.0077485991402295624,
                "z": 0.005598929693374583
            },
            "position": {
                "x": -0.8841497679147869,
                "y": 0.44412534475326537,
                "z": 0.3711530566215515
            }
        },
        "name": "move_to_auspresseinheit_D"
    },
    "id": "BiEST_move_to_auspresseinheit_D_89",
    "joint_names": [
        "shoulder_pan_joint",
        "shoulder_lift_joint",
        "elbow_joint",
        "wrist_1_joint",
        "wrist_2_joint",
        "wrist_3_joint"
    ],
    "metrics": {
        "cart_traj_len": 0.34370343302563267,
        "distance_elbow_joint": 0.6594084666875422,
        "distance_shoulder_lift_joint": 0.13326792246211516,
        "distance_shoulder_pan_joint": 0.13371958530958367,
        "distance_wrist_1_joint": 0.6054305735016747,
        "distance_wrist_2_joint": 1.4301513688586907,
        "distance_wrist_3_joint": 0.07206811066336982,
        "smoothness": 4.934324565125532e-16,
        "time": 0.11727496800000001,
        "traj_len": 1.7418513218650367,
        "weighted_distance": 2.283366854268074
    },
    "planner": "BiEST",
    "start": {
        "state": {
            "elbow_joint": -1.8275523626775212,
            "shoulder_lift_joint": -2.126789852344167,
            "shoulder_pan_joint": -0.03513704404078235,
            "wrist_1_joint": -2.347782403156801,
            "wrist_2_joint": -1.6058999987535132,
            "wrist_3_joint": -3.0880379163319196
        }
    },
    "waypoints": [
        {
            "positions": [
                -0.03513704404078235,
                -2.126789852344167,
                -1.8275523626775212,
                -2.347782403156801,
                -1.6058999987535132,
                -3.0880379163319196
            ]
        },
        {
            "positions": [
                -0.05185199220448031,
                -2.143448342651931,
                -1.7451263043415783,
                -2.42346122484451,
                -1.4271310776461767,
                -3.0790294024989984
            ]
        },
        {
            "positions": [
                -0.06856694036817826,
                -2.1601068329596957,
                -1.6627002460056357,
                -2.4991400465322196,
                -1.2483621565388405,
                -3.070020888666077
            ]
        },
        {
            "positions": [
                -0.08528188853187622,
                -2.17676532326746,
                -1.5802741876696929,
                -2.574818868219929,
                -1.0695932354315043,
                -3.061012374833156
            ]
        },
        {
            "positions": [
                -0.10199683669557419,
                -2.193423813575224,
                -1.4978481293337502,
                -2.6504976899076382,
                -0.8908243143241679,
                -3.0520038610002347
            ]
        },
        {
            "positions": [
                -0.11871178485927214,
                -2.210082303882989,
                -1.4154220709978074,
                -2.7261765115953476,
                -0.7120553932168315,
                -3.0429953471673135
            ]
        },
        {
            "positions": [
                -0.1354267330229701,
                -2.226740794190753,
                -1.3329960126618645,
                -2.801855333283057,
                -0.5332864721094952,
                -3.0339868333343922
            ]
        },
        {
            "positions": [
                -0.15214168118666807,
                -2.2433992844985178,
                -1.2505699543259219,
                -2.8775341549707663,
                -0.354517551002159,
                -3.024978319501471
            ]
        },
        {
            "positions": [
                -0.16885662935036602,
                -2.260057774806282,
                -1.168143895989979,
                -2.9532129766584756,
                -0.17574862989482243,
                -3.0159698056685498
            ]
        }
    ]
}