{
    "goal": {
        "global_pose": {
            "orientation": {
                "w": 0.7031023480610252,
                "x": -0.7110244013736278,
                "y": 0.0077485991402295624,
                "z": 0.005598929693374583
            },
            "position": {
                "x": -0.8841497679147869,
                "y": 0.44412534475326537,
                "z": 0.3711530566215515
            }
        },
        "name": "move_to_auspresseinheit_D"
    },
    "id": "BiEST_move_to_auspresseinheit_D_6",
    "joint_names": [
        "shoulder_pan_joint",
        "shoulder_lift_joint",
        "elbow_joint",
        "wrist_1_joint",
        "wrist_2_joint",
        "wrist_3_joint"
    ],
    "metrics": {
        "cart_traj_len": 0.34316346837320294,
        "distance_elbow_joint": 0.6375504239487035,
        "distance_shoulder_lift_joint": 0.1215554172542741,
        "distance_shoulder_pan_joint": 0.1343475848543641,
        "distance_wrist_1_joint": 0.5226018343727357,
        "distance_wrist_2_joint": 1.4471998718466632,
        "distance_wrist_3_joint": 0.010539565166141518,
        "smoothness": 0.0,
        "time": 0.057700261,
        "traj_len": 1.6952270341883067,
        "weighted_distance": 2.2056009462263484
    },
    "planner": "BiEST",
    "start": {
        "state": {
            "elbow_joint": -1.8275523626775212,
            "shoulder_lift_joint": -2.126789852344167,
            "shoulder_pan_joint": -0.03513704404078235,
            "wrist_1_joint": -2.347782403156801,
            "wrist_2_joint": -1.6058999987535132,
            "wrist_3_joint": -3.0880379163319196
        }
    },
    "waypoints": [
        {
            "positions": [
                -0.03513704404078235,
                -2.126789852344167,
                -1.8275523626775212,
                -2.347782403156801,
                -1.6058999987535132,
                -3.0880379163319196
            ]
        },
        {
            "positions": [
                -0.05193049214757786,
                -2.141984279500951,
                -1.7478585596839333,
                -2.413107632453393,
                -1.4250000147726802,
                -3.0893553619776872
            ]
        },
        {
            "positions": [
                -0.06872394025437337,
                -2.1571787066577355,
                -1.6681647566903453,
                -2.478432861749985,
                -1.2441000307918473,
                -3.090672807623455
            ]
        },
        {
            "positions": [
                -0.08551738836116889,
                -2.17237313381452,
                -1.5884709536967574,
                -2.543758091046577,
                -1.0632000468110145,
                -3.0919902532692225
            ]
        },
        {
            "positions": [
                -0.1023108364679644,
                -2.1875675609713037,
                -1.5087771507031693,
                -2.609083320343169,
                -0.8823000628301816,
                -3.09330769891499
            ]
        },
        {
            "positions": [
                -0.11910428457475991,
                -2.202761988128088,
                -1.4290833477095815,
                -2.6744085496397605,
                -0.7014000788493486,
                -3.094625144560758
            ]
        },
        {
            "positions": [
                -0.13589773268155542,
                -2.2179564152848723,
                -1.3493895447159936,
                -2.7397337789363525,
                -0.5205000948685159,
                -3.095942590206526
            ]
        },
        {
            "positions": [
                -0.15269118078835095,
                -2.2331508424416566,
                -1.2696957417224057,
                -2.8050590082329445,
                -0.33960011088768294,
                -3.0972600358522935
            ]
        },
        {
            "positions": [
                -0.16948462889514646,
                -2.248345269598441,
                -1.1900019387288177,
                -2.8703842375295365,
                -0.15870012690684995,
                -3.098577481498061
            ]
        }
    ]
}