{
    "goal": {
        "global_pose": {
            "orientation": {
                "w": 0.005598929693374612,
                "x": 0.007748599140229565,
                "y": 0.7110244013736278,
                "z": -0.7031023480610252
            },
            "position": {
                "x": -0.8858502320852131,
                "y": -0.7141253447532654,
                "z": 0.3711530566215515
            }
        },
        "name": "move_to_auspresseinheit_C"
    },
    "id": "BiEST_move_to_auspresseinheit_C_102",
    "joint_names": [
        "shoulder_pan_joint",
        "shoulder_lift_joint",
        "elbow_joint",
        "wrist_1_joint",
        "wrist_2_joint",
        "wrist_3_joint"
    ],
    "metrics": {
        "cart_traj_len": 0.49340836936149796,
        "distance_elbow_joint": 0.9942224786976779,
        "distance_shoulder_lift_joint": 0.3218343539928803,
        "distance_shoulder_pan_joint": 0.2567179013527561,
        "distance_wrist_1_joint": 0.6630123109764153,
        "distance_wrist_2_joint": 1.3066770321732772,
        "distance_wrist_3_joint": 0.03988535614363142,
        "smoothness": 8.074349282788172e-16,
        "time": 0.151086121,
        "traj_len": 1.8927095480650586,
        "weighted_distance": 2.373143377205346
    },
    "planner": "BiEST",
    "start": {
        "state": {
            "elbow_joint": 1.7527959577737207,
            "shoulder_lift_joint": -0.9740617694225068,
            "shoulder_pan_joint": -2.967991417825858,
            "wrist_1_joint": -0.759517768980727,
            "wrist_2_joint": 1.7443932448377408,
            "wrist_3_joint": -3.0840537646736568
        }
    },
    "waypoints": [
        {
            "positions": [
                -2.967991417825858,
                -0.9740617694225068,
                1.7527959577737207,
                -0.759517768980727,
                1.7443932448377408,
                -3.0840537646736568
            ]
        },
        {
            "positions": [
                -2.9423196276905825,
                -0.9418783340232187,
                1.653373709903953,
                -0.6932165378830855,
                1.613725541620413,
                -3.08804230028802
            ]
        },
        {
            "positions": [
                -2.9166478375553067,
                -0.9096948986239307,
                1.553951462034185,
                -0.6269153067854439,
                1.4830578384030852,
                -3.092030835902383
            ]
        },
        {
            "positions": [
                -2.8909760474200312,
                -0.8775114632246427,
                1.4545292141644173,
                -0.5606140756878024,
                1.3523901351857577,
                -3.0960193715167463
            ]
        },
        {
            "positions": [
                -2.8653042572847554,
                -0.8453280278253547,
                1.3551069662946496,
                -0.49431284459016084,
                1.22172243196843,
                -3.1000079071311095
            ]
        },
        {
            "positions": [
                -2.83963246714948,
                -0.8131445924260666,
                1.2556847184248818,
                -0.4280116134925193,
                1.0910547287511023,
                -3.1039964427454727
            ]
        },
        {
            "positions": [
                -2.8139606770142045,
                -0.7809611570267786,
                1.1562624705551139,
                -0.3617103823948778,
                0.9603870255337745,
                -3.1079849783598354
            ]
        },
        {
            "positions": [
                -2.7882888868789286,
                -0.7487777216274906,
                1.0568402226853462,
                -0.29540915129723627,
                0.8297193223164469,
                -3.1119735139741986
            ]
        },
        {
            "positions": [
                -2.762617096743653,
                -0.7165942862282025,
                0.9574179748155783,
                -0.2291079201995947,
                0.699051619099119,
                -3.115962049588562
            ]
        },
        {
            "positions": [
                -2.7369453066083773,
                -0.6844108508289145,
                0.8579957269458105,
                -0.16280668910195317,
                0.5683839158817914,
                -3.119950585202925
            ]
        },
        {
            "positions": [
                -2.711273516473102,
                -0.6522274154296265,
                0.7585734790760428,
                -0.09650545800431165,
                0.43771621266446353,
                -3.123939120817288
            ]
        }
    ]
}