{
    "goal": {
        "global_pose": {
            "orientation": {
                "w": -0.4816463035849501,
                "x": 0.5182115481033762,
                "y": 0.4908360881923453,
                "z": -0.5084816262002911
            },
            "position": {
                "x": -0.8240239810943604,
                "y": -0.300875300988555,
                "z": 0.16403168439865112
            }
        },
        "name": "move_to_storage_C"
    },
    "id": "BiEST_move_to_storage_C_97",
    "joint_names": [
        "shoulder_pan_joint",
        "shoulder_lift_joint",
        "elbow_joint",
        "wrist_1_joint",
        "wrist_2_joint",
        "wrist_3_joint"
    ],
    "metrics": {
        "cart_traj_len": 0.5773686202487626,
        "distance_elbow_joint": 0.26318154878411737,
        "distance_shoulder_lift_joint": 0.1908629307058326,
        "distance_shoulder_pan_joint": 0.4940937365953908,
        "distance_wrist_1_joint": 0.09036567312012411,
        "distance_wrist_2_joint": 1.0716323711099993,
        "distance_wrist_3_joint": 0.07034891786604236,
        "smoothness": 2.5376526478085547e-16,
        "time": 0.09948224,
        "traj_len": 1.4766465989469204,
        "weighted_distance": 1.866328228941446
    },
    "planner": "BiEST",
    "start": {
        "state": {
            "elbow_joint": 2.010868314990456,
            "shoulder_lift_joint": -1.1634956873337592,
            "shoulder_pan_joint": -2.4736205022346125,
            "wrist_1_joint": -0.8367026794202681,
            "wrist_2_joint": 0.6746043897044499,
            "wrist_3_joint": -3.1496632123970403
        }
    },
    "waypoints": [
        {
            "positions": [
                -2.4736205022346125,
                -1.1634956873337592,
                2.010868314990456,
                -0.8367026794202681,
                0.6746043897044499,
                -3.1496632123970403
            ]
        },
        {
            "positions": [
                -2.5559694583338444,
                -1.1316851988827872,
                1.9670047235264363,
                -0.8216417339002474,
                0.8532097848894498,
                -3.1379383927527
            ]
        },
        {
            "positions": [
                -2.6383184144330762,
                -1.099874710431815,
                1.9231411320624168,
                -0.8065807883802267,
                1.0318151800744497,
                -3.1262135731083593
            ]
        },
        {
            "positions": [
                -2.7206673705323077,
                -1.068064221980843,
                1.8792775405983972,
                -0.791519842860206,
                1.2104205752594495,
                -3.114488753464019
            ]
        },
        {
            "positions": [
                -2.8030163266315395,
                -1.0362537335298707,
                1.8354139491343775,
                -0.7764588973401854,
                1.3890259704444494,
                -3.102763933819679
            ]
        },
        {
            "positions": [
                -2.8853652827307714,
                -1.0044432450788987,
                1.791550357670358,
                -0.7613979518201647,
                1.5676313656294494,
                -3.0910391141753384
            ]
        },
        {
            "positions": [
                -2.9677142388300033,
                -0.9726327566279266,
                1.7476867662063384,
                -0.746337006300144,
                1.7462367608144491,
                -3.079314294530998
            ]
        }
    ]
}