{
    "goal": {
        "global_pose": {
            "orientation": {
                "w": 0.5084816262002911,
                "x": -0.4908360881923452,
                "y": 0.5182115481033761,
                "z": -0.48164630358495003
            },
            "position": {
                "x": 0.5540239810943604,
                "y": -0.46912469901144505,
                "z": 0.16403168439865112
            }
        },
        "name": "move_to_storage_B"
    },
    "id": "BiEST_move_to_storage_B_74",
    "joint_names": [
        "shoulder_pan_joint",
        "shoulder_lift_joint",
        "elbow_joint",
        "wrist_1_joint",
        "wrist_2_joint",
        "wrist_3_joint"
    ],
    "metrics": {
        "cart_traj_len": 3.027554473983403,
        "distance_elbow_joint": 0.8010722620728998,
        "distance_shoulder_lift_joint": 2.550235631920131,
        "distance_shoulder_pan_joint": 3.6765980296031415,
        "distance_wrist_1_joint": 3.020257663974704,
        "distance_wrist_2_joint": 2.7001360706099957,
        "distance_wrist_3_joint": 3.4083320698740676,
        "smoothness": 0.34018338086573086,
        "time": 0.102412437,
        "traj_len": 4.019531282134143,
        "weighted_distance": 5.356649102040171
    },
    "planner": "BiEST",
    "start": {
        "state": {
            "elbow_joint": 1.664937868594044,
            "shoulder_lift_joint": -0.661644460510453,
            "shoulder_pan_joint": -0.9139846352900073,
            "wrist_1_joint": 2.146753192139373,
            "wrist_2_joint": -2.2341966793290973,
            "wrist_3_joint": 0.005466555786416001
        }
    },
    "waypoints": [
        {
            "positions": [
                -0.9139846352900073,
                -0.661644460510453,
                1.664937868594044,
                2.146753192139373,
                -2.2341966793290973,
                0.005466555786416001
            ]
        },
        {
            "positions": [
                -0.8229280104084035,
                -0.7204526134773146,
                1.6780883750667606,
                2.0858761829610266,
                -2.180654656063036,
                -0.024163820877081348
            ]
        },
        {
            "positions": [
                -0.7318713855267998,
                -0.7792607664441762,
                1.6912388815394772,
                2.0249991737826796,
                -2.1271126327969743,
                -0.053794197540578695
            ]
        },
        {
            "positions": [
                -0.6408147606451959,
                -0.8380689194110378,
                1.7043893880121939,
                1.964122164604333,
                -2.073570609530913,
                -0.08342457420407604
            ]
        },
        {
            "positions": [
                -0.5497581357635921,
                -0.8968770723778994,
                1.7175398944849105,
                1.9032451554259862,
                -2.0200285862648517,
                -0.11305495086757339
            ]
        },
        {
            "positions": [
                -0.4839216748914567,
                -0.957346325755193,
                1.74259600503669,
                1.782023542652446,
                -1.9461845298577858,
                -0.06948560231413106
            ]
        },
        {
            "positions": [
                -0.4180852140193213,
                -1.0178155791324865,
                1.7676521155884695,
                1.6608019298789056,
                -1.8723404734507199,
                -0.02591625376068875
            ]
        },
        {
            "positions": [
                -0.35224875314718584,
                -1.0782848325097802,
                1.792708226140249,
                1.5395803171053655,
                -1.798496417043654,
                0.017653094792753565
            ]
        },
        {
            "positions": [
                -0.28641229227505044,
                -1.138754085887074,
                1.8177643366920284,
                1.418358704331825,
                -1.724652360636588,
                0.06122244334619589
            ]
        },
        {
            "positions": [
                -0.22057583140291503,
                -1.1992233392643674,
                1.842820447243808,
                1.297137091558285,
                -1.650808304229522,
                0.10479179189963819
            ]
        },
        {
            "positions": [
                -0.15473937053077957,
                -1.2596925926416611,
                1.8678765577955874,
                1.1759154787847446,
                -1.5769642478224561,
                0.14836114045308052
            ]
        },
        {
            "positions": [
                -0.08890290965864417,
                -1.3201618460189546,
                1.892932668347367,
                1.0546938660112044,
                -1.5031201914153902,
                0.19193048900652282
            ]
        },
        {
            "positions": [
                -0.023066448786508764,
                -1.3806310993962483,
                1.9179887788991465,
                0.9334722532376641,
                -1.4292761350083243,
                0.23549983755996517
            ]
        },
        {
            "positions": [
                0.042770012085626696,
                -1.441100352773542,
                1.943044889450926,
                0.8122506404641239,
                -1.3554320786012584,
                0.2790691861134075
            ]
        },
        {
            "positions": [
                0.10860647295776205,
                -1.5015696061508357,
                1.9681010000027055,
                0.6910290276905837,
                -1.2815880221941922,
                0.3226385346668498
            ]
        },
        {
            "positions": [
                0.17444293382989762,
                -1.5620388595281294,
                1.993157110554485,
                0.5698074149170431,
                -1.2077439657871263,
                0.3662078832202922
            ]
        },
        {
            "positions": [
                0.24027939470203297,
                -1.6225081129054229,
                2.018213221106264,
                0.4485858021435032,
                -1.1338999093800604,
                0.40977723177373443
            ]
        },
        {
            "positions": [
                0.3061158555741684,
                -1.6829773662827165,
                2.043269331658044,
                0.3273641893699628,
                -1.0600558529729942,
                0.45334658032717684
            ]
        },
        {
            "positions": [
                0.3719523164463038,
                -1.74344661966001,
                2.0683254422098236,
                0.20614257659642266,
                -0.9862117965659285,
                0.49691592888061903
            ]
        },
        {
            "positions": [
                0.43778877731843924,
                -1.8039158730373037,
                2.093381552761603,
                0.08492096382288228,
                -0.9123677401588624,
                0.5404852774340614
            ]
        },
        {
            "positions": [
                0.5036252381905746,
                -1.8643851264145974,
                2.1184376633133826,
                -0.03630064895065788,
                -0.8385236837517966,
                0.5840546259875037
            ]
        },
        {
            "positions": [
                0.5694616990627102,
                -1.924854379791891,
                2.143493773865162,
                -0.15752226172419825,
                -0.7646796273447305,
                0.627623974540946
            ]
        },
        {
            "positions": [
                0.6352981599348455,
                -1.9853236331691846,
                2.1685498844169415,
                -0.2787438744977384,
                -0.6908355709376648,
                0.6711933230943883
            ]
        },
        {
            "positions": [
                0.7011346208069809,
                -2.0457928865464785,
                2.193605994968721,
                -0.399965487271279,
                -0.6169915145305986,
                0.7147626716478308
            ]
        },
        {
            "positions": [
                0.7669710816791162,
                -2.1062621399237718,
                2.2186621055205005,
                -0.5211871000448187,
                -0.5431474581235327,
                0.7583320202012729
            ]
        },
        {
            "positions": [
                0.8328075425512518,
                -2.1667313933010655,
                2.24371821607228,
                -0.6424087128183594,
                -0.46930340171646684,
                0.8019013687547154
            ]
        },
        {
            "positions": [
                0.7255961063422582,
                -2.108667576682759,
                2.2313686652614653,
                -0.6552473660970801,
                -0.4173454687721687,
                0.9338377156212593
            ]
        },
        {
            "positions": [
                0.6183846701332648,
                -2.0506037600644524,
                2.2190191144506506,
                -0.6680860193758007,
                -0.36538753582787054,
                1.0657740624878032
            ]
        },
        {
            "positions": [
                0.5111732339242714,
                -1.9925399434461457,
                2.206669563639836,
                -0.6809246726545214,
                -0.31342960288357236,
                1.1977104093543471
            ]
        },
        {
            "positions": [
                0.40396179771527785,
                -1.934476126827839,
                2.1943200128290212,
                -0.6937633259332421,
                -0.26147166993927423,
                1.329646756220891
            ]
        },
        {
            "positions": [
                0.2967503615062843,
                -1.8764123102095325,
                2.1819704620182065,
                -0.7066019792119627,
                -0.20951373699497605,
                1.4615831030874349
            ]
        },
        {
            "positions": [
                0.18953892529729088,
                -1.818348493591226,
                2.169620911207392,
                -0.7194406324906834,
                -0.15755580405067793,
                1.5935194499539787
            ]
        },
        {
            "positions": [
                0.08232748908829735,
                -1.7602846769729192,
                2.157271360396577,
                -0.732279285769404,
                -0.10559787110637975,
                1.7254557968205226
            ]
        },
        {
            "positions": [
                -0.02488394712069608,
                -1.7022208603546127,
                2.1449218095857625,
                -0.7451179390481246,
                -0.053639938162081624,
                1.8573921436870664
            ]
        },
        {
            "positions": [
                -0.13209538332968962,
                -1.644157043736306,
                2.132572258774948,
                -0.7579565923268453,
                -0.0016820052177834444,
                1.9893284905536104
            ]
        },
        {
            "positions": [
                -0.23930681953868316,
                -1.5860932271179995,
                2.1202227079641336,
                -0.770795245605566,
                0.050275927726514735,
                2.1212648374201546
            ]
        },
        {
            "positions": [
                -0.3465182557476767,
                -1.528029410499693,
                2.107873157153319,
                -0.7836338988842866,
                0.10223386067081291,
                2.2532011842866986
            ]
        },
        {
            "positions": [
                -0.45372969195667,
                -1.4699655938813865,
                2.0955236063425042,
                -0.7964725521630073,
                0.15419179361511098,
                2.3851375311532417
            ]
        },
        {
            "positions": [
                -0.5609411281656635,
                -1.4119017772630797,
                2.0831740555316896,
                -0.809311205441728,
                0.20614972655940916,
                2.5170738780197857
            ]
        },
        {
            "positions": [
                -0.6681525643746571,
                -1.353837960644773,
                2.070824504720875,
                -0.8221498587204485,
                0.25810765950370734,
                2.6490102248863296
            ]
        },
        {
            "positions": [
                -0.7753640005836506,
                -1.2957741440264665,
                2.05847495391006,
                -0.8349885119991692,
                0.3100655924480055,
                2.7809465717528736
            ]
        },
        {
            "positions": [
                -0.8825754367926439,
                -1.23771032740816,
                2.0461254030992455,
                -0.8478271652778899,
                0.3620235253923036,
                2.9128829186194176
            ]
        },
        {
            "positions": [
                -0.9897868730016375,
                -1.1796465107898535,
                2.033775852288431,
                -0.8606658185566105,
                0.41398145833660177,
                3.0448192654859616
            ]
        },
        {
            "positions": [
                -1.096998309210631,
                -1.1215826941715468,
                2.021426301477616,
                -0.8735044718353312,
                0.4659393912809,
                3.176755612352505
            ]
        }
    ]
}