{
    "goal": {
        "global_pose": {
            "orientation": {
                "w": 0.5084816217422485,
                "x": -0.49083608388900757,
                "y": 0.5182115435600281,
                "z": -0.4816462993621826
            },
            "position": {
                "x": 0.5540239810943604,
                "y": 0.030875300988554955,
                "z": 0.16403168439865112
            }
        },
        "name": "move_to_storage_A"
    },
    "id": "BiEST_move_to_storage_A_77",
    "joint_names": [
        "shoulder_pan_joint",
        "shoulder_lift_joint",
        "elbow_joint",
        "wrist_1_joint",
        "wrist_2_joint",
        "wrist_3_joint"
    ],
    "metrics": {
        "cart_traj_len": 0.3528875005073146,
        "distance_elbow_joint": 0.45180746637685965,
        "distance_shoulder_lift_joint": 0.23558647045945702,
        "distance_shoulder_pan_joint": 0.4628705016364125,
        "distance_wrist_1_joint": 0.2517429380876831,
        "distance_wrist_2_joint": 1.0927884106605568,
        "distance_wrist_3_joint": 0.10482904343109034,
        "smoothness": 8.881784197001252e-16,
        "time": 0.059081946999999996,
        "traj_len": 1.6123352103864939,
        "weighted_distance": 2.0380908385698806
    },
    "planner": "BiEST",
    "start": {
        "state": {
            "elbow_joint": 1.971548259319323,
            "shoulder_lift_joint": -1.1394851275133948,
            "shoulder_pan_joint": 0.1228115487234821,
            "wrist_1_joint": -0.7804723859257726,
            "wrist_2_joint": 0.12958671773740124,
            "wrist_3_joint": -3.192489227718131
        }
    },
    "waypoints": [
        {
            "positions": [
                0.1228115487234821,
                -1.1394851275133948,
                1.971548259319323,
                -0.7804723859257726,
                0.12958671773740124,
                -3.192489227718131
            ]
        },
        {
            "positions": [
                0.05668719134685174,
                -1.1731403375790315,
                2.0360921830874457,
                -0.8164356627954417,
                0.2856993478317665,
                -3.1775136500851184
            ]
        },
        {
            "positions": [
                -0.00943716602977862,
                -1.2067955476446683,
                2.1006361068555686,
                -0.8523989396651106,
                0.4418119779261317,
                -3.1625380724521053
            ]
        },
        {
            "positions": [
                -0.07556152340640898,
                -1.240450757710305,
                2.1651800306236915,
                -0.8883622165347796,
                0.597924608020497,
                -3.1475624948190926
            ]
        },
        {
            "positions": [
                -0.14168588078303934,
                -1.2741059677759417,
                2.2297239543918144,
                -0.9243254934044487,
                0.7540372381148622,
                -3.1325869171860794
            ]
        },
        {
            "positions": [
                -0.2078102381596697,
                -1.3077611778415785,
                2.2942678781599373,
                -0.9602887702741176,
                0.9101498682092275,
                -3.1176113395530667
            ]
        },
        {
            "positions": [
                -0.27393459553630006,
                -1.3414163879072152,
                2.3588118019280597,
                -0.9962520471437867,
                1.0662624983035927,
                -3.1026357619200535
            ]
        },
        {
            "positions": [
                -0.3400589529129304,
                -1.3750715979728518,
                2.4233557256961826,
                -1.0322153240134557,
                1.222375128397958,
                -3.087660184287041
            ]
        }
    ]
}{
    "goal": {
        "global_pose": {
            "orientation": {
                "w": 0.5084816217422485,
                "x": -0.49083608388900757,
                "y": 0.5182115435600281,
                "z": -0.4816462993621826
            },
            "position": {
                "x": 0.5540239810943604,
                "y": 0.030875300988554955,
                "z": 0.16403168439865112
            }
        },
        "name": "move_to_storage_A"
    },
    "id": "BiEST_move_to_storage_A_77",
    "joint_names": [
        "shoulder_pan_joint",
        "shoulder_lift_joint",
        "elbow_joint",
        "wrist_1_joint",
        "wrist_2_joint",
        "wrist_3_joint"
    ],
    "metrics": {
        "cart_traj_len": 0.3521579713601217,
        "distance_elbow_joint": 0.4493130660314395,
        "distance_shoulder_lift_joint": 0.23342973488661345,
        "distance_shoulder_pan_joint": 0.4599005943575719,
        "distance_wrist_1_joint": 0.2421462780875765,
        "distance_wrist_2_joint": 1.0990606088826087,
        "distance_wrist_3_joint": 0.09464454154558588,
        "smoothness": 2.2204460668324854e-16,
        "time": 0.032110614999999995,
        "traj_len": 1.6057692311759484,
        "weighted_distance": 2.0270645756494172
    },
    "planner": "BiEST",
    "start": {
        "state": {
            "elbow_joint": 1.97154746011099,
            "shoulder_lift_joint": -1.13948474672311,
            "shoulder_pan_joint": 0.12281154466712228,
            "wrist_1_joint": -0.7804688027058302,
            "wrist_2_joint": 0.12958655903071145,
            "wrist_3_joint": 3.0906928834467795
        }
    },
    "waypoints": [
        {
            "positions": [
                0.12281154466712228,
                -1.13948474672311,
                1.97154746011099,
                -0.7804688027058302,
                0.12958655903071145,
                3.0906928834467795
            ]
        },
        {
            "positions": [
                0.057111459758897726,
                -1.1728318517069118,
                2.0357350409726243,
                -0.8150611281469126,
                0.2865952174425127,
                3.104213532239006
            ]
        },
        {
            "positions": [
                -0.008588625149326831,
                -1.2061789566907137,
                2.099922621834258,
                -0.8496534535879949,
                0.44360387585431393,
                3.1177341810312327
            ]
        },
        {
            "positions": [
                -0.07428871005755137,
                -1.2395260616745156,
                2.1641102026958925,
                -0.8842457790290772,
                0.6006125342661152,
                3.131254829823459
            ]
        },
        {
            "positions": [
                -0.13998879496577593,
                -1.2728731666583175,
                2.228297783557527,
                -0.9188381044701596,
                0.7576211926779164,
                3.144775478615686
            ]
        },
        {
            "positions": [
                -0.20568887987400053,
                -1.3062202716421196,
                2.292485364419161,
                -0.9534304299112419,
                0.9146298510897177,
                3.158296127407912
            ]
        },
        {
            "positions": [
                -0.271388964782225,
                -1.3395673766259215,
                2.356672945280795,
                -0.9880227553523243,
                1.0716385095015188,
                3.171816776200139
            ]
        },
        {
            "positions": [
                -0.3370890496904496,
                -1.3729144816097234,
                2.4208605261424294,
                -1.0226150807934067,
                1.2286471679133202,
                3.1853374249923654
            ]
        }
    ]
}{
    "goal": {
        "global_pose": {
            "orientation": {
                "w": 0.5084816217422485,
                "x": -0.49083608388900757,
                "y": 0.5182115435600281,
                "z": -0.4816462993621826
            },
            "position": {
                "x": 0.5540239810943604,
                "y": 0.030875300988554955,
                "z": 0.16403168439865112
            }
        },
        "name": "move_to_storage_A"
    },
    "id": "BiEST_move_to_storage_A_77",
    "joint_names": [
        "shoulder_pan_joint",
        "shoulder_lift_joint",
        "elbow_joint",
        "wrist_1_joint",
        "wrist_2_joint",
        "wrist_3_joint"
    ],
    "metrics": {
        "cart_traj_len": 0.3533278451558991,
        "distance_elbow_joint": 0.4479925764378243,
        "distance_shoulder_lift_joint": 0.23479746514608402,
        "distance_shoulder_pan_joint": 0.4587506327104036,
        "distance_wrist_1_joint": 0.23987237964826336,
        "distance_wrist_2_joint": 1.1128251794578854,
        "distance_wrist_3_joint": 0.0932052522914546,
        "smoothness": 6.661338165333112e-16,
        "time": 0.052091329,
        "traj_len": 1.6085532274972796,
        "weighted_distance": 2.0313915303015744
    },
    "planner": "BiEST",
    "start": {
        "state": {
            "elbow_joint": 1.9715472970024885,
            "shoulder_lift_joint": -1.1394870060712896,
            "shoulder_pan_joint": 0.12281152778156021,
            "wrist_1_joint": -0.780463741449964,
            "wrist_2_joint": 0.12958659822042276,
            "wrist_3_joint": 3.090690232415272
        }
    },
    "waypoints": [
        {
            "positions": [
                0.12281152778156021,
                -1.1394870060712896,
                1.9715472970024885,
                -0.780463741449964,
                0.12958659822042276,
                3.090690232415272
            ]
        },
        {
            "positions": [
                0.05727572310864541,
                -1.1730295010921588,
                2.035546236493606,
                -0.8147312242568587,
                0.2885616238572635,
                3.104005268456908
            ]
        },
        {
            "positions": [
                -0.008260081564269384,
                -1.206571996113028,
                2.099545175984724,
                -0.8489987070637535,
                0.4475366494941043,
                3.1173203044985445
            ]
        },
        {
            "positions": [
                -0.0737958862371842,
                -1.240114491133897,
                2.1635441154758417,
                -0.8832661898706483,
                0.6065116751309451,
                3.1306353405401808
            ]
        },
        {
            "positions": [
                -0.13933169091009898,
                -1.2736569861547662,
                2.2275430549669597,
                -0.917533672677543,
                0.7654867007677858,
                3.1439503765818175
            ]
        },
        {
            "positions": [
                -0.2048674955830138,
                -1.3071994811756353,
                2.2915419944580773,
                -0.9518011554844379,
                0.9244617264046266,
                3.157265412623454
            ]
        },
        {
            "positions": [
                -0.2704033002559286,
                -1.3407419761965045,
                2.355540933949195,
                -0.9860686382913326,
                1.0834367520414674,
                3.17058044866509
            ]
        },
        {
            "positions": [
                -0.3359391049288434,
                -1.3742844712173736,
                2.419539873440313,
                -1.0203361210982274,
                1.2424117776783081,
                3.1838954847067265
            ]
        }
    ]
}