{
    "goal": {
        "global_pose": {
            "orientation": {
                "w": 0.005598929693374612,
                "x": 0.007748599140229565,
                "y": 0.7110244013736278,
                "z": -0.7031023480610252
            },
            "position": {
                "x": -0.8858502320852131,
                "y": -0.7141253447532654,
                "z": 0.3711530566215515
            }
        },
        "name": "move_to_auspresseinheit_C"
    },
    "id": "BiEST_move_to_auspresseinheit_C_126",
    "joint_names": [
        "shoulder_pan_joint",
        "shoulder_lift_joint",
        "elbow_joint",
        "wrist_1_joint",
        "wrist_2_joint",
        "wrist_3_joint"
    ],
    "metrics": {
        "cart_traj_len": 0.49322907220260787,
        "distance_elbow_joint": 1.0001205722389468,
        "distance_shoulder_lift_joint": 0.32470600979433395,
        "distance_shoulder_pan_joint": 0.2571653392309652,
        "distance_wrist_1_joint": 0.6866991364961332,
        "distance_wrist_2_joint": 1.3009099978402017,
        "distance_wrist_3_joint": 0.07158940492845156,
        "smoothness": 0.0,
        "time": 0.153647584,
        "traj_len": 1.9081903627597094,
        "weighted_distance": 2.402494204930008
    },
    "planner": "BiEST",
    "start": {
        "state": {
            "elbow_joint": 1.7527959577737207,
            "shoulder_lift_joint": -0.9740617694225068,
            "shoulder_pan_joint": -2.967991417825858,
            "wrist_1_joint": -0.759517768980727,
            "wrist_2_joint": 1.7443932448377408,
            "wrist_3_joint": -3.0840537646736568
        }
    },
    "waypoints": [
        {
            "positions": [
                -2.967991417825858,
                -0.9740617694225068,
                1.7527959577737207,
                -0.759517768980727,
                1.7443932448377408,
                -3.0840537646736568
            ]
        },
        {
            "positions": [
                -2.9422748839027615,
                -0.9415911684430733,
                1.652783900549826,
                -0.6908478553311137,
                1.6143022450537208,
                -3.0912127051665017
            ]
        },
        {
            "positions": [
                -2.916558349979665,
                -0.90912056746364,
                1.5527718433259312,
                -0.6221779416815003,
                1.4842112452697005,
                -3.098371645659347
            ]
        },
        {
            "positions": [
                -2.8908418160565685,
                -0.8766499664842066,
                1.4527597861020367,
                -0.553508028031887,
                1.3541202454856802,
                -3.1055305861521925
            ]
        },
        {
            "positions": [
                -2.865125282133472,
                -0.8441793655047731,
                1.352747728878142,
                -0.4848381143822737,
                1.2240292457016602,
                -3.1126895266450374
            ]
        },
        {
            "positions": [
                -2.839408748210375,
                -0.8117087645253398,
                1.2527356716542473,
                -0.41616820073266036,
                1.09393824591764,
                -3.1198484671378823
            ]
        },
        {
            "positions": [
                -2.8136922142872787,
                -0.7792381635459065,
                1.1527236144303528,
                -0.34749828708304703,
                0.9638472461336198,
                -3.1270074076307277
            ]
        },
        {
            "positions": [
                -2.787975680364182,
                -0.746767562566473,
                1.0527115572064578,
                -0.27882837343343375,
                0.8337562463495998,
                -3.134166348123573
            ]
        },
        {
            "positions": [
                -2.7622591464410857,
                -0.7142969615870396,
                0.9526994999825632,
                -0.21015845978382042,
                0.7036652465655795,
                -3.141325288616418
            ]
        },
        {
            "positions": [
                -2.7365426125179892,
                -0.6818263606076063,
                0.8526874427586685,
                -0.14148854613420703,
                0.5735742467815592,
                -3.148484229109263
            ]
        },
        {
            "positions": [
                -2.7108260785948928,
                -0.6493557596281728,
                0.7526753855347739,
                -0.07281863248459379,
                0.4434832469975392,
                -3.1556431696021083
            ]
        }
    ]
}