{
    "goal": {
        "global_pose": {
            "orientation": {
                "w": 0.7031023502349854,
                "x": -0.7110244035720825,
                "y": 0.007748599164187908,
                "z": 0.005598929710686207
            },
            "position": {
                "x": 0.11585023208521307,
                "y": 0.44412534475326537,
                "z": 0.3711530566215515
            }
        },
        "name": "move_to_auspresseinheit_A"
    },
    "id": "BiEST_move_to_auspresseinheit_A_6",
    "joint_names": [
        "shoulder_pan_joint",
        "shoulder_lift_joint",
        "elbow_joint",
        "wrist_1_joint",
        "wrist_2_joint",
        "wrist_3_joint"
    ],
    "metrics": {
        "cart_traj_len": 0.7850273331626378,
        "distance_elbow_joint": 0.2989092315674915,
        "distance_shoulder_lift_joint": 0.5752934615048466,
        "distance_shoulder_pan_joint": 1.0463980474815655,
        "distance_wrist_1_joint": 0.6312598941421379,
        "distance_wrist_2_joint": 0.5138414049408907,
        "distance_wrist_3_joint": 2.913341671483866,
        "smoothness": 1.0231125029646904,
        "time": 0.08495575799999999,
        "traj_len": 2.4452083165081864,
        "weighted_distance": 3.598725934712389
    },
    "planner": "BiEST",
    "start": {
        "state": {
            "elbow_joint": 2.4225746658250005,
            "shoulder_lift_joint": -1.3736534386056498,
            "shoulder_pan_joint": -0.3378633547517467,
            "wrist_1_joint": -1.0288598680537169,
            "wrist_2_joint": 1.233022673432363,
            "wrist_3_joint": -3.0940220416140027
        }
    },
    "waypoints": [
        {
            "positions": [
                -0.3378633547517467,
                -1.3736534386056498,
                2.4225746658250005,
                -1.0288598680537169,
                1.233022673432363,
                -3.0940220416140027
            ]
        },
        {
            "positions": [
                -0.29425981007456475,
                -1.4354345143289884,
                2.404337086460255,
                -0.9622682422329263,
                1.2064130849506007,
                -2.934421118990134
            ]
        },
        {
            "positions": [
                -0.2506562653973828,
                -1.497215590052327,
                2.3860995070955098,
                -0.8956766164121356,
                1.1798034964688382,
                -2.7748201963662655
            ]
        },
        {
            "positions": [
                -0.20705272072020084,
                -1.5589966657756655,
                2.367861927730764,
                -0.8290849905913449,
                1.1531939079870759,
                -2.6152192737423965
            ]
        },
        {
            "positions": [
                -0.16344917604301887,
                -1.6207777414990039,
                2.349624348366019,
                -0.7624933647705543,
                1.1265843195053136,
                -2.455618351118528
            ]
        },
        {
            "positions": [
                -0.1198456313658369,
                -1.6825588172223425,
                2.3313867690012735,
                -0.6959017389497636,
                1.0999747310235513,
                -2.2960174284946593
            ]
        },
        {
            "positions": [
                -0.07624208668865495,
                -1.744339892945681,
                2.3131491896365284,
                -0.629310113128973,
                1.0733651425417887,
                -2.1364165058707907
            ]
        },
        {
            "positions": [
                -0.03263854201147298,
                -1.8061209686690196,
                2.294911610271783,
                -0.5627184873081823,
                1.0467555540600264,
                -1.9768155832469219
            ]
        },
        {
            "positions": [
                0.01096500266570899,
                -1.8679020443923582,
                2.2766740309070377,
                -0.4961268614873917,
                1.020145965578264,
                -1.8172146606230533
            ]
        },
        {
            "positions": [
                0.05456854734289095,
                -1.9296831201156968,
                2.258436451542292,
                -0.429535235666601,
                0.9935363770965017,
                -1.6576137379991844
            ]
        },
        {
            "positions": [
                0.14799228239816636,
                -1.9269311515450112,
                2.2776894540115467,
                -0.43409741591731843,
                0.954342790152926,
                -1.868604219123334
            ]
        },
        {
            "positions": [
                0.24141601745344177,
                -1.9241791829743253,
                2.2969424564808016,
                -0.43865959616803585,
                0.9151492032093504,
                -2.0795947002474837
            ]
        },
        {
            "positions": [
                0.33483975250871717,
                -1.9214272144036397,
                2.316195458950056,
                -0.44322177641875327,
                0.8759556162657748,
                -2.2905851813716334
            ]
        },
        {
            "positions": [
                0.4282634875639926,
                -1.9186752458329541,
                2.335448461419311,
                -0.44778395666947074,
                0.8367620293221992,
                -2.501575662495783
            ]
        },
        {
            "positions": [
                0.521687222619268,
                -1.9159232772622685,
                2.3547014638885657,
                -0.45234613692018816,
                0.7975684423786236,
                -2.7125661436199326
            ]
        },
        {
            "positions": [
                0.6151109576745434,
                -1.9131713086915827,
                2.3739544663578207,
                -0.4569083171709056,
                0.758374855435048,
                -2.9235566247440823
            ]
        },
        {
            "positions": [
                0.7085346927298188,
                -1.910419340120897,
                2.3932074688270752,
                -0.461470497421623,
                0.7191812684914723,
                -3.134547105868232
            ]
        }
    ]
}