{
    "goal": {
        "global_pose": {
            "orientation": {
                "w": 0.005598929693374612,
                "x": 0.007748599140229565,
                "y": 0.7110244013736278,
                "z": -0.7031023480610252
            },
            "position": {
                "x": -0.8858502320852131,
                "y": -0.7141253447532654,
                "z": 0.3711530566215515
            }
        },
        "name": "move_to_auspresseinheit_C"
    },
    "id": "BiEST_move_to_auspresseinheit_C_36",
    "joint_names": [
        "shoulder_pan_joint",
        "shoulder_lift_joint",
        "elbow_joint",
        "wrist_1_joint",
        "wrist_2_joint",
        "wrist_3_joint"
    ],
    "metrics": {
        "cart_traj_len": 0.4926445775788794,
        "distance_elbow_joint": 0.9885869523833195,
        "distance_shoulder_lift_joint": 0.31968947892306054,
        "distance_shoulder_pan_joint": 0.25665255017885347,
        "distance_wrist_1_joint": 0.6535302513015648,
        "distance_wrist_2_joint": 1.3073470636365994,
        "distance_wrist_3_joint": 0.040818382207141735,
        "smoothness": 1.1304089016362698e-15,
        "time": 0.097096852,
        "traj_len": 1.8885509467924182,
        "weighted_distance": 2.368362041154812
    },
    "planner": "BiEST",
    "start": {
        "state": {
            "elbow_joint": 1.7527959577737207,
            "shoulder_lift_joint": -0.9740617694225068,
            "shoulder_pan_joint": -2.967991417825858,
            "wrist_1_joint": -0.759517768980727,
            "wrist_2_joint": 1.7443932448377408,
            "wrist_3_joint": -3.0840537646736568
        }
    },
    "waypoints": [
        {
            "positions": [
                -2.967991417825858,
                -0.9740617694225068,
                1.7527959577737207,
                -0.759517768980727,
                1.7443932448377408,
                -3.0840537646736568
            ]
        },
        {
            "positions": [
                -2.9423261628079724,
                -0.9420928215302007,
                1.6539372625353888,
                -0.6941647438505705,
                1.613658538474081,
                -3.088135602894371
            ]
        },
        {
            "positions": [
                -2.9166609077900874,
                -0.9101238736378947,
                1.5550785672970568,
                -0.628811718720414,
                1.482923832110421,
                -3.092217441115085
            ]
        },
        {
            "positions": [
                -2.890995652772202,
                -0.8781549257455886,
                1.4562198720587247,
                -0.5634586935902576,
                1.352189125746761,
                -3.096299279335799
            ]
        },
        {
            "positions": [
                -2.8653303977543167,
                -0.8461859778532825,
                1.3573611768203928,
                -0.498105668460101,
                1.2214544193831012,
                -3.1003811175565135
            ]
        },
        {
            "positions": [
                -2.8396651427364312,
                -0.8142170299609766,
                1.258502481582061,
                -0.43275264332994456,
                1.0907197130194413,
                -3.104462955777228
            ]
        },
        {
            "positions": [
                -2.8139998877185457,
                -0.7822480820686705,
                1.159643786343729,
                -0.3673996181997881,
                0.9599850066557812,
                -3.108544793997942
            ]
        },
        {
            "positions": [
                -2.7883346327006606,
                -0.7502791341763644,
                1.060785091105397,
                -0.3020465930696316,
                0.8292503002921213,
                -3.1126266322186558
            ]
        },
        {
            "positions": [
                -2.762669377682775,
                -0.7183101862840584,
                0.961926395867065,
                -0.23669356793947505,
                0.6985155939284613,
                -3.11670847043937
            ]
        },
        {
            "positions": [
                -2.73700412266489,
                -0.6863412383917522,
                0.8630677006287331,
                -0.17134054280931865,
                0.5677808875648014,
                -3.1207903086600846
            ]
        },
        {
            "positions": [
                -2.7113388676470045,
                -0.6543722904994462,
                0.7642090053904012,
                -0.10598751767916215,
                0.43704618120114147,
                -3.1248721468807985
            ]
        }
    ]
}