{
    "goal": {
        "global_pose": {
            "orientation": {
                "w": 0.7031023480610252,
                "x": -0.7110244013736278,
                "y": 0.0077485991402295624,
                "z": 0.005598929693374583
            },
            "position": {
                "x": -0.8841497679147869,
                "y": 0.44412534475326537,
                "z": 0.3711530566215515
            }
        },
        "name": "move_to_auspresseinheit_D"
    },
    "id": "BiEST_move_to_auspresseinheit_D_123",
    "joint_names": [
        "shoulder_pan_joint",
        "shoulder_lift_joint",
        "elbow_joint",
        "wrist_1_joint",
        "wrist_2_joint",
        "wrist_3_joint"
    ],
    "metrics": {
        "cart_traj_len": 0.3431229262544469,
        "distance_elbow_joint": 0.6326323138867711,
        "distance_shoulder_lift_joint": 0.11814332860127585,
        "distance_shoulder_pan_joint": 0.1344544651740721,
        "distance_wrist_1_joint": 0.5151683938755318,
        "distance_wrist_2_joint": 1.4317009144692718,
        "distance_wrist_3_joint": 0.017343199539279652,
        "smoothness": 2.36847578899272e-15,
        "time": 0.038226047,
        "traj_len": 1.6880292105133141,
        "weighted_distance": 2.197953212188459
    },
    "planner": "BiEST",
    "start": {
        "state": {
            "elbow_joint": -1.8275523626775212,
            "shoulder_lift_joint": -2.126789852344167,
            "shoulder_pan_joint": -0.03513704404078235,
            "wrist_1_joint": -2.347782403156801,
            "wrist_2_joint": -1.6058999987535132,
            "wrist_3_joint": -3.0880379163319196
        }
    },
    "waypoints": [
        {
            "positions": [
                -0.03513704404078235,
                -2.126789852344167,
                -1.8275523626775212,
                -2.347782403156801,
                -1.6058999987535132,
                -3.0880379163319196
            ]
        },
        {
            "positions": [
                -0.05194385218754136,
                -2.141557768419326,
                -1.7484733234416747,
                -2.412178452391242,
                -1.4269373844448543,
                -3.0902058162743296
            ]
        },
        {
            "positions": [
                -0.06875066033430038,
                -2.156325684494486,
                -1.6693942842058285,
                -2.476574501625684,
                -1.2479747701361952,
                -3.0923737162167395
            ]
        },
        {
            "positions": [
                -0.08555746848105938,
                -2.1710936005696455,
                -1.590315244969982,
                -2.5409705508601252,
                -1.0690121558275363,
                -3.0945416161591495
            ]
        },
        {
            "positions": [
                -0.10236427662781841,
                -2.1858615166448048,
                -1.5112362057341358,
                -2.605366600094567,
                -0.8900495415188773,
                -3.0967095161015594
            ]
        },
        {
            "positions": [
                -0.11917108477457741,
                -2.200629432719964,
                -1.4321571664982893,
                -2.6697626493290083,
                -0.7110869272102183,
                -3.0988774160439694
            ]
        },
        {
            "positions": [
                -0.13597789292133644,
                -2.2153973487951237,
                -1.3530781272624428,
                -2.7341586985634496,
                -0.5321243129015594,
                -3.1010453159863793
            ]
        },
        {
            "positions": [
                -0.15278470106809544,
                -2.2301652648702834,
                -1.2739990880265966,
                -2.7985547477978914,
                -0.35316169859290025,
                -3.1032132159287893
            ]
        },
        {
            "positions": [
                -0.16959150921485447,
                -2.2449331809454427,
                -1.19492004879075,
                -2.8629507970323327,
                -0.17419908428424144,
                -3.1053811158711992
            ]
        }
    ]
}