{
    "goal": {
        "global_pose": {
            "orientation": {
                "w": 0.5084816262002911,
                "x": -0.4908360881923452,
                "y": 0.5182115481033761,
                "z": -0.48164630358495003
            },
            "position": {
                "x": 0.5540239810943604,
                "y": -0.46912469901144505,
                "z": 0.16403168439865112
            }
        },
        "name": "move_to_storage_B"
    },
    "id": "BiEST_move_to_storage_B_64",
    "joint_names": [
        "shoulder_pan_joint",
        "shoulder_lift_joint",
        "elbow_joint",
        "wrist_1_joint",
        "wrist_2_joint",
        "wrist_3_joint"
    ],
    "metrics": {
        "cart_traj_len": 1.5630396399434203,
        "distance_elbow_joint": 1.4524084878633108,
        "distance_shoulder_lift_joint": 0.45866295695153614,
        "distance_shoulder_pan_joint": 1.3404930370537107,
        "distance_wrist_1_joint": 3.2938949858632594,
        "distance_wrist_2_joint": 2.706573510084437,
        "distance_wrist_3_joint": 4.259834598023264,
        "smoothness": 0.5352403699538095,
        "time": 0.092242272,
        "traj_len": 3.6758492319244436,
        "weighted_distance": 5.294525971967062
    },
    "planner": "BiEST",
    "start": {
        "state": {
            "elbow_joint": 1.664937868594044,
            "shoulder_lift_joint": -0.661644460510453,
            "shoulder_pan_joint": -0.9139846352900073,
            "wrist_1_joint": 2.146753192139373,
            "wrist_2_joint": -2.2341966793290973,
            "wrist_3_joint": 0.005466555786416001
        }
    },
    "waypoints": [
        {
            "positions": [
                -0.9139846352900073,
                -0.661644460510453,
                1.664937868594044,
                2.146753192139373,
                -2.2341966793290973,
                0.005466555786416001
            ]
        },
        {
            "positions": [
                -0.817398731735136,
                -0.6911751254500028,
                1.5729070222512083,
                2.0950717488795303,
                -2.210922714809257,
                0.09748921161557877
            ]
        },
        {
            "positions": [
                -0.7208128281802647,
                -0.7207057903895526,
                1.4808761759083726,
                2.0433903056196874,
                -2.1876487502894175,
                0.18951186744474155
            ]
        },
        {
            "positions": [
                -0.6242269246253933,
                -0.7502364553291023,
                1.388845329565537,
                1.9917088623598447,
                -2.164374785769578,
                0.2815345232739044
            ]
        },
        {
            "positions": [
                -0.527641021070522,
                -0.7797671202686521,
                1.2968144832227015,
                1.9400274191000018,
                -2.1411008212497378,
                0.3735571791030671
            ]
        },
        {
            "positions": [
                -0.43105511751565073,
                -0.809297785208202,
                1.204783636879866,
                1.888345975840159,
                -2.1178268567298977,
                0.46557983493223
            ]
        },
        {
            "positions": [
                -0.33446921396077944,
                -0.8388284501477518,
                1.1127527905370302,
                1.8366645325803161,
                -2.094552892210058,
                0.5576024907613927
            ]
        },
        {
            "positions": [
                -0.3576932056631047,
                -0.8759147231857968,
                1.1518276238986158,
                1.8629997063612411,
                -2.0184980704405646,
                0.41473380043559555
            ]
        },
        {
            "positions": [
                -0.3809171973654299,
                -0.9130009962238418,
                1.1909024572602014,
                1.8893348801421663,
                -1.9424432486710717,
                0.2718651101097984
            ]
        },
        {
            "positions": [
                -0.4041411890677551,
                -0.9500872692618869,
                1.229977290621787,
                1.9156700539230913,
                -1.8663884269015785,
                0.12899641978400128
            ]
        },
        {
            "positions": [
                -0.42736518077008034,
                -0.9871735422999319,
                1.2690521239833723,
                1.9420052277040163,
                -1.7903336051320853,
                -0.01387227054179585
            ]
        },
        {
            "positions": [
                -0.4505891724724056,
                -1.024259815337977,
                1.3081269573449579,
                1.9683404014849415,
                -1.714278783362592,
                -0.15674096086759304
            ]
        },
        {
            "positions": [
                -0.4738131641747308,
                -1.061346088376022,
                1.3472017907065434,
                1.9946755752658665,
                -1.638223961593099,
                -0.2996096511933901
            ]
        },
        {
            "positions": [
                -0.4997145669043363,
                -1.0638028104212707,
                1.374942391108076,
                1.8769341051150894,
                -1.5502822619119139,
                -0.41837992290561954
            ]
        },
        {
            "positions": [
                -0.5256159696339417,
                -1.0662595324665192,
                1.4026829915096088,
                1.759192634964312,
                -1.4623405622307288,
                -0.537150194617849
            ]
        },
        {
            "positions": [
                -0.5515173723635473,
                -1.0687162545117679,
                1.4304235919111414,
                1.641451164813535,
                -1.374398862549544,
                -0.6559204663300784
            ]
        },
        {
            "positions": [
                -0.5774187750931528,
                -1.0711729765570164,
                1.458164192312674,
                1.5237096946627577,
                -1.286457162868359,
                -0.7746907380423078
            ]
        },
        {
            "positions": [
                -0.6033201778227583,
                -1.073629698602265,
                1.4859047927142068,
                1.4059682245119807,
                -1.198515463187174,
                -0.8934610097545373
            ]
        },
        {
            "positions": [
                -0.6292215805523638,
                -1.0760864206475138,
                1.5136453931157394,
                1.2882267543612036,
                -1.1105737635059891,
                -1.0122312814667667
            ]
        },
        {
            "positions": [
                -0.6551229832819693,
                -1.0785431426927623,
                1.541385993517272,
                1.1704852842104263,
                -1.0226320638248039,
                -1.1310015531789963
            ]
        },
        {
            "positions": [
                -0.6810243860115748,
                -1.080999864738011,
                1.5691265939188048,
                1.0527438140596492,
                -0.9346903641436191,
                -1.2497718248912255
            ]
        },
        {
            "positions": [
                -0.7069257887411803,
                -1.0834565867832597,
                1.5968671943203374,
                0.9350023439088719,
                -0.846748664462434,
                -1.3685420966034552
            ]
        },
        {
            "positions": [
                -0.7328271914707858,
                -1.0859133088285082,
                1.6246077947218702,
                0.8172608737580949,
                -0.7588069647812491,
                -1.4873123683156846
            ]
        },
        {
            "positions": [
                -0.7587285942003912,
                -1.088370030873757,
                1.6523483951234028,
                0.6995194036073178,
                -0.6708652651000642,
                -1.606082640027914
            ]
        },
        {
            "positions": [
                -0.7846299969299968,
                -1.0908267529190057,
                1.6800889955249354,
                0.5817779334565405,
                -0.5829235654188791,
                -1.7248529117401434
            ]
        },
        {
            "positions": [
                -0.8105313996596022,
                -1.0932834749642542,
                1.707829595926468,
                0.4640364633057634,
                -0.4949818657376943,
                -1.8436231834523729
            ]
        },
        {
            "positions": [
                -0.8364328023892078,
                -1.0957401970095029,
                1.7355701963280008,
                0.34629499315498613,
                -0.40704016605650906,
                -1.9623934551646025
            ]
        },
        {
            "positions": [
                -0.8623342051188132,
                -1.0981969190547514,
                1.7633107967295334,
                0.22855352300420906,
                -0.31909846637532424,
                -2.0811637268768317
            ]
        },
        {
            "positions": [
                -0.8882356078484187,
                -1.1006536411,
                1.791051397131066,
                0.11081205285343199,
                -0.2311567666941392,
                -2.199933998589061
            ]
        },
        {
            "positions": [
                -0.9141370105780242,
                -1.1031103631452488,
                1.8187919975325988,
                -0.00692941729734553,
                -0.14321506701295417,
                -2.3187042703012906
            ]
        },
        {
            "positions": [
                -0.9400384133076297,
                -1.1055670851904973,
                1.8465325979341314,
                -0.1246708874481226,
                -0.05527336733176913,
                -2.43747454201352
            ]
        },
        {
            "positions": [
                -0.9659398160372352,
                -1.108023807235746,
                1.874273198335664,
                -0.24241235759889967,
                0.032668332349415685,
                -2.5562448137257494
            ]
        },
        {
            "positions": [
                -0.9918412187668408,
                -1.1104805292809945,
                1.9020137987371968,
                -0.36015382774967675,
                0.12061003203060072,
                -2.675015085437979
            ]
        },
        {
            "positions": [
                -1.0177426214964462,
                -1.1129372513262432,
                1.9297543991387294,
                -0.4778952979004538,
                0.20855173171178576,
                -2.7937853571502083
            ]
        },
        {
            "positions": [
                -1.0436440242260516,
                -1.115393973371492,
                1.957494999540262,
                -0.5956367680512309,
                0.2964934313929706,
                -2.912555628862438
            ]
        },
        {
            "positions": [
                -1.0695454269556572,
                -1.1178506954167404,
                1.9852355999417948,
                -0.7133782382020084,
                0.38443513107415583,
                -3.0313259005746676
            ]
        },
        {
            "positions": [
                -1.0954468296852626,
                -1.1203074174619891,
                2.0129762003433274,
                -0.8311197083527856,
                0.4723768307553407,
                -3.1500961722868968
            ]
        }
    ]
}