{
    "goal": {
        "global_pose": {
            "orientation": {
                "w": -0.00223480608172531,
                "x": 0.0024358444001904467,
                "y": 0.7094548369677653,
                "z": -0.704743149386269
            },
            "position": {
                "x": 0.6205249238014221,
                "y": -0.6371506643295288,
                "z": 0.19426114857196808
            }
        },
        "name": "move_to_magneteinheit_B"
    },
    "id": "BiEST_move_to_magneteinheit_B_59",
    "joint_names": [
        "shoulder_pan_joint",
        "shoulder_lift_joint",
        "elbow_joint",
        "wrist_1_joint",
        "wrist_2_joint",
        "wrist_3_joint"
    ],
    "metrics": {
        "cart_traj_len": 1.703938156947863,
        "distance_elbow_joint": 0.9601505764377429,
        "distance_shoulder_lift_joint": 1.0955438401948454,
        "distance_shoulder_pan_joint": 1.6911419427447245,
        "distance_wrist_1_joint": 1.1228401301621154,
        "distance_wrist_2_joint": 1.6534256407505243,
        "distance_wrist_3_joint": 0.7742871827899186,
        "smoothness": 0.6172467344119044,
        "time": 0.12566531,
        "traj_len": 2.7013680447284245,
        "weighted_distance": 3.409139106808689
    },
    "planner": "BiEST",
    "start": {
        "state": {
            "elbow_joint": 2.6216224122426386,
            "shoulder_lift_joint": -1.4174107377796124,
            "shoulder_pan_joint": 0.7066234856936794,
            "wrist_1_joint": 1.9546482284002225,
            "wrist_2_joint": -0.7096286983471962,
            "wrist_3_joint": 0.005740856962016249
        }
    },
    "waypoints": [
        {
            "positions": [
                0.7066234856936794,
                -1.4174107377796124,
                2.6216224122426386,
                1.9546482284002225,
                -0.7096286983471962,
                0.005740856962016249
            ]
        },
        {
            "positions": [
                0.6664346683773531,
                -1.460183751313128,
                2.6226763644657423,
                1.8804211038614254,
                -0.6894082626685082,
                0.10045174247896003
            ]
        },
        {
            "positions": [
                0.6374290741275205,
                -1.5013074070293393,
                2.5778579690956707,
                1.7833666889773387,
                -0.6738636774968947,
                0.19320093504042718
            ]
        },
        {
            "positions": [
                0.6084234798776877,
                -1.5424310627455506,
                2.5330395737255995,
                1.6863122740932521,
                -0.6583190923252812,
                0.28595012760189437
            ]
        },
        {
            "positions": [
                0.5794178856278551,
                -1.583554718461762,
                2.488221178355528,
                1.5892578592091655,
                -0.6427745071536677,
                0.37869932016336155
            ]
        },
        {
            "positions": [
                0.6147797255917031,
                -1.586370776392847,
                2.307467596608457,
                1.4830162427284923,
                -0.6568149418788736,
                0.3916041792188827
            ]
        },
        {
            "positions": [
                0.512874758744033,
                -1.5245985229540728,
                2.2645417395179663,
                1.5264301190278513,
                -0.7616503428676595,
                0.3657092551833459
            ]
        },
        {
            "positions": [
                0.41096979189636285,
                -1.462826269515299,
                2.2216158824274763,
                1.5698439953272103,
                -0.8664857438564455,
                0.33981433114780907
            ]
        },
        {
            "positions": [
                0.3090648250486927,
                -1.4010540160765248,
                2.178690025336986,
                1.6132578716265693,
                -0.9713211448452316,
                0.3139194071122723
            ]
        },
        {
            "positions": [
                0.20715985820102256,
                -1.3392817626377507,
                2.135764168246496,
                1.6566717479259283,
                -1.0761565458340177,
                0.28802448307673545
            ]
        },
        {
            "positions": [
                0.10525489135335242,
                -1.2775095091989768,
                2.0928383111560054,
                1.7000856242252873,
                -1.1809919468228034,
                0.26212955904119867
            ]
        },
        {
            "positions": [
                0.003349924505682278,
                -1.2157372557602026,
                2.0499124540655154,
                1.7434995005246465,
                -1.2858273478115896,
                0.23623463500566183
            ]
        },
        {
            "positions": [
                -0.09855504234198786,
                -1.1539650023214285,
                2.006986596975025,
                1.7869133768240055,
                -1.3906627488003755,
                0.21033971097012502
            ]
        },
        {
            "positions": [
                -0.200460009189658,
                -1.0921927488826546,
                1.964060739884535,
                1.8303272531233645,
                -1.4954981497891615,
                0.18444478693458824
            ]
        },
        {
            "positions": [
                -0.30236497603732815,
                -1.0304204954438805,
                1.9211348827940444,
                1.8737411294227235,
                -1.6003335507779475,
                0.15854986289905143
            ]
        },
        {
            "positions": [
                -0.4042699428849983,
                -0.9686482420051065,
                1.8782090257035544,
                1.9171550057220825,
                -1.7051689517667334,
                0.13265493886351465
            ]
        },
        {
            "positions": [
                -0.5061749097326684,
                -0.9068759885663324,
                1.835283168613064,
                1.9605688820214415,
                -1.8100043527555194,
                0.10676001482797781
            ]
        },
        {
            "positions": [
                -0.6080798765803386,
                -0.8451037351275583,
                1.7923573115225737,
                2.0039827583208005,
                -1.9148397537443056,
                0.08086509079244097
            ]
        },
        {
            "positions": [
                -0.7099848434280087,
                -0.7833314816887842,
                1.7494314544320835,
                2.0473966346201595,
                -2.0196751547330916,
                0.05497016675690419
            ]
        },
        {
            "positions": [
                -0.8118898102756789,
                -0.7215592282500102,
                1.7065055973415932,
                2.0908105109195185,
                -2.1245105557218773,
                0.029075242721367356
            ]
        },
        {
            "positions": [
                -0.913794777123349,
                -0.6597869748112362,
                1.663579740251103,
                2.1342243872188775,
                -2.2293459567106635,
                0.0031803186858305904
            ]
        }
    ]
}