{
    "goal": {
        "global_pose": {
            "orientation": {
                "w": 0.005598929693374612,
                "x": 0.007748599140229565,
                "y": 0.7110244013736278,
                "z": -0.7031023480610252
            },
            "position": {
                "x": -0.8858502320852131,
                "y": -0.7141253447532654,
                "z": 0.3711530566215515
            }
        },
        "name": "move_to_auspresseinheit_C"
    },
    "id": "BiEST_move_to_auspresseinheit_C_26",
    "joint_names": [
        "shoulder_pan_joint",
        "shoulder_lift_joint",
        "elbow_joint",
        "wrist_1_joint",
        "wrist_2_joint",
        "wrist_3_joint"
    ],
    "metrics": {
        "cart_traj_len": 2.0098795013908366,
        "distance_elbow_joint": 0.986081494072758,
        "distance_shoulder_lift_joint": 1.0580434755314339,
        "distance_shoulder_pan_joint": 0.2561829363701107,
        "distance_wrist_1_joint": 1.9747956788549004,
        "distance_wrist_2_joint": 1.4396438229485675,
        "distance_wrist_3_joint": 2.7099654378377904,
        "smoothness": 0.758069145625452,
        "time": 0.11163521400000001,
        "traj_len": 2.9025355890351388,
        "weighted_distance": 4.1544052791097075
    },
    "planner": "BiEST",
    "start": {
        "state": {
            "elbow_joint": 1.7527959577737207,
            "shoulder_lift_joint": -0.9740617694225068,
            "shoulder_pan_joint": -2.967991417825858,
            "wrist_1_joint": -0.759517768980727,
            "wrist_2_joint": 1.7443932448377408,
            "wrist_3_joint": -3.0840537646736568
        }
    },
    "waypoints": [
        {
            "positions": [
                -2.967991417825858,
                -0.9740617694225068,
                1.7527959577737207,
                -0.759517768980727,
                1.7443932448377408,
                -3.0840537646736568
            ]
        },
        {
            "positions": [
                -2.9565154692656876,
                -1.0025155919265896,
                1.6804090494304778,
                -0.8103040982673755,
                1.6387474899527519,
                -2.9811606824191097
            ]
        },
        {
            "positions": [
                -2.9450395207055173,
                -1.0309694144306725,
                1.6080221410872348,
                -0.8610904275540241,
                1.533101735067763,
                -2.878267600164562
            ]
        },
        {
            "positions": [
                -2.9335635721453475,
                -1.0594232369347552,
                1.535635232743992,
                -0.9118767568406726,
                1.4274559801827738,
                -2.775374517910015
            ]
        },
        {
            "positions": [
                -2.922087623585177,
                -1.087877059438838,
                1.463248324400749,
                -0.9626630861273211,
                1.3218102252977848,
                -2.6724814356554676
            ]
        },
        {
            "positions": [
                -2.910611675025007,
                -1.116330881942921,
                1.3908614160575064,
                -1.0134494154139697,
                1.2161644704127959,
                -2.5695883534009205
            ]
        },
        {
            "positions": [
                -2.8991357264648365,
                -1.1447847044470039,
                1.3184745077142634,
                -1.064235744700618,
                1.110518715527807,
                -2.4666952711463734
            ]
        },
        {
            "positions": [
                -2.8876597779046667,
                -1.1732385269510865,
                1.2460875993710205,
                -1.1150220739872667,
                1.004872960642818,
                -2.363802188891826
            ]
        },
        {
            "positions": [
                -2.8761838293444963,
                -1.2016923494551695,
                1.1737006910277776,
                -1.1658084032739153,
                0.8992272057578289,
                -2.2609091066372784
            ]
        },
        {
            "positions": [
                -2.864707880784326,
                -1.2301461719592521,
                1.1013137826845347,
                -1.2165947325605637,
                0.7935814508728399,
                -2.1580160243827313
            ]
        },
        {
            "positions": [
                -2.8532319322241557,
                -1.258599994463335,
                1.028926874341292,
                -1.2673810618472123,
                0.6879356959878509,
                -2.0551229421281842
            ]
        },
        {
            "positions": [
                -2.841755983663986,
                -1.287053816967418,
                0.956539965998049,
                -1.3181673911338607,
                0.5822899411028619,
                -1.952229859873637
            ]
        },
        {
            "positions": [
                -2.8302800351038155,
                -1.3155076394715008,
                0.8841530576548061,
                -1.3689537204205093,
                0.47664418621787297,
                -1.8493367776190897
            ]
        },
        {
            "positions": [
                -2.8188040865436452,
                -1.3439614619755835,
                0.8117661493115633,
                -1.419740049707158,
                0.370998431332884,
                -1.7464436953645424
            ]
        },
        {
            "positions": [
                -2.8081045260348554,
                -1.2751470836777479,
                0.8072609807505032,
                -1.288282709894311,
                0.3776233322772551,
                -1.88367923221741
            ]
        },
        {
            "positions": [
                -2.7974049655260655,
                -1.206332705379912,
                0.8027558121894431,
                -1.156825370081464,
                0.3842482332216262,
                -2.0209147690702776
            ]
        },
        {
            "positions": [
                -2.7867054050172757,
                -1.1375183270820763,
                0.7982506436283832,
                -1.025368030268617,
                0.3908731341659973,
                -2.158150305923145
            ]
        },
        {
            "positions": [
                -2.776005844508486,
                -1.0687039487842407,
                0.7937454750673231,
                -0.89391069045577,
                0.3974980351103684,
                -2.295385842776013
            ]
        },
        {
            "positions": [
                -2.7653062839996965,
                -0.9998895704864049,
                0.789240306506263,
                -0.7624533506429231,
                0.4041229360547395,
                -2.4326213796288805
            ]
        },
        {
            "positions": [
                -2.7546067234909066,
                -0.9310751921885692,
                0.7847351379452029,
                -0.6309960108300762,
                0.41074783699911055,
                -2.569856916481748
            ]
        },
        {
            "positions": [
                -2.743907162982117,
                -0.8622608138907335,
                0.7802299693841428,
                -0.49953867101722915,
                0.4173727379434817,
                -2.7070924533346155
            ]
        },
        {
            "positions": [
                -2.733207602473327,
                -0.7934464355928977,
                0.7757248008230828,
                -0.368081331204382,
                0.42399763888785275,
                -2.844327990187483
            ]
        },
        {
            "positions": [
                -2.722508041964537,
                -0.724632057295062,
                0.7712196322620227,
                -0.23662399139153512,
                0.43062253983222387,
                -2.981563527040351
            ]
        },
        {
            "positions": [
                -2.7118084814557473,
                -0.6558176789972263,
                0.7667144637009626,
                -0.10516665157868815,
                0.43724744077659494,
                -3.1187990638932184
            ]
        }
    ]
}