{
    "goal": {
        "global_pose": {
            "orientation": {
                "w": 0.7047431493862688,
                "x": -0.7094548369677653,
                "y": 0.0024358444001904,
                "z": -0.0022348060817251984
            },
            "position": {
                "x": -0.39052492380142206,
                "y": 0.3671506643295288,
                "z": 0.19426114857196808
            }
        },
        "name": "move_to_magneteinheit_D"
    },
    "id": "BiEST_move_to_magneteinheit_D_74",
    "joint_names": [
        "shoulder_pan_joint",
        "shoulder_lift_joint",
        "elbow_joint",
        "wrist_1_joint",
        "wrist_2_joint",
        "wrist_3_joint"
    ],
    "metrics": {
        "cart_traj_len": 5.146524979799112,
        "distance_elbow_joint": 3.8058801238947186,
        "distance_shoulder_lift_joint": 1.4695203239604093,
        "distance_shoulder_pan_joint": 6.068012426845191,
        "distance_wrist_1_joint": 5.108549175202015,
        "distance_wrist_2_joint": 4.4913718815835555,
        "distance_wrist_3_joint": 6.336646952679491,
        "smoothness": 0.44316905060138667,
        "time": 0.15319204,
        "traj_len": 5.223024112922071,
        "weighted_distance": 7.039403088778902
    },
    "planner": "BiEST",
    "start": {
        "state": {
            "elbow_joint": 0.749534889911806,
            "shoulder_lift_joint": -0.6476975780787326,
            "shoulder_pan_joint": -2.711696901376241,
            "wrist_1_joint": -0.07506478083263063,
            "wrist_2_joint": 0.43296659715538205,
            "wrist_3_joint": -3.14703540197715
        }
    },
    "waypoints": [
        {
            "positions": [
                -2.711696901376241,
                -0.6476975780787326,
                0.749534889911806,
                -0.07506478083263063,
                0.43296659715538205,
                -3.14703540197715
            ]
        },
        {
            "positions": [
                -2.7229411917327586,
                -0.691467764438251,
                0.7599503086139109,
                0.012415631552076742,
                0.46012402333943137,
                -2.999527043178826
            ]
        },
        {
            "positions": [
                -2.734185482089276,
                -0.7352379507977694,
                0.7703657273160157,
                0.09989604393678411,
                0.48728144952348074,
                -2.8520186843805018
            ]
        },
        {
            "positions": [
                -2.7454297724457937,
                -0.7790081371572878,
                0.7807811460181207,
                0.18737645632149147,
                0.5144388757075301,
                -2.704510325582178
            ]
        },
        {
            "positions": [
                -2.756674062802311,
                -0.8227783235168062,
                0.7911965647202255,
                0.27485686870619885,
                0.5415963018915794,
                -2.557001966783854
            ]
        },
        {
            "positions": [
                -2.7679183531588287,
                -0.8665485098763246,
                0.8016119834223304,
                0.3623372810909062,
                0.5687537280756287,
                -2.40949360798553
            ]
        },
        {
            "positions": [
                -2.6838437070957375,
                -0.8812225409452176,
                0.6906966859709748,
                0.3159384447126001,
                0.5265901350958792,
                -2.3199916993983387
            ]
        },
        {
            "positions": [
                -2.5997690610326467,
                -0.8958965720141107,
                0.5797813885196191,
                0.26953960833429397,
                0.4844265421161296,
                -2.2304897908111476
            ]
        },
        {
            "positions": [
                -2.5156944149695555,
                -0.9105706030830036,
                0.46886609106826355,
                0.22314077195598783,
                0.44226294913638003,
                -2.1409878822239565
            ]
        },
        {
            "positions": [
                -2.4316197689064647,
                -0.9252446341518967,
                0.3579507936169079,
                0.17674193557768172,
                0.4000993561566305,
                -2.0514859736367654
            ]
        },
        {
            "positions": [
                -2.3475451228433735,
                -0.9399186652207897,
                0.24703549616555232,
                0.13034309919937562,
                0.3579357631768809,
                -1.9619840650495743
            ]
        },
        {
            "positions": [
                -2.2634704767802822,
                -0.9545926962896827,
                0.13612019871419667,
                0.08394426282106948,
                0.31577217019713133,
                -1.8724821564623833
            ]
        },
        {
            "positions": [
                -2.1793958307171915,
                -0.9692667273585758,
                0.02520490126284103,
                0.037545426442763374,
                0.27360857721738174,
                -1.7829802478751922
            ]
        },
        {
            "positions": [
                -2.0953211846541,
                -0.9839407584274688,
                -0.08571039618851461,
                -0.008853409935542733,
                0.2314449842376322,
                -1.693478339288001
            ]
        },
        {
            "positions": [
                -2.011246538591009,
                -0.9986147894963618,
                -0.19662569363987026,
                -0.05525224631384884,
                0.18928139125788263,
                -1.60397643070081
            ]
        },
        {
            "positions": [
                -1.9271718925279182,
                -1.0132888205652548,
                -0.3075409910912258,
                -0.10165108269215495,
                0.14711779827813304,
                -1.5144745221136189
            ]
        },
        {
            "positions": [
                -1.843097246464827,
                -1.027962851634148,
                -0.41845628854258166,
                -0.1480499190704611,
                0.10495420529838345,
                -1.4249726135264278
            ]
        },
        {
            "positions": [
                -1.759022600401736,
                -1.0426368827030408,
                -0.5293715859939371,
                -0.19444875544876722,
                0.06279061231863392,
                -1.3354707049392367
            ]
        },
        {
            "positions": [
                -1.674947954338645,
                -1.0573109137719339,
                -0.6402868834452929,
                -0.24084759182707333,
                0.020627019338884334,
                -1.2459687963520456
            ]
        },
        {
            "positions": [
                -1.590873308275554,
                -1.071984944840827,
                -0.7512021808966484,
                -0.28724642820537943,
                -0.021536573640865253,
                -1.1564668877648545
            ]
        },
        {
            "positions": [
                -1.5067986622124627,
                -1.08665897590972,
                -0.862117478348004,
                -0.33364526458368565,
                -0.06370016662061484,
                -1.0669649791776634
            ]
        },
        {
            "positions": [
                -1.422724016149372,
                -1.101333006978613,
                -0.9730327757993597,
                -0.38004410096199165,
                -0.10586375960036432,
                -0.9774630705904723
            ]
        },
        {
            "positions": [
                -1.3386493700862807,
                -1.116007038047506,
                -1.0839480732507152,
                -0.42644293734029787,
                -0.148027352580114,
                -0.8879611620032812
            ]
        },
        {
            "positions": [
                -1.2545747240231897,
                -1.130681069116399,
                -1.194863370702071,
                -0.47284177371860386,
                -0.1901909455598635,
                -0.7984592534160901
            ]
        },
        {
            "positions": [
                -1.1705000779600985,
                -1.145355100185292,
                -1.3057786681534265,
                -0.51924061009691,
                -0.23235453853961308,
                -0.708957344828899
            ]
        },
        {
            "positions": [
                -1.0864254318970077,
                -1.160029131254185,
                -1.416693965604782,
                -0.5656394464752161,
                -0.27451813151936266,
                -0.619455436241708
            ]
        },
        {
            "positions": [
                -1.0023507858339165,
                -1.1747031623230781,
                -1.5276092630561378,
                -0.6120382828535224,
                -0.31668172449911225,
                -0.529953527654517
            ]
        },
        {
            "positions": [
                -0.9119430902233256,
                -1.1679779746347148,
                -1.5171667526913581,
                -0.7057262836417799,
                -0.376291836773997,
                -0.3983625727551362
            ]
        },
        {
            "positions": [
                -0.8215353946127348,
                -1.1612527869463516,
                -1.5067242423265785,
                -0.7994142844300376,
                -0.43590194904888185,
                -0.2667716178557555
            ]
        },
        {
            "positions": [
                -0.731127699002144,
                -1.1545275992579882,
                -1.496281731961799,
                -0.8931022852182952,
                -0.4955120613237667,
                -0.1351806629563747
            ]
        },
        {
            "positions": [
                -0.6407200033915531,
                -1.1478024115696248,
                -1.4858392215970195,
                -0.9867902860065527,
                -0.5551221735986515,
                -0.00358970805699399
            ]
        },
        {
            "positions": [
                -0.5503123077809622,
                -1.1410772238812616,
                -1.47539671123224,
                -1.0804782867948104,
                -0.6147322858735362,
                0.12800124684238678
            ]
        },
        {
            "positions": [
                -0.4599046121703715,
                -1.1343520361928983,
                -1.4649542008674603,
                -1.174166287583068,
                -0.6743423981484211,
                0.25959220174176756
            ]
        },
        {
            "positions": [
                -0.36949691655978056,
                -1.1276268485045349,
                -1.4545116905026807,
                -1.2678542883713257,
                -0.7339525104233059,
                0.39118315664114833
            ]
        },
        {
            "positions": [
                -0.27908922094918975,
                -1.1209016608161717,
                -1.444069180137901,
                -1.3615422891595832,
                -0.7935626226981907,
                0.522774111540529
            ]
        },
        {
            "positions": [
                -0.18868152533859883,
                -1.1141764731278083,
                -1.4336266697731215,
                -1.4552302899478409,
                -0.8531727349730756,
                0.65436506643991
            ]
        },
        {
            "positions": [
                -0.09827382972800802,
                -1.1074512854394452,
                -1.4231841594083419,
                -1.5489182907360983,
                -0.9127828472479603,
                0.7859560213392905
            ]
        },
        {
            "positions": [
                -0.007866134117417212,
                -1.1007260977510818,
                -1.4127416490435625,
                -1.642606291524356,
                -0.9723929595228451,
                0.9175469762386713
            ]
        },
        {
            "positions": [
                0.08254156149317349,
                -1.0940009100627184,
                -1.4022991386787829,
                -1.7362942923126137,
                -1.03200307179773,
                1.049137931138052
            ]
        },
        {
            "positions": [
                0.17294925710376452,
                -1.0872757223743552,
                -1.3918566283140033,
                -1.8299822931008713,
                -1.0916131840726147,
                1.180728886037433
            ]
        },
        {
            "positions": [
                0.26335695271435533,
                -1.0805505346859918,
                -1.3814141179492236,
                -1.923670293889129,
                -1.1512232963474995,
                1.3123198409368135
            ]
        },
        {
            "positions": [
                0.35376464832494614,
                -1.0738253469976284,
                -1.370971607584444,
                -2.0173582946773867,
                -1.2108334086223844,
                1.4439107958361945
            ]
        },
        {
            "positions": [
                0.44417234393553695,
                -1.0671001593092653,
                -1.3605290972196644,
                -2.111046295465644,
                -1.270443520897269,
                1.575501750735575
            ]
        },
        {
            "positions": [
                0.5345800395461278,
                -1.0603749716209019,
                -1.3500865868548848,
                -2.2047342962539016,
                -1.330053633172154,
                1.7070927056349556
            ]
        },
        {
            "positions": [
                0.6249877351567188,
                -1.0536497839325385,
                -1.3396440764901052,
                -2.2984222970421593,
                -1.3896637454470389,
                1.838683660534337
            ]
        },
        {
            "positions": [
                0.7153954307673096,
                -1.0469245962441753,
                -1.3292015661253258,
                -2.392110297830417,
                -1.4492738577219235,
                1.9702746154337176
            ]
        },
        {
            "positions": [
                0.8058031263779004,
                -1.040199408555812,
                -1.3187590557605462,
                -2.4857982986186746,
                -1.5088839699968084,
                2.101865570333098
            ]
        },
        {
            "positions": [
                0.8962108219884912,
                -1.0334742208674488,
                -1.3083165453957666,
                -2.5794862994069323,
                -1.5684940822716933,
                2.233456525232479
            ]
        },
        {
            "positions": [
                0.986618517599082,
                -1.0267490331790854,
                -1.297874035030987,
                -2.67317430019519,
                -1.628104194546578,
                2.3650474801318597
            ]
        },
        {
            "positions": [
                1.0770262132096726,
                -1.020023845490722,
                -1.2874315246662074,
                -2.7668623009834477,
                -1.6877143068214628,
                2.4966384350312403
            ]
        },
        {
            "positions": [
                1.1674339088202634,
                -1.0132986578023588,
                -1.276989014301428,
                -2.860550301771705,
                -1.7473244190963475,
                2.6282293899306213
            ]
        },
        {
            "positions": [
                1.2578416044308547,
                -1.0065734701139954,
                -1.2665465039366484,
                -2.954238302559963,
                -1.8069345313712324,
                2.7598203448300023
            ]
        },
        {
            "positions": [
                1.3482493000414455,
                -0.9998482824256321,
                -1.2561039935718687,
                -3.0479263033482202,
                -1.8665446436461173,
                2.891411299729383
            ]
        },
        {
            "positions": [
                1.4386569956520363,
                -0.9931230947372688,
                -1.2456614832070891,
                -3.141614304136478,
                -1.926154755921002,
                3.023002254628764
            ]
        },
        {
            "positions": [
                1.5290646912626271,
                -0.9863979070489055,
                -1.2352189728423095,
                -3.2353023049247356,
                -1.9857648681958868,
                3.1545932095281444
            ]
        },
        {
            "positions": [
                1.42819363651903,
                -1.030763170839605,
                -1.3018184724712447,
                -3.1721548033210394,
                -1.879819800290487,
                3.152533307106133
            ]
        },
        {
            "positions": [
                1.3273225817754326,
                -1.0751284346303045,
                -1.36841797210018,
                -3.109007301717343,
                -1.773874732385087,
                3.1504734046841216
            ]
        },
        {
            "positions": [
                1.2264515270318355,
                -1.119493698421004,
                -1.435017471729115,
                -3.045859800113647,
                -1.667929664479687,
                3.1484135022621103
            ]
        },
        {
            "positions": [
                1.125580472288238,
                -1.1638589622117035,
                -1.5016169713580503,
                -2.9827122985099503,
                -1.5619845965742871,
                3.146353599840099
            ]
        },
        {
            "positions": [
                1.024709417544641,
                -1.208224226002403,
                -1.5682164709869855,
                -2.919564796906254,
                -1.4560395286688872,
                3.144293697418088
            ]
        },
        {
            "positions": [
                0.9238383628010437,
                -1.2525894897931025,
                -1.6348159706159207,
                -2.856417295302558,
                -1.3500944607634873,
                3.1422337949960766
            ]
        },
        {
            "positions": [
                0.8229673080574466,
                -1.296954753583802,
                -1.7014154702448556,
                -2.7932697936988617,
                -1.2441493928580873,
                3.140173892574065
            ]
        },
        {
            "positions": [
                0.7220962533138493,
                -1.3413200173745015,
                -1.7680149698737908,
                -2.7301222920951655,
                -1.1382043249526874,
                3.138113990152054
            ]
        },
        {
            "positions": [
                0.6212251985702519,
                -1.385685281165201,
                -1.834614469502726,
                -2.6669747904914693,
                -1.0322592570472875,
                3.1360540877300425
            ]
        },
        {
            "positions": [
                0.5203541438266548,
                -1.4300505449559004,
                -1.9012139691316612,
                -2.603827288887773,
                -0.9263141891418876,
                3.133994185308031
            ]
        },
        {
            "positions": [
                0.4194830890830574,
                -1.4744158087466,
                -1.9678134687605964,
                -2.540679787284077,
                -0.8203691212364876,
                3.1319342828860197
            ]
        },
        {
            "positions": [
                0.3186120343394603,
                -1.5187810725372994,
                -2.034412968389532,
                -2.4775322856803808,
                -0.7144240533310877,
                3.1298743804640083
            ]
        },
        {
            "positions": [
                0.21774097959586314,
                -1.5631463363279987,
                -2.1010124680184665,
                -2.4143847840766846,
                -0.6084789854256878,
                3.1278144780419974
            ]
        },
        {
            "positions": [
                0.116869924852266,
                -1.6075116001186982,
                -2.1676119676474017,
                -2.3512372824729884,
                -0.5025339175202879,
                3.125754575619986
            ]
        },
        {
            "positions": [
                0.015998870108668628,
                -1.6518768639093977,
                -2.234211467276337,
                -2.2880897808692917,
                -0.39658884961488794,
                3.1236946731979747
            ]
        },
        {
            "positions": [
                -0.08487218463492852,
                -1.6962421277000972,
                -2.300810966905272,
                -2.2249422792655955,
                -0.290643781709488,
                3.1216347707759633
            ]
        },
        {
            "positions": [
                -0.185743239378526,
                -1.7406073914907967,
                -2.3674104665342073,
                -2.1617947776618993,
                -0.18469871380408806,
                3.119574868353952
            ]
        }
    ]
}