{
    "goal": {
        "global_pose": {
            "orientation": {
                "w": 0.5084816262002911,
                "x": -0.4908360881923452,
                "y": 0.5182115481033761,
                "z": -0.48164630358495003
            },
            "position": {
                "x": 0.5540239810943604,
                "y": -0.46912469901144505,
                "z": 0.16403168439865112
            }
        },
        "name": "move_to_storage_B"
    },
    "id": "BiEST_move_to_storage_B_32",
    "joint_names": [
        "shoulder_pan_joint",
        "shoulder_lift_joint",
        "elbow_joint",
        "wrist_1_joint",
        "wrist_2_joint",
        "wrist_3_joint"
    ],
    "metrics": {
        "cart_traj_len": 3.1491847797967383,
        "distance_elbow_joint": 1.4675274586512232,
        "distance_shoulder_lift_joint": 1.5136236628458997,
        "distance_shoulder_pan_joint": 2.987464671915724,
        "distance_wrist_1_joint": 3.012630740536606,
        "distance_wrist_2_joint": 2.7023870650055044,
        "distance_wrist_3_joint": 3.114801498615093,
        "smoothness": 0.27652425186093627,
        "time": 0.135739744,
        "traj_len": 3.8468734184490736,
        "weighted_distance": 5.171368861369527
    },
    "planner": "BiEST",
    "start": {
        "state": {
            "elbow_joint": 1.664937868594044,
            "shoulder_lift_joint": -0.661644460510453,
            "shoulder_pan_joint": -0.9139846352900073,
            "wrist_1_joint": 2.146753192139373,
            "wrist_2_joint": -2.2341966793290973,
            "wrist_3_joint": 0.005466555786416001
        }
    },
    "waypoints": [
        {
            "positions": [
                -0.9139846352900073,
                -0.661644460510453,
                1.664937868594044,
                2.146753192139373,
                -2.2341966793290973,
                0.005466555786416001
            ]
        },
        {
            "positions": [
                -0.847193849516175,
                -0.708669075253083,
                1.6384795508604675,
                2.0733300406647244,
                -2.130996296109959,
                -0.06187856257341999
            ]
        },
        {
            "positions": [
                -0.7804030637423428,
                -0.755693689995713,
                1.6120212331268913,
                1.999906889190076,
                -2.02779591289082,
                -0.12922368093325598
            ]
        },
        {
            "positions": [
                -0.7136122779685106,
                -0.8027183047383428,
                1.5855629153933148,
                1.9264837377154274,
                -1.9245955296716817,
                -0.19656879929309198
            ]
        },
        {
            "positions": [
                -0.6468214921946784,
                -0.8497429194809728,
                1.5591045976597384,
                1.8530605862407787,
                -1.8213951464525433,
                -0.26391391765292793
            ]
        },
        {
            "positions": [
                -0.5800307064208462,
                -0.8967675342236028,
                1.5326462799261622,
                1.77963743476613,
                -1.7181947632334047,
                -0.3312590360127639
            ]
        },
        {
            "positions": [
                -0.513239920647014,
                -0.9437921489662326,
                1.5061879621925858,
                1.7062142832914813,
                -1.614994380014266,
                -0.39860415437259994
            ]
        },
        {
            "positions": [
                -0.4464491348731817,
                -0.9908167637088626,
                1.4797296444590093,
                1.6327911318168327,
                -1.5117939967951277,
                -0.4659492727324359
            ]
        },
        {
            "positions": [
                -0.3796583490993495,
                -1.0378413784514926,
                1.4532713267254331,
                1.559367980342184,
                -1.4085936135759891,
                -0.533294391092272
            ]
        },
        {
            "positions": [
                -0.31286756332551735,
                -1.0848659931941225,
                1.4268130089918567,
                1.4859448288675354,
                -1.3053932303568505,
                -0.600639509452108
            ]
        },
        {
            "positions": [
                -0.2460767775516851,
                -1.1318906079367526,
                1.4003546912582805,
                1.4125216773928868,
                -1.2021928471377121,
                -0.6679846278119439
            ]
        },
        {
            "positions": [
                -0.17928599177785276,
                -1.1789152226793824,
                1.3738963735247038,
                1.339098525918238,
                -1.0989924639185733,
                -0.73532974617178
            ]
        },
        {
            "positions": [
                -0.11249520600402063,
                -1.2259398374220125,
                1.3474380557911276,
                1.2656753744435894,
                -0.9957920806994349,
                -0.802674864531616
            ]
        },
        {
            "positions": [
                -0.04570442023018839,
                -1.2729644521646424,
                1.3209797380575512,
                1.1922522229689407,
                -0.8925916974802963,
                -0.870019982891452
            ]
        },
        {
            "positions": [
                0.021086365543643848,
                -1.3199890669072722,
                1.294521420323975,
                1.1188290714942921,
                -0.7893913142611579,
                -0.9373651012512879
            ]
        },
        {
            "positions": [
                0.0878771513174762,
                -1.3670136816499023,
                1.2680631025903986,
                1.0454059200196435,
                -0.6861909310420193,
                -1.004710219611124
            ]
        },
        {
            "positions": [
                0.15466793709130833,
                -1.4140382963925322,
                1.2416047848568224,
                0.9719827685449949,
                -0.582990547822881,
                -1.0720553379709599
            ]
        },
        {
            "positions": [
                0.22145872286514046,
                -1.461062911135162,
                1.215146467123246,
                0.898559617070346,
                -0.47979016460374235,
                -1.139400456330796
            ]
        },
        {
            "positions": [
                0.2882495086389726,
                -1.5080875258777922,
                1.1886881493896695,
                0.8251364655956976,
                -0.37658978138460375,
                -1.206745574690632
            ]
        },
        {
            "positions": [
                0.35504029441280494,
                -1.5551121406204222,
                1.1622298316560933,
                0.7517133141210488,
                -0.27338939816546515,
                -1.2740906930504678
            ]
        },
        {
            "positions": [
                0.42183108018663706,
                -1.602136755363052,
                1.1357715139225169,
                0.6782901626464004,
                -0.170189014946327,
                -1.3414358114103038
            ]
        },
        {
            "positions": [
                0.4886218659604695,
                -1.649161370105682,
                1.1093131961889404,
                0.6048670111717515,
                -0.06698863172718814,
                -1.40878092977014
            ]
        },
        {
            "positions": [
                0.39539491474486665,
                -1.618213914032113,
                1.1629545365563592,
                0.5183526253147523,
                -0.035507513056388385,
                -1.5088135187735832
            ]
        },
        {
            "positions": [
                0.30216796352926384,
                -1.5872664579585443,
                1.2165958769237781,
                0.4318382394577531,
                -0.004026394385588633,
                -1.6088461077770266
            ]
        },
        {
            "positions": [
                0.20894101231366097,
                -1.5563190018849753,
                1.2702372172911969,
                0.34532385360075396,
                0.02745472428521112,
                -1.70887869678047
            ]
        },
        {
            "positions": [
                0.11571406109805815,
                -1.5253715458114065,
                1.3238785576586156,
                0.25880946774375485,
                0.05893584295601087,
                -1.8089112857839134
            ]
        },
        {
            "positions": [
                0.022487109882455336,
                -1.4944240897378376,
                1.3775198980260344,
                0.17229508188675569,
                0.09041696162681062,
                -1.9089438747873566
            ]
        },
        {
            "positions": [
                -0.07073984133314759,
                -1.4634766336642688,
                1.4311612383934533,
                0.08578069602975646,
                0.12189808029761037,
                -2.0089764637908
            ]
        },
        {
            "positions": [
                -0.16396679254875035,
                -1.4325291775906999,
                1.484802578760872,
                -0.0007336898272426451,
                0.1533791989684101,
                -2.109009052794243
            ]
        },
        {
            "positions": [
                -0.2571937437643532,
                -1.4015817215171311,
                1.5384439191282908,
                -0.08724807568424175,
                0.18486031763920988,
                -2.2090416417976866
            ]
        },
        {
            "positions": [
                -0.350420694979956,
                -1.3706342654435621,
                1.5920852594957098,
                -0.17376246154124098,
                0.2163414363100096,
                -2.30907423080113
            ]
        },
        {
            "positions": [
                -0.44364764619555885,
                -1.3396868093699934,
                1.6457265998631285,
                -0.2602768473982401,
                0.24782255498080938,
                -2.4091068198045735
            ]
        },
        {
            "positions": [
                -0.5368745974111617,
                -1.3087393532964244,
                1.6993679402305473,
                -0.3467912332552393,
                0.27930367365160913,
                -2.509139408808017
            ]
        },
        {
            "positions": [
                -0.6301015486267647,
                -1.2777918972228557,
                1.7530092805979662,
                -0.4333056191122385,
                0.31078479232240885,
                -2.60917199781146
            ]
        },
        {
            "positions": [
                -0.7233284998423672,
                -1.2468444411492867,
                1.8066506209653848,
                -0.5198200049692375,
                0.3422659109932086,
                -2.7092045868149035
            ]
        },
        {
            "positions": [
                -0.8165554510579702,
                -1.215896985075718,
                1.8602919613328037,
                -0.6063343908262367,
                0.3737470296640083,
                -2.809237175818347
            ]
        },
        {
            "positions": [
                -0.909782402273573,
                -1.184949529002149,
                1.9139333017002227,
                -0.6928487766832357,
                0.40522814833480814,
                -2.90926976482179
            ]
        },
        {
            "positions": [
                -1.003009353489176,
                -1.1540020729285803,
                1.9675746420676412,
                -0.779363162540235,
                0.43670926700560786,
                -3.0093023538252335
            ]
        },
        {
            "positions": [
                -1.0962363047047787,
                -1.1230546168550113,
                2.02121598243506,
                -0.8658775483972341,
                0.4681903856764076,
                -3.109334942828677
            ]
        }
    ]
}