{
    "goal": {
        "global_pose": {
            "orientation": {
                "w": -0.4816463035849501,
                "x": 0.5182115481033762,
                "y": 0.4908360881923453,
                "z": -0.5084816262002911
            },
            "position": {
                "x": -0.8240239810943604,
                "y": 0.19912469901144506,
                "z": 0.16403168439865112
            }
        },
        "name": "move_to_storage_D"
    },
    "id": "BiEST_move_to_storage_D_58",
    "joint_names": [
        "shoulder_pan_joint",
        "shoulder_lift_joint",
        "elbow_joint",
        "wrist_1_joint",
        "wrist_2_joint",
        "wrist_3_joint"
    ],
    "metrics": {
        "cart_traj_len": 3.898254582711261,
        "distance_elbow_joint": 4.448907072677964,
        "distance_shoulder_lift_joint": 1.2635553884127086,
        "distance_shoulder_pan_joint": 2.8131037318647807,
        "distance_wrist_1_joint": 3.0428507993424,
        "distance_wrist_2_joint": 1.3148208627277855,
        "distance_wrist_3_joint": 3.6784189200818482,
        "smoothness": 0.40925802880145407,
        "time": 0.16091425199999998,
        "traj_len": 4.069601549919534,
        "weighted_distance": 5.31753385295678
    },
    "planner": "BiEST",
    "start": {
        "state": {
            "elbow_joint": -2.384821988534728,
            "shoulder_lift_joint": -2.2788054721415256,
            "shoulder_pan_joint": -0.1854694642142757,
            "wrist_1_joint": 1.4845938289331202,
            "wrist_2_joint": 0.17898776772866878,
            "wrist_3_joint": 0.037105688729662994
        }
    },
    "waypoints": [
        {
            "positions": [
                -0.1854694642142757,
                -2.2788054721415256,
                -2.384821988534728,
                1.4845938289331202,
                0.17898776772866878,
                0.037105688729662994
            ]
        },
        {
            "positions": [
                -0.14005247852131933,
                -2.263859763023742,
                -2.4244439713864345,
                1.4904884366135986,
                0.10490295305214452,
                -0.05234865541910093
            ]
        },
        {
            "positions": [
                -0.09463549282836294,
                -2.248914053905958,
                -2.4640659542381407,
                1.4963830442940773,
                0.030818138375620252,
                -0.14180299956786485
            ]
        },
        {
            "positions": [
                -0.04921850713540654,
                -2.2339683447881744,
                -2.5036879370898473,
                1.5022776519745558,
                -0.04326667630090403,
                -0.23125734371662882
            ]
        },
        {
            "positions": [
                0.013018488265277899,
                -2.217671917852424,
                -2.369670867741905,
                1.4192021740025913,
                -0.016350446690905435,
                -0.16832136260803698
            ]
        },
        {
            "positions": [
                0.07525548366596234,
                -2.201375490916673,
                -2.2356537983939626,
                1.3361266960306268,
                0.010565782919093158,
                -0.10538538149944512
            ]
        },
        {
            "positions": [
                0.13749247906664677,
                -2.1850790639809228,
                -2.1016367290460205,
                1.2530512180586624,
                0.03748201252909175,
                -0.042449400390853265
            ]
        },
        {
            "positions": [
                0.19972947446733122,
                -2.1687826370451724,
                -1.967619659698078,
                1.169975740086698,
                0.06439824213909034,
                0.020486580717738567
            ]
        },
        {
            "positions": [
                0.26196646986801564,
                -2.1524862101094215,
                -1.8336025903501358,
                1.0869002621147335,
                0.09131447174908894,
                0.0834225618263304
            ]
        },
        {
            "positions": [
                0.3242034652687001,
                -2.136189783173671,
                -1.6995855210021935,
                1.003824784142769,
                0.11823070135908753,
                0.1463585429349223
            ]
        },
        {
            "positions": [
                0.38644046066938453,
                -2.1198933562379207,
                -1.5655684516542512,
                0.9207493061708045,
                0.14514693096908612,
                0.20929452404351412
            ]
        },
        {
            "positions": [
                0.448677456070069,
                -2.10359692930217,
                -1.4315513823063089,
                0.8376738281988401,
                0.17206316057908472,
                0.27223050515210595
            ]
        },
        {
            "positions": [
                0.5109144514707534,
                -2.0873005023664195,
                -1.2975343129583665,
                0.7545983502268756,
                0.1989793901890833,
                0.33516648626069784
            ]
        },
        {
            "positions": [
                0.5731514468714378,
                -2.071004075430669,
                -1.1635172436104242,
                0.6715228722549111,
                0.2258956197990819,
                0.3981024673692896
            ]
        },
        {
            "positions": [
                0.6353884422721223,
                -2.0547076484949187,
                -1.0295001742624819,
                0.5884473942829467,
                0.25281184940908047,
                0.4610384484778815
            ]
        },
        {
            "positions": [
                0.6976254376728067,
                -2.038411221559168,
                -0.8954831049145398,
                0.5053719163109822,
                0.2797280790190791,
                0.5239744295864734
            ]
        },
        {
            "positions": [
                0.7598624330734912,
                -2.0221147946234175,
                -0.7614660355665974,
                0.42229643833901775,
                0.3066443086290777,
                0.5869104106950651
            ]
        },
        {
            "positions": [
                0.8220994284741756,
                -2.005818367687667,
                -0.6274489662186551,
                0.3392209603670533,
                0.3335605382390763,
                0.649846391803657
            ]
        },
        {
            "positions": [
                0.8843364238748601,
                -1.9895219407519165,
                -0.49343189687071254,
                0.25614548239508883,
                0.36047676784907484,
                0.7127823729122489
            ]
        },
        {
            "positions": [
                0.9465734192755445,
                -1.9732255138161658,
                -0.35941482752277043,
                0.17307000442312437,
                0.38739299745907346,
                0.7757183540208408
            ]
        },
        {
            "positions": [
                1.008810414676229,
                -1.9569290868804154,
                -0.22539775817482832,
                0.0899945264511599,
                0.4143092270690721,
                0.8386543351294327
            ]
        },
        {
            "positions": [
                1.0710474100769134,
                -1.9406326599446648,
                -0.09138068882688577,
                0.006919048479195444,
                0.44122545667907065,
                0.9015903162380245
            ]
        },
        {
            "positions": [
                1.133284405477598,
                -1.9243362330089142,
                0.04263638052105634,
                -0.07615642949276902,
                0.4681416862890692,
                0.9645262973466162
            ]
        },
        {
            "positions": [
                1.1955214008782822,
                -1.9080398060731638,
                0.1766534498689989,
                -0.15923190746473348,
                0.49505791589906784,
                1.027462278455208
            ]
        },
        {
            "positions": [
                1.2577583962789667,
                -1.8917433791374132,
                0.310670519216941,
                -0.24230738543669794,
                0.5219741455090665,
                1.0903982595638
            ]
        },
        {
            "positions": [
                1.3199953916796512,
                -1.8754469522016626,
                0.44468758856488355,
                -0.3253828634086624,
                0.548890375119065,
                1.1533342406723919
            ]
        },
        {
            "positions": [
                1.3822323870803357,
                -1.8591505252659122,
                0.5787046579128257,
                -0.40845834138062687,
                0.5758066047290635,
                1.2162702217809838
            ]
        },
        {
            "positions": [
                1.44446938248102,
                -1.8428540983301616,
                0.7127217272607678,
                -0.49153381935259133,
                0.6027228343390623,
                1.2792062028895756
            ]
        },
        {
            "positions": [
                1.5067063778817045,
                -1.826557671394411,
                0.8467387966087103,
                -0.5746092973245556,
                0.6296390639490608,
                1.3421421839981673
            ]
        },
        {
            "positions": [
                1.568943373282389,
                -1.8102612444586605,
                0.9807558659566524,
                -0.6576847752965203,
                0.6565552935590595,
                1.4050781651067592
            ]
        },
        {
            "positions": [
                1.6311803686830733,
                -1.79396481752291,
                1.114772935304595,
                -0.7407602532684849,
                0.683471523169058,
                1.468014146215351
            ]
        },
        {
            "positions": [
                1.6934173640837578,
                -1.7776683905871593,
                1.248790004652537,
                -0.8238357312404492,
                0.7103877527790565,
                1.530950127323943
            ]
        },
        {
            "positions": [
                1.7556543594844423,
                -1.761371963651409,
                1.3828070740004796,
                -0.9069112092124134,
                0.7373039823890553,
                1.5938861084325349
            ]
        },
        {
            "positions": [
                1.8178913548851268,
                -1.7450755367156583,
                1.5168241433484222,
                -0.9899866871843781,
                0.7642202119990538,
                1.6568220895411265
            ]
        },
        {
            "positions": [
                1.880128350285811,
                -1.7287791097799077,
                1.6508412126963639,
                -1.0730621651563428,
                0.7911364416090523,
                1.7197580706497184
            ]
        },
        {
            "positions": [
                1.9423653456864955,
                -1.7124826828441573,
                1.7848582820443064,
                -1.1561376431283068,
                0.818052671219051,
                1.7826940517583103
            ]
        },
        {
            "positions": [
                2.01850633701583,
                -1.635012394053564,
                1.7894688270430499,
                -1.1153874563285178,
                0.8437467902388573,
                1.93781677310949
            ]
        },
        {
            "positions": [
                2.094647328345164,
                -1.5575421052629705,
                1.7940793720417936,
                -1.0746372695287287,
                0.8694409092586638,
                2.0929394944606696
            ]
        },
        {
            "positions": [
                2.1707883196744984,
                -1.4800718164723772,
                1.798689917040537,
                -1.0338870827289397,
                0.8951350282784701,
                2.2480622158118493
            ]
        },
        {
            "positions": [
                2.2469293110038326,
                -1.4026015276817838,
                1.8033004620392805,
                -0.9931368959291506,
                0.9208291472982766,
                2.403184937163029
            ]
        },
        {
            "positions": [
                2.3230703023331674,
                -1.3251312388911904,
                1.8079110070380242,
                -0.9523867091293615,
                0.9465232663180829,
                2.5583076585142086
            ]
        },
        {
            "positions": [
                2.3992112936625016,
                -1.247660950100597,
                1.8125215520367677,
                -0.9116365223295725,
                0.9722173853378893,
                2.7134303798653883
            ]
        },
        {
            "positions": [
                2.475352284991836,
                -1.1701906613100037,
                1.8171320970355112,
                -0.8708863355297833,
                0.9979115043576957,
                2.868553101216568
            ]
        },
        {
            "positions": [
                2.55149327632117,
                -1.0927203725194103,
                1.8217426420342548,
                -0.8301361487299943,
                1.0236056233775022,
                3.0236758225677476
            ]
        },
        {
            "positions": [
                2.6276342676505045,
                -1.015250083728817,
                1.8263531870329983,
                -0.7893859619302053,
                1.0492997423973085,
                3.1787985439189272
            ]
        }
    ]
}