{
    "goal": {
        "global_pose": {
            "orientation": {
                "w": 0.005598929693374612,
                "x": 0.007748599140229565,
                "y": 0.7110244013736278,
                "z": -0.7031023480610252
            },
            "position": {
                "x": 0.1141497679147869,
                "y": -0.7141253447532654,
                "z": 0.3711530566215515
            }
        },
        "name": "move_to_auspresseinheit_B"
    },
    "id": "BiEST_move_to_auspresseinheit_B_93",
    "joint_names": [
        "shoulder_pan_joint",
        "shoulder_lift_joint",
        "elbow_joint",
        "wrist_1_joint",
        "wrist_2_joint",
        "wrist_3_joint"
    ],
    "metrics": {
        "cart_traj_len": 0.5649757648516397,
        "distance_elbow_joint": 0.06410622482536321,
        "distance_shoulder_lift_joint": 0.29518551400948767,
        "distance_shoulder_pan_joint": 0.5783074493306573,
        "distance_wrist_1_joint": 0.3318311826021656,
        "distance_wrist_2_joint": 0.9868123227173218,
        "distance_wrist_3_joint": 0.005337291090529828,
        "smoothness": 5.075305295617109e-16,
        "time": 0.047436818000000006,
        "traj_len": 1.5038550410779377,
        "weighted_distance": 1.8949665094866643
    },
    "planner": "BiEST",
    "start": {
        "state": {
            "elbow_joint": 2.0193083361928714,
            "shoulder_lift_joint": -1.1220246554650708,
            "shoulder_pan_joint": -1.0952077554168747,
            "wrist_1_joint": -0.8559753972642168,
            "wrist_2_joint": 0.4759566250798843,
            "wrist_3_joint": -3.1240929996934557
        }
    },
    "waypoints": [
        {
            "positions": [
                -1.0952077554168747,
                -1.1220246554650708,
                2.0193083361928714,
                -0.8559753972642168,
                0.4759566250798843,
                -3.1240929996934557
            ]
        },
        {
            "positions": [
                -1.1915923303053175,
                -1.1712222411333189,
                2.008623965388644,
                -0.8006702001638558,
                0.6404253455327713,
                -3.1232034511783673
            ]
        },
        {
            "positions": [
                -1.2879769051937604,
                -1.2204198268015667,
                1.997939594584417,
                -0.745365003063495,
                0.8048940659856583,
                -3.122313902663279
            ]
        },
        {
            "positions": [
                -1.3843614800822033,
                -1.2696174124698145,
                1.9872552237801897,
                -0.690059805963134,
                0.9693627864385452,
                -3.121424354148191
            ]
        },
        {
            "positions": [
                -1.4807460549706462,
                -1.3188149981380626,
                1.9765708529759627,
                -0.6347546088627731,
                1.1338315068914322,
                -3.1205348056331026
            ]
        },
        {
            "positions": [
                -1.577130629859089,
                -1.3680125838063106,
                1.9658864821717354,
                -0.579449411762412,
                1.2983002273443192,
                -3.119645257118014
            ]
        },
        {
            "positions": [
                -1.673515204747532,
                -1.4172101694745585,
                1.9552021113675082,
                -0.5241442146620512,
                1.4627689477972061,
                -3.118755708602926
            ]
        }
    ]
}