{
    "goal": {
        "global_pose": {
            "orientation": {
                "w": 0.005598929693374612,
                "x": 0.007748599140229565,
                "y": 0.7110244013736278,
                "z": -0.7031023480610252
            },
            "position": {
                "x": -0.8858502320852131,
                "y": -0.7141253447532654,
                "z": 0.3711530566215515
            }
        },
        "name": "move_to_auspresseinheit_C"
    },
    "id": "BiEST_move_to_auspresseinheit_C_94",
    "joint_names": [
        "shoulder_pan_joint",
        "shoulder_lift_joint",
        "elbow_joint",
        "wrist_1_joint",
        "wrist_2_joint",
        "wrist_3_joint"
    ],
    "metrics": {
        "cart_traj_len": 0.492975234304685,
        "distance_elbow_joint": 0.9920278433774276,
        "distance_shoulder_lift_joint": 0.3203500761898478,
        "distance_shoulder_pan_joint": 0.2566242367998992,
        "distance_wrist_1_joint": 0.6641873953162873,
        "distance_wrist_2_joint": 1.3011155767980531,
        "distance_wrist_3_joint": 0.05392607728287446,
        "smoothness": 8.074349282788172e-16,
        "time": 0.138909492,
        "traj_len": 1.8942627076951046,
        "weighted_distance": 2.3793667923303623
    },
    "planner": "BiEST",
    "start": {
        "state": {
            "elbow_joint": 1.7527959577737207,
            "shoulder_lift_joint": -0.9740617694225068,
            "shoulder_pan_joint": -2.967991417825858,
            "wrist_1_joint": -0.759517768980727,
            "wrist_2_joint": 1.7443932448377408,
            "wrist_3_joint": -3.0840537646736568
        }
    },
    "waypoints": [
        {
            "positions": [
                -2.967991417825858,
                -0.9740617694225068,
                1.7527959577737207,
                -0.759517768980727,
                1.7443932448377408,
                -3.0840537646736568
            ]
        },
        {
            "positions": [
                -2.942328994145868,
                -0.942026761803522,
                1.653593173435978,
                -0.6930990294490983,
                1.6142816871579355,
                -3.089446372401944
            ]
        },
        {
            "positions": [
                -2.9166665704658783,
                -0.9099917541845373,
                1.5543903890982351,
                -0.6266802899174695,
                1.4841701294781302,
                -3.094838980130232
            ]
        },
        {
            "positions": [
                -2.891004146785888,
                -0.8779567465655524,
                1.4551876047604924,
                -0.5602615503858408,
                1.354058571798325,
                -3.100231587858519
            ]
        },
        {
            "positions": [
                -2.865341723105898,
                -0.8459217389465676,
                1.3559848204227496,
                -0.49384281085421206,
                1.2239470141185196,
                -3.1056241955868065
            ]
        },
        {
            "positions": [
                -2.8396792994259084,
                -0.8138867313275828,
                1.2567820360850068,
                -0.4274240713225833,
                1.0938354564387143,
                -3.111016803315094
            ]
        },
        {
            "positions": [
                -2.8140168757459185,
                -0.7818517237085981,
                1.157579251747264,
                -0.36100533179095456,
                0.963723898758909,
                -3.1164094110433815
            ]
        },
        {
            "positions": [
                -2.7883544520659287,
                -0.7498167160896133,
                1.0583764674095213,
                -0.2945865922593259,
                0.8336123410791038,
                -3.121802018771669
            ]
        },
        {
            "positions": [
                -2.7626920283859384,
                -0.7177817084706286,
                0.9591736830717785,
                -0.22816785272769713,
                0.7035007833992983,
                -3.127194626499956
            ]
        },
        {
            "positions": [
                -2.7370296047059486,
                -0.6857467008516438,
                0.8599708987340359,
                -0.16174911319606833,
                0.573389225719493,
                -3.132587234228244
            ]
        },
        {
            "positions": [
                -2.7113671810259588,
                -0.653711693232659,
                0.7607681143962931,
                -0.09533037366443967,
                0.4432776680396878,
                -3.1379798419565312
            ]
        }
    ]
}