{
    "goal": {
        "global_pose": {
            "orientation": {
                "w": 0.7031023480610252,
                "x": -0.7110244013736278,
                "y": 0.0077485991402295624,
                "z": 0.005598929693374583
            },
            "position": {
                "x": -0.8841497679147869,
                "y": 0.44412534475326537,
                "z": 0.3711530566215515
            }
        },
        "name": "move_to_auspresseinheit_D"
    },
    "id": "BiEST_move_to_auspresseinheit_D_2",
    "joint_names": [
        "shoulder_pan_joint",
        "shoulder_lift_joint",
        "elbow_joint",
        "wrist_1_joint",
        "wrist_2_joint",
        "wrist_3_joint"
    ],
    "metrics": {
        "cart_traj_len": 0.34565834057755185,
        "distance_elbow_joint": 0.6779184974465899,
        "distance_shoulder_lift_joint": 0.14344821015885678,
        "distance_shoulder_pan_joint": 0.1340084799022951,
        "distance_wrist_1_joint": 0.6456701780405498,
        "distance_wrist_2_joint": 1.4430977008419819,
        "distance_wrist_3_joint": 0.09732581036685817,
        "smoothness": 1.7763568382648015e-15,
        "time": 0.092243404,
        "traj_len": 1.772418933761748,
        "weighted_distance": 2.329138977470726
    },
    "planner": "BiEST",
    "start": {
        "state": {
            "elbow_joint": -1.8275523626775212,
            "shoulder_lift_joint": -2.126789852344167,
            "shoulder_pan_joint": -0.03513704404078235,
            "wrist_1_joint": -2.347782403156801,
            "wrist_2_joint": -1.6058999987535132,
            "wrist_3_joint": -3.0880379163319196
        }
    },
    "waypoints": [
        {
            "positions": [
                -0.03513704404078235,
                -2.126789852344167,
                -1.8275523626775212,
                -2.347782403156801,
                -1.6058999987535132,
                -3.0880379163319196
            ]
        },
        {
            "positions": [
                -0.051888104028569235,
                -2.1447208786140237,
                -1.7428125504966974,
                -2.4284911754118697,
                -1.4255127861482655,
                -3.0758721900360624
            ]
        },
        {
            "positions": [
                -0.06863916401635613,
                -2.162651904883881,
                -1.6580727383158738,
                -2.5091999476669384,
                -1.2451255735430178,
                -3.063706463740205
            ]
        },
        {
            "positions": [
                -0.085390224004143,
                -2.1805829311537384,
                -1.57333292613505,
                -2.589908719922007,
                -1.06473836093777,
                -3.051540737444348
            ]
        },
        {
            "positions": [
                -0.1021412839919299,
                -2.1985139574235952,
                -1.4885931139542263,
                -2.670617492177076,
                -0.8843511483325223,
                -3.0393750111484907
            ]
        },
        {
            "positions": [
                -0.11889234397971679,
                -2.216444983693452,
                -1.4038533017734025,
                -2.7513262644321443,
                -0.7039639357272746,
                -3.027209284852633
            ]
        },
        {
            "positions": [
                -0.13564340396750368,
                -2.2343760099633094,
                -1.3191134895925787,
                -2.832035036687213,
                -0.5235767231220267,
                -3.015043558556776
            ]
        },
        {
            "positions": [
                -0.15239446395529058,
                -2.2523070362331667,
                -1.2343736774117549,
                -2.912743808942282,
                -0.34318951051677904,
                -3.0028778322609186
            ]
        },
        {
            "positions": [
                -0.16914552394307747,
                -2.2702380625030236,
                -1.1496338652309313,
                -2.9934525811973507,
                -0.16280229791153134,
                -2.9907121059650614
            ]
        }
    ]
}