{
    "goal": {
        "global_pose": {
            "orientation": {
                "w": -0.4816463035849501,
                "x": 0.5182115481033762,
                "y": 0.4908360881923453,
                "z": -0.5084816262002911
            },
            "position": {
                "x": -0.8240239810943604,
                "y": 0.19912469901144506,
                "z": 0.16403168439865112
            }
        },
        "name": "move_to_storage_D"
    },
    "id": "BiEST_move_to_storage_D_106",
    "joint_names": [
        "shoulder_pan_joint",
        "shoulder_lift_joint",
        "elbow_joint",
        "wrist_1_joint",
        "wrist_2_joint",
        "wrist_3_joint"
    ],
    "metrics": {
        "cart_traj_len": 3.9108500775910766,
        "distance_elbow_joint": 4.302510926785036,
        "distance_shoulder_lift_joint": 1.2650191140323144,
        "distance_shoulder_pan_joint": 2.812617261698448,
        "distance_wrist_1_joint": 2.7964021396644716,
        "distance_wrist_2_joint": 0.8733129407256389,
        "distance_wrist_3_joint": 3.129415423170741,
        "smoothness": 0.11124308411788979,
        "time": 0.147829181,
        "traj_len": 3.8960592662428333,
        "weighted_distance": 5.010770772327172
    },
    "planner": "BiEST",
    "start": {
        "state": {
            "elbow_joint": -2.384821988534728,
            "shoulder_lift_joint": -2.2788054721415256,
            "shoulder_pan_joint": -0.1854694642142757,
            "wrist_1_joint": 1.4845938289331202,
            "wrist_2_joint": 0.17898776772866878,
            "wrist_3_joint": 0.037105688729662994
        }
    },
    "waypoints": [
        {
            "positions": [
                -0.1854694642142757,
                -2.2788054721415256,
                -2.384821988534728,
                1.4845938289331202,
                0.17898776772866878,
                0.037105688729662994
            ]
        },
        {
            "positions": [
                -0.07454012836881008,
                -2.2171467135711738,
                -2.3996777987206843,
                1.4663694306511827,
                0.2268544590249412,
                0.014848180682396253
            ]
        },
        {
            "positions": [
                0.036389207476655555,
                -2.155487955000822,
                -2.414533608906641,
                1.4481450323692455,
                0.27472115032121364,
                -0.007409327364870488
            ]
        },
        {
            "positions": [
                0.14731854332212124,
                -2.09382919643047,
                -2.4293894190925975,
                1.429920634087308,
                0.32258784161748605,
                -0.02966683541213723
            ]
        },
        {
            "positions": [
                0.21806013683296227,
                -2.0612192274648007,
                -2.3166287446125367,
                1.3470164307045769,
                0.3313108271492259,
                -0.11191342185162377
            ]
        },
        {
            "positions": [
                0.2888017303438033,
                -2.028609258499131,
                -2.2038680701324758,
                1.2641122273218457,
                0.3400338126809658,
                -0.1941600082911103
            ]
        },
        {
            "positions": [
                0.3595433238546444,
                -1.9959992895334615,
                -2.091107395652415,
                1.1812080239391145,
                0.3487567982127056,
                -0.27640659473059687
            ]
        },
        {
            "positions": [
                0.4302849173654854,
                -1.963389320567792,
                -1.978346721172354,
                1.0983038205563833,
                0.3574797837444455,
                -0.3586531811700834
            ]
        },
        {
            "positions": [
                0.5010265108763264,
                -1.9307793516021223,
                -1.865586046692293,
                1.0153996171736521,
                0.36620276927618534,
                -0.4408997676095699
            ]
        },
        {
            "positions": [
                0.5717681043871675,
                -1.8981693826364527,
                -1.7528253722122322,
                0.9324954137909207,
                0.3749257548079252,
                -0.5231463540490565
            ]
        },
        {
            "positions": [
                0.6425096978980085,
                -1.8655594136707832,
                -1.6400646977321713,
                0.8495912104081895,
                0.38364874033966506,
                -0.605392940488543
            ]
        },
        {
            "positions": [
                0.7132512914088496,
                -1.8329494447051138,
                -1.5273040232521105,
                0.7666870070254583,
                0.3923717258714049,
                -0.6876395269280295
            ]
        },
        {
            "positions": [
                0.7839928849196905,
                -1.8003394757394442,
                -1.4145433487720496,
                0.6837828036427271,
                0.4010947114031448,
                -0.769886113367516
            ]
        },
        {
            "positions": [
                0.8547344784305316,
                -1.7677295067737746,
                -1.3017826742919887,
                0.600878600259996,
                0.4098176969348846,
                -0.8521326998070026
            ]
        },
        {
            "positions": [
                0.9254760719413726,
                -1.735119537808105,
                -1.1890219998119278,
                0.5179743968772648,
                0.4185406824666245,
                -0.934379286246489
            ]
        },
        {
            "positions": [
                0.9962176654522138,
                -1.7025095688424354,
                -1.076261325331867,
                0.43507019349453335,
                0.42726366799836435,
                -1.0166258726859758
            ]
        },
        {
            "positions": [
                1.0669592589630548,
                -1.669899599876766,
                -0.963500650851806,
                0.35216599011180216,
                0.43598665353010424,
                -1.0988724591254622
            ]
        },
        {
            "positions": [
                1.1377008524738959,
                -1.6372896309110965,
                -0.8507399763717451,
                0.269261786729071,
                0.4447096390618441,
                -1.1811190455649487
            ]
        },
        {
            "positions": [
                1.208442445984737,
                -1.6046796619454269,
                -0.7379793018916843,
                0.18635758334633978,
                0.4534326245935839,
                -1.2633656320044353
            ]
        },
        {
            "positions": [
                1.2791840394955778,
                -1.5720696929797573,
                -0.6252186274116234,
                0.1034533799636086,
                0.4621556101253238,
                -1.3456122184439219
            ]
        },
        {
            "positions": [
                1.3499256330064187,
                -1.5394597240140877,
                -0.5124579529315625,
                0.020549176580877404,
                0.4708785956570637,
                -1.4278588048834084
            ]
        },
        {
            "positions": [
                1.42066722651726,
                -1.5068497550484183,
                -0.3996972784515016,
                -0.062355026801853786,
                0.47960158118880347,
                -1.5101053913228948
            ]
        },
        {
            "positions": [
                1.4914088200281008,
                -1.4742397860827487,
                -0.2869366039714407,
                -0.14525923018458498,
                0.48832456672054336,
                -1.5923519777623814
            ]
        },
        {
            "positions": [
                1.5621504135389421,
                -1.4416298171170792,
                -0.17417592949137983,
                -0.22816343356731617,
                0.49704755225228325,
                -1.674598564201868
            ]
        },
        {
            "positions": [
                1.632892007049783,
                -1.4090198481514098,
                -0.06141525501131895,
                -0.31106763695004735,
                0.5057705377840231,
                -1.7568451506413545
            ]
        },
        {
            "positions": [
                1.7036336005606239,
                -1.37640987918574,
                0.05134541946874194,
                -0.39397184033277854,
                0.5144935233157629,
                -1.8390917370808408
            ]
        },
        {
            "positions": [
                1.7743751940714652,
                -1.3437999102200706,
                0.16410609394880282,
                -0.4768760437155102,
                0.5232165088475028,
                -1.9213383235203279
            ]
        },
        {
            "positions": [
                1.8451167875823065,
                -1.3111899412544008,
                0.2768667684288637,
                -0.5597802470982414,
                0.5319394943792427,
                -2.003584909959814
            ]
        },
        {
            "positions": [
                1.9158583810931473,
                -1.2785799722887314,
                0.3896274429089246,
                -0.6426844504809726,
                0.5406624799109825,
                -2.085831496399301
            ]
        },
        {
            "positions": [
                1.9865999746039882,
                -1.2459700033230618,
                0.5023881173889855,
                -0.7255886538637037,
                0.5493854654427224,
                -2.1680780828387873
            ]
        },
        {
            "positions": [
                2.0573415681148295,
                -1.2133600343573923,
                0.6151487918690464,
                -0.8084928572464349,
                0.5581084509744623,
                -2.250324669278274
            ]
        },
        {
            "positions": [
                2.1280831616256703,
                -1.180750065391723,
                0.7279094663491072,
                -0.8913970606291661,
                0.5668314365062022,
                -2.3325712557177605
            ]
        },
        {
            "positions": [
                2.1988247551365117,
                -1.1481400964260533,
                0.8406701408291681,
                -0.9743012640118973,
                0.575554422037942,
                -2.4148178421572473
            ]
        },
        {
            "positions": [
                2.2695663486473525,
                -1.1155301274603837,
                0.9534308153092288,
                -1.0572054673946287,
                0.5842774075696818,
                -2.4970644285967336
            ]
        },
        {
            "positions": [
                2.3206494127668984,
                -1.1009953032673592,
                1.0784484241414203,
                -1.0208336326322396,
                0.6511378791246284,
                -2.5820994722887827
            ]
        },
        {
            "positions": [
                2.371732476886444,
                -1.0864604790743344,
                1.2034660329736118,
                -0.9844617978698506,
                0.717998350679575,
                -2.667134515980832
            ]
        },
        {
            "positions": [
                2.4228155410059897,
                -1.0719256548813099,
                1.3284836418058033,
                -0.9480899631074614,
                0.7848588222345214,
                -2.7521695596728812
            ]
        },
        {
            "positions": [
                2.473898605125535,
                -1.057390830688285,
                1.4535012506379947,
                -0.9117181283450724,
                0.851719293789468,
                -2.8372046033649303
            ]
        },
        {
            "positions": [
                2.524981669245081,
                -1.0428560064952606,
                1.5785188594701862,
                -0.8753462935826832,
                0.9185797653444145,
                -2.92223964705698
            ]
        },
        {
            "positions": [
                2.5760647333646265,
                -1.0283211823022358,
                1.7035364683023777,
                -0.8389744588202942,
                0.9854402368993611,
                -3.007274690749029
            ]
        },
        {
            "positions": [
                2.6271477974841724,
                -1.0137863581092112,
                1.8285540771345692,
                -0.8026026240579051,
                1.0523007084543077,
                -3.092309734441078
            ]
        }
    ]
}