{
    "goal": {
        "global_pose": {
            "orientation": {
                "w": 0.7047431468963623,
                "x": -0.7094548344612122,
                "y": 0.0024358443915843964,
                "z": -0.0022348060738295317
            },
            "position": {
                "x": 0.6094750761985779,
                "y": 0.3671506643295288,
                "z": 0.19426114857196808
            }
        },
        "name": "move_to_magneteinheit_A"
    },
    "id": "BiEST_move_to_magneteinheit_A_58",
    "joint_names": [
        "shoulder_pan_joint",
        "shoulder_lift_joint",
        "elbow_joint",
        "wrist_1_joint",
        "wrist_2_joint",
        "wrist_3_joint"
    ],
    "metrics": {
        "cart_traj_len": 3.4731367882016007,
        "distance_elbow_joint": 3.893006103520891,
        "distance_shoulder_lift_joint": 1.2797357217830898,
        "distance_shoulder_pan_joint": 3.2258135924353746,
        "distance_wrist_1_joint": 1.0109460284079983,
        "distance_wrist_2_joint": 5.3268277289911,
        "distance_wrist_3_joint": 2.6487562024383267,
        "smoothness": 0.2947512115958114,
        "time": 0.11895407999999999,
        "traj_len": 4.169542586133014,
        "weighted_distance": 5.387055925071927
    },
    "planner": "BiEST",
    "start": {
        "state": {
            "elbow_joint": -1.9196185241190666,
            "shoulder_lift_joint": -1.2443396400964142,
            "shoulder_pan_joint": 2.6996025414629847,
            "wrist_1_joint": -1.5485510000780065,
            "wrist_2_joint": -1.5709468930060704,
            "wrist_3_joint": 0.4420197071253992
        }
    },
    "waypoints": [
        {
            "positions": [
                2.6996025414629847,
                -1.2443396400964142,
                -1.9196185241190666,
                -1.5485510000780065,
                -1.5709468930060704,
                0.4420197071253992
            ]
        },
        {
            "positions": [
                2.595966017744757,
                -1.265342199382738,
                -1.7858587572994828,
                -1.5530162774291885,
                -1.4454100715736937,
                0.4492630973466178
            ]
        },
        {
            "positions": [
                2.4923294940265297,
                -1.286344758669062,
                -1.652098990479899,
                -1.5574815547803704,
                -1.319873250141317,
                0.45650648756783635
            ]
        },
        {
            "positions": [
                2.388692970308302,
                -1.3073473179553858,
                -1.518339223660315,
                -1.5619468321315524,
                -1.1943364287089404,
                0.46374987778905497
            ]
        },
        {
            "positions": [
                2.2850564465900747,
                -1.3283498772417097,
                -1.3845794568407312,
                -1.5664121094827343,
                -1.0687996072765635,
                0.4709932680102736
            ]
        },
        {
            "positions": [
                2.181419922871847,
                -1.3493524365280336,
                -1.2508196900211472,
                -1.570877386833916,
                -0.9432627858441869,
                0.4782366582314922
            ]
        },
        {
            "positions": [
                2.0777833991536196,
                -1.3703549958143575,
                -1.1170599232015634,
                -1.575342664185098,
                -0.8177259644118103,
                0.48548004845271076
            ]
        },
        {
            "positions": [
                1.974146875435392,
                -1.3913575551006814,
                -0.9833001563819797,
                -1.57980794153628,
                -0.6921891429794336,
                0.49272343867392937
            ]
        },
        {
            "positions": [
                1.8705103517171642,
                -1.4123601143870053,
                -0.8495403895623959,
                -1.584273218887462,
                -0.5666523215470569,
                0.499966828895148
            ]
        },
        {
            "positions": [
                1.7668738279989367,
                -1.4333626736733291,
                -0.7157806227428118,
                -1.588738496238644,
                -0.44111550011468004,
                0.5072102191163665
            ]
        },
        {
            "positions": [
                1.6632373042807092,
                -1.454365232959653,
                -0.582020855923228,
                -1.593203773589826,
                -0.3155786786823034,
                0.5144536093375852
            ]
        },
        {
            "positions": [
                1.5596007805624816,
                -1.475367792245977,
                -0.44826108910364426,
                -1.5976690509410079,
                -0.19004185724992695,
                0.5216969995588038
            ]
        },
        {
            "positions": [
                1.4559642568442541,
                -1.4963703515323008,
                -0.31450132228406047,
                -1.6021343282921898,
                -0.0645050358175503,
                0.5289403897800223
            ]
        },
        {
            "positions": [
                1.3523277331260264,
                -1.5173729108186245,
                -0.18074155546447646,
                -1.6065996056433718,
                0.061031785614826584,
                0.536183780001241
            ]
        },
        {
            "positions": [
                1.2486912094077989,
                -1.5383754701049486,
                -0.046981788644892664,
                -1.6110648829945537,
                0.18656860704720324,
                0.5434271702224596
            ]
        },
        {
            "positions": [
                1.1450546856895714,
                -1.5593780293912722,
                0.08677797817469113,
                -1.6155301603457355,
                0.3121054284795799,
                0.5506705604436781
            ]
        },
        {
            "positions": [
                1.0414181619713438,
                -1.5803805886775961,
                0.22053774499427492,
                -1.6199954376969175,
                0.43764224991195655,
                0.5579139506648968
            ]
        },
        {
            "positions": [
                0.9377816382531163,
                -1.60138314796392,
                0.3542975118138587,
                -1.6244607150480994,
                0.5631790713443332,
                0.5651573408861154
            ]
        },
        {
            "positions": [
                0.8341451145348886,
                -1.6223857072502441,
                0.48805727863344295,
                -1.6289259923992814,
                0.6887158927767103,
                0.572400731107334
            ]
        },
        {
            "positions": [
                0.7305085908166611,
                -1.6433882665365678,
                0.6218170454530267,
                -1.6333912697504633,
                0.814252714209087,
                0.5796441213285526
            ]
        },
        {
            "positions": [
                0.6268720670984336,
                -1.6643908258228917,
                0.7555768122726105,
                -1.6378565471016453,
                0.9397895356414636,
                0.5868875115497711
            ]
        },
        {
            "positions": [
                0.5232355433802058,
                -1.6853933851092155,
                0.8893365790921943,
                -1.6423218244528273,
                1.0653263570738403,
                0.5941309017709897
            ]
        },
        {
            "positions": [
                0.41959901966197855,
                -1.7063959443955394,
                1.0230963459117781,
                -1.6467871018040092,
                1.1908631785062165,
                0.6013742919922084
            ]
        },
        {
            "positions": [
                0.3159624959437508,
                -1.7273985036818633,
                1.156856112731362,
                -1.6512523791551912,
                1.3163999999385931,
                0.6086176822134269
            ]
        },
        {
            "positions": [
                0.21232597222552352,
                -1.7484010629681872,
                1.2906158795509457,
                -1.655717656506373,
                1.4419368213709698,
                0.6158610724346456
            ]
        },
        {
            "positions": [
                0.10868944850729578,
                -1.769403622254511,
                1.42437564637053,
                -1.6601829338575549,
                1.567473642803347,
                0.6231044626558642
            ]
        },
        {
            "positions": [
                0.005052924789068047,
                -1.790406181540835,
                1.5581354131901137,
                -1.6646482112087368,
                1.6930104642357235,
                0.6303478528770827
            ]
        },
        {
            "positions": [
                -0.09858359892915924,
                -1.8114087408271589,
                1.6918951800096975,
                -1.6691134885599188,
                1.8185472856681002,
                0.6375912430983014
            ]
        },
        {
            "positions": [
                -0.20222012264738698,
                -1.8324113001134827,
                1.8256549468292813,
                -1.6735787659111008,
                1.9440841071004766,
                0.64483463331952
            ]
        },
        {
            "positions": [
                -0.1832095123135211,
                -1.7915234831801787,
                1.8346046967921248,
                -1.621187292710296,
                1.8370792040266228,
                0.7895805773178346
            ]
        },
        {
            "positions": [
                -0.16419890197965517,
                -1.7506356662468745,
                1.8435544467549683,
                -1.5687958195094913,
                1.730074300952769,
                0.9343265213161491
            ]
        },
        {
            "positions": [
                -0.14518829164578928,
                -1.7097478493135705,
                1.8525041967178117,
                -1.5164043463086865,
                1.6230693978789152,
                1.0790724653144637
            ]
        },
        {
            "positions": [
                -0.12617768131192336,
                -1.6688600323802663,
                1.8614539466806552,
                -1.4640128731078816,
                1.5160644948050614,
                1.2238184093127784
            ]
        },
        {
            "positions": [
                -0.10716707097805747,
                -1.6279722154469622,
                1.8704036966434987,
                -1.411621399907077,
                1.4090595917312077,
                1.368564353311093
            ]
        },
        {
            "positions": [
                -0.08815646064419158,
                -1.587084398513658,
                1.8793534466063422,
                -1.3592299267062722,
                1.3020546886573536,
                1.5133102973094075
            ]
        },
        {
            "positions": [
                -0.06914585031032566,
                -1.546196581580354,
                1.8883031965691857,
                -1.3068384535054673,
                1.1950497855834998,
                1.658056241307722
            ]
        },
        {
            "positions": [
                -0.05013523997645977,
                -1.50530876464705,
                1.8972529465320291,
                -1.2544469803046625,
                1.088044882509646,
                1.8028021853060365
            ]
        },
        {
            "positions": [
                -0.031124629642593882,
                -1.4644209477137458,
                1.9062026964948726,
                -1.202055507103858,
                0.9810399794357922,
                1.947548129304351
            ]
        },
        {
            "positions": [
                -0.012114019308727964,
                -1.4235331307804415,
                1.915152446457716,
                -1.149664033903053,
                0.8740350763619384,
                2.0922940733026656
            ]
        },
        {
            "positions": [
                0.006896591025137927,
                -1.3826453138471375,
                1.9241021964205596,
                -1.0972725607022484,
                0.7670301732880846,
                2.2370400173009806
            ]
        },
        {
            "positions": [
                0.025907201359003817,
                -1.3417574969138335,
                1.933051946383403,
                -1.0448810875014436,
                0.6600252702142306,
                2.381785961299295
            ]
        },
        {
            "positions": [
                0.044917811692869736,
                -1.3008696799805293,
                1.9420016963462465,
                -0.9924896143006388,
                0.5530203671403768,
                2.5265319052976096
            ]
        },
        {
            "positions": [
                0.06392842202673565,
                -1.2599818630472253,
                1.95095144630909,
                -0.940098141099834,
                0.44601546406652304,
                2.671277849295924
            ]
        },
        {
            "positions": [
                0.08293903236060152,
                -1.2190940461139212,
                1.9599011962719335,
                -0.8877066678990292,
                0.33901056099266924,
                2.8160237932942387
            ]
        },
        {
            "positions": [
                0.10194964269446743,
                -1.178206229180617,
                1.968850946234777,
                -0.8353151946982245,
                0.2320056579188155,
                2.960769737292553
            ]
        },
        {
            "positions": [
                0.12177080567761665,
                -1.1407472383474615,
                1.9733875794018279,
                -0.7876605033361967,
                0.1322873782159232,
                3.090775909563726
            ]
        }
    ]
}