{
    "goal": {
        "global_pose": {
            "orientation": {
                "w": -0.00223480608172531,
                "x": 0.0024358444001904467,
                "y": 0.7094548369677653,
                "z": -0.704743149386269
            },
            "position": {
                "x": 0.6205249238014221,
                "y": -0.6371506643295288,
                "z": 0.19426114857196808
            }
        },
        "name": "move_to_magneteinheit_B"
    },
    "id": "BiEST_move_to_magneteinheit_B_127",
    "joint_names": [
        "shoulder_pan_joint",
        "shoulder_lift_joint",
        "elbow_joint",
        "wrist_1_joint",
        "wrist_2_joint",
        "wrist_3_joint"
    ],
    "metrics": {
        "cart_traj_len": 1.5107487878114592,
        "distance_elbow_joint": 0.9612400059034698,
        "distance_shoulder_lift_joint": 0.9467194496767376,
        "distance_shoulder_pan_joint": 1.6198782869525294,
        "distance_wrist_1_joint": 0.18228765235623134,
        "distance_wrist_2_joint": 1.5252055609718604,
        "distance_wrist_3_joint": 0.02986371444305879,
        "smoothness": 0.34542683130959556,
        "time": 0.19578563,
        "traj_len": 2.2946012007108965,
        "weighted_distance": 2.651870153781685
    },
    "planner": "BiEST",
    "start": {
        "state": {
            "elbow_joint": 2.6216224122426386,
            "shoulder_lift_joint": -1.4174107377796124,
            "shoulder_pan_joint": 0.7066234856936794,
            "wrist_1_joint": 1.9546482284002225,
            "wrist_2_joint": -0.7096286983471962,
            "wrist_3_joint": 0.005740856962016249
        }
    },
    "waypoints": [
        {
            "positions": [
                0.7066234856936794,
                -1.4174107377796124,
                2.6216224122426386,
                1.9546482284002225,
                -0.7096286983471962,
                0.005740856962016249
            ]
        },
        {
            "positions": [
                0.6268759879930725,
                -1.4484267025619109,
                2.599556878923659,
                1.9712243184828093,
                -0.7350444557879054,
                0.01527337035981331
            ]
        },
        {
            "positions": [
                0.5354180344729405,
                -1.479687991214311,
                2.563830403479068,
                1.99028934756481,
                -0.7457152463911686,
                0.005305834886122107
            ]
        },
        {
            "positions": [
                0.44396008095280837,
                -1.5109492798667112,
                2.528103928034477,
                2.0093543766468107,
                -0.7563860369944317,
                -0.004661700587569095
            ]
        },
        {
            "positions": [
                0.3308588407685035,
                -1.4398508709009081,
                2.455793801226535,
                2.0199861686559477,
                -0.8795900555214838,
                -0.004628689746079151
            ]
        },
        {
            "positions": [
                0.21775760058419866,
                -1.3687524619351048,
                2.383483674418592,
                2.0306179606650847,
                -1.002794074048536,
                -0.004595678904589207
            ]
        },
        {
            "positions": [
                0.10465636039989379,
                -1.2976540529693015,
                2.31117354761065,
                2.0412497526742213,
                -1.125998092575588,
                -0.0045626680630992626
            ]
        },
        {
            "positions": [
                -0.008444879784411052,
                -1.2265556440034984,
                2.2388634208027076,
                2.0518815446833583,
                -1.24920211110264,
                -0.004529657221609318
            ]
        },
        {
            "positions": [
                -0.121546119968716,
                -1.155457235037695,
                2.1665532939947654,
                2.0625133366924953,
                -1.372406129629692,
                -0.004496646380119374
            ]
        },
        {
            "positions": [
                -0.2346473601530208,
                -1.084358826071892,
                2.094243167186823,
                2.0731451287016323,
                -1.4956101481567443,
                -0.00446363553862943
            ]
        },
        {
            "positions": [
                -0.3477486003373257,
                -1.0132604171060886,
                2.0219330403788804,
                2.0837769207107693,
                -1.6188141666837963,
                -0.004430624697139485
            ]
        },
        {
            "positions": [
                -0.46084984052163047,
                -0.9421620081402855,
                1.9496229135709382,
                2.0944087127199063,
                -1.7420181852108483,
                -0.0043976138556495415
            ]
        },
        {
            "positions": [
                -0.5739510807059354,
                -0.8710635991744822,
                1.877312786762996,
                2.1050405047290432,
                -1.8652222037379005,
                -0.004364603014159597
            ]
        },
        {
            "positions": [
                -0.6870523208902404,
                -0.799965190208679,
                1.8050026599550535,
                2.11567229673818,
                -1.9884262222649525,
                -0.0043315921726696524
            ]
        },
        {
            "positions": [
                -0.8001535610745449,
                -0.7288667812428757,
                1.732692533147111,
                2.126304088747317,
                -2.1116302407920045,
                -0.004298581331179709
            ]
        },
        {
            "positions": [
                -0.91325480125885,
                -0.6577683722770725,
                1.6603824063391688,
                2.136935880756454,
                -2.2348342593190567,
                -0.004265570489689764
            ]
        }
    ]
}