{
    "goal": {
        "global_pose": {
            "orientation": {
                "w": 0.7047431493862688,
                "x": -0.7094548369677653,
                "y": 0.0024358444001904,
                "z": -0.0022348060817251984
            },
            "position": {
                "x": -0.39052492380142206,
                "y": 0.3671506643295288,
                "z": 0.19426114857196808
            }
        },
        "name": "move_to_magneteinheit_D"
    },
    "id": "BiEST_move_to_magneteinheit_D_141",
    "joint_names": [
        "shoulder_pan_joint",
        "shoulder_lift_joint",
        "elbow_joint",
        "wrist_1_joint",
        "wrist_2_joint",
        "wrist_3_joint"
    ],
    "metrics": {
        "cart_traj_len": 4.708618140487715,
        "distance_elbow_joint": 3.1573952407003008,
        "distance_shoulder_lift_joint": 1.6885354111353703,
        "distance_shoulder_pan_joint": 2.9781137522524097,
        "distance_wrist_1_joint": 1.5602619165627536,
        "distance_wrist_2_joint": 0.32319686831117045,
        "distance_wrist_3_joint": 3.457404535194902,
        "smoothness": 0.5321664867216418,
        "time": 0.182253842,
        "traj_len": 3.6283477953687,
        "weighted_distance": 4.686488619363184
    },
    "planner": "BiEST",
    "start": {
        "state": {
            "elbow_joint": 0.749534889911806,
            "shoulder_lift_joint": -0.6476975780787326,
            "shoulder_pan_joint": -2.711696901376241,
            "wrist_1_joint": -0.07506478083263063,
            "wrist_2_joint": 0.43296659715538205,
            "wrist_3_joint": -3.14703540197715
        }
    },
    "waypoints": [
        {
            "positions": [
                -2.711696901376241,
                -0.6476975780787326,
                0.749534889911806,
                -0.07506478083263063,
                0.43296659715538205,
                -3.14703540197715
            ]
        },
        {
            "positions": [
                -2.7248478416417696,
                -0.6914973541373315,
                0.6886735840517685,
                -0.0490709757913337,
                0.4140693357477566,
                -3.0381841032021786
            ]
        },
        {
            "positions": [
                -2.7379987819072977,
                -0.7352971301959305,
                0.6278122781917311,
                -0.023077170750036777,
                0.39517207434013124,
                -2.9293328044272076
            ]
        },
        {
            "positions": [
                -2.7511497221728263,
                -0.7790969062545293,
                0.5669509723316937,
                0.002916634291260163,
                0.3762748129325058,
                -2.820481505652236
            ]
        },
        {
            "positions": [
                -2.6355502567484455,
                -0.8351223390878707,
                0.4874640877244414,
                0.019190868956233887,
                0.37582523592202927,
                -2.70845282102768
            ]
        },
        {
            "positions": [
                -2.5199507913240646,
                -0.891147771921212,
                0.40797720311718905,
                0.03546510362120761,
                0.37537565891155267,
                -2.5964241364031238
            ]
        },
        {
            "positions": [
                -2.404351325899684,
                -0.9471732047545534,
                0.3284903185099367,
                0.05173933828618134,
                0.3749260819010761,
                -2.4843954517785676
            ]
        },
        {
            "positions": [
                -2.288751860475303,
                -1.0031986375878947,
                0.24900343390268442,
                0.06801357295115507,
                0.3744765048905996,
                -2.3723667671540114
            ]
        },
        {
            "positions": [
                -2.173152395050922,
                -1.0592240704212361,
                0.16951654929543214,
                0.08428780761612878,
                0.374026927880123,
                -2.2603380825294552
            ]
        },
        {
            "positions": [
                -2.0575529296265413,
                -1.1152495032545775,
                0.0900296646881798,
                0.10056204228110252,
                0.37357735086964644,
                -2.148309397904899
            ]
        },
        {
            "positions": [
                -1.9419534642021605,
                -1.1712749360879189,
                0.01054278008092746,
                0.11683627694607623,
                0.3731277738591699,
                -2.036280713280343
            ]
        },
        {
            "positions": [
                -1.82635399877778,
                -1.2273003689212603,
                -0.06894410452632482,
                0.13311051161104995,
                0.37267819684869335,
                -1.924252028655787
            ]
        },
        {
            "positions": [
                -1.710754533353399,
                -1.2833258017546014,
                -0.14843098913357722,
                0.1493847462760237,
                0.37222861983821676,
                -1.8122233440312308
            ]
        },
        {
            "positions": [
                -1.5951550679290183,
                -1.3393512345879428,
                -0.2279178737408294,
                0.1656589809409974,
                0.3717790428277402,
                -1.7001946594066746
            ]
        },
        {
            "positions": [
                -1.4795556025046375,
                -1.3953766674212842,
                -0.3074047583480818,
                0.18193321560597112,
                0.37132946581726367,
                -1.5881659747821184
            ]
        },
        {
            "positions": [
                -1.3639561370802566,
                -1.4514021002546256,
                -0.38689164295533407,
                0.19820745027094486,
                0.3708798888067871,
                -1.4761372901575622
            ]
        },
        {
            "positions": [
                -1.248356671655876,
                -1.507427533087967,
                -0.46637852756258624,
                0.21448168493591857,
                0.37043031179631053,
                -1.3641086055330063
            ]
        },
        {
            "positions": [
                -1.132757206231495,
                -1.5634529659213083,
                -0.5458654121698387,
                0.2307559196008923,
                0.369980734785834,
                -1.2520799209084499
            ]
        },
        {
            "positions": [
                -1.0171577408071142,
                -1.6194783987546497,
                -0.625352296777091,
                0.24703015426586603,
                0.3695311577753574,
                -1.1400512362838937
            ]
        },
        {
            "positions": [
                -0.9015582753827336,
                -1.6755038315879909,
                -0.7048391813843433,
                0.26330438893083974,
                0.36908158076488085,
                -1.0280225516593378
            ]
        },
        {
            "positions": [
                -0.7859588099583528,
                -1.7315292644213323,
                -0.7843260659915956,
                0.2795786235958135,
                0.3686320037544043,
                -0.9159938670347816
            ]
        },
        {
            "positions": [
                -0.670359344533972,
                -1.7875546972546736,
                -0.8638129505988481,
                0.2958528582607872,
                0.36818242674392776,
                -0.8039651824102254
            ]
        },
        {
            "positions": [
                -0.5547598791095911,
                -1.8435801300880152,
                -0.9432998352061004,
                0.3121270929257609,
                0.36773284973345116,
                -0.6919364977856692
            ]
        },
        {
            "positions": [
                -0.4391604136852103,
                -1.8996055629213564,
                -1.0227867198133525,
                0.32840132759073465,
                0.3672832727229746,
                -0.5799078131611131
            ]
        },
        {
            "positions": [
                -0.3235609482608295,
                -1.9556309957546976,
                -1.1022736044206047,
                0.34467556225570833,
                0.3668336957124981,
                -0.4678791285365569
            ]
        },
        {
            "positions": [
                -0.20796148283644866,
                -2.011656428588039,
                -1.1817604890278572,
                0.3609497969206821,
                0.3663841187020215,
                -0.3558504439120007
            ]
        },
        {
            "positions": [
                -0.09236201741206791,
                -2.0676818614213803,
                -1.2612473736351095,
                0.3772240315856558,
                0.36593454169154493,
                -0.24382175928744457
            ]
        },
        {
            "positions": [
                -0.08064814458876945,
                -2.095071564996206,
                -1.4025514773979526,
                0.48747981346649205,
                0.3477688559865532,
                -0.19235216973679253
            ]
        },
        {
            "positions": [
                -0.068934271765471,
                -2.1224612685710316,
                -1.5438555811607957,
                0.5977355953473282,
                0.3296031702815615,
                -0.1408825801861405
            ]
        },
        {
            "positions": [
                -0.05722039894217255,
                -2.149850972145857,
                -1.6851596849236388,
                0.7079913772281645,
                0.3114374845765697,
                -0.08941299063548847
            ]
        },
        {
            "positions": [
                -0.04550652611887409,
                -2.177240675720683,
                -1.8264637886864818,
                0.8182471591090006,
                0.293271798871578,
                -0.03794340108483643
            ]
        },
        {
            "positions": [
                -0.03379265329557563,
                -2.2046303792955086,
                -1.967767892449325,
                0.9285029409898369,
                0.2751061131665863,
                0.01352618846581563
            ]
        },
        {
            "positions": [
                -0.022078780472277182,
                -2.232020082870334,
                -2.109071996212168,
                1.0387587228706732,
                0.2569404274615945,
                0.06499577801646764
            ]
        },
        {
            "positions": [
                -0.010364907648978725,
                -2.2594097864451594,
                -2.250376099975011,
                1.1490145047515092,
                0.2387747417566028,
                0.11646536756711964
            ]
        },
        {
            "positions": [
                0.0013489651743197328,
                -2.2867994900199853,
                -2.391680203737854,
                1.2592702866323455,
                0.22060905605161107,
                0.16793495711777168
            ]
        },
        {
            "positions": [
                -0.07246549009182039,
                -2.272217456842342,
                -2.3858325940270357,
                1.3487441097889672,
                0.182708356661204,
                0.0987571634447455
            ]
        },
        {
            "positions": [
                -0.14627994535796052,
                -2.2576354236646994,
                -2.3799849843162173,
                1.438217932945589,
                0.1448076572707969,
                0.029579369771719315
            ]
        },
        {
            "positions": [
                -0.1848132789343598,
                -2.277904856503531,
                -2.384469911945221,
                1.485197135730123,
                0.17984558569738215,
                0.03365795852564841
            ]
        }
    ]
}