{
    "goal": {
        "global_pose": {
            "orientation": {
                "w": 0.7031023480610252,
                "x": -0.7110244013736278,
                "y": 0.0077485991402295624,
                "z": 0.005598929693374583
            },
            "position": {
                "x": -0.8841497679147869,
                "y": 0.44412534475326537,
                "z": 0.3711530566215515
            }
        },
        "name": "move_to_auspresseinheit_D"
    },
    "id": "BiEST_move_to_auspresseinheit_D_55",
    "joint_names": [
        "shoulder_pan_joint",
        "shoulder_lift_joint",
        "elbow_joint",
        "wrist_1_joint",
        "wrist_2_joint",
        "wrist_3_joint"
    ],
    "metrics": {
        "cart_traj_len": 0.34391992183020426,
        "distance_elbow_joint": 0.6513492698577543,
        "distance_shoulder_lift_joint": 0.1286991981055703,
        "distance_shoulder_pan_joint": 0.13407845532211182,
        "distance_wrist_1_joint": 0.5694213956804464,
        "distance_wrist_2_joint": 1.4486964251975143,
        "distance_wrist_3_joint": 0.029256471070223,
        "smoothness": 1.973729821555834e-15,
        "time": 0.052019659999999995,
        "traj_len": 1.7209012799209664,
        "weighted_distance": 2.2445783519966565
    },
    "planner": "BiEST",
    "start": {
        "state": {
            "elbow_joint": -1.8275523626775212,
            "shoulder_lift_joint": -2.126789852344167,
            "shoulder_pan_joint": -0.03513704404078235,
            "wrist_1_joint": -2.347782403156801,
            "wrist_2_joint": -1.6058999987535132,
            "wrist_3_joint": -3.0880379163319196
        }
    },
    "waypoints": [
        {
            "positions": [
                -0.03513704404078235,
                -2.126789852344167,
                -1.8275523626775212,
                -2.347782403156801,
                -1.6058999987535132,
                -3.0880379163319196
            ]
        },
        {
            "positions": [
                -0.05189685095604633,
                -2.142877252107363,
                -1.746133703945302,
                -2.4189600776168567,
                -1.4248129456038239,
                -3.0843808574481417
            ]
        },
        {
            "positions": [
                -0.06865665787131031,
                -2.1589646518705594,
                -1.6647150452130826,
                -2.4901377520769126,
                -1.2437258924541346,
                -3.080723798564364
            ]
        },
        {
            "positions": [
                -0.08541646478657428,
                -2.175052051633756,
                -1.5832963864808633,
                -2.5613154265369684,
                -1.0626388393044452,
                -3.077066739680586
            ]
        },
        {
            "positions": [
                -0.10217627170183827,
                -2.191139451396952,
                -1.501877727748644,
                -2.6324931009970243,
                -0.881551786154756,
                -3.073409680796808
            ]
        },
        {
            "positions": [
                -0.11893607861710223,
                -2.207226851160148,
                -1.4204590690164247,
                -2.7036707754570797,
                -0.7004647330050667,
                -3.06975262191303
            ]
        },
        {
            "positions": [
                -0.13569588553236622,
                -2.2233142509233446,
                -1.3390404102842055,
                -2.7748484499171355,
                -0.5193776798553775,
                -3.0660955630292523
            ]
        },
        {
            "positions": [
                -0.1524556924476302,
                -2.239401650686541,
                -1.2576217515519863,
                -2.8460261243771914,
                -0.3382906267056882,
                -3.0624385041454745
            ]
        },
        {
            "positions": [
                -0.16921549936289418,
                -2.255489050449737,
                -1.1762030928197669,
                -2.9172037988372472,
                -0.1572035735559989,
                -3.0587814452616966
            ]
        }
    ]
}