{
    "goal": {
        "global_pose": {
            "orientation": {
                "w": -0.4816463035849501,
                "x": 0.5182115481033762,
                "y": 0.4908360881923453,
                "z": -0.5084816262002911
            },
            "position": {
                "x": -0.8240239810943604,
                "y": 0.19912469901144506,
                "z": 0.16403168439865112
            }
        },
        "name": "move_to_storage_D"
    },
    "id": "BiEST_move_to_storage_D_64",
    "joint_names": [
        "shoulder_pan_joint",
        "shoulder_lift_joint",
        "elbow_joint",
        "wrist_1_joint",
        "wrist_2_joint",
        "wrist_3_joint"
    ],
    "metrics": {
        "cart_traj_len": 0.6233526142659204,
        "distance_elbow_joint": 0.5562482626178573,
        "distance_shoulder_lift_joint": 0.19941806227544268,
        "distance_shoulder_pan_joint": 0.3819406968447159,
        "distance_wrist_1_joint": 3.9271473267918955,
        "distance_wrist_2_joint": 1.774459775371474,
        "distance_wrist_3_joint": 3.2775822838435777,
        "smoothness": 0.20593834098236943,
        "time": 0.11899715,
        "traj_len": 3.1806911839637877,
        "weighted_distance": 4.730070620783107
    },
    "planner": "BiEST",
    "start": {
        "state": {
            "elbow_joint": -2.384821988534728,
            "shoulder_lift_joint": -2.2788054721415256,
            "shoulder_pan_joint": -0.1854694642142757,
            "wrist_1_joint": 1.4845938289331202,
            "wrist_2_joint": 0.17898776772866878,
            "wrist_3_joint": 0.037105688729662994
        }
    },
    "waypoints": [
        {
            "positions": [
                -0.1854694642142757,
                -2.2788054721415256,
                -2.384821988534728,
                1.4845938289331202,
                0.17898776772866878,
                0.037105688729662994
            ]
        },
        {
            "positions": [
                -0.05187823955911833,
                -2.19079565495905,
                -2.351508755829884,
                1.508313833136234,
                0.16971078594736838,
                0.007197867402599176
            ]
        },
        {
            "positions": [
                0.08171298509603905,
                -2.1027858377765742,
                -2.3181955231250404,
                1.5320338373393476,
                0.16043380416606795,
                -0.02270995392446464
            ]
        },
        {
            "positions": [
                0.07693139144877237,
                -2.1037607722728446,
                -2.2977946149080335,
                1.3703793657399448,
                0.08727106200736491,
                0.11136365612509577
            ]
        },
        {
            "positions": [
                0.07214979780150567,
                -2.104735706769115,
                -2.277393706691026,
                1.208724894140542,
                0.014108319848661871,
                0.2454372661746562
            ]
        },
        {
            "positions": [
                0.06736820415423898,
                -2.105710641265386,
                -2.2569927984740192,
                1.0470704225411391,
                -0.05905442231004118,
                0.37951087622421664
            ]
        },
        {
            "positions": [
                0.0625866105069723,
                -2.1066855757616563,
                -2.236591890257012,
                0.8854159509417363,
                -0.1322171644687442,
                0.5135844862737771
            ]
        },
        {
            "positions": [
                0.0578050168597056,
                -2.1076605102579267,
                -2.216190982040005,
                0.7237614793423335,
                -0.20537990662744726,
                0.6476580963233375
            ]
        },
        {
            "positions": [
                0.053023423212438914,
                -2.108635444754197,
                -2.195790073822998,
                0.5621070077429307,
                -0.2785426487861503,
                0.7817317063728979
            ]
        },
        {
            "positions": [
                0.04824182956517222,
                -2.1096103792504675,
                -2.1753891656059907,
                0.4004525361435278,
                -0.35170539094485337,
                0.9158053164224584
            ]
        },
        {
            "positions": [
                0.043460235917905536,
                -2.110585313746738,
                -2.154988257388984,
                0.238798064544125,
                -0.42486813310355637,
                1.0498789264720187
            ]
        },
        {
            "positions": [
                0.038678642270638844,
                -2.1115602482430083,
                -2.134587349171977,
                0.07714359294472217,
                -0.4980308752622595,
                1.1839525365215793
            ]
        },
        {
            "positions": [
                0.03389704862337215,
                -2.112535182739279,
                -2.1141864409549695,
                -0.08451087865468065,
                -0.5711936174209624,
                1.3180261465711396
            ]
        },
        {
            "positions": [
                0.029115454976105466,
                -2.1135101172355495,
                -2.0937855327379626,
                -0.24616535025408348,
                -0.6443563595796655,
                1.4520997566207
            ]
        },
        {
            "positions": [
                0.024333861328838774,
                -2.11448505173182,
                -2.0733846245209557,
                -0.4078198218534863,
                -0.7175191017383686,
                1.5861733666702604
            ]
        },
        {
            "positions": [
                0.01955226768157209,
                -2.1154599862280903,
                -2.0529837163039484,
                -0.5694742934528889,
                -0.7906818438970715,
                1.7202469767198207
            ]
        },
        {
            "positions": [
                0.01477067403430539,
                -2.1164349207243607,
                -2.0325828080869415,
                -0.731128765052292,
                -0.8638445860557746,
                1.8543205867693815
            ]
        },
        {
            "positions": [
                0.009989080387038704,
                -2.1174098552206315,
                -2.012181899869934,
                -0.892783236651695,
                -0.9370073282144777,
                1.9883941968189416
            ]
        },
        {
            "positions": [
                0.005207486739772019,
                -2.118384789716902,
                -1.9917809916529272,
                -1.0544377082510976,
                -1.0101700703731806,
                2.122467806868502
            ]
        },
        {
            "positions": [
                0.0004258930925053195,
                -2.1193597242131723,
                -1.97138008343592,
                -1.2160921798505007,
                -1.0833328125318837,
                2.2565414169180626
            ]
        },
        {
            "positions": [
                -0.004355700554761366,
                -2.1203346587094427,
                -1.950979175218913,
                -1.3777466514499033,
                -1.1564955546905868,
                2.390615026967623
            ]
        },
        {
            "positions": [
                -0.009137294202028051,
                -2.121309593205713,
                -1.930578267001906,
                -1.5394011230493059,
                -1.2296582968492897,
                2.5246886370171833
            ]
        },
        {
            "positions": [
                -0.01391888784929475,
                -2.1222845277019835,
                -1.910177358784899,
                -1.701055594648709,
                -1.3028210390079928,
                2.658762247066744
            ]
        },
        {
            "positions": [
                -0.018700481496561436,
                -2.123259462198254,
                -1.8897764505678918,
                -1.8627100662481115,
                -1.375983781166696,
                2.7928358571163043
            ]
        },
        {
            "positions": [
                -0.02348207514382812,
                -2.1242343966945247,
                -1.8693755423508849,
                -2.0243645378475144,
                -1.4491465233253988,
                2.9269094671658644
            ]
        },
        {
            "positions": [
                -0.02826366879109482,
                -2.125209331190795,
                -1.8489746341338777,
                -2.186019009446918,
                -1.5223092654841022,
                3.0609830772154254
            ]
        },
        {
            "positions": [
                -0.033045262438361506,
                -2.1261842656870655,
                -1.8285737259168706,
                -2.3476734810463205,
                -1.595472007642805,
                3.1950566872649855
            ]
        }
    ]
}