{
    "goal": {
        "global_pose": {
            "orientation": {
                "w": 0.005598929693374612,
                "x": 0.007748599140229565,
                "y": 0.7110244013736278,
                "z": -0.7031023480610252
            },
            "position": {
                "x": -0.8858502320852131,
                "y": -0.7141253447532654,
                "z": 0.3711530566215515
            }
        },
        "name": "move_to_auspresseinheit_C"
    },
    "id": "BiEST_move_to_auspresseinheit_C_112",
    "joint_names": [
        "shoulder_pan_joint",
        "shoulder_lift_joint",
        "elbow_joint",
        "wrist_1_joint",
        "wrist_2_joint",
        "wrist_3_joint"
    ],
    "metrics": {
        "cart_traj_len": 1.0934233864222203,
        "distance_elbow_joint": 1.3220170603140011,
        "distance_shoulder_lift_joint": 0.3188882484988321,
        "distance_shoulder_pan_joint": 0.26171878092747525,
        "distance_wrist_1_joint": 0.6563135371103342,
        "distance_wrist_2_joint": 1.305428538139342,
        "distance_wrist_3_joint": 0.12144208994167105,
        "smoothness": 0.380562212705931,
        "time": 0.12189206,
        "traj_len": 1.996448911174953,
        "weighted_distance": 2.488058381562755
    },
    "planner": "BiEST",
    "start": {
        "state": {
            "elbow_joint": 1.7527959577737207,
            "shoulder_lift_joint": -0.9740617694225068,
            "shoulder_pan_joint": -2.967991417825858,
            "wrist_1_joint": -0.759517768980727,
            "wrist_2_joint": 1.7443932448377408,
            "wrist_3_joint": -3.0840537646736568
        }
    },
    "waypoints": [
        {
            "positions": [
                -2.967991417825858,
                -0.9740617694225068,
                1.7527959577737207,
                -0.759517768980727,
                1.7443932448377408,
                -3.0840537646736568
            ]
        },
        {
            "positions": [
                -2.9683402135976937,
                -0.9537979527211418,
                1.5877611430883571,
                -0.6941313414463273,
                1.6071483426702915,
                -3.078095437145845
            ]
        },
        {
            "positions": [
                -2.96868900936953,
                -0.9335341360197768,
                1.4227263284029936,
                -0.6287449139119275,
                1.4699034405028422,
                -3.0721371096180334
            ]
        },
        {
            "positions": [
                -2.9690378051413657,
                -0.9132703193184117,
                1.25769151371763,
                -0.5633584863775278,
                1.3326585383353928,
                -3.0661787820902218
            ]
        },
        {
            "positions": [
                -2.969386600913202,
                -0.8930065026170468,
                1.0926566990322666,
                -0.4979720588431281,
                1.1954136361679435,
                -3.06022045456241
            ]
        },
        {
            "positions": [
                -2.9697353966850377,
                -0.8727426859156818,
                0.9276218843469031,
                -0.43258563130872835,
                1.058168734000494,
                -3.0542621270345984
            ]
        },
        {
            "positions": [
                -2.970084192456874,
                -0.8524788692143168,
                0.7625870696615396,
                -0.3671992037743287,
                0.9209238318330447,
                -3.0483037995067868
            ]
        },
        {
            "positions": [
                -2.9704329882287097,
                -0.8322150525129518,
                0.5975522549761761,
                -0.3018127762399289,
                0.7836789296655953,
                -3.042345471978975
            ]
        },
        {
            "positions": [
                -2.9056136855975536,
                -0.7879546696156325,
                0.6392455943552904,
                -0.2521606401475449,
                0.6975003739237962,
                -3.0622789212907224
            ]
        },
        {
            "positions": [
                -2.840794382966398,
                -0.7436942867183132,
                0.6809389337344045,
                -0.20250850405516088,
                0.6113218181819969,
                -3.0822123706024698
            ]
        },
        {
            "positions": [
                -2.7759750803352423,
                -0.6994339038209939,
                0.7226322731135187,
                -0.15285636796277685,
                0.5251432624401978,
                -3.102145819914217
            ]
        },
        {
            "positions": [
                -2.7111557777040862,
                -0.6551735209236746,
                0.764325612492633,
                -0.10320423187039283,
                0.43896470669839865,
                -3.1220792692259645
            ]
        }
    ]
}