{
    "goal": {
        "global_pose": {
            "orientation": {
                "w": 0.7031023480610252,
                "x": -0.7110244013736278,
                "y": 0.0077485991402295624,
                "z": 0.005598929693374583
            },
            "position": {
                "x": -0.8841497679147869,
                "y": 0.44412534475326537,
                "z": 0.3711530566215515
            }
        },
        "name": "move_to_auspresseinheit_D"
    },
    "id": "BiEST_move_to_auspresseinheit_D_44",
    "joint_names": [
        "shoulder_pan_joint",
        "shoulder_lift_joint",
        "elbow_joint",
        "wrist_1_joint",
        "wrist_2_joint",
        "wrist_3_joint"
    ],
    "metrics": {
        "cart_traj_len": 0.3425448283781922,
        "distance_elbow_joint": 0.6390112302595106,
        "distance_shoulder_lift_joint": 0.12187702856326244,
        "distance_shoulder_pan_joint": 0.13348388773547626,
        "distance_wrist_1_joint": 0.5407629831886718,
        "distance_wrist_2_joint": 1.4310919934453898,
        "distance_wrist_3_joint": 0.000970616033107774,
        "smoothness": 0.0,
        "time": 0.08201629099999999,
        "traj_len": 1.6932801715089616,
        "weighted_distance": 2.200225885659401
    },
    "planner": "BiEST",
    "start": {
        "state": {
            "elbow_joint": -1.8275523626775212,
            "shoulder_lift_joint": -2.126789852344167,
            "shoulder_pan_joint": -0.03513704404078235,
            "wrist_1_joint": -2.347782403156801,
            "wrist_2_joint": -1.6058999987535132,
            "wrist_3_joint": -3.0880379163319196
        }
    },
    "waypoints": [
        {
            "positions": [
                -0.03513704404078235,
                -2.126789852344167,
                -1.8275523626775212,
                -2.347782403156801,
                -1.6058999987535132,
                -3.0880379163319196
            ]
        },
        {
            "positions": [
                -0.05182253000771688,
                -2.1420244809145745,
                -1.7476759588950823,
                -2.4153777760553847,
                -1.4270134995728394,
                -3.088159243336058
            ]
        },
        {
            "positions": [
                -0.06850801597465142,
                -2.1572591094849827,
                -1.6677995551126434,
                -2.4829731489539686,
                -1.2481270003921656,
                -3.0882805703401965
            ]
        },
        {
            "positions": [
                -0.08519350194158595,
                -2.1724937380553904,
                -1.5879231513302048,
                -2.550568521852553,
                -1.069240501211492,
                -3.088401897344335
            ]
        },
        {
            "positions": [
                -0.10187898790852049,
                -2.187728366625798,
                -1.508046747547766,
                -2.6181638947511368,
                -0.8903540020308183,
                -3.0885232243484735
            ]
        },
        {
            "positions": [
                -0.11856447387545502,
                -2.2029629951962058,
                -1.428170343765327,
                -2.6857592676497206,
                -0.7114675028501445,
                -3.088644551352612
            ]
        },
        {
            "positions": [
                -0.13524995984238955,
                -2.2181976237666134,
                -1.3482939399828884,
                -2.753354640548305,
                -0.5325810036694709,
                -3.0887658783567504
            ]
        },
        {
            "positions": [
                -0.15193544580932408,
                -2.2334322523370216,
                -1.2684175362004495,
                -2.820950013446889,
                -0.35369450448879713,
                -3.088887205360889
            ]
        },
        {
            "positions": [
                -0.16862093177625861,
                -2.2486668809074293,
                -1.1885411324180106,
                -2.8885453863454726,
                -0.17480800530812346,
                -3.0890085323650274
            ]
        }
    ]
}