{
    "goal": {
        "global_pose": {
            "orientation": {
                "w": 0.5084816217422485,
                "x": -0.49083608388900757,
                "y": 0.5182115435600281,
                "z": -0.4816462993621826
            },
            "position": {
                "x": 0.5540239810943604,
                "y": 0.030875300988554955,
                "z": 0.16403168439865112
            }
        },
        "name": "move_to_storage_A"
    },
    "id": "BiEST_move_to_storage_A_39",
    "joint_names": [
        "shoulder_pan_joint",
        "shoulder_lift_joint",
        "elbow_joint",
        "wrist_1_joint",
        "wrist_2_joint",
        "wrist_3_joint"
    ],
    "metrics": {
        "cart_traj_len": 0.35238567395734743,
        "distance_elbow_joint": 0.45201154386125153,
        "distance_shoulder_lift_joint": 0.23314680364830642,
        "distance_shoulder_pan_joint": 0.45981111422411314,
        "distance_wrist_1_joint": 0.2599572144294916,
        "distance_wrist_2_joint": 1.100697005342475,
        "distance_wrist_3_joint": 0.09454703221188776,
        "smoothness": 6.661338165333112e-16,
        "time": 0.040546759,
        "traj_len": 1.6125044848674144,
        "weighted_distance": 2.03713499746906
    },
    "planner": "BiEST",
    "start": {
        "state": {
            "elbow_joint": 1.971548259319323,
            "shoulder_lift_joint": -1.1394851275133948,
            "shoulder_pan_joint": 0.1228115487234821,
            "wrist_1_joint": -0.7804723859257726,
            "wrist_2_joint": 0.12958671773740124,
            "wrist_3_joint": -3.192489227718131
        }
    },
    "waypoints": [
        {
            "positions": [
                0.1228115487234821,
                -1.1394851275133948,
                1.971548259319323,
                -0.7804723859257726,
                0.12958671773740124,
                -3.192489227718131
            ]
        },
        {
            "positions": [
                0.057124246691465944,
                -1.172791813748867,
                2.0361213370137876,
                -0.8176091308442714,
                0.28682914707204055,
                -3.1789825088307184
            ]
        },
        {
            "positions": [
                -0.008563055340550213,
                -1.2060984999843396,
                2.100694414708252,
                -0.8547458757627702,
                0.4440715764066798,
                -3.165475789943306
            ]
        },
        {
            "positions": [
                -0.07425035737256638,
                -1.2394051862198119,
                2.1652674924027164,
                -0.891882620681269,
                0.6013140057413191,
                -3.1519690710558934
            ]
        },
        {
            "positions": [
                -0.13993765940458253,
                -1.2727118724552842,
                2.229840570097181,
                -0.9290193655997678,
                0.7585564350759584,
                -3.138462352168481
            ]
        },
        {
            "positions": [
                -0.2056249614365987,
                -1.3060185586907567,
                2.2944136477916457,
                -0.9661561105182666,
                0.9157988644105977,
                -3.1249556332810684
            ]
        },
        {
            "positions": [
                -0.27131226346861487,
                -1.339325244926229,
                2.35898672548611,
                -1.0032928554367655,
                1.073041293745237,
                -3.111448914393656
            ]
        },
        {
            "positions": [
                -0.33699956550063104,
                -1.3726319311617012,
                2.4235598031805745,
                -1.0404296003552642,
                1.2302837230798762,
                -3.0979421955062434
            ]
        }
    ]
}{
    "goal": {
        "global_pose": {
            "orientation": {
                "w": 0.5084816217422485,
                "x": -0.49083608388900757,
                "y": 0.5182115435600281,
                "z": -0.4816462993621826
            },
            "position": {
                "x": 0.5540239810943604,
                "y": 0.030875300988554955,
                "z": 0.16403168439865112
            }
        },
        "name": "move_to_storage_A"
    },
    "id": "BiEST_move_to_storage_A_39",
    "joint_names": [
        "shoulder_pan_joint",
        "shoulder_lift_joint",
        "elbow_joint",
        "wrist_1_joint",
        "wrist_2_joint",
        "wrist_3_joint"
    ],
    "metrics": {
        "cart_traj_len": 0.35365745250961894,
        "distance_elbow_joint": 0.45154905933026024,
        "distance_shoulder_lift_joint": 0.23507341032134388,
        "distance_shoulder_pan_joint": 0.4649846328237008,
        "distance_wrist_1_joint": 0.2485613936794553,
        "distance_wrist_2_joint": 1.0894585276735103,
        "distance_wrist_3_joint": 0.0937587829011508,
        "smoothness": 6.661338200497456e-16,
        "time": 0.062263126,
        "traj_len": 1.6072914504623674,
        "weighted_distance": 2.0270479258973353
    },
    "planner": "BiEST",
    "start": {
        "state": {
            "elbow_joint": 1.97154746011099,
            "shoulder_lift_joint": -1.13948474672311,
            "shoulder_pan_joint": 0.12281154466712228,
            "wrist_1_joint": -0.7804688027058302,
            "wrist_2_joint": 0.12958655903071145,
            "wrist_3_joint": 3.0906928834467795
        }
    },
    "waypoints": [
        {
            "positions": [
                0.12281154466712228,
                -1.13948474672311,
                1.97154746011099,
                -0.7804688027058302,
                0.12958655903071145,
                3.0906928834467795
            ]
        },
        {
            "positions": [
                0.05638516854945075,
                -1.173066662483302,
                2.0360544685867414,
                -0.8159775732314667,
                0.28522349155549864,
                3.104086995289801
            ]
        },
        {
            "positions": [
                -0.010041207568220786,
                -1.206648578243494,
                2.100561477062493,
                -0.8514863437571031,
                0.4408604240802858,
                3.117481107132823
            ]
        },
        {
            "positions": [
                -0.07646758368589233,
                -1.240230494003686,
                2.1650684855382445,
                -0.8869951142827396,
                0.596497356605073,
                3.130875218975844
            ]
        },
        {
            "positions": [
                -0.14289395980356384,
                -1.2738124097638779,
                2.2295754940139956,
                -0.9225038848083761,
                0.7521342891298601,
                3.1442693308188656
            ]
        },
        {
            "positions": [
                -0.2093203359212354,
                -1.3073943255240699,
                2.294082502489747,
                -0.9580126553340125,
                0.9077712216546474,
                3.157663442661887
            ]
        },
        {
            "positions": [
                -0.27574671203890694,
                -1.3409762412842618,
                2.3585895109654986,
                -0.993521425859649,
                1.0634081541794345,
                3.171057554504909
            ]
        },
        {
            "positions": [
                -0.3421730881565785,
                -1.3745581570444538,
                2.42309651944125,
                -1.0290301963852855,
                1.2190450867042217,
                3.1844516663479303
            ]
        }
    ]
}{
    "goal": {
        "global_pose": {
            "orientation": {
                "w": 0.5084816217422485,
                "x": -0.49083608388900757,
                "y": 0.5182115435600281,
                "z": -0.4816462993621826
            },
            "position": {
                "x": 0.5540239810943604,
                "y": 0.030875300988554955,
                "z": 0.16403168439865112
            }
        },
        "name": "move_to_storage_A"
    },
    "id": "BiEST_move_to_storage_A_39",
    "joint_names": [
        "shoulder_pan_joint",
        "shoulder_lift_joint",
        "elbow_joint",
        "wrist_1_joint",
        "wrist_2_joint",
        "wrist_3_joint"
    ],
    "metrics": {
        "cart_traj_len": 0.3529552973107198,
        "distance_elbow_joint": 0.45116631188929635,
        "distance_shoulder_lift_joint": 0.2362288842520448,
        "distance_shoulder_pan_joint": 0.46207041052013986,
        "distance_wrist_1_joint": 0.2439695751322144,
        "distance_wrist_2_joint": 1.0974280584931222,
        "distance_wrist_3_joint": 0.09495114443553332,
        "smoothness": 4.440892133664971e-16,
        "time": 0.079099501,
        "traj_len": 1.608046760738739,
        "weighted_distance": 2.0290673491086375
    },
    "planner": "BiEST",
    "start": {
        "state": {
            "elbow_joint": 1.9715472970024885,
            "shoulder_lift_joint": -1.1394870060712896,
            "shoulder_pan_joint": 0.12281152778156021,
            "wrist_1_joint": -0.780463741449964,
            "wrist_2_joint": 0.12958659822042276,
            "wrist_3_joint": 3.090690232415272
        }
    },
    "waypoints": [
        {
            "positions": [
                0.12281152778156021,
                -1.1394870060712896,
                1.9715472970024885,
                -0.780463741449964,
                0.12958659822042276,
                3.090690232415272
            ]
        },
        {
            "positions": [
                0.05680146913582594,
                -1.1732339895358674,
                2.035999627272388,
                -0.8153165378974232,
                0.2863620351480116,
                3.1042546816203482
            ]
        },
        {
            "positions": [
                -0.009208589509908327,
                -1.2069809730004453,
                2.1004519575422873,
                -0.8501693343448824,
                0.4431374720756005,
                3.117819130825424
            ]
        },
        {
            "positions": [
                -0.07521864815564258,
                -1.240727956465023,
                2.164904287812187,
                -0.8850221307923416,
                0.5999129090031894,
                3.1313835800305005
            ]
        },
        {
            "positions": [
                -0.14122870680137686,
                -1.274474939929601,
                2.2293566180820865,
                -0.9198749272398008,
                0.7566883459307783,
                3.1449480292355765
            ]
        },
        {
            "positions": [
                -0.20723876544711115,
                -1.3082219233941788,
                2.293808948351986,
                -0.95472772368726,
                0.9134637828583672,
                3.158512478440653
            ]
        },
        {
            "positions": [
                -0.27324882409284534,
                -1.3419689068587566,
                2.3582612786218853,
                -0.9895805201347192,
                1.070239219785956,
                3.172076927645729
            ]
        },
        {
            "positions": [
                -0.3392588827385796,
                -1.3757158903233344,
                2.422713608891785,
                -1.0244333165821784,
                1.227014656713545,
                3.185641376850805
            ]
        }
    ]
}