{
    "goal": {
        "global_pose": {
            "orientation": {
                "w": 0.5084816217422485,
                "x": -0.49083608388900757,
                "y": 0.5182115435600281,
                "z": -0.4816462993621826
            },
            "position": {
                "x": 0.5540239810943604,
                "y": 0.030875300988554955,
                "z": 0.16403168439865112
            }
        },
        "name": "move_to_storage_A"
    },
    "id": "BiEST_move_to_storage_A_140",
    "joint_names": [
        "shoulder_pan_joint",
        "shoulder_lift_joint",
        "elbow_joint",
        "wrist_1_joint",
        "wrist_2_joint",
        "wrist_3_joint"
    ],
    "metrics": {
        "cart_traj_len": 0.353353955183474,
        "distance_elbow_joint": 0.44906543859234715,
        "distance_shoulder_lift_joint": 0.2366516326298458,
        "distance_shoulder_pan_joint": 0.45963929080767607,
        "distance_wrist_1_joint": 0.23450784673763325,
        "distance_wrist_2_joint": 1.1109040311629583,
        "distance_wrist_3_joint": 0.09782290107901259,
        "smoothness": 0.0,
        "time": 0.049050383,
        "traj_len": 1.6089099232118227,
        "weighted_distance": 2.0321537395256515
    },
    "planner": "BiEST",
    "start": {
        "state": {
            "elbow_joint": 1.971548259319323,
            "shoulder_lift_joint": -1.1394851275133948,
            "shoulder_pan_joint": 0.1228115487234821,
            "wrist_1_joint": -0.7804723859257726,
            "wrist_2_joint": 0.12958671773740124,
            "wrist_3_joint": -3.192489227718131
        }
    },
    "waypoints": [
        {
            "positions": [
                0.1228115487234821,
                -1.1394851275133948,
                1.971548259319323,
                -0.7804723859257726,
                0.12958671773740124,
                -3.192489227718131
            ]
        },
        {
            "positions": [
                0.057148792893814096,
                -1.1732925036033728,
                2.0357004648325154,
                -0.8139735068882916,
                0.28828729361782385,
                -3.1785145275639866
            ]
        },
        {
            "positions": [
                -0.008513962935853908,
                -1.2070998796933508,
                2.099852670345708,
                -0.8474746278508107,
                0.4469878694982464,
                -3.164539827409842
            ]
        },
        {
            "positions": [
                -0.07417671876552193,
                -1.2409072557833287,
                2.1640048758589003,
                -0.8809757488133297,
                0.6056884453786691,
                -3.1505651272556974
            ]
        },
        {
            "positions": [
                -0.13983947459518992,
                -1.2747146318733067,
                2.2281570813720926,
                -0.9144768697758487,
                0.7643890212590917,
                -3.1365904271015523
            ]
        },
        {
            "positions": [
                -0.20550223042485793,
                -1.3085220079632847,
                2.2923092868852852,
                -0.9479779907383679,
                0.9230895971395143,
                -3.1226157269474077
            ]
        },
        {
            "positions": [
                -0.27116498625452595,
                -1.3423293840532626,
                2.356461492398478,
                -0.9814791117008868,
                1.0817901730199369,
                -3.108641026793263
            ]
        },
        {
            "positions": [
                -0.33682774208419397,
                -1.3761367601432406,
                2.42061369791167,
                -1.0149802326634059,
                1.2404907489003596,
                -3.0946663266391186
            ]
        }
    ]
}{
    "goal": {
        "global_pose": {
            "orientation": {
                "w": 0.5084816217422485,
                "x": -0.49083608388900757,
                "y": 0.5182115435600281,
                "z": -0.4816462993621826
            },
            "position": {
                "x": 0.5540239810943604,
                "y": 0.030875300988554955,
                "z": 0.16403168439865112
            }
        },
        "name": "move_to_storage_A"
    },
    "id": "BiEST_move_to_storage_A_140",
    "joint_names": [
        "shoulder_pan_joint",
        "shoulder_lift_joint",
        "elbow_joint",
        "wrist_1_joint",
        "wrist_2_joint",
        "wrist_3_joint"
    ],
    "metrics": {
        "cart_traj_len": 0.35266308993635925,
        "distance_elbow_joint": 0.4469966699318415,
        "distance_shoulder_lift_joint": 0.234381724026419,
        "distance_shoulder_pan_joint": 0.4625290767426723,
        "distance_wrist_1_joint": 0.23466180459000063,
        "distance_wrist_2_joint": 1.0913441598184754,
        "distance_wrist_3_joint": 0.09450909117247219,
        "smoothness": 0.0,
        "time": 0.06656015300000001,
        "traj_len": 1.6013814430927695,
        "weighted_distance": 2.0197640141945548
    },
    "planner": "BiEST",
    "start": {
        "state": {
            "elbow_joint": 1.97154746011099,
            "shoulder_lift_joint": -1.13948474672311,
            "shoulder_pan_joint": 0.12281154466712228,
            "wrist_1_joint": -0.7804688027058302,
            "wrist_2_joint": 0.12958655903071145,
            "wrist_3_joint": 3.0906928834467795
        }
    },
    "waypoints": [
        {
            "positions": [
                0.12281154466712228,
                -1.13948474672311,
                1.97154746011099,
                -0.7804688027058302,
                0.12958655903071145,
                3.0906928834467795
            ]
        },
        {
            "positions": [
                0.056735962275311955,
                -1.1729678501554555,
                2.03540412724411,
                -0.8139919176472589,
                0.28549286757620795,
                3.104194182185704
            ]
        },
        {
            "positions": [
                -0.009339620116498373,
                -1.2064509535878012,
                2.0992607943772303,
                -0.8475150325886875,
                0.44139917612170443,
                3.117695480924629
            ]
        },
        {
            "positions": [
                -0.0754152025083087,
                -1.2399340570201467,
                2.1631174615103506,
                -0.8810381475301161,
                0.5973054846672009,
                3.1311967796635534
            ]
        },
        {
            "positions": [
                -0.14149078490011902,
                -1.2734171604524922,
                2.2269741286434708,
                -0.9145612624715448,
                0.7532117932126974,
                3.144698078402478
            ]
        },
        {
            "positions": [
                -0.20756636729192934,
                -1.3069002638848377,
                2.290830795776591,
                -0.9480843774129735,
                0.909118101758194,
                3.1581993771414023
            ]
        },
        {
            "positions": [
                -0.27364194968373967,
                -1.3403833673171834,
                2.354687462909711,
                -0.9816074923544021,
                1.0650244103036903,
                3.1717006758803272
            ]
        },
        {
            "positions": [
                -0.33971753207555,
                -1.373866470749529,
                2.4185441300428314,
                -1.0151306072958308,
                1.220930718849187,
                3.1852019746192517
            ]
        }
    ]
}{
    "goal": {
        "global_pose": {
            "orientation": {
                "w": 0.5084816217422485,
                "x": -0.49083608388900757,
                "y": 0.5182115435600281,
                "z": -0.4816462993621826
            },
            "position": {
                "x": 0.5540239810943604,
                "y": 0.030875300988554955,
                "z": 0.16403168439865112
            }
        },
        "name": "move_to_storage_A"
    },
    "id": "BiEST_move_to_storage_A_140",
    "joint_names": [
        "shoulder_pan_joint",
        "shoulder_lift_joint",
        "elbow_joint",
        "wrist_1_joint",
        "wrist_2_joint",
        "wrist_3_joint"
    ],
    "metrics": {
        "cart_traj_len": 0.3528851134591115,
        "distance_elbow_joint": 0.44994380909801146,
        "distance_shoulder_lift_joint": 0.23671161798503415,
        "distance_shoulder_pan_joint": 0.4609037140317488,
        "distance_wrist_1_joint": 0.23633994758412746,
        "distance_wrist_2_joint": 1.1022235214458558,
        "distance_wrist_3_joint": 0.08793890580751462,
        "smoothness": 0.0,
        "time": 0.080288795,
        "traj_len": 1.6043882061247807,
        "weighted_distance": 2.022004648015752
    },
    "planner": "BiEST",
    "start": {
        "state": {
            "elbow_joint": 1.9715472970024885,
            "shoulder_lift_joint": -1.1394870060712896,
            "shoulder_pan_joint": 0.12281152778156021,
            "wrist_1_joint": -0.780463741449964,
            "wrist_2_joint": 0.12958659822042276,
            "wrist_3_joint": 3.090690232415272
        }
    },
    "waypoints": [
        {
            "positions": [
                0.12281152778156021,
                -1.1394870060712896,
                1.9715472970024885,
                -0.780463741449964,
                0.12958659822042276,
                3.090690232415272
            ]
        },
        {
            "positions": [
                0.05696814006273895,
                -1.1733029514977231,
                2.0358249840164904,
                -0.8142265911048393,
                0.2870471012841164,
                3.103252933244917
            ]
        },
        {
            "positions": [
                -0.008875247656082302,
                -1.2071188969241564,
                2.1001026710304918,
                -0.8479894407597147,
                0.4445076043478101,
                3.1158156340745617
            ]
        },
        {
            "positions": [
                -0.07471863537490356,
                -1.24093484235059,
                2.1643803580444936,
                -0.88175229041459,
                0.6019681074115038,
                3.1283783349042067
            ]
        },
        {
            "positions": [
                -0.1405620230937248,
                -1.2747507877770234,
                2.228658045058495,
                -0.9155151400694654,
                0.7594286104751974,
                3.1409410357338516
            ]
        },
        {
            "positions": [
                -0.20640541081254607,
                -1.308566733203457,
                2.292935732072497,
                -0.9492779897243407,
                0.9168891135388911,
                3.1535037365634966
            ]
        },
        {
            "positions": [
                -0.2722487985313673,
                -1.3423826786298902,
                2.357213419086498,
                -0.983040839379216,
                1.0743496166025848,
                3.1660664373931415
            ]
        },
        {
            "positions": [
                -0.33809218625018855,
                -1.3761986240563238,
                2.4214911061005,
                -1.0168036890340915,
                1.2318101196662785,
                3.1786291382227865
            ]
        }
    ]
}