{
    "goal": {
        "global_pose": {
            "orientation": {
                "w": 0.5084816217422485,
                "x": -0.49083608388900757,
                "y": 0.5182115435600281,
                "z": -0.4816462993621826
            },
            "position": {
                "x": 0.5540239810943604,
                "y": 0.030875300988554955,
                "z": 0.16403168439865112
            }
        },
        "name": "move_to_storage_A"
    },
    "id": "BiEST_move_to_storage_A_143",
    "joint_names": [
        "shoulder_pan_joint",
        "shoulder_lift_joint",
        "elbow_joint",
        "wrist_1_joint",
        "wrist_2_joint",
        "wrist_3_joint"
    ],
    "metrics": {
        "cart_traj_len": 0.35239042761100214,
        "distance_elbow_joint": 0.4486751732026455,
        "distance_shoulder_lift_joint": 0.2355028247144506,
        "distance_shoulder_pan_joint": 0.4571364904409352,
        "distance_wrist_1_joint": 0.23886052216587605,
        "distance_wrist_2_joint": 1.113444173336637,
        "distance_wrist_3_joint": 0.09837984938339694,
        "smoothness": 0.0,
        "time": 0.059515783,
        "traj_len": 1.6099686435592282,
        "weighted_distance": 2.0349603012130846
    },
    "planner": "BiEST",
    "start": {
        "state": {
            "elbow_joint": 1.971548259319323,
            "shoulder_lift_joint": -1.1394851275133948,
            "shoulder_pan_joint": 0.1228115487234821,
            "wrist_1_joint": -0.7804723859257726,
            "wrist_2_joint": 0.12958671773740124,
            "wrist_3_joint": -3.192489227718131
        }
    },
    "waypoints": [
        {
            "positions": [
                0.1228115487234821,
                -1.1394851275133948,
                1.971548259319323,
                -0.7804723859257726,
                0.12958671773740124,
                -3.192489227718131
            ]
        },
        {
            "positions": [
                0.057506335803348504,
                -1.1731283881868877,
                2.0356447126339865,
                -0.8145953176637549,
                0.2886501710712065,
                -3.178434963520503
            ]
        },
        {
            "positions": [
                -0.007798877116785091,
                -1.2067716488603808,
                2.0997411659486502,
                -0.8487182494017372,
                0.4477136244050117,
                -3.1643806993228747
            ]
        },
        {
            "positions": [
                -0.07310409003691867,
                -1.2404149095338737,
                2.163837619263314,
                -0.8828411811397194,
                0.6067770777388171,
                -3.1503264351252467
            ]
        },
        {
            "positions": [
                -0.13840930295705228,
                -1.2740581702073666,
                2.2279340725779777,
                -0.9169641128777017,
                0.7658405310726223,
                -3.1362721709276187
            ]
        },
        {
            "positions": [
                -0.20371451587718592,
                -1.3077014308808597,
                2.292030525892641,
                -0.951087044615684,
                0.9249039844064276,
                -3.1222179067299907
            ]
        },
        {
            "positions": [
                -0.26901972879731945,
                -1.3413446915543525,
                2.3561269792073047,
                -0.9852099763536664,
                1.0839674377402329,
                -3.108163642532362
            ]
        },
        {
            "positions": [
                -0.3343249417174531,
                -1.3749879522278454,
                2.4202234325219685,
                -1.0193329080916487,
                1.2430308910740382,
                -3.094109378334734
            ]
        }
    ]
}{
    "goal": {
        "global_pose": {
            "orientation": {
                "w": 0.5084816217422485,
                "x": -0.49083608388900757,
                "y": 0.5182115435600281,
                "z": -0.4816462993621826
            },
            "position": {
                "x": 0.5540239810943604,
                "y": 0.030875300988554955,
                "z": 0.16403168439865112
            }
        },
        "name": "move_to_storage_A"
    },
    "id": "BiEST_move_to_storage_A_143",
    "joint_names": [
        "shoulder_pan_joint",
        "shoulder_lift_joint",
        "elbow_joint",
        "wrist_1_joint",
        "wrist_2_joint",
        "wrist_3_joint"
    ],
    "metrics": {
        "cart_traj_len": 0.35268168246147324,
        "distance_elbow_joint": 0.44836453080458183,
        "distance_shoulder_lift_joint": 0.2348597773083625,
        "distance_shoulder_pan_joint": 0.4608630207923696,
        "distance_wrist_1_joint": 0.23890648947817117,
        "distance_wrist_2_joint": 1.099160338581135,
        "distance_wrist_3_joint": 0.09157083437115965,
        "smoothness": 6.661338165333112e-16,
        "time": 0.07381808100000001,
        "traj_len": 1.6042833263908778,
        "weighted_distance": 2.0235942004605083
    },
    "planner": "BiEST",
    "start": {
        "state": {
            "elbow_joint": 1.97154746011099,
            "shoulder_lift_joint": -1.13948474672311,
            "shoulder_pan_joint": 0.12281154466712228,
            "wrist_1_joint": -0.7804688027058302,
            "wrist_2_joint": 0.12958655903071145,
            "wrist_3_joint": 3.0906928834467795
        }
    },
    "waypoints": [
        {
            "positions": [
                0.12281154466712228,
                -1.13948474672311,
                1.97154746011099,
                -0.7804688027058302,
                0.12958655903071145,
                3.0906928834467795
            ]
        },
        {
            "positions": [
                0.05697397026821234,
                -1.1730361434814474,
                2.0355995359402157,
                -0.8145983012027118,
                0.2866094645423022,
                3.103774431214088
            ]
        },
        {
            "positions": [
                -0.008863604130697603,
                -1.206587540239785,
                2.099651611769442,
                -0.8487277996995933,
                0.4436323700538929,
                3.1168559789813965
            ]
        },
        {
            "positions": [
                -0.07470117852960755,
                -1.2401389369981224,
                2.1637036875986677,
                -0.882857298196475,
                0.6006552755654836,
                3.129937526748705
            ]
        },
        {
            "positions": [
                -0.14053875292851747,
                -1.27369033375646,
                2.227755763427894,
                -0.9169867966933566,
                0.7576781810770743,
                3.1430190745160136
            ]
        },
        {
            "positions": [
                -0.20637632732742744,
                -1.3072417305147974,
                2.2918078392571197,
                -0.9511162951902381,
                0.9147010865886651,
                3.156100622283322
            ]
        },
        {
            "positions": [
                -0.27221390172633736,
                -1.3407931272731348,
                2.355859915086346,
                -0.9852457936871197,
                1.0717239921002557,
                3.1691821700506306
            ]
        },
        {
            "positions": [
                -0.33805147612524733,
                -1.3743445240314724,
                2.4199119909155717,
                -1.0193752921840014,
                1.2287468976118465,
                3.182263717817939
            ]
        }
    ]
}{
    "goal": {
        "global_pose": {
            "orientation": {
                "w": 0.5084816217422485,
                "x": -0.49083608388900757,
                "y": 0.5182115435600281,
                "z": -0.4816462993621826
            },
            "position": {
                "x": 0.5540239810943604,
                "y": 0.030875300988554955,
                "z": 0.16403168439865112
            }
        },
        "name": "move_to_storage_A"
    },
    "id": "BiEST_move_to_storage_A_143",
    "joint_names": [
        "shoulder_pan_joint",
        "shoulder_lift_joint",
        "elbow_joint",
        "wrist_1_joint",
        "wrist_2_joint",
        "wrist_3_joint"
    ],
    "metrics": {
        "cart_traj_len": 0.35356453302403984,
        "distance_elbow_joint": 0.45141188040054514,
        "distance_shoulder_lift_joint": 0.23348518051446443,
        "distance_shoulder_pan_joint": 0.46158047225834375,
        "distance_wrist_1_joint": 0.25481902929409883,
        "distance_wrist_2_joint": 1.1022330746051598,
        "distance_wrist_3_joint": 0.09117447811947033,
        "smoothness": 0.0,
        "time": 0.066311048,
        "traj_len": 1.610808528408042,
        "weighted_distance": 2.033249904790427
    },
    "planner": "BiEST",
    "start": {
        "state": {
            "elbow_joint": 1.9715472970024885,
            "shoulder_lift_joint": -1.1394870060712896,
            "shoulder_pan_joint": 0.12281152778156021,
            "wrist_1_joint": -0.780463741449964,
            "wrist_2_joint": 0.12958659822042276,
            "wrist_3_joint": 3.090690232415272
        }
    },
    "waypoints": [
        {
            "positions": [
                0.12281152778156021,
                -1.1394870060712896,
                1.9715472970024885,
                -0.780463741449964,
                0.12958659822042276,
                3.090690232415272
            ]
        },
        {
            "positions": [
                0.056871460316082534,
                -1.1728420318590702,
                2.036034708488281,
                -0.8168664599205495,
                0.28704846602115985,
                3.1037151578609103
            ]
        },
        {
            "positions": [
                -0.009068607149395141,
                -1.2061970576468508,
                2.1005221199740727,
                -0.853269178391135,
                0.444510333821897,
                3.1167400833065493
            ]
        },
        {
            "positions": [
                -0.07500867461487282,
                -1.2395520834346314,
                2.165009531459865,
                -0.8896718968617207,
                0.6019722016226341,
                3.1297650087521878
            ]
        },
        {
            "positions": [
                -0.1409487420803505,
                -1.272907109222412,
                2.2294969429456573,
                -0.9260746153323062,
                0.7594340694233712,
                3.1427899341978263
            ]
        },
        {
            "positions": [
                -0.2068888095458282,
                -1.3062621350101928,
                2.2939843544314495,
                -0.9624773338028918,
                0.9168959372241083,
                3.1558148596434648
            ]
        },
        {
            "positions": [
                -0.27282887701130587,
                -1.3396171607979734,
                2.3584717659172414,
                -0.9988800522734773,
                1.0743578050248455,
                3.1688397850891037
            ]
        },
        {
            "positions": [
                -0.3387689444767835,
                -1.372972186585754,
                2.4229591774030337,
                -1.0352827707440628,
                1.2318196728255826,
                3.181864710534742
            ]
        }
    ]
}