{
    "goal": {
        "global_pose": {
            "orientation": {
                "w": -0.4816463035849501,
                "x": 0.5182115481033762,
                "y": 0.4908360881923453,
                "z": -0.5084816262002911
            },
            "position": {
                "x": -0.8240239810943604,
                "y": -0.300875300988555,
                "z": 0.16403168439865112
            }
        },
        "name": "move_to_storage_C"
    },
    "id": "BiEST_move_to_storage_C_90",
    "joint_names": [
        "shoulder_pan_joint",
        "shoulder_lift_joint",
        "elbow_joint",
        "wrist_1_joint",
        "wrist_2_joint",
        "wrist_3_joint"
    ],
    "metrics": {
        "cart_traj_len": 0.5767526938152199,
        "distance_elbow_joint": 0.2573367530754824,
        "distance_shoulder_lift_joint": 0.19042943294479986,
        "distance_shoulder_pan_joint": 0.49529637175662167,
        "distance_wrist_1_joint": 0.07405629606937514,
        "distance_wrist_2_joint": 1.0622096374811028,
        "distance_wrist_3_joint": 0.07531114451500542,
        "smoothness": 0.0,
        "time": 0.108413713,
        "traj_len": 1.467869079939484,
        "weighted_distance": 1.8551355364023612
    },
    "planner": "BiEST",
    "start": {
        "state": {
            "elbow_joint": 2.010868314990456,
            "shoulder_lift_joint": -1.1634956873337592,
            "shoulder_pan_joint": -2.4736205022346125,
            "wrist_1_joint": -0.8367026794202681,
            "wrist_2_joint": 0.6746043897044499,
            "wrist_3_joint": -3.1496632123970403
        }
    },
    "waypoints": [
        {
            "positions": [
                -2.4736205022346125,
                -1.1634956873337592,
                2.010868314990456,
                -0.8367026794202681,
                0.6746043897044499,
                -3.1496632123970403
            ]
        },
        {
            "positions": [
                -2.5561698975273828,
                -1.1317574485096258,
                1.9679788561445422,
                -0.8243599634087055,
                0.8516393292846337,
                -3.137111354977873
            ]
        },
        {
            "positions": [
                -2.638719292820153,
                -1.1000192096854926,
                1.9250893972986283,
                -0.8120172473971431,
                1.0286742688648176,
                -3.124559497558705
            ]
        },
        {
            "positions": [
                -2.7212686881129233,
                -1.0682809708613592,
                1.8821999384527146,
                -0.7996745313855805,
                1.2057092084450014,
                -3.1120076401395376
            ]
        },
        {
            "positions": [
                -2.8038180834056936,
                -1.036542732037226,
                1.839310479606801,
                -0.787331815374018,
                1.3827441480251852,
                -3.09945578272037
            ]
        },
        {
            "positions": [
                -2.886367478698464,
                -1.0048044932130926,
                1.796421020760887,
                -0.7749890993624555,
                1.559779087605369,
                -3.0869039253012023
            ]
        },
        {
            "positions": [
                -2.968916873991234,
                -0.9730662543889593,
                1.7535315619149734,
                -0.762646383350893,
                1.7368140271855528,
                -3.074352067882035
            ]
        }
    ]
}