{
    "goal": {
        "global_pose": {
            "orientation": {
                "w": -0.4816463035849501,
                "x": 0.5182115481033762,
                "y": 0.4908360881923453,
                "z": -0.5084816262002911
            },
            "position": {
                "x": -0.8240239810943604,
                "y": -0.300875300988555,
                "z": 0.16403168439865112
            }
        },
        "name": "move_to_storage_C"
    },
    "id": "BiEST_move_to_storage_C_74",
    "joint_names": [
        "shoulder_pan_joint",
        "shoulder_lift_joint",
        "elbow_joint",
        "wrist_1_joint",
        "wrist_2_joint",
        "wrist_3_joint"
    ],
    "metrics": {
        "cart_traj_len": 0.5759981029864815,
        "distance_elbow_joint": 0.26004608386176287,
        "distance_shoulder_lift_joint": 0.18812970375108717,
        "distance_shoulder_pan_joint": 0.4942282647314413,
        "distance_wrist_1_joint": 0.08949984279920842,
        "distance_wrist_2_joint": 1.0675672142794195,
        "distance_wrist_3_joint": 0.0764782992637878,
        "smoothness": 2.5376526478085547e-16,
        "time": 0.097808217,
        "traj_len": 1.4751099649472603,
        "weighted_distance": 1.867076073515193
    },
    "planner": "BiEST",
    "start": {
        "state": {
            "elbow_joint": 2.010868314990456,
            "shoulder_lift_joint": -1.1634956873337592,
            "shoulder_pan_joint": -2.4736205022346125,
            "wrist_1_joint": -0.8367026794202681,
            "wrist_2_joint": 0.6746043897044499,
            "wrist_3_joint": -3.1496632123970403
        }
    },
    "waypoints": [
        {
            "positions": [
                -2.4736205022346125,
                -1.1634956873337592,
                2.010868314990456,
                -0.8367026794202681,
                0.6746043897044499,
                -3.1496632123970403
            ]
        },
        {
            "positions": [
                -2.5559918796898526,
                -1.132140736708578,
                1.9675273010134953,
                -0.8217860389537334,
                0.8525322587510198,
                -3.136916829186409
            ]
        },
        {
            "positions": [
                -2.638363257145093,
                -1.1007857860833967,
                1.924186287036535,
                -0.8068693984871986,
                1.0304601277975898,
                -3.1241704459757775
            ]
        },
        {
            "positions": [
                -2.7207346346003334,
                -1.0694308354582156,
                1.8808452730595744,
                -0.7919527580206639,
                1.2083879968441598,
                -3.1114240627651464
            ]
        },
        {
            "positions": [
                -2.8031060120555735,
                -1.0380758848330345,
                1.8375042590826138,
                -0.7770361175541292,
                1.3863158658907295,
                -3.0986776795545152
            ]
        },
        {
            "positions": [
                -2.8854773895108137,
                -1.0067209342078531,
                1.7941632451056535,
                -0.7621194770875944,
                1.5642437349372995,
                -3.0859312963438836
            ]
        },
        {
            "positions": [
                -2.967848766966054,
                -0.975365983582672,
                1.750822231128693,
                -0.7472028366210597,
                1.7421716039838695,
                -3.0731849131332525
            ]
        }
    ]
}