{
    "goal": {
        "global_pose": {
            "orientation": {
                "w": -0.00223480608172531,
                "x": 0.0024358444001904467,
                "y": 0.7094548369677653,
                "z": -0.704743149386269
            },
            "position": {
                "x": -0.37947507619857795,
                "y": -0.6371506643295288,
                "z": 0.19426114857196808
            }
        },
        "name": "move_to_magneteinheit_C"
    },
    "id": "BiEST_move_to_magneteinheit_C_23",
    "joint_names": [
        "shoulder_pan_joint",
        "shoulder_lift_joint",
        "elbow_joint",
        "wrist_1_joint",
        "wrist_2_joint",
        "wrist_3_joint"
    ],
    "metrics": {
        "cart_traj_len": 0.6721660986548431,
        "distance_elbow_joint": 0.42486769813559366,
        "distance_shoulder_lift_joint": 0.2531464572865223,
        "distance_shoulder_pan_joint": 0.8693866999372462,
        "distance_wrist_1_joint": 1.6697908657943525,
        "distance_wrist_2_joint": 1.4872265423361153,
        "distance_wrist_3_joint": 2.22668254807319,
        "smoothness": 1.0013359914473086,
        "time": 0.25682425000000003,
        "traj_len": 2.632698389782434,
        "weighted_distance": 3.813329688846726
    },
    "planner": "BiEST",
    "start": {
        "state": {
            "elbow_joint": 1.9565354010623817,
            "shoulder_lift_joint": -1.4165861575791021,
            "shoulder_pan_joint": -1.6717766225146293,
            "wrist_1_joint": -0.5286633292919765,
            "wrist_2_joint": 1.472756589071564,
            "wrist_3_joint": -3.1238370188695823
        }
    },
    "waypoints": [
        {
            "positions": [
                -1.6717766225146293,
                -1.4165861575791021,
                1.9565354010623817,
                -0.5286633292919765,
                1.472756589071564,
                -3.1238370188695823
            ]
        },
        {
            "positions": [
                -1.7370411004707722,
                -1.4081870417146047,
                1.9390109612985527,
                -0.45985229873194233,
                1.3580784584103354,
                -3.0145918361826225
            ]
        },
        {
            "positions": [
                -1.8023055784269149,
                -1.3997879258501071,
                1.9214865215347237,
                -0.3910412681719082,
                1.2434003277491066,
                -2.905346653495663
            ]
        },
        {
            "positions": [
                -1.8675700563830575,
                -1.3913888099856098,
                1.9039620817708949,
                -0.3222302376118741,
                1.1287221970878778,
                -2.7961014708087033
            ]
        },
        {
            "positions": [
                -1.9328345343392004,
                -1.3829896941211124,
                1.8864376420070659,
                -0.25341920705183996,
                1.0140440664266492,
                -2.686856288121744
            ]
        },
        {
            "positions": [
                -1.9980990122953433,
                -1.374590578256615,
                1.8689132022432369,
                -0.18460817649180583,
                0.8993659357654206,
                -2.577611105434784
            ]
        },
        {
            "positions": [
                -2.063363490251486,
                -1.3661914623921174,
                1.8513887624794079,
                -0.1157971459317717,
                0.7846878051041919,
                -2.4683659227478243
            ]
        },
        {
            "positions": [
                -2.1286279682076286,
                -1.35779234652762,
                1.8338643227155789,
                -0.046986115371737636,
                0.6700096744429632,
                -2.359120740060865
            ]
        },
        {
            "positions": [
                -2.1938924461637717,
                -1.3493932306631227,
                1.81633988295175,
                0.021824915188296545,
                0.5553315437817345,
                -2.249875557373905
            ]
        },
        {
            "positions": [
                -2.2591569241199143,
                -1.340994114798625,
                1.798815443187921,
                0.09063594574833067,
                0.44065341312050577,
                -2.1406303746869453
            ]
        },
        {
            "positions": [
                -2.324421402076057,
                -1.3325949989341277,
                1.781291003424092,
                0.1594469763083648,
                0.3259752824592772,
                -2.031385191999986
            ]
        },
        {
            "positions": [
                -2.378145258225734,
                -1.3268635974446785,
                1.841052314264077,
                0.13445935487549102,
                0.3610295540071843,
                -2.1350970363407096
            ]
        },
        {
            "positions": [
                -2.431869114375411,
                -1.3211321959552291,
                1.9008136251040615,
                0.10947173344261726,
                0.3960838255550913,
                -2.2388088806814337
            ]
        },
        {
            "positions": [
                -2.4855929705250883,
                -1.31540079446578,
                1.9605749359440463,
                0.08448411200974348,
                0.4311380971029984,
                -2.3425207250221574
            ]
        },
        {
            "positions": [
                -2.491263517411565,
                -1.2937379336341166,
                1.9753648495692095,
                -0.04449836735747614,
                0.46913841510887394,
                -2.4666681593336444
            ]
        },
        {
            "positions": [
                -2.496934064298042,
                -1.2720750728024532,
                1.9901547631943726,
                -0.17348084672469577,
                0.5071387331147496,
                -2.5908155936451314
            ]
        },
        {
            "positions": [
                -2.502604611184519,
                -1.2504122119707899,
                2.004944676819536,
                -0.3024633260919154,
                0.5451390511206251,
                -2.714963027956619
            ]
        },
        {
            "positions": [
                -2.5082751580709957,
                -1.2287493511391265,
                2.019734590444699,
                -0.431445805459135,
                0.5831393691265007,
                -2.839110462268106
            ]
        },
        {
            "positions": [
                -2.4973124366107022,
                -1.206979467523611,
                2.0160080192858,
                -0.561708398267972,
                0.610899752145369,
                -2.9479456125799306
            ]
        },
        {
            "positions": [
                -2.4863497151504093,
                -1.1852095839080954,
                2.012281448126901,
                -0.691970991076809,
                0.6386601351642371,
                -3.056780762891755
            ]
        },
        {
            "positions": [
                -2.475386993690116,
                -1.1634397002925798,
                2.008554876968002,
                -0.8222335838856462,
                0.6664205181831054,
                -3.1656159132035797
            ]
        }
    ]
}