{
    "goal": {
        "global_pose": {
            "orientation": {
                "w": 0.005598929693374612,
                "x": 0.007748599140229565,
                "y": 0.7110244013736278,
                "z": -0.7031023480610252
            },
            "position": {
                "x": 0.1141497679147869,
                "y": -0.7141253447532654,
                "z": 0.3711530566215515
            }
        },
        "name": "move_to_auspresseinheit_B"
    },
    "id": "BiEST_move_to_auspresseinheit_B_142",
    "joint_names": [
        "shoulder_pan_joint",
        "shoulder_lift_joint",
        "elbow_joint",
        "wrist_1_joint",
        "wrist_2_joint",
        "wrist_3_joint"
    ],
    "metrics": {
        "cart_traj_len": 0.5650595090966293,
        "distance_elbow_joint": 0.06268072806554947,
        "distance_shoulder_lift_joint": 0.2951781274996359,
        "distance_shoulder_pan_joint": 0.5795290201002097,
        "distance_wrist_1_joint": 0.3313104179214038,
        "distance_wrist_2_joint": 0.985727128022527,
        "distance_wrist_3_joint": 0.005760008090057944,
        "smoothness": 5.075305255429287e-16,
        "time": 0.08986416,
        "traj_len": 1.5033913095729214,
        "weighted_distance": 1.8943977913372445
    },
    "planner": "BiEST",
    "start": {
        "state": {
            "elbow_joint": 2.0193083361928714,
            "shoulder_lift_joint": -1.1220246554650708,
            "shoulder_pan_joint": -1.0952077554168747,
            "wrist_1_joint": -0.8559753972642168,
            "wrist_2_joint": 0.4759566250798843,
            "wrist_3_joint": -3.1240929996934557
        }
    },
    "waypoints": [
        {
            "positions": [
                -1.0952077554168747,
                -1.1220246554650708,
                2.0193083361928714,
                -0.8559753972642168,
                0.4759566250798843,
                -3.1240929996934557
            ]
        },
        {
            "positions": [
                -1.1917959254335764,
                -1.1712210100483436,
                2.0088615481819465,
                -0.8007569942773162,
                0.6402444797503055,
                -3.123132998345113
            ]
        },
        {
            "positions": [
                -1.2883840954502779,
                -1.220417364631616,
                1.9984147601710216,
                -0.7455385912904156,
                0.8045323344207267,
                -3.1221729969967695
            ]
        },
        {
            "positions": [
                -1.3849722654669794,
                -1.2696137192148886,
                1.9879679721600967,
                -0.6903201883035148,
                0.9688201890911479,
                -3.1212129956484267
            ]
        },
        {
            "positions": [
                -1.481560435483681,
                -1.3188100737981614,
                1.9775211841491718,
                -0.6351017853166143,
                1.133108043761569,
                -3.120252994300084
            ]
        },
        {
            "positions": [
                -1.5781486055003828,
                -1.3680064283814342,
                1.9670743961382469,
                -0.5798833823297136,
                1.2973958984319902,
                -3.1192929929517406
            ]
        },
        {
            "positions": [
                -1.6747367755170843,
                -1.4172027829647067,
                1.956627608127322,
                -0.524664979342813,
                1.4616837531024114,
                -3.1183329916033977
            ]
        }
    ]
}