{
    "goal": {
        "global_pose": {
            "orientation": {
                "w": 0.7031023502349854,
                "x": -0.7110244035720825,
                "y": 0.007748599164187908,
                "z": 0.005598929710686207
            },
            "position": {
                "x": 0.11585023208521307,
                "y": 0.44412534475326537,
                "z": 0.3711530566215515
            }
        },
        "name": "move_to_auspresseinheit_A"
    },
    "id": "BiEST_move_to_auspresseinheit_A_16",
    "joint_names": [
        "shoulder_pan_joint",
        "shoulder_lift_joint",
        "elbow_joint",
        "wrist_1_joint",
        "wrist_2_joint",
        "wrist_3_joint"
    ],
    "metrics": {
        "cart_traj_len": 0.6629968532176017,
        "distance_elbow_joint": 0.11311063168541802,
        "distance_shoulder_lift_joint": 0.5349379074591636,
        "distance_shoulder_pan_joint": 1.0419471817727743,
        "distance_wrist_1_joint": 0.5530549361639456,
        "distance_wrist_2_joint": 0.6503256396792196,
        "distance_wrist_3_joint": 0.8780683176631676,
        "smoothness": 0.7495046369961788,
        "time": 0.056814292,
        "traj_len": 1.9420207554049695,
        "weighted_distance": 2.5944097258515644
    },
    "planner": "BiEST",
    "start": {
        "state": {
            "elbow_joint": 2.4225746658250005,
            "shoulder_lift_joint": -1.3736534386056498,
            "shoulder_pan_joint": -0.3378633547517467,
            "wrist_1_joint": -1.0288598680537169,
            "wrist_2_joint": 1.233022673432363,
            "wrist_3_joint": -3.0940220416140027
        }
    },
    "waypoints": [
        {
            "positions": [
                -0.3378633547517467,
                -1.3736534386056498,
                2.4225746658250005,
                -1.0288598680537169,
                1.233022673432363,
                -3.0940220416140027
            ]
        },
        {
            "positions": [
                -0.28444575877037337,
                -1.455395586743454,
                2.42977533522654,
                -0.953188253306008,
                1.1344403398382001,
                -3.0235918359816796
            ]
        },
        {
            "positions": [
                -0.231028162789,
                -1.5371377348812583,
                2.4369760046280797,
                -0.8775166385582991,
                1.0358580062440372,
                -2.9531616303493564
            ]
        },
        {
            "positions": [
                -0.17761056680762663,
                -1.6188798830190625,
                2.4441766740296194,
                -0.8018450238105901,
                0.9372756726498743,
                -2.8827314247170337
            ]
        },
        {
            "positions": [
                -0.12419297082625327,
                -1.7006220311568665,
                2.451377343431159,
                -0.7261734090628812,
                0.8386933390557115,
                -2.8123012190847105
            ]
        },
        {
            "positions": [
                -0.07077537484487989,
                -1.7823641792946707,
                2.4585780128326986,
                -0.6505017943151722,
                0.7401110054615485,
                -2.7418710134523874
            ]
        },
        {
            "positions": [
                -0.017357778863506534,
                -1.864106327432475,
                2.4657786822342382,
                -0.5748301795674633,
                0.6415286718673857,
                -2.671440807820064
            ]
        },
        {
            "positions": [
                0.16300262260762702,
                -1.8752275820905595,
                2.4483020284151933,
                -0.5500738676480403,
                0.6562365813959463,
                -2.7853125787873716
            ]
        },
        {
            "positions": [
                0.34336302407876057,
                -1.886348836748644,
                2.4308253745961483,
                -0.5253175557286173,
                0.6709444909245068,
                -2.8991843497546785
            ]
        },
        {
            "positions": [
                0.5237234255498942,
                -1.8974700914067288,
                2.413348720777103,
                -0.5005612438091943,
                0.6856524004530674,
                -3.013056120721986
            ]
        },
        {
            "positions": [
                0.7040838270210277,
                -1.9085913460648134,
                2.395872066958058,
                -0.4758049318897713,
                0.700360309981628,
                -3.1269278916892933
            ]
        }
    ]
}