{
    "goal": {
        "global_pose": {
            "orientation": {
                "w": 0.7031023480610252,
                "x": -0.7110244013736278,
                "y": 0.0077485991402295624,
                "z": 0.005598929693374583
            },
            "position": {
                "x": -0.8841497679147869,
                "y": 0.44412534475326537,
                "z": 0.3711530566215515
            }
        },
        "name": "move_to_auspresseinheit_D"
    },
    "id": "BiEST_move_to_auspresseinheit_D_51",
    "joint_names": [
        "shoulder_pan_joint",
        "shoulder_lift_joint",
        "elbow_joint",
        "wrist_1_joint",
        "wrist_2_joint",
        "wrist_3_joint"
    ],
    "metrics": {
        "cart_traj_len": 0.3429053651639473,
        "distance_elbow_joint": 0.6401429707829622,
        "distance_shoulder_lift_joint": 0.12177718067579324,
        "distance_shoulder_pan_joint": 0.13302794789264816,
        "distance_wrist_1_joint": 0.53989167307425,
        "distance_wrist_2_joint": 1.4385363071541093,
        "distance_wrist_3_joint": 0.00736051854832942,
        "smoothness": 3.9474596431116675e-16,
        "time": 0.053369313,
        "traj_len": 1.6972732832776494,
        "weighted_distance": 2.207687843752624
    },
    "planner": "BiEST",
    "start": {
        "state": {
            "elbow_joint": -1.8275523626775212,
            "shoulder_lift_joint": -2.126789852344167,
            "shoulder_pan_joint": -0.03513704404078235,
            "wrist_1_joint": -2.347782403156801,
            "wrist_2_joint": -1.6058999987535132,
            "wrist_3_joint": -3.0880379163319196
        }
    },
    "waypoints": [
        {
            "positions": [
                -0.03513704404078235,
                -2.126789852344167,
                -1.8275523626775212,
                -2.347782403156801,
                -1.6058999987535132,
                -3.0880379163319196
            ]
        },
        {
            "positions": [
                -0.05176553752736337,
                -2.142011999928641,
                -1.7475344913296509,
                -2.4152688622910823,
                -1.4260829603592495,
                -3.0871178515133786
            ]
        },
        {
            "positions": [
                -0.0683940310139444,
                -2.1572341475131154,
                -1.6675166199817806,
                -2.4827553214253633,
                -1.2462659219649859,
                -3.086197786694837
            ]
        },
        {
            "positions": [
                -0.08502252450052541,
                -2.1724562950975894,
                -1.5874987486339103,
                -2.5502417805596447,
                -1.0664488835707222,
                -3.085277721876296
            ]
        },
        {
            "positions": [
                -0.10165101798710643,
                -2.1876784426820635,
                -1.50748087728604,
                -2.6177282396939257,
                -0.8866318451764585,
                -3.0843576570577547
            ]
        },
        {
            "positions": [
                -0.11827951147368745,
                -2.2029005902665375,
                -1.4274630059381699,
                -2.685214698828207,
                -0.7068148067821949,
                -3.0834375922392137
            ]
        },
        {
            "positions": [
                -0.13490800496026847,
                -2.2181227378510115,
                -1.3474451345902996,
                -2.7527011579624885,
                -0.5269977683879312,
                -3.0825175274206726
            ]
        },
        {
            "positions": [
                -0.1515364984468495,
                -2.233344885435486,
                -1.2674272632424293,
                -2.8201876170967695,
                -0.34718072999366756,
                -3.081597462602131
            ]
        },
        {
            "positions": [
                -0.1681649919334305,
                -2.24856703301996,
                -1.187409391894559,
                -2.887674076231051,
                -0.16736369159940384,
                -3.08067739778359
            ]
        }
    ]
}