{
    "goal": {
        "global_pose": {
            "orientation": {
                "w": -0.00223480608172531,
                "x": 0.0024358444001904467,
                "y": 0.7094548369677653,
                "z": -0.704743149386269
            },
            "position": {
                "x": -0.37947507619857795,
                "y": -0.6371506643295288,
                "z": 0.19426114857196808
            }
        },
        "name": "move_to_magneteinheit_C"
    },
    "id": "BiEST_move_to_magneteinheit_C_115",
    "joint_names": [
        "shoulder_pan_joint",
        "shoulder_lift_joint",
        "elbow_joint",
        "wrist_1_joint",
        "wrist_2_joint",
        "wrist_3_joint"
    ],
    "metrics": {
        "cart_traj_len": 2.905878908600428,
        "distance_elbow_joint": 3.635099780818271,
        "distance_shoulder_lift_joint": 1.2686550291931327,
        "distance_shoulder_pan_joint": 1.7446803432730744,
        "distance_wrist_1_joint": 4.097046797517665,
        "distance_wrist_2_joint": 3.161956770113965,
        "distance_wrist_3_joint": 6.212596217834047,
        "smoothness": 0.37560483315913296,
        "time": 0.163480595,
        "traj_len": 4.4855361930041475,
        "weighted_distance": 6.309059434024209
    },
    "planner": "BiEST",
    "start": {
        "state": {
            "elbow_joint": 1.9565354010623817,
            "shoulder_lift_joint": -1.4165861575791021,
            "shoulder_pan_joint": -1.6717766225146293,
            "wrist_1_joint": -0.5286633292919765,
            "wrist_2_joint": 1.472756589071564,
            "wrist_3_joint": -3.1238370188695823
        }
    },
    "waypoints": [
        {
            "positions": [
                -1.6717766225146293,
                -1.4165861575791021,
                1.9565354010623817,
                -0.5286633292919765,
                1.472756589071564,
                -3.1238370188695823
            ]
        },
        {
            "positions": [
                -1.668711128955125,
                -1.4592998709671403,
                1.9557803186084441,
                -0.48313699368884394,
                1.389882231009856,
                -2.9296369386291405
            ]
        },
        {
            "positions": [
                -1.665645635395621,
                -1.5020135843551785,
                1.9550252361545069,
                -0.4376106580857114,
                1.3070078729481482,
                -2.735436858388699
            ]
        },
        {
            "positions": [
                -1.6625801418361168,
                -1.5447272977432167,
                1.9542701537005693,
                -0.39208432248257885,
                1.2241335148864403,
                -2.5412367781482574
            ]
        },
        {
            "positions": [
                -1.6487536634104383,
                -1.5440432937398214,
                1.8716648598671293,
                -0.36918071231916666,
                1.1697987358238793,
                -2.4180412641602795
            ]
        },
        {
            "positions": [
                -1.6349271849847598,
                -1.5433592897364263,
                1.7890595660336892,
                -0.3462771021557545,
                1.1154639567613183,
                -2.294845750172302
            ]
        },
        {
            "positions": [
                -1.6211007065590812,
                -1.542675285733031,
                1.7064542722002491,
                -0.32337349199234233,
                1.0611291776987573,
                -2.171650236184324
            ]
        },
        {
            "positions": [
                -1.6205328839995226,
                -1.5223046633458464,
                1.5962649050385544,
                -0.2716898647144907,
                1.002221113699838,
                -2.04461286467821
            ]
        },
        {
            "positions": [
                -1.6199650614399637,
                -1.5019340409586617,
                1.4860755378768595,
                -0.2200062374366391,
                0.9433130497009188,
                -1.917575493172095
            ]
        },
        {
            "positions": [
                -1.619397238880405,
                -1.481563418571477,
                1.3758861707151648,
                -0.16832261015878747,
                0.8844049857019995,
                -1.7905381216659806
            ]
        },
        {
            "positions": [
                -1.6188294163208463,
                -1.461192796184292,
                1.2656968035534701,
                -0.11663898288093585,
                0.8254969217030803,
                -1.6635007501598658
            ]
        },
        {
            "positions": [
                -1.6182615937612876,
                -1.4408221737971074,
                1.1555074363917752,
                -0.06495535560308419,
                0.7665888577041611,
                -1.5364633786537514
            ]
        },
        {
            "positions": [
                -1.6176937712017287,
                -1.4204515514099227,
                1.0453180692300805,
                -0.013271728325232601,
                0.7076807937052418,
                -1.4094260071476368
            ]
        },
        {
            "positions": [
                -1.61712594864217,
                -1.400080929022738,
                0.9351287020683857,
                0.03841189895261904,
                0.6487727297063226,
                -1.2823886356415222
            ]
        },
        {
            "positions": [
                -1.6165581260826114,
                -1.3797103066355534,
                0.824939334906691,
                0.09009552623047062,
                0.5898646657074034,
                -1.1553512641354076
            ]
        },
        {
            "positions": [
                -1.6159903035230525,
                -1.3593396842483687,
                0.7147499677449961,
                0.14177915350832232,
                0.5309566017084841,
                -1.028313892629293
            ]
        },
        {
            "positions": [
                -1.6154224809634938,
                -1.3389690618611838,
                0.6045606005833013,
                0.19346278078617396,
                0.4720485377095649,
                -0.9012765211231784
            ]
        },
        {
            "positions": [
                -1.6148546584039352,
                -1.3185984394739991,
                0.4943712334216066,
                0.24514640806402554,
                0.41314047371064566,
                -0.774239149617064
            ]
        },
        {
            "positions": [
                -1.6142868358443765,
                -1.2982278170868145,
                0.3841818662599119,
                0.29683003534187713,
                0.3542324097117264,
                -0.6472017781109494
            ]
        },
        {
            "positions": [
                -1.6137190132848176,
                -1.2778571946996298,
                0.273992499098217,
                0.3485136626197288,
                0.2953243457128072,
                -0.5201644066048348
            ]
        },
        {
            "positions": [
                -1.613151190725259,
                -1.257486572312445,
                0.16380313193652232,
                0.4001972898975804,
                0.23641628171388793,
                -0.39312703509872027
            ]
        },
        {
            "positions": [
                -1.715928833163658,
                -1.2048205415744135,
                0.19754045219869182,
                0.5083296961342563,
                0.1813030191644498,
                -0.3689916756724917
            ]
        },
        {
            "positions": [
                -1.8187064756020572,
                -1.152154510836382,
                0.23127777246086134,
                0.616462102370932,
                0.12618975661501164,
                -0.3448563162462632
            ]
        },
        {
            "positions": [
                -1.9214841180404563,
                -1.0994884800983504,
                0.2650150927230308,
                0.7245945086076079,
                0.07107649406557351,
                -0.3207209568200346
            ]
        },
        {
            "positions": [
                -2.0242617604788555,
                -1.0468224493603189,
                0.29875241298520033,
                0.8327269148442837,
                0.01596323151613535,
                -0.2965855973938061
            ]
        },
        {
            "positions": [
                -2.1270394029172546,
                -0.9941564186222873,
                0.33248973324736986,
                0.9408593210809596,
                -0.03915003103330281,
                -0.2724502379675775
            ]
        },
        {
            "positions": [
                -2.2298170453556536,
                -0.9414903878842558,
                0.3662270535095393,
                1.0489917273176355,
                -0.09426329358274091,
                -0.24831487854134893
            ]
        },
        {
            "positions": [
                -2.332594687794053,
                -0.8888243571462241,
                0.39996437377170885,
                1.1571241335543112,
                -0.14937655613217912,
                -0.22417951911512038
            ]
        },
        {
            "positions": [
                -2.435372330232452,
                -0.8361583264081927,
                0.43370169403387837,
                1.265256539790987,
                -0.20448981868161722,
                -0.20004415968889183
            ]
        },
        {
            "positions": [
                -2.538149972670851,
                -0.783492295670161,
                0.4674390142960479,
                1.373388946027663,
                -0.2596030812310554,
                -0.17590880026266326
            ]
        },
        {
            "positions": [
                -2.5963000477500806,
                -0.7877256033570393,
                0.5852951949506996,
                1.2535789981384942,
                -0.3013916754455878,
                -0.1520566969489434
            ]
        },
        {
            "positions": [
                -2.6544501228293096,
                -0.7919589110439177,
                0.7031513756053512,
                1.1337690502493256,
                -0.34318026966012016,
                -0.12820459363522352
            ]
        },
        {
            "positions": [
                -2.712600197908539,
                -0.7961922187307962,
                0.821007556260003,
                1.013959102360157,
                -0.38496886387465257,
                -0.10435249032150365
            ]
        },
        {
            "positions": [
                -2.7707502729877684,
                -0.8004255264176745,
                0.9388637369146546,
                0.8941491544709883,
                -0.42675745808918497,
                -0.08050038700778378
            ]
        },
        {
            "positions": [
                -2.8289003480669974,
                -0.8046588341045529,
                1.0567199175693063,
                0.7743392065818197,
                -0.4685460523037174,
                -0.05664828369406391
            ]
        },
        {
            "positions": [
                -2.887050423146227,
                -0.8088921417914312,
                1.174576098223958,
                0.654529258692651,
                -0.5103346465182498,
                -0.03279618038034404
            ]
        },
        {
            "positions": [
                -2.8660607935418447,
                -0.8194167155245901,
                1.211895959742192,
                0.5812797009950065,
                -0.450249509624301,
                -0.21014417809761887
            ]
        },
        {
            "positions": [
                -2.8450711639374626,
                -0.829941289257749,
                1.249215821260426,
                0.508030143297362,
                -0.39016437273035226,
                -0.3874921758148937
            ]
        },
        {
            "positions": [
                -2.8240815343330805,
                -0.8404658629909079,
                1.2865356827786603,
                0.43478058559971733,
                -0.3300792358364035,
                -0.5648401735321685
            ]
        },
        {
            "positions": [
                -2.8030919047286984,
                -0.8509904367240667,
                1.3238555442968942,
                0.3615310279020728,
                -0.26999409894245474,
                -0.7421881712494434
            ]
        },
        {
            "positions": [
                -2.7821022751243163,
                -0.8615150104572257,
                1.3611754058151284,
                0.28828147020442824,
                -0.20990896204850595,
                -0.9195361689667182
            ]
        },
        {
            "positions": [
                -2.761112645519934,
                -0.8720395841903845,
                1.3984952673333624,
                0.21503191250678372,
                -0.14982382515455717,
                -1.096884166683993
            ]
        },
        {
            "positions": [
                -2.740123015915552,
                -0.8825641579235434,
                1.4358151288515966,
                0.14178235480913925,
                -0.08973868826060849,
                -1.2742321644012677
            ]
        },
        {
            "positions": [
                -2.71913338631117,
                -0.8930887316567022,
                1.4731349903698305,
                0.06853279711149463,
                -0.029653551366659647,
                -1.4515801621185427
            ]
        },
        {
            "positions": [
                -2.698143756706788,
                -0.9036133053898612,
                1.5104548518880647,
                -0.004716760586149893,
                0.030431585527289085,
                -1.6289281598358174
            ]
        },
        {
            "positions": [
                -2.6771541271024057,
                -0.91413787912302,
                1.547774713406299,
                -0.07796631828379452,
                0.09051672242123787,
                -1.8062761575530923
            ]
        },
        {
            "positions": [
                -2.6561644974980236,
                -0.9246624528561789,
                1.5850945749245329,
                -0.15121587598143893,
                0.15060185931518655,
                -1.983624155270367
            ]
        },
        {
            "positions": [
                -2.6351748678936415,
                -0.9351870265893378,
                1.6224144364427668,
                -0.22446543367908356,
                0.21068699620913545,
                -2.1609721529876422
            ]
        },
        {
            "positions": [
                -2.6141852382892594,
                -0.9457116003224967,
                1.659734297961001,
                -0.2977149913767281,
                0.2707721331030841,
                -2.338320150704917
            ]
        },
        {
            "positions": [
                -2.594286596259864,
                -0.9767201120801576,
                1.7092252044849914,
                -0.37255650349010433,
                0.3275948123749153,
                -2.454896066279236
            ]
        },
        {
            "positions": [
                -2.574387954230468,
                -1.0077286238378185,
                1.7587161110089815,
                -0.4473980156034806,
                0.38441749164674643,
                -2.571471981853555
            ]
        },
        {
            "positions": [
                -2.554489312201073,
                -1.0387371355954795,
                1.8082070175329719,
                -0.5222395277168569,
                0.4412401709185776,
                -2.6880478974278743
            ]
        },
        {
            "positions": [
                -2.5345906701716774,
                -1.0697456473531404,
                1.857697924056962,
                -0.5970810398302331,
                0.4980628501904088,
                -2.804623813002193
            ]
        },
        {
            "positions": [
                -2.514692028142282,
                -1.1007541591108012,
                1.9071888305809523,
                -0.6719225519436094,
                0.55488552946224,
                -2.921199728576512
            ]
        },
        {
            "positions": [
                -2.494793386112886,
                -1.1317626708684623,
                1.9566797371049425,
                -0.7467640640569857,
                0.6117082087340711,
                -3.0377756441508312
            ]
        },
        {
            "positions": [
                -2.4748947440834907,
                -1.1627711826261231,
                2.006170643628933,
                -0.821605576170362,
                0.6685308880059023,
                -3.1543515597251504
            ]
        }
    ]
}