{
    "goal": {
        "global_pose": {
            "orientation": {
                "w": -0.4816463035849501,
                "x": 0.5182115481033762,
                "y": 0.4908360881923453,
                "z": -0.5084816262002911
            },
            "position": {
                "x": -0.8240239810943604,
                "y": -0.300875300988555,
                "z": 0.16403168439865112
            }
        },
        "name": "move_to_storage_C"
    },
    "id": "BiEST_move_to_storage_C_15",
    "joint_names": [
        "shoulder_pan_joint",
        "shoulder_lift_joint",
        "elbow_joint",
        "wrist_1_joint",
        "wrist_2_joint",
        "wrist_3_joint"
    ],
    "metrics": {
        "cart_traj_len": 0.5766423524205605,
        "distance_elbow_joint": 0.2592132412380095,
        "distance_shoulder_lift_joint": 0.19066316764256863,
        "distance_shoulder_pan_joint": 0.4946811327032963,
        "distance_wrist_1_joint": 0.07986481519753874,
        "distance_wrist_2_joint": 1.0642666983630704,
        "distance_wrist_3_joint": 0.07329229453121533,
        "smoothness": 0.0,
        "time": 0.024328118,
        "traj_len": 1.470367760009617,
        "weighted_distance": 1.8581435499709753
    },
    "planner": "BiEST",
    "start": {
        "state": {
            "elbow_joint": 2.010868314990456,
            "shoulder_lift_joint": -1.1634956873337592,
            "shoulder_pan_joint": -2.4736205022346125,
            "wrist_1_joint": -0.8367026794202681,
            "wrist_2_joint": 0.6746043897044499,
            "wrist_3_joint": -3.1496632123970403
        }
    },
    "waypoints": [
        {
            "positions": [
                -2.4736205022346125,
                -1.1634956873337592,
                2.010868314990456,
                -0.8367026794202681,
                0.6746043897044499,
                -3.1496632123970403
            ]
        },
        {
            "positions": [
                -2.556067357685162,
                -1.1317184927266644,
                1.9676661081174542,
                -0.8233918768873449,
                0.8519821727649617,
                -3.137447829975171
            ]
        },
        {
            "positions": [
                -2.638514213135711,
                -1.0999412981195698,
                1.9244639012444527,
                -0.8100810743544219,
                1.0293599558254733,
                -3.125232447553302
            ]
        },
        {
            "positions": [
                -2.7209610685862606,
                -1.068164103512475,
                1.881261694371451,
                -0.7967702718214987,
                1.2067377388859852,
                -3.113017065131433
            ]
        },
        {
            "positions": [
                -2.80340792403681,
                -1.03638690890538,
                1.8380594874984495,
                -0.7834594692885756,
                1.3841155219464967,
                -3.1008016827095632
            ]
        },
        {
            "positions": [
                -2.8858547794873592,
                -1.0046097142982853,
                1.794857280625448,
                -0.7701486667556525,
                1.5614933050070086,
                -3.088586300287694
            ]
        },
        {
            "positions": [
                -2.9683016349379088,
                -0.9728325196911906,
                1.7516550737524463,
                -0.7568378642227294,
                1.7388710880675202,
                -3.076370917865825
            ]
        }
    ]
}