{
    "goal": {
        "global_pose": {
            "orientation": {
                "w": 0.7047431493862688,
                "x": -0.7094548369677653,
                "y": 0.0024358444001904,
                "z": -0.0022348060817251984
            },
            "position": {
                "x": -0.39052492380142206,
                "y": 0.3671506643295288,
                "z": 0.19426114857196808
            }
        },
        "name": "move_to_magneteinheit_D"
    },
    "id": "BiEST_move_to_magneteinheit_D_149",
    "joint_names": [
        "shoulder_pan_joint",
        "shoulder_lift_joint",
        "elbow_joint",
        "wrist_1_joint",
        "wrist_2_joint",
        "wrist_3_joint"
    ],
    "metrics": {
        "cart_traj_len": 3.954877993345007,
        "distance_elbow_joint": 3.105796512238162,
        "distance_shoulder_lift_joint": 1.1765098859919987,
        "distance_shoulder_pan_joint": 3.2442818007054637,
        "distance_wrist_1_joint": 3.938046714812812,
        "distance_wrist_2_joint": 1.0586693103503357,
        "distance_wrist_3_joint": 0.9728652093040475,
        "smoothness": 0.45315036163207195,
        "time": 0.18627416800000002,
        "traj_len": 3.673713303103934,
        "weighted_distance": 4.520908744619168
    },
    "planner": "BiEST",
    "start": {
        "state": {
            "elbow_joint": 0.749534889911806,
            "shoulder_lift_joint": -0.6476975780787326,
            "shoulder_pan_joint": -2.711696901376241,
            "wrist_1_joint": -0.07506478083263063,
            "wrist_2_joint": 0.43296659715538205,
            "wrist_3_joint": -3.14703540197715
        }
    },
    "waypoints": [
        {
            "positions": [
                -2.711696901376241,
                -0.6476975780787326,
                0.749534889911806,
                -0.07506478083263063,
                0.43296659715538205,
                -3.14703540197715
            ]
        },
        {
            "positions": [
                -2.7305235054331063,
                -0.6366744653231841,
                0.6976025371029088,
                0.06382021249366915,
                0.45949641649574846,
                -3.1261548072921177
            ]
        },
        {
            "positions": [
                -2.749350109489971,
                -0.6256513525676355,
                0.6456701842940115,
                0.20270520581996893,
                0.4860262358361149,
                -3.1052742126070854
            ]
        },
        {
            "positions": [
                -2.7681767135468363,
                -0.6146282398120869,
                0.5937378314851143,
                0.3415901991462687,
                0.5125560551764813,
                -3.084393617922053
            ]
        },
        {
            "positions": [
                -2.775992953501775,
                -0.6089748517166402,
                0.530964902633318,
                0.49145650423427734,
                0.5304629308636091,
                -3.047051200544842
            ]
        },
        {
            "positions": [
                -2.748755289308826,
                -0.6735404586787039,
                0.4735453401830066,
                0.5749398842248206,
                0.5624735081995245,
                -2.944824501255793
            ]
        },
        {
            "positions": [
                -2.7215176251158764,
                -0.7381060656407675,
                0.4161257777326952,
                0.6584232642153638,
                0.59448408553544,
                -2.8425978019667446
            ]
        },
        {
            "positions": [
                -2.694279960922927,
                -0.8026716726028311,
                0.3587062152823838,
                0.7419066442059069,
                0.6264946628713555,
                -2.7403711026776962
            ]
        },
        {
            "positions": [
                -2.667042296729978,
                -0.8672372795648948,
                0.3012866528320724,
                0.8253900241964501,
                0.6585052402072709,
                -2.6381444033886474
            ]
        },
        {
            "positions": [
                -2.5513281823161136,
                -0.877881881293859,
                0.19784964141579342,
                0.7004986909191996,
                0.6378860050725775,
                -2.6501861165921263
            ]
        },
        {
            "positions": [
                -2.4356140679022493,
                -0.8885264830228231,
                0.09441262999951444,
                0.5756073576419491,
                0.6172667699378842,
                -2.662227829795605
            ]
        },
        {
            "positions": [
                -2.3198999534883855,
                -0.8991710847517873,
                -0.009024381416764538,
                0.45071602436469854,
                0.5966475348031909,
                -2.6742695429990837
            ]
        },
        {
            "positions": [
                -2.2041858390745213,
                -0.9098156864807514,
                -0.11246139283304352,
                0.32582469108744805,
                0.5760282996684976,
                -2.686311256202562
            ]
        },
        {
            "positions": [
                -2.088471724660657,
                -0.9204602882097156,
                -0.21589840424932255,
                0.2009333578101975,
                0.5554090645338041,
                -2.698352969406041
            ]
        },
        {
            "positions": [
                -1.9727576102467927,
                -0.9311048899386798,
                -0.3193354156656015,
                0.07604202453294695,
                0.5347898293991108,
                -2.71039468260952
            ]
        },
        {
            "positions": [
                -1.8570434958329285,
                -0.9417494916676439,
                -0.4227724270818805,
                -0.0488493087443036,
                0.5141705942644175,
                -2.7224363958129985
            ]
        },
        {
            "positions": [
                -1.7413293814190647,
                -0.9523940933966081,
                -0.5262094384981595,
                -0.17374064202155404,
                0.49355135912972414,
                -2.7344781090164774
            ]
        },
        {
            "positions": [
                -1.6256152670052004,
                -0.9630386951255722,
                -0.6296464499144385,
                -0.2986319752988046,
                0.4729321239950308,
                -2.746519822219956
            ]
        },
        {
            "positions": [
                -1.5099011525913362,
                -0.9736832968545364,
                -0.7330834613307176,
                -0.42352330857605514,
                0.4523128888603375,
                -2.7585615354234347
            ]
        },
        {
            "positions": [
                -1.3941870381774721,
                -0.9843278985835004,
                -0.8365204727469964,
                -0.5484146418533057,
                0.43169365372564417,
                -2.770603248626913
            ]
        },
        {
            "positions": [
                -1.2784729237636079,
                -0.9949725003124646,
                -0.9399574841632754,
                -0.6733059751305562,
                0.4110744185909508,
                -2.782644961830392
            ]
        },
        {
            "positions": [
                -1.1627588093497438,
                -1.0056171020414288,
                -1.0433944955795542,
                -0.7981973084078066,
                0.39045518345625746,
                -2.794686675033871
            ]
        },
        {
            "positions": [
                -1.0470446949358794,
                -1.016261703770393,
                -1.1468315069958335,
                -0.9230886416850573,
                0.3698359483215641,
                -2.8067283882373495
            ]
        },
        {
            "positions": [
                -0.9313305805220153,
                -1.026906305499357,
                -1.2502685184121123,
                -1.047979974962308,
                0.34921671318687075,
                -2.8187701014408284
            ]
        },
        {
            "positions": [
                -0.8156164661081513,
                -1.0375509072283213,
                -1.3537055298283913,
                -1.172871308239558,
                0.3285974780521774,
                -2.830811814644307
            ]
        },
        {
            "positions": [
                -0.699902351694287,
                -1.0481955089572854,
                -1.4571425412446704,
                -1.297762641516809,
                0.30797824291748405,
                -2.8428535278477858
            ]
        },
        {
            "positions": [
                -0.584188237280423,
                -1.0588401106862495,
                -1.5605795526609494,
                -1.4226539747940592,
                0.2873590077827908,
                -2.8548952410512642
            ]
        },
        {
            "positions": [
                -0.46847412286655876,
                -1.0694847124152136,
                -1.6640165640772282,
                -1.5475453080713097,
                0.26673977264809745,
                -2.866936954254743
            ]
        },
        {
            "positions": [
                -0.3527600084526945,
                -1.080129314144178,
                -1.7674535754935075,
                -1.6724366413485603,
                0.24612053751340407,
                -2.878978667458222
            ]
        },
        {
            "positions": [
                -0.23704589403883025,
                -1.090773915873142,
                -1.870890586909786,
                -1.7973279746258108,
                0.22550130237871074,
                -2.8910203806617005
            ]
        },
        {
            "positions": [
                -0.12133177962496644,
                -1.101418517602106,
                -1.974327598326065,
                -1.9222193079030614,
                0.20488206724401742,
                -2.9030620938651794
            ]
        },
        {
            "positions": [
                -0.005617665211102185,
                -1.1120631193310704,
                -2.077764609742344,
                -2.047110641180312,
                0.18426283210932404,
                -2.9151038070686583
            ]
        },
        {
            "positions": [
                0.11009644920276196,
                -1.1227077210600345,
                -2.181201621158623,
                -2.1720019744575625,
                0.1636435969746307,
                -2.927145520272137
            ]
        },
        {
            "positions": [
                0.05131718002768323,
                -1.2475185791173369,
                -2.2162136213921695,
                -2.1800419566835063,
                0.09598979216146938,
                -2.962140139038548
            ]
        },
        {
            "positions": [
                -0.007462089147395504,
                -1.3723294371746393,
                -2.2512256216257165,
                -2.18808193890945,
                0.028335987348308056,
                -2.997134757804959
            ]
        },
        {
            "positions": [
                -0.06624135832247421,
                -1.4971402952319417,
                -2.286237621859263,
                -2.1961219211353935,
                -0.039317817464853244,
                -3.03212937657137
            ]
        },
        {
            "positions": [
                -0.12502062749755297,
                -1.621951153289244,
                -2.32124962209281,
                -2.2041619033613373,
                -0.1069716222780146,
                -3.067123995337781
            ]
        },
        {
            "positions": [
                -0.1837998966726317,
                -1.7467620113465465,
                -2.3562616223263566,
                -2.212201885587281,
                -0.17462542709117593,
                -3.1021186141041923
            ]
        }
    ]
}