{
    "goal": {
        "global_pose": {
            "orientation": {
                "w": -0.00223480608172531,
                "x": 0.0024358444001904467,
                "y": 0.7094548369677653,
                "z": -0.704743149386269
            },
            "position": {
                "x": 0.6205249238014221,
                "y": -0.6371506643295288,
                "z": 0.19426114857196808
            }
        },
        "name": "move_to_magneteinheit_B"
    },
    "id": "BiEST_move_to_magneteinheit_B_136",
    "joint_names": [
        "shoulder_pan_joint",
        "shoulder_lift_joint",
        "elbow_joint",
        "wrist_1_joint",
        "wrist_2_joint",
        "wrist_3_joint"
    ],
    "metrics": {
        "cart_traj_len": 1.625060466159503,
        "distance_elbow_joint": 1.3312087126617507,
        "distance_shoulder_lift_joint": 0.8859144999582791,
        "distance_shoulder_pan_joint": 1.6205826353475548,
        "distance_wrist_1_joint": 3.3796368907145227,
        "distance_wrist_2_joint": 2.4945042949122813,
        "distance_wrist_3_joint": 1.5613291094791357,
        "smoothness": 0.7715927477885456,
        "time": 0.158826442,
        "traj_len": 3.3575550841458317,
        "weighted_distance": 4.502218958209229
    },
    "planner": "BiEST",
    "start": {
        "state": {
            "elbow_joint": 2.6216224122426386,
            "shoulder_lift_joint": -1.4174107377796124,
            "shoulder_pan_joint": 0.7066234856936794,
            "wrist_1_joint": 1.9546482284002225,
            "wrist_2_joint": -0.7096286983471962,
            "wrist_3_joint": 0.005740856962016249
        }
    },
    "waypoints": [
        {
            "positions": [
                0.7066234856936794,
                -1.4174107377796124,
                2.6216224122426386,
                1.9546482284002225,
                -0.7096286983471962,
                0.005740856962016249
            ]
        },
        {
            "positions": [
                0.5639176007434729,
                -1.449482947230579,
                2.585963733560975,
                1.9299554226853983,
                -0.6336988135448169,
                -0.07865693736842463
            ]
        },
        {
            "positions": [
                0.42121171579326633,
                -1.4815551566815457,
                2.5503050548793116,
                1.9052626169705742,
                -0.5577689287424376,
                -0.1630547316988655
            ]
        },
        {
            "positions": [
                0.3548037846384069,
                -1.4777617461024588,
                2.46080359246409,
                1.7760950886730436,
                -0.5297490046223353,
                -0.098072864101885
            ]
        },
        {
            "positions": [
                0.2883958534835475,
                -1.473968335523372,
                2.3713021300488686,
                1.646927560375513,
                -0.5017290805022331,
                -0.03309099650490449
            ]
        },
        {
            "positions": [
                0.22198792232868808,
                -1.4701749249442853,
                2.2818006676336466,
                1.5177600320779823,
                -0.4737091563821308,
                0.03189087109207603
            ]
        },
        {
            "positions": [
                0.1555799911738287,
                -1.4663815143651984,
                2.192299205218425,
                1.3885925037804516,
                -0.4456892322620285,
                0.09687273868905652
            ]
        },
        {
            "positions": [
                0.08917206001896921,
                -1.4625881037861115,
                2.1027977428032036,
                1.2594249754829212,
                -0.41766930814192627,
                0.16185460628603707
            ]
        },
        {
            "positions": [
                0.022764128864109834,
                -1.4587946932070248,
                2.013296280387982,
                1.1302574471853903,
                -0.38964938402182403,
                0.22683647388301756
            ]
        },
        {
            "positions": [
                -0.0436438022907496,
                -1.455001282627938,
                1.9237948179727606,
                1.00108991888786,
                -0.36162945990172174,
                0.2918183414799981
            ]
        },
        {
            "positions": [
                -0.11005173344560892,
                -1.451207872048851,
                1.8342933555575391,
                0.8719223905903293,
                -0.3336095357816195,
                0.3568002090769785
            ]
        },
        {
            "positions": [
                -0.17645966460046847,
                -1.4474144614697642,
                1.7447918931423174,
                0.7427548622927986,
                -0.3055896116615172,
                0.42178207667395906
            ]
        },
        {
            "positions": [
                -0.2428675957553279,
                -1.4436210508906773,
                1.6552904307270957,
                0.613587333995268,
                -0.277569687541415,
                0.4867639442709396
            ]
        },
        {
            "positions": [
                -0.3092755269101872,
                -1.4398276403115906,
                1.5657889683118742,
                0.48441980569773735,
                -0.24954976342131274,
                0.55174581186792
            ]
        },
        {
            "positions": [
                -0.37568345806504666,
                -1.4360342297325037,
                1.4762875058966527,
                0.3552522774002067,
                -0.22152983930121045,
                0.6167276794649006
            ]
        },
        {
            "positions": [
                -0.41095465451764324,
                -1.3849354772715947,
                1.4885097154661047,
                0.47248869285656814,
                -0.3537413004459369,
                0.576364750524206
            ]
        },
        {
            "positions": [
                -0.4462258509702398,
                -1.3338367248106855,
                1.5007319250355569,
                0.5897251083129296,
                -0.48595276159066336,
                0.5360018215835113
            ]
        },
        {
            "positions": [
                -0.48149704742283644,
                -1.2827379723497765,
                1.5129541346050088,
                0.706961523769291,
                -0.6181642227353898,
                0.49563889264281663
            ]
        },
        {
            "positions": [
                -0.5167682438754331,
                -1.2316392198888675,
                1.525176344174461,
                0.8241979392256524,
                -0.7503756838801163,
                0.455275963702122
            ]
        },
        {
            "positions": [
                -0.5520394403280295,
                -1.1805404674279583,
                1.537398553743913,
                0.9414343546820138,
                -0.8825871450248426,
                0.4149130347614273
            ]
        },
        {
            "positions": [
                -0.5873106367806262,
                -1.1294417149670493,
                1.549620763313365,
                1.0586707701383753,
                -1.0147986061695693,
                0.37455010582073267
            ]
        },
        {
            "positions": [
                -0.6225818332332228,
                -1.0783429625061403,
                1.5618429728828171,
                1.1759071855947365,
                -1.1470100673142956,
                0.33418717688003796
            ]
        },
        {
            "positions": [
                -0.6578530296858194,
                -1.027244210045231,
                1.5740651824522691,
                1.293143601051098,
                -1.279221528459022,
                0.29382424793934336
            ]
        },
        {
            "positions": [
                -0.693124226138416,
                -0.976145457584322,
                1.5862873920217213,
                1.4103800165074594,
                -1.4114329896037485,
                0.2534613189986487
            ]
        },
        {
            "positions": [
                -0.7283954225910125,
                -0.925046705123413,
                1.5985096015911733,
                1.5276164319638208,
                -1.5436444507484748,
                0.21309839005795406
            ]
        },
        {
            "positions": [
                -0.7636666190436091,
                -0.8739479526625039,
                1.6107318111606252,
                1.6448528474201822,
                -1.6758559118932013,
                0.1727354611172594
            ]
        },
        {
            "positions": [
                -0.7989378154962058,
                -0.8228492002015948,
                1.6229540207300774,
                1.7620892628765439,
                -1.808067373037928,
                0.1323725321765647
            ]
        },
        {
            "positions": [
                -0.8342090119488024,
                -0.7717504477406857,
                1.6351762302995294,
                1.879325678332905,
                -1.9402788341826545,
                0.09200960323587004
            ]
        },
        {
            "positions": [
                -0.869480208401399,
                -0.7206516952797767,
                1.6473984398689816,
                1.9965620937892665,
                -2.072490295327381,
                0.05164667429517533
            ]
        },
        {
            "positions": [
                -0.9047514048539955,
                -0.6695529428188676,
                1.6596206494384336,
                2.113798509245628,
                -2.204701756472107,
                0.011283745354480727
            ]
        },
        {
            "positions": [
                -0.9139591496538745,
                -0.6597850756252,
                1.6621613122124175,
                2.1354932171147136,
                -2.2279352751675057,
                0.003976569810412256
            ]
        }
    ]
}