{
    "goal": {
        "global_pose": {
            "orientation": {
                "w": 0.005598929693374612,
                "x": 0.007748599140229565,
                "y": 0.7110244013736278,
                "z": -0.7031023480610252
            },
            "position": {
                "x": -0.8858502320852131,
                "y": -0.7141253447532654,
                "z": 0.3711530566215515
            }
        },
        "name": "move_to_auspresseinheit_C"
    },
    "id": "BiEST_move_to_auspresseinheit_C_7",
    "joint_names": [
        "shoulder_pan_joint",
        "shoulder_lift_joint",
        "elbow_joint",
        "wrist_1_joint",
        "wrist_2_joint",
        "wrist_3_joint"
    ],
    "metrics": {
        "cart_traj_len": 0.49344862689701147,
        "distance_elbow_joint": 1.0066304623081446,
        "distance_shoulder_lift_joint": 0.32809076393251857,
        "distance_shoulder_pan_joint": 0.2554320272285082,
        "distance_wrist_1_joint": 0.6833018731944706,
        "distance_wrist_2_joint": 1.3174912552531364,
        "distance_wrist_3_joint": 0.05122408983721849,
        "smoothness": 1.1304088990788627e-15,
        "time": 0.280183134,
        "traj_len": 1.9084471362220115,
        "weighted_distance": 2.396958860697455
    },
    "planner": "BiEST",
    "start": {
        "state": {
            "elbow_joint": 1.7527959577737207,
            "shoulder_lift_joint": -0.9740617694225068,
            "shoulder_pan_joint": -2.967991417825858,
            "wrist_1_joint": -0.759517768980727,
            "wrist_2_joint": 1.7443932448377408,
            "wrist_3_joint": -3.0840537646736568
        }
    },
    "waypoints": [
        {
            "positions": [
                -2.967991417825858,
                -0.9740617694225068,
                1.7527959577737207,
                -0.759517768980727,
                1.7443932448377408,
                -3.0840537646736568
            ]
        },
        {
            "positions": [
                -2.942448215103007,
                -0.941252693029255,
                1.6521329115429062,
                -0.6911875816612799,
                1.6126441193124272,
                -3.0891761736573784
            ]
        },
        {
            "positions": [
                -2.9169050123801563,
                -0.908443616636003,
                1.5514698653120917,
                -0.6228573943418328,
                1.4808949937871136,
                -3.0942985826411005
            ]
        },
        {
            "positions": [
                -2.8913618096573055,
                -0.8756345402427512,
                1.4508068190812773,
                -0.5545272070223858,
                1.3491458682617998,
                -3.0994209916248225
            ]
        },
        {
            "positions": [
                -2.8658186069344547,
                -0.8428254638494993,
                1.3501437728504628,
                -0.48619701970293877,
                1.2173967427364862,
                -3.104543400608544
            ]
        },
        {
            "positions": [
                -2.840275404211604,
                -0.8100163874562475,
                1.2494807266196484,
                -0.4178668323834917,
                1.0856476172111726,
                -3.109665809592266
            ]
        },
        {
            "positions": [
                -2.814732201488753,
                -0.7772073110629957,
                1.148817680388834,
                -0.34953664506404464,
                0.953898491685859,
                -3.114788218575988
            ]
        },
        {
            "positions": [
                -2.789188998765902,
                -0.7443982346697438,
                1.0481546341580195,
                -0.2812064577445976,
                0.8221493661605455,
                -3.11991062755971
            ]
        },
        {
            "positions": [
                -2.7636457960430514,
                -0.7115891582764919,
                0.947491587927205,
                -0.21287627042515056,
                0.6904002406352316,
                -3.1250330365434316
            ]
        },
        {
            "positions": [
                -2.7381025933202006,
                -0.6787800818832401,
                0.8468285416963905,
                -0.1445460831057035,
                0.558651115109918,
                -3.130155445527153
            ]
        },
        {
            "positions": [
                -2.7125593905973497,
                -0.6459710054899882,
                0.7461654954655762,
                -0.07621589578625639,
                0.42690198958460435,
                -3.1352778545108753
            ]
        }
    ]
}