{
    "goal": {
        "global_pose": {
            "orientation": {
                "w": -0.00223480608172531,
                "x": 0.0024358444001904467,
                "y": 0.7094548369677653,
                "z": -0.704743149386269
            },
            "position": {
                "x": 0.6205249238014221,
                "y": -0.6371506643295288,
                "z": 0.19426114857196808
            }
        },
        "name": "move_to_magneteinheit_B"
    },
    "id": "BiEST_move_to_magneteinheit_B_102",
    "joint_names": [
        "shoulder_pan_joint",
        "shoulder_lift_joint",
        "elbow_joint",
        "wrist_1_joint",
        "wrist_2_joint",
        "wrist_3_joint"
    ],
    "metrics": {
        "cart_traj_len": 3.4899436479685515,
        "distance_elbow_joint": 5.2506328570306735,
        "distance_shoulder_lift_joint": 0.9434295405060684,
        "distance_shoulder_pan_joint": 2.112618437617242,
        "distance_wrist_1_joint": 4.496322334440686,
        "distance_wrist_2_joint": 0.4814407734809029,
        "distance_wrist_3_joint": 3.1550252671897976,
        "smoothness": 0.23057479340919732,
        "time": 0.240426252,
        "traj_len": 4.054561531197346,
        "weighted_distance": 5.265670218743911
    },
    "planner": "BiEST",
    "start": {
        "state": {
            "elbow_joint": 2.6216224122426386,
            "shoulder_lift_joint": -1.4174107377796124,
            "shoulder_pan_joint": 0.7066234856936794,
            "wrist_1_joint": 1.9546482284002225,
            "wrist_2_joint": -0.7096286983471962,
            "wrist_3_joint": 0.005740856962016249
        }
    },
    "waypoints": [
        {
            "positions": [
                0.7066234856936794,
                -1.4174107377796124,
                2.6216224122426386,
                1.9546482284002225,
                -0.7096286983471962,
                0.005740856962016249
            ]
        },
        {
            "positions": [
                0.6668811081935417,
                -1.5052459156692395,
                2.5293913311838656,
                1.8919658332079226,
                -0.6215478501675277,
                0.014939049060473724
            ]
        },
        {
            "positions": [
                0.6271387306934042,
                -1.5930810935588668,
                2.4371602501250926,
                1.8292834380156224,
                -0.5334670019878591,
                0.0241372411589312
            ]
        },
        {
            "positions": [
                0.6634106433008401,
                -1.5894873161360452,
                2.2701348617119357,
                1.7238554382908802,
                -0.5285035856481299,
                -0.05161753693494716
            ]
        },
        {
            "positions": [
                0.6996825559082759,
                -1.5858935387132238,
                2.1031094732987787,
                1.6184274385661381,
                -0.5235401693084006,
                -0.1273723150288255
            ]
        },
        {
            "positions": [
                0.7359544685157118,
                -1.5822997612904022,
                1.9360840848856218,
                1.5129994388413959,
                -0.5185767529686715,
                -0.20312709312270388
            ]
        },
        {
            "positions": [
                0.7722263811231476,
                -1.5787059838675805,
                1.7690586964724648,
                1.4075714391166538,
                -0.5136133366289422,
                -0.27888187121658226
            ]
        },
        {
            "positions": [
                0.8084982937305836,
                -1.5751122064447591,
                1.6020333080593077,
                1.3021434393919116,
                -0.508649920289213,
                -0.3546366493104606
            ]
        },
        {
            "positions": [
                0.8447702063380194,
                -1.5715184290219375,
                1.4350079196461507,
                1.1967154396671695,
                -0.5036865039494837,
                -0.430391427404339
            ]
        },
        {
            "positions": [
                0.8810421189454553,
                -1.5679246515991159,
                1.2679825312329935,
                1.0912874399424273,
                -0.4987230876097545,
                -0.5061462054982173
            ]
        },
        {
            "positions": [
                0.917314031552891,
                -1.5643308741762945,
                1.1009571428198368,
                0.9858594402176851,
                -0.49375967127002524,
                -0.5819009835920956
            ]
        },
        {
            "positions": [
                0.9535859441603269,
                -1.5607370967534728,
                0.9339317544066796,
                0.880431440492943,
                -0.488796254930296,
                -0.6576557616859741
            ]
        },
        {
            "positions": [
                0.9898578567677628,
                -1.5571433193306512,
                0.7669063659935227,
                0.7750034407682007,
                -0.48383283859056675,
                -0.7334105397798524
            ]
        },
        {
            "positions": [
                1.0261297693751987,
                -1.5535495419078298,
                0.599880977580366,
                0.6695754410434587,
                -0.4788694222508375,
                -0.8091653178737307
            ]
        },
        {
            "positions": [
                1.0624016819826345,
                -1.5499557644850082,
                0.4328555891672088,
                0.5641474413187164,
                -0.47390600591110826,
                -0.8849200959676091
            ]
        },
        {
            "positions": [
                1.0986735945900703,
                -1.5463619870621865,
                0.26583020075405184,
                0.4587194415939744,
                -0.468942589571379,
                -0.9606748740614874
            ]
        },
        {
            "positions": [
                1.1349455071975063,
                -1.5427682096393651,
                0.09880481234089444,
                0.3532914418692319,
                -0.4639791732316498,
                -1.036429652155366
            ]
        },
        {
            "positions": [
                1.171217419804942,
                -1.5391744322165435,
                -0.06822057607226206,
                0.24786344214448985,
                -0.45901575689192053,
                -1.1121844302492443
            ]
        },
        {
            "positions": [
                1.2074893324123779,
                -1.5355806547937219,
                -0.235245964485419,
                0.14243544241974782,
                -0.45405234055219135,
                -1.1879392083431226
            ]
        },
        {
            "positions": [
                1.2437612450198139,
                -1.5319868773709004,
                -0.4022713528985764,
                0.037007442695005555,
                -0.44908892421246205,
                -1.2636939864370011
            ]
        },
        {
            "positions": [
                1.2800331576272497,
                -1.5283930999480788,
                -0.5692967413117334,
                -0.06842055702973648,
                -0.44412550787273286,
                -1.3394487645308795
            ]
        },
        {
            "positions": [
                1.3163050702346855,
                -1.5247993225252572,
                -0.7363221297248899,
                -0.17384855675447874,
                -0.4391620915330036,
                -1.4152035426247578
            ]
        },
        {
            "positions": [
                1.3525769828421215,
                -1.5212055451024358,
                -0.9033475181380473,
                -0.279276556479221,
                -0.4341986751932744,
                -1.490958320718636
            ]
        },
        {
            "positions": [
                1.3888488954495573,
                -1.5176117676796141,
                -1.0703729065512042,
                -0.38470455620396327,
                -0.42923525885354513,
                -1.5667130988125144
            ]
        },
        {
            "positions": [
                1.425120808056993,
                -1.5140179902567925,
                -1.2373982949643607,
                -0.4901325559287051,
                -0.4242718425138159,
                -1.6424678769063927
            ]
        },
        {
            "positions": [
                1.461392720664429,
                -1.510424212833971,
                -1.404423683377518,
                -0.5955605556534473,
                -0.41930842617408665,
                -1.7182226550002713
            ]
        },
        {
            "positions": [
                1.4976646332718648,
                -1.5068304354111495,
                -1.571449071790675,
                -0.7009885553781896,
                -0.4143450098343574,
                -1.7939774330941496
            ]
        },
        {
            "positions": [
                1.5891677304080745,
                -1.5372313150473336,
                -1.6228248030996306,
                -0.8654187777938204,
                -0.4088779041096204,
                -1.8331832680155495
            ]
        },
        {
            "positions": [
                1.6806708275442843,
                -1.5676321946835177,
                -1.6742005344085864,
                -1.0298490002094511,
                -0.4034107983848834,
                -1.8723891029369497
            ]
        },
        {
            "positions": [
                1.772173924680494,
                -1.5980330743197018,
                -1.725576265717542,
                -1.194279222625082,
                -0.3979436926601464,
                -1.9115949378583497
            ]
        },
        {
            "positions": [
                1.8636770218167038,
                -1.6284339539558859,
                -1.7769519970264975,
                -1.358709445040713,
                -0.3924765869354094,
                -1.9508007727797496
            ]
        },
        {
            "positions": [
                1.9551801189529134,
                -1.65883483359207,
                -1.828327728335453,
                -1.5231396674563435,
                -0.38700948121067236,
                -1.9900066077011496
            ]
        },
        {
            "positions": [
                2.0466832160891233,
                -1.689235713228254,
                -1.8797034596444089,
                -1.6875698898719742,
                -0.3815423754859354,
                -2.0292124426225495
            ]
        },
        {
            "positions": [
                2.138186313225333,
                -1.7196365928644382,
                -1.9310791909533644,
                -1.852000112287605,
                -0.37607526976119837,
                -2.06841827754395
            ]
        },
        {
            "positions": [
                2.2296894103615426,
                -1.7500374725006222,
                -1.98245492226232,
                -2.016430334703236,
                -0.37060816403646135,
                -2.10762411246535
            ]
        },
        {
            "positions": [
                2.3211925074977526,
                -1.7804383521368063,
                -2.033830653571276,
                -2.1808605571188666,
                -0.36514105831172433,
                -2.14682994738675
            ]
        },
        {
            "positions": [
                2.4126956046339623,
                -1.8108392317729904,
                -2.085206384880231,
                -2.3452907795344977,
                -0.35967395258698737,
                -2.1860357823081498
            ]
        },
        {
            "positions": [
                2.504198701770172,
                -1.8412401114091745,
                -2.136582116189187,
                -2.5097210019501284,
                -0.35420684686225035,
                -2.2252416172295497
            ]
        },
        {
            "positions": [
                2.5302109870268716,
                -1.8990899198393532,
                -2.0545107280893795,
                -2.5043954846017393,
                -0.37521000052824316,
                -2.3731166213302832
            ]
        },
        {
            "positions": [
                2.556223272283572,
                -1.9569397282695318,
                -1.9724393399895717,
                -2.49906996725335,
                -0.39621315419423603,
                -2.5209916254310167
            ]
        },
        {
            "positions": [
                2.5822355575402716,
                -2.0147895366997104,
                -1.8903679518897643,
                -2.493744449904961,
                -0.4172163078602289,
                -2.6688666295317507
            ]
        },
        {
            "positions": [
                2.6082478427969713,
                -2.072639345129889,
                -1.8082965637899566,
                -2.4884189325565718,
                -0.4382194615262217,
                -2.8167416336324838
            ]
        },
        {
            "positions": [
                2.6342601280536715,
                -2.1304891535600676,
                -1.726225175690149,
                -2.4830934152081823,
                -0.4592226151922145,
                -2.9646166377332177
            ]
        },
        {
            "positions": [
                2.6602724133103712,
                -2.188338961990246,
                -1.6441537875903414,
                -2.4777678978597932,
                -0.4802257688582074,
                -3.112491641833951
            ]
        }
    ]
}