{
    "goal": {
        "global_pose": {
            "orientation": {
                "w": 0.5084816262002911,
                "x": -0.4908360881923452,
                "y": 0.5182115481033761,
                "z": -0.48164630358495003
            },
            "position": {
                "x": 0.5540239810943604,
                "y": -0.46912469901144505,
                "z": 0.16403168439865112
            }
        },
        "name": "move_to_storage_B"
    },
    "id": "BiEST_move_to_storage_B_120",
    "joint_names": [
        "shoulder_pan_joint",
        "shoulder_lift_joint",
        "elbow_joint",
        "wrist_1_joint",
        "wrist_2_joint",
        "wrist_3_joint"
    ],
    "metrics": {
        "cart_traj_len": 1.8372700248685399,
        "distance_elbow_joint": 0.5839499451073946,
        "distance_shoulder_lift_joint": 1.0473627926922016,
        "distance_shoulder_pan_joint": 1.690741803582735,
        "distance_wrist_1_joint": 2.997377905603,
        "distance_wrist_2_joint": 2.897756981481625,
        "distance_wrist_3_joint": 3.139013831043198,
        "smoothness": 0.18813345967443326,
        "time": 0.078115006,
        "traj_len": 3.5151391522257205,
        "weighted_distance": 4.952712974590914
    },
    "planner": "BiEST",
    "start": {
        "state": {
            "elbow_joint": 1.664937868594044,
            "shoulder_lift_joint": -0.661644460510453,
            "shoulder_pan_joint": -0.9139846352900073,
            "wrist_1_joint": 2.146753192139373,
            "wrist_2_joint": -2.2341966793290973,
            "wrist_3_joint": 0.005466555786416001
        }
    },
    "waypoints": [
        {
            "positions": [
                -0.9139846352900073,
                -0.661644460510453,
                1.664937868594044,
                2.146753192139373,
                -2.2341966793290973,
                0.005466555786416001
            ]
        },
        {
            "positions": [
                -0.8377785227646581,
                -0.7027635376548527,
                1.6355121430466997,
                2.102462619122825,
                -2.1356045261473424,
                0.09964466638907295
            ]
        },
        {
            "positions": [
                -0.7615724102393091,
                -0.7438826147992522,
                1.6060864174993552,
                2.058172046106277,
                -2.037012372965587,
                0.1938227769917299
            ]
        },
        {
            "positions": [
                -0.7353630043640839,
                -0.7731057884694528,
                1.6036771090277444,
                1.9589273569601846,
                -1.9235104915653625,
                0.3173969144658324
            ]
        },
        {
            "positions": [
                -0.7091535984888586,
                -0.8023289621396533,
                1.6012678005561336,
                1.859682667814092,
                -1.8100086101651378,
                0.4409710519399349
            ]
        },
        {
            "positions": [
                -0.6829441926136334,
                -0.8315521358098539,
                1.5988584920845228,
                1.7604379786679996,
                -1.6965067287649132,
                0.5645451894140374
            ]
        },
        {
            "positions": [
                -0.6567347867384081,
                -0.8607753094800544,
                1.596449183612912,
                1.6611932895219073,
                -1.5830048473646885,
                0.6881193268881399
            ]
        },
        {
            "positions": [
                -0.6305253808631828,
                -0.889998483150255,
                1.5940398751413012,
                1.561948600375815,
                -1.4695029659644638,
                0.8116934643622424
            ]
        },
        {
            "positions": [
                -0.6043159749879576,
                -0.9192216568204555,
                1.5916305666696906,
                1.4627039112297224,
                -1.3560010845642392,
                0.9352676018363449
            ]
        },
        {
            "positions": [
                -0.5781065691127323,
                -0.9484448304906561,
                1.5892212581980798,
                1.36345922208363,
                -1.2424992031640145,
                1.0588417393104477
            ]
        },
        {
            "positions": [
                -0.551897163237507,
                -0.9776680041608566,
                1.586811949726469,
                1.2642145329375376,
                -1.12899732176379,
                1.18241587678455
            ]
        },
        {
            "positions": [
                -0.5256877573622818,
                -1.0068911778310572,
                1.5844026412548582,
                1.164969843791445,
                -1.0154954403635654,
                1.3059900142586525
            ]
        },
        {
            "positions": [
                -0.49947835148705655,
                -1.0361143515012579,
                1.5819933327832474,
                1.0657251546453528,
                -0.9019935589633408,
                1.4295641517327549
            ]
        },
        {
            "positions": [
                -0.4732689456118313,
                -1.0653375251714583,
                1.5795840243116366,
                0.9664804654992603,
                -0.7884916775631161,
                1.5531382892068577
            ]
        },
        {
            "positions": [
                -0.44705953973660606,
                -1.0945606988416587,
                1.5771747158400258,
                0.867235776353168,
                -0.6749897961628915,
                1.67671242668096
            ]
        },
        {
            "positions": [
                -0.4208501338613808,
                -1.1237838725118594,
                1.574765407368415,
                0.7679910872070757,
                -0.561487914762667,
                1.8002865641550625
            ]
        },
        {
            "positions": [
                -0.3946407279861555,
                -1.15300704618206,
                1.5723560988968042,
                0.6687463980609829,
                -0.44798603336244214,
                1.9238607016291653
            ]
        },
        {
            "positions": [
                -0.36843132211093027,
                -1.1822302198522605,
                1.5699467904251934,
                0.5695017089148906,
                -0.3344841519622175,
                2.0474348391032677
            ]
        },
        {
            "positions": [
                -0.342221916235705,
                -1.211453393522461,
                1.5675374819535826,
                0.4702570197687983,
                -0.22098227056199304,
                2.17100897657737
            ]
        },
        {
            "positions": [
                -0.31601251036047984,
                -1.2406765671926616,
                1.565128173481972,
                0.371012330622706,
                -0.10748038916176839,
                2.2945831140514725
            ]
        },
        {
            "positions": [
                -0.28980310448525454,
                -1.2698997408628623,
                1.5627188650103612,
                0.27176764147661325,
                0.006021492238456272,
                2.4181572515255754
            ]
        },
        {
            "positions": [
                -0.2635936986100293,
                -1.2991229145330627,
                1.5603095565387504,
                0.17252295233052095,
                0.11952337363868093,
                2.5417313889996778
            ]
        },
        {
            "positions": [
                -0.237384292734804,
                -1.3283460882032632,
                1.5579002480671396,
                0.07327826318442865,
                0.2330252550389056,
                2.66530552647378
            ]
        },
        {
            "positions": [
                -0.21117488685957875,
                -1.3575692618734638,
                1.5554909395955288,
                -0.025966425961663653,
                0.34652713643913025,
                2.7888796639478826
            ]
        },
        {
            "positions": [
                -0.1849654809843535,
                -1.3867924355436645,
                1.553081631123918,
                -0.1252111151077564,
                0.4600290178393549,
                2.9124538014219854
            ]
        },
        {
            "positions": [
                -0.15875607510912823,
                -1.416015609213865,
                1.5506723226523071,
                -0.22445580425384865,
                0.5735308992395795,
                3.036027938896088
            ]
        },
        {
            "positions": [
                -0.2924008241665363,
                -1.3741596600726094,
                1.6177700939616868,
                -0.31390850556953126,
                0.5606695559663011,
                3.0515211457437346
            ]
        },
        {
            "positions": [
                -0.4260455732239443,
                -1.3323037109313536,
                1.6848678652710665,
                -0.40336120688521393,
                0.5478082126930226,
                3.067014352591381
            ]
        },
        {
            "positions": [
                -0.5596903222813524,
                -1.290447761790098,
                1.7519656365804461,
                -0.49281390820089654,
                0.5349468694197441,
                3.0825075594390277
            ]
        },
        {
            "positions": [
                -0.6933350713387605,
                -1.2485918126488422,
                1.8190634078898258,
                -0.5822666095165792,
                0.5220855261464658,
                3.0980007662866744
            ]
        },
        {
            "positions": [
                -0.8269798203961686,
                -1.2067358635075867,
                1.8861611791992057,
                -0.6717193108322619,
                0.5092241828731874,
                3.113493973134321
            ]
        },
        {
            "positions": [
                -0.9606245694535765,
                -1.164879914366331,
                1.9532589505085853,
                -0.7611720121479444,
                0.4963628395999089,
                3.1289871799819675
            ]
        },
        {
            "positions": [
                -1.0942693185109846,
                -1.1230239652250753,
                2.020356721817965,
                -0.850624713463627,
                0.4835014963266305,
                3.1444803868296143
            ]
        }
    ]
}