{
    "goal": {
        "global_pose": {
            "orientation": {
                "w": 0.7047431493862688,
                "x": -0.7094548369677653,
                "y": 0.0024358444001904,
                "z": -0.0022348060817251984
            },
            "position": {
                "x": -0.39052492380142206,
                "y": 0.3671506643295288,
                "z": 0.19426114857196808
            }
        },
        "name": "move_to_magneteinheit_D"
    },
    "id": "BiEST_move_to_magneteinheit_D_94",
    "joint_names": [
        "shoulder_pan_joint",
        "shoulder_lift_joint",
        "elbow_joint",
        "wrist_1_joint",
        "wrist_2_joint",
        "wrist_3_joint"
    ],
    "metrics": {
        "cart_traj_len": 4.550440567656283,
        "distance_elbow_joint": 5.510334510703955,
        "distance_shoulder_lift_joint": 1.9731761025701247,
        "distance_shoulder_pan_joint": 3.0278025977242087,
        "distance_wrist_1_joint": 2.877445556334001,
        "distance_wrist_2_joint": 0.5688323034313564,
        "distance_wrist_3_joint": 5.071167367902518,
        "smoothness": 0.5719719543811735,
        "time": 0.135376189,
        "traj_len": 4.3621965153654125,
        "weighted_distance": 5.711161968832312
    },
    "planner": "BiEST",
    "start": {
        "state": {
            "elbow_joint": 0.749534889911806,
            "shoulder_lift_joint": -0.6476975780787326,
            "shoulder_pan_joint": -2.711696901376241,
            "wrist_1_joint": -0.07506478083263063,
            "wrist_2_joint": 0.43296659715538205,
            "wrist_3_joint": -3.14703540197715
        }
    },
    "waypoints": [
        {
            "positions": [
                -2.711696901376241,
                -0.6476975780787326,
                0.749534889911806,
                -0.07506478083263063,
                0.43296659715538205,
                -3.14703540197715
            ]
        },
        {
            "positions": [
                -2.710012646405905,
                -0.6948261009364403,
                0.8157405770473193,
                -0.10600534548357528,
                0.41709805504623104,
                -2.921123945210902
            ]
        },
        {
            "positions": [
                -2.7083283914355696,
                -0.7419546237941479,
                0.8819462641828326,
                -0.13694591013451993,
                0.4012295129370801,
                -2.695212488444654
            ]
        },
        {
            "positions": [
                -2.7066441364652336,
                -0.7890831466518554,
                0.948151951318346,
                -0.16788647478546456,
                0.3853609708279291,
                -2.4693010316784068
            ]
        },
        {
            "positions": [
                -2.7049598814948976,
                -0.836211669509563,
                1.0143576384538593,
                -0.19882703943640923,
                0.3694924287187781,
                -2.243389574912159
            ]
        },
        {
            "positions": [
                -2.7032756265245617,
                -0.8833401923672707,
                1.0805633255893727,
                -0.22976760408735386,
                0.3536238866096271,
                -2.017478118145911
            ]
        },
        {
            "positions": [
                -2.701591371554226,
                -0.9304687152249782,
                1.146769012724886,
                -0.2607081687382985,
                0.3377553445004762,
                -1.7915666613796633
            ]
        },
        {
            "positions": [
                -2.69990711658389,
                -0.9775972380826858,
                1.2129746998603994,
                -0.29164873338924313,
                0.32188680239132517,
                -1.5656552046134153
            ]
        },
        {
            "positions": [
                -2.698222861613554,
                -1.0247257609403935,
                1.2791803869959129,
                -0.32258929804018777,
                0.30601826028217416,
                -1.3397437478471677
            ]
        },
        {
            "positions": [
                -2.6965386066432186,
                -1.071854283798101,
                1.345386074131426,
                -0.35352986269113246,
                0.29014971817302315,
                -1.1138322910809197
            ]
        },
        {
            "positions": [
                -2.6948543516728827,
                -1.1189828066558087,
                1.4115917612669393,
                -0.3844704273420771,
                0.2742811760638722,
                -0.8879208343146718
            ]
        },
        {
            "positions": [
                -2.6931700967025467,
                -1.1661113295135164,
                1.4777974484024528,
                -0.4154109919930218,
                0.2584126339547212,
                -0.6620093775484239
            ]
        },
        {
            "positions": [
                -2.6914858417322107,
                -1.213239852371224,
                1.5440031355379662,
                -0.44635155664396636,
                0.24254409184557024,
                -0.43609792078217646
            ]
        },
        {
            "positions": [
                -2.689801586761875,
                -1.2603683752289316,
                1.6102088226734794,
                -0.47729212129491105,
                0.22667554973641924,
                -0.21018646401592855
            ]
        },
        {
            "positions": [
                -2.6881173317915392,
                -1.3074968980866393,
                1.6764145098089929,
                -0.5082326859458557,
                0.21080700762726826,
                0.015724992750319355
            ]
        },
        {
            "positions": [
                -2.6864330768212032,
                -1.354625420944347,
                1.742620196944506,
                -0.5391732505968003,
                0.19493846551811725,
                0.24163644951656726
            ]
        },
        {
            "positions": [
                -2.6847488218508673,
                -1.4017539438020543,
                1.8088258840800195,
                -0.570113815247745,
                0.17906992340896627,
                0.46754790628281473
            ]
        },
        {
            "positions": [
                -2.6830645668805317,
                -1.448882466659762,
                1.8750315712155328,
                -0.6010543798986896,
                0.16320138129981532,
                0.6934593630490626
            ]
        },
        {
            "positions": [
                -2.6813803119101958,
                -1.4960109895174696,
                1.9412372583510462,
                -0.6319949445496342,
                0.1473328391906643,
                0.9193708198153102
            ]
        },
        {
            "positions": [
                -2.5610078425286673,
                -1.4112091674472895,
                1.9408868634295455,
                -0.6055790736032518,
                0.09432562446175335,
                0.937095098714617
            ]
        },
        {
            "positions": [
                -2.4406353731471384,
                -1.3264073453771095,
                1.940536468508045,
                -0.5791632026568693,
                0.0413184097328424,
                0.9548193776139239
            ]
        },
        {
            "positions": [
                -2.3272080167913796,
                -1.3482283695132486,
                1.875994023847452,
                -0.5153473608410997,
                0.04378709780957671,
                0.8629499954097593
            ]
        },
        {
            "positions": [
                -2.2137806604356207,
                -1.3700493936493878,
                1.8114515791868588,
                -0.4515315190253302,
                0.046255785886311025,
                0.7710806132055946
            ]
        },
        {
            "positions": [
                -2.100353304079862,
                -1.391870417785527,
                1.7469091345262657,
                -0.38771567720956057,
                0.048724473963045335,
                0.67921123100143
            ]
        },
        {
            "positions": [
                -1.986925947724103,
                -1.413691441921666,
                1.6823666898656726,
                -0.323899835393791,
                0.05119316203977965,
                0.5873418487972653
            ]
        },
        {
            "positions": [
                -1.8734985913683442,
                -1.4355124660578051,
                1.6178242452050795,
                -0.2600839935780215,
                0.05366185011651396,
                0.4954724665931007
            ]
        },
        {
            "positions": [
                -1.7600712350125853,
                -1.4573334901939443,
                1.5532818005444862,
                -0.19626815176225187,
                0.05613053819324827,
                0.403603084388936
            ]
        },
        {
            "positions": [
                -1.6466438786568265,
                -1.4791545143300835,
                1.488739355883893,
                -0.13245230994648233,
                0.05859922626998258,
                0.31173370218477137
            ]
        },
        {
            "positions": [
                -1.5332165223010676,
                -1.5009755384662227,
                1.4241969112233,
                -0.06863646813071281,
                0.0610679143467169,
                0.21986431998060674
            ]
        },
        {
            "positions": [
                -1.4532672337477646,
                -1.5329145960377153,
                1.253809904178921,
                0.013053421247735203,
                0.06741608702148236,
                0.20905221185195644
            ]
        },
        {
            "positions": [
                -1.3733179451944613,
                -1.564853653609208,
                1.083422897134542,
                0.09474331062618321,
                0.07376425969624781,
                0.19824010372330614
            ]
        },
        {
            "positions": [
                -1.2933686566411582,
                -1.5967927111807005,
                0.9130358900901632,
                0.17643320000463122,
                0.08011243237101327,
                0.18742799559465584
            ]
        },
        {
            "positions": [
                -1.2134193680878549,
                -1.6287317687521932,
                0.7426488830457841,
                0.25812308938307926,
                0.08646060504577874,
                0.17661588746600554
            ]
        },
        {
            "positions": [
                -1.1334700795345518,
                -1.6606708263236856,
                0.5722618760014052,
                0.3398129787615273,
                0.09280877772054419,
                0.16580377933735524
            ]
        },
        {
            "positions": [
                -1.0535207909812487,
                -1.6926098838951782,
                0.4018748689570264,
                0.4215028681399753,
                0.09915695039530964,
                0.15499167120870494
            ]
        },
        {
            "positions": [
                -0.9735715024279455,
                -1.7245489414666708,
                0.23148786191264747,
                0.5031927575184233,
                0.1055051230700751,
                0.14417956308005464
            ]
        },
        {
            "positions": [
                -0.8936222138746422,
                -1.7564879990381634,
                0.06110085486826833,
                0.5848826468968713,
                0.11185329574484057,
                0.13336745495140434
            ]
        },
        {
            "positions": [
                -0.8136729253213392,
                -1.788427056609656,
                -0.1092861521761106,
                0.6665725362753193,
                0.11820146841960602,
                0.12255534682275403
            ]
        },
        {
            "positions": [
                -0.733723636768036,
                -1.8203661141811487,
                -0.2796731592204895,
                0.7482624256537673,
                0.12454964109437147,
                0.11174323869410373
            ]
        },
        {
            "positions": [
                -0.6537743482147328,
                -1.8523051717526413,
                -0.45006016626486867,
                0.8299523150322154,
                0.13089781376913695,
                0.10093113056545341
            ]
        },
        {
            "positions": [
                -0.5738250596614297,
                -1.884244229324134,
                -0.6204471733092471,
                0.9116422044106633,
                0.1372459864439024,
                0.09011902243680314
            ]
        },
        {
            "positions": [
                -0.4938757711081265,
                -1.9161832868956266,
                -0.7908341803536263,
                0.9933320937891115,
                0.14359415911866785,
                0.07930691430815281
            ]
        },
        {
            "positions": [
                -0.41392648255482345,
                -1.948122344467119,
                -0.961221187398005,
                1.0750219831675594,
                0.1499423317934333,
                0.06849480617950254
            ]
        },
        {
            "positions": [
                -0.33397719400152015,
                -1.9800614020386118,
                -1.1316081944423841,
                1.1567118725460073,
                0.15629050446819878,
                0.057682698050852216
            ]
        },
        {
            "positions": [
                -0.25402790544821685,
                -2.012000459610104,
                -1.3019952014867633,
                1.2384017619244554,
                0.16263867714296423,
                0.046870589922201916
            ]
        },
        {
            "positions": [
                -0.17407861689491377,
                -2.043939517181597,
                -1.472382208531142,
                1.3200916513029033,
                0.16898684981772968,
                0.03605848179355162
            ]
        },
        {
            "positions": [
                -0.0941293283416107,
                -2.0758785747530895,
                -1.6427692155755211,
                1.4017815406813514,
                0.17533502249249514,
                0.025246373664901317
            ]
        },
        {
            "positions": [
                -0.014180039788307619,
                -2.107817632324582,
                -1.8131562226198998,
                1.4834714300597993,
                0.18168319516726059,
                0.014434265536251017
            ]
        },
        {
            "positions": [
                0.06576924876499571,
                -2.1397566898960747,
                -1.983543229664279,
                1.5651613194382474,
                0.18803136784202606,
                0.003622157407600718
            ]
        },
        {
            "positions": [
                -0.020977697397318126,
                -2.191355962670942,
                -2.0837766507275663,
                1.5210975962963156,
                0.17687223515897815,
                -0.0016799287712883602
            ]
        },
        {
            "positions": [
                -0.10772464355963196,
                -2.2429552354458093,
                -2.184010071790854,
                1.477033873154384,
                0.16571310247593024,
                -0.006982014950177438
            ]
        },
        {
            "positions": [
                -0.1845671988179763,
                -2.281666392368137,
                -2.3773948839136665,
                1.5122655554996343,
                0.17386599500946745,
                0.0005291807971634166
            ]
        }
    ]
}