{
    "goal": {
        "global_pose": {
            "orientation": {
                "w": 0.005598929693374612,
                "x": 0.007748599140229565,
                "y": 0.7110244013736278,
                "z": -0.7031023480610252
            },
            "position": {
                "x": 0.1141497679147869,
                "y": -0.7141253447532654,
                "z": 0.3711530566215515
            }
        },
        "name": "move_to_auspresseinheit_B"
    },
    "id": "BiEST_move_to_auspresseinheit_B_10",
    "joint_names": [
        "shoulder_pan_joint",
        "shoulder_lift_joint",
        "elbow_joint",
        "wrist_1_joint",
        "wrist_2_joint",
        "wrist_3_joint"
    ],
    "metrics": {
        "cart_traj_len": 0.5646439059845865,
        "distance_elbow_joint": 0.06346055845604481,
        "distance_shoulder_lift_joint": 0.29465169601139585,
        "distance_shoulder_pan_joint": 0.5780042074466243,
        "distance_wrist_1_joint": 0.3316840418741941,
        "distance_wrist_2_joint": 0.989040861088144,
        "distance_wrist_3_joint": 0.003977231113072577,
        "smoothness": 2.5376526478085547e-16,
        "time": 0.057806123,
        "traj_len": 1.503601874163994,
        "weighted_distance": 1.89459704453954
    },
    "planner": "BiEST",
    "start": {
        "state": {
            "elbow_joint": 2.0193083361928714,
            "shoulder_lift_joint": -1.1220246554650708,
            "shoulder_pan_joint": -1.0952077554168747,
            "wrist_1_joint": -0.8559753972642168,
            "wrist_2_joint": 0.4759566250798843,
            "wrist_3_joint": -3.1240929996934557
        }
    },
    "waypoints": [
        {
            "positions": [
                -1.0952077554168747,
                -1.1220246554650708,
                2.0193083361928714,
                -0.8559753972642168,
                0.4759566250798843,
                -3.1240929996934557
            ]
        },
        {
            "positions": [
                -1.191541789991312,
                -1.17113327146697,
                2.0087315764501974,
                -0.8006947236185178,
                0.640796768594575,
                -3.123430127841277
            ]
        },
        {
            "positions": [
                -1.2878758245657493,
                -1.2202418874688694,
                1.9981548167075232,
                -0.7454140499728188,
                0.8056369121092657,
                -3.122767255989098
            ]
        },
        {
            "positions": [
                -1.3842098591401868,
                -1.2693505034707688,
                1.987578056964849,
                -0.6901333763271198,
                0.9704770556239564,
                -3.1221043841369194
            ]
        },
        {
            "positions": [
                -1.480543893714624,
                -1.318459119472668,
                1.9770012972221749,
                -0.6348527026814208,
                1.135317199138647,
                -3.1214415122847408
            ]
        },
        {
            "positions": [
                -1.5768779282890617,
                -1.3675677354745672,
                1.9664245374795009,
                -0.5795720290357217,
                1.3001573426533377,
                -3.1207786404325617
            ]
        },
        {
            "positions": [
                -1.673211962863499,
                -1.4166763514764666,
                1.9558477777368266,
                -0.5242913553900227,
                1.4649974861680284,
                -3.120115768580383
            ]
        }
    ]
}