{
    "goal": {
        "global_pose": {
            "orientation": {
                "w": -0.4816463035849501,
                "x": 0.5182115481033762,
                "y": 0.4908360881923453,
                "z": -0.5084816262002911
            },
            "position": {
                "x": -0.8240239810943604,
                "y": 0.19912469901144506,
                "z": 0.16403168439865112
            }
        },
        "name": "move_to_storage_D"
    },
    "id": "BiEST_move_to_storage_D_22",
    "joint_names": [
        "shoulder_pan_joint",
        "shoulder_lift_joint",
        "elbow_joint",
        "wrist_1_joint",
        "wrist_2_joint",
        "wrist_3_joint"
    ],
    "metrics": {
        "cart_traj_len": 3.9950660942276883,
        "distance_elbow_joint": 4.207934356653356,
        "distance_shoulder_lift_joint": 1.2647614733941968,
        "distance_shoulder_pan_joint": 2.813984756926194,
        "distance_wrist_1_joint": 2.2631436727262466,
        "distance_wrist_2_joint": 0.8734308718302296,
        "distance_wrist_3_joint": 3.129554582979438,
        "smoothness": 3.5059674673533993e-16,
        "time": 0.11038173800000001,
        "traj_len": 3.8148145059110887,
        "weighted_distance": 4.8937197942899235
    },
    "planner": "BiEST",
    "start": {
        "state": {
            "elbow_joint": -2.384821988534728,
            "shoulder_lift_joint": -2.2788054721415256,
            "shoulder_pan_joint": -0.1854694642142757,
            "wrist_1_joint": 1.4845938289331202,
            "wrist_2_joint": 0.17898776772866878,
            "wrist_3_joint": 0.037105688729662994
        }
    },
    "waypoints": [
        {
            "positions": [
                -0.1854694642142757,
                -2.2788054721415256,
                -2.384821988534728,
                1.4845938289331202,
                0.17898776772866878,
                0.037105688729662994
            ]
        },
        {
            "positions": [
                -0.08266250039982827,
                -2.2419995811971623,
                -2.2733866401702314,
                1.387846254128666,
                0.18865005723590947,
                0.0011349301738592527
            ]
        },
        {
            "positions": [
                0.020144463414619174,
                -2.2051936902527993,
                -2.1619512918057344,
                1.2910986793242119,
                0.19831234674315015,
                -0.03483582838194449
            ]
        },
        {
            "positions": [
                0.12295142722906657,
                -2.168387799308436,
                -2.050515943441238,
                1.1943511045197577,
                0.20797463625039084,
                -0.07080658693774822
            ]
        },
        {
            "positions": [
                0.22575839104351406,
                -2.131581908364073,
                -1.9390805950767411,
                1.0976035297153035,
                0.21763692575763152,
                -0.10677734549355197
            ]
        },
        {
            "positions": [
                0.32856535485796146,
                -2.0947760174197096,
                -1.8276452467122444,
                1.000855954910849,
                0.2272992152648722,
                -0.1427481040493557
            ]
        },
        {
            "positions": [
                0.4313723186724089,
                -2.0579701264753467,
                -1.7162098983477478,
                0.904108380106395,
                0.23696150477211286,
                -0.17871886260515943
            ]
        },
        {
            "positions": [
                0.5341792824868564,
                -2.0211642355309833,
                -1.604774549983251,
                0.8073608053019409,
                0.24662379427935355,
                -0.21468962116096316
            ]
        },
        {
            "positions": [
                0.6369862463013038,
                -1.9843583445866202,
                -1.4933392016187543,
                0.7106132304974866,
                0.25628608378659423,
                -0.2506603797167669
            ]
        },
        {
            "positions": [
                0.7397932101157513,
                -1.947552453642257,
                -1.3819038532542576,
                0.6138656556930324,
                0.2659483732938349,
                -0.2866311382725707
            ]
        },
        {
            "positions": [
                0.8426001739301986,
                -1.910746562697894,
                -1.270468504889761,
                0.5171180808885782,
                0.2756106628010756,
                -0.32260189682837437
            ]
        },
        {
            "positions": [
                0.9454071377446461,
                -1.8739406717535307,
                -1.1590331565252643,
                0.4203705060841241,
                0.2852729523083163,
                -0.35857265538417815
            ]
        },
        {
            "positions": [
                1.0482141015590933,
                -1.8371347808091676,
                -1.0475978081607678,
                0.3236229312796699,
                0.29493524181555697,
                -0.3945434139399818
            ]
        },
        {
            "positions": [
                1.1510210653735409,
                -1.8003288898648044,
                -0.9361624597962708,
                0.22687535647521573,
                0.30459753132279765,
                -0.4305141724957856
            ]
        },
        {
            "positions": [
                1.2538280291879884,
                -1.7635229989204413,
                -0.8247271114317742,
                0.13012778167076156,
                0.31425982083003834,
                -0.4664849310515893
            ]
        },
        {
            "positions": [
                1.3566349930024357,
                -1.7267171079760781,
                -0.7132917630672777,
                0.03338020686630738,
                0.323922110337279,
                -0.5024556896073931
            ]
        },
        {
            "positions": [
                1.4594419568168833,
                -1.6899112170317148,
                -0.6018564147027807,
                -0.06336736793814701,
                0.3335843998445197,
                -0.5384264481631968
            ]
        },
        {
            "positions": [
                1.5622489206313306,
                -1.6531053260873518,
                -0.4904210663382842,
                -0.16011494274260096,
                0.3432466893517604,
                -0.5743972067190005
            ]
        },
        {
            "positions": [
                1.6650558844457781,
                -1.6162994351429885,
                -0.3789857179737872,
                -0.25686251754705536,
                0.3529089788590011,
                -0.6103679652748043
            ]
        },
        {
            "positions": [
                1.7678628482602254,
                -1.5794935441986253,
                -0.2675503696092907,
                -0.35361009235150953,
                0.36257126836624176,
                -0.646338723830608
            ]
        },
        {
            "positions": [
                1.8706698120746728,
                -1.5426876532542622,
                -0.15611502124479415,
                -0.4503576671559637,
                0.37223355787348245,
                -0.6823094823864118
            ]
        },
        {
            "positions": [
                1.9734767758891203,
                -1.505881762309899,
                -0.04467967288029717,
                -0.5471052419604181,
                0.38189584738072313,
                -0.7182802409422155
            ]
        },
        {
            "positions": [
                2.076283739703568,
                -1.4690758713655359,
                0.06675567548419947,
                -0.643852816764872,
                0.3915581368879638,
                -0.7542509994980192
            ]
        },
        {
            "positions": [
                2.1130991765707914,
                -1.4387404131909887,
                0.18384612165982803,
                -0.6528326185667558,
                0.43561550373269275,
                -0.9101308591481363
            ]
        },
        {
            "positions": [
                2.1499146134380145,
                -1.4084049550164417,
                0.3009365678354566,
                -0.6618124203686396,
                0.47967287057742175,
                -1.0660107187982533
            ]
        },
        {
            "positions": [
                2.186730050305238,
                -1.3780694968418945,
                0.41802701401108516,
                -0.6707922221705234,
                0.5237302374221507,
                -1.2218905784483702
            ]
        },
        {
            "positions": [
                2.223545487172461,
                -1.3477340386673473,
                0.5351174601867137,
                -0.6797720239724072,
                0.5677876042668797,
                -1.3777704380984872
            ]
        },
        {
            "positions": [
                2.2603609240396847,
                -1.3173985804928001,
                0.6522079063623422,
                -0.688751825774291,
                0.6118449711116086,
                -1.5336502977486042
            ]
        },
        {
            "positions": [
                2.2971763609069082,
                -1.2870631223182531,
                0.7692983525379709,
                -0.6977316275761747,
                0.6559023379563376,
                -1.6895301573987216
            ]
        },
        {
            "positions": [
                2.3339917977741313,
                -1.256727664143706,
                0.8863887987135993,
                -0.7067114293780585,
                0.6999597048010666,
                -1.8454100170488386
            ]
        },
        {
            "positions": [
                2.370807234641355,
                -1.2263922059691588,
                1.003479244889228,
                -0.7156912311799423,
                0.7440170716457956,
                -2.0012898766989555
            ]
        },
        {
            "positions": [
                2.407622671508578,
                -1.1960567477946116,
                1.1205696910648566,
                -0.7246710329818261,
                0.7880744384905245,
                -2.1571697363490725
            ]
        },
        {
            "positions": [
                2.4444381083758016,
                -1.1657212896200646,
                1.2376601372404847,
                -0.7336508347837098,
                0.8321318053352535,
                -2.3130495959991895
            ]
        },
        {
            "positions": [
                2.4812535452430247,
                -1.1353858314455174,
                1.3547505834161133,
                -0.7426306365855936,
                0.8761891721799824,
                -2.4689294556493064
            ]
        },
        {
            "positions": [
                2.518068982110248,
                -1.1050503732709702,
                1.4718410295917423,
                -0.7516104383874774,
                0.9202465390247114,
                -2.624809315299424
            ]
        },
        {
            "positions": [
                2.5548844189774718,
                -1.0747149150964233,
                1.588931475767371,
                -0.7605902401893612,
                0.9643039058694405,
                -2.780689174949541
            ]
        },
        {
            "positions": [
                2.591699855844695,
                -1.044379456921876,
                1.706021921942999,
                -0.769570041991245,
                1.0083612727141693,
                -2.936569034599658
            ]
        },
        {
            "positions": [
                2.6285152927119184,
                -1.0140439987473289,
                1.8231123681186276,
                -0.7785498437931287,
                1.0524186395588984,
                -3.0924488942497748
            ]
        }
    ]
}