{
    "goal": {
        "global_pose": {
            "orientation": {
                "w": 0.5084816262002911,
                "x": -0.4908360881923452,
                "y": 0.5182115481033761,
                "z": -0.48164630358495003
            },
            "position": {
                "x": 0.5540239810943604,
                "y": -0.46912469901144505,
                "z": 0.16403168439865112
            }
        },
        "name": "move_to_storage_B"
    },
    "id": "BiEST_move_to_storage_B_117",
    "joint_names": [
        "shoulder_pan_joint",
        "shoulder_lift_joint",
        "elbow_joint",
        "wrist_1_joint",
        "wrist_2_joint",
        "wrist_3_joint"
    ],
    "metrics": {
        "cart_traj_len": 0.9338860971358283,
        "distance_elbow_joint": 0.3493691518895732,
        "distance_shoulder_lift_joint": 0.5085584660168705,
        "distance_shoulder_pan_joint": 0.1817179223478248,
        "distance_wrist_1_joint": 2.978899009231321,
        "distance_wrist_2_joint": 2.706256464160995,
        "distance_wrist_3_joint": 3.1569923235602237,
        "smoothness": 0.004254868929399534,
        "time": 0.086468846,
        "traj_len": 3.1435319844415144,
        "weighted_distance": 4.67770600377146
    },
    "planner": "BiEST",
    "start": {
        "state": {
            "elbow_joint": 1.664937868594044,
            "shoulder_lift_joint": -0.661644460510453,
            "shoulder_pan_joint": -0.9139846352900073,
            "wrist_1_joint": 2.146753192139373,
            "wrist_2_joint": -2.2341966793290973,
            "wrist_3_joint": 0.005466555786416001
        }
    },
    "waypoints": [
        {
            "positions": [
                -0.9139846352900073,
                -0.661644460510453,
                1.664937868594044,
                2.146753192139373,
                -2.2341966793290973,
                0.005466555786416001
            ]
        },
        {
            "positions": [
                -0.9220694168032854,
                -0.730703849958019,
                1.6858593676124853,
                2.0195122544077484,
                -2.163918855063416,
                -0.04741580173375555
            ]
        },
        {
            "positions": [
                -0.9301541983165634,
                -0.7997632394055849,
                1.706780866630927,
                1.8922713166761236,
                -2.093641030797734,
                -0.1002981592539271
            ]
        },
        {
            "positions": [
                -0.9382389798298415,
                -0.868822628853151,
                1.7277023656493684,
                1.7650303789444985,
                -2.0233632065320526,
                -0.15318051677409866
            ]
        },
        {
            "positions": [
                -0.9463237613431195,
                -0.9378820183007169,
                1.74862386466781,
                1.6377894412128737,
                -1.9530853822663712,
                -0.2060628742942702
            ]
        },
        {
            "positions": [
                -0.9544085428563975,
                -1.006941407748283,
                1.7695453636862515,
                1.5105485034812487,
                -1.8828075580006896,
                -0.25894523181444173
            ]
        },
        {
            "positions": [
                -0.9624933243696756,
                -1.076000797195849,
                1.790466862704693,
                1.3833075657496239,
                -1.8125297337350081,
                -0.3118275893346133
            ]
        },
        {
            "positions": [
                -0.9705781058829537,
                -1.145060186643415,
                1.8113883617231346,
                1.256066628017999,
                -1.7422519094693265,
                -0.36470994685478486
            ]
        },
        {
            "positions": [
                -0.9771636033437368,
                -1.143736884544262,
                1.822068291131581,
                1.1461607098543176,
                -1.6257091887166304,
                -0.5113844637452597
            ]
        },
        {
            "positions": [
                -0.9837491008045198,
                -1.1424135824451087,
                1.8327482205400274,
                1.0362547916906364,
                -1.5091664679639345,
                -0.6580589806357346
            ]
        },
        {
            "positions": [
                -0.9903345982653029,
                -1.1410902803459557,
                1.843428149948474,
                0.9263488735269549,
                -1.3926237472112384,
                -0.8047334975262095
            ]
        },
        {
            "positions": [
                -0.996920095726086,
                -1.1397669782468025,
                1.8541080793569205,
                0.8164429553632737,
                -1.2760810264585425,
                -0.9514080144166843
            ]
        },
        {
            "positions": [
                -1.003505593186869,
                -1.1384436761476495,
                1.8647880087653668,
                0.7065370371995923,
                -1.1595383057058464,
                -1.0980825313071594
            ]
        },
        {
            "positions": [
                -1.0100910906476521,
                -1.1371203740484963,
                1.8754679381738133,
                0.5966311190359109,
                -1.0429955849531503,
                -1.2447570481976342
            ]
        },
        {
            "positions": [
                -1.0166765881084352,
                -1.1357970719493433,
                1.8861478675822596,
                0.4867252008722296,
                -0.9264528642004544,
                -1.391431565088109
            ]
        },
        {
            "positions": [
                -1.0232620855692183,
                -1.1344737698501903,
                1.8968277969907061,
                0.37681928270854825,
                -0.8099101434477584,
                -1.538106081978584
            ]
        },
        {
            "positions": [
                -1.0298475830300013,
                -1.1331504677510371,
                1.9075077263991527,
                0.2669133645448669,
                -0.6933674226950624,
                -1.6847805988690587
            ]
        },
        {
            "positions": [
                -1.0364330804907844,
                -1.1318271656518841,
                1.918187655807599,
                0.15700744638118547,
                -0.5768247019423665,
                -1.8314551157595336
            ]
        },
        {
            "positions": [
                -1.0430185779515675,
                -1.130503863552731,
                1.9288675852160455,
                0.04710152821750402,
                -0.4602819811896701,
                -1.9781296326500089
            ]
        },
        {
            "positions": [
                -1.0496040754123506,
                -1.129180561453578,
                1.939547514624492,
                -0.06280438994617721,
                -0.3437392604369742,
                -2.1248041495404832
            ]
        },
        {
            "positions": [
                -1.0561895728731336,
                -1.127857259354425,
                1.9502274440329384,
                -0.17271030810985866,
                -0.2271965396842781,
                -2.2714786664309585
            ]
        },
        {
            "positions": [
                -1.0627750703339167,
                -1.1265339572552717,
                1.9609073734413849,
                -0.2826162262735399,
                -0.11065381893158222,
                -2.418153183321433
            ]
        },
        {
            "positions": [
                -1.0693605677946998,
                -1.1252106551561187,
                1.9715873028498314,
                -0.39252214443722133,
                0.005888901821113901,
                -2.564827700211908
            ]
        },
        {
            "positions": [
                -1.0759460652554829,
                -1.1238873530569655,
                1.9822672322582777,
                -0.5024280626009026,
                0.1224316225738098,
                -2.7115022171023826
            ]
        },
        {
            "positions": [
                -1.082531562716266,
                -1.1225640509578125,
                1.9929471616667243,
                -0.612333980764584,
                0.2389743433265059,
                -2.858176733992858
            ]
        },
        {
            "positions": [
                -1.089117060177049,
                -1.1212407488586593,
                2.003627091075171,
                -0.7222398989282652,
                0.3555170640792018,
                -3.0048512508833327
            ]
        },
        {
            "positions": [
                -1.095702557637832,
                -1.1199174467595063,
                2.014307020483617,
                -0.8321458170919468,
                0.472059784831898,
                -3.1515257677738076
            ]
        }
    ]
}