{
    "goal": {
        "global_pose": {
            "orientation": {
                "w": -0.4816463035849501,
                "x": 0.5182115481033762,
                "y": 0.4908360881923453,
                "z": -0.5084816262002911
            },
            "position": {
                "x": -0.8240239810943604,
                "y": -0.300875300988555,
                "z": 0.16403168439865112
            }
        },
        "name": "move_to_storage_C"
    },
    "id": "BiEST_move_to_storage_C_17",
    "joint_names": [
        "shoulder_pan_joint",
        "shoulder_lift_joint",
        "elbow_joint",
        "wrist_1_joint",
        "wrist_2_joint",
        "wrist_3_joint"
    ],
    "metrics": {
        "cart_traj_len": 0.5770894032094277,
        "distance_elbow_joint": 0.26123059804815796,
        "distance_shoulder_lift_joint": 0.1907614743820264,
        "distance_shoulder_pan_joint": 0.49358864480096853,
        "distance_wrist_1_joint": 0.08256842545517695,
        "distance_wrist_2_joint": 1.0735355891032397,
        "distance_wrist_3_joint": 0.073978763173701,
        "smoothness": 0.0,
        "time": 0.087963589,
        "traj_len": 1.47501304908237,
        "weighted_distance": 1.865402111039089
    },
    "planner": "BiEST",
    "start": {
        "state": {
            "elbow_joint": 2.010868314990456,
            "shoulder_lift_joint": -1.1634956873337592,
            "shoulder_pan_joint": -2.4736205022346125,
            "wrist_1_joint": -0.8367026794202681,
            "wrist_2_joint": 0.6746043897044499,
            "wrist_3_joint": -3.1496632123970403
        }
    },
    "waypoints": [
        {
            "positions": [
                -2.4736205022346125,
                -1.1634956873337592,
                2.010868314990456,
                -0.8367026794202681,
                0.6746043897044499,
                -3.1496632123970403
            ]
        },
        {
            "positions": [
                -2.555885276368107,
                -1.1317021082700882,
                1.9673298819824294,
                -0.8229412751777386,
                0.8535269878883232,
                -3.137333418534757
            ]
        },
        {
            "positions": [
                -2.638150050501602,
                -1.099908529206417,
                1.9237914489744032,
                -0.8091798709352092,
                1.0324495860721965,
                -3.1250036246724733
            ]
        },
        {
            "positions": [
                -2.720414824635097,
                -1.068114950142746,
                1.8802530159663768,
                -0.7954184666926796,
                1.2113721842560699,
                -3.1126738308101896
            ]
        },
        {
            "positions": [
                -2.8026795987685915,
                -1.0363213710790748,
                1.8367145829583504,
                -0.7816570624501501,
                1.390294782439943,
                -3.1003440369479063
            ]
        },
        {
            "positions": [
                -2.884944372902086,
                -1.0045277920154039,
                1.7931761499503243,
                -0.7678956582076206,
                1.5692173806238163,
                -3.088014243085623
            ]
        },
        {
            "positions": [
                -2.967209147035581,
                -0.9727342129517328,
                1.7496377169422979,
                -0.7541342539650912,
                1.7481399788076897,
                -3.0756844492233393
            ]
        }
    ]
}