{
    "goal": {
        "global_pose": {
            "orientation": {
                "w": 0.005598929693374612,
                "x": 0.007748599140229565,
                "y": 0.7110244013736278,
                "z": -0.7031023480610252
            },
            "position": {
                "x": -0.8858502320852131,
                "y": -0.7141253447532654,
                "z": 0.3711530566215515
            }
        },
        "name": "move_to_auspresseinheit_C"
    },
    "id": "BiEST_move_to_auspresseinheit_C_55",
    "joint_names": [
        "shoulder_pan_joint",
        "shoulder_lift_joint",
        "elbow_joint",
        "wrist_1_joint",
        "wrist_2_joint",
        "wrist_3_joint"
    ],
    "metrics": {
        "cart_traj_len": 0.49398821288180916,
        "distance_elbow_joint": 1.0087377815846832,
        "distance_shoulder_lift_joint": 0.3289826107127084,
        "distance_shoulder_pan_joint": 0.25685318427229165,
        "distance_wrist_1_joint": 0.6967589567862744,
        "distance_wrist_2_joint": 1.3036020410081044,
        "distance_wrist_3_joint": 0.08055062961275139,
        "smoothness": 1.6148698667872622e-16,
        "time": 0.069044567,
        "traj_len": 1.9171554981213217,
        "weighted_distance": 2.415977537353503
    },
    "planner": "BiEST",
    "start": {
        "state": {
            "elbow_joint": 1.7527959577737207,
            "shoulder_lift_joint": -0.9740617694225068,
            "shoulder_pan_joint": -2.967991417825858,
            "wrist_1_joint": -0.759517768980727,
            "wrist_2_joint": 1.7443932448377408,
            "wrist_3_joint": -3.0840537646736568
        }
    },
    "waypoints": [
        {
            "positions": [
                -2.967991417825858,
                -0.9740617694225068,
                1.7527959577737207,
                -0.759517768980727,
                1.7443932448377408,
                -3.0840537646736568
            ]
        },
        {
            "positions": [
                -2.9423060993986287,
                -0.941163508351236,
                1.6519221796152523,
                -0.6898418733020996,
                1.6140330407369303,
                -3.0921088276349318
            ]
        },
        {
            "positions": [
                -2.9166207809713995,
                -0.908265247279965,
                1.551048401456784,
                -0.620165977623472,
                1.4836728366361198,
                -3.1001638905962072
            ]
        },
        {
            "positions": [
                -2.8909354625441703,
                -0.8753669862086942,
                1.4501746232983157,
                -0.5504900819448446,
                1.3533126325353095,
                -3.1082189535574822
            ]
        },
        {
            "positions": [
                -2.865250144116941,
                -0.8424687251374234,
                1.3493008451398474,
                -0.4808141862662172,
                1.222952428434499,
                -3.1162740165187572
            ]
        },
        {
            "positions": [
                -2.8395648256897124,
                -0.8095704640661525,
                1.248427066981379,
                -0.41113829058758977,
                1.0925922243336887,
                -3.1243290794800327
            ]
        },
        {
            "positions": [
                -2.813879507262483,
                -0.7766722029948817,
                1.1475532888229107,
                -0.34146239490896235,
                0.9622320202328782,
                -3.1323841424413077
            ]
        },
        {
            "positions": [
                -2.788194188835254,
                -0.7437739419236109,
                1.0466795106644424,
                -0.27178649923033493,
                0.8318718161320678,
                -3.1404392054025827
            ]
        },
        {
            "positions": [
                -2.7625088704080247,
                -0.71087568085234,
                0.9458057325059741,
                -0.2021106035517074,
                0.7015116120312572,
                -3.1484942683638577
            ]
        },
        {
            "positions": [
                -2.7368235519807955,
                -0.6779774197810692,
                0.8449319543475058,
                -0.13243470787307998,
                0.5711514079304469,
                -3.156549331325133
            ]
        },
        {
            "positions": [
                -2.7111382335535663,
                -0.6450791587097984,
                0.7440581761890374,
                -0.06275881219445258,
                0.44079120382963644,
                -3.164604394286408
            ]
        }
    ]
}