{
    "goal": {
        "global_pose": {
            "orientation": {
                "w": 0.7031023502349854,
                "x": -0.7110244035720825,
                "y": 0.007748599164187908,
                "z": 0.005598929710686207
            },
            "position": {
                "x": 0.11585023208521307,
                "y": 0.44412534475326537,
                "z": 0.3711530566215515
            }
        },
        "name": "move_to_auspresseinheit_A"
    },
    "id": "BiEST_move_to_auspresseinheit_A_105",
    "joint_names": [
        "shoulder_pan_joint",
        "shoulder_lift_joint",
        "elbow_joint",
        "wrist_1_joint",
        "wrist_2_joint",
        "wrist_3_joint"
    ],
    "metrics": {
        "cart_traj_len": 2.5251355178439394,
        "distance_elbow_joint": 3.529234359342591,
        "distance_shoulder_lift_joint": 0.8361209536780223,
        "distance_shoulder_pan_joint": 1.0976261039111925,
        "distance_wrist_1_joint": 1.6198239057251547,
        "distance_wrist_2_joint": 0.514185525279134,
        "distance_wrist_3_joint": 0.3412411013776113,
        "smoothness": 1.1988222739979248,
        "time": 0.164359753,
        "traj_len": 2.817486814399263,
        "weighted_distance": 3.279439522704027
    },
    "planner": "BiEST",
    "start": {
        "state": {
            "elbow_joint": 2.4225746658250005,
            "shoulder_lift_joint": -1.3736534386056498,
            "shoulder_pan_joint": -0.3378633547517467,
            "wrist_1_joint": -1.0288598680537169,
            "wrist_2_joint": 1.233022673432363,
            "wrist_3_joint": -3.0940220416140027
        }
    },
    "waypoints": [
        {
            "positions": [
                -0.3378633547517467,
                -1.3736534386056498,
                2.4225746658250005,
                -1.0288598680537169,
                1.233022673432363,
                -3.0940220416140027
            ]
        },
        {
            "positions": [
                -0.27608681231484944,
                -1.4102899857148894,
                2.260666694044091,
                -0.9292376018073013,
                1.2167999875261888,
                -3.0882821653984034
            ]
        },
        {
            "positions": [
                -0.21431026987795218,
                -1.446926532824129,
                2.098758722263182,
                -0.8296153355608857,
                1.2005773016200147,
                -3.0825422891828036
            ]
        },
        {
            "positions": [
                -0.15253372744105492,
                -1.4835630799333686,
                1.9368507504822723,
                -0.7299930693144703,
                1.1843546157138405,
                -3.0768024129672042
            ]
        },
        {
            "positions": [
                -0.09075718500415764,
                -1.5201996270426081,
                1.7749427787013627,
                -0.6303708030680546,
                1.1681319298076662,
                -3.0710625367516045
            ]
        },
        {
            "positions": [
                -0.028980642567260406,
                -1.5568361741518477,
                1.6130348069204534,
                -0.5307485368216391,
                1.1519092439014922,
                -3.065322660536005
            ]
        },
        {
            "positions": [
                0.03279589986963688,
                -1.5934727212610875,
                1.451126835139544,
                -0.43112627057522357,
                1.135686557995318,
                -3.0595827843204053
            ]
        },
        {
            "positions": [
                0.09457244230653417,
                -1.6301092683703269,
                1.2892188633586348,
                -0.331504004328808,
                1.1194638720891439,
                -3.053842908104806
            ]
        },
        {
            "positions": [
                0.15634898474343145,
                -1.6667458154795667,
                1.1273108915777252,
                -0.23188173808239243,
                1.1032411861829696,
                -3.048103031889206
            ]
        },
        {
            "positions": [
                0.2181255271803288,
                -1.7033823625888063,
                0.9654029197968157,
                -0.13225947183597675,
                1.0870185002767954,
                -3.042363155673607
            ]
        },
        {
            "positions": [
                0.2799020696172259,
                -1.7400189096980458,
                0.8034949480159066,
                -0.03263720558956129,
                1.0707958143706213,
                -3.036623279458007
            ]
        },
        {
            "positions": [
                0.3416786120541232,
                -1.7766554568072854,
                0.641586976234997,
                0.06698506065685439,
                1.054573128464447,
                -3.0308834032424077
            ]
        },
        {
            "positions": [
                0.39084530343147095,
                -1.8118420210736894,
                0.8125914479425328,
                0.005410996165218979,
                1.0133378657985306,
                -3.019934279151013
            ]
        },
        {
            "positions": [
                0.4400119948088187,
                -1.8470285853400936,
                0.9835959196500685,
                -0.05616306832641643,
                0.9721026031326142,
                -3.0089851550596185
            ]
        },
        {
            "positions": [
                0.4891786861861665,
                -1.8822151496064976,
                1.1546003913576044,
                -0.11773713281805184,
                0.9308673404666978,
                -2.9980360309682244
            ]
        },
        {
            "positions": [
                0.5383453775635143,
                -1.9174017138729016,
                1.32560486306514,
                -0.17931119730968725,
                0.8896320778007814,
                -2.9870869068768298
            ]
        },
        {
            "positions": [
                0.5875120689408619,
                -1.9525882781393058,
                1.4966093347726757,
                -0.24088526180132264,
                0.8483968151348649,
                -2.976137782785435
            ]
        },
        {
            "positions": [
                0.6366787603182098,
                -1.9877748424057098,
                1.6676138064802115,
                -0.3024593262929581,
                0.8071615524689485,
                -2.965188658694041
            ]
        },
        {
            "positions": [
                0.6858454516955576,
                -2.0229614066721138,
                1.8386182781877474,
                -0.3640333907845935,
                0.7659262898030321,
                -2.9542395346026464
            ]
        },
        {
            "positions": [
                0.7350121430729053,
                -2.058147970938518,
                2.009622749895283,
                -0.4256074552762289,
                0.7246910271371156,
                -2.943290410511252
            ]
        },
        {
            "positions": [
                0.7226368400296352,
                -1.982334760265941,
                2.1997281979414334,
                -0.4413006858169791,
                0.7217640876451723,
                -3.038545145648682
            ]
        },
        {
            "positions": [
                0.7102615369863652,
                -1.9065215495933638,
                2.389833645987584,
                -0.4569939163577294,
                0.7188371481532291,
                -3.1337998807861123
            ]
        }
    ]
}