{
    "goal": {
        "global_pose": {
            "orientation": {
                "w": 0.5084816262002911,
                "x": -0.4908360881923452,
                "y": 0.5182115481033761,
                "z": -0.48164630358495003
            },
            "position": {
                "x": 0.5540239810943604,
                "y": -0.46912469901144505,
                "z": 0.16403168439865112
            }
        },
        "name": "move_to_storage_B"
    },
    "id": "BiEST_move_to_storage_B_114",
    "joint_names": [
        "shoulder_pan_joint",
        "shoulder_lift_joint",
        "elbow_joint",
        "wrist_1_joint",
        "wrist_2_joint",
        "wrist_3_joint"
    ],
    "metrics": {
        "cart_traj_len": 0.9704789092105008,
        "distance_elbow_joint": 0.7923335578498141,
        "distance_shoulder_lift_joint": 0.45869573555764553,
        "distance_shoulder_pan_joint": 0.8270594360454858,
        "distance_wrist_1_joint": 2.999722100803382,
        "distance_wrist_2_joint": 3.0669583030946646,
        "distance_wrist_3_joint": 3.1366130091521303,
        "smoothness": 0.3238078108341324,
        "time": 0.099889561,
        "traj_len": 3.358776881917452,
        "weighted_distance": 4.860173717543996
    },
    "planner": "BiEST",
    "start": {
        "state": {
            "elbow_joint": 1.664937868594044,
            "shoulder_lift_joint": -0.661644460510453,
            "shoulder_pan_joint": -0.9139846352900073,
            "wrist_1_joint": 2.146753192139373,
            "wrist_2_joint": -2.2341966793290973,
            "wrist_3_joint": 0.005466555786416001
        }
    },
    "waypoints": [
        {
            "positions": [
                -0.9139846352900073,
                -0.661644460510453,
                1.664937868594044,
                2.146753192139373,
                -2.2341966793290973,
                0.005466555786416001
            ]
        },
        {
            "positions": [
                -0.8065057368524441,
                -0.7138542562315582,
                1.5912402329766147,
                2.1478596440804716,
                -2.2953965474868436,
                -0.028919159459037058
            ]
        },
        {
            "positions": [
                -0.6990268384148808,
                -0.7660640519526634,
                1.5175425973591856,
                2.14896609602157,
                -2.3565964156445904,
                -0.06330487470449012
            ]
        },
        {
            "positions": [
                -0.5915479399773176,
                -0.8182738476737685,
                1.4438449617417564,
                2.1500725479626683,
                -2.417796283802337,
                -0.09769058994994317
            ]
        },
        {
            "positions": [
                -0.610956506928579,
                -0.8298917841504735,
                1.465815756010892,
                2.034826288540357,
                -2.3068978723168976,
                -0.21436196931208823
            ]
        },
        {
            "positions": [
                -0.6303650738798403,
                -0.8415097206271785,
                1.4877865502800276,
                1.9195800291180463,
                -2.195999460831458,
                -0.3310333486742333
            ]
        },
        {
            "positions": [
                -0.6497736408311018,
                -0.8531276571038835,
                1.5097573445491632,
                1.8043337696957351,
                -2.0851010493460187,
                -0.44770472803637834
            ]
        },
        {
            "positions": [
                -0.6691822077823631,
                -0.8647455935805886,
                1.5317281388182988,
                1.6890875102734242,
                -1.974202637860579,
                -0.5643761073985234
            ]
        },
        {
            "positions": [
                -0.6885907747336245,
                -0.8763635300572935,
                1.5536989330874345,
                1.573841250851113,
                -1.8633042263751396,
                -0.6810474867606685
            ]
        },
        {
            "positions": [
                -0.707999341684886,
                -0.8879814665339986,
                1.57566972735657,
                1.458594991428802,
                -1.7524058148897002,
                -0.7977188661228135
            ]
        },
        {
            "positions": [
                -0.7274079086361473,
                -0.8995994030107035,
                1.597640521625706,
                1.3433487320064912,
                -1.641507403404261,
                -0.9143902454849585
            ]
        },
        {
            "positions": [
                -0.7468164755874087,
                -0.9112173394874086,
                1.6196113158948415,
                1.22810247258418,
                -1.5306089919188213,
                -1.0310616248471036
            ]
        },
        {
            "positions": [
                -0.7662250425386701,
                -0.9228352759641135,
                1.6415821101639771,
                1.112856213161869,
                -1.419710580433382,
                -1.1477330042092486
            ]
        },
        {
            "positions": [
                -0.7856336094899314,
                -0.9344532124408186,
                1.6635529044331128,
                0.9976099537395577,
                -1.3088121689479424,
                -1.2644043835713938
            ]
        },
        {
            "positions": [
                -0.8050421764411928,
                -0.9460711489175235,
                1.6855236987022484,
                0.8823636943172468,
                -1.1979137574625032,
                -1.3810757629335386
            ]
        },
        {
            "positions": [
                -0.8244507433924543,
                -0.9576890853942286,
                1.707494492971384,
                0.7671174348949357,
                -1.0870153459770637,
                -1.4977471422956838
            ]
        },
        {
            "positions": [
                -0.8438593103437156,
                -0.9693070218709335,
                1.7294652872405196,
                0.6518711754726247,
                -0.9761169344916243,
                -1.6144185216578288
            ]
        },
        {
            "positions": [
                -0.863267877294977,
                -0.9809249583476385,
                1.7514360815096552,
                0.5366249160503138,
                -0.8652185230061848,
                -1.7310899010199738
            ]
        },
        {
            "positions": [
                -0.8826764442462384,
                -0.9925428948243435,
                1.7734068757787909,
                0.4213786566280029,
                -0.7543201115207456,
                -1.8477612803821188
            ]
        },
        {
            "positions": [
                -0.9020850111974998,
                -1.0041608313010486,
                1.7953776700479265,
                0.3061323972056915,
                -0.643421700035306,
                -1.964432659744264
            ]
        },
        {
            "positions": [
                -0.9214935781487612,
                -1.0157787677777534,
                1.817348464317062,
                0.1908861377833806,
                -0.5325232885498665,
                -2.081104039106409
            ]
        },
        {
            "positions": [
                -0.9409021451000226,
                -1.0273967042544585,
                1.8393192585861977,
                0.07563987836106945,
                -0.4216248770644273,
                -2.197775418468554
            ]
        },
        {
            "positions": [
                -0.9603107120512839,
                -1.0390146407311636,
                1.8612900528553333,
                -0.03960638106124126,
                -0.3107264655789881,
                -2.314446797830699
            ]
        },
        {
            "positions": [
                -0.9797192790025454,
                -1.0506325772078686,
                1.8832608471244692,
                -0.15485264048355285,
                -0.19982805409354798,
                -2.4311181771928445
            ]
        },
        {
            "positions": [
                -0.9991278459538068,
                -1.0622505136845735,
                1.9052316413936048,
                -0.27009889990586355,
                -0.08892964260810876,
                -2.5477895565549895
            ]
        },
        {
            "positions": [
                -1.018536412905068,
                -1.0738684501612785,
                1.9272024356627404,
                -0.3853451593281747,
                0.021968768877330458,
                -2.664460935917134
            ]
        },
        {
            "positions": [
                -1.0379449798563294,
                -1.0854863866379836,
                1.9491732299318758,
                -0.5005914187504854,
                0.13286718036276968,
                -2.781132315279279
            ]
        },
        {
            "positions": [
                -1.057353546807591,
                -1.0971043231146886,
                1.9711440242010116,
                -0.615837678172797,
                0.24376559184820934,
                -2.8978036946414245
            ]
        },
        {
            "positions": [
                -1.0767621137588523,
                -1.1087222595913935,
                1.9931148184701473,
                -0.7310839375951077,
                0.354664003333649,
                -3.0144750740035695
            ]
        },
        {
            "positions": [
                -1.0961706807101137,
                -1.1203401960680985,
                2.015085612739283,
                -0.8463301970174186,
                0.46556241481908806,
                -3.1311464533657145
            ]
        }
    ]
}