{
    "goal": {
        "global_pose": {
            "orientation": {
                "w": 0.005598929693374612,
                "x": 0.007748599140229565,
                "y": 0.7110244013736278,
                "z": -0.7031023480610252
            },
            "position": {
                "x": 0.1141497679147869,
                "y": -0.7141253447532654,
                "z": 0.3711530566215515
            }
        },
        "name": "move_to_auspresseinheit_B"
    },
    "id": "BiEST_move_to_auspresseinheit_B_140",
    "joint_names": [
        "shoulder_pan_joint",
        "shoulder_lift_joint",
        "elbow_joint",
        "wrist_1_joint",
        "wrist_2_joint",
        "wrist_3_joint"
    ],
    "metrics": {
        "cart_traj_len": 0.5646462357575625,
        "distance_elbow_joint": 0.06451765295701395,
        "distance_shoulder_lift_joint": 0.2935864892910254,
        "distance_shoulder_pan_joint": 0.5788436334823039,
        "distance_wrist_1_joint": 0.3353773070186724,
        "distance_wrist_2_joint": 0.9849996579165199,
        "distance_wrist_3_joint": 0.0005781040915397995,
        "smoothness": 7.612957943425664e-16,
        "time": 0.041491064,
        "traj_len": 1.5026319724926245,
        "weighted_distance": 1.8919397500648236
    },
    "planner": "BiEST",
    "start": {
        "state": {
            "elbow_joint": 2.0193083361928714,
            "shoulder_lift_joint": -1.1220246554650708,
            "shoulder_pan_joint": -1.0952077554168747,
            "wrist_1_joint": -0.8559753972642168,
            "wrist_2_joint": 0.4759566250798843,
            "wrist_3_joint": -3.1240929996934557
        }
    },
    "waypoints": [
        {
            "positions": [
                -1.0952077554168747,
                -1.1220246554650708,
                2.0193083361928714,
                -0.8559753972642168,
                0.4759566250798843,
                -3.1240929996934557
            ]
        },
        {
            "positions": [
                -1.191681694330592,
                -1.170955737013575,
                2.008555394033369,
                -0.8000791794277714,
                0.6401232347326375,
                -3.124189350375379
            ]
        },
        {
            "positions": [
                -1.2881556332443094,
                -1.2198868185620793,
                1.9978024518738668,
                -0.744182961591326,
                0.804289844385391,
                -3.1242857010573024
            ]
        },
        {
            "positions": [
                -1.3846295721580266,
                -1.2688179001105835,
                1.9870495097143643,
                -0.6882867437548805,
                0.9684564540381442,
                -3.1243820517392256
            ]
        },
        {
            "positions": [
                -1.4811035110717439,
                -1.3177489816590877,
                1.976296567554862,
                -0.6323905259184353,
                1.1326230636908976,
                -3.1244784024211487
            ]
        },
        {
            "positions": [
                -1.5775774499854613,
                -1.366680063207592,
                1.9655436253953598,
                -0.5764943080819898,
                1.2967896733436508,
                -3.1245747531030723
            ]
        },
        {
            "positions": [
                -1.6740513888991786,
                -1.4156111447560962,
                1.9547906832358575,
                -0.5205980902455444,
                1.4609562829964042,
                -3.1246711037849955
            ]
        }
    ]
}