{
    "goal": {
        "global_pose": {
            "orientation": {
                "w": 0.7031023502349854,
                "x": -0.7110244035720825,
                "y": 0.007748599164187908,
                "z": 0.005598929710686207
            },
            "position": {
                "x": 0.11585023208521307,
                "y": 0.44412534475326537,
                "z": 0.3711530566215515
            }
        },
        "name": "move_to_auspresseinheit_A"
    },
    "id": "BiEST_move_to_auspresseinheit_A_72",
    "joint_names": [
        "shoulder_pan_joint",
        "shoulder_lift_joint",
        "elbow_joint",
        "wrist_1_joint",
        "wrist_2_joint",
        "wrist_3_joint"
    ],
    "metrics": {
        "cart_traj_len": 0.6539180018710301,
        "distance_elbow_joint": 0.1917687648122346,
        "distance_shoulder_lift_joint": 0.6575962249589908,
        "distance_shoulder_pan_joint": 1.045675891882852,
        "distance_wrist_1_joint": 1.217180976209783,
        "distance_wrist_2_joint": 0.6148919462038871,
        "distance_wrist_3_joint": 0.03714885559867831,
        "smoothness": 1.0531071482375174,
        "time": 0.064778695,
        "traj_len": 1.9401707810567672,
        "weighted_distance": 2.3813091553339842
    },
    "planner": "BiEST",
    "start": {
        "state": {
            "elbow_joint": 2.4225746658250005,
            "shoulder_lift_joint": -1.3736534386056498,
            "shoulder_pan_joint": -0.3378633547517467,
            "wrist_1_joint": -1.0288598680537169,
            "wrist_2_joint": 1.233022673432363,
            "wrist_3_joint": -3.0940220416140027
        }
    },
    "waypoints": [
        {
            "positions": [
                -0.3378633547517467,
                -1.3736534386056498,
                2.4225746658250005,
                -1.0288598680537169,
                1.233022673432363,
                -3.0940220416140027
            ]
        },
        {
            "positions": [
                -0.2799073216465902,
                -1.4589518483326733,
                2.4343517754705033,
                -0.9029374585643823,
                1.1516113942998023,
                -3.0959986678329057
            ]
        },
        {
            "positions": [
                -0.22195128854143376,
                -1.544250258059697,
                2.4461288851160066,
                -0.7770150490750478,
                1.0702001151672416,
                -3.0979752940518086
            ]
        },
        {
            "positions": [
                -0.16399525543627724,
                -1.6295486677867206,
                2.4579059947615094,
                -0.6510926395857134,
                0.9887888360346808,
                -3.0999519202707115
            ]
        },
        {
            "positions": [
                -0.10603922233112076,
                -1.7148470775137443,
                2.469683104407012,
                -0.5251702300963789,
                0.9073775569021201,
                -3.101928546489615
            ]
        },
        {
            "positions": [
                -0.04808318922596422,
                -1.8001454872407678,
                2.481460214052515,
                -0.39924782060704433,
                0.8259662777695593,
                -3.103905172708518
            ]
        },
        {
            "positions": [
                0.009872843879192239,
                -1.8854438969677916,
                2.4932373236980183,
                -0.2733254111177099,
                0.7445549986369986,
                -3.1058817989274208
            ]
        },
        {
            "positions": [
                0.06782887698434878,
                -1.970742306694815,
                2.505014433343521,
                -0.14740300162837536,
                0.6631437195044378,
                -3.1078584251463237
            ]
        },
        {
            "positions": [
                0.2278247920210379,
                -1.9556154674773587,
                2.4776821840200927,
                -0.2313340290744857,
                0.6743969675734283,
                -3.1136865431629133
            ]
        },
        {
            "positions": [
                0.387820707057727,
                -1.9404886282599023,
                2.450349934696664,
                -0.315265056520596,
                0.6856502156424188,
                -3.1195146611795024
            ]
        },
        {
            "positions": [
                0.5478166220944162,
                -1.925361789042446,
                2.4230176853732357,
                -0.39919608396670636,
                0.6969034637114093,
                -3.1253427791960915
            ]
        },
        {
            "positions": [
                0.7078125371311053,
                -1.9102349498249895,
                2.395685436049807,
                -0.48312711141281667,
                0.7081567117803997,
                -3.131170897212681
            ]
        }
    ]
}