{
    "goal": {
        "global_pose": {
            "orientation": {
                "w": -0.00223480608172531,
                "x": 0.0024358444001904467,
                "y": 0.7094548369677653,
                "z": -0.704743149386269
            },
            "position": {
                "x": 0.6205249238014221,
                "y": -0.6371506643295288,
                "z": 0.19426114857196808
            }
        },
        "name": "move_to_magneteinheit_B"
    },
    "id": "BiEST_move_to_magneteinheit_B_36",
    "joint_names": [
        "shoulder_pan_joint",
        "shoulder_lift_joint",
        "elbow_joint",
        "wrist_1_joint",
        "wrist_2_joint",
        "wrist_3_joint"
    ],
    "metrics": {
        "cart_traj_len": 2.481034874692652,
        "distance_elbow_joint": 2.4260163323037123,
        "distance_shoulder_lift_joint": 1.0632475321585577,
        "distance_shoulder_pan_joint": 1.620889694415007,
        "distance_wrist_1_joint": 1.4538235125020744,
        "distance_wrist_2_joint": 2.191130439393203,
        "distance_wrist_3_joint": 1.4441363892924879,
        "smoothness": 0.8144383397639817,
        "time": 0.211191127,
        "traj_len": 3.1936255103040874,
        "weighted_distance": 4.090534272016956
    },
    "planner": "BiEST",
    "start": {
        "state": {
            "elbow_joint": 2.6216224122426386,
            "shoulder_lift_joint": -1.4174107377796124,
            "shoulder_pan_joint": 0.7066234856936794,
            "wrist_1_joint": 1.9546482284002225,
            "wrist_2_joint": -0.7096286983471962,
            "wrist_3_joint": 0.005740856962016249
        }
    },
    "waypoints": [
        {
            "positions": [
                0.7066234856936794,
                -1.4174107377796124,
                2.6216224122426386,
                1.9546482284002225,
                -0.7096286983471962,
                0.005740856962016249
            ]
        },
        {
            "positions": [
                0.6274447639611676,
                -1.40822073239592,
                2.597269387180716,
                1.885060239804495,
                -0.7438677072321566,
                -0.04323649579041391
            ]
        },
        {
            "positions": [
                0.5640443995259468,
                -1.4237056086776396,
                2.4307721326017884,
                1.8294706444597113,
                -0.7102871732913448,
                -0.06609539661874025
            ]
        },
        {
            "positions": [
                0.500644035090726,
                -1.4391904849593593,
                2.2642748780228605,
                1.7738810491149275,
                -0.6767066393505331,
                -0.08895429744706662
            ]
        },
        {
            "positions": [
                0.4372436706555052,
                -1.4546753612410792,
                2.0977776234439327,
                1.718291453770144,
                -0.6431261054097214,
                -0.11181319827539296
            ]
        },
        {
            "positions": [
                0.37384330622028433,
                -1.470160237522799,
                1.9312803688650046,
                1.6627018584253601,
                -0.6095455714689096,
                -0.13467209910371933
            ]
        },
        {
            "positions": [
                0.31044294178506354,
                -1.4856451138045186,
                1.7647831142860768,
                1.6071122630805763,
                -0.575965037528098,
                -0.15753099993204567
            ]
        },
        {
            "positions": [
                0.24704257734984275,
                -1.5011299900862383,
                1.598285859707149,
                1.5515226677357925,
                -0.5423845035872863,
                -0.18038990076037204
            ]
        },
        {
            "positions": [
                0.18364221291462196,
                -1.516614866367958,
                1.4317886051282211,
                1.4959330723910087,
                -0.5088039696464746,
                -0.20324880158869837
            ]
        },
        {
            "positions": [
                0.12024184847940111,
                -1.5320997426496779,
                1.265291350549293,
                1.4403434770462251,
                -0.4752234357056628,
                -0.22610770241702474
            ]
        },
        {
            "positions": [
                0.056841484044180324,
                -1.5475846189313975,
                1.0987940959703653,
                1.384753881701441,
                -0.4416429017648511,
                -0.2489666032453511
            ]
        },
        {
            "positions": [
                -0.006558880391040467,
                -1.5630694952131172,
                0.9322968413914374,
                1.3291642863566575,
                -0.4080623678240394,
                -0.27182550407367745
            ]
        },
        {
            "positions": [
                -0.031156252573664805,
                -1.5077705865083573,
                0.9585536532201951,
                1.4208844648056307,
                -0.5236320576166469,
                -0.1908296478576517
            ]
        },
        {
            "positions": [
                -0.055753624756289144,
                -1.4524716778035973,
                0.984810465048953,
                1.5126046432546039,
                -0.6392017474092544,
                -0.10983379164162593
            ]
        },
        {
            "positions": [
                -0.08035099693891348,
                -1.3971727690988371,
                1.0110672768777107,
                1.6043248217035768,
                -0.7547714372018619,
                -0.028837935425600175
            ]
        },
        {
            "positions": [
                -0.10494836912153782,
                -1.3418738603940772,
                1.0373240887064685,
                1.6960450001525502,
                -0.8703411269944694,
                0.05215792079042558
            ]
        },
        {
            "positions": [
                -0.1295457413041622,
                -1.2865749516893172,
                1.0635809005352261,
                1.7877651786015232,
                -0.985910816787077,
                0.13315377700645137
            ]
        },
        {
            "positions": [
                -0.1541431134867865,
                -1.2312760429845573,
                1.089837712363984,
                1.8794853570504964,
                -1.1014805065796844,
                0.2141496332224771
            ]
        },
        {
            "positions": [
                -0.17874048566941086,
                -1.175977134279797,
                1.1160945241927418,
                1.9712055354994695,
                -1.2170501963722922,
                0.29514548943850294
            ]
        },
        {
            "positions": [
                -0.20333785785203518,
                -1.1206782255750372,
                1.1423513360214994,
                2.0629257139484425,
                -1.3326198861648995,
                0.3761413456545286
            ]
        },
        {
            "positions": [
                -0.22793523003465954,
                -1.0653793168702772,
                1.1686081478502572,
                2.154645892397416,
                -1.4481895759575072,
                0.4571372018705544
            ]
        },
        {
            "positions": [
                -0.31372660237049305,
                -1.0151894936684236,
                1.2311555797244687,
                2.154288646845197,
                -1.5458094363283394,
                0.40243628658148406
            ]
        },
        {
            "positions": [
                -0.39951797470632655,
                -0.9649996704665702,
                1.2937030115986798,
                2.153931401292978,
                -1.6434292966991717,
                0.3477353712924137
            ]
        },
        {
            "positions": [
                -0.48530934704216,
                -0.9148098472647166,
                1.356250443472891,
                2.1535741557407593,
                -1.7410491570700037,
                0.29303445600334344
            ]
        },
        {
            "positions": [
                -0.5711007193779936,
                -0.8646200240628632,
                1.4187978753471024,
                2.15321691018854,
                -1.838669017440836,
                0.2383335407142731
            ]
        },
        {
            "positions": [
                -0.656892091713827,
                -0.8144302008610096,
                1.4813453072213139,
                2.1528596646363214,
                -1.9362888778116683,
                0.18363262542520276
            ]
        },
        {
            "positions": [
                -0.7426834640496605,
                -0.7642403776591561,
                1.543892739095525,
                2.1525024190841027,
                -2.0339087381825003,
                0.12893171013613247
            ]
        },
        {
            "positions": [
                -0.828474836385494,
                -0.7140505544573026,
                1.6064401709697362,
                2.1521451735318835,
                -2.1315285985533325,
                0.07423079484706213
            ]
        },
        {
            "positions": [
                -0.9142662087213275,
                -0.6638607312554491,
                1.6689876028439476,
                2.151787927979665,
                -2.229148458924165,
                0.01952987955799178
            ]
        }
    ]
}