{
    "goal": {
        "global_pose": {
            "orientation": {
                "w": 0.005598929693374612,
                "x": 0.007748599140229565,
                "y": 0.7110244013736278,
                "z": -0.7031023480610252
            },
            "position": {
                "x": 0.1141497679147869,
                "y": -0.7141253447532654,
                "z": 0.3711530566215515
            }
        },
        "name": "move_to_auspresseinheit_B"
    },
    "id": "BiEST_move_to_auspresseinheit_B_59",
    "joint_names": [
        "shoulder_pan_joint",
        "shoulder_lift_joint",
        "elbow_joint",
        "wrist_1_joint",
        "wrist_2_joint",
        "wrist_3_joint"
    ],
    "metrics": {
        "cart_traj_len": 0.5643857900431367,
        "distance_elbow_joint": 0.06197813905863003,
        "distance_shoulder_lift_joint": 0.29435415603799386,
        "distance_shoulder_pan_joint": 0.5755860913734268,
        "distance_wrist_1_joint": 0.32419100111891586,
        "distance_wrist_2_joint": 1.0003601983554473,
        "distance_wrist_3_joint": 0.00459496243396762,
        "smoothness": 0.0,
        "time": 0.05862252799999999,
        "traj_len": 1.5036836596765895,
        "weighted_distance": 1.8959972765594049
    },
    "planner": "BiEST",
    "start": {
        "state": {
            "elbow_joint": 2.0193083361928714,
            "shoulder_lift_joint": -1.1220246554650708,
            "shoulder_pan_joint": -1.0952077554168747,
            "wrist_1_joint": -0.8559753972642168,
            "wrist_2_joint": 0.4759566250798843,
            "wrist_3_joint": -3.1240929996934557
        }
    },
    "waypoints": [
        {
            "positions": [
                -1.0952077554168747,
                -1.1220246554650708,
                2.0193083361928714,
                -0.8559753972642168,
                0.4759566250798843,
                -3.1240929996934557
            ]
        },
        {
            "positions": [
                -1.1911387706457792,
                -1.1710836814714032,
                2.0089786463497665,
                -0.8019435637443975,
                0.6426833248057922,
                -3.123327172621128
            ]
        },
        {
            "positions": [
                -1.2870697858746836,
                -1.2201427074777353,
                1.9986489565066614,
                -0.7479117302245781,
                0.8094100245317,
                -3.1225613455488
            ]
        },
        {
            "positions": [
                -1.383000801103588,
                -1.2692017334840677,
                1.9883192666635563,
                -0.6938798967047588,
                0.976136724257608,
                -3.121795518476472
            ]
        },
        {
            "positions": [
                -1.4789318163324925,
                -1.3182607594904001,
                1.9779895768204514,
                -0.6398480631849396,
                1.1428634239835158,
                -3.1210296914041438
            ]
        },
        {
            "positions": [
                -1.574862831561397,
                -1.3673197854967323,
                1.9676598869773465,
                -0.5858162296651201,
                1.3095901237094238,
                -3.120263864331816
            ]
        },
        {
            "positions": [
                -1.6707938467903014,
                -1.4163788115030647,
                1.9573301971342414,
                -0.5317843961453009,
                1.4763168234353317,
                -3.119498037259488
            ]
        }
    ]
}