{
    "goal": {
        "global_pose": {
            "orientation": {
                "w": -0.4816463035849501,
                "x": 0.5182115481033762,
                "y": 0.4908360881923453,
                "z": -0.5084816262002911
            },
            "position": {
                "x": -0.8240239810943604,
                "y": -0.300875300988555,
                "z": 0.16403168439865112
            }
        },
        "name": "move_to_storage_C"
    },
    "id": "BiEST_move_to_storage_C_29",
    "joint_names": [
        "shoulder_pan_joint",
        "shoulder_lift_joint",
        "elbow_joint",
        "wrist_1_joint",
        "wrist_2_joint",
        "wrist_3_joint"
    ],
    "metrics": {
        "cart_traj_len": 0.5758960456005496,
        "distance_elbow_joint": 0.25641615738545176,
        "distance_shoulder_lift_joint": 0.18919697142820713,
        "distance_shoulder_pan_joint": 0.4923891904150337,
        "distance_wrist_1_joint": 0.06923013045605586,
        "distance_wrist_2_joint": 1.0781168450291347,
        "distance_wrist_3_joint": 0.07026590537889854,
        "smoothness": 5.075305295617109e-16,
        "time": 0.068007468,
        "traj_len": 1.468201348621088,
        "weighted_distance": 1.8556653756363968
    },
    "planner": "BiEST",
    "start": {
        "state": {
            "elbow_joint": 2.010868314990456,
            "shoulder_lift_joint": -1.1634956873337592,
            "shoulder_pan_joint": -2.4736205022346125,
            "wrist_1_joint": -0.8367026794202681,
            "wrist_2_joint": 0.6746043897044499,
            "wrist_3_joint": -3.1496632123970403
        }
    },
    "waypoints": [
        {
            "positions": [
                -2.4736205022346125,
                -1.1634956873337592,
                2.010868314990456,
                -0.8367026794202681,
                0.6746043897044499,
                -3.1496632123970403
            ]
        },
        {
            "positions": [
                -2.5556853673037847,
                -1.1319628587623913,
                1.9681322887595472,
                -0.8251643243442588,
                0.854290530542639,
                -3.137952228167224
            ]
        },
        {
            "positions": [
                -2.637750232372957,
                -1.1004300301910235,
                1.9253962625286385,
                -0.8136259692682495,
                1.0339766713808283,
                -3.1262412439374074
            ]
        },
        {
            "positions": [
                -2.7198150974421296,
                -1.0688972016196556,
                1.8826602362977298,
                -0.8020876141922402,
                1.2136628122190172,
                -3.114530259707591
            ]
        },
        {
            "positions": [
                -2.801879962511302,
                -1.0373643730482878,
                1.8399242100668214,
                -0.7905492591162309,
                1.3933489530572065,
                -3.1028192754777746
            ]
        },
        {
            "positions": [
                -2.883944827580474,
                -1.00583154447692,
                1.7971881838359127,
                -0.7790109040402216,
                1.5730350938953954,
                -3.0911082912479584
            ]
        },
        {
            "positions": [
                -2.966009692649646,
                -0.9742987159055521,
                1.754452157605004,
                -0.7674725489642122,
                1.7527212347335848,
                -3.0793973070181417
            ]
        }
    ]
}