{
    "goal": {
        "global_pose": {
            "orientation": {
                "w": 0.5084816262002911,
                "x": -0.4908360881923452,
                "y": 0.5182115481033761,
                "z": -0.48164630358495003
            },
            "position": {
                "x": 0.5540239810943604,
                "y": -0.46912469901144505,
                "z": 0.16403168439865112
            }
        },
        "name": "move_to_storage_B"
    },
    "id": "BiEST_move_to_storage_B_58",
    "joint_names": [
        "shoulder_pan_joint",
        "shoulder_lift_joint",
        "elbow_joint",
        "wrist_1_joint",
        "wrist_2_joint",
        "wrist_3_joint"
    ],
    "metrics": {
        "cart_traj_len": 0.6141020882396303,
        "distance_elbow_joint": 0.35251176846016286,
        "distance_shoulder_lift_joint": 0.4592380975779182,
        "distance_shoulder_pan_joint": 0.18230241861881702,
        "distance_wrist_1_joint": 2.993565171388987,
        "distance_wrist_2_joint": 2.778940832549962,
        "distance_wrist_3_joint": 3.1425066324363105,
        "smoothness": 0.15157561948159587,
        "time": 0.12242898900000002,
        "traj_len": 3.1478667254240857,
        "weighted_distance": 4.686852268830727
    },
    "planner": "BiEST",
    "start": {
        "state": {
            "elbow_joint": 1.664937868594044,
            "shoulder_lift_joint": -0.661644460510453,
            "shoulder_pan_joint": -0.9139846352900073,
            "wrist_1_joint": 2.146753192139373,
            "wrist_2_joint": -2.2341966793290973,
            "wrist_3_joint": 0.005466555786416001
        }
    },
    "waypoints": [
        {
            "positions": [
                -0.9139846352900073,
                -0.661644460510453,
                1.664937868594044,
                2.146753192139373,
                -2.2341966793290973,
                0.005466555786416001
            ]
        },
        {
            "positions": [
                -0.9251191831234243,
                -0.7082115658131701,
                1.709802874610019,
                2.060684144631146,
                -2.273211515265606,
                -0.029392979691168192
            ]
        },
        {
            "positions": [
                -0.9319658979548403,
                -0.7247184055041782,
                1.7221087451077863,
                1.9443842996759155,
                -2.1636144754010678,
                -0.15369886356951726
            ]
        },
        {
            "positions": [
                -0.9388126127862564,
                -0.7412252451951862,
                1.734414615605554,
                1.8280844547206851,
                -2.05401743553653,
                -0.2780047474478663
            ]
        },
        {
            "positions": [
                -0.9456593276176724,
                -0.7577320848861943,
                1.7467204861033214,
                1.7117846097654548,
                -1.9444203956719917,
                -0.40231063132621536
            ]
        },
        {
            "positions": [
                -0.9525060424490883,
                -0.7742389245772023,
                1.7590263566010889,
                1.5954847648102244,
                -1.8348233558074536,
                -0.5266165152045644
            ]
        },
        {
            "positions": [
                -0.9593527572805043,
                -0.7907457642682103,
                1.7713322270988565,
                1.479184919854994,
                -1.7252263159429155,
                -0.6509223990829135
            ]
        },
        {
            "positions": [
                -0.9661994721119204,
                -0.8072526039592184,
                1.783638097596624,
                1.3628850748997636,
                -1.6156292760783775,
                -0.7752282829612624
            ]
        },
        {
            "positions": [
                -0.9730461869433363,
                -0.8237594436502265,
                1.7959439680943916,
                1.246585229944533,
                -1.5060322362138394,
                -0.8995341668396116
            ]
        },
        {
            "positions": [
                -0.9798929017747523,
                -0.8402662833412344,
                1.808249838592159,
                1.1302853849893029,
                -1.3964351963493011,
                -1.0238400507179608
            ]
        },
        {
            "positions": [
                -0.9867396166061684,
                -0.8567731230322425,
                1.8205557090899265,
                1.0139855400340723,
                -1.2868381564847633,
                -1.1481459345963096
            ]
        },
        {
            "positions": [
                -0.9935863314375843,
                -0.8732799627232506,
                1.8328615795876941,
                0.8976856950788419,
                -1.177241116620225,
                -1.272451818474659
            ]
        },
        {
            "positions": [
                -1.0004330462690003,
                -0.8897868024142586,
                1.8451674500854616,
                0.7813858501236115,
                -1.067644076755687,
                -1.396757702353008
            ]
        },
        {
            "positions": [
                -1.0072797611004163,
                -0.9062936421052666,
                1.857473320583229,
                0.6650860051683811,
                -0.9580470368911489,
                -1.5210635862313568
            ]
        },
        {
            "positions": [
                -1.0141264759318322,
                -0.9228004817962747,
                1.8697791910809967,
                0.5487861602131507,
                -0.8484499970266106,
                -1.6453694701097061
            ]
        },
        {
            "positions": [
                -1.0209731907632484,
                -0.9393073214872828,
                1.882085061578764,
                0.43248631525792014,
                -0.7388529571620726,
                -1.7696753539880552
            ]
        },
        {
            "positions": [
                -1.0278199055946644,
                -0.9558141611782908,
                1.8943909320765315,
                0.31618647030269,
                -0.6292559172975345,
                -1.893981237866404
            ]
        },
        {
            "positions": [
                -1.0346666204260804,
                -0.9723210008692988,
                1.9066968025742992,
                0.1998866253474596,
                -0.5196588774329964,
                -2.0182871217447533
            ]
        },
        {
            "positions": [
                -1.0415133352574963,
                -0.9888278405603068,
                1.9190026730720666,
                0.083586780392229,
                -0.41006183756845815,
                -2.1425930056231026
            ]
        },
        {
            "positions": [
                -1.0483600500889123,
                -1.0053346802513148,
                1.931308543569834,
                -0.03271306456300138,
                -0.3004647977039203,
                -2.266898889501451
            ]
        },
        {
            "positions": [
                -1.0552067649203283,
                -1.021841519942323,
                1.9436144140676017,
                -0.14901290951823176,
                -0.19086775783938226,
                -2.3912047733798003
            ]
        },
        {
            "positions": [
                -1.0620534797517442,
                -1.0383483596333312,
                1.9559202845653691,
                -0.26531275447346214,
                -0.08127071797484398,
                -2.5155106572581496
            ]
        },
        {
            "positions": [
                -1.0689001945831602,
                -1.0548551993243391,
                1.9682261550631366,
                -0.3816125994286925,
                0.028326321889693862,
                -2.6398165411364984
            ]
        },
        {
            "positions": [
                -1.0757469094145764,
                -1.071362039015347,
                1.9805320255609042,
                -0.4979124443839229,
                0.13792336175423214,
                -2.7641224250148477
            ]
        },
        {
            "positions": [
                -1.0825936242459924,
                -1.087868878706355,
                1.9928378960586717,
                -0.6142122893391533,
                0.24752040161877042,
                -2.8884283088931966
            ]
        },
        {
            "positions": [
                -1.0894403390774083,
                -1.104375718397363,
                2.005143766556439,
                -0.7305121342943837,
                0.35711744148330826,
                -3.0127341927715454
            ]
        },
        {
            "positions": [
                -1.0962870539088243,
                -1.1208825580883712,
                2.0174496370542068,
                -0.8468119792496138,
                0.46671448134784643,
                -3.1370400766498947
            ]
        }
    ]
}