{
    "goal": {
        "global_pose": {
            "orientation": {
                "w": 0.7031023502349854,
                "x": -0.7110244035720825,
                "y": 0.007748599164187908,
                "z": 0.005598929710686207
            },
            "position": {
                "x": 0.11585023208521307,
                "y": 0.44412534475326537,
                "z": 0.3711530566215515
            }
        },
        "name": "move_to_auspresseinheit_A"
    },
    "id": "BiEST_move_to_auspresseinheit_A_63",
    "joint_names": [
        "shoulder_pan_joint",
        "shoulder_lift_joint",
        "elbow_joint",
        "wrist_1_joint",
        "wrist_2_joint",
        "wrist_3_joint"
    ],
    "metrics": {
        "cart_traj_len": 1.5085894310495256,
        "distance_elbow_joint": 1.2384297559930166,
        "distance_shoulder_lift_joint": 0.5326437040634586,
        "distance_shoulder_pan_joint": 1.041598140431593,
        "distance_wrist_1_joint": 6.723106507853584,
        "distance_wrist_2_joint": 2.3861726250848543,
        "distance_wrist_3_joint": 3.9351401156948302,
        "smoothness": 0.7316601271374864,
        "time": 0.13790477299999998,
        "traj_len": 3.9820962882784907,
        "weighted_distance": 5.730327234412484
    },
    "planner": "BiEST",
    "start": {
        "state": {
            "elbow_joint": 2.4225746658250005,
            "shoulder_lift_joint": -1.3736534386056498,
            "shoulder_pan_joint": -0.3378633547517467,
            "wrist_1_joint": -1.0288598680537169,
            "wrist_2_joint": 1.233022673432363,
            "wrist_3_joint": -3.0940220416140027
        }
    },
    "waypoints": [
        {
            "positions": [
                -0.3378633547517467,
                -1.3736534386056498,
                2.4225746658250005,
                -1.0288598680537169,
                1.233022673432363,
                -3.0940220416140027
            ]
        },
        {
            "positions": [
                -0.33509002383777026,
                -1.3959326559007925,
                2.3923547336671143,
                -0.8553009007243542,
                1.163531870434801,
                -3.001204687839923
            ]
        },
        {
            "positions": [
                -0.3323166929237938,
                -1.4182118731959352,
                2.362134801509228,
                -0.6817419333949915,
                1.094041067437239,
                -2.908387334065843
            ]
        },
        {
            "positions": [
                -0.3295433620098173,
                -1.4404910904910777,
                2.331914869351342,
                -0.5081829660656288,
                1.024550264439677,
                -2.8155699802917633
            ]
        },
        {
            "positions": [
                -0.32677003109584085,
                -1.4627703077862204,
                2.301694937193456,
                -0.33462399873626614,
                0.955059461442115,
                -2.7227526265176833
            ]
        },
        {
            "positions": [
                -0.3239967001818644,
                -1.4850495250813631,
                2.27147500503557,
                -0.16106503140690343,
                0.8855686584445529,
                -2.6299352727436034
            ]
        },
        {
            "positions": [
                -0.3212233692678879,
                -1.5073287423765058,
                2.2412550728776837,
                0.012493935922459176,
                0.816077855446991,
                -2.5371179189695234
            ]
        },
        {
            "positions": [
                -0.31845003835391145,
                -1.5296079596716485,
                2.2110351407197975,
                0.1860529032518219,
                0.7465870524494289,
                -2.4443005651954435
            ]
        },
        {
            "positions": [
                -0.315676707439935,
                -1.551887176966791,
                2.1808152085619112,
                0.3596118705811846,
                0.6770962494518669,
                -2.351483211421364
            ]
        },
        {
            "positions": [
                -0.3129033765259585,
                -1.5741663942619337,
                2.150595276404025,
                0.5331708379105473,
                0.6076054464543048,
                -2.258665857647284
            ]
        },
        {
            "positions": [
                -0.31013004561198204,
                -1.5964456115570764,
                2.1203753442461393,
                0.70672980523991,
                0.5381146434567428,
                -2.165848503873204
            ]
        },
        {
            "positions": [
                -0.3073567146980055,
                -1.6187248288522191,
                2.0901554120882526,
                0.8802887725692727,
                0.4686238404591807,
                -2.073031150099124
            ]
        },
        {
            "positions": [
                -0.30458338378402905,
                -1.6410040461473618,
                2.059935479930367,
                1.0538477398986352,
                0.39913303746161877,
                -1.9802137963250444
            ]
        },
        {
            "positions": [
                -0.3018100528700526,
                -1.6632832634425045,
                2.0297155477724806,
                1.2274067072279984,
                0.3296422344640566,
                -1.8873964425509644
            ]
        },
        {
            "positions": [
                -0.2990367219560761,
                -1.685562480737647,
                1.9994956156145944,
                1.4009656745573607,
                0.26015143146649466,
                -1.7945790887768847
            ]
        },
        {
            "positions": [
                -0.29626339104209964,
                -1.7078416980327897,
                1.9692756834567082,
                1.5745246418867234,
                0.1906606284689325,
                -1.7017617350028047
            ]
        },
        {
            "positions": [
                -0.2934900601281232,
                -1.7301209153279324,
                1.9390557512988222,
                1.748083609216086,
                0.12116982547137067,
                -1.608944381228725
            ]
        },
        {
            "positions": [
                -0.2907167292141467,
                -1.7524001326230751,
                1.908835819140936,
                1.9216425765454488,
                0.05167902247380862,
                -1.516127027454645
            ]
        },
        {
            "positions": [
                -0.28794339830017024,
                -1.7746793499182179,
                1.87861588698305,
                2.0952015438748113,
                -0.01781178052375343,
                -1.4233096736805653
            ]
        },
        {
            "positions": [
                -0.28517006738619377,
                -1.7969585672133603,
                1.8483959548251638,
                2.2687605112041744,
                -0.08730258352131548,
                -1.3304923199064853
            ]
        },
        {
            "positions": [
                -0.2823967364722173,
                -1.819237784508503,
                1.8181760226672776,
                2.4423194785335367,
                -0.15679338651887753,
                -1.2376749661324056
            ]
        },
        {
            "positions": [
                -0.27962340555824083,
                -1.8415170018036457,
                1.7879560905093914,
                2.6158784458628994,
                -0.22628418951643953,
                -1.1448576123583256
            ]
        },
        {
            "positions": [
                -0.2308168129400638,
                -1.8447965804587432,
                1.818119651384746,
                2.464910023914905,
                -0.18109090307918227,
                -1.2431738626383606
            ]
        },
        {
            "positions": [
                -0.18201022032188677,
                -1.8480761591138404,
                1.8482832122601003,
                2.3139416019669103,
                -0.135897616641925,
                -1.3414901129183958
            ]
        },
        {
            "positions": [
                -0.13320362770370975,
                -1.8513557377689378,
                1.8784467731354548,
                2.162973180018916,
                -0.09070433020466775,
                -1.4398063631984308
            ]
        },
        {
            "positions": [
                -0.0843970350855327,
                -1.854635316424035,
                1.9086103340108092,
                2.0120047580709217,
                -0.0455110437674105,
                -1.5381226134784658
            ]
        },
        {
            "positions": [
                -0.035590442467355654,
                -1.8579148950791324,
                1.9387738948861637,
                1.861036336122927,
                -0.00031775733015321217,
                -1.6364388637585008
            ]
        },
        {
            "positions": [
                0.013216150150821337,
                -1.8611944737342296,
                1.968937455761518,
                1.7100679141749326,
                0.04487552910710402,
                -1.7347551140385358
            ]
        },
        {
            "positions": [
                0.06202274276899844,
                -1.864474052389327,
                1.9991010166368726,
                1.5590994922269379,
                0.0900688155443613,
                -1.833071364318571
            ]
        },
        {
            "positions": [
                0.11082933538717543,
                -1.8677536310444243,
                2.029264577512227,
                1.4081310702789436,
                0.13526210198161853,
                -1.931387614598606
            ]
        },
        {
            "positions": [
                0.15963592800535248,
                -1.8710332096995217,
                2.0594281383875814,
                1.257162648330949,
                0.18045538841887582,
                -2.029703864878641
            ]
        },
        {
            "positions": [
                0.20844252062352953,
                -1.8743127883546191,
                2.089591699262936,
                1.1061942263829545,
                0.2256486748561331,
                -2.128020115158676
            ]
        },
        {
            "positions": [
                0.25724911324170663,
                -1.8775923670097163,
                2.1197552601382905,
                0.95522580443496,
                0.2708419612933904,
                -2.226336365438711
            ]
        },
        {
            "positions": [
                0.3060557058598835,
                -1.8808719456648137,
                2.1499188210136446,
                0.8042573824869657,
                0.31603524773064756,
                -2.324652615718746
            ]
        },
        {
            "positions": [
                0.3548622984780606,
                -1.884151524319911,
                2.180082381888999,
                0.6532889605389711,
                0.36122853416790485,
                -2.422968865998781
            ]
        },
        {
            "positions": [
                0.4036688910962377,
                -1.8874311029750084,
                2.2102459427643537,
                0.5023205385909764,
                0.40642182060516213,
                -2.5212851162788166
            ]
        },
        {
            "positions": [
                0.4524754837144147,
                -1.8907106816301056,
                2.2404095036397083,
                0.3513521166429818,
                0.4516151070424194,
                -2.619601366558851
            ]
        },
        {
            "positions": [
                0.5012820763325917,
                -1.893990260285203,
                2.2705730645150624,
                0.20038369469498774,
                0.4968083934796766,
                -2.7179176168388866
            ]
        },
        {
            "positions": [
                0.5500886689507687,
                -1.8972698389403002,
                2.300736625390417,
                0.0494152727469932,
                0.5420016799169338,
                -2.8162338671189215
            ]
        },
        {
            "positions": [
                0.5988952615689458,
                -1.9005494175953976,
                2.3309001862657714,
                -0.1015531492010012,
                0.5871949663541912,
                -2.9145501173989565
            ]
        },
        {
            "positions": [
                0.6338417696059125,
                -1.9024653259533013,
                2.3511892145727806,
                -0.22186534882535658,
                0.6249905017759981,
                -2.9866445111984636
            ]
        },
        {
            "positions": [
                0.6687882776428794,
                -1.9043812343112048,
                2.37147824287979,
                -0.34217754844971193,
                0.6627860371978052,
                -3.058738904997971
            ]
        },
        {
            "positions": [
                0.7037347856798462,
                -1.9062971426691084,
                2.391767271186799,
                -0.4624897480740674,
                0.7005815726196121,
                -3.1308332987974783
            ]
        }
    ]
}