{
    "goal": {
        "global_pose": {
            "orientation": {
                "w": 0.7031023502349854,
                "x": -0.7110244035720825,
                "y": 0.007748599164187908,
                "z": 0.005598929710686207
            },
            "position": {
                "x": 0.11585023208521307,
                "y": 0.44412534475326537,
                "z": 0.3711530566215515
            }
        },
        "name": "move_to_auspresseinheit_A"
    },
    "id": "BiEST_move_to_auspresseinheit_A_51",
    "joint_names": [
        "shoulder_pan_joint",
        "shoulder_lift_joint",
        "elbow_joint",
        "wrist_1_joint",
        "wrist_2_joint",
        "wrist_3_joint"
    ],
    "metrics": {
        "cart_traj_len": 5.376957677800773,
        "distance_elbow_joint": 3.96141539749481,
        "distance_shoulder_lift_joint": 1.655728224095776,
        "distance_shoulder_pan_joint": 6.135564588749304,
        "distance_wrist_1_joint": 6.5311040966567875,
        "distance_wrist_2_joint": 3.7379093568077253,
        "distance_wrist_3_joint": 8.568946925705225,
        "smoothness": 0.309843127632635,
        "time": 0.11176654700000001,
        "traj_len": 5.530883165418488,
        "weighted_distance": 7.615613953870339
    },
    "planner": "BiEST",
    "start": {
        "state": {
            "elbow_joint": 2.4225746658250005,
            "shoulder_lift_joint": -1.3736534386056498,
            "shoulder_pan_joint": -0.3378633547517467,
            "wrist_1_joint": -1.0288598680537169,
            "wrist_2_joint": 1.233022673432363,
            "wrist_3_joint": -3.0940220416140027
        }
    },
    "waypoints": [
        {
            "positions": [
                -0.3378633547517467,
                -1.3736534386056498,
                2.4225746658250005,
                -1.0288598680537169,
                1.233022673432363,
                -3.0940220416140027
            ]
        },
        {
            "positions": [
                -0.3253701629096648,
                -1.3760853722381514,
                2.3256361061691826,
                -1.0757813608621332,
                1.1910458831571642,
                -2.9900134967731744
            ]
        },
        {
            "positions": [
                -0.3128769710675829,
                -1.378517305870653,
                2.2286975465133647,
                -1.1227028536705492,
                1.1490690928819653,
                -2.886004951932346
            ]
        },
        {
            "positions": [
                -0.3668102672691286,
                -1.3632804466480721,
                2.167039301193413,
                -1.1846637853543684,
                1.0886256054775711,
                -2.7607201887304997
            ]
        },
        {
            "positions": [
                -0.42074356347067426,
                -1.3480435874254912,
                2.105381055873461,
                -1.2466247170381877,
                1.028182118073177,
                -2.635435425528653
            ]
        },
        {
            "positions": [
                -0.47467685967221995,
                -1.3328067282029104,
                2.0437228105535086,
                -1.3085856487220067,
                0.9677386306687827,
                -2.5101506623268066
            ]
        },
        {
            "positions": [
                -0.5286101558737657,
                -1.3175698689803292,
                1.9820645652335567,
                -1.3705465804058259,
                0.9072951432643885,
                -2.3848658991249603
            ]
        },
        {
            "positions": [
                -0.5825434520753114,
                -1.3023330097577483,
                1.9204063199136048,
                -1.432507512089645,
                0.8468516558599943,
                -2.2595811359231135
            ]
        },
        {
            "positions": [
                -0.6364767482768571,
                -1.2870961505351675,
                1.8587480745936529,
                -1.4944684437734643,
                0.7864081684556001,
                -2.134296372721267
            ]
        },
        {
            "positions": [
                -0.6904100444784027,
                -1.2718592913125866,
                1.797089829273701,
                -1.5564293754572835,
                0.7259646810512059,
                -2.009011609519421
            ]
        },
        {
            "positions": [
                -0.7443433406799485,
                -1.2566224320900057,
                1.7354315839537489,
                -1.6183903071411028,
                0.6655211936468117,
                -1.8837268463175743
            ]
        },
        {
            "positions": [
                -0.7982766368814942,
                -1.2413855728674248,
                1.6737733386337967,
                -1.680351238824922,
                0.6050777062424174,
                -1.7584420831157277
            ]
        },
        {
            "positions": [
                -0.8522099330830399,
                -1.226148713644844,
                1.6121150933138448,
                -1.742312170508741,
                0.5446342188380232,
                -1.6331573199138814
            ]
        },
        {
            "positions": [
                -0.9061432292845857,
                -1.2109118544222628,
                1.550456847993893,
                -1.8042731021925604,
                0.484190731433629,
                -1.5078725567120346
            ]
        },
        {
            "positions": [
                -0.9600765254861312,
                -1.195674995199682,
                1.488798602673941,
                -1.8662340338763794,
                0.4237472440292348,
                -1.3825877935101882
            ]
        },
        {
            "positions": [
                -1.014009821687677,
                -1.180438135977101,
                1.427140357353989,
                -1.9281949655601989,
                0.3633037566248406,
                -1.2573030303083417
            ]
        },
        {
            "positions": [
                -1.0679431178892227,
                -1.1652012767545201,
                1.365482112034037,
                -1.9901558972440179,
                0.3028602692204464,
                -1.1320182671064953
            ]
        },
        {
            "positions": [
                -1.1218764140907684,
                -1.1499644175319392,
                1.303823866714085,
                -2.0521168289278373,
                0.24241678181605208,
                -1.0067335039046488
            ]
        },
        {
            "positions": [
                -1.175809710292314,
                -1.1347275583093583,
                1.242165621394133,
                -2.1140777606116563,
                0.181973294411658,
                -0.8814487407028024
            ]
        },
        {
            "positions": [
                -1.22974300649386,
                -1.1194906990867772,
                1.1805073760741809,
                -2.1760386922954753,
                0.12152980700726368,
                -0.7561639775009557
            ]
        },
        {
            "positions": [
                -1.2836763026954054,
                -1.1042538398641963,
                1.118849130754229,
                -2.2379996239792943,
                0.06108631960286948,
                -0.6308792142991093
            ]
        },
        {
            "positions": [
                -1.3376095988969512,
                -1.0890169806416155,
                1.057190885434277,
                -2.2999605556631137,
                0.0006428321984752738,
                -0.505594451097263
            ]
        },
        {
            "positions": [
                -1.391542895098497,
                -1.0737801214190346,
                0.9955326401143252,
                -2.361921487346933,
                -0.05980065520591893,
                -0.38030968789541664
            ]
        },
        {
            "positions": [
                -1.4454761913000427,
                -1.0585432621964537,
                0.9338743947943732,
                -2.423882419030752,
                -0.12024414261031302,
                -0.25502492469356974
            ]
        },
        {
            "positions": [
                -1.5177530958706043,
                -1.0385237682909567,
                0.891746226653321,
                -2.4846043507116526,
                -0.18086112960734801,
                -0.1355713573963946
            ]
        },
        {
            "positions": [
                -1.5900300004411656,
                -1.0185042743854598,
                0.8496180585122689,
                -2.545326282392553,
                -0.24147811660438298,
                -0.01611779009921943
            ]
        },
        {
            "positions": [
                -1.662306905011727,
                -0.9984847804799627,
                0.8074898903712167,
                -2.6060482140734536,
                -0.302095103601418,
                0.10333577719795572
            ]
        },
        {
            "positions": [
                -1.7345838095822885,
                -0.9784652865744657,
                0.7653617222301645,
                -2.666770145754354,
                -0.36271209059845294,
                0.22278934449513088
            ]
        },
        {
            "positions": [
                -1.80686071415285,
                -0.9584457926689687,
                0.7232335540891124,
                -2.7274920774352545,
                -0.42332907759548793,
                0.34224291179230604
            ]
        },
        {
            "positions": [
                -1.8791376187234115,
                -0.9384262987634717,
                0.6811053859480602,
                -2.788214009116155,
                -0.48394606459252293,
                0.4616964790894812
            ]
        },
        {
            "positions": [
                -1.9514145232939728,
                -0.9184068048579748,
                0.6389772178070081,
                -2.8489359407970554,
                -0.5445630515895579,
                0.5811500463866563
            ]
        },
        {
            "positions": [
                -2.0236914278645344,
                -0.8983873109524778,
                0.596849049665956,
                -2.909657872477956,
                -0.6051800385865929,
                0.7006036136838315
            ]
        },
        {
            "positions": [
                -2.095968332435096,
                -0.8783678170469807,
                0.5547208815249038,
                -2.9703798041588563,
                -0.6657970255836279,
                0.8200571809810066
            ]
        },
        {
            "positions": [
                -2.1682452370056575,
                -0.8583483231414837,
                0.5125927133838516,
                -3.0311017358397567,
                -0.7264140125806628,
                0.9395107482781818
            ]
        },
        {
            "positions": [
                -2.2405221415762187,
                -0.8383288292359867,
                0.4704645452427995,
                -3.091823667520657,
                -0.7870309995776978,
                1.058964315575357
            ]
        },
        {
            "positions": [
                -2.3127990461467802,
                -0.8183093353304898,
                0.4283363771017474,
                -3.1525455992015576,
                -0.8476479865747328,
                1.1784178828725322
            ]
        },
        {
            "positions": [
                -2.3447756338032466,
                -0.8453063817399817,
                0.4969091640549849,
                -2.9741757252912304,
                -0.7692551439999151,
                1.1676611276776558
            ]
        },
        {
            "positions": [
                -2.376752221459713,
                -0.8723034281494737,
                0.5654819510082225,
                -2.795805851380903,
                -0.6908623014250974,
                1.1569043724827792
            ]
        },
        {
            "positions": [
                -2.40872880911618,
                -0.8993004745589658,
                0.6340547379614601,
                -2.617435977470576,
                -0.6124694588502797,
                1.1461476172879028
            ]
        },
        {
            "positions": [
                -2.440705396772646,
                -0.9262975209684577,
                0.7026275249146976,
                -2.4390661035602488,
                -0.5340766162754621,
                1.1353908620930262
            ]
        },
        {
            "positions": [
                -2.4726819844291126,
                -0.9532945673779497,
                0.7712003118679351,
                -2.2606962296499216,
                -0.4556837737006444,
                1.1246341068981498
            ]
        },
        {
            "positions": [
                -2.504658572085579,
                -0.9802916137874418,
                0.8397730988211727,
                -2.0823263557395943,
                -0.3772909311258267,
                1.1138773517032732
            ]
        },
        {
            "positions": [
                -2.5366351597420453,
                -1.0072886601969337,
                0.9083458857744102,
                -1.9039564818292671,
                -0.2988980885510091,
                1.1031205965083968
            ]
        },
        {
            "positions": [
                -2.5686117473985117,
                -1.0342857066064257,
                0.9769186727276478,
                -1.72558660791894,
                -0.22050524597619137,
                1.0923638413135204
            ]
        },
        {
            "positions": [
                -2.6005883350549786,
                -1.0612827530159177,
                1.0454914596808853,
                -1.5472167340086127,
                -0.14211240340137365,
                1.0816070861186438
            ]
        },
        {
            "positions": [
                -2.632564922711445,
                -1.0882797994254096,
                1.1140642466341228,
                -1.3688468600982855,
                -0.06371956082655594,
                1.0708503309237674
            ]
        },
        {
            "positions": [
                -2.6645415103679113,
                -1.1152768458349016,
                1.1826370335873606,
                -1.1904769861879583,
                0.014673281748261768,
                1.0600935757288907
            ]
        },
        {
            "positions": [
                -2.6965180980243777,
                -1.1422738922443938,
                1.2512098205405981,
                -1.012107112277631,
                0.09306612432307948,
                1.0493368205340143
            ]
        },
        {
            "positions": [
                -2.728494685680844,
                -1.1692709386538858,
                1.3197826074938355,
                -0.8337372383673038,
                0.17145896689789697,
                1.038580065339138
            ]
        },
        {
            "positions": [
                -2.7604712733373105,
                -1.1962679850633777,
                1.388355394447073,
                -0.6553673644569766,
                0.24985180947271468,
                1.0278233101442613
            ]
        },
        {
            "positions": [
                -2.7924478609937773,
                -1.2232650314728697,
                1.4569281814003108,
                -0.4769974905466494,
                0.3282446520475324,
                1.017066554949385
            ]
        },
        {
            "positions": [
                -2.8244244486502437,
                -1.2502620778823617,
                1.5255009683535483,
                -0.2986276166363222,
                0.4066374946223501,
                1.0063097997545083
            ]
        },
        {
            "positions": [
                -2.85640103630671,
                -1.2772591242918536,
                1.5940737553067859,
                -0.1202577427259951,
                0.48503033719716776,
                0.9955530445596319
            ]
        },
        {
            "positions": [
                -2.785924066836564,
                -1.308301433911676,
                1.6211048228123548,
                -0.035616341620621925,
                0.5315764199442456,
                0.9203224128407309
            ]
        },
        {
            "positions": [
                -2.715447097366418,
                -1.3393437435314988,
                1.6481358903179237,
                0.04902505948475125,
                0.5781225026913235,
                0.8450917811218299
            ]
        },
        {
            "positions": [
                -2.644970127896272,
                -1.3703860531513212,
                1.6751669578234927,
                0.13366646059012444,
                0.6246685854384013,
                0.7698611494029288
            ]
        },
        {
            "positions": [
                -2.574493158426126,
                -1.4014283627711437,
                1.7021980253290616,
                0.2183078616954976,
                0.6712146681854791,
                0.694630517684028
            ]
        },
        {
            "positions": [
                -2.50401618895598,
                -1.4324706723909664,
                1.7292290928346306,
                0.3029492628008708,
                0.717760750932557,
                0.6193998859651269
            ]
        },
        {
            "positions": [
                -2.433539219485834,
                -1.4635129820107888,
                1.7562601603401995,
                0.387590663906244,
                0.7643068336796348,
                0.5441692542462259
            ]
        },
        {
            "positions": [
                -2.293031273326755,
                -1.4839334069072472,
                1.7851481249635994,
                0.35122748744676713,
                0.7632189630277882,
                0.3805445985112463
            ]
        },
        {
            "positions": [
                -2.1525233271676756,
                -1.5043538318037057,
                1.8140360895869994,
                0.3148643109872903,
                0.7621310923759417,
                0.2169199427762667
            ]
        },
        {
            "positions": [
                -2.0120153810085966,
                -1.524774256700164,
                1.842924054210399,
                0.27850113452781344,
                0.7610432217240951,
                0.05329528704128711
            ]
        },
        {
            "positions": [
                -1.871507434849517,
                -1.5451946815966227,
                1.871812018833799,
                0.24213795806833655,
                0.7599553510722485,
                -0.11032936869369248
            ]
        },
        {
            "positions": [
                -1.730999488690438,
                -1.565615106493081,
                1.900699983457199,
                0.2057747816088597,
                0.758867480420402,
                -0.2739540244286721
            ]
        },
        {
            "positions": [
                -1.5904915425313586,
                -1.5860355313895396,
                1.9295879480805989,
                0.16941160514938283,
                0.7577796097685554,
                -0.43757868016365165
            ]
        },
        {
            "positions": [
                -1.4499835963722796,
                -1.606455956285998,
                1.9584759127039988,
                0.13304842868990596,
                0.7566917391167088,
                -0.6012033358986312
            ]
        },
        {
            "positions": [
                -1.3094756502132003,
                -1.6268763811824565,
                1.9873638773273985,
                0.09668525223042906,
                0.7556038684648623,
                -0.7648279916336108
            ]
        },
        {
            "positions": [
                -1.168967704054121,
                -1.6472968060789148,
                2.0162518419507984,
                0.06032207577095222,
                0.7545159978130157,
                -0.9284526473685905
            ]
        },
        {
            "positions": [
                -1.0284597578950418,
                -1.6677172309753734,
                2.0451398065741984,
                0.02395889931147538,
                0.7534281271611691,
                -1.09207730310357
            ]
        },
        {
            "positions": [
                -0.8879518117359624,
                -1.6881376558718317,
                2.0740277711975983,
                -0.012404277148001575,
                0.7523402565093226,
                -1.2557019588385496
            ]
        },
        {
            "positions": [
                -0.7474438655768834,
                -1.7085580807682903,
                2.1029157358209982,
                -0.04876745360747836,
                0.751252385857476,
                -1.4193266145735293
            ]
        },
        {
            "positions": [
                -0.6069359194178039,
                -1.7289785056647486,
                2.131803700444398,
                -0.08513063006695526,
                0.7501645152056294,
                -1.582951270308509
            ]
        },
        {
            "positions": [
                -0.46642797325872487,
                -1.749398930561207,
                2.160691665067798,
                -0.1214938065264321,
                0.7490766445537829,
                -1.746575926043488
            ]
        },
        {
            "positions": [
                -0.3259200270996456,
                -1.7698193554576656,
                2.189579629691198,
                -0.15785698298590906,
                0.7479887739019363,
                -1.9102005817784682
            ]
        },
        {
            "positions": [
                -0.1854120809405666,
                -1.7902397803541241,
                2.2184675943145975,
                -0.1942201594453859,
                0.7469009032500897,
                -2.0738252375134474
            ]
        },
        {
            "positions": [
                -0.04490413478148714,
                -1.8106602052505825,
                2.2473555589379974,
                -0.23058333590486274,
                0.7458130325982432,
                -2.237449893248427
            ]
        },
        {
            "positions": [
                0.09560381137759189,
                -1.8310806301470408,
                2.2762435235613974,
                -0.2669465123643396,
                0.7447251619463966,
                -2.4010745489834067
            ]
        },
        {
            "positions": [
                0.23611175753667135,
                -1.8515010550434994,
                2.3051314881847973,
                -0.30330968882381654,
                0.74363729129455,
                -2.5646992047183863
            ]
        },
        {
            "positions": [
                0.3766197036957504,
                -1.871921479939958,
                2.3340194528081972,
                -0.33967286528329327,
                0.7425494206427035,
                -2.728323860453366
            ]
        },
        {
            "positions": [
                0.5171276498548298,
                -1.8923419048364163,
                2.362907417431597,
                -0.37603604174277017,
                0.7414615499908569,
                -2.8919485161883456
            ]
        },
        {
            "positions": [
                0.6138903766870653,
                -1.9006538132287578,
                2.37921045165245,
                -0.427863740118834,
                0.7302422535621167,
                -3.0050188172672545
            ]
        },
        {
            "positions": [
                0.7106531035193007,
                -1.9089657216210993,
                2.3955134858733036,
                -0.4796914384948978,
                0.7190229571333764,
                -3.118089118346163
            ]
        }
    ]
}