{
    "goal": {
        "global_pose": {
            "orientation": {
                "w": 0.005598929693374612,
                "x": 0.007748599140229565,
                "y": 0.7110244013736278,
                "z": -0.7031023480610252
            },
            "position": {
                "x": 0.1141497679147869,
                "y": -0.7141253447532654,
                "z": 0.3711530566215515
            }
        },
        "name": "move_to_auspresseinheit_B"
    },
    "id": "BiEST_move_to_auspresseinheit_B_4",
    "joint_names": [
        "shoulder_pan_joint",
        "shoulder_lift_joint",
        "elbow_joint",
        "wrist_1_joint",
        "wrist_2_joint",
        "wrist_3_joint"
    ],
    "metrics": {
        "cart_traj_len": 0.5644827818678616,
        "distance_elbow_joint": 0.06427106054285248,
        "distance_shoulder_lift_joint": 0.294446565418484,
        "distance_shoulder_pan_joint": 0.578352043605223,
        "distance_wrist_1_joint": 0.33692775069959546,
        "distance_wrist_2_joint": 0.9875653336136514,
        "distance_wrist_3_joint": 0.00908307562880184,
        "smoothness": 0.0,
        "time": 0.072135449,
        "traj_len": 1.506866228139913,
        "weighted_distance": 1.9008695549877848
    },
    "planner": "BiEST",
    "start": {
        "state": {
            "elbow_joint": 2.0193083361928714,
            "shoulder_lift_joint": -1.1220246554650708,
            "shoulder_pan_joint": -1.0952077554168747,
            "wrist_1_joint": -0.8559753972642168,
            "wrist_2_joint": 0.4759566250798843,
            "wrist_3_joint": -3.1240929996934557
        }
    },
    "waypoints": [
        {
            "positions": [
                -1.0952077554168747,
                -1.1220246554650708,
                2.0193083361928714,
                -0.8559753972642168,
                0.4759566250798843,
                -3.1240929996934557
            ]
        },
        {
            "positions": [
                -1.1915997626844117,
                -1.171099083034818,
                2.0085964927690627,
                -0.7998207721476176,
                0.6405508473488262,
                -3.1225791537553222
            ]
        },
        {
            "positions": [
                -1.287991769951949,
                -1.2201735106045655,
                1.997884649345254,
                -0.7436661470310183,
                0.805145069617768,
                -3.1210653078171884
            ]
        },
        {
            "positions": [
                -1.3843837772194862,
                -1.269247938174313,
                1.9871728059214453,
                -0.687511521914419,
                0.96973929188671,
                -3.1195514618790545
            ]
        },
        {
            "positions": [
                -1.4807757844870233,
                -1.3183223657440601,
                1.9764609624976364,
                -0.6313568967978198,
                1.1343335141556519,
                -3.118037615940921
            ]
        },
        {
            "positions": [
                -1.5771677917545603,
                -1.3673967933138074,
                1.9657491190738277,
                -0.5752022716812206,
                1.298927736424594,
                -3.1165237700027877
            ]
        },
        {
            "positions": [
                -1.6735597990220976,
                -1.4164712208835548,
                1.955037275650019,
                -0.5190476465646213,
                1.4635219586935357,
                -3.115009924064654
            ]
        }
    ]
}