{
    "goal": {
        "global_pose": {
            "orientation": {
                "w": 0.7047431468963623,
                "x": -0.7094548344612122,
                "y": 0.0024358443915843964,
                "z": -0.0022348060738295317
            },
            "position": {
                "x": 0.6094750761985779,
                "y": 0.3671506643295288,
                "z": 0.19426114857196808
            }
        },
        "name": "move_to_magneteinheit_A"
    },
    "id": "BiEST_move_to_magneteinheit_A_12",
    "joint_names": [
        "shoulder_pan_joint",
        "shoulder_lift_joint",
        "elbow_joint",
        "wrist_1_joint",
        "wrist_2_joint",
        "wrist_3_joint"
    ],
    "metrics": {
        "cart_traj_len": 3.193678998643708,
        "distance_elbow_joint": 3.8872063262176004,
        "distance_shoulder_lift_joint": 0.9643925340311474,
        "distance_shoulder_pan_joint": 2.815493548387844,
        "distance_wrist_1_joint": 1.3821504338025776,
        "distance_wrist_2_joint": 1.7113528499363433,
        "distance_wrist_3_joint": 3.6456540351233797,
        "smoothness": 0.1354005663020117,
        "time": 0.095499086,
        "traj_len": 3.79555657677486,
        "weighted_distance": 4.979062269291737
    },
    "planner": "BiEST",
    "start": {
        "state": {
            "elbow_joint": -1.9196185241190666,
            "shoulder_lift_joint": -1.2443396400964142,
            "shoulder_pan_joint": 2.6996025414629847,
            "wrist_1_joint": -1.5485510000780065,
            "wrist_2_joint": -1.5709468930060704,
            "wrist_3_joint": 0.4420197071253992
        }
    },
    "waypoints": [
        {
            "positions": [
                2.6996025414629847,
                -1.2443396400964142,
                -1.9196185241190666,
                -1.5485510000780065,
                -1.5709468930060704,
                0.4420197071253992
            ]
        },
        {
            "positions": [
                2.612642993079543,
                -1.258170638576556,
                -1.8242644026169326,
                -1.513671650561431,
                -1.5199464515523373,
                0.3377667446020548
            ]
        },
        {
            "positions": [
                2.5256834446961016,
                -1.272001637056698,
                -1.7289102811147985,
                -1.4787923010448554,
                -1.4689460100986043,
                0.2335137820787104
            ]
        },
        {
            "positions": [
                2.4387238963126596,
                -1.2858326355368401,
                -1.6335561596126644,
                -1.44391295152828,
                -1.4179455686448712,
                0.129260819555366
            ]
        },
        {
            "positions": [
                2.351764347929218,
                -1.299663634016982,
                -1.5382020381105301,
                -1.4090336020117045,
                -1.3669451271911381,
                0.02500785703202163
            ]
        },
        {
            "positions": [
                2.2648047995457765,
                -1.313494632497124,
                -1.442847916608396,
                -1.374154252495129,
                -1.315944685737405,
                -0.0792451054913228
            ]
        },
        {
            "positions": [
                2.177845251162335,
                -1.3273256309772659,
                -1.347493795106262,
                -1.3392749029785533,
                -1.2649442442836722,
                -0.18349806801466717
            ]
        },
        {
            "positions": [
                2.0908857027788934,
                -1.341156629457408,
                -1.2521396736041277,
                -1.3043955534619778,
                -1.2139438028299392,
                -0.28775103053801154
            ]
        },
        {
            "positions": [
                2.003926154395452,
                -1.35498762793755,
                -1.1567855521019936,
                -1.2695162039454022,
                -1.1629433613762061,
                -0.3920039930613559
            ]
        },
        {
            "positions": [
                1.9169666060120099,
                -1.3688186264176918,
                -1.0614314305998596,
                -1.2346368544288269,
                -1.111942919922473,
                -0.4962569555847004
            ]
        },
        {
            "positions": [
                1.8300070576285683,
                -1.3826496248978337,
                -0.9660773090977255,
                -1.1997575049122513,
                -1.06094247846874,
                -0.6005099181080448
            ]
        },
        {
            "positions": [
                1.7430475092451267,
                -1.3964806233779758,
                -0.8707231875955914,
                -1.1648781553956757,
                -1.009942037015007,
                -0.7047628806313891
            ]
        },
        {
            "positions": [
                1.656087960861685,
                -1.4103116218581178,
                -0.7753690660934573,
                -1.1299988058791002,
                -0.9589415955612739,
                -0.8090158431547335
            ]
        },
        {
            "positions": [
                1.5691284124782434,
                -1.4241426203382597,
                -0.6800149445913231,
                -1.0951194563625246,
                -0.9079411541075408,
                -0.9132688056780779
            ]
        },
        {
            "positions": [
                1.4821688640948019,
                -1.4379736188184016,
                -0.584660823089189,
                -1.0602401068459493,
                -0.8569407126538079,
                -1.0175217682014224
            ]
        },
        {
            "positions": [
                1.39520931571136,
                -1.4518046172985435,
                -0.4893067015870549,
                -1.0253607573293737,
                -0.8059402712000748,
                -1.1217747307247667
            ]
        },
        {
            "positions": [
                1.3082497673279185,
                -1.4656356157786856,
                -0.39395258008492084,
                -0.9904814078127981,
                -0.7549398297463418,
                -1.2260276932481111
            ]
        },
        {
            "positions": [
                1.221290218944477,
                -1.4794666142588275,
                -0.2985984585827868,
                -0.9556020582962227,
                -0.7039393882926088,
                -1.330280655771455
            ]
        },
        {
            "positions": [
                1.1343306705610352,
                -1.4932976127389694,
                -0.20324433708065248,
                -0.9207227087796471,
                -0.6529389468388757,
                -1.4345336182947999
            ]
        },
        {
            "positions": [
                1.0473711221775936,
                -1.5071286112191113,
                -0.10789021557851841,
                -0.8858433592630716,
                -0.6019385053851427,
                -1.5387865808181442
            ]
        },
        {
            "positions": [
                0.9604115737941519,
                -1.5209596096992533,
                -0.012536094076384341,
                -0.8509640097464961,
                -0.5509380639314096,
                -1.6430395433414886
            ]
        },
        {
            "positions": [
                0.8734520254107103,
                -1.5347906081793954,
                0.08281802742574973,
                -0.8160846602299207,
                -0.4999376224776766,
                -1.7472925058648325
            ]
        },
        {
            "positions": [
                0.7864924770272685,
                -1.5486216066595373,
                0.1781721489278838,
                -0.781205310713345,
                -0.44893718102394353,
                -1.8515454683881774
            ]
        },
        {
            "positions": [
                0.6995329286438272,
                -1.5624526051396792,
                0.27352627043001787,
                -0.7463259611967695,
                -0.3979367395702105,
                -1.9557984309115217
            ]
        },
        {
            "positions": [
                0.6125733802603852,
                -1.5762836036198213,
                0.36888039193215194,
                -0.711446611680194,
                -0.3469362981164774,
                -2.060051393434866
            ]
        },
        {
            "positions": [
                0.5256138318769437,
                -1.590114602099963,
                0.464234513434286,
                -0.6765672621636185,
                -0.2959358566627446,
                -2.16430435595821
            ]
        },
        {
            "positions": [
                0.4386542834935021,
                -1.6039456005801052,
                0.5595886349364205,
                -0.641687912647043,
                -0.2449354152090113,
                -2.268557318481555
            ]
        },
        {
            "positions": [
                0.35169473511006055,
                -1.617776599060247,
                0.6549427564385546,
                -0.6068085631304674,
                -0.19393497375527846,
                -2.372810281004899
            ]
        },
        {
            "positions": [
                0.264735186726619,
                -1.631607597540389,
                0.7502968779406887,
                -0.5719292136138919,
                -0.1429345323015454,
                -2.4770632435282436
            ]
        },
        {
            "positions": [
                0.17777563834317744,
                -1.645438596020531,
                0.8456509994428223,
                -0.5370498640973165,
                -0.09193409084781234,
                -2.581316206051588
            ]
        },
        {
            "positions": [
                0.09081608995973545,
                -1.659269594500673,
                0.9410051209449568,
                -0.5021705145807409,
                -0.040933649394079286,
                -2.6855691685749323
            ]
        },
        {
            "positions": [
                0.0038565415762937356,
                -1.673100592980815,
                1.0363592424470909,
                -0.46729116506416535,
                0.010066792059653835,
                -2.7898221310982767
            ]
        },
        {
            "positions": [
                0.009412864777444376,
                -1.59969645870285,
                1.1768781285605932,
                -0.5060651528695849,
                0.03058576743618357,
                -2.846253525068267
            ]
        },
        {
            "positions": [
                0.01496918797859502,
                -1.5262923244248852,
                1.3173970146740954,
                -0.5448391406750044,
                0.05110474281271331,
                -2.9026849190382573
            ]
        },
        {
            "positions": [
                0.020525511179745663,
                -1.4528881901469202,
                1.4579159007875977,
                -0.5836131284804239,
                0.07162371818924304,
                -2.9591163130082476
            ]
        },
        {
            "positions": [
                0.026081834380896302,
                -1.3794840558689554,
                1.5984347869011,
                -0.6223871162858434,
                0.09214269356577279,
                -3.0155477069782384
            ]
        },
        {
            "positions": [
                0.031638157582046945,
                -1.3060799215909902,
                1.7389536730146022,
                -0.6611611040912629,
                0.11266166894230253,
                -3.0719791009482287
            ]
        },
        {
            "positions": [
                0.037194480783197585,
                -1.2326757873130254,
                1.8794725591281045,
                -0.6999350918966825,
                0.13318064431883225,
                -3.128410494918219
            ]
        },
        {
            "positions": [
                0.08039928543032243,
                -1.1850723995735468,
                1.9235301806133194,
                -0.734058427874792,
                0.12956798801311203,
                -3.1660224114580995
            ]
        },
        {
            "positions": [
                0.12360409007744726,
                -1.1374690118340682,
                1.967587802098534,
                -0.7681817638529016,
                0.1259553317073918,
                -3.2036343279979804
            ]
        }
    ]
}