{
    "goal": {
        "global_pose": {
            "orientation": {
                "w": -0.4816463035849501,
                "x": 0.5182115481033762,
                "y": 0.4908360881923453,
                "z": -0.5084816262002911
            },
            "position": {
                "x": -0.8240239810943604,
                "y": 0.19912469901144506,
                "z": 0.16403168439865112
            }
        },
        "name": "move_to_storage_D"
    },
    "id": "BiEST_move_to_storage_D_75",
    "joint_names": [
        "shoulder_pan_joint",
        "shoulder_lift_joint",
        "elbow_joint",
        "wrist_1_joint",
        "wrist_2_joint",
        "wrist_3_joint"
    ],
    "metrics": {
        "cart_traj_len": 3.6207862576016834,
        "distance_elbow_joint": 4.212619461327707,
        "distance_shoulder_lift_joint": 1.2627632956870014,
        "distance_shoulder_pan_joint": 2.814438521665816,
        "distance_wrist_1_joint": 2.274569550736821,
        "distance_wrist_2_joint": 4.07267728845541,
        "distance_wrist_3_joint": 3.142887455512545,
        "smoothness": 0.15634857105184316,
        "time": 0.104534555,
        "traj_len": 4.216628460439134,
        "weighted_distance": 5.514796217776557
    },
    "planner": "BiEST",
    "start": {
        "state": {
            "elbow_joint": -2.384821988534728,
            "shoulder_lift_joint": -2.2788054721415256,
            "shoulder_pan_joint": -0.1854694642142757,
            "wrist_1_joint": 1.4845938289331202,
            "wrist_2_joint": 0.17898776772866878,
            "wrist_3_joint": 0.037105688729662994
        }
    },
    "waypoints": [
        {
            "positions": [
                -0.1854694642142757,
                -2.2788054721415256,
                -2.384821988534728,
                1.4845938289331202,
                0.17898776772866878,
                0.037105688729662994
            ]
        },
        {
            "positions": [
                -0.10006341453099504,
                -2.223271975953416,
                -2.3617102030674624,
                1.364084702628174,
                0.07931963099479566,
                0.027785484341074695
            ]
        },
        {
            "positions": [
                -0.014657364847714377,
                -2.167738479765306,
                -2.3385984176001973,
                1.2435755763232275,
                -0.020348505739077455,
                0.018465279952486393
            ]
        },
        {
            "positions": [
                0.07074868483556626,
                -2.1122049835771963,
                -2.3154866321329317,
                1.123066450018281,
                -0.1200166424729506,
                0.00914507556389809
            ]
        },
        {
            "positions": [
                0.15615473451884695,
                -2.0566714873890866,
                -2.2923748466656666,
                1.0025573237133347,
                -0.2196847792068237,
                -0.00017512882469020857
            ]
        },
        {
            "positions": [
                0.24156078420212765,
                -2.001137991200977,
                -2.269263061198401,
                0.8820481974083884,
                -0.3193529159406968,
                -0.009495333213278508
            ]
        },
        {
            "positions": [
                0.32696683388540826,
                -1.9456044950128673,
                -2.246151275731136,
                0.761539071103442,
                -0.41902105267457,
                -0.018815537601866814
            ]
        },
        {
            "positions": [
                0.41237288356868895,
                -1.8900709988247575,
                -2.2230394902638704,
                0.6410299447984956,
                -0.5186891894084431,
                -0.028135741990455113
            ]
        },
        {
            "positions": [
                0.49777893325196965,
                -1.8345375026366477,
                -2.199927704796605,
                0.5205208184935493,
                -0.6183573261423162,
                -0.03745594637904341
            ]
        },
        {
            "positions": [
                0.5831849829352503,
                -1.779004006448538,
                -2.1768159193293397,
                0.400011692188603,
                -0.7180254628761893,
                -0.04677615076763171
            ]
        },
        {
            "positions": [
                0.668591032618531,
                -1.7234705102604282,
                -2.153704133862074,
                0.2795025658836565,
                -0.8176935996100624,
                -0.05609635515622001
            ]
        },
        {
            "positions": [
                0.7539970823018116,
                -1.6679370140723186,
                -2.130592348394809,
                0.15899343957871004,
                -0.9173617363439356,
                -0.06541655954480831
            ]
        },
        {
            "positions": [
                0.8394031319850922,
                -1.6124035178842089,
                -2.1074805629275435,
                0.03848431327376378,
                -1.0170298730778087,
                -0.07473676393339662
            ]
        },
        {
            "positions": [
                0.9248091816683729,
                -1.5568700216960991,
                -2.0843687774602784,
                -0.08202481303118248,
                -1.1166980098116817,
                -0.08405696832198492
            ]
        },
        {
            "positions": [
                1.0102152313516535,
                -1.5013365255079894,
                -2.061256991993013,
                -0.20253393933612895,
                -1.2163661465455549,
                -0.09337717271057322
            ]
        },
        {
            "positions": [
                1.0956212810349342,
                -1.4458030293198796,
                -2.0381452065257477,
                -0.32304306564107543,
                -1.3160342832794278,
                -0.10269737709916152
            ]
        },
        {
            "positions": [
                1.1810273307182149,
                -1.3902695331317698,
                -2.015033421058482,
                -0.4435521919460216,
                -1.415702420013301,
                -0.11201758148774982
            ]
        },
        {
            "positions": [
                1.2309563557779848,
                -1.3773651415222097,
                -1.882522010925673,
                -0.45549783090663126,
                -1.3302545889542168,
                -0.21525082925654748
            ]
        },
        {
            "positions": [
                1.2808853808377545,
                -1.3644607499126495,
                -1.7500106007928642,
                -0.46744346986724095,
                -1.2448067578951325,
                -0.3184840770253451
            ]
        },
        {
            "positions": [
                1.3308144058975244,
                -1.3515563583030892,
                -1.617499190660055,
                -0.47938910882785063,
                -1.1593589268360485,
                -0.42171732479414276
            ]
        },
        {
            "positions": [
                1.3807434309572941,
                -1.338651966693529,
                -1.4849877805272462,
                -0.4913347477884603,
                -1.0739110957769642,
                -0.5249505725629404
            ]
        },
        {
            "positions": [
                1.430672456017064,
                -1.325747575083969,
                -1.3524763703944371,
                -0.5032803867490699,
                -0.9884632647178799,
                -0.628183820331738
            ]
        },
        {
            "positions": [
                1.480601481076834,
                -1.3128431834744088,
                -1.219964960261628,
                -0.5152260257096797,
                -0.9030154336587957,
                -0.7314170681005356
            ]
        },
        {
            "positions": [
                1.5305305061366037,
                -1.2999387918648484,
                -1.087453550128819,
                -0.5271716646702893,
                -0.8175676025997114,
                -0.8346503158693335
            ]
        },
        {
            "positions": [
                1.5804595311963736,
                -1.2870344002552883,
                -0.9549421399960101,
                -0.539117303630899,
                -0.7321197715406272,
                -0.9378835636381311
            ]
        },
        {
            "positions": [
                1.6303885562561433,
                -1.2741300086457281,
                -0.822430729863201,
                -0.5510629425915087,
                -0.646671940481543,
                -1.0411168114069287
            ]
        },
        {
            "positions": [
                1.6803175813159132,
                -1.261225617036168,
                -0.6899193197303919,
                -0.5630085815521184,
                -0.5612241094224587,
                -1.1443500591757263
            ]
        },
        {
            "positions": [
                1.7302466063756832,
                -1.2483212254266076,
                -0.557407909597583,
                -0.574954220512728,
                -0.47577627836337455,
                -1.247583306944524
            ]
        },
        {
            "positions": [
                1.7801756314354529,
                -1.2354168338170475,
                -0.4248964994647739,
                -0.5868998594733377,
                -0.3903284473042903,
                -1.3508165547133215
            ]
        },
        {
            "positions": [
                1.8301046564952226,
                -1.2225124422074873,
                -0.29238508933196483,
                -0.5988454984339474,
                -0.304880616245206,
                -1.4540498024821191
            ]
        },
        {
            "positions": [
                1.8800336815549925,
                -1.2096080505979272,
                -0.15987367919915574,
                -0.610791137394557,
                -0.21943278518612175,
                -1.557283050250917
            ]
        },
        {
            "positions": [
                1.9299627066147624,
                -1.1967036589883668,
                -0.027362269066346867,
                -0.6227367763551668,
                -0.13398495412703748,
                -1.6605162980197146
            ]
        },
        {
            "positions": [
                1.9798917316745324,
                -1.1837992673788067,
                0.105149141066462,
                -0.6346824153157764,
                -0.048537123067953436,
                -1.7637495457885122
            ]
        },
        {
            "positions": [
                2.029820756734302,
                -1.1708948757692466,
                0.2376605511992711,
                -0.646628054276386,
                0.03691070799113083,
                -1.8669827935573096
            ]
        },
        {
            "positions": [
                2.0797497817940718,
                -1.1579904841596864,
                0.3701719613320802,
                -0.6585736932369958,
                0.1223585390502151,
                -1.9702160413261074
            ]
        },
        {
            "positions": [
                2.1296788068538417,
                -1.1450860925501263,
                0.5026833714648893,
                -0.6705193321976055,
                0.20780637010929914,
                -2.073449289094905
            ]
        },
        {
            "positions": [
                2.1796078319136116,
                -1.132181700940566,
                0.6351947815976984,
                -0.6824649711582151,
                0.29325420116838363,
                -2.176682536863703
            ]
        },
        {
            "positions": [
                2.2295368569733816,
                -1.1192773093310058,
                0.767706191730507,
                -0.6944106101188248,
                0.3787020322274677,
                -2.2799157846325
            ]
        },
        {
            "positions": [
                2.2794658820331515,
                -1.1063729177214456,
                0.9002176018633161,
                -0.7063562490794344,
                0.46414986328655194,
                -2.383149032401298
            ]
        },
        {
            "positions": [
                2.3293949070929214,
                -1.0934685261118853,
                1.0327290119961252,
                -0.7183018880400442,
                0.5495976943456362,
                -2.486382280170096
            ]
        },
        {
            "positions": [
                2.379323932152691,
                -1.0805641345023251,
                1.1652404221289343,
                -0.7302475270006539,
                0.6350455254047205,
                -2.5896155279388933
            ]
        },
        {
            "positions": [
                2.4292529572124604,
                -1.067659742892765,
                1.297751832261743,
                -0.7421931659612635,
                0.7204933564638045,
                -2.6928487757076907
            ]
        },
        {
            "positions": [
                2.4791819822722303,
                -1.0547553512832049,
                1.4302632423945525,
                -0.7541388049218731,
                0.805941187522889,
                -2.7960820234764885
            ]
        },
        {
            "positions": [
                2.5291110073320002,
                -1.0418509596736447,
                1.5627746525273611,
                -0.7660844438824829,
                0.8913890185819731,
                -2.8993152712452863
            ]
        },
        {
            "positions": [
                2.57904003239177,
                -1.0289465680640844,
                1.6952860626601707,
                -0.7780300828430926,
                0.9768368496410575,
                -3.002548519014084
            ]
        },
        {
            "positions": [
                2.62896905745154,
                -1.0160421764545242,
                1.8277974727929795,
                -0.7899757218037022,
                1.0622846807001414,
                -3.1057817667828815
            ]
        }
    ]
}