{
    "goal": {
        "global_pose": {
            "orientation": {
                "w": -0.4816463035849501,
                "x": 0.5182115481033762,
                "y": 0.4908360881923453,
                "z": -0.5084816262002911
            },
            "position": {
                "x": -0.8240239810943604,
                "y": -0.300875300988555,
                "z": 0.16403168439865112
            }
        },
        "name": "move_to_storage_C"
    },
    "id": "BiEST_move_to_storage_C_62",
    "joint_names": [
        "shoulder_pan_joint",
        "shoulder_lift_joint",
        "elbow_joint",
        "wrist_1_joint",
        "wrist_2_joint",
        "wrist_3_joint"
    ],
    "metrics": {
        "cart_traj_len": 0.5769127581271801,
        "distance_elbow_joint": 0.2614914600891618,
        "distance_shoulder_lift_joint": 0.18995362386390746,
        "distance_shoulder_pan_joint": 0.4938527468357954,
        "distance_wrist_1_joint": 0.08512853219496697,
        "distance_wrist_2_joint": 1.0708557178087643,
        "distance_wrist_3_joint": 0.062279776861282166,
        "smoothness": 2.5376526478085547e-16,
        "time": 0.227447106,
        "traj_len": 1.4709051151090196,
        "weighted_distance": 1.8558301811804263
    },
    "planner": "BiEST",
    "start": {
        "state": {
            "elbow_joint": 2.010868314990456,
            "shoulder_lift_joint": -1.1634956873337592,
            "shoulder_pan_joint": -2.4736205022346125,
            "wrist_1_joint": -0.8367026794202681,
            "wrist_2_joint": 0.6746043897044499,
            "wrist_3_joint": -3.1496632123970403
        }
    },
    "waypoints": [
        {
            "positions": [
                -2.4736205022346125,
                -1.1634956873337592,
                2.010868314990456,
                -0.8367026794202681,
                0.6746043897044499,
                -3.1496632123970403
            ]
        },
        {
            "positions": [
                -2.5559292933739117,
                -1.131836750023108,
                1.9672864049755956,
                -0.8225145907211069,
                0.8530803426725773,
                -3.1392832495868266
            ]
        },
        {
            "positions": [
                -2.638238084513211,
                -1.1001778127124566,
                1.9237044949607351,
                -0.8083265020219458,
                1.0315562956407047,
                -3.128903286776613
            ]
        },
        {
            "positions": [
                -2.72054687565251,
                -1.0685188754018053,
                1.880122584945875,
                -0.7941384133227847,
                1.2100322486088322,
                -3.118523323966399
            ]
        },
        {
            "positions": [
                -2.8028556667918094,
                -1.0368599380911543,
                1.8365406749310147,
                -0.7799503246236235,
                1.3885082015769594,
                -3.1081433611561855
            ]
        },
        {
            "positions": [
                -2.8851644579311087,
                -1.005201000780503,
                1.7929587649161542,
                -0.7657622359244622,
                1.5669841545450869,
                -3.097763398345972
            ]
        },
        {
            "positions": [
                -2.967473249070408,
                -0.9735420634698517,
                1.749376854901294,
                -0.7515741472253011,
                1.7454601075132141,
                -3.087383435535758
            ]
        }
    ]
}