{
    "goal": {
        "global_pose": {
            "orientation": {
                "w": 0.5084816262002911,
                "x": -0.4908360881923452,
                "y": 0.5182115481033761,
                "z": -0.48164630358495003
            },
            "position": {
                "x": 0.5540239810943604,
                "y": -0.46912469901144505,
                "z": 0.16403168439865112
            }
        },
        "name": "move_to_storage_B"
    },
    "id": "BiEST_move_to_storage_B_76",
    "joint_names": [
        "shoulder_pan_joint",
        "shoulder_lift_joint",
        "elbow_joint",
        "wrist_1_joint",
        "wrist_2_joint",
        "wrist_3_joint"
    ],
    "metrics": {
        "cart_traj_len": 0.6739077233561408,
        "distance_elbow_joint": 0.5158981825025797,
        "distance_shoulder_lift_joint": 0.4591232015273228,
        "distance_shoulder_pan_joint": 0.35976606540972667,
        "distance_wrist_1_joint": 2.9866412875576724,
        "distance_wrist_2_joint": 2.7002342455606945,
        "distance_wrist_3_joint": 3.1652980221227685,
        "smoothness": 0.1536660785769557,
        "time": 0.150868845,
        "traj_len": 3.191701897840831,
        "weighted_distance": 4.712157953851364
    },
    "planner": "BiEST",
    "start": {
        "state": {
            "elbow_joint": 1.664937868594044,
            "shoulder_lift_joint": -0.661644460510453,
            "shoulder_pan_joint": -0.9139846352900073,
            "wrist_1_joint": 2.146753192139373,
            "wrist_2_joint": -2.2341966793290973,
            "wrist_3_joint": 0.005466555786416001
        }
    },
    "waypoints": [
        {
            "positions": [
                -0.9139846352900073,
                -0.661644460510453,
                1.664937868594044,
                2.146753192139373,
                -2.2341966793290973,
                0.005466555786416001
            ]
        },
        {
            "positions": [
                -0.8248291101880161,
                -0.6765379510504728,
                1.5817322852222362,
                2.1186803116944786,
                -2.1535858219920385,
                0.021522998547742016
            ]
        },
        {
            "positions": [
                -0.8356535318003255,
                -0.6943071394899649,
                1.5990399891874671,
                2.0003375754099673,
                -2.048800886463093,
                -0.10444666462671569
            ]
        },
        {
            "positions": [
                -0.8464779534126349,
                -0.712076327929457,
                1.6163476931526979,
                1.8819948391254564,
                -1.9440159509341477,
                -0.2304163278011734
            ]
        },
        {
            "positions": [
                -0.8573023750249443,
                -0.7298455163689491,
                1.6336553971179288,
                1.7636521028409453,
                -1.8392310154052023,
                -0.356385990975631
            ]
        },
        {
            "positions": [
                -0.8681267966372538,
                -0.7476147048084413,
                1.6509631010831598,
                1.6453093665564342,
                -1.7344460798762569,
                -0.4823556541500888
            ]
        },
        {
            "positions": [
                -0.8789512182495631,
                -0.7653838932479333,
                1.6682708050483905,
                1.526966630271923,
                -1.6296611443473115,
                -0.6083253173245465
            ]
        },
        {
            "positions": [
                -0.8897756398618726,
                -0.7831530816874255,
                1.6855785090136215,
                1.408623893987412,
                -1.524876208818366,
                -0.7342949804990041
            ]
        },
        {
            "positions": [
                -0.900600061474182,
                -0.8009222701269176,
                1.7028862129788525,
                1.2902811577029007,
                -1.4200912732894204,
                -0.860264643673462
            ]
        },
        {
            "positions": [
                -0.9114244830864915,
                -0.8186914585664098,
                1.7201939169440832,
                1.1719384214183897,
                -1.3153063377604752,
                -0.9862343068479197
            ]
        },
        {
            "positions": [
                -0.9222489046988008,
                -0.8364606470059018,
                1.7375016209093141,
                1.0535956851338786,
                -1.2105214022315298,
                -1.1122039700223771
            ]
        },
        {
            "positions": [
                -0.9330733263111103,
                -0.854229835445394,
                1.7548093248745449,
                0.9352529488493675,
                -1.1057364667025842,
                -1.238173633196835
            ]
        },
        {
            "positions": [
                -0.9438977479234196,
                -0.871999023884886,
                1.7721170288397758,
                0.8169102125648564,
                -1.0009515311736388,
                -1.3641432963712925
            ]
        },
        {
            "positions": [
                -0.9547221695357291,
                -0.8897682123243782,
                1.7894247328050068,
                0.6985674762803453,
                -0.8961665956446934,
                -1.49011295954575
            ]
        },
        {
            "positions": [
                -0.9655465911480385,
                -0.9075374007638703,
                1.8067324367702375,
                0.580224739995834,
                -0.791381660115748,
                -1.616082622720208
            ]
        },
        {
            "positions": [
                -0.976371012760348,
                -0.9253065892033625,
                1.8240401407354685,
                0.46188200371132293,
                -0.6865967245868023,
                -1.7420522858946659
            ]
        },
        {
            "positions": [
                -0.9871954343726573,
                -0.9430757776428546,
                1.8413478447006995,
                0.34353926742681185,
                -0.5818117890578571,
                -1.8680219490691232
            ]
        },
        {
            "positions": [
                -0.9980198559849668,
                -0.9608449660823467,
                1.8586555486659302,
                0.22519653114230076,
                -0.4770268535289117,
                -1.9939916122435812
            ]
        },
        {
            "positions": [
                -1.0088442775972761,
                -0.9786141545218389,
                1.8759632526311611,
                0.10685379485778945,
                -0.3722419179999661,
                -2.119961275418039
            ]
        },
        {
            "positions": [
                -1.0196686992095856,
                -0.9963833429613309,
                1.893270956596392,
                -0.01148894142672141,
                -0.2674569824710209,
                -2.2459309385924966
            ]
        },
        {
            "positions": [
                -1.030493120821895,
                -1.014152531400823,
                1.9105786605616228,
                -0.12983167771123272,
                -0.16267204694207527,
                -2.371900601766954
            ]
        },
        {
            "positions": [
                -1.0413175424342045,
                -1.0319217198403152,
                1.9278863645268538,
                -0.24817441399574358,
                -0.057887111413129855,
                -2.497870264941412
            ]
        },
        {
            "positions": [
                -1.052141964046514,
                -1.0496909082798074,
                1.9451940684920848,
                -0.3665171502802549,
                0.046897824115815556,
                -2.6238399281158697
            ]
        },
        {
            "positions": [
                -1.0629663856588234,
                -1.0674600967192993,
                1.9625017724573155,
                -0.48485988656476575,
                0.15168275964476097,
                -2.7498095912903273
            ]
        },
        {
            "positions": [
                -1.0737908072711326,
                -1.0852292851587917,
                1.9798094764225465,
                -0.6032026228492771,
                0.2564676951737064,
                -2.8757792544647853
            ]
        },
        {
            "positions": [
                -1.084615228883442,
                -1.1029984735982836,
                1.9971171803877772,
                -0.7215453591337879,
                0.3612526307026518,
                -3.0017489176392425
            ]
        },
        {
            "positions": [
                -1.0954396504957515,
                -1.1207676620377758,
                2.014424884353008,
                -0.8398880954182993,
                0.4660375662315973,
                -3.1277185808137005
            ]
        }
    ]
}