{
    "goal": {
        "global_pose": {
            "orientation": {
                "w": -0.4816463035849501,
                "x": 0.5182115481033762,
                "y": 0.4908360881923453,
                "z": -0.5084816262002911
            },
            "position": {
                "x": -0.8240239810943604,
                "y": 0.19912469901144506,
                "z": 0.16403168439865112
            }
        },
        "name": "move_to_storage_D"
    },
    "id": "BiEST_move_to_storage_D_69",
    "joint_names": [
        "shoulder_pan_joint",
        "shoulder_lift_joint",
        "elbow_joint",
        "wrist_1_joint",
        "wrist_2_joint",
        "wrist_3_joint"
    ],
    "metrics": {
        "cart_traj_len": 0.5456234936230903,
        "distance_elbow_joint": 0.5556809681664527,
        "distance_shoulder_lift_joint": 0.15193309401033916,
        "distance_shoulder_pan_joint": 0.1734216686316154,
        "distance_wrist_1_joint": 3.8219998002164774,
        "distance_wrist_2_joint": 1.9732660010658756,
        "distance_wrist_3_joint": 3.393510384859639,
        "smoothness": 0.1940760482897186,
        "time": 0.08605779699999999,
        "traj_len": 3.173296695386424,
        "weighted_distance": 4.759422074995244
    },
    "planner": "BiEST",
    "start": {
        "state": {
            "elbow_joint": -2.384821988534728,
            "shoulder_lift_joint": -2.2788054721415256,
            "shoulder_pan_joint": -0.1854694642142757,
            "wrist_1_joint": 1.4845938289331202,
            "wrist_2_joint": 0.17898776772866878,
            "wrist_3_joint": 0.037105688729662994
        }
    },
    "waypoints": [
        {
            "positions": [
                -0.1854694642142757,
                -2.2788054721415256,
                -2.384821988534728,
                1.4845938289331202,
                0.17898776772866878,
                0.037105688729662994
            ]
        },
        {
            "positions": [
                -0.14938302014577917,
                -2.263647556360783,
                -2.3823765245028974,
                1.473386632934401,
                0.19772274092779019,
                0.06987979672942096
            ]
        },
        {
            "positions": [
                -0.04112368794028953,
                -2.2181738090185554,
                -2.3750401324074057,
                1.4397650449382438,
                0.2539276605251543,
                0.16820212072869484
            ]
        },
        {
            "positions": [
                -0.022830558074298457,
                -2.215515587249344,
                -2.3388259696408067,
                1.410713557024383,
                0.278344204546106,
                0.17175741759762841
            ]
        },
        {
            "positions": [
                -0.023279839844783393,
                -2.211822120202754,
                -2.317589096754451,
                1.2545419100115605,
                0.20026463936908773,
                0.03597164026464203
            ]
        },
        {
            "positions": [
                -0.023729121615268328,
                -2.208128653156164,
                -2.296352223868096,
                1.098370262998738,
                0.12218507419206948,
                -0.09981413706834436
            ]
        },
        {
            "positions": [
                -0.02417840338575326,
                -2.2044351861095746,
                -2.27511535098174,
                0.9421986159859155,
                0.0441055090150512,
                -0.23559991440133077
            ]
        },
        {
            "positions": [
                -0.024627685156238196,
                -2.2007417190629845,
                -2.253878478095385,
                0.786026968973093,
                -0.033974056161967026,
                -0.3713856917343171
            ]
        },
        {
            "positions": [
                -0.02507696692672313,
                -2.1970482520163945,
                -2.232641605209029,
                0.6298553219602704,
                -0.11205362133898533,
                -0.5071714690673036
            ]
        },
        {
            "positions": [
                -0.025526248697208063,
                -2.193354784969805,
                -2.211404732322674,
                0.4736836749474479,
                -0.19013318651600358,
                -0.64295724640029
            ]
        },
        {
            "positions": [
                -0.025975530467693,
                -2.189661317923215,
                -2.1901678594363183,
                0.3175120279346253,
                -0.26821275169302183,
                -0.7787430237332764
            ]
        },
        {
            "positions": [
                -0.026424812238177935,
                -2.185967850876625,
                -2.168930986549963,
                0.16134038092180303,
                -0.34629231687004003,
                -0.9145288010662627
            ]
        },
        {
            "positions": [
                -0.02687409400866287,
                -2.182274383830035,
                -2.1476941136636074,
                0.005168733908980316,
                -0.42437188204705834,
                -1.0503145783992491
            ]
        },
        {
            "positions": [
                -0.027323375779147806,
                -2.178580916783445,
                -2.1264572407772517,
                -0.15100291310384217,
                -0.5024514472240766,
                -1.1861003557322356
            ]
        },
        {
            "positions": [
                -0.027772657549632738,
                -2.1748874497368553,
                -2.1052203678908965,
                -0.30717456011666466,
                -0.5805310124010948,
                -1.3218861330652218
            ]
        },
        {
            "positions": [
                -0.028221939320117673,
                -2.1711939826902653,
                -2.083983495004541,
                -0.46334620712948715,
                -0.6586105775781131,
                -1.4576719103982083
            ]
        },
        {
            "positions": [
                -0.02867122109060261,
                -2.1675005156436753,
                -2.0627466221181856,
                -0.6195178541423094,
                -0.7366901427551313,
                -1.5934576877311946
            ]
        },
        {
            "positions": [
                -0.02912050286108754,
                -2.1638070485970857,
                -2.04150974923183,
                -0.7756895011551324,
                -0.8147697079321496,
                -1.7292434650641813
            ]
        },
        {
            "positions": [
                -0.029569784631572477,
                -2.1601135815504957,
                -2.0202728763454747,
                -0.9318611481679548,
                -0.892849273109168,
                -1.8650292423971675
            ]
        },
        {
            "positions": [
                -0.030019066402057412,
                -2.1564201145039057,
                -1.999036003459119,
                -1.088032795180777,
                -0.970928838286186,
                -2.0008150197301537
            ]
        },
        {
            "positions": [
                -0.030468348172542348,
                -2.1527266474573157,
                -1.9777991305727636,
                -1.2442044421935998,
                -1.0490084034632046,
                -2.1366007970631404
            ]
        },
        {
            "positions": [
                -0.030917629943027283,
                -2.1490331804107257,
                -1.9565622576864081,
                -1.4003760892064223,
                -1.1270879686402226,
                -2.2723865743961267
            ]
        },
        {
            "positions": [
                -0.03136691171351222,
                -2.145339713364136,
                -1.9353253848000527,
                -1.5565477362192444,
                -1.205167533817241,
                -2.408172351729113
            ]
        },
        {
            "positions": [
                -0.031816193483997154,
                -2.141646246317546,
                -1.9140885119136972,
                -1.7127193832320673,
                -1.2832470989942593,
                -2.5439581290620996
            ]
        },
        {
            "positions": [
                -0.03226547525448209,
                -2.137952779270956,
                -1.8928516390273415,
                -1.8688910302448898,
                -1.3613266641712776,
                -2.679743906395086
            ]
        },
        {
            "positions": [
                -0.03271475702496702,
                -2.1342593122243665,
                -1.871614766140986,
                -2.0250626772577123,
                -1.4394062293482957,
                -2.815529683728072
            ]
        },
        {
            "positions": [
                -0.033164038795451954,
                -2.1305658451777765,
                -1.8503778932546306,
                -2.1812343242705348,
                -1.5174857945253142,
                -2.951315461061059
            ]
        },
        {
            "positions": [
                -0.03361332056593689,
                -2.1268723781311865,
                -1.8291410203682752,
                -2.3374059712833573,
                -1.5955653597023323,
                -3.087101238394045
            ]
        }
    ]
}