{
    "goal": {
        "global_pose": {
            "orientation": {
                "w": -0.00223480608172531,
                "x": 0.0024358444001904467,
                "y": 0.7094548369677653,
                "z": -0.704743149386269
            },
            "position": {
                "x": 0.6205249238014221,
                "y": -0.6371506643295288,
                "z": 0.19426114857196808
            }
        },
        "name": "move_to_magneteinheit_B"
    },
    "id": "BiEST_move_to_magneteinheit_B_61",
    "joint_names": [
        "shoulder_pan_joint",
        "shoulder_lift_joint",
        "elbow_joint",
        "wrist_1_joint",
        "wrist_2_joint",
        "wrist_3_joint"
    ],
    "metrics": {
        "cart_traj_len": 3.353163972582423,
        "distance_elbow_joint": 4.561633296474252,
        "distance_shoulder_lift_joint": 1.1016284267278236,
        "distance_shoulder_pan_joint": 2.1652724326585546,
        "distance_wrist_1_joint": 4.208374959737738,
        "distance_wrist_2_joint": 2.9257918265587404,
        "distance_wrist_3_joint": 1.3529922755919097,
        "smoothness": 0.6694584452604596,
        "time": 0.144077011,
        "traj_len": 4.0392688964401735,
        "weighted_distance": 5.11427849801214
    },
    "planner": "BiEST",
    "start": {
        "state": {
            "elbow_joint": 2.6216224122426386,
            "shoulder_lift_joint": -1.4174107377796124,
            "shoulder_pan_joint": 0.7066234856936794,
            "wrist_1_joint": 1.9546482284002225,
            "wrist_2_joint": -0.7096286983471962,
            "wrist_3_joint": 0.005740856962016249
        }
    },
    "waypoints": [
        {
            "positions": [
                0.7066234856936794,
                -1.4174107377796124,
                2.6216224122426386,
                1.9546482284002225,
                -0.7096286983471962,
                0.005740856962016249
            ]
        },
        {
            "positions": [
                0.7276856274728916,
                -1.4081553220016298,
                2.6912776281026543,
                1.9908364712737485,
                -0.6642530595481296,
                -0.17397953833338228
            ]
        },
        {
            "positions": [
                0.7487477692521037,
                -1.3988999062236473,
                2.76093284396267,
                2.0270247141472746,
                -0.618877420749063,
                -0.3536999336287808
            ]
        },
        {
            "positions": [
                0.7964241538001082,
                -1.4226233376936799,
                2.6718432651166015,
                1.9539375910550079,
                -0.5289900801338583,
                -0.34799753044053067
            ]
        },
        {
            "positions": [
                0.8441005383481126,
                -1.4463467691637124,
                2.582753686270533,
                1.8808504679627411,
                -0.43910273951865353,
                -0.34229512725228056
            ]
        },
        {
            "positions": [
                0.8917769228961171,
                -1.470070200633745,
                2.4936641074244648,
                1.8077633448704744,
                -0.3492153989034488,
                -0.3365927240640304
            ]
        },
        {
            "positions": [
                0.9394533074441216,
                -1.4937936321037775,
                2.4045745285783964,
                1.7346762217782077,
                -0.259328058288244,
                -0.3308903208757803
            ]
        },
        {
            "positions": [
                0.987129691992126,
                -1.51751706357381,
                2.315484949732328,
                1.661589098685941,
                -0.1694407176730393,
                -0.32518791768753014
            ]
        },
        {
            "positions": [
                1.0565281227899577,
                -1.5492346812459044,
                2.1824220758869104,
                1.572984435430867,
                -0.20425675738941187,
                -0.2994540847339312
            ]
        },
        {
            "positions": [
                1.1259265535877891,
                -1.580952298917999,
                2.0493592020414932,
                1.4843797721757932,
                -0.23907279710578444,
                -0.27372025178033227
            ]
        },
        {
            "positions": [
                1.1953249843856208,
                -1.6126699165900933,
                1.9162963281960759,
                1.3957751089207193,
                -0.27388883682215703,
                -0.24798641882673333
            ]
        },
        {
            "positions": [
                1.2647234151834523,
                -1.6443875342621876,
                1.7832334543506585,
                1.3071704456656454,
                -0.30870487653852957,
                -0.2222525858731344
            ]
        },
        {
            "positions": [
                1.334121845981284,
                -1.6761051519342822,
                1.650170580505241,
                1.2185657824105716,
                -0.34352091625490216,
                -0.19651875291953544
            ]
        },
        {
            "positions": [
                1.4035202767791155,
                -1.7078227696063766,
                1.5171077066598238,
                1.1299611191554977,
                -0.3783369559712747,
                -0.17078491996593653
            ]
        },
        {
            "positions": [
                1.4729187075769472,
                -1.739540387278471,
                1.3840448328144062,
                1.0413564559004236,
                -0.4131529956876473,
                -0.14505108701233757
            ]
        },
        {
            "positions": [
                1.542317138374779,
                -1.7712580049505653,
                1.2509819589689888,
                0.9527517926453498,
                -0.44796903540401983,
                -0.11931725405873864
            ]
        },
        {
            "positions": [
                1.6117155691726104,
                -1.8029756226226599,
                1.1179190851235714,
                0.864147129390276,
                -0.48278507512039237,
                -0.09358342110513973
            ]
        },
        {
            "positions": [
                1.681113999970442,
                -1.8346932402947542,
                0.9848562112781538,
                0.7755424661352021,
                -0.517601114836765,
                -0.06784958815154074
            ]
        },
        {
            "positions": [
                1.7505124307682736,
                -1.8664108579668488,
                0.8517933374327367,
                0.6869378028801282,
                -0.5524171545531376,
                -0.04211575519794186
            ]
        },
        {
            "positions": [
                1.8199108615661053,
                -1.8981284756389432,
                0.7187304635873193,
                0.5983331396250544,
                -0.5872331942695102,
                -0.016381922244342928
            ]
        },
        {
            "positions": [
                1.889309292363937,
                -1.9298460933110375,
                0.5856675897419017,
                0.5097284763699803,
                -0.6220492339858827,
                0.009351910709256062
            ]
        },
        {
            "positions": [
                1.9587077231617687,
                -1.961563710983132,
                0.4526047158964843,
                0.42112381311490643,
                -0.6568652737022553,
                0.035085743662854996
            ]
        },
        {
            "positions": [
                2.0281061539596,
                -1.9932813286552264,
                0.31954184205106717,
                0.3325191498598328,
                -0.6916813134186277,
                0.060819576616453874
            ]
        },
        {
            "positions": [
                2.0975045847574316,
                -2.0249989463273206,
                0.18647896820564958,
                0.24391448660475867,
                -0.7264973531350003,
                0.08655340957005286
            ]
        },
        {
            "positions": [
                2.1669030155552633,
                -2.0567165639994154,
                0.05341609436023198,
                0.1553098233496848,
                -0.7613133928513729,
                0.1122872425236518
            ]
        },
        {
            "positions": [
                2.236301446353095,
                -2.0884341816715097,
                -0.07964677948518517,
                0.06670516009461114,
                -0.7961294325677455,
                0.13802107547725068
            ]
        },
        {
            "positions": [
                2.3056998771509267,
                -2.120151799343604,
                -0.21270965333060277,
                -0.021899503160462963,
                -0.8309454722841181,
                0.16375490843084967
            ]
        },
        {
            "positions": [
                2.3750983079487584,
                -2.1518694170156984,
                -0.34577252717602036,
                -0.11050416641553684,
                -0.8657615120004907,
                0.18948874138444866
            ]
        },
        {
            "positions": [
                2.4444967387465897,
                -2.183587034687793,
                -0.4788354010214375,
                -0.19910882967061072,
                -0.9005775517168633,
                0.21522257433804753
            ]
        },
        {
            "positions": [
                2.513895169544421,
                -2.2153046523598876,
                -0.6118982748668547,
                -0.2877134929256846,
                -0.9353935914332359,
                0.2409564072916464
            ]
        },
        {
            "positions": [
                2.5832936003422526,
                -2.247022270031982,
                -0.7449611487122723,
                -0.3763181561807585,
                -0.9702096311496085,
                0.2666902402452454
            ]
        },
        {
            "positions": [
                2.6526920311400843,
                -2.2787398877040763,
                -0.8780240225576894,
                -0.46492281943583214,
                -1.0050256708659808,
                0.2924240731988443
            ]
        },
        {
            "positions": [
                2.722090461937916,
                -2.3104575053761707,
                -1.011086896403107,
                -0.5535274826909062,
                -1.0398417105823534,
                0.3181579061524432
            ]
        },
        {
            "positions": [
                2.729485305074984,
                -2.326831618751355,
                -1.068833464222843,
                -0.4339541841019112,
                -0.9314622751015322,
                0.2884621160041287
            ]
        },
        {
            "positions": [
                2.7368801482120513,
                -2.343205732126539,
                -1.1265800320425787,
                -0.31438088551291615,
                -0.8230828396207112,
                0.2587663258558142
            ]
        },
        {
            "positions": [
                2.744274991349119,
                -2.3595798455017234,
                -1.1843265998623147,
                -0.19480758692392108,
                -0.7147034041398901,
                0.2290705357074997
            ]
        },
        {
            "positions": [
                2.751669834486187,
                -2.3759539588769076,
                -1.2420731676820507,
                -0.07523428833492607,
                -0.6063239686590689,
                0.1993747455591852
            ]
        },
        {
            "positions": [
                2.7590646776232544,
                -2.392328072252092,
                -1.2998197355017864,
                0.044339010254069056,
                -0.4979445331782477,
                0.16967895541087066
            ]
        },
        {
            "positions": [
                2.766459520760322,
                -2.408702185627276,
                -1.3575663033215224,
                0.16391230884306407,
                -0.38956509769742664,
                0.13998316526255616
            ]
        },
        {
            "positions": [
                2.748886787828337,
                -2.420921404921981,
                -1.408203589566527,
                0.3035800564461528,
                -0.24541072434903619,
                0.11606334787422265
            ]
        },
        {
            "positions": [
                2.7313140548963517,
                -2.433140624216686,
                -1.4588408758115319,
                0.44324780404924163,
                -0.10125635100064573,
                0.09214353048588914
            ]
        },
        {
            "positions": [
                2.713741321964366,
                -2.4453598435113912,
                -1.5094781620565367,
                0.5829155516523304,
                0.04289802234774476,
                0.06822371309755562
            ]
        },
        {
            "positions": [
                2.6961685890323808,
                -2.457579062806096,
                -1.5601154483015414,
                0.7225832992554192,
                0.1870523956961352,
                0.04430389570922211
            ]
        },
        {
            "positions": [
                2.6785958561003955,
                -2.469798282100801,
                -1.610752734546546,
                0.8622510468585081,
                0.33120676904452573,
                0.020384078320888593
            ]
        },
        {
            "positions": [
                2.6610231231684103,
                -2.482017501395506,
                -1.6613900207915508,
                1.0019187944615968,
                0.4753611423929162,
                -0.0035357390674449155
            ]
        }
    ]
}