{
    "goal": {
        "global_pose": {
            "orientation": {
                "w": 0.005598929693374612,
                "x": 0.007748599140229565,
                "y": 0.7110244013736278,
                "z": -0.7031023480610252
            },
            "position": {
                "x": 0.1141497679147869,
                "y": -0.7141253447532654,
                "z": 0.3711530566215515
            }
        },
        "name": "move_to_auspresseinheit_B"
    },
    "id": "BiEST_move_to_auspresseinheit_B_125",
    "joint_names": [
        "shoulder_pan_joint",
        "shoulder_lift_joint",
        "elbow_joint",
        "wrist_1_joint",
        "wrist_2_joint",
        "wrist_3_joint"
    ],
    "metrics": {
        "cart_traj_len": 0.5648183109216856,
        "distance_elbow_joint": 0.0641653646240059,
        "distance_shoulder_lift_joint": 0.29570282055563624,
        "distance_shoulder_pan_joint": 0.5785854212478145,
        "distance_wrist_1_joint": 0.3351752942384417,
        "distance_wrist_2_joint": 0.9859305426845419,
        "distance_wrist_3_joint": 0.004041876793156707,
        "smoothness": 5.075305255429287e-16,
        "time": 0.060339849,
        "traj_len": 1.5045269423122996,
        "weighted_distance": 1.8954658822181145
    },
    "planner": "BiEST",
    "start": {
        "state": {
            "elbow_joint": 2.0193083361928714,
            "shoulder_lift_joint": -1.1220246554650708,
            "shoulder_pan_joint": -1.0952077554168747,
            "wrist_1_joint": -0.8559753972642168,
            "wrist_2_joint": 0.4759566250798843,
            "wrist_3_joint": -3.1240929996934557
        }
    },
    "waypoints": [
        {
            "positions": [
                -1.0952077554168747,
                -1.1220246554650708,
                2.0193083361928714,
                -0.8559753972642168,
                0.4759566250798843,
                -3.1240929996934557
            ]
        },
        {
            "positions": [
                -1.191638658958177,
                -1.17130845889101,
                2.008614108755537,
                -0.8001128482244765,
                0.6402783821939746,
                -3.123419353561263
            ]
        },
        {
            "positions": [
                -1.2880695624994796,
                -1.2205922623169496,
                1.9979198813182029,
                -0.7442502991847362,
                0.8046001393080648,
                -3.12274570742907
            ]
        },
        {
            "positions": [
                -1.384500466040782,
                -1.269876065742889,
                1.9872256538808686,
                -0.688387750144996,
                0.9689218964221553,
                -3.122072061296877
            ]
        },
        {
            "positions": [
                -1.4809313695820843,
                -1.3191598691688282,
                1.976531426443534,
                -0.6325252011052557,
                1.1332436535362456,
                -3.1213984151646845
            ]
        },
        {
            "positions": [
                -1.5773622731233867,
                -1.3684436725947677,
                1.9658371990061998,
                -0.5766626520655154,
                1.297565410650336,
                -3.120724769032492
            ]
        },
        {
            "positions": [
                -1.6737931766646892,
                -1.417727476020707,
                1.9551429715688655,
                -0.5208001030257751,
                1.4618871677644263,
                -3.120051122900299
            ]
        }
    ]
}