{
    "goal": {
        "global_pose": {
            "orientation": {
                "w": -0.4816463035849501,
                "x": 0.5182115481033762,
                "y": 0.4908360881923453,
                "z": -0.5084816262002911
            },
            "position": {
                "x": -0.8240239810943604,
                "y": 0.19912469901144506,
                "z": 0.16403168439865112
            }
        },
        "name": "move_to_storage_D"
    },
    "id": "BiEST_move_to_storage_D_122",
    "joint_names": [
        "shoulder_pan_joint",
        "shoulder_lift_joint",
        "elbow_joint",
        "wrist_1_joint",
        "wrist_2_joint",
        "wrist_3_joint"
    ],
    "metrics": {
        "cart_traj_len": 0.8519075467400005,
        "distance_elbow_joint": 0.5786289490373713,
        "distance_shoulder_lift_joint": 0.15249208550998716,
        "distance_shoulder_pan_joint": 0.7099312177032882,
        "distance_wrist_1_joint": 3.8238695049836187,
        "distance_wrist_2_joint": 2.125323719111124,
        "distance_wrist_3_joint": 3.5490246108032055,
        "smoothness": 0.32441475457691976,
        "time": 0.11926392599999999,
        "traj_len": 3.307456740026783,
        "weighted_distance": 4.897602733261422
    },
    "planner": "BiEST",
    "start": {
        "state": {
            "elbow_joint": -2.384821988534728,
            "shoulder_lift_joint": -2.2788054721415256,
            "shoulder_pan_joint": -0.1854694642142757,
            "wrist_1_joint": 1.4845938289331202,
            "wrist_2_joint": 0.17898776772866878,
            "wrist_3_joint": 0.037105688729662994
        }
    },
    "waypoints": [
        {
            "positions": [
                -0.1854694642142757,
                -2.2788054721415256,
                -2.384821988534728,
                1.4845938289331202,
                0.17898776772866878,
                0.037105688729662994
            ]
        },
        {
            "positions": [
                -0.07774620000800139,
                -2.2538177499557497,
                -2.2431431194825646,
                1.4663699801866523,
                0.22254966590679895,
                0.09065132196080058
            ]
        },
        {
            "positions": [
                0.029977064198272924,
                -2.228830027769974,
                -2.101464250430401,
                1.4481461314401844,
                0.2661115640849291,
                0.14419695519193815
            ]
        },
        {
            "positions": [
                0.13770032840454724,
                -2.2038423055841982,
                -1.9597853813782375,
                1.4299222826937166,
                0.30967346226305925,
                0.19774258842307574
            ]
        },
        {
            "positions": [
                0.24542359261082158,
                -2.1788545833984223,
                -1.8181065123260742,
                1.4116984339472487,
                0.3532353604411894,
                0.25128822165421333
            ]
        },
        {
            "positions": [
                0.23379700257423028,
                -2.1766653668664686,
                -1.818602907027271,
                1.255407846030676,
                0.2719405218412476,
                0.11233646840926936
            ]
        },
        {
            "positions": [
                0.22217041253763897,
                -2.1744761503345154,
                -1.8190993017284673,
                1.099117258114103,
                0.19064568324130582,
                -0.026615284835674602
            ]
        },
        {
            "positions": [
                0.21054382250104764,
                -2.1722869338025617,
                -1.819595696429664,
                0.9428266701975303,
                0.10935084464136402,
                -0.16556703808061857
            ]
        },
        {
            "positions": [
                0.19891723246445636,
                -2.1700977172706084,
                -1.8200920911308605,
                0.7865360822809575,
                0.02805600604142222,
                -0.30451879132556253
            ]
        },
        {
            "positions": [
                0.18729064242786503,
                -2.1679085007386547,
                -1.8205884858320571,
                0.6302454943643847,
                -0.05323883255851958,
                -0.44347054457050655
            ]
        },
        {
            "positions": [
                0.17566405239127372,
                -2.1657192842067015,
                -1.8210848805332536,
                0.4739549064478119,
                -0.13453367115846138,
                -0.5824222978154505
            ]
        },
        {
            "positions": [
                0.16403746235468242,
                -2.1635300676747478,
                -1.8215812752344502,
                0.3176643185312391,
                -0.21582850975840318,
                -0.7213740510603945
            ]
        },
        {
            "positions": [
                0.1524108723180911,
                -2.1613408511427945,
                -1.8220776699356467,
                0.1613737306146663,
                -0.297123348358345,
                -0.8603258043053383
            ]
        },
        {
            "positions": [
                0.1407842822814998,
                -2.159151634610841,
                -1.8225740646368433,
                0.005083142698093512,
                -0.3784181869582868,
                -0.9992775575502824
            ]
        },
        {
            "positions": [
                0.12915769224490847,
                -2.1569624180788876,
                -1.8230704593380398,
                -0.15120744521847929,
                -0.45971302555822857,
                -1.1382293107952264
            ]
        },
        {
            "positions": [
                0.11753110220831717,
                -2.154773201546934,
                -1.8235668540392365,
                -0.3074980331350521,
                -0.5410078641581704,
                -1.2771810640401702
            ]
        },
        {
            "positions": [
                0.10590451217172586,
                -2.1525839850149806,
                -1.824063248740433,
                -0.4637886210516249,
                -0.6223027027581122,
                -1.4161328172851142
            ]
        },
        {
            "positions": [
                0.09427792213513456,
                -2.150394768483027,
                -1.8245596434416296,
                -0.6200792089681975,
                -0.7035975413580539,
                -1.555084570530058
            ]
        },
        {
            "positions": [
                0.08265133209854322,
                -2.148205551951073,
                -1.8250560381428262,
                -0.7763697968847705,
                -0.7848923799579958,
                -1.6940363237750022
            ]
        },
        {
            "positions": [
                0.07102474206195192,
                -2.14601633541912,
                -1.8255524328440227,
                -0.9326603848013435,
                -0.8661872185579377,
                -1.8329880770199463
            ]
        },
        {
            "positions": [
                0.05939815202536064,
                -2.1438271188871663,
                -1.8260488275452194,
                -1.088950972717916,
                -0.9474820571578794,
                -1.97193983026489
            ]
        },
        {
            "positions": [
                0.04777156198876931,
                -2.141637902355213,
                -1.8265452222464158,
                -1.245241560634489,
                -1.0287768957578214,
                -2.1108915835098343
            ]
        },
        {
            "positions": [
                0.036144971952178,
                -2.1394486858232593,
                -1.8270416169476125,
                -1.4015321485510617,
                -1.110071734357763,
                -2.249843336754778
            ]
        },
        {
            "positions": [
                0.024518381915586696,
                -2.137259469291306,
                -1.827538011648809,
                -1.5578227364676343,
                -1.1913665729577048,
                -2.388795089999722
            ]
        },
        {
            "positions": [
                0.012891791878995362,
                -2.1350702527593524,
                -1.8280344063500056,
                -1.7141133243842073,
                -1.2726614115576464,
                -2.527746843244666
            ]
        },
        {
            "positions": [
                0.0012652018424040845,
                -2.132881036227399,
                -1.828530801051202,
                -1.8704039123007798,
                -1.3539562501575881,
                -2.66669859648961
            ]
        },
        {
            "positions": [
                -0.010361388194187249,
                -2.1306918196954454,
                -1.8290271957523987,
                -2.026694500217353,
                -1.4352510887575303,
                -2.8056503497345537
            ]
        },
        {
            "positions": [
                -0.021987978230778582,
                -2.128502603163492,
                -1.8295235904535951,
                -2.182985088133926,
                -1.516545927357472,
                -2.944602102979498
            ]
        },
        {
            "positions": [
                -0.03361456826736986,
                -2.1263133866315385,
                -1.8300199851547918,
                -2.3392756760504985,
                -1.5978407659574136,
                -3.083553856224442
            ]
        }
    ]
}