{
    "goal": {
        "global_pose": {
            "orientation": {
                "w": -0.4816463035849501,
                "x": 0.5182115481033762,
                "y": 0.4908360881923453,
                "z": -0.5084816262002911
            },
            "position": {
                "x": -0.8240239810943604,
                "y": -0.300875300988555,
                "z": 0.16403168439865112
            }
        },
        "name": "move_to_storage_C"
    },
    "id": "BiEST_move_to_storage_C_70",
    "joint_names": [
        "shoulder_pan_joint",
        "shoulder_lift_joint",
        "elbow_joint",
        "wrist_1_joint",
        "wrist_2_joint",
        "wrist_3_joint"
    ],
    "metrics": {
        "cart_traj_len": 0.5758725464862416,
        "distance_elbow_joint": 0.25552458609131024,
        "distance_shoulder_lift_joint": 0.1879935901263594,
        "distance_shoulder_pan_joint": 0.4945513137339881,
        "distance_wrist_1_joint": 0.07328851829543359,
        "distance_wrist_2_joint": 1.0662679015215395,
        "distance_wrist_3_joint": 0.06194646680418403,
        "smoothness": 5.075305295617109e-16,
        "time": 0.0788889,
        "traj_len": 1.4627277178521008,
        "weighted_distance": 1.844728091074171
    },
    "planner": "BiEST",
    "start": {
        "state": {
            "elbow_joint": 2.010868314990456,
            "shoulder_lift_joint": -1.1634956873337592,
            "shoulder_pan_joint": -2.4736205022346125,
            "wrist_1_joint": -0.8367026794202681,
            "wrist_2_joint": 0.6746043897044499,
            "wrist_3_joint": -3.1496632123970403
        }
    },
    "waypoints": [
        {
            "positions": [
                -2.4736205022346125,
                -1.1634956873337592,
                2.010868314990456,
                -0.8367026794202681,
                0.6746043897044499,
                -3.1496632123970403
            ]
        },
        {
            "positions": [
                -2.5560457211902774,
                -1.1321634223126993,
                1.9682808839752375,
                -0.8244879263710292,
                0.8523157066247065,
                -3.1393388012630097
            ]
        },
        {
            "positions": [
                -2.638470940145942,
                -1.1008311572916394,
                1.9256934529600191,
                -0.8122731733217903,
                1.0300270235449631,
                -3.129014390128979
            ]
        },
        {
            "positions": [
                -2.7208961591016063,
                -1.0694988922705795,
                1.8831060219448008,
                -0.8000584202725514,
                1.2077383404652196,
                -3.118689978994948
            ]
        },
        {
            "positions": [
                -2.803321378057271,
                -1.0381666272495196,
                1.8405185909295823,
                -0.7878436672233123,
                1.3854496573854762,
                -3.1083655678609174
            ]
        },
        {
            "positions": [
                -2.885746597012936,
                -1.0068343622284597,
                1.797931159914364,
                -0.7756289141740734,
                1.5631609743057329,
                -3.098041156726887
            ]
        },
        {
            "positions": [
                -2.9681718159686006,
                -0.9755020972073998,
                1.7553437288991456,
                -0.7634141611248345,
                1.7408722912259893,
                -3.0877167455928562
            ]
        }
    ]
}