{
    "goal": {
        "global_pose": {
            "orientation": {
                "w": 0.5084816217422485,
                "x": -0.49083608388900757,
                "y": 0.5182115435600281,
                "z": -0.4816462993621826
            },
            "position": {
                "x": 0.5540239810943604,
                "y": 0.030875300988554955,
                "z": 0.16403168439865112
            }
        },
        "name": "move_to_storage_A"
    },
    "id": "BiEST_move_to_storage_A_34",
    "joint_names": [
        "shoulder_pan_joint",
        "shoulder_lift_joint",
        "elbow_joint",
        "wrist_1_joint",
        "wrist_2_joint",
        "wrist_3_joint"
    ],
    "metrics": {
        "cart_traj_len": 0.35266950912744166,
        "distance_elbow_joint": 0.4490796492790834,
        "distance_shoulder_lift_joint": 0.23271076283577008,
        "distance_shoulder_pan_joint": 0.4572600984749552,
        "distance_wrist_1_joint": 0.24295381863258847,
        "distance_wrist_2_joint": 1.113856966676608,
        "distance_wrist_3_joint": 0.09154622161509884,
        "smoothness": 2.2204460668324854e-16,
        "time": 0.050719856,
        "traj_len": 1.6085420471700775,
        "weighted_distance": 2.0315783878682843
    },
    "planner": "BiEST",
    "start": {
        "state": {
            "elbow_joint": 1.971548259319323,
            "shoulder_lift_joint": -1.1394851275133948,
            "shoulder_pan_joint": 0.1228115487234821,
            "wrist_1_joint": -0.7804723859257726,
            "wrist_2_joint": 0.12958671773740124,
            "wrist_3_joint": -3.192489227718131
        }
    },
    "waypoints": [
        {
            "positions": [
                0.1228115487234821,
                -1.1394851275133948,
                1.971548259319323,
                -0.7804723859257726,
                0.12958671773740124,
                -3.192489227718131
            ]
        },
        {
            "positions": [
                0.057488677512774214,
                -1.172729522204219,
                2.0357024949306206,
                -0.8151800743018567,
                0.28870914154834526,
                -3.1794111960588314
            ]
        },
        {
            "positions": [
                -0.007834193697933672,
                -1.2059739168950434,
                2.0998567305419185,
                -0.8498877626779408,
                0.44783156535928925,
                -3.1663331643995316
            ]
        },
        {
            "positions": [
                -0.07315706490864154,
                -1.2392183115858677,
                2.164010966153216,
                -0.8845954510540248,
                0.6069539891702332,
                -3.153255132740232
            ]
        },
        {
            "positions": [
                -0.13847993611934944,
                -1.272462706276692,
                2.2281652017645133,
                -0.9193031394301089,
                0.7660764129811772,
                -3.1401771010809316
            ]
        },
        {
            "positions": [
                -0.20380280733005735,
                -1.3057071009675163,
                2.292319437375811,
                -0.954010827806193,
                0.9251988367921213,
                -3.127099069421632
            ]
        },
        {
            "positions": [
                -0.2691256785407652,
                -1.3389514956583406,
                2.356473672987109,
                -0.988718516182277,
                1.0843212606030652,
                -3.114021037762332
            ]
        },
        {
            "positions": [
                -0.3344485497514731,
                -1.372195890349165,
                2.4206279085984064,
                -1.023426204558361,
                1.2434436844140093,
                -3.1009430061030323
            ]
        }
    ]
}{
    "goal": {
        "global_pose": {
            "orientation": {
                "w": 0.5084816217422485,
                "x": -0.49083608388900757,
                "y": 0.5182115435600281,
                "z": -0.4816462993621826
            },
            "position": {
                "x": 0.5540239810943604,
                "y": 0.030875300988554955,
                "z": 0.16403168439865112
            }
        },
        "name": "move_to_storage_A"
    },
    "id": "BiEST_move_to_storage_A_34",
    "joint_names": [
        "shoulder_pan_joint",
        "shoulder_lift_joint",
        "elbow_joint",
        "wrist_1_joint",
        "wrist_2_joint",
        "wrist_3_joint"
    ],
    "metrics": {
        "cart_traj_len": 0.3529422337901162,
        "distance_elbow_joint": 0.44886221593245157,
        "distance_shoulder_lift_joint": 0.2357387018413093,
        "distance_shoulder_pan_joint": 0.4587381722242024,
        "distance_wrist_1_joint": 0.23535567440451066,
        "distance_wrist_2_joint": 1.1112008993963325,
        "distance_wrist_3_joint": 0.09276663805716812,
        "smoothness": 0.0,
        "time": 0.040812528,
        "traj_len": 1.6070663651062997,
        "weighted_distance": 2.02848518648058
    },
    "planner": "BiEST",
    "start": {
        "state": {
            "elbow_joint": 1.97154746011099,
            "shoulder_lift_joint": -1.13948474672311,
            "shoulder_pan_joint": 0.12281154466712228,
            "wrist_1_joint": -0.7804688027058302,
            "wrist_2_joint": 0.12958655903071145,
            "wrist_3_joint": 3.0906928834467795
        }
    },
    "waypoints": [
        {
            "positions": [
                0.12281154466712228,
                -1.13948474672311,
                1.97154746011099,
                -0.7804688027058302,
                0.12958655903071145,
                3.0906928834467795
            ]
        },
        {
            "positions": [
                0.05727752006366481,
                -1.1731617041290112,
                2.035670633815626,
                -0.8140910419064745,
                0.28832954465875893,
                3.103945260312089
            ]
        },
        {
            "positions": [
                -0.008256504539792667,
                -1.2068386615349127,
                2.099793807520262,
                -0.847713281107119,
                0.4470725302868064,
                3.117197637177399
            ]
        },
        {
            "positions": [
                -0.07379052914325014,
                -1.240515618940814,
                2.1639169812248977,
                -0.8813355203077633,
                0.6058155159148539,
                3.1304500140427085
            ]
        },
        {
            "positions": [
                -0.1393245537467076,
                -1.2741925763467152,
                2.2280401549295337,
                -0.9149577595084077,
                0.7645585015429014,
                3.1437023909080186
            ]
        },
        {
            "positions": [
                -0.20485857835016513,
                -1.3078695337526165,
                2.2921633286341696,
                -0.9485799987090521,
                0.923301487170949,
                3.1569547677733283
            ]
        },
        {
            "positions": [
                -0.27039260295362255,
                -1.341546491158518,
                2.3562865023388055,
                -0.9822022379096964,
                1.0820444727989964,
                3.170207144638638
            ]
        },
        {
            "positions": [
                -0.3359266275570801,
                -1.3752234485644192,
                2.4204096760434415,
                -1.0158244771103409,
                1.240787458427044,
                3.1834595215039476
            ]
        }
    ]
}{
    "goal": {
        "global_pose": {
            "orientation": {
                "w": 0.5084816217422485,
                "x": -0.49083608388900757,
                "y": 0.5182115435600281,
                "z": -0.4816462993621826
            },
            "position": {
                "x": 0.5540239810943604,
                "y": 0.030875300988554955,
                "z": 0.16403168439865112
            }
        },
        "name": "move_to_storage_A"
    },
    "id": "BiEST_move_to_storage_A_34",
    "joint_names": [
        "shoulder_pan_joint",
        "shoulder_lift_joint",
        "elbow_joint",
        "wrist_1_joint",
        "wrist_2_joint",
        "wrist_3_joint"
    ],
    "metrics": {
        "cart_traj_len": 0.35371675541668623,
        "distance_elbow_joint": 0.45386198536701805,
        "distance_shoulder_lift_joint": 0.23183567835730123,
        "distance_shoulder_pan_joint": 0.46443949379209826,
        "distance_wrist_1_joint": 0.2638569071561525,
        "distance_wrist_2_joint": 1.0908250590091604,
        "distance_wrist_3_joint": 0.09592444126778288,
        "smoothness": 4.440892098500626e-16,
        "time": 0.066658677,
        "traj_len": 1.612682102880017,
        "weighted_distance": 2.0364858000119694
    },
    "planner": "BiEST",
    "start": {
        "state": {
            "elbow_joint": 1.9715472970024885,
            "shoulder_lift_joint": -1.1394870060712896,
            "shoulder_pan_joint": 0.12281152778156021,
            "wrist_1_joint": -0.780463741449964,
            "wrist_2_joint": 0.12958659822042276,
            "wrist_3_joint": 3.090690232415272
        }
    },
    "waypoints": [
        {
            "positions": [
                0.12281152778156021,
                -1.1394870060712896,
                1.9715472970024885,
                -0.780463741449964,
                0.12958659822042276,
                3.090690232415272
            ]
        },
        {
            "positions": [
                0.05646302866840332,
                -1.1726063886937612,
                2.0363847234834913,
                -0.8181575853294144,
                0.28541874950744567,
                3.104393724024955
            ]
        },
        {
            "positions": [
                -0.009885470444753575,
                -1.2057257713162328,
                2.1012221499644936,
                -0.8558514292088647,
                0.4412509007944686,
                3.1180972156346383
            ]
        },
        {
            "positions": [
                -0.07623396955791045,
                -1.2388451539387044,
                2.1660595764454964,
                -0.8935452730883151,
                0.5970830520814915,
                3.1318007072443215
            ]
        },
        {
            "positions": [
                -0.14258246867106736,
                -1.271964536561176,
                2.2308970029264987,
                -0.9312391169677654,
                0.7529152033685144,
                3.145504198854005
            ]
        },
        {
            "positions": [
                -0.2089309677842243,
                -1.3050839191836476,
                2.2957344294075015,
                -0.9689329608472158,
                0.9087473546555374,
                3.1592076904636883
            ]
        },
        {
            "positions": [
                -0.27527946689738114,
                -1.3382033018061192,
                2.360571855888504,
                -1.0066268047266662,
                1.0645795059425602,
                3.1729111820733715
            ]
        },
        {
            "positions": [
                -0.341627966010538,
                -1.3713226844285908,
                2.4254092823695066,
                -1.0443206486061165,
                1.2204116572295831,
                3.1866146736830547
            ]
        }
    ]
}