{
    "goal": {
        "global_pose": {
            "orientation": {
                "w": -0.00223480608172531,
                "x": 0.0024358444001904467,
                "y": 0.7094548369677653,
                "z": -0.704743149386269
            },
            "position": {
                "x": 0.6205249238014221,
                "y": -0.6371506643295288,
                "z": 0.19426114857196808
            }
        },
        "name": "move_to_magneteinheit_B"
    },
    "id": "BiEST_move_to_magneteinheit_B_125",
    "joint_names": [
        "shoulder_pan_joint",
        "shoulder_lift_joint",
        "elbow_joint",
        "wrist_1_joint",
        "wrist_2_joint",
        "wrist_3_joint"
    ],
    "metrics": {
        "cart_traj_len": 4.789014992319277,
        "distance_elbow_joint": 8.020221079868092,
        "distance_shoulder_lift_joint": 0.7660705135835406,
        "distance_shoulder_pan_joint": 2.982188130562858,
        "distance_wrist_1_joint": 2.158196662493595,
        "distance_wrist_2_joint": 1.516312255801118,
        "distance_wrist_3_joint": 2.0929576600157334,
        "smoothness": 0.6853387297143086,
        "time": 0.302133637,
        "traj_len": 4.187594333543417,
        "weighted_distance": 5.039481177725651
    },
    "planner": "BiEST",
    "start": {
        "state": {
            "elbow_joint": 2.6216224122426386,
            "shoulder_lift_joint": -1.4174107377796124,
            "shoulder_pan_joint": 0.7066234856936794,
            "wrist_1_joint": 1.9546482284002225,
            "wrist_2_joint": -0.7096286983471962,
            "wrist_3_joint": 0.005740856962016249
        }
    },
    "waypoints": [
        {
            "positions": [
                0.7066234856936794,
                -1.4174107377796124,
                2.6216224122426386,
                1.9546482284002225,
                -0.7096286983471962,
                0.005740856962016249
            ]
        },
        {
            "positions": [
                0.6361425535726152,
                -1.4192049755619967,
                2.573797761323865,
                1.974827613727725,
                -0.7498417796471991,
                -0.05524931827095644
            ]
        },
        {
            "positions": [
                0.565661621451551,
                -1.420999213344381,
                2.5259731104050918,
                1.9950069990552273,
                -0.790054860947202,
                -0.11623949350392913
            ]
        },
        {
            "positions": [
                0.5996895983899163,
                -1.4188840322057514,
                2.30643981028742,
                1.9456135073832599,
                -0.8162849337090723,
                -0.16257867220286773
            ]
        },
        {
            "positions": [
                0.6337175753282817,
                -1.416768851067122,
                2.0869065101697486,
                1.8962200157112925,
                -0.8425150064709426,
                -0.2089178509018063
            ]
        },
        {
            "positions": [
                0.667745552266647,
                -1.4146536699284924,
                1.8673732100520768,
                1.8468265240393251,
                -0.8687450792328129,
                -0.2552570296007449
            ]
        },
        {
            "positions": [
                0.7017735292050123,
                -1.4125384887898629,
                1.6478399099344052,
                1.7974330323673577,
                -0.8949751519946831,
                -0.30159620829968353
            ]
        },
        {
            "positions": [
                0.7358015061433777,
                -1.4104233076512331,
                1.4283066098167336,
                1.7480395406953904,
                -0.9212052247565534,
                -0.3479353869986221
            ]
        },
        {
            "positions": [
                0.769829483081743,
                -1.4083081265126036,
                1.208773309699062,
                1.698646049023423,
                -0.9474352975184237,
                -0.3942745656975607
            ]
        },
        {
            "positions": [
                0.8038574600201084,
                -1.406192945373974,
                0.9892400095813905,
                1.6492525573514558,
                -0.973665370280294,
                -0.4406137443964993
            ]
        },
        {
            "positions": [
                0.8378854369584738,
                -1.4040777642353446,
                0.7697067094637187,
                1.5998590656794882,
                -0.9998954430421643,
                -0.4869529230954379
            ]
        },
        {
            "positions": [
                0.8719134138968392,
                -1.401962583096715,
                0.5501734093460471,
                1.550465574007521,
                -1.0261255158040345,
                -0.5332921017943765
            ]
        },
        {
            "positions": [
                0.9059413908352045,
                -1.3998474019580855,
                0.3306401092283755,
                1.5010720823355537,
                -1.0523555885659048,
                -0.579631280493315
            ]
        },
        {
            "positions": [
                0.9399693677735699,
                -1.397732220819456,
                0.1111068091107037,
                1.4516785906635863,
                -1.0785856613277751,
                -0.6259704591922537
            ]
        },
        {
            "positions": [
                0.9739973447119352,
                -1.3956170396808265,
                -0.10842649100696766,
                1.402285098991619,
                -1.1048157340896454,
                -0.6723096378911922
            ]
        },
        {
            "positions": [
                1.0080253216503006,
                -1.393501858542197,
                -0.32795979112463947,
                1.3528916073196515,
                -1.1310458068515157,
                -0.7186488165901309
            ]
        },
        {
            "positions": [
                1.042053298588666,
                -1.3913866774035675,
                -0.5474930912423108,
                1.3034981156476841,
                -1.157275879613386,
                -0.7649879952890695
            ]
        },
        {
            "positions": [
                1.0760812755270313,
                -1.389271496264938,
                -0.7670263913599826,
                1.2541046239757168,
                -1.1835059523752562,
                -0.811327173988008
            ]
        },
        {
            "positions": [
                1.1101092524653966,
                -1.3871563151263082,
                -0.9865596914776544,
                1.2047111323037494,
                -1.2097360251371265,
                -0.8576663526869467
            ]
        },
        {
            "positions": [
                1.144137229403762,
                -1.3850411339876787,
                -1.2060929915953258,
                1.155317640631782,
                -1.2359660978989968,
                -0.9040055313858852
            ]
        },
        {
            "positions": [
                1.1781652063421273,
                -1.3829259528490492,
                -1.4256262917129976,
                1.1059241489598146,
                -1.262196170660867,
                -0.9503447100848238
            ]
        },
        {
            "positions": [
                1.2121931832804926,
                -1.3808107717104197,
                -1.6451595918306685,
                1.0565306572878472,
                -1.2884262434227374,
                -0.9966838887837624
            ]
        },
        {
            "positions": [
                1.246221160218858,
                -1.3786955905717901,
                -1.8646928919483403,
                1.0071371656158798,
                -1.3146563161846077,
                -1.043023067482701
            ]
        },
        {
            "positions": [
                1.1564231520454868,
                -1.3493724727506584,
                -1.717599344309395,
                1.052839338564835,
                -1.3513580238505514,
                -0.9995670366879684
            ]
        },
        {
            "positions": [
                1.0666251438721157,
                -1.3200493549295267,
                -1.5705057966704499,
                1.0985415115137902,
                -1.3880597315164953,
                -0.9561110058932358
            ]
        },
        {
            "positions": [
                0.9768271356987445,
                -1.290726237108395,
                -1.4234122490315044,
                1.1442436844627453,
                -1.424761439182439,
                -0.9126549750985032
            ]
        },
        {
            "positions": [
                0.8870291275253733,
                -1.2614031192872632,
                -1.2763187013925592,
                1.1899458574117003,
                -1.4614631468483827,
                -0.8691989443037706
            ]
        },
        {
            "positions": [
                0.7972311193520021,
                -1.2320800014661315,
                -1.1292251537536138,
                1.2356480303606556,
                -1.4981648545143267,
                -0.8257429135090381
            ]
        },
        {
            "positions": [
                0.707433111178631,
                -1.2027568836449998,
                -0.9821316061146685,
                1.2813502033096107,
                -1.5348665621802704,
                -0.7822868827143055
            ]
        },
        {
            "positions": [
                0.6176351030052597,
                -1.173433765823868,
                -0.8350380584757231,
                1.3270523762585658,
                -1.5715682698462143,
                -0.738830851919573
            ]
        },
        {
            "positions": [
                0.5278370948318887,
                -1.1441106480027363,
                -0.6879445108367781,
                1.3727545492075208,
                -1.6082699775121578,
                -0.6953748211248404
            ]
        },
        {
            "positions": [
                0.43803908665851743,
                -1.1147875301816046,
                -0.5408509631978327,
                1.4184567221564761,
                -1.6449716851781018,
                -0.6519187903301078
            ]
        },
        {
            "positions": [
                0.3482410784851462,
                -1.0854644123604729,
                -0.3937574155588872,
                1.4641588951054314,
                -1.6816733928440457,
                -0.6084627595353751
            ]
        },
        {
            "positions": [
                0.25844307031177516,
                -1.0561412945393411,
                -0.24666386791994221,
                1.5098610680543865,
                -1.7183751005099892,
                -0.5650067287406426
            ]
        },
        {
            "positions": [
                0.1686450621384039,
                -1.0268181767182094,
                -0.09957032028099677,
                1.5555632410033415,
                -1.7550768081759331,
                -0.52155069794591
            ]
        },
        {
            "positions": [
                0.07884705396503278,
                -0.9974950588970776,
                0.04752322735794845,
                1.6012654139522966,
                -1.7917785158418769,
                -0.47809466715117743
            ]
        },
        {
            "positions": [
                -0.010950954208338581,
                -0.9681719410759457,
                0.19461677499689412,
                1.646967586901252,
                -1.8284802235078208,
                -0.43463863635644484
            ]
        },
        {
            "positions": [
                -0.10074896238170972,
                -0.9388488232548141,
                0.34171032263583934,
                1.692669759850207,
                -1.8651819311737645,
                -0.39118260556171225
            ]
        },
        {
            "positions": [
                -0.19054697055508063,
                -0.9095257054336824,
                0.4888038702747841,
                1.738371932799162,
                -1.9018836388397082,
                -0.34772657476697977
            ]
        },
        {
            "positions": [
                -0.280344978728452,
                -0.8802025876125505,
                0.6358974179137298,
                1.7840741057481173,
                -1.9385853465056522,
                -0.30427054397224707
            ]
        },
        {
            "positions": [
                -0.3701429869018231,
                -0.8508794697914188,
                0.782990965552675,
                1.8297762786970724,
                -1.975287054171596,
                -0.2608145131775146
            ]
        },
        {
            "positions": [
                -0.45994099507519426,
                -0.8215563519702872,
                0.9300845131916202,
                1.8754784516460274,
                -2.0119887618375394,
                -0.217358482382782
            ]
        },
        {
            "positions": [
                -0.5497390032485656,
                -0.7922332341491554,
                1.0771780608305659,
                1.9211806245949827,
                -2.0486904695034838,
                -0.1739024515880493
            ]
        },
        {
            "positions": [
                -0.6395370114219365,
                -0.7629101163280236,
                1.2242716084695107,
                1.9668827975439378,
                -2.0853921771694273,
                -0.1304464207933168
            ]
        },
        {
            "positions": [
                -0.7293350195953077,
                -0.7335869985068919,
                1.3713651561084559,
                2.0125849704928926,
                -2.1220938848353708,
                -0.08699038999858422
            ]
        },
        {
            "positions": [
                -0.8191330277686792,
                -0.7042638806857602,
                1.5184587037474016,
                2.058287143441848,
                -2.158795592501315,
                -0.043534359203851625
            ]
        },
        {
            "positions": [
                -0.9089310359420502,
                -0.6749407628646285,
                1.6655522513863468,
                2.103989316390803,
                -2.1954973001672586,
                -7.832840911901201e-05
            ]
        },
        {
            "positions": [
                -0.9144455673345655,
                -0.6585171753256089,
                1.661891619043925,
                2.1371052240151225,
                -2.225940954148314,
                0.0011706680883161596
            ]
        }
    ]
}