{
    "goal": {
        "global_pose": {
            "orientation": {
                "w": 0.005598929693374612,
                "x": 0.007748599140229565,
                "y": 0.7110244013736278,
                "z": -0.7031023480610252
            },
            "position": {
                "x": -0.8858502320852131,
                "y": -0.7141253447532654,
                "z": 0.3711530566215515
            }
        },
        "name": "move_to_auspresseinheit_C"
    },
    "id": "BiEST_move_to_auspresseinheit_C_3",
    "joint_names": [
        "shoulder_pan_joint",
        "shoulder_lift_joint",
        "elbow_joint",
        "wrist_1_joint",
        "wrist_2_joint",
        "wrist_3_joint"
    ],
    "metrics": {
        "cart_traj_len": 0.4938977481159098,
        "distance_elbow_joint": 1.014629896926131,
        "distance_shoulder_lift_joint": 0.33239301451107794,
        "distance_shoulder_pan_joint": 0.2561191458886385,
        "distance_wrist_1_joint": 0.7046861580940458,
        "distance_wrist_2_joint": 1.3181657731894367,
        "distance_wrist_3_joint": 0.08390827331290485,
        "smoothness": 1.6148698667872622e-16,
        "time": 0.220859326,
        "traj_len": 1.9261106567178934,
        "weighted_distance": 2.429109042392195
    },
    "planner": "BiEST",
    "start": {
        "state": {
            "elbow_joint": 1.7527959577737207,
            "shoulder_lift_joint": -0.9740617694225068,
            "shoulder_pan_joint": -2.967991417825858,
            "wrist_1_joint": -0.759517768980727,
            "wrist_2_joint": 1.7443932448377408,
            "wrist_3_joint": -3.0840537646736568
        }
    },
    "waypoints": [
        {
            "positions": [
                -2.967991417825858,
                -0.9740617694225068,
                1.7527959577737207,
                -0.759517768980727,
                1.7443932448377408,
                -3.0840537646736568
            ]
        },
        {
            "positions": [
                -2.942379503236994,
                -0.940822467971399,
                1.6513329680811075,
                -0.6890491531713224,
                1.6125766675187971,
                -3.0924445920049473
            ]
        },
        {
            "positions": [
                -2.9167675886481303,
                -0.9075831665202911,
                1.5498699783884944,
                -0.6185805373619178,
                1.4807600901998534,
                -3.1008354193362377
            ]
        },
        {
            "positions": [
                -2.8911556740592665,
                -0.8743438650691834,
                1.4484069886958815,
                -0.5481119215525132,
                1.3489435128809097,
                -3.1092262466675282
            ]
        },
        {
            "positions": [
                -2.8655437594704027,
                -0.8411045636180756,
                1.3469439990032683,
                -0.47764330574310865,
                1.217126935561966,
                -3.1176170739988187
            ]
        },
        {
            "positions": [
                -2.839931844881539,
                -0.8078652621669677,
                1.2454810093106552,
                -0.4071746899337041,
                1.0853103582430226,
                -3.126007901330109
            ]
        },
        {
            "positions": [
                -2.8143199302926747,
                -0.77462596071586,
                1.1440180196180423,
                -0.33670607412429954,
                0.9534937809240788,
                -3.1343987286613997
            ]
        },
        {
            "positions": [
                -2.788708015703811,
                -0.7413866592647522,
                1.042555029925429,
                -0.266237458314895,
                0.8216772036051352,
                -3.14278955599269
            ]
        },
        {
            "positions": [
                -2.763096101114947,
                -0.7081473578136444,
                0.9410920402328159,
                -0.19576884250549031,
                0.6898606262861915,
                -3.1511803833239806
            ]
        },
        {
            "positions": [
                -2.7374841865260833,
                -0.6749080563625366,
                0.8396290505402028,
                -0.12530022669608576,
                0.5580440489672478,
                -3.159571210655271
            ]
        },
        {
            "positions": [
                -2.7118722719372195,
                -0.6416687549114288,
                0.7381660608475898,
                -0.054831610886681245,
                0.42622747164830416,
                -3.1679620379865616
            ]
        }
    ]
}