{
    "goal": {
        "global_pose": {
            "orientation": {
                "w": 0.005598929693374612,
                "x": 0.007748599140229565,
                "y": 0.7110244013736278,
                "z": -0.7031023480610252
            },
            "position": {
                "x": -0.8858502320852131,
                "y": -0.7141253447532654,
                "z": 0.3711530566215515
            }
        },
        "name": "move_to_auspresseinheit_C"
    },
    "id": "BiEST_move_to_auspresseinheit_C_19",
    "joint_names": [
        "shoulder_pan_joint",
        "shoulder_lift_joint",
        "elbow_joint",
        "wrist_1_joint",
        "wrist_2_joint",
        "wrist_3_joint"
    ],
    "metrics": {
        "cart_traj_len": 0.4920898279227682,
        "distance_elbow_joint": 0.9881058541149279,
        "distance_shoulder_lift_joint": 0.3198498217067979,
        "distance_shoulder_pan_joint": 0.25652067013382274,
        "distance_wrist_1_joint": 0.6563200178318384,
        "distance_wrist_2_joint": 1.309671568143529,
        "distance_wrist_3_joint": 0.05417986931389951,
        "smoothness": 4.844609600361787e-16,
        "time": 0.143752967,
        "traj_len": 1.8933166141046816,
        "weighted_distance": 2.3788650919814645
    },
    "planner": "BiEST",
    "start": {
        "state": {
            "elbow_joint": 1.7527959577737207,
            "shoulder_lift_joint": -0.9740617694225068,
            "shoulder_pan_joint": -2.967991417825858,
            "wrist_1_joint": -0.759517768980727,
            "wrist_2_joint": 1.7443932448377408,
            "wrist_3_joint": -3.0840537646736568
        }
    },
    "waypoints": [
        {
            "positions": [
                -2.967991417825858,
                -0.9740617694225068,
                1.7527959577737207,
                -0.759517768980727,
                1.7443932448377408,
                -3.0840537646736568
            ]
        },
        {
            "positions": [
                -2.9423393508124756,
                -0.942076787251827,
                1.6539853723622278,
                -0.6938857671975431,
                1.613426088023388,
                -3.0894717516050467
            ]
        },
        {
            "positions": [
                -2.9166872837990936,
                -0.9100918050811472,
                1.555174786950735,
                -0.6282537654143593,
                1.482458931209035,
                -3.0948897385364367
            ]
        },
        {
            "positions": [
                -2.891035216785711,
                -0.8781068229104674,
                1.4563642015392424,
                -0.5626217636311754,
                1.3514917743946822,
                -3.1003077254678266
            ]
        },
        {
            "positions": [
                -2.8653831497723288,
                -0.8461218407397876,
                1.3575536161277495,
                -0.49698976184799165,
                1.2205246175803293,
                -3.1057257123992166
            ]
        },
        {
            "positions": [
                -2.839731082758947,
                -0.8141368585691078,
                1.2587430307162566,
                -0.4313577600648078,
                1.0895574607659764,
                -3.1111436993306065
            ]
        },
        {
            "positions": [
                -2.8140790157455644,
                -0.7821518763984281,
                1.159932445304764,
                -0.36572575828162396,
                0.9585903039516235,
                -3.1165616862619965
            ]
        },
        {
            "positions": [
                -2.788426948732182,
                -0.7501668942277483,
                1.0611218598932712,
                -0.30009375649844017,
                0.8276231471372707,
                -3.1219796731933864
            ]
        },
        {
            "positions": [
                -2.7627748817187996,
                -0.7181819120570685,
                0.9623112744817783,
                -0.23446175471525632,
                0.6966559903229177,
                -3.1273976601247764
            ]
        },
        {
            "positions": [
                -2.7371228147054176,
                -0.6861969298863887,
                0.8635006890702855,
                -0.16882975293207247,
                0.5656888335085648,
                -3.1328156470561663
            ]
        },
        {
            "positions": [
                -2.711470747692035,
                -0.6542119477157089,
                0.7646901036587928,
                -0.10319775114888867,
                0.4347216766942118,
                -3.1382336339875563
            ]
        }
    ]
}