{
    "goal": {
        "global_pose": {
            "orientation": {
                "w": -0.00223480608172531,
                "x": 0.0024358444001904467,
                "y": 0.7094548369677653,
                "z": -0.704743149386269
            },
            "position": {
                "x": -0.37947507619857795,
                "y": -0.6371506643295288,
                "z": 0.19426114857196808
            }
        },
        "name": "move_to_magneteinheit_C"
    },
    "id": "BiEST_move_to_magneteinheit_C_54",
    "joint_names": [
        "shoulder_pan_joint",
        "shoulder_lift_joint",
        "elbow_joint",
        "wrist_1_joint",
        "wrist_2_joint",
        "wrist_3_joint"
    ],
    "metrics": {
        "cart_traj_len": 3.3008999392799723,
        "distance_elbow_joint": 2.290831750714446,
        "distance_shoulder_lift_joint": 1.2930401241215927,
        "distance_shoulder_pan_joint": 2.2967560355506103,
        "distance_wrist_1_joint": 2.6521473363806987,
        "distance_wrist_2_joint": 1.5335128954594373,
        "distance_wrist_3_joint": 3.4914727045201253,
        "smoothness": 0.9472891301115212,
        "time": 0.1567705,
        "traj_len": 3.6820864800744304,
        "weighted_distance": 4.972561360871005
    },
    "planner": "BiEST",
    "start": {
        "state": {
            "elbow_joint": 1.9565354010623817,
            "shoulder_lift_joint": -1.4165861575791021,
            "shoulder_pan_joint": -1.6717766225146293,
            "wrist_1_joint": -0.5286633292919765,
            "wrist_2_joint": 1.472756589071564,
            "wrist_3_joint": -3.1238370188695823
        }
    },
    "waypoints": [
        {
            "positions": [
                -1.6717766225146293,
                -1.4165861575791021,
                1.9565354010623817,
                -0.5286633292919765,
                1.472756589071564,
                -3.1238370188695823
            ]
        },
        {
            "positions": [
                -1.5832809295518482,
                -1.3560714025881455,
                1.9932527399013003,
                -0.5328598195930763,
                1.394737598035137,
                -3.142367395919709
            ]
        },
        {
            "positions": [
                -1.4947852365890673,
                -1.2955566475971891,
                2.029970078740219,
                -0.5370563098941761,
                1.3167186069987105,
                -3.160897772969836
            ]
        },
        {
            "positions": [
                -1.4664890292089166,
                -1.3327398713582084,
                1.952656279145199,
                -0.5769942757746265,
                1.2490884595880698,
                -3.036584130147046
            ]
        },
        {
            "positions": [
                -1.4381928218287656,
                -1.3699230951192276,
                1.875342479550179,
                -0.6169322416550769,
                1.1814583121774291,
                -2.9122704873242564
            ]
        },
        {
            "positions": [
                -1.409896614448615,
                -1.4071063188802468,
                1.798028679955159,
                -0.6568702075355273,
                1.1138281647667885,
                -2.7879568445014664
            ]
        },
        {
            "positions": [
                -1.3816004070684642,
                -1.444289542641266,
                1.720714880360139,
                -0.6968081734159777,
                1.046198017356148,
                -2.6636432016786764
            ]
        },
        {
            "positions": [
                -1.3533041996883133,
                -1.4814727664022855,
                1.643401080765119,
                -0.7367461392964282,
                0.9785678699455073,
                -2.5393295588558864
            ]
        },
        {
            "positions": [
                -1.3250079923081626,
                -1.5186559901633048,
                1.5660872811700992,
                -0.7766841051768786,
                0.9109377225348667,
                -2.415015916033097
            ]
        },
        {
            "positions": [
                -1.2967117849280116,
                -1.555839213924324,
                1.488773481575079,
                -0.816622071057329,
                0.843307575124226,
                -2.290702273210307
            ]
        },
        {
            "positions": [
                -1.268415577547861,
                -1.5930224376853432,
                1.4114596819800593,
                -0.8565600369377794,
                0.7756774277135854,
                -2.166388630387517
            ]
        },
        {
            "positions": [
                -1.2401193701677102,
                -1.6302056614463627,
                1.3341458823850392,
                -0.8964980028182299,
                0.7080472803029447,
                -2.0420749875647273
            ]
        },
        {
            "positions": [
                -1.2118231627875593,
                -1.667388885207382,
                1.2568320827900192,
                -0.9364359686986803,
                0.6404171328923041,
                -1.9177613447419373
            ]
        },
        {
            "positions": [
                -1.1835269554074086,
                -1.7045721089684012,
                1.1795182831949993,
                -0.9763739345791307,
                0.5727869854816634,
                -1.7934477019191473
            ]
        },
        {
            "positions": [
                -1.155230748027258,
                -1.7417553327294204,
                1.1022044835999796,
                -1.016311900459581,
                0.5051568380710229,
                -1.6691340590963575
            ]
        },
        {
            "positions": [
                -1.126934540647107,
                -1.7789385564904396,
                1.0248906840049594,
                -1.0562498663400315,
                0.4375266906603822,
                -1.5448204162735675
            ]
        },
        {
            "positions": [
                -1.0986383332669563,
                -1.8161217802514589,
                0.9475768844099395,
                -1.0961878322204819,
                0.3698965432497415,
                -1.4205067734507777
            ]
        },
        {
            "positions": [
                -1.227756838882681,
                -1.7948516683630944,
                1.0393178700260803,
                -1.172823486488356,
                0.36475236972042646,
                -1.4738944902075075
            ]
        },
        {
            "positions": [
                -1.3568753444984054,
                -1.77358155647473,
                1.131058855642221,
                -1.24945914075623,
                0.35960819619111145,
                -1.5272822069642376
            ]
        },
        {
            "positions": [
                -1.48599385011413,
                -1.7523114445863652,
                1.2227998412583618,
                -1.3260947950241042,
                0.35446402266179644,
                -1.5806699237209676
            ]
        },
        {
            "positions": [
                -1.6151123557298548,
                -1.7310413326980008,
                1.3145408268745025,
                -1.4027304492919783,
                0.3493198491324814,
                -1.6340576404776974
            ]
        },
        {
            "positions": [
                -1.7442308613455795,
                -1.7097712208096363,
                1.4062818124906433,
                -1.4793661035598527,
                0.3441756756031663,
                -1.6874453572344272
            ]
        },
        {
            "positions": [
                -1.8733493669613042,
                -1.6885011089212718,
                1.498022798106784,
                -1.5560017578277268,
                0.3390315020738513,
                -1.7408330739911573
            ]
        },
        {
            "positions": [
                -2.0024678725770286,
                -1.6672309970329073,
                1.5897637837229248,
                -1.632637412095601,
                0.3338873285445363,
                -1.7942207907478873
            ]
        },
        {
            "positions": [
                -2.131586378192753,
                -1.6459608851445429,
                1.6815047693390657,
                -1.709273066363475,
                0.3287431550152212,
                -1.8476085075046171
            ]
        },
        {
            "positions": [
                -2.260704883808478,
                -1.6246907732561784,
                1.7732457549552063,
                -1.7859087206313493,
                0.32359898148590616,
                -1.900996224261347
            ]
        },
        {
            "positions": [
                -2.389823389424203,
                -1.6034206613678137,
                1.8649867405713472,
                -1.8625443748992234,
                0.31845480795659115,
                -1.954383941018077
            ]
        },
        {
            "positions": [
                -2.5189418950399274,
                -1.5821505494794492,
                1.9567277261874878,
                -1.9391800291670975,
                0.31331063442727614,
                -2.007771657774807
            ]
        },
        {
            "positions": [
                -2.648060400655652,
                -1.5608804375910847,
                2.0484687118036287,
                -2.0158156834349716,
                0.30816646089796107,
                -2.061159374531537
            ]
        },
        {
            "positions": [
                -2.628705325220736,
                -1.516857755499414,
                2.044678483880002,
                -1.8863717965196714,
                0.3491578794852761,
                -2.1804225245115427
            ]
        },
        {
            "positions": [
                -2.6093502497858205,
                -1.4728350734077433,
                2.0408882559563755,
                -1.756927909604371,
                0.39014929807259113,
                -2.2996856744915486
            ]
        },
        {
            "positions": [
                -2.5899951743509044,
                -1.4288123913160728,
                2.0370980280327484,
                -1.6274840226890706,
                0.43114071665990616,
                -2.4189488244715545
            ]
        },
        {
            "positions": [
                -2.5706400989159888,
                -1.3847897092244021,
                2.033307800109122,
                -1.4980401357737703,
                0.4721321352472212,
                -2.5382119744515603
            ]
        },
        {
            "positions": [
                -2.551285023481073,
                -1.3407670271327314,
                2.0295175721854952,
                -1.36859624885847,
                0.5131235538345362,
                -2.657475124431566
            ]
        },
        {
            "positions": [
                -2.5319299480461575,
                -1.296744345041061,
                2.0257273442618686,
                -1.2391523619431697,
                0.5541149724218513,
                -2.7767382744115725
            ]
        },
        {
            "positions": [
                -2.5125748726112414,
                -1.2527216629493902,
                2.0219371163382416,
                -1.1097084750278694,
                0.5951063910091663,
                -2.8960014243915784
            ]
        },
        {
            "positions": [
                -2.4932197971763257,
                -1.2086989808577195,
                2.018146888414615,
                -0.9802645881125689,
                0.6360978095964813,
                -3.0152645743715842
            ]
        },
        {
            "positions": [
                -2.47386472174141,
                -1.1646762987660488,
                2.0143566604909884,
                -0.8508207011972686,
                0.6770892281837964,
                -3.13452772435159
            ]
        }
    ]
}