{
    "goal": {
        "global_pose": {
            "orientation": {
                "w": 0.7047431468963623,
                "x": -0.7094548344612122,
                "y": 0.0024358443915843964,
                "z": -0.0022348060738295317
            },
            "position": {
                "x": 0.6094750761985779,
                "y": 0.3671506643295288,
                "z": 0.19426114857196808
            }
        },
        "name": "move_to_magneteinheit_A"
    },
    "id": "BiEST_move_to_magneteinheit_A_19",
    "joint_names": [
        "shoulder_pan_joint",
        "shoulder_lift_joint",
        "elbow_joint",
        "wrist_1_joint",
        "wrist_2_joint",
        "wrist_3_joint"
    ],
    "metrics": {
        "cart_traj_len": 3.020150339665649,
        "distance_elbow_joint": 3.9124037725564547,
        "distance_shoulder_lift_joint": 0.6267932936102206,
        "distance_shoulder_pan_joint": 2.820595326108154,
        "distance_wrist_1_joint": 3.4673700049350513,
        "distance_wrist_2_joint": 1.629963309998374,
        "distance_wrist_3_joint": 0.46760961992369343,
        "smoothness": 0.12540676570726617,
        "time": 0.095827575,
        "traj_len": 3.5950987924022266,
        "weighted_distance": 4.353996771003943
    },
    "planner": "BiEST",
    "start": {
        "state": {
            "elbow_joint": -1.9196185241190666,
            "shoulder_lift_joint": -1.2443396400964142,
            "shoulder_pan_joint": 2.6996025414629847,
            "wrist_1_joint": -1.5485510000780065,
            "wrist_2_joint": -1.5709468930060704,
            "wrist_3_joint": 0.4420197071253992
        }
    },
    "waypoints": [
        {
            "positions": [
                2.6996025414629847,
                -1.2443396400964142,
                -1.9196185241190666,
                -1.5485510000780065,
                -1.5709468930060704,
                0.4420197071253992
            ]
        },
        {
            "positions": [
                2.603212921016581,
                -1.2471743728975624,
                -1.801869175024672,
                -1.4446529302642486,
                -1.5162834075422646,
                0.4280186432861955
            ]
        },
        {
            "positions": [
                2.506823300570177,
                -1.2500091056987106,
                -1.6841198259302774,
                -1.3407548604504906,
                -1.4616199220784587,
                0.41401757944699186
            ]
        },
        {
            "positions": [
                2.410433680123773,
                -1.2528438384998588,
                -1.5663704768358828,
                -1.236856790636733,
                -1.406956436614653,
                0.40001651560778817
            ]
        },
        {
            "positions": [
                2.3140440596773693,
                -1.255678571301007,
                -1.4486211277414882,
                -1.132958720822975,
                -1.3522929511508472,
                0.38601545176858454
            ]
        },
        {
            "positions": [
                2.2176544392309654,
                -1.2585133041021552,
                -1.3308717786470936,
                -1.029060651009217,
                -1.2976294656870413,
                0.37201438792938085
            ]
        },
        {
            "positions": [
                2.1212648187845615,
                -1.2613480369033034,
                -1.213122429552699,
                -0.9251625811954591,
                -1.2429659802232356,
                0.35801332409017717
            ]
        },
        {
            "positions": [
                2.0248751983381577,
                -1.2641827697044516,
                -1.0953730804583044,
                -0.8212645113817012,
                -1.1883024947594296,
                0.34401226025097353
            ]
        },
        {
            "positions": [
                1.928485577891754,
                -1.2670175025055996,
                -0.9776237313639098,
                -0.7173664415679434,
                -1.133639009295624,
                0.33001119641176985
            ]
        },
        {
            "positions": [
                1.83209595744535,
                -1.2698522353067478,
                -0.8598743822695152,
                -0.6134683717541853,
                -1.0789755238318182,
                0.31601013257256616
            ]
        },
        {
            "positions": [
                1.735706336998946,
                -1.272686968107896,
                -0.7421250331751206,
                -0.5095703019404274,
                -1.0243120383680124,
                0.30200906873336253
            ]
        },
        {
            "positions": [
                1.6393167165525424,
                -1.2755217009090443,
                -0.624375684080726,
                -0.4056722321266697,
                -0.9696485529042065,
                0.28800800489415884
            ]
        },
        {
            "positions": [
                1.5429270961061385,
                -1.2783564337101925,
                -0.5066263349863314,
                -0.30177416231291176,
                -0.9149850674404008,
                0.27400694105495516
            ]
        },
        {
            "positions": [
                1.4465374756597347,
                -1.2811911665113407,
                -0.38887698589193676,
                -0.19787609249915383,
                -0.8603215819765948,
                0.2600058772157515
            ]
        },
        {
            "positions": [
                1.3501478552133308,
                -1.284025899312489,
                -0.27112763679754215,
                -0.0939780226853959,
                -0.8056580965127891,
                0.24600481337654784
            ]
        },
        {
            "positions": [
                1.253758234766927,
                -1.286860632113637,
                -0.15337828770314754,
                0.00992004712836203,
                -0.7509946110489834,
                0.23200374953734418
            ]
        },
        {
            "positions": [
                1.1573686143205233,
                -1.2896953649147853,
                -0.035628938608752936,
                0.11381811694211974,
                -0.6963311255851775,
                0.21800268569814052
            ]
        },
        {
            "positions": [
                1.0609789938741194,
                -1.2925300977159335,
                0.08212041048564167,
                0.21771618675587767,
                -0.6416676401213718,
                0.20400162185893686
            ]
        },
        {
            "positions": [
                0.9645893734277153,
                -1.2953648305170817,
                0.19986975958003628,
                0.3216142565696358,
                -0.5870041546575657,
                0.19000055801973315
            ]
        },
        {
            "positions": [
                0.8681997529813115,
                -1.29819956331823,
                0.3176191086744309,
                0.42551232638339376,
                -0.53234066919376,
                0.17599949418052951
            ]
        },
        {
            "positions": [
                0.7718101325349076,
                -1.3010342961193782,
                0.4353684577688255,
                0.5294103961971517,
                -0.47767718372995427,
                0.16199843034132583
            ]
        },
        {
            "positions": [
                0.675420512088504,
                -1.3038690289205261,
                0.5531178068632201,
                0.6333084660109096,
                -0.4230136982661483,
                0.14799736650212214
            ]
        },
        {
            "positions": [
                0.5790308916421001,
                -1.3067037617216744,
                0.6708671559576147,
                0.7372065358246671,
                -0.3683502128023426,
                0.1339963026629185
            ]
        },
        {
            "positions": [
                0.4826412711956962,
                -1.3095384945228226,
                0.7886165050520093,
                0.841104605638425,
                -0.31368672733853686,
                0.11999523882371482
            ]
        },
        {
            "positions": [
                0.38625165074929235,
                -1.3123732273239708,
                0.9063658541464039,
                0.945002675452183,
                -0.25902324187473114,
                0.10599417498451119
            ]
        },
        {
            "positions": [
                0.2898620303028885,
                -1.315207960125119,
                1.0241152032407985,
                1.0489007452659413,
                -0.2043597564109252,
                0.0919931111453075
            ]
        },
        {
            "positions": [
                0.19347240985648462,
                -1.3180426929262672,
                1.1418645523351931,
                1.1527988150796988,
                -0.14969627094711924,
                0.07799204730610382
            ]
        },
        {
            "positions": [
                0.09708278941008075,
                -1.3208774257274154,
                1.2596139014295877,
                1.2566968848934568,
                -0.09503278548331351,
                0.06399098346690019
            ]
        },
        {
            "positions": [
                0.0006931689636768684,
                -1.3237121585285636,
                1.3773632505239823,
                1.3605949547072145,
                -0.04036930001950774,
                0.049989919627696514
            ]
        },
        {
            "positions": [
                0.010623272348151915,
                -1.2259283890683872,
                1.4911583809529483,
                1.4642384753898694,
                -0.0639306215507735,
                0.03595010254430703
            ]
        },
        {
            "positions": [
                0.02055337573262696,
                -1.1281446196082108,
                1.6049535113819142,
                1.5678819960725243,
                -0.08749194308203925,
                0.021910285460917535
            ]
        },
        {
            "positions": [
                0.03048347911710201,
                -1.0303608501480344,
                1.7187486418108804,
                1.6715255167551792,
                -0.11105326461330502,
                0.007870468377528042
            ]
        },
        {
            "positions": [
                0.040413582501577054,
                -0.9325770806878579,
                1.8325437722398463,
                1.7751690374378342,
                -0.13461458614457078,
                -0.006169348705861444
            ]
        },
        {
            "positions": [
                0.08139635253705027,
                -0.8544342320191751,
                1.9126645103386173,
                1.8469940211474387,
                -0.13204437070119668,
                0.003540933340354987
            ]
        },
        {
            "positions": [
                0.1223791225725235,
                -0.7762913833504924,
                1.9927852484373882,
                1.9188190048570433,
                -0.1294741552578226,
                0.013251215386571417
            ]
        }
    ]
}