{
    "goal": {
        "global_pose": {
            "orientation": {
                "w": 0.005598929693374612,
                "x": 0.007748599140229565,
                "y": 0.7110244013736278,
                "z": -0.7031023480610252
            },
            "position": {
                "x": 0.1141497679147869,
                "y": -0.7141253447532654,
                "z": 0.3711530566215515
            }
        },
        "name": "move_to_auspresseinheit_B"
    },
    "id": "BiEST_move_to_auspresseinheit_B_113",
    "joint_names": [
        "shoulder_pan_joint",
        "shoulder_lift_joint",
        "elbow_joint",
        "wrist_1_joint",
        "wrist_2_joint",
        "wrist_3_joint"
    ],
    "metrics": {
        "cart_traj_len": 0.5648649750831856,
        "distance_elbow_joint": 0.06680240523224179,
        "distance_shoulder_lift_joint": 0.29460924534658206,
        "distance_shoulder_pan_joint": 0.5759788043553327,
        "distance_wrist_1_joint": 0.34100771309751754,
        "distance_wrist_2_joint": 0.9978865831721175,
        "distance_wrist_3_joint": 0.0068447084719909235,
        "smoothness": 2.5376526478085547e-16,
        "time": 0.10906753699999999,
        "traj_len": 1.5110027993606705,
        "weighted_distance": 1.9067546179016848
    },
    "planner": "BiEST",
    "start": {
        "state": {
            "elbow_joint": 2.0193083361928714,
            "shoulder_lift_joint": -1.1220246554650708,
            "shoulder_pan_joint": -1.0952077554168747,
            "wrist_1_joint": -0.8559753972642168,
            "wrist_2_joint": 0.4759566250798843,
            "wrist_3_joint": -3.1240929996934557
        }
    },
    "waypoints": [
        {
            "positions": [
                -1.0952077554168747,
                -1.1220246554650708,
                2.0193083361928714,
                -0.8559753972642168,
                0.4759566250798843,
                -3.1240929996934557
            ]
        },
        {
            "positions": [
                -1.1912042228094302,
                -1.1711261963561679,
                2.008174601987498,
                -0.7991407784146305,
                0.6422710556085706,
                -3.122952214948124
            ]
        },
        {
            "positions": [
                -1.2872006902019855,
                -1.2202277372472647,
                1.997040867782124,
                -0.7423061595650443,
                0.8085854861372568,
                -3.121811430202792
            ]
        },
        {
            "positions": [
                -1.383197157594541,
                -1.2693292781383618,
                1.9859071335767506,
                -0.685471540715458,
                0.9748999166659431,
                -3.1206706454574604
            ]
        },
        {
            "positions": [
                -1.4791936249870963,
                -1.318430819029459,
                1.974773399371377,
                -0.6286369218658718,
                1.1412143471946292,
                -3.1195298607121282
            ]
        },
        {
            "positions": [
                -1.575190092379652,
                -1.3675323599205558,
                1.9636396651660033,
                -0.5718023030162855,
                1.3075287777233155,
                -3.1183890759667965
            ]
        },
        {
            "positions": [
                -1.6711865597722073,
                -1.4166339008116529,
                1.9525059309606296,
                -0.5149676841666992,
                1.4738432082520019,
                -3.1172482912214647
            ]
        }
    ]
}