{
    "goal": {
        "global_pose": {
            "orientation": {
                "w": 0.7047431468963623,
                "x": -0.7094548344612122,
                "y": 0.0024358443915843964,
                "z": -0.0022348060738295317
            },
            "position": {
                "x": 0.6094750761985779,
                "y": 0.3671506643295288,
                "z": 0.19426114857196808
            }
        },
        "name": "move_to_magneteinheit_A"
    },
    "id": "BiEST_move_to_magneteinheit_A_3",
    "joint_names": [
        "shoulder_pan_joint",
        "shoulder_lift_joint",
        "elbow_joint",
        "wrist_1_joint",
        "wrist_2_joint",
        "wrist_3_joint"
    ],
    "metrics": {
        "cart_traj_len": 3.104694637404263,
        "distance_elbow_joint": 3.8760197849349938,
        "distance_shoulder_lift_joint": 0.23786381861940908,
        "distance_shoulder_pan_joint": 2.810643690705434,
        "distance_wrist_1_joint": 4.600457994431941,
        "distance_wrist_2_joint": 1.695200349997466,
        "distance_wrist_3_joint": 2.588004616175016,
        "smoothness": 0.25225050227214657,
        "time": 0.081643579,
        "traj_len": 3.9759514905069273,
        "weighted_distance": 5.223012333093202
    },
    "planner": "BiEST",
    "start": {
        "state": {
            "elbow_joint": -1.9196185241190666,
            "shoulder_lift_joint": -1.2443396400964142,
            "shoulder_pan_joint": 2.6996025414629847,
            "wrist_1_joint": -1.5485510000780065,
            "wrist_2_joint": -1.5709468930060704,
            "wrist_3_joint": 0.4420197071253992
        }
    },
    "waypoints": [
        {
            "positions": [
                2.6996025414629847,
                -1.2443396400964142,
                -1.9196185241190666,
                -1.5485510000780065,
                -1.5709468930060704,
                0.4420197071253992
            ]
        },
        {
            "positions": [
                2.5984261936985886,
                -1.2383332453294509,
                -1.8072230230325688,
                -1.4440378648865997,
                -1.5259530321591153,
                0.4603411429192196
            ]
        },
        {
            "positions": [
                2.4972498459341925,
                -1.2323268505624878,
                -1.6948275219460707,
                -1.3395247296951929,
                -1.4809591713121604,
                0.4786625787130401
            ]
        },
        {
            "positions": [
                2.3960734981697964,
                -1.2263204557955245,
                -1.5824320208595726,
                -1.2350115945037863,
                -1.4359653104652053,
                0.4969840145068605
            ]
        },
        {
            "positions": [
                2.2948971504054003,
                -1.2203140610285614,
                -1.4700365197730747,
                -1.1304984593123795,
                -1.3909714496182501,
                0.515305450300681
            ]
        },
        {
            "positions": [
                2.193720802641004,
                -1.2143076662615981,
                -1.3576410186865768,
                -1.0259853241209727,
                -1.3459775887712953,
                0.5336268860945014
            ]
        },
        {
            "positions": [
                2.0925444548766086,
                -1.208301271494635,
                -1.2452455176000787,
                -0.9214721889295658,
                -1.3009837279243401,
                0.5519483218883219
            ]
        },
        {
            "positions": [
                1.9913681071122122,
                -1.2022948767276718,
                -1.1328500165135809,
                -0.816959053738159,
                -1.2559898670773852,
                0.5702697576821423
            ]
        },
        {
            "positions": [
                1.8901917593478161,
                -1.1962884819607087,
                -1.0204545154270828,
                -0.7124459185467522,
                -1.2109960062304301,
                0.5885911934759628
            ]
        },
        {
            "positions": [
                1.7890154115834203,
                -1.1902820871937454,
                -0.9080590143405849,
                -0.6079327833553455,
                -1.1660021453834752,
                0.6069126292697832
            ]
        },
        {
            "positions": [
                1.687839063819024,
                -1.1842756924267823,
                -0.7956635132540868,
                -0.5034196481639386,
                -1.1210082845365201,
                0.6252340650636037
            ]
        },
        {
            "positions": [
                1.586662716054628,
                -1.178269297659819,
                -0.6832680121675889,
                -0.398906512972532,
                -1.076014423689565,
                0.6435555008574241
            ]
        },
        {
            "positions": [
                1.485486368290232,
                -1.172262902892856,
                -0.5708725110810908,
                -0.2943933777811252,
                -1.0310205628426101,
                0.6618769366512446
            ]
        },
        {
            "positions": [
                1.3843100205258358,
                -1.1662565081258927,
                -0.45847700999459295,
                -0.18988024258971836,
                -0.986026701995655,
                0.680198372445065
            ]
        },
        {
            "positions": [
                1.2831336727614397,
                -1.1602501133589294,
                -0.3460815089080951,
                -0.08536710739831155,
                -0.9410328411487,
                0.6985198082388855
            ]
        },
        {
            "positions": [
                1.1819573249970439,
                -1.1542437185919663,
                -0.2336860078215972,
                0.019146027793095044,
                -0.896038980301745,
                0.7168412440327059
            ]
        },
        {
            "positions": [
                1.0807809772326475,
                -1.148237323825003,
                -0.12129050673509889,
                0.12365916298450208,
                -0.8510451194547899,
                0.7351626798265263
            ]
        },
        {
            "positions": [
                0.9796046294682517,
                -1.14223092905804,
                -0.008895005648601018,
                0.22817229817590867,
                -0.8060512586078349,
                0.7534841156203468
            ]
        },
        {
            "positions": [
                0.8784282817038556,
                -1.1362245342910766,
                0.10350049543789686,
                0.3326854333673155,
                -0.7610573977608799,
                0.7718055514141672
            ]
        },
        {
            "positions": [
                0.7772519339394595,
                -1.1302181395241135,
                0.21589599652439473,
                0.4371985685587223,
                -0.7160635369139249,
                0.7901269872079877
            ]
        },
        {
            "positions": [
                0.6760755861750631,
                -1.1242117447571502,
                0.32829149761089305,
                0.5417117037501293,
                -0.6710696760669698,
                0.8084484230018081
            ]
        },
        {
            "positions": [
                0.5748992384106675,
                -1.1182053499901872,
                0.4406869986973909,
                0.6462248389415357,
                -0.6260758152200148,
                0.8267698587956286
            ]
        },
        {
            "positions": [
                0.4737228906462714,
                -1.1121989552232239,
                0.5530824997838888,
                0.7507379741329425,
                -0.5810819543730598,
                0.845091294589449
            ]
        },
        {
            "positions": [
                0.3725465428818753,
                -1.1061925604562608,
                0.6654780008703867,
                0.8552511093243493,
                -0.5360880935261048,
                0.8634127303832695
            ]
        },
        {
            "positions": [
                0.2713701951174792,
                -1.1001861656892975,
                0.777873501956885,
                0.9597642445157561,
                -0.49109423267914964,
                0.8817341661770899
            ]
        },
        {
            "positions": [
                0.17019384735308307,
                -1.0941797709223344,
                0.8902690030433829,
                1.064277379707163,
                -0.44610037183219453,
                0.9000556019709103
            ]
        },
        {
            "positions": [
                0.06901749958868685,
                -1.0881733761553711,
                1.0026645041298805,
                1.16879051489857,
                -0.40110651098523953,
                0.9183770377647308
            ]
        },
        {
            "positions": [
                0.05839278739428208,
                -1.0848988987332806,
                1.0689359035179398,
                1.0666024420458942,
                -0.36942155205267885,
                1.0394145200246943
            ]
        },
        {
            "positions": [
                0.04776807519987731,
                -1.08162442131119,
                1.1352073029059988,
                0.9644143691932183,
                -0.33773659312011817,
                1.1604520022846576
            ]
        },
        {
            "positions": [
                0.03714336300547254,
                -1.0783499438890995,
                1.2014787022940578,
                0.8622262963405425,
                -0.3060516341875575,
                1.281489484544621
            ]
        },
        {
            "positions": [
                0.026518650811067773,
                -1.075075466467009,
                1.267750101682117,
                0.7600382234878666,
                -0.2743666752549968,
                1.4025269668045843
            ]
        },
        {
            "positions": [
                0.015893938616662995,
                -1.0718009890449185,
                1.3340215010701764,
                0.6578501506351907,
                -0.24268171632243613,
                1.5235644490645477
            ]
        },
        {
            "positions": [
                0.00526922642225823,
                -1.068526511622828,
                1.4002929004582354,
                0.5556620777825149,
                -0.21099675738987544,
                1.644601931324511
            ]
        },
        {
            "positions": [
                0.016900263988728896,
                -1.0747315806374103,
                1.4559037364940046,
                0.4286632735485839,
                -0.17747173595174842,
                1.7831441705221014
            ]
        },
        {
            "positions": [
                0.028531301555199562,
                -1.0809366496519925,
                1.5115145725297738,
                0.30166446931465296,
                -0.14394671451362137,
                1.921686409719692
            ]
        },
        {
            "positions": [
                0.04016233912167023,
                -1.0871417186665748,
                1.567125408565543,
                0.174665665080722,
                -0.11042169307549435,
                2.0602286489172825
            ]
        },
        {
            "positions": [
                0.051793376688140894,
                -1.0933467876811571,
                1.6227362446013123,
                0.04766686084679106,
                -0.0768966716373673,
                2.198770888114873
            ]
        },
        {
            "positions": [
                0.06342441425461157,
                -1.0995518566957394,
                1.6783470806370815,
                -0.07933194338713989,
                -0.043371650199240275,
                2.337313127312463
            ]
        },
        {
            "positions": [
                0.07505545182108223,
                -1.1057569257103217,
                1.7339579166728507,
                -0.20633074762107084,
                -0.009846628761113252,
                2.4758553665100536
            ]
        },
        {
            "positions": [
                0.08668648938755288,
                -1.111961994724904,
                1.78956875270862,
                -0.3333295518550017,
                0.02367839267701377,
                2.614397605707644
            ]
        },
        {
            "positions": [
                0.09831752695402356,
                -1.1181670637394863,
                1.8451795887443891,
                -0.46032835608893274,
                0.05720341411514085,
                2.7529398449052342
            ]
        },
        {
            "positions": [
                0.10994856452049423,
                -1.1243721327540686,
                1.9007904247801584,
                -0.5873271603228637,
                0.09072843555326787,
                2.891482084102825
            ]
        },
        {
            "positions": [
                0.12157960208696489,
                -1.1305772017686508,
                1.9564012608159276,
                -0.7143259645567945,
                0.12425345699139492,
                3.0300243233004154
            ]
        }
    ]
}