{
    "goal": {
        "global_pose": {
            "orientation": {
                "w": 0.7031023502349854,
                "x": -0.7110244035720825,
                "y": 0.007748599164187908,
                "z": 0.005598929710686207
            },
            "position": {
                "x": 0.11585023208521307,
                "y": 0.44412534475326537,
                "z": 0.3711530566215515
            }
        },
        "name": "move_to_auspresseinheit_A"
    },
    "id": "BiEST_move_to_auspresseinheit_A_87",
    "joint_names": [
        "shoulder_pan_joint",
        "shoulder_lift_joint",
        "elbow_joint",
        "wrist_1_joint",
        "wrist_2_joint",
        "wrist_3_joint"
    ],
    "metrics": {
        "cart_traj_len": 0.7214965937251785,
        "distance_elbow_joint": 0.4298659170634065,
        "distance_shoulder_lift_joint": 0.5355398996353875,
        "distance_shoulder_pan_joint": 1.0419293611412328,
        "distance_wrist_1_joint": 1.4729589527326772,
        "distance_wrist_2_joint": 0.5967953263481294,
        "distance_wrist_3_joint": 1.8759941880653033,
        "smoothness": 1.087404230926508,
        "time": 0.108960537,
        "traj_len": 2.439894187252008,
        "weighted_distance": 3.4314466774521724
    },
    "planner": "BiEST",
    "start": {
        "state": {
            "elbow_joint": 2.4225746658250005,
            "shoulder_lift_joint": -1.3736534386056498,
            "shoulder_pan_joint": -0.3378633547517467,
            "wrist_1_joint": -1.0288598680537169,
            "wrist_2_joint": 1.233022673432363,
            "wrist_3_joint": -3.0940220416140027
        }
    },
    "waypoints": [
        {
            "positions": [
                -0.3378633547517467,
                -1.3736534386056498,
                2.4225746658250005,
                -1.0288598680537169,
                1.233022673432363,
                -3.0940220416140027
            ]
        },
        {
            "positions": [
                -0.28894279819586355,
                -1.4098885253234366,
                2.3997341461543638,
                -0.9273112229800426,
                1.1766167169984343,
                -3.001848165034763
            ]
        },
        {
            "positions": [
                -0.24002224163998037,
                -1.446123612041223,
                2.3768936264837266,
                -0.8257625779063684,
                1.1202107605645057,
                -2.909674288455524
            ]
        },
        {
            "positions": [
                -0.19110168508409722,
                -1.4823586987590098,
                2.35405310681309,
                -0.7242139328326942,
                1.063804804130577,
                -2.817500411876284
            ]
        },
        {
            "positions": [
                -0.14218112852821402,
                -1.5185937854767966,
                2.3312125871424527,
                -0.62266528775902,
                1.0073988476966482,
                -2.725326535297045
            ]
        },
        {
            "positions": [
                -0.09326057197233087,
                -1.5548288721945833,
                2.308372067471816,
                -0.5211166426853459,
                0.9509928912627195,
                -2.633152658717805
            ]
        },
        {
            "positions": [
                -0.04434001541644772,
                -1.5910639589123698,
                2.2855315478011793,
                -0.41956799761167163,
                0.8945869348287908,
                -2.5409787821385654
            ]
        },
        {
            "positions": [
                0.004580541139435457,
                -1.6272990456301566,
                2.262691028130542,
                -0.3180193525379975,
                0.8381809783948622,
                -2.448804905559326
            ]
        },
        {
            "positions": [
                0.05350109769531869,
                -1.6635341323479433,
                2.2398505084599054,
                -0.21647070746432318,
                0.7817750219609334,
                -2.3566310289800865
            ]
        },
        {
            "positions": [
                0.10242165425120181,
                -1.6997692190657299,
                2.2170099887892682,
                -0.11492206239064906,
                0.7253690655270046,
                -2.2644571524008468
            ]
        },
        {
            "positions": [
                0.151342210807085,
                -1.7360043057835166,
                2.1941694691186315,
                -0.013373417316974757,
                0.668963109093076,
                -2.1722832758216075
            ]
        },
        {
            "positions": [
                0.24346284340415184,
                -1.7648691445264366,
                2.2277462558448047,
                -0.08961883431629722,
                0.6744190694278831,
                -2.3313258462004254
            ]
        },
        {
            "positions": [
                0.3355834760012187,
                -1.7937339832693568,
                2.2613230425709774,
                -0.16586425131561966,
                0.6798750297626901,
                -2.4903684165792437
            ]
        },
        {
            "positions": [
                0.42770410859828556,
                -1.822598822012277,
                2.29489982929715,
                -0.24210966831494213,
                0.6853309900974971,
                -2.6494109869580615
            ]
        },
        {
            "positions": [
                0.5198247411953524,
                -1.851463660755197,
                2.3284766160233232,
                -0.3183550853142646,
                0.6907869504323042,
                -2.8084535573368794
            ]
        },
        {
            "positions": [
                0.6119453737924193,
                -1.880328499498117,
                2.3620534027494964,
                -0.39460050231358706,
                0.6962429107671113,
                -2.9674961277156977
            ]
        },
        {
            "positions": [
                0.7040660063894861,
                -1.9091933382410373,
                2.395630189475669,
                -0.47084591931290953,
                0.7016988711019183,
                -3.1265386980945156
            ]
        }
    ]
}