{
    "goal": {
        "global_pose": {
            "orientation": {
                "w": -0.4816463035849501,
                "x": 0.5182115481033762,
                "y": 0.4908360881923453,
                "z": -0.5084816262002911
            },
            "position": {
                "x": -0.8240239810943604,
                "y": -0.300875300988555,
                "z": 0.16403168439865112
            }
        },
        "name": "move_to_storage_C"
    },
    "id": "BiEST_move_to_storage_C_79",
    "joint_names": [
        "shoulder_pan_joint",
        "shoulder_lift_joint",
        "elbow_joint",
        "wrist_1_joint",
        "wrist_2_joint",
        "wrist_3_joint"
    ],
    "metrics": {
        "cart_traj_len": 0.5762208576595896,
        "distance_elbow_joint": 0.259843717246538,
        "distance_shoulder_lift_joint": 0.18992753379938954,
        "distance_shoulder_pan_joint": 0.49505712313269523,
        "distance_wrist_1_joint": 0.0851091629516908,
        "distance_wrist_2_joint": 1.0588581005626732,
        "distance_wrist_3_joint": 0.07019404057361545,
        "smoothness": 0.0,
        "time": 0.064552672,
        "traj_len": 1.4693500870339247,
        "weighted_distance": 1.8556252377374578
    },
    "planner": "BiEST",
    "start": {
        "state": {
            "elbow_joint": 2.010868314990456,
            "shoulder_lift_joint": -1.1634956873337592,
            "shoulder_pan_joint": -2.4736205022346125,
            "wrist_1_joint": -0.8367026794202681,
            "wrist_2_joint": 0.6746043897044499,
            "wrist_3_joint": -3.1496632123970403
        }
    },
    "waypoints": [
        {
            "positions": [
                -2.4736205022346125,
                -1.1634956873337592,
                2.010868314990456,
                -0.8367026794202681,
                0.6746043897044499,
                -3.1496632123970403
            ]
        },
        {
            "positions": [
                -2.5561300227567285,
                -1.1318410983671943,
                1.9675610287826995,
                -0.8225178189283197,
                0.8510807397982287,
                -3.137964205634771
            ]
        },
        {
            "positions": [
                -2.638639543278844,
                -1.1001865094006293,
                1.924253742574943,
                -0.8083329584363712,
                1.0275570898920077,
                -3.1262651988725016
            ]
        },
        {
            "positions": [
                -2.72114906380096,
                -1.0685319204340644,
                1.880946456367187,
                -0.7941480979444226,
                1.2040334399857864,
                -3.1145661921102326
            ]
        },
        {
            "positions": [
                -2.803658584323076,
                -1.0368773314674995,
                1.8376391701594306,
                -0.7799632374524742,
                1.3805097900795653,
                -3.1028671853479635
            ]
        },
        {
            "positions": [
                -2.8861681048451917,
                -1.0052227425009346,
                1.7943318839516742,
                -0.7657783769605258,
                1.5569861401733442,
                -3.091168178585694
            ]
        },
        {
            "positions": [
                -2.9686776253673077,
                -0.9735681535343697,
                1.7510245977439178,
                -0.7515935164685773,
                1.733462490267123,
                -3.079469171823425
            ]
        }
    ]
}