{
    "goal": {
        "global_pose": {
            "orientation": {
                "w": 0.7031023502349854,
                "x": -0.7110244035720825,
                "y": 0.007748599164187908,
                "z": 0.005598929710686207
            },
            "position": {
                "x": 0.11585023208521307,
                "y": 0.44412534475326537,
                "z": 0.3711530566215515
            }
        },
        "name": "move_to_auspresseinheit_A"
    },
    "id": "BiEST_move_to_auspresseinheit_A_21",
    "joint_names": [
        "shoulder_pan_joint",
        "shoulder_lift_joint",
        "elbow_joint",
        "wrist_1_joint",
        "wrist_2_joint",
        "wrist_3_joint"
    ],
    "metrics": {
        "cart_traj_len": 1.6531585017246717,
        "distance_elbow_joint": 0.03119656595132403,
        "distance_shoulder_lift_joint": 1.7011173655642644,
        "distance_shoulder_pan_joint": 2.95445508519619,
        "distance_wrist_1_joint": 7.712880130072694,
        "distance_wrist_2_joint": 6.05523473269154,
        "distance_wrist_3_joint": 2.3834795891591543,
        "smoothness": 0.6209692376058746,
        "time": 0.154597631,
        "traj_len": 4.564905636334136,
        "weighted_distance": 6.274825695564594
    },
    "planner": "BiEST",
    "start": {
        "state": {
            "elbow_joint": 2.4225746658250005,
            "shoulder_lift_joint": -1.3736534386056498,
            "shoulder_pan_joint": -0.3378633547517467,
            "wrist_1_joint": -1.0288598680537169,
            "wrist_2_joint": 1.233022673432363,
            "wrist_3_joint": -3.0940220416140027
        }
    },
    "waypoints": [
        {
            "positions": [
                -0.3378633547517467,
                -1.3736534386056498,
                2.4225746658250005,
                -1.0288598680537169,
                1.233022673432363,
                -3.0940220416140027
            ]
        },
        {
            "positions": [
                -0.37322156650289895,
                -1.4150109073484352,
                2.422557060497672,
                -0.8755834152409321,
                1.1111139205549132,
                -3.050814880376334
            ]
        },
        {
            "positions": [
                -0.4085797782540512,
                -1.4563683760912205,
                2.422539455170343,
                -0.7223069624281473,
                0.9892051676774634,
                -3.0076077191386656
            ]
        },
        {
            "positions": [
                -0.4439379900052034,
                -1.4977258448340056,
                2.4225218498430148,
                -0.5690305096153626,
                0.8672964148000134,
                -2.964400557900997
            ]
        },
        {
            "positions": [
                -0.4792962017563557,
                -1.539083313576791,
                2.422504244515686,
                -0.4157540568025778,
                0.7453876619225636,
                -2.9211933966633286
            ]
        },
        {
            "positions": [
                -0.5146544135075078,
                -1.5804407823195763,
                2.4224866391883575,
                -0.26247760398979303,
                0.6234789090451136,
                -2.87798623542566
            ]
        },
        {
            "positions": [
                -0.5500126252586601,
                -1.6217982510623616,
                2.4224690338610286,
                -0.10920115117700835,
                0.5015701561676638,
                -2.834779074187991
            ]
        },
        {
            "positions": [
                -0.5853708370098123,
                -1.6631557198051468,
                2.4224514285337,
                0.04407530163577644,
                0.3796614032902139,
                -2.7915719129503227
            ]
        },
        {
            "positions": [
                -0.6207290487609646,
                -1.704513188547932,
                2.4224338232063714,
                0.19735175444856123,
                0.2577526504127641,
                -2.748364751712654
            ]
        },
        {
            "positions": [
                -0.6560872605121169,
                -1.7458706572907174,
                2.422416217879043,
                0.350628207261346,
                0.13584389753531423,
                -2.705157590474985
            ]
        },
        {
            "positions": [
                -0.691445472263269,
                -1.7872281260335028,
                2.4223986125517145,
                0.5039046600741308,
                0.013935144657864162,
                -2.661950429237317
            ]
        },
        {
            "positions": [
                -0.7268036840144213,
                -1.8285855947762881,
                2.4223810072243857,
                0.6571811128869154,
                -0.10797360821958568,
                -2.618743267999648
            ]
        },
        {
            "positions": [
                -0.7621618957655736,
                -1.8699430635190732,
                2.4223634018970572,
                0.8104575656997002,
                -0.22988236109703553,
                -2.5755361067619797
            ]
        },
        {
            "positions": [
                -0.7975201075167258,
                -1.9113005322618586,
                2.4223457965697284,
                0.963734018512485,
                -0.35179111397448537,
                -2.532328945524311
            ]
        },
        {
            "positions": [
                -0.8328783192678779,
                -1.952658001004644,
                2.4223281912424,
                1.1170104713252698,
                -0.4736998668519352,
                -2.4891217842866427
            ]
        },
        {
            "positions": [
                -0.8682365310190303,
                -1.9940154697474293,
                2.422310585915071,
                1.2702869241380548,
                -0.5956086197293853,
                -2.445914623048974
            ]
        },
        {
            "positions": [
                -0.9035947427701825,
                -2.0353729384902146,
                2.4222929805877427,
                1.4235633769508393,
                -0.7175173726068349,
                -2.402707461811305
            ]
        },
        {
            "positions": [
                -0.9389529545213346,
                -2.0767304072329997,
                2.422275375260414,
                1.5768398297636244,
                -0.839426125484285,
                -2.359500300573637
            ]
        },
        {
            "positions": [
                -0.9743111662724868,
                -2.1180878759757853,
                2.4222577699330854,
                1.730116282576409,
                -0.9613348783617346,
                -2.316293139335968
            ]
        },
        {
            "positions": [
                -1.0096693780236392,
                -2.1594453447185704,
                2.422240164605757,
                1.883392735389194,
                -1.0832436312391847,
                -2.2730859780982993
            ]
        },
        {
            "positions": [
                -1.0450275897747914,
                -2.2008028134613555,
                2.422222559278428,
                2.0366691882019783,
                -1.2051523841166347,
                -2.229878816860631
            ]
        },
        {
            "positions": [
                -1.0803858015259438,
                -2.242160282204141,
                2.4222049539510997,
                2.189945641014763,
                -1.3270611369940848,
                -2.186671655622962
            ]
        },
        {
            "positions": [
                -1.115744013277096,
                -2.283517750946926,
                2.422187348623771,
                2.3432220938275474,
                -1.4489698898715344,
                -2.143464494385294
            ]
        },
        {
            "positions": [
                -1.151102225028248,
                -2.3248752196897113,
                2.4221697432964424,
                2.496498546640333,
                -1.5708786427489845,
                -2.100257333147625
            ]
        },
        {
            "positions": [
                -1.1864604367794003,
                -2.366232688432497,
                2.4221521379691136,
                2.6497749994531175,
                -1.692787395626434,
                -2.0570501719099568
            ]
        },
        {
            "positions": [
                -1.2218186485305527,
                -2.407590157175282,
                2.422134532641785,
                2.803051452265902,
                -1.8146961485038842,
                -2.0138430106722875
            ]
        },
        {
            "positions": [
                -1.2571768602817048,
                -2.448947625918067,
                2.4221169273144563,
                2.9563279050786866,
                -1.9366049013813338,
                -1.9706358494346194
            ]
        },
        {
            "positions": [
                -1.292535072032857,
                -2.4903050946608527,
                2.422099321987128,
                3.1096043578914716,
                -2.0585136542587836,
                -1.9274286881969507
            ]
        },
        {
            "positions": [
                -1.2156203271130461,
                -2.4678256442951194,
                2.420917736521226,
                2.972126823117337,
                -1.9522175617587687,
                -1.9742320049562623
            ]
        },
        {
            "positions": [
                -1.1387055821932355,
                -2.4453461939293866,
                2.4197361510553237,
                2.8346492883432015,
                -1.8459214692587538,
                -2.021035321715574
            ]
        },
        {
            "positions": [
                -1.0617908372734246,
                -2.4228667435636533,
                2.418554565589422,
                2.6971717535690667,
                -1.7396253767587386,
                -2.0678386384748855
            ]
        },
        {
            "positions": [
                -0.9848760923536137,
                -2.40038729319792,
                2.41737298012352,
                2.559694218794932,
                -1.6333292842587237,
                -2.1146419552341973
            ]
        },
        {
            "positions": [
                -0.9079613474338031,
                -2.377907842832187,
                2.416191394657618,
                2.422216684020797,
                -1.5270331917587088,
                -2.1614452719935087
            ]
        },
        {
            "positions": [
                -0.8310466025139922,
                -2.355428392466454,
                2.415009809191716,
                2.284739149246662,
                -1.4207370992586936,
                -2.2082485887528205
            ]
        },
        {
            "positions": [
                -0.7541318575941814,
                -2.3329489421007206,
                2.413828223725814,
                2.1472616144725274,
                -1.314441006758679,
                -2.255051905512132
            ]
        },
        {
            "positions": [
                -0.6772171126743706,
                -2.3104694917349877,
                2.412646638259912,
                2.009784079698392,
                -1.2081449142586638,
                -2.3018552222714437
            ]
        },
        {
            "positions": [
                -0.6003023677545598,
                -2.2879900413692544,
                2.4114650527940102,
                1.8723065449242573,
                -1.1018488217586488,
                -2.3486585390307555
            ]
        },
        {
            "positions": [
                -0.523387622834749,
                -2.265510591003521,
                2.410283467328108,
                1.7348290101501223,
                -0.9955527292586337,
                -2.395461855790067
            ]
        },
        {
            "positions": [
                -0.4464728779149383,
                -2.2430311406377883,
                2.409101881862206,
                1.5973514753759874,
                -0.889256636758619,
                -2.4422651725493782
            ]
        },
        {
            "positions": [
                -0.3695581329951274,
                -2.220551690272055,
                2.4079202963963042,
                1.4598739406018524,
                -0.7829605442586038,
                -2.48906848930869
            ]
        },
        {
            "positions": [
                -0.29264338807531665,
                -2.198072239906322,
                2.4067387109304024,
                1.3223964058277176,
                -0.6766644517585889,
                -2.535871806068002
            ]
        },
        {
            "positions": [
                -0.21572864315550588,
                -2.175592789540589,
                2.4055571254645,
                1.1849188710535827,
                -0.570368359258574,
                -2.5826751228273133
            ]
        },
        {
            "positions": [
                -0.13881389823569523,
                -2.1531133391748556,
                2.404375539998598,
                1.047441336279448,
                -0.46407226675855906,
                -2.629478439586625
            ]
        },
        {
            "positions": [
                -0.06189915331588414,
                -2.1306338888091227,
                2.4031939545326964,
                0.9099638015053126,
                -0.3577761742585439,
                -2.6762817563459365
            ]
        },
        {
            "positions": [
                0.015015591603926515,
                -2.1081544384433895,
                2.402012369066794,
                0.7724862667311778,
                -0.251480081758529,
                -2.7230850731052483
            ]
        },
        {
            "positions": [
                0.09193033652373739,
                -2.085674988077656,
                2.400830783600892,
                0.635008731957043,
                -0.14518398925851406,
                -2.76988838986456
            ]
        },
        {
            "positions": [
                0.16884508144354804,
                -2.0631955377119233,
                2.3996491981349903,
                0.49753119718290817,
                -0.03888789675849935,
                -2.8166917066238715
            ]
        },
        {
            "positions": [
                0.2457598263633589,
                -2.04071608734619,
                2.3984676126690885,
                0.3600536624087729,
                0.06740819574151624,
                -2.8634950233831833
            ]
        },
        {
            "positions": [
                0.3226745712831698,
                -2.0182366369804567,
                2.397286027203186,
                0.22257612763463808,
                0.17370428824153095,
                -2.9102983401424947
            ]
        },
        {
            "positions": [
                0.39958931620298044,
                -1.9957571866147237,
                2.3961044417372843,
                0.08509859286050325,
                0.28000038074154565,
                -2.9571016569018065
            ]
        },
        {
            "positions": [
                0.4765040611227913,
                -1.9732777362489906,
                2.3949228562713825,
                -0.05237894191363157,
                0.3862964732415608,
                -3.003904973661118
            ]
        },
        {
            "positions": [
                0.5534188060426022,
                -1.9507982858832573,
                2.3937412708054806,
                -0.18985647668776684,
                0.49259256574157595,
                -3.0507082904204297
            ]
        },
        {
            "positions": [
                0.6303335509624131,
                -1.9283188355175243,
                2.3925596853395783,
                -0.32733401146190166,
                0.5988886582415911,
                -3.097511607179741
            ]
        },
        {
            "positions": [
                0.7072482958822237,
                -1.9058393851517912,
                2.3913780998736764,
                -0.46481154623603627,
                0.7051847507416059,
                -3.144314923939053
            ]
        }
    ]
}