{
    "goal": {
        "global_pose": {
            "orientation": {
                "w": 0.7047431493862688,
                "x": -0.7094548369677653,
                "y": 0.0024358444001904,
                "z": -0.0022348060817251984
            },
            "position": {
                "x": -0.39052492380142206,
                "y": 0.3671506643295288,
                "z": 0.19426114857196808
            }
        },
        "name": "move_to_magneteinheit_D"
    },
    "id": "BiEST_move_to_magneteinheit_D_50",
    "joint_names": [
        "shoulder_pan_joint",
        "shoulder_lift_joint",
        "elbow_joint",
        "wrist_1_joint",
        "wrist_2_joint",
        "wrist_3_joint"
    ],
    "metrics": {
        "cart_traj_len": 4.638200739035966,
        "distance_elbow_joint": 3.11760715186689,
        "distance_shoulder_lift_joint": 1.213462796381082,
        "distance_shoulder_pan_joint": 3.004259866395894,
        "distance_wrist_1_joint": 2.0884744377562274,
        "distance_wrist_2_joint": 1.3572403113282512,
        "distance_wrist_3_joint": 0.6139238391273891,
        "smoothness": 0.6334671397448743,
        "time": 0.121515674,
        "traj_len": 3.375643405760705,
        "weighted_distance": 4.008557200564187
    },
    "planner": "BiEST",
    "start": {
        "state": {
            "elbow_joint": 0.749534889911806,
            "shoulder_lift_joint": -0.6476975780787326,
            "shoulder_pan_joint": -2.711696901376241,
            "wrist_1_joint": -0.07506478083263063,
            "wrist_2_joint": 0.43296659715538205,
            "wrist_3_joint": -3.14703540197715
        }
    },
    "waypoints": [
        {
            "positions": [
                -2.711696901376241,
                -0.6476975780787326,
                0.749534889911806,
                -0.07506478083263063,
                0.43296659715538205,
                -3.14703540197715
            ]
        },
        {
            "positions": [
                -2.774975673674237,
                -0.7180560756916965,
                0.6817134529537862,
                -0.11257651706308189,
                0.5078794417570336,
                -3.124685337015488
            ]
        },
        {
            "positions": [
                -2.838254445972233,
                -0.7884145733046602,
                0.6138920159957664,
                -0.15008825329353315,
                0.5827922863586852,
                -3.1023352720538258
            ]
        },
        {
            "positions": [
                -2.6816099118596712,
                -0.8607887995164144,
                0.5563642173331925,
                -0.15032261553902976,
                0.5122195923078499,
                -3.083678147408023
            ]
        },
        {
            "positions": [
                -2.524965377747109,
                -0.9331630257281687,
                0.49883641867061856,
                -0.1505569777845264,
                0.4416468982570144,
                -3.0650210227622203
            ]
        },
        {
            "positions": [
                -2.3683208436345473,
                -1.0055372519399228,
                0.4413086200080447,
                -0.150791340030023,
                0.3710742042061791,
                -3.0463638981164176
            ]
        },
        {
            "positions": [
                -2.2116763095219856,
                -1.077911478151677,
                0.3837808213454708,
                -0.15102570227551965,
                0.3005015101553437,
                -3.027706773470615
            ]
        },
        {
            "positions": [
                -2.0550317754094234,
                -1.1502857043634311,
                0.3262530226828969,
                -0.15126006452101626,
                0.22992881610450833,
                -3.009049648824812
            ]
        },
        {
            "positions": [
                -1.8983872412968619,
                -1.2226599305751853,
                0.268725224020323,
                -0.1514944267665129,
                0.15935612205367294,
                -2.9903925241790095
            ]
        },
        {
            "positions": [
                -1.7417427071843,
                -1.2950341567869397,
                0.2111974253577491,
                -0.1517287890120095,
                0.08878342800283756,
                -2.9717353995332068
            ]
        },
        {
            "positions": [
                -1.5850981730717382,
                -1.3674083829986938,
                0.15366962669517525,
                -0.15196315125750612,
                0.018210733952002234,
                -2.953078274887404
            ]
        },
        {
            "positions": [
                -1.428453638959176,
                -1.439782609210448,
                0.0961418280326013,
                -0.15219751350300276,
                -0.052361960098833205,
                -2.9344211502416013
            ]
        },
        {
            "positions": [
                -1.2718091048466142,
                -1.5121568354222021,
                0.03861402937002745,
                -0.15243187574849937,
                -0.12293465414966853,
                -2.9157640255957986
            ]
        },
        {
            "positions": [
                -1.1151645707340525,
                -1.5845310616339563,
                -0.018913769292546512,
                -0.152666237993996,
                -0.19350734820050397,
                -2.897106900949996
            ]
        },
        {
            "positions": [
                -0.9585200366214908,
                -1.6569052878457105,
                -0.07644156795512036,
                -0.15290060023949262,
                -0.2640800422513393,
                -2.878449776304193
            ]
        },
        {
            "positions": [
                -0.8018755025089286,
                -1.7292795140574646,
                -0.13396936661769432,
                -0.15313496248498926,
                -0.33465273630217474,
                -2.8597926516583905
            ]
        },
        {
            "positions": [
                -0.6452309683963666,
                -1.8016537402692188,
                -0.19149716528026814,
                -0.15336932473048587,
                -0.40522543035301006,
                -2.8411355270125878
            ]
        },
        {
            "positions": [
                -0.5975584110679207,
                -1.7982385655269608,
                -0.3528072725610817,
                -0.2978784011887091,
                -0.3969541156689244,
                -2.866548952118371
            ]
        },
        {
            "positions": [
                -0.549885853739475,
                -1.7948233907847029,
                -0.5141173798418952,
                -0.44238747764693237,
                -0.3886828009848387,
                -2.891962377224155
            ]
        },
        {
            "positions": [
                -0.5022132964110291,
                -1.7914082160424447,
                -0.6754274871227087,
                -0.5868965541051556,
                -0.38041148630075305,
                -2.9173758023299383
            ]
        },
        {
            "positions": [
                -0.45454073908258324,
                -1.7879930413001868,
                -0.8367375944035222,
                -0.7314056305633789,
                -0.37214017161666735,
                -2.942789227435722
            ]
        },
        {
            "positions": [
                -0.40686818175413736,
                -1.7845778665579288,
                -0.9980477016843358,
                -0.8759147070216022,
                -0.3638688569325817,
                -2.9682026525415055
            ]
        },
        {
            "positions": [
                -0.35919562442569153,
                -1.7811626918156707,
                -1.1593578089651493,
                -1.0204237834798255,
                -0.35559754224849605,
                -2.993616077647289
            ]
        },
        {
            "positions": [
                -0.31152306709724564,
                -1.7777475170734127,
                -1.320667916245963,
                -1.1649328599380488,
                -0.34732622756441034,
                -3.0190295027530727
            ]
        },
        {
            "positions": [
                -0.26385050976879987,
                -1.7743323423311548,
                -1.4819780235267763,
                -1.309441936396272,
                -0.3390549128803247,
                -3.044442927858856
            ]
        },
        {
            "positions": [
                -0.21617795244035398,
                -1.7709171675888968,
                -1.6432881308075897,
                -1.4539510128544955,
                -0.330783598196239,
                -3.06985635296464
            ]
        },
        {
            "positions": [
                -0.1685053951119081,
                -1.767501992846639,
                -1.8045982380884034,
                -1.5984600893127188,
                -0.32251228351215333,
                -3.0952697780704232
            ]
        },
        {
            "positions": [
                -0.12083283778346232,
                -1.7640868181043807,
                -1.9659083453692168,
                -1.7429691657709419,
                -0.3142409688280676,
                -3.120683203176207
            ]
        },
        {
            "positions": [
                -0.07316028045501645,
                -1.7606716433621228,
                -2.1272184526500304,
                -1.8874782422291652,
                -0.305969654143982,
                -3.1460966282819904
            ]
        },
        {
            "positions": [
                -0.12946435859635824,
                -1.7514093747203727,
                -2.2476453573025577,
                -2.0255087304090114,
                -0.245899089541869,
                -3.1445651968352784
            ]
        },
        {
            "positions": [
                -0.18576843673770005,
                -1.7421471060786229,
                -2.368072261955085,
                -2.163539218588858,
                -0.18582852493975605,
                -3.1430337653885663
            ]
        }
    ]
}