{
    "goal": {
        "global_pose": {
            "orientation": {
                "w": 0.005598929693374612,
                "x": 0.007748599140229565,
                "y": 0.7110244013736278,
                "z": -0.7031023480610252
            },
            "position": {
                "x": -0.8858502320852131,
                "y": -0.7141253447532654,
                "z": 0.3711530566215515
            }
        },
        "name": "move_to_auspresseinheit_C"
    },
    "id": "BiEST_move_to_auspresseinheit_C_123",
    "joint_names": [
        "shoulder_pan_joint",
        "shoulder_lift_joint",
        "elbow_joint",
        "wrist_1_joint",
        "wrist_2_joint",
        "wrist_3_joint"
    ],
    "metrics": {
        "cart_traj_len": 0.4927891192921524,
        "distance_elbow_joint": 0.9959938963040184,
        "distance_shoulder_lift_joint": 0.3231235134109587,
        "distance_shoulder_pan_joint": 0.2564407757366678,
        "distance_wrist_1_joint": 0.6712602497727532,
        "distance_wrist_2_joint": 1.3060704682210336,
        "distance_wrist_3_joint": 0.0558569612350901,
        "smoothness": 4.844609574787718e-16,
        "time": 0.213215158,
        "traj_len": 1.8996699357205507,
        "weighted_distance": 2.38700450463431
    },
    "planner": "BiEST",
    "start": {
        "state": {
            "elbow_joint": 1.7527959577737207,
            "shoulder_lift_joint": -0.9740617694225068,
            "shoulder_pan_joint": -2.967991417825858,
            "wrist_1_joint": -0.759517768980727,
            "wrist_2_joint": 1.7443932448377408,
            "wrist_3_joint": -3.0840537646736568
        }
    },
    "waypoints": [
        {
            "positions": [
                -2.967991417825858,
                -0.9740617694225068,
                1.7527959577737207,
                -0.759517768980727,
                1.7443932448377408,
                -3.0840537646736568
            ]
        },
        {
            "positions": [
                -2.942347340252191,
                -0.9417494180814109,
                1.6531965681433187,
                -0.6923917440034517,
                1.6137861980156374,
                -3.089639460797166
            ]
        },
        {
            "positions": [
                -2.9167032626785243,
                -0.909437066740315,
                1.553597178512917,
                -0.6252657190261763,
                1.4831791511935342,
                -3.095225156920675
            ]
        },
        {
            "positions": [
                -2.8910591851048575,
                -0.8771247153992192,
                1.453997788882515,
                -0.558139694048901,
                1.3525721043714307,
                -3.100810853044184
            ]
        },
        {
            "positions": [
                -2.8654151075311907,
                -0.8448123640581233,
                1.3543983992521134,
                -0.4910136690716257,
                1.2219650575493275,
                -3.106396549167693
            ]
        },
        {
            "positions": [
                -2.8397710299575243,
                -0.8125000127170274,
                1.2547990096217114,
                -0.42388764409435037,
                1.091358010727224,
                -3.111982245291202
            ]
        },
        {
            "positions": [
                -2.8141269523838575,
                -0.7801876613759315,
                1.1551996199913097,
                -0.35676161911707505,
                0.9607509639051207,
                -3.117567941414711
            ]
        },
        {
            "positions": [
                -2.7884828748101906,
                -0.7478753100348356,
                1.0556002303609078,
                -0.2896355941397998,
                0.8301439170830174,
                -3.12315363753822
            ]
        },
        {
            "positions": [
                -2.762838797236524,
                -0.7155629586937398,
                0.956000840730506,
                -0.2225095691625244,
                0.6995368702609139,
                -3.128739333661729
            ]
        },
        {
            "positions": [
                -2.737194719662857,
                -0.6832506073526439,
                0.8564014511001041,
                -0.15538354418524902,
                0.5689298234388105,
                -3.134325029785238
            ]
        },
        {
            "positions": [
                -2.71155064208919,
                -0.6509382560115481,
                0.7568020614697023,
                -0.0882575192079738,
                0.43832277661670727,
                -3.139910725908747
            ]
        }
    ]
}