{
    "goal": {
        "global_pose": {
            "orientation": {
                "w": 0.5084816217422485,
                "x": -0.49083608388900757,
                "y": 0.5182115435600281,
                "z": -0.4816462993621826
            },
            "position": {
                "x": 0.5540239810943604,
                "y": 0.030875300988554955,
                "z": 0.16403168439865112
            }
        },
        "name": "move_to_storage_A"
    },
    "id": "BiEST_move_to_storage_A_117",
    "joint_names": [
        "shoulder_pan_joint",
        "shoulder_lift_joint",
        "elbow_joint",
        "wrist_1_joint",
        "wrist_2_joint",
        "wrist_3_joint"
    ],
    "metrics": {
        "cart_traj_len": 0.35365027413688266,
        "distance_elbow_joint": 0.44947745802005223,
        "distance_shoulder_lift_joint": 0.23437401571401528,
        "distance_shoulder_pan_joint": 0.46449149278647295,
        "distance_wrist_1_joint": 0.23713325623498316,
        "distance_wrist_2_joint": 1.091363366092597,
        "distance_wrist_3_joint": 0.10249339469486562,
        "smoothness": 2.2204460668324854e-16,
        "time": 0.07120331099999999,
        "traj_len": 1.6060301938453667,
        "weighted_distance": 2.028007986981387
    },
    "planner": "BiEST",
    "start": {
        "state": {
            "elbow_joint": 1.971548259319323,
            "shoulder_lift_joint": -1.1394851275133948,
            "shoulder_pan_joint": 0.1228115487234821,
            "wrist_1_joint": -0.7804723859257726,
            "wrist_2_joint": 0.12958671773740124,
            "wrist_3_joint": -3.192489227718131
        }
    },
    "waypoints": [
        {
            "positions": [
                0.1228115487234821,
                -1.1394851275133948,
                1.971548259319323,
                -0.7804723859257726,
                0.12958671773740124,
                -3.192489227718131
            ]
        },
        {
            "positions": [
                0.0564556211825574,
                -1.1729671297582542,
                2.035759324750759,
                -0.8143485653879131,
                0.28549577003634363,
                -3.177847314190293
            ]
        },
        {
            "positions": [
                -0.009900306358367306,
                -1.2064491320031134,
                2.099970390182195,
                -0.8482247448500535,
                0.4414048223352861,
                -3.1632054006624553
            ]
        },
        {
            "positions": [
                -0.07625623389929201,
                -1.2399311342479729,
                2.164181455613631,
                -0.882100924312194,
                0.5973138746342285,
                -3.1485634871346173
            ]
        },
        {
            "positions": [
                -0.1426121614402167,
                -1.273413136492832,
                2.228392521045067,
                -0.9159771037743344,
                0.7532229269331709,
                -3.1339215736067794
            ]
        },
        {
            "positions": [
                -0.20896808898114144,
                -1.3068951387376915,
                2.292603586476503,
                -0.9498532832364749,
                0.9091319792321134,
                -3.1192796600789414
            ]
        },
        {
            "positions": [
                -0.2753240165220661,
                -1.3403771409825507,
                2.356814651907939,
                -0.9837294626986153,
                1.0650410315310557,
                -3.1046377465511035
            ]
        },
        {
            "positions": [
                -0.34167994406299085,
                -1.37385914322741,
                2.421025717339375,
                -1.0176056421607558,
                1.2209500838299983,
                -3.0899958330232655
            ]
        }
    ]
}{
    "goal": {
        "global_pose": {
            "orientation": {
                "w": 0.5084816217422485,
                "x": -0.49083608388900757,
                "y": 0.5182115435600281,
                "z": -0.4816462993621826
            },
            "position": {
                "x": 0.5540239810943604,
                "y": 0.030875300988554955,
                "z": 0.16403168439865112
            }
        },
        "name": "move_to_storage_A"
    },
    "id": "BiEST_move_to_storage_A_117",
    "joint_names": [
        "shoulder_pan_joint",
        "shoulder_lift_joint",
        "elbow_joint",
        "wrist_1_joint",
        "wrist_2_joint",
        "wrist_3_joint"
    ],
    "metrics": {
        "cart_traj_len": 0.35326106440469834,
        "distance_elbow_joint": 0.4529182756172996,
        "distance_shoulder_lift_joint": 0.2326258665421601,
        "distance_shoulder_pan_joint": 0.4629228069111569,
        "distance_wrist_1_joint": 0.25952693957568895,
        "distance_wrist_2_joint": 1.0941681925703242,
        "distance_wrist_3_joint": 0.09616550863790829,
        "smoothness": 0.0,
        "time": 0.048812116,
        "traj_len": 1.611932873867438,
        "weighted_distance": 2.035768586867468
    },
    "planner": "BiEST",
    "start": {
        "state": {
            "elbow_joint": 1.97154746011099,
            "shoulder_lift_joint": -1.13948474672311,
            "shoulder_pan_joint": 0.12281154466712228,
            "wrist_1_joint": -0.7804688027058302,
            "wrist_2_joint": 0.12958655903071145,
            "wrist_3_joint": 3.0906928834467795
        }
    },
    "waypoints": [
        {
            "positions": [
                0.12281154466712228,
                -1.13948474672311,
                1.97154746011099,
                -0.7804688027058302,
                0.12958655903071145,
                3.0906928834467795
            ]
        },
        {
            "positions": [
                0.056679715108385584,
                -1.17271701337199,
                2.036250070913461,
                -0.8175440797880714,
                0.28589630082647205,
                3.104430813252195
            ]
        },
        {
            "positions": [
                -0.009452114450351115,
                -1.20594928002087,
                2.1009526817159325,
                -0.8546193568703128,
                0.4422060426222326,
                3.1181687430576104
            ]
        },
        {
            "positions": [
                -0.07558394400908781,
                -1.23918154666975,
                2.165655292518404,
                -0.891694633952554,
                0.5985157844179932,
                3.131906672863026
            ]
        },
        {
            "positions": [
                -0.1417157735678245,
                -1.27241381331863,
                2.2303579033208756,
                -0.9287699110347953,
                0.7548255262137539,
                3.1456446026684413
            ]
        },
        {
            "positions": [
                -0.2078476031265612,
                -1.30564607996751,
                2.295060514123347,
                -0.9658451881170366,
                0.9111352680095145,
                3.159382532473857
            ]
        },
        {
            "positions": [
                -0.2739794326852979,
                -1.33887834661639,
                2.359763124925818,
                -1.0029204651992778,
                1.067445009805275,
                3.173120462279272
            ]
        },
        {
            "positions": [
                -0.3401112622440346,
                -1.37211061326527,
                2.4244657357282895,
                -1.0399957422815191,
                1.2237547516010356,
                3.186858392084688
            ]
        }
    ]
}{
    "goal": {
        "global_pose": {
            "orientation": {
                "w": 0.5084816217422485,
                "x": -0.49083608388900757,
                "y": 0.5182115435600281,
                "z": -0.4816462993621826
            },
            "position": {
                "x": 0.5540239810943604,
                "y": 0.030875300988554955,
                "z": 0.16403168439865112
            }
        },
        "name": "move_to_storage_A"
    },
    "id": "BiEST_move_to_storage_A_117",
    "joint_names": [
        "shoulder_pan_joint",
        "shoulder_lift_joint",
        "elbow_joint",
        "wrist_1_joint",
        "wrist_2_joint",
        "wrist_3_joint"
    ],
    "metrics": {
        "cart_traj_len": 0.3538580755945444,
        "distance_elbow_joint": 0.44898168233102576,
        "distance_shoulder_lift_joint": 0.2338374057001349,
        "distance_shoulder_pan_joint": 0.4632652591753994,
        "distance_wrist_1_joint": 0.24076106803867314,
        "distance_wrist_2_joint": 1.0974161358395311,
        "distance_wrist_3_joint": 0.09252552061444419,
        "smoothness": 2.2204460668324854e-16,
        "time": 0.041823532,
        "traj_len": 1.605237387958307,
        "weighted_distance": 2.024849455343854
    },
    "planner": "BiEST",
    "start": {
        "state": {
            "elbow_joint": 1.9715472970024885,
            "shoulder_lift_joint": -1.1394870060712896,
            "shoulder_pan_joint": 0.12281152778156021,
            "wrist_1_joint": -0.780463741449964,
            "wrist_2_joint": 0.12958659822042276,
            "wrist_3_joint": 3.090690232415272
        }
    },
    "waypoints": [
        {
            "positions": [
                0.12281152778156021,
                -1.1394870060712896,
                1.9715472970024885,
                -0.780463741449964,
                0.12958659822042276,
                3.090690232415272
            ]
        },
        {
            "positions": [
                0.056630776470788874,
                -1.1728923497427375,
                2.0356875373354923,
                -0.814858179741203,
                0.28636033191178434,
                3.103908163931621
            ]
        },
        {
            "positions": [
                -0.009549974839982461,
                -1.2062976934141854,
                2.0998277776684957,
                -0.849252618032442,
                0.44313406560314594,
                3.1171260954479703
            ]
        },
        {
            "positions": [
                -0.0757307261507538,
                -1.2397030370856332,
                2.1639680180014995,
                -0.883647056323681,
                0.5999077992945075,
                3.1303440269643192
            ]
        },
        {
            "positions": [
                -0.14191147746152513,
                -1.2731083807570809,
                2.2281082583345033,
                -0.91804149461492,
                0.756681532985869,
                3.1435619584806687
            ]
        },
        {
            "positions": [
                -0.20809222877229652,
                -1.3065137244285288,
                2.292248498667507,
                -0.9524359329061591,
                0.9134552666772306,
                3.1567798899970176
            ]
        },
        {
            "positions": [
                -0.2742729800830678,
                -1.3399190680999766,
                2.3563887390005105,
                -0.9868303711973981,
                1.0702290003685924,
                3.169997821513367
            ]
        },
        {
            "positions": [
                -0.34045373139383917,
                -1.3733244117714245,
                2.4205289793335143,
                -1.0212248094886371,
                1.2270027340599539,
                3.183215753029716
            ]
        }
    ]
}