{
    "goal": {
        "global_pose": {
            "orientation": {
                "w": 0.005598929693374612,
                "x": 0.007748599140229565,
                "y": 0.7110244013736278,
                "z": -0.7031023480610252
            },
            "position": {
                "x": 0.1141497679147869,
                "y": -0.7141253447532654,
                "z": 0.3711530566215515
            }
        },
        "name": "move_to_auspresseinheit_B"
    },
    "id": "BiEST_move_to_auspresseinheit_B_127",
    "joint_names": [
        "shoulder_pan_joint",
        "shoulder_lift_joint",
        "elbow_joint",
        "wrist_1_joint",
        "wrist_2_joint",
        "wrist_3_joint"
    ],
    "metrics": {
        "cart_traj_len": 0.5640288192243202,
        "distance_elbow_joint": 0.061341264193738754,
        "distance_shoulder_lift_joint": 0.2947941969074095,
        "distance_shoulder_pan_joint": 0.5775210133830628,
        "distance_wrist_1_joint": 0.32286520698294074,
        "distance_wrist_2_joint": 0.98677362142727,
        "distance_wrist_3_joint": 0.0038429752428372765,
        "smoothness": 0.0,
        "time": 0.039549495,
        "traj_len": 1.49904578920634,
        "weighted_distance": 1.8879785637112367
    },
    "planner": "BiEST",
    "start": {
        "state": {
            "elbow_joint": 2.0193083361928714,
            "shoulder_lift_joint": -1.1220246554650708,
            "shoulder_pan_joint": -1.0952077554168747,
            "wrist_1_joint": -0.8559753972642168,
            "wrist_2_joint": 0.4759566250798843,
            "wrist_3_joint": -3.1240929996934557
        }
    },
    "waypoints": [
        {
            "positions": [
                -1.0952077554168747,
                -1.1220246554650708,
                2.0193083361928714,
                -0.8559753972642168,
                0.4759566250798843,
                -3.1240929996934557
            ]
        },
        {
            "positions": [
                -1.191461257647385,
                -1.1711570216163056,
                2.0090847921605817,
                -0.8021645294337266,
                0.6404188953177626,
                -3.1234525038196495
            ]
        },
        {
            "positions": [
                -1.2877147598778955,
                -1.2202893877675407,
                1.998861248128292,
                -0.7483536616032366,
                0.8048811655556409,
                -3.1228120079458432
            ]
        },
        {
            "positions": [
                -1.383968262108406,
                -1.2694217539187755,
                1.9886377040960022,
                -0.6945427937727464,
                0.9693434357935193,
                -3.122171512072037
            ]
        },
        {
            "positions": [
                -1.4802217643389164,
                -1.3185541200700104,
                1.9784141600637122,
                -0.6407319259422564,
                1.1338057060313975,
                -3.121531016198231
            ]
        },
        {
            "positions": [
                -1.576475266569427,
                -1.3676864862212454,
                1.9681906160314224,
                -0.5869210581117661,
                1.298267976269276,
                -3.1208905203244246
            ]
        },
        {
            "positions": [
                -1.6727287687999375,
                -1.4168188523724803,
                1.9579670719991327,
                -0.533110190281276,
                1.4627302465071543,
                -3.1202500244506184
            ]
        }
    ]
}