{
    "goal": {
        "global_pose": {
            "orientation": {
                "w": 0.005598929693374612,
                "x": 0.007748599140229565,
                "y": 0.7110244013736278,
                "z": -0.7031023480610252
            },
            "position": {
                "x": 0.1141497679147869,
                "y": -0.7141253447532654,
                "z": 0.3711530566215515
            }
        },
        "name": "move_to_auspresseinheit_B"
    },
    "id": "BiEST_move_to_auspresseinheit_B_122",
    "joint_names": [
        "shoulder_pan_joint",
        "shoulder_lift_joint",
        "elbow_joint",
        "wrist_1_joint",
        "wrist_2_joint",
        "wrist_3_joint"
    ],
    "metrics": {
        "cart_traj_len": 0.5641738079945163,
        "distance_elbow_joint": 0.06644497711701547,
        "distance_shoulder_lift_joint": 0.29236802944482587,
        "distance_shoulder_pan_joint": 0.5737504773746152,
        "distance_wrist_1_joint": 0.3389203468601859,
        "distance_wrist_2_joint": 1.007935671505528,
        "distance_wrist_3_joint": 0.0033055080300541384,
        "smoothness": 3.806478935924272e-16,
        "time": 0.07039487999999999,
        "traj_len": 1.5108689586897417,
        "weighted_distance": 1.9068801862618552
    },
    "planner": "BiEST",
    "start": {
        "state": {
            "elbow_joint": 2.0193083361928714,
            "shoulder_lift_joint": -1.1220246554650708,
            "shoulder_pan_joint": -1.0952077554168747,
            "wrist_1_joint": -0.8559753972642168,
            "wrist_2_joint": 0.4759566250798843,
            "wrist_3_joint": -3.1240929996934557
        }
    },
    "waypoints": [
        {
            "positions": [
                -1.0952077554168747,
                -1.1220246554650708,
                2.0193083361928714,
                -0.8559753972642168,
                0.4759566250798843,
                -3.1240929996934557
            ]
        },
        {
            "positions": [
                -1.1908328349793105,
                -1.1707526603725418,
                2.0082341733400355,
                -0.7994886727875191,
                0.643945903664139,
                -3.1235420816884467
            ]
        },
        {
            "positions": [
                -1.2864579145417463,
                -1.2194806652800128,
                1.9971600104871996,
                -0.7430019483108214,
                0.8119351822483936,
                -3.1229911636834378
            ]
        },
        {
            "positions": [
                -1.3820829941041821,
                -1.2682086701874837,
                1.9860858476343637,
                -0.6865152238341239,
                0.9799244608326483,
                -3.122440245678429
            ]
        },
        {
            "positions": [
                -1.477708073666618,
                -1.3169366750949547,
                1.9750116847815278,
                -0.6300284993574262,
                1.147913739416903,
                -3.1218893276734194
            ]
        },
        {
            "positions": [
                -1.573333153229054,
                -1.3656646800024257,
                1.9639375219286919,
                -0.5735417748807285,
                1.3159030180011577,
                -3.1213384096684105
            ]
        },
        {
            "positions": [
                -1.6689582327914898,
                -1.4143926849098967,
                1.952863359075856,
                -0.5170550504040309,
                1.4838922965854124,
                -3.1207874916634015
            ]
        }
    ]
}