{
    "goal": {
        "global_pose": {
            "orientation": {
                "w": -0.4816463035849501,
                "x": 0.5182115481033762,
                "y": 0.4908360881923453,
                "z": -0.5084816262002911
            },
            "position": {
                "x": -0.8240239810943604,
                "y": -0.300875300988555,
                "z": 0.16403168439865112
            }
        },
        "name": "move_to_storage_C"
    },
    "id": "BiEST_move_to_storage_C_88",
    "joint_names": [
        "shoulder_pan_joint",
        "shoulder_lift_joint",
        "elbow_joint",
        "wrist_1_joint",
        "wrist_2_joint",
        "wrist_3_joint"
    ],
    "metrics": {
        "cart_traj_len": 0.5771587094333017,
        "distance_elbow_joint": 0.2585065697336175,
        "distance_shoulder_lift_joint": 0.18923364512468233,
        "distance_shoulder_pan_joint": 0.49590695580741606,
        "distance_wrist_1_joint": 0.07592018874381823,
        "distance_wrist_2_joint": 1.0590446800264242,
        "distance_wrist_3_joint": 0.07284735706950007,
        "smoothness": 2.5376526478085547e-16,
        "time": 0.12774333200000001,
        "traj_len": 1.4667853955181918,
        "weighted_distance": 1.8525979000891426
    },
    "planner": "BiEST",
    "start": {
        "state": {
            "elbow_joint": 2.010868314990456,
            "shoulder_lift_joint": -1.1634956873337592,
            "shoulder_pan_joint": -2.4736205022346125,
            "wrist_1_joint": -0.8367026794202681,
            "wrist_2_joint": 0.6746043897044499,
            "wrist_3_joint": -3.1496632123970403
        }
    },
    "waypoints": [
        {
            "positions": [
                -2.4736205022346125,
                -1.1634956873337592,
                2.010868314990456,
                -0.8367026794202681,
                0.6746043897044499,
                -3.1496632123970403
            ]
        },
        {
            "positions": [
                -2.5562716615358485,
                -1.1319567464796454,
                1.9677838867015196,
                -0.8240493146296317,
                0.8511118363755206,
                -3.13752198621879
            ]
        },
        {
            "positions": [
                -2.6389228208370845,
                -1.1004178056255318,
                1.9246994584125834,
                -0.8113959498389953,
                1.0276192830465913,
                -3.12538076004054
            ]
        },
        {
            "positions": [
                -2.7215739801383205,
                -1.068878864771418,
                1.8816150301236472,
                -0.7987425850483589,
                1.2041267297176619,
                -3.1132395338622905
            ]
        },
        {
            "positions": [
                -2.8042251394395565,
                -1.0373399239173042,
                1.8385306018347107,
                -0.7860892202577227,
                1.3806341763887326,
                -3.1010983076840404
            ]
        },
        {
            "positions": [
                -2.8868762987407925,
                -1.0058009830631907,
                1.7954461735457745,
                -0.7734358554670863,
                1.5571416230598034,
                -3.0889570815057903
            ]
        },
        {
            "positions": [
                -2.9695274580420286,
                -0.9742620422090769,
                1.7523617452568383,
                -0.7607824906764499,
                1.733649069730874,
                -3.07681585532754
            ]
        }
    ]
}