{
    "goal": {
        "global_pose": {
            "orientation": {
                "w": -0.00223480608172531,
                "x": 0.0024358444001904467,
                "y": 0.7094548369677653,
                "z": -0.704743149386269
            },
            "position": {
                "x": -0.37947507619857795,
                "y": -0.6371506643295288,
                "z": 0.19426114857196808
            }
        },
        "name": "move_to_magneteinheit_C"
    },
    "id": "BiEST_move_to_magneteinheit_C_129",
    "joint_names": [
        "shoulder_pan_joint",
        "shoulder_lift_joint",
        "elbow_joint",
        "wrist_1_joint",
        "wrist_2_joint",
        "wrist_3_joint"
    ],
    "metrics": {
        "cart_traj_len": 0.8936730223815705,
        "distance_elbow_joint": 0.8413581566722814,
        "distance_shoulder_lift_joint": 0.5266239893856837,
        "distance_shoulder_pan_joint": 1.325884200217698,
        "distance_wrist_1_joint": 0.41155217906111785,
        "distance_wrist_2_joint": 1.44762900475923,
        "distance_wrist_3_joint": 0.05842679894670866,
        "smoothness": 2.493909511045098,
        "time": 0.072307442,
        "traj_len": 2.1474343596586882,
        "weighted_distance": 2.5666143284016174
    },
    "planner": "BiEST",
    "start": {
        "state": {
            "elbow_joint": 1.9565354010623817,
            "shoulder_lift_joint": -1.4165861575791021,
            "shoulder_pan_joint": -1.6717766225146293,
            "wrist_1_joint": -0.5286633292919765,
            "wrist_2_joint": 1.472756589071564,
            "wrist_3_joint": -3.1238370188695823
        }
    },
    "waypoints": [
        {
            "positions": [
                -1.6717766225146293,
                -1.4165861575791021,
                1.9565354010623817,
                -0.5286633292919765,
                1.472756589071564,
                -3.1238370188695823
            ]
        },
        {
            "positions": [
                -1.5388415954982162,
                -1.4717994081218855,
                1.9865538294429659,
                -0.6011366049363356,
                1.481944139460532,
                -3.121037608212965
            ]
        },
        {
            "positions": [
                -1.690790045413987,
                -1.4836074062464764,
                2.0464684773554858,
                -0.5944510705302292,
                1.322042800087089,
                -3.119014120498792
            ]
        },
        {
            "positions": [
                -1.842738495329758,
                -1.4954154043710672,
                2.1063831252680054,
                -0.5877655361241227,
                1.1621414607136458,
                -3.1169906327846184
            ]
        },
        {
            "positions": [
                -1.9946869452455291,
                -1.5072234024956581,
                2.166297773180525,
                -0.5810800017180163,
                1.0022401213402028,
                -3.114967145070445
            ]
        },
        {
            "positions": [
                -2.1466353951613,
                -1.519031400620249,
                2.2262124210930447,
                -0.5743944673119098,
                0.8423387819667597,
                -3.112943657356272
            ]
        },
        {
            "positions": [
                -2.2985838450770713,
                -1.5308393987448399,
                2.286127069005565,
                -0.5677089329058034,
                0.6824374425933166,
                -3.1109201696420987
            ]
        },
        {
            "positions": [
                -2.4505322949928416,
                -1.5426473968694308,
                2.3460417169180845,
                -0.561023398499697,
                0.5225361032198735,
                -3.1088966819279253
            ]
        },
        {
            "positions": [
                -2.602480744908613,
                -1.5544553949940216,
                2.405956364830604,
                -0.5543378640935905,
                0.36263476384643056,
                -3.106873194213752
            ]
        },
        {
            "positions": [
                -2.570153238960891,
                -1.4572667070013305,
                2.3079720666045893,
                -0.627407904737094,
                0.4424177835354708,
                -3.1172389377864715
            ]
        },
        {
            "positions": [
                -2.537825733013169,
                -1.3600780190086397,
                2.209987768378575,
                -0.7004779453805974,
                0.522200803224511,
                -3.127604681359191
            ]
        },
        {
            "positions": [
                -2.5054982270654467,
                -1.2628893310159486,
                2.11200347015256,
                -0.7735479860241008,
                0.6019838229135512,
                -3.1379704249319107
            ]
        },
        {
            "positions": [
                -2.4731707211177247,
                -1.1657006430232575,
                2.0140191719265452,
                -0.8466180266676042,
                0.6817668426025915,
                -3.1483361685046303
            ]
        }
    ]
}