{
    "goal": {
        "global_pose": {
            "orientation": {
                "w": -0.4816463035849501,
                "x": 0.5182115481033762,
                "y": 0.4908360881923453,
                "z": -0.5084816262002911
            },
            "position": {
                "x": -0.8240239810943604,
                "y": -0.300875300988555,
                "z": 0.16403168439865112
            }
        },
        "name": "move_to_storage_C"
    },
    "id": "BiEST_move_to_storage_C_48",
    "joint_names": [
        "shoulder_pan_joint",
        "shoulder_lift_joint",
        "elbow_joint",
        "wrist_1_joint",
        "wrist_2_joint",
        "wrist_3_joint"
    ],
    "metrics": {
        "cart_traj_len": 0.5765169234342222,
        "distance_elbow_joint": 0.261991066232099,
        "distance_shoulder_lift_joint": 0.18967856308008546,
        "distance_shoulder_pan_joint": 0.49465670229858816,
        "distance_wrist_1_joint": 0.09026955611970877,
        "distance_wrist_2_joint": 1.0621617400990435,
        "distance_wrist_3_joint": 0.07196477635839349,
        "smoothness": 0.0,
        "time": 0.125167885,
        "traj_len": 1.473337165820478,
        "weighted_distance": 1.8620105405511156
    },
    "planner": "BiEST",
    "start": {
        "state": {
            "elbow_joint": 2.010868314990456,
            "shoulder_lift_joint": -1.1634956873337592,
            "shoulder_pan_joint": -2.4736205022346125,
            "wrist_1_joint": -0.8367026794202681,
            "wrist_2_joint": 0.6746043897044499,
            "wrist_3_joint": -3.1496632123970403
        }
    },
    "waypoints": [
        {
            "positions": [
                -2.4736205022346125,
                -1.1634956873337592,
                2.010868314990456,
                -0.8367026794202681,
                0.6746043897044499,
                -3.1496632123970403
            ]
        },
        {
            "positions": [
                -2.5560632859510437,
                -1.1318825934870782,
                1.967203137285106,
                -0.8216577534003167,
                0.8516313463876238,
                -3.1376690830039746
            ]
        },
        {
            "positions": [
                -2.6385060696674754,
                -1.1002694996403974,
                1.9235379595797562,
                -0.8066128273803652,
                1.0286583030707979,
                -3.125674953610909
            ]
        },
        {
            "positions": [
                -2.7209488533839066,
                -1.0686564057937165,
                1.8798727818744063,
                -0.7915679013604138,
                1.2056852597539716,
                -3.1136808242178438
            ]
        },
        {
            "positions": [
                -2.803391637100338,
                -1.0370433119470355,
                1.8362076041690565,
                -0.7765229753404622,
                1.3827122164371457,
                -3.101686694824778
            ]
        },
        {
            "positions": [
                -2.8858344208167694,
                -1.0054302181003547,
                1.7925424264637067,
                -0.7614780493205108,
                1.5597391731203194,
                -3.0896925654317124
            ]
        },
        {
            "positions": [
                -2.9682772045332007,
                -0.9738171242536737,
                1.7488772487583568,
                -0.7464331233005593,
                1.7367661298034935,
                -3.077698436038647
            ]
        }
    ]
}