{
    "goal": {
        "global_pose": {
            "orientation": {
                "w": 0.5084816262002911,
                "x": -0.4908360881923452,
                "y": 0.5182115481033761,
                "z": -0.48164630358495003
            },
            "position": {
                "x": 0.5540239810943604,
                "y": -0.46912469901144505,
                "z": 0.16403168439865112
            }
        },
        "name": "move_to_storage_B"
    },
    "id": "BiEST_move_to_storage_B_46",
    "joint_names": [
        "shoulder_pan_joint",
        "shoulder_lift_joint",
        "elbow_joint",
        "wrist_1_joint",
        "wrist_2_joint",
        "wrist_3_joint"
    ],
    "metrics": {
        "cart_traj_len": 1.3147525322895515,
        "distance_elbow_joint": 0.7451345727562741,
        "distance_shoulder_lift_joint": 0.45840283058420184,
        "distance_shoulder_pan_joint": 1.0669364873895728,
        "distance_wrist_1_joint": 2.9785352250582884,
        "distance_wrist_2_joint": 2.7025924557769048,
        "distance_wrist_3_joint": 3.256727319980439,
        "smoothness": 0.17454548055884386,
        "time": 0.086286188,
        "traj_len": 3.3478842410611636,
        "weighted_distance": 4.837655549162399
    },
    "planner": "BiEST",
    "start": {
        "state": {
            "elbow_joint": 1.664937868594044,
            "shoulder_lift_joint": -0.661644460510453,
            "shoulder_pan_joint": -0.9139846352900073,
            "wrist_1_joint": 2.146753192139373,
            "wrist_2_joint": -2.2341966793290973,
            "wrist_3_joint": 0.005466555786416001
        }
    },
    "waypoints": [
        {
            "positions": [
                -0.9139846352900073,
                -0.661644460510453,
                1.664937868594044,
                2.146753192139373,
                -2.2341966793290973,
                0.005466555786416001
            ]
        },
        {
            "positions": [
                -0.8401700070396825,
                -0.7220691590339527,
                1.631746599542743,
                2.094207428137461,
                -2.12589773828212,
                -0.004792972542045324
            ]
        },
        {
            "positions": [
                -0.7663553787893576,
                -0.7824938575574524,
                1.598555330491442,
                2.0416616641355487,
                -2.0175987972351423,
                -0.01505250087050665
            ]
        },
        {
            "positions": [
                -0.6925407505390327,
                -0.8429185560809521,
                1.5653640614401412,
                1.9891159001336363,
                -1.909299856188165,
                -0.025312029198967974
            ]
        },
        {
            "positions": [
                -0.6187261222887079,
                -0.9033432546044518,
                1.5321727923888402,
                1.936570136131724,
                -1.8010009151411874,
                -0.0355715575274293
            ]
        },
        {
            "positions": [
                -0.544911494038383,
                -0.9637679531279515,
                1.4989815233375392,
                1.8840243721298116,
                -1.69270197409421,
                -0.04583108585589062
            ]
        },
        {
            "positions": [
                -0.4710968657880582,
                -1.0241926516514512,
                1.4657902542862382,
                1.8314786081278993,
                -1.5844030330472325,
                -0.05609061418435195
            ]
        },
        {
            "positions": [
                -0.4970988957000425,
                -1.0281865949615847,
                1.4885397108882577,
                1.7205094147509488,
                -1.4988697493182725,
                0.07704147539938434
            ]
        },
        {
            "positions": [
                -0.5231009256120268,
                -1.0321805382717182,
                1.5112891674902773,
                1.6095402213739982,
                -1.4133364655893126,
                0.21017356498312062
            ]
        },
        {
            "positions": [
                -0.5491029555240111,
                -1.0361744815818517,
                1.5340386240922967,
                1.4985710279970474,
                -1.3278031818603524,
                0.3433056545668569
            ]
        },
        {
            "positions": [
                -0.5751049854359955,
                -1.0401684248919851,
                1.5567880806943162,
                1.3876018346200971,
                -1.2422698981313924,
                0.4764377441505932
            ]
        },
        {
            "positions": [
                -0.6011070153479798,
                -1.0441623682021186,
                1.5795375372963358,
                1.2766326412431463,
                -1.1567366144024325,
                0.6095698337343296
            ]
        },
        {
            "positions": [
                -0.6271090452599641,
                -1.048156311512252,
                1.6022869938983553,
                1.1656634478661958,
                -1.0712033306734723,
                0.7427019233180658
            ]
        },
        {
            "positions": [
                -0.6531110751719484,
                -1.0521502548223856,
                1.625036450500375,
                1.0546942544892453,
                -0.9856700469445123,
                0.8758340129018022
            ]
        },
        {
            "positions": [
                -0.6791131050839327,
                -1.056144198132519,
                1.6477859071023944,
                0.9437250611122947,
                -0.9001367632155524,
                1.0089661024855383
            ]
        },
        {
            "positions": [
                -0.705115134995917,
                -1.0601381414426525,
                1.6705353637044138,
                0.832755867735344,
                -0.8146034794865924,
                1.1420981920692745
            ]
        },
        {
            "positions": [
                -0.7311171649079014,
                -1.064132084752786,
                1.6932848203064335,
                0.7217866743583934,
                -0.7290701957576323,
                1.275230281653011
            ]
        },
        {
            "positions": [
                -0.7571191948198857,
                -1.0681260280629195,
                1.716034276908453,
                0.6108174809814428,
                -0.6435369120286724,
                1.408362371236747
            ]
        },
        {
            "positions": [
                -0.78312122473187,
                -1.072119971373053,
                1.7387837335104726,
                0.4998482876044923,
                -0.5580036282997123,
                1.5414944608204835
            ]
        },
        {
            "positions": [
                -0.8091232546438543,
                -1.0761139146831866,
                1.761533190112492,
                0.38887909422754174,
                -0.4724703445707523,
                1.6746265504042197
            ]
        },
        {
            "positions": [
                -0.8351252845558387,
                -1.08010785799332,
                1.7842826467145114,
                0.277909900850591,
                -0.38693706084179214,
                1.8077586399879562
            ]
        },
        {
            "positions": [
                -0.861127314467823,
                -1.0841018013034536,
                1.8070321033165309,
                0.16694070747364043,
                -0.30140377711283217,
                1.9408907295716924
            ]
        },
        {
            "positions": [
                -0.8871293443798073,
                -1.088095744613587,
                1.8297815599185505,
                0.0559715140966901,
                -0.2158704933838722,
                2.0740228191554286
            ]
        },
        {
            "positions": [
                -0.9131313742917917,
                -1.0920896879237205,
                1.8525310165205702,
                -0.05499767928026067,
                -0.13033720965491202,
                2.207154908739165
            ]
        },
        {
            "positions": [
                -0.9391334042037759,
                -1.096083631233854,
                1.8752804731225896,
                -0.16596687265721122,
                -0.04480392592595228,
                2.340286998322901
            ]
        },
        {
            "positions": [
                -0.9651354341157602,
                -1.1000775745439875,
                1.898029929724609,
                -0.27693606603416177,
                0.04072935780300768,
                2.4734190879066373
            ]
        },
        {
            "positions": [
                -0.9911374640277446,
                -1.104071517854121,
                1.9207793863266285,
                -0.38790525941111254,
                0.12626264153196787,
                2.606551177490374
            ]
        },
        {
            "positions": [
                -1.017139493939729,
                -1.1080654611642544,
                1.9435288429286481,
                -0.49887445278806286,
                0.21179592526092783,
                2.7396832670741103
            ]
        },
        {
            "positions": [
                -1.0431415238517132,
                -1.112059404474388,
                1.9662782995306676,
                -0.6098436461650136,
                0.2973292089898878,
                2.872815356657846
            ]
        },
        {
            "positions": [
                -1.0691435537636975,
                -1.1160533477845214,
                1.9890277561326872,
                -0.7208128395419644,
                0.382862492718848,
                3.0059474462415827
            ]
        },
        {
            "positions": [
                -1.0951455836756818,
                -1.1200472910946548,
                2.0117772127347067,
                -0.8317820329189147,
                0.46839577644780783,
                3.139079535825319
            ]
        }
    ]
}