{
    "goal": {
        "global_pose": {
            "orientation": {
                "w": -0.00223480608172531,
                "x": 0.0024358444001904467,
                "y": 0.7094548369677653,
                "z": -0.704743149386269
            },
            "position": {
                "x": 0.6205249238014221,
                "y": -0.6371506643295288,
                "z": 0.19426114857196808
            }
        },
        "name": "move_to_magneteinheit_B"
    },
    "id": "BiEST_move_to_magneteinheit_B_39",
    "joint_names": [
        "shoulder_pan_joint",
        "shoulder_lift_joint",
        "elbow_joint",
        "wrist_1_joint",
        "wrist_2_joint",
        "wrist_3_joint"
    ],
    "metrics": {
        "cart_traj_len": 1.6095167689583836,
        "distance_elbow_joint": 0.9571577458087115,
        "distance_shoulder_lift_joint": 1.403057075675589,
        "distance_shoulder_pan_joint": 1.6208567193034789,
        "distance_wrist_1_joint": 0.49893718045832625,
        "distance_wrist_2_joint": 2.3722797276616614,
        "distance_wrist_3_joint": 0.9416509827781199,
        "smoothness": 0.8146658782168067,
        "time": 0.106284922,
        "traj_len": 2.791762782129937,
        "weighted_distance": 3.5423803163074
    },
    "planner": "BiEST",
    "start": {
        "state": {
            "elbow_joint": 2.6216224122426386,
            "shoulder_lift_joint": -1.4174107377796124,
            "shoulder_pan_joint": 0.7066234856936794,
            "wrist_1_joint": 1.9546482284002225,
            "wrist_2_joint": -0.7096286983471962,
            "wrist_3_joint": 0.005740856962016249
        }
    },
    "waypoints": [
        {
            "positions": [
                0.7066234856936794,
                -1.4174107377796124,
                2.6216224122426386,
                1.9546482284002225,
                -0.7096286983471962,
                0.005740856962016249
            ]
        },
        {
            "positions": [
                0.6498826422490918,
                -1.4425534769082042,
                2.6089295793641796,
                1.8786851429403604,
                -0.6043963658891801,
                0.05582794285295813
            ]
        },
        {
            "positions": [
                0.5931417988045042,
                -1.4676962160367961,
                2.596236746485721,
                1.8027220574804985,
                -0.499164033431164,
                0.10591502874390002
            ]
        },
        {
            "positions": [
                0.5280432753244446,
                -1.5361110757515866,
                2.557058385782753,
                1.840653958588535,
                -0.4459374526979093,
                0.19954835776618393
            ]
        },
        {
            "positions": [
                0.46294475184438505,
                -1.604525935466377,
                2.5178800250797844,
                1.8785858596965719,
                -0.39271087196465465,
                0.29318168678846784
            ]
        },
        {
            "positions": [
                0.3978462283643255,
                -1.6729407951811672,
                2.4787016643768163,
                1.9165177608046085,
                -0.3394842912314,
                0.38681501581075173
            ]
        },
        {
            "positions": [
                0.33274770488426586,
                -1.7413556548959577,
                2.439523303673848,
                1.954449661912645,
                -0.2862577104981453,
                0.48044834483303567
            ]
        },
        {
            "positions": [
                0.24961564231799482,
                -1.6694148443253414,
                2.3878527278578536,
                1.9674685555864087,
                -0.416184959818986,
                0.44931877850589563
            ]
        },
        {
            "positions": [
                0.16648357975172381,
                -1.597474033754725,
                2.3361821520418586,
                1.9804874492601725,
                -0.5461122091398267,
                0.4181892121787556
            ]
        },
        {
            "positions": [
                0.08335151718545278,
                -1.5255332231841088,
                2.284511576225864,
                1.9935063429339361,
                -0.6760394584606675,
                0.3870596458516155
            ]
        },
        {
            "positions": [
                0.00021945461918176923,
                -1.4535924126134927,
                2.232841000409869,
                2.0065252366077,
                -0.8059667077815081,
                0.3559300795244755
            ]
        },
        {
            "positions": [
                -0.08291260794708921,
                -1.3816516020428764,
                2.1811704245938746,
                2.0195441302814636,
                -0.9358939571023488,
                0.32480051319733544
            ]
        },
        {
            "positions": [
                -0.1660446705133603,
                -1.30971079147226,
                2.1294998487778796,
                2.0325630239552273,
                -1.0658212064231896,
                0.29367094687019535
            ]
        },
        {
            "positions": [
                -0.24917673307963129,
                -1.237769980901644,
                2.077829272961885,
                2.045581917628991,
                -1.19574845574403,
                0.2625413805430553
            ]
        },
        {
            "positions": [
                -0.3323087956459023,
                -1.1658291703310275,
                2.02615869714589,
                2.058600811302755,
                -1.3256757050648709,
                0.2314118142159153
            ]
        },
        {
            "positions": [
                -0.41544085821217336,
                -1.0938883597604114,
                1.9744881213298955,
                2.0716197049765186,
                -1.4556029543857116,
                0.20028224788877524
            ]
        },
        {
            "positions": [
                -0.4985729207784443,
                -1.0219475491897951,
                1.922817545513901,
                2.0846385986502822,
                -1.5855302037065524,
                0.1691526815616352
            ]
        },
        {
            "positions": [
                -0.5817049833447153,
                -0.950006738619179,
                1.871146969697906,
                2.097657492324046,
                -1.7154574530273932,
                0.13802311523449518
            ]
        },
        {
            "positions": [
                -0.6648370459109865,
                -0.8780659280485625,
                1.8194763938819114,
                2.1106763859978095,
                -1.845384702348234,
                0.10689354890735508
            ]
        },
        {
            "positions": [
                -0.7479691084772574,
                -0.8061251174779464,
                1.7678058180659164,
                2.1236952796715736,
                -1.9753119516690747,
                0.07576398258021505
            ]
        },
        {
            "positions": [
                -0.8311011710435284,
                -0.7341843069073302,
                1.7161352422499219,
                2.136714173345337,
                -2.105239200989915,
                0.044634416253075015
            ]
        },
        {
            "positions": [
                -0.9142332336097995,
                -0.662243496336714,
                1.664464666433927,
                2.149733067019101,
                -2.235166450310756,
                0.013504849925934993
            ]
        }
    ]
}