{
    "goal": {
        "global_pose": {
            "orientation": {
                "w": 0.5084816262002911,
                "x": -0.4908360881923452,
                "y": 0.5182115481033761,
                "z": -0.48164630358495003
            },
            "position": {
                "x": 0.5540239810943604,
                "y": -0.46912469901144505,
                "z": 0.16403168439865112
            }
        },
        "name": "move_to_storage_B"
    },
    "id": "BiEST_move_to_storage_B_7",
    "joint_names": [
        "shoulder_pan_joint",
        "shoulder_lift_joint",
        "elbow_joint",
        "wrist_1_joint",
        "wrist_2_joint",
        "wrist_3_joint"
    ],
    "metrics": {
        "cart_traj_len": 2.7827956976109505,
        "distance_elbow_joint": 2.930339600311247,
        "distance_shoulder_lift_joint": 0.4581915350462722,
        "distance_shoulder_pan_joint": 2.547902054633569,
        "distance_wrist_1_joint": 3.0023240037498913,
        "distance_wrist_2_joint": 2.7023438668247843,
        "distance_wrist_3_joint": 3.9486732636118536,
        "smoothness": 0.31635637508494474,
        "time": 0.097389181,
        "traj_len": 3.9483888263667266,
        "weighted_distance": 5.402942598434301
    },
    "planner": "BiEST",
    "start": {
        "state": {
            "elbow_joint": 1.664937868594044,
            "shoulder_lift_joint": -0.661644460510453,
            "shoulder_pan_joint": -0.9139846352900073,
            "wrist_1_joint": 2.146753192139373,
            "wrist_2_joint": -2.2341966793290973,
            "wrist_3_joint": 0.005466555786416001
        }
    },
    "waypoints": [
        {
            "positions": [
                -0.9139846352900073,
                -0.661644460510453,
                1.664937868594044,
                2.146753192139373,
                -2.2341966793290973,
                0.005466555786416001
            ]
        },
        {
            "positions": [
                -0.8351064602983259,
                -0.6905414915825078,
                1.5790282084304312,
                2.0452814000968282,
                -2.1732281703541356,
                -0.021307797898391597
            ]
        },
        {
            "positions": [
                -0.7562282853066447,
                -0.7194385226545624,
                1.4931185482668186,
                1.9438096080542835,
                -2.112259661379174,
                -0.048082151583199194
            ]
        },
        {
            "positions": [
                -0.6773501103149633,
                -0.7483355537266172,
                1.407208888103206,
                1.8423378160117385,
                -2.051291152404212,
                -0.0748565052680068
            ]
        },
        {
            "positions": [
                -0.5984719353232819,
                -0.7772325847986719,
                1.3212992279395934,
                1.7408660239691938,
                -1.9903226434292502,
                -0.10163085895281439
            ]
        },
        {
            "positions": [
                -0.5195937603316005,
                -0.8061296158707265,
                1.235389567775981,
                1.6393942319266488,
                -1.9293541344542886,
                -0.12840521263762197
            ]
        },
        {
            "positions": [
                -0.4407155853399192,
                -0.8350266469427813,
                1.1494799076123683,
                1.5379224398841038,
                -1.8683856254793267,
                -0.1551795663224296
            ]
        },
        {
            "positions": [
                -0.3618374103482379,
                -0.863923678014836,
                1.0635702474487556,
                1.4364506478415588,
                -1.807417116504365,
                -0.1819539200072372
            ]
        },
        {
            "positions": [
                -0.28295923535655654,
                -0.8928207090868907,
                0.9776605872851429,
                1.3349788557990143,
                -1.7464486075294032,
                -0.20872827369204477
            ]
        },
        {
            "positions": [
                -0.20408106036487528,
                -0.9217177401589454,
                0.8917509271215304,
                1.2335070637564693,
                -1.6854800985544416,
                -0.23550262737685237
            ]
        },
        {
            "positions": [
                -0.1252028853731939,
                -0.9506147712310001,
                0.8058412669579178,
                1.1320352717139244,
                -1.62451158957948,
                -0.2622769810616599
            ]
        },
        {
            "positions": [
                -0.046324710381512535,
                -0.9795118023030549,
                0.7199316067943051,
                1.0305634796713796,
                -1.563543080604518,
                -0.28905133474646755
            ]
        },
        {
            "positions": [
                0.032553464610168836,
                -1.0084088333751096,
                0.6340219466306924,
                0.9290916876288344,
                -1.5025745716295562,
                -0.3158256884312752
            ]
        },
        {
            "positions": [
                0.1114316396018501,
                -1.0373058644471644,
                0.5481122864670798,
                0.8276198955862897,
                -1.4416060626545946,
                -0.34260004211608275
            ]
        },
        {
            "positions": [
                0.19030981459353147,
                -1.066202895519219,
                0.4622026263034673,
                0.7261481035437447,
                -1.380637553679633,
                -0.3693743958008904
            ]
        },
        {
            "positions": [
                0.2691879895852129,
                -1.0950999265912738,
                0.37629296613985475,
                0.6246763115012,
                -1.319669044704671,
                -0.39614874948569795
            ]
        },
        {
            "positions": [
                0.214598812394879,
                -1.0960893693498919,
                0.44196075405413704,
                0.5654664265767313,
                -1.2481563954166568,
                -0.25426643115210834
            ]
        },
        {
            "positions": [
                0.16000963520454506,
                -1.0970788121085098,
                0.5076285419684194,
                0.5062565416522626,
                -1.1766437461286423,
                -0.11238411281851879
            ]
        },
        {
            "positions": [
                0.10542045801421115,
                -1.098068254867128,
                0.5732963298827017,
                0.44704665672779387,
                -1.105131096840628,
                0.02949820551507082
            ]
        },
        {
            "positions": [
                0.05083128082387722,
                -1.099057697625746,
                0.638964117796984,
                0.3878367718033252,
                -1.0336184475526138,
                0.17138052384866037
            ]
        },
        {
            "positions": [
                -0.003757896366456681,
                -1.1000471403843641,
                0.7046319057112664,
                0.3286268868788565,
                -0.9621057982645995,
                0.31326284218225003
            ]
        },
        {
            "positions": [
                -0.058347073556790585,
                -1.101036583142982,
                0.7702996936255486,
                0.26941700195438784,
                -0.8905931489765853,
                0.4551451605158396
            ]
        },
        {
            "positions": [
                -0.11293625074712454,
                -1.1020260259016001,
                0.835967481539831,
                0.21020711702991912,
                -0.8190804996885708,
                0.5970274788494292
            ]
        },
        {
            "positions": [
                -0.16752542793745845,
                -1.1030154686602183,
                0.9016352694541133,
                0.15099723210545046,
                -0.7475678504005565,
                0.7389097971830187
            ]
        },
        {
            "positions": [
                -0.2221146051277923,
                -1.1040049114188362,
                0.9673030573683956,
                0.0917873471809818,
                -0.6760552011125422,
                0.8807921155166083
            ]
        },
        {
            "positions": [
                -0.27670378231812626,
                -1.1049943541774543,
                1.032970845282678,
                0.032577462256513035,
                -0.6045425518245279,
                1.022674433850198
            ]
        },
        {
            "positions": [
                -0.3312929595084602,
                -1.1059837969360724,
                1.0986386331969604,
                -0.026632422667955624,
                -0.5330299025365136,
                1.1645567521837876
            ]
        },
        {
            "positions": [
                -0.38588213669879406,
                -1.1069732396946905,
                1.1643064211112426,
                -0.08584230759242428,
                -0.46151725324849935,
                1.3064390705173772
            ]
        },
        {
            "positions": [
                -0.440471313889128,
                -1.1079626824533084,
                1.229974209025525,
                -0.14505219251689294,
                -0.39000460396048486,
                1.4483213888509667
            ]
        },
        {
            "positions": [
                -0.495060491079462,
                -1.1089521252119265,
                1.2956419969398074,
                -0.2042620774413617,
                -0.3184919546724705,
                1.5902037071845565
            ]
        },
        {
            "positions": [
                -0.5496496682697958,
                -1.1099415679705447,
                1.3613097848540896,
                -0.26347196236583026,
                -0.24697930538445645,
                1.7320860255181458
            ]
        },
        {
            "positions": [
                -0.6042388454601297,
                -1.1109310107291628,
                1.4269775727683718,
                -0.32268184729029903,
                -0.17546665609644196,
                1.8739683438517354
            ]
        },
        {
            "positions": [
                -0.6588280226504637,
                -1.1119204534877807,
                1.4926453606826544,
                -0.3818917322147677,
                -0.1039540068084277,
                2.015850662185325
            ]
        },
        {
            "positions": [
                -0.7134171998407974,
                -1.1129098962463988,
                1.5583131485969366,
                -0.44110161713923635,
                -0.03244135752041344,
                2.1577329805189143
            ]
        },
        {
            "positions": [
                -0.7680063770311314,
                -1.113899339005017,
                1.6239809365112188,
                -0.500311502063705,
                0.039071291767601046,
                2.2996152988525043
            ]
        },
        {
            "positions": [
                -0.8225955542214654,
                -1.1148887817636348,
                1.6896487244255014,
                -0.5595213869881739,
                0.11058394105561531,
                2.441497617186094
            ]
        },
        {
            "positions": [
                -0.8771847314117993,
                -1.115878224522253,
                1.7553165123397836,
                -0.6187312719126423,
                0.18209659034362957,
                2.583379935519683
            ]
        },
        {
            "positions": [
                -0.9317739086021333,
                -1.116867667280871,
                1.8209843002540658,
                -0.6779411568371112,
                0.25360923963164383,
                2.725262253853273
            ]
        },
        {
            "positions": [
                -0.9863630857924672,
                -1.1178571100394892,
                1.8866520881683484,
                -0.7371510417615799,
                0.3251218889196583,
                2.8671445721868625
            ]
        },
        {
            "positions": [
                -1.040952262982801,
                -1.118846552798107,
                1.9523198760826306,
                -0.7963609266860485,
                0.39663453820767236,
                3.009026890520452
            ]
        },
        {
            "positions": [
                -1.095541440173135,
                -1.1198359955567252,
                2.0179876639969128,
                -0.8555708116105171,
                0.46814718749568685,
                3.1509092088540416
            ]
        }
    ]
}