{
    "goal": {
        "global_pose": {
            "orientation": {
                "w": -0.00223480608172531,
                "x": 0.0024358444001904467,
                "y": 0.7094548369677653,
                "z": -0.704743149386269
            },
            "position": {
                "x": 0.6205249238014221,
                "y": -0.6371506643295288,
                "z": 0.19426114857196808
            }
        },
        "name": "move_to_magneteinheit_B"
    },
    "id": "BiEST_move_to_magneteinheit_B_146",
    "joint_names": [
        "shoulder_pan_joint",
        "shoulder_lift_joint",
        "elbow_joint",
        "wrist_1_joint",
        "wrist_2_joint",
        "wrist_3_joint"
    ],
    "metrics": {
        "cart_traj_len": 3.6307254258476425,
        "distance_elbow_joint": 4.2824041879417845,
        "distance_shoulder_lift_joint": 1.4199275803445848,
        "distance_shoulder_pan_joint": 2.7531464385755844,
        "distance_wrist_1_joint": 4.080979964623124,
        "distance_wrist_2_joint": 2.323243053735803,
        "distance_wrist_3_joint": 1.5351028986568136,
        "smoothness": 0.3247403280829932,
        "time": 0.115736181,
        "traj_len": 4.049049780365474,
        "weighted_distance": 5.086180584638168
    },
    "planner": "BiEST",
    "start": {
        "state": {
            "elbow_joint": 2.6216224122426386,
            "shoulder_lift_joint": -1.4174107377796124,
            "shoulder_pan_joint": 0.7066234856936794,
            "wrist_1_joint": 1.9546482284002225,
            "wrist_2_joint": -0.7096286983471962,
            "wrist_3_joint": 0.005740856962016249
        }
    },
    "waypoints": [
        {
            "positions": [
                0.7066234856936794,
                -1.4174107377796124,
                2.6216224122426386,
                1.9546482284002225,
                -0.7096286983471962,
                0.005740856962016249
            ]
        },
        {
            "positions": [
                0.6746278658405831,
                -1.412230488348445,
                2.613231408017246,
                1.889301138484552,
                -0.6704063253260707,
                -0.07104224145408347
            ]
        },
        {
            "positions": [
                0.6426322459874867,
                -1.4070502389172774,
                2.6048404037918536,
                1.8239540485688814,
                -0.6311839523049452,
                -0.14782533987018318
            ]
        },
        {
            "positions": [
                0.614388406656312,
                -1.4604822877716743,
                2.538030009448581,
                1.6428388759213717,
                -0.6054331691128878,
                -0.1488648257731757
            ]
        },
        {
            "positions": [
                0.5861445673251373,
                -1.5139143366260712,
                2.471219615105308,
                1.461723703273862,
                -0.5796823859208303,
                -0.14990431167616822
            ]
        },
        {
            "positions": [
                0.5579007279939626,
                -1.5673463854804681,
                2.4044092207620356,
                1.280608530626352,
                -0.553931602728773,
                -0.15094379757916074
            ]
        },
        {
            "positions": [
                0.5296568886627879,
                -1.620778434334865,
                2.337598826418763,
                1.0994933579788422,
                -0.5281808195367156,
                -0.15198328348215326
            ]
        },
        {
            "positions": [
                0.5014130493316133,
                -1.674210483189262,
                2.27078843207549,
                0.9183781853313322,
                -0.5024300363446581,
                -0.1530227693851458
            ]
        },
        {
            "positions": [
                0.47316921000043866,
                -1.7276425320436588,
                2.2039780377322176,
                0.7372630126838224,
                -0.47667925315260073,
                -0.15406225528813833
            ]
        },
        {
            "positions": [
                0.44492537066926396,
                -1.781074580898056,
                2.137167643388945,
                0.5561478400363127,
                -0.45092846996054337,
                -0.15510174119113085
            ]
        },
        {
            "positions": [
                0.4166815313380893,
                -1.8345066297524528,
                2.0703572490456725,
                0.3750326673888029,
                -0.42517768676848594,
                -0.15614122709412337
            ]
        },
        {
            "positions": [
                0.3884376920069146,
                -1.8879386786068497,
                2.0035468547023996,
                0.19391749474129288,
                -0.3994269035764285,
                -0.1571807129971159
            ]
        },
        {
            "positions": [
                0.4710019408239947,
                -1.8720453329921523,
                1.8653783213152229,
                0.11826059624118944,
                -0.4522943895426294,
                -0.1304371972566788
            ]
        },
        {
            "positions": [
                0.5535661896410748,
                -1.8561519873774546,
                1.7272097879280461,
                0.042603697741085994,
                -0.5051618755088303,
                -0.10369368151624168
            ]
        },
        {
            "positions": [
                0.636130438458155,
                -1.840258641762757,
                1.5890412545408694,
                -0.03305320075901744,
                -0.5580293614750311,
                -0.07695016577580459
            ]
        },
        {
            "positions": [
                0.7186946872752351,
                -1.8243652961480596,
                1.4508727211536927,
                -0.1087100992591209,
                -0.610896847441232,
                -0.05020665003536748
            ]
        },
        {
            "positions": [
                0.8012589360923152,
                -1.8084719505333622,
                1.3127041877665158,
                -0.18436699775922433,
                -0.6637643334074328,
                -0.023463134294930382
            ]
        },
        {
            "positions": [
                0.8838231849093954,
                -1.7925786049186645,
                1.1745356543793393,
                -0.26002389625932776,
                -0.7166318193736336,
                0.0032803814455067137
            ]
        },
        {
            "positions": [
                0.9663874337264755,
                -1.776685259303967,
                1.0363671209921623,
                -0.3356807947594312,
                -0.7694993053398346,
                0.03002389718594381
            ]
        },
        {
            "positions": [
                1.0489516825435556,
                -1.7607919136892696,
                0.8981985876049856,
                -0.4113376932595347,
                -0.8223667913060355,
                0.056767412926380934
            ]
        },
        {
            "positions": [
                1.1315159313606358,
                -1.7448985680745719,
                0.7600300542178089,
                -0.48699459175963816,
                -0.8752342772722363,
                0.08351092866681803
            ]
        },
        {
            "positions": [
                1.214080180177716,
                -1.7290052224598744,
                0.6218615208306322,
                -0.5626514902597415,
                -0.9281017632384372,
                0.11025444440725513
            ]
        },
        {
            "positions": [
                1.34091784276084,
                -1.7863646914606912,
                0.4775562068638167,
                -0.5526242295621469,
                -0.9326284820300007,
                0.06276710854288506
            ]
        },
        {
            "positions": [
                1.467755505343964,
                -1.8437241604615082,
                0.3332508928970012,
                -0.5425969688645523,
                -0.9371552008215642,
                0.015279772678515005
            ]
        },
        {
            "positions": [
                1.5945931679270877,
                -1.901083629462325,
                0.18894557893018576,
                -0.5325697081669577,
                -0.9416819196131277,
                -0.03220756318585505
            ]
        },
        {
            "positions": [
                1.721430830510212,
                -1.958443098463142,
                0.04464026496337026,
                -0.5225424474693631,
                -0.9462086384046913,
                -0.07969489905022512
            ]
        },
        {
            "positions": [
                1.8482684930933357,
                -2.015802567463959,
                -0.0996650490034452,
                -0.5125151867717685,
                -0.9507353571962549,
                -0.12718223491459515
            ]
        },
        {
            "positions": [
                1.9751061556764595,
                -2.0731620364647756,
                -0.24397036297026065,
                -0.5024879260741739,
                -0.9552620759878184,
                -0.17466957077896522
            ]
        },
        {
            "positions": [
                2.1019438182595835,
                -2.1305215054655924,
                -0.3882756769370761,
                -0.4924606653765793,
                -0.959788794779382,
                -0.22215690664333526
            ]
        },
        {
            "positions": [
                2.2287814808427076,
                -2.1878809744664096,
                -0.5325809909038917,
                -0.4824334046789847,
                -0.9643155135709455,
                -0.26964424250770536
            ]
        },
        {
            "positions": [
                2.3556191434258316,
                -2.2452404434672264,
                -0.6768863048707072,
                -0.4724061439813901,
                -0.968842232362509,
                -0.3171315783720754
            ]
        },
        {
            "positions": [
                2.4824568060089556,
                -2.302599912468043,
                -0.8211916188375225,
                -0.4623788832837955,
                -0.9733689511540725,
                -0.36461891423644543
            ]
        },
        {
            "positions": [
                2.560043614813698,
                -2.3454234147299955,
                -0.9375089079026179,
                -0.44200969063891654,
                -0.9651492760539987,
                -0.4099672740001706
            ]
        },
        {
            "positions": [
                2.6376304236184405,
                -2.388246916991948,
                -1.0538261969677132,
                -0.42164049799403763,
                -0.9569296009539248,
                -0.45531563376389567
            ]
        },
        {
            "positions": [
                2.715217232423183,
                -2.4310704192539,
                -1.1701434860328086,
                -0.40127130534915867,
                -0.9487099258538509,
                -0.5006639935276208
            ]
        },
        {
            "positions": [
                2.7220501833788395,
                -2.444566701539963,
                -1.2374510781512706,
                -0.2824981868070531,
                -0.8321560704018207,
                -0.47576532775699537
            ]
        },
        {
            "positions": [
                2.728883134334496,
                -2.458062983826026,
                -1.3047586702697327,
                -0.1637250682649475,
                -0.7156022149497906,
                -0.45086666198636993
            ]
        },
        {
            "positions": [
                2.7357160852901528,
                -2.4715592661120893,
                -1.372066262388195,
                -0.044951949722841944,
                -0.5990483594977604,
                -0.4259679962157445
            ]
        },
        {
            "positions": [
                2.7425490362458094,
                -2.4850555483981522,
                -1.439373854506657,
                0.07382116881926365,
                -0.4824945040457302,
                -0.40106933044511905
            ]
        },
        {
            "positions": [
                2.7350842141637415,
                -2.4877150893710924,
                -1.4789319773321474,
                0.2032382603713043,
                -0.3512353401364958,
                -0.35173261913209863
            ]
        },
        {
            "positions": [
                2.727619392081673,
                -2.490374630344033,
                -1.518490100157638,
                0.33265535192334494,
                -0.2199761762272615,
                -0.30239590781907827
            ]
        },
        {
            "positions": [
                2.7144354607845154,
                -2.488699474791724,
                -1.54694843526594,
                0.46633003267935963,
                -0.08283488893514551,
                -0.24328397828909987
            ]
        },
        {
            "positions": [
                2.7012515294873576,
                -2.4870243192394157,
                -1.5754067703742418,
                0.6000047134353743,
                0.05430639835697049,
                -0.18417204875912144
            ]
        },
        {
            "positions": [
                2.6880675981902,
                -2.485349163687107,
                -1.6038651054825437,
                0.733679394191389,
                0.19144768564908643,
                -0.12506011922914304
            ]
        },
        {
            "positions": [
                2.674883666893042,
                -2.4836740081347983,
                -1.6323234405908456,
                0.8673540749474037,
                0.3285889729412025,
                -0.0659481896991646
            ]
        },
        {
            "positions": [
                2.6616997355958842,
                -2.4819988525824894,
                -1.6607817756991474,
                1.0010287557034183,
                0.4657302602333184,
                -0.006836260169186217
            ]
        }
    ]
}