{
    "goal": {
        "global_pose": {
            "orientation": {
                "w": -0.4816463035849501,
                "x": 0.5182115481033762,
                "y": 0.4908360881923453,
                "z": -0.5084816262002911
            },
            "position": {
                "x": -0.8240239810943604,
                "y": -0.300875300988555,
                "z": 0.16403168439865112
            }
        },
        "name": "move_to_storage_C"
    },
    "id": "BiEST_move_to_storage_C_30",
    "joint_names": [
        "shoulder_pan_joint",
        "shoulder_lift_joint",
        "elbow_joint",
        "wrist_1_joint",
        "wrist_2_joint",
        "wrist_3_joint"
    ],
    "metrics": {
        "cart_traj_len": 0.5759563764660975,
        "distance_elbow_joint": 0.25398977002637535,
        "distance_shoulder_lift_joint": 0.18874652162262084,
        "distance_shoulder_pan_joint": 0.494778045990075,
        "distance_wrist_1_joint": 0.066701607625132,
        "distance_wrist_2_joint": 1.0649465579952708,
        "distance_wrist_3_joint": 0.06056150771674629,
        "smoothness": 5.075305295617109e-16,
        "time": 0.09718137199999999,
        "traj_len": 1.4593573965880395,
        "weighted_distance": 1.8391561086623713
    },
    "planner": "BiEST",
    "start": {
        "state": {
            "elbow_joint": 2.010868314990456,
            "shoulder_lift_joint": -1.1634956873337592,
            "shoulder_pan_joint": -2.4736205022346125,
            "wrist_1_joint": -0.8367026794202681,
            "wrist_2_joint": 0.6746043897044499,
            "wrist_3_joint": -3.1496632123970403
        }
    },
    "waypoints": [
        {
            "positions": [
                -2.4736205022346125,
                -1.1634956873337592,
                2.010868314990456,
                -0.8367026794202681,
                0.6746043897044499,
                -3.1496632123970403
            ]
        },
        {
            "positions": [
                -2.556083509899625,
                -1.132037933729989,
                1.9685366866527265,
                -0.8255857448160795,
                0.8520954827036618,
                -3.1395696277775826
            ]
        },
        {
            "positions": [
                -2.6385465175646377,
                -1.100580180126219,
                1.9262050583149974,
                -0.8144688102118908,
                1.0295865757028735,
                -3.129476043158125
            ]
        },
        {
            "positions": [
                -2.72100952522965,
                -1.0691224265224488,
                1.8838734299772681,
                -0.803351875607702,
                1.2070776687020852,
                -3.1193824585386674
            ]
        },
        {
            "positions": [
                -2.8034725328946624,
                -1.0376646729186787,
                1.8415418016395388,
                -0.7922349410035134,
                1.384568761701297,
                -3.1092888739192093
            ]
        },
        {
            "positions": [
                -2.885935540559675,
                -1.0062069193149084,
                1.7992101733018098,
                -0.7811180063993248,
                1.5620598547005091,
                -3.0991952892997516
            ]
        },
        {
            "positions": [
                -2.9683985482246875,
                -0.9747491657111383,
                1.7568785449640805,
                -0.7700010717951361,
                1.7395509476997209,
                -3.089101704680294
            ]
        }
    ]
}