{
    "goal": {
        "global_pose": {
            "orientation": {
                "w": -0.00223480608172531,
                "x": 0.0024358444001904467,
                "y": 0.7094548369677653,
                "z": -0.704743149386269
            },
            "position": {
                "x": -0.37947507619857795,
                "y": -0.6371506643295288,
                "z": 0.19426114857196808
            }
        },
        "name": "move_to_magneteinheit_C"
    },
    "id": "BiEST_move_to_magneteinheit_C_142",
    "joint_names": [
        "shoulder_pan_joint",
        "shoulder_lift_joint",
        "elbow_joint",
        "wrist_1_joint",
        "wrist_2_joint",
        "wrist_3_joint"
    ],
    "metrics": {
        "cart_traj_len": 2.8642101144366667,
        "distance_elbow_joint": 3.262852184325821,
        "distance_shoulder_lift_joint": 1.1743239182718928,
        "distance_shoulder_pan_joint": 1.635420574348912,
        "distance_wrist_1_joint": 2.0239818090436055,
        "distance_wrist_2_joint": 2.2354099790829567,
        "distance_wrist_3_joint": 2.0213147819716175,
        "smoothness": 0.979721829570126,
        "time": 0.420869066,
        "traj_len": 3.5147266247952773,
        "weighted_distance": 4.544812933346608
    },
    "planner": "BiEST",
    "start": {
        "state": {
            "elbow_joint": 1.9565354010623817,
            "shoulder_lift_joint": -1.4165861575791021,
            "shoulder_pan_joint": -1.6717766225146293,
            "wrist_1_joint": -0.5286633292919765,
            "wrist_2_joint": 1.472756589071564,
            "wrist_3_joint": -3.1238370188695823
        }
    },
    "waypoints": [
        {
            "positions": [
                -1.6717766225146293,
                -1.4165861575791021,
                1.9565354010623817,
                -0.5286633292919765,
                1.472756589071564,
                -3.1238370188695823
            ]
        },
        {
            "positions": [
                -1.6365706998139555,
                -1.4371572348581287,
                1.9308074696590747,
                -0.4729410380811794,
                1.4193407386648225,
                -3.001688899492127
            ]
        },
        {
            "positions": [
                -1.6013647771132815,
                -1.4577283121371551,
                1.905079538255768,
                -0.4172187468703823,
                1.3659248882580812,
                -2.8795407801146724
            ]
        },
        {
            "positions": [
                -1.5661588544126077,
                -1.4782993894161818,
                1.879351606852461,
                -0.3614964556595852,
                1.3125090378513398,
                -2.7573926607372172
            ]
        },
        {
            "positions": [
                -1.5626330111416262,
                -1.4559107999106147,
                1.757335842678009,
                -0.2617340223892218,
                1.2237931976159369,
                -2.698091620142731
            ]
        },
        {
            "positions": [
                -1.5591071678706447,
                -1.4335222104050473,
                1.635320078503557,
                -0.1619715891188583,
                1.135077357380534,
                -2.6387905795482447
            ]
        },
        {
            "positions": [
                -1.5555813245996633,
                -1.4111336208994802,
                1.513304314329105,
                -0.062209155848494846,
                1.046361517145131,
                -2.5794895389537587
            ]
        },
        {
            "positions": [
                -1.5520554813286818,
                -1.388745031393913,
                1.391288550154653,
                0.03755327742186859,
                0.9576456769097281,
                -2.520188498359272
            ]
        },
        {
            "positions": [
                -1.5485296380577003,
                -1.3663564418883458,
                1.2692727859802009,
                0.13731571069223208,
                0.8689298366743251,
                -2.460887457764786
            ]
        },
        {
            "positions": [
                -1.5450037947867188,
                -1.3439678523827787,
                1.147257021805749,
                0.23707814396259552,
                0.7802139964389222,
                -2.4015864171703
            ]
        },
        {
            "positions": [
                -1.5414779515157373,
                -1.3215792628772114,
                1.025241257631297,
                0.33684057723295896,
                0.6914981562035193,
                -2.3422853765758136
            ]
        },
        {
            "positions": [
                -1.6377140090527122,
                -1.2709029530190392,
                0.9638921748518228,
                0.28354474075526714,
                0.7411082780363758,
                -2.4050359812925257
            ]
        },
        {
            "positions": [
                -1.733950066589687,
                -1.2202266431608668,
                0.9025430920723485,
                0.2302489042775753,
                0.7907183998692323,
                -2.467786586009238
            ]
        },
        {
            "positions": [
                -1.830186124126662,
                -1.1695503333026946,
                0.8411940092928742,
                0.17695306779988348,
                0.8403285217020887,
                -2.53053719072595
            ]
        },
        {
            "positions": [
                -1.9264221816636367,
                -1.1188740234445222,
                0.7798449265133999,
                0.12365723132219164,
                0.8899386435349452,
                -2.593287795442662
            ]
        },
        {
            "positions": [
                -2.0226582392006116,
                -1.06819771358635,
                0.7184958437339256,
                0.07036139484449982,
                0.9395487653678017,
                -2.6560384001593738
            ]
        },
        {
            "positions": [
                -2.1188942967375866,
                -1.0175214037281777,
                0.6571467609544513,
                0.01706555836680801,
                0.9891588872006583,
                -2.718789004876086
            ]
        },
        {
            "positions": [
                -2.2151303542745615,
                -0.9668450938700055,
                0.5957976781749771,
                -0.03623027811088386,
                1.0387690090335147,
                -2.781539609592798
            ]
        },
        {
            "positions": [
                -2.3113664118115365,
                -0.9161687840118331,
                0.5344485953955027,
                -0.08952611458857568,
                1.0883791308663713,
                -2.84429021430951
            ]
        },
        {
            "positions": [
                -2.407602469348511,
                -0.8654924741536609,
                0.47309951261602845,
                -0.14282195106626755,
                1.1379892526992277,
                -2.9070408190262222
            ]
        },
        {
            "positions": [
                -2.503838526885486,
                -0.8148161642954886,
                0.4117504298365542,
                -0.1961177875439593,
                1.187599374532084,
                -2.9697914237429344
            ]
        },
        {
            "positions": [
                -2.600074584422461,
                -0.7641398544373164,
                0.3504013470570799,
                -0.24941362402165115,
                1.2372094963649407,
                -3.0325420284596465
            ]
        },
        {
            "positions": [
                -2.631835230354679,
                -0.7877782589200173,
                0.5174805948948193,
                -0.3476886459781169,
                1.2411817741287399,
                -3.06466146703709
            ]
        },
        {
            "positions": [
                -2.6635958762868976,
                -0.8114166634027182,
                0.6845598427325587,
                -0.44596366793458264,
                1.245154051892539,
                -3.0967809056145335
            ]
        },
        {
            "positions": [
                -2.6953565222191163,
                -0.8350550678854192,
                0.851639090570298,
                -0.5442386898910484,
                1.2491263296563382,
                -3.1289003441919774
            ]
        },
        {
            "positions": [
                -2.7271171681513344,
                -0.8586934723681201,
                1.0187183384080374,
                -0.6425137118475142,
                1.2530986074201373,
                -3.161019782769421
            ]
        },
        {
            "positions": [
                -2.7325597943032487,
                -0.8910493033134111,
                1.167605064046218,
                -0.6564331919439006,
                1.1306180215592205,
                -3.196685241088263
            ]
        },
        {
            "positions": [
                -2.7380024204551634,
                -0.9234051342587022,
                1.3164917896843988,
                -0.670352672040287,
                1.0081374356983037,
                -3.2323506994071054
            ]
        },
        {
            "positions": [
                -2.7434450466070777,
                -0.9557609652039932,
                1.4653785153225796,
                -0.6842721521366735,
                0.885656849837387,
                -3.268016157725948
            ]
        },
        {
            "positions": [
                -2.748887672758992,
                -0.9881167961492843,
                1.6142652409607603,
                -0.6981916322330599,
                0.7631762639764703,
                -3.3036816160447904
            ]
        },
        {
            "positions": [
                -2.7543302989109066,
                -1.0204726270945752,
                1.7631519665989412,
                -0.7121111123294463,
                0.6406956781155534,
                -3.3393470743636327
            ]
        },
        {
            "positions": [
                -2.759772925062821,
                -1.0528284580398664,
                1.912038692237122,
                -0.7260305924258328,
                0.5182150922546367,
                -3.375012532682475
            ]
        },
        {
            "positions": [
                -2.6641639484618422,
                -1.089415973990999,
                1.9437322872839478,
                -0.7578995033791256,
                0.5707709521989011,
                -3.3060005381587456
            ]
        },
        {
            "positions": [
                -2.568554971860863,
                -1.1260034899421314,
                1.9754258823307738,
                -0.7897684143324183,
                0.6233268121431655,
                -3.2369885436350168
            ]
        },
        {
            "positions": [
                -2.4729459952598845,
                -1.162591005893264,
                2.0071194773775995,
                -0.8216373252857111,
                0.6758826720874299,
                -3.1679765491112875
            ]
        }
    ]
}