{
    "goal": {
        "global_pose": {
            "orientation": {
                "w": -0.4816463035849501,
                "x": 0.5182115481033762,
                "y": 0.4908360881923453,
                "z": -0.5084816262002911
            },
            "position": {
                "x": -0.8240239810943604,
                "y": 0.19912469901144506,
                "z": 0.16403168439865112
            }
        },
        "name": "move_to_storage_D"
    },
    "id": "BiEST_move_to_storage_D_34",
    "joint_names": [
        "shoulder_pan_joint",
        "shoulder_lift_joint",
        "elbow_joint",
        "wrist_1_joint",
        "wrist_2_joint",
        "wrist_3_joint"
    ],
    "metrics": {
        "cart_traj_len": 3.7839054110764465,
        "distance_elbow_joint": 4.213804524485941,
        "distance_shoulder_lift_joint": 1.264229016563294,
        "distance_shoulder_pan_joint": 2.8143422748180567,
        "distance_wrist_1_joint": 2.308532375131229,
        "distance_wrist_2_joint": 0.8876072477481468,
        "distance_wrist_3_joint": 3.12539896050725,
        "smoothness": 0.11071046716909642,
        "time": 0.13283653,
        "traj_len": 3.822814983654573,
        "weighted_distance": 4.905186229201476
    },
    "planner": "BiEST",
    "start": {
        "state": {
            "elbow_joint": -2.384821988534728,
            "shoulder_lift_joint": -2.2788054721415256,
            "shoulder_pan_joint": -0.1854694642142757,
            "wrist_1_joint": 1.4845938289331202,
            "wrist_2_joint": 0.17898776772866878,
            "wrist_3_joint": 0.037105688729662994
        }
    },
    "waypoints": [
        {
            "positions": [
                -0.1854694642142757,
                -2.2788054721415256,
                -2.384821988534728,
                1.4845938289331202,
                0.17898776772866878,
                0.037105688729662994
            ]
        },
        {
            "positions": [
                -0.16491410670738624,
                -2.267449021100788,
                -2.382417196644303,
                1.4964083392499707,
                0.17630077081121365,
                0.020937960937806612
            ]
        },
        {
            "positions": [
                -0.08697096847296944,
                -2.235206305992872,
                -2.2651044305217236,
                1.4292048521252363,
                0.1909837887805119,
                -0.0579241361199119
            ]
        },
        {
            "positions": [
                -0.009027830238552637,
                -2.2029635908849565,
                -2.147791664399145,
                1.362001365000502,
                0.20566680674981014,
                -0.13678623317763042
            ]
        },
        {
            "positions": [
                0.0689153079958642,
                -2.1707208757770413,
                -2.0304788982765656,
                1.2947978778757676,
                0.22034982471910838,
                -0.21564833023534896
            ]
        },
        {
            "positions": [
                0.14685844623028096,
                -2.1384781606691257,
                -1.9131661321539866,
                1.2275943907510332,
                0.23503284268840663,
                -0.2945104272930675
            ]
        },
        {
            "positions": [
                0.2248015844646978,
                -2.10623544556121,
                -1.7958533660314075,
                1.160390903626299,
                0.2497158606577049,
                -0.373372524350786
            ]
        },
        {
            "positions": [
                0.3027447226991147,
                -2.0739927304532944,
                -1.6785405999088283,
                1.0931874165015645,
                0.2643988786270031,
                -0.45223462140850457
            ]
        },
        {
            "positions": [
                0.38068786093353135,
                -2.0417500153453787,
                -1.5612278337862495,
                1.0259839293768303,
                0.27908189659630134,
                -0.531096718466223
            ]
        },
        {
            "positions": [
                0.45863099916794814,
                -2.0095073002374635,
                -1.4439150676636703,
                0.9587804422520958,
                0.2937649145655996,
                -0.6099588155239415
            ]
        },
        {
            "positions": [
                0.536574137402365,
                -1.9772645851295478,
                -1.3266023015410913,
                0.8915769551273613,
                0.3084479325348979,
                -0.68882091258166
            ]
        },
        {
            "positions": [
                0.6145172756367818,
                -1.9450218700216322,
                -1.2092895354185123,
                0.824373468002627,
                0.32313095050419616,
                -0.7676830096393785
            ]
        },
        {
            "positions": [
                0.6924604138711986,
                -1.9127791549137165,
                -1.0919767692959332,
                0.7571699808778926,
                0.3378139684734944,
                -0.846545106697097
            ]
        },
        {
            "positions": [
                0.7704035521056155,
                -1.880536439805801,
                -0.974664003173354,
                0.6899664937531582,
                0.3524969864427926,
                -0.9254072037548157
            ]
        },
        {
            "positions": [
                0.8483466903400321,
                -1.8482937246978857,
                -0.8573512370507752,
                0.622763006628424,
                0.36718000441209087,
                -1.004269300812534
            ]
        },
        {
            "positions": [
                0.926289828574449,
                -1.81605100958997,
                -0.7400384709281962,
                0.5555595195036895,
                0.3818630223813891,
                -1.0831313978702526
            ]
        },
        {
            "positions": [
                1.0042329668088659,
                -1.7838082944820544,
                -0.6227257048056172,
                0.4883560323789551,
                0.39654604035068736,
                -1.161993494927971
            ]
        },
        {
            "positions": [
                1.0821761050432825,
                -1.7515655793741387,
                -0.5054129386830379,
                0.42115254525422086,
                0.4112290583199856,
                -1.2408555919856896
            ]
        },
        {
            "positions": [
                1.1601192432776994,
                -1.7193228642662233,
                -0.3881001725604589,
                0.3539490581294864,
                0.42591207628928385,
                -1.3197176890434081
            ]
        },
        {
            "positions": [
                1.2380623815121163,
                -1.6870801491583078,
                -0.2707874064378797,
                0.28674557100475195,
                0.4405950942585821,
                -1.3985797861011267
            ]
        },
        {
            "positions": [
                1.316005519746533,
                -1.6548374340503922,
                -0.1534746403153009,
                0.21954208388001772,
                0.45527811222788034,
                -1.4774418831588452
            ]
        },
        {
            "positions": [
                1.39394865798095,
                -1.6225947189424765,
                -0.036161874192721655,
                0.15233859675528327,
                0.4699611301971786,
                -1.5563039802165637
            ]
        },
        {
            "positions": [
                1.4718917962153668,
                -1.5903520038345609,
                0.08115089192985758,
                0.08513510963054882,
                0.48464414816647683,
                -1.6351660772742822
            ]
        },
        {
            "positions": [
                1.5498349344497835,
                -1.5581092887266454,
                0.19846365805243638,
                0.01793162250581437,
                0.4993271661357751,
                -1.7140281743320007
            ]
        },
        {
            "positions": [
                1.6277780726842004,
                -1.52586657361873,
                0.3157764241750156,
                -0.04927186461891986,
                0.5140101841050734,
                -1.7928902713897192
            ]
        },
        {
            "positions": [
                1.7057212109186173,
                -1.4936238585108144,
                0.43308919029759485,
                -0.11647535174365431,
                0.5286932020743715,
                -1.871752368447438
            ]
        },
        {
            "positions": [
                1.783664349153034,
                -1.4613811434028987,
                0.5504019564201736,
                -0.18367883886838876,
                0.5433762200436698,
                -1.9506144655051565
            ]
        },
        {
            "positions": [
                1.8616074873874504,
                -1.4291384282949833,
                0.6677147225427524,
                -0.25088232599312277,
                0.5580592380129681,
                -2.029476562562875
            ]
        },
        {
            "positions": [
                1.9395506256218675,
                -1.3968957131870678,
                0.7850274886653312,
                -0.3180858131178572,
                0.5727422559822664,
                -2.108338659620593
            ]
        },
        {
            "positions": [
                2.0174937638562844,
                -1.3646529980791522,
                0.9023402547879105,
                -0.38528930024259167,
                0.5874252739515645,
                -2.187200756678312
            ]
        },
        {
            "positions": [
                2.095436902090701,
                -1.3324102829712365,
                1.0196530209104897,
                -0.4524927873673259,
                0.6021082919208628,
                -2.26606285373603
            ]
        },
        {
            "positions": [
                2.1733800403251182,
                -1.3001675678633209,
                1.1369657870330685,
                -0.5196962744920606,
                0.6167913098901611,
                -2.344924950793749
            ]
        },
        {
            "positions": [
                2.251323178559535,
                -1.2679248527554055,
                1.2542785531556477,
                -0.5868997616167946,
                0.6314743278594592,
                -2.423787047851467
            ]
        },
        {
            "positions": [
                2.3292663167939516,
                -1.2356821376474898,
                1.371591319278227,
                -0.654103248741529,
                0.6461573458287575,
                -2.502649144909186
            ]
        },
        {
            "positions": [
                2.4072094550283687,
                -1.2034394225395744,
                1.4889040854008058,
                -0.7213067358662635,
                0.6608403637980558,
                -2.581511241966904
            ]
        },
        {
            "positions": [
                2.4851525932627854,
                -1.1711967074316587,
                1.6062168515233852,
                -0.7885102229909979,
                0.675523381767354,
                -2.660373339024623
            ]
        },
        {
            "positions": [
                2.521082647598034,
                -1.132041644468302,
                1.6619082726303416,
                -0.7914600486343505,
                0.7719477917359918,
                -2.767353322212864
            ]
        },
        {
            "positions": [
                2.5570127019332833,
                -1.092886581504945,
                1.7175996937372981,
                -0.794409874277703,
                0.8683722017046297,
                -2.874333305401105
            ]
        },
        {
            "positions": [
                2.592942756268532,
                -1.0537315185415885,
                1.7732911148442545,
                -0.7973596999210556,
                0.9647966116732676,
                -2.981313288589346
            ]
        },
        {
            "positions": [
                2.628872810603781,
                -1.0145764555782317,
                1.8289825359512109,
                -0.8003095255644082,
                1.0612210216419053,
                -3.088293271777587
            ]
        }
    ]
}