{
    "goal": {
        "global_pose": {
            "orientation": {
                "w": 0.005598929693374612,
                "x": 0.007748599140229565,
                "y": 0.7110244013736278,
                "z": -0.7031023480610252
            },
            "position": {
                "x": 0.1141497679147869,
                "y": -0.7141253447532654,
                "z": 0.3711530566215515
            }
        },
        "name": "move_to_auspresseinheit_B"
    },
    "id": "BiEST_move_to_auspresseinheit_B_6",
    "joint_names": [
        "shoulder_pan_joint",
        "shoulder_lift_joint",
        "elbow_joint",
        "wrist_1_joint",
        "wrist_2_joint",
        "wrist_3_joint"
    ],
    "metrics": {
        "cart_traj_len": 0.563885438753238,
        "distance_elbow_joint": 0.061165654126106084,
        "distance_shoulder_lift_joint": 0.2951344618926166,
        "distance_shoulder_pan_joint": 0.5755002291525204,
        "distance_wrist_1_joint": 0.3225167772146902,
        "distance_wrist_2_joint": 0.9971222490489859,
        "distance_wrist_3_joint": 0.0034657115934382254,
        "smoothness": 0.0,
        "time": 0.050629068,
        "traj_len": 1.5016341375409517,
        "weighted_distance": 1.8924786742467958
    },
    "planner": "BiEST",
    "start": {
        "state": {
            "elbow_joint": 2.0193083361928714,
            "shoulder_lift_joint": -1.1220246554650708,
            "shoulder_pan_joint": -1.0952077554168747,
            "wrist_1_joint": -0.8559753972642168,
            "wrist_2_joint": 0.4759566250798843,
            "wrist_3_joint": -3.1240929996934557
        }
    },
    "waypoints": [
        {
            "positions": [
                -1.0952077554168747,
                -1.1220246554650708,
                2.0193083361928714,
                -0.8559753972642168,
                0.4759566250798843,
                -3.1240929996934557
            ]
        },
        {
            "positions": [
                -1.1911244602756281,
                -1.1712137324471736,
                2.009114060505187,
                -0.8022226010617685,
                0.6421436665880487,
                -3.123515381094549
            ]
        },
        {
            "positions": [
                -1.2870411651343814,
                -1.2204028094292763,
                1.9989197848175027,
                -0.74846980485932,
                0.808330708096213,
                -3.122937762495643
            ]
        },
        {
            "positions": [
                -1.3829578699931349,
                -1.269591886411379,
                1.9887255091298184,
                -0.6947170086568717,
                0.9745177496043773,
                -3.1223601438967368
            ]
        },
        {
            "positions": [
                -1.4788745748518881,
                -1.318780963393482,
                1.978531233442134,
                -0.6409642124544234,
                1.1407047911125416,
                -3.12178252529783
            ]
        },
        {
            "positions": [
                -1.5747912797106416,
                -1.3679700403755846,
                1.9683369577544496,
                -0.5872114162519749,
                1.306891832620706,
                -3.1212049066989236
            ]
        },
        {
            "positions": [
                -1.670707984569395,
                -1.4171591173576874,
                1.9581426820667653,
                -0.5334586200495266,
                1.4730788741288703,
                -3.1206272881000174
            ]
        }
    ]
}