{
    "goal": {
        "global_pose": {
            "orientation": {
                "w": -0.4816463035849501,
                "x": 0.5182115481033762,
                "y": 0.4908360881923453,
                "z": -0.5084816262002911
            },
            "position": {
                "x": -0.8240239810943604,
                "y": -0.300875300988555,
                "z": 0.16403168439865112
            }
        },
        "name": "move_to_storage_C"
    },
    "id": "BiEST_move_to_storage_C_133",
    "joint_names": [
        "shoulder_pan_joint",
        "shoulder_lift_joint",
        "elbow_joint",
        "wrist_1_joint",
        "wrist_2_joint",
        "wrist_3_joint"
    ],
    "metrics": {
        "cart_traj_len": 0.5768530675046912,
        "distance_elbow_joint": 0.2601899240881915,
        "distance_shoulder_lift_joint": 0.18860839624854153,
        "distance_shoulder_pan_joint": 0.4953391077583924,
        "distance_wrist_1_joint": 0.08901492405873457,
        "distance_wrist_2_joint": 1.0661084436315846,
        "distance_wrist_3_joint": 0.07444233645846454,
        "smoothness": 2.5376526478085547e-16,
        "time": 0.127757501,
        "traj_len": 1.4743483754675857,
        "weighted_distance": 1.8648622396443009
    },
    "planner": "BiEST",
    "start": {
        "state": {
            "elbow_joint": 2.010868314990456,
            "shoulder_lift_joint": -1.1634956873337592,
            "shoulder_pan_joint": -2.4736205022346125,
            "wrist_1_joint": -0.8367026794202681,
            "wrist_2_joint": 0.6746043897044499,
            "wrist_3_joint": -3.1496632123970403
        }
    },
    "waypoints": [
        {
            "positions": [
                -2.4736205022346125,
                -1.1634956873337592,
                2.010868314990456,
                -0.8367026794202681,
                0.6746043897044499,
                -3.1496632123970403
            ]
        },
        {
            "positions": [
                -2.556177020194345,
                -1.132060954625669,
                1.9675033276424239,
                -0.8218668587438124,
                0.852289130309714,
                -3.1372561563206296
            ]
        },
        {
            "positions": [
                -2.6387335381540766,
                -1.1006262219175786,
                1.924138340294392,
                -0.8070310380673565,
                1.0299738709149782,
                -3.124849100244219
            ]
        },
        {
            "positions": [
                -2.7212900561138085,
                -1.0691914892094885,
                1.8807733529463602,
                -0.7921952173909008,
                1.2076586115202423,
                -3.112442044167808
            ]
        },
        {
            "positions": [
                -2.8038465740735408,
                -1.037756756501398,
                1.8374083655983282,
                -0.7773593967144451,
                1.3853433521255063,
                -3.100034988091397
            ]
        },
        {
            "positions": [
                -2.886403092033273,
                -1.006322023793308,
                1.7940433782502963,
                -0.7625235760379893,
                1.5630280927307705,
                -3.0876279320149864
            ]
        },
        {
            "positions": [
                -2.968959609993005,
                -0.9748872910852177,
                1.7506783909022643,
                -0.7476877553615335,
                1.7407128333360347,
                -3.0752208759385757
            ]
        }
    ]
}