{
    "goal": {
        "global_pose": {
            "orientation": {
                "w": 0.7047431493862688,
                "x": -0.7094548369677653,
                "y": 0.0024358444001904,
                "z": -0.0022348060817251984
            },
            "position": {
                "x": -0.39052492380142206,
                "y": 0.3671506643295288,
                "z": 0.19426114857196808
            }
        },
        "name": "move_to_magneteinheit_D"
    },
    "id": "BiEST_move_to_magneteinheit_D_68",
    "joint_names": [
        "shoulder_pan_joint",
        "shoulder_lift_joint",
        "elbow_joint",
        "wrist_1_joint",
        "wrist_2_joint",
        "wrist_3_joint"
    ],
    "metrics": {
        "cart_traj_len": 4.994024807755379,
        "distance_elbow_joint": 3.141469535643662,
        "distance_shoulder_lift_joint": 1.7076460857352542,
        "distance_shoulder_pan_joint": 3.917970285575458,
        "distance_wrist_1_joint": 1.7532065177288079,
        "distance_wrist_2_joint": 0.32001550289539527,
        "distance_wrist_3_joint": 3.676706169252067,
        "smoothness": 0.7018389312220589,
        "time": 0.11760013999999999,
        "traj_len": 3.8101199583255436,
        "weighted_distance": 4.89322475019889
    },
    "planner": "BiEST",
    "start": {
        "state": {
            "elbow_joint": 0.749534889911806,
            "shoulder_lift_joint": -0.6476975780787326,
            "shoulder_pan_joint": -2.711696901376241,
            "wrist_1_joint": -0.07506478083263063,
            "wrist_2_joint": 0.43296659715538205,
            "wrist_3_joint": -3.14703540197715
        }
    },
    "waypoints": [
        {
            "positions": [
                -2.711696901376241,
                -0.6476975780787326,
                0.749534889911806,
                -0.07506478083263063,
                0.43296659715538205,
                -3.14703540197715
            ]
        },
        {
            "positions": [
                -2.759012240247295,
                -0.7530250597882542,
                0.7271777700667741,
                -0.11188664867589516,
                0.4109566922691928,
                -3.223041820325128
            ]
        },
        {
            "positions": [
                -2.8063275791183493,
                -0.8583525414977757,
                0.7048206502217421,
                -0.1487085165191597,
                0.3889467873830035,
                -3.299048238673106
            ]
        },
        {
            "positions": [
                -2.8536429179894034,
                -0.9636800232072973,
                0.6824635303767103,
                -0.18553038436242425,
                0.3669368824968142,
                -3.375054657021084
            ]
        },
        {
            "positions": [
                -2.74623600561599,
                -1.0087849361848942,
                0.6085607146888532,
                -0.13780837524775796,
                0.35960118713361794,
                -3.2614268248219633
            ]
        },
        {
            "positions": [
                -2.638829093242577,
                -1.053889849162491,
                0.534657899000996,
                -0.09008636613309168,
                0.35226549177042166,
                -3.147798992622842
            ]
        },
        {
            "positions": [
                -2.5314221808691637,
                -1.098994762140088,
                0.46075508331313897,
                -0.04236435701842539,
                0.3449297964072254,
                -3.034171160423721
            ]
        },
        {
            "positions": [
                -2.4240152684957508,
                -1.1440996751176848,
                0.38685226762528185,
                0.005357652096240895,
                0.3375941010440291,
                -2.9205433282246
            ]
        },
        {
            "positions": [
                -2.3166083561223374,
                -1.1892045880952817,
                0.3129494519374248,
                0.05307966121090718,
                0.3302584056808328,
                -2.806915496025479
            ]
        },
        {
            "positions": [
                -2.2092014437489245,
                -1.2343095010728786,
                0.23904663624956768,
                0.10080167032557347,
                0.32292271031763653,
                -2.693287663826358
            ]
        },
        {
            "positions": [
                -2.101794531375511,
                -1.2794144140504755,
                0.16514382056171062,
                0.14852367944023975,
                0.31558701495444025,
                -2.5796598316272368
            ]
        },
        {
            "positions": [
                -1.9943876190020982,
                -1.3245193270280724,
                0.09124100487385345,
                0.19624568855490604,
                0.30825131959124397,
                -2.466031999428116
            ]
        },
        {
            "positions": [
                -1.8869807066286848,
                -1.3696242400056693,
                0.01733818918599639,
                0.24396769766957233,
                0.3009156242280477,
                -2.352404167228995
            ]
        },
        {
            "positions": [
                -1.7795737942552718,
                -1.4147291529832662,
                -0.05656462650186067,
                0.2916897067842386,
                0.2935799288648514,
                -2.2387763350298737
            ]
        },
        {
            "positions": [
                -1.6721668818818587,
                -1.459834065960863,
                -0.13046744218971773,
                0.3394117158989049,
                0.2862442335016551,
                -2.125148502830753
            ]
        },
        {
            "positions": [
                -1.5647599695084453,
                -1.5049389789384602,
                -0.2043702578775749,
                0.3871337250135712,
                0.27890853813845884,
                -2.011520670631632
            ]
        },
        {
            "positions": [
                -1.4573530571350322,
                -1.550043891916057,
                -0.27827307356543207,
                0.43485573412823747,
                0.27157284277526256,
                -1.8978928384325107
            ]
        },
        {
            "positions": [
                -1.349946144761619,
                -1.595148804893654,
                -0.352175889253289,
                0.48257774324290376,
                0.2642371474120663,
                -1.7842650062333898
            ]
        },
        {
            "positions": [
                -1.2425392323882058,
                -1.6402537178712508,
                -0.4260787049411462,
                0.5302997523575701,
                0.25690145204887,
                -1.6706371740342687
            ]
        },
        {
            "positions": [
                -1.1351323200147927,
                -1.6853586308488477,
                -0.49998152062900336,
                0.5780217614722363,
                0.2495657566856737,
                -1.5570093418351476
            ]
        },
        {
            "positions": [
                -1.0277254076413795,
                -1.7304635438264446,
                -0.5738843363168603,
                0.6257437705869027,
                0.24223006132247743,
                -1.4433815096360267
            ]
        },
        {
            "positions": [
                -0.9203184952679664,
                -1.7755684568040415,
                -0.6477871520047175,
                0.6734657797015688,
                0.23489436595928115,
                -1.3297536774369059
            ]
        },
        {
            "positions": [
                -0.8129115828945532,
                -1.8206733697816384,
                -0.7216899676925744,
                0.7211877888162352,
                0.22755867059608487,
                -1.2161258452377846
            ]
        },
        {
            "positions": [
                -0.7055046705211403,
                -1.8657782827592353,
                -0.7955927833804316,
                0.7689097979309014,
                0.22022297523288858,
                -1.1024980130386637
            ]
        },
        {
            "positions": [
                -0.5980977581477269,
                -1.9108831957368322,
                -0.8694955990682888,
                0.8166318070455676,
                0.2128872798696923,
                -0.9888701808395428
            ]
        },
        {
            "positions": [
                -0.490690845774314,
                -1.955988108714429,
                -0.9433984147561457,
                0.864353816160234,
                0.20555158450649602,
                -0.8752423486404215
            ]
        },
        {
            "positions": [
                -0.38328393340090017,
                -2.001093021692026,
                -1.0173012304440032,
                0.9120758252749004,
                0.19821588914329974,
                -0.7616145164413002
            ]
        },
        {
            "positions": [
                -0.27587702102748723,
                -2.046197934669623,
                -1.09120404613186,
                0.9597978343895666,
                0.19088019378010346,
                -0.6479866842421793
            ]
        },
        {
            "positions": [
                -0.16847010865407386,
                -2.0913028476472197,
                -1.1651068618197171,
                1.007519843504233,
                0.18354449841690718,
                -0.5343588520430584
            ]
        },
        {
            "positions": [
                -0.061063196280660925,
                -2.1364077606248166,
                -1.2390096775075743,
                1.0552418526188991,
                0.1762088030537109,
                -0.4207310198439371
            ]
        },
        {
            "positions": [
                0.04634371609275245,
                -2.1815126736024135,
                -1.3129124931954315,
                1.1029638617335655,
                0.1688731076905146,
                -0.30710318764481626
            ]
        },
        {
            "positions": [
                0.15375062846616538,
                -2.2266175865800104,
                -1.3868153088832882,
                1.1506858708482317,
                0.16153741232731833,
                -0.19347535544569539
            ]
        },
        {
            "positions": [
                0.26115754083957876,
                -2.2717224995576073,
                -1.4607181245711454,
                1.198407879962898,
                0.15420171696412205,
                -0.07984752324657407
            ]
        },
        {
            "positions": [
                0.3685644532129918,
                -2.316827412535204,
                -1.5346209402590025,
                1.2461298890775643,
                0.14686602160092577,
                0.03378030895254667
            ]
        },
        {
            "positions": [
                0.2578010736610119,
                -2.309124162279448,
                -1.7060836813535734,
                1.2883460172293695,
                0.15364900706911355,
                0.041750698599446794
            ]
        },
        {
            "positions": [
                0.14703769410903203,
                -2.301420912023691,
                -1.8775464224481442,
                1.3305621453811747,
                0.16043199253730134,
                0.04972108824634691
            ]
        },
        {
            "positions": [
                0.036274314557052156,
                -2.2937176617679347,
                -2.049009163542715,
                1.3727782735329797,
                0.16721497800548915,
                0.05769147789324704
            ]
        },
        {
            "positions": [
                -0.07448906499492775,
                -2.286014411512178,
                -2.220471904637286,
                1.4149944016847849,
                0.17399796347367694,
                0.06566186754014716
            ]
        },
        {
            "positions": [
                -0.18525244454690762,
                -2.2783111612564215,
                -2.3919346457318564,
                1.45721052983659,
                0.18078094894186472,
                0.07363225718704729
            ]
        }
    ]
}