{
    "goal": {
        "global_pose": {
            "orientation": {
                "w": 0.005598929693374612,
                "x": 0.007748599140229565,
                "y": 0.7110244013736278,
                "z": -0.7031023480610252
            },
            "position": {
                "x": 0.1141497679147869,
                "y": -0.7141253447532654,
                "z": 0.3711530566215515
            }
        },
        "name": "move_to_auspresseinheit_B"
    },
    "id": "BiEST_move_to_auspresseinheit_B_20",
    "joint_names": [
        "shoulder_pan_joint",
        "shoulder_lift_joint",
        "elbow_joint",
        "wrist_1_joint",
        "wrist_2_joint",
        "wrist_3_joint"
    ],
    "metrics": {
        "cart_traj_len": 0.5649673317228053,
        "distance_elbow_joint": 0.06509966419361013,
        "distance_shoulder_lift_joint": 0.2941040081567765,
        "distance_shoulder_pan_joint": 0.5752358695734967,
        "distance_wrist_1_joint": 0.3369449158367791,
        "distance_wrist_2_joint": 1.0069589458246992,
        "distance_wrist_3_joint": 0.003072475966492405,
        "smoothness": 0.0,
        "time": 0.227682431,
        "traj_len": 1.5104356588586798,
        "weighted_distance": 1.9056402318240233
    },
    "planner": "BiEST",
    "start": {
        "state": {
            "elbow_joint": 2.0193083361928714,
            "shoulder_lift_joint": -1.1220246554650708,
            "shoulder_pan_joint": -1.0952077554168747,
            "wrist_1_joint": -0.8559753972642168,
            "wrist_2_joint": 0.4759566250798843,
            "wrist_3_joint": -3.1240929996934557
        }
    },
    "waypoints": [
        {
            "positions": [
                -1.0952077554168747,
                -1.1220246554650708,
                2.0193083361928714,
                -0.8559753972642168,
                0.4759566250798843,
                -3.1240929996934557
            ]
        },
        {
            "positions": [
                -1.1910804003457907,
                -1.1710419901578668,
                2.008458392160603,
                -0.7998179112914203,
                0.6437831160506675,
                -3.123580920365707
            ]
        },
        {
            "positions": [
                -1.2869530452747069,
                -1.220059324850663,
                1.9976084481283347,
                -0.7436604253186238,
                0.8116096070214507,
                -3.1230688410379583
            ]
        },
        {
            "positions": [
                -1.3828256902036231,
                -1.269076659543459,
                1.9867585040960662,
                -0.6875029393458272,
                0.9794360979922339,
                -3.1225567617102095
            ]
        },
        {
            "positions": [
                -1.4786983351325391,
                -1.318093994236255,
                1.975908560063798,
                -0.6313454533730307,
                1.147262588963017,
                -3.1220446823824606
            ]
        },
        {
            "positions": [
                -1.5745709800614551,
                -1.3671113289290513,
                1.9650586160315298,
                -0.5751879674002343,
                1.3150890799338004,
                -3.121532603054712
            ]
        },
        {
            "positions": [
                -1.6704436249903714,
                -1.4161286636218473,
                1.9542086719992613,
                -0.5190304814274377,
                1.4829155709045836,
                -3.1210205237269633
            ]
        }
    ]
}