{
    "goal": {
        "global_pose": {
            "orientation": {
                "w": 0.7031023480610252,
                "x": -0.7110244013736278,
                "y": 0.0077485991402295624,
                "z": 0.005598929693374583
            },
            "position": {
                "x": -0.8841497679147869,
                "y": 0.44412534475326537,
                "z": 0.3711530566215515
            }
        },
        "name": "move_to_auspresseinheit_D"
    },
    "id": "BiEST_move_to_auspresseinheit_D_150",
    "joint_names": [
        "shoulder_pan_joint",
        "shoulder_lift_joint",
        "elbow_joint",
        "wrist_1_joint",
        "wrist_2_joint",
        "wrist_3_joint"
    ],
    "metrics": {
        "cart_traj_len": 0.344486469283439,
        "distance_elbow_joint": 0.6537104735635249,
        "distance_shoulder_lift_joint": 0.12918655168882598,
        "distance_shoulder_pan_joint": 0.13442946242946693,
        "distance_wrist_1_joint": 0.582705777783949,
        "distance_wrist_2_joint": 1.4336696106262397,
        "distance_wrist_3_joint": 0.05054517279764026,
        "smoothness": 1.2829243884734263e-15,
        "time": 0.067897133,
        "traj_len": 1.7274973368690463,
        "weighted_distance": 2.2586971428004943
    },
    "planner": "BiEST",
    "start": {
        "state": {
            "elbow_joint": -1.8275523626775212,
            "shoulder_lift_joint": -2.126789852344167,
            "shoulder_pan_joint": -0.03513704404078235,
            "wrist_1_joint": -2.347782403156801,
            "wrist_2_joint": -1.6058999987535132,
            "wrist_3_joint": -3.0880379163319196
        }
    },
    "waypoints": [
        {
            "positions": [
                -0.03513704404078235,
                -2.126789852344167,
                -1.8275523626775212,
                -2.347782403156801,
                -1.6058999987535132,
                -3.0880379163319196
            ]
        },
        {
            "positions": [
                -0.05194072684446571,
                -2.14293817130527,
                -1.7458385534820806,
                -2.4206206253797946,
                -1.4266912974252333,
                -3.0817197697322145
            ]
        },
        {
            "positions": [
                -0.06874440964814908,
                -2.1590864902663736,
                -1.66412474428664,
                -2.4934588476027884,
                -1.2474825960969533,
                -3.0754016231325094
            ]
        },
        {
            "positions": [
                -0.08554809245183245,
                -2.1752348092274767,
                -1.5824109350911995,
                -2.5662970698257817,
                -1.0682738947686734,
                -3.0690834765328043
            ]
        },
        {
            "positions": [
                -0.10235177525551581,
                -2.19138312818858,
                -1.5006971258957589,
                -2.6391352920487754,
                -0.8890651934403934,
                -3.0627653299330992
            ]
        },
        {
            "positions": [
                -0.11915545805919919,
                -2.207531447149683,
                -1.4189833167003183,
                -2.711973514271769,
                -0.7098564921121134,
                -3.0564471833333946
            ]
        },
        {
            "positions": [
                -0.13595914086288255,
                -2.223679766110786,
                -1.3372695075048775,
                -2.7848117364947624,
                -0.5306477907838334,
                -3.0501290367336895
            ]
        },
        {
            "positions": [
                -0.1527628236665659,
                -2.2398280850718897,
                -1.255555698309437,
                -2.857649958717756,
                -0.35143908945555347,
                -3.0438108901339844
            ]
        },
        {
            "positions": [
                -0.1695665064702493,
                -2.255976404032993,
                -1.1738418891139963,
                -2.93048818094075,
                -0.17223038812727348,
                -3.0374927435342793
            ]
        }
    ]
}