{
    "goal": {
        "global_pose": {
            "orientation": {
                "w": 0.005598929693374612,
                "x": 0.007748599140229565,
                "y": 0.7110244013736278,
                "z": -0.7031023480610252
            },
            "position": {
                "x": 0.1141497679147869,
                "y": -0.7141253447532654,
                "z": 0.3711530566215515
            }
        },
        "name": "move_to_auspresseinheit_B"
    },
    "id": "BiEST_move_to_auspresseinheit_B_136",
    "joint_names": [
        "shoulder_pan_joint",
        "shoulder_lift_joint",
        "elbow_joint",
        "wrist_1_joint",
        "wrist_2_joint",
        "wrist_3_joint"
    ],
    "metrics": {
        "cart_traj_len": 0.5643845238845492,
        "distance_elbow_joint": 0.06548192331588365,
        "distance_shoulder_lift_joint": 0.2942171397895761,
        "distance_shoulder_pan_joint": 0.5766447386484124,
        "distance_wrist_1_joint": 0.33468824529440355,
        "distance_wrist_2_joint": 0.9900180025051153,
        "distance_wrist_3_joint": 0.0033666942517243115,
        "smoothness": 5.075305255429287e-16,
        "time": 0.05432168899999999,
        "traj_len": 1.5047979079614362,
        "weighted_distance": 1.8962743419948715
    },
    "planner": "BiEST",
    "start": {
        "state": {
            "elbow_joint": 2.0193083361928714,
            "shoulder_lift_joint": -1.1220246554650708,
            "shoulder_pan_joint": -1.0952077554168747,
            "wrist_1_joint": -0.8559753972642168,
            "wrist_2_joint": 0.4759566250798843,
            "wrist_3_joint": -3.1240929996934557
        }
    },
    "waypoints": [
        {
            "positions": [
                -1.0952077554168747,
                -1.1220246554650708,
                2.0193083361928714,
                -0.8559753972642168,
                0.4759566250798843,
                -3.1240929996934557
            ]
        },
        {
            "positions": [
                -1.1913152118582766,
                -1.1710608454300002,
                2.008394682306891,
                -0.8001940230484829,
                0.6409596254974035,
                -3.1246541154020764
            ]
        },
        {
            "positions": [
                -1.2874226682996788,
                -1.2200970353949294,
                1.9974810284209101,
                -0.7444126488327489,
                0.8059626259149226,
                -3.125215231110697
            ]
        },
        {
            "positions": [
                -1.383530124741081,
                -1.2691332253598588,
                1.9865673745349297,
                -0.688631274617015,
                0.970965626332442,
                -3.125776346819318
            ]
        },
        {
            "positions": [
                -1.479637581182483,
                -1.3181694153247883,
                1.975653720648949,
                -0.6328499004012811,
                1.1359686267499611,
                -3.1263374625279385
            ]
        },
        {
            "positions": [
                -1.5757450376238848,
                -1.3672056052897175,
                1.9647400667629684,
                -0.5770685261855472,
                1.3009716271674805,
                -3.1268985782365593
            ]
        },
        {
            "positions": [
                -1.671852494065287,
                -1.4162417952546469,
                1.9538264128769878,
                -0.5212871519698132,
                1.4659746275849996,
                -3.12745969394518
            ]
        }
    ]
}