{
    "goal": {
        "global_pose": {
            "orientation": {
                "w": 0.7047431468963623,
                "x": -0.7094548344612122,
                "y": 0.0024358443915843964,
                "z": -0.0022348060738295317
            },
            "position": {
                "x": 0.6094750761985779,
                "y": 0.3671506643295288,
                "z": 0.19426114857196808
            }
        },
        "name": "move_to_magneteinheit_A"
    },
    "id": "BiEST_move_to_magneteinheit_A_25",
    "joint_names": [
        "shoulder_pan_joint",
        "shoulder_lift_joint",
        "elbow_joint",
        "wrist_1_joint",
        "wrist_2_joint",
        "wrist_3_joint"
    ],
    "metrics": {
        "cart_traj_len": 3.2162255746670545,
        "distance_elbow_joint": 3.8893039989996554,
        "distance_shoulder_lift_joint": 1.090790563230194,
        "distance_shoulder_pan_joint": 5.048352307255784,
        "distance_wrist_1_joint": 4.020462155333441,
        "distance_wrist_2_joint": 1.701478633756948,
        "distance_wrist_3_joint": 3.6524291250144194,
        "smoothness": 0.27554392157842084,
        "time": 0.086760189,
        "traj_len": 4.40486285638843,
        "weighted_distance": 5.694700678939119
    },
    "planner": "BiEST",
    "start": {
        "state": {
            "elbow_joint": -1.9196185241190666,
            "shoulder_lift_joint": -1.2443396400964142,
            "shoulder_pan_joint": 2.6996025414629847,
            "wrist_1_joint": -1.5485510000780065,
            "wrist_2_joint": -1.5709468930060704,
            "wrist_3_joint": 0.4420197071253992
        }
    },
    "waypoints": [
        {
            "positions": [
                2.6996025414629847,
                -1.2443396400964142,
                -1.9196185241190666,
                -1.5485510000780065,
                -1.5709468930060704,
                0.4420197071253992
            ]
        },
        {
            "positions": [
                2.5766117292394775,
                -1.260236555149049,
                -1.8542616882029785,
                -1.4710589563780463,
                -1.560784563045567,
                0.3468240945487536
            ]
        },
        {
            "positions": [
                2.4536209170159697,
                -1.2761334702016838,
                -1.7889048522868904,
                -1.3935669126780863,
                -1.5506222330850639,
                0.2516284819721081
            ]
        },
        {
            "positions": [
                2.3306301047924625,
                -1.2920303852543187,
                -1.7235480163708026,
                -1.3160748689781263,
                -1.5404599031245605,
                0.15643286939546258
            ]
        },
        {
            "positions": [
                2.2076392925689547,
                -1.3079273003069536,
                -1.6581911804547145,
                -1.238582825278166,
                -1.5302975731640571,
                0.06123725681881703
            ]
        },
        {
            "positions": [
                2.0846484803454475,
                -1.3238242153595885,
                -1.5928343445386264,
                -1.1610907815782059,
                -1.520135243203554,
                -0.03395835575782852
            ]
        },
        {
            "positions": [
                1.9616576681219398,
                -1.3397211304122232,
                -1.5274775086225383,
                -1.083598737878246,
                -1.5099729132430506,
                -0.129153968334474
            ]
        },
        {
            "positions": [
                1.8386668558984325,
                -1.355618045464858,
                -1.4621206727064502,
                -1.006106694178286,
                -1.4998105832825472,
                -0.22434958091111956
            ]
        },
        {
            "positions": [
                1.7156760436749248,
                -1.371514960517493,
                -1.3967638367903623,
                -0.9286146504783257,
                -1.489648253322044,
                -0.3195451934877651
            ]
        },
        {
            "positions": [
                1.5926852314514173,
                -1.387411875570128,
                -1.331407000874274,
                -0.8511226067783655,
                -1.4794859233615407,
                -0.41474080606441077
            ]
        },
        {
            "positions": [
                1.4696944192279098,
                -1.4033087906227626,
                -1.2660501649581861,
                -0.7736305630784055,
                -1.4693235934010376,
                -0.5099364186410562
            ]
        },
        {
            "positions": [
                1.3467036070044023,
                -1.4192057056753975,
                -1.2006933290420978,
                -0.6961385193784453,
                -1.4591612634405342,
                -0.6051320312177019
            ]
        },
        {
            "positions": [
                1.223712794780895,
                -1.4351026207280324,
                -1.13533649312601,
                -0.6186464756784853,
                -1.4489989334800308,
                -0.7003276437943472
            ]
        },
        {
            "positions": [
                1.1007219825573873,
                -1.4509995357806673,
                -1.0699796572099218,
                -0.5411544319785251,
                -1.4388366035195277,
                -0.795523256370993
            ]
        },
        {
            "positions": [
                0.97773117033388,
                -1.466896450833302,
                -1.0046228212938337,
                -0.4636623882785651,
                -1.4286742735590243,
                -0.8907188689476383
            ]
        },
        {
            "positions": [
                0.8547403581103723,
                -1.482793365885937,
                -0.9392659853777457,
                -0.3861703445786049,
                -1.418511943598521,
                -0.9859144815242841
            ]
        },
        {
            "positions": [
                0.731749545886865,
                -1.4986902809385718,
                -0.8739091494616578,
                -0.3086783008786449,
                -1.4083496136380178,
                -1.0811100941009295
            ]
        },
        {
            "positions": [
                0.6087587336633575,
                -1.5145871959912065,
                -0.8085523135455697,
                -0.2311862571786849,
                -1.3981872836775144,
                -1.1763057066775748
            ]
        },
        {
            "positions": [
                0.4857679214398498,
                -1.5304841110438416,
                -0.7431954776294816,
                -0.15369421347872447,
                -1.388024953717011,
                -1.2715013192542206
            ]
        },
        {
            "positions": [
                0.36277710921634254,
                -1.5463810260964763,
                -0.6778386417133935,
                -0.07620216977876448,
                -1.377862623756508,
                -1.3666969318308664
            ]
        },
        {
            "positions": [
                0.23978629699283482,
                -1.5622779411491112,
                -0.6124818057973054,
                0.0012898739211955057,
                -1.3677002937960046,
                -1.4618925444075117
            ]
        },
        {
            "positions": [
                0.11679548476932755,
                -1.5781748562017461,
                -0.5471249698812175,
                0.0787819176211555,
                -1.3575379638355014,
                -1.557088156984157
            ]
        },
        {
            "positions": [
                -0.006195327454180166,
                -1.5940717712543808,
                -0.4817681339651292,
                0.15627396132111593,
                -1.347375633874998,
                -1.6522837695608028
            ]
        },
        {
            "positions": [
                -0.12918613967768744,
                -1.6099686863070157,
                -0.4164112980490413,
                0.23376600502107592,
                -1.3372133039144947,
                -1.7474793821374481
            ]
        },
        {
            "positions": [
                -0.2521769519011947,
                -1.6258656013596506,
                -0.3510544621329532,
                0.3112580487210359,
                -1.3270509739539915,
                -1.8426749947140935
            ]
        },
        {
            "positions": [
                -0.37516776412470243,
                -1.6417625164122853,
                -0.2856976262168651,
                0.3887500924209959,
                -1.3168886439934882,
                -1.9378706072907392
            ]
        },
        {
            "positions": [
                -0.49815857634821015,
                -1.6576594314649202,
                -0.22034079030077702,
                0.46624213612095633,
                -1.3067263140329848,
                -2.033066219867385
            ]
        },
        {
            "positions": [
                -0.6211493885717174,
                -1.6735563465175551,
                -0.15498395438468893,
                0.5437341798209163,
                -1.2965639840724816,
                -2.1282618324440303
            ]
        },
        {
            "positions": [
                -0.7441402007952247,
                -1.68945326157019,
                -0.08962711846860105,
                0.6212262235208763,
                -1.2864016541119783,
                -2.2234574450206757
            ]
        },
        {
            "positions": [
                -0.8671310130187324,
                -1.705350176622825,
                -0.024270282552512956,
                0.6987182672208363,
                -1.276239324151475,
                -2.3186530575973214
            ]
        },
        {
            "positions": [
                -0.9901218252422401,
                -1.7212470916754596,
                0.04108655336357514,
                0.7762103109207967,
                -1.2660769941909717,
                -2.413848670173967
            ]
        },
        {
            "positions": [
                -1.1131126374657474,
                -1.7371440067280945,
                0.1064433892796634,
                0.8537023546207567,
                -1.2559146642304684,
                -2.5090442827506125
            ]
        },
        {
            "positions": [
                -1.0480791043959026,
                -1.7056710490123832,
                0.2045087622060277,
                0.7685334703768263,
                -1.1829438008103976,
                -2.545958237231581
            ]
        },
        {
            "positions": [
                -0.9830455713260577,
                -1.674198091296672,
                0.302574135132392,
                0.6833645861328959,
                -1.1099729373903267,
                -2.5828721917125503
            ]
        },
        {
            "positions": [
                -0.9180120382562129,
                -1.6427251335809607,
                0.4006395080587563,
                0.5981957018889654,
                -1.037002073970256,
                -2.619786146193519
            ]
        },
        {
            "positions": [
                -0.8529785051863681,
                -1.6112521758652496,
                0.4987048809851206,
                0.513026817645035,
                -0.964031210550185,
                -2.6567001006744877
            ]
        },
        {
            "positions": [
                -0.7879449721165231,
                -1.5797792181495383,
                0.596770253911485,
                0.42785793340110445,
                -0.8910603471301142,
                -2.693614055155457
            ]
        },
        {
            "positions": [
                -0.7229114390466783,
                -1.5483062604338271,
                0.6948356268378493,
                0.342689049157174,
                -0.8180894837100433,
                -2.7305280096364255
            ]
        },
        {
            "positions": [
                -0.6578779059768335,
                -1.5168333027181158,
                0.7929009997642136,
                0.2575201649132436,
                -0.7451186202899724,
                -2.767441964117394
            ]
        },
        {
            "positions": [
                -0.5928443729069887,
                -1.4853603450024047,
                0.8909663726905779,
                0.17235128066931316,
                -0.6721477568699017,
                -2.804355918598363
            ]
        },
        {
            "positions": [
                -0.5278108398371437,
                -1.4538873872866933,
                0.9890317456169422,
                0.08718239642538261,
                -0.5991768934498308,
                -2.841269873079332
            ]
        },
        {
            "positions": [
                -0.4627773067672989,
                -1.4224144295709822,
                1.0870971185433065,
                0.0020135121814521817,
                -0.52620603002976,
                -2.8781838275603007
            ]
        },
        {
            "positions": [
                -0.39774377369745395,
                -1.3909414718552708,
                1.1851624914696708,
                -0.08315537206247836,
                -0.453235166609689,
                -2.9150977820412693
            ]
        },
        {
            "positions": [
                -0.33271024062760923,
                -1.3594685141395597,
                1.283227864396035,
                -0.16832425630640868,
                -0.38026430318961824,
                -2.9520117365222385
            ]
        },
        {
            "positions": [
                -0.2676767075577643,
                -1.3279955564238484,
                1.3812932373223994,
                -0.2534931405503391,
                -0.30729343976954737,
                -2.988925691003207
            ]
        },
        {
            "positions": [
                -0.20264317448791958,
                -1.2965225987081372,
                1.4793586102487637,
                -0.33866202479426954,
                -0.2343225763494765,
                -3.025839645484176
            ]
        },
        {
            "positions": [
                -0.13760964141807464,
                -1.265049640992426,
                1.577423983175128,
                -0.4238309090382002,
                -0.16135171292940576,
                -3.062753599965145
            ]
        },
        {
            "positions": [
                -0.07257610834822992,
                -1.2335766832767145,
                1.6754893561014923,
                -0.5089997932821304,
                -0.088380849509335,
                -3.0996675544461136
            ]
        },
        {
            "positions": [
                -0.0075425752783848665,
                -1.2021037255610034,
                1.7735547290278566,
                -0.5941686775260611,
                -0.015409986089264027,
                -3.1365815089270823
            ]
        },
        {
            "positions": [
                0.05749095779145996,
                -1.1706307678452923,
                1.871620101954221,
                -0.6793375617699915,
                0.057560877330806726,
                -3.1734954634080514
            ]
        },
        {
            "positions": [
                0.1225244908613049,
                -1.139157810129581,
                1.9696854748805852,
                -0.764506446013922,
                0.13053174075087776,
                -3.21040941788902
            ]
        }
    ]
}