{
    "goal": {
        "global_pose": {
            "orientation": {
                "w": -0.4816463035849501,
                "x": 0.5182115481033762,
                "y": 0.4908360881923453,
                "z": -0.5084816262002911
            },
            "position": {
                "x": -0.8240239810943604,
                "y": -0.300875300988555,
                "z": 0.16403168439865112
            }
        },
        "name": "move_to_storage_C"
    },
    "id": "BiEST_move_to_storage_C_53",
    "joint_names": [
        "shoulder_pan_joint",
        "shoulder_lift_joint",
        "elbow_joint",
        "wrist_1_joint",
        "wrist_2_joint",
        "wrist_3_joint"
    ],
    "metrics": {
        "cart_traj_len": 0.5773866739272739,
        "distance_elbow_joint": 0.255678698832261,
        "distance_shoulder_lift_joint": 0.18960659263687085,
        "distance_shoulder_pan_joint": 0.4966233343780182,
        "distance_wrist_1_joint": 0.06778774566499535,
        "distance_wrist_2_joint": 1.0587564400006992,
        "distance_wrist_3_joint": 0.07306944571779139,
        "smoothness": 5.075305295617109e-16,
        "time": 0.060025051999999995,
        "traj_len": 1.4633940881494076,
        "weighted_distance": 1.8477568385293326
    },
    "planner": "BiEST",
    "start": {
        "state": {
            "elbow_joint": 2.010868314990456,
            "shoulder_lift_joint": -1.1634956873337592,
            "shoulder_pan_joint": -2.4736205022346125,
            "wrist_1_joint": -0.8367026794202681,
            "wrist_2_joint": 0.6746043897044499,
            "wrist_3_joint": -3.1496632123970403
        }
    },
    "waypoints": [
        {
            "positions": [
                -2.4736205022346125,
                -1.1634956873337592,
                2.010868314990456,
                -0.8367026794202681,
                0.6746043897044499,
                -3.1496632123970403
            ]
        },
        {
            "positions": [
                -2.5563910579642823,
                -1.1318945885609475,
                1.9682551985184122,
                -0.8254047218094356,
                0.8510637963712331,
                -3.137484971444075
            ]
        },
        {
            "positions": [
                -2.6391616136939517,
                -1.1002934897881356,
                1.9256420820463689,
                -0.814106764198603,
                1.0275232030380164,
                -3.12530673049111
            ]
        },
        {
            "positions": [
                -2.7219321694236216,
                -1.0686923910153237,
                1.8830289655743253,
                -0.8028088065877704,
                1.2039826097047994,
                -3.113128489538145
            ]
        },
        {
            "positions": [
                -2.8047027251532914,
                -1.037091292242512,
                1.8404158491022817,
                -0.7915108489769379,
                1.3804420163715827,
                -3.100950248585179
            ]
        },
        {
            "positions": [
                -2.887473280882961,
                -1.0054901934697003,
                1.7978027326302384,
                -0.7802128913661053,
                1.556901423038366,
                -3.088772007632214
            ]
        },
        {
            "positions": [
                -2.9702438366126307,
                -0.9738890946968883,
                1.7551896161581948,
                -0.7689149337552728,
                1.7333608297051493,
                -3.076593766679249
            ]
        }
    ]
}