{
    "goal": {
        "global_pose": {
            "orientation": {
                "w": 0.7031023480610252,
                "x": -0.7110244013736278,
                "y": 0.0077485991402295624,
                "z": 0.005598929693374583
            },
            "position": {
                "x": -0.8841497679147869,
                "y": 0.44412534475326537,
                "z": 0.3711530566215515
            }
        },
        "name": "move_to_auspresseinheit_D"
    },
    "id": "BiEST_move_to_auspresseinheit_D_40",
    "joint_names": [
        "shoulder_pan_joint",
        "shoulder_lift_joint",
        "elbow_joint",
        "wrist_1_joint",
        "wrist_2_joint",
        "wrist_3_joint"
    ],
    "metrics": {
        "cart_traj_len": 0.34287320926012355,
        "distance_elbow_joint": 0.6380378479476723,
        "distance_shoulder_lift_joint": 0.12214907357042692,
        "distance_shoulder_pan_joint": 0.133756733017417,
        "distance_wrist_1_joint": 0.5169810757540749,
        "distance_wrist_2_joint": 1.4482766333812676,
        "distance_wrist_3_joint": 0.011598557526528719,
        "smoothness": 7.894919286223335e-16,
        "time": 0.053858719,
        "traj_len": 1.6943435074380246,
        "weighted_distance": 2.2043717348455063
    },
    "planner": "BiEST",
    "start": {
        "state": {
            "elbow_joint": -1.8275523626775212,
            "shoulder_lift_joint": -2.126789852344167,
            "shoulder_pan_joint": -0.03513704404078235,
            "wrist_1_joint": -2.347782403156801,
            "wrist_2_joint": -1.6058999987535132,
            "wrist_3_joint": -3.0880379163319196
        }
    },
    "waypoints": [
        {
            "positions": [
                -0.03513704404078235,
                -2.126789852344167,
                -1.8275523626775212,
                -2.347782403156801,
                -1.6058999987535132,
                -3.0880379163319196
            ]
        },
        {
            "positions": [
                -0.05185663566795948,
                -2.14205848654047,
                -1.7477976316840622,
                -2.41240503762606,
                -1.4248654195808548,
                -3.0894877360227357
            ]
        },
        {
            "positions": [
                -0.0685762272951366,
                -2.1573271207367735,
                -1.6680429006906032,
                -2.4770276720953195,
                -1.2438308404081964,
                -3.090937555713552
            ]
        },
        {
            "positions": [
                -0.08529581892231372,
                -2.1725957549330768,
                -1.588288169697144,
                -2.541650306564579,
                -1.0627962612355377,
                -3.092387375404368
            ]
        },
        {
            "positions": [
                -0.10201541054949084,
                -2.1878643891293805,
                -1.508533438703685,
                -2.606272941033838,
                -0.8817616820628794,
                -3.093837195095184
            ]
        },
        {
            "positions": [
                -0.11873500217666796,
                -2.203133023325684,
                -1.428778707710226,
                -2.670895575503098,
                -0.700727102890221,
                -3.095287014786
            ]
        },
        {
            "positions": [
                -0.1354545938038451,
                -2.218401657521987,
                -1.3490239767167669,
                -2.735518209972357,
                -0.5196925237175625,
                -3.096736834476816
            ]
        },
        {
            "positions": [
                -0.15217418543102224,
                -2.2336702917182905,
                -1.269269245723308,
                -2.8001408444416165,
                -0.33865794454490405,
                -3.098186654167632
            ]
        },
        {
            "positions": [
                -0.16889377705819936,
                -2.2489389259145938,
                -1.189514514729849,
                -2.864763478910876,
                -0.15762336537224556,
                -3.0996364738584483
            ]
        }
    ]
}