{
    "goal": {
        "global_pose": {
            "orientation": {
                "w": -0.00223480608172531,
                "x": 0.0024358444001904467,
                "y": 0.7094548369677653,
                "z": -0.704743149386269
            },
            "position": {
                "x": -0.37947507619857795,
                "y": -0.6371506643295288,
                "z": 0.19426114857196808
            }
        },
        "name": "move_to_magneteinheit_C"
    },
    "id": "BiEST_move_to_magneteinheit_C_137",
    "joint_names": [
        "shoulder_pan_joint",
        "shoulder_lift_joint",
        "elbow_joint",
        "wrist_1_joint",
        "wrist_2_joint",
        "wrist_3_joint"
    ],
    "metrics": {
        "cart_traj_len": 1.0341500218348683,
        "distance_elbow_joint": 0.23878686229479928,
        "distance_shoulder_lift_joint": 1.4757371082248487,
        "distance_shoulder_pan_joint": 0.9105852817863906,
        "distance_wrist_1_joint": 1.6667142403420256,
        "distance_wrist_2_joint": 1.1334678290174298,
        "distance_wrist_3_joint": 4.9661077413699175,
        "smoothness": 1.0033308621014807,
        "time": 0.08146358000000001,
        "traj_len": 3.223569304828951,
        "weighted_distance": 4.808720891789696
    },
    "planner": "BiEST",
    "start": {
        "state": {
            "elbow_joint": 1.9565354010623817,
            "shoulder_lift_joint": -1.4165861575791021,
            "shoulder_pan_joint": -1.6717766225146293,
            "wrist_1_joint": -0.5286633292919765,
            "wrist_2_joint": 1.472756589071564,
            "wrist_3_joint": -3.1238370188695823
        }
    },
    "waypoints": [
        {
            "positions": [
                -1.6717766225146293,
                -1.4165861575791021,
                1.9565354010623817,
                -0.5286633292919765,
                1.472756589071564,
                -3.1238370188695823
            ]
        },
        {
            "positions": [
                -1.697551905252133,
                -1.463601583681418,
                1.9677801302179407,
                -0.47640415282686177,
                1.4040341319716556,
                -2.933669952471399
            ]
        },
        {
            "positions": [
                -1.723327187989637,
                -1.5106170097837337,
                1.9790248593734998,
                -0.4241449763617471,
                1.3353116748717473,
                -2.743502886073216
            ]
        },
        {
            "positions": [
                -1.7491024707271408,
                -1.5576324358860496,
                1.9902695885290589,
                -0.3718857998966324,
                1.2665892177718392,
                -2.5533358196750324
            ]
        },
        {
            "positions": [
                -1.7748777534646445,
                -1.6046478619883653,
                2.001514317684618,
                -0.31962662343151765,
                1.1978667606719309,
                -2.3631687532768493
            ]
        },
        {
            "positions": [
                -1.8006530362021484,
                -1.6516632880906812,
                2.012759046840177,
                -0.26736744696640297,
                1.1291443035720226,
                -2.173001686878666
            ]
        },
        {
            "positions": [
                -1.8264283189396522,
                -1.6986787141929969,
                2.024003775995736,
                -0.21510827050128828,
                1.0604218464721145,
                -1.9828346204804828
            ]
        },
        {
            "positions": [
                -1.852203601677156,
                -1.7456941402953128,
                2.0352485051512947,
                -0.1628490940361736,
                0.9916993893722061,
                -1.7926675540822996
            ]
        },
        {
            "positions": [
                -1.8779788844146599,
                -1.7927095663976287,
                2.046493234306854,
                -0.11058991757105885,
                0.9229769322722978,
                -1.6025004876841162
            ]
        },
        {
            "positions": [
                -1.9037541671521636,
                -1.8397249924999444,
                2.057737963462413,
                -0.05833074110594422,
                0.8542544751723896,
                -1.412333421285933
            ]
        },
        {
            "positions": [
                -1.9295294498896673,
                -1.88674041860226,
                2.068982692617972,
                -0.006071564640829474,
                0.7855320180724813,
                -1.2221663548877497
            ]
        },
        {
            "positions": [
                -1.955304732627171,
                -1.933755844704576,
                2.080227421773531,
                0.04618761182428521,
                0.7168095609725731,
                -1.0319992884895668
            ]
        },
        {
            "positions": [
                -1.981080015364675,
                -1.9807712708068919,
                2.09147215092909,
                0.0984467882893999,
                0.6480871038726648,
                -0.8418322220913832
            ]
        },
        {
            "positions": [
                -2.0068552981021788,
                -2.0277866969092075,
                2.102716880084649,
                0.15070596475451464,
                0.5793646467727566,
                -0.6516651556932
            ]
        },
        {
            "positions": [
                -2.059020837642097,
                -1.9702985276848024,
                2.10250631560936,
                0.08396601065019085,
                0.5716218610736619,
                -0.8321463519625725
            ]
        },
        {
            "positions": [
                -2.111186377182015,
                -1.9128103584603973,
                2.1022957511340707,
                0.017226056545867063,
                0.5638790753745672,
                -1.012627548231945
            ]
        },
        {
            "positions": [
                -2.1633519167219335,
                -1.8553221892359923,
                2.102085186658782,
                -0.0495138975584567,
                0.5561362896754725,
                -1.1931087445013175
            ]
        },
        {
            "positions": [
                -2.2155174562618516,
                -1.7978340200115872,
                2.1018746221834927,
                -0.11625385166278052,
                0.5483935039763778,
                -1.37358994077069
            ]
        },
        {
            "positions": [
                -2.2676829958017697,
                -1.740345850787182,
                2.1016640577082035,
                -0.18299380576710428,
                0.5406507182772831,
                -1.5540711370400624
            ]
        },
        {
            "positions": [
                -2.319848535341688,
                -1.682857681562777,
                2.1014534932329143,
                -0.24973375987142804,
                0.5329079325781885,
                -1.7345523333094348
            ]
        },
        {
            "positions": [
                -2.372014074881606,
                -1.6253695123383718,
                2.101242928757625,
                -0.3164737139757518,
                0.5251651468790938,
                -1.9150335295788072
            ]
        },
        {
            "positions": [
                -2.4241796144215244,
                -1.5678813431139669,
                2.1010323642823363,
                -0.3832136680800757,
                0.5174223611799991,
                -2.09551472584818
            ]
        },
        {
            "positions": [
                -2.4763451539614425,
                -1.5103931738895615,
                2.100821799807047,
                -0.44995362218439944,
                0.5096795754809044,
                -2.275995922117552
            ]
        },
        {
            "positions": [
                -2.5285106935013606,
                -1.4529050046651566,
                2.100611235331758,
                -0.5166935762887231,
                0.5019367897818097,
                -2.4564771183869247
            ]
        },
        {
            "positions": [
                -2.5177404513414285,
                -1.3949740293350181,
                2.0825112876278298,
                -0.5806826573391826,
                0.5344663957273448,
                -2.594301901486886
            ]
        },
        {
            "positions": [
                -2.506970209181497,
                -1.3370430540048797,
                2.0644113399239017,
                -0.6446717383896421,
                0.5669960016728799,
                -2.732126684586848
            ]
        },
        {
            "positions": [
                -2.496199967021565,
                -1.2791120786747412,
                2.0463113922199736,
                -0.7086608194401014,
                0.599525607618415,
                -2.8699514676868096
            ]
        },
        {
            "positions": [
                -2.4854297248616333,
                -1.2211811033446027,
                2.0282114445160455,
                -0.7726499004905609,
                0.6320552135639501,
                -3.0077762507867716
            ]
        },
        {
            "positions": [
                -2.474659482701701,
                -1.1632501280144643,
                2.0101114968121174,
                -0.8366389815410203,
                0.6645848195094852,
                -3.145601033886733
            ]
        }
    ]
}