{
    "goal": {
        "global_pose": {
            "orientation": {
                "w": 0.5084816217422485,
                "x": -0.49083608388900757,
                "y": 0.5182115435600281,
                "z": -0.4816462993621826
            },
            "position": {
                "x": 0.5540239810943604,
                "y": 0.030875300988554955,
                "z": 0.16403168439865112
            }
        },
        "name": "move_to_storage_A"
    },
    "id": "BiEST_move_to_storage_A_131",
    "joint_names": [
        "shoulder_pan_joint",
        "shoulder_lift_joint",
        "elbow_joint",
        "wrist_1_joint",
        "wrist_2_joint",
        "wrist_3_joint"
    ],
    "metrics": {
        "cart_traj_len": 0.353951344855828,
        "distance_elbow_joint": 0.45363416493342545,
        "distance_shoulder_lift_joint": 0.23264716109421357,
        "distance_shoulder_pan_joint": 0.46203233146849715,
        "distance_wrist_1_joint": 0.2627776164543939,
        "distance_wrist_2_joint": 1.103272506647781,
        "distance_wrist_3_joint": 0.10737289939904393,
        "smoothness": 2.2204460668324854e-16,
        "time": 0.050542327000000005,
        "traj_len": 1.6191777789969066,
        "weighted_distance": 2.0500079516669243
    },
    "planner": "BiEST",
    "start": {
        "state": {
            "elbow_joint": 1.971548259319323,
            "shoulder_lift_joint": -1.1394851275133948,
            "shoulder_pan_joint": 0.1228115487234821,
            "wrist_1_joint": -0.7804723859257726,
            "wrist_2_joint": 0.12958671773740124,
            "wrist_3_joint": -3.192489227718131
        }
    },
    "waypoints": [
        {
            "positions": [
                0.1228115487234821,
                -1.1394851275133948,
                1.971548259319323,
                -0.7804723859257726,
                0.12958671773740124,
                -3.192489227718131
            ]
        },
        {
            "positions": [
                0.05680692994226823,
                -1.1727204362411396,
                2.036353140024098,
                -0.8180120454192574,
                0.28719707582994136,
                -3.1771502420896964
            ]
        },
        {
            "positions": [
                -0.009197688838945645,
                -1.2059557449688845,
                2.101158020728873,
                -0.8555517049127424,
                0.44480743392248157,
                -3.1618112564612613
            ]
        },
        {
            "positions": [
                -0.07520230762015953,
                -1.2391910536966293,
                2.165962901433648,
                -0.8930913644062272,
                0.6024177920150217,
                -3.1464722708328265
            ]
        },
        {
            "positions": [
                -0.1412069264013734,
                -1.272426362424374,
                2.230767782138423,
                -0.930631023899712,
                0.7600281501075619,
                -3.131133285204392
            ]
        },
        {
            "positions": [
                -0.20721154518258728,
                -1.3056616711521187,
                2.2955726628431985,
                -0.9681706833931969,
                0.9176385082001021,
                -3.115794299575957
            ]
        },
        {
            "positions": [
                -0.27321616396380116,
                -1.3388969798798636,
                2.3603775435479735,
                -1.0057103428866816,
                1.075248866292642,
                -3.100455313947522
            ]
        },
        {
            "positions": [
                -0.33922078274501505,
                -1.3721322886076084,
                2.4251824242527484,
                -1.0432500023801665,
                1.2328592243851824,
                -3.085116328319087
            ]
        }
    ]
}{
    "goal": {
        "global_pose": {
            "orientation": {
                "w": 0.5084816217422485,
                "x": -0.49083608388900757,
                "y": 0.5182115435600281,
                "z": -0.4816462993621826
            },
            "position": {
                "x": 0.5540239810943604,
                "y": 0.030875300988554955,
                "z": 0.16403168439865112
            }
        },
        "name": "move_to_storage_A"
    },
    "id": "BiEST_move_to_storage_A_131",
    "joint_names": [
        "shoulder_pan_joint",
        "shoulder_lift_joint",
        "elbow_joint",
        "wrist_1_joint",
        "wrist_2_joint",
        "wrist_3_joint"
    ],
    "metrics": {
        "cart_traj_len": 0.35327762573622923,
        "distance_elbow_joint": 0.44917278646077285,
        "distance_shoulder_lift_joint": 0.23615648936607236,
        "distance_shoulder_pan_joint": 0.4593140533197844,
        "distance_wrist_1_joint": 0.23389461655940802,
        "distance_wrist_2_joint": 1.1116795216264206,
        "distance_wrist_3_joint": 0.09948878367573943,
        "smoothness": 6.661338165333112e-16,
        "time": 0.069458324,
        "traj_len": 1.6092564279841164,
        "weighted_distance": 2.0332874751361416
    },
    "planner": "BiEST",
    "start": {
        "state": {
            "elbow_joint": 1.97154746011099,
            "shoulder_lift_joint": -1.13948474672311,
            "shoulder_pan_joint": 0.12281154466712228,
            "wrist_1_joint": -0.7804688027058302,
            "wrist_2_joint": 0.12958655903071145,
            "wrist_3_joint": 3.0906928834467795
        }
    },
    "waypoints": [
        {
            "positions": [
                0.12281154466712228,
                -1.13948474672311,
                1.97154746011099,
                -0.7804688027058302,
                0.12958655903071145,
                3.0906928834467795
            ]
        },
        {
            "positions": [
                0.057195251335724506,
                -1.1732213880611202,
                2.0357150010339575,
                -0.8138823193571741,
                0.28839791926305725,
                3.104905566829028
            ]
        },
        {
            "positions": [
                -0.00842104199567327,
                -1.2069580293991307,
                2.099882541956925,
                -0.8472958360085182,
                0.447209279495403,
                3.1191182502112764
            ]
        },
        {
            "positions": [
                -0.07403733532707103,
                -1.240694670737141,
                2.1640500828798928,
                -0.8807093526598622,
                0.6060206397277488,
                3.133330933593525
            ]
        },
        {
            "positions": [
                -0.1396536286584688,
                -1.2744313120751514,
                2.22821762380286,
                -0.9141228693112062,
                0.7648319999600947,
                3.1475436169757733
            ]
        },
        {
            "positions": [
                -0.2052699219898666,
                -1.3081679534131616,
                2.2923851647258275,
                -0.9475363859625502,
                0.9236433601924405,
                3.161756300358022
            ]
        },
        {
            "positions": [
                -0.27088621532126433,
                -1.3419045947511719,
                2.356552705648795,
                -0.9809499026138941,
                1.082454720424786,
                3.1759689837402703
            ]
        },
        {
            "positions": [
                -0.3365025086526621,
                -1.3756412360891823,
                2.4207202465717628,
                -1.0143634192652382,
                1.241266080657132,
                3.190181667122519
            ]
        }
    ]
}{
    "goal": {
        "global_pose": {
            "orientation": {
                "w": 0.5084816217422485,
                "x": -0.49083608388900757,
                "y": 0.5182115435600281,
                "z": -0.4816462993621826
            },
            "position": {
                "x": 0.5540239810943604,
                "y": 0.030875300988554955,
                "z": 0.16403168439865112
            }
        },
        "name": "move_to_storage_A"
    },
    "id": "BiEST_move_to_storage_A_131",
    "joint_names": [
        "shoulder_pan_joint",
        "shoulder_lift_joint",
        "elbow_joint",
        "wrist_1_joint",
        "wrist_2_joint",
        "wrist_3_joint"
    ],
    "metrics": {
        "cart_traj_len": 0.35386902505469786,
        "distance_elbow_joint": 0.44865439102229576,
        "distance_shoulder_lift_joint": 0.23572444366234113,
        "distance_shoulder_pan_joint": 0.46340881380448484,
        "distance_wrist_1_joint": 0.23471150130781293,
        "distance_wrist_2_joint": 1.0979659748935142,
        "distance_wrist_3_joint": 0.0955016024688562,
        "smoothness": 4.440892098500626e-16,
        "time": 0.10415998600000001,
        "traj_len": 1.604981846364408,
        "weighted_distance": 2.024758604944882
    },
    "planner": "BiEST",
    "start": {
        "state": {
            "elbow_joint": 1.9715472970024885,
            "shoulder_lift_joint": -1.1394870060712896,
            "shoulder_pan_joint": 0.12281152778156021,
            "wrist_1_joint": -0.780463741449964,
            "wrist_2_joint": 0.12958659822042276,
            "wrist_3_joint": 3.090690232415272
        }
    },
    "waypoints": [
        {
            "positions": [
                0.12281152778156021,
                -1.1394870060712896,
                1.9715472970024885,
                -0.780463741449964,
                0.12958659822042276,
                3.090690232415272
            ]
        },
        {
            "positions": [
                0.05661026866663381,
                -1.1731619265944813,
                2.035640781434245,
                -0.8139939559225087,
                0.28643888034806764,
                3.1043333184822512
            ]
        },
        {
            "positions": [
                -0.009590990448292591,
                -1.2068368471176727,
                2.0997342658660014,
                -0.8475241703950533,
                0.44329116247571254,
                3.1179764045492306
            ]
        },
        {
            "positions": [
                -0.075792249563219,
                -1.2405117676408643,
                2.163827750297758,
                -0.8810543848675981,
                0.6001434446033574,
                3.13161949061621
            ]
        },
        {
            "positions": [
                -0.1419935086781454,
                -1.274186688164056,
                2.2279212347295148,
                -0.9145845993401428,
                0.7569957267310022,
                3.14526257668319
            ]
        },
        {
            "positions": [
                -0.2081947677930718,
                -1.3078616086872477,
                2.2920147191612714,
                -0.9481148138126876,
                0.9138480088586471,
                3.1589056627501693
            ]
        },
        {
            "positions": [
                -0.27439602690799825,
                -1.341536529210439,
                2.3561082035930276,
                -0.9816450282852323,
                1.0707002909862922,
                3.1725487488171487
            ]
        },
        {
            "positions": [
                -0.3405972860229246,
                -1.3752114497336307,
                2.4202016880247843,
                -1.015175242757777,
                1.227552573113937,
                3.186191834884128
            ]
        }
    ]
}