{
    "goal": {
        "global_pose": {
            "orientation": {
                "w": 0.7047431493862688,
                "x": -0.7094548369677653,
                "y": 0.0024358444001904,
                "z": -0.0022348060817251984
            },
            "position": {
                "x": -0.39052492380142206,
                "y": 0.3671506643295288,
                "z": 0.19426114857196808
            }
        },
        "name": "move_to_magneteinheit_D"
    },
    "id": "BiEST_move_to_magneteinheit_D_121",
    "joint_names": [
        "shoulder_pan_joint",
        "shoulder_lift_joint",
        "elbow_joint",
        "wrist_1_joint",
        "wrist_2_joint",
        "wrist_3_joint"
    ],
    "metrics": {
        "cart_traj_len": 4.11286598765455,
        "distance_elbow_joint": 4.915781241261667,
        "distance_shoulder_lift_joint": 1.6297582574324083,
        "distance_shoulder_pan_joint": 3.329227475862554,
        "distance_wrist_1_joint": 2.798689325696413,
        "distance_wrist_2_joint": 0.8319896751928062,
        "distance_wrist_3_joint": 5.747908437780399,
        "smoothness": 0.28984335261319916,
        "time": 0.155698856,
        "traj_len": 4.387864447909285,
        "weighted_distance": 5.863433319282848
    },
    "planner": "BiEST",
    "start": {
        "state": {
            "elbow_joint": 0.749534889911806,
            "shoulder_lift_joint": -0.6476975780787326,
            "shoulder_pan_joint": -2.711696901376241,
            "wrist_1_joint": -0.07506478083263063,
            "wrist_2_joint": 0.43296659715538205,
            "wrist_3_joint": -3.14703540197715
        }
    },
    "waypoints": [
        {
            "positions": [
                -2.711696901376241,
                -0.6476975780787326,
                0.749534889911806,
                -0.07506478083263063,
                0.43296659715538205,
                -3.14703540197715
            ]
        },
        {
            "positions": [
                -2.717375562318778,
                -0.7094835869388225,
                0.798054237864536,
                0.015342147381123272,
                0.40717137020815863,
                -3.016901709935386
            ]
        },
        {
            "positions": [
                -2.723054223261315,
                -0.7712695957989124,
                0.8465735858172662,
                0.10574907559487717,
                0.3813761432609352,
                -2.886768017893622
            ]
        },
        {
            "positions": [
                -2.728732884203852,
                -0.8330556046590023,
                0.8950929337699962,
                0.19615600380863107,
                0.3555809163137118,
                -2.756634325851858
            ]
        },
        {
            "positions": [
                -2.734411545146389,
                -0.8948416135190922,
                0.9436122817227264,
                0.286562932022385,
                0.32978568936648844,
                -2.626500633810094
            ]
        },
        {
            "positions": [
                -2.740090206088926,
                -0.9566276223791821,
                0.9921316296754564,
                0.37696986023613893,
                0.303990462419265,
                -2.49636694176833
            ]
        },
        {
            "positions": [
                -2.745768867031463,
                -1.018413631239272,
                1.0406509776281865,
                0.4673767884498928,
                0.2781952354720416,
                -2.366233249726566
            ]
        },
        {
            "positions": [
                -2.751447527974,
                -1.0801996400993619,
                1.0891703255809166,
                0.5577837166636468,
                0.2524000085248182,
                -2.2360995576848017
            ]
        },
        {
            "positions": [
                -2.729355030115617,
                -1.1408568224146103,
                1.123537026533048,
                0.6514290550391508,
                0.23041177758688702,
                -2.08295089255685
            ]
        },
        {
            "positions": [
                -2.707262532257235,
                -1.2015140047298587,
                1.1579037274851791,
                0.745074393414655,
                0.20842354664895582,
                -1.9298022274288988
            ]
        },
        {
            "positions": [
                -2.685170034398852,
                -1.2621711870451071,
                1.1922704284373105,
                0.8387197317901591,
                0.18643531571102462,
                -1.7766535623009472
            ]
        },
        {
            "positions": [
                -2.6630775365404697,
                -1.3228283693603555,
                1.2266371293894418,
                0.9323650701656632,
                0.16444708477309344,
                -1.6235048971729957
            ]
        },
        {
            "positions": [
                -2.640985038682087,
                -1.3834855516756037,
                1.261003830341573,
                1.0260104085411672,
                0.14245885383516227,
                -1.4703562320450443
            ]
        },
        {
            "positions": [
                -2.6188925408237047,
                -1.4441427339908521,
                1.2953705312937043,
                1.1196557469166715,
                0.12047062289723107,
                -1.3172075669170926
            ]
        },
        {
            "positions": [
                -2.596800042965322,
                -1.5047999163061005,
                1.3297372322458356,
                1.2133010852921755,
                0.09848239195929986,
                -1.1640589017891412
            ]
        },
        {
            "positions": [
                -2.574707545106939,
                -1.565457098621349,
                1.364103933197967,
                1.3069464236676795,
                0.07649416102136869,
                -1.0109102366611897
            ]
        },
        {
            "positions": [
                -2.552615047248557,
                -1.6261142809365974,
                1.398470634150098,
                1.4005917620431836,
                0.054505930083437515,
                -0.8577615715332383
            ]
        },
        {
            "positions": [
                -2.530522549390174,
                -1.6867714632518458,
                1.4328373351022294,
                1.4942371004186876,
                0.03251769914550631,
                -0.7046129064052868
            ]
        },
        {
            "positions": [
                -2.508430051531792,
                -1.7474286455670942,
                1.4672040360543606,
                1.5878824387941919,
                0.01052946820757511,
                -0.5514642412773352
            ]
        },
        {
            "positions": [
                -2.486337553673409,
                -1.8080858278823424,
                1.501570737006492,
                1.681527777169696,
                -0.011458762730356065,
                -0.39831557614938373
            ]
        },
        {
            "positions": [
                -2.464245055815027,
                -1.868743010197591,
                1.5359374379586233,
                1.7751731155452,
                -0.03344699366828724,
                -0.2451669110214323
            ]
        },
        {
            "positions": [
                -2.442152557956644,
                -1.9294001925128392,
                1.5703041389107546,
                1.8688184539207042,
                -0.05543522460621847,
                -0.09201824589348062
            ]
        },
        {
            "positions": [
                -2.420060060098262,
                -1.9900573748280876,
                1.604670839862886,
                1.9624637922962083,
                -0.07742345554414964,
                0.0611304192344706
            ]
        },
        {
            "positions": [
                -2.397967562239879,
                -2.050714557143336,
                1.639037540815017,
                2.0561091306717123,
                -0.09941168648208085,
                0.21427908436242238
            ]
        },
        {
            "positions": [
                -2.255079714807348,
                -2.0518365839764336,
                1.4838588016222105,
                2.0587508794645415,
                -0.09036309547019922,
                0.28382274143268227
            ]
        },
        {
            "positions": [
                -2.1121918673748166,
                -2.0529586108095312,
                1.3286800624294037,
                2.061392628257371,
                -0.08131450445831757,
                0.3533663985029422
            ]
        },
        {
            "positions": [
                -1.969304019942285,
                -2.054080637642629,
                1.1735013232365972,
                2.0640343770502003,
                -0.07226591344643593,
                0.42291005557320216
            ]
        },
        {
            "positions": [
                -1.8264161725097539,
                -2.0552026644757264,
                1.0183225840437906,
                2.06667612584303,
                -0.0632173224345543,
                0.49245371264346205
            ]
        },
        {
            "positions": [
                -1.6835283250772226,
                -2.056324691308824,
                0.863143844850984,
                2.069317874635859,
                -0.054168731422672665,
                0.5619973697137219
            ]
        },
        {
            "positions": [
                -1.5406404776446911,
                -2.0574467181419216,
                0.7079651056581774,
                2.071959623428689,
                -0.04512014041079103,
                0.6315410267839818
            ]
        },
        {
            "positions": [
                -1.39775263021216,
                -2.058568744975019,
                0.5527863664653707,
                2.074601372221518,
                -0.036071549398909386,
                0.7010846838542418
            ]
        },
        {
            "positions": [
                -1.2548647827796287,
                -2.0596907718081168,
                0.39760762727256416,
                2.077243121014347,
                -0.027022958387027757,
                0.7706283409245017
            ]
        },
        {
            "positions": [
                -1.1119769353470974,
                -2.0608127986412144,
                0.2424288880797576,
                2.079884869807177,
                -0.017974367375146127,
                0.8401719979947616
            ]
        },
        {
            "positions": [
                -0.9690890879145662,
                -2.061934825474312,
                0.08725014888695104,
                2.082526618600006,
                -0.008925776363264484,
                0.9097156550650215
            ]
        },
        {
            "positions": [
                -0.8262012404820347,
                -2.0630568523074095,
                -0.06792859030585574,
                2.0851683673928356,
                0.00012281464861715885,
                0.9792593121352815
            ]
        },
        {
            "positions": [
                -0.6833133930495034,
                -2.064178879140507,
                -0.2231073294986623,
                2.087810116185665,
                0.009171405660498788,
                1.0488029692055414
            ]
        },
        {
            "positions": [
                -0.5404255456169722,
                -2.0653009059736047,
                -0.37828606869146886,
                2.0904518649784944,
                0.018219996672380417,
                1.1183466262758013
            ]
        },
        {
            "positions": [
                -0.39753769818444074,
                -2.0664229328067023,
                -0.5334648078842756,
                2.0930936137713236,
                0.027268587684262074,
                1.1878902833460612
            ]
        },
        {
            "positions": [
                -0.2546498507519095,
                -2.0675449596398,
                -0.688643547077082,
                2.0957353625641533,
                0.036317178696143704,
                1.257433940416321
            ]
        },
        {
            "positions": [
                -0.11176200331937805,
                -2.0686669864728975,
                -0.8438222862698885,
                2.0983771113569825,
                0.04536576970802535,
                1.326977597486581
            ]
        },
        {
            "positions": [
                -0.06364118752958081,
                -2.074998764053815,
                -1.0450946354350765,
                2.053422942695827,
                0.042888036195205446,
                1.2397200929177308
            ]
        },
        {
            "positions": [
                -0.015520371739783559,
                -2.081330541634732,
                -1.2463669846002643,
                2.008468774034671,
                0.040410302682385546,
                1.1524625883488804
            ]
        },
        {
            "positions": [
                0.032600444050013694,
                -2.0876623192156494,
                -1.4476393337654523,
                1.9635146053735157,
                0.03793256916956565,
                1.0652050837800302
            ]
        },
        {
            "positions": [
                0.08072125983981093,
                -2.093994096796567,
                -1.64891168293064,
                1.91856043671236,
                0.03545483565674575,
                0.97794757921118
            ]
        },
        {
            "positions": [
                0.1288420756296082,
                -2.1003258743774844,
                -1.8501840320958283,
                1.8736062680512047,
                0.03297710214392585,
                0.8906900746423296
            ]
        },
        {
            "positions": [
                0.17696289141940547,
                -2.1066576519584017,
                -2.051456381261016,
                1.828652099390049,
                0.03049936863110595,
                0.8034325700734795
            ]
        },
        {
            "positions": [
                0.11678515310750724,
                -2.135124015883858,
                -2.10742049264142,
                1.7693983624667378,
                0.053827291012492354,
                0.6783741682562182
            ]
        },
        {
            "positions": [
                0.05660741479560902,
                -2.163590379809315,
                -2.1633846040218234,
                1.7101446255434267,
                0.07715521339387875,
                0.553315766438957
            ]
        },
        {
            "positions": [
                -0.00357032351628922,
                -2.1920567437347716,
                -2.2193487154022273,
                1.6508908886201155,
                0.10048313577526516,
                0.4282573646216956
            ]
        },
        {
            "positions": [
                -0.06374806182818743,
                -2.220523107660228,
                -2.2753128267826312,
                1.5916371516968042,
                0.12381105815665155,
                0.30319896280443437
            ]
        },
        {
            "positions": [
                -0.1239258001400857,
                -2.248989471585684,
                -2.3312769381630347,
                1.5323834147734932,
                0.14713898053803795,
                0.178140560987173
            ]
        },
        {
            "positions": [
                -0.18410353845198393,
                -2.277455835511141,
                -2.3872410495434386,
                1.473129677850182,
                0.17046690291942435,
                0.0530821591699118
            ]
        }
    ]
}