{
    "goal": {
        "global_pose": {
            "orientation": {
                "w": 0.5084816262002911,
                "x": -0.4908360881923452,
                "y": 0.5182115481033761,
                "z": -0.48164630358495003
            },
            "position": {
                "x": 0.5540239810943604,
                "y": -0.46912469901144505,
                "z": 0.16403168439865112
            }
        },
        "name": "move_to_storage_B"
    },
    "id": "BiEST_move_to_storage_B_54",
    "joint_names": [
        "shoulder_pan_joint",
        "shoulder_lift_joint",
        "elbow_joint",
        "wrist_1_joint",
        "wrist_2_joint",
        "wrist_3_joint"
    ],
    "metrics": {
        "cart_traj_len": 0.6514867597450705,
        "distance_elbow_joint": 0.3533844427875925,
        "distance_shoulder_lift_joint": 0.460436868122877,
        "distance_shoulder_pan_joint": 0.1811265365735678,
        "distance_wrist_1_joint": 3.0024720689029167,
        "distance_wrist_2_joint": 2.7048381621754953,
        "distance_wrist_3_joint": 3.1244369198293156,
        "smoothness": 4.2764146379544185e-16,
        "time": 0.08607838500000001,
        "traj_len": 3.134755971107124,
        "weighted_distance": 4.667213201593516
    },
    "planner": "BiEST",
    "start": {
        "state": {
            "elbow_joint": 1.664937868594044,
            "shoulder_lift_joint": -0.661644460510453,
            "shoulder_pan_joint": -0.9139846352900073,
            "wrist_1_joint": 2.146753192139373,
            "wrist_2_joint": -2.2341966793290973,
            "wrist_3_joint": 0.005466555786416001
        }
    },
    "waypoints": [
        {
            "positions": [
                -0.9139846352900073,
                -0.661644460510453,
                1.664937868594044,
                2.146753192139373,
                -2.2341966793290973,
                0.005466555786416001
            ]
        },
        {
            "positions": [
                -0.9435657734381461,
                -0.6969685181390415,
                1.705438664824465,
                2.105246068869675,
                -2.149248325606687,
                -0.04713517097058482
            ]
        },
        {
            "positions": [
                -0.9731469115862847,
                -0.73229257576763,
                1.7459394610548862,
                2.0637389455999773,
                -2.0642999718842767,
                -0.09973689772758564
            ]
        },
        {
            "positions": [
                -1.0027280497344235,
                -0.7676166333962184,
                1.7864402572853073,
                2.022231822330279,
                -1.9793516181618667,
                -0.15233862448458646
            ]
        },
        {
            "positions": [
                -1.0067447072182998,
                -0.7830281418847885,
                1.796522085724278,
                1.8971035310653304,
                -1.8728301789875943,
                -0.28132261316103485
            ]
        },
        {
            "positions": [
                -1.0107613647021758,
                -0.7984396503733586,
                1.806603914163249,
                1.7719752398003814,
                -1.766308739813322,
                -0.41030660183748324
            ]
        },
        {
            "positions": [
                -1.014778022186052,
                -0.8138511588619286,
                1.8166857426022198,
                1.6468469485354327,
                -1.6597873006390496,
                -0.5392905905139316
            ]
        },
        {
            "positions": [
                -1.018794679669928,
                -0.8292626673504987,
                1.8267675710411906,
                1.5217186572704837,
                -1.5532658614647772,
                -0.66827457919038
            ]
        },
        {
            "positions": [
                -1.0228113371538043,
                -0.8446741758390688,
                1.8368493994801613,
                1.396590366005535,
                -1.4467444222905046,
                -0.7972585678668284
            ]
        },
        {
            "positions": [
                -1.0268279946376804,
                -0.8600856843276389,
                1.8469312279191323,
                1.2714620747405863,
                -1.3402229831162322,
                -0.9262425565432767
            ]
        },
        {
            "positions": [
                -1.0308446521215566,
                -0.875497192816209,
                1.857013056358103,
                1.146333783475637,
                -1.2337015439419599,
                -1.0552265452197251
            ]
        },
        {
            "positions": [
                -1.0348613096054329,
                -0.890908701304779,
                1.8670948847970739,
                1.0212054922106886,
                -1.1271801047676875,
                -1.1842105338961737
            ]
        },
        {
            "positions": [
                -1.038877967089309,
                -0.906320209793349,
                1.8771767132360448,
                0.8960772009457396,
                -1.0206586655934151,
                -1.3131945225726218
            ]
        },
        {
            "positions": [
                -1.0428946245731852,
                -0.9217317182819191,
                1.8872585416750156,
                0.7709489096807909,
                -0.9141372264191427,
                -1.4421785112490704
            ]
        },
        {
            "positions": [
                -1.0469112820570612,
                -0.9371432267704892,
                1.8973403701139864,
                0.6458206184158419,
                -0.8076157872448704,
                -1.571162499925519
            ]
        },
        {
            "positions": [
                -1.0509279395409374,
                -0.9525547352590592,
                1.9074221985529574,
                0.5206923271508932,
                -0.701094348070598,
                -1.700146488601967
            ]
        },
        {
            "positions": [
                -1.0549445970248135,
                -0.9679662437476293,
                1.9175040269919281,
                0.39556403588594446,
                -0.5945729088963256,
                -1.8291304772784152
            ]
        },
        {
            "positions": [
                -1.0589612545086897,
                -0.9833777522361994,
                1.9275858554308989,
                0.2704357446209953,
                -0.48805146972205304,
                -1.9581144659548642
            ]
        },
        {
            "positions": [
                -1.0629779119925657,
                -0.9987892607247695,
                1.9376676838698699,
                0.14530745335604656,
                -0.3815300305477809,
                -2.0870984546313123
            ]
        },
        {
            "positions": [
                -1.066994569476442,
                -1.0142007692133395,
                1.9477495123088406,
                0.020179162091098046,
                -0.2750085913735085,
                -2.216082443307761
            ]
        },
        {
            "positions": [
                -1.0710112269603183,
                -1.0296122777019097,
                1.9578313407478114,
                -0.10494912917385069,
                -0.16848715219923616,
                -2.345066431984209
            ]
        },
        {
            "positions": [
                -1.0750278844441943,
                -1.0450237861904796,
                1.9679131691867822,
                -0.23007742043879986,
                -0.061965713024963565,
                -2.4740504206606575
            ]
        },
        {
            "positions": [
                -1.0790445419280705,
                -1.0604352946790496,
                1.9779949976257531,
                -0.3552057117037486,
                0.044555726149308805,
                -2.603034409337106
            ]
        },
        {
            "positions": [
                -1.0830611994119466,
                -1.0758468031676198,
                1.988076826064724,
                -0.4803340029686973,
                0.15107716532358118,
                -2.732018398013554
            ]
        },
        {
            "positions": [
                -1.0870778568958228,
                -1.0912583116561898,
                1.9981586545036947,
                -0.6054622942336461,
                0.25759860449785354,
                -2.8610023866900023
            ]
        },
        {
            "positions": [
                -1.0910945143796988,
                -1.10666982014476,
                2.0082404829426657,
                -0.7305905854985952,
                0.3641200436721259,
                -2.9899863753664513
            ]
        },
        {
            "positions": [
                -1.095111171863575,
                -1.12208132863333,
                2.0183223113816364,
                -0.8557188767635439,
                0.4706414828463982,
                -3.1189703640428994
            ]
        }
    ]
}