{
    "goal": {
        "global_pose": {
            "orientation": {
                "w": 0.005598929693374612,
                "x": 0.007748599140229565,
                "y": 0.7110244013736278,
                "z": -0.7031023480610252
            },
            "position": {
                "x": -0.8858502320852131,
                "y": -0.7141253447532654,
                "z": 0.3711530566215515
            }
        },
        "name": "move_to_auspresseinheit_C"
    },
    "id": "BiEST_move_to_auspresseinheit_C_122",
    "joint_names": [
        "shoulder_pan_joint",
        "shoulder_lift_joint",
        "elbow_joint",
        "wrist_1_joint",
        "wrist_2_joint",
        "wrist_3_joint"
    ],
    "metrics": {
        "cart_traj_len": 0.49339671579781524,
        "distance_elbow_joint": 0.9937024797015132,
        "distance_shoulder_lift_joint": 0.32207000260924423,
        "distance_shoulder_pan_joint": 0.25693953151794124,
        "distance_wrist_1_joint": 0.6614132323103791,
        "distance_wrist_2_joint": 1.3154562572244393,
        "distance_wrist_3_joint": 0.04471543986677684,
        "smoothness": 1.6148698667872622e-16,
        "time": 0.151495539,
        "traj_len": 1.8958631129990091,
        "weighted_distance": 2.37920098194723
    },
    "planner": "BiEST",
    "start": {
        "state": {
            "elbow_joint": 1.7527959577737207,
            "shoulder_lift_joint": -0.9740617694225068,
            "shoulder_pan_joint": -2.967991417825858,
            "wrist_1_joint": -0.759517768980727,
            "wrist_2_joint": 1.7443932448377408,
            "wrist_3_joint": -3.0840537646736568
        }
    },
    "waypoints": [
        {
            "positions": [
                -2.967991417825858,
                -0.9740617694225068,
                1.7527959577737207,
                -0.759517768980727,
                1.7443932448377408,
                -3.0840537646736568
            ]
        },
        {
            "positions": [
                -2.9422974646740636,
                -0.9418547691615824,
                1.6534257098035694,
                -0.693376445749689,
                1.612847619115297,
                -3.0885253086603344
            ]
        },
        {
            "positions": [
                -2.9166035115222697,
                -0.9096477689006579,
                1.5540554618334181,
                -0.6272351225186512,
                1.481301993392853,
                -3.092996852647012
            ]
        },
        {
            "positions": [
                -2.890909558370476,
                -0.8774407686397335,
                1.4546852138632667,
                -0.5610937992876133,
                1.349756367670409,
                -3.09746839663369
            ]
        },
        {
            "positions": [
                -2.8652156052186815,
                -0.845233768378809,
                1.3553149658931154,
                -0.49495247605657533,
                1.218210741947965,
                -3.1019399406203676
            ]
        },
        {
            "positions": [
                -2.839521652066887,
                -0.8130267681178847,
                1.2559447179229641,
                -0.42881115282553744,
                1.0866651162255212,
                -3.106411484607045
            ]
        },
        {
            "positions": [
                -2.813827698915093,
                -0.7808197678569603,
                1.1565744699528127,
                -0.36266982959449956,
                0.9551194905030773,
                -3.110883028593723
            ]
        },
        {
            "positions": [
                -2.7881337457632993,
                -0.7486127675960358,
                1.0572042219826616,
                -0.2965285063634617,
                0.8235738647806334,
                -3.1153545725804004
            ]
        },
        {
            "positions": [
                -2.762439792611505,
                -0.7164057673351114,
                0.9578339740125101,
                -0.23038718313242368,
                0.6920282390581893,
                -3.1198261165670784
            ]
        },
        {
            "positions": [
                -2.7367458394597106,
                -0.6841987670741869,
                0.8584637260423588,
                -0.16424585990138585,
                0.5604826133357454,
                -3.124297660553756
            ]
        },
        {
            "positions": [
                -2.7110518863079167,
                -0.6519917668132625,
                0.7590934780722075,
                -0.09810453667034791,
                0.42893698761330146,
                -3.1287692045404336
            ]
        }
    ]
}