{
    "goal": {
        "global_pose": {
            "orientation": {
                "w": 0.5084816217422485,
                "x": -0.49083608388900757,
                "y": 0.5182115435600281,
                "z": -0.4816462993621826
            },
            "position": {
                "x": 0.5540239810943604,
                "y": 0.030875300988554955,
                "z": 0.16403168439865112
            }
        },
        "name": "move_to_storage_A"
    },
    "id": "BiEST_move_to_storage_A_27",
    "joint_names": [
        "shoulder_pan_joint",
        "shoulder_lift_joint",
        "elbow_joint",
        "wrist_1_joint",
        "wrist_2_joint",
        "wrist_3_joint"
    ],
    "metrics": {
        "cart_traj_len": 0.35365178324205093,
        "distance_elbow_joint": 0.4500613995939411,
        "distance_shoulder_lift_joint": 0.23473583280380517,
        "distance_shoulder_pan_joint": 0.4650466826744059,
        "distance_wrist_1_joint": 0.24114716513739942,
        "distance_wrist_2_joint": 1.0889960871713946,
        "distance_wrist_3_joint": 0.0994625197881307,
        "smoothness": 6.661338165333112e-16,
        "time": 0.060321315,
        "traj_len": 1.606066526383349,
        "weighted_distance": 2.0269479468042917
    },
    "planner": "BiEST",
    "start": {
        "state": {
            "elbow_joint": 1.971548259319323,
            "shoulder_lift_joint": -1.1394851275133948,
            "shoulder_pan_joint": 0.1228115487234821,
            "wrist_1_joint": -0.7804723859257726,
            "wrist_2_joint": 0.12958671773740124,
            "wrist_3_joint": -3.192489227718131
        }
    },
    "waypoints": [
        {
            "positions": [
                0.1228115487234821,
                -1.1394851275133948,
                1.971548259319323,
                -0.7804723859257726,
                0.12958671773740124,
                -3.192489227718131
            ]
        },
        {
            "positions": [
                0.05637630834142411,
                -1.1730188179139385,
                2.0358427449756005,
                -0.8149219809454011,
                0.28515758733331475,
                -3.178280296319827
            ]
        },
        {
            "positions": [
                -0.010058932040633878,
                -1.206552508314482,
                2.1001372306318777,
                -0.8493715759650295,
                0.44072845692922824,
                -3.164071364921522
            ]
        },
        {
            "positions": [
                -0.07649417242269185,
                -1.2400861987150256,
                2.164431716288155,
                -0.8838211709846581,
                0.5962993265251417,
                -3.149862433523218
            ]
        },
        {
            "positions": [
                -0.14292941280474986,
                -1.2736198891155692,
                2.2287262019444323,
                -0.9182707660042866,
                0.7518701961210553,
                -3.1356535021249137
            ]
        },
        {
            "positions": [
                -0.20936465318680786,
                -1.3071535795161129,
                2.2930206876007095,
                -0.952720361023915,
                0.9074410657169689,
                -3.1214445707266094
            ]
        },
        {
            "positions": [
                -0.2757998935688658,
                -1.3406872699166563,
                2.357315173256987,
                -0.9871699560435435,
                1.0630119353128822,
                -3.1072356393283047
            ]
        },
        {
            "positions": [
                -0.3422351339509238,
                -1.3742209603172,
                2.421609658913264,
                -1.021619551063172,
                1.218582804908796,
                -3.0930267079300005
            ]
        }
    ]
}{
    "goal": {
        "global_pose": {
            "orientation": {
                "w": 0.5084816217422485,
                "x": -0.49083608388900757,
                "y": 0.5182115435600281,
                "z": -0.4816462993621826
            },
            "position": {
                "x": 0.5540239810943604,
                "y": 0.030875300988554955,
                "z": 0.16403168439865112
            }
        },
        "name": "move_to_storage_A"
    },
    "id": "BiEST_move_to_storage_A_27",
    "joint_names": [
        "shoulder_pan_joint",
        "shoulder_lift_joint",
        "elbow_joint",
        "wrist_1_joint",
        "wrist_2_joint",
        "wrist_3_joint"
    ],
    "metrics": {
        "cart_traj_len": 0.35228169020919575,
        "distance_elbow_joint": 0.45057138471559854,
        "distance_shoulder_lift_joint": 0.23316548147686555,
        "distance_shoulder_pan_joint": 0.46028243027565946,
        "distance_wrist_1_joint": 0.2511012957363934,
        "distance_wrist_2_joint": 1.0980140732369774,
        "distance_wrist_3_joint": 0.08933028819830469,
        "smoothness": 2.2204460668324854e-16,
        "time": 0.061694494,
        "traj_len": 1.6070049637881643,
        "weighted_distance": 2.0273729057600085
    },
    "planner": "BiEST",
    "start": {
        "state": {
            "elbow_joint": 1.97154746011099,
            "shoulder_lift_joint": -1.13948474672311,
            "shoulder_pan_joint": 0.12281154466712228,
            "wrist_1_joint": -0.7804688027058302,
            "wrist_2_joint": 0.12958655903071145,
            "wrist_3_joint": 3.0906928834467795
        }
    },
    "waypoints": [
        {
            "positions": [
                0.12281154466712228,
                -1.13948474672311,
                1.97154746011099,
                -0.7804688027058302,
                0.12958655903071145,
                3.0906928834467795
            ]
        },
        {
            "positions": [
                0.0570569117705995,
                -1.172794101219805,
                2.035914800784647,
                -0.8163404163824578,
                0.28644571235027966,
                3.1034543531893943
            ]
        },
        {
            "positions": [
                -0.008697721125923277,
                -1.2061034557165,
                2.1002821414583037,
                -0.8522120300590854,
                0.44330486566984784,
                3.1162158229320096
            ]
        },
        {
            "positions": [
                -0.07445235402244606,
                -1.2394128102131952,
                2.164649482131961,
                -0.888083643735713,
                0.6001640189894161,
                3.1289772926746244
            ]
        },
        {
            "positions": [
                -0.14020698691896882,
                -1.2727221647098903,
                2.2290168228056175,
                -0.9239552574123406,
                0.7570231723089843,
                3.1417387624172393
            ]
        },
        {
            "positions": [
                -0.2059616198154916,
                -1.3060315192065854,
                2.2933841634792747,
                -0.9598268710889684,
                0.9138823256285525,
                3.154500232159854
            ]
        },
        {
            "positions": [
                -0.2717162527120144,
                -1.3393408737032804,
                2.3577515041529313,
                -0.995698484765596,
                1.0707414789481207,
                3.1672617019024694
            ]
        },
        {
            "positions": [
                -0.33747088560853716,
                -1.3726502281999755,
                2.4221188448265885,
                -1.0315700984422236,
                1.227600632267689,
                3.180023171645084
            ]
        }
    ]
}{
    "goal": {
        "global_pose": {
            "orientation": {
                "w": 0.5084816217422485,
                "x": -0.49083608388900757,
                "y": 0.5182115435600281,
                "z": -0.4816462993621826
            },
            "position": {
                "x": 0.5540239810943604,
                "y": 0.030875300988554955,
                "z": 0.16403168439865112
            }
        },
        "name": "move_to_storage_A"
    },
    "id": "BiEST_move_to_storage_A_27",
    "joint_names": [
        "shoulder_pan_joint",
        "shoulder_lift_joint",
        "elbow_joint",
        "wrist_1_joint",
        "wrist_2_joint",
        "wrist_3_joint"
    ],
    "metrics": {
        "cart_traj_len": 0.3530098903821999,
        "distance_elbow_joint": 0.44876591294655155,
        "distance_shoulder_lift_joint": 0.23349070627901924,
        "distance_shoulder_pan_joint": 0.4628371420784925,
        "distance_wrist_1_joint": 0.23729704196074874,
        "distance_wrist_2_joint": 1.0929953284659788,
        "distance_wrist_3_joint": 0.08672203878083407,
        "smoothness": 4.440892098500626e-16,
        "time": 0.075591611,
        "traj_len": 1.6006586677088983,
        "weighted_distance": 2.0163939641101933
    },
    "planner": "BiEST",
    "start": {
        "state": {
            "elbow_joint": 1.9715472970024885,
            "shoulder_lift_joint": -1.1394870060712896,
            "shoulder_pan_joint": 0.12281152778156021,
            "wrist_1_joint": -0.780463741449964,
            "wrist_2_joint": 0.12958659822042276,
            "wrist_3_joint": 3.090690232415272
        }
    },
    "waypoints": [
        {
            "positions": [
                0.12281152778156021,
                -1.1394870060712896,
                1.9715472970024885,
                -0.780463741449964,
                0.12958659822042276,
                3.090690232415272
            ]
        },
        {
            "positions": [
                0.05669193605606129,
                -1.1728428212540067,
                2.03565671313771,
                -0.8143633188729281,
                0.2857287880012769,
                3.103079095098248
            ]
        },
        {
            "positions": [
                -0.009427655669437623,
                -1.2061986364367236,
                2.0997661292729317,
                -0.8482628962958922,
                0.441870977782131,
                3.1154679577812243
            ]
        },
        {
            "positions": [
                -0.07554724739493654,
                -1.2395544516194408,
                2.1638755454081533,
                -0.8821624737188563,
                0.5980131675629851,
                3.1278568204642005
            ]
        },
        {
            "positions": [
                -0.14166683912043546,
                -1.2729102668021577,
                2.227984961543375,
                -0.9160620511418204,
                0.7541553573438392,
                3.1402456831471772
            ]
        },
        {
            "positions": [
                -0.20778643084593443,
                -1.3062660819848748,
                2.292094377678597,
                -0.9499616285647845,
                0.9102975471246934,
                3.1526345458301535
            ]
        },
        {
            "positions": [
                -0.27390602257143326,
                -1.3396218971675917,
                2.3562037938138185,
                -0.9838612059877486,
                1.0664397369055474,
                3.1650234085131297
            ]
        },
        {
            "positions": [
                -0.3400256142969323,
                -1.3729777123503089,
                2.42031320994904,
                -1.0177607834107127,
                1.2225819266864015,
                3.177412271196106
            ]
        }
    ]
}