{
    "goal": {
        "global_pose": {
            "orientation": {
                "w": 0.7031023480610252,
                "x": -0.7110244013736278,
                "y": 0.0077485991402295624,
                "z": 0.005598929693374583
            },
            "position": {
                "x": -0.8841497679147869,
                "y": 0.44412534475326537,
                "z": 0.3711530566215515
            }
        },
        "name": "move_to_auspresseinheit_D"
    },
    "id": "BiEST_move_to_auspresseinheit_D_47",
    "joint_names": [
        "shoulder_pan_joint",
        "shoulder_lift_joint",
        "elbow_joint",
        "wrist_1_joint",
        "wrist_2_joint",
        "wrist_3_joint"
    ],
    "metrics": {
        "cart_traj_len": 0.3450292158434268,
        "distance_elbow_joint": 0.671498200864588,
        "distance_shoulder_lift_joint": 0.13967461471868337,
        "distance_shoulder_pan_joint": 0.13366110163306072,
        "distance_wrist_1_joint": 0.6299844288975134,
        "distance_wrist_2_joint": 1.441608591428515,
        "distance_wrist_3_joint": 0.08615504729569645,
        "smoothness": 6.908054304474895e-16,
        "time": 0.057319928000000006,
        "traj_len": 1.7614147679743284,
        "weighted_distance": 2.312246764459944
    },
    "planner": "BiEST",
    "start": {
        "state": {
            "elbow_joint": -1.8275523626775212,
            "shoulder_lift_joint": -2.126789852344167,
            "shoulder_pan_joint": -0.03513704404078235,
            "wrist_1_joint": -2.347782403156801,
            "wrist_2_joint": -1.6058999987535132,
            "wrist_3_joint": -3.0880379163319196
        }
    },
    "waypoints": [
        {
            "positions": [
                -0.03513704404078235,
                -2.126789852344167,
                -1.8275523626775212,
                -2.347782403156801,
                -1.6058999987535132,
                -3.0880379163319196
            ]
        },
        {
            "positions": [
                -0.05184468174491494,
                -2.144249179184002,
                -1.7436150875694476,
                -2.4265304567689903,
                -1.4256989248249488,
                -3.0772685354199574
            ]
        },
        {
            "positions": [
                -0.06855231944904752,
                -2.161708506023838,
                -1.6596778124613742,
                -2.505278510381179,
                -1.2454978508963843,
                -3.0664991545079956
            ]
        },
        {
            "positions": [
                -0.08525995715318012,
                -2.179167832863673,
                -1.5757405373533007,
                -2.584026563993368,
                -1.06529677696782,
                -3.0557297735960334
            ]
        },
        {
            "positions": [
                -0.10196759485731272,
                -2.1966271597035085,
                -1.4918032622452273,
                -2.6627746176055576,
                -0.8850957030392557,
                -3.0449603926840716
            ]
        },
        {
            "positions": [
                -0.1186752325614453,
                -2.214086486543344,
                -1.4078659871371537,
                -2.741522671217747,
                -0.7048946291106912,
                -3.0341910117721094
            ]
        },
        {
            "positions": [
                -0.13538287026557788,
                -2.231545813383179,
                -1.3239287120290801,
                -2.820270724829936,
                -0.524693555182127,
                -3.023421630860147
            ]
        },
        {
            "positions": [
                -0.1520905079697105,
                -2.249005140223015,
                -1.2399914369210068,
                -2.899018778442125,
                -0.3444924812535626,
                -3.0126522499481854
            ]
        },
        {
            "positions": [
                -0.16879814567384308,
                -2.26646446706285,
                -1.1560541618129332,
                -2.9777668320543142,
                -0.1642914073249982,
                -3.001882869036223
            ]
        }
    ]
}