{
    "goal": {
        "global_pose": {
            "orientation": {
                "w": 0.5084816217422485,
                "x": -0.49083608388900757,
                "y": 0.5182115435600281,
                "z": -0.4816462993621826
            },
            "position": {
                "x": 0.5540239810943604,
                "y": 0.030875300988554955,
                "z": 0.16403168439865112
            }
        },
        "name": "move_to_storage_A"
    },
    "id": "BiEST_move_to_storage_A_63",
    "joint_names": [
        "shoulder_pan_joint",
        "shoulder_lift_joint",
        "elbow_joint",
        "wrist_1_joint",
        "wrist_2_joint",
        "wrist_3_joint"
    ],
    "metrics": {
        "cart_traj_len": 0.35281014016546863,
        "distance_elbow_joint": 0.4483578680661442,
        "distance_shoulder_lift_joint": 0.2342115719078337,
        "distance_shoulder_pan_joint": 0.46084234560373755,
        "distance_wrist_1_joint": 0.23879974107838386,
        "distance_wrist_2_joint": 1.1000040295799929,
        "distance_wrist_3_joint": 0.1031957075826413,
        "smoothness": 4.440892133664971e-16,
        "time": 0.056458695,
        "traj_len": 1.6079214109584876,
        "weighted_distance": 2.032389344993324
    },
    "planner": "BiEST",
    "start": {
        "state": {
            "elbow_joint": 1.971548259319323,
            "shoulder_lift_joint": -1.1394851275133948,
            "shoulder_pan_joint": 0.1228115487234821,
            "wrist_1_joint": -0.7804723859257726,
            "wrist_2_joint": 0.12958671773740124,
            "wrist_3_joint": -3.192489227718131
        }
    },
    "waypoints": [
        {
            "positions": [
                0.1228115487234821,
                -1.1394851275133948,
                1.971548259319323,
                -0.7804723859257726,
                0.12958671773740124,
                -3.192489227718131
            ]
        },
        {
            "positions": [
                0.05697692792294817,
                -1.1729439235002281,
                2.035599383328772,
                -0.814586634651256,
                0.2867301505345431,
                -3.177746983777754
            ]
        },
        {
            "positions": [
                -0.008857692877585754,
                -1.2064027194870617,
                2.0996505073382212,
                -0.8487008833767394,
                0.4438735833316849,
                -3.1630047398373766
            ]
        },
        {
            "positions": [
                -0.07469231367811968,
                -1.239861515473895,
                2.1637016313476707,
                -0.8828151321022228,
                0.6010170161288267,
                -3.1482624958969994
            ]
        },
        {
            "positions": [
                -0.1405269344786536,
                -1.2733203114607283,
                2.2277527553571197,
                -0.9169293808277063,
                0.7581604489259686,
                -3.1335202519566216
            ]
        },
        {
            "positions": [
                -0.2063615552791876,
                -1.3067791074475616,
                2.2918038793665687,
                -0.9510436295531897,
                0.9153038817231105,
                -3.1187780080162444
            ]
        },
        {
            "positions": [
                -0.27219617607972146,
                -1.3402379034343952,
                2.355855003376018,
                -0.9851578782786731,
                1.0724473145202522,
                -3.104035764075867
            ]
        },
        {
            "positions": [
                -0.33803079688025545,
                -1.3736966994212285,
                2.419906127385467,
                -1.0192721270041565,
                1.2295907473173942,
                -3.08929352013549
            ]
        }
    ]
}{
    "goal": {
        "global_pose": {
            "orientation": {
                "w": 0.5084816217422485,
                "x": -0.49083608388900757,
                "y": 0.5182115435600281,
                "z": -0.4816462993621826
            },
            "position": {
                "x": 0.5540239810943604,
                "y": 0.030875300988554955,
                "z": 0.16403168439865112
            }
        },
        "name": "move_to_storage_A"
    },
    "id": "BiEST_move_to_storage_A_63",
    "joint_names": [
        "shoulder_pan_joint",
        "shoulder_lift_joint",
        "elbow_joint",
        "wrist_1_joint",
        "wrist_2_joint",
        "wrist_3_joint"
    ],
    "metrics": {
        "cart_traj_len": 0.35322778497068236,
        "distance_elbow_joint": 0.4503728129501985,
        "distance_shoulder_lift_joint": 0.23269969337228824,
        "distance_shoulder_pan_joint": 0.461317275979491,
        "distance_wrist_1_joint": 0.2503695146247795,
        "distance_wrist_2_joint": 1.1004680726840428,
        "distance_wrist_3_joint": 0.08960965029571222,
        "smoothness": 8.881784197001252e-16,
        "time": 0.09411871599999999,
        "traj_len": 1.6077428338843598,
        "weighted_distance": 2.028520127533064
    },
    "planner": "BiEST",
    "start": {
        "state": {
            "elbow_joint": 1.97154746011099,
            "shoulder_lift_joint": -1.13948474672311,
            "shoulder_pan_joint": 0.12281154466712228,
            "wrist_1_joint": -0.7804688027058302,
            "wrist_2_joint": 0.12958655903071145,
            "wrist_3_joint": 3.0906928834467795
        }
    },
    "waypoints": [
        {
            "positions": [
                0.12281154466712228,
                -1.13948474672311,
                1.97154746011099,
                -0.7804688027058302,
                0.12958655903071145,
                3.0906928834467795
            ]
        },
        {
            "positions": [
                0.05690907667005214,
                -1.1727275600620082,
                2.0358864333895896,
                -0.8162358762236558,
                0.28679628369986043,
                3.103494262060453
            ]
        },
        {
            "positions": [
                -0.008993391327018,
                -1.2059703734009066,
                2.1002254066681894,
                -0.8520029497414815,
                0.4440060083690094,
                3.116295640674126
            ]
        },
        {
            "positions": [
                -0.07489585932408814,
                -1.2392131867398049,
                2.164564379946789,
                -0.8877700232593071,
                0.6012157330381583,
                3.129097019287799
            ]
        },
        {
            "positions": [
                -0.14079832732115827,
                -1.2724560000787033,
                2.2289033532253892,
                -0.9235370967771328,
                0.7584254577073073,
                3.141898397901472
            ]
        },
        {
            "positions": [
                -0.20670079531822844,
                -1.3056988134176015,
                2.293242326503989,
                -0.9593041702949584,
                0.9156351823764564,
                3.1546997765151454
            ]
        },
        {
            "positions": [
                -0.27260326331529855,
                -1.3389416267564997,
                2.3575812997825887,
                -0.995071243812784,
                1.0728449070456052,
                3.1675011551288184
            ]
        },
        {
            "positions": [
                -0.3385057313123687,
                -1.3721844400953982,
                2.4219202730611884,
                -1.0308383173306097,
                1.2300546317147543,
                3.1803025337424917
            ]
        }
    ]
}{
    "goal": {
        "global_pose": {
            "orientation": {
                "w": 0.5084816217422485,
                "x": -0.49083608388900757,
                "y": 0.5182115435600281,
                "z": -0.4816462993621826
            },
            "position": {
                "x": 0.5540239810943604,
                "y": 0.030875300988554955,
                "z": 0.16403168439865112
            }
        },
        "name": "move_to_storage_A"
    },
    "id": "BiEST_move_to_storage_A_63",
    "joint_names": [
        "shoulder_pan_joint",
        "shoulder_lift_joint",
        "elbow_joint",
        "wrist_1_joint",
        "wrist_2_joint",
        "wrist_3_joint"
    ],
    "metrics": {
        "cart_traj_len": 0.3533255812871413,
        "distance_elbow_joint": 0.44985088292044173,
        "distance_shoulder_lift_joint": 0.23650797528704048,
        "distance_shoulder_pan_joint": 0.46458355441317967,
        "distance_wrist_1_joint": 0.23733038014607644,
        "distance_wrist_2_joint": 1.0894215275246564,
        "distance_wrist_3_joint": 0.0900869710289327,
        "smoothness": 4.440892098500626e-16,
        "time": 0.079864976,
        "traj_len": 1.60242980854711,
        "weighted_distance": 2.0185903846617634
    },
    "planner": "BiEST",
    "start": {
        "state": {
            "elbow_joint": 1.9715472970024885,
            "shoulder_lift_joint": -1.1394870060712896,
            "shoulder_pan_joint": 0.12281152778156021,
            "wrist_1_joint": -0.780463741449964,
            "wrist_2_joint": 0.12958659822042276,
            "wrist_3_joint": 3.090690232415272
        }
    },
    "waypoints": [
        {
            "positions": [
                0.12281152778156021,
                -1.1394870060712896,
                1.9715472970024885,
                -0.780463741449964,
                0.12958659822042276,
                3.090690232415272
            ]
        },
        {
            "positions": [
                0.05644244857967741,
                -1.173273859683724,
                2.035811708848266,
                -0.8143680814708321,
                0.28521824500965937,
                3.103559799705119
            ]
        },
        {
            "positions": [
                -0.00992663062220539,
                -1.2070607132961584,
                2.1000761206940433,
                -0.8482724214917001,
                0.440849891798896,
                3.116429366994967
            ]
        },
        {
            "positions": [
                -0.0762957098240882,
                -1.2408475669085928,
                2.164340532539821,
                -0.8821767615125682,
                0.5964815385881326,
                3.1292989342848143
            ]
        },
        {
            "positions": [
                -0.142664789025971,
                -1.274634420521027,
                2.228604944385598,
                -0.9160811015334362,
                0.7521131853773692,
                3.142168501574662
            ]
        },
        {
            "positions": [
                -0.20903386822785383,
                -1.3084212741334613,
                2.2928693562313756,
                -0.9499854415543043,
                0.9077448321666058,
                3.1550380688645094
            ]
        },
        {
            "positions": [
                -0.2754029474297366,
                -1.3422081277458957,
                2.3571337680771527,
                -0.9838897815751724,
                1.0633764789558424,
                3.167907636154357
            ]
        },
        {
            "positions": [
                -0.34177202663161943,
                -1.37599498135833,
                2.4213981799229303,
                -1.0177941215960404,
                1.219008125745079,
                3.1807772034442046
            ]
        }
    ]
}