{
    "goal": {
        "global_pose": {
            "orientation": {
                "w": 0.005598929693374612,
                "x": 0.007748599140229565,
                "y": 0.7110244013736278,
                "z": -0.7031023480610252
            },
            "position": {
                "x": -0.8858502320852131,
                "y": -0.7141253447532654,
                "z": 0.3711530566215515
            }
        },
        "name": "move_to_auspresseinheit_C"
    },
    "id": "BiEST_move_to_auspresseinheit_C_12",
    "joint_names": [
        "shoulder_pan_joint",
        "shoulder_lift_joint",
        "elbow_joint",
        "wrist_1_joint",
        "wrist_2_joint",
        "wrist_3_joint"
    ],
    "metrics": {
        "cart_traj_len": 0.4931115156163905,
        "distance_elbow_joint": 0.9994349008317265,
        "distance_shoulder_lift_joint": 0.3243557093455147,
        "distance_shoulder_pan_joint": 0.2555893202728541,
        "distance_wrist_1_joint": 0.6708121925807491,
        "distance_wrist_2_joint": 1.320901563613071,
        "distance_wrist_3_joint": 0.05327525391495058,
        "smoothness": 9.689219124001365e-16,
        "time": 0.10982498600000001,
        "traj_len": 1.9037775449245287,
        "weighted_distance": 2.39220258435246
    },
    "planner": "BiEST",
    "start": {
        "state": {
            "elbow_joint": 1.7527959577737207,
            "shoulder_lift_joint": -0.9740617694225068,
            "shoulder_pan_joint": -2.967991417825858,
            "wrist_1_joint": -0.759517768980727,
            "wrist_2_joint": 1.7443932448377408,
            "wrist_3_joint": -3.0840537646736568
        }
    },
    "waypoints": [
        {
            "positions": [
                -2.967991417825858,
                -0.9740617694225068,
                1.7527959577737207,
                -0.759517768980727,
                1.7443932448377408,
                -3.0840537646736568
            ]
        },
        {
            "positions": [
                -2.9424324857985726,
                -0.9416261984879553,
                1.652852467690548,
                -0.6924365497226521,
                1.6123030884764338,
                -3.089381290065152
            ]
        },
        {
            "positions": [
                -2.9168735537712873,
                -0.9091906275534039,
                1.5529089776073755,
                -0.6253553304645771,
                1.4802129321151267,
                -3.094708815456647
            ]
        },
        {
            "positions": [
                -2.8913146217440016,
                -0.8767550566188523,
                1.4529654875242026,
                -0.5582741112065023,
                1.3481227757538194,
                -3.100036340848142
            ]
        },
        {
            "positions": [
                -2.8657556897167162,
                -0.8443194856843008,
                1.35302199744103,
                -0.49119289194842736,
                1.2160326193925124,
                -3.105363866239637
            ]
        },
        {
            "positions": [
                -2.840196757689431,
                -0.8118839147497494,
                1.2530785073578574,
                -0.42411167269035244,
                1.0839424630312053,
                -3.110691391631132
            ]
        },
        {
            "positions": [
                -2.8146378256621456,
                -0.779448343815198,
                1.1531350172746848,
                -0.3570304534322775,
                0.9518523066698983,
                -3.116018917022627
            ]
        },
        {
            "positions": [
                -2.7890788936348603,
                -0.7470127728806465,
                1.0531915271915122,
                -0.28994923417420265,
                0.8197621503085912,
                -3.121346442414122
            ]
        },
        {
            "positions": [
                -2.7635199616075745,
                -0.714577201946095,
                0.9532480371083394,
                -0.22286801491612773,
                0.687671993947284,
                -3.1266739678056172
            ]
        },
        {
            "positions": [
                -2.737961029580289,
                -0.6821416310115436,
                0.8533045470251668,
                -0.15578679565805276,
                0.5555818375859769,
                -3.1320014931971123
            ]
        },
        {
            "positions": [
                -2.712402097553004,
                -0.649706060076992,
                0.7533610569419942,
                -0.08870557639997785,
                0.4234916812246699,
                -3.1373290185886074
            ]
        }
    ]
}