{
    "goal": {
        "global_pose": {
            "orientation": {
                "w": -0.00223480608172531,
                "x": 0.0024358444001904467,
                "y": 0.7094548369677653,
                "z": -0.704743149386269
            },
            "position": {
                "x": -0.37947507619857795,
                "y": -0.6371506643295288,
                "z": 0.19426114857196808
            }
        },
        "name": "move_to_magneteinheit_C"
    },
    "id": "BiEST_move_to_magneteinheit_C_43",
    "joint_names": [
        "shoulder_pan_joint",
        "shoulder_lift_joint",
        "elbow_joint",
        "wrist_1_joint",
        "wrist_2_joint",
        "wrist_3_joint"
    ],
    "metrics": {
        "cart_traj_len": 0.9156376588849922,
        "distance_elbow_joint": 0.4843196299581458,
        "distance_shoulder_lift_joint": 1.3150653501904475,
        "distance_shoulder_pan_joint": 1.0359519533904502,
        "distance_wrist_1_joint": 1.9772303001058473,
        "distance_wrist_2_joint": 0.7887677778433555,
        "distance_wrist_3_joint": 4.084811800684113,
        "smoothness": 1.0631719228681327,
        "time": 0.054655159999999994,
        "traj_len": 3.112257510581725,
        "weighted_distance": 4.541119739831773
    },
    "planner": "BiEST",
    "start": {
        "state": {
            "elbow_joint": 1.9565354010623817,
            "shoulder_lift_joint": -1.4165861575791021,
            "shoulder_pan_joint": -1.6717766225146293,
            "wrist_1_joint": -0.5286633292919765,
            "wrist_2_joint": 1.472756589071564,
            "wrist_3_joint": -3.1238370188695823
        }
    },
    "waypoints": [
        {
            "positions": [
                -1.6717766225146293,
                -1.4165861575791021,
                1.9565354010623817,
                -0.5286633292919765,
                1.472756589071564,
                -3.1238370188695823
            ]
        },
        {
            "positions": [
                -1.7424113677419324,
                -1.4574713968305701,
                1.9772591046112336,
                -0.4641742357673977,
                1.4543280822713207,
                -2.9676843235399053
            ]
        },
        {
            "positions": [
                -1.8130461129692352,
                -1.4983566360820382,
                1.9979828081600857,
                -0.399685142242819,
                1.4358995754710773,
                -2.811531628210228
            ]
        },
        {
            "positions": [
                -1.8836808581965383,
                -1.5392418753335062,
                2.0187065117089373,
                -0.33519604871824027,
                1.417471068670834,
                -2.655378932880551
            ]
        },
        {
            "positions": [
                -1.9543156034238414,
                -1.5801271145849745,
                2.0394302152577897,
                -0.2707069551936615,
                1.3990425618705906,
                -2.499226237550874
            ]
        },
        {
            "positions": [
                -2.0249503486511444,
                -1.6210123538364425,
                2.0601539188066416,
                -0.2062178616690828,
                1.3806140550703474,
                -2.3430735422211963
            ]
        },
        {
            "positions": [
                -2.095585093878447,
                -1.6618975930879105,
                2.0808776223554935,
                -0.14172876814450402,
                1.362185548270104,
                -2.1869208468915193
            ]
        },
        {
            "positions": [
                -2.16621983910575,
                -1.7027828323393785,
                2.1016013259043453,
                -0.07723967461992537,
                1.3437570414698607,
                -2.0307681515618423
            ]
        },
        {
            "positions": [
                -2.236854584333053,
                -1.7436680715908466,
                2.1223250294531972,
                -0.012750581095346547,
                1.3253285346696173,
                -1.874615456232165
            ]
        },
        {
            "positions": [
                -2.3074893295603562,
                -1.7845533108423146,
                2.143048733002049,
                0.05173851242923211,
                1.306900027869374,
                -1.718462760902488
            ]
        },
        {
            "positions": [
                -2.3781240747876593,
                -1.8254385500937829,
                2.1637724365509015,
                0.11622760595381088,
                1.2884715210691307,
                -1.5623100655728106
            ]
        },
        {
            "positions": [
                -2.448758820014962,
                -1.866323789345251,
                2.1844961400997533,
                0.18071669947838964,
                1.2700430142688874,
                -1.4061573702431336
            ]
        },
        {
            "positions": [
                -2.519393565242265,
                -1.907209028596719,
                2.2052198436486052,
                0.2452057930029684,
                1.251614507468644,
                -1.2500046749134563
            ]
        },
        {
            "positions": [
                -2.590028310469568,
                -1.948094267848187,
                2.225943547197457,
                0.309694886527547,
                1.2331860006684008,
                -1.0938519795837793
            ]
        },
        {
            "positions": [
                -2.5809744438976057,
                -1.887820634008082,
                2.2094118945956827,
                0.2220893415824452,
                1.1909400630191551,
                -1.2519155766144185
            ]
        },
        {
            "positions": [
                -2.5719205773256433,
                -1.8275470001679772,
                2.1928802419939077,
                0.13448379663734342,
                1.1486941253699097,
                -1.4099791736450578
            ]
        },
        {
            "positions": [
                -2.562866710753681,
                -1.7672733663278726,
                2.1763485893921333,
                0.04687825169224158,
                1.106448187720664,
                -1.5680427706756968
            ]
        },
        {
            "positions": [
                -2.5538128441817185,
                -1.7069997324877677,
                2.1598169367903584,
                -0.040727293252860175,
                1.0642022500714186,
                -1.726106367706336
            ]
        },
        {
            "positions": [
                -2.544758977609756,
                -1.6467260986476628,
                2.143285284188584,
                -0.12833283819796198,
                1.0219563124221729,
                -1.8841699647369752
            ]
        },
        {
            "positions": [
                -2.5357051110377937,
                -1.586452464807558,
                2.1267536315868094,
                -0.21593838314306385,
                0.9797103747729274,
                -2.042233561767614
            ]
        },
        {
            "positions": [
                -2.526651244465831,
                -1.5261788309674533,
                2.1102219789850345,
                -0.3035439280881655,
                0.9374644371236818,
                -2.2002971587982536
            ]
        },
        {
            "positions": [
                -2.5175973778938685,
                -1.4659051971273485,
                2.09369032638326,
                -0.39114947303326736,
                0.8952184994744362,
                -2.3583607558288926
            ]
        },
        {
            "positions": [
                -2.508543511321906,
                -1.4056315632872436,
                2.0771586737814856,
                -0.4787550179783691,
                0.8529725618251907,
                -2.5164243528595316
            ]
        },
        {
            "positions": [
                -2.4994896447499437,
                -1.3453579294471387,
                2.0606270211797106,
                -0.5663605629234709,
                0.8107266241759451,
                -2.674487949890171
            ]
        },
        {
            "positions": [
                -2.4904357781779813,
                -1.2850842956070339,
                2.044095368577936,
                -0.6539661078685728,
                0.7684806865266995,
                -2.83255154692081
            ]
        },
        {
            "positions": [
                -2.481381911606019,
                -1.224810661766929,
                2.0275637159761613,
                -0.7415716528136747,
                0.726234748877454,
                -2.9906151439514495
            ]
        },
        {
            "positions": [
                -2.4723280450340566,
                -1.1645370279268243,
                2.011032063374387,
                -0.8291771977587764,
                0.6839888112282084,
                -3.1486787409820884
            ]
        }
    ]
}