{
    "goal": {
        "global_pose": {
            "orientation": {
                "w": 0.7031023480610252,
                "x": -0.7110244013736278,
                "y": 0.0077485991402295624,
                "z": 0.005598929693374583
            },
            "position": {
                "x": -0.8841497679147869,
                "y": 0.44412534475326537,
                "z": 0.3711530566215515
            }
        },
        "name": "move_to_auspresseinheit_D"
    },
    "id": "BiEST_move_to_auspresseinheit_D_85",
    "joint_names": [
        "shoulder_pan_joint",
        "shoulder_lift_joint",
        "elbow_joint",
        "wrist_1_joint",
        "wrist_2_joint",
        "wrist_3_joint"
    ],
    "metrics": {
        "cart_traj_len": 0.34357994077747417,
        "distance_elbow_joint": 0.6437177281949868,
        "distance_shoulder_lift_joint": 0.12413451528780328,
        "distance_shoulder_pan_joint": 0.13372063379688098,
        "distance_wrist_1_joint": 0.541404420328893,
        "distance_wrist_2_joint": 1.4397753887057831,
        "distance_wrist_3_joint": 0.015351790034472401,
        "smoothness": 0.0,
        "time": 0.053309938,
        "traj_len": 1.7023820007121844,
        "weighted_distance": 2.2158492424920158
    },
    "planner": "BiEST",
    "start": {
        "state": {
            "elbow_joint": -1.8275523626775212,
            "shoulder_lift_joint": -2.126789852344167,
            "shoulder_pan_joint": -0.03513704404078235,
            "wrist_1_joint": -2.347782403156801,
            "wrist_2_joint": -1.6058999987535132,
            "wrist_3_joint": -3.0880379163319196
        }
    },
    "waypoints": [
        {
            "positions": [
                -0.03513704404078235,
                -2.126789852344167,
                -1.8275523626775212,
                -2.347782403156801,
                -1.6058999987535132,
                -3.0880379163319196
            ]
        },
        {
            "positions": [
                -0.05185212326539247,
                -2.1423066667551423,
                -1.7470876466531478,
                -2.4154579556979123,
                -1.4259280751652903,
                -3.0861189425776105
            ]
        },
        {
            "positions": [
                -0.06856720249000259,
                -2.1578234811661177,
                -1.6666229306287745,
                -2.4831335082390242,
                -1.2459561515770674,
                -3.0841999688233015
            ]
        },
        {
            "positions": [
                -0.08528228171461272,
                -2.173340295577093,
                -1.586158214604401,
                -2.5508090607801357,
                -1.0659842279888445,
                -3.0822809950689924
            ]
        },
        {
            "positions": [
                -0.10199736093922285,
                -2.1888571099880685,
                -1.5056934985800279,
                -2.6184846133212476,
                -0.8860123044006216,
                -3.0803620213146834
            ]
        },
        {
            "positions": [
                -0.11871244016383298,
                -2.204373924399044,
                -1.4252287825556544,
                -2.686160165862359,
                -0.7060403808123987,
                -3.0784430475603743
            ]
        },
        {
            "positions": [
                -0.13542751938844308,
                -2.2198907388100193,
                -1.344764066531281,
                -2.7538357184034705,
                -0.5260684572241758,
                -3.0765240738060653
            ]
        },
        {
            "positions": [
                -0.1521425986130532,
                -2.2354075532209947,
                -1.2642993505069078,
                -2.8215112709445824,
                -0.34609653363595294,
                -3.0746051000517562
            ]
        },
        {
            "positions": [
                -0.16885767783766334,
                -2.25092436763197,
                -1.1838346344825343,
                -2.889186823485694,
                -0.16612461004773008,
                -3.072686126297447
            ]
        }
    ]
}