{
    "goal": {
        "global_pose": {
            "orientation": {
                "w": -0.00223480608172531,
                "x": 0.0024358444001904467,
                "y": 0.7094548369677653,
                "z": -0.704743149386269
            },
            "position": {
                "x": -0.37947507619857795,
                "y": -0.6371506643295288,
                "z": 0.19426114857196808
            }
        },
        "name": "move_to_magneteinheit_C"
    },
    "id": "BiEST_move_to_magneteinheit_C_80",
    "joint_names": [
        "shoulder_pan_joint",
        "shoulder_lift_joint",
        "elbow_joint",
        "wrist_1_joint",
        "wrist_2_joint",
        "wrist_3_joint"
    ],
    "metrics": {
        "cart_traj_len": 2.28874492094465,
        "distance_elbow_joint": 2.401980685693605,
        "distance_shoulder_lift_joint": 1.1007835476090198,
        "distance_shoulder_pan_joint": 1.9308626867905405,
        "distance_wrist_1_joint": 3.2315469789214935,
        "distance_wrist_2_joint": 2.082445627599709,
        "distance_wrist_3_joint": 2.840841405065295,
        "smoothness": 0.7543330002509853,
        "time": 0.105507411,
        "traj_len": 3.686252966316835,
        "weighted_distance": 4.958239238714834
    },
    "planner": "BiEST",
    "start": {
        "state": {
            "elbow_joint": 1.9565354010623817,
            "shoulder_lift_joint": -1.4165861575791021,
            "shoulder_pan_joint": -1.6717766225146293,
            "wrist_1_joint": -0.5286633292919765,
            "wrist_2_joint": 1.472756589071564,
            "wrist_3_joint": -3.1238370188695823
        }
    },
    "waypoints": [
        {
            "positions": [
                -1.6717766225146293,
                -1.4165861575791021,
                1.9565354010623817,
                -0.5286633292919765,
                1.472756589071564,
                -3.1238370188695823
            ]
        },
        {
            "positions": [
                -1.6621393163868428,
                -1.3975423796859652,
                1.9957601844986241,
                -0.6826474996586511,
                1.4941199598296513,
                -2.9709989393709972
            ]
        },
        {
            "positions": [
                -1.652502010259056,
                -1.3784986017928282,
                2.0349849679348666,
                -0.8366316700253259,
                1.5154833305877384,
                -2.818160859872412
            ]
        },
        {
            "positions": [
                -1.6428647041312692,
                -1.3594548238996913,
                2.074209751371109,
                -0.9906158403920007,
                1.5368467013458256,
                -2.6653227803738275
            ]
        },
        {
            "positions": [
                -1.6332273980034826,
                -1.3404110460065544,
                2.1134345348073516,
                -1.1446000107586753,
                1.558210072103913,
                -2.5124847008752424
            ]
        },
        {
            "positions": [
                -1.6083964039458647,
                -1.3204726670259217,
                2.1104704824894136,
                -1.250943870869052,
                1.5479185851624804,
                -2.400372086358103
            ]
        },
        {
            "positions": [
                -1.5835654098882466,
                -1.3005342880452893,
                2.1075064301714757,
                -1.3572877309794285,
                1.5376270982210478,
                -2.288259471840963
            ]
        },
        {
            "positions": [
                -1.5502002889080095,
                -1.2771835971724,
                1.9860576314248444,
                -1.3860443903536723,
                1.4399282700873164,
                -2.2164897772501844
            ]
        },
        {
            "positions": [
                -1.5168351679277725,
                -1.2538329062995108,
                1.8646088326782133,
                -1.4148010497279162,
                1.3422294419535852,
                -2.1447200826594055
            ]
        },
        {
            "positions": [
                -1.4834700469475353,
                -1.2304822154266217,
                1.743160033931582,
                -1.44355770910216,
                1.2445306138198537,
                -2.0729503880686266
            ]
        },
        {
            "positions": [
                -1.4501049259672982,
                -1.2071315245537324,
                1.621711235184951,
                -1.472314368476404,
                1.1468317856861225,
                -2.001180693477848
            ]
        },
        {
            "positions": [
                -1.4167398049870612,
                -1.183780833680843,
                1.5002624364383197,
                -1.5010710278506478,
                1.049132957552391,
                -1.9294109988870696
            ]
        },
        {
            "positions": [
                -1.383374684006824,
                -1.160430142807954,
                1.3788136376916884,
                -1.5298276872248917,
                0.9514341294186597,
                -1.857641304296291
            ]
        },
        {
            "positions": [
                -1.350009563026587,
                -1.1370794519350649,
                1.2573648389450574,
                -1.5585843465991356,
                0.8537353012849284,
                -1.7858716097055123
            ]
        },
        {
            "positions": [
                -1.31664444204635,
                -1.1137287610621756,
                1.135916040198426,
                -1.5873410059733795,
                0.756036473151197,
                -1.7141019151147336
            ]
        },
        {
            "positions": [
                -1.387535180138521,
                -1.1392478916106064,
                1.1031499458619398,
                -1.4667380890623412,
                0.6747559411009032,
                -1.7739343073771048
            ]
        },
        {
            "positions": [
                -1.458425918230692,
                -1.164767022159037,
                1.0703838515254536,
                -1.3461351721513029,
                0.5934754090506094,
                -1.833766699639476
            ]
        },
        {
            "positions": [
                -1.529316656322863,
                -1.1902861527074677,
                1.0376177571889673,
                -1.2255322552402648,
                0.5121948770003154,
                -1.893599091901847
            ]
        },
        {
            "positions": [
                -1.6002073944150341,
                -1.2158052832558985,
                1.004851662852481,
                -1.1049293383292265,
                0.43091434495002157,
                -1.9534314841642182
            ]
        },
        {
            "positions": [
                -1.6710981325072052,
                -1.2413244138043291,
                0.9720855685159949,
                -0.984326421418188,
                0.34963381289972767,
                -2.0132638764265893
            ]
        },
        {
            "positions": [
                -1.7419888705993762,
                -1.26684354435276,
                0.9393194741795087,
                -0.8637235045071499,
                0.26835328084943383,
                -2.0730962686889605
            ]
        },
        {
            "positions": [
                -1.8389342437046015,
                -1.2940334526442285,
                1.0246220110526543,
                -0.781301451821784,
                0.25136786493188806,
                -2.1569414212344435
            ]
        },
        {
            "positions": [
                -1.9358796168098267,
                -1.3212233609356974,
                1.1099245479258,
                -0.6988793991364182,
                0.23438244901434224,
                -2.240786573779926
            ]
        },
        {
            "positions": [
                -2.032824989915052,
                -1.348413269227166,
                1.1952270847989457,
                -0.6164573464510523,
                0.21739703309679648,
                -2.3246317263254093
            ]
        },
        {
            "positions": [
                -2.129770363020277,
                -1.3756031775186348,
                1.2805296216720914,
                -0.5340352937656865,
                0.20041161717925068,
                -2.408476878870892
            ]
        },
        {
            "positions": [
                -2.2267157361255028,
                -1.4027930858101034,
                1.365832158545237,
                -0.45161324108032047,
                0.1834262012617049,
                -2.492322031416375
            ]
        },
        {
            "positions": [
                -2.323661109230728,
                -1.4299829941015723,
                1.4511346954183828,
                -0.3691911883949547,
                0.16644078534415913,
                -2.5761671839618576
            ]
        },
        {
            "positions": [
                -2.420606482335953,
                -1.4571729023930409,
                1.5364372322915285,
                -0.28676913570958873,
                0.1494553694266133,
                -2.6600123365073407
            ]
        },
        {
            "positions": [
                -2.5175518554411784,
                -1.4843628106845097,
                1.6217397691646742,
                -0.204347083024223,
                0.13246995350906754,
                -2.7438574890528233
            ]
        },
        {
            "positions": [
                -2.6144972285464037,
                -1.5115527189759783,
                1.70704230603782,
                -0.12192503033885702,
                0.11548453759152175,
                -2.8277026415983064
            ]
        },
        {
            "positions": [
                -2.6317525176034846,
                -1.5180447127696626,
                1.7725869519328215,
                -0.2391632140540729,
                0.2298212514283536,
                -2.841643495944839
            ]
        },
        {
            "positions": [
                -2.649007806660565,
                -1.5245367065633466,
                1.838131597827823,
                -0.3564013977692888,
                0.3441579652651855,
                -2.8555843502913714
            ]
        },
        {
            "positions": [
                -2.666263095717646,
                -1.5310287003570306,
                1.9036762437228243,
                -0.4736395814845047,
                0.45849467910201736,
                -2.8695252046379043
            ]
        },
        {
            "positions": [
                -2.683518384774727,
                -1.537520694150715,
                1.9692208896178258,
                -0.5908777651997206,
                0.5728313929388492,
                -2.8834660589844368
            ]
        },
        {
            "positions": [
                -2.631304243876256,
                -1.4439871396498265,
                1.9794871585884446,
                -0.6505029131358969,
                0.5970613316157597,
                -2.9489015983446225
            ]
        },
        {
            "positions": [
                -2.5790901029777853,
                -1.350453585148938,
                1.9897534275590636,
                -0.7101280610720733,
                0.6212912702926701,
                -3.0143371377048083
            ]
        },
        {
            "positions": [
                -2.526875962079314,
                -1.2569200306480495,
                2.0000196965296824,
                -0.7697532090082496,
                0.6455212089695805,
                -3.079772677064994
            ]
        },
        {
            "positions": [
                -2.474661821180843,
                -1.163386476147161,
                2.010285965500301,
                -0.829378356944426,
                0.669751147646491,
                -3.14520821642518
            ]
        }
    ]
}