{
    "goal": {
        "global_pose": {
            "orientation": {
                "w": 0.005598929693374612,
                "x": 0.007748599140229565,
                "y": 0.7110244013736278,
                "z": -0.7031023480610252
            },
            "position": {
                "x": -0.8858502320852131,
                "y": -0.7141253447532654,
                "z": 0.3711530566215515
            }
        },
        "name": "move_to_auspresseinheit_C"
    },
    "id": "BiEST_move_to_auspresseinheit_C_37",
    "joint_names": [
        "shoulder_pan_joint",
        "shoulder_lift_joint",
        "elbow_joint",
        "wrist_1_joint",
        "wrist_2_joint",
        "wrist_3_joint"
    ],
    "metrics": {
        "cart_traj_len": 0.492072990096055,
        "distance_elbow_joint": 0.9904671599548175,
        "distance_shoulder_lift_joint": 0.32118262396584984,
        "distance_shoulder_pan_joint": 0.2559821444465302,
        "distance_wrist_1_joint": 0.6565889417140022,
        "distance_wrist_2_joint": 1.3129543307291054,
        "distance_wrist_3_joint": 0.036873981687946866,
        "smoothness": 3.2297397080004555e-16,
        "time": 0.121114136,
        "traj_len": 1.8905155864203425,
        "weighted_distance": 2.370092913435516
    },
    "planner": "BiEST",
    "start": {
        "state": {
            "elbow_joint": 1.7527959577737207,
            "shoulder_lift_joint": -0.9740617694225068,
            "shoulder_pan_joint": -2.967991417825858,
            "wrist_1_joint": -0.759517768980727,
            "wrist_2_joint": 1.7443932448377408,
            "wrist_3_joint": -3.0840537646736568
        }
    },
    "waypoints": [
        {
            "positions": [
                -2.967991417825858,
                -0.9740617694225068,
                1.7527959577737207,
                -0.759517768980727,
                1.7443932448377408,
                -3.0840537646736568
            ]
        },
        {
            "positions": [
                -2.942393203381205,
                -0.9419435070259218,
                1.653749241778239,
                -0.6938588748093267,
                1.6130978117648302,
                -3.0877411628424514
            ]
        },
        {
            "positions": [
                -2.916794988936552,
                -0.9098252446293368,
                1.5547025257827571,
                -0.6281999806379266,
                1.4818023786919197,
                -3.091428561011246
            ]
        },
        {
            "positions": [
                -2.891196774491899,
                -0.8777069822327518,
                1.4556558097872754,
                -0.5625410864665263,
                1.3505069456190093,
                -3.095115959180041
            ]
        },
        {
            "positions": [
                -2.865598560047246,
                -0.8455887198361668,
                1.3566090937917936,
                -0.4968821922951261,
                1.2192115125460985,
                -3.0988033573488356
            ]
        },
        {
            "positions": [
                -2.8400003456025926,
                -0.8134704574395819,
                1.2575623777963119,
                -0.4312232981237259,
                1.0879160794731881,
                -3.10249075551763
            ]
        },
        {
            "positions": [
                -2.81440213115794,
                -0.7813521950429969,
                1.15851566180083,
                -0.3655644039523257,
                0.9566206464002777,
                -3.106178153686425
            ]
        },
        {
            "positions": [
                -2.7888039167132868,
                -0.7492339326464119,
                1.0594689458053486,
                -0.2999055097809255,
                0.8253252133273671,
                -3.1098655518552194
            ]
        },
        {
            "positions": [
                -2.7632057022686336,
                -0.7171156702498269,
                0.9604222298098666,
                -0.2342466156095252,
                0.6940297802544564,
                -3.1135529500240144
            ]
        },
        {
            "positions": [
                -2.737607487823981,
                -0.6849974078532419,
                0.8613755138143849,
                -0.16858772143812506,
                0.562734347181546,
                -3.117240348192809
            ]
        },
        {
            "positions": [
                -2.7120092733793277,
                -0.6528791454566569,
                0.7623287978189032,
                -0.10292882726672478,
                0.43143891410863533,
                -3.1209277463616036
            ]
        }
    ]
}