{
    "goal": {
        "global_pose": {
            "orientation": {
                "w": 0.5084816262002911,
                "x": -0.4908360881923452,
                "y": 0.5182115481033761,
                "z": -0.48164630358495003
            },
            "position": {
                "x": 0.5540239810943604,
                "y": -0.46912469901144505,
                "z": 0.16403168439865112
            }
        },
        "name": "move_to_storage_B"
    },
    "id": "BiEST_move_to_storage_B_141",
    "joint_names": [
        "shoulder_pan_joint",
        "shoulder_lift_joint",
        "elbow_joint",
        "wrist_1_joint",
        "wrist_2_joint",
        "wrist_3_joint"
    ],
    "metrics": {
        "cart_traj_len": 4.035831335420476,
        "distance_elbow_joint": 0.6298841660597181,
        "distance_shoulder_lift_joint": 2.282044200344491,
        "distance_shoulder_pan_joint": 4.726883013130821,
        "distance_wrist_1_joint": 2.9823615384549003,
        "distance_wrist_2_joint": 2.7080387258011864,
        "distance_wrist_3_joint": 3.134885072808028,
        "smoothness": 0.2705162232022072,
        "time": 0.0785215,
        "traj_len": 4.057597406914484,
        "weighted_distance": 5.3314413741943465
    },
    "planner": "BiEST",
    "start": {
        "state": {
            "elbow_joint": 1.664937868594044,
            "shoulder_lift_joint": -0.661644460510453,
            "shoulder_pan_joint": -0.9139846352900073,
            "wrist_1_joint": 2.146753192139373,
            "wrist_2_joint": -2.2341966793290973,
            "wrist_3_joint": 0.005466555786416001
        }
    },
    "waypoints": [
        {
            "positions": [
                -0.9139846352900073,
                -0.661644460510453,
                1.664937868594044,
                2.146753192139373,
                -2.2341966793290973,
                0.005466555786416001
            ]
        },
        {
            "positions": [
                -0.7719319496555129,
                -0.7473242886777628,
                1.6561897026477888,
                2.0949378123425544,
                -2.1757849564883394,
                0.0360691025811488
            ]
        },
        {
            "positions": [
                -0.6298792640210186,
                -0.8330041168450726,
                1.6474415367015334,
                2.0431224325457356,
                -2.117373233647582,
                0.0666716493758816
            ]
        },
        {
            "positions": [
                -0.4878265783865242,
                -0.9186839450123823,
                1.638693370755278,
                1.9913070527489163,
                -2.0589615108068244,
                0.09727419617061439
            ]
        },
        {
            "positions": [
                -0.34577389275202985,
                -1.0043637731796922,
                1.6299452048090228,
                1.9394916729520975,
                -2.0005497879660665,
                0.1278767429653472
            ]
        },
        {
            "positions": [
                -0.2037212071175355,
                -1.0900436013470018,
                1.6211970388627677,
                1.8876762931552786,
                -1.9421380651253088,
                0.15847928976008
            ]
        },
        {
            "positions": [
                -0.06166852148304114,
                -1.1757234295143117,
                1.6124488729165123,
                1.8358609133584596,
                -1.8837263422845512,
                0.18908183655481278
            ]
        },
        {
            "positions": [
                0.08038416415145322,
                -1.2614032576816214,
                1.603700706970257,
                1.7840455335616405,
                -1.8253146194437935,
                0.2196843833495456
            ]
        },
        {
            "positions": [
                0.22243684978594758,
                -1.347083085848931,
                1.5949525410240017,
                1.7322301537648217,
                -1.7669028966030358,
                0.2502869301442784
            ]
        },
        {
            "positions": [
                0.36448953542044193,
                -1.432762914016241,
                1.5862043750777466,
                1.6804147739680029,
                -1.708491173762278,
                0.28088947693901123
            ]
        },
        {
            "positions": [
                0.5065422210549363,
                -1.518442742183551,
                1.5774562091314912,
                1.6285993941711838,
                -1.6500794509215204,
                0.311492023733744
            ]
        },
        {
            "positions": [
                0.6485949066894307,
                -1.6041225703508606,
                1.5687080431852358,
                1.5767840143743648,
                -1.5916677280807627,
                0.3420945705284768
            ]
        },
        {
            "positions": [
                0.790647592323925,
                -1.6898023985181703,
                1.5599598772389807,
                1.524968634577546,
                -1.533256005240005,
                0.3726971173232096
            ]
        },
        {
            "positions": [
                0.9327002779584194,
                -1.7754822266854802,
                1.5512117112927255,
                1.4731532547807271,
                -1.4748442823992474,
                0.4032996641179424
            ]
        },
        {
            "positions": [
                1.0747529635929136,
                -1.8611620548527898,
                1.5424635453464701,
                1.421337874983908,
                -1.4164325595584897,
                0.4339022109126752
            ]
        },
        {
            "positions": [
                1.2168056492274077,
                -1.9468418830200998,
                1.5337153794002147,
                1.369522495187089,
                -1.358020836717732,
                0.464504757707408
            ]
        },
        {
            "positions": [
                1.3588583348619023,
                -2.0325217111874094,
                1.5249672134539596,
                1.3177071153902702,
                -1.2996091138769743,
                0.4951073045021408
            ]
        },
        {
            "positions": [
                1.2679679628997205,
                -1.998774787125649,
                1.5431121583028349,
                1.237954690882648,
                -1.2339257375677497,
                0.5930793165055595
            ]
        },
        {
            "positions": [
                1.1770775909375384,
                -1.9650278630638884,
                1.5612571031517102,
                1.1582022663750258,
                -1.1682423612585253,
                0.6910513285089781
            ]
        },
        {
            "positions": [
                1.0861872189753565,
                -1.9312809390021277,
                1.5794020480005855,
                1.0784498418674036,
                -1.1025589849493007,
                0.7890233405123968
            ]
        },
        {
            "positions": [
                0.9952968470131744,
                -1.8975340149403672,
                1.5975469928494608,
                0.9986974173597815,
                -1.0368756086400763,
                0.8869953525158154
            ]
        },
        {
            "positions": [
                0.9044064750509926,
                -1.8637870908786067,
                1.6156919376983363,
                0.9189449928521594,
                -0.9711922323308517,
                0.9849673645192341
            ]
        },
        {
            "positions": [
                0.8135161030888106,
                -1.8300401668168462,
                1.6338368825472116,
                0.8391925683445371,
                -0.9055088560216272,
                1.0829393765226527
            ]
        },
        {
            "positions": [
                0.7226257311266286,
                -1.7962932427550857,
                1.651981827396087,
                0.7594401438369149,
                -0.8398254797124027,
                1.1809113885260714
            ]
        },
        {
            "positions": [
                0.6317353591644467,
                -1.762546318693325,
                1.6701267722449622,
                0.6796877193292927,
                -0.7741421034031782,
                1.27888340052949
            ]
        },
        {
            "positions": [
                0.5408449872022647,
                -1.7287993946315645,
                1.6882717170938375,
                0.5999352948216705,
                -0.7084587270939537,
                1.3768554125329087
            ]
        },
        {
            "positions": [
                0.44995461524008284,
                -1.695052470569804,
                1.7064166619427128,
                0.5201828703140484,
                -0.6427753507847291,
                1.4748274245363273
            ]
        },
        {
            "positions": [
                0.3590642432779009,
                -1.6613055465080435,
                1.724561606791588,
                0.4404304458064262,
                -0.5770919744755046,
                1.572799436539746
            ]
        },
        {
            "positions": [
                0.2681738713157189,
                -1.627558622446283,
                1.7427065516404634,
                0.360678021298804,
                -0.5114085981662801,
                1.6707714485431646
            ]
        },
        {
            "positions": [
                0.17728349935353704,
                -1.5938116983845223,
                1.7608514964893387,
                0.2809255967911819,
                -0.44572522185705565,
                1.7687434605465833
            ]
        },
        {
            "positions": [
                0.08639312739135496,
                -1.5600647743227618,
                1.7789964413382142,
                0.2011731722835597,
                -0.38004184554783116,
                1.866715472550002
            ]
        },
        {
            "positions": [
                -0.004497244570827119,
                -1.5263178502610013,
                1.7971413861870895,
                0.12142074777593725,
                -0.31435846923860655,
                1.9646874845534206
            ]
        },
        {
            "positions": [
                -0.09538761653300898,
                -1.4925709261992406,
                1.8152863310359648,
                0.041668323268315266,
                -0.24867509292938217,
                2.0626594965568392
            ]
        },
        {
            "positions": [
                -0.18627798849519106,
                -1.45882400213748,
                1.8334312758848401,
                -0.038084101239306944,
                -0.18299171662015756,
                2.160631508560258
            ]
        },
        {
            "positions": [
                -0.2771683604573729,
                -1.4250770780757196,
                1.8515762207337154,
                -0.11783652574692915,
                -0.11730834031093318,
                2.2586035205636765
            ]
        },
        {
            "positions": [
                -0.368058732419555,
                -1.3913301540139589,
                1.8697211655825907,
                -0.19758895025455137,
                -0.05162496400170857,
                2.356575532567095
            ]
        },
        {
            "positions": [
                -0.45894910438173664,
                -1.3575832299521986,
                1.887866110431466,
                -0.27734137476217335,
                0.014058412307516033,
                2.454547544570514
            ]
        },
        {
            "positions": [
                -0.5498394763439187,
                -1.3238363058904379,
                1.9060110552803413,
                -0.3570937992697958,
                0.07974178861674064,
                2.5525195565739325
            ]
        },
        {
            "positions": [
                -0.6407298483061006,
                -1.2900893818286776,
                1.9241560001292166,
                -0.4368462237774178,
                0.14542516492596502,
                2.650491568577351
            ]
        },
        {
            "positions": [
                -0.7316202202682827,
                -1.2563424577669169,
                1.9423009449780921,
                -0.5165986482850402,
                0.21110854123518963,
                2.74846358058077
            ]
        },
        {
            "positions": [
                -0.8225105922304645,
                -1.2225955337051564,
                1.9604458898269672,
                -0.5963510727926622,
                0.276791917544414,
                2.8464355925841884
            ]
        },
        {
            "positions": [
                -0.9134009641926468,
                -1.188848609643396,
                1.9785908346758427,
                -0.6761034973002844,
                0.3424752938536386,
                2.944407604587607
            ]
        },
        {
            "positions": [
                -1.0042913361548282,
                -1.1551016855816352,
                1.996735779524718,
                -0.7558559218079064,
                0.408158670162863,
                3.0423796165910257
            ]
        },
        {
            "positions": [
                -1.0951817081170108,
                -1.1213547615198747,
                2.0148807243735933,
                -0.8356083463155286,
                0.47384204647208766,
                3.1403516285944444
            ]
        }
    ]
}