{
    "goal": {
        "global_pose": {
            "orientation": {
                "w": -0.4816463035849501,
                "x": 0.5182115481033762,
                "y": 0.4908360881923453,
                "z": -0.5084816262002911
            },
            "position": {
                "x": -0.8240239810943604,
                "y": -0.300875300988555,
                "z": 0.16403168439865112
            }
        },
        "name": "move_to_storage_C"
    },
    "id": "BiEST_move_to_storage_C_92",
    "joint_names": [
        "shoulder_pan_joint",
        "shoulder_lift_joint",
        "elbow_joint",
        "wrist_1_joint",
        "wrist_2_joint",
        "wrist_3_joint"
    ],
    "metrics": {
        "cart_traj_len": 0.5759366555562953,
        "distance_elbow_joint": 0.2609330164386705,
        "distance_shoulder_lift_joint": 0.18922190434658015,
        "distance_shoulder_pan_joint": 0.49335535368212247,
        "distance_wrist_1_joint": 0.08896389237544511,
        "distance_wrist_2_joint": 1.0702447447338566,
        "distance_wrist_3_joint": 0.07055469810938808,
        "smoothness": 2.5376526478085547e-16,
        "time": 0.23748871500000002,
        "traj_len": 1.4742027030520812,
        "weighted_distance": 1.8637573991842773
    },
    "planner": "BiEST",
    "start": {
        "state": {
            "elbow_joint": 2.010868314990456,
            "shoulder_lift_joint": -1.1634956873337592,
            "shoulder_pan_joint": -2.4736205022346125,
            "wrist_1_joint": -0.8367026794202681,
            "wrist_2_joint": 0.6746043897044499,
            "wrist_3_joint": -3.1496632123970403
        }
    },
    "waypoints": [
        {
            "positions": [
                -2.4736205022346125,
                -1.1634956873337592,
                2.010868314990456,
                -0.8367026794202681,
                0.6746043897044499,
                -3.1496632123970403
            ]
        },
        {
            "positions": [
                -2.5558463945149663,
                -1.131958703275996,
                1.967379478917344,
                -0.8218753640243606,
                0.8529785138267594,
                -3.1379040960454754
            ]
        },
        {
            "positions": [
                -2.63807228679532,
                -1.1004217192182324,
                1.9238906428442324,
                -0.807048048628453,
                1.0313526379490687,
                -3.126144979693911
            ]
        },
        {
            "positions": [
                -2.720298179075674,
                -1.0688847351604691,
                1.8804018067711206,
                -0.7922207332325455,
                1.2097267620713783,
                -3.1143858633423465
            ]
        },
        {
            "positions": [
                -2.8025240713560273,
                -1.0373477511027058,
                1.8369129706980087,
                -0.7773934178366381,
                1.3881008861936874,
                -3.1026267469907816
            ]
        },
        {
            "positions": [
                -2.884749963636381,
                -1.0058107670449423,
                1.7934241346248971,
                -0.7625661024407305,
                1.566475010315997,
                -3.0908676306392167
            ]
        },
        {
            "positions": [
                -2.966975855916735,
                -0.974273782987179,
                1.7499352985517853,
                -0.747738787044823,
                1.7448491344383066,
                -3.079108514287652
            ]
        }
    ]
}