{
    "goal": {
        "global_pose": {
            "orientation": {
                "w": 0.7047431493862688,
                "x": -0.7094548369677653,
                "y": 0.0024358444001904,
                "z": -0.0022348060817251984
            },
            "position": {
                "x": -0.39052492380142206,
                "y": 0.3671506643295288,
                "z": 0.19426114857196808
            }
        },
        "name": "move_to_magneteinheit_D"
    },
    "id": "BiEST_move_to_magneteinheit_D_138",
    "joint_names": [
        "shoulder_pan_joint",
        "shoulder_lift_joint",
        "elbow_joint",
        "wrist_1_joint",
        "wrist_2_joint",
        "wrist_3_joint"
    ],
    "metrics": {
        "cart_traj_len": 4.727191970392191,
        "distance_elbow_joint": 4.00682130018868,
        "distance_shoulder_lift_joint": 1.1594988474769274,
        "distance_shoulder_pan_joint": 4.008718886067433,
        "distance_wrist_1_joint": 2.1439582567254796,
        "distance_wrist_2_joint": 2.2156966633393265,
        "distance_wrist_3_joint": 6.32483261320359,
        "smoothness": 0.30524576012891264,
        "time": 0.170973734,
        "traj_len": 4.456402873058209,
        "weighted_distance": 6.071972226013014
    },
    "planner": "BiEST",
    "start": {
        "state": {
            "elbow_joint": 0.749534889911806,
            "shoulder_lift_joint": -0.6476975780787326,
            "shoulder_pan_joint": -2.711696901376241,
            "wrist_1_joint": -0.07506478083263063,
            "wrist_2_joint": 0.43296659715538205,
            "wrist_3_joint": -3.14703540197715
        }
    },
    "waypoints": [
        {
            "positions": [
                -2.711696901376241,
                -0.6476975780787326,
                0.749534889911806,
                -0.07506478083263063,
                0.43296659715538205,
                -3.14703540197715
            ]
        },
        {
            "positions": [
                -2.733291568971464,
                -0.6885539876260636,
                0.8250478787526379,
                -0.19945054952112246,
                0.46322868068028633,
                -3.08665705761084
            ]
        },
        {
            "positions": [
                -2.7548862365666875,
                -0.7294103971733946,
                0.9005608675934699,
                -0.3238363182096142,
                0.49349076420519056,
                -3.0262787132445297
            ]
        },
        {
            "positions": [
                -2.776480904161911,
                -0.7702668067207257,
                0.9760738564343019,
                -0.44822208689810605,
                0.5237528477300949,
                -2.965900368878219
            ]
        },
        {
            "positions": [
                -2.798075571757134,
                -0.8111232162680566,
                1.0515868452751338,
                -0.5726078555865979,
                0.5540149312549991,
                -2.905522024511909
            ]
        },
        {
            "positions": [
                -2.7746439179041205,
                -0.8529304429596197,
                1.088832448223028,
                -0.6679511630687782,
                0.5765737807035269,
                -2.819258199263664
            ]
        },
        {
            "positions": [
                -2.751212264051107,
                -0.8947376696511828,
                1.1260780511709223,
                -0.7632944705509587,
                0.5991326301520549,
                -2.7329943740154183
            ]
        },
        {
            "positions": [
                -2.727780610198093,
                -0.9365448963427461,
                1.1633236541188166,
                -0.8586377780331391,
                0.6216914796005828,
                -2.646730548767173
            ]
        },
        {
            "positions": [
                -2.7043489563450795,
                -0.9783521230343092,
                1.2005692570667108,
                -0.9539810855153195,
                0.6442503290491106,
                -2.560466723518928
            ]
        },
        {
            "positions": [
                -2.6035697332769367,
                -1.024488535533007,
                1.1765165626368783,
                -1.0041962637471193,
                0.6530851998411312,
                -2.42141806118201
            ]
        },
        {
            "positions": [
                -2.502790510208794,
                -1.0706249480317047,
                1.152463868207046,
                -1.0544114419789192,
                0.6619200706331518,
                -2.2823693988450926
            ]
        },
        {
            "positions": [
                -2.4020112871406507,
                -1.1167613605304025,
                1.1284111737772136,
                -1.104626620210719,
                0.6707549414251724,
                -2.1433207365081755
            ]
        },
        {
            "positions": [
                -2.301232064072508,
                -1.1628977730291004,
                1.1043584793473813,
                -1.1548417984425188,
                0.6795898122171931,
                -2.004272074171258
            ]
        },
        {
            "positions": [
                -2.200452841004365,
                -1.2090341855277982,
                1.0803057849175488,
                -1.2050569766743187,
                0.6884246830092137,
                -1.8652234118343403
            ]
        },
        {
            "positions": [
                -2.11700892575669,
                -1.2080853024913552,
                0.997134985017694,
                -1.2246507396493678,
                0.6442333080491668,
                -1.7125289434039708
            ]
        },
        {
            "positions": [
                -2.0335650105090157,
                -1.207136419454912,
                0.9139641851178393,
                -1.244244502624417,
                0.6000419330891198,
                -1.5598344749736015
            ]
        },
        {
            "positions": [
                -1.9501210952613408,
                -1.2061875364184687,
                0.8307933852179845,
                -1.2638382655994662,
                0.5558505581290729,
                -1.4071400065432322
            ]
        },
        {
            "positions": [
                -1.8666771800136661,
                -1.2052386533820256,
                0.7476225853181298,
                -1.2834320285745155,
                0.511659183169026,
                -1.2544455381128627
            ]
        },
        {
            "positions": [
                -1.7832332647659914,
                -1.2042897703455826,
                0.664451785418275,
                -1.3030257915495647,
                0.46746780820897915,
                -1.1017510696824933
            ]
        },
        {
            "positions": [
                -1.6997893495183165,
                -1.2033408873091394,
                0.5812809855184201,
                -1.322619554524614,
                0.4232764332489322,
                -0.949056601252124
            ]
        },
        {
            "positions": [
                -1.6163454342706418,
                -1.202392004272696,
                0.49811018561856535,
                -1.342213317499663,
                0.3790850582888853,
                -0.7963621328217547
            ]
        },
        {
            "positions": [
                -1.5329015190229671,
                -1.201443121236253,
                0.4149393857187106,
                -1.3618070804747124,
                0.3348936833288384,
                -0.6436676643913852
            ]
        },
        {
            "positions": [
                -1.4494576037752924,
                -1.20049423819981,
                0.3317685858188558,
                -1.3814008434497616,
                0.2907023083687915,
                -0.49097319596101574
            ]
        },
        {
            "positions": [
                -1.3660136885276177,
                -1.1995453551633668,
                0.24859778591900106,
                -1.4009946064248107,
                0.24651093340874458,
                -0.3382787275306465
            ]
        },
        {
            "positions": [
                -1.2825697732799428,
                -1.1985964721269236,
                0.1654269860191463,
                -1.42058836939986,
                0.20231955844869765,
                -0.1855842591002772
            ]
        },
        {
            "positions": [
                -1.1991258580322681,
                -1.1976475890904805,
                0.08225618611929142,
                -1.440182132374909,
                0.15812818348865076,
                -0.032889790669907715
            ]
        },
        {
            "positions": [
                -1.1156819427845934,
                -1.1966987060540375,
                -0.0009146137805633447,
                -1.4597758953499584,
                0.11393680852860388,
                0.11980467776046178
            ]
        },
        {
            "positions": [
                -1.0322380275369185,
                -1.1957498230175942,
                -0.08408541368041811,
                -1.4793696583250076,
                0.06974543356855689,
                0.2724991461908308
            ]
        },
        {
            "positions": [
                -0.9487941122892438,
                -1.194800939981151,
                -0.16725621358027287,
                -1.4989634213000569,
                0.02555405860851001,
                0.4251936146212003
            ]
        },
        {
            "positions": [
                -0.8653501970415691,
                -1.193852056944708,
                -0.25042701348012764,
                -1.518557184275106,
                -0.01863731635153687,
                0.5778880830515698
            ]
        },
        {
            "positions": [
                -0.7819062817938944,
                -1.192903173908265,
                -0.3335978133799824,
                -1.538150947250155,
                -0.06282869131158375,
                0.7305825514819393
            ]
        },
        {
            "positions": [
                -0.6984623665462197,
                -1.1919542908718217,
                -0.41676861327983716,
                -1.5577447102252044,
                -0.10702006627163063,
                0.8832770199123088
            ]
        },
        {
            "positions": [
                -0.6150184512985448,
                -1.1910054078353784,
                -0.4999394131796919,
                -1.5773384732002536,
                -0.15121144123167762,
                1.0359714883426778
            ]
        },
        {
            "positions": [
                -0.5315745360508701,
                -1.1900565247989354,
                -0.5831102130795467,
                -1.5969322361753029,
                -0.1954028161917245,
                1.1886659567730473
            ]
        },
        {
            "positions": [
                -0.44813062080319543,
                -1.1891076417624924,
                -0.6662810129794015,
                -1.616525999150352,
                -0.23959419115177139,
                1.3413604252034168
            ]
        },
        {
            "positions": [
                -0.3646867055555205,
                -1.1881587587260491,
                -0.7494518128792562,
                -1.6361197621254013,
                -0.2837855661118184,
                1.4940548936337859
            ]
        },
        {
            "positions": [
                -0.2812427903078458,
                -1.187209875689606,
                -0.832622612779111,
                -1.6557135251004504,
                -0.32797694107186526,
                1.6467493620641553
            ]
        },
        {
            "positions": [
                -0.19779887506017113,
                -1.1862609926531629,
                -0.915793412678966,
                -1.6753072880754996,
                -0.37216831603191214,
                1.7994438304945248
            ]
        },
        {
            "positions": [
                -0.11435495981249622,
                -1.1853121096167198,
                -0.9989642125788207,
                -1.694901051050549,
                -0.416359690991959,
                1.9521382989248943
            ]
        },
        {
            "positions": [
                -0.030911044564821744,
                -1.1843632265802766,
                -1.0821350124786755,
                -1.7144948140255982,
                -0.4605510659520059,
                2.104832767355264
            ]
        },
        {
            "positions": [
                0.05253287068285317,
                -1.1834143435438333,
                -1.1653058123785303,
                -1.7340885770006473,
                -0.5047424409120528,
                2.2575272357856333
            ]
        },
        {
            "positions": [
                0.1359767859305281,
                -1.1824654605073903,
                -1.248476612278385,
                -1.7536823399756964,
                -0.5489338158720999,
                2.410221704216002
            ]
        },
        {
            "positions": [
                0.21942070117820256,
                -1.1815165774709473,
                -1.3316474121782398,
                -1.7732761029507458,
                -0.5931251908321468,
                2.5629161726463714
            ]
        },
        {
            "positions": [
                0.3028646164258775,
                -1.180567694434504,
                -1.4148182120780946,
                -1.792869865925795,
                -0.6373165657921936,
                2.715610641076741
            ]
        },
        {
            "positions": [
                0.38630853167355195,
                -1.1796188113980608,
                -1.4979890119779493,
                -1.812463628900844,
                -0.6815079407522405,
                2.8683051095071104
            ]
        },
        {
            "positions": [
                0.469752446921227,
                -1.1786699283616178,
                -1.581159811877804,
                -1.8320573918758933,
                -0.7256993157122873,
                3.02099957793748
            ]
        },
        {
            "positions": [
                0.3879384222952047,
                -1.249644676219328,
                -1.6779170448889615,
                -1.8804280975861705,
                -0.657434993366788,
                3.0405992820986003
            ]
        },
        {
            "positions": [
                0.3061243976691824,
                -1.3206194240770381,
                -1.774674277900119,
                -1.9287988032964476,
                -0.5891706710212888,
                3.0601989862597208
            ]
        },
        {
            "positions": [
                0.22431037304316015,
                -1.3915941719347482,
                -1.8714315109112767,
                -1.9771695090067245,
                -0.5209063486757897,
                3.079798690420841
            ]
        },
        {
            "positions": [
                0.14249634841713787,
                -1.4625689197924585,
                -1.9681887439224341,
                -2.025540214717002,
                -0.4526420263302904,
                3.0993983945819616
            ]
        },
        {
            "positions": [
                0.0606823237911156,
                -1.5335436676501688,
                -2.0649459769335916,
                -2.0739109204272785,
                -0.38437770398479115,
                3.118998098743082
            ]
        },
        {
            "positions": [
                -0.021131700834906675,
                -1.6045184155078789,
                -2.1617032099447493,
                -2.1222816261375557,
                -0.3161133816392919,
                3.1385978029042025
            ]
        },
        {
            "positions": [
                -0.10294572546092895,
                -1.675493163365589,
                -2.258460442955907,
                -2.170652331847833,
                -0.2478490592937927,
                3.158197507065323
            ]
        },
        {
            "positions": [
                -0.18475975008695117,
                -1.7464679112232993,
                -2.355217675967064,
                -2.21902303755811,
                -0.1795847369482935,
                3.1777972112264434
            ]
        }
    ]
}