{
    "goal": {
        "global_pose": {
            "orientation": {
                "w": 0.7047431468963623,
                "x": -0.7094548344612122,
                "y": 0.0024358443915843964,
                "z": -0.0022348060738295317
            },
            "position": {
                "x": 0.6094750761985779,
                "y": 0.3671506643295288,
                "z": 0.19426114857196808
            }
        },
        "name": "move_to_magneteinheit_A"
    },
    "id": "BiEST_move_to_magneteinheit_A_123",
    "joint_names": [
        "shoulder_pan_joint",
        "shoulder_lift_joint",
        "elbow_joint",
        "wrist_1_joint",
        "wrist_2_joint",
        "wrist_3_joint"
    ],
    "metrics": {
        "cart_traj_len": 3.1979904335973943,
        "distance_elbow_joint": 3.9255457665586655,
        "distance_shoulder_lift_joint": 0.4612480256998144,
        "distance_shoulder_pan_joint": 2.83803302156421,
        "distance_wrist_1_joint": 3.5193300493313293,
        "distance_wrist_2_joint": 1.4451324432022263,
        "distance_wrist_3_joint": 0.5146319888276577,
        "smoothness": 0.06628702868130786,
        "time": 0.090772268,
        "traj_len": 3.564256064760766,
        "weighted_distance": 4.32407767799941
    },
    "planner": "BiEST",
    "start": {
        "state": {
            "elbow_joint": -1.9196185241190666,
            "shoulder_lift_joint": -1.2443396400964142,
            "shoulder_pan_joint": 2.6996025414629847,
            "wrist_1_joint": -1.5485510000780065,
            "wrist_2_joint": -1.5709468930060704,
            "wrist_3_joint": 0.4420197071253992
        }
    },
    "waypoints": [
        {
            "positions": [
                2.6996025414629847,
                -1.2443396400964142,
                -1.9196185241190666,
                -1.5485510000780065,
                -1.5709468930060704,
                0.4420197071253992
            ]
        },
        {
            "positions": [
                2.5954739128467392,
                -1.2348792280590635,
                -1.814248396325609,
                -1.4390705759208788,
                -1.522838625242968,
                0.42718551140350985
            ]
        },
        {
            "positions": [
                2.4913452842304937,
                -1.225418816021713,
                -1.7088782685321515,
                -1.3295901517637514,
                -1.4747303574798656,
                0.4123513156816205
            ]
        },
        {
            "positions": [
                2.3872166556142482,
                -1.2159584039843623,
                -1.6035081407386937,
                -1.2201097276066237,
                -1.4266220897167632,
                0.39751711995973116
            ]
        },
        {
            "positions": [
                2.2830880269980023,
                -1.2064979919470118,
                -1.4981380129452362,
                -1.110629303449496,
                -1.3785138219536608,
                0.3826829242378418
            ]
        },
        {
            "positions": [
                2.178959398381757,
                -1.197037579909661,
                -1.3927678851517786,
                -1.0011488792923684,
                -1.3304055541905584,
                0.3678487285159524
            ]
        },
        {
            "positions": [
                2.0748307697655113,
                -1.1875771678723106,
                -1.2873977573583208,
                -0.8916684551352408,
                -1.282297286427456,
                0.3530145327940631
            ]
        },
        {
            "positions": [
                1.9707021411492658,
                -1.17811675583496,
                -1.1820276295648635,
                -0.7821880309781134,
                -1.2341890186643536,
                0.33818033707217376
            ]
        },
        {
            "positions": [
                1.8665735125330203,
                -1.1686563437976092,
                -1.0766575017714057,
                -0.6727076068209856,
                -1.186080750901251,
                0.3233461413502844
            ]
        },
        {
            "positions": [
                1.7624448839167748,
                -1.1591959317602587,
                -0.9712873739779482,
                -0.5632271826638582,
                -1.1379724831381488,
                0.30851194562839507
            ]
        },
        {
            "positions": [
                1.658316255300529,
                -1.149735519722908,
                -0.8659172461844904,
                -0.4537467585067305,
                -1.0898642153750462,
                0.2936777499065057
            ]
        },
        {
            "positions": [
                1.5541876266842838,
                -1.1402751076855575,
                -0.7605471183910331,
                -0.34426633434960285,
                -1.0417559476119438,
                0.27884355418461637
            ]
        },
        {
            "positions": [
                1.450058998068038,
                -1.1308146956482068,
                -0.6551769905975753,
                -0.2347859101924752,
                -0.9936476798488415,
                0.264009358462727
            ]
        },
        {
            "positions": [
                1.3459303694517926,
                -1.1213542836108563,
                -0.5498068628041177,
                -0.12530548603534775,
                -0.9455394120857391,
                0.24917516274083767
            ]
        },
        {
            "positions": [
                1.241801740835547,
                -1.1118938715735056,
                -0.44443673501066017,
                -0.015825061878220303,
                -0.8974311443226367,
                0.23434096701894833
            ]
        },
        {
            "positions": [
                1.1376731122193016,
                -1.102433459536155,
                -0.3390666072172026,
                0.09365536227890736,
                -0.8493228765595343,
                0.219506771297059
            ]
        },
        {
            "positions": [
                1.0335444836030558,
                -1.0929730474988044,
                -0.23369647942374483,
                0.20313578643603525,
                -0.8012146087964318,
                0.20467257557516963
            ]
        },
        {
            "positions": [
                0.9294158549868103,
                -1.0835126354614537,
                -0.12832635163028727,
                0.3126162105931627,
                -0.7531063410333295,
                0.18983837985328028
            ]
        },
        {
            "positions": [
                0.8252872263705648,
                -1.0740522234241032,
                -0.022956223836829714,
                0.42209663475029013,
                -0.7049980732702271,
                0.17500418413139096
            ]
        },
        {
            "positions": [
                0.7211585977543193,
                -1.0645918113867525,
                0.08241390395662762,
                0.5315770589074178,
                -0.6568898055071247,
                0.16016998840950164
            ]
        },
        {
            "positions": [
                0.6170299691380734,
                -1.0551313993494018,
                0.18778403175008584,
                0.6410574830645455,
                -0.6087815377440222,
                0.1453357926876122
            ]
        },
        {
            "positions": [
                0.5129013405218279,
                -1.0456709873120513,
                0.2931541595435432,
                0.7505379072216731,
                -0.5606732699809198,
                0.1305015969657229
            ]
        },
        {
            "positions": [
                0.40877271190558284,
                -1.0362105752747006,
                0.3985242873370005,
                0.8600183313788008,
                -0.5125650022178174,
                0.11566740124383357
            ]
        },
        {
            "positions": [
                0.30464408328933734,
                -1.0267501632373501,
                0.5038944151304583,
                0.969498755535928,
                -0.464456734454715,
                0.10083320552194425
            ]
        },
        {
            "positions": [
                0.2005154546730914,
                -1.0172897511999994,
                0.6092645429239161,
                1.0789791796930561,
                -0.41634846669161263,
                0.08599900980005487
            ]
        },
        {
            "positions": [
                0.0963868260568459,
                -1.0078293391626487,
                0.7146346707173739,
                1.1884596038501833,
                -0.36824019892851023,
                0.0711648140781655
            ]
        },
        {
            "positions": [
                -0.007741802559399593,
                -0.9983689271252982,
                0.8200047985108313,
                1.2979400280073112,
                -0.3201319311654078,
                0.05633061835627616
            ]
        },
        {
            "positions": [
                0.009270866492824848,
                -0.9667450737767609,
                1.0040329368472372,
                1.4058610326744785,
                -0.28922906958203454,
                0.035915466908347245
            ]
        },
        {
            "positions": [
                0.026283535545049287,
                -0.9351212204282237,
                1.1880610751836431,
                1.5137820373416457,
                -0.25832620799866135,
                0.015500315460418329
            ]
        },
        {
            "positions": [
                0.04329620459727373,
                -0.9034973670796863,
                1.372089213520049,
                1.621703042008813,
                -0.2274233464152881,
                -0.0049148359875105865
            ]
        },
        {
            "positions": [
                0.06030887364949817,
                -0.8718735137311491,
                1.5561173518564548,
                1.7296240466759802,
                -0.1965204848319149,
                -0.025329987435439502
            ]
        },
        {
            "positions": [
                0.07732154270172262,
                -0.8402496603826117,
                1.7401454901928608,
                1.8375450513431475,
                -0.16561762324854165,
                -0.045745138883368425
            ]
        },
        {
            "positions": [
                0.09433421175394706,
                -0.8086258070340744,
                1.9241736285292665,
                1.9454660560103147,
                -0.13471476166516844,
                -0.06616029033129733
            ]
        },
        {
            "positions": [
                0.12294687498242514,
                -0.7830916143965998,
                2.0059272424395984,
                1.9707790492533228,
                -0.12581444980384418,
                -0.05970829896033627
            ]
        }
    ]
}