{
    "goal": {
        "global_pose": {
            "orientation": {
                "w": 0.7047431493862688,
                "x": -0.7094548369677653,
                "y": 0.0024358444001904,
                "z": -0.0022348060817251984
            },
            "position": {
                "x": -0.39052492380142206,
                "y": 0.3671506643295288,
                "z": 0.19426114857196808
            }
        },
        "name": "move_to_magneteinheit_D"
    },
    "id": "BiEST_move_to_magneteinheit_D_118",
    "joint_names": [
        "shoulder_pan_joint",
        "shoulder_lift_joint",
        "elbow_joint",
        "wrist_1_joint",
        "wrist_2_joint",
        "wrist_3_joint"
    ],
    "metrics": {
        "cart_traj_len": 5.391836108888901,
        "distance_elbow_joint": 3.5736042487287407,
        "distance_shoulder_lift_joint": 1.0945289408668983,
        "distance_shoulder_pan_joint": 4.7876946211227445,
        "distance_wrist_1_joint": 2.0882918939235164,
        "distance_wrist_2_joint": 1.8542990004366335,
        "distance_wrist_3_joint": 6.2710249571510985,
        "smoothness": 0.3237208360100494,
        "time": 0.135429523,
        "traj_len": 4.435024651817579,
        "weighted_distance": 6.012826662302181
    },
    "planner": "BiEST",
    "start": {
        "state": {
            "elbow_joint": 0.749534889911806,
            "shoulder_lift_joint": -0.6476975780787326,
            "shoulder_pan_joint": -2.711696901376241,
            "wrist_1_joint": -0.07506478083263063,
            "wrist_2_joint": 0.43296659715538205,
            "wrist_3_joint": -3.14703540197715
        }
    },
    "waypoints": [
        {
            "positions": [
                -2.711696901376241,
                -0.6476975780787326,
                0.749534889911806,
                -0.07506478083263063,
                0.43296659715538205,
                -3.14703540197715
            ]
        },
        {
            "positions": [
                -2.7679257121463445,
                -0.7318895336075255,
                0.6951518774595733,
                -0.14240724914620806,
                0.4139342911238064,
                -3.067627460895176
            ]
        },
        {
            "positions": [
                -2.8241545229164475,
                -0.8160814891363184,
                0.6407688650073406,
                -0.2097497174597855,
                0.39490198509223073,
                -2.988219519813202
            ]
        },
        {
            "positions": [
                -2.880383333686551,
                -0.9002734446651113,
                0.586385852555108,
                -0.2770921857733629,
                0.3758696790606551,
                -2.9088115787312283
            ]
        },
        {
            "positions": [
                -2.7141455611947527,
                -0.9270073407631139,
                0.4991023173186565,
                -0.3075772286719216,
                0.4041331400330811,
                -2.85271151570771
            ]
        },
        {
            "positions": [
                -2.5479077887029544,
                -0.9537412368611163,
                0.411818782082205,
                -0.33806227157048035,
                0.4323966010055071,
                -2.7966114526841914
            ]
        },
        {
            "positions": [
                -2.3816700162111566,
                -0.9804751329591189,
                0.3245352468457535,
                -0.36854731446903904,
                0.4606600619779331,
                -2.740511389660673
            ]
        },
        {
            "positions": [
                -2.2154322437193583,
                -1.0072090290571214,
                0.23725171160930203,
                -0.3990323573675978,
                0.4889235229503591,
                -2.684411326637155
            ]
        },
        {
            "positions": [
                -2.04919447122756,
                -1.033942925155124,
                0.14996817637285054,
                -0.4295174002661565,
                0.5171869839227851,
                -2.6283112636136363
            ]
        },
        {
            "positions": [
                -1.8829566987357618,
                -1.0606768212531266,
                0.06268464113639904,
                -0.46000244316471517,
                0.5454504448952111,
                -2.572211200590118
            ]
        },
        {
            "positions": [
                -1.7167189262439637,
                -1.087410717351129,
                -0.02459889410005245,
                -0.49048748606327386,
                0.573713905867637,
                -2.5161111375665994
            ]
        },
        {
            "positions": [
                -1.5504811537521654,
                -1.1141446134491315,
                -0.11188242933650394,
                -0.5209725289618325,
                0.6019773668400631,
                -2.460011074543081
            ]
        },
        {
            "positions": [
                -1.3842433812603672,
                -1.140878509547134,
                -0.19916596457295543,
                -0.5514575718603913,
                0.6302408278124891,
                -2.403911011519563
            ]
        },
        {
            "positions": [
                -1.2180056087685691,
                -1.1676124056451367,
                -0.2864494998094069,
                -0.5819426147589499,
                0.6585042887849151,
                -2.3478109484960443
            ]
        },
        {
            "positions": [
                -1.0517678362767708,
                -1.1943463017431393,
                -0.3737330350458584,
                -0.6124276576575087,
                0.686767749757341,
                -2.291710885472526
            ]
        },
        {
            "positions": [
                -0.8855300637849728,
                -1.2210801978411416,
                -0.4610165702823099,
                -0.6429127005560674,
                0.715031210729767,
                -2.235610822449008
            ]
        },
        {
            "positions": [
                -0.7192922912931743,
                -1.2478140939391442,
                -0.5483001055187615,
                -0.6733977434546261,
                0.7432946717021931,
                -2.179510759425489
            ]
        },
        {
            "positions": [
                -0.5530545188013765,
                -1.2745479900371468,
                -0.6355836407552129,
                -0.7038827863531849,
                0.771558132674619,
                -2.123410696401971
            ]
        },
        {
            "positions": [
                -0.3868167463095782,
                -1.3012818861351492,
                -0.7228671759916643,
                -0.7343678292517435,
                0.799821593647045,
                -2.0673106333784528
            ]
        },
        {
            "positions": [
                -0.2205789738177799,
                -1.3280157822331518,
                -0.8101507112281159,
                -0.7648528721503023,
                0.8280850546194711,
                -2.011210570354934
            ]
        },
        {
            "positions": [
                -0.054341201325981636,
                -1.3547496783311543,
                -0.8974342464645673,
                -0.795337915048861,
                0.8563485155918971,
                -1.955110507331416
            ]
        },
        {
            "positions": [
                0.11189657116581664,
                -1.381483574429157,
                -0.9847177817010189,
                -0.8258229579474198,
                0.884611976564323,
                -1.8990104443078974
            ]
        },
        {
            "positions": [
                0.2781343436576149,
                -1.4082174705271595,
                -1.0720013169374705,
                -0.8563080008459785,
                0.9128754375367489,
                -1.842910381284379
            ]
        },
        {
            "positions": [
                0.44437211614941274,
                -1.434951366625162,
                -1.1592848521739219,
                -0.886793043744537,
                0.9411388985091751,
                -1.7868103182608608
            ]
        },
        {
            "positions": [
                0.6106098886412115,
                -1.4616852627231647,
                -1.2465683874103735,
                -0.9172780866430958,
                0.969402359481601,
                -1.7307102552373423
            ]
        },
        {
            "positions": [
                0.7768476611330095,
                -1.488419158821167,
                -1.3338519226468248,
                -0.9477631295416545,
                0.997665820454027,
                -1.674610192213824
            ]
        },
        {
            "positions": [
                0.744330651727545,
                -1.4953411759551358,
                -1.3911549845580982,
                -0.9883515058581618,
                0.9616984101132289,
                -1.4626022987918068
            ]
        },
        {
            "positions": [
                0.7118136423220804,
                -1.5022631930891046,
                -1.4484580464693715,
                -1.0289398821746691,
                0.9257309997724308,
                -1.2505944053697895
            ]
        },
        {
            "positions": [
                0.6792966329166159,
                -1.5091852102230734,
                -1.5057611083806448,
                -1.0695282584911763,
                0.8897635894316327,
                -1.0385865119477724
            ]
        },
        {
            "positions": [
                0.6467796235111514,
                -1.516107227357042,
                -1.5630641702919181,
                -1.1101166348076836,
                0.8537961790908346,
                -0.8265786185257552
            ]
        },
        {
            "positions": [
                0.6142626141056869,
                -1.5230292444910107,
                -1.6203672322031917,
                -1.150705011124191,
                0.8178287687500365,
                -0.614570725103738
            ]
        },
        {
            "positions": [
                0.5817456047002224,
                -1.5299512616249795,
                -1.6776702941144648,
                -1.1912933874406981,
                0.7818613584092384,
                -0.4025628316817209
            ]
        },
        {
            "positions": [
                0.5492285952947579,
                -1.5368732787589483,
                -1.7349733560257383,
                -1.2318817637572055,
                0.7458939480684403,
                -0.19055493825970382
            ]
        },
        {
            "positions": [
                0.5167115858892933,
                -1.543795295892917,
                -1.7922764179370116,
                -1.2724701400737128,
                0.7099265377276422,
                0.021452955162313492
            ]
        },
        {
            "positions": [
                0.4841945764838288,
                -1.5507173130268859,
                -1.849579479848285,
                -1.3130585163902202,
                0.6739591273868442,
                0.2334608485843308
            ]
        },
        {
            "positions": [
                0.4516775670783643,
                -1.5576393301608547,
                -1.9068825417595583,
                -1.3536468927067273,
                0.6379917170460461,
                0.4454687420063479
            ]
        },
        {
            "positions": [
                0.4191605576728998,
                -1.5645613472948234,
                -1.9641856036708316,
                -1.3942352690232347,
                0.602024306705248,
                0.657476635428365
            ]
        },
        {
            "positions": [
                0.3866435482674353,
                -1.571483364428792,
                -2.0214886655821047,
                -1.4348236453397418,
                0.5660568963644499,
                0.8694845288503821
            ]
        },
        {
            "positions": [
                0.3541265388619707,
                -1.5784053815627608,
                -2.0787917274933783,
                -1.4754120216562492,
                0.5300894860236517,
                1.0814924222723996
            ]
        },
        {
            "positions": [
                0.3216095294565062,
                -1.5853273986967296,
                -2.136094789404652,
                -1.5160003979727565,
                0.4941220756828536,
                1.2935003156944163
            ]
        },
        {
            "positions": [
                0.28909252005104175,
                -1.5922494158306983,
                -2.193397851315925,
                -1.5565887742892637,
                0.4581546653420556,
                1.5055082091164333
            ]
        },
        {
            "positions": [
                0.25657551064557715,
                -1.5991714329646671,
                -2.2507009132271985,
                -1.597177150605771,
                0.4221872550012574,
                1.7175161025384509
            ]
        },
        {
            "positions": [
                0.22405850124011262,
                -1.606093450098636,
                -2.3080039751384716,
                -1.6377655269222782,
                0.38621984466045933,
                1.929523995960468
            ]
        },
        {
            "positions": [
                0.19154149183464808,
                -1.6130154672326047,
                -2.365307037049745,
                -1.6783539032387855,
                0.35025243431966124,
                2.1415318893824855
            ]
        },
        {
            "positions": [
                0.15902448242918366,
                -1.6199374843665733,
                -2.4226100989610186,
                -1.7189422795552929,
                0.31428502397886315,
                2.3535397828045026
            ]
        },
        {
            "positions": [
                0.12650747302371912,
                -1.626859501500542,
                -2.4799131608722917,
                -1.7595306558718002,
                0.27831761363806506,
                2.5655476762265197
            ]
        },
        {
            "positions": [
                0.09399046361825458,
                -1.6337815186345108,
                -2.537216222783565,
                -1.8001190321883076,
                0.24235020329726698,
                2.777555569648537
            ]
        },
        {
            "positions": [
                0.061473454212790046,
                -1.6407035357684796,
                -2.5945192846948384,
                -1.8407074085048147,
                0.20638279295646889,
                2.9895634630705543
            ]
        },
        {
            "positions": [
                -0.00012729255537526768,
                -1.6660842815627674,
                -2.5371317661643147,
                -1.9213697250676478,
                0.11035206459372476,
                3.023169986096404
            ]
        },
        {
            "positions": [
                -0.06172803932354058,
                -1.6914650273570553,
                -2.479744247633791,
                -2.0020320416304807,
                0.014321336230980641,
                3.056776509122253
            ]
        },
        {
            "positions": [
                -0.12332878609170589,
                -1.7168457731513431,
                -2.4223567291032673,
                -2.0826943581933137,
                -0.08170939213176348,
                3.090383032148102
            ]
        },
        {
            "positions": [
                -0.1849295328598712,
                -1.742226518945631,
                -2.3649692105727436,
                -2.163356674756147,
                -0.17774012049450763,
                3.1239895551739516
            ]
        }
    ]
}