{
    "goal": {
        "global_pose": {
            "orientation": {
                "w": 0.7047431493862688,
                "x": -0.7094548369677653,
                "y": 0.0024358444001904,
                "z": -0.0022348060817251984
            },
            "position": {
                "x": -0.39052492380142206,
                "y": 0.3671506643295288,
                "z": 0.19426114857196808
            }
        },
        "name": "move_to_magneteinheit_D"
    },
    "id": "BiEST_move_to_magneteinheit_D_96",
    "joint_names": [
        "shoulder_pan_joint",
        "shoulder_lift_joint",
        "elbow_joint",
        "wrist_1_joint",
        "wrist_2_joint",
        "wrist_3_joint"
    ],
    "metrics": {
        "cart_traj_len": 4.361672496172552,
        "distance_elbow_joint": 4.052578298579306,
        "distance_shoulder_lift_joint": 1.0925860255726128,
        "distance_shoulder_pan_joint": 3.267364529313344,
        "distance_wrist_1_joint": 3.600127058111115,
        "distance_wrist_2_joint": 2.941945527381563,
        "distance_wrist_3_joint": 2.754230104998449,
        "smoothness": 0.29203819208712795,
        "time": 0.134399434,
        "traj_len": 4.208186253477427,
        "weighted_distance": 5.455214417366742
    },
    "planner": "BiEST",
    "start": {
        "state": {
            "elbow_joint": 0.749534889911806,
            "shoulder_lift_joint": -0.6476975780787326,
            "shoulder_pan_joint": -2.711696901376241,
            "wrist_1_joint": -0.07506478083263063,
            "wrist_2_joint": 0.43296659715538205,
            "wrist_3_joint": -3.14703540197715
        }
    },
    "waypoints": [
        {
            "positions": [
                -2.711696901376241,
                -0.6476975780787326,
                0.749534889911806,
                -0.07506478083263063,
                0.43296659715538205,
                -3.14703540197715
            ]
        },
        {
            "positions": [
                -2.7210520771709237,
                -0.6809993127886955,
                0.7932752299499362,
                0.008902509767761024,
                0.3339350870626959,
                -3.0288953348927086
            ]
        },
        {
            "positions": [
                -2.730407252965606,
                -0.7143010474986584,
                0.8370155699880664,
                0.09286980036815268,
                0.2349035769700098,
                -2.910755267808267
            ]
        },
        {
            "positions": [
                -2.7397624287602884,
                -0.7476027822086213,
                0.8807559100261966,
                0.17683709096854433,
                0.13587206687732367,
                -2.792615200723825
            ]
        },
        {
            "positions": [
                -2.749117604554971,
                -0.7809045169185842,
                0.9244962500643269,
                0.260804381568936,
                0.036840556784637546,
                -2.6744751336393837
            ]
        },
        {
            "positions": [
                -2.758472780349653,
                -0.8142062516285471,
                0.9682365901024571,
                0.34477167216932764,
                -0.062190953308048635,
                -2.5563350665549422
            ]
        },
        {
            "positions": [
                -2.7678279561443357,
                -0.84750798633851,
                1.0119769301405874,
                0.4287389627697193,
                -0.1612224634007347,
                -2.438194999470501
            ]
        },
        {
            "positions": [
                -2.7771831319390183,
                -0.880809721048473,
                1.0557172701787176,
                0.512706253370111,
                -0.2602539734934209,
                -2.320054932386059
            ]
        },
        {
            "positions": [
                -2.7865383077337005,
                -0.9141114557584359,
                1.0994576102168478,
                0.5966735439705027,
                -0.35928548358610696,
                -2.2019148653016174
            ]
        },
        {
            "positions": [
                -2.795893483528383,
                -0.9474131904683988,
                1.143197950254978,
                0.6806408345708943,
                -0.4583169936787931,
                -2.083774798217176
            ]
        },
        {
            "positions": [
                -2.628095159053558,
                -1.0047170053852466,
                1.167940303333297,
                0.6812538265721836,
                -0.49532300154829595,
                -1.9796268414151854
            ]
        },
        {
            "positions": [
                -2.460296834578733,
                -1.0620208203020942,
                1.1926826564116157,
                0.681866818573473,
                -0.5323290094177988,
                -1.875478884613195
            ]
        },
        {
            "positions": [
                -2.2924985101039077,
                -1.1193246352189419,
                1.2174250094899346,
                0.6824798105747623,
                -0.5693350172873017,
                -1.7713309278112044
            ]
        },
        {
            "positions": [
                -2.196764727622931,
                -1.1335957138889334,
                1.085008634689529,
                0.5911073866760327,
                -0.5228924381681125,
                -1.7809277629577238
            ]
        },
        {
            "positions": [
                -2.1010309451419547,
                -1.1478667925589248,
                0.9525922598891232,
                0.4997349627773032,
                -0.47644985904892323,
                -1.7905245981042432
            ]
        },
        {
            "positions": [
                -2.005297162660978,
                -1.1621378712289163,
                0.8201758850887175,
                0.4083625388785737,
                -0.430007279929734,
                -1.8001214332507627
            ]
        },
        {
            "positions": [
                -1.9095633801800014,
                -1.1764089498989077,
                0.6877595102883118,
                0.31699011497984414,
                -0.38356470081054467,
                -1.809718268397282
            ]
        },
        {
            "positions": [
                -1.8138295976990249,
                -1.1906800285688992,
                0.555343135487906,
                0.22561769108111462,
                -0.33712212169135536,
                -1.8193151035438013
            ]
        },
        {
            "positions": [
                -1.7180958152180483,
                -1.2049511072388908,
                0.42292676068750046,
                0.13424526718238516,
                -0.29067954257216616,
                -1.8289119386903208
            ]
        },
        {
            "positions": [
                -1.6223620327370716,
                -1.219222185908882,
                0.29051038588709466,
                0.04287284328365559,
                -0.24423696345297685,
                -1.8385087738368402
            ]
        },
        {
            "positions": [
                -1.526628250256095,
                -1.2334932645788736,
                0.15809401108668908,
                -0.04849958061507398,
                -0.1977943843337876,
                -1.8481056089833596
            ]
        },
        {
            "positions": [
                -1.4308944677751185,
                -1.247764343248865,
                0.02567763628628339,
                -0.13987200451380344,
                -0.15135180521459835,
                -1.857702444129879
            ]
        },
        {
            "positions": [
                -1.335160685294142,
                -1.2620354219188565,
                -0.10673873851412252,
                -0.231244428412533,
                -0.10490922609540904,
                -1.8672992792763983
            ]
        },
        {
            "positions": [
                -1.2394269028131655,
                -1.276306500588848,
                -0.239155113314528,
                -0.32261685231126247,
                -0.05846664697621984,
                -1.8768961144229177
            ]
        },
        {
            "positions": [
                -1.143693120332189,
                -1.2905775792588394,
                -0.3715714881149337,
                -0.41398927620999193,
                -0.012024067857030585,
                -1.8864929495694371
            ]
        },
        {
            "positions": [
                -1.0479593378512124,
                -1.304848657928831,
                -0.5039878629153396,
                -0.5053617001087216,
                0.03441851126215878,
                -1.8960897847159566
            ]
        },
        {
            "positions": [
                -0.9522255553702357,
                -1.3191197365988225,
                -0.6364042377157453,
                -0.5967341240074511,
                0.08086109038134803,
                -1.905686619862476
            ]
        },
        {
            "positions": [
                -0.8564917728892594,
                -1.3333908152688139,
                -0.7688206125161507,
                -0.6881065479061805,
                0.1273036695005373,
                -1.9152834550089954
            ]
        },
        {
            "positions": [
                -0.7607579904082826,
                -1.3476618939388054,
                -0.9012369873165564,
                -0.7794789718049102,
                0.17374624861972654,
                -1.9248802901555147
            ]
        },
        {
            "positions": [
                -0.6650242079273061,
                -1.3619329726087968,
                -1.0336533621169623,
                -0.8708513957036397,
                0.2201888277389159,
                -1.934477125302034
            ]
        },
        {
            "positions": [
                -0.5692904254463296,
                -1.3762040512787883,
                -1.1660697369173678,
                -0.9622238196023691,
                0.26663140685810505,
                -1.9440739604485535
            ]
        },
        {
            "positions": [
                -0.47355664296535305,
                -1.3904751299487796,
                -1.2984861117177737,
                -1.0535962435010986,
                0.3130739859772943,
                -1.953670795595073
            ]
        },
        {
            "positions": [
                -0.3778228604843763,
                -1.4047462086187712,
                -1.4309024865181796,
                -1.1449686673998283,
                0.35951656509648366,
                -1.9632676307415924
            ]
        },
        {
            "positions": [
                -0.2820890780033998,
                -1.4190172872887628,
                -1.563318861318585,
                -1.2363410912985577,
                0.4059591442156728,
                -1.9728644658881118
            ]
        },
        {
            "positions": [
                -0.18635529552242325,
                -1.433288365958754,
                -1.6957352361189906,
                -1.3277135151972872,
                0.45240172333486206,
                -1.9824613010346313
            ]
        },
        {
            "positions": [
                -0.09062151304144672,
                -1.4475594446287456,
                -1.8281516109193965,
                -1.4190859390960169,
                0.4988443024540514,
                -1.9920581361811505
            ]
        },
        {
            "positions": [
                0.005112269439529804,
                -1.461830523298737,
                -1.960567985719802,
                -1.5104583629947461,
                0.5452868815732406,
                -2.00165497132767
            ]
        },
        {
            "positions": [
                0.10084605192050616,
                -1.4761016019687285,
                -2.092984360520208,
                -1.6018307868934758,
                0.5917294606924299,
                -2.0112518064741893
            ]
        },
        {
            "positions": [
                0.0690206728413604,
                -1.5054551577112416,
                -2.123459783741434,
                -1.6638609945863074,
                0.505220634585858,
                -2.137763445604136
            ]
        },
        {
            "positions": [
                0.03719529376221464,
                -1.5348087134537545,
                -2.15393520696266,
                -1.7258912022791388,
                0.418711808479286,
                -2.2642750847340825
            ]
        },
        {
            "positions": [
                0.005369914683068883,
                -1.5641622691962676,
                -2.184410630183886,
                -1.7879214099719705,
                0.332202982372714,
                -2.3907867238640286
            ]
        },
        {
            "positions": [
                -0.026455464396076878,
                -1.5935158249387804,
                -2.2148860534051122,
                -1.849951617664802,
                0.24569415626614205,
                -2.517298362993975
            ]
        },
        {
            "positions": [
                -0.058280843475222666,
                -1.6228693806812935,
                -2.2453614766263383,
                -1.9119818253576337,
                0.15918533015956998,
                -2.6438100021239217
            ]
        },
        {
            "positions": [
                -0.0901062225543684,
                -1.6522229364238064,
                -2.2758368998475644,
                -1.9740120330504651,
                0.07267650405299808,
                -2.770321641253868
            ]
        },
        {
            "positions": [
                -0.12193160163351419,
                -1.6815764921663194,
                -2.3063123230687905,
                -2.0360422407432965,
                -0.013832322053573987,
                -2.896833280383815
            ]
        },
        {
            "positions": [
                -0.15375698071265992,
                -1.7109300479088323,
                -2.3367877462900166,
                -2.0980724484361284,
                -0.10034114816014583,
                -3.023344919513761
            ]
        },
        {
            "positions": [
                -0.1855823597918057,
                -1.7402836036513454,
                -2.3672631695112427,
                -2.16010265612896,
                -0.1868499742667179,
                -3.1498565586437075
            ]
        }
    ]
}