{
    "goal": {
        "global_pose": {
            "orientation": {
                "w": 0.7047431468963623,
                "x": -0.7094548344612122,
                "y": 0.0024358443915843964,
                "z": -0.0022348060738295317
            },
            "position": {
                "x": 0.6094750761985779,
                "y": 0.3671506643295288,
                "z": 0.19426114857196808
            }
        },
        "name": "move_to_magneteinheit_A"
    },
    "id": "BiEST_move_to_magneteinheit_A_55",
    "joint_names": [
        "shoulder_pan_joint",
        "shoulder_lift_joint",
        "elbow_joint",
        "wrist_1_joint",
        "wrist_2_joint",
        "wrist_3_joint"
    ],
    "metrics": {
        "cart_traj_len": 3.6083264889571067,
        "distance_elbow_joint": 6.065703460595721,
        "distance_shoulder_lift_joint": 1.981114745659295,
        "distance_shoulder_pan_joint": 2.9160590628977667,
        "distance_wrist_1_joint": 3.481413493123953,
        "distance_wrist_2_joint": 1.9383853358538965,
        "distance_wrist_3_joint": 2.1746723432420674,
        "smoothness": 0.5844936044477099,
        "time": 0.071343585,
        "traj_len": 4.307824095918112,
        "weighted_distance": 5.3222638000041576
    },
    "planner": "BiEST",
    "start": {
        "state": {
            "elbow_joint": -1.9196185241190666,
            "shoulder_lift_joint": -1.2443396400964142,
            "shoulder_pan_joint": 2.6996025414629847,
            "wrist_1_joint": -1.5485510000780065,
            "wrist_2_joint": -1.5709468930060704,
            "wrist_3_joint": 0.4420197071253992
        }
    },
    "waypoints": [
        {
            "positions": [
                2.6996025414629847,
                -1.2443396400964142,
                -1.9196185241190666,
                -1.5485510000780065,
                -1.5709468930060704,
                0.4420197071253992
            ]
        },
        {
            "positions": [
                2.583532211388765,
                -1.2576536151491902,
                -1.7972307191047865,
                -1.4976573114405203,
                -1.5038808965699237,
                0.46579690344161984
            ]
        },
        {
            "positions": [
                2.467461881314545,
                -1.270967590201966,
                -1.6748429140905063,
                -1.4467636228030338,
                -1.4368149001337769,
                0.48957409975784044
            ]
        },
        {
            "positions": [
                2.3513915512403254,
                -1.284281565254742,
                -1.552455109076226,
                -1.3958699341655476,
                -1.3697489036976302,
                0.513351296074061
            ]
        },
        {
            "positions": [
                2.2353212211661058,
                -1.297595540307518,
                -1.4300673040619458,
                -1.3449762455280614,
                -1.3026829072614836,
                0.5371284923902817
            ]
        },
        {
            "positions": [
                2.1192508910918857,
                -1.3109095153602937,
                -1.3076794990476657,
                -1.294082556890575,
                -1.235616910825337,
                0.5609056887065024
            ]
        },
        {
            "positions": [
                2.003180561017666,
                -1.3242234904130696,
                -1.1852916940333855,
                -1.2431888682530887,
                -1.1685509143891903,
                0.584682885022723
            ]
        },
        {
            "positions": [
                1.8871102309434462,
                -1.3375374654658456,
                -1.0629038890191054,
                -1.1922951796156025,
                -1.1014849179530435,
                0.6084600813389436
            ]
        },
        {
            "positions": [
                1.7710399008692264,
                -1.3508514405186214,
                -0.9405160840048251,
                -1.141401490978116,
                -1.0344189215168968,
                0.6322372776551644
            ]
        },
        {
            "positions": [
                1.6549695707950065,
                -1.3641654155713974,
                -0.8181282789905449,
                -1.0905078023406298,
                -0.9673529250807501,
                0.6560144739713849
            ]
        },
        {
            "positions": [
                1.5388992407207869,
                -1.3774793906241733,
                -0.6957404739762647,
                -1.0396141137031436,
                -0.9002869286446035,
                0.6797916702876056
            ]
        },
        {
            "positions": [
                1.4228289106465668,
                -1.3907933656769491,
                -0.5733526689619843,
                -0.988720425065657,
                -0.8332209322084566,
                0.7035688666038262
            ]
        },
        {
            "positions": [
                1.3067585805723472,
                -1.404107340729725,
                -0.4509648639477044,
                -0.9378267364281708,
                -0.7661549357723101,
                0.7273460629200468
            ]
        },
        {
            "positions": [
                1.1906882504981273,
                -1.417421315782501,
                -0.32857705893342404,
                -0.8869330477906845,
                -0.6990889393361632,
                0.7511232592362675
            ]
        },
        {
            "positions": [
                1.0746179204239077,
                -1.4307352908352768,
                -0.2061892539191439,
                -0.8360393591531983,
                -0.6320229429000166,
                0.7749004555524881
            ]
        },
        {
            "positions": [
                0.9585475903496876,
                -1.4440492658880528,
                -0.08380144890486352,
                -0.7851456705157118,
                -0.56495694646387,
                0.7986776518687088
            ]
        },
        {
            "positions": [
                0.842477260275468,
                -1.4573632409408288,
                0.03858635610941641,
                -0.7342519818782256,
                -0.4978909500277233,
                0.8224548481849294
            ]
        },
        {
            "positions": [
                0.7264069302012481,
                -1.4706772159936046,
                0.160974161123697,
                -0.6833582932407393,
                -0.43082495359157646,
                0.8462320445011501
            ]
        },
        {
            "positions": [
                0.6103366001270283,
                -1.4839911910463806,
                0.28336196613797693,
                -0.632464604603253,
                -0.36375895715542983,
                0.8700092408173707
            ]
        },
        {
            "positions": [
                0.49426627005280865,
                -1.4973051660991565,
                0.4057497711522573,
                -0.5815709159657666,
                -0.2966929607192832,
                0.8937864371335913
            ]
        },
        {
            "positions": [
                0.378195939978589,
                -1.5106191411519323,
                0.5281375761665372,
                -0.5306772273282805,
                -0.22962696428313656,
                0.917563633449812
            ]
        },
        {
            "positions": [
                0.26212560990436895,
                -1.5239331162047083,
                0.6505253811808176,
                -0.47978353869079404,
                -0.1625609678469897,
                0.9413408297660326
            ]
        },
        {
            "positions": [
                0.23400975961815879,
                -1.412713559031819,
                0.552860296107744,
                -0.3928123535184441,
                -0.18506698370406657,
                0.9745093081223073
            ]
        },
        {
            "positions": [
                0.20589390933194865,
                -1.3014940018589294,
                0.45519521103467037,
                -0.30584116834609426,
                -0.20757299956114345,
                1.007677786478582
            ]
        },
        {
            "positions": [
                0.1777780590457385,
                -1.19027444468604,
                0.3575301259615968,
                -0.2188699831737444,
                -0.23007901541822032,
                1.0408462648348566
            ]
        },
        {
            "positions": [
                0.14966220875952835,
                -1.0790548875131505,
                0.25986504088852314,
                -0.13189879800139448,
                -0.2525850312752972,
                1.0740147431911313
            ]
        },
        {
            "positions": [
                0.12154635847331818,
                -0.9678353303402611,
                0.16219995581544955,
                -0.044927612829044616,
                -0.2750910471323741,
                1.107183221547406
            ]
        },
        {
            "positions": [
                0.09343050818710805,
                -0.8566157731673717,
                0.06453487074237596,
                0.04204357234330525,
                -0.29759706298945093,
                1.1403516999036807
            ]
        },
        {
            "positions": [
                0.06531465790089788,
                -0.7453962159944822,
                -0.03313021433069763,
                0.12901475751565517,
                -0.32010307884652783,
                1.1735201782599556
            ]
        },
        {
            "positions": [
                0.03719880761468772,
                -0.6341766588215928,
                -0.13079529940377133,
                0.21598594268800508,
                -0.3426090947036047,
                1.2066886566162303
            ]
        },
        {
            "positions": [
                0.009082957328477526,
                -0.5229571016487033,
                -0.2284603844768449,
                0.302957127860355,
                -0.3651151105606816,
                1.239857134972505
            ]
        },
        {
            "positions": [
                -0.019032892957732583,
                -0.411737544475814,
                -0.3261254695499185,
                0.3899283130327048,
                -0.3876211264177585,
                1.2730256133287796
            ]
        },
        {
            "positions": [
                -0.047148743243942734,
                -0.30051798730292445,
                -0.42379055462299203,
                0.4768994982050548,
                -0.4101271422748353,
                1.3061940916850543
            ]
        },
        {
            "positions": [
                -0.037797373188743426,
                -0.32882391877035055,
                -0.27891878100150164,
                0.5649517642513425,
                -0.3928680567764011,
                1.227342045240037
            ]
        },
        {
            "positions": [
                -0.028446003133544114,
                -0.35712985023777666,
                -0.13404700738001124,
                0.6530040302976303,
                -0.37560897127796683,
                1.14848999879502
            ]
        },
        {
            "positions": [
                -0.019094633078344806,
                -0.3854357817052027,
                0.010824766241479156,
                0.741056296343918,
                -0.3583498857795326,
                1.0696379523500026
            ]
        },
        {
            "positions": [
                -0.009743263023145494,
                -0.4137417131726288,
                0.15569653986296955,
                0.8291085623902057,
                -0.34109080028109834,
                0.9907859059049854
            ]
        },
        {
            "positions": [
                -0.00039189296794618633,
                -0.44204764464005486,
                0.30056831348445995,
                0.9171608284364935,
                -0.3238317147826641,
                0.9119338594599682
            ]
        },
        {
            "positions": [
                0.008959477087253122,
                -0.47035357610748096,
                0.44544008710595034,
                1.0052130944827813,
                -0.30657262928422985,
                0.8330818130149509
            ]
        },
        {
            "positions": [
                0.01831084714245243,
                -0.49865950757490707,
                0.5903118607274407,
                1.093265360529069,
                -0.28931354378579566,
                0.7542297665699338
            ]
        },
        {
            "positions": [
                0.027662217197651745,
                -0.5269654390423332,
                0.7351836343489311,
                1.1813176265753567,
                -0.2720544582873614,
                0.6753777201249165
            ]
        },
        {
            "positions": [
                0.037013587252851046,
                -0.5552713705097592,
                0.8800554079704215,
                1.2693698926216443,
                -0.25479537278892717,
                0.5965256736798993
            ]
        },
        {
            "positions": [
                0.04636495730805036,
                -0.5835773019771853,
                1.0249271815919119,
                1.3574221586679323,
                -0.2375362872904929,
                0.517673627234882
            ]
        },
        {
            "positions": [
                0.05571632736324966,
                -0.6118832334446114,
                1.1697989552134023,
                1.44547442471422,
                -0.22027720179205867,
                0.4388215807898649
            ]
        },
        {
            "positions": [
                0.06506769741844898,
                -0.6401891649120375,
                1.3146707288348927,
                1.5335266907605076,
                -0.2030181162936244,
                0.3599695343448476
            ]
        },
        {
            "positions": [
                0.07441906747364828,
                -0.6684950963794636,
                1.459542502456383,
                1.6215789568067953,
                -0.18575903079519018,
                0.2811174878998304
            ]
        },
        {
            "positions": [
                0.08635405934196011,
                -0.6960273542726331,
                1.5940201430595455,
                1.6993998408665831,
                -0.17124274959835895,
                0.20976214917553326
            ]
        },
        {
            "positions": [
                0.09828905121027193,
                -0.7235596121658026,
                1.728497783662708,
                1.7772207249263712,
                -0.1567264684015277,
                0.13840681045123618
            ]
        },
        {
            "positions": [
                0.11022404307858376,
                -0.7510918700589722,
                1.8629754242658703,
                1.855041608986159,
                -0.1422101872046965,
                0.0670514717269391
            ]
        },
        {
            "positions": [
                0.12215903494689559,
                -0.7786241279521416,
                1.9974530648690327,
                1.9328624930459468,
                -0.12769390600786526,
                -0.004303866997358042
            ]
        }
    ]
}