{
    "goal": {
        "global_pose": {
            "orientation": {
                "w": 0.005598929693374612,
                "x": 0.007748599140229565,
                "y": 0.7110244013736278,
                "z": -0.7031023480610252
            },
            "position": {
                "x": 0.1141497679147869,
                "y": -0.7141253447532654,
                "z": 0.3711530566215515
            }
        },
        "name": "move_to_auspresseinheit_B"
    },
    "id": "BiEST_move_to_auspresseinheit_B_73",
    "joint_names": [
        "shoulder_pan_joint",
        "shoulder_lift_joint",
        "elbow_joint",
        "wrist_1_joint",
        "wrist_2_joint",
        "wrist_3_joint"
    ],
    "metrics": {
        "cart_traj_len": 0.5653676083304872,
        "distance_elbow_joint": 0.06181367000021343,
        "distance_shoulder_lift_joint": 0.2952386532638305,
        "distance_shoulder_pan_joint": 0.5797673601008875,
        "distance_wrist_1_joint": 0.3242061466530616,
        "distance_wrist_2_joint": 0.9837834307029913,
        "distance_wrist_3_joint": 0.008512654566946498,
        "smoothness": 5.075305255429287e-16,
        "time": 0.230781219,
        "traj_len": 1.5011068966892167,
        "weighted_distance": 1.8916492279960038
    },
    "planner": "BiEST",
    "start": {
        "state": {
            "elbow_joint": 2.0193083361928714,
            "shoulder_lift_joint": -1.1220246554650708,
            "shoulder_pan_joint": -1.0952077554168747,
            "wrist_1_joint": -0.8559753972642168,
            "wrist_2_joint": 0.4759566250798843,
            "wrist_3_joint": -3.1240929996934557
        }
    },
    "waypoints": [
        {
            "positions": [
                -1.0952077554168747,
                -1.1220246554650708,
                2.0193083361928714,
                -0.8559753972642168,
                0.4759566250798843,
                -3.1240929996934557
            ]
        },
        {
            "positions": [
                -1.1918356487670225,
                -1.1712310976757092,
                2.0090060578595024,
                -0.8019410394887065,
                0.6399205301970495,
                -3.122674223932298
            ]
        },
        {
            "positions": [
                -1.2884635421171704,
                -1.2204375398863476,
                1.9987037795261335,
                -0.7479066817131963,
                0.8038844353142147,
                -3.1212554481711403
            ]
        },
        {
            "positions": [
                -1.3850914354673183,
                -1.269643982096986,
                1.9884015011927647,
                -0.693872323937686,
                0.96784834043138,
                -3.119836672409982
            ]
        },
        {
            "positions": [
                -1.4817193288174662,
                -1.3188504243076244,
                1.9780992228593959,
                -0.6398379661621758,
                1.131812245548545,
                -3.1184178966488245
            ]
        },
        {
            "positions": [
                -1.5783472221676142,
                -1.3680568665182629,
                1.9677969445260268,
                -0.5858036083866655,
                1.2957761506657104,
                -3.116999120887667
            ]
        },
        {
            "positions": [
                -1.6749751155177621,
                -1.4172633087289013,
                1.957494666192658,
                -0.5317692506111552,
                1.4597400557828757,
                -3.115580345126509
            ]
        }
    ]
}