{
    "goal": {
        "global_pose": {
            "orientation": {
                "w": 0.7031023480610252,
                "x": -0.7110244013736278,
                "y": 0.0077485991402295624,
                "z": 0.005598929693374583
            },
            "position": {
                "x": -0.8841497679147869,
                "y": 0.44412534475326537,
                "z": 0.3711530566215515
            }
        },
        "name": "move_to_auspresseinheit_D"
    },
    "id": "BiEST_move_to_auspresseinheit_D_13",
    "joint_names": [
        "shoulder_pan_joint",
        "shoulder_lift_joint",
        "elbow_joint",
        "wrist_1_joint",
        "wrist_2_joint",
        "wrist_3_joint"
    ],
    "metrics": {
        "cart_traj_len": 0.3422799691244322,
        "distance_elbow_joint": 0.6370729116479175,
        "distance_shoulder_lift_joint": 0.1206542403659765,
        "distance_shoulder_pan_joint": 0.13314150616627302,
        "distance_wrist_1_joint": 0.5363858096026628,
        "distance_wrist_2_joint": 1.4312210363069668,
        "distance_wrist_3_joint": 0.012078074600530009,
        "smoothness": 3.947459674368863e-16,
        "time": 0.074001617,
        "traj_len": 1.69427081031644,
        "weighted_distance": 2.205066115516951
    },
    "planner": "BiEST",
    "start": {
        "state": {
            "elbow_joint": -1.8275523626775212,
            "shoulder_lift_joint": -2.126789852344167,
            "shoulder_pan_joint": -0.03513704404078235,
            "wrist_1_joint": -2.347782403156801,
            "wrist_2_joint": -1.6058999987535132,
            "wrist_3_joint": -3.0880379163319196
        }
    },
    "waypoints": [
        {
            "positions": [
                -0.03513704404078235,
                -2.126789852344167,
                -1.8275523626775212,
                -2.347782403156801,
                -1.6058999987535132,
                -3.0880379163319196
            ]
        },
        {
            "positions": [
                -0.051779732311566476,
                -2.141871632389914,
                -1.7479182487215315,
                -2.4148306293571338,
                -1.4269973692151423,
                -3.0865281570068532
            ]
        },
        {
            "positions": [
                -0.0684224205823506,
                -2.156953412435661,
                -1.6682841347655417,
                -2.4818788555574667,
                -1.2480947396767714,
                -3.085018397681787
            ]
        },
        {
            "positions": [
                -0.08506510885313473,
                -2.172035192481408,
                -1.5886500208095522,
                -2.5489270817577996,
                -1.0691921101384008,
                -3.083508638356721
            ]
        },
        {
            "positions": [
                -0.10170779712391886,
                -2.1871169725271553,
                -1.5090159068535625,
                -2.6159753079581325,
                -0.8902894806000298,
                -3.0819988790316546
            ]
        },
        {
            "positions": [
                -0.118350485394703,
                -2.2021987525729023,
                -1.4293817928975727,
                -2.683023534158465,
                -0.7113868510616589,
                -3.0804891197065882
            ]
        },
        {
            "positions": [
                -0.1349931736654871,
                -2.2172805326186493,
                -1.3497476789415832,
                -2.750071760358798,
                -0.5324842215232881,
                -3.0789793603815223
            ]
        },
        {
            "positions": [
                -0.15163586193627124,
                -2.2323623126643963,
                -1.2701135649855935,
                -2.8171199865591308,
                -0.35358159198491723,
                -3.077469601056456
            ]
        },
        {
            "positions": [
                -0.16827855020705537,
                -2.2474440927101433,
                -1.1904794510296037,
                -2.8841682127594637,
                -0.1746789624465464,
                -3.0759598417313896
            ]
        }
    ]
}