{
    "goal": {
        "global_pose": {
            "orientation": {
                "w": 0.5084816262002911,
                "x": -0.4908360881923452,
                "y": 0.5182115481033761,
                "z": -0.48164630358495003
            },
            "position": {
                "x": 0.5540239810943604,
                "y": -0.46912469901144505,
                "z": 0.16403168439865112
            }
        },
        "name": "move_to_storage_B"
    },
    "id": "BiEST_move_to_storage_B_18",
    "joint_names": [
        "shoulder_pan_joint",
        "shoulder_lift_joint",
        "elbow_joint",
        "wrist_1_joint",
        "wrist_2_joint",
        "wrist_3_joint"
    ],
    "metrics": {
        "cart_traj_len": 0.8481199613277876,
        "distance_elbow_joint": 0.3596265937909662,
        "distance_shoulder_lift_joint": 0.4616895330001194,
        "distance_shoulder_pan_joint": 0.6776417723424865,
        "distance_wrist_1_joint": 3.1426181910228124,
        "distance_wrist_2_joint": 2.842490504128399,
        "distance_wrist_3_joint": 3.486879597875641,
        "smoothness": 0.41882412184822226,
        "time": 0.12439508099999999,
        "traj_len": 3.312241868004271,
        "weighted_distance": 4.891810920616507
    },
    "planner": "BiEST",
    "start": {
        "state": {
            "elbow_joint": 1.664937868594044,
            "shoulder_lift_joint": -0.661644460510453,
            "shoulder_pan_joint": -0.9139846352900073,
            "wrist_1_joint": 2.146753192139373,
            "wrist_2_joint": -2.2341966793290973,
            "wrist_3_joint": 0.005466555786416001
        }
    },
    "waypoints": [
        {
            "positions": [
                -0.9139846352900073,
                -0.661644460510453,
                1.664937868594044,
                2.146753192139373,
                -2.2341966793290973,
                0.005466555786416001
            ]
        },
        {
            "positions": [
                -0.8311804417256026,
                -0.7231665293780488,
                1.70113853408806,
                2.1659142103813744,
                -2.2560716191338517,
                0.0677591721405441
            ]
        },
        {
            "positions": [
                -0.7483762481611979,
                -0.7846885982456445,
                1.737339199582076,
                2.1850752286233757,
                -2.2779465589386065,
                0.1300517884946722
            ]
        },
        {
            "positions": [
                -0.6655720545967931,
                -0.8462106671132403,
                1.773539865076092,
                2.204236246865377,
                -2.299821498743361,
                0.1923444048488003
            ]
        },
        {
            "positions": [
                -0.6820808696602267,
                -0.8568692565900607,
                1.7831946572802813,
                2.0855772031616535,
                -2.193018972408202,
                0.06542126066367507
            ]
        },
        {
            "positions": [
                -0.6985896847236602,
                -0.8675278460668813,
                1.7928494494844704,
                1.9669181594579301,
                -2.086216446073043,
                -0.06150188352145017
            ]
        },
        {
            "positions": [
                -0.7150984997870938,
                -0.8781864355437017,
                1.8025042416886596,
                1.8482591157542068,
                -1.9794139197378837,
                -0.1884250277065754
            ]
        },
        {
            "positions": [
                -0.7316073148505273,
                -0.8888450250205222,
                1.8121590338928486,
                1.7296000720504832,
                -1.8726113934027246,
                -0.3153481718917006
            ]
        },
        {
            "positions": [
                -0.7481161299139609,
                -0.8995036144973426,
                1.8218138260970378,
                1.6109410283467598,
                -1.7658088670675656,
                -0.4422713160768258
            ]
        },
        {
            "positions": [
                -0.7646249449773944,
                -0.9101622039741631,
                1.831468618301227,
                1.4922819846430364,
                -1.6590063407324067,
                -0.5691944602619511
            ]
        },
        {
            "positions": [
                -0.781133760040828,
                -0.9208207934509836,
                1.8411234105054162,
                1.373622940939313,
                -1.5522038143972476,
                -0.6961176044470762
            ]
        },
        {
            "positions": [
                -0.7976425751042615,
                -0.9314793829278041,
                1.8507782027096054,
                1.2549638972355894,
                -1.4454012880620886,
                -0.8230407486322016
            ]
        },
        {
            "positions": [
                -0.8141513901676951,
                -0.9421379724046245,
                1.8604329949137945,
                1.1363048535318663,
                -1.3385987617269297,
                -0.9499638928173266
            ]
        },
        {
            "positions": [
                -0.8306602052311287,
                -0.952796561881445,
                1.8700877871179835,
                1.0176458098281427,
                -1.2317962353917704,
                -1.076887037002452
            ]
        },
        {
            "positions": [
                -0.8471690202945622,
                -0.9634551513582654,
                1.8797425793221727,
                0.8989867661244193,
                -1.1249937090566116,
                -1.2038101811875772
            ]
        },
        {
            "positions": [
                -0.8636778353579957,
                -0.974113740835086,
                1.889397371526362,
                0.7803277224206959,
                -1.0181911827214525,
                -1.3307333253727025
            ]
        },
        {
            "positions": [
                -0.8801866504214293,
                -0.9847723303119064,
                1.899052163730551,
                0.6616686787169725,
                -0.9113886563862934,
                -1.4576564695578276
            ]
        },
        {
            "positions": [
                -0.8966954654848629,
                -0.9954309197887268,
                1.9087069559347403,
                0.5430096350132492,
                -0.8045861300511343,
                -1.5845796137429526
            ]
        },
        {
            "positions": [
                -0.9132042805482964,
                -1.0060895092655473,
                1.9183617481389295,
                0.4243505913095258,
                -0.6977836037159755,
                -1.711502757928078
            ]
        },
        {
            "positions": [
                -0.9297130956117299,
                -1.0167480987423678,
                1.9280165403431186,
                0.3056915476058022,
                -0.5909810773808162,
                -1.8384259021132034
            ]
        },
        {
            "positions": [
                -0.9462219106751635,
                -1.0274066882191881,
                1.9376713325473076,
                0.18703250390207904,
                -0.4841785510456573,
                -1.9653490462983283
            ]
        },
        {
            "positions": [
                -0.9627307257385971,
                -1.0380652776960086,
                1.9473261247514968,
                0.06837346019835566,
                -0.37737602471049825,
                -2.092272190483454
            ]
        },
        {
            "positions": [
                -0.9792395408020306,
                -1.0487238671728292,
                1.956980916955686,
                -0.050285583505367715,
                -0.2705734983753394,
                -2.219195334668579
            ]
        },
        {
            "positions": [
                -0.9957483558654642,
                -1.0593824566496497,
                1.9666357091598752,
                -0.16894462720909154,
                -0.16377097204017987,
                -2.3461184788537044
            ]
        },
        {
            "positions": [
                -1.0122571709288977,
                -1.07004104612647,
                1.9762905013640644,
                -0.2876036709128149,
                -0.05696844570502124,
                -2.4730416230388297
            ]
        },
        {
            "positions": [
                -1.0287659859923313,
                -1.0806996356032905,
                1.9859452935682536,
                -0.4062627146165383,
                0.049834080630137834,
                -2.599964767223955
            ]
        },
        {
            "positions": [
                -1.0452748010557649,
                -1.091358225080111,
                1.9956000857724425,
                -0.5249217583202617,
                0.1566366069652969,
                -2.72688791140908
            ]
        },
        {
            "positions": [
                -1.0617836161191985,
                -1.1020168145569316,
                2.0052548779766317,
                -0.643580802023985,
                0.263439133300456,
                -2.8538110555942056
            ]
        },
        {
            "positions": [
                -1.0782924311826318,
                -1.1126754040337519,
                2.014909670180821,
                -0.7622398457277084,
                0.37024165963561506,
                -2.9807341997793304
            ]
        },
        {
            "positions": [
                -1.0948012462460655,
                -1.1233339935105724,
                2.02456446238501,
                -0.8808988894314317,
                0.47704418597077436,
                -3.1076573439644557
            ]
        }
    ]
}