{
    "goal": {
        "global_pose": {
            "orientation": {
                "w": -0.4816463035849501,
                "x": 0.5182115481033762,
                "y": 0.4908360881923453,
                "z": -0.5084816262002911
            },
            "position": {
                "x": -0.8240239810943604,
                "y": -0.300875300988555,
                "z": 0.16403168439865112
            }
        },
        "name": "move_to_storage_C"
    },
    "id": "BiEST_move_to_storage_C_139",
    "joint_names": [
        "shoulder_pan_joint",
        "shoulder_lift_joint",
        "elbow_joint",
        "wrist_1_joint",
        "wrist_2_joint",
        "wrist_3_joint"
    ],
    "metrics": {
        "cart_traj_len": 0.5770133346474814,
        "distance_elbow_joint": 0.25606122988755553,
        "distance_shoulder_lift_joint": 0.18876762137718173,
        "distance_shoulder_pan_joint": 0.4956891258956255,
        "distance_wrist_1_joint": 0.06701697800112849,
        "distance_wrist_2_joint": 1.0610314520791881,
        "distance_wrist_3_joint": 0.06980879321777689,
        "smoothness": 0.0,
        "time": 0.100592845,
        "traj_len": 1.4623184333305985,
        "weighted_distance": 1.8455463193792583
    },
    "planner": "BiEST",
    "start": {
        "state": {
            "elbow_joint": 2.010868314990456,
            "shoulder_lift_joint": -1.1634956873337592,
            "shoulder_pan_joint": -2.4736205022346125,
            "wrist_1_joint": -0.8367026794202681,
            "wrist_2_joint": 0.6746043897044499,
            "wrist_3_joint": -3.1496632123970403
        }
    },
    "waypoints": [
        {
            "positions": [
                -2.4736205022346125,
                -1.1634956873337592,
                2.010868314990456,
                -0.8367026794202681,
                0.6746043897044499,
                -3.1496632123970403
            ]
        },
        {
            "positions": [
                -2.55623535655055,
                -1.132034417104229,
                1.9681914433425298,
                -0.8255331830867467,
                0.8514429650509813,
                -3.138028413527411
            ]
        },
        {
            "positions": [
                -2.6388502108664875,
                -1.1005731468746986,
                1.925514571694604,
                -0.8143636867532252,
                1.0282815403975127,
                -3.1263936146577813
            ]
        },
        {
            "positions": [
                -2.721465065182425,
                -1.0691118766451684,
                1.882837700046678,
                -0.8031941904197039,
                1.205120115744044,
                -3.114758815788152
            ]
        },
        {
            "positions": [
                -2.804079919498363,
                -1.037650606415638,
                1.840160828398752,
                -0.7920246940861825,
                1.3819586910905755,
                -3.1031240169185224
            ]
        },
        {
            "positions": [
                -2.8866947738143005,
                -1.0061893361861078,
                1.7974839567508263,
                -0.780855197752661,
                1.5587972664371068,
                -3.091489218048893
            ]
        },
        {
            "positions": [
                -2.969309628130238,
                -0.9747280659565775,
                1.7548070851029003,
                -0.7696857014191396,
                1.7356358417836382,
                -3.0798544191792634
            ]
        }
    ]
}