{
    "goal": {
        "global_pose": {
            "orientation": {
                "w": 0.7031023502349854,
                "x": -0.7110244035720825,
                "y": 0.007748599164187908,
                "z": 0.005598929710686207
            },
            "position": {
                "x": 0.11585023208521307,
                "y": 0.44412534475326537,
                "z": 0.3711530566215515
            }
        },
        "name": "move_to_auspresseinheit_A"
    },
    "id": "BiEST_move_to_auspresseinheit_A_2",
    "joint_names": [
        "shoulder_pan_joint",
        "shoulder_lift_joint",
        "elbow_joint",
        "wrist_1_joint",
        "wrist_2_joint",
        "wrist_3_joint"
    ],
    "metrics": {
        "cart_traj_len": 0.7005999340510278,
        "distance_elbow_joint": 0.1462778477789617,
        "distance_shoulder_lift_joint": 0.6176017414113315,
        "distance_shoulder_pan_joint": 1.043462395827044,
        "distance_wrist_1_joint": 1.0489314387756197,
        "distance_wrist_2_joint": 0.9277345111545529,
        "distance_wrist_3_joint": 0.2202502688758896,
        "smoothness": 1.5604269254492122,
        "time": 0.084416263,
        "traj_len": 2.001064267789368,
        "weighted_distance": 2.5340530167116375
    },
    "planner": "BiEST",
    "start": {
        "state": {
            "elbow_joint": 2.4225746658250005,
            "shoulder_lift_joint": -1.3736534386056498,
            "shoulder_pan_joint": -0.3378633547517467,
            "wrist_1_joint": -1.0288598680537169,
            "wrist_2_joint": 1.233022673432363,
            "wrist_3_joint": -3.0940220416140027
        }
    },
    "waypoints": [
        {
            "positions": [
                -0.3378633547517467,
                -1.3736534386056498,
                2.4225746658250005,
                -1.0288598680537169,
                1.233022673432363,
                -3.0940220416140027
            ]
        },
        {
            "positions": [
                -0.247095734453679,
                -1.4457290228999389,
                2.411694214805647,
                -0.928768030347552,
                1.1420912355375952,
                -3.081962918011
            ]
        },
        {
            "positions": [
                -0.15632811415561126,
                -1.5178046071942282,
                2.400813763786293,
                -0.828676192641387,
                1.0511597976428273,
                -3.0699037944079968
            ]
        },
        {
            "positions": [
                -0.06556049385754353,
                -1.5898801914885172,
                2.3899333127669395,
                -0.7285843549352221,
                0.9602283597480593,
                -3.057844670804994
            ]
        },
        {
            "positions": [
                0.025207126440524197,
                -1.6619557757828063,
                2.379052861747586,
                -0.6284925172290572,
                0.8692969218532914,
                -3.045785547201991
            ]
        },
        {
            "positions": [
                0.11597474673859193,
                -1.7340313600770954,
                2.368172410728232,
                -0.5284006795228923,
                0.7783654839585236,
                -3.033726423598988
            ]
        },
        {
            "positions": [
                0.20674236703665966,
                -1.8061069443713844,
                2.357291959708878,
                -0.42830884181672735,
                0.6874340460637556,
                -3.0216672999959853
            ]
        },
        {
            "positions": [
                0.2975099873347274,
                -1.8781825286656737,
                2.3464115086895245,
                -0.3282170041105624,
                0.5965026081689877,
                -3.009608176392982
            ]
        },
        {
            "positions": [
                0.38827760763279506,
                -1.9502581129599628,
                2.335531057670171,
                -0.22812516640439756,
                0.5055711702742198,
                -2.9975490527899793
            ]
        },
        {
            "positions": [
                0.4940514187802957,
                -1.9365924239409567,
                2.3552758042115483,
                -0.3108574121131643,
                0.5723321729396897,
                -3.0388081461406014
            ]
        },
        {
            "positions": [
                0.5998252299277964,
                -1.9229267349219503,
                2.3750205507529256,
                -0.3935896578219311,
                0.6390931756051595,
                -3.0800672394912234
            ]
        },
        {
            "positions": [
                0.705599041075297,
                -1.9092610459029442,
                2.394765297294303,
                -0.47632190353069787,
                0.7058541782706295,
                -3.1213263328418455
            ]
        }
    ]
}