{
    "goal": {
        "global_pose": {
            "orientation": {
                "w": 0.005598929693374612,
                "x": 0.007748599140229565,
                "y": 0.7110244013736278,
                "z": -0.7031023480610252
            },
            "position": {
                "x": -0.8858502320852131,
                "y": -0.7141253447532654,
                "z": 0.3711530566215515
            }
        },
        "name": "move_to_auspresseinheit_C"
    },
    "id": "BiEST_move_to_auspresseinheit_C_86",
    "joint_names": [
        "shoulder_pan_joint",
        "shoulder_lift_joint",
        "elbow_joint",
        "wrist_1_joint",
        "wrist_2_joint",
        "wrist_3_joint"
    ],
    "metrics": {
        "cart_traj_len": 0.4924859059375165,
        "distance_elbow_joint": 1.0007813882664864,
        "distance_shoulder_lift_joint": 0.32584201165302484,
        "distance_shoulder_pan_joint": 0.25526362486165555,
        "distance_wrist_1_joint": 0.6750398307516081,
        "distance_wrist_2_joint": 1.3212280902903726,
        "distance_wrist_3_joint": 0.056822383140683996,
        "smoothness": 4.844609574787718e-16,
        "time": 0.050389594999999995,
        "traj_len": 1.906561650973771,
        "weighted_distance": 2.3968500195646745
    },
    "planner": "BiEST",
    "start": {
        "state": {
            "elbow_joint": 1.7527959577737207,
            "shoulder_lift_joint": -0.9740617694225068,
            "shoulder_pan_joint": -2.967991417825858,
            "wrist_1_joint": -0.759517768980727,
            "wrist_2_joint": 1.7443932448377408,
            "wrist_3_joint": -3.0840537646736568
        }
    },
    "waypoints": [
        {
            "positions": [
                -2.967991417825858,
                -0.9740617694225068,
                1.7527959577737207,
                -0.759517768980727,
                1.7443932448377408,
                -3.0840537646736568
            ]
        },
        {
            "positions": [
                -2.9424650553396923,
                -0.9414775682572043,
                1.652717818947072,
                -0.6920137859055662,
                1.6122704358087037,
                -3.089736002987725
            ]
        },
        {
            "positions": [
                -2.916938692853527,
                -0.9088933670919018,
                1.5526396801204234,
                -0.6245098028304054,
                1.4801476267796663,
                -3.0954182413017937
            ]
        },
        {
            "positions": [
                -2.8914123303673613,
                -0.8763091659265994,
                1.4525615412937747,
                -0.5570058197552445,
                1.348024817750629,
                -3.101100479615862
            ]
        },
        {
            "positions": [
                -2.8658859678811957,
                -0.8437249647612968,
                1.3524834024671262,
                -0.48950183668008374,
                1.2159020087215917,
                -3.1067827179299305
            ]
        },
        {
            "positions": [
                -2.8403596053950304,
                -0.8111407635959944,
                1.2524052636404774,
                -0.4219978536049229,
                1.0837791996925545,
                -3.1124649562439988
            ]
        },
        {
            "positions": [
                -2.8148332429088647,
                -0.7785565624306918,
                1.1523271248138287,
                -0.3544938705297621,
                0.9516563906635173,
                -3.118147194558067
            ]
        },
        {
            "positions": [
                -2.789306880422699,
                -0.7459723612653895,
                1.0522489859871802,
                -0.28698988745460136,
                0.8195335816344801,
                -3.1238294328721357
            ]
        },
        {
            "positions": [
                -2.7637805179365333,
                -0.7133881601000869,
                0.9521708471605315,
                -0.2194859043794405,
                0.6874107726054428,
                -3.129511671186204
            ]
        },
        {
            "positions": [
                -2.738254155450368,
                -0.6808039589347844,
                0.8520927083338828,
                -0.15198192130427968,
                0.5552879635764054,
                -3.1351939095002725
            ]
        },
        {
            "positions": [
                -2.7127277929642024,
                -0.6482197577694819,
                0.7520145695072342,
                -0.08447793822911888,
                0.42316515454736825,
                -3.1408761478143408
            ]
        }
    ]
}