{
    "goal": {
        "global_pose": {
            "orientation": {
                "w": 0.7031023480610252,
                "x": -0.7110244013736278,
                "y": 0.0077485991402295624,
                "z": 0.005598929693374583
            },
            "position": {
                "x": -0.8841497679147869,
                "y": 0.44412534475326537,
                "z": 0.3711530566215515
            }
        },
        "name": "move_to_auspresseinheit_D"
    },
    "id": "BiEST_move_to_auspresseinheit_D_49",
    "joint_names": [
        "shoulder_pan_joint",
        "shoulder_lift_joint",
        "elbow_joint",
        "wrist_1_joint",
        "wrist_2_joint",
        "wrist_3_joint"
    ],
    "metrics": {
        "cart_traj_len": 0.34517826060446927,
        "distance_elbow_joint": 0.6668224004157044,
        "distance_shoulder_lift_joint": 0.13670162907319483,
        "distance_shoulder_pan_joint": 0.13454776151677625,
        "distance_wrist_1_joint": 0.6225200080628084,
        "distance_wrist_2_joint": 1.4290296330759713,
        "distance_wrist_3_joint": 0.07029010516745471,
        "smoothness": 1.9737298371844314e-16,
        "time": 0.034677488,
        "traj_len": 1.7492602828944326,
        "weighted_distance": 2.291733271736831
    },
    "planner": "BiEST",
    "start": {
        "state": {
            "elbow_joint": -1.8275523626775212,
            "shoulder_lift_joint": -2.126789852344167,
            "shoulder_pan_joint": -0.03513704404078235,
            "wrist_1_joint": -2.347782403156801,
            "wrist_2_joint": -1.6058999987535132,
            "wrist_3_joint": -3.0880379163319196
        }
    },
    "waypoints": [
        {
            "positions": [
                -0.03513704404078235,
                -2.126789852344167,
                -1.8275523626775212,
                -2.347782403156801,
                -1.6058999987535132,
                -3.0880379163319196
            ]
        },
        {
            "positions": [
                -0.05195551423037938,
                -2.143877555978316,
                -1.7441995626255582,
                -2.4255974041646517,
                -1.4272712946190167,
                -3.0792516531859877
            ]
        },
        {
            "positions": [
                -0.06877398441997641,
                -2.1609652596124658,
                -1.6608467625735952,
                -2.503412405172503,
                -1.2486425904845204,
                -3.070465390040056
            ]
        },
        {
            "positions": [
                -0.08559245460957343,
                -2.178052963246615,
                -1.577493962521632,
                -2.581227406180354,
                -1.070013886350024,
                -3.061679126894124
            ]
        },
        {
            "positions": [
                -0.10241092479917047,
                -2.1951406668807643,
                -1.494141162469669,
                -2.6590424071882053,
                -0.8913851822155275,
                -3.052892863748192
            ]
        },
        {
            "positions": [
                -0.1192293949887675,
                -2.2122283705149135,
                -1.410788362417706,
                -2.736857408196056,
                -0.7127564780810312,
                -3.0441066006022606
            ]
        },
        {
            "positions": [
                -0.13604786517836454,
                -2.2293160741490627,
                -1.3274355623657428,
                -2.814672409203907,
                -0.5341277739465347,
                -3.0353203374563287
            ]
        },
        {
            "positions": [
                -0.15286633536796157,
                -2.2464037777832124,
                -1.2440827623137798,
                -2.892487410211758,
                -0.3554990698120384,
                -3.026534074310397
            ]
        },
        {
            "positions": [
                -0.1696848055575586,
                -2.2634914814173617,
                -1.1607299622618168,
                -2.9703024112196093,
                -0.1768703656775419,
                -3.017747811164465
            ]
        }
    ]
}