{
    "goal": {
        "global_pose": {
            "orientation": {
                "w": 0.005598929693374612,
                "x": 0.007748599140229565,
                "y": 0.7110244013736278,
                "z": -0.7031023480610252
            },
            "position": {
                "x": 0.1141497679147869,
                "y": -0.7141253447532654,
                "z": 0.3711530566215515
            }
        },
        "name": "move_to_auspresseinheit_B"
    },
    "id": "BiEST_move_to_auspresseinheit_B_91",
    "joint_names": [
        "shoulder_pan_joint",
        "shoulder_lift_joint",
        "elbow_joint",
        "wrist_1_joint",
        "wrist_2_joint",
        "wrist_3_joint"
    ],
    "metrics": {
        "cart_traj_len": 0.5649579248818968,
        "distance_elbow_joint": 0.06013338240895694,
        "distance_shoulder_lift_joint": 0.2966564570507031,
        "distance_shoulder_pan_joint": 0.5779962632162206,
        "distance_wrist_1_joint": 0.3176024734444636,
        "distance_wrist_2_joint": 0.9890284707716039,
        "distance_wrist_3_joint": 0.0039398161547974375,
        "smoothness": 5.075305255429287e-16,
        "time": 0.032900796999999996,
        "traj_len": 1.4984514883861757,
        "weighted_distance": 1.8867610976412483
    },
    "planner": "BiEST",
    "start": {
        "state": {
            "elbow_joint": 2.0193083361928714,
            "shoulder_lift_joint": -1.1220246554650708,
            "shoulder_pan_joint": -1.0952077554168747,
            "wrist_1_joint": -0.8559753972642168,
            "wrist_2_joint": 0.4759566250798843,
            "wrist_3_joint": -3.1240929996934557
        }
    },
    "waypoints": [
        {
            "positions": [
                -1.0952077554168747,
                -1.1220246554650708,
                2.0193083361928714,
                -0.8559753972642168,
                0.4759566250798843,
                -3.1240929996934557
            ]
        },
        {
            "positions": [
                -1.1915404659529114,
                -1.1714673983068546,
                2.0092861057913787,
                -0.8030416516901395,
                0.6407947035418182,
                -3.1247496357192555
            ]
        },
        {
            "positions": [
                -1.2878731764889482,
                -1.2209101411486385,
                1.9992638753898857,
                -0.7501079061160623,
                0.8056327820037523,
                -3.125406271745055
            ]
        },
        {
            "positions": [
                -1.384205887024985,
                -1.2703528839904223,
                1.989241644988393,
                -0.697174160541985,
                0.9704708604656862,
                -3.126062907770854
            ]
        },
        {
            "positions": [
                -1.4805385975610217,
                -1.3197956268322062,
                1.9792194145869002,
                -0.6442404149679077,
                1.1353089389276203,
                -3.126719543796654
            ]
        },
        {
            "positions": [
                -1.5768713080970584,
                -1.36923836967399,
                1.9691971841854072,
                -0.5913066693938305,
                1.3001470173895542,
                -3.1273761798224538
            ]
        },
        {
            "positions": [
                -1.6732040186330952,
                -1.418681112515774,
                1.9591749537839145,
                -0.5383729238197532,
                1.4649850958514883,
                -3.128032815848253
            ]
        }
    ]
}