{
    "goal": {
        "global_pose": {
            "orientation": {
                "w": 0.005598929693374612,
                "x": 0.007748599140229565,
                "y": 0.7110244013736278,
                "z": -0.7031023480610252
            },
            "position": {
                "x": 0.1141497679147869,
                "y": -0.7141253447532654,
                "z": 0.3711530566215515
            }
        },
        "name": "move_to_auspresseinheit_B"
    },
    "id": "BiEST_move_to_auspresseinheit_B_14",
    "joint_names": [
        "shoulder_pan_joint",
        "shoulder_lift_joint",
        "elbow_joint",
        "wrist_1_joint",
        "wrist_2_joint",
        "wrist_3_joint"
    ],
    "metrics": {
        "cart_traj_len": 0.5645588432439745,
        "distance_elbow_joint": 0.06472422340316553,
        "distance_shoulder_lift_joint": 0.2944959803410956,
        "distance_shoulder_pan_joint": 0.5786059888928923,
        "distance_wrist_1_joint": 0.33875663174962234,
        "distance_wrist_2_joint": 0.9865331768076355,
        "distance_wrist_3_joint": 0.0029124071532851126,
        "smoothness": 7.612957903237841e-16,
        "time": 0.096149891,
        "traj_len": 1.5053333213437137,
        "weighted_distance": 1.8966135692890962
    },
    "planner": "BiEST",
    "start": {
        "state": {
            "elbow_joint": 2.0193083361928714,
            "shoulder_lift_joint": -1.1220246554650708,
            "shoulder_pan_joint": -1.0952077554168747,
            "wrist_1_joint": -0.8559753972642168,
            "wrist_2_joint": 0.4759566250798843,
            "wrist_3_joint": -3.1240929996934557
        }
    },
    "waypoints": [
        {
            "positions": [
                -1.0952077554168747,
                -1.1220246554650708,
                2.0193083361928714,
                -0.8559753972642168,
                0.4759566250798843,
                -3.1240929996934557
            ]
        },
        {
            "positions": [
                -1.1916420868990234,
                -1.1711073188552534,
                2.008520965625677,
                -0.7995159586392797,
                0.6403788212144902,
                -3.1236075985012413
            ]
        },
        {
            "positions": [
                -1.2880764183811722,
                -1.220189982245436,
                1.997733595058483,
                -0.7430565200143426,
                0.804801017349096,
                -3.1231221973090273
            ]
        },
        {
            "positions": [
                -1.384510749863321,
                -1.2692726456356187,
                1.9869462244912888,
                -0.6865970813894056,
                0.969223213483702,
                -3.1226367961168133
            ]
        },
        {
            "positions": [
                -1.4809450813454694,
                -1.3183553090258011,
                1.9761588539240944,
                -0.6301376427644686,
                1.133645409618308,
                -3.122151394924599
            ]
        },
        {
            "positions": [
                -1.5773794128276182,
                -1.3674379724159837,
                1.9653714833569,
                -0.5736782041395314,
                1.298067605752914,
                -3.1216659937323845
            ]
        },
        {
            "positions": [
                -1.673813744309767,
                -1.4165206358061664,
                1.954584112789706,
                -0.5172187655145944,
                1.4624898018875199,
                -3.1211805925401706
            ]
        }
    ]
}