{
    "goal": {
        "global_pose": {
            "orientation": {
                "w": 0.005598929693374612,
                "x": 0.007748599140229565,
                "y": 0.7110244013736278,
                "z": -0.7031023480610252
            },
            "position": {
                "x": -0.8858502320852131,
                "y": -0.7141253447532654,
                "z": 0.3711530566215515
            }
        },
        "name": "move_to_auspresseinheit_C"
    },
    "id": "BiEST_move_to_auspresseinheit_C_99",
    "joint_names": [
        "shoulder_pan_joint",
        "shoulder_lift_joint",
        "elbow_joint",
        "wrist_1_joint",
        "wrist_2_joint",
        "wrist_3_joint"
    ],
    "metrics": {
        "cart_traj_len": 0.5278257481312932,
        "distance_elbow_joint": 0.985474463150909,
        "distance_shoulder_lift_joint": 0.31836453573903734,
        "distance_shoulder_pan_joint": 0.2562069326256915,
        "distance_wrist_1_joint": 0.8867383494574803,
        "distance_wrist_2_joint": 1.4696516493756804,
        "distance_wrist_3_joint": 0.24898753192884193,
        "smoothness": 1.1105530950679339,
        "time": 0.13464610500000002,
        "traj_len": 2.0409369079610573,
        "weighted_distance": 2.6494883515442154
    },
    "planner": "BiEST",
    "start": {
        "state": {
            "elbow_joint": 1.7527959577737207,
            "shoulder_lift_joint": -0.9740617694225068,
            "shoulder_pan_joint": -2.967991417825858,
            "wrist_1_joint": -0.759517768980727,
            "wrist_2_joint": 1.7443932448377408,
            "wrist_3_joint": -3.0840537646736568
        }
    },
    "waypoints": [
        {
            "positions": [
                -2.967991417825858,
                -0.9740617694225068,
                1.7527959577737207,
                -0.759517768980727,
                1.7443932448377408,
                -3.0840537646736568
            ]
        },
        {
            "positions": [
                -2.9437607439283417,
                -0.9465574424901568,
                1.6568456384511399,
                -0.6826149054702474,
                1.6054872017910198,
                -3.073238084701155
            ]
        },
        {
            "positions": [
                -2.9195300700308255,
                -0.9190531155578069,
                1.560895319128559,
                -0.6057120419597678,
                1.4665811587442987,
                -3.0624224047286526
            ]
        },
        {
            "positions": [
                -2.895299396133309,
                -0.891548788625457,
                1.4649449998059783,
                -0.5288091784492883,
                1.327675115697578,
                -3.0516067247561507
            ]
        },
        {
            "positions": [
                -2.8710687222357927,
                -0.864044461693107,
                1.3689946804833975,
                -0.4519063149388087,
                1.1887690726508569,
                -3.0407910447836484
            ]
        },
        {
            "positions": [
                -2.8468380483382765,
                -0.8365401347607571,
                1.2730443611608164,
                -0.37500345142832914,
                1.0498630296041358,
                -3.0299753648111465
            ]
        },
        {
            "positions": [
                -2.8226073744407603,
                -0.8090358078284071,
                1.1770940418382358,
                -0.2981005879178496,
                0.910956986557415,
                -3.0191596848386446
            ]
        },
        {
            "positions": [
                -2.798376700543244,
                -0.7815314808960572,
                1.0811437225156548,
                -0.22119772440737007,
                0.772050943510694,
                -3.0083440048661423
            ]
        },
        {
            "positions": [
                -2.7741460266457274,
                -0.7540271539637072,
                0.985193403193074,
                -0.14429486089689036,
                0.6331449004639729,
                -2.9975283248936404
            ]
        },
        {
            "positions": [
                -2.749915352748211,
                -0.7265228270313573,
                0.8892430838704932,
                -0.06739199738641088,
                0.49423885741725204,
                -2.986712644921138
            ]
        },
        {
            "positions": [
                -2.725684678850695,
                -0.6990185000990073,
                0.7932927645479124,
                0.00951086612406872,
                0.35533281437053094,
                -2.975896964948636
            ]
        },
        {
            "positions": [
                -2.718734582025431,
                -0.6773578668912383,
                0.7803071295853621,
                -0.049343991052273585,
                0.39562842382476615,
                -3.046312331050547
            ]
        },
        {
            "positions": [
                -2.7117844852001665,
                -0.6556972336834694,
                0.7673214946228116,
                -0.10819884822861589,
                0.4359240332790014,
                -3.1167276971524576
            ]
        }
    ]
}