{
    "goal": {
        "global_pose": {
            "orientation": {
                "w": 0.7031023502349854,
                "x": -0.7110244035720825,
                "y": 0.007748599164187908,
                "z": 0.005598929710686207
            },
            "position": {
                "x": 0.11585023208521307,
                "y": 0.44412534475326537,
                "z": 0.3711530566215515
            }
        },
        "name": "move_to_auspresseinheit_A"
    },
    "id": "BiEST_move_to_auspresseinheit_A_90",
    "joint_names": [
        "shoulder_pan_joint",
        "shoulder_lift_joint",
        "elbow_joint",
        "wrist_1_joint",
        "wrist_2_joint",
        "wrist_3_joint"
    ],
    "metrics": {
        "cart_traj_len": 1.1025786679489957,
        "distance_elbow_joint": 0.8055985436568371,
        "distance_shoulder_lift_joint": 1.1298770759566037,
        "distance_shoulder_pan_joint": 1.045337783972235,
        "distance_wrist_1_joint": 2.0651772947614293,
        "distance_wrist_2_joint": 1.31197616466872,
        "distance_wrist_3_joint": 0.3952276496561886,
        "smoothness": 1.344640024032193,
        "time": 0.135635844,
        "traj_len": 2.598690922882522,
        "weighted_distance": 3.304663866630696
    },
    "planner": "BiEST",
    "start": {
        "state": {
            "elbow_joint": 2.4225746658250005,
            "shoulder_lift_joint": -1.3736534386056498,
            "shoulder_pan_joint": -0.3378633547517467,
            "wrist_1_joint": -1.0288598680537169,
            "wrist_2_joint": 1.233022673432363,
            "wrist_3_joint": -3.0940220416140027
        }
    },
    "waypoints": [
        {
            "positions": [
                -0.3378633547517467,
                -1.3736534386056498,
                2.4225746658250005,
                -1.0288598680537169,
                1.233022673432363,
                -3.0940220416140027
            ]
        },
        {
            "positions": [
                -0.28280589527056166,
                -1.449260393961594,
                2.384470824756053,
                -0.9087127777526236,
                1.149546890533088,
                -3.0780460245039145
            ]
        },
        {
            "positions": [
                -0.22774843578937662,
                -1.5248673493175384,
                2.3463669836871053,
                -0.7885656874515303,
                1.0660711076338125,
                -3.0620700073938263
            ]
        },
        {
            "positions": [
                -0.17269097630819158,
                -1.6004743046734826,
                2.308263142618158,
                -0.668418597150437,
                0.9825953247345374,
                -3.046093990283738
            ]
        },
        {
            "positions": [
                -0.11763351682700651,
                -1.6760812600294268,
                2.2701593015492105,
                -0.5482715068493437,
                0.899119541835262,
                -3.03011797317365
            ]
        },
        {
            "positions": [
                -0.0625760573458215,
                -1.751688215385371,
                2.2320554604802627,
                -0.4281244165482504,
                0.8156437589359868,
                -3.0141419560635616
            ]
        },
        {
            "positions": [
                -0.007518597864636434,
                -1.8272951707413152,
                2.1939516194113153,
                -0.3079773262471571,
                0.7321679760367116,
                -2.998165938953473
            ]
        },
        {
            "positions": [
                0.04753886161654863,
                -1.9029021260972596,
                2.155847778342368,
                -0.18783023594606385,
                0.6486921931374363,
                -2.9821899218433847
            ]
        },
        {
            "positions": [
                0.1025963210977337,
                -1.978509081453204,
                2.11774393727342,
                -0.06768314564497047,
                0.565216410238161,
                -2.9662139047332965
            ]
        },
        {
            "positions": [
                0.15765378057891877,
                -2.0541160368091482,
                2.0796400962044728,
                0.05246394465612281,
                0.4817406273388857,
                -2.9502378876232083
            ]
        },
        {
            "positions": [
                0.21271124006010372,
                -2.1297229921650924,
                2.041536255135525,
                0.17261103495721608,
                0.3982648444396105,
                -2.93426187051312
            ]
        },
        {
            "positions": [
                0.26776869954128885,
                -2.2053299475210366,
                2.0034324140665776,
                0.2927581252583094,
                0.3147890615403352,
                -2.918285853403032
            ]
        },
        {
            "positions": [
                0.35243105490865406,
                -2.147485866519103,
                2.078639435406279,
                0.18432148887847405,
                0.3775277249761963,
                -2.924363705151446
            ]
        },
        {
            "positions": [
                0.4370934102760192,
                -2.0896417855171694,
                2.15384645674598,
                0.07588485249863872,
                0.44026638841205745,
                -2.9304415568998605
            ]
        },
        {
            "positions": [
                0.5217557656433844,
                -2.0317977045152356,
                2.2290534780856808,
                -0.032551783881196616,
                0.5030050518479185,
                -2.936519408648275
            ]
        },
        {
            "positions": [
                0.6064181210107497,
                -1.973953623513302,
                2.304260499425382,
                -0.14098842026103198,
                0.5657437152837796,
                -2.9425972603966892
            ]
        },
        {
            "positions": [
                0.6401035570806626,
                -1.9516788758354746,
                2.332803234938585,
                -0.24425933890438592,
                0.6133396816281956,
                -3.0076572785472093
            ]
        },
        {
            "positions": [
                0.6737889931505754,
                -1.929404128157647,
                2.3613459704517887,
                -0.34753025754773986,
                0.6609356479726115,
                -3.0727172966977294
            ]
        },
        {
            "positions": [
                0.7074744292204883,
                -1.9071293804798197,
                2.389888705964992,
                -0.45080117619109383,
                0.7085316143170275,
                -3.1377773148482495
            ]
        }
    ]
}