{
    "goal": {
        "global_pose": {
            "orientation": {
                "w": 0.005598929693374612,
                "x": 0.007748599140229565,
                "y": 0.7110244013736278,
                "z": -0.7031023480610252
            },
            "position": {
                "x": -0.8858502320852131,
                "y": -0.7141253447532654,
                "z": 0.3711530566215515
            }
        },
        "name": "move_to_auspresseinheit_C"
    },
    "id": "BiEST_move_to_auspresseinheit_C_17",
    "joint_names": [
        "shoulder_pan_joint",
        "shoulder_lift_joint",
        "elbow_joint",
        "wrist_1_joint",
        "wrist_2_joint",
        "wrist_3_joint"
    ],
    "metrics": {
        "cart_traj_len": 0.49287316637864287,
        "distance_elbow_joint": 0.9942822234744337,
        "distance_shoulder_lift_joint": 0.32165888666940534,
        "distance_shoulder_pan_joint": 0.2564266250287184,
        "distance_wrist_1_joint": 0.6690502191342691,
        "distance_wrist_2_joint": 1.308468550572699,
        "distance_wrist_3_joint": 0.051088794327413645,
        "smoothness": 4.844609574787718e-16,
        "time": 0.056186157,
        "traj_len": 1.8976235926039018,
        "weighted_distance": 2.3834159640248984
    },
    "planner": "BiEST",
    "start": {
        "state": {
            "elbow_joint": 1.7527959577737207,
            "shoulder_lift_joint": -0.9740617694225068,
            "shoulder_pan_joint": -2.967991417825858,
            "wrist_1_joint": -0.759517768980727,
            "wrist_2_joint": 1.7443932448377408,
            "wrist_3_joint": -3.0840537646736568
        }
    },
    "waypoints": [
        {
            "positions": [
                -2.967991417825858,
                -0.9740617694225068,
                1.7527959577737207,
                -0.759517768980727,
                1.7443932448377408,
                -3.0840537646736568
            ]
        },
        {
            "positions": [
                -2.9423487553229863,
                -0.9418958807555662,
                1.6533677354262772,
                -0.6926127470673,
                1.613546389780471,
                -3.089162644106398
            ]
        },
        {
            "positions": [
                -2.9167060928201143,
                -0.9097299920886257,
                1.5539395130788338,
                -0.6257077251538732,
                1.482699534723201,
                -3.0942715235391396
            ]
        },
        {
            "positions": [
                -2.8910634303172422,
                -0.8775641034216852,
                1.4545112907313906,
                -0.5588027032404462,
                1.3518526796659311,
                -3.0993804029718808
            ]
        },
        {
            "positions": [
                -2.8654207678143706,
                -0.8453982147547446,
                1.3550830683839472,
                -0.49189768132701933,
                1.2210058246086612,
                -3.1044892824046224
            ]
        },
        {
            "positions": [
                -2.839778105311499,
                -0.813232326087804,
                1.2556548460365038,
                -0.42499265941359243,
                1.0901589695513914,
                -3.1095981618373636
            ]
        },
        {
            "positions": [
                -2.814135442808627,
                -0.7810664374208636,
                1.1562266236890606,
                -0.35808763750016553,
                0.9593121144941215,
                -3.114707041270105
            ]
        },
        {
            "positions": [
                -2.788492780305755,
                -0.7489005487539231,
                1.056798401341617,
                -0.29118261558673864,
                0.8284652594368517,
                -3.1198159207028464
            ]
        },
        {
            "positions": [
                -2.7628501178028833,
                -0.7167346600869825,
                0.9573701789941736,
                -0.22427759367331168,
                0.6976184043795817,
                -3.1249248001355876
            ]
        },
        {
            "positions": [
                -2.7372074553000116,
                -0.6845687714200419,
                0.8579419566467302,
                -0.15737257175988473,
                0.5667715493223118,
                -3.1300336795683292
            ]
        },
        {
            "positions": [
                -2.7115647927971396,
                -0.6524028827531014,
                0.7585137342992869,
                -0.09046754984645794,
                0.4359246942650418,
                -3.1351425590010704
            ]
        }
    ]
}