{
    "goal": {
        "global_pose": {
            "orientation": {
                "w": 0.7047431493862688,
                "x": -0.7094548369677653,
                "y": 0.0024358444001904,
                "z": -0.0022348060817251984
            },
            "position": {
                "x": -0.39052492380142206,
                "y": 0.3671506643295288,
                "z": 0.19426114857196808
            }
        },
        "name": "move_to_magneteinheit_D"
    },
    "id": "BiEST_move_to_magneteinheit_D_35",
    "joint_names": [
        "shoulder_pan_joint",
        "shoulder_lift_joint",
        "elbow_joint",
        "wrist_1_joint",
        "wrist_2_joint",
        "wrist_3_joint"
    ],
    "metrics": {
        "cart_traj_len": 6.273434619758447,
        "distance_elbow_joint": 3.269684144036645,
        "distance_shoulder_lift_joint": 1.0941791845914755,
        "distance_shoulder_pan_joint": 7.618442899687821,
        "distance_wrist_1_joint": 2.162063468734824,
        "distance_wrist_2_joint": 0.8384141914011045,
        "distance_wrist_3_joint": 6.267455819378943,
        "smoothness": 0.43174074242929844,
        "time": 0.161022993,
        "traj_len": 4.609798228537863,
        "weighted_distance": 6.065115745534011
    },
    "planner": "BiEST",
    "start": {
        "state": {
            "elbow_joint": 0.749534889911806,
            "shoulder_lift_joint": -0.6476975780787326,
            "shoulder_pan_joint": -2.711696901376241,
            "wrist_1_joint": -0.07506478083263063,
            "wrist_2_joint": 0.43296659715538205,
            "wrist_3_joint": -3.14703540197715
        }
    },
    "waypoints": [
        {
            "positions": [
                -2.711696901376241,
                -0.6476975780787326,
                0.749534889911806,
                -0.07506478083263063,
                0.43296659715538205,
                -3.14703540197715
            ]
        },
        {
            "positions": [
                -2.709495925224712,
                -0.7129497022035627,
                0.7575260056203132,
                -0.0375706478936575,
                0.4757741102294909,
                -3.1105775134022147
            ]
        },
        {
            "positions": [
                -2.7394890142812613,
                -0.8398159828493985,
                0.7920884110415749,
                -0.06840273115578945,
                0.4918799142755323,
                -2.996007527309261
            ]
        },
        {
            "positions": [
                -2.7694821033378108,
                -0.9666822634952343,
                0.8266508164628364,
                -0.0992348144179214,
                0.5079857183215737,
                -2.8814375412163065
            ]
        },
        {
            "positions": [
                -2.628622443044006,
                -0.9710925338304275,
                0.7695588625552607,
                -0.10602385958235694,
                0.4879163391163555,
                -2.7151684071452746
            ]
        },
        {
            "positions": [
                -2.4877627827502016,
                -0.9755028041656207,
                0.712466908647685,
                -0.11281290474679247,
                0.4678469599111374,
                -2.5488992730742424
            ]
        },
        {
            "positions": [
                -2.3469031224563968,
                -0.9799130745008139,
                0.6553749547401093,
                -0.11960194991122801,
                0.4477775807059192,
                -2.3826301390032105
            ]
        },
        {
            "positions": [
                -2.206043462162592,
                -0.984323344836007,
                0.5982830008325336,
                -0.12639099507566354,
                0.4277082015007011,
                -2.2163610049321782
            ]
        },
        {
            "positions": [
                -2.065183801868787,
                -0.9887336151712002,
                0.5411910469249579,
                -0.13318004024009908,
                0.4076388222954829,
                -2.0500918708611464
            ]
        },
        {
            "positions": [
                -1.9243241415749825,
                -0.9931438855063934,
                0.4840990930173822,
                -0.13996908540453462,
                0.3875694430902648,
                -1.8838227367901144
            ]
        },
        {
            "positions": [
                -1.7834644812811777,
                -0.9975541558415866,
                0.4270071391098065,
                -0.14675813056897016,
                0.36750006388504664,
                -1.7175536027190823
            ]
        },
        {
            "positions": [
                -1.6426048209873731,
                -1.0019644261767797,
                0.36991518520223077,
                -0.1535471757334057,
                0.3474306846798285,
                -1.5512844686480503
            ]
        },
        {
            "positions": [
                -1.5017451606935683,
                -1.0063746965119729,
                0.31282323129465506,
                -0.16033622089784125,
                0.32736130547461034,
                -1.3850153345770182
            ]
        },
        {
            "positions": [
                -1.3608855003997635,
                -1.010784966847166,
                0.25573127738707935,
                -0.1671252660622768,
                0.30729192626939217,
                -1.2187462005059861
            ]
        },
        {
            "positions": [
                -1.2200258401059587,
                -1.0151952371823594,
                0.19863932347950364,
                -0.1739143112267123,
                0.28722254706417405,
                -1.052477066434954
            ]
        },
        {
            "positions": [
                -1.0791661798121543,
                -1.0196055075175525,
                0.14154736957192793,
                -0.18070335639114785,
                0.26715316785895593,
                -0.8862079323639223
            ]
        },
        {
            "positions": [
                -0.9383065195183495,
                -1.0240157778527457,
                0.08445541566435222,
                -0.1874924015555834,
                0.24708378865373776,
                -0.71993879829289
            ]
        },
        {
            "positions": [
                -0.7974468592245447,
                -1.0284260481879388,
                0.027363461756776508,
                -0.19428144672001893,
                0.22701440944851958,
                -0.5536696642218581
            ]
        },
        {
            "positions": [
                -0.6565871989307399,
                -1.032836318523132,
                -0.0297284921507992,
                -0.20107049188445447,
                0.2069450302433014,
                -0.3874005301508259
            ]
        },
        {
            "positions": [
                -0.5157275386369355,
                -1.037246588858325,
                -0.08682044605837491,
                -0.20785953704889,
                0.1868756510380833,
                -0.22113139607979404
            ]
        },
        {
            "positions": [
                -0.37486787834313073,
                -1.0416568591935182,
                -0.14391239996595062,
                -0.21464858221332556,
                0.16680627183286517,
                -0.05486226200876221
            ]
        },
        {
            "positions": [
                -0.23400821804932592,
                -1.0460671295287116,
                -0.20100435387352633,
                -0.22143762737776107,
                0.146736892627647,
                0.11140687206227007
            ]
        },
        {
            "positions": [
                -0.09314855775552111,
                -1.0504773998639048,
                -0.25809630778110215,
                -0.2282266725421966,
                0.12666751342242882,
                0.27767600613330234
            ]
        },
        {
            "positions": [
                0.0477111025382837,
                -1.054887670199098,
                -0.31518826168867775,
                -0.23501571770663215,
                0.1065981342172107,
                0.4439451402043342
            ]
        },
        {
            "positions": [
                0.1885707628320885,
                -1.059297940534291,
                -0.37228021559625357,
                -0.2418047628710677,
                0.08652875501199253,
                0.6102142742753665
            ]
        },
        {
            "positions": [
                0.3294304231258933,
                -1.0637082108694842,
                -0.42937216950382917,
                -0.24859380803550324,
                0.06645937580677436,
                0.7764834083463983
            ]
        },
        {
            "positions": [
                0.47029008341969725,
                -1.0681184812046773,
                -0.48646412341140477,
                -0.25538285319993875,
                0.046389996601556294,
                0.9427525424174301
            ]
        },
        {
            "positions": [
                0.6111497437135021,
                -1.0725287515398705,
                -0.5435560773189806,
                -0.26217189836437427,
                0.02632061739633812,
                1.109021676488462
            ]
        },
        {
            "positions": [
                0.7520094040073069,
                -1.0769390218750636,
                -0.6006480312265562,
                -0.26896094352880984,
                0.0062512381911199455,
                1.2752908105594942
            ]
        },
        {
            "positions": [
                0.8928690643011117,
                -1.081349292210257,
                -0.657739985134132,
                -0.2757499886932454,
                -0.013818141014098173,
                1.4415599446305265
            ]
        },
        {
            "positions": [
                1.0337287245949165,
                -1.0857595625454501,
                -0.7148319390417076,
                -0.2825390338576809,
                -0.03388752021931629,
                1.6078290787015588
            ]
        },
        {
            "positions": [
                1.1745883848887213,
                -1.0901698328806433,
                -0.7719238929492834,
                -0.28932807902211644,
                -0.05395689942453452,
                1.7740982127725902
            ]
        },
        {
            "positions": [
                1.3154480451825257,
                -1.0945801032158364,
                -0.8290158468568593,
                -0.296117124186552,
                -0.07402627862975264,
                1.9403673468436224
            ]
        },
        {
            "positions": [
                1.456307705476331,
                -1.0989903735510296,
                -0.8861078007644348,
                -0.3029061693509876,
                -0.09409565783497087,
                2.1066364809146547
            ]
        },
        {
            "positions": [
                1.5971673657701353,
                -1.1034006438862227,
                -0.9431997546720107,
                -0.3096952145154231,
                -0.11416503704018899,
                2.272905614985687
            ]
        },
        {
            "positions": [
                1.7380270260639397,
                -1.1078109142214159,
                -1.0002917085795864,
                -0.3164842596798586,
                -0.1342344162454071,
                2.4391747490567184
            ]
        },
        {
            "positions": [
                1.878886686357745,
                -1.112221184556609,
                -1.0573836624871618,
                -0.3232733048442942,
                -0.15430379545062523,
                2.6054438831277507
            ]
        },
        {
            "positions": [
                2.0197463466515493,
                -1.1166314548918024,
                -1.1144756163947376,
                -0.3300623500087297,
                -0.17437317465584334,
                2.771713017198782
            ]
        },
        {
            "positions": [
                2.1606060069453545,
                -1.1210417252269955,
                -1.1715675703023134,
                -0.3368513951731652,
                -0.19444255386106157,
                2.9379821512698143
            ]
        },
        {
            "positions": [
                2.3014656672391594,
                -1.1254519955621887,
                -1.2286595242098892,
                -0.34364044033760077,
                -0.2145119330662797,
                3.104251285340846
            ]
        },
        {
            "positions": [
                2.1461339188112705,
                -1.1639785435064398,
                -1.2997381415106948,
                -0.457296661797095,
                -0.21195584438833842,
                3.105261856094655
            ]
        },
        {
            "positions": [
                1.9908021703833816,
                -1.2025050914506912,
                -1.3708167588115003,
                -0.5709528832565892,
                -0.20939975571039715,
                3.1062724268484643
            ]
        },
        {
            "positions": [
                1.8354704219554927,
                -1.2410316393949423,
                -1.441895376112306,
                -0.6846091047160834,
                -0.2068436670324559,
                3.1072829976022733
            ]
        },
        {
            "positions": [
                1.6801386735276038,
                -1.2795581873391935,
                -1.5129739934131115,
                -0.7982653261755777,
                -0.20428757835451464,
                3.108293568356082
            ]
        },
        {
            "positions": [
                1.524806925099715,
                -1.3180847352834446,
                -1.584052610713917,
                -0.9119215476350719,
                -0.20173148967657337,
                3.109304139109891
            ]
        },
        {
            "positions": [
                1.3694751766718258,
                -1.356611283227696,
                -1.6551312280147226,
                -1.025577769094566,
                -0.19917540099863212,
                3.1103147098637
            ]
        },
        {
            "positions": [
                1.214143428243937,
                -1.3951378311719471,
                -1.7262098453155281,
                -1.1392339905540603,
                -0.19661931232069085,
                3.111325280617509
            ]
        },
        {
            "positions": [
                1.058811679816048,
                -1.4336643791161983,
                -1.7972884626163337,
                -1.2528902120135545,
                -0.19406322364274958,
                3.112335851371318
            ]
        },
        {
            "positions": [
                0.9034799313881592,
                -1.4721909270604496,
                -1.8683670799171392,
                -1.3665464334730488,
                -0.1915071349648083,
                3.1133464221251272
            ]
        },
        {
            "positions": [
                0.7481481829602703,
                -1.5107174750047008,
                -1.9394456972179448,
                -1.480202654932543,
                -0.18895104628686704,
                3.1143569928789363
            ]
        },
        {
            "positions": [
                0.5928164345323814,
                -1.549244022948952,
                -2.0105243145187504,
                -1.5938588763920372,
                -0.1863949576089258,
                3.1153675636327454
            ]
        },
        {
            "positions": [
                0.4374846861044923,
                -1.5877705708932033,
                -2.081602931819556,
                -1.7075150978515314,
                -0.18383886893098453,
                3.1163781343865544
            ]
        },
        {
            "positions": [
                0.28215293767660343,
                -1.6262971188374544,
                -2.1526815491203615,
                -1.8211713193110257,
                -0.18128278025304326,
                3.117388705140363
            ]
        },
        {
            "positions": [
                0.12682118924871455,
                -1.6648236667817056,
                -2.223760166421167,
                -1.9348275407705198,
                -0.17872669157510201,
                3.118399275894172
            ]
        },
        {
            "positions": [
                -0.028510559179174333,
                -1.703350214725957,
                -2.2948387837219726,
                -2.0484837622300143,
                -0.17617060289716074,
                3.119409846647981
            ]
        },
        {
            "positions": [
                -0.18384230760706313,
                -1.741876762670208,
                -2.365917401022778,
                -2.1621399836895083,
                -0.17361451421921947,
                3.12042041740179
            ]
        }
    ]
}