{
    "goal": {
        "global_pose": {
            "orientation": {
                "w": 0.005598929693374612,
                "x": 0.007748599140229565,
                "y": 0.7110244013736278,
                "z": -0.7031023480610252
            },
            "position": {
                "x": 0.1141497679147869,
                "y": -0.7141253447532654,
                "z": 0.3711530566215515
            }
        },
        "name": "move_to_auspresseinheit_B"
    },
    "id": "BiEST_move_to_auspresseinheit_B_2",
    "joint_names": [
        "shoulder_pan_joint",
        "shoulder_lift_joint",
        "elbow_joint",
        "wrist_1_joint",
        "wrist_2_joint",
        "wrist_3_joint"
    ],
    "metrics": {
        "cart_traj_len": 0.5650865336683747,
        "distance_elbow_joint": 0.06430683046913299,
        "distance_shoulder_lift_joint": 0.29486667635850616,
        "distance_shoulder_pan_joint": 0.5791551040335332,
        "distance_wrist_1_joint": 0.3360545317673457,
        "distance_wrist_2_joint": 0.9864413851645679,
        "distance_wrist_3_joint": 0.004226213731115092,
        "smoothness": 2.5376526478085547e-16,
        "time": 0.117482346,
        "traj_len": 1.505008551977098,
        "weighted_distance": 1.8963119695657529
    },
    "planner": "BiEST",
    "start": {
        "state": {
            "elbow_joint": 2.0193083361928714,
            "shoulder_lift_joint": -1.1220246554650708,
            "shoulder_pan_joint": -1.0952077554168747,
            "wrist_1_joint": -0.8559753972642168,
            "wrist_2_joint": 0.4759566250798843,
            "wrist_3_joint": -3.1240929996934557
        }
    },
    "waypoints": [
        {
            "positions": [
                -1.0952077554168747,
                -1.1220246554650708,
                2.0193083361928714,
                -0.8559753972642168,
                0.4759566250798843,
                -3.1240929996934557
            ]
        },
        {
            "positions": [
                -1.1917336060891301,
                -1.1711691015248218,
                2.0085905311146828,
                -0.7999663086363258,
                0.6403635226073123,
                -3.12338863073827
            ]
        },
        {
            "positions": [
                -1.2882594567613856,
                -1.2203135475845728,
                1.9978727260364937,
                -0.7439572200084349,
                0.8047704201347403,
                -3.122684261783084
            ]
        },
        {
            "positions": [
                -1.3847853074336411,
                -1.2694579936443238,
                1.987154920958305,
                -0.687948131380544,
                0.9691773176621683,
                -3.1219798928278983
            ]
        },
        {
            "positions": [
                -1.4813111581058966,
                -1.318602439704075,
                1.9764371158801162,
                -0.631939042752653,
                1.1335842151895963,
                -3.121275523872712
            ]
        },
        {
            "positions": [
                -1.5778370087781524,
                -1.367746885763826,
                1.9657193108019273,
                -0.575929954124762,
                1.2979911127170243,
                -3.1205711549175263
            ]
        },
        {
            "positions": [
                -1.6743628594504079,
                -1.416891331823577,
                1.9550015057237384,
                -0.5199208654968711,
                1.4623980102444523,
                -3.1198667859623406
            ]
        }
    ]
}