{
    "goal": {
        "global_pose": {
            "orientation": {
                "w": 0.5084816217422485,
                "x": -0.49083608388900757,
                "y": 0.5182115435600281,
                "z": -0.4816462993621826
            },
            "position": {
                "x": 0.5540239810943604,
                "y": 0.030875300988554955,
                "z": 0.16403168439865112
            }
        },
        "name": "move_to_storage_A"
    },
    "id": "BiEST_move_to_storage_A_3",
    "joint_names": [
        "shoulder_pan_joint",
        "shoulder_lift_joint",
        "elbow_joint",
        "wrist_1_joint",
        "wrist_2_joint",
        "wrist_3_joint"
    ],
    "metrics": {
        "cart_traj_len": 0.35279786237715716,
        "distance_elbow_joint": 0.44910906538768036,
        "distance_shoulder_lift_joint": 0.23458716196182228,
        "distance_shoulder_pan_joint": 0.4577046322454027,
        "distance_wrist_1_joint": 0.24353573245539828,
        "distance_wrist_2_joint": 1.1135058700809775,
        "distance_wrist_3_joint": 0.09153766735008562,
        "smoothness": 2.2204460668324854e-16,
        "time": 0.08304868,
        "traj_len": 1.6093415204615107,
        "weighted_distance": 2.032264024854525
    },
    "planner": "BiEST",
    "start": {
        "state": {
            "elbow_joint": 1.971548259319323,
            "shoulder_lift_joint": -1.1394851275133948,
            "shoulder_pan_joint": 0.1228115487234821,
            "wrist_1_joint": -0.7804723859257726,
            "wrist_2_joint": 0.12958671773740124,
            "wrist_3_joint": -3.192489227718131
        }
    },
    "waypoints": [
        {
            "positions": [
                0.1228115487234821,
                -1.1394851275133948,
                1.971548259319323,
                -0.7804723859257726,
                0.12958671773740124,
                -3.192489227718131
            ]
        },
        {
            "positions": [
                0.05742517268842458,
                -1.1729975792222265,
                2.035706697231849,
                -0.8152632048479723,
                0.2886589848918266,
                -3.1794124180966903
            ]
        },
        {
            "positions": [
                -0.007961203346632945,
                -1.2065100309310584,
                2.0998651351443747,
                -0.8500540237701721,
                0.44773125204625197,
                -3.1663356084752494
            ]
        },
        {
            "positions": [
                -0.07334757938169048,
                -1.24002248263989,
                2.1640235730569004,
                -0.8848448426923718,
                0.6068035192006773,
                -3.1532587988538086
            ]
        },
        {
            "positions": [
                -0.138733955416748,
                -1.273534934348722,
                2.228182010969426,
                -0.9196356616145717,
                0.7658757863551027,
                -3.140181989232368
            ]
        },
        {
            "positions": [
                -0.20412033145180553,
                -1.3070473860575536,
                2.292340448881952,
                -0.9544264805367714,
                0.924948053509528,
                -3.1271051796109273
            ]
        },
        {
            "positions": [
                -0.26950670748686306,
                -1.3405598377663854,
                2.3564988867944776,
                -0.9892172994589712,
                1.0840203206639534,
                -3.1140283699894864
            ]
        },
        {
            "positions": [
                -0.3348930835219206,
                -1.374072289475217,
                2.4206573247070033,
                -1.024008118381171,
                1.2430925878183787,
                -3.1009515603680455
            ]
        }
    ]
}{
    "goal": {
        "global_pose": {
            "orientation": {
                "w": 0.5084816217422485,
                "x": -0.49083608388900757,
                "y": 0.5182115435600281,
                "z": -0.4816462993621826
            },
            "position": {
                "x": 0.5540239810943604,
                "y": 0.030875300988554955,
                "z": 0.16403168439865112
            }
        },
        "name": "move_to_storage_A"
    },
    "id": "BiEST_move_to_storage_A_3",
    "joint_names": [
        "shoulder_pan_joint",
        "shoulder_lift_joint",
        "elbow_joint",
        "wrist_1_joint",
        "wrist_2_joint",
        "wrist_3_joint"
    ],
    "metrics": {
        "cart_traj_len": 0.35275477988640086,
        "distance_elbow_joint": 0.453988640333026,
        "distance_shoulder_lift_joint": 0.23396535081312497,
        "distance_shoulder_pan_joint": 0.4618228932720816,
        "distance_wrist_1_joint": 0.2603137983832542,
        "distance_wrist_2_joint": 1.096057128578042,
        "distance_wrist_3_joint": 0.09261173280728041,
        "smoothness": 4.440892098500626e-16,
        "time": 0.030956742,
        "traj_len": 1.6120668547510084,
        "weighted_distance": 2.0347859682931437
    },
    "planner": "BiEST",
    "start": {
        "state": {
            "elbow_joint": 1.97154746011099,
            "shoulder_lift_joint": -1.13948474672311,
            "shoulder_pan_joint": 0.12281154466712228,
            "wrist_1_joint": -0.7804688027058302,
            "wrist_2_joint": 0.12958655903071145,
            "wrist_3_joint": 3.0906928834467795
        }
    },
    "waypoints": [
        {
            "positions": [
                0.12281154466712228,
                -1.13948474672311,
                1.97154746011099,
                -0.7804688027058302,
                0.12958655903071145,
                3.0906928834467795
            ]
        },
        {
            "positions": [
                0.05683684562825349,
                -1.172908368267842,
                2.0364029801585652,
                -0.8176564881891523,
                0.28616614882757463,
                3.1039231309906765
            ]
        },
        {
            "positions": [
                -0.009137853410615307,
                -1.2063319898125742,
                2.10125850020614,
                -0.8548441736724742,
                0.4427457386244378,
                3.117153378534574
            ]
        },
        {
            "positions": [
                -0.0751125524494841,
                -1.2397556113573063,
                2.1661140202537155,
                -0.8920318591557963,
                0.5993253284213009,
                3.130383626078471
            ]
        },
        {
            "positions": [
                -0.14108725148835288,
                -1.2731792329020384,
                2.2309695403012904,
                -0.9292195446391183,
                0.7559049182181641,
                3.1436138736223684
            ]
        },
        {
            "positions": [
                -0.2070619505272217,
                -1.3066028544467707,
                2.2958250603488657,
                -0.9664072301224403,
                0.9124845080150272,
                3.1568441211662654
            ]
        },
        {
            "positions": [
                -0.2730366495660905,
                -1.3400264759915028,
                2.3606805803964406,
                -1.0035949156057624,
                1.0690640978118904,
                3.170074368710163
            ]
        },
        {
            "positions": [
                -0.3390113486049593,
                -1.373450097536235,
                2.425536100444016,
                -1.0407826010890844,
                1.2256436876087535,
                3.18330461625406
            ]
        }
    ]
}{
    "goal": {
        "global_pose": {
            "orientation": {
                "w": 0.5084816217422485,
                "x": -0.49083608388900757,
                "y": 0.5182115435600281,
                "z": -0.4816462993621826
            },
            "position": {
                "x": 0.5540239810943604,
                "y": 0.030875300988554955,
                "z": 0.16403168439865112
            }
        },
        "name": "move_to_storage_A"
    },
    "id": "BiEST_move_to_storage_A_3",
    "joint_names": [
        "shoulder_pan_joint",
        "shoulder_lift_joint",
        "elbow_joint",
        "wrist_1_joint",
        "wrist_2_joint",
        "wrist_3_joint"
    ],
    "metrics": {
        "cart_traj_len": 0.3525020628451425,
        "distance_elbow_joint": 0.4484984758649415,
        "distance_shoulder_lift_joint": 0.23447591349413077,
        "distance_shoulder_pan_joint": 0.46220011438257697,
        "distance_wrist_1_joint": 0.23932766084483892,
        "distance_wrist_2_joint": 1.0919148366056377,
        "distance_wrist_3_joint": 0.10090952059856217,
        "smoothness": 8.881784232165597e-16,
        "time": 0.054203979,
        "traj_len": 1.6054054073008126,
        "weighted_distance": 2.027409199061277
    },
    "planner": "BiEST",
    "start": {
        "state": {
            "elbow_joint": 1.9715472970024885,
            "shoulder_lift_joint": -1.1394870060712896,
            "shoulder_pan_joint": 0.12281152778156021,
            "wrist_1_joint": -0.780463741449964,
            "wrist_2_joint": 0.12958659822042276,
            "wrist_3_joint": 3.090690232415272
        }
    },
    "waypoints": [
        {
            "positions": [
                0.12281152778156021,
                -1.1394870060712896,
                1.9715472970024885,
                -0.780463741449964,
                0.12958659822042276,
                3.090690232415272
            ]
        },
        {
            "positions": [
                0.05678294001262066,
                -1.1729835651418796,
                2.0356185078403373,
                -0.814653407284941,
                0.2855744320212281,
                3.1051058782150665
            ]
        },
        {
            "positions": [
                -0.009245647756318892,
                -1.2064801242124699,
                2.099689718678186,
                -0.8488430731199179,
                0.4415622658220335,
                3.119521524014861
            ]
        },
        {
            "positions": [
                -0.07527423552525844,
                -1.2399766832830599,
                2.1637609295160347,
                -0.883032738954895,
                0.5975500996228389,
                3.1339371698146556
            ]
        },
        {
            "positions": [
                -0.141302823294198,
                -1.2734732423536501,
                2.2278321403538834,
                -0.9172224047898719,
                0.7535379334236443,
                3.1483528156144502
            ]
        },
        {
            "positions": [
                -0.2073314110631376,
                -1.3069698014242401,
                2.2919033511917326,
                -0.951412070624849,
                0.9095257672244497,
                3.162768461414245
            ]
        },
        {
            "positions": [
                -0.27335999883207707,
                -1.3404663604948301,
                2.3559745620295813,
                -0.985601736459826,
                1.065513601025255,
                3.1771841072140394
            ]
        },
        {
            "positions": [
                -0.33938858660101673,
                -1.3739629195654204,
                2.42004577286743,
                -1.019791402294803,
                1.2215014348260604,
                3.191599753013834
            ]
        }
    ]
}