{
    "goal": {
        "global_pose": {
            "orientation": {
                "w": -0.4816463035849501,
                "x": 0.5182115481033762,
                "y": 0.4908360881923453,
                "z": -0.5084816262002911
            },
            "position": {
                "x": -0.8240239810943604,
                "y": 0.19912469901144506,
                "z": 0.16403168439865112
            }
        },
        "name": "move_to_storage_D"
    },
    "id": "BiEST_move_to_storage_D_63",
    "joint_names": [
        "shoulder_pan_joint",
        "shoulder_lift_joint",
        "elbow_joint",
        "wrist_1_joint",
        "wrist_2_joint",
        "wrist_3_joint"
    ],
    "metrics": {
        "cart_traj_len": 3.8060798333166077,
        "distance_elbow_joint": 4.2073553524831695,
        "distance_shoulder_lift_joint": 1.2648707019758774,
        "distance_shoulder_pan_joint": 2.8140386829777277,
        "distance_wrist_1_joint": 2.2603695841720053,
        "distance_wrist_2_joint": 1.3665124479319966,
        "distance_wrist_3_joint": 3.143742616033127,
        "smoothness": 0.002428636228723838,
        "time": 0.10658842099999999,
        "traj_len": 3.880320783849437,
        "weighted_distance": 4.997124838318945
    },
    "planner": "BiEST",
    "start": {
        "state": {
            "elbow_joint": -2.384821988534728,
            "shoulder_lift_joint": -2.2788054721415256,
            "shoulder_pan_joint": -0.1854694642142757,
            "wrist_1_joint": 1.4845938289331202,
            "wrist_2_joint": 0.17898776772866878,
            "wrist_3_joint": 0.037105688729662994
        }
    },
    "waypoints": [
        {
            "positions": [
                -0.1854694642142757,
                -2.2788054721415256,
                -2.384821988534728,
                1.4845938289331202,
                0.17898776772866878,
                0.037105688729662994
            ]
        },
        {
            "positions": [
                -0.0777854866105931,
                -2.269297114428055,
                -2.2477807561065495,
                1.4159911063993542,
                0.14311267851958392,
                0.04826261258085632
            ]
        },
        {
            "positions": [
                0.0298984909930895,
                -2.2597887567145842,
                -2.1107395236783706,
                1.3473883838655885,
                0.10723758931049904,
                0.05941953643204964
            ]
        },
        {
            "positions": [
                0.13758246859677212,
                -2.250280399001113,
                -1.9736982912501921,
                1.2787856613318227,
                0.07136250010141416,
                0.07057646028324296
            ]
        },
        {
            "positions": [
                0.2452664462004547,
                -2.2407720412876424,
                -1.8366570588220137,
                1.2101829387980567,
                0.03548741089232929,
                0.08173338413443629
            ]
        },
        {
            "positions": [
                0.35295042380413744,
                -2.2312636835741717,
                -1.6996158263938352,
                1.1415802162642907,
                -0.0003876783167555964,
                0.09289030798562962
            ]
        },
        {
            "positions": [
                0.4606344014078199,
                -2.221755325860701,
                -1.5625745939656566,
                1.072977493730525,
                -0.036262767525840456,
                0.10404723183682295
            ]
        },
        {
            "positions": [
                0.550548513142612,
                -2.184120996369855,
                -1.4614472416961892,
                1.0027930984830604,
                -0.037432643256732366,
                0.18487180291269084
            ]
        },
        {
            "positions": [
                0.6404626248774039,
                -2.1464866668790092,
                -1.3603198894267219,
                0.9326087032355956,
                -0.038602518987624276,
                0.2656963739885587
            ]
        },
        {
            "positions": [
                0.730376736612196,
                -2.108852337388164,
                -1.2591925371572545,
                0.8624243079881311,
                -0.03977239471851619,
                0.34652094506442654
            ]
        },
        {
            "positions": [
                0.820290848346988,
                -2.071218007897318,
                -1.1580651848877872,
                0.7922399127406663,
                -0.0409422704494081,
                0.4273455161402945
            ]
        },
        {
            "positions": [
                0.9102049600817801,
                -2.033583678406472,
                -1.0569378326183199,
                0.7220555174932017,
                -0.0421121461803,
                0.5081700872161623
            ]
        },
        {
            "positions": [
                1.000119071816572,
                -1.9959493489156261,
                -0.9558104803488525,
                0.6518711222457371,
                -0.04328202191119191,
                0.5889946582920301
            ]
        },
        {
            "positions": [
                1.0900331835513641,
                -1.9583150194247805,
                -0.8546831280793852,
                0.5816867269982724,
                -0.04445189764208382,
                0.6698192293678981
            ]
        },
        {
            "positions": [
                1.179947295286156,
                -1.9206806899339346,
                -0.7535557758099178,
                0.5115023317508077,
                -0.04562177337297573,
                0.750643800443766
            ]
        },
        {
            "positions": [
                1.2698614070209482,
                -1.883046360443089,
                -0.6524284235404504,
                0.44131793650334294,
                -0.04679164910386764,
                0.8314683715196338
            ]
        },
        {
            "positions": [
                1.35977551875574,
                -1.845412030952243,
                -0.5513010712709832,
                0.3711335412558784,
                -0.04796152483475955,
                0.9122929425955016
            ]
        },
        {
            "positions": [
                1.4496896304905322,
                -1.8077777014613972,
                -0.4501737190015158,
                0.3009491460084137,
                -0.04913140056565146,
                0.9931175136713696
            ]
        },
        {
            "positions": [
                1.5396037422253241,
                -1.7701433719705515,
                -0.3490463667320485,
                0.23076475076094916,
                -0.05030127629654337,
                1.0739420847472374
            ]
        },
        {
            "positions": [
                1.6295178539601163,
                -1.7325090424797056,
                -0.24791901446258113,
                0.16058035551348437,
                -0.05147115202743528,
                1.1547666558231053
            ]
        },
        {
            "positions": [
                1.7194319656949082,
                -1.69487471298886,
                -0.1467916621931138,
                0.0903959602660197,
                -0.052641027758327186,
                1.235591226898973
            ]
        },
        {
            "positions": [
                1.8093460774297,
                -1.657240383498014,
                -0.04566430992364667,
                0.020211565018555255,
                -0.0538109034892191,
                1.316415797974841
            ]
        },
        {
            "positions": [
                1.8992601891644922,
                -1.6196060540071682,
                0.05546304234582089,
                -0.049972830228909526,
                -0.054980779220111006,
                1.397240369050709
            ]
        },
        {
            "positions": [
                1.9891743008992842,
                -1.5819717245163225,
                0.15659039461528823,
                -0.12015722547637431,
                -0.056150654951002923,
                1.4780649401265766
            ]
        },
        {
            "positions": [
                2.0790884126340763,
                -1.5443373950254766,
                0.2577177468847558,
                -0.1903416207238391,
                -0.05732053068189483,
                1.5588895112024446
            ]
        },
        {
            "positions": [
                2.1690025243688686,
                -1.506703065534631,
                0.3588450991542229,
                -0.26052601597130365,
                -0.058490406412786744,
                1.6397140822783125
            ]
        },
        {
            "positions": [
                2.2589166361036606,
                -1.469068736043785,
                0.45997245142369025,
                -0.3307104112187682,
                -0.05966028214367865,
                1.7205386533541802
            ]
        },
        {
            "positions": [
                2.3488307478384525,
                -1.4314344065529392,
                0.5610998036931576,
                -0.400894806466233,
                -0.06083015787457056,
                1.8013632244300484
            ]
        },
        {
            "positions": [
                2.4387448595732444,
                -1.3938000770620935,
                0.6622271559626252,
                -0.4710792017136975,
                -0.06200003360546247,
                1.882187795505916
            ]
        },
        {
            "positions": [
                2.4545635561724284,
                -1.3621446348207231,
                0.7589193399614433,
                -0.49647058117412973,
                0.03179368694435965,
                1.9904095046106556
            ]
        },
        {
            "positions": [
                2.4703822527716124,
                -1.3304891925793527,
                0.8556115239602615,
                -0.521861960634562,
                0.12558740749418176,
                2.0986312137153953
            ]
        },
        {
            "positions": [
                2.4862009493707964,
                -1.298833750337982,
                0.9523037079590797,
                -0.5472533400949943,
                0.2193811280440039,
                2.2068529228201346
            ]
        },
        {
            "positions": [
                2.5020196459699804,
                -1.2671783080966117,
                1.0489958919578979,
                -0.5726447195554265,
                0.313174848593826,
                2.3150746319248743
            ]
        },
        {
            "positions": [
                2.5178383425691644,
                -1.2355228658552413,
                1.145688075956716,
                -0.5980360990158587,
                0.40696856914364815,
                2.4232963410296136
            ]
        },
        {
            "positions": [
                2.5336570391683484,
                -1.203867423613871,
                1.2423802599555342,
                -0.623427478476291,
                0.5007622896934703,
                2.5315180501343533
            ]
        },
        {
            "positions": [
                2.549475735767532,
                -1.1722119813725005,
                1.3390724439543522,
                -0.6488188579367232,
                0.5945560102432924,
                2.6397397592390925
            ]
        },
        {
            "positions": [
                2.565294432366716,
                -1.14055653913113,
                1.4357646279531704,
                -0.6742102373971555,
                0.6883497307931145,
                2.7479614683438323
            ]
        },
        {
            "positions": [
                2.5811131289659,
                -1.1089010968897597,
                1.5324568119519886,
                -0.6996016168575877,
                0.7821434513429366,
                2.856183177448572
            ]
        },
        {
            "positions": [
                2.596931825565084,
                -1.077245654648389,
                1.629148995950807,
                -0.7249929963180199,
                0.8759371718927588,
                2.9644048865533112
            ]
        },
        {
            "positions": [
                2.612750522164268,
                -1.0455902124070187,
                1.725841179949625,
                -0.7503843757784522,
                0.9697308924425807,
                3.0726265956580505
            ]
        },
        {
            "positions": [
                2.628569218763452,
                -1.0139347701656483,
                1.8225333639484431,
                -0.7757757552388844,
                1.063524612992403,
                3.1808483047627902
            ]
        }
    ]
}