{
    "goal": {
        "global_pose": {
            "orientation": {
                "w": 0.7047431468963623,
                "x": -0.7094548344612122,
                "y": 0.0024358443915843964,
                "z": -0.0022348060738295317
            },
            "position": {
                "x": 0.6094750761985779,
                "y": 0.3671506643295288,
                "z": 0.19426114857196808
            }
        },
        "name": "move_to_magneteinheit_A"
    },
    "id": "BiEST_move_to_magneteinheit_A_127",
    "joint_names": [
        "shoulder_pan_joint",
        "shoulder_lift_joint",
        "elbow_joint",
        "wrist_1_joint",
        "wrist_2_joint",
        "wrist_3_joint"
    ],
    "metrics": {
        "cart_traj_len": 3.0259446215635495,
        "distance_elbow_joint": 3.9126828947216086,
        "distance_shoulder_lift_joint": 1.2801071818627752,
        "distance_shoulder_pan_joint": 2.8679982873187373,
        "distance_wrist_1_joint": 3.4662188243414374,
        "distance_wrist_2_joint": 1.558681388016399,
        "distance_wrist_3_joint": 0.46904428104802964,
        "smoothness": 0.14128908420336017,
        "time": 0.088012261,
        "traj_len": 3.681675278634577,
        "weighted_distance": 4.417886557140515
    },
    "planner": "BiEST",
    "start": {
        "state": {
            "elbow_joint": -1.9196185241190666,
            "shoulder_lift_joint": -1.2443396400964142,
            "shoulder_pan_joint": 2.6996025414629847,
            "wrist_1_joint": -1.5485510000780065,
            "wrist_2_joint": -1.5709468930060704,
            "wrist_3_joint": 0.4420197071253992
        }
    },
    "waypoints": [
        {
            "positions": [
                2.6996025414629847,
                -1.2443396400964142,
                -1.9196185241190666,
                -1.5485510000780065,
                -1.5709468930060704,
                0.4420197071253992
            ]
        },
        {
            "positions": [
                2.598926743616567,
                -1.2612442188628141,
                -1.7943688274189933,
                -1.4845242540875427,
                -1.514158083036179,
                0.42413017592441815
            ]
        },
        {
            "positions": [
                2.4982509457701494,
                -1.2781487976292139,
                -1.66911913071892,
                -1.420497508097079,
                -1.4573692730662875,
                0.4062406447234371
            ]
        },
        {
            "positions": [
                2.3975751479237313,
                -1.2950533763956136,
                -1.5438694340188464,
                -1.3564707621066152,
                -1.400580463096396,
                0.3883511135224561
            ]
        },
        {
            "positions": [
                2.2968993500773136,
                -1.3119579551620135,
                -1.418619737318773,
                -1.2924440161161515,
                -1.3437916531265046,
                0.3704615823214751
            ]
        },
        {
            "positions": [
                2.196223552230896,
                -1.3288625339284135,
                -1.2933700406186994,
                -1.2284172701256877,
                -1.2870028431566132,
                0.35257205112049406
            ]
        },
        {
            "positions": [
                2.0955477543844783,
                -1.3457671126948132,
                -1.168120343918626,
                -1.164390524135224,
                -1.2302140331867217,
                0.33468251991951303
            ]
        },
        {
            "positions": [
                1.9948719565380604,
                -1.3626716914612131,
                -1.0428706472185527,
                -1.1003637781447602,
                -1.1734252232168303,
                0.316792988718532
            ]
        },
        {
            "positions": [
                1.8941961586916427,
                -1.3795762702276129,
                -0.9176209505184794,
                -1.0363370321542964,
                -1.116636413246939,
                0.298903457517551
            ]
        },
        {
            "positions": [
                1.7935203608452248,
                -1.3964808489940128,
                -0.7923712538184058,
                -0.9723102861638326,
                -1.0598476032770474,
                0.2810139263165699
            ]
        },
        {
            "positions": [
                1.6928445629988071,
                -1.4133854277604125,
                -0.6671215571183322,
                -0.9082835401733689,
                -1.0030587933071562,
                0.2631243951155889
            ]
        },
        {
            "positions": [
                1.5921687651523895,
                -1.4302900065268123,
                -0.5418718604182591,
                -0.8442567941829051,
                -0.9462699833372646,
                0.24523486391460786
            ]
        },
        {
            "positions": [
                1.4914929673059716,
                -1.4471945852932122,
                -0.4166221637181855,
                -0.7802300481924413,
                -0.8894811733673732,
                0.22734533271362684
            ]
        },
        {
            "positions": [
                1.390817169459554,
                -1.464099164059612,
                -0.29137246701811215,
                -0.7162033022019777,
                -0.8326923633974819,
                0.2094558015126458
            ]
        },
        {
            "positions": [
                1.290141371613136,
                -1.4810037428260119,
                -0.16612277031803857,
                -0.6521765562115137,
                -0.7759035534275903,
                0.1915662703116648
            ]
        },
        {
            "positions": [
                1.1894655737667184,
                -1.4979083215924116,
                -0.04087307361796522,
                -0.5881498102210501,
                -0.7191147434576989,
                0.17367673911068376
            ]
        },
        {
            "positions": [
                1.0887897759203007,
                -1.5148129003588116,
                0.08437662308210792,
                -0.5241230642305863,
                -0.6623259334878075,
                0.15578720790970274
            ]
        },
        {
            "positions": [
                0.9881139780738828,
                -1.5317174791252115,
                0.2096263197821817,
                -0.46009631824012254,
                -0.605537123517916,
                0.13789767670872166
            ]
        },
        {
            "positions": [
                0.8874381802274649,
                -1.5486220578916112,
                0.33487601648225507,
                -0.3960695722496588,
                -0.5487483135480247,
                0.12000814550774064
            ]
        },
        {
            "positions": [
                0.7867623823810472,
                -1.565526636658011,
                0.4601257131823284,
                -0.332042826259195,
                -0.49195950357813323,
                0.10211861430675967
            ]
        },
        {
            "positions": [
                0.6860865845346296,
                -1.582431215424411,
                0.5853754098824022,
                -0.26801608026873125,
                -0.4351706936082418,
                0.08422908310577859
            ]
        },
        {
            "positions": [
                0.5854107866882119,
                -1.5993357941908108,
                0.7106251065824751,
                -0.2039893342782675,
                -0.37838188363835035,
                0.06633955190479757
            ]
        },
        {
            "positions": [
                0.4847349888417942,
                -1.6162403729572106,
                0.8358748032825485,
                -0.13996258828780372,
                -0.3215930736684589,
                0.04845002070381654
            ]
        },
        {
            "positions": [
                0.3840591909953761,
                -1.6331449517236103,
                0.9611244999826223,
                -0.07593584229733996,
                -0.26480426369856747,
                0.03056048950283552
            ]
        },
        {
            "positions": [
                0.2833833931489586,
                -1.6500495304900102,
                1.0863741966826959,
                -0.011909096306876102,
                -0.20801545372867603,
                0.012670958301854492
            ]
        },
        {
            "positions": [
                0.22217425605871785,
                -1.5856580223982388,
                1.1507172876283644,
                0.10925218659987843,
                -0.21972240196096823,
                0.016964605755836196
            ]
        },
        {
            "positions": [
                0.1609651189684771,
                -1.5212665143064672,
                1.2150603785740333,
                0.23041346950663294,
                -0.23142935019326044,
                0.021258253209817897
            ]
        },
        {
            "positions": [
                0.09975598187823634,
                -1.4568750062146958,
                1.2794034695197019,
                0.3515747524133875,
                -0.24313629842555268,
                0.0255519006637996
            ]
        },
        {
            "positions": [
                0.038546844787995554,
                -1.3924834981229242,
                1.3437465604653707,
                0.472736035320142,
                -0.25484324665784486,
                0.029845548117781305
            ]
        },
        {
            "positions": [
                -0.022662292302245222,
                -1.3280919900311527,
                1.4080896514110393,
                0.5938973182268965,
                -0.2665501948901371,
                0.03413919557176301
            ]
        },
        {
            "positions": [
                -0.011805882618021292,
                -1.2550798080431156,
                1.4846504373258478,
                0.7651688009784599,
                -0.25147246112038607,
                0.032419635785584905
            ]
        },
        {
            "positions": [
                -0.0009494729337973622,
                -1.1820676260550784,
                1.5612112232406563,
                0.9364402837300232,
                -0.23639472735063508,
                0.030700075999406804
            ]
        },
        {
            "positions": [
                0.009906936750426566,
                -1.1090554440670413,
                1.6377720091554648,
                1.1077117664815863,
                -0.22131699358088405,
                0.0289805162132287
            ]
        },
        {
            "positions": [
                0.020763346434650498,
                -1.036043262079004,
                1.7143327950702731,
                1.2789832492331499,
                -0.20623925981113303,
                0.027260956427050596
            ]
        },
        {
            "positions": [
                0.03161975611887443,
                -0.9630310800909669,
                1.7908935809850817,
                1.450254731984713,
                -0.19116152604138203,
                0.025541396640872495
            ]
        },
        {
            "positions": [
                0.042476165803098355,
                -0.8900188981029299,
                1.8674543668998902,
                1.6215262147362763,
                -0.176083792271631,
                0.02382183685469439
            ]
        },
        {
            "positions": [
                0.0533325754873223,
                -0.8170067161148927,
                1.9440151528146987,
                1.7927976974878397,
                -0.16100605850188,
                0.022102277068516286
            ]
        },
        {
            "positions": [
                0.12307116125126259,
                -0.7756522390208312,
                1.9930643706025413,
                1.9176678242634309,
                -0.12933498731259335,
                0.015911900617186517
            ]
        }
    ]
}