{
    "goal": {
        "global_pose": {
            "orientation": {
                "w": 0.7031023480610252,
                "x": -0.7110244013736278,
                "y": 0.0077485991402295624,
                "z": 0.005598929693374583
            },
            "position": {
                "x": -0.8841497679147869,
                "y": 0.44412534475326537,
                "z": 0.3711530566215515
            }
        },
        "name": "move_to_auspresseinheit_D"
    },
    "id": "BiEST_move_to_auspresseinheit_D_127",
    "joint_names": [
        "shoulder_pan_joint",
        "shoulder_lift_joint",
        "elbow_joint",
        "wrist_1_joint",
        "wrist_2_joint",
        "wrist_3_joint"
    ],
    "metrics": {
        "cart_traj_len": 0.34274045576892687,
        "distance_elbow_joint": 0.6318368303439255,
        "distance_shoulder_lift_joint": 0.11794511981219502,
        "distance_shoulder_pan_joint": 0.13409631967680835,
        "distance_wrist_1_joint": 0.5125166670641681,
        "distance_wrist_2_joint": 1.4309286900289557,
        "distance_wrist_3_joint": 0.013830784003733498,
        "smoothness": 0.0,
        "time": 0.064068203,
        "traj_len": 1.6855724282657765,
        "weighted_distance": 2.193686699606481
    },
    "planner": "BiEST",
    "start": {
        "state": {
            "elbow_joint": -1.8275523626775212,
            "shoulder_lift_joint": -2.126789852344167,
            "shoulder_pan_joint": -0.03513704404078235,
            "wrist_1_joint": -2.347782403156801,
            "wrist_2_joint": -1.6058999987535132,
            "wrist_3_joint": -3.0880379163319196
        }
    },
    "waypoints": [
        {
            "positions": [
                -0.03513704404078235,
                -2.126789852344167,
                -1.8275523626775212,
                -2.347782403156801,
                -1.6058999987535132,
                -3.0880379163319196
            ]
        },
        {
            "positions": [
                -0.05189908400038339,
                -2.141532992320691,
                -1.7485727588845306,
                -2.411846986539822,
                -1.4270339124998936,
                -3.0897667643323863
            ]
        },
        {
            "positions": [
                -0.06866112395998444,
                -2.1562761322972155,
                -1.66959315509154,
                -2.475911569922843,
                -1.2481678262462743,
                -3.091495612332853
            ]
        },
        {
            "positions": [
                -0.08542316391958549,
                -2.17101927227374,
                -1.590613551298549,
                -2.539976153305864,
                -1.0693017399926548,
                -3.0932244603333197
            ]
        },
        {
            "positions": [
                -0.10218520387918653,
                -2.1857624122502646,
                -1.5116339475055585,
                -2.604040736688885,
                -0.8904356537390353,
                -3.0949533083337863
            ]
        },
        {
            "positions": [
                -0.11894724383878758,
                -2.200505552226789,
                -1.4326543437125678,
                -2.668105320071906,
                -0.7115695674854159,
                -3.096682156334253
            ]
        },
        {
            "positions": [
                -0.13570928379838862,
                -2.215248692203313,
                -1.353674739919577,
                -2.7321699034549267,
                -0.5327034812317963,
                -3.0984110043347197
            ]
        },
        {
            "positions": [
                -0.15247132375798966,
                -2.2299918321798375,
                -1.2746951361265864,
                -2.796234486837948,
                -0.353837394978177,
                -3.1001398523351864
            ]
        },
        {
            "positions": [
                -0.1692333637175907,
                -2.244734972156362,
                -1.1957155323335957,
                -2.860299070220969,
                -0.17497130872455754,
                -3.101868700335653
            ]
        }
    ]
}