{
    "goal": {
        "global_pose": {
            "orientation": {
                "w": -0.4816463035849501,
                "x": 0.5182115481033762,
                "y": 0.4908360881923453,
                "z": -0.5084816262002911
            },
            "position": {
                "x": -0.8240239810943604,
                "y": -0.300875300988555,
                "z": 0.16403168439865112
            }
        },
        "name": "move_to_storage_C"
    },
    "id": "BiEST_move_to_storage_C_83",
    "joint_names": [
        "shoulder_pan_joint",
        "shoulder_lift_joint",
        "elbow_joint",
        "wrist_1_joint",
        "wrist_2_joint",
        "wrist_3_joint"
    ],
    "metrics": {
        "cart_traj_len": 0.5774026861503202,
        "distance_elbow_joint": 0.25794656246271686,
        "distance_shoulder_lift_joint": 0.18949437831060278,
        "distance_shoulder_pan_joint": 0.4949241468821137,
        "distance_wrist_1_joint": 0.07302135017251132,
        "distance_wrist_2_joint": 1.0698703691970133,
        "distance_wrist_3_joint": 0.07142440567904806,
        "smoothness": 0.0,
        "time": 0.133854929,
        "traj_len": 1.46856433727093,
        "weighted_distance": 1.8553764425128467
    },
    "planner": "BiEST",
    "start": {
        "state": {
            "elbow_joint": 2.010868314990456,
            "shoulder_lift_joint": -1.1634956873337592,
            "shoulder_pan_joint": -2.4736205022346125,
            "wrist_1_joint": -0.8367026794202681,
            "wrist_2_joint": 0.6746043897044499,
            "wrist_3_joint": -3.1496632123970403
        }
    },
    "waypoints": [
        {
            "positions": [
                -2.4736205022346125,
                -1.1634956873337592,
                2.010868314990456,
                -0.8367026794202681,
                0.6746043897044499,
                -3.1496632123970403
            ]
        },
        {
            "positions": [
                -2.5561078600482983,
                -1.1319132909486587,
                1.9678772212466697,
                -0.8245324543915162,
                0.8529161179039522,
                -3.1377591447838658
            ]
        },
        {
            "positions": [
                -2.6385952178619836,
                -1.1003308945635584,
                1.9248861275028835,
                -0.8123622293627644,
                1.0312278461034543,
                -3.1258550771706908
            ]
        },
        {
            "positions": [
                -2.7210825756756694,
                -1.0687484981784579,
                1.8818950337590974,
                -0.8001920043340125,
                1.2095395743029567,
                -3.1139510095575162
            ]
        },
        {
            "positions": [
                -2.803569933489355,
                -1.0371661017933573,
                1.8389039400153113,
                -0.7880217793052605,
                1.3878513025024586,
                -3.1020469419443417
            ]
        },
        {
            "positions": [
                -2.8860572913030405,
                -1.0055837054082568,
                1.795912846271525,
                -0.7758515542765086,
                1.566163030701961,
                -3.0901428743311667
            ]
        },
        {
            "positions": [
                -2.968544649116726,
                -0.9740013090231564,
                1.752921752527739,
                -0.7636813292477568,
                1.7444747589014633,
                -3.078238806717992
            ]
        }
    ]
}