{
    "goal": {
        "global_pose": {
            "orientation": {
                "w": 0.7047431493862688,
                "x": -0.7094548369677653,
                "y": 0.0024358444001904,
                "z": -0.0022348060817251984
            },
            "position": {
                "x": -0.39052492380142206,
                "y": 0.3671506643295288,
                "z": 0.19426114857196808
            }
        },
        "name": "move_to_magneteinheit_D"
    },
    "id": "BiEST_move_to_magneteinheit_D_101",
    "joint_names": [
        "shoulder_pan_joint",
        "shoulder_lift_joint",
        "elbow_joint",
        "wrist_1_joint",
        "wrist_2_joint",
        "wrist_3_joint"
    ],
    "metrics": {
        "cart_traj_len": 4.549188938577983,
        "distance_elbow_joint": 3.168116012449829,
        "distance_shoulder_lift_joint": 1.7086852867792648,
        "distance_shoulder_pan_joint": 3.4749731855923605,
        "distance_wrist_1_joint": 2.5499102018283515,
        "distance_wrist_2_joint": 1.2217355422715463,
        "distance_wrist_3_joint": 2.8209726667626684,
        "smoothness": 0.669391598108781,
        "time": 0.09824604,
        "traj_len": 3.8657978343007042,
        "weighted_distance": 4.935380833665144
    },
    "planner": "BiEST",
    "start": {
        "state": {
            "elbow_joint": 0.749534889911806,
            "shoulder_lift_joint": -0.6476975780787326,
            "shoulder_pan_joint": -2.711696901376241,
            "wrist_1_joint": -0.07506478083263063,
            "wrist_2_joint": 0.43296659715538205,
            "wrist_3_joint": -3.14703540197715
        }
    },
    "waypoints": [
        {
            "positions": [
                -2.711696901376241,
                -0.6476975780787326,
                0.749534889911806,
                -0.07506478083263063,
                0.43296659715538205,
                -3.14703540197715
            ]
        },
        {
            "positions": [
                -2.7053399712338493,
                -0.6908383031934028,
                0.6950825335642921,
                -0.029769710490771956,
                0.4487078452902368,
                -3.0980988077087637
            ]
        },
        {
            "positions": [
                -2.7089227957929753,
                -0.7281308279167802,
                0.5367491361759354,
                -0.04419881436790714,
                0.42628619088424147,
                -2.972019714502787
            ]
        },
        {
            "positions": [
                -2.7125056203521014,
                -0.7654233526401575,
                0.3784157387875789,
                -0.05862791824504233,
                0.40386453647824616,
                -2.84594062129681
            ]
        },
        {
            "positions": [
                -2.716088444911228,
                -0.8027158773635349,
                0.22008234139922234,
                -0.07305702212217752,
                0.38144288207225086,
                -2.7198615280908336
            ]
        },
        {
            "positions": [
                -2.719671269470354,
                -0.8400084020869123,
                0.06174894401086571,
                -0.0874861259993127,
                0.35902122766625555,
                -2.593782434884857
            ]
        },
        {
            "positions": [
                -2.6056601625360565,
                -0.8613750439840366,
                -0.028628402277623338,
                -0.17265213164021181,
                0.32246139169677224,
                -2.5532926806546707
            ]
        },
        {
            "positions": [
                -2.4916490556017594,
                -0.882741685881161,
                -0.11900574856611239,
                -0.2578181372811109,
                0.2859015557272889,
                -2.5128029264244844
            ]
        },
        {
            "positions": [
                -2.377637948667462,
                -0.9041083277782853,
                -0.20938309485460138,
                -0.34298414292201,
                0.24934171975780559,
                -2.4723131721942986
            ]
        },
        {
            "positions": [
                -2.2636268417331644,
                -0.9254749696754097,
                -0.2997604411430905,
                -0.42815014856290917,
                0.21278188378832225,
                -2.4318234179641123
            ]
        },
        {
            "positions": [
                -2.1496157347988674,
                -0.946841611572534,
                -0.3901377874315795,
                -0.5133161542038082,
                0.17622204781883893,
                -2.391333663733926
            ]
        },
        {
            "positions": [
                -2.03560462786457,
                -0.9682082534696583,
                -0.4805151337200685,
                -0.5984821598447073,
                0.13966221184935562,
                -2.3508439095037397
            ]
        },
        {
            "positions": [
                -1.9215935209302726,
                -0.9895748953667827,
                -0.5708924800085576,
                -0.6836481654856065,
                0.10310237587987231,
                -2.3103541552735534
            ]
        },
        {
            "positions": [
                -1.8075824139959753,
                -1.010941537263907,
                -0.6612698262970467,
                -0.7688141711265056,
                0.06654253991038894,
                -2.269864401043367
            ]
        },
        {
            "positions": [
                -1.6935713070616778,
                -1.0323081791610313,
                -0.7516471725855357,
                -0.8539801767674047,
                0.02998270394090563,
                -2.2293746468131808
            ]
        },
        {
            "positions": [
                -1.5795602001273805,
                -1.0536748210581557,
                -0.8420245188740247,
                -0.9391461824083037,
                -0.006577132028577681,
                -2.188884892582995
            ]
        },
        {
            "positions": [
                -1.4655490931930832,
                -1.07504146295528,
                -0.9324018651625138,
                -1.0243121880492028,
                -0.04313696799806099,
                -2.1483951383528086
            ]
        },
        {
            "positions": [
                -1.351537986258786,
                -1.0964081048524044,
                -1.0227792114510028,
                -1.109478193690102,
                -0.0796968039675443,
                -2.1079053841226223
            ]
        },
        {
            "positions": [
                -1.2375268793244885,
                -1.1177747467495287,
                -1.113156557739492,
                -1.194644199331001,
                -0.11625663993702767,
                -2.067415629892436
            ]
        },
        {
            "positions": [
                -1.1235157723901912,
                -1.139141388646653,
                -1.203533904027981,
                -1.2798102049719002,
                -0.15281647590651093,
                -2.0269258756622497
            ]
        },
        {
            "positions": [
                -1.009504665455894,
                -1.1605080305437774,
                -1.29391125031647,
                -1.3649762106127992,
                -0.18937631187599424,
                -1.9864361214320636
            ]
        },
        {
            "positions": [
                -0.8954935585215964,
                -1.1818746724409017,
                -1.3842885966049592,
                -1.4501422162536985,
                -0.22593614784547766,
                -1.9459463672018773
            ]
        },
        {
            "positions": [
                -0.7814824515872993,
                -1.203241314338026,
                -1.474665942893448,
                -1.5353082218945975,
                -0.26249598381496086,
                -1.9054566129716912
            ]
        },
        {
            "positions": [
                -0.6674713446530016,
                -1.2246079562351504,
                -1.5650432891819372,
                -1.6204742275354966,
                -0.2990558197844443,
                -1.864966858741505
            ]
        },
        {
            "positions": [
                -0.5534602377187046,
                -1.2459745981322747,
                -1.6554206354704262,
                -1.7056402331763958,
                -0.3356156557539276,
                -1.8244771045113186
            ]
        },
        {
            "positions": [
                -0.43944913078440706,
                -1.267341240029399,
                -1.7457979817589153,
                -1.7908062388172947,
                -0.3721754917234109,
                -1.7839873502811323
            ]
        },
        {
            "positions": [
                -0.32543802385010956,
                -1.2887078819265234,
                -1.8361753280474045,
                -1.875972244458194,
                -0.4087353276928942,
                -1.743497596050946
            ]
        },
        {
            "positions": [
                -0.21142691691581247,
                -1.3100745238236478,
                -1.9265526743358934,
                -1.961138250099093,
                -0.44529516366237754,
                -1.70300784182076
            ]
        },
        {
            "positions": [
                -0.1505980291135966,
                -1.4012624200248585,
                -1.9823115927878712,
                -1.9428699303537202,
                -0.4476100252497305,
                -1.8371853087059906
            ]
        },
        {
            "positions": [
                -0.0897691413113807,
                -1.4924503162260692,
                -2.038070511239849,
                -1.9246016106083474,
                -0.4499248868370835,
                -1.9713627755912213
            ]
        },
        {
            "positions": [
                -0.02894025350916482,
                -1.58363821242728,
                -2.0938294296918265,
                -1.9063332908629746,
                -0.4522397484244365,
                -2.105540242476452
            ]
        },
        {
            "positions": [
                0.03188863429305108,
                -1.6748261086284908,
                -2.1495883481438045,
                -1.8880649711176019,
                -0.45455461001178943,
                -2.239717709361683
            ]
        },
        {
            "positions": [
                0.09271752209526699,
                -1.7660140048297015,
                -2.2053472665957825,
                -1.869796651372229,
                -0.4568694715991424,
                -2.3738951762469136
            ]
        },
        {
            "positions": [
                0.15354640989748283,
                -1.8572019010309124,
                -2.26110618504776,
                -1.8515283316268563,
                -0.4591843331864954,
                -2.5080726431321443
            ]
        },
        {
            "positions": [
                0.21437529769969874,
                -1.9483897972321231,
                -2.3168651034997376,
                -1.8332600118814835,
                -0.4614991947738484,
                -2.642250110017375
            ]
        },
        {
            "positions": [
                0.2752041855019146,
                -2.039577693433334,
                -2.3726240219517156,
                -1.8149916921361107,
                -0.4638140563612013,
                -2.7764275769026057
            ]
        },
        {
            "positions": [
                0.19199685039108205,
                -1.9793402198589347,
                -2.3655369248814395,
                -1.8944063184031905,
                -0.40567411914171386,
                -2.8312488793933337
            ]
        },
        {
            "positions": [
                0.1087895152802495,
                -1.9191027462845356,
                -2.358449827811163,
                -1.9738209446702704,
                -0.3475341819222264,
                -2.886070181884062
            ]
        },
        {
            "positions": [
                0.025582180169416935,
                -1.8588652727101365,
                -2.351362730740887,
                -2.05323557093735,
                -0.28939424470273895,
                -2.94089148437479
            ]
        },
        {
            "positions": [
                -0.057625154941415624,
                -1.7986277991357373,
                -2.3442756336706103,
                -2.13265019720443,
                -0.2312543074832515,
                -2.9957127868655187
            ]
        },
        {
            "positions": [
                -0.14083249005224818,
                -1.7383903255613382,
                -2.337188536600334,
                -2.21206482347151,
                -0.17311437026376403,
                -3.0505340893562467
            ]
        },
        {
            "positions": [
                -0.18420531673927906,
                -1.7540081291140062,
                -2.34771015183526,
                -2.2420917260513002,
                -0.17034166387594776,
                -3.0799529484270383
            ]
        }
    ]
}