{
    "goal": {
        "global_pose": {
            "orientation": {
                "w": -0.00223480608172531,
                "x": 0.0024358444001904467,
                "y": 0.7094548369677653,
                "z": -0.704743149386269
            },
            "position": {
                "x": -0.37947507619857795,
                "y": -0.6371506643295288,
                "z": 0.19426114857196808
            }
        },
        "name": "move_to_magneteinheit_C"
    },
    "id": "BiEST_move_to_magneteinheit_C_27",
    "joint_names": [
        "shoulder_pan_joint",
        "shoulder_lift_joint",
        "elbow_joint",
        "wrist_1_joint",
        "wrist_2_joint",
        "wrist_3_joint"
    ],
    "metrics": {
        "cart_traj_len": 1.9248436800657043,
        "distance_elbow_joint": 0.34028222943705533,
        "distance_shoulder_lift_joint": 2.6596259180609647,
        "distance_shoulder_pan_joint": 1.5304483000620233,
        "distance_wrist_1_joint": 4.440794556823556,
        "distance_wrist_2_joint": 1.3650419589373626,
        "distance_wrist_3_joint": 10.210621295484474,
        "smoothness": 0.5794842456968635,
        "time": 0.141603207,
        "traj_len": 4.53285939102521,
        "weighted_distance": 6.839144198328858
    },
    "planner": "BiEST",
    "start": {
        "state": {
            "elbow_joint": 1.9565354010623817,
            "shoulder_lift_joint": -1.4165861575791021,
            "shoulder_pan_joint": -1.6717766225146293,
            "wrist_1_joint": -0.5286633292919765,
            "wrist_2_joint": 1.472756589071564,
            "wrist_3_joint": -3.1238370188695823
        }
    },
    "waypoints": [
        {
            "positions": [
                -1.6717766225146293,
                -1.4165861575791021,
                1.9565354010623817,
                -0.5286633292919765,
                1.472756589071564,
                -3.1238370188695823
            ]
        },
        {
            "positions": [
                -1.6634147539398314,
                -1.4511497160722784,
                1.9385087777263146,
                -0.4403942428096813,
                1.4592698536515671,
                -3.0120827175231693
            ]
        },
        {
            "positions": [
                -1.6849565494406238,
                -1.4925714277249045,
                1.9278627867729181,
                -0.3575496240336043,
                1.4305689118804508,
                -2.852173597155911
            ]
        },
        {
            "positions": [
                -1.7064983449414164,
                -1.5339931393775303,
                1.9172167958195216,
                -0.2747050052575273,
                1.4018679701093342,
                -2.6922644767886523
            ]
        },
        {
            "positions": [
                -1.7280401404422088,
                -1.5754148510301564,
                1.906570804866125,
                -0.19186038648145032,
                1.3731670283382178,
                -2.532355356421394
            ]
        },
        {
            "positions": [
                -1.7495819359430014,
                -1.6168365626827823,
                1.8959248139127285,
                -0.10901576770537325,
                1.3444660865671012,
                -2.3724462360541354
            ]
        },
        {
            "positions": [
                -1.7711237314437938,
                -1.6582582743354084,
                1.885278822959332,
                -0.026171148929296256,
                1.3157651447959848,
                -2.212537115686877
            ]
        },
        {
            "positions": [
                -1.8171314762898017,
                -1.7000341554829417,
                1.8820579165941513,
                0.04213370539823287,
                1.2755266256941589,
                -2.0307825288680763
            ]
        },
        {
            "positions": [
                -1.8631392211358095,
                -1.7418100366304747,
                1.8788370102289706,
                0.110438559725762,
                1.235288106592333,
                -1.8490279420492755
            ]
        },
        {
            "positions": [
                -1.9091469659818174,
                -1.783585917778008,
                1.87561610386379,
                0.1787434140532911,
                1.195049587490507,
                -1.6672733552304746
            ]
        },
        {
            "positions": [
                -1.9551547108278253,
                -1.8253617989255413,
                1.8723951974986093,
                0.24704826838082025,
                1.154811068388681,
                -1.4855187684116735
            ]
        },
        {
            "positions": [
                -2.001162455673833,
                -1.8671376800730746,
                1.8691742911334286,
                0.31535312270834936,
                1.114572549286855,
                -1.3037641815928727
            ]
        },
        {
            "positions": [
                -2.047170200519841,
                -1.9089135612206078,
                1.8659533847682477,
                0.38365797703587845,
                1.074334030185029,
                -1.1220095947740718
            ]
        },
        {
            "positions": [
                -2.093177945365849,
                -1.950689442368141,
                1.862732478403067,
                0.45196283136340765,
                1.034095511083203,
                -0.9402550079552707
            ]
        },
        {
            "positions": [
                -2.139185690211857,
                -1.9924653235156742,
                1.8595115720378863,
                0.5202676856909367,
                0.9938569919813772,
                -0.7585004211364699
            ]
        },
        {
            "positions": [
                -2.185193435057865,
                -2.0342412046632075,
                1.8562906656727056,
                0.5885725400184658,
                0.9536184728795513,
                -0.5767458343176688
            ]
        },
        {
            "positions": [
                -2.2312011799038727,
                -2.0760170858107405,
                1.853069759307525,
                0.6568773943459949,
                0.9133799537777254,
                -0.39499124749886816
            ]
        },
        {
            "positions": [
                -2.27720892474988,
                -2.117792966958274,
                1.8498488529423442,
                0.7251822486735241,
                0.8731414346758994,
                -0.21323666068006708
            ]
        },
        {
            "positions": [
                -2.3232166695958885,
                -2.159568848105807,
                1.8466279465771636,
                0.7934871030010532,
                0.8329029155740735,
                -0.031482073861266446
            ]
        },
        {
            "positions": [
                -2.369224414441896,
                -2.20134472925334,
                1.8434070402119829,
                0.8617919573285823,
                0.7926643964722475,
                0.1502725129575344
            ]
        },
        {
            "positions": [
                -2.4152321592879042,
                -2.2431206104008736,
                1.8401861338468022,
                0.9300968116561115,
                0.7524258773704215,
                0.3320270997763357
            ]
        },
        {
            "positions": [
                -2.4612399041339117,
                -2.2848964915484067,
                1.8369652274816215,
                0.9984016659836407,
                0.7121873582685956,
                0.5137816865951366
            ]
        },
        {
            "positions": [
                -2.5072476489799196,
                -2.3266723726959397,
                1.8337443211164408,
                1.0667065203111699,
                0.6719488391667696,
                0.6955362734139374
            ]
        },
        {
            "positions": [
                -2.5532553938259275,
                -2.3684482538434732,
                1.8305234147512601,
                1.135011374638699,
                0.6317103200649438,
                0.8772908602327383
            ]
        },
        {
            "positions": [
                -2.5992631386719354,
                -2.4102241349910063,
                1.8273025083860792,
                1.203316228966228,
                0.5914718009631177,
                1.0590454470515396
            ]
        },
        {
            "positions": [
                -2.6452708835179433,
                -2.4520000161385394,
                1.8240816020208985,
                1.2716210832937571,
                0.5512332818612917,
                1.2408000338703404
            ]
        },
        {
            "positions": [
                -2.691278628363951,
                -2.493775897286073,
                1.8208606956557178,
                1.3399259376212862,
                0.5109947627594659,
                1.4225546206891408
            ]
        },
        {
            "positions": [
                -2.737286373209959,
                -2.535551778433606,
                1.8176397892905372,
                1.4082307919488153,
                0.4707562436576399,
                1.6043092075079417
            ]
        },
        {
            "positions": [
                -2.783294118055967,
                -2.5773276595811394,
                1.8144188829253565,
                1.4765356462763446,
                0.43051772455581394,
                1.786063794326743
            ]
        },
        {
            "positions": [
                -2.829301862901975,
                -2.6191035407286725,
                1.8111979765601758,
                1.5448405006038737,
                0.390279205453988,
                1.9678183811455439
            ]
        },
        {
            "positions": [
                -2.817527772795625,
                -2.5623187665619698,
                1.81931724530777,
                1.4515974049484759,
                0.400032564243233,
                1.7701518836421721
            ]
        },
        {
            "positions": [
                -2.8057536826892755,
                -2.505533992395267,
                1.8274365140553641,
                1.358354309293078,
                0.40978592303247807,
                1.5724853861388004
            ]
        },
        {
            "positions": [
                -2.7939795925829256,
                -2.4487492182285644,
                1.8355557828029585,
                1.2651112136376803,
                0.4195392818217231,
                1.3748188886354287
            ]
        },
        {
            "positions": [
                -2.782205502476576,
                -2.3919644440618617,
                1.8436750515505527,
                1.1718681179822825,
                0.42929264061096817,
                1.177152391132057
            ]
        },
        {
            "positions": [
                -2.7704314123702263,
                -2.335179669895159,
                1.8517943202981468,
                1.0786250223268847,
                0.43904599940021316,
                0.9794858936286852
            ]
        },
        {
            "positions": [
                -2.7586573222638764,
                -2.2783948957284563,
                1.859913589045741,
                0.9853819266714869,
                0.4487993581894582,
                0.7818193961253135
            ]
        },
        {
            "positions": [
                -2.746883232157527,
                -2.2216101215617536,
                1.8680328577933352,
                0.8921388310160892,
                0.45855271697870326,
                0.5841528986219418
            ]
        },
        {
            "positions": [
                -2.735109142051177,
                -2.164825347395051,
                1.8761521265409296,
                0.7988957353606914,
                0.4683060757679483,
                0.38648640111857
            ]
        },
        {
            "positions": [
                -2.7233350519448276,
                -2.1080405732283483,
                1.8842713952885237,
                0.7056526397052936,
                0.47805943455719335,
                0.1888199036151983
            ]
        },
        {
            "positions": [
                -2.7115609618384777,
                -2.0512557990616456,
                1.8923906640361179,
                0.6124095440498958,
                0.4878127933464384,
                -0.008846593888173437
            ]
        },
        {
            "positions": [
                -2.699786871732128,
                -1.9944710248949427,
                1.900509932783712,
                0.519166448394498,
                0.49756615213568345,
                -0.20651309139154517
            ]
        },
        {
            "positions": [
                -2.6880127816257784,
                -1.9376862507282402,
                1.9086292015313062,
                0.4259233527391002,
                0.5073195109249284,
                -0.4041795888949169
            ]
        },
        {
            "positions": [
                -2.6762386915194285,
                -1.8809014765615373,
                1.9167484702789006,
                0.3326802570837024,
                0.5170728697141735,
                -0.6018460863982886
            ]
        },
        {
            "positions": [
                -2.664464601413079,
                -1.8241167023948348,
                1.9248677390264948,
                0.23943716142830462,
                0.5268262285034185,
                -0.7995125839016604
            ]
        },
        {
            "positions": [
                -2.652690511306729,
                -1.767331928228132,
                1.932987007774089,
                0.14619406577290683,
                0.5365795872926636,
                -0.9971790814050321
            ]
        },
        {
            "positions": [
                -2.6409164212003793,
                -1.7105471540614292,
                1.941106276521683,
                0.052950970117509044,
                0.5463329460819086,
                -1.1948455789084038
            ]
        },
        {
            "positions": [
                -2.62914233109403,
                -1.6537623798947267,
                1.9492255452692773,
                -0.040292125537888746,
                0.5560863048711537,
                -1.3925120764117755
            ]
        },
        {
            "positions": [
                -2.61736824098768,
                -1.5969776057280238,
                1.9573448140168717,
                -0.13353522119328654,
                0.5658396636603987,
                -1.5901785739151473
            ]
        },
        {
            "positions": [
                -2.6055941508813305,
                -1.5401928315613211,
                1.9654640827644658,
                -0.22677831684868432,
                0.5755930224496437,
                -1.787845071418519
            ]
        },
        {
            "positions": [
                -2.5938200607749806,
                -1.4834080573946185,
                1.97358335151206,
                -0.3200214125040821,
                0.5853463812388888,
                -1.9855115689218907
            ]
        },
        {
            "positions": [
                -2.5737004740419662,
                -1.4298392154650617,
                1.9790099231758875,
                -0.40375954814070775,
                0.5999292811613698,
                -2.1797842264888763
            ]
        },
        {
            "positions": [
                -2.5535808873089514,
                -1.3762703735355046,
                1.984436494839715,
                -0.4874976837773334,
                0.6145121810838506,
                -2.374056884055862
            ]
        },
        {
            "positions": [
                -2.5334613005759365,
                -1.3227015316059476,
                1.9898630665035426,
                -0.5712358194139591,
                0.6290950810063316,
                -2.5683295416228473
            ]
        },
        {
            "positions": [
                -2.513341713842922,
                -1.2691326896763908,
                1.9952896381673701,
                -0.6549739550505846,
                0.6436779809288126,
                -2.762602199189833
            ]
        },
        {
            "positions": [
                -2.4932221271099078,
                -1.215563847746834,
                2.0007162098311975,
                -0.7387120906872102,
                0.6582608808512934,
                -2.9568748567568184
            ]
        },
        {
            "positions": [
                -2.473102540376893,
                -1.161995005817277,
                2.0061427814950252,
                -0.8224502263238359,
                0.6728437807737744,
                -3.151147514323804
            ]
        }
    ]
}