{
    "goal": {
        "global_pose": {
            "orientation": {
                "w": -0.00223480608172531,
                "x": 0.0024358444001904467,
                "y": 0.7094548369677653,
                "z": -0.704743149386269
            },
            "position": {
                "x": -0.37947507619857795,
                "y": -0.6371506643295288,
                "z": 0.19426114857196808
            }
        },
        "name": "move_to_magneteinheit_C"
    },
    "id": "BiEST_move_to_magneteinheit_C_18",
    "joint_names": [
        "shoulder_pan_joint",
        "shoulder_lift_joint",
        "elbow_joint",
        "wrist_1_joint",
        "wrist_2_joint",
        "wrist_3_joint"
    ],
    "metrics": {
        "cart_traj_len": 1.9534112637330063,
        "distance_elbow_joint": 1.2416706531906563,
        "distance_shoulder_lift_joint": 1.756796974311779,
        "distance_shoulder_pan_joint": 1.2559404354163644,
        "distance_wrist_1_joint": 1.4781071635473735,
        "distance_wrist_2_joint": 1.583111550214901,
        "distance_wrist_3_joint": 1.2590817355220807,
        "smoothness": 1.1148386605680265,
        "time": 0.11309454,
        "traj_len": 2.928260321795717,
        "weighted_distance": 3.7621922727326944
    },
    "planner": "BiEST",
    "start": {
        "state": {
            "elbow_joint": 1.9565354010623817,
            "shoulder_lift_joint": -1.4165861575791021,
            "shoulder_pan_joint": -1.6717766225146293,
            "wrist_1_joint": -0.5286633292919765,
            "wrist_2_joint": 1.472756589071564,
            "wrist_3_joint": -3.1238370188695823
        }
    },
    "waypoints": [
        {
            "positions": [
                -1.6717766225146293,
                -1.4165861575791021,
                1.9565354010623817,
                -0.5286633292919765,
                1.472756589071564,
                -3.1238370188695823
            ]
        },
        {
            "positions": [
                -1.7019307198270328,
                -1.5132657447022155,
                1.9641735608726614,
                -0.450588634623419,
                1.3969052305176046,
                -3.0619219428395725
            ]
        },
        {
            "positions": [
                -1.732084817139436,
                -1.609945331825329,
                1.9718117206829409,
                -0.37251393995486165,
                1.321053871963645,
                -3.0000068668095623
            ]
        },
        {
            "positions": [
                -1.7622389144518396,
                -1.7066249189484424,
                1.9794498804932206,
                -0.2944392452863042,
                1.2452025134096858,
                -2.9380917907795525
            ]
        },
        {
            "positions": [
                -1.8488517584543587,
                -1.7724394697751653,
                1.8943699026263767,
                -0.25376411478034905,
                1.1944124535692113,
                -2.923807909621638
            ]
        },
        {
            "positions": [
                -1.9354646024568778,
                -1.8382540206018883,
                1.809289924759533,
                -0.21308898427439382,
                1.1436223937287369,
                -2.9095240284637236
            ]
        },
        {
            "positions": [
                -2.022077446459397,
                -1.9040685714286112,
                1.7242099468926892,
                -0.17241385376843865,
                1.0928323338882622,
                -2.895240147305809
            ]
        },
        {
            "positions": [
                -2.108690290461916,
                -1.9698831222553341,
                1.6391299690258454,
                -0.13173872326248345,
                1.0420422740477877,
                -2.880956266147895
            ]
        },
        {
            "positions": [
                -2.1953031344644356,
                -2.035697673082057,
                1.5540499911590016,
                -0.09106359275652826,
                0.9912522142073132,
                -2.8666723849899807
            ]
        },
        {
            "positions": [
                -2.2819159784669547,
                -2.10151222390878,
                1.468970013292158,
                -0.05038846225057306,
                0.9404621543668388,
                -2.852388503832066
            ]
        },
        {
            "positions": [
                -2.368528822469474,
                -2.167326774735503,
                1.383890035425314,
                -0.009713331744617859,
                0.8896720945263642,
                -2.8381046226741518
            ]
        },
        {
            "positions": [
                -2.4239320579457955,
                -2.0669549200972255,
                1.4523212295345285,
                0.0021574357081596447,
                0.7879623883114922,
                -2.7831733590295364
            ]
        },
        {
            "positions": [
                -2.479335293422117,
                -1.966583065458948,
                1.520752423643743,
                0.014028203160937149,
                0.6862526820966203,
                -2.728242095384921
            ]
        },
        {
            "positions": [
                -2.5347385288984388,
                -1.8662112108206705,
                1.5891836177529575,
                0.025898970613714656,
                0.5845429758817483,
                -2.673310831740306
            ]
        },
        {
            "positions": [
                -2.590141764374761,
                -1.7658393561823933,
                1.6576148118621719,
                0.037769738066492156,
                0.48283326966687634,
                -2.618379568095691
            ]
        },
        {
            "positions": [
                -2.6455449998510825,
                -1.6654675015441156,
                1.7260460059713865,
                0.04964050551926967,
                0.3811235634520044,
                -2.5634483044510756
            ]
        },
        {
            "positions": [
                -2.700948235327404,
                -1.5650956469058384,
                1.7944772000806009,
                0.06151127297204717,
                0.27941385723713236,
                -2.5085170408064603
            ]
        },
        {
            "positions": [
                -2.668552689241177,
                -1.5074063284307364,
                1.8248499378001186,
                -0.06533623578271716,
                0.3350951170057708,
                -2.60048300615774
            ]
        },
        {
            "positions": [
                -2.63615714315495,
                -1.4497170099556345,
                1.8552226755196364,
                -0.1921837445374815,
                0.39077637677440924,
                -2.69244897150902
            ]
        },
        {
            "positions": [
                -2.603761597068723,
                -1.3920276914805325,
                1.8855954132391541,
                -0.31903125329224585,
                0.4464576365430477,
                -2.7844149368602995
            ]
        },
        {
            "positions": [
                -2.571366050982496,
                -1.3343383730054306,
                1.9159681509586717,
                -0.44587876204701016,
                0.5021388963116862,
                -2.8763809022115794
            ]
        },
        {
            "positions": [
                -2.5389705048962687,
                -1.2766490545303286,
                1.9463408886781894,
                -0.5727262708017745,
                0.5578201560803246,
                -2.9683468675628593
            ]
        },
        {
            "positions": [
                -2.5065749588100417,
                -1.2189597360552267,
                1.9767136263977072,
                -0.6995737795565389,
                0.6135014158489631,
                -3.060312832914139
            ]
        },
        {
            "positions": [
                -2.4741794127238146,
                -1.1612704175801247,
                2.007086364117225,
                -0.8264212883113032,
                0.6691826756176016,
                -3.152278798265419
            ]
        }
    ]
}