{
    "goal": {
        "global_pose": {
            "orientation": {
                "w": -0.00223480608172531,
                "x": 0.0024358444001904467,
                "y": 0.7094548369677653,
                "z": -0.704743149386269
            },
            "position": {
                "x": 0.6205249238014221,
                "y": -0.6371506643295288,
                "z": 0.19426114857196808
            }
        },
        "name": "move_to_magneteinheit_B"
    },
    "id": "BiEST_move_to_magneteinheit_B_41",
    "joint_names": [
        "shoulder_pan_joint",
        "shoulder_lift_joint",
        "elbow_joint",
        "wrist_1_joint",
        "wrist_2_joint",
        "wrist_3_joint"
    ],
    "metrics": {
        "cart_traj_len": 1.4814975417200655,
        "distance_elbow_joint": 0.9666585957640337,
        "distance_shoulder_lift_joint": 0.8115800628347091,
        "distance_shoulder_pan_joint": 1.621375197846628,
        "distance_wrist_1_joint": 0.5178267302710995,
        "distance_wrist_2_joint": 1.5303905719235418,
        "distance_wrist_3_joint": 0.29302958631289483,
        "smoothness": 0.33477628295806394,
        "time": 0.16891901399999998,
        "traj_len": 2.396009337409374,
        "weighted_distance": 2.8939829335663574
    },
    "planner": "BiEST",
    "start": {
        "state": {
            "elbow_joint": 2.6216224122426386,
            "shoulder_lift_joint": -1.4174107377796124,
            "shoulder_pan_joint": 0.7066234856936794,
            "wrist_1_joint": 1.9546482284002225,
            "wrist_2_joint": -0.7096286983471962,
            "wrist_3_joint": 0.005740856962016249
        }
    },
    "waypoints": [
        {
            "positions": [
                0.7066234856936794,
                -1.4174107377796124,
                2.6216224122426386,
                1.9546482284002225,
                -0.7096286983471962,
                0.005740856962016249
            ]
        },
        {
            "positions": [
                0.6182043556305847,
                -1.43123704073022,
                2.6238968168224126,
                1.8719219618957919,
                -0.7076174731819184,
                -0.07040116216257941
            ]
        },
        {
            "positions": [
                0.5297852255674901,
                -1.4450633436808273,
                2.6261712214021866,
                1.7891956953913613,
                -0.7056062480166405,
                -0.14654318128717506
            ]
        },
        {
            "positions": [
                0.4266040157303159,
                -1.389068525328435,
                2.5574490937875805,
                1.8143652809100925,
                -0.8146325424161395,
                -0.13648992785405337
            ]
        },
        {
            "positions": [
                0.3234228058931417,
                -1.3330737069760425,
                2.4887269661729743,
                1.8395348664288238,
                -0.9236588368156385,
                -0.1264366744209317
            ]
        },
        {
            "positions": [
                0.22024159605596755,
                -1.2770788886236502,
                2.420004838558368,
                1.864704451947555,
                -1.0326851312151375,
                -0.11638342098781002
            ]
        },
        {
            "positions": [
                0.11706038621879333,
                -1.2210840702712575,
                2.351282710943762,
                1.8898740374662866,
                -1.1417114256146366,
                -0.10633016755468834
            ]
        },
        {
            "positions": [
                0.013879176381619063,
                -1.1650892519188651,
                2.282560583329156,
                1.9150436229850178,
                -1.2507377200141354,
                -0.09627691412156666
            ]
        },
        {
            "positions": [
                -0.08930203345555499,
                -1.1090944335664727,
                2.21383845571455,
                1.9402132085037491,
                -1.3597640144136345,
                -0.08622366068844498
            ]
        },
        {
            "positions": [
                -0.19248324329272926,
                -1.0530996152140804,
                2.145116328099944,
                1.9653827940224804,
                -1.4687903088131335,
                -0.0761704072553233
            ]
        },
        {
            "positions": [
                -0.2956644531299034,
                -0.997104796861688,
                2.0763942004853377,
                1.9905523795412117,
                -1.5778166032126326,
                -0.06611715382220162
            ]
        },
        {
            "positions": [
                -0.3988456629670777,
                -0.9411099785092953,
                2.0076720728707316,
                2.015721965059943,
                -1.6868428976121317,
                -0.056063900389079935
            ]
        },
        {
            "positions": [
                -0.502026872804252,
                -0.885115160156903,
                1.9389499452561254,
                2.0408915505786744,
                -1.7958691920116305,
                -0.04601064695595826
            ]
        },
        {
            "positions": [
                -0.605208082641426,
                -0.8291203418045106,
                1.8702278176415192,
                2.0660611360974057,
                -1.9048954864111296,
                -0.035957393522836584
            ]
        },
        {
            "positions": [
                -0.7083892924786,
                -0.7731255234521182,
                1.8015056900269133,
                2.091230721616137,
                -2.0139217808106284,
                -0.025904140089714908
            ]
        },
        {
            "positions": [
                -0.8115705023157745,
                -0.7171307050997257,
                1.732783562412307,
                2.1164003071348683,
                -2.122948075210128,
                -0.015850886656593205
            ]
        },
        {
            "positions": [
                -0.9147517121529486,
                -0.6611358867473333,
                1.664061434797701,
                2.1415698926535995,
                -2.2319743696096266,
                -0.005797633223471552
            ]
        }
    ]
}