{
    "goal": {
        "global_pose": {
            "orientation": {
                "w": -0.4816463035849501,
                "x": 0.5182115481033762,
                "y": 0.4908360881923453,
                "z": -0.5084816262002911
            },
            "position": {
                "x": -0.8240239810943604,
                "y": -0.300875300988555,
                "z": 0.16403168439865112
            }
        },
        "name": "move_to_storage_C"
    },
    "id": "BiEST_move_to_storage_C_63",
    "joint_names": [
        "shoulder_pan_joint",
        "shoulder_lift_joint",
        "elbow_joint",
        "wrist_1_joint",
        "wrist_2_joint",
        "wrist_3_joint"
    ],
    "metrics": {
        "cart_traj_len": 0.5761673236652767,
        "distance_elbow_joint": 0.2569699299155037,
        "distance_shoulder_lift_joint": 0.1883653931859346,
        "distance_shoulder_pan_joint": 0.4960843493854097,
        "distance_wrist_1_joint": 0.08247307221898514,
        "distance_wrist_2_joint": 1.058540246577818,
        "distance_wrist_3_joint": 0.07612034906494047,
        "smoothness": 0.0,
        "time": 0.074233218,
        "traj_len": 1.4692015996276997,
        "weighted_distance": 1.8579040226220718
    },
    "planner": "BiEST",
    "start": {
        "state": {
            "elbow_joint": 2.010868314990456,
            "shoulder_lift_joint": -1.1634956873337592,
            "shoulder_pan_joint": -2.4736205022346125,
            "wrist_1_joint": -0.8367026794202681,
            "wrist_2_joint": 0.6746043897044499,
            "wrist_3_joint": -3.1496632123970403
        }
    },
    "waypoints": [
        {
            "positions": [
                -2.4736205022346125,
                -1.1634956873337592,
                2.010868314990456,
                -0.8367026794202681,
                0.6746043897044499,
                -3.1496632123970403
            ]
        },
        {
            "positions": [
                -2.556301227132181,
                -1.1321014551361035,
                1.9680399933378718,
                -0.8229571673837706,
                0.8510277641340862,
                -3.1369764875528836
            ]
        },
        {
            "positions": [
                -2.638981952029749,
                -1.1007072229384476,
                1.9252116716852878,
                -0.809211655347273,
                1.0274511385637226,
                -3.124289762708727
            ]
        },
        {
            "positions": [
                -2.721662676927317,
                -1.069312990740792,
                1.882383350032704,
                -0.7954661433107755,
                1.2038745129933588,
                -3.11160303786457
            ]
        },
        {
            "positions": [
                -2.8043434018248856,
                -1.0379187585431362,
                1.83955502838012,
                -0.781720631274278,
                1.3802978874229952,
                -3.098916313020413
            ]
        },
        {
            "positions": [
                -2.887024126722454,
                -1.0065245263454803,
                1.796726706727536,
                -0.7679751192377805,
                1.5567212618526316,
                -3.0862295881762565
            ]
        },
        {
            "positions": [
                -2.969704851620022,
                -0.9751302941478246,
                1.753898385074952,
                -0.754229607201283,
                1.7331446362822678,
                -3.0735428633321
            ]
        }
    ]
}