{
    "goal": {
        "global_pose": {
            "orientation": {
                "w": -0.4816463035849501,
                "x": 0.5182115481033762,
                "y": 0.4908360881923453,
                "z": -0.5084816262002911
            },
            "position": {
                "x": -0.8240239810943604,
                "y": 0.19912469901144506,
                "z": 0.16403168439865112
            }
        },
        "name": "move_to_storage_D"
    },
    "id": "BiEST_move_to_storage_D_128",
    "joint_names": [
        "shoulder_pan_joint",
        "shoulder_lift_joint",
        "elbow_joint",
        "wrist_1_joint",
        "wrist_2_joint",
        "wrist_3_joint"
    ],
    "metrics": {
        "cart_traj_len": 0.6732161906765195,
        "distance_elbow_joint": 0.5554415569070827,
        "distance_shoulder_lift_joint": 0.15293578281654518,
        "distance_shoulder_pan_joint": 0.42162028421672726,
        "distance_wrist_1_joint": 3.8306526627544533,
        "distance_wrist_2_joint": 1.995527376410223,
        "distance_wrist_3_joint": 3.1175061430302264,
        "smoothness": 0.0934163076575787,
        "time": 0.181244604,
        "traj_len": 3.173906710370558,
        "weighted_distance": 4.704771634347451
    },
    "planner": "BiEST",
    "start": {
        "state": {
            "elbow_joint": -2.384821988534728,
            "shoulder_lift_joint": -2.2788054721415256,
            "shoulder_pan_joint": -0.1854694642142757,
            "wrist_1_joint": 1.4845938289331202,
            "wrist_2_joint": 0.17898776772866878,
            "wrist_3_joint": 0.037105688729662994
        }
    },
    "waypoints": [
        {
            "positions": [
                -0.1854694642142757,
                -2.2788054721415256,
                -2.384821988534728,
                1.4845938289331202,
                0.17898776772866878,
                0.037105688729662994
            ]
        },
        {
            "positions": [
                -0.08029153622443959,
                -2.222145474161054,
                -2.3238507656839946,
                1.4233569334231904,
                0.22363531919994029,
                -0.020363829715980775
            ]
        },
        {
            "positions": [
                -0.020016071377642178,
                -2.192278264590996,
                -2.2363606738736905,
                1.3775977339505163,
                0.2448806507475074,
                -0.07698123908214552
            ]
        },
        {
            "positions": [
                0.04025939346915523,
                -2.1624110550209386,
                -2.148870582063387,
                1.331838534477842,
                0.2661259822950745,
                -0.13359864844831026
            ]
        },
        {
            "positions": [
                0.10053485831595266,
                -2.132543845450881,
                -2.061380490253083,
                1.286079335005168,
                0.2873713138426416,
                -0.19021605781447504
            ]
        },
        {
            "positions": [
                0.09463851215567012,
                -2.1322536647497548,
                -2.0512935311824116,
                1.1281602841866245,
                0.2053215820906307,
                -0.3158762489660441
            ]
        },
        {
            "positions": [
                0.08874216599538758,
                -2.1319634840486286,
                -2.0412065721117405,
                0.970241233368081,
                0.12327185033861982,
                -0.44153644011761317
            ]
        },
        {
            "positions": [
                0.08284581983510504,
                -2.131673303347503,
                -2.0311196130410694,
                0.8123221825495375,
                0.04122211858660893,
                -0.5671966312691823
            ]
        },
        {
            "positions": [
                0.0769494736748225,
                -2.1313831226463766,
                -2.0210326539703978,
                0.6544031317309941,
                -0.040827613165401955,
                -0.6928568224207513
            ]
        },
        {
            "positions": [
                0.07105312751453996,
                -2.1310929419452505,
                -2.0109456948997266,
                0.49648408091245055,
                -0.12287734491741287,
                -0.8185170135723203
            ]
        },
        {
            "positions": [
                0.06515678135425743,
                -2.1308027612441243,
                -2.0008587358290555,
                0.33856503009390704,
                -0.20492707666942372,
                -0.9441772047238894
            ]
        },
        {
            "positions": [
                0.05926043519397488,
                -2.130512580542998,
                -1.9907717767583843,
                0.1806459792753634,
                -0.2869768084214347,
                -1.0698373958754586
            ]
        },
        {
            "positions": [
                0.05336408903369234,
                -2.130222399841872,
                -1.9806848176877132,
                0.022726928456820117,
                -0.3690265401734455,
                -1.1954975870270275
            ]
        },
        {
            "positions": [
                0.047467742873409796,
                -2.129932219140746,
                -1.970597858617042,
                -0.13519212236172362,
                -0.4510762719254564,
                -1.3211577781785966
            ]
        },
        {
            "positions": [
                0.04157139671312726,
                -2.12964203843962,
                -1.9605108995463707,
                -0.2931111731802669,
                -0.5331260036774673,
                -1.4468179693301657
            ]
        },
        {
            "positions": [
                0.035675050552844714,
                -2.129351857738494,
                -1.9504239404756996,
                -0.45103022399881065,
                -0.6151757354294782,
                -1.5724781604817348
            ]
        },
        {
            "positions": [
                0.02977870439256218,
                -2.1290616770373676,
                -1.9403369814050284,
                -0.608949274817354,
                -0.697225467181489,
                -1.698138351633304
            ]
        },
        {
            "positions": [
                0.023882358232279646,
                -2.1287714963362414,
                -1.9302500223343573,
                -0.7668683256358975,
                -0.7792751989335,
                -1.8237985427848726
            ]
        },
        {
            "positions": [
                0.0179860120719971,
                -2.1284813156351152,
                -1.920163063263686,
                -0.9247873764544412,
                -0.861324930685511,
                -1.9494587339364422
            ]
        },
        {
            "positions": [
                0.01208966591171455,
                -2.1281911349339895,
                -1.9100761041930148,
                -1.0827064272729845,
                -0.9433746624375218,
                -2.075118925088011
            ]
        },
        {
            "positions": [
                0.0061933197514320165,
                -2.1279009542328633,
                -1.8999891451223436,
                -1.2406254780915278,
                -1.0254243941895327,
                -2.20077911623958
            ]
        },
        {
            "positions": [
                0.0002969735911494825,
                -2.127610773531737,
                -1.8899021860516725,
                -1.3985445289100715,
                -1.1074741259415433,
                -2.3264393073911487
            ]
        },
        {
            "positions": [
                -0.005599372569133065,
                -2.127320592830611,
                -1.8798152269810011,
                -1.5564635797286153,
                -1.1895238576935543,
                -2.4520994985427182
            ]
        },
        {
            "positions": [
                -0.0114957187294156,
                -2.1270304121294847,
                -1.86972826791033,
                -1.7143826305471586,
                -1.2715735894455653,
                -2.5777596896942874
            ]
        },
        {
            "positions": [
                -0.017392064889698133,
                -2.1267402314283586,
                -1.8596413088396588,
                -1.8723016813657019,
                -1.3536233211975763,
                -2.703419880845856
            ]
        },
        {
            "positions": [
                -0.02328841104998068,
                -2.126450050727233,
                -1.8495543497689877,
                -2.0302207321842456,
                -1.435673052949587,
                -2.829080071997425
            ]
        },
        {
            "positions": [
                -0.02918475721026323,
                -2.1261598700261066,
                -1.8394673906983163,
                -2.1881397830027893,
                -1.517722784701598,
                -2.9547402631489943
            ]
        },
        {
            "positions": [
                -0.03508110337054578,
                -2.1258696893249804,
                -1.8293804316276452,
                -2.3460588338213326,
                -1.599772516453609,
                -3.0804004543005634
            ]
        }
    ]
}