{
    "goal": {
        "global_pose": {
            "orientation": {
                "w": 0.5084816262002911,
                "x": -0.4908360881923452,
                "y": 0.5182115481033761,
                "z": -0.48164630358495003
            },
            "position": {
                "x": 0.5540239810943604,
                "y": -0.46912469901144505,
                "z": 0.16403168439865112
            }
        },
        "name": "move_to_storage_B"
    },
    "id": "BiEST_move_to_storage_B_34",
    "joint_names": [
        "shoulder_pan_joint",
        "shoulder_lift_joint",
        "elbow_joint",
        "wrist_1_joint",
        "wrist_2_joint",
        "wrist_3_joint"
    ],
    "metrics": {
        "cart_traj_len": 3.2566228016967798,
        "distance_elbow_joint": 2.0948452142838403,
        "distance_shoulder_lift_joint": 2.338416519481278,
        "distance_shoulder_pan_joint": 1.7030425515171872,
        "distance_wrist_1_joint": 3.033692272245178,
        "distance_wrist_2_joint": 2.707614363365652,
        "distance_wrist_3_joint": 3.1280099142379583,
        "smoothness": 0.37131140642140215,
        "time": 0.088791346,
        "traj_len": 3.8737089249362926,
        "weighted_distance": 5.196436018967022
    },
    "planner": "BiEST",
    "start": {
        "state": {
            "elbow_joint": 1.664937868594044,
            "shoulder_lift_joint": -0.661644460510453,
            "shoulder_pan_joint": -0.9139846352900073,
            "wrist_1_joint": 2.146753192139373,
            "wrist_2_joint": -2.2341966793290973,
            "wrist_3_joint": 0.005466555786416001
        }
    },
    "waypoints": [
        {
            "positions": [
                -0.9139846352900073,
                -0.661644460510453,
                1.664937868594044,
                2.146753192139373,
                -2.2341966793290973,
                0.005466555786416001
            ]
        },
        {
            "positions": [
                -0.8068940937292333,
                -0.8081139337129436,
                1.692365778577725,
                2.1600067915470644,
                -2.181356089198366,
                0.03848313457201781
            ]
        },
        {
            "positions": [
                -0.6998035521684594,
                -0.9545834069154342,
                1.7197936885614062,
                2.1732603909547556,
                -2.1285154990676354,
                0.07149971335761962
            ]
        },
        {
            "positions": [
                -0.6694449147881235,
                -1.0160183743805133,
                1.6712885985732322,
                2.0479560058111312,
                -2.038122231627466,
                0.08972943023229836
            ]
        },
        {
            "positions": [
                -0.6390862774077877,
                -1.0774533418455927,
                1.6227835085850584,
                1.9226516206675068,
                -1.9477289641872968,
                0.1079591471069771
            ]
        },
        {
            "positions": [
                -0.6087276400274518,
                -1.1388883093106719,
                1.5742784185968843,
                1.7973472355238824,
                -1.8573356967471275,
                0.12618886398165585
            ]
        },
        {
            "positions": [
                -0.578369002647116,
                -1.200323276775751,
                1.5257733286087105,
                1.6720428503802578,
                -1.7669424293069582,
                0.14441858085633458
            ]
        },
        {
            "positions": [
                -0.54801036526678,
                -1.2617582442408304,
                1.4772682386205365,
                1.5467384652366334,
                -1.6765491618667887,
                0.16264829773101336
            ]
        },
        {
            "positions": [
                -0.5176517278864443,
                -1.3231932117059095,
                1.4287631486323626,
                1.421434080093009,
                -1.5861558944266196,
                0.18087801460569208
            ]
        },
        {
            "positions": [
                -0.48729309050610836,
                -1.3846281791709887,
                1.3802580586441886,
                1.2961296949493843,
                -1.4957626269864501,
                0.19910773148037084
            ]
        },
        {
            "positions": [
                -0.4569344531257725,
                -1.4460631466360678,
                1.3317529686560148,
                1.17082530980576,
                -1.405369359546281,
                0.21733744835504956
            ]
        },
        {
            "positions": [
                -0.4265758157454367,
                -1.5074981141011472,
                1.2832478786678407,
                1.0455209246621355,
                -1.3149760921061115,
                0.23556716522972831
            ]
        },
        {
            "positions": [
                -0.39621717836510084,
                -1.5689330815662266,
                1.2347427886796667,
                0.9202165395185111,
                -1.224582824665942,
                0.2537968821044071
            ]
        },
        {
            "positions": [
                -0.36585854098476495,
                -1.6303680490313057,
                1.1862376986914929,
                0.7949121543748865,
                -1.1341895572257727,
                0.2720265989790858
            ]
        },
        {
            "positions": [
                -0.33549990360442916,
                -1.6918030164963849,
                1.137732608703319,
                0.6696077692312623,
                -1.0437962897856037,
                0.29025631585376455
            ]
        },
        {
            "positions": [
                -0.30514126622409327,
                -1.7532379839614642,
                1.089227518715145,
                0.5443033840876377,
                -0.9534030223454344,
                0.3084860327284433
            ]
        },
        {
            "positions": [
                -0.2747826288437574,
                -1.8146729514265432,
                1.040722428726971,
                0.41899899894401327,
                -0.8630097549052649,
                0.32671574960312205
            ]
        },
        {
            "positions": [
                -0.24442399146342153,
                -1.8761079188916225,
                0.992217338738797,
                0.29369461380038864,
                -0.7726164874650956,
                0.3449454664778008
            ]
        },
        {
            "positions": [
                -0.21406535408308575,
                -1.9375428863567017,
                0.9437122487506232,
                0.16839022865676423,
                -0.6822232200249265,
                0.3631751833524795
            ]
        },
        {
            "positions": [
                -0.18370671670274985,
                -1.998977853821781,
                0.8952071587624492,
                0.04308584351313982,
                -0.591829952584757,
                0.3814049002271583
            ]
        },
        {
            "positions": [
                -0.15334807932241395,
                -2.06041282128686,
                0.8467020687742752,
                -0.08221854163048446,
                -0.5014366851445877,
                0.399634617101837
            ]
        },
        {
            "positions": [
                -0.20294839487765573,
                -2.0109576550392356,
                0.9081177411179251,
                -0.12178202272756623,
                -0.45012856045084343,
                0.5435210304135495
            ]
        },
        {
            "positions": [
                -0.2525487104328975,
                -1.9615024887916106,
                0.969533413461575,
                -0.16134550382464802,
                -0.39882043575709913,
                0.687407443725262
            ]
        },
        {
            "positions": [
                -0.3021490259881393,
                -1.912047322543986,
                1.0309490858052248,
                -0.20090898492172976,
                -0.3475123110633548,
                0.8312938570369746
            ]
        },
        {
            "positions": [
                -0.35174934154338106,
                -1.8625921562963612,
                1.0923647581488747,
                -0.24047246601881156,
                -0.29620418636961054,
                0.9751802703486869
            ]
        },
        {
            "positions": [
                -0.4013496570986228,
                -1.8131369900487364,
                1.1537804304925245,
                -0.2800359471158933,
                -0.2448960616758662,
                1.1190666836603995
            ]
        },
        {
            "positions": [
                -0.4509499726538646,
                -1.7636818238011116,
                1.2151961028361742,
                -0.3195994282129751,
                -0.1935879369821219,
                1.262953096972112
            ]
        },
        {
            "positions": [
                -0.5005502882091064,
                -1.7142266575534868,
                1.276611775179824,
                -0.35916290931005684,
                -0.1422798122883776,
                1.4068395102838245
            ]
        },
        {
            "positions": [
                -0.5501506037643482,
                -1.664771491305862,
                1.338027447523474,
                -0.39872639040713864,
                -0.09097168759463331,
                1.5507259235955368
            ]
        },
        {
            "positions": [
                -0.59975091931959,
                -1.6153163250582372,
                1.3994431198671238,
                -0.4382898715042204,
                -0.039663562900889016,
                1.6946123369072494
            ]
        },
        {
            "positions": [
                -0.6493512348748317,
                -1.5658611588106126,
                1.4608587922107736,
                -0.4778533526013022,
                0.011644561792855335,
                1.8384987502189618
            ]
        },
        {
            "positions": [
                -0.6989515504300736,
                -1.5164059925629876,
                1.5222744645544235,
                -0.517416833698384,
                0.06295268648659968,
                1.9823851635306746
            ]
        },
        {
            "positions": [
                -0.7485518659853152,
                -1.466950826315363,
                1.5836901368980731,
                -0.5569803147954657,
                0.11426081118034392,
                2.126271576842387
            ]
        },
        {
            "positions": [
                -0.798152181540557,
                -1.4174956600677382,
                1.645105809241723,
                -0.5965437958925476,
                0.16556893587408827,
                2.2701579901540994
            ]
        },
        {
            "positions": [
                -0.8477524970957988,
                -1.3680404938201134,
                1.7065214815853729,
                -0.6361072769896292,
                0.2168770605678325,
                2.414044403465812
            ]
        },
        {
            "positions": [
                -0.8973528126510406,
                -1.3185853275724888,
                1.7679371539290227,
                -0.6756707580867111,
                0.26818518526157686,
                2.5579308167775245
            ]
        },
        {
            "positions": [
                -0.9469531282062824,
                -1.2691301613248638,
                1.8293528262726726,
                -0.7152342391837928,
                0.3194933099553211,
                2.7018172300892367
            ]
        },
        {
            "positions": [
                -0.9965534437615242,
                -1.2196749950772392,
                1.8907684986163225,
                -0.7547977202808747,
                0.37080143464906545,
                2.8457036434009493
            ]
        },
        {
            "positions": [
                -1.046153759316766,
                -1.1702198288296144,
                1.9521841709599723,
                -0.7943612013779563,
                0.4221095593428097,
                2.989590056712662
            ]
        },
        {
            "positions": [
                -1.0957540748720078,
                -1.1207646625819896,
                2.013599843303622,
                -0.8339246824750381,
                0.473417684036554,
                3.1334764700243745
            ]
        }
    ]
}