{
    "goal": {
        "global_pose": {
            "orientation": {
                "w": -0.00223480608172531,
                "x": 0.0024358444001904467,
                "y": 0.7094548369677653,
                "z": -0.704743149386269
            },
            "position": {
                "x": -0.37947507619857795,
                "y": -0.6371506643295288,
                "z": 0.19426114857196808
            }
        },
        "name": "move_to_magneteinheit_C"
    },
    "id": "BiEST_move_to_magneteinheit_C_3",
    "joint_names": [
        "shoulder_pan_joint",
        "shoulder_lift_joint",
        "elbow_joint",
        "wrist_1_joint",
        "wrist_2_joint",
        "wrist_3_joint"
    ],
    "metrics": {
        "cart_traj_len": 1.840377830522708,
        "distance_elbow_joint": 2.6175596381446233,
        "distance_shoulder_lift_joint": 0.5421642450702417,
        "distance_shoulder_pan_joint": 1.5100916745080768,
        "distance_wrist_1_joint": 3.745254571455029,
        "distance_wrist_2_joint": 2.854661900334886,
        "distance_wrist_3_joint": 4.3728748676120475,
        "smoothness": 0.6142878127830831,
        "time": 0.12198250599999999,
        "traj_len": 3.955073564059827,
        "weighted_distance": 5.566711156880597
    },
    "planner": "BiEST",
    "start": {
        "state": {
            "elbow_joint": 1.9565354010623817,
            "shoulder_lift_joint": -1.4165861575791021,
            "shoulder_pan_joint": -1.6717766225146293,
            "wrist_1_joint": -0.5286633292919765,
            "wrist_2_joint": 1.472756589071564,
            "wrist_3_joint": -3.1238370188695823
        }
    },
    "waypoints": [
        {
            "positions": [
                -1.6717766225146293,
                -1.4165861575791021,
                1.9565354010623817,
                -0.5286633292919765,
                1.472756589071564,
                -3.1238370188695823
            ]
        },
        {
            "positions": [
                -1.64986051249268,
                -1.4314974225868013,
                1.9496864535651426,
                -0.5054746028074957,
                1.469415768084252,
                -3.0519575666204375
            ]
        },
        {
            "positions": [
                -1.6073091817305722,
                -1.4591942487371112,
                1.913022045454981,
                -0.43441534714548763,
                1.4428503661869854,
                -2.8756141605569088
            ]
        },
        {
            "positions": [
                -1.5647578509684643,
                -1.4868910748874211,
                1.876357637344819,
                -0.3633560914834796,
                1.4162849642897188,
                -2.69927075449338
            ]
        },
        {
            "positions": [
                -1.545716961794111,
                -1.4968407767981047,
                1.81441613019443,
                -0.2808200057237234,
                1.3652694760357114,
                -2.5486765887957836
            ]
        },
        {
            "positions": [
                -1.526676072619758,
                -1.5067904787087882,
                1.7524746230440411,
                -0.19828391996396721,
                1.314253987781704,
                -2.398082423098187
            ]
        },
        {
            "positions": [
                -1.5596051606856822,
                -1.49227391830402,
                1.6889119204986058,
                -0.11613619094137428,
                1.2160794948337545,
                -2.3135076558254384
            ]
        },
        {
            "positions": [
                -1.5925342487516063,
                -1.4777573578992516,
                1.6253492179531703,
                -0.033988461918781354,
                1.1179050018858048,
                -2.22893288855269
            ]
        },
        {
            "positions": [
                -1.6254633368175306,
                -1.463240797494483,
                1.5617865154077348,
                0.048159267103811604,
                1.019730508937855,
                -2.144358121279941
            ]
        },
        {
            "positions": [
                -1.658392424883455,
                -1.4487242370897147,
                1.4982238128622996,
                0.1303069961264045,
                0.9215560159899054,
                -2.059783354007193
            ]
        },
        {
            "positions": [
                -1.6913215129493793,
                -1.4342076766849463,
                1.4346611103168643,
                0.21245472514899744,
                0.8233815230419557,
                -1.975208586734444
            ]
        },
        {
            "positions": [
                -1.7242506010153034,
                -1.419691116280178,
                1.3710984077714288,
                0.2946024541715904,
                0.725207030094006,
                -1.8906338194616954
            ]
        },
        {
            "positions": [
                -1.7571796890812277,
                -1.4051745558754094,
                1.3075357052259935,
                0.3767501831941833,
                0.6270325371460564,
                -1.8060590521889468
            ]
        },
        {
            "positions": [
                -1.790108777147152,
                -1.390657995470641,
                1.243973002680558,
                0.4588979122167762,
                0.5288580441981068,
                -1.7214842849161982
            ]
        },
        {
            "positions": [
                -1.823037865213076,
                -1.3761414350658727,
                1.1804103001351227,
                0.5410456412393692,
                0.430683551250157,
                -1.6369095176434496
            ]
        },
        {
            "positions": [
                -1.8559669532790004,
                -1.3616248746611044,
                1.1168475975896872,
                0.6231933702619621,
                0.33250905830220734,
                -1.5523347503707008
            ]
        },
        {
            "positions": [
                -1.8888960413449247,
                -1.3471083142563358,
                1.0532848950442517,
                0.705341099284555,
                0.23433456535425767,
                -1.4677599830979524
            ]
        },
        {
            "positions": [
                -1.9218251294108488,
                -1.3325917538515675,
                0.9897221924988164,
                0.7874888283071481,
                0.1361600724063079,
                -1.3831852158252036
            ]
        },
        {
            "positions": [
                -1.9547542174767731,
                -1.3180751934467991,
                0.9261594899533812,
                0.8696365573297409,
                0.037985579458358565,
                -1.2986104485524552
            ]
        },
        {
            "positions": [
                -1.9876833055426975,
                -1.3035586330420308,
                0.8625967874079458,
                0.9517842863523338,
                -0.06018891348959121,
                -1.2140356812797066
            ]
        },
        {
            "positions": [
                -2.0206123936086215,
                -1.2890420726372622,
                0.7990340848625104,
                1.0339320153749267,
                -0.158363406437541,
                -1.1294609140069578
            ]
        },
        {
            "positions": [
                -2.053541481674546,
                -1.2745255122324939,
                0.7354713823170751,
                1.1160797443975197,
                -0.25653789938549054,
                -1.0448861467342092
            ]
        },
        {
            "positions": [
                -2.08647056974047,
                -1.2600089518277255,
                0.6719086797716395,
                1.1982274734201126,
                -0.3547123923334404,
                -0.9603113794614606
            ]
        },
        {
            "positions": [
                -2.140320615081024,
                -1.243196957182721,
                0.7338716742441732,
                1.1280471562081815,
                -0.35525907024203085,
                -1.1034301010112886
            ]
        },
        {
            "positions": [
                -2.1941706604215776,
                -1.2263849625377166,
                0.795834668716707,
                1.0578668389962502,
                -0.35580574815062127,
                -1.2465488225611163
            ]
        },
        {
            "positions": [
                -2.2480207057621318,
                -1.2095729678927123,
                0.8577976631892408,
                0.9876865217843191,
                -0.35635242605921175,
                -1.3896675441109443
            ]
        },
        {
            "positions": [
                -2.3018707511026855,
                -1.1927609732477078,
                0.9197606576617746,
                0.9175062045723881,
                -0.35689910396780217,
                -1.5327862656607723
            ]
        },
        {
            "positions": [
                -2.355720796443239,
                -1.1759489786027033,
                0.9817236521343083,
                0.8473258873604569,
                -0.35744578187639264,
                -1.6759049872106
            ]
        },
        {
            "positions": [
                -2.3966004214107595,
                -1.167442588362823,
                1.0557225513195125,
                0.7636954051438387,
                -0.3374562865026839,
                -1.8135313714068233
            ]
        },
        {
            "positions": [
                -2.43748004637828,
                -1.1589361981229427,
                1.1297214505047168,
                0.6800649229272205,
                -0.3174667911289752,
                -1.9511577556030468
            ]
        },
        {
            "positions": [
                -2.4783596713458005,
                -1.1504298078830621,
                1.203720349689921,
                0.5964344407106024,
                -0.29747729575526644,
                -2.0887841397992704
            ]
        },
        {
            "positions": [
                -2.519239296313321,
                -1.1419234176431818,
                1.2777192488751252,
                0.5128039584939842,
                -0.27748780038155774,
                -2.2264105239954937
            ]
        },
        {
            "positions": [
                -2.5601189212808415,
                -1.1334170274033015,
                1.3517181480603293,
                0.429173476277366,
                -0.257498305007849,
                -2.364036908191717
            ]
        },
        {
            "positions": [
                -2.600998546248362,
                -1.124910637163421,
                1.4257170472455336,
                0.34554299406074784,
                -0.23750880963414023,
                -2.5016632923879403
            ]
        },
        {
            "positions": [
                -2.6418781712158825,
                -1.1164042469235407,
                1.499715946430738,
                0.26191251184412967,
                -0.2175193142604315,
                -2.639289676584164
            ]
        },
        {
            "positions": [
                -2.682757796183403,
                -1.1078978566836604,
                1.573714845615942,
                0.1782820296275115,
                -0.19752981888672277,
                -2.7769160607803873
            ]
        },
        {
            "positions": [
                -2.656644121052208,
                -1.1145312694230889,
                1.6276056894921394,
                0.05347973900871898,
                -0.08946187308706535,
                -2.8260091291410125
            ]
        },
        {
            "positions": [
                -2.630530445921013,
                -1.1211646821625174,
                1.6814965333683367,
                -0.07132255161007353,
                0.01860607271259207,
                -2.8751021975016373
            ]
        },
        {
            "positions": [
                -2.604416770789818,
                -1.1277980949019457,
                1.7353873772445338,
                -0.19612484222886606,
                0.12667401851224952,
                -2.924195265862262
            ]
        },
        {
            "positions": [
                -2.5783030956586224,
                -1.1344315076413742,
                1.7892782211207312,
                -0.32092713284765856,
                0.23474196431190691,
                -2.9732883342228873
            ]
        },
        {
            "positions": [
                -2.5521894205274274,
                -1.1410649203808028,
                1.8431690649969286,
                -0.44572942346645106,
                0.3428099101115643,
                -3.0223814025835125
            ]
        },
        {
            "positions": [
                -2.5260757453962324,
                -1.147698333120231,
                1.8970599088731257,
                -0.5705317140852436,
                0.4508778559112218,
                -3.0714744709441373
            ]
        },
        {
            "positions": [
                -2.4999620702650374,
                -1.1543317458596596,
                1.950950752749323,
                -0.6953340047040361,
                0.5589458017108793,
                -3.120567539304762
            ]
        },
        {
            "positions": [
                -2.4738483951338424,
                -1.160965158599088,
                2.0048415966255204,
                -0.8201362953228286,
                0.6670137475105365,
                -3.1696606076653873
            ]
        }
    ]
}