{
    "goal": {
        "global_pose": {
            "orientation": {
                "w": -0.00223480608172531,
                "x": 0.0024358444001904467,
                "y": 0.7094548369677653,
                "z": -0.704743149386269
            },
            "position": {
                "x": -0.37947507619857795,
                "y": -0.6371506643295288,
                "z": 0.19426114857196808
            }
        },
        "name": "move_to_magneteinheit_C"
    },
    "id": "BiEST_move_to_magneteinheit_C_45",
    "joint_names": [
        "shoulder_pan_joint",
        "shoulder_lift_joint",
        "elbow_joint",
        "wrist_1_joint",
        "wrist_2_joint",
        "wrist_3_joint"
    ],
    "metrics": {
        "cart_traj_len": 3.5602981538089007,
        "distance_elbow_joint": 0.3373521004969997,
        "distance_shoulder_lift_joint": 2.5933297805873803,
        "distance_shoulder_pan_joint": 4.354886990211792,
        "distance_wrist_1_joint": 4.065739861193584,
        "distance_wrist_2_joint": 3.410811651519372,
        "distance_wrist_3_joint": 2.7564480846598847,
        "smoothness": 1.1381307449422582,
        "time": 0.366469022,
        "traj_len": 4.185518900765952,
        "weighted_distance": 5.523406209097947
    },
    "planner": "BiEST",
    "start": {
        "state": {
            "elbow_joint": 1.9565354010623817,
            "shoulder_lift_joint": -1.4165861575791021,
            "shoulder_pan_joint": -1.6717766225146293,
            "wrist_1_joint": -0.5286633292919765,
            "wrist_2_joint": 1.472756589071564,
            "wrist_3_joint": -3.1238370188695823
        }
    },
    "waypoints": [
        {
            "positions": [
                -1.6717766225146293,
                -1.4165861575791021,
                1.9565354010623817,
                -0.5286633292919765,
                1.472756589071564,
                -3.1238370188695823
            ]
        },
        {
            "positions": [
                -1.6457589890274735,
                -1.3876190357652671,
                2.047742437324952,
                -0.43143913843728715,
                1.571086589308679,
                -3.1008425673493867
            ]
        },
        {
            "positions": [
                -1.6197413555403175,
                -1.3586519139514321,
                2.1389494735875227,
                -0.33421494758259784,
                1.669416589545794,
                -3.077848115829191
            ]
        },
        {
            "positions": [
                -1.5377254945840066,
                -1.4143937580960995,
                2.139405205390399,
                -0.4155573099758211,
                1.570583360143307,
                -3.0151957453784997
            ]
        },
        {
            "positions": [
                -1.4557096336276958,
                -1.4701356022407668,
                2.139860937193275,
                -0.4968996723690443,
                1.47175013074082,
                -2.952543374927808
            ]
        },
        {
            "positions": [
                -1.373693772671385,
                -1.525877446385434,
                2.1403166689961513,
                -0.5782420347622675,
                1.3729169013383329,
                -2.8898910044771164
            ]
        },
        {
            "positions": [
                -1.2916779117150738,
                -1.5816192905301014,
                2.1407724007990274,
                -0.6595843971554908,
                1.274083671935846,
                -2.8272386340264246
            ]
        },
        {
            "positions": [
                -1.209662050758763,
                -1.6373611346747687,
                2.1412281326019036,
                -0.740926759548714,
                1.175250442533359,
                -2.7645862635757332
            ]
        },
        {
            "positions": [
                -1.1276461898024521,
                -1.693102978819436,
                2.14168386440478,
                -0.8222691219419372,
                1.0764172131308718,
                -2.701933893125042
            ]
        },
        {
            "positions": [
                -1.0456303288461413,
                -1.7488448229641034,
                2.1421395962076564,
                -0.9036114843351605,
                0.977583983728385,
                -2.63928152267435
            ]
        },
        {
            "positions": [
                -0.9636144678898303,
                -1.8045866671087707,
                2.1425953280105325,
                -0.9849538467283837,
                0.878750754325898,
                -2.5766291522236586
            ]
        },
        {
            "positions": [
                -0.8815986069335194,
                -1.8603285112534382,
                2.1430510598134087,
                -1.066296209121607,
                0.7799175249234109,
                -2.513976781772967
            ]
        },
        {
            "positions": [
                -0.7995827459772086,
                -1.9160703553981056,
                2.143506791616285,
                -1.1476385715148303,
                0.681084295520924,
                -2.4513244113222754
            ]
        },
        {
            "positions": [
                -0.7175668850208975,
                -1.9718121995427729,
                2.143962523419161,
                -1.2289809339080535,
                0.5822510661184368,
                -2.388672040871584
            ]
        },
        {
            "positions": [
                -0.6355510240645867,
                -2.02755404368744,
                2.144418255222037,
                -1.3103232963012768,
                0.48341783671594984,
                -2.326019670420892
            ]
        },
        {
            "positions": [
                -0.5535351631082757,
                -2.0832958878321075,
                2.1448739870249134,
                -1.3916656586945,
                0.3845846073134629,
                -2.263367299970201
            ]
        },
        {
            "positions": [
                -0.471519302151965,
                -2.139037731976775,
                2.1453297188277896,
                -1.4730080210877232,
                0.28575137791097593,
                -2.200714929519509
            ]
        },
        {
            "positions": [
                -0.38950344119565394,
                -2.194779576121442,
                2.1457854506306657,
                -1.5543503834809465,
                0.18691814850848876,
                -2.1380625590688176
            ]
        },
        {
            "positions": [
                -0.3074875802393431,
                -2.2505214202661095,
                2.1462411824335423,
                -1.6356927458741697,
                0.08808491910600202,
                -2.075410188618126
            ]
        },
        {
            "positions": [
                -0.22547171928303222,
                -2.306263264410777,
                2.1466969142364185,
                -1.717035108267393,
                -0.010748310296485153,
                -2.0127578181674344
            ]
        },
        {
            "positions": [
                -0.14345585832672136,
                -2.362005108555444,
                2.1471526460392947,
                -1.7983774706606162,
                -0.10958153969897211,
                -1.950105447716743
            ]
        },
        {
            "positions": [
                -0.06143999737041028,
                -2.4177469527001114,
                2.147608377842171,
                -1.8797198330538394,
                -0.20841476910145929,
                -1.8874530772660514
            ]
        },
        {
            "positions": [
                0.020575863585900356,
                -2.4734887968447787,
                2.148064109645047,
                -1.9610621954470626,
                -0.307247998503946,
                -1.8248007068153598
            ]
        },
        {
            "positions": [
                0.10259172454221148,
                -2.529230640989446,
                2.148519841447923,
                -2.042404557840286,
                -0.4060812279064334,
                -1.7621483363646682
            ]
        },
        {
            "positions": [
                -0.02275376729618568,
                -2.4812668957969066,
                2.141815736084657,
                -1.958153952345814,
                -0.3515326024413659,
                -1.8215419321348691
            ]
        },
        {
            "positions": [
                -0.14809925913458283,
                -2.4333031506043667,
                2.135111630721391,
                -1.8739033468513422,
                -0.2969839769762984,
                -1.8809355279050703
            ]
        },
        {
            "positions": [
                -0.27344475097298,
                -2.3853394054118273,
                2.1284075253581243,
                -1.7896527413568701,
                -0.24243535151123088,
                -1.9403291236752713
            ]
        },
        {
            "positions": [
                -0.39879024281137715,
                -2.3373756602192874,
                2.121703419994858,
                -1.7054021358623983,
                -0.18788672604616335,
                -1.9997227194454725
            ]
        },
        {
            "positions": [
                -0.5241357346497744,
                -2.289411915026748,
                2.114999314631592,
                -1.6211515303679265,
                -0.13333810058109585,
                -2.0591163152156735
            ]
        },
        {
            "positions": [
                -0.6494812264881715,
                -2.241448169834208,
                2.108295209268326,
                -1.5369009248734544,
                -0.07878947511602835,
                -2.1185099109858747
            ]
        },
        {
            "positions": [
                -0.7748267183265686,
                -2.1934844246416687,
                2.1015911039050597,
                -1.4526503193789826,
                -0.02424084965096085,
                -2.177903506756076
            ]
        },
        {
            "positions": [
                -0.9001722101649658,
                -2.145520679449129,
                2.094886998541793,
                -1.3683997138845108,
                0.030307775814106708,
                -2.2372971025262767
            ]
        },
        {
            "positions": [
                -1.025517702003363,
                -2.0975569342565894,
                2.088182893178527,
                -1.284149108390039,
                0.08485640127917421,
                -2.296690698296478
            ]
        },
        {
            "positions": [
                -1.1508631938417602,
                -2.0495931890640495,
                2.0814787878152607,
                -1.199898502895567,
                0.1394050267442417,
                -2.356084294066679
            ]
        },
        {
            "positions": [
                -1.2762086856801576,
                -2.00162944387151,
                2.0747746824519946,
                -1.115647897401095,
                0.19395365220930927,
                -2.41547788983688
            ]
        },
        {
            "positions": [
                -1.4015541775185545,
                -1.9536656986789707,
                2.0680705770887284,
                -1.0313972919066232,
                0.24850227767437671,
                -2.474871485607081
            ]
        },
        {
            "positions": [
                -1.5268996693569516,
                -1.9057019534864308,
                2.061366471725462,
                -0.9471466864121514,
                0.30305090313944427,
                -2.5342650813772822
            ]
        },
        {
            "positions": [
                -1.6522451611953486,
                -1.8577382082938914,
                2.0546623663621957,
                -0.8628960809176796,
                0.3575995286045117,
                -2.5936586771474834
            ]
        },
        {
            "positions": [
                -1.777590653033746,
                -1.8097744631013515,
                2.0479582609989295,
                -0.7786454754232075,
                0.4121481540695793,
                -2.6530522729176846
            ]
        },
        {
            "positions": [
                -1.9029361448721431,
                -1.761810717908812,
                2.0412541556356634,
                -0.6943948699287357,
                0.46669677953464683,
                -2.7124458686878854
            ]
        },
        {
            "positions": [
                -2.02828163671054,
                -1.7138469727162724,
                2.034550050272397,
                -0.6101442644342638,
                0.5212454049997143,
                -2.7718394644580866
            ]
        },
        {
            "positions": [
                -2.1536271285489375,
                -1.6658832275237327,
                2.0278459449091306,
                -0.5258936589397918,
                0.5757940304647818,
                -2.8312330602282874
            ]
        },
        {
            "positions": [
                -2.2789726203873344,
                -1.617919482331193,
                2.0211418395458645,
                -0.4416430534453202,
                0.6303426559298493,
                -2.8906266559984886
            ]
        },
        {
            "positions": [
                -2.4043181122257318,
                -1.5699557371386534,
                2.0144377341825983,
                -0.3573924479508482,
                0.6848912813949167,
                -2.9500202517686898
            ]
        },
        {
            "positions": [
                -2.475413172945131,
                -1.4846186516375026,
                2.0054138670839445,
                -0.34986691835477446,
                0.7047367159786656,
                -3.012332745898791
            ]
        },
        {
            "positions": [
                -2.474575257722595,
                -1.377883711447585,
                2.0061677623331042,
                -0.5067216616017765,
                0.6954580860760595,
                -3.06052441010574
            ]
        },
        {
            "positions": [
                -2.4737373425000584,
                -1.2711487712576675,
                2.0069216575822644,
                -0.6635764048487784,
                0.6861794561734533,
                -3.1087160743126896
            ]
        },
        {
            "positions": [
                -2.472899427277522,
                -1.1644138310677499,
                2.007675552831424,
                -0.8204311480957804,
                0.6769008262708472,
                -3.1569077385196387
            ]
        }
    ]
}