{
    "goal": {
        "global_pose": {
            "orientation": {
                "w": 0.7047431493862688,
                "x": -0.7094548369677653,
                "y": 0.0024358444001904,
                "z": -0.0022348060817251984
            },
            "position": {
                "x": -0.39052492380142206,
                "y": 0.3671506643295288,
                "z": 0.19426114857196808
            }
        },
        "name": "move_to_magneteinheit_D"
    },
    "id": "BiEST_move_to_magneteinheit_D_2",
    "joint_names": [
        "shoulder_pan_joint",
        "shoulder_lift_joint",
        "elbow_joint",
        "wrist_1_joint",
        "wrist_2_joint",
        "wrist_3_joint"
    ],
    "metrics": {
        "cart_traj_len": 4.2290755177478045,
        "distance_elbow_joint": 3.357488509425953,
        "distance_shoulder_lift_joint": 1.0945620744547195,
        "distance_shoulder_pan_joint": 3.2697807980151965,
        "distance_wrist_1_joint": 3.2441591101674625,
        "distance_wrist_2_joint": 2.05930475449595,
        "distance_wrist_3_joint": 5.7667850019566345,
        "smoothness": 0.4511938092366901,
        "time": 0.161704086,
        "traj_len": 4.334983304294944,
        "weighted_distance": 5.969012826011735
    },
    "planner": "BiEST",
    "start": {
        "state": {
            "elbow_joint": 0.749534889911806,
            "shoulder_lift_joint": -0.6476975780787326,
            "shoulder_pan_joint": -2.711696901376241,
            "wrist_1_joint": -0.07506478083263063,
            "wrist_2_joint": 0.43296659715538205,
            "wrist_3_joint": -3.14703540197715
        }
    },
    "waypoints": [
        {
            "positions": [
                -2.711696901376241,
                -0.6476975780787326,
                0.749534889911806,
                -0.07506478083263063,
                0.43296659715538205,
                -3.14703540197715
            ]
        },
        {
            "positions": [
                -2.707164940293318,
                -0.6744443054229043,
                0.6783563750227091,
                -0.024333040988543983,
                0.4759689764454269,
                -2.9890691195032257
            ]
        },
        {
            "positions": [
                -2.702632979210395,
                -0.7011910327670761,
                0.6071778601336123,
                0.026398698855542663,
                0.5189713557354717,
                -2.8311028370293014
            ]
        },
        {
            "positions": [
                -2.757674912248285,
                -0.7193310612134921,
                0.6372982290915383,
                0.12755910618641214,
                0.516926360993274,
                -2.6827749614569787
            ]
        },
        {
            "positions": [
                -2.8127168452861753,
                -0.7374710896599082,
                0.6674185980494644,
                0.22871951351728162,
                0.5148813662510764,
                -2.534447085884656
            ]
        },
        {
            "positions": [
                -2.867758778324066,
                -0.7556111181063241,
                0.6975389670073904,
                0.3298799208481511,
                0.5128363715088787,
                -2.386119210312333
            ]
        },
        {
            "positions": [
                -2.922800711361956,
                -0.7737511465527401,
                0.7276593359653164,
                0.4310403281790206,
                0.5107913767666811,
                -2.2377913347400105
            ]
        },
        {
            "positions": [
                -2.8062887400387027,
                -0.8028243184670449,
                0.6001636674394963,
                0.43433040001386514,
                0.5386369509160073,
                -2.152065473246121
            ]
        },
        {
            "positions": [
                -2.6897767687154497,
                -0.8318974903813499,
                0.4726679989136763,
                0.4376204718487096,
                0.5664825250653336,
                -2.066339611752231
            ]
        },
        {
            "positions": [
                -2.5732647973921967,
                -0.8609706622956547,
                0.3451723303878562,
                0.44091054368355415,
                0.5943280992146598,
                -1.9806137502583412
            ]
        },
        {
            "positions": [
                -2.4567528260689433,
                -0.8900438342099596,
                0.21767666186203616,
                0.4442006155183987,
                0.622173673363986,
                -1.8948878887644514
            ]
        },
        {
            "positions": [
                -2.34024085474569,
                -0.9191170061242644,
                0.0901809933362161,
                0.4474906873532432,
                0.6500192475133122,
                -1.8091620272705615
            ]
        },
        {
            "positions": [
                -2.223728883422437,
                -0.9481901780385693,
                -0.03731467518960396,
                0.4507807591880877,
                0.6778648216626385,
                -1.7234361657766717
            ]
        },
        {
            "positions": [
                -2.1072169120991835,
                -0.9772633499528741,
                -0.16481034371542402,
                0.4540708310229322,
                0.7057103958119647,
                -1.6377103042827819
            ]
        },
        {
            "positions": [
                -1.9907049407759305,
                -1.006336521867179,
                -0.2923060122412441,
                0.45736090285777675,
                0.733555969961291,
                -1.5519844427888922
            ]
        },
        {
            "positions": [
                -1.874192969452677,
                -1.0354096937814838,
                -0.41980168076706426,
                0.4606509746926213,
                0.7614015441106172,
                -1.4662585812950022
            ]
        },
        {
            "positions": [
                -1.7576809981294241,
                -1.0644828656957888,
                -0.5472973492928842,
                0.46394104652746576,
                0.7892471182599434,
                -1.3805327198011126
            ]
        },
        {
            "positions": [
                -1.6411690268061707,
                -1.0935560376100937,
                -0.6747930178187042,
                0.4672311183623103,
                0.8170926924092696,
                -1.2948068583072228
            ]
        },
        {
            "positions": [
                -1.5246570554829177,
                -1.1226292095243984,
                -0.8022886863445243,
                0.4705211901971548,
                0.8449382665585958,
                -1.209080996813333
            ]
        },
        {
            "positions": [
                -1.4081450841596646,
                -1.1517023814387033,
                -0.9297843548703443,
                0.4738112620319993,
                0.872783840707922,
                -1.1233551353194433
            ]
        },
        {
            "positions": [
                -1.2916331128364111,
                -1.1807755533530082,
                -1.0572800233961646,
                0.47710133386684384,
                0.9006294148572485,
                -1.0376292738255533
            ]
        },
        {
            "positions": [
                -1.175121141513158,
                -1.209848725267313,
                -1.1847756919219843,
                0.48039140570168837,
                0.9284749890065747,
                -0.9519034123316636
            ]
        },
        {
            "positions": [
                -1.058609170189905,
                -1.2389218971816178,
                -1.3122713604478045,
                0.4836814775365329,
                0.9563205631559009,
                -0.8661775508377738
            ]
        },
        {
            "positions": [
                -0.9420971988666518,
                -1.2679950690959227,
                -1.4397670289736242,
                0.48697154937137743,
                0.9841661373052271,
                -0.780451689343884
            ]
        },
        {
            "positions": [
                -0.8255852275433981,
                -1.2970682410102277,
                -1.5672626974994448,
                0.4902616212062219,
                1.0120117114545533,
                -0.6947258278499941
            ]
        },
        {
            "positions": [
                -0.7090732562201452,
                -1.3261414129245324,
                -1.6947583660252645,
                0.49355169304106644,
                1.0398572856038797,
                -0.6089999663561043
            ]
        },
        {
            "positions": [
                -0.5925612848968922,
                -1.3552145848388373,
                -1.8222540345510847,
                0.496841764875911,
                1.0677028597532057,
                -0.5232741048622147
            ]
        },
        {
            "positions": [
                -0.4760493135736388,
                -1.384287756753142,
                -1.9497497030769044,
                0.5001318367107555,
                1.095548433902532,
                -0.4375482433683249
            ]
        },
        {
            "positions": [
                -0.35953734225038536,
                -1.413360928667447,
                -2.0772453716027246,
                0.5034219085456,
                1.1233940080518583,
                -0.35182238187443504
            ]
        },
        {
            "positions": [
                -0.24302537092713228,
                -1.4424341005817518,
                -2.2047410401285448,
                0.5067119803804445,
                1.1512395822011845,
                -0.2660965203805452
            ]
        },
        {
            "positions": [
                -0.22694617015804294,
                -1.4549387003201142,
                -2.2122617418843613,
                0.38069649102115216,
                1.0879088789425417,
                -0.4112134494368226
            ]
        },
        {
            "positions": [
                -0.2108669693889536,
                -1.4674433000584763,
                -2.219782443640178,
                0.2546810016618598,
                1.024578175683899,
                -0.5563303784931
            ]
        },
        {
            "positions": [
                -0.19478776861986427,
                -1.4799478997968387,
                -2.2273031453959944,
                0.1286655123025674,
                0.9612474724252563,
                -0.7014473075493773
            ]
        },
        {
            "positions": [
                -0.17870856785077494,
                -1.4924524995352009,
                -2.2348238471518114,
                0.002650022943275099,
                0.8979167691666136,
                -0.8465642366056547
            ]
        },
        {
            "positions": [
                -0.1626293670816856,
                -1.5049570992735632,
                -2.242344548907628,
                -0.12336546641601731,
                0.8345860659079709,
                -0.9916811656619321
            ]
        },
        {
            "positions": [
                -0.14655016631259626,
                -1.5174616990119254,
                -2.2498652506634444,
                -0.24938095577530972,
                0.7712553626493281,
                -1.1367980947182095
            ]
        },
        {
            "positions": [
                -0.13047096554350693,
                -1.5299662987502878,
                -2.257385952419261,
                -0.3753964451346019,
                0.7079246593906854,
                -1.2819150237744867
            ]
        },
        {
            "positions": [
                -0.11439176477441759,
                -1.54247089848865,
                -2.2649066541750775,
                -0.5014119344938943,
                0.6445939561320426,
                -1.4270319528307642
            ]
        },
        {
            "positions": [
                -0.09831256400532826,
                -1.5549754982270123,
                -2.272427355930894,
                -0.6274274238531867,
                0.5812632528734,
                -1.5721488818870415
            ]
        },
        {
            "positions": [
                -0.08223336323623892,
                -1.5674800979653745,
                -2.279948057686711,
                -0.7534429132124791,
                0.5179325496147572,
                -1.717265810943319
            ]
        },
        {
            "positions": [
                -0.06615416246714959,
                -1.5799846977037368,
                -2.2874687594425276,
                -0.8794584025717713,
                0.45460184635611445,
                -1.8623827399995962
            ]
        },
        {
            "positions": [
                -0.05007496169806025,
                -1.592489297442099,
                -2.294989461198344,
                -1.005473891931064,
                0.3912711430974717,
                -2.007499669055874
            ]
        },
        {
            "positions": [
                -0.033995760928970914,
                -1.6049938971804614,
                -2.3025101629541607,
                -1.1314893812903561,
                0.32794043983882903,
                -2.152616598112151
            ]
        },
        {
            "positions": [
                -0.052963785087071336,
                -1.6221521165995851,
                -2.310570226066233,
                -1.2595120047008044,
                0.2652688561950527,
                -2.2775323534407046
            ]
        },
        {
            "positions": [
                -0.07193180924517176,
                -1.6393103360187091,
                -2.318630289178305,
                -1.3875346281112526,
                0.20259727255127633,
                -2.402448108769258
            ]
        },
        {
            "positions": [
                -0.09089983340327219,
                -1.656468555437833,
                -2.3266903522903775,
                -1.515557251521701,
                0.13992568890749996,
                -2.5273638640978113
            ]
        },
        {
            "positions": [
                -0.10986785756137261,
                -1.6736267748569569,
                -2.33475041540245,
                -1.6435798749321493,
                0.07725410526372362,
                -2.652279619426365
            ]
        },
        {
            "positions": [
                -0.12883588171947302,
                -1.6907849942760806,
                -2.342810478514522,
                -1.7716024983425975,
                0.014582521619947275,
                -2.7771953747549185
            ]
        },
        {
            "positions": [
                -0.14780390587757347,
                -1.7079432136952044,
                -2.3508705416265943,
                -1.8996251217530458,
                -0.04808906202382912,
                -2.9021111300834717
            ]
        },
        {
            "positions": [
                -0.1667719300356739,
                -1.7251014331143284,
                -2.3589306047386662,
                -2.027647745163494,
                -0.11076064566760546,
                -3.0270268854120252
            ]
        },
        {
            "positions": [
                -0.18573995419377431,
                -1.7422596525334522,
                -2.3669906678507386,
                -2.1556703685739422,
                -0.17343222931138183,
                -3.151942640740579
            ]
        }
    ]
}