{
    "goal": {
        "global_pose": {
            "orientation": {
                "w": 0.5084816217422485,
                "x": -0.49083608388900757,
                "y": 0.5182115435600281,
                "z": -0.4816462993621826
            },
            "position": {
                "x": 0.5540239810943604,
                "y": 0.030875300988554955,
                "z": 0.16403168439865112
            }
        },
        "name": "move_to_storage_A"
    },
    "id": "BiEST_move_to_storage_A_21",
    "joint_names": [
        "shoulder_pan_joint",
        "shoulder_lift_joint",
        "elbow_joint",
        "wrist_1_joint",
        "wrist_2_joint",
        "wrist_3_joint"
    ],
    "metrics": {
        "cart_traj_len": 0.3537397695018072,
        "distance_elbow_joint": 0.45363504198100224,
        "distance_shoulder_lift_joint": 0.2352988057060843,
        "distance_shoulder_pan_joint": 0.46116274201849344,
        "distance_wrist_1_joint": 0.25656014248452685,
        "distance_wrist_2_joint": 1.1069619714651935,
        "distance_wrist_3_joint": 0.10167702622924368,
        "smoothness": 8.881784232165597e-16,
        "time": 0.057604869,
        "traj_len": 1.6171875988531894,
        "weighted_distance": 2.045035915648611
    },
    "planner": "BiEST",
    "start": {
        "state": {
            "elbow_joint": 1.971548259319323,
            "shoulder_lift_joint": -1.1394851275133948,
            "shoulder_pan_joint": 0.1228115487234821,
            "wrist_1_joint": -0.7804723859257726,
            "wrist_2_joint": 0.12958671773740124,
            "wrist_3_joint": -3.192489227718131
        }
    },
    "waypoints": [
        {
            "positions": [
                0.1228115487234821,
                -1.1394851275133948,
                1.971548259319323,
                -0.7804723859257726,
                0.12958671773740124,
                -3.192489227718131
            ]
        },
        {
            "positions": [
                0.056931157006554475,
                -1.173099242614264,
                2.036353265316609,
                -0.8171238348521336,
                0.28772414223242887,
                -3.1779639382568106
            ]
        },
        {
            "positions": [
                -0.00894923471037315,
                -1.2067133577151332,
                2.101158271313895,
                -0.8537752837784945,
                0.44586156672745647,
                -3.16343864879549
            ]
        },
        {
            "positions": [
                -0.07482962642730079,
                -1.2403274728160023,
                2.165963277311181,
                -0.8904267327048555,
                0.6039989912224841,
                -3.1489133593341694
            ]
        },
        {
            "positions": [
                -0.1407100181442284,
                -1.2739415879168716,
                2.230768283308467,
                -0.9270781816312166,
                0.7621364157175118,
                -3.1343880698728492
            ]
        },
        {
            "positions": [
                -0.20659040986115607,
                -1.3075557030177407,
                2.295573289305753,
                -0.9637296305575775,
                0.9202738402125394,
                -3.1198627804115286
            ]
        },
        {
            "positions": [
                -0.2724708015780837,
                -1.34116981811861,
                2.360378295303039,
                -1.0003810794839385,
                1.078411264707567,
                -3.105337490950208
            ]
        },
        {
            "positions": [
                -0.33835119329501134,
                -1.3747839332194791,
                2.4251833013003252,
                -1.0370325284102995,
                1.2365486892025948,
                -3.0908122014888875
            ]
        }
    ]
}{
    "goal": {
        "global_pose": {
            "orientation": {
                "w": 0.5084816217422485,
                "x": -0.49083608388900757,
                "y": 0.5182115435600281,
                "z": -0.4816462993621826
            },
            "position": {
                "x": 0.5540239810943604,
                "y": 0.030875300988554955,
                "z": 0.16403168439865112
            }
        },
        "name": "move_to_storage_A"
    },
    "id": "BiEST_move_to_storage_A_21",
    "joint_names": [
        "shoulder_pan_joint",
        "shoulder_lift_joint",
        "elbow_joint",
        "wrist_1_joint",
        "wrist_2_joint",
        "wrist_3_joint"
    ],
    "metrics": {
        "cart_traj_len": 0.35294561474525876,
        "distance_elbow_joint": 0.45079705446054774,
        "distance_shoulder_lift_joint": 0.23329712475877384,
        "distance_shoulder_pan_joint": 0.4592482671898573,
        "distance_wrist_1_joint": 0.25351764757248274,
        "distance_wrist_2_joint": 1.1074004528462043,
        "distance_wrist_3_joint": 0.0987744717910104,
        "smoothness": 2.2204460668324854e-16,
        "time": 0.056913575,
        "traj_len": 1.6133923944964152,
        "weighted_distance": 2.039975995598866
    },
    "planner": "BiEST",
    "start": {
        "state": {
            "elbow_joint": 1.97154746011099,
            "shoulder_lift_joint": -1.13948474672311,
            "shoulder_pan_joint": 0.12281154466712228,
            "wrist_1_joint": -0.7804688027058302,
            "wrist_2_joint": 0.12958655903071145,
            "wrist_3_joint": 3.0906928834467795
        }
    },
    "waypoints": [
        {
            "positions": [
                0.12281154466712228,
                -1.13948474672311,
                1.97154746011099,
                -0.7804688027058302,
                0.12958655903071145,
                3.0906928834467795
            ]
        },
        {
            "positions": [
                0.05720464935428553,
                -1.1728129074029348,
                2.0359470393196397,
                -0.8166856095018992,
                0.2877866237230263,
                3.1048035222740666
            ]
        },
        {
            "positions": [
                -0.008402245958551227,
                -1.2061410680827596,
                2.100346618528289,
                -0.8529024162979681,
                0.44598668841534117,
                3.1189141611013538
            ]
        },
        {
            "positions": [
                -0.07400914127138798,
                -1.2394692287625844,
                2.164746197736939,
                -0.889119223094037,
                0.6041867531076561,
                3.133024799928641
            ]
        },
        {
            "positions": [
                -0.13961603658422472,
                -1.2727973894424092,
                2.2291457769455887,
                -0.925336029890106,
                0.762386817799971,
                3.1471354387559285
            ]
        },
        {
            "positions": [
                -0.20522293189706148,
                -1.3061255501222342,
                2.2935453561542385,
                -0.961552836686175,
                0.9205868824922859,
                3.1612460775832156
            ]
        },
        {
            "positions": [
                -0.27082982720989823,
                -1.339453710802059,
                2.357944935362888,
                -0.997769643482244,
                1.0787869471846008,
                3.1753567164105028
            ]
        },
        {
            "positions": [
                -0.336436722522735,
                -1.3727818714818838,
                2.4223445145715377,
                -1.033986450278313,
                1.2369870118769157,
                3.18946735523779
            ]
        }
    ]
}{
    "goal": {
        "global_pose": {
            "orientation": {
                "w": 0.5084816217422485,
                "x": -0.49083608388900757,
                "y": 0.5182115435600281,
                "z": -0.4816462993621826
            },
            "position": {
                "x": 0.5540239810943604,
                "y": 0.030875300988554955,
                "z": 0.16403168439865112
            }
        },
        "name": "move_to_storage_A"
    },
    "id": "BiEST_move_to_storage_A_21",
    "joint_names": [
        "shoulder_pan_joint",
        "shoulder_lift_joint",
        "elbow_joint",
        "wrist_1_joint",
        "wrist_2_joint",
        "wrist_3_joint"
    ],
    "metrics": {
        "cart_traj_len": 0.35335604862757947,
        "distance_elbow_joint": 0.4500296213020296,
        "distance_shoulder_lift_joint": 0.23544447049083028,
        "distance_shoulder_pan_joint": 0.4643251011735935,
        "distance_wrist_1_joint": 0.24230685257814888,
        "distance_wrist_2_joint": 1.0899946054650715,
        "distance_wrist_3_joint": 0.09038937629700294,
        "smoothness": 4.440892098500626e-16,
        "time": 0.038300322,
        "traj_len": 1.6038983843456782,
        "weighted_distance": 2.0212793567302625
    },
    "planner": "BiEST",
    "start": {
        "state": {
            "elbow_joint": 1.9715472970024885,
            "shoulder_lift_joint": -1.1394870060712896,
            "shoulder_pan_joint": 0.12281152778156021,
            "wrist_1_joint": -0.780463741449964,
            "wrist_2_joint": 0.12958659822042276,
            "wrist_3_joint": 3.090690232415272
        }
    },
    "waypoints": [
        {
            "positions": [
                0.12281152778156021,
                -1.1394870060712896,
                1.9715472970024885,
                -0.780463741449964,
                0.12958659822042276,
                3.090690232415272
            ]
        },
        {
            "positions": [
                0.056479370471046855,
                -1.1731219304271225,
                2.0358372429027787,
                -0.8150790061039853,
                0.28530011328686156,
                3.1036030004577007
            ]
        },
        {
            "positions": [
                -0.009852786839466499,
                -1.2067568547829555,
                2.1001271888030684,
                -0.8496942707580065,
                0.4410136283533004,
                3.11651576850013
            ]
        },
        {
            "positions": [
                -0.07618494414997984,
                -1.2403917791387884,
                2.1644171347033585,
                -0.8843095354120278,
                0.5967271434197391,
                3.1294285365425587
            ]
        },
        {
            "positions": [
                -0.1425171014604932,
                -1.274026703494621,
                2.228707080603648,
                -0.918924800066049,
                0.7524406584861779,
                3.142341304584988
            ]
        },
        {
            "positions": [
                -0.2088492587710066,
                -1.307661627850454,
                2.2929970265039383,
                -0.9535400647200704,
                0.9081541735526167,
                3.1552540726274168
            ]
        },
        {
            "positions": [
                -0.2751814160815199,
                -1.341296552206287,
                2.357286972404228,
                -0.9881553293740916,
                1.0638676886190555,
                3.168166840669846
            ]
        },
        {
            "positions": [
                -0.34151357339203325,
                -1.37493147656212,
                2.421576918304518,
                -1.0227705940281129,
                1.2195812036854943,
                3.181079608712275
            ]
        }
    ]
}