{
    "goal": {
        "global_pose": {
            "orientation": {
                "w": 0.005598929693374612,
                "x": 0.007748599140229565,
                "y": 0.7110244013736278,
                "z": -0.7031023480610252
            },
            "position": {
                "x": 0.1141497679147869,
                "y": -0.7141253447532654,
                "z": 0.3711530566215515
            }
        },
        "name": "move_to_auspresseinheit_B"
    },
    "id": "BiEST_move_to_auspresseinheit_B_115",
    "joint_names": [
        "shoulder_pan_joint",
        "shoulder_lift_joint",
        "elbow_joint",
        "wrist_1_joint",
        "wrist_2_joint",
        "wrist_3_joint"
    ],
    "metrics": {
        "cart_traj_len": 0.5644614301671016,
        "distance_elbow_joint": 0.06515956841791337,
        "distance_shoulder_lift_joint": 0.29407382338074006,
        "distance_shoulder_pan_joint": 0.5763916938232045,
        "distance_wrist_1_joint": 0.332412495518294,
        "distance_wrist_2_joint": 0.9915499014655396,
        "distance_wrist_3_joint": 0.006265701771547505,
        "smoothness": 7.612957903237841e-16,
        "time": 0.052887795,
        "traj_len": 1.5052751191650113,
        "weighted_distance": 1.897984980157685
    },
    "planner": "BiEST",
    "start": {
        "state": {
            "elbow_joint": 2.0193083361928714,
            "shoulder_lift_joint": -1.1220246554650708,
            "shoulder_pan_joint": -1.0952077554168747,
            "wrist_1_joint": -0.8559753972642168,
            "wrist_2_joint": 0.4759566250798843,
            "wrist_3_joint": -3.1240929996934557
        }
    },
    "waypoints": [
        {
            "positions": [
                -1.0952077554168747,
                -1.1220246554650708,
                2.0193083361928714,
                -0.8559753972642168,
                0.4759566250798843,
                -3.1240929996934557
            ]
        },
        {
            "positions": [
                -1.1912730377207421,
                -1.1710369593618608,
                2.0084484081232192,
                -0.8005733146778344,
                0.6412149419908075,
                -3.1230487160648646
            ]
        },
        {
            "positions": [
                -1.2873383200246096,
                -1.2200492632586508,
                1.997588480053567,
                -0.7451712320914521,
                0.8064732589017307,
                -3.122004432436273
            ]
        },
        {
            "positions": [
                -1.3834036023284768,
                -1.2690615671554408,
                1.9867285519839148,
                -0.6897691495050697,
                0.9717315758126541,
                -3.120960148807682
            ]
        },
        {
            "positions": [
                -1.4794688846323443,
                -1.3180738710522308,
                1.9758686239142624,
                -0.6343670669186875,
                1.1369898927235773,
                -3.119915865179091
            ]
        },
        {
            "positions": [
                -1.5755341669362117,
                -1.3670861749490208,
                1.9650086958446102,
                -0.578964984332305,
                1.3022482096345007,
                -3.1188715815504993
            ]
        },
        {
            "positions": [
                -1.6715994492400792,
                -1.4160984788458109,
                1.954148767774958,
                -0.5235629017459228,
                1.467506526545424,
                -3.117827297921908
            ]
        }
    ]
}