{
    "goal": {
        "global_pose": {
            "orientation": {
                "w": 0.7047431493862688,
                "x": -0.7094548369677653,
                "y": 0.0024358444001904,
                "z": -0.0022348060817251984
            },
            "position": {
                "x": -0.39052492380142206,
                "y": 0.3671506643295288,
                "z": 0.19426114857196808
            }
        },
        "name": "move_to_magneteinheit_D"
    },
    "id": "BiEST_move_to_magneteinheit_D_33",
    "joint_names": [
        "shoulder_pan_joint",
        "shoulder_lift_joint",
        "elbow_joint",
        "wrist_1_joint",
        "wrist_2_joint",
        "wrist_3_joint"
    ],
    "metrics": {
        "cart_traj_len": 5.038445047760998,
        "distance_elbow_joint": 3.15902628712731,
        "distance_shoulder_lift_joint": 1.5636222878648787,
        "distance_shoulder_pan_joint": 3.5964181356066334,
        "distance_wrist_1_joint": 2.90312235463896,
        "distance_wrist_2_joint": 0.6202928377358465,
        "distance_wrist_3_joint": 6.270613964043465,
        "smoothness": 0.3491254613133758,
        "time": 0.130907909,
        "traj_len": 4.255948292333578,
        "weighted_distance": 5.846173020658799
    },
    "planner": "BiEST",
    "start": {
        "state": {
            "elbow_joint": 0.749534889911806,
            "shoulder_lift_joint": -0.6476975780787326,
            "shoulder_pan_joint": -2.711696901376241,
            "wrist_1_joint": -0.07506478083263063,
            "wrist_2_joint": 0.43296659715538205,
            "wrist_3_joint": -3.14703540197715
        }
    },
    "waypoints": [
        {
            "positions": [
                -2.711696901376241,
                -0.6476975780787326,
                0.749534889911806,
                -0.07506478083263063,
                0.43296659715538205,
                -3.14703540197715
            ]
        },
        {
            "positions": [
                -2.732075256097342,
                -0.715952235926768,
                0.759628428976619,
                0.05753411210950904,
                0.41492278262499205,
                -3.082741177934544
            ]
        },
        {
            "positions": [
                -2.752453610818443,
                -0.7842068937748035,
                0.769721968041432,
                0.19013300505164868,
                0.396878968094602,
                -3.0184469538919374
            ]
        },
        {
            "positions": [
                -2.752002503469035,
                -0.8363488875256053,
                0.7642781786500685,
                0.2625330922453159,
                0.3695722123426279,
                -2.9373357271801335
            ]
        },
        {
            "positions": [
                -2.751551396119627,
                -0.8884908812764072,
                0.7588343892587051,
                0.3349331794389831,
                0.34226545659065377,
                -2.8562245004683295
            ]
        },
        {
            "positions": [
                -2.673088246058922,
                -0.9163814769671854,
                0.6977068144401958,
                0.27269252036270886,
                0.33477108024691454,
                -2.7054662960104894
            ]
        },
        {
            "positions": [
                -2.594625095998217,
                -0.9442720726579636,
                0.6365792396216864,
                0.21045186128643467,
                0.32727670390317537,
                -2.5547080915526488
            ]
        },
        {
            "positions": [
                -2.516161945937512,
                -0.9721626683487419,
                0.5754516648031771,
                0.14821120221016043,
                0.31978232755943614,
                -2.4039498870948086
            ]
        },
        {
            "positions": [
                -2.4376987958768077,
                -1.00005326403952,
                0.5143240899846677,
                0.08597054313388622,
                0.3122879512156969,
                -2.2531916826369685
            ]
        },
        {
            "positions": [
                -2.359235645816103,
                -1.0279438597302983,
                0.45319651516615844,
                0.023729884057612005,
                0.3047935748719577,
                -2.1024334781791283
            ]
        },
        {
            "positions": [
                -2.280772495755398,
                -1.0558344554210766,
                0.39206894034764905,
                -0.038510775018662236,
                0.2972991985282185,
                -1.951675273721288
            ]
        },
        {
            "positions": [
                -2.202309345694693,
                -1.0837250511118548,
                0.3309413655291398,
                -0.10075143409493648,
                0.2898048221844793,
                -1.8009170692634477
            ]
        },
        {
            "positions": [
                -2.123846195633988,
                -1.111615646802633,
                0.26981379071063044,
                -0.16299209317121066,
                0.28231044584074005,
                -1.6501588648056074
            ]
        },
        {
            "positions": [
                -2.045383045573283,
                -1.1395062424934113,
                0.2086862158921211,
                -0.2252327522474849,
                0.2748160694970009,
                -1.4994006603477672
            ]
        },
        {
            "positions": [
                -1.9669198955125786,
                -1.1673968381841895,
                0.14755864107361183,
                -0.2874734113237591,
                0.26732169315326165,
                -1.348642455889927
            ]
        },
        {
            "positions": [
                -1.8884567454518737,
                -1.1952874338749677,
                0.08643106625510244,
                -0.3497140704000334,
                0.2598273168095224,
                -1.1978842514320867
            ]
        },
        {
            "positions": [
                -1.8099935953911688,
                -1.223178029565746,
                0.02530349143659305,
                -0.41195472947630757,
                0.2523329404657832,
                -1.0471260469742463
            ]
        },
        {
            "positions": [
                -1.7315304453304639,
                -1.251068625256524,
                -0.035824083381916116,
                -0.47419538855258175,
                0.24483856412204402,
                -0.8963678425164061
            ]
        },
        {
            "positions": [
                -1.653067295269759,
                -1.2789592209473024,
                -0.0969516582004255,
                -0.5364360476288561,
                0.2373441877783048,
                -0.745609638058566
            ]
        },
        {
            "positions": [
                -1.574604145209054,
                -1.3068498166380806,
                -0.1580792330189349,
                -0.5986767067051302,
                0.22984981143456557,
                -0.5948514336007253
            ]
        },
        {
            "positions": [
                -1.4961409951483493,
                -1.3347404123288586,
                -0.21920680783744417,
                -0.6609173657814045,
                0.22235543509082636,
                -0.4440932291428852
            ]
        },
        {
            "positions": [
                -1.4176778450876444,
                -1.3626310080196369,
                -0.28033438265595345,
                -0.7231580248576785,
                0.21486105874708716,
                -0.293335024685045
            ]
        },
        {
            "positions": [
                -1.3392146950269395,
                -1.390521603710415,
                -0.34146195747446284,
                -0.7853986839339528,
                0.20736668240334794,
                -0.14257682022720486
            ]
        },
        {
            "positions": [
                -1.2607515449662348,
                -1.4184121994011933,
                -0.40258953229297223,
                -0.8476393430102271,
                0.19987230605960873,
                0.008181384230635302
            ]
        },
        {
            "positions": [
                -1.18228839490553,
                -1.4463027950919716,
                -0.4637171071114814,
                -0.9098800020865012,
                0.19237792971586953,
                0.15893958868847546
            ]
        },
        {
            "positions": [
                -1.1038252448448251,
                -1.4741933907827498,
                -0.5248446819299908,
                -0.9721206611627755,
                0.1848835533721303,
                0.30969779314631607
            ]
        },
        {
            "positions": [
                -1.0253620947841202,
                -1.502083986473528,
                -0.5859722567485002,
                -1.0343613202390498,
                0.17738917702839108,
                0.46045599760415623
            ]
        },
        {
            "positions": [
                -0.9468989447234153,
                -1.5299745821643063,
                -0.6470998315670096,
                -1.0966019793153239,
                0.16989480068465188,
                0.6112142020619964
            ]
        },
        {
            "positions": [
                -0.8684357946627104,
                -1.5578651778550845,
                -0.708227406385519,
                -1.1588426383915982,
                0.16240042434091265,
                0.761972406519837
            ]
        },
        {
            "positions": [
                -0.7899726446020054,
                -1.5857557735458627,
                -0.7693549812040283,
                -1.2210832974678725,
                0.15490604799717345,
                0.9127306109776772
            ]
        },
        {
            "positions": [
                -0.7115094945413007,
                -1.613646369236641,
                -0.8304825560225373,
                -1.2833239565441465,
                0.14741167165343425,
                1.0634888154355173
            ]
        },
        {
            "positions": [
                -0.6330463444805958,
                -1.6415369649274192,
                -0.8916101308410467,
                -1.3455646156204208,
                0.13991729530969502,
                1.214247019893358
            ]
        },
        {
            "positions": [
                -0.5545831944198909,
                -1.6694275606181974,
                -0.9527377056595561,
                -1.4078052746966951,
                0.13242291896595582,
                1.3650052243511976
            ]
        },
        {
            "positions": [
                -0.476120044359186,
                -1.6973181563089756,
                -1.0138652804780655,
                -1.4700459337729694,
                0.12492854262221659,
                1.5157634288090382
            ]
        },
        {
            "positions": [
                -0.39765689429848106,
                -1.7252087519997539,
                -1.0749928552965748,
                -1.5322865928492435,
                0.11743416627847736,
                1.6665216332668789
            ]
        },
        {
            "positions": [
                -0.3191937442377766,
                -1.753099347690532,
                -1.136120430115084,
                -1.5945272519255176,
                0.10993978993473819,
                1.8172798377247186
            ]
        },
        {
            "positions": [
                -0.24073059417707166,
                -1.7809899433813103,
                -1.1972480049335934,
                -1.6567679110017919,
                0.10244541359099896,
                1.9680380421825592
            ]
        },
        {
            "positions": [
                -0.16226744411636673,
                -1.8088805390720886,
                -1.2583755797521028,
                -1.7190085700780662,
                0.09495103724725976,
                2.118796246640399
            ]
        },
        {
            "positions": [
                -0.08380429405566181,
                -1.8367711347628668,
                -1.319503154570612,
                -1.7812492291543403,
                0.08745666090352056,
                2.2695544510982395
            ]
        },
        {
            "positions": [
                -0.005341143994956887,
                -1.864661730453645,
                -1.3806307293891216,
                -1.8434898882306148,
                0.07996228455978133,
                2.42031265555608
            ]
        },
        {
            "positions": [
                0.07312200606574804,
                -1.8925523261444233,
                -1.4417583042076307,
                -1.9057305473068888,
                0.0724679082160421,
                2.57107086001392
            ]
        },
        {
            "positions": [
                0.1515851561264525,
                -1.9204429218352015,
                -1.50288587902614,
                -1.967971206383163,
                0.06497353187230293,
                2.7218290644717604
            ]
        },
        {
            "positions": [
                0.23004830618715744,
                -1.9483335175259797,
                -1.5640134538446495,
                -2.0302118654594374,
                0.0574791555285637,
                2.8725872689296
            ]
        },
        {
            "positions": [
                0.30851145624786247,
                -1.976224113216758,
                -1.625141028663159,
                -2.0924525245357115,
                0.04998477918482447,
                3.0233454733874408
            ]
        },
        {
            "positions": [
                0.20957218442823713,
                -1.9292049626713872,
                -1.7739362711217774,
                -2.105600262614242,
                0.0025225752317666675,
                3.0433920911232155
            ]
        },
        {
            "positions": [
                0.1106329126086118,
                -1.8821858121260167,
                -1.9227315135803962,
                -2.1187480006927717,
                -0.04493962872129113,
                3.0634387088589903
            ]
        },
        {
            "positions": [
                0.011693640788986492,
                -1.835166661580646,
                -2.071526756039015,
                -2.131895738771302,
                -0.09240183267434893,
                3.0834853265947655
            ]
        },
        {
            "positions": [
                -0.08724563103063887,
                -1.7881475110352754,
                -2.2203219984976332,
                -2.145043476849832,
                -0.13986403662740673,
                3.1035319443305402
            ]
        },
        {
            "positions": [
                -0.18618490285026418,
                -1.7411283604899046,
                -2.369117240956252,
                -2.158191214928362,
                -0.18732624058046451,
                3.123578562066315
            ]
        }
    ]
}