{
    "goal": {
        "global_pose": {
            "orientation": {
                "w": -0.00223480608172531,
                "x": 0.0024358444001904467,
                "y": 0.7094548369677653,
                "z": -0.704743149386269
            },
            "position": {
                "x": -0.37947507619857795,
                "y": -0.6371506643295288,
                "z": 0.19426114857196808
            }
        },
        "name": "move_to_magneteinheit_C"
    },
    "id": "BiEST_move_to_magneteinheit_C_8",
    "joint_names": [
        "shoulder_pan_joint",
        "shoulder_lift_joint",
        "elbow_joint",
        "wrist_1_joint",
        "wrist_2_joint",
        "wrist_3_joint"
    ],
    "metrics": {
        "cart_traj_len": 1.048992290433414,
        "distance_elbow_joint": 0.1621969576754263,
        "distance_shoulder_lift_joint": 0.7073702587024071,
        "distance_shoulder_pan_joint": 0.8007383164066606,
        "distance_wrist_1_joint": 5.030177313940818,
        "distance_wrist_2_joint": 0.7869847268719263,
        "distance_wrist_3_joint": 3.304395676229776,
        "smoothness": 1.0109719235809573,
        "time": 0.115480218,
        "traj_len": 3.2850971446560013,
        "weighted_distance": 4.8184869661647225
    },
    "planner": "BiEST",
    "start": {
        "state": {
            "elbow_joint": 1.9565354010623817,
            "shoulder_lift_joint": -1.4165861575791021,
            "shoulder_pan_joint": -1.6717766225146293,
            "wrist_1_joint": -0.5286633292919765,
            "wrist_2_joint": 1.472756589071564,
            "wrist_3_joint": -3.1238370188695823
        }
    },
    "waypoints": [
        {
            "positions": [
                -1.6717766225146293,
                -1.4165861575791021,
                1.9565354010623817,
                -0.5286633292919765,
                1.472756589071564,
                -3.1238370188695823
            ]
        },
        {
            "positions": [
                -1.707732453670805,
                -1.4328273837619545,
                1.9642569107470191,
                -0.3595994308782061,
                1.430368629761849,
                -3.00669370701063
            ]
        },
        {
            "positions": [
                -1.7436882848269808,
                -1.4490686099448067,
                1.9719784204316564,
                -0.19053553246443583,
                1.3879806704521338,
                -2.8895503951516774
            ]
        },
        {
            "positions": [
                -1.7796441159831566,
                -1.465309836127659,
                1.9796999301162939,
                -0.021471634050665545,
                1.3455927111424186,
                -2.772407083292725
            ]
        },
        {
            "positions": [
                -1.8155999471393323,
                -1.4815510623105115,
                1.9874214398009311,
                0.1475922643631048,
                1.3032047518327037,
                -2.6552637714337726
            ]
        },
        {
            "positions": [
                -1.8515557782955079,
                -1.4977922884933637,
                1.9951429494855686,
                0.31665616277687514,
                1.2608167925229887,
                -2.53812045957482
            ]
        },
        {
            "positions": [
                -1.8875116094516837,
                -1.514033514676216,
                2.002864459170206,
                0.48572006119064537,
                1.2184288332132736,
                -2.4209771477158677
            ]
        },
        {
            "positions": [
                -1.9234674406078596,
                -1.5302747408590682,
                2.0105859688548433,
                0.6547839596044158,
                1.1760408739035584,
                -2.303833835856915
            ]
        },
        {
            "positions": [
                -1.9594232717640352,
                -1.5465159670419206,
                2.0183074785394806,
                0.823847858018186,
                1.1336529145938434,
                -2.1866905239979624
            ]
        },
        {
            "positions": [
                -1.9953791029202108,
                -1.562757193224773,
                2.0260289882241183,
                0.9929117564319565,
                1.0912649552841283,
                -2.06954721213901
            ]
        },
        {
            "positions": [
                -2.0313349340763867,
                -1.5789984194076254,
                2.0337504979087555,
                1.1619756548457267,
                1.0488769959744133,
                -1.9524039002800575
            ]
        },
        {
            "positions": [
                -2.0672907652325625,
                -1.5952396455904776,
                2.0414720075933928,
                1.3310395532594972,
                1.0064890366646981,
                -1.835260588421105
            ]
        },
        {
            "positions": [
                -2.103246596388738,
                -1.61148087177333,
                2.04919351727803,
                1.5001034516732672,
                0.9641010773549832,
                -1.7181172765621526
            ]
        },
        {
            "positions": [
                -2.1392024275449137,
                -1.6277220979561822,
                2.0569150269626677,
                1.6691673500870376,
                0.9217131180452681,
                -1.6009739647032
            ]
        },
        {
            "positions": [
                -2.1751582587010896,
                -1.6439633241390346,
                2.064636536647305,
                1.8382312485008079,
                0.8793251587355531,
                -1.4838306528442475
            ]
        },
        {
            "positions": [
                -2.20216137196748,
                -1.6089495691229854,
                2.0599060544859404,
                1.6535266483124433,
                0.8658264515602073,
                -1.6135608153357768
            ]
        },
        {
            "positions": [
                -2.2291644852338712,
                -1.5739358141069362,
                2.0551755723245755,
                1.4688220481240788,
                0.8523277443848617,
                -1.7432909778273062
            ]
        },
        {
            "positions": [
                -2.256167598500262,
                -1.538922059090887,
                2.050445090163211,
                1.2841174479357145,
                0.838829037209516,
                -1.8730211403188357
            ]
        },
        {
            "positions": [
                -2.2831707117666524,
                -1.5039083040748378,
                2.045714608001846,
                1.0994128477473497,
                0.8253303300341702,
                -2.002751302810365
            ]
        },
        {
            "positions": [
                -2.310173825033043,
                -1.4688945490587886,
                2.0409841258404815,
                0.9147082475589853,
                0.8118316228588245,
                -2.132481465301894
            ]
        },
        {
            "positions": [
                -2.337176938299434,
                -1.4338807940427394,
                2.0362536436791165,
                0.7300036473706208,
                0.7983329156834789,
                -2.2622116277934237
            ]
        },
        {
            "positions": [
                -2.3641800515658247,
                -1.39886703902669,
                2.031523161517752,
                0.5452990471822563,
                0.7848342085081331,
                -2.391941790284953
            ]
        },
        {
            "positions": [
                -2.3911831648322153,
                -1.3638532840106408,
                2.026792679356387,
                0.36059444699389176,
                0.7713355013327874,
                -2.521671952776482
            ]
        },
        {
            "positions": [
                -2.418186278098606,
                -1.3288395289945916,
                2.0220621971950226,
                0.175889846805527,
                0.7578367941574417,
                -2.651402115268012
            ]
        },
        {
            "positions": [
                -2.445189391364997,
                -1.2938257739785424,
                2.0173317150336576,
                -0.008814753382837326,
                0.744338086982096,
                -2.781132277759541
            ]
        },
        {
            "positions": [
                -2.4721925046313875,
                -1.2588120189624932,
                2.012601232872293,
                -0.1935193535712021,
                0.7308393798067503,
                -2.9108624402510705
            ]
        },
        {
            "positions": [
                -2.4722999827280217,
                -1.2271980899738488,
                2.011914393433796,
                -0.4040300649298769,
                0.7158168739377128,
                -2.9899816145169433
            ]
        },
        {
            "positions": [
                -2.472407460824656,
                -1.1955841609852043,
                2.011227553995299,
                -0.6145407762885517,
                0.7007943680686751,
                -3.069100788782816
            ]
        },
        {
            "positions": [
                -2.47251493892129,
                -1.16397023199656,
                2.010540714556802,
                -0.8250514876472266,
                0.6857718621996376,
                -3.148219963048689
            ]
        }
    ]
}