{
    "goal": {
        "global_pose": {
            "orientation": {
                "w": -0.00223480608172531,
                "x": 0.0024358444001904467,
                "y": 0.7094548369677653,
                "z": -0.704743149386269
            },
            "position": {
                "x": -0.37947507619857795,
                "y": -0.6371506643295288,
                "z": 0.19426114857196808
            }
        },
        "name": "move_to_magneteinheit_C"
    },
    "id": "BiEST_move_to_magneteinheit_C_128",
    "joint_names": [
        "shoulder_pan_joint",
        "shoulder_lift_joint",
        "elbow_joint",
        "wrist_1_joint",
        "wrist_2_joint",
        "wrist_3_joint"
    ],
    "metrics": {
        "cart_traj_len": 1.2860747175593457,
        "distance_elbow_joint": 0.7417227787658041,
        "distance_shoulder_lift_joint": 0.32100466703623076,
        "distance_shoulder_pan_joint": 1.5339634301944816,
        "distance_wrist_1_joint": 1.206357936760312,
        "distance_wrist_2_joint": 1.9253612918099101,
        "distance_wrist_3_joint": 3.9786531619225785,
        "smoothness": 0.5517973765445398,
        "time": 0.1259321,
        "traj_len": 3.115616033225102,
        "weighted_distance": 4.560272888644352
    },
    "planner": "BiEST",
    "start": {
        "state": {
            "elbow_joint": 1.9565354010623817,
            "shoulder_lift_joint": -1.4165861575791021,
            "shoulder_pan_joint": -1.6717766225146293,
            "wrist_1_joint": -0.5286633292919765,
            "wrist_2_joint": 1.472756589071564,
            "wrist_3_joint": -3.1238370188695823
        }
    },
    "waypoints": [
        {
            "positions": [
                -1.6717766225146293,
                -1.4165861575791021,
                1.9565354010623817,
                -0.5286633292919765,
                1.472756589071564,
                -3.1238370188695823
            ]
        },
        {
            "positions": [
                -1.6455573612896268,
                -1.414676858712308,
                1.9457298232346483,
                -0.5094044045820096,
                1.4163868817245522,
                -3.0656150717659494
            ]
        },
        {
            "positions": [
                -1.6154398095877873,
                -1.4184904904561362,
                1.9258552190196372,
                -0.5143121758168685,
                1.2786560858161773,
                -2.8839709532527618
            ]
        },
        {
            "positions": [
                -1.5853222578859478,
                -1.4223041221999642,
                1.9059806148046263,
                -0.5192199470517272,
                1.1409252899078024,
                -2.7023268347395746
            ]
        },
        {
            "positions": [
                -1.5552047061841086,
                -1.4261177539437924,
                1.8861060105896152,
                -0.5241277182865861,
                1.0031944939994275,
                -2.5206827162263874
            ]
        },
        {
            "positions": [
                -1.525087154482269,
                -1.4299313856876206,
                1.8662314063746042,
                -0.529035489521445,
                0.8654636980910526,
                -2.3390385977131998
            ]
        },
        {
            "positions": [
                -1.4949696027804296,
                -1.4337450174314486,
                1.8463568021595933,
                -0.5339432607563037,
                0.7277329021826777,
                -2.157394479200012
            ]
        },
        {
            "positions": [
                -1.46485205107859,
                -1.4375586491752768,
                1.8264821979445822,
                -0.5388510319911626,
                0.5900021062743028,
                -1.975750360686825
            ]
        },
        {
            "positions": [
                -1.4347344993767508,
                -1.441372280919105,
                1.8066075937295711,
                -0.5437588032260214,
                0.45227131036592794,
                -1.7941062421736373
            ]
        },
        {
            "positions": [
                -1.4046169476749113,
                -1.445185912662933,
                1.7867329895145603,
                -0.5486665744608802,
                0.31454051445755304,
                -1.61246212366045
            ]
        },
        {
            "positions": [
                -1.3744993959730718,
                -1.4489995444067612,
                1.7668583852995492,
                -0.553574345695739,
                0.17680971854917807,
                -1.4308180051472625
            ]
        },
        {
            "positions": [
                -1.5361610347395371,
                -1.4360617303612757,
                1.8240644015310266,
                -0.6566740206504905,
                0.16775398878576636,
                -1.3889500766287273
            ]
        },
        {
            "positions": [
                -1.6978226735060025,
                -1.4231239163157903,
                1.8812704177625037,
                -0.759773695605242,
                0.15869825902235465,
                -1.3470821481101918
            ]
        },
        {
            "positions": [
                -1.8594843122724676,
                -1.4101861022703048,
                1.938476433993981,
                -0.8628733705599936,
                0.14964252925894295,
                -1.3052142195916565
            ]
        },
        {
            "positions": [
                -2.021145951038933,
                -1.3972482882248194,
                1.9956824502254584,
                -0.965973045514745,
                0.14058679949553124,
                -1.2633462910731212
            ]
        },
        {
            "positions": [
                -2.1828075898053982,
                -1.384310474179334,
                2.0528884664569356,
                -1.0690727204694965,
                0.13153106973211953,
                -1.2214783625545858
            ]
        },
        {
            "positions": [
                -2.344469228571864,
                -1.3713726601338485,
                2.110094482688413,
                -1.172172395424248,
                0.12247533996870782,
                -1.1796104340360505
            ]
        },
        {
            "positions": [
                -2.506130867338329,
                -1.358434846088363,
                2.1673004989198903,
                -1.2752720703789995,
                0.1134196102052961,
                -1.1377425055175152
            ]
        },
        {
            "positions": [
                -2.5150318781581062,
                -1.3388110221944214,
                2.15887442663425,
                -1.2404098760612698,
                0.17119906649962335,
                -1.3275838490050351
            ]
        },
        {
            "positions": [
                -2.5239328889778836,
                -1.31918719830048,
                2.15044835434861,
                -1.20554768174354,
                0.2289785227939506,
                -1.517425192492555
            ]
        },
        {
            "positions": [
                -2.5328338997976605,
                -1.2995633744065382,
                2.14202228206297,
                -1.1706854874258104,
                0.2867579790882779,
                -1.7072665359800747
            ]
        },
        {
            "positions": [
                -2.541734910617438,
                -1.2799395505125966,
                2.13359620977733,
                -1.1358232931080807,
                0.3445374353826051,
                -1.8971078794675946
            ]
        },
        {
            "positions": [
                -2.5301597957826782,
                -1.2606541024157933,
                2.113946316403985,
                -1.088859531611008,
                0.4003551833436606,
                -2.1026400919043335
            ]
        },
        {
            "positions": [
                -2.5185846809479187,
                -1.2413686543189903,
                2.09429642303064,
                -1.0418957701139353,
                0.4561729313047161,
                -2.3081723043410722
            ]
        },
        {
            "positions": [
                -2.507009566113159,
                -1.2220832062221871,
                2.074646529657295,
                -0.9949320086168625,
                0.5119906792657716,
                -2.513704516777811
            ]
        },
        {
            "positions": [
                -2.495434451278399,
                -1.202797758125384,
                2.05499663628395,
                -0.9479682471197898,
                0.5678084272268271,
                -2.7192367292145496
            ]
        },
        {
            "positions": [
                -2.4838593364436394,
                -1.183512310028581,
                2.0353467429106047,
                -0.901004485622717,
                0.6236261751878827,
                -2.9247689416512883
            ]
        },
        {
            "positions": [
                -2.47228422160888,
                -1.1642268619317777,
                2.01569684953726,
                -0.8540407241256442,
                0.6794439231489381,
                -3.130301154088027
            ]
        }
    ]
}