{
    "goal": {
        "global_pose": {
            "orientation": {
                "w": 0.5084816262002911,
                "x": -0.4908360881923452,
                "y": 0.5182115481033761,
                "z": -0.48164630358495003
            },
            "position": {
                "x": 0.5540239810943604,
                "y": -0.46912469901144505,
                "z": 0.16403168439865112
            }
        },
        "name": "move_to_storage_B"
    },
    "id": "BiEST_move_to_storage_B_144",
    "joint_names": [
        "shoulder_pan_joint",
        "shoulder_lift_joint",
        "elbow_joint",
        "wrist_1_joint",
        "wrist_2_joint",
        "wrist_3_joint"
    ],
    "metrics": {
        "cart_traj_len": 3.300502438056079,
        "distance_elbow_joint": 1.407134965186482,
        "distance_shoulder_lift_joint": 1.3924333101130133,
        "distance_shoulder_pan_joint": 3.1798279801230676,
        "distance_wrist_1_joint": 2.9896346773063853,
        "distance_wrist_2_joint": 2.7146145908828974,
        "distance_wrist_3_joint": 8.345797856500104,
        "smoothness": 0.371642152769667,
        "time": 0.108158791,
        "traj_len": 4.475426614314211,
        "weighted_distance": 6.513469763597699
    },
    "planner": "BiEST",
    "start": {
        "state": {
            "elbow_joint": 1.664937868594044,
            "shoulder_lift_joint": -0.661644460510453,
            "shoulder_pan_joint": -0.9139846352900073,
            "wrist_1_joint": 2.146753192139373,
            "wrist_2_joint": -2.2341966793290973,
            "wrist_3_joint": 0.005466555786416001
        }
    },
    "waypoints": [
        {
            "positions": [
                -0.9139846352900073,
                -0.661644460510453,
                1.664937868594044,
                2.146753192139373,
                -2.2341966793290973,
                0.005466555786416001
            ]
        },
        {
            "positions": [
                -0.8458008309978151,
                -0.7037588326804247,
                1.6409733657031982,
                2.104548735660358,
                -2.145273472404001,
                -0.11266300684651517
            ]
        },
        {
            "positions": [
                -0.7776170267056228,
                -0.7458732048503964,
                1.6170088628123525,
                2.0623442791813424,
                -2.0563502654789048,
                -0.23079256947944635
            ]
        },
        {
            "positions": [
                -0.7094332224134307,
                -0.7879875770203681,
                1.5930443599215065,
                2.0201398227023275,
                -1.9674270585538085,
                -0.34892213211237744
            ]
        },
        {
            "positions": [
                -0.6412494181212384,
                -0.8301019491903399,
                1.5690798570306608,
                1.977935366223312,
                -1.8785038516287123,
                -0.46705169474530867
            ]
        },
        {
            "positions": [
                -0.5730656138290462,
                -0.8722163213603116,
                1.545115354139815,
                1.9357309097442967,
                -1.789580644703616,
                -0.5851812573782398
            ]
        },
        {
            "positions": [
                -0.5048818095368539,
                -0.9143306935302833,
                1.5211508512489693,
                1.8935264532652814,
                -1.7006574377785197,
                -0.703310820011171
            ]
        },
        {
            "positions": [
                -0.43669800524466174,
                -0.956445065700255,
                1.4971863483581234,
                1.851321996786266,
                -1.6117342308534235,
                -0.8214403826441021
            ]
        },
        {
            "positions": [
                -0.36851420095246945,
                -0.9985594378702268,
                1.4732218454672776,
                1.8091175403072508,
                -1.5228110239283272,
                -0.9395699452770334
            ]
        },
        {
            "positions": [
                -0.3003303966602773,
                -1.0406738100401984,
                1.449257342576432,
                1.7669130838282354,
                -1.433887817003231,
                -1.0576995079099645
            ]
        },
        {
            "positions": [
                -0.2321465923680851,
                -1.0827881822101704,
                1.4252928396855862,
                1.7247086273492203,
                -1.3449646100781347,
                -1.1758290705428955
            ]
        },
        {
            "positions": [
                -0.16396278807589282,
                -1.1249025543801419,
                1.4013283367947404,
                1.6825041708702049,
                -1.2560414031530385,
                -1.2939586331758268
            ]
        },
        {
            "positions": [
                -0.09577898378370064,
                -1.1670169265501138,
                1.3773638339038945,
                1.6402997143911895,
                -1.1671181962279422,
                -1.4120881958087579
            ]
        },
        {
            "positions": [
                -0.02759517949150836,
                -1.2091312987200853,
                1.3533993310130488,
                1.598095257912174,
                -1.078194989302846,
                -1.5302177584416892
            ]
        },
        {
            "positions": [
                0.040588624800683815,
                -1.2512456708900572,
                1.329434828122203,
                1.555890801433159,
                -0.9892717823777497,
                -1.6483473210746202
            ]
        },
        {
            "positions": [
                0.1087724290928761,
                -1.2933600430600287,
                1.3054703252313573,
                1.5136863449541438,
                -0.9003485754526535,
                -1.7664768837075513
            ]
        },
        {
            "positions": [
                0.17695623338506838,
                -1.3354744152300007,
                1.2815058223405114,
                1.4714818884751284,
                -0.8114253685275572,
                -1.8846064463404828
            ]
        },
        {
            "positions": [
                0.24514003767726045,
                -1.3775887873999721,
                1.2575413194496656,
                1.429277431996113,
                -0.722502161602461,
                -2.0027360089734136
            ]
        },
        {
            "positions": [
                0.31332384196945273,
                -1.419703159569944,
                1.23357681655882,
                1.3870729755170976,
                -0.6335789546773647,
                -2.1208655716063447
            ]
        },
        {
            "positions": [
                0.381507646261645,
                -1.4618175317399158,
                1.2096123136679742,
                1.3448685190380825,
                -0.5446557477522684,
                -2.2389951342392758
            ]
        },
        {
            "positions": [
                0.4496914505538371,
                -1.5039319039098875,
                1.1856478107771284,
                1.3026640625590673,
                -0.4557325408271722,
                -2.357124696872207
            ]
        },
        {
            "positions": [
                0.5178752548460296,
                -1.5460462760798592,
                1.1616833078862825,
                1.260459606080052,
                -0.36680933390207593,
                -2.4752542595051383
            ]
        },
        {
            "positions": [
                0.5860590591382215,
                -1.588160648249831,
                1.1377188049954368,
                1.2182551496010365,
                -0.27788612697697956,
                -2.5933838221380694
            ]
        },
        {
            "positions": [
                0.5300662496150602,
                -1.5726300775040432,
                1.167049335048366,
                1.1495505951087683,
                -0.2526093256926202,
                -2.401818906185549
            ]
        },
        {
            "positions": [
                0.47407344009189883,
                -1.5570995067582551,
                1.1963798651012951,
                1.0808460406165001,
                -0.22733252440826085,
                -2.2102539902330283
            ]
        },
        {
            "positions": [
                0.41808063056873745,
                -1.5415689360124674,
                1.2257103951542243,
                1.0121414861242317,
                -0.20205572312390147,
                -2.0186890742805077
            ]
        },
        {
            "positions": [
                0.36208782104557613,
                -1.5260383652666796,
                1.2550409252071535,
                0.9434369316319636,
                -0.17677892183954214,
                -1.8271241583279871
            ]
        },
        {
            "positions": [
                0.30609501152241475,
                -1.5105077945208918,
                1.2843714552600827,
                0.8747323771396954,
                -0.15150212055518275,
                -1.6355592423754666
            ]
        },
        {
            "positions": [
                0.25010220199925337,
                -1.4949772237751038,
                1.3137019853130116,
                0.8060278226474271,
                -0.12622531927082337,
                -1.4439943264229458
            ]
        },
        {
            "positions": [
                0.194109392476092,
                -1.479446653029316,
                1.3430325153659408,
                0.7373232681551589,
                -0.10094851798646401,
                -1.2524294104704252
            ]
        },
        {
            "positions": [
                0.13811658295293067,
                -1.4639160822835282,
                1.37236304541887,
                0.6686187136628907,
                -0.07567171670210468,
                -1.0608644945179047
            ]
        },
        {
            "positions": [
                0.08212377342976929,
                -1.4483855115377404,
                1.4016935754717992,
                0.5999141591706225,
                -0.05039491541774532,
                -0.8692995785653841
            ]
        },
        {
            "positions": [
                0.026130963906607962,
                -1.4328549407919524,
                1.4310241055247284,
                0.5312096046783543,
                -0.025118114133385938,
                -0.6777346626128635
            ]
        },
        {
            "positions": [
                -0.029861845616553362,
                -1.4173243700461646,
                1.4603546355776575,
                0.4625050501860861,
                0.00015868715097339114,
                -0.4861697466603432
            ]
        },
        {
            "positions": [
                -0.0858546551397148,
                -1.4017937993003768,
                1.4896851656305867,
                0.3938004956938177,
                0.02543548843533283,
                -0.2946048307078222
            ]
        },
        {
            "positions": [
                -0.14184746466287623,
                -1.386263228554589,
                1.519015695683516,
                0.3250959412015495,
                0.05071228971969216,
                -0.10303991475530161
            ]
        },
        {
            "positions": [
                -0.19784027418603756,
                -1.370732657808801,
                1.548346225736445,
                0.2563913867092813,
                0.07598909100405155,
                0.08852500119721896
            ]
        },
        {
            "positions": [
                -0.2538330837091989,
                -1.3552020870630133,
                1.577676755789374,
                0.1876868322170131,
                0.10126589228841087,
                0.2800899171497395
            ]
        },
        {
            "positions": [
                -0.3098258932323602,
                -1.3396715163172255,
                1.6070072858423032,
                0.1189822777247449,
                0.1265426935727702,
                0.4716548331022601
            ]
        },
        {
            "positions": [
                -0.36581870275552153,
                -1.3241409455714375,
                1.6363378158952324,
                0.0502777232324767,
                0.1518194948571296,
                0.6632197490547806
            ]
        },
        {
            "positions": [
                -0.42181151227868297,
                -1.3086103748256497,
                1.6656683459481616,
                -0.0184268312597915,
                0.17709629614148892,
                0.8547846650073012
            ]
        },
        {
            "positions": [
                -0.4778043218018442,
                -1.293079804079862,
                1.6949988760010908,
                -0.0871313857520597,
                0.2023730974258483,
                1.0463495809598218
            ]
        },
        {
            "positions": [
                -0.5337971313250056,
                -1.277549233334074,
                1.72432940605402,
                -0.1558359402443279,
                0.2276498987102077,
                1.2379144969123423
            ]
        },
        {
            "positions": [
                -0.589789940848167,
                -1.2620186625882863,
                1.7536599361069491,
                -0.2245404947365961,
                0.25292669999456696,
                1.4294794128648625
            ]
        },
        {
            "positions": [
                -0.6457827503713283,
                -1.2464880918424983,
                1.782990466159878,
                -0.2932450492288643,
                0.27820350127892635,
                1.621044328817383
            ]
        },
        {
            "positions": [
                -0.7017755598944899,
                -1.2309575210967105,
                1.8123209962128075,
                -0.36194960372113294,
                0.30348030256328584,
                1.8126092447699045
            ]
        },
        {
            "positions": [
                -0.7577683694176511,
                -1.2154269503509227,
                1.8416515262657367,
                -0.43065415821340114,
                0.3287571038476452,
                2.004174160722425
            ]
        },
        {
            "positions": [
                -0.8137611789408126,
                -1.1998963796051347,
                1.8709820563186659,
                -0.49935871270566934,
                0.3540339051320045,
                2.1957390766749456
            ]
        },
        {
            "positions": [
                -0.869753988463974,
                -1.184365808859347,
                1.9003125863715948,
                -0.5680632671979375,
                0.3793107064163639,
                2.387303992627466
            ]
        },
        {
            "positions": [
                -0.9257467979871352,
                -1.1688352381135592,
                1.9296431164245242,
                -0.6367678216902057,
                0.40458750770072327,
                2.5788689085799867
            ]
        },
        {
            "positions": [
                -0.9817396075102967,
                -1.1533046673677712,
                1.9589736464774532,
                -0.7054723761824739,
                0.42986430898508265,
                2.7704338245325073
            ]
        },
        {
            "positions": [
                -1.0377324170334579,
                -1.1377740966219834,
                1.9883041765303824,
                -0.7741769306747421,
                0.45514111026944193,
                2.961998740485028
            ]
        },
        {
            "positions": [
                -1.0937252265566193,
                -1.1222435258761956,
                2.0176347065833116,
                -0.8428814851670102,
                0.48041791155380126,
                3.1535636564375484
            ]
        }
    ]
}