{
    "goal": {
        "global_pose": {
            "orientation": {
                "w": 0.005598929693374612,
                "x": 0.007748599140229565,
                "y": 0.7110244013736278,
                "z": -0.7031023480610252
            },
            "position": {
                "x": 0.1141497679147869,
                "y": -0.7141253447532654,
                "z": 0.3711530566215515
            }
        },
        "name": "move_to_auspresseinheit_B"
    },
    "id": "BiEST_move_to_auspresseinheit_B_51",
    "joint_names": [
        "shoulder_pan_joint",
        "shoulder_lift_joint",
        "elbow_joint",
        "wrist_1_joint",
        "wrist_2_joint",
        "wrist_3_joint"
    ],
    "metrics": {
        "cart_traj_len": 0.564950437501316,
        "distance_elbow_joint": 0.06025166457782549,
        "distance_shoulder_lift_joint": 0.2960473700777808,
        "distance_shoulder_pan_joint": 0.5776562000514416,
        "distance_wrist_1_joint": 0.31811764185102165,
        "distance_wrist_2_joint": 0.9918748062269602,
        "distance_wrist_3_joint": 0.010799368483981997,
        "smoothness": 5.075305255429287e-16,
        "time": 0.129152896,
        "traj_len": 1.5015815166913222,
        "weighted_distance": 1.8937629831409628
    },
    "planner": "BiEST",
    "start": {
        "state": {
            "elbow_joint": 2.0193083361928714,
            "shoulder_lift_joint": -1.1220246554650708,
            "shoulder_pan_joint": -1.0952077554168747,
            "wrist_1_joint": -0.8559753972642168,
            "wrist_2_joint": 0.4759566250798843,
            "wrist_3_joint": -3.1240929996934557
        }
    },
    "waypoints": [
        {
            "positions": [
                -1.0952077554168747,
                -1.1220246554650708,
                2.0193083361928714,
                -0.8559753972642168,
                0.4759566250798843,
                -3.1240929996934557
            ]
        },
        {
            "positions": [
                -1.1914837887587817,
                -1.1713658838113676,
                2.009266392096567,
                -0.8029557902890465,
                0.6412690927843776,
                -3.1222931049461256
            ]
        },
        {
            "positions": [
                -1.2877598221006885,
                -1.2207071121576645,
                1.999224448000263,
                -0.7499361833138762,
                0.8065815604888711,
                -3.120493210198795
            ]
        },
        {
            "positions": [
                -1.3840358554425953,
                -1.270048340503961,
                1.9891825039039586,
                -0.696916576338706,
                0.9718940281933643,
                -3.1186933154514644
            ]
        },
        {
            "positions": [
                -1.4803118887845024,
                -1.319389568850258,
                1.9791405598076544,
                -0.6438969693635357,
                1.1372064958978578,
                -3.1168934207041343
            ]
        },
        {
            "positions": [
                -1.5765879221264094,
                -1.3687307971965548,
                1.9690986157113501,
                -0.5908773623883654,
                1.302518963602351,
                -3.115093525956804
            ]
        },
        {
            "positions": [
                -1.6728639554683162,
                -1.4180720255428516,
                1.959056671615046,
                -0.5378577554131951,
                1.4678314313068446,
                -3.1132936312094737
            ]
        }
    ]
}