{
    "goal": {
        "global_pose": {
            "orientation": {
                "w": -0.00223480608172531,
                "x": 0.0024358444001904467,
                "y": 0.7094548369677653,
                "z": -0.704743149386269
            },
            "position": {
                "x": 0.6205249238014221,
                "y": -0.6371506643295288,
                "z": 0.19426114857196808
            }
        },
        "name": "move_to_magneteinheit_B"
    },
    "id": "BiEST_move_to_magneteinheit_B_79",
    "joint_names": [
        "shoulder_pan_joint",
        "shoulder_lift_joint",
        "elbow_joint",
        "wrist_1_joint",
        "wrist_2_joint",
        "wrist_3_joint"
    ],
    "metrics": {
        "cart_traj_len": 1.5347440116663393,
        "distance_elbow_joint": 0.9993240943470036,
        "distance_shoulder_lift_joint": 0.945739074150802,
        "distance_shoulder_pan_joint": 1.6226300236415079,
        "distance_wrist_1_joint": 1.455791798522414,
        "distance_wrist_2_joint": 2.1718919247384396,
        "distance_wrist_3_joint": 0.3195066101030489,
        "smoothness": 0.8582063000977546,
        "time": 0.14655536600000002,
        "traj_len": 2.741328788289215,
        "weighted_distance": 3.432430693979147
    },
    "planner": "BiEST",
    "start": {
        "state": {
            "elbow_joint": 2.6216224122426386,
            "shoulder_lift_joint": -1.4174107377796124,
            "shoulder_pan_joint": 0.7066234856936794,
            "wrist_1_joint": 1.9546482284002225,
            "wrist_2_joint": -0.7096286983471962,
            "wrist_3_joint": 0.005740856962016249
        }
    },
    "waypoints": [
        {
            "positions": [
                0.7066234856936794,
                -1.4174107377796124,
                2.6216224122426386,
                1.9546482284002225,
                -0.7096286983471962,
                0.005740856962016249
            ]
        },
        {
            "positions": [
                0.6612022411856704,
                -1.4415313636248492,
                2.5647392727581373,
                1.8549313381836958,
                -0.6272025303468162,
                0.047000033818462475
            ]
        },
        {
            "positions": [
                0.6157809966776615,
                -1.4656519894700861,
                2.5078561332736355,
                1.7552144479671694,
                -0.5447763623464361,
                0.0882592106749087
            ]
        },
        {
            "positions": [
                0.5703597521696526,
                -1.489772615315323,
                2.450972993789134,
                1.655497557750643,
                -0.46235019434605595,
                0.12951838753135494
            ]
        },
        {
            "positions": [
                0.5249385076616436,
                -1.51389324116056,
                2.3940898543046325,
                1.5557806675341164,
                -0.3799240263456759,
                0.17077756438780117
            ]
        },
        {
            "positions": [
                0.4379321980540746,
                -1.4912895368115493,
                2.4057276090576014,
                1.4416303059852245,
                -0.44285458148512613,
                0.159335836016801
            ]
        },
        {
            "positions": [
                0.35092588844650546,
                -1.4686858324625387,
                2.41736536381057,
                1.3274799444363325,
                -0.5057851366245764,
                0.14789410764580083
            ]
        },
        {
            "positions": [
                0.2604307151326245,
                -1.4112537494574078,
                2.3638999333174944,
                1.38666733833337,
                -0.6283798610858634,
                0.138495075793282
            ]
        },
        {
            "positions": [
                0.16993554181874354,
                -1.3538216664522769,
                2.3104345028244184,
                1.4458547322304074,
                -0.7509745855471505,
                0.12909604394076318
            ]
        },
        {
            "positions": [
                0.07944036850486258,
                -1.296389583447146,
                2.2569690723313425,
                1.505042126127445,
                -0.8735693100084375,
                0.11969701208824435
            ]
        },
        {
            "positions": [
                -0.011054804809018381,
                -1.238957500442015,
                2.203503641838267,
                1.5642295200244822,
                -0.9961640344697246,
                0.11029798023572551
            ]
        },
        {
            "positions": [
                -0.1015499781228994,
                -1.1815254174368839,
                2.1500382113451915,
                1.6234169139215198,
                -1.1187587589310115,
                0.10089894838320668
            ]
        },
        {
            "positions": [
                -0.1920451514367803,
                -1.124093334431753,
                2.0965727808521155,
                1.682604307818557,
                -1.2413534833922988,
                0.09149991653068786
            ]
        },
        {
            "positions": [
                -0.2825403247506613,
                -1.066661251426622,
                2.0431073503590396,
                1.7417917017155946,
                -1.3639482078535856,
                0.08210088467816902
            ]
        },
        {
            "positions": [
                -0.3730354980645422,
                -1.0092291684214911,
                1.989641919865964,
                1.800979095612632,
                -1.4865429323148729,
                0.0727018528256502
            ]
        },
        {
            "positions": [
                -0.46353067137842335,
                -0.9517970854163601,
                1.9361764893728883,
                1.8601664895096697,
                -1.6091376567761597,
                0.06330282097313135
            ]
        },
        {
            "positions": [
                -0.5540258446923043,
                -0.8943650024112292,
                1.8827110588798126,
                1.919353883406707,
                -1.731732381237447,
                0.05390378912061253
            ]
        },
        {
            "positions": [
                -0.6445210180061851,
                -0.8369329194060983,
                1.8292456283867369,
                1.9785412773037443,
                -1.8543271056987338,
                0.044504757268093706
            ]
        },
        {
            "positions": [
                -0.7350161913200661,
                -0.7795008364009673,
                1.7757801978936611,
                2.0377286712007816,
                -1.976921830160021,
                0.035105725415574884
            ]
        },
        {
            "positions": [
                -0.8255113646339471,
                -0.7220687533958363,
                1.7223147674005854,
                2.0969160650978194,
                -2.099516554621308,
                0.025706693563056035
            ]
        },
        {
            "positions": [
                -0.9160065379478282,
                -0.6646366703907054,
                1.6688493369075097,
                2.1561034589948567,
                -2.222111279082595,
                0.016307661710537224
            ]
        }
    ]
}