{
    "goal": {
        "global_pose": {
            "orientation": {
                "w": 0.7047431493862688,
                "x": -0.7094548369677653,
                "y": 0.0024358444001904,
                "z": -0.0022348060817251984
            },
            "position": {
                "x": -0.39052492380142206,
                "y": 0.3671506643295288,
                "z": 0.19426114857196808
            }
        },
        "name": "move_to_magneteinheit_D"
    },
    "id": "BiEST_move_to_magneteinheit_D_136",
    "joint_names": [
        "shoulder_pan_joint",
        "shoulder_lift_joint",
        "elbow_joint",
        "wrist_1_joint",
        "wrist_2_joint",
        "wrist_3_joint"
    ],
    "metrics": {
        "cart_traj_len": 4.878078918052262,
        "distance_elbow_joint": 3.131198112906471,
        "distance_shoulder_lift_joint": 1.632945163854454,
        "distance_shoulder_pan_joint": 4.585783546164003,
        "distance_wrist_1_joint": 1.669927553534287,
        "distance_wrist_2_joint": 2.1012340410883827,
        "distance_wrist_3_joint": 3.202481101118096,
        "smoothness": 0.3698165009244896,
        "time": 0.402578521,
        "traj_len": 4.04024374495719,
        "weighted_distance": 5.147785282577795
    },
    "planner": "BiEST",
    "start": {
        "state": {
            "elbow_joint": 0.749534889911806,
            "shoulder_lift_joint": -0.6476975780787326,
            "shoulder_pan_joint": -2.711696901376241,
            "wrist_1_joint": -0.07506478083263063,
            "wrist_2_joint": 0.43296659715538205,
            "wrist_3_joint": -3.14703540197715
        }
    },
    "waypoints": [
        {
            "positions": [
                -2.711696901376241,
                -0.6476975780787326,
                0.749534889911806,
                -0.07506478083263063,
                0.43296659715538205,
                -3.14703540197715
            ]
        },
        {
            "positions": [
                -2.7722955419905664,
                -0.6619283013719158,
                0.621454754165859,
                0.004286331495516743,
                0.4031872761197197,
                -3.1519770067713586
            ]
        },
        {
            "positions": [
                -2.832894182604892,
                -0.6761590246650991,
                0.49337461841991215,
                0.08363744382366411,
                0.37340795508405744,
                -3.156918611565567
            ]
        },
        {
            "positions": [
                -2.8934928232192174,
                -0.6903897479582823,
                0.3652944826739652,
                0.16298855615181151,
                0.3436286340483951,
                -3.1618602163597758
            ]
        },
        {
            "positions": [
                -2.7453490784245567,
                -0.7317898156240591,
                0.3043977011438205,
                0.17425500951068368,
                0.29820411848844897,
                -3.072813166195653
            ]
        },
        {
            "positions": [
                -2.597205333629896,
                -0.7731898832898358,
                0.2435009196136757,
                0.18552146286955587,
                0.2527796029285029,
                -2.9837661160315294
            ]
        },
        {
            "positions": [
                -2.4490615888352347,
                -0.8145899509556126,
                0.18260413808353096,
                0.19678791622842803,
                0.20735508736855673,
                -2.8947190658674065
            ]
        },
        {
            "positions": [
                -2.300917844040574,
                -0.8559900186213893,
                0.12170735655338621,
                0.2080543695873002,
                0.16193057180861062,
                -2.8056720157032835
            ]
        },
        {
            "positions": [
                -2.1527740992459132,
                -0.8973900862871662,
                0.06081057502324144,
                0.2193208229461724,
                0.11650605624866447,
                -2.7166249655391606
            ]
        },
        {
            "positions": [
                -2.0046303544512525,
                -0.9387901539529429,
                -8.62065069032747e-05,
                0.23058727630504455,
                0.07108154068871836,
                -2.6275779153750376
            ]
        },
        {
            "positions": [
                -1.8564866096565915,
                -0.9801902216187197,
                -0.06098298803704805,
                0.24185372966391672,
                0.025657025128772215,
                -2.538530865210914
            ]
        },
        {
            "positions": [
                -1.7083428648619308,
                -1.0215902892844964,
                -0.12187976956719276,
                0.2531201830227889,
                -0.019767490431173873,
                -2.4494838150467912
            ]
        },
        {
            "positions": [
                -1.5601991200672698,
                -1.0629903569502732,
                -0.18277655109733754,
                0.26438663638166104,
                -0.06519200599112002,
                -2.3604367648826683
            ]
        },
        {
            "positions": [
                -1.412055375272609,
                -1.1043904246160499,
                -0.2436733326274823,
                0.27565308974053326,
                -0.11061652155106616,
                -2.271389714718545
            ]
        },
        {
            "positions": [
                -1.2639116304779483,
                -1.1457904922818267,
                -0.30457011415762697,
                0.2869195430994054,
                -0.15604103711101225,
                -2.182342664554422
            ]
        },
        {
            "positions": [
                -1.1157678856832873,
                -1.1871905599476036,
                -0.36546689568777174,
                0.2981859964582776,
                -0.2014655526709584,
                -2.093295614390299
            ]
        },
        {
            "positions": [
                -0.9676241408886266,
                -1.2285906276133802,
                -0.4263636772179164,
                0.30945244981714976,
                -0.24689006823090448,
                -2.004248564226176
            ]
        },
        {
            "positions": [
                -0.8194803960939656,
                -1.2699906952791569,
                -0.4872604587480613,
                0.3207189031760219,
                -0.2923145837908507,
                -1.9152015140620529
            ]
        },
        {
            "positions": [
                -0.6713366512993049,
                -1.3113907629449337,
                -0.548157240278206,
                0.33198535653489414,
                -0.33773909935079677,
                -1.8261544638979297
            ]
        },
        {
            "positions": [
                -0.5231929065046441,
                -1.3527908306107106,
                -0.6090540218083507,
                0.34325180989376625,
                -0.38316361491074286,
                -1.7371074137338067
            ]
        },
        {
            "positions": [
                -0.3750491617099829,
                -1.3941908982764875,
                -0.6699508033384955,
                0.35451826325263847,
                -0.42858813047068905,
                -1.6480603635696836
            ]
        },
        {
            "positions": [
                -0.22690541691532218,
                -1.435590965942264,
                -0.7308475848686402,
                0.36578471661151063,
                -0.47401264603063514,
                -1.5590133134055606
            ]
        },
        {
            "positions": [
                -0.07876167212066143,
                -1.4769910336080407,
                -0.7917443663987849,
                0.3770511699703828,
                -0.5194371615905813,
                -1.4699662632414376
            ]
        },
        {
            "positions": [
                0.06938207267399932,
                -1.5183911012738176,
                -0.8526411479289298,
                0.388317623329255,
                -0.5648616771505275,
                -1.3809192130773145
            ]
        },
        {
            "positions": [
                0.21752581746866007,
                -1.5597911689395945,
                -0.9135379294590744,
                0.3995840766881271,
                -0.6102861927104735,
                -1.2918721629131915
            ]
        },
        {
            "positions": [
                0.3656695622633208,
                -1.601191236605371,
                -0.9744347109892191,
                0.41085053004699934,
                -0.6557107082704197,
                -1.2028251127490683
            ]
        },
        {
            "positions": [
                0.513813307057982,
                -1.6425913042711477,
                -1.035331492519364,
                0.4221169834058715,
                -0.7011352238303659,
                -1.1137780625849452
            ]
        },
        {
            "positions": [
                0.6619570518526426,
                -1.6839913719369246,
                -1.0962282740495086,
                0.43338343676474367,
                -0.7465597393903118,
                -1.0247310124208222
            ]
        },
        {
            "positions": [
                0.6254973057109504,
                -1.7237679095284022,
                -1.1970529491764077,
                0.531744163448045,
                -0.6991898156021273,
                -0.9600693909338357
            ]
        },
        {
            "positions": [
                0.5890375595692582,
                -1.7635444471198798,
                -1.297877624303307,
                0.6301048901313464,
                -0.6518198918139428,
                -0.8954077694468492
            ]
        },
        {
            "positions": [
                0.5525778134275661,
                -1.8033209847113574,
                -1.398702299430206,
                0.7284656168146477,
                -0.6044499680257583,
                -0.8307461479598628
            ]
        },
        {
            "positions": [
                0.5161180672858738,
                -1.843097522302835,
                -1.4995269745571054,
                0.826826343497949,
                -0.5570800442375738,
                -0.7660845264728762
            ]
        },
        {
            "positions": [
                0.4796583211441816,
                -1.8828740598943123,
                -1.6003516496840045,
                0.9251870701812503,
                -0.5097101204493895,
                -0.7014229049858898
            ]
        },
        {
            "positions": [
                0.4431985750024894,
                -1.92265059748579,
                -1.7011763248109038,
                1.0235477968645517,
                -0.4623401966612049,
                -0.6367612834989033
            ]
        },
        {
            "positions": [
                0.40673882886079715,
                -1.9624271350772675,
                -1.8020009999378028,
                1.121908523547853,
                -0.4149702728730204,
                -0.5720996620119168
            ]
        },
        {
            "positions": [
                0.3702790827191049,
                -2.0022036726687453,
                -1.902825675064702,
                1.2202692502311545,
                -0.3676003490848359,
                -0.5074380405249302
            ]
        },
        {
            "positions": [
                0.3338193365774127,
                -2.0419802102602227,
                -2.0036503501916014,
                1.3186299769144556,
                -0.3202304252966514,
                -0.4427764190379436
            ]
        },
        {
            "positions": [
                0.2973595904357205,
                -2.0817567478517,
                -2.1044750253185,
                1.4169907035977571,
                -0.27286050150846697,
                -0.3781147975509572
            ]
        },
        {
            "positions": [
                0.2608998442940283,
                -2.121533285443178,
                -2.2052997004453996,
                1.5153514302810585,
                -0.22549057772028244,
                -0.3134531760639707
            ]
        },
        {
            "positions": [
                0.15895614827625582,
                -2.157970469766112,
                -2.2466521085032762,
                1.5021139188478596,
                -0.13080906750036583,
                -0.2376596393226998
            ]
        },
        {
            "positions": [
                0.05701245225848334,
                -2.1944076540890465,
                -2.288004516561153,
                1.4888764074146605,
                -0.036127557280449224,
                -0.16186610258142883
            ]
        },
        {
            "positions": [
                -0.04493124375928914,
                -2.230844838411981,
                -2.32935692461903,
                1.4756388959814617,
                0.058553952939467385,
                -0.08607256584015788
            ]
        },
        {
            "positions": [
                -0.14687493977706162,
                -2.267282022734915,
                -2.3707093326769066,
                1.4624013845482629,
                0.15323546315938397,
                -0.01027902909888695
            ]
        },
        {
            "positions": [
                -0.18658069739652372,
                -2.2806427419331867,
                -2.381663222994666,
                1.488962681236065,
                0.17514796515237727,
                0.0257960703756949
            ]
        }
    ]
}