{
    "goal": {
        "global_pose": {
            "orientation": {
                "w": 0.005598929693374612,
                "x": 0.007748599140229565,
                "y": 0.7110244013736278,
                "z": -0.7031023480610252
            },
            "position": {
                "x": 0.1141497679147869,
                "y": -0.7141253447532654,
                "z": 0.3711530566215515
            }
        },
        "name": "move_to_auspresseinheit_B"
    },
    "id": "BiEST_move_to_auspresseinheit_B_37",
    "joint_names": [
        "shoulder_pan_joint",
        "shoulder_lift_joint",
        "elbow_joint",
        "wrist_1_joint",
        "wrist_2_joint",
        "wrist_3_joint"
    ],
    "metrics": {
        "cart_traj_len": 0.5654098413602681,
        "distance_elbow_joint": 0.06690069787704878,
        "distance_shoulder_lift_joint": 0.2942856086913417,
        "distance_shoulder_pan_joint": 0.5759215885480335,
        "distance_wrist_1_joint": 0.3412473785295208,
        "distance_wrist_2_joint": 1.0031828834087584,
        "distance_wrist_3_joint": 0.003740566561291736,
        "smoothness": 5.075305295617109e-16,
        "time": 0.040148029,
        "traj_len": 1.5117138365497602,
        "weighted_distance": 1.9071418716699757
    },
    "planner": "BiEST",
    "start": {
        "state": {
            "elbow_joint": 2.0193083361928714,
            "shoulder_lift_joint": -1.1220246554650708,
            "shoulder_pan_joint": -1.0952077554168747,
            "wrist_1_joint": -0.8559753972642168,
            "wrist_2_joint": 0.4759566250798843,
            "wrist_3_joint": -3.1240929996934557
        }
    },
    "waypoints": [
        {
            "positions": [
                -1.0952077554168747,
                -1.1220246554650708,
                2.0193083361928714,
                -0.8559753972642168,
                0.4759566250798843,
                -3.1240929996934557
            ]
        },
        {
            "positions": [
                -1.1911946868415468,
                -1.1710722569136278,
                2.00815821988003,
                -0.7991008341759633,
                0.6431537723146774,
                -3.1234695719332404
            ]
        },
        {
            "positions": [
                -1.2871816182662192,
                -1.2201198583621846,
                1.9970081035671885,
                -0.7422262710877099,
                0.8103509195494705,
                -3.122846144173025
            ]
        },
        {
            "positions": [
                -1.3831685496908914,
                -1.2691674598107416,
                1.985857987254347,
                -0.6853517079994564,
                0.9775480667842635,
                -3.12222271641281
            ]
        },
        {
            "positions": [
                -1.4791554811155636,
                -1.3182150612592987,
                1.9747078709415056,
                -0.628477144911203,
                1.1447452140190566,
                -3.1215992886525945
            ]
        },
        {
            "positions": [
                -1.575142412540236,
                -1.3672626627078555,
                1.9635577546286642,
                -0.5716025818229494,
                1.3119423612538497,
                -3.120975860892379
            ]
        },
        {
            "positions": [
                -1.6711293439649082,
                -1.4163102641564125,
                1.9524076383158226,
                -0.514728018734696,
                1.4791395084886427,
                -3.120352433132164
            ]
        }
    ]
}