{
    "goal": {
        "global_pose": {
            "orientation": {
                "w": 0.005598929693374612,
                "x": 0.007748599140229565,
                "y": 0.7110244013736278,
                "z": -0.7031023480610252
            },
            "position": {
                "x": 0.1141497679147869,
                "y": -0.7141253447532654,
                "z": 0.3711530566215515
            }
        },
        "name": "move_to_auspresseinheit_B"
    },
    "id": "BiEST_move_to_auspresseinheit_B_12",
    "joint_names": [
        "shoulder_pan_joint",
        "shoulder_lift_joint",
        "elbow_joint",
        "wrist_1_joint",
        "wrist_2_joint",
        "wrist_3_joint"
    ],
    "metrics": {
        "cart_traj_len": 0.5644695964748357,
        "distance_elbow_joint": 0.061204623552108206,
        "distance_shoulder_lift_joint": 0.2948319913228383,
        "distance_shoulder_pan_joint": 0.5760891032785651,
        "distance_wrist_1_joint": 0.3256134260682533,
        "distance_wrist_2_joint": 1.0018489809415778,
        "distance_wrist_3_joint": 0.005093360773218425,
        "smoothness": 5.075305255429287e-16,
        "time": 0.064365134,
        "traj_len": 1.5048858713990776,
        "weighted_distance": 1.8979806675761557
    },
    "planner": "BiEST",
    "start": {
        "state": {
            "elbow_joint": 2.0193083361928714,
            "shoulder_lift_joint": -1.1220246554650708,
            "shoulder_pan_joint": -1.0952077554168747,
            "wrist_1_joint": -0.8559753972642168,
            "wrist_2_joint": 0.4759566250798843,
            "wrist_3_joint": -3.1240929996934557
        }
    },
    "waypoints": [
        {
            "positions": [
                -1.0952077554168747,
                -1.1220246554650708,
                2.0193083361928714,
                -0.8559753972642168,
                0.4759566250798843,
                -3.1240929996934557
            ]
        },
        {
            "positions": [
                -1.1912226059633022,
                -1.1711633206855439,
                2.0091075656008535,
                -0.8017064929195079,
                0.6429314552368139,
                -3.1249418931556585
            ]
        },
        {
            "positions": [
                -1.2872374565097298,
                -1.220301985906017,
                1.9989067950088353,
                -0.747437588574799,
                0.8099062853937435,
                -3.125790786617862
            ]
        },
        {
            "positions": [
                -1.383252307056157,
                -1.26944065112649,
                1.9887060244168173,
                -0.6931686842300901,
                0.9768811155506731,
                -3.126639680080065
            ]
        },
        {
            "positions": [
                -1.4792671576025846,
                -1.318579316346963,
                1.9785052538247994,
                -0.6388997798853813,
                1.1438559457076027,
                -3.127488573542268
            ]
        },
        {
            "positions": [
                -1.5752820081490122,
                -1.367717981567436,
                1.9683044832327812,
                -0.5846308755406724,
                1.3108307758645326,
                -3.128337467004471
            ]
        },
        {
            "positions": [
                -1.6712968586954398,
                -1.4168566467879091,
                1.9581037126407632,
                -0.5303619711959635,
                1.4778056060214622,
                -3.129186360466674
            ]
        }
    ]
}