{
    "goal": {
        "global_pose": {
            "orientation": {
                "w": 0.005598929693374612,
                "x": 0.007748599140229565,
                "y": 0.7110244013736278,
                "z": -0.7031023480610252
            },
            "position": {
                "x": -0.8858502320852131,
                "y": -0.7141253447532654,
                "z": 0.3711530566215515
            }
        },
        "name": "move_to_auspresseinheit_C"
    },
    "id": "BiEST_move_to_auspresseinheit_C_129",
    "joint_names": [
        "shoulder_pan_joint",
        "shoulder_lift_joint",
        "elbow_joint",
        "wrist_1_joint",
        "wrist_2_joint",
        "wrist_3_joint"
    ],
    "metrics": {
        "cart_traj_len": 0.49335239813353127,
        "distance_elbow_joint": 1.01315568688744,
        "distance_shoulder_lift_joint": 0.331080504080272,
        "distance_shoulder_pan_joint": 0.25591621501900175,
        "distance_wrist_1_joint": 0.7098220722995571,
        "distance_wrist_2_joint": 1.3159532708096757,
        "distance_wrist_3_joint": 0.07897505116976644,
        "smoothness": 3.2297397335745243e-16,
        "time": 0.089027791,
        "traj_len": 1.9248124065128305,
        "weighted_distance": 2.4266495926924594
    },
    "planner": "BiEST",
    "start": {
        "state": {
            "elbow_joint": 1.7527959577737207,
            "shoulder_lift_joint": -0.9740617694225068,
            "shoulder_pan_joint": -2.967991417825858,
            "wrist_1_joint": -0.759517768980727,
            "wrist_2_joint": 1.7443932448377408,
            "wrist_3_joint": -3.0840537646736568
        }
    },
    "waypoints": [
        {
            "positions": [
                -2.967991417825858,
                -0.9740617694225068,
                1.7527959577737207,
                -0.759517768980727,
                1.7443932448377408,
                -3.0840537646736568
            ]
        },
        {
            "positions": [
                -2.942399796323958,
                -0.9409537190144796,
                1.6514803890849767,
                -0.6885355617507712,
                1.6127979177567733,
                -3.0919512697906333
            ]
        },
        {
            "positions": [
                -2.916808174822058,
                -0.9078456686064523,
                1.5501648203962326,
                -0.6175533545208156,
                1.4812025906758057,
                -3.0998487749076102
            ]
        },
        {
            "positions": [
                -2.8912165533201573,
                -0.8747376181984252,
                1.4488492517074887,
                -0.5465711472908599,
                1.3496072635948382,
                -3.1077462800245867
            ]
        },
        {
            "positions": [
                -2.865624931818257,
                -0.841629567790398,
                1.3475336830187445,
                -0.47558894006090413,
                1.2180119365138706,
                -3.1156437851415633
            ]
        },
        {
            "positions": [
                -2.840033310316357,
                -0.8085215173823708,
                1.2462181143300006,
                -0.40460673283094845,
                1.086416609432903,
                -3.12354129025854
            ]
        },
        {
            "positions": [
                -2.814441688814457,
                -0.7754134669743435,
                1.1449025456412567,
                -0.33362452560099276,
                0.9548212823519354,
                -3.1314387953755167
            ]
        },
        {
            "positions": [
                -2.788850067312557,
                -0.7423054165663163,
                1.0435869769525126,
                -0.2626423183710371,
                0.8232259552709679,
                -3.1393363004924932
            ]
        },
        {
            "positions": [
                -2.7632584458106564,
                -0.7091973661582891,
                0.9422714082637685,
                -0.19166011114108128,
                0.6916306281900002,
                -3.1472338056094697
            ]
        },
        {
            "positions": [
                -2.7376668243087563,
                -0.6760893157502619,
                0.8409558395750246,
                -0.12067790391112565,
                0.5600353011090327,
                -3.1551313107264467
            ]
        },
        {
            "positions": [
                -2.712075202806856,
                -0.6429812653422348,
                0.7396402708862805,
                -0.049695696681169944,
                0.42843997402806505,
                -3.163028815843423
            ]
        }
    ]
}