{
    "goal": {
        "global_pose": {
            "orientation": {
                "w": 0.005598929693374612,
                "x": 0.007748599140229565,
                "y": 0.7110244013736278,
                "z": -0.7031023480610252
            },
            "position": {
                "x": 0.1141497679147869,
                "y": -0.7141253447532654,
                "z": 0.3711530566215515
            }
        },
        "name": "move_to_auspresseinheit_B"
    },
    "id": "BiEST_move_to_auspresseinheit_B_101",
    "joint_names": [
        "shoulder_pan_joint",
        "shoulder_lift_joint",
        "elbow_joint",
        "wrist_1_joint",
        "wrist_2_joint",
        "wrist_3_joint"
    ],
    "metrics": {
        "cart_traj_len": 0.5642625856824188,
        "distance_elbow_joint": 0.06033617063093444,
        "distance_shoulder_lift_joint": 0.29569622359846837,
        "distance_shoulder_pan_joint": 0.5787637465703726,
        "distance_wrist_1_joint": 0.3239813592270181,
        "distance_wrist_2_joint": 0.9852593619626082,
        "distance_wrist_3_joint": 0.0030153450136953808,
        "smoothness": 2.5376526478085547e-16,
        "time": 0.06739018,
        "traj_len": 1.4990170802906475,
        "weighted_distance": 1.8874118835643996
    },
    "planner": "BiEST",
    "start": {
        "state": {
            "elbow_joint": 2.0193083361928714,
            "shoulder_lift_joint": -1.1220246554650708,
            "shoulder_pan_joint": -1.0952077554168747,
            "wrist_1_joint": -0.8559753972642168,
            "wrist_2_joint": 0.4759566250798843,
            "wrist_3_joint": -3.1240929996934557
        }
    },
    "waypoints": [
        {
            "positions": [
                -1.0952077554168747,
                -1.1220246554650708,
                2.0193083361928714,
                -0.8559753972642168,
                0.4759566250798843,
                -3.1240929996934557
            ]
        },
        {
            "positions": [
                -1.19166837984527,
                -1.171307359398149,
                2.0092523077543825,
                -0.8019785040597138,
                0.6401665187403189,
                -3.123590442191173
            ]
        },
        {
            "positions": [
                -1.2881290042736655,
                -1.220590063331227,
                1.9991962793158933,
                -0.7479816108552108,
                0.8043764124007537,
                -3.1230878846888905
            ]
        },
        {
            "positions": [
                -1.384589628702061,
                -1.2698727672643049,
                1.989140250877404,
                -0.6939847176507077,
                0.9685863060611883,
                -3.122585327186608
            ]
        },
        {
            "positions": [
                -1.4810502531304564,
                -1.319155471197383,
                1.9790842224389151,
                -0.6399878244462047,
                1.1327961997216232,
                -3.1220827696843254
            ]
        },
        {
            "positions": [
                -1.5775108775588518,
                -1.368438175130461,
                1.9690281940004262,
                -0.5859909312417018,
                1.2970060933820577,
                -3.121580212182043
            ]
        },
        {
            "positions": [
                -1.6739715019872472,
                -1.4177208790635392,
                1.958972165561937,
                -0.5319940380371987,
                1.4612159870424926,
                -3.1210776546797603
            ]
        }
    ]
}