{
    "goal": {
        "global_pose": {
            "orientation": {
                "w": 0.005598929693374612,
                "x": 0.007748599140229565,
                "y": 0.7110244013736278,
                "z": -0.7031023480610252
            },
            "position": {
                "x": -0.8858502320852131,
                "y": -0.7141253447532654,
                "z": 0.3711530566215515
            }
        },
        "name": "move_to_auspresseinheit_C"
    },
    "id": "BiEST_move_to_auspresseinheit_C_43",
    "joint_names": [
        "shoulder_pan_joint",
        "shoulder_lift_joint",
        "elbow_joint",
        "wrist_1_joint",
        "wrist_2_joint",
        "wrist_3_joint"
    ],
    "metrics": {
        "cart_traj_len": 0.4935144043418702,
        "distance_elbow_joint": 0.9999655568413165,
        "distance_shoulder_lift_joint": 0.3242812108026053,
        "distance_shoulder_pan_joint": 0.25606108234935654,
        "distance_wrist_1_joint": 0.6735319248349889,
        "distance_wrist_2_joint": 1.3176259311624552,
        "distance_wrist_3_joint": 0.04769394713309483,
        "smoothness": 6.45947944157498e-16,
        "time": 0.155835864,
        "traj_len": 1.9024089079700548,
        "weighted_distance": 2.388661843666334
    },
    "planner": "BiEST",
    "start": {
        "state": {
            "elbow_joint": 1.7527959577737207,
            "shoulder_lift_joint": -0.9740617694225068,
            "shoulder_pan_joint": -2.967991417825858,
            "wrist_1_joint": -0.759517768980727,
            "wrist_2_joint": 1.7443932448377408,
            "wrist_3_joint": -3.0840537646736568
        }
    },
    "waypoints": [
        {
            "positions": [
                -2.967991417825858,
                -0.9740617694225068,
                1.7527959577737207,
                -0.759517768980727,
                1.7443932448377408,
                -3.0840537646736568
            ]
        },
        {
            "positions": [
                -2.9423853095909225,
                -0.9416336483422463,
                1.652799402089589,
                -0.6921645764972281,
                1.6126306517214952,
                -3.0888231593869664
            ]
        },
        {
            "positions": [
                -2.9167792013559866,
                -0.9092055272619857,
                1.5528028464054573,
                -0.6248113840137292,
                1.4808680586052498,
                -3.0935925541002756
            ]
        },
        {
            "positions": [
                -2.891173093121051,
                -0.8767774061817252,
                1.4528062907213257,
                -0.5574581915302304,
                1.3491054654890042,
                -3.098361948813585
            ]
        },
        {
            "positions": [
                -2.865566984886115,
                -0.8443492851014647,
                1.352809735037194,
                -0.4901049990467314,
                1.2173428723727588,
                -3.103131343526895
            ]
        },
        {
            "positions": [
                -2.8399608766511797,
                -0.8119211640212041,
                1.2528131793530624,
                -0.4227518065632325,
                1.0855802792565132,
                -3.107900738240204
            ]
        },
        {
            "positions": [
                -2.814354768416244,
                -0.7794930429409436,
                1.1528166236689308,
                -0.35539861407973367,
                0.9538176861402677,
                -3.1126701329535136
            ]
        },
        {
            "positions": [
                -2.7887486601813083,
                -0.7470649218606831,
                1.0528200679847992,
                -0.28804542159623475,
                0.8220550930240222,
                -3.117439527666823
            ]
        },
        {
            "positions": [
                -2.763142551946373,
                -0.7146368007804225,
                0.9528235123006674,
                -0.22069222911273578,
                0.6902924999077766,
                -3.122208922380133
            ]
        },
        {
            "positions": [
                -2.737536443711437,
                -0.682208679700162,
                0.8528269566165358,
                -0.15333903662923698,
                0.558529906791531,
                -3.126978317093442
            ]
        },
        {
            "positions": [
                -2.7119303354765014,
                -0.6497805586199015,
                0.7528304009324042,
                -0.08598584414573812,
                0.42676731367528575,
                -3.1317477118067516
            ]
        }
    ]
}