{
    "goal": {
        "global_pose": {
            "orientation": {
                "w": 0.005598929693374612,
                "x": 0.007748599140229565,
                "y": 0.7110244013736278,
                "z": -0.7031023480610252
            },
            "position": {
                "x": -0.8858502320852131,
                "y": -0.7141253447532654,
                "z": 0.3711530566215515
            }
        },
        "name": "move_to_auspresseinheit_C"
    },
    "id": "BiEST_move_to_auspresseinheit_C_60",
    "joint_names": [
        "shoulder_pan_joint",
        "shoulder_lift_joint",
        "elbow_joint",
        "wrist_1_joint",
        "wrist_2_joint",
        "wrist_3_joint"
    ],
    "metrics": {
        "cart_traj_len": 0.49445295133228495,
        "distance_elbow_joint": 1.012575166588392,
        "distance_shoulder_lift_joint": 0.33072560716499266,
        "distance_shoulder_pan_joint": 0.257303341427654,
        "distance_wrist_1_joint": 0.7069132235192847,
        "distance_wrist_2_joint": 1.3070803553018315,
        "distance_wrist_3_joint": 0.08018893858293286,
        "smoothness": 0.0,
        "time": 0.06508491,
        "traj_len": 1.9221827781418417,
        "weighted_distance": 2.422634534669245
    },
    "planner": "BiEST",
    "start": {
        "state": {
            "elbow_joint": 1.7527959577737207,
            "shoulder_lift_joint": -0.9740617694225068,
            "shoulder_pan_joint": -2.967991417825858,
            "wrist_1_joint": -0.759517768980727,
            "wrist_2_joint": 1.7443932448377408,
            "wrist_3_joint": -3.0840537646736568
        }
    },
    "waypoints": [
        {
            "positions": [
                -2.967991417825858,
                -0.9740617694225068,
                1.7527959577737207,
                -0.759517768980727,
                1.7443932448377408,
                -3.0840537646736568
            ]
        },
        {
            "positions": [
                -2.9422610836830927,
                -0.9409892087060076,
                1.6515384411148815,
                -0.6888264466287985,
                1.6136852093075578,
                -3.0920726585319502
            ]
        },
        {
            "positions": [
                -2.916530749540327,
                -0.9079166479895082,
                1.5502809244560423,
                -0.61813512427687,
                1.4829771737773745,
                -3.1000915523902433
            ]
        },
        {
            "positions": [
                -2.8908004153975617,
                -0.874844087273009,
                1.449023407797203,
                -0.5474438019249416,
                1.3522691382471914,
                -3.1081104462485367
            ]
        },
        {
            "positions": [
                -2.8650700812547965,
                -0.8417715265565097,
                1.3477658911383639,
                -0.4767524795730131,
                1.2215611027170081,
                -3.1161293401068297
            ]
        },
        {
            "positions": [
                -2.8393397471120307,
                -0.8086989658400104,
                1.2465083744795247,
                -0.40606115722108466,
                1.090853067186825,
                -3.124148233965123
            ]
        },
        {
            "positions": [
                -2.8136094129692655,
                -0.7756264051235112,
                1.1452508578206855,
                -0.3353698348691562,
                0.9601450316566419,
                -3.1321671278234167
            ]
        },
        {
            "positions": [
                -2.7878790788265,
                -0.7425538444070119,
                1.0439933411618463,
                -0.26467851251722774,
                0.8294369961264588,
                -3.1401860216817097
            ]
        },
        {
            "positions": [
                -2.762148744683735,
                -0.7094812836905127,
                0.9427358245030071,
                -0.1939871901652992,
                0.6987289605962757,
                -3.148204915540003
            ]
        },
        {
            "positions": [
                -2.7364184105409692,
                -0.6764087229740134,
                0.8414783078441679,
                -0.12329586781337076,
                0.5680209250660924,
                -3.156223809398296
            ]
        },
        {
            "positions": [
                -2.710688076398204,
                -0.6433361622575141,
                0.7402207911853286,
                -0.052604545461442324,
                0.4373128895359093,
                -3.1642427032565896
            ]
        }
    ]
}