{
    "goal": {
        "global_pose": {
            "orientation": {
                "w": 0.5084816217422485,
                "x": -0.49083608388900757,
                "y": 0.5182115435600281,
                "z": -0.4816462993621826
            },
            "position": {
                "x": 0.5540239810943604,
                "y": 0.030875300988554955,
                "z": 0.16403168439865112
            }
        },
        "name": "move_to_storage_A"
    },
    "id": "BiEST_move_to_storage_A_40",
    "joint_names": [
        "shoulder_pan_joint",
        "shoulder_lift_joint",
        "elbow_joint",
        "wrist_1_joint",
        "wrist_2_joint",
        "wrist_3_joint"
    ],
    "metrics": {
        "cart_traj_len": 0.35323791377471725,
        "distance_elbow_joint": 0.4499748248059172,
        "distance_shoulder_lift_joint": 0.2362507104150977,
        "distance_shoulder_pan_joint": 0.46329454958638083,
        "distance_wrist_1_joint": 0.23695863729480882,
        "distance_wrist_2_joint": 1.094353596355096,
        "distance_wrist_3_joint": 0.09269165029887194,
        "smoothness": 4.440892133664971e-16,
        "time": 0.043916412,
        "traj_len": 1.6042206733352404,
        "weighted_distance": 2.0224291095125735
    },
    "planner": "BiEST",
    "start": {
        "state": {
            "elbow_joint": 1.971548259319323,
            "shoulder_lift_joint": -1.1394851275133948,
            "shoulder_pan_joint": 0.1228115487234821,
            "wrist_1_joint": -0.7804723859257726,
            "wrist_2_joint": 0.12958671773740124,
            "wrist_3_joint": -3.192489227718131
        }
    },
    "waypoints": [
        {
            "positions": [
                0.1228115487234821,
                -1.1394851275133948,
                1.971548259319323,
                -0.7804723859257726,
                0.12958671773740124,
                -3.192489227718131
            ]
        },
        {
            "positions": [
                0.05662661306828484,
                -1.173235229001266,
                2.0358303771487396,
                -0.814323619825031,
                0.28592294578812927,
                -3.179247563389721
            ]
        },
        {
            "positions": [
                -0.009558322586912416,
                -1.206985330489137,
                2.1001124949781564,
                -0.8481748537242895,
                0.44225917383885727,
                -3.1660058990613105
            ]
        },
        {
            "positions": [
                -0.07574325824210967,
                -1.240735431977008,
                2.1643946128075733,
                -0.8820260876235478,
                0.5985954018895853,
                -3.1527642347329
            ]
        },
        {
            "positions": [
                -0.14192819389730693,
                -1.2744855334648792,
                2.22867673063699,
                -0.9158773215228062,
                0.7549316299403133,
                -3.1395225704044902
            ]
        },
        {
            "positions": [
                -0.20811312955250422,
                -1.3082356349527504,
                2.292958848466407,
                -0.9497285554220647,
                0.9112678579910414,
                -3.12628090607608
            ]
        },
        {
            "positions": [
                -0.27429806520770145,
                -1.3419857364406214,
                2.3572409662958234,
                -0.983579789321323,
                1.0676040860417693,
                -3.1130392417476695
            ]
        },
        {
            "positions": [
                -0.34048300086289873,
                -1.3757358379284925,
                2.42152308412524,
                -1.0174310232205814,
                1.2239403140924974,
                -3.099797577419259
            ]
        }
    ]
}{
    "goal": {
        "global_pose": {
            "orientation": {
                "w": 0.5084816217422485,
                "x": -0.49083608388900757,
                "y": 0.5182115435600281,
                "z": -0.4816462993621826
            },
            "position": {
                "x": 0.5540239810943604,
                "y": 0.030875300988554955,
                "z": 0.16403168439865112
            }
        },
        "name": "move_to_storage_A"
    },
    "id": "BiEST_move_to_storage_A_40",
    "joint_names": [
        "shoulder_pan_joint",
        "shoulder_lift_joint",
        "elbow_joint",
        "wrist_1_joint",
        "wrist_2_joint",
        "wrist_3_joint"
    ],
    "metrics": {
        "cart_traj_len": 0.35323167292795915,
        "distance_elbow_joint": 0.4506734379410111,
        "distance_shoulder_lift_joint": 0.23555001294695765,
        "distance_shoulder_pan_joint": 0.46092302348242215,
        "distance_wrist_1_joint": 0.24177918600846682,
        "distance_wrist_2_joint": 1.1041927852920117,
        "distance_wrist_3_joint": 0.10027878953625002,
        "smoothness": 6.661338165333112e-16,
        "time": 0.059180176,
        "traj_len": 1.6104028176847929,
        "weighted_distance": 2.034681003395888
    },
    "planner": "BiEST",
    "start": {
        "state": {
            "elbow_joint": 1.97154746011099,
            "shoulder_lift_joint": -1.13948474672311,
            "shoulder_pan_joint": 0.12281154466712228,
            "wrist_1_joint": -0.7804688027058302,
            "wrist_2_joint": 0.12958655903071145,
            "wrist_3_joint": 3.0906928834467795
        }
    },
    "waypoints": [
        {
            "positions": [
                0.12281154466712228,
                -1.13948474672311,
                1.97154746011099,
                -0.7804688027058302,
                0.12958655903071145,
                3.0906928834467795
            ]
        },
        {
            "positions": [
                0.05696539845534769,
                -1.1731347485726753,
                2.0359293798168485,
                -0.8150086864213254,
                0.2873283855009988,
                3.105018424809101
            ]
        },
        {
            "positions": [
                -0.008880747756426902,
                -1.2067847504222406,
                2.1003112995227076,
                -0.8495485701368207,
                0.44507021197128616,
                3.119343966171422
            ]
        },
        {
            "positions": [
                -0.0747268939682015,
                -1.240434752271806,
                2.164693219228566,
                -0.8840884538523159,
                0.6028120384415736,
                3.1336695075337437
            ]
        },
        {
            "positions": [
                -0.14057304017997607,
                -1.2740847541213713,
                2.2290751389344248,
                -0.9186283375678113,
                0.7605538649118609,
                3.1479950488960653
            ]
        },
        {
            "positions": [
                -0.20641918639175066,
                -1.307734755970937,
                2.293457058640284,
                -0.9531682212833065,
                0.9182956913821484,
                3.162320590258387
            ]
        },
        {
            "positions": [
                -0.27226533260352526,
                -1.3413847578205023,
                2.3578389783461424,
                -0.9877081049988017,
                1.0760375178524357,
                3.176646131620708
            ]
        },
        {
            "positions": [
                -0.33811147881529985,
                -1.3750347596700676,
                2.422220898052001,
                -1.022247988714297,
                1.2337793443227232,
                3.1909716729830295
            ]
        }
    ]
}{
    "goal": {
        "global_pose": {
            "orientation": {
                "w": 0.5084816217422485,
                "x": -0.49083608388900757,
                "y": 0.5182115435600281,
                "z": -0.4816462993621826
            },
            "position": {
                "x": 0.5540239810943604,
                "y": 0.030875300988554955,
                "z": 0.16403168439865112
            }
        },
        "name": "move_to_storage_A"
    },
    "id": "BiEST_move_to_storage_A_40",
    "joint_names": [
        "shoulder_pan_joint",
        "shoulder_lift_joint",
        "elbow_joint",
        "wrist_1_joint",
        "wrist_2_joint",
        "wrist_3_joint"
    ],
    "metrics": {
        "cart_traj_len": 0.35279098429016625,
        "distance_elbow_joint": 0.45083601285565766,
        "distance_shoulder_lift_joint": 0.234379293534829,
        "distance_shoulder_pan_joint": 0.46316531061632477,
        "distance_wrist_1_joint": 0.24143486656531543,
        "distance_wrist_2_joint": 1.0909013178769524,
        "distance_wrist_3_joint": 0.09655706142866105,
        "smoothness": 6.661338165333112e-16,
        "time": 0.065422745,
        "traj_len": 1.6053890067138683,
        "weighted_distance": 2.0255182473079154
    },
    "planner": "BiEST",
    "start": {
        "state": {
            "elbow_joint": 1.9715472970024885,
            "shoulder_lift_joint": -1.1394870060712896,
            "shoulder_pan_joint": 0.12281152778156021,
            "wrist_1_joint": -0.780463741449964,
            "wrist_2_joint": 0.12958659822042276,
            "wrist_3_joint": 3.090690232415272
        }
    },
    "waypoints": [
        {
            "positions": [
                0.12281152778156021,
                -1.1394870060712896,
                1.9715472970024885,
                -0.780463741449964,
                0.12958659822042276,
                3.090690232415272
            ]
        },
        {
            "positions": [
                0.05664505483637097,
                -1.1729697622905508,
                2.035952441696154,
                -0.8149544366735805,
                0.285429643631416,
                3.104484098333652
            ]
        },
        {
            "positions": [
                -0.009521418108818264,
                -1.2064525185098123,
                2.100357586389819,
                -0.849445131897197,
                0.4412726890424091,
                3.118277964252032
            ]
        },
        {
            "positions": [
                -0.0756878910540075,
                -1.2399352747290735,
                2.1647627310834845,
                -0.8839358271208134,
                0.5971157344534024,
                3.1320718301704122
            ]
        },
        {
            "positions": [
                -0.14185436399919674,
                -1.2734180309483347,
                2.22916787577715,
                -0.9184265223444299,
                0.7529587798643955,
                3.1458656960887925
            ]
        },
        {
            "positions": [
                -0.20802083694438603,
                -1.3069007871675962,
                2.2935730204708156,
                -0.9529172175680465,
                0.9088018252753888,
                3.159659562007173
            ]
        },
        {
            "positions": [
                -0.2741873098895752,
                -1.3403835433868574,
                2.357978165164481,
                -0.987407912791663,
                1.064644870686382,
                3.1734534279255526
            ]
        },
        {
            "positions": [
                -0.34035378283476453,
                -1.3738662996061186,
                2.422383309858146,
                -1.0218986080152794,
                1.2204879160973752,
                3.187247293843933
            ]
        }
    ]
}