{
    "goal": {
        "global_pose": {
            "orientation": {
                "w": -0.00223480608172531,
                "x": 0.0024358444001904467,
                "y": 0.7094548369677653,
                "z": -0.704743149386269
            },
            "position": {
                "x": -0.37947507619857795,
                "y": -0.6371506643295288,
                "z": 0.19426114857196808
            }
        },
        "name": "move_to_magneteinheit_C"
    },
    "id": "BiEST_move_to_magneteinheit_C_88",
    "joint_names": [
        "shoulder_pan_joint",
        "shoulder_lift_joint",
        "elbow_joint",
        "wrist_1_joint",
        "wrist_2_joint",
        "wrist_3_joint"
    ],
    "metrics": {
        "cart_traj_len": 0.6529581373440434,
        "distance_elbow_joint": 0.07544623470222112,
        "distance_shoulder_lift_joint": 0.25248227698074843,
        "distance_shoulder_pan_joint": 0.9876860723862719,
        "distance_wrist_1_joint": 1.8914277724118158,
        "distance_wrist_2_joint": 1.4192357058646636,
        "distance_wrist_3_joint": 2.066272393295351,
        "smoothness": 1.138323681054284,
        "time": 0.073055663,
        "traj_len": 2.5869964158539283,
        "weighted_distance": 3.759755141030896
    },
    "planner": "BiEST",
    "start": {
        "state": {
            "elbow_joint": 1.9565354010623817,
            "shoulder_lift_joint": -1.4165861575791021,
            "shoulder_pan_joint": -1.6717766225146293,
            "wrist_1_joint": -0.5286633292919765,
            "wrist_2_joint": 1.472756589071564,
            "wrist_3_joint": -3.1238370188695823
        }
    },
    "waypoints": [
        {
            "positions": [
                -1.6717766225146293,
                -1.4165861575791021,
                1.9565354010623817,
                -0.5286633292919765,
                1.472756589071564,
                -3.1238370188695823
            ]
        },
        {
            "positions": [
                -1.7531001612077384,
                -1.404098885398217,
                1.9623262222581208,
                -0.4558718545452396,
                1.3723228298913819,
                -3.0313749951407596
            ]
        },
        {
            "positions": [
                -1.8344236999008472,
                -1.391611613217332,
                1.9681170434538597,
                -0.38308037979850273,
                1.2718890707111996,
                -2.938912971411937
            ]
        },
        {
            "positions": [
                -1.9157472385939562,
                -1.379124341036447,
                1.9739078646495989,
                -0.310288905051766,
                1.1714553115310176,
                -2.846450947683114
            ]
        },
        {
            "positions": [
                -1.9970707772870653,
                -1.366637068855562,
                1.979698685845338,
                -0.23749743030502907,
                1.0710215523508355,
                -2.7539889239542914
            ]
        },
        {
            "positions": [
                -2.0783943159801743,
                -1.354149796674677,
                1.985489507041077,
                -0.16470595555829226,
                0.9705877931706534,
                -2.6615269002254687
            ]
        },
        {
            "positions": [
                -2.1597178546732834,
                -1.3416625244937919,
                1.991280328236816,
                -0.09191448081155545,
                0.8701540339904713,
                -2.569064876496646
            ]
        },
        {
            "positions": [
                -2.241041393366392,
                -1.3291752523129068,
                1.997071149432555,
                -0.019123006064818537,
                0.7697202748102892,
                -2.476602852767823
            ]
        },
        {
            "positions": [
                -2.322364932059501,
                -1.3166879801320217,
                2.0028619706282944,
                0.053668468681918324,
                0.669286515630107,
                -2.3841408290390005
            ]
        },
        {
            "positions": [
                -2.40368847075261,
                -1.3042007079511369,
                2.008652791824033,
                0.12645994342865519,
                0.568852756449925,
                -2.2916788053101778
            ]
        },
        {
            "positions": [
                -2.485012009445719,
                -1.2917134357702518,
                2.0144436130197723,
                0.19925141817539194,
                0.4684189972697428,
                -2.199216781581355
            ]
        },
        {
            "positions": [
                -2.566335548138828,
                -1.2792261635893667,
                2.0202344342155114,
                0.2720428929221288,
                0.36798523808956074,
                -2.1067547578525323
            ]
        },
        {
            "positions": [
                -2.5530316700299607,
                -1.2627801231620792,
                2.018556262565641,
                0.11622552860817018,
                0.4129087173585122,
                -2.256639062463718
            ]
        },
        {
            "positions": [
                -2.5397277919210928,
                -1.2463340827347915,
                2.016878090915771,
                -0.03959183570578845,
                0.4578321966274637,
                -2.4065233670749038
            ]
        },
        {
            "positions": [
                -2.5264239138122253,
                -1.229888042307504,
                2.0151999192659007,
                -0.19540920001974704,
                0.5027556758964152,
                -2.55640767168609
            ]
        },
        {
            "positions": [
                -2.513120035703358,
                -1.2134420018802163,
                2.0135217476160308,
                -0.3512265643337057,
                0.5476791551653667,
                -2.7062919762972757
            ]
        },
        {
            "positions": [
                -2.4998161575944904,
                -1.1969959614529289,
                2.0118435759661604,
                -0.5070439286476643,
                0.5926026344343183,
                -2.8561762809084614
            ]
        },
        {
            "positions": [
                -2.4865122794856225,
                -1.1805499210256412,
                2.0101654043162904,
                -0.6628612929616229,
                0.6375261137032697,
                -3.0060605855196476
            ]
        },
        {
            "positions": [
                -2.473208401376755,
                -1.1641038805983537,
                2.00848723266642,
                -0.8186786572755815,
                0.6824495929722212,
                -3.1559448901308333
            ]
        }
    ]
}