{
    "goal": {
        "global_pose": {
            "orientation": {
                "w": -0.00223480608172531,
                "x": 0.0024358444001904467,
                "y": 0.7094548369677653,
                "z": -0.704743149386269
            },
            "position": {
                "x": -0.37947507619857795,
                "y": -0.6371506643295288,
                "z": 0.19426114857196808
            }
        },
        "name": "move_to_magneteinheit_C"
    },
    "id": "BiEST_move_to_magneteinheit_C_138",
    "joint_names": [
        "shoulder_pan_joint",
        "shoulder_lift_joint",
        "elbow_joint",
        "wrist_1_joint",
        "wrist_2_joint",
        "wrist_3_joint"
    ],
    "metrics": {
        "cart_traj_len": 0.796130871356622,
        "distance_elbow_joint": 0.07703312192812373,
        "distance_shoulder_lift_joint": 0.25421237894636994,
        "distance_shoulder_pan_joint": 0.8717122871178538,
        "distance_wrist_1_joint": 0.3038958612178848,
        "distance_wrist_2_joint": 1.184788493643338,
        "distance_wrist_3_joint": 0.025698076359027322,
        "smoothness": 0.570433886270514,
        "time": 0.359939205,
        "traj_len": 1.6484356885279443,
        "weighted_distance": 2.0633518184720403
    },
    "planner": "BiEST",
    "start": {
        "state": {
            "elbow_joint": 1.9565354010623817,
            "shoulder_lift_joint": -1.4165861575791021,
            "shoulder_pan_joint": -1.6717766225146293,
            "wrist_1_joint": -0.5286633292919765,
            "wrist_2_joint": 1.472756589071564,
            "wrist_3_joint": -3.1238370188695823
        }
    },
    "waypoints": [
        {
            "positions": [
                -1.6717766225146293,
                -1.4165861575791021,
                1.9565354010623817,
                -0.5286633292919765,
                1.472756589071564,
                -3.1238370188695823
            ]
        },
        {
            "positions": [
                -1.660212084884579,
                -1.4141187734375464,
                1.952472469693716,
                -0.5461202409172458,
                1.1412563751419071,
                -3.1248577280665812
            ]
        },
        {
            "positions": [
                -1.6486475472545286,
                -1.4116513892959905,
                1.94840953832505,
                -0.5635771525425151,
                0.8097561612122502,
                -3.1258784372635797
            ]
        },
        {
            "positions": [
                -1.6370830096244782,
                -1.4091840051544349,
                1.9443466069563842,
                -0.5810340641677844,
                0.47825594728259335,
                -3.1268991464605786
            ]
        },
        {
            "positions": [
                -1.8044867444700188,
                -1.3598219598500942,
                1.9573154725208095,
                -0.6313390894361998,
                0.5163135176534669,
                -3.1314263362141848
            ]
        },
        {
            "positions": [
                -1.9718904793155592,
                -1.3104599145457538,
                1.9702843380852346,
                -0.6816441147046152,
                0.5543710880243403,
                -3.135953525967791
            ]
        },
        {
            "positions": [
                -2.1392942141610995,
                -1.2610978692414132,
                1.98325320364966,
                -0.7319491399730305,
                0.5924286583952139,
                -3.1404807157213974
            ]
        },
        {
            "positions": [
                -2.30669794900664,
                -1.2117358239370728,
                1.996222069214085,
                -0.7822541652414459,
                0.6304862287660873,
                -3.1450079054750035
            ]
        },
        {
            "positions": [
                -2.4741016838521808,
                -1.1623737786327322,
                2.0091909347785104,
                -0.8325591905098613,
                0.6685437991369608,
                -3.1495350952286096
            ]
        }
    ]
}