{
    "goal": {
        "global_pose": {
            "orientation": {
                "w": 0.5084816262002911,
                "x": -0.4908360881923452,
                "y": 0.5182115481033761,
                "z": -0.48164630358495003
            },
            "position": {
                "x": 0.5540239810943604,
                "y": -0.46912469901144505,
                "z": 0.16403168439865112
            }
        },
        "name": "move_to_storage_B"
    },
    "id": "BiEST_move_to_storage_B_135",
    "joint_names": [
        "shoulder_pan_joint",
        "shoulder_lift_joint",
        "elbow_joint",
        "wrist_1_joint",
        "wrist_2_joint",
        "wrist_3_joint"
    ],
    "metrics": {
        "cart_traj_len": 3.298902693893864,
        "distance_elbow_joint": 2.1027480172896507,
        "distance_shoulder_lift_joint": 1.3536235011356355,
        "distance_shoulder_pan_joint": 2.9090248108592744,
        "distance_wrist_1_joint": 3.0253445212292664,
        "distance_wrist_2_joint": 2.7020812265183687,
        "distance_wrist_3_joint": 3.1675449562469815,
        "smoothness": 0.2846584888672436,
        "time": 0.084691284,
        "traj_len": 3.9064519750381135,
        "weighted_distance": 5.227129488880181
    },
    "planner": "BiEST",
    "start": {
        "state": {
            "elbow_joint": 1.664937868594044,
            "shoulder_lift_joint": -0.661644460510453,
            "shoulder_pan_joint": -0.9139846352900073,
            "wrist_1_joint": 2.146753192139373,
            "wrist_2_joint": -2.2341966793290973,
            "wrist_3_joint": 0.005466555786416001
        }
    },
    "waypoints": [
        {
            "positions": [
                -0.9139846352900073,
                -0.661644460510453,
                1.664937868594044,
                2.146753192139373,
                -2.2341966793290973,
                0.005466555786416001
            ]
        },
        {
            "positions": [
                -0.8490298386939961,
                -0.7048745015969714,
                1.6234018179054417,
                2.0827607767406873,
                -2.1089344571061326,
                0.05386833432850296
            ]
        },
        {
            "positions": [
                -0.7840750420979848,
                -0.7481045426834899,
                1.5818657672168392,
                2.0187683613420013,
                -1.983672234883168,
                0.10227011287058992
            ]
        },
        {
            "positions": [
                -0.7191202455019736,
                -0.7913345837700083,
                1.540329716528237,
                1.9547759459433154,
                -1.8584100126602032,
                0.15067189141267687
            ]
        },
        {
            "positions": [
                -0.6541654489059624,
                -0.8345646248565267,
                1.4987936658396346,
                1.8907835305446294,
                -1.7331477904372385,
                0.19907366995476383
            ]
        },
        {
            "positions": [
                -0.5892106523099512,
                -0.8777946659430451,
                1.4572576151510324,
                1.8267911151459435,
                -1.6078855682142739,
                0.24747544849685077
            ]
        },
        {
            "positions": [
                -0.52425585571394,
                -0.9210247070295636,
                1.41572156446243,
                1.7627986997472576,
                -1.4826233459913092,
                0.29587722703893776
            ]
        },
        {
            "positions": [
                -0.45930105911792873,
                -0.964254748116082,
                1.3741855137738277,
                1.6988062843485716,
                -1.3573611237683445,
                0.3442790055810247
            ]
        },
        {
            "positions": [
                -0.3943462625219175,
                -1.0074847892026004,
                1.3326494630852252,
                1.6348138689498857,
                -1.2320989015453796,
                0.3926807841231117
            ]
        },
        {
            "positions": [
                -0.3293914659259063,
                -1.050714830289119,
                1.291113412396623,
                1.5708214535511997,
                -1.106836679322415,
                0.44108256266519863
            ]
        },
        {
            "positions": [
                -0.26443666932989507,
                -1.0939448713756375,
                1.2495773617080206,
                1.5068290381525138,
                -0.9815744570994502,
                0.48948434120728557
            ]
        },
        {
            "positions": [
                -0.19948187273388374,
                -1.137174912462156,
                1.2080413110194184,
                1.4428366227538278,
                -0.8563122348764856,
                0.5378861197493725
            ]
        },
        {
            "positions": [
                -0.13452707613787263,
                -1.1804049535486743,
                1.166505260330816,
                1.378844207355142,
                -0.7310500126535209,
                0.5862878982914594
            ]
        },
        {
            "positions": [
                -0.06957227954186129,
                -1.2236349946351928,
                1.1249692096422135,
                1.314851791956456,
                -0.6057877904305562,
                0.6346896768335465
            ]
        },
        {
            "positions": [
                -0.004617482945850182,
                -1.266865035721711,
                1.0834331589536115,
                1.25085937655777,
                -0.4805255682075915,
                0.6830914553756333
            ]
        },
        {
            "positions": [
                0.06033731365016115,
                -1.3100950768082296,
                1.041897108265009,
                1.186866961159084,
                -0.3552633459846266,
                0.7314932339177204
            ]
        },
        {
            "positions": [
                0.12529211024617226,
                -1.353325117894748,
                1.0003610575764066,
                1.1228745457603981,
                -0.23000112376166193,
                0.7798950124598073
            ]
        },
        {
            "positions": [
                0.1902469068421836,
                -1.3965551589812666,
                0.9588250068878044,
                1.0588821303617122,
                -0.10473890153869725,
                0.8282967910018942
            ]
        },
        {
            "positions": [
                0.2552017034381947,
                -1.4397852000677849,
                0.917288956199202,
                0.9948897149630263,
                0.020523320684267432,
                0.8766985695439812
            ]
        },
        {
            "positions": [
                0.32015650003420604,
                -1.4830152411543032,
                0.8757529055105997,
                0.9308972995643403,
                0.1457855429072321,
                0.9251003480860682
            ]
        },
        {
            "positions": [
                0.38511129663021715,
                -1.5262452822408217,
                0.8342168548219974,
                0.8669048841656544,
                0.2710477651301968,
                0.973502126628155
            ]
        },
        {
            "positions": [
                0.45006609322622854,
                -1.5694753233273402,
                0.792680804133395,
                0.8029124687669684,
                0.3963099873531616,
                1.021903905170242
            ]
        },
        {
            "positions": [
                0.36423419976272636,
                -1.5447090656429654,
                0.8610414126238951,
                0.7094955911082539,
                0.40028635178850097,
                1.1414098833293063
            ]
        },
        {
            "positions": [
                0.27840230629922413,
                -1.5199428079585904,
                0.9294020211143953,
                0.6160787134495394,
                0.40426271622384036,
                1.2609158614883704
            ]
        },
        {
            "positions": [
                0.19257041283572202,
                -1.4951765502742154,
                0.9977626296048954,
                0.5226618357908249,
                0.4082390806591797,
                1.3804218396474348
            ]
        },
        {
            "positions": [
                0.10673851937221979,
                -1.4704102925898406,
                1.0661232380953956,
                0.4292449581321104,
                0.4122154450945191,
                1.499927817806499
            ]
        },
        {
            "positions": [
                0.020906625908717613,
                -1.4456440349054658,
                1.1344838465858957,
                0.33582808047339585,
                0.41619180952985846,
                1.6194337959655631
            ]
        },
        {
            "positions": [
                -0.0649252675547845,
                -1.4208777772210908,
                1.2028444550763957,
                0.24241120281468143,
                0.42016817396519784,
                1.7389397741246273
            ]
        },
        {
            "positions": [
                -0.1507571610182868,
                -1.3961115195367158,
                1.2712050635668959,
                0.14899432515596678,
                0.42414453840053723,
                1.8584457522836915
            ]
        },
        {
            "positions": [
                -0.23658905448178896,
                -1.371345261852341,
                1.3395656720573959,
                0.05557744749725235,
                0.4281209028358766,
                1.9779517304427556
            ]
        },
        {
            "positions": [
                -0.32242094794529114,
                -1.3465790041679662,
                1.4079262805478963,
                -0.037839430161462184,
                0.432097267271216,
                2.0974577086018202
            ]
        },
        {
            "positions": [
                -0.4082528414087933,
                -1.3218127464835911,
                1.4762868890383962,
                -0.13125630782017672,
                0.43607363170655533,
                2.2169636867608844
            ]
        },
        {
            "positions": [
                -0.4940847348722956,
                -1.2970464887992161,
                1.5446474975288964,
                -0.22467318547889126,
                0.4400499961418947,
                2.3364696649199486
            ]
        },
        {
            "positions": [
                -0.5799166283357975,
                -1.2722802311148413,
                1.6130081060193966,
                -0.31809006313760557,
                0.4440263605772341,
                2.4559756430790127
            ]
        },
        {
            "positions": [
                -0.6657485217992998,
                -1.2475139734304665,
                1.6813687145098966,
                -0.4115069407963201,
                0.4480027250125735,
                2.575481621238077
            ]
        },
        {
            "positions": [
                -0.7515804152628021,
                -1.2227477157460915,
                1.7497293230003967,
                -0.5049238184550349,
                0.4519790894479129,
                2.694987599397141
            ]
        },
        {
            "positions": [
                -0.8374123087263043,
                -1.1979814580617165,
                1.818089931490897,
                -0.5983406961137494,
                0.4559554538832522,
                2.814493577556205
            ]
        },
        {
            "positions": [
                -0.9232442021898064,
                -1.1732152003773417,
                1.886450539981397,
                -0.6917575737724637,
                0.4599318183185916,
                2.9339995557152694
            ]
        },
        {
            "positions": [
                -1.0090760956533085,
                -1.148448942692967,
                1.954811148471897,
                -0.7851744514311783,
                0.463908182753931,
                3.0535055338743335
            ]
        },
        {
            "positions": [
                -1.0949079891168108,
                -1.123682685008592,
                2.0231717569623973,
                -0.8785913290898927,
                0.46788454718927036,
                3.1730115120333977
            ]
        }
    ]
}