{
    "goal": {
        "global_pose": {
            "orientation": {
                "w": 0.5084816262002911,
                "x": -0.4908360881923452,
                "y": 0.5182115481033761,
                "z": -0.48164630358495003
            },
            "position": {
                "x": 0.5540239810943604,
                "y": -0.46912469901144505,
                "z": 0.16403168439865112
            }
        },
        "name": "move_to_storage_B"
    },
    "id": "BiEST_move_to_storage_B_133",
    "joint_names": [
        "shoulder_pan_joint",
        "shoulder_lift_joint",
        "elbow_joint",
        "wrist_1_joint",
        "wrist_2_joint",
        "wrist_3_joint"
    ],
    "metrics": {
        "cart_traj_len": 0.6861846576162105,
        "distance_elbow_joint": 0.38915853888884344,
        "distance_shoulder_lift_joint": 0.46260720366677766,
        "distance_shoulder_pan_joint": 0.3594192852836845,
        "distance_wrist_1_joint": 3.0785718628853562,
        "distance_wrist_2_joint": 2.705629957630544,
        "distance_wrist_3_joint": 3.170787903238954,
        "smoothness": 0.3389568188537284,
        "time": 0.14083905,
        "traj_len": 3.188443938913488,
        "weighted_distance": 4.721435415060548
    },
    "planner": "BiEST",
    "start": {
        "state": {
            "elbow_joint": 1.664937868594044,
            "shoulder_lift_joint": -0.661644460510453,
            "shoulder_pan_joint": -0.9139846352900073,
            "wrist_1_joint": 2.146753192139373,
            "wrist_2_joint": -2.2341966793290973,
            "wrist_3_joint": 0.005466555786416001
        }
    },
    "waypoints": [
        {
            "positions": [
                -0.9139846352900073,
                -0.661644460510453,
                1.664937868594044,
                2.146753192139373,
                -2.2341966793290973,
                0.005466555786416001
            ]
        },
        {
            "positions": [
                -0.8249943069660333,
                -0.7163211701978631,
                1.6495336298459526,
                2.1738957462139084,
                -2.2050195183113823,
                0.037521534384655233
            ]
        },
        {
            "positions": [
                -0.8353954206952529,
                -0.732010804581685,
                1.6639087952359817,
                2.056533080490415,
                -2.102079026133966,
                -0.08319896271691073
            ]
        },
        {
            "positions": [
                -0.8457965344244726,
                -0.7477004389655068,
                1.6782839606260105,
                1.939170414766922,
                -1.9991385339565493,
                -0.2039194598184767
            ]
        },
        {
            "positions": [
                -0.8561976481536921,
                -0.7633900733493286,
                1.6926591260160395,
                1.821807749043429,
                -1.8961980417791329,
                -0.32463995692004266
            ]
        },
        {
            "positions": [
                -0.8665987618829118,
                -0.7790797077331504,
                1.7070342914060683,
                1.7044450833199358,
                -1.7932575496017165,
                -0.4453604540216086
            ]
        },
        {
            "positions": [
                -0.8769998756121314,
                -0.7947693421169723,
                1.7214094567960974,
                1.5870824175964429,
                -1.6903170574242998,
                -0.5660809511231746
            ]
        },
        {
            "positions": [
                -0.887400989341351,
                -0.8104589765007941,
                1.7357846221861262,
                1.4697197518729497,
                -1.5873765652468834,
                -0.6868014482247405
            ]
        },
        {
            "positions": [
                -0.8978021030705707,
                -0.8261486108846159,
                1.7501597875761552,
                1.3523570861494565,
                -1.484436073069467,
                -0.8075219453263064
            ]
        },
        {
            "positions": [
                -0.9082032167997903,
                -0.8418382452684378,
                1.764534952966184,
                1.2349944204259633,
                -1.3814955808920506,
                -0.9282424424278725
            ]
        },
        {
            "positions": [
                -0.9186043305290099,
                -0.8575278796522596,
                1.778910118356213,
                1.1176317547024703,
                -1.2785550887146342,
                -1.0489629395294382
            ]
        },
        {
            "positions": [
                -0.9290054442582296,
                -0.8732175140360814,
                1.7932852837462419,
                1.0002690889789772,
                -1.1756145965372176,
                -1.1696834366310043
            ]
        },
        {
            "positions": [
                -0.9394065579874492,
                -0.8889071484199033,
                1.8076604491362709,
                0.882906423255484,
                -1.0726741043598012,
                -1.2904039337325701
            ]
        },
        {
            "positions": [
                -0.9498076717166689,
                -0.9045967828037251,
                1.8220356145262997,
                0.7655437575319908,
                -0.9697336121823845,
                -1.4111244308341362
            ]
        },
        {
            "positions": [
                -0.9602087854458885,
                -0.9202864171875469,
                1.8364107799163287,
                0.6481810918084978,
                -0.8667931200049681,
                -1.531844927935702
            ]
        },
        {
            "positions": [
                -0.9706098991751081,
                -0.9359760515713687,
                1.8507859453063578,
                0.5308184260850048,
                -0.7638526278275517,
                -1.6525654250372679
            ]
        },
        {
            "positions": [
                -0.9810110129043278,
                -0.9516656859551905,
                1.8651611106963866,
                0.41345576036151166,
                -0.6609121356501353,
                -1.7732859221388337
            ]
        },
        {
            "positions": [
                -0.9914121266335474,
                -0.9673553203390124,
                1.8795362760864156,
                0.29609309463801825,
                -0.5579716434727187,
                -1.8940064192404
            ]
        },
        {
            "positions": [
                -1.001813240362767,
                -0.9830449547228342,
                1.8939114414764444,
                0.17873042891452529,
                -0.45503115129530225,
                -2.014726916341966
            ]
        },
        {
            "positions": [
                -1.0122143540919866,
                -0.998734589106656,
                1.9082866068664734,
                0.06136776319103232,
                -0.35209065911788584,
                -2.135447413443532
            ]
        },
        {
            "positions": [
                -1.0226154678212063,
                -1.014424223490478,
                1.9226617722565023,
                -0.055994902532460866,
                -0.24915016694046943,
                -2.256167910545098
            ]
        },
        {
            "positions": [
                -1.033016581550426,
                -1.0301138578742997,
                1.9370369376465313,
                -0.17335756825595405,
                -0.1462096747630528,
                -2.376888407646664
            ]
        },
        {
            "positions": [
                -1.0434176952796457,
                -1.0458034922581216,
                1.95141210303656,
                -0.29072023397944724,
                -0.04326918258563639,
                -2.4976089047482297
            ]
        },
        {
            "positions": [
                -1.0538188090088652,
                -1.0614931266419434,
                1.9657872684265891,
                -0.4080828997029404,
                0.05967130959178002,
                -2.618329401849796
            ]
        },
        {
            "positions": [
                -1.0642199227380849,
                -1.0771827610257652,
                1.980162433816618,
                -0.5254455654264332,
                0.16261180176919643,
                -2.739049898951362
            ]
        },
        {
            "positions": [
                -1.0746210364673046,
                -1.0928723954095871,
                1.994537599206647,
                -0.6428082311499268,
                0.2655522939466133,
                -2.859770396052928
            ]
        },
        {
            "positions": [
                -1.085022150196524,
                -1.108562029793409,
                2.008912764596676,
                -0.7601708968734195,
                0.3684927861240297,
                -2.9804908931544936
            ]
        },
        {
            "positions": [
                -1.0954232639257437,
                -1.1242516641772307,
                2.023287929986705,
                -0.8775335625969125,
                0.4714332783014463,
                -3.1012113902560596
            ]
        }
    ]
}