{
    "goal": {
        "global_pose": {
            "orientation": {
                "w": -0.00223480608172531,
                "x": 0.0024358444001904467,
                "y": 0.7094548369677653,
                "z": -0.704743149386269
            },
            "position": {
                "x": 0.6205249238014221,
                "y": -0.6371506643295288,
                "z": 0.19426114857196808
            }
        },
        "name": "move_to_magneteinheit_B"
    },
    "id": "BiEST_move_to_magneteinheit_B_110",
    "joint_names": [
        "shoulder_pan_joint",
        "shoulder_lift_joint",
        "elbow_joint",
        "wrist_1_joint",
        "wrist_2_joint",
        "wrist_3_joint"
    ],
    "metrics": {
        "cart_traj_len": 4.605736214912332,
        "distance_elbow_joint": 6.2794632522654545,
        "distance_shoulder_lift_joint": 1.1491387489435247,
        "distance_shoulder_pan_joint": 4.624604963186407,
        "distance_wrist_1_joint": 4.238883340384102,
        "distance_wrist_2_joint": 2.1835868640822778,
        "distance_wrist_3_joint": 3.0679375509212887,
        "smoothness": 0.4068614815697831,
        "time": 0.301022193,
        "traj_len": 4.641509961185375,
        "weighted_distance": 5.839688350082736
    },
    "planner": "BiEST",
    "start": {
        "state": {
            "elbow_joint": 2.6216224122426386,
            "shoulder_lift_joint": -1.4174107377796124,
            "shoulder_pan_joint": 0.7066234856936794,
            "wrist_1_joint": 1.9546482284002225,
            "wrist_2_joint": -0.7096286983471962,
            "wrist_3_joint": 0.005740856962016249
        }
    },
    "waypoints": [
        {
            "positions": [
                0.7066234856936794,
                -1.4174107377796124,
                2.6216224122426386,
                1.9546482284002225,
                -0.7096286983471962,
                0.005740856962016249
            ]
        },
        {
            "positions": [
                0.630657590398064,
                -1.4189463084998812,
                2.6055100574563057,
                1.8809696138919691,
                -0.6151026481431617,
                -0.0327087737899987
            ]
        },
        {
            "positions": [
                0.5546916951024486,
                -1.4204818792201501,
                2.589397702669973,
                1.8072909993837158,
                -0.5205765979391273,
                -0.07115840454201365
            ]
        },
        {
            "positions": [
                0.4787257998068333,
                -1.422017449940419,
                2.57328534788364,
                1.7336123848754625,
                -0.42605054773509277,
                -0.1096080352940286
            ]
        },
        {
            "positions": [
                0.42189514770035563,
                -1.4264671960318234,
                2.4706287334724557,
                1.6210579554248161,
                -0.3333105332796954,
                -0.12194067287332339
            ]
        },
        {
            "positions": [
                0.365064495593878,
                -1.4309169421232277,
                2.367972119061271,
                1.5085035259741695,
                -0.24057051882429806,
                -0.13427331045261814
            ]
        },
        {
            "positions": [
                0.30823384348740035,
                -1.435366688214632,
                2.265315504650087,
                1.395949096523523,
                -0.14783050436890072,
                -0.14660594803191293
            ]
        },
        {
            "positions": [
                0.2514031913809227,
                -1.4398164343060365,
                2.162658890238902,
                1.2833946670728764,
                -0.05509048991350335,
                -0.15893858561120772
            ]
        },
        {
            "positions": [
                0.19457253927444507,
                -1.444266180397441,
                2.060002275827718,
                1.17084023762223,
                0.03764952454189402,
                -0.1712712231905025
            ]
        },
        {
            "positions": [
                0.13774188716796743,
                -1.4487159264888454,
                1.9573456614165334,
                1.0582858081715836,
                0.13038953899729133,
                -0.1836038607697973
            ]
        },
        {
            "positions": [
                0.08091123506148978,
                -1.4531656725802498,
                1.854689047005349,
                0.9457313787209369,
                0.2231295534526887,
                -0.19593649834909205
            ]
        },
        {
            "positions": [
                0.024080582955012142,
                -1.4576154186716541,
                1.7520324325941645,
                0.8331769492702904,
                0.31586956790808607,
                -0.20826913592838683
            ]
        },
        {
            "positions": [
                -0.032750069151465444,
                -1.4620651647630585,
                1.64937581818298,
                0.720622519819644,
                0.40860958236348344,
                -0.22060177350768162
            ]
        },
        {
            "positions": [
                -0.05963457565495438,
                -1.4623677114440516,
                1.5504565762752773,
                0.6258400335626191,
                0.4720400246279191,
                -0.2205014048223478
            ]
        },
        {
            "positions": [
                -0.08651908215844331,
                -1.4626702581250448,
                1.4515373343675744,
                0.5310575473055943,
                0.5354704668923548,
                -0.220401036137014
            ]
        },
        {
            "positions": [
                0.035297980126110864,
                -1.4610324381953563,
                1.2991248482737447,
                0.4873053102220912,
                0.5171006619655516,
                -0.26874936832762336
            ]
        },
        {
            "positions": [
                0.15711504241066504,
                -1.4593946182656679,
                1.1467123621799151,
                0.4435530731385882,
                0.4987308570387483,
                -0.3170977005182327
            ]
        },
        {
            "positions": [
                0.27893210469521923,
                -1.4577567983359794,
                0.9942998760860855,
                0.39980083605508515,
                0.4803610521119451,
                -0.365446032708842
            ]
        },
        {
            "positions": [
                0.40074916697977336,
                -1.456118978406291,
                0.8418873899922559,
                0.35604859897158214,
                0.46199124718514184,
                -0.4137943648994514
            ]
        },
        {
            "positions": [
                0.5225662292643276,
                -1.4544811584766022,
                0.6894749038984263,
                0.3122963618880791,
                0.44362144225833866,
                -0.46214269709006073
            ]
        },
        {
            "positions": [
                0.6443832915488819,
                -1.4528433385469137,
                0.5370624178045966,
                0.268544124804576,
                0.4252516373315354,
                -0.51049102928067
            ]
        },
        {
            "positions": [
                0.766200353833436,
                -1.4512055186172252,
                0.384649931710767,
                0.22479188772107295,
                0.4068818324047322,
                -0.5588393614712794
            ]
        },
        {
            "positions": [
                0.8880174161179901,
                -1.4495676986875368,
                0.23223744561693738,
                0.18103965063756994,
                0.38851202747792896,
                -0.6071876936618887
            ]
        },
        {
            "positions": [
                1.0098344784025441,
                -1.4479298787578483,
                0.07982495952310775,
                0.13728741355406687,
                0.3701422225511257,
                -0.655536025852498
            ]
        },
        {
            "positions": [
                1.1316515406870984,
                -1.4462920588281598,
                -0.07258752657072187,
                0.09353517647056381,
                0.35177241762432254,
                -0.7038843580431073
            ]
        },
        {
            "positions": [
                1.2534686029716526,
                -1.4446542388984713,
                -0.2250000126645515,
                0.0497829393870608,
                0.33340261269751925,
                -0.7522326902337167
            ]
        },
        {
            "positions": [
                1.3752856652562069,
                -1.4430164189687829,
                -0.3774124987583811,
                0.006030702303557733,
                0.3150328077707161,
                -0.800581022424326
            ]
        },
        {
            "positions": [
                1.497102727540761,
                -1.4413785990390944,
                -0.5298249848522107,
                -0.03772153477994533,
                0.2966630028439128,
                -0.8489293546149355
            ]
        },
        {
            "positions": [
                1.6189197898253151,
                -1.4397407791094057,
                -0.6822374709460404,
                -0.0814737718634484,
                0.2782931979171096,
                -0.8972776868055448
            ]
        },
        {
            "positions": [
                1.7407368521098694,
                -1.4381029591797172,
                -0.8346499570398704,
                -0.12522600894695146,
                0.2599233929903063,
                -0.9456260189961542
            ]
        },
        {
            "positions": [
                1.8625539143944234,
                -1.4364651392500287,
                -0.9870624431336996,
                -0.16897824603045442,
                0.24155358806350313,
                -0.9939743511867635
            ]
        },
        {
            "positions": [
                1.9843709766789777,
                -1.4348273193203402,
                -1.1394749292275297,
                -0.2127304831139576,
                0.2231837831366999,
                -1.0423226833773729
            ]
        },
        {
            "positions": [
                2.106188038963532,
                -1.4331894993906518,
                -1.2918874153213589,
                -0.25648272019746055,
                0.20481397820989666,
                -1.090671015567982
            ]
        },
        {
            "positions": [
                2.2280051012480864,
                -1.4315516794609633,
                -1.444299901415189,
                -0.3002349572809636,
                0.18644417328309343,
                -1.1390193477585915
            ]
        },
        {
            "positions": [
                2.3498221635326404,
                -1.4299138595312748,
                -1.5967123875090181,
                -0.3439871943644667,
                0.16807436835629025,
                -1.1873676799492008
            ]
        },
        {
            "positions": [
                2.471639225817195,
                -1.4282760396015863,
                -1.7491248736028482,
                -0.38773943144796974,
                0.14970456342948696,
                -1.23571601213981
            ]
        },
        {
            "positions": [
                2.593456288101749,
                -1.4266382196718979,
                -1.9015373596966774,
                -0.4314916685314727,
                0.13133475850268378,
                -1.2840643443304196
            ]
        },
        {
            "positions": [
                2.7152733503863034,
                -1.4250003997422092,
                -2.053949845790507,
                -0.47524390561497576,
                0.11296495357588049,
                -1.3324126765210287
            ]
        },
        {
            "positions": [
                2.8370904126708574,
                -1.4233625798125207,
                -2.2063623318843364,
                -0.5189961426984788,
                0.09459514864907731,
                -1.3807610087116382
            ]
        },
        {
            "positions": [
                2.9589074749554114,
                -1.4217247598828322,
                -2.3587748179781665,
                -0.5627483797819819,
                0.07622534372227407,
                -1.4291093409022477
            ]
        },
        {
            "positions": [
                3.0807245372399654,
                -1.4200869399531437,
                -2.5111873040719956,
                -0.606500616865485,
                0.05785553879547084,
                -1.4774576730928568
            ]
        },
        {
            "positions": [
                3.20254159952452,
                -1.4184491200234552,
                -2.663599790165826,
                -0.650252853948988,
                0.039485733868667605,
                -1.5258060052834663
            ]
        },
        {
            "positions": [
                3.168641492421312,
                -1.4846777506794866,
                -2.6014597245497644,
                -0.5481289628218073,
                0.06714216923235755,
                -1.429806679412562
            ]
        },
        {
            "positions": [
                3.1347413853181045,
                -1.5509063813355182,
                -2.539319658933702,
                -0.44600507169462655,
                0.0947986045960475,
                -1.3338073535416575
            ]
        },
        {
            "positions": [
                3.1008412782148964,
                -1.6171350119915495,
                -2.4771795933176404,
                -0.3438811805674458,
                0.12245503995973744,
                -1.237808027670753
            ]
        },
        {
            "positions": [
                3.0669411711116887,
                -1.6833636426475809,
                -2.4150395277015786,
                -0.2417572894402651,
                0.1501114753234274,
                -1.1418087017998488
            ]
        },
        {
            "positions": [
                3.033041064008481,
                -1.7495922733036124,
                -2.3528994620855164,
                -0.1396333983130844,
                0.17776791068711734,
                -1.0458093759289444
            ]
        },
        {
            "positions": [
                2.9991409569052734,
                -1.8158209039596438,
                -2.2907593964694546,
                -0.03750950718590362,
                0.20542434605080728,
                -0.94981005005804
            ]
        },
        {
            "positions": [
                2.9652408498020657,
                -1.8820495346156751,
                -2.228619330853393,
                0.06461438394127716,
                0.23308078141449723,
                -0.8538107241871357
            ]
        },
        {
            "positions": [
                2.9313407426988576,
                -1.9482781652717067,
                -2.1664792652373306,
                0.16673827506845784,
                0.2607372167781872,
                -0.7578113983162312
            ]
        },
        {
            "positions": [
                2.89744063559565,
                -2.014506795927738,
                -2.104339199621269,
                0.2688621661956385,
                0.2883936521418771,
                -0.6618120724453268
            ]
        },
        {
            "positions": [
                2.8635405284924422,
                -2.0807354265837694,
                -2.042199134005207,
                0.3709860573228192,
                0.31605008750556707,
                -0.5658127465744225
            ]
        },
        {
            "positions": [
                2.8296404213892346,
                -2.146964057239801,
                -1.980059068389145,
                0.4731099484500001,
                0.343706522869257,
                -0.46981342070351806
            ]
        },
        {
            "positions": [
                2.795740314286027,
                -2.213192687895832,
                -1.917919002773083,
                0.5752338395771808,
                0.37136295823294696,
                -0.37381409483261363
            ]
        },
        {
            "positions": [
                2.7618402071828188,
                -2.2794213185518637,
                -1.8557789371570212,
                0.6773577307043614,
                0.3990193935966369,
                -0.2778147689617092
            ]
        },
        {
            "positions": [
                2.727940100079611,
                -2.3456499492078953,
                -1.7936388715409592,
                0.7794816218315423,
                0.42667582896032685,
                -0.181815443090805
            ]
        },
        {
            "positions": [
                2.6940399929764034,
                -2.4118785798639264,
                -1.7314988059248972,
                0.881605512958723,
                0.4543322643240168,
                -0.08581611721990057
            ]
        },
        {
            "positions": [
                2.6601398858731957,
                -2.478107210519958,
                -1.6693587403088355,
                0.9837294040859038,
                0.48198869968770675,
                0.010183208651003816
            ]
        }
    ]
}