{
    "goal": {
        "global_pose": {
            "orientation": {
                "w": -0.00223480608172531,
                "x": 0.0024358444001904467,
                "y": 0.7094548369677653,
                "z": -0.704743149386269
            },
            "position": {
                "x": 0.6205249238014221,
                "y": -0.6371506643295288,
                "z": 0.19426114857196808
            }
        },
        "name": "move_to_magneteinheit_B"
    },
    "id": "BiEST_move_to_magneteinheit_B_105",
    "joint_names": [
        "shoulder_pan_joint",
        "shoulder_lift_joint",
        "elbow_joint",
        "wrist_1_joint",
        "wrist_2_joint",
        "wrist_3_joint"
    ],
    "metrics": {
        "cart_traj_len": 3.7308522471462604,
        "distance_elbow_joint": 4.618399102396018,
        "distance_shoulder_lift_joint": 0.9404760638293039,
        "distance_shoulder_pan_joint": 3.2811016836899354,
        "distance_wrist_1_joint": 4.44007710934112,
        "distance_wrist_2_joint": 0.7723930176857114,
        "distance_wrist_3_joint": 4.364556875192173,
        "smoothness": 0.21382159140827722,
        "time": 0.778644068,
        "traj_len": 4.291503681943459,
        "weighted_distance": 5.688460928014312
    },
    "planner": "BiEST",
    "start": {
        "state": {
            "elbow_joint": 2.6216224122426386,
            "shoulder_lift_joint": -1.4174107377796124,
            "shoulder_pan_joint": 0.7066234856936794,
            "wrist_1_joint": 1.9546482284002225,
            "wrist_2_joint": -0.7096286983471962,
            "wrist_3_joint": 0.005740856962016249
        }
    },
    "waypoints": [
        {
            "positions": [
                0.7066234856936794,
                -1.4174107377796124,
                2.6216224122426386,
                1.9546482284002225,
                -0.7096286983471962,
                0.005740856962016249
            ]
        },
        {
            "positions": [
                0.6662193931273653,
                -1.463155761718688,
                2.5842690441430554,
                1.795611603736614,
                -0.6904635834130111,
                -0.03056327042956626
            ]
        },
        {
            "positions": [
                0.6258153005610512,
                -1.5089007856577639,
                2.546915676043472,
                1.6365749790730055,
                -0.6712984684788258,
                -0.06686739782114877
            ]
        },
        {
            "positions": [
                0.5854112079947371,
                -1.5546458095968398,
                2.509562307943889,
                1.4775383544093972,
                -0.6521333535446406,
                -0.10317152521273128
            ]
        },
        {
            "positions": [
                0.545007115428423,
                -1.6003908335359156,
                2.4722089398443057,
                1.3185017297457886,
                -0.6329682386104554,
                -0.13947565260431377
            ]
        },
        {
            "positions": [
                0.5046030228621089,
                -1.6461358574749914,
                2.4348555717447224,
                1.1594651050821803,
                -0.6138031236762702,
                -0.17577977999589628
            ]
        },
        {
            "positions": [
                0.5948858497270342,
                -1.6432272978203402,
                2.2881381810791956,
                1.0384234845615907,
                -0.5996711795763734,
                -0.1902735652170433
            ]
        },
        {
            "positions": [
                0.6851686765919596,
                -1.6403187381656892,
                2.141420790413669,
                0.9173818640410012,
                -0.5855392354764766,
                -0.20476735043819033
            ]
        },
        {
            "positions": [
                0.7754515034568848,
                -1.637410178511038,
                1.9947033997481425,
                0.7963402435204117,
                -0.5714072913765799,
                -0.21926113565933739
            ]
        },
        {
            "positions": [
                0.8657343303218101,
                -1.6345016188563868,
                1.8479860090826157,
                0.6752986229998221,
                -0.557275347276683,
                -0.2337549208804844
            ]
        },
        {
            "positions": [
                0.9560171571867355,
                -1.6315930592017358,
                1.7012686184170889,
                0.5542570024792325,
                -0.5431434031767862,
                -0.24824870610163147
            ]
        },
        {
            "positions": [
                1.046299984051661,
                -1.6286844995470846,
                1.5545512277515623,
                0.43321538195864295,
                -0.5290114590768894,
                -0.2627424913227785
            ]
        },
        {
            "positions": [
                1.136582810916586,
                -1.6257759398924334,
                1.4078338370860355,
                0.3121737614380534,
                -0.5148795149769926,
                -0.2772362765439255
            ]
        },
        {
            "positions": [
                1.2268656377815115,
                -1.6228673802377824,
                1.261116446420509,
                0.1911321409174639,
                -0.5007475708770959,
                -0.29173006176507255
            ]
        },
        {
            "positions": [
                1.3171484646464369,
                -1.6199588205831312,
                1.114399055754982,
                0.07009052039687425,
                -0.48661562677719905,
                -0.30622384698621963
            ]
        },
        {
            "positions": [
                1.407431291511362,
                -1.61705026092848,
                0.9676816650894553,
                -0.05095110012371529,
                -0.47248368267730223,
                -0.3207176322073666
            ]
        },
        {
            "positions": [
                1.4977141183762874,
                -1.614141701273829,
                0.8209642744239289,
                -0.1719927206443046,
                -0.4583517385774054,
                -0.3352114174285137
            ]
        },
        {
            "positions": [
                1.5879969452412128,
                -1.6112331416191779,
                0.6742468837584021,
                -0.29303434116489435,
                -0.44421979447750864,
                -0.34970520264966065
            ]
        },
        {
            "positions": [
                1.678279772106138,
                -1.6083245819645267,
                0.5275294930928753,
                -0.4140759616854839,
                -0.4300878503776119,
                -0.36419898787080773
            ]
        },
        {
            "positions": [
                1.7685625989710636,
                -1.6054160223098757,
                0.38081210242734853,
                -0.5351175822060734,
                -0.41595590627771506,
                -0.37869277309195476
            ]
        },
        {
            "positions": [
                1.8588454258359888,
                -1.6025074626552245,
                0.23409471176182173,
                -0.6561592027266632,
                -0.40182396217781824,
                -0.3931865583131018
            ]
        },
        {
            "positions": [
                1.949128252700914,
                -1.5995989030005735,
                0.08737732109629537,
                -0.7772008232472525,
                -0.3876920180779214,
                -0.4076803435342488
            ]
        },
        {
            "positions": [
                2.039411079565839,
                -1.5966903433459223,
                -0.05934006956923099,
                -0.8982424437678418,
                -0.3735600739780247,
                -0.42217412875539584
            ]
        },
        {
            "positions": [
                2.1296939064307647,
                -1.593781783691271,
                -0.20605746023475824,
                -1.0192840642884318,
                -0.35942812987812783,
                -0.4366679139765429
            ]
        },
        {
            "positions": [
                2.21997673329569,
                -1.5908732240366201,
                -0.3527748509002846,
                -1.1403256848090209,
                -0.34529618577823107,
                -0.4511616991976899
            ]
        },
        {
            "positions": [
                2.3102595601606155,
                -1.587964664381969,
                -0.49949224156581185,
                -1.2613673053296108,
                -0.33116424167833425,
                -0.465655484418837
            ]
        },
        {
            "positions": [
                2.4005423870255407,
                -1.5850561047273177,
                -0.6462096322313382,
                -1.3824089258502004,
                -0.3170322975784375,
                -0.480149269639984
            ]
        },
        {
            "positions": [
                2.490825213890466,
                -1.5821475450726667,
                -0.7929270228968646,
                -1.5034505463707895,
                -0.30290035347854066,
                -0.494643054861131
            ]
        },
        {
            "positions": [
                2.5811080407553915,
                -1.5792389854180156,
                -0.9396444135623918,
                -1.6244921668913794,
                -0.28876840937864384,
                -0.509136840082278
            ]
        },
        {
            "positions": [
                2.6713908676203166,
                -1.5763304257633644,
                -1.0863618042279182,
                -1.745533787411969,
                -0.2746364652787471,
                -0.5236306253034251
            ]
        },
        {
            "positions": [
                2.761673694485242,
                -1.5734218661087134,
                -1.2330791948934445,
                -1.866575407932558,
                -0.2605045211788503,
                -0.5381244105245722
            ]
        },
        {
            "positions": [
                2.8519565213501674,
                -1.5705133064540622,
                -1.3797965855589718,
                -1.987617028453148,
                -0.2463725770789535,
                -0.5526181957457192
            ]
        },
        {
            "positions": [
                2.9422393482150926,
                -1.567604746799411,
                -1.5265139762244981,
                -2.1086586489737376,
                -0.23224063297905667,
                -0.5671119809668662
            ]
        },
        {
            "positions": [
                3.032522175080018,
                -1.56469618714476,
                -1.6732313668900254,
                -2.229700269494327,
                -0.21810868887915985,
                -0.5816057661880132
            ]
        },
        {
            "positions": [
                3.1228050019449434,
                -1.5617876274901088,
                -1.819948757555552,
                -2.3507418900149166,
                -0.20397674477926309,
                -0.5960995514091603
            ]
        },
        {
            "positions": [
                3.0898850561038342,
                -1.6066021070721832,
                -1.8073181909414213,
                -2.360362389366772,
                -0.22302967793053297,
                -0.3273340894933748
            ]
        },
        {
            "positions": [
                3.0569651102627247,
                -1.6514165866542576,
                -1.7946876243272905,
                -2.369982888718628,
                -0.24208261108180287,
                -0.058568627577589294
            ]
        },
        {
            "positions": [
                3.0240451644216155,
                -1.6962310662363322,
                -1.7820570577131598,
                -2.379603388070483,
                -0.2611355442330728,
                0.21019683433819625
            ]
        },
        {
            "positions": [
                2.991125218580506,
                -1.7410455458184066,
                -1.7694264910990292,
                -2.389223887422339,
                -0.28018847738434266,
                0.4789622962539817
            ]
        },
        {
            "positions": [
                2.958205272739397,
                -1.785860025400481,
                -1.7567959244848985,
                -2.3988443867741944,
                -0.29924141053561254,
                0.7477277581697672
            ]
        },
        {
            "positions": [
                2.9252853268982872,
                -1.8306745049825555,
                -1.7441653578707677,
                -2.4084648861260503,
                -0.3182943436868824,
                1.0164932200855528
            ]
        },
        {
            "positions": [
                2.892365381057178,
                -1.87548898456463,
                -1.731534791256637,
                -2.4180853854779056,
                -0.33734727683815235,
                1.2852586820013383
            ]
        },
        {
            "positions": [
                2.859445435216069,
                -1.9203034641467043,
                -1.7189042246425064,
                -2.427705884829761,
                -0.35640020998942223,
                1.5540241439171236
            ]
        },
        {
            "positions": [
                2.8265254893749594,
                -1.965117943728779,
                -1.7062736580283755,
                -2.437326384181617,
                -0.3754531431406921,
                1.8227896058329094
            ]
        },
        {
            "positions": [
                2.7936055435338503,
                -2.0099324233108535,
                -1.6936430914142449,
                -2.4469468835334722,
                -0.394506076291962,
                2.0915550677486947
            ]
        },
        {
            "positions": [
                2.7606855976927407,
                -2.0547469028929277,
                -1.6810125248001142,
                -2.456567382885328,
                -0.4135590094432319,
                2.3603205296644805
            ]
        },
        {
            "positions": [
                2.7277656518516316,
                -2.0995613824750023,
                -1.6683819581859836,
                -2.4661878822371834,
                -0.43261194259450175,
                2.629085991580266
            ]
        },
        {
            "positions": [
                2.694845706010522,
                -2.1443758620570765,
                -1.6557513915718527,
                -2.4758083815890393,
                -0.4516648757457717,
                2.8978514534960516
            ]
        },
        {
            "positions": [
                2.661925760169413,
                -2.189190341639151,
                -1.643120824957722,
                -2.4854288809408946,
                -0.47071780889704157,
                3.166616915411837
            ]
        }
    ]
}