{
    "goal": {
        "global_pose": {
            "orientation": {
                "w": -0.4816463035849501,
                "x": 0.5182115481033762,
                "y": 0.4908360881923453,
                "z": -0.5084816262002911
            },
            "position": {
                "x": -0.8240239810943604,
                "y": 0.19912469901144506,
                "z": 0.16403168439865112
            }
        },
        "name": "move_to_storage_D"
    },
    "id": "BiEST_move_to_storage_D_29",
    "joint_names": [
        "shoulder_pan_joint",
        "shoulder_lift_joint",
        "elbow_joint",
        "wrist_1_joint",
        "wrist_2_joint",
        "wrist_3_joint"
    ],
    "metrics": {
        "cart_traj_len": 0.6808652442370302,
        "distance_elbow_joint": 0.6292845178798898,
        "distance_shoulder_lift_joint": 0.379057344875962,
        "distance_shoulder_pan_joint": 0.7122250052022601,
        "distance_wrist_1_joint": 3.8307567514830567,
        "distance_wrist_2_joint": 1.9957790242422937,
        "distance_wrist_3_joint": 4.066563994703807,
        "smoothness": 0.5137752690526837,
        "time": 0.101816473,
        "traj_len": 3.4078830141874397,
        "weighted_distance": 5.057008048591601
    },
    "planner": "BiEST",
    "start": {
        "state": {
            "elbow_joint": -2.384821988534728,
            "shoulder_lift_joint": -2.2788054721415256,
            "shoulder_pan_joint": -0.1854694642142757,
            "wrist_1_joint": 1.4845938289331202,
            "wrist_2_joint": 0.17898776772866878,
            "wrist_3_joint": 0.037105688729662994
        }
    },
    "waypoints": [
        {
            "positions": [
                -0.1854694642142757,
                -2.2788054721415256,
                -2.384821988534728,
                1.4845938289331202,
                0.17898776772866878,
                0.037105688729662994
            ]
        },
        {
            "positions": [
                -0.07745028647478251,
                -2.212271679907101,
                -2.3939660790484054,
                1.473940388321707,
                0.20654531767087922,
                -0.0767980141016574
            ]
        },
        {
            "positions": [
                0.030568891264710685,
                -2.1457378876726763,
                -2.4031101695620825,
                1.463286947710294,
                0.23410286761308963,
                -0.1907017169329778
            ]
        },
        {
            "positions": [
                0.13858806900420387,
                -2.079204095438252,
                -2.41225426007576,
                1.4526335070988812,
                0.26166041755530006,
                -0.3046054197642982
            ]
        },
        {
            "positions": [
                0.24660724674369708,
                -2.0126703032038273,
                -2.4213983505894374,
                1.441980066487468,
                0.2892179674975105,
                -0.4185091225956186
            ]
        },
        {
            "positions": [
                0.23583231234968602,
                -2.0170134638168373,
                -2.3986018830576996,
                1.2962822592167986,
                0.2166968588639162,
                -0.27962646169644456
            ]
        },
        {
            "positions": [
                0.225057377955675,
                -2.0213566244298478,
                -2.375805415525962,
                1.1505844519461292,
                0.1441757502303219,
                -0.14074380079727056
            ]
        },
        {
            "positions": [
                0.21428244356166393,
                -2.0256997850428577,
                -2.3530089479942244,
                1.0048866446754599,
                0.0716546415967276,
                -0.0018611398980965532
            ]
        },
        {
            "positions": [
                0.2035075091676529,
                -2.0300429456558677,
                -2.3302124804624866,
                0.8591888374047904,
                -0.0008664670368667138,
                0.1370215210010775
            ]
        },
        {
            "positions": [
                0.19273257477364183,
                -2.034386106268878,
                -2.307416012930749,
                0.713491030134121,
                -0.073387575670461,
                0.2759041819002515
            ]
        },
        {
            "positions": [
                0.1819576403796308,
                -2.038729266881888,
                -2.284619545399011,
                0.5677932228634516,
                -0.1459086843040553,
                0.4147868427994255
            ]
        },
        {
            "positions": [
                0.17118270598561974,
                -2.043072427494898,
                -2.2618230778672737,
                0.4220954155927823,
                -0.21842979293764953,
                0.5536695036985995
            ]
        },
        {
            "positions": [
                0.16040777159160868,
                -2.0474155881079086,
                -2.239026610335536,
                0.2763976083221127,
                -0.2909509015712439,
                0.6925521645977737
            ]
        },
        {
            "positions": [
                0.14963283719759765,
                -2.0517587487209186,
                -2.216230142803798,
                0.1306998010514433,
                -0.3634720102048382,
                0.8314348254969477
            ]
        },
        {
            "positions": [
                0.13885790280358662,
                -2.0561019093339286,
                -2.1934336752720602,
                -0.01499800621922609,
                -0.4359931188384325,
                0.9703174863961217
            ]
        },
        {
            "positions": [
                0.12808296840957556,
                -2.060445069946939,
                -2.170637207740323,
                -0.16069581348989548,
                -0.5085142274720268,
                1.1092001472952957
            ]
        },
        {
            "positions": [
                0.1173080340155645,
                -2.064788230559949,
                -2.147840740208585,
                -0.30639362076056487,
                -0.5810353361056211,
                1.2480828081944697
            ]
        },
        {
            "positions": [
                0.10653309962155347,
                -2.0691313911729594,
                -2.1250442726768473,
                -0.45209142803123425,
                -0.6535564447392154,
                1.3869654690936437
            ]
        },
        {
            "positions": [
                0.09575816522754244,
                -2.0734745517859694,
                -2.1022478051451094,
                -0.5977892353019034,
                -0.7260775533728095,
                1.5258481299928177
            ]
        },
        {
            "positions": [
                0.08498323083353138,
                -2.0778177123989794,
                -2.0794513376133716,
                -0.743487042572573,
                -0.798598662006404,
                1.6647307908919917
            ]
        },
        {
            "positions": [
                0.07420829643952032,
                -2.08216087301199,
                -2.0566548700816343,
                -0.8891848498432426,
                -0.8711197706399983,
                1.803613451791166
            ]
        },
        {
            "positions": [
                0.06343336204550928,
                -2.086504033625,
                -2.0338584025498965,
                -1.0348826571139118,
                -0.9436408792735925,
                1.9424961126903397
            ]
        },
        {
            "positions": [
                0.052658427651498224,
                -2.09084719423801,
                -2.0110619350181587,
                -1.1805804643845814,
                -1.016161987907187,
                2.0813787735895137
            ]
        },
        {
            "positions": [
                0.04188349325748719,
                -2.0951903548510202,
                -1.988265467486421,
                -1.3262782716552506,
                -1.0886830965407812,
                2.2202614344886875
            ]
        },
        {
            "positions": [
                0.031108558863476132,
                -2.09953351546403,
                -1.9654689999546833,
                -1.4719760789259202,
                -1.1612042051743754,
                2.3591440953878617
            ]
        },
        {
            "positions": [
                0.0203336244694651,
                -2.10387667607704,
                -1.9426725324229457,
                -1.6176738861965894,
                -1.2337253138079696,
                2.4980267562870355
            ]
        },
        {
            "positions": [
                0.00955869007545404,
                -2.1082198366900506,
                -1.9198760648912079,
                -1.763371693467259,
                -1.3062464224415642,
                2.6369094171862097
            ]
        },
        {
            "positions": [
                -0.0012162443185569916,
                -2.1125629973030606,
                -1.89707959735947,
                -1.9090695007379281,
                -1.3787675310751584,
                2.7757920780853835
            ]
        },
        {
            "positions": [
                -0.011991178712568079,
                -2.1169061579160706,
                -1.8742831298277325,
                -2.0547673080085977,
                -1.4512886397087525,
                2.9146747389845578
            ]
        },
        {
            "positions": [
                -0.022766113106579083,
                -2.121249318529081,
                -1.851486662295995,
                -2.2004651152792674,
                -1.5238097483423472,
                3.053557399883732
            ]
        },
        {
            "positions": [
                -0.03354104750059017,
                -2.125592479142091,
                -1.828690194764257,
                -2.3461629225499365,
                -1.5963308569759413,
                3.1924400607829058
            ]
        }
    ]
}