{
    "goal": {
        "global_pose": {
            "orientation": {
                "w": -0.00223480608172531,
                "x": 0.0024358444001904467,
                "y": 0.7094548369677653,
                "z": -0.704743149386269
            },
            "position": {
                "x": 0.6205249238014221,
                "y": -0.6371506643295288,
                "z": 0.19426114857196808
            }
        },
        "name": "move_to_magneteinheit_B"
    },
    "id": "BiEST_move_to_magneteinheit_B_34",
    "joint_names": [
        "shoulder_pan_joint",
        "shoulder_lift_joint",
        "elbow_joint",
        "wrist_1_joint",
        "wrist_2_joint",
        "wrist_3_joint"
    ],
    "metrics": {
        "cart_traj_len": 1.6868998180288441,
        "distance_elbow_joint": 0.9540453013357189,
        "distance_shoulder_lift_joint": 1.3790574768930481,
        "distance_shoulder_pan_joint": 1.6215876749119351,
        "distance_wrist_1_joint": 0.19525286693196398,
        "distance_wrist_2_joint": 1.5159571151948816,
        "distance_wrist_3_joint": 0.8480723374573291,
        "smoothness": 0.39557907662479774,
        "time": 0.164755277,
        "traj_len": 2.552248571892024,
        "weighted_distance": 3.14981387224172
    },
    "planner": "BiEST",
    "start": {
        "state": {
            "elbow_joint": 2.6216224122426386,
            "shoulder_lift_joint": -1.4174107377796124,
            "shoulder_pan_joint": 0.7066234856936794,
            "wrist_1_joint": 1.9546482284002225,
            "wrist_2_joint": -0.7096286983471962,
            "wrist_3_joint": 0.005740856962016249
        }
    },
    "waypoints": [
        {
            "positions": [
                0.7066234856936794,
                -1.4174107377796124,
                2.6216224122426386,
                1.9546482284002225,
                -0.7096286983471962,
                0.005740856962016249
            ]
        },
        {
            "positions": [
                0.5827624918051166,
                -1.4521698106117589,
                2.560873644358159,
                1.962496504248223,
                -0.7982538974345882,
                -0.04122212736946226
            ]
        },
        {
            "positions": [
                0.4589014979165539,
                -1.4869288834439054,
                2.500124876473679,
                1.9703447800962235,
                -0.8868790965219802,
                -0.08818511170094076
            ]
        },
        {
            "positions": [
                0.3350405040279911,
                -1.521687956276052,
                2.4393761085891996,
                1.9781930559442238,
                -0.975504295609372,
                -0.13514809603241923
            ]
        },
        {
            "positions": [
                0.21117951013942837,
                -1.5564470291081984,
                2.37862734070472,
                1.9860413317922243,
                -1.064129494696764,
                -0.18211108036389775
            ]
        },
        {
            "positions": [
                0.08731851625086551,
                -1.591206101940345,
                2.31787857282024,
                1.9938896076402248,
                -1.152754693784156,
                -0.22907406469537625
            ]
        },
        {
            "positions": [
                -0.036542477637697135,
                -1.6259651747724915,
                2.25712980493576,
                2.001737883488225,
                -1.241379892871548,
                -0.2760370490268547
            ]
        },
        {
            "positions": [
                -0.16040347152626,
                -1.660724247604638,
                2.196381037051281,
                2.0095861593362256,
                -1.33000509195894,
                -0.32300003335833327
            ]
        },
        {
            "positions": [
                -0.28426446541482264,
                -1.6954833204367845,
                2.135632269166801,
                2.017434435184226,
                -1.4186302910463318,
                -0.36996301768981177
            ]
        },
        {
            "positions": [
                -0.4081254593033855,
                -1.730242393268931,
                2.0748835012823212,
                2.0252827110322267,
                -1.5072554901337238,
                -0.41692600202129027
            ]
        },
        {
            "positions": [
                -0.46444087373837106,
                -1.6117728575574055,
                2.029627235685054,
                2.0391291981766666,
                -1.5870699705124298,
                -0.36965872663528776
            ]
        },
        {
            "positions": [
                -0.5207562881733566,
                -1.4933033218458802,
                1.9843709700877876,
                2.0529756853211065,
                -1.6668844508911358,
                -0.32239145124928525
            ]
        },
        {
            "positions": [
                -0.5770717026083423,
                -1.3748337861343547,
                1.9391147044905208,
                2.0668221724655464,
                -1.7466989312698418,
                -0.2751241758632827
            ]
        },
        {
            "positions": [
                -0.6333871170433278,
                -1.2563642504228292,
                1.893858438893254,
                2.0806686596099864,
                -1.8265134116485477,
                -0.2278569004772802
            ]
        },
        {
            "positions": [
                -0.6897025314783134,
                -1.1378947147113037,
                1.848602173295987,
                2.0945151467544267,
                -1.906327892027254,
                -0.18058962509127763
            ]
        },
        {
            "positions": [
                -0.746017945913299,
                -1.0194251789997781,
                1.8033459076987204,
                2.1083616338988667,
                -1.98614237240596,
                -0.13332234970527512
            ]
        },
        {
            "positions": [
                -0.8023333603482845,
                -0.9009556432882527,
                1.7580896421014534,
                2.1222081210433066,
                -2.065956852784666,
                -0.08605507431927262
            ]
        },
        {
            "positions": [
                -0.8586487747832701,
                -0.7824861075767273,
                1.7128333765041865,
                2.1360546081877465,
                -2.145771333163372,
                -0.03878779893327011
            ]
        },
        {
            "positions": [
                -0.9149641892182557,
                -0.6640165718652018,
                1.6675771109069197,
                2.1499010953321864,
                -2.225585813542078,
                0.008479476452732448
            ]
        }
    ]
}