{
    "goal": {
        "global_pose": {
            "orientation": {
                "w": 0.005598929693374612,
                "x": 0.007748599140229565,
                "y": 0.7110244013736278,
                "z": -0.7031023480610252
            },
            "position": {
                "x": 0.1141497679147869,
                "y": -0.7141253447532654,
                "z": 0.3711530566215515
            }
        },
        "name": "move_to_auspresseinheit_B"
    },
    "id": "BiEST_move_to_auspresseinheit_B_29",
    "joint_names": [
        "shoulder_pan_joint",
        "shoulder_lift_joint",
        "elbow_joint",
        "wrist_1_joint",
        "wrist_2_joint",
        "wrist_3_joint"
    ],
    "metrics": {
        "cart_traj_len": 0.5645951406689529,
        "distance_elbow_joint": 0.06021354591632333,
        "distance_shoulder_lift_joint": 0.29649627370146026,
        "distance_shoulder_pan_joint": 0.5792330122129832,
        "distance_wrist_1_joint": 0.3237607045068307,
        "distance_wrist_2_joint": 0.9844265216647583,
        "distance_wrist_3_joint": 0.006129637513997643,
        "smoothness": 0.0,
        "time": 0.036305457,
        "traj_len": 1.500086562674419,
        "weighted_distance": 1.889631232996517
    },
    "planner": "BiEST",
    "start": {
        "state": {
            "elbow_joint": 2.0193083361928714,
            "shoulder_lift_joint": -1.1220246554650708,
            "shoulder_pan_joint": -1.0952077554168747,
            "wrist_1_joint": -0.8559753972642168,
            "wrist_2_joint": 0.4759566250798843,
            "wrist_3_joint": -3.1240929996934557
        }
    },
    "waypoints": [
        {
            "positions": [
                -1.0952077554168747,
                -1.1220246554650708,
                2.0193083361928714,
                -0.8559753972642168,
                0.4759566250798843,
                -3.1240929996934557
            ]
        },
        {
            "positions": [
                -1.1917465907857052,
                -1.171440701081981,
                2.0092727452068173,
                -0.8020152798464116,
                0.6400277120240107,
                -3.1230713934411227
            ]
        },
        {
            "positions": [
                -1.2882854261545358,
                -1.2208567466988909,
                1.9992371542207636,
                -0.7480551624286066,
                0.804098798968137,
                -3.12204978718879
            ]
        },
        {
            "positions": [
                -1.3848242615233661,
                -1.2702727923158008,
                1.9892015632347098,
                -0.6940950450108014,
                0.9681698859122634,
                -3.121028180936457
            ]
        },
        {
            "positions": [
                -1.4813630968921967,
                -1.319688837932711,
                1.9791659722486559,
                -0.6401349275929964,
                1.1322409728563898,
                -3.120006574684124
            ]
        },
        {
            "positions": [
                -1.5779019322610273,
                -1.3691048835496211,
                1.969130381262602,
                -0.5861748101751911,
                1.2963120598005162,
                -3.118984968431791
            ]
        },
        {
            "positions": [
                -1.6744407676298578,
                -1.418520929166531,
                1.959094790276548,
                -0.5322146927573861,
                1.4603831467446426,
                -3.117963362179458
            ]
        }
    ]
}