{
    "goal": {
        "global_pose": {
            "orientation": {
                "w": 0.005598929693374612,
                "x": 0.007748599140229565,
                "y": 0.7110244013736278,
                "z": -0.7031023480610252
            },
            "position": {
                "x": -0.8858502320852131,
                "y": -0.7141253447532654,
                "z": 0.3711530566215515
            }
        },
        "name": "move_to_auspresseinheit_C"
    },
    "id": "BiEST_move_to_auspresseinheit_C_51",
    "joint_names": [
        "shoulder_pan_joint",
        "shoulder_lift_joint",
        "elbow_joint",
        "wrist_1_joint",
        "wrist_2_joint",
        "wrist_3_joint"
    ],
    "metrics": {
        "cart_traj_len": 0.4930111204606545,
        "distance_elbow_joint": 0.9975180976241752,
        "distance_shoulder_lift_joint": 0.3236517341167666,
        "distance_shoulder_pan_joint": 0.25658011792153923,
        "distance_wrist_1_joint": 0.675656357903174,
        "distance_wrist_2_joint": 1.3139526164573478,
        "distance_wrist_3_joint": 0.05558453129705354,
        "smoothness": 3.2297397080004555e-16,
        "time": 0.134539499,
        "traj_len": 1.9034031247531502,
        "weighted_distance": 2.392430039159909
    },
    "planner": "BiEST",
    "start": {
        "state": {
            "elbow_joint": 1.7527959577737207,
            "shoulder_lift_joint": -0.9740617694225068,
            "shoulder_pan_joint": -2.967991417825858,
            "wrist_1_joint": -0.759517768980727,
            "wrist_2_joint": 1.7443932448377408,
            "wrist_3_joint": -3.0840537646736568
        }
    },
    "waypoints": [
        {
            "positions": [
                -2.967991417825858,
                -0.9740617694225068,
                1.7527959577737207,
                -0.759517768980727,
                1.7443932448377408,
                -3.0840537646736568
            ]
        },
        {
            "positions": [
                -2.942333406033704,
                -0.9416965960108301,
                1.6530441480113032,
                -0.6919521331904096,
                1.612997983192006,
                -3.0896122178033623
            ]
        },
        {
            "positions": [
                -2.91667539424155,
                -0.9093314225991534,
                1.5532923382488857,
                -0.6243864974000921,
                1.4816027215462713,
                -3.0951706709330673
            ]
        },
        {
            "positions": [
                -2.8910173824493963,
                -0.8769662491874768,
                1.4535405284864682,
                -0.5568208616097747,
                1.3502074599005365,
                -3.100729124062773
            ]
        },
        {
            "positions": [
                -2.8653593706572424,
                -0.8446010757758001,
                1.3537887187240505,
                -0.48925522581945735,
                1.2188121982548017,
                -3.1062875771924783
            ]
        },
        {
            "positions": [
                -2.8397013588650886,
                -0.8122359023641235,
                1.254036908961633,
                -0.42168959002913997,
                1.087416936609067,
                -3.1118460303221838
            ]
        },
        {
            "positions": [
                -2.8140433470729342,
                -0.7798707289524468,
                1.1542850991992155,
                -0.3541239542388226,
                0.9560216749633321,
                -3.117404483451889
            ]
        },
        {
            "positions": [
                -2.7883853352807804,
                -0.7475055555407701,
                1.054533289436798,
                -0.2865583184485052,
                0.8246264133175975,
                -3.1229629365815943
            ]
        },
        {
            "positions": [
                -2.7627273234886265,
                -0.7151403821290935,
                0.9547814796743804,
                -0.21899268265818772,
                0.6932311516718626,
                -3.1285213897113
            ]
        },
        {
            "positions": [
                -2.7370693116964726,
                -0.6827752087174168,
                0.8550296699119629,
                -0.15142704686787034,
                0.5618358900261278,
                -3.134079842841005
            ]
        },
        {
            "positions": [
                -2.7114112999043187,
                -0.6504100353057402,
                0.7552778601495455,
                -0.08386141107755292,
                0.430440628380393,
                -3.1396382959707103
            ]
        }
    ]
}