{
    "goal": {
        "global_pose": {
            "orientation": {
                "w": 0.5084816217422485,
                "x": -0.49083608388900757,
                "y": 0.5182115435600281,
                "z": -0.4816462993621826
            },
            "position": {
                "x": 0.5540239810943604,
                "y": 0.030875300988554955,
                "z": 0.16403168439865112
            }
        },
        "name": "move_to_storage_A"
    },
    "id": "BiEST_move_to_storage_A_48",
    "joint_names": [
        "shoulder_pan_joint",
        "shoulder_lift_joint",
        "elbow_joint",
        "wrist_1_joint",
        "wrist_2_joint",
        "wrist_3_joint"
    ],
    "metrics": {
        "cart_traj_len": 0.35278708648109847,
        "distance_elbow_joint": 0.45194867109582515,
        "distance_shoulder_lift_joint": 0.23509070626813955,
        "distance_shoulder_pan_joint": 0.4629227112462043,
        "distance_wrist_1_joint": 0.24751759047841737,
        "distance_wrist_2_joint": 1.0921408403877908,
        "distance_wrist_3_joint": 0.10634973949416215,
        "smoothness": 0.0,
        "time": 0.070034634,
        "traj_len": 1.6112014954593792,
        "weighted_distance": 2.0367445025886464
    },
    "planner": "BiEST",
    "start": {
        "state": {
            "elbow_joint": 1.971548259319323,
            "shoulder_lift_joint": -1.1394851275133948,
            "shoulder_pan_joint": 0.1228115487234821,
            "wrist_1_joint": -0.7804723859257726,
            "wrist_2_joint": 0.12958671773740124,
            "wrist_3_joint": -3.192489227718131
        }
    },
    "waypoints": [
        {
            "positions": [
                0.1228115487234821,
                -1.1394851275133948,
                1.971548259319323,
                -0.7804723859257726,
                0.12958671773740124,
                -3.192489227718131
            ]
        },
        {
            "positions": [
                0.0566797328311672,
                -1.173069514123129,
                2.036112355190155,
                -0.8158320417084036,
                0.28560683779279994,
                -3.1772964077903936
            ]
        },
        {
            "positions": [
                -0.009452083061147698,
                -1.2066539007328632,
                2.100676451060987,
                -0.8511916974910347,
                0.4416269578481986,
                -3.1621035878626564
            ]
        },
        {
            "positions": [
                -0.0755838989534626,
                -1.2402382873425974,
                2.1652405469318197,
                -0.8865513532736657,
                0.5976470779035973,
                -3.146910767934919
            ]
        },
        {
            "positions": [
                -0.1417157148457775,
                -1.2738226739523317,
                2.2298046428026517,
                -0.9219110090562969,
                0.753667197958996,
                -3.1317179480071813
            ]
        },
        {
            "positions": [
                -0.20784753073809242,
                -1.307407060562066,
                2.2943687386734837,
                -0.9572706648389279,
                0.9096873180143947,
                -3.1165251280794437
            ]
        },
        {
            "positions": [
                -0.2739793466304073,
                -1.3409914471718,
                2.358932834544316,
                -0.992630320621559,
                1.0657074380697933,
                -3.1013323081517066
            ]
        },
        {
            "positions": [
                -0.3401111625227222,
                -1.3745758337815344,
                2.423496930415148,
                -1.02798997640419,
                1.221727558125192,
                -3.086139488223969
            ]
        }
    ]
}{
    "goal": {
        "global_pose": {
            "orientation": {
                "w": 0.5084816217422485,
                "x": -0.49083608388900757,
                "y": 0.5182115435600281,
                "z": -0.4816462993621826
            },
            "position": {
                "x": 0.5540239810943604,
                "y": 0.030875300988554955,
                "z": 0.16403168439865112
            }
        },
        "name": "move_to_storage_A"
    },
    "id": "BiEST_move_to_storage_A_48",
    "joint_names": [
        "shoulder_pan_joint",
        "shoulder_lift_joint",
        "elbow_joint",
        "wrist_1_joint",
        "wrist_2_joint",
        "wrist_3_joint"
    ],
    "metrics": {
        "cart_traj_len": 0.3535554015010045,
        "distance_elbow_joint": 0.4489864664198233,
        "distance_shoulder_lift_joint": 0.23560957637796065,
        "distance_shoulder_pan_joint": 0.46292491338309283,
        "distance_wrist_1_joint": 0.24039473364741126,
        "distance_wrist_2_joint": 1.0972486215037194,
        "distance_wrist_3_joint": 0.09664041539402968,
        "smoothness": 2.2204460668324854e-16,
        "time": 0.076381722,
        "traj_len": 1.606799529103129,
        "weighted_distance": 2.0279864182644878
    },
    "planner": "BiEST",
    "start": {
        "state": {
            "elbow_joint": 1.97154746011099,
            "shoulder_lift_joint": -1.13948474672311,
            "shoulder_pan_joint": 0.12281154466712228,
            "wrist_1_joint": -0.7804688027058302,
            "wrist_2_joint": 0.12958655903071145,
            "wrist_3_joint": 3.0906928834467795
        }
    },
    "waypoints": [
        {
            "positions": [
                0.12281154466712228,
                -1.13948474672311,
                1.97154746011099,
                -0.7804688027058302,
                0.12958655903071145,
                3.0906928834467795
            ]
        },
        {
            "positions": [
                0.056679414183823315,
                -1.173143257634247,
                2.03568838388525,
                -0.8148109075126032,
                0.2863363621026713,
                3.104498657074498
            ]
        },
        {
            "positions": [
                -0.009452716299475653,
                -1.2068017685453845,
                2.099829307659511,
                -0.8491530123193762,
                0.4430861651746313,
                3.1183044307022167
            ]
        },
        {
            "positions": [
                -0.07558484678277462,
                -1.2404602794565216,
                2.163970231433771,
                -0.8834951171261493,
                0.5998359682465911,
                3.132110204329935
            ]
        },
        {
            "positions": [
                -0.14171697726607357,
                -1.274118790367659,
                2.228111155208032,
                -0.9178372219329223,
                0.7565857713185511,
                3.1459159779576535
            ]
        },
        {
            "positions": [
                -0.2078491077493726,
                -1.307777301278796,
                2.292252078982292,
                -0.9521793267396954,
                0.913335574390511,
                3.159721751585372
            ]
        },
        {
            "positions": [
                -0.2739812382326715,
                -1.3414358121899332,
                2.356393002756553,
                -0.9865214315464684,
                1.0700853774624708,
                3.173527525213091
            ]
        },
        {
            "positions": [
                -0.34011336871597053,
                -1.3750943231010706,
                2.4205339265308132,
                -1.0208635363532415,
                1.2268351805344309,
                3.187333298840809
            ]
        }
    ]
}{
    "goal": {
        "global_pose": {
            "orientation": {
                "w": 0.5084816217422485,
                "x": -0.49083608388900757,
                "y": 0.5182115435600281,
                "z": -0.4816462993621826
            },
            "position": {
                "x": 0.5540239810943604,
                "y": 0.030875300988554955,
                "z": 0.16403168439865112
            }
        },
        "name": "move_to_storage_A"
    },
    "id": "BiEST_move_to_storage_A_48",
    "joint_names": [
        "shoulder_pan_joint",
        "shoulder_lift_joint",
        "elbow_joint",
        "wrist_1_joint",
        "wrist_2_joint",
        "wrist_3_joint"
    ],
    "metrics": {
        "cart_traj_len": 0.3526165661795029,
        "distance_elbow_joint": 0.44754666767226947,
        "distance_shoulder_lift_joint": 0.23374969500244247,
        "distance_shoulder_pan_joint": 0.46174968352116064,
        "distance_wrist_1_joint": 0.235675992362524,
        "distance_wrist_2_joint": 1.0943479047275178,
        "distance_wrist_3_joint": 0.08592061836202225,
        "smoothness": 7.771561092534257e-16,
        "time": 0.11689846500000001,
        "traj_len": 1.59968451941248,
        "weighted_distance": 2.0151564940376274
    },
    "planner": "BiEST",
    "start": {
        "state": {
            "elbow_joint": 1.9715472970024885,
            "shoulder_lift_joint": -1.1394870060712896,
            "shoulder_pan_joint": 0.12281152778156021,
            "wrist_1_joint": -0.780463741449964,
            "wrist_2_joint": 0.12958659822042276,
            "wrist_3_joint": 3.090690232415272
        }
    },
    "waypoints": [
        {
            "positions": [
                0.12281152778156021,
                -1.1394870060712896,
                1.9715472970024885,
                -0.780463741449964,
                0.12958659822042276,
                3.090690232415272
            ]
        },
        {
            "positions": [
                0.05684728727853726,
                -1.1728798196430672,
                2.035482535241384,
                -0.814131740358896,
                0.2859220131814967,
                3.102964606466989
            ]
        },
        {
            "positions": [
                -0.009116953224485691,
                -1.2062726332148446,
                2.0994177734802797,
                -0.847799739267828,
                0.44225742814257063,
                3.115238980518707
            ]
        },
        {
            "positions": [
                -0.07508119372750863,
                -1.2396654467866222,
                2.1633530117191753,
                -0.8814677381767599,
                0.5985928431036446,
                3.127513354570424
            ]
        },
        {
            "positions": [
                -0.1410454342305316,
                -1.2730582603583995,
                2.227288249958071,
                -0.915135737085692,
                0.7549282580647185,
                3.139787728622142
            ]
        },
        {
            "positions": [
                -0.20700967473355456,
                -1.3064510739301771,
                2.291223488196967,
                -0.948803735994624,
                0.9112636730257926,
                3.152062102673859
            ]
        },
        {
            "positions": [
                -0.27297391523657744,
                -1.3398438875019545,
                2.3551587264358624,
                -0.982471734903556,
                1.0675990879868664,
                3.164336476725577
            ]
        },
        {
            "positions": [
                -0.3389381557396004,
                -1.373236701073732,
                2.419093964674758,
                -1.016139733812488,
                1.2239345029479405,
                3.176610850777294
            ]
        }
    ]
}