{
    "goal": {
        "global_pose": {
            "orientation": {
                "w": 0.7047431468963623,
                "x": -0.7094548344612122,
                "y": 0.0024358443915843964,
                "z": -0.0022348060738295317
            },
            "position": {
                "x": 0.6094750761985779,
                "y": 0.3671506643295288,
                "z": 0.19426114857196808
            }
        },
        "name": "move_to_magneteinheit_A"
    },
    "id": "BiEST_move_to_magneteinheit_A_87",
    "joint_names": [
        "shoulder_pan_joint",
        "shoulder_lift_joint",
        "elbow_joint",
        "wrist_1_joint",
        "wrist_2_joint",
        "wrist_3_joint"
    ],
    "metrics": {
        "cart_traj_len": 3.162594471637491,
        "distance_elbow_joint": 3.916689410076246,
        "distance_shoulder_lift_joint": 0.7828076657545974,
        "distance_shoulder_pan_joint": 3.2285117687880813,
        "distance_wrist_1_joint": 3.4862031456569325,
        "distance_wrist_2_joint": 1.4498242000513235,
        "distance_wrist_3_joint": 2.0647171690194086,
        "smoothness": 0.1585844079442704,
        "time": 0.08635172399999999,
        "traj_len": 3.863774496440831,
        "weighted_distance": 4.898389025291239
    },
    "planner": "BiEST",
    "start": {
        "state": {
            "elbow_joint": -1.9196185241190666,
            "shoulder_lift_joint": -1.2443396400964142,
            "shoulder_pan_joint": 2.6996025414629847,
            "wrist_1_joint": -1.5485510000780065,
            "wrist_2_joint": -1.5709468930060704,
            "wrist_3_joint": 0.4420197071253992
        }
    },
    "waypoints": [
        {
            "positions": [
                2.6996025414629847,
                -1.2443396400964142,
                -1.9196185241190666,
                -1.5485510000780065,
                -1.5709468930060704,
                0.4420197071253992
            ]
        },
        {
            "positions": [
                2.592084642528322,
                -1.2502361705205371,
                -1.8225222346004333,
                -1.4753828797757675,
                -1.5188262497846408,
                0.3951905328083998
            ]
        },
        {
            "positions": [
                2.4845667435936596,
                -1.25613270094466,
                -1.7254259450818,
                -1.4022147594735284,
                -1.4667056065632111,
                0.3483613584914003
            ]
        },
        {
            "positions": [
                2.377048844658997,
                -1.2620292313687829,
                -1.6283296555631663,
                -1.3290466391712894,
                -1.4145849633417815,
                0.30153218417440086
            ]
        },
        {
            "positions": [
                2.269530945724334,
                -1.2679257617929056,
                -1.531233366044533,
                -1.2558785188690504,
                -1.362464320120352,
                0.25470300985740146
            ]
        },
        {
            "positions": [
                2.1620130467896717,
                -1.2738222922170286,
                -1.4341370765258996,
                -1.1827103985668113,
                -1.3103436768989223,
                0.20787383554040204
            ]
        },
        {
            "positions": [
                2.054495147855009,
                -1.2797188226411516,
                -1.337040787007266,
                -1.1095422782645723,
                -1.2582230336774924,
                0.1610446612234026
            ]
        },
        {
            "positions": [
                1.946977248920346,
                -1.2856153530652743,
                -1.239944497488633,
                -1.0363741579623333,
                -1.2061023904560628,
                0.11421548690640321
            ]
        },
        {
            "positions": [
                1.8394593499856835,
                -1.2915118834893973,
                -1.1428482079699993,
                -0.9632060376600943,
                -1.1539817472346332,
                0.06738631258940375
            ]
        },
        {
            "positions": [
                1.731941451051021,
                -1.29740841391352,
                -1.045751918451366,
                -0.8900379173578552,
                -1.1018611040132036,
                0.02055713827240435
            ]
        },
        {
            "positions": [
                1.6244235521163581,
                -1.303304944337643,
                -0.9486556289327325,
                -0.8168697970556162,
                -1.049740460791774,
                -0.026272036044595104
            ]
        },
        {
            "positions": [
                1.5169056531816956,
                -1.3092014747617657,
                -0.851559339414099,
                -0.7437016767533772,
                -0.9976198175703443,
                -0.07310121036159456
            ]
        },
        {
            "positions": [
                1.4093877542470328,
                -1.3150980051858887,
                -0.7544630498954656,
                -0.6705335564511381,
                -0.9454991743489147,
                -0.11993038467859396
            ]
        },
        {
            "positions": [
                1.3018698553123702,
                -1.3209945356100117,
                -0.6573667603768323,
                -0.5973654361488991,
                -0.893378531127485,
                -0.16675955899559336
            ]
        },
        {
            "positions": [
                1.1943519563777076,
                -1.3268910660341344,
                -0.5602704708581989,
                -0.5241973158466602,
                -0.8412578879060554,
                -0.21358873331259276
            ]
        },
        {
            "positions": [
                1.0868340574430448,
                -1.3327875964582574,
                -0.46317418133956534,
                -0.451029195544421,
                -0.7891372446846256,
                -0.26041790762959227
            ]
        },
        {
            "positions": [
                0.9793161585083823,
                -1.3386841268823801,
                -0.366077891820932,
                -0.37786107524218204,
                -0.7370166014631961,
                -0.30724708194659167
            ]
        },
        {
            "positions": [
                0.8717982595737195,
                -1.3445806573065031,
                -0.2689816023022984,
                -0.30469295493994286,
                -0.6848959582417664,
                -0.3540762562635912
            ]
        },
        {
            "positions": [
                0.7642803606390569,
                -1.350477187730626,
                -0.17188531278366526,
                -0.2315248346377039,
                -0.6327753150203368,
                -0.40090543058059047
            ]
        },
        {
            "positions": [
                0.6567624617043943,
                -1.3563737181547488,
                -0.07478902326503167,
                -0.15835671433546494,
                -0.5806546717989072,
                -0.44773460489759
            ]
        },
        {
            "positions": [
                0.5492445627697315,
                -1.3622702485788718,
                0.022307266253601687,
                -0.08518859403322598,
                -0.5285340285774776,
                -0.4945637792145894
            ]
        },
        {
            "positions": [
                0.44172666383506876,
                -1.3681667790029945,
                0.11940355577223505,
                -0.012020473730986803,
                -0.47641338535604794,
                -0.5413929535315889
            ]
        },
        {
            "positions": [
                0.3342087649004064,
                -1.3740633094271175,
                0.21649984529086863,
                0.06114764657125216,
                -0.4242927421346183,
                -0.5882221278485883
            ]
        },
        {
            "positions": [
                0.22669086596574362,
                -1.3799598398512405,
                0.3135961348095022,
                0.13431576687349134,
                -0.3721720989131885,
                -0.6350513021655878
            ]
        },
        {
            "positions": [
                0.11917296703108082,
                -1.3858563702753632,
                0.41069242432813535,
                0.2074838871757303,
                -0.3200514556917591,
                -0.6818804764825871
            ]
        },
        {
            "positions": [
                0.011655068096418031,
                -1.3917529006994862,
                0.5077887138467689,
                0.28065200747796926,
                -0.26793081247032924,
                -0.7287096507995866
            ]
        },
        {
            "positions": [
                -0.09586283083824432,
                -1.397649431123609,
                0.6048850033654021,
                0.3538201277802082,
                -0.21581016924889962,
                -0.7755388251165859
            ]
        },
        {
            "positions": [
                -0.20338072977290694,
                -1.403545961547732,
                0.7019812928840359,
                0.4269882480824475,
                -0.1636895260274701,
                -0.8223679994335854
            ]
        },
        {
            "positions": [
                -0.18256179043622192,
                -1.3529565077376124,
                0.8200117598489678,
                0.5553579214908794,
                -0.15809307626287208,
                -0.7613771415983775
            ]
        },
        {
            "positions": [
                -0.1617428510995369,
                -1.3023670539274927,
                0.9380422268138996,
                0.6837275948993112,
                -0.15249662649827406,
                -0.7003862837631696
            ]
        },
        {
            "positions": [
                -0.14092391176285185,
                -1.2517776001173733,
                1.0560726937788316,
                0.8120972683077431,
                -0.14690017673367603,
                -0.6393954259279617
            ]
        },
        {
            "positions": [
                -0.12010497242616683,
                -1.2011881463072536,
                1.1741031607437633,
                0.940466941716175,
                -0.141303726969078,
                -0.5784045680927539
            ]
        },
        {
            "positions": [
                -0.09928603308948179,
                -1.150598692497134,
                1.2921336277086954,
                1.068836615124607,
                -0.13570727720447995,
                -0.5174137102575459
            ]
        },
        {
            "positions": [
                -0.07846709375279677,
                -1.1000092386870146,
                1.4101640946736271,
                1.1972062885330388,
                -0.13011082743988192,
                -0.45642285242233804
            ]
        },
        {
            "positions": [
                -0.057648154416111735,
                -1.049419784876895,
                1.528194561638559,
                1.3255759619414706,
                -0.1245143776752839,
                -0.39543199458713013
            ]
        },
        {
            "positions": [
                -0.02168896997703313,
                -0.9955247513504064,
                1.6219698265022833,
                1.4479911986689618,
                -0.12383604073117642,
                -0.32075330306433636
            ]
        },
        {
            "positions": [
                0.014270214462045475,
                -0.9416297178239179,
                1.7157450913660077,
                1.5704064353964529,
                -0.12315770378706896,
                -0.2460746115415426
            ]
        },
        {
            "positions": [
                0.05022939890112409,
                -0.8877346842974294,
                1.809520356229732,
                1.692821672123944,
                -0.12247936684296148,
                -0.17139592001874882
            ]
        },
        {
            "positions": [
                0.08618858334020268,
                -0.8338396507709408,
                1.9032956210934564,
                1.8152369088514353,
                -0.12180102989885402,
                -0.09671722849595504
            ]
        },
        {
            "positions": [
                0.12214776777928131,
                -0.7799446172444523,
                1.9970708859571806,
                1.9376521455789264,
                -0.12112269295474655,
                -0.02203853697316129
            ]
        }
    ]
}