{
    "goal": {
        "global_pose": {
            "orientation": {
                "w": 0.7047431468963623,
                "x": -0.7094548344612122,
                "y": 0.0024358443915843964,
                "z": -0.0022348060738295317
            },
            "position": {
                "x": 0.6094750761985779,
                "y": 0.3671506643295288,
                "z": 0.19426114857196808
            }
        },
        "name": "move_to_magneteinheit_A"
    },
    "id": "BiEST_move_to_magneteinheit_A_72",
    "joint_names": [
        "shoulder_pan_joint",
        "shoulder_lift_joint",
        "elbow_joint",
        "wrist_1_joint",
        "wrist_2_joint",
        "wrist_3_joint"
    ],
    "metrics": {
        "cart_traj_len": 3.6892624145352677,
        "distance_elbow_joint": 3.943456711641679,
        "distance_shoulder_lift_joint": 0.48332298882338476,
        "distance_shoulder_pan_joint": 4.168098219324326,
        "distance_wrist_1_joint": 3.576599297672665,
        "distance_wrist_2_joint": 1.4402684619806938,
        "distance_wrist_3_joint": 3.4650780122287705,
        "smoothness": 0.19025542010585234,
        "time": 0.08646214099999999,
        "traj_len": 4.132411365252922,
        "weighted_distance": 5.387378534666225
    },
    "planner": "BiEST",
    "start": {
        "state": {
            "elbow_joint": -1.9196185241190666,
            "shoulder_lift_joint": -1.2443396400964142,
            "shoulder_pan_joint": 2.6996025414629847,
            "wrist_1_joint": -1.5485510000780065,
            "wrist_2_joint": -1.5709468930060704,
            "wrist_3_joint": 0.4420197071253992
        }
    },
    "waypoints": [
        {
            "positions": [
                2.6996025414629847,
                -1.2443396400964142,
                -1.9196185241190666,
                -1.5485510000780065,
                -1.5709468930060704,
                0.4420197071253992
            ]
        },
        {
            "positions": [
                2.5529733871921527,
                -1.2449576133494173,
                -1.8258711313701073,
                -1.523911624460308,
                -1.5444553834169963,
                0.3544592767242796
            ]
        },
        {
            "positions": [
                2.4063442329213207,
                -1.2455755866024207,
                -1.7321237386211479,
                -1.4992722488426091,
                -1.5179638738279222,
                0.2668988463231601
            ]
        },
        {
            "positions": [
                2.2597150786504887,
                -1.246193559855424,
                -1.6383763458721887,
                -1.4746328732249105,
                -1.4914723642388479,
                0.17933841592204047
            ]
        },
        {
            "positions": [
                2.1130859243796567,
                -1.2468115331084273,
                -1.5446289531232291,
                -1.449993497607212,
                -1.4649808546497738,
                0.09177798552092092
            ]
        },
        {
            "positions": [
                1.9664567701088245,
                -1.2474295063614305,
                -1.45088156037427,
                -1.4253541219895132,
                -1.4384893450606997,
                0.0042175551198013195
            ]
        },
        {
            "positions": [
                1.8198276158379925,
                -1.2480474796144339,
                -1.3571341676253106,
                -1.4007147463718146,
                -1.4119978354716256,
                -0.08334287528131823
            ]
        },
        {
            "positions": [
                1.6731984615671602,
                -1.248665452867437,
                -1.2633867748763512,
                -1.3760753707541158,
                -1.3855063258825515,
                -0.17090330568243783
            ]
        },
        {
            "positions": [
                1.5265693072963284,
                -1.2492834261204402,
                -1.1696393821273918,
                -1.3514359951364172,
                -1.3590148162934774,
                -0.2584637360835573
            ]
        },
        {
            "positions": [
                1.3799401530254962,
                -1.2499013993734436,
                -1.0758919893784324,
                -1.3267966195187186,
                -1.332523306704403,
                -0.34602416648467704
            ]
        },
        {
            "positions": [
                1.2333109987546642,
                -1.2505193726264467,
                -0.9821445966294732,
                -1.3021572439010198,
                -1.306031797115329,
                -0.43358459688579654
            ]
        },
        {
            "positions": [
                1.0866818444838322,
                -1.2511373458794501,
                -0.8883972038805137,
                -1.2775178682833213,
                -1.279540287526255,
                -0.5211450272869161
            ]
        },
        {
            "positions": [
                0.9400526902130002,
                -1.2517553191324533,
                -0.7946498111315545,
                -1.2528784926656225,
                -1.2530487779371808,
                -0.6087054576880356
            ]
        },
        {
            "positions": [
                0.7934235359421682,
                -1.2523732923854567,
                -0.7009024183825951,
                -1.2282391170479239,
                -1.2265572683481067,
                -0.6962658880891551
            ]
        },
        {
            "positions": [
                0.6467943816713357,
                -1.2529912656384599,
                -0.6071550256336355,
                -1.2035997414302253,
                -1.2000657587590324,
                -0.7838263184902748
            ]
        },
        {
            "positions": [
                0.5001652274005042,
                -1.2536092388914633,
                -0.5134076328846764,
                -1.1789603658125265,
                -1.1735742491699583,
                -0.8713867488913943
            ]
        },
        {
            "positions": [
                0.35353607312967217,
                -1.2542272121444664,
                -0.419660240135717,
                -1.154320990194828,
                -1.1470827395808842,
                -0.9589471792925138
            ]
        },
        {
            "positions": [
                0.20690691885884016,
                -1.2548451853974696,
                -0.32591284738675785,
                -1.1296816145771293,
                -1.1205912299918102,
                -1.0465076096936334
            ]
        },
        {
            "positions": [
                0.06027776458800771,
                -1.255463158650473,
                -0.23216545463779825,
                -1.1050422389594305,
                -1.094099720402736,
                -1.1340680400947534
            ]
        },
        {
            "positions": [
                -0.0863513896828243,
                -1.2560811319034761,
                -0.13841806188883887,
                -1.080402863341732,
                -1.067608210813662,
                -1.2216284704958729
            ]
        },
        {
            "positions": [
                -0.2329805439536563,
                -1.2566991051564795,
                -0.044670669139879715,
                -1.0557634877240334,
                -1.0411167012245879,
                -1.3091889008969924
            ]
        },
        {
            "positions": [
                -0.37960969822448787,
                -1.2573170784094827,
                0.049076723609079664,
                -1.0311241121063346,
                -1.0146251916355138,
                -1.3967493312981119
            ]
        },
        {
            "positions": [
                -0.5262388524953203,
                -1.257935051662486,
                0.14282411635803927,
                -1.006484736488636,
                -0.9881336820464395,
                -1.4843097616992313
            ]
        },
        {
            "positions": [
                -0.6728680067661522,
                -1.2585530249154893,
                0.2365715091069983,
                -0.9818453608709373,
                -0.9616421724573654,
                -1.5718701921003508
            ]
        },
        {
            "positions": [
                -0.6397386369263589,
                -1.2370786956005364,
                0.32620790356264645,
                -0.8415479166666113,
                -0.9190625867700652,
                -1.5045391992116695
            ]
        },
        {
            "positions": [
                -0.6066092670865657,
                -1.2156043662855838,
                0.4158442980182946,
                -0.7012504724622853,
                -0.876483001082765,
                -1.4372082063229878
            ]
        },
        {
            "positions": [
                -0.5734798972467724,
                -1.194130036970631,
                0.5054806924739427,
                -0.5609530282579593,
                -0.8339034153954649,
                -1.3698772134343065
            ]
        },
        {
            "positions": [
                -0.5403505274069791,
                -1.1726557076556783,
                0.5951170869295908,
                -0.42065558405363335,
                -0.7913238297081647,
                -1.302546220545625
            ]
        },
        {
            "positions": [
                -0.5072211575671859,
                -1.1511813783407254,
                0.684753481385239,
                -0.28035813984930746,
                -0.7487442440208645,
                -1.2352152276569437
            ]
        },
        {
            "positions": [
                -0.4740917877273926,
                -1.1297070490257728,
                0.774389875840887,
                -0.14006069564498147,
                -0.7061646583335643,
                -1.167884234768262
            ]
        },
        {
            "positions": [
                -0.44096241788759927,
                -1.10823271971082,
                0.8640262702965351,
                0.000236748559344524,
                -0.6635850726462642,
                -1.1005532418795807
            ]
        },
        {
            "positions": [
                -0.40783304804780596,
                -1.0867583903958673,
                0.9536626647521833,
                0.14053419276367063,
                -0.6210054869589641,
                -1.0332222489908993
            ]
        },
        {
            "positions": [
                -0.3747036782080127,
                -1.0652840610809144,
                1.0432990592078313,
                0.2808316369679965,
                -0.5784259012716639,
                -0.9658912561022178
            ]
        },
        {
            "positions": [
                -0.34157430836821945,
                -1.0438097317659618,
                1.1329354536634795,
                0.4211290811723224,
                -0.5358463155843637,
                -0.8985602632135363
            ]
        },
        {
            "positions": [
                -0.30844493852842614,
                -1.022335402451009,
                1.2225718481191277,
                0.5614265253766485,
                -0.4932667298970635,
                -0.8312292703248548
            ]
        },
        {
            "positions": [
                -0.2753155686886329,
                -1.0008610731360563,
                1.3122082425747759,
                0.7017239695809744,
                -0.4506871442097633,
                -0.7638982774361734
            ]
        },
        {
            "positions": [
                -0.24218619884883957,
                -0.9793867438211035,
                1.401844637030424,
                0.8420214137853005,
                -0.40810755852246317,
                -0.696567284547492
            ]
        },
        {
            "positions": [
                -0.20905682900904632,
                -0.9579124145061508,
                1.4914810314860718,
                0.9823188579896264,
                -0.36552797283516303,
                -0.6292362916588106
            ]
        },
        {
            "positions": [
                -0.175927459169253,
                -0.936438085191198,
                1.58111742594172,
                1.1226163021939524,
                -0.3229483871478628,
                -0.561905298770129
            ]
        },
        {
            "positions": [
                -0.1427980893294597,
                -0.9149637558762453,
                1.6707538203973682,
                1.2629137463982785,
                -0.28036880146056264,
                -0.4945743058814476
            ]
        },
        {
            "positions": [
                -0.10966871948966639,
                -0.8934894265612925,
                1.7603902148530164,
                1.4032111906026046,
                -0.2377892157732625,
                -0.4272433129927662
            ]
        },
        {
            "positions": [
                -0.07653934964987319,
                -0.8720150972463397,
                1.8500266093086646,
                1.5435086348069302,
                -0.19520963008596237,
                -0.3599123201040848
            ]
        },
        {
            "positions": [
                -0.043409979810079824,
                -0.850540767931387,
                1.9396630037643128,
                1.6838060790112563,
                -0.15263004439866212,
                -0.2925813272154032
            ]
        },
        {
            "positions": [
                0.011979901569625986,
                -0.8301749855913179,
                1.9677213983504125,
                1.798553485205724,
                -0.14531283994090016,
                -0.23528157784271297
            ]
        },
        {
            "positions": [
                0.0673697829493318,
                -0.8098092032512487,
                1.995779792936512,
                1.9133008914001912,
                -0.13799563548313823,
                -0.17798182847002275
            ]
        },
        {
            "positions": [
                0.12275966432903762,
                -0.7894434209111796,
                2.0238381875226117,
                2.0280482975946588,
                -0.13067843102537627,
                -0.12068207909733254
            ]
        }
    ]
}