{
    "goal": {
        "global_pose": {
            "orientation": {
                "w": -0.4816463035849501,
                "x": 0.5182115481033762,
                "y": 0.4908360881923453,
                "z": -0.5084816262002911
            },
            "position": {
                "x": -0.8240239810943604,
                "y": -0.300875300988555,
                "z": 0.16403168439865112
            }
        },
        "name": "move_to_storage_C"
    },
    "id": "BiEST_move_to_storage_C_76",
    "joint_names": [
        "shoulder_pan_joint",
        "shoulder_lift_joint",
        "elbow_joint",
        "wrist_1_joint",
        "wrist_2_joint",
        "wrist_3_joint"
    ],
    "metrics": {
        "cart_traj_len": 0.5768370535045348,
        "distance_elbow_joint": 0.2596734496514521,
        "distance_shoulder_lift_joint": 0.18939888815055095,
        "distance_shoulder_pan_joint": 0.494570105922294,
        "distance_wrist_1_joint": 0.08303667967501771,
        "distance_wrist_2_joint": 1.0690138829214946,
        "distance_wrist_3_joint": 0.06426152282657682,
        "smoothness": 2.5376526478085547e-16,
        "time": 0.093839967,
        "traj_len": 1.469678376090288,
        "weighted_distance": 1.8548660699352535
    },
    "planner": "BiEST",
    "start": {
        "state": {
            "elbow_joint": 2.010868314990456,
            "shoulder_lift_joint": -1.1634956873337592,
            "shoulder_pan_joint": -2.4736205022346125,
            "wrist_1_joint": -0.8367026794202681,
            "wrist_2_joint": 0.6746043897044499,
            "wrist_3_joint": -3.1496632123970403
        }
    },
    "waypoints": [
        {
            "positions": [
                -2.4736205022346125,
                -1.1634956873337592,
                2.010868314990456,
                -0.8367026794202681,
                0.6746043897044499,
                -3.1496632123970403
            ]
        },
        {
            "positions": [
                -2.5560488532216614,
                -1.131929205975334,
                1.9675894067152138,
                -0.8228632328077652,
                0.8527733701913657,
                -3.138952958592611
            ]
        },
        {
            "positions": [
                -2.6384772042087103,
                -1.1003627246169088,
                1.9243104984399717,
                -0.8090237861952622,
                1.0309423506782815,
                -3.1282427047881813
            ]
        },
        {
            "positions": [
                -2.7209055551957597,
                -1.0687962432584837,
                1.8810315901647296,
                -0.7951843395827592,
                1.209111331165197,
                -3.117532450983752
            ]
        },
        {
            "positions": [
                -2.8033339061828086,
                -1.0372297619000586,
                1.8377526818894878,
                -0.7813448929702563,
                1.387280311652113,
                -3.1068221971793224
            ]
        },
        {
            "positions": [
                -2.8857622571698576,
                -1.0056632805416335,
                1.7944737736142458,
                -0.7675054463577533,
                1.5654492921390286,
                -3.096111943374893
            ]
        },
        {
            "positions": [
                -2.9681906081569065,
                -0.9740967991832082,
                1.7511948653390037,
                -0.7536659997452504,
                1.7436182726259446,
                -3.0854016895704635
            ]
        }
    ]
}