{
    "goal": {
        "global_pose": {
            "orientation": {
                "w": -0.00223480608172531,
                "x": 0.0024358444001904467,
                "y": 0.7094548369677653,
                "z": -0.704743149386269
            },
            "position": {
                "x": -0.37947507619857795,
                "y": -0.6371506643295288,
                "z": 0.19426114857196808
            }
        },
        "name": "move_to_magneteinheit_C"
    },
    "id": "BiEST_move_to_magneteinheit_C_26",
    "joint_names": [
        "shoulder_pan_joint",
        "shoulder_lift_joint",
        "elbow_joint",
        "wrist_1_joint",
        "wrist_2_joint",
        "wrist_3_joint"
    ],
    "metrics": {
        "cart_traj_len": 1.1831218578447107,
        "distance_elbow_joint": 0.16034530870455876,
        "distance_shoulder_lift_joint": 0.25151788432094335,
        "distance_shoulder_pan_joint": 1.3660513806704266,
        "distance_wrist_1_joint": 0.9132423757447771,
        "distance_wrist_2_joint": 1.9611947469814357,
        "distance_wrist_3_joint": 0.6669710710545509,
        "smoothness": 1.3810341732145335,
        "time": 0.137858492,
        "traj_len": 2.306365705493535,
        "weighted_distance": 3.086697593272138
    },
    "planner": "BiEST",
    "start": {
        "state": {
            "elbow_joint": 1.9565354010623817,
            "shoulder_lift_joint": -1.4165861575791021,
            "shoulder_pan_joint": -1.6717766225146293,
            "wrist_1_joint": -0.5286633292919765,
            "wrist_2_joint": 1.472756589071564,
            "wrist_3_joint": -3.1238370188695823
        }
    },
    "waypoints": [
        {
            "positions": [
                -1.6717766225146293,
                -1.4165861575791021,
                1.9565354010623817,
                -0.5286633292919765,
                1.472756589071564,
                -3.1238370188695823
            ]
        },
        {
            "positions": [
                -1.6314339246987015,
                -1.4142490748482823,
                1.9720432358057784,
                -0.6161823984864374,
                1.2764095217610378,
                -3.077963814631439
            ]
        },
        {
            "positions": [
                -1.591091226882774,
                -1.4119119921174628,
                1.9875510705491755,
                -0.7037014676808985,
                1.0800624544505117,
                -3.032090610393296
            ]
        },
        {
            "positions": [
                -1.5507485290668461,
                -1.409574909386643,
                2.0030589052925722,
                -0.7912205368753595,
                0.8837153871399858,
                -2.986217406155153
            ]
        },
        {
            "positions": [
                -1.5104058312509183,
                -1.4072378266558234,
                2.0185667400359693,
                -0.8787396060698205,
                0.6873683198294598,
                -2.94034420191701
            ]
        },
        {
            "positions": [
                -1.4700631334349905,
                -1.4049007439250036,
                2.0340745747793663,
                -0.9662586752642816,
                0.4910212525189336,
                -2.8944709976788667
            ]
        },
        {
            "positions": [
                -1.429720435619063,
                -1.402563661194184,
                2.049582409522763,
                -1.0537777444587424,
                0.2946741852084076,
                -2.8485977934407236
            ]
        },
        {
            "positions": [
                -1.3893777378031351,
                -1.4002265784633643,
                2.06509024426616,
                -1.1412968136532036,
                0.09832711789788151,
                -2.8027245892025805
            ]
        },
        {
            "positions": [
                -1.5441852372258398,
                -1.3666325348626207,
                2.057691606337477,
                -1.0983526863126964,
                0.1821507287275605,
                -2.852132966543659
            ]
        },
        {
            "positions": [
                -1.6989927366485444,
                -1.333038491261877,
                2.050292968408794,
                -1.0554085589721893,
                0.2659743395572395,
                -2.9015413438847375
            ]
        },
        {
            "positions": [
                -1.8538002360712489,
                -1.2994444476611333,
                2.042894330480111,
                -1.0124644316316822,
                0.3497979503869184,
                -2.950949721225816
            ]
        },
        {
            "positions": [
                -2.0086077354939538,
                -1.2658504040603897,
                2.0354956925514283,
                -0.9695203042911751,
                0.4336215612165974,
                -3.000358098566894
            ]
        },
        {
            "positions": [
                -2.163415234916658,
                -1.2322563604596461,
                2.0280970546227453,
                -0.9265761769506679,
                0.5174451720462764,
                -3.0497664759079726
            ]
        },
        {
            "positions": [
                -2.318222734339363,
                -1.1986623168589023,
                2.0206984166940622,
                -0.8836320496101608,
                0.6012687828759553,
                -3.099174853249051
            ]
        },
        {
            "positions": [
                -2.4730302337620675,
                -1.1650682732581588,
                2.0132997787653792,
                -0.8406879222696536,
                0.6850923937056344,
                -3.1485832305901296
            ]
        }
    ]
}