{
    "goal": {
        "global_pose": {
            "orientation": {
                "w": -0.00223480608172531,
                "x": 0.0024358444001904467,
                "y": 0.7094548369677653,
                "z": -0.704743149386269
            },
            "position": {
                "x": 0.6205249238014221,
                "y": -0.6371506643295288,
                "z": 0.19426114857196808
            }
        },
        "name": "move_to_magneteinheit_B"
    },
    "id": "BiEST_move_to_magneteinheit_B_150",
    "joint_names": [
        "shoulder_pan_joint",
        "shoulder_lift_joint",
        "elbow_joint",
        "wrist_1_joint",
        "wrist_2_joint",
        "wrist_3_joint"
    ],
    "metrics": {
        "cart_traj_len": 1.645072842502007,
        "distance_elbow_joint": 0.9583091858106689,
        "distance_shoulder_lift_joint": 1.7948079340017213,
        "distance_shoulder_pan_joint": 1.6212127977487383,
        "distance_wrist_1_joint": 1.5377156075482827,
        "distance_wrist_2_joint": 1.9188109037835468,
        "distance_wrist_3_joint": 1.9131484589251593,
        "smoothness": 0.6221498746793478,
        "time": 0.176710497,
        "traj_len": 3.1215388653383958,
        "weighted_distance": 4.126357754364043
    },
    "planner": "BiEST",
    "start": {
        "state": {
            "elbow_joint": 2.6216224122426386,
            "shoulder_lift_joint": -1.4174107377796124,
            "shoulder_pan_joint": 0.7066234856936794,
            "wrist_1_joint": 1.9546482284002225,
            "wrist_2_joint": -0.7096286983471962,
            "wrist_3_joint": 0.005740856962016249
        }
    },
    "waypoints": [
        {
            "positions": [
                0.7066234856936794,
                -1.4174107377796124,
                2.6216224122426386,
                1.9546482284002225,
                -0.7096286983471962,
                0.005740856962016249
            ]
        },
        {
            "positions": [
                0.655544363187569,
                -1.4572731327676465,
                2.5844319599420147,
                1.869473678586646,
                -0.6431295742558102,
                0.06516003502102996
            ]
        },
        {
            "positions": [
                0.6044652406814588,
                -1.4971355277556808,
                2.5472415076413912,
                1.7842991287730696,
                -0.5766304501644242,
                0.12457921308004366
            ]
        },
        {
            "positions": [
                0.5533861181753484,
                -1.536997922743715,
                2.5100510553407673,
                1.699124578959493,
                -0.5101313260730381,
                0.1839983911390574
            ]
        },
        {
            "positions": [
                0.42401754622628585,
                -1.5813040911450658,
                2.4621363203013704,
                1.6521598910209427,
                -0.5363763754356526,
                0.2704029773682582
            ]
        },
        {
            "positions": [
                0.2946489742772232,
                -1.6256102595464166,
                2.4142215852619735,
                1.6051952030823922,
                -0.5626214247982672,
                0.35680756359745897
            ]
        },
        {
            "positions": [
                0.16528040232816055,
                -1.6699164279477672,
                2.366306850222577,
                1.5582305151438418,
                -0.5888664741608817,
                0.4432121498266598
            ]
        },
        {
            "positions": [
                0.03591183037909795,
                -1.714222596349118,
                2.31839211518318,
                1.5112658272052915,
                -0.6151115235234961,
                0.5296167360558606
            ]
        },
        {
            "positions": [
                -0.09345674156996475,
                -1.7585287647504688,
                2.270477380143783,
                1.4643011392667409,
                -0.6413565728861106,
                0.6160213222850615
            ]
        },
        {
            "positions": [
                -0.22282531351902735,
                -1.8028349331518196,
                2.2225626451043863,
                1.4173364513281905,
                -0.6676016222487251,
                0.7024259085142621
            ]
        },
        {
            "positions": [
                -0.35219388546808994,
                -1.8471411015531705,
                2.17464791006499,
                1.3703717633896402,
                -0.6938466716113396,
                0.788830494743463
            ]
        },
        {
            "positions": [
                -0.48156245741715253,
                -1.891447269954521,
                2.126733175025593,
                1.3234070754510898,
                -0.7200917209739541,
                0.8752350809726637
            ]
        },
        {
            "positions": [
                -0.6109310293662152,
                -1.9357534383558719,
                2.078818439986196,
                1.2764423875125392,
                -0.7463367703365686,
                0.9616396672018646
            ]
        },
        {
            "positions": [
                -0.6331571800162584,
                -1.8438053805739805,
                2.049160203693494,
                1.3397592284642534,
                -0.8544941702655852,
                0.8929826337914177
            ]
        },
        {
            "positions": [
                -0.6553833306663016,
                -1.751857322792089,
                2.019501967400793,
                1.4030760694159676,
                -0.9626515701946016,
                0.824325600380971
            ]
        },
        {
            "positions": [
                -0.6776094813163447,
                -1.6599092650101976,
                1.989843731108091,
                1.4663929103676816,
                -1.070808970123618,
                0.7556685669705242
            ]
        },
        {
            "positions": [
                -0.6998356319663879,
                -1.5679612072283065,
                1.9601854948153892,
                1.5297097513193958,
                -1.1789663700526345,
                0.6870115335600775
            ]
        },
        {
            "positions": [
                -0.7220617826164311,
                -1.476013149446415,
                1.9305272585226876,
                1.59302659227111,
                -1.2871237699816511,
                0.6183545001496307
            ]
        },
        {
            "positions": [
                -0.7442879332664742,
                -1.3840650916645236,
                1.900869022229986,
                1.6563434332228242,
                -1.3952811699106675,
                0.5496974667391838
            ]
        },
        {
            "positions": [
                -0.7665140839165173,
                -1.2921170338826322,
                1.8712107859372842,
                1.7196602741745382,
                -1.503438569839684,
                0.48104043332873714
            ]
        },
        {
            "positions": [
                -0.7887402345665605,
                -1.2001689761007408,
                1.8415525496445826,
                1.7829771151262523,
                -1.6115959697687003,
                0.4123833999182903
            ]
        },
        {
            "positions": [
                -0.8109663852166037,
                -1.1082209183188496,
                1.811894313351881,
                1.8462939560779665,
                -1.7197533696977167,
                0.3437263665078436
            ]
        },
        {
            "positions": [
                -0.8331925358666469,
                -1.016272860536958,
                1.7822360770591792,
                1.9096107970296807,
                -1.8279107696267334,
                0.2750693330973968
            ]
        },
        {
            "positions": [
                -0.85541868651669,
                -0.9243248027550668,
                1.7525778407664776,
                1.9729276379813947,
                -1.9360681695557498,
                0.20641229968694996
            ]
        },
        {
            "positions": [
                -0.8776448371667331,
                -0.8323767449731754,
                1.7229196044737758,
                2.036244478933109,
                -2.0442255694847664,
                0.13775526627650314
            ]
        },
        {
            "positions": [
                -0.8998709878167763,
                -0.740428687191284,
                1.6932613681810742,
                2.099561319884823,
                -2.152382969413783,
                0.06909823286605642
            ]
        },
        {
            "positions": [
                -0.9145893120550588,
                -0.6592882049304102,
                1.6633132264319697,
                2.1359521541731388,
                -2.229444857582427,
                0.004390018516553869
            ]
        }
    ]
}