{
    "goal": {
        "global_pose": {
            "orientation": {
                "w": -0.00223480608172531,
                "x": 0.0024358444001904467,
                "y": 0.7094548369677653,
                "z": -0.704743149386269
            },
            "position": {
                "x": 0.6205249238014221,
                "y": -0.6371506643295288,
                "z": 0.19426114857196808
            }
        },
        "name": "move_to_magneteinheit_B"
    },
    "id": "BiEST_move_to_magneteinheit_B_53",
    "joint_names": [
        "shoulder_pan_joint",
        "shoulder_lift_joint",
        "elbow_joint",
        "wrist_1_joint",
        "wrist_2_joint",
        "wrist_3_joint"
    ],
    "metrics": {
        "cart_traj_len": 4.148920315791101,
        "distance_elbow_joint": 4.9843857500783155,
        "distance_shoulder_lift_joint": 0.9071841256559869,
        "distance_shoulder_pan_joint": 3.4968309396698283,
        "distance_wrist_1_joint": 6.992027561078758,
        "distance_wrist_2_joint": 0.8727453368932094,
        "distance_wrist_3_joint": 4.280441110776774,
        "smoothness": 1.1615597011888357,
        "time": 0.693438441,
        "traj_len": 4.640432611745683,
        "weighted_distance": 6.161109473437264
    },
    "planner": "BiEST",
    "start": {
        "state": {
            "elbow_joint": 2.6216224122426386,
            "shoulder_lift_joint": -1.4174107377796124,
            "shoulder_pan_joint": 0.7066234856936794,
            "wrist_1_joint": 1.9546482284002225,
            "wrist_2_joint": -0.7096286983471962,
            "wrist_3_joint": 0.005740856962016249
        }
    },
    "waypoints": [
        {
            "positions": [
                0.7066234856936794,
                -1.4174107377796124,
                2.6216224122426386,
                1.9546482284002225,
                -0.7096286983471962,
                0.005740856962016249
            ]
        },
        {
            "positions": [
                0.8058672772347687,
                -1.4403083127635483,
                2.637107572590202,
                2.002714222182444,
                -0.7344786899254521,
                0.1509411925841341
            ]
        },
        {
            "positions": [
                0.9051110687758581,
                -1.4632058877474843,
                2.652592732937765,
                2.0507802159646658,
                -0.759328681503708,
                0.29614152820625195
            ]
        },
        {
            "positions": [
                1.0043548603169474,
                -1.4861034627314202,
                2.668077893285328,
                2.0988462097468874,
                -0.7841786730819639,
                0.4413418638283698
            ]
        },
        {
            "positions": [
                0.8557631858619285,
                -1.5099585191233427,
                2.6496665226033858,
                2.0319682442748466,
                -0.6942346862878633,
                0.40669160774784613
            ]
        },
        {
            "positions": [
                0.7071715114069095,
                -1.533813575515265,
                2.631255151921443,
                1.9650902788028053,
                -0.6042906994937627,
                0.37204135166732244
            ]
        },
        {
            "positions": [
                0.5585798369518904,
                -1.5576686319071875,
                2.6128437812395005,
                1.8982123133307645,
                -0.5143467126996621,
                0.3373910955867987
            ]
        },
        {
            "positions": [
                0.4099881624968714,
                -1.58152368829911,
                2.594432410557558,
                1.8313343478587234,
                -0.4244027259055616,
                0.302740839506275
            ]
        },
        {
            "positions": [
                0.4756203355002637,
                -1.5875754853026367,
                2.4869473676755223,
                1.7143136722453376,
                -0.42452763919562925,
                0.20621451791612888
            ]
        },
        {
            "positions": [
                0.541252508503656,
                -1.5936272823061635,
                2.3794623247934865,
                1.5972929966319516,
                -0.4246525524856969,
                0.10968819632598276
            ]
        },
        {
            "positions": [
                0.6068846815070483,
                -1.5996790793096902,
                2.2719772819114508,
                1.4802723210185658,
                -0.4247774657757645,
                0.013161874735836632
            ]
        },
        {
            "positions": [
                0.6725168545104407,
                -1.605730876313217,
                2.164492239029415,
                1.3632516454051797,
                -0.4249023790658321,
                -0.08336444685430949
            ]
        },
        {
            "positions": [
                0.738149027513833,
                -1.6117826733167437,
                2.0570071961473797,
                1.2462309697917937,
                -0.42502729235589976,
                -0.17989076844445567
            ]
        },
        {
            "positions": [
                0.8037812005172253,
                -1.6178344703202705,
                1.949522153265344,
                1.129210294178408,
                -0.4251522056459674,
                -0.27641709003460174
            ]
        },
        {
            "positions": [
                0.8694133735206176,
                -1.6238862673237973,
                1.8420371103833082,
                1.012189618565022,
                -0.425277118936035,
                -0.3729434116247479
            ]
        },
        {
            "positions": [
                0.93504554652401,
                -1.629938064327324,
                1.7345520675012724,
                0.8951689429516362,
                -0.4254020322261026,
                -0.469469733214894
            ]
        },
        {
            "positions": [
                1.0006777195274024,
                -1.6359898613308508,
                1.6270670246192367,
                0.7781482673382503,
                -0.42552694551617026,
                -0.5659960548050402
            ]
        },
        {
            "positions": [
                1.0663098925307946,
                -1.6420416583343773,
                1.519581981737201,
                0.6611275917248642,
                -0.4256518588062379,
                -0.6625223763951864
            ]
        },
        {
            "positions": [
                1.131942065534187,
                -1.648093455337904,
                1.4120969388551654,
                0.5441069161114784,
                -0.4257767720963055,
                -0.7590486979853326
            ]
        },
        {
            "positions": [
                1.1975742385375794,
                -1.6541452523414308,
                1.3046118959731297,
                0.4270862404980924,
                -0.42590168538637313,
                -0.8555750195754785
            ]
        },
        {
            "positions": [
                1.2632064115409716,
                -1.6601970493449576,
                1.197126853091094,
                0.3100655648847066,
                -0.42602659867644077,
                -0.9521013411656247
            ]
        },
        {
            "positions": [
                1.3288385845443638,
                -1.6662488463484844,
                1.0896418102090581,
                0.1930448892713208,
                -0.4261515119665084,
                -1.048627662755771
            ]
        },
        {
            "positions": [
                1.3944707575477562,
                -1.6723006433520111,
                0.9821567673270226,
                0.07602421365793477,
                -0.426276425256576,
                -1.145153984345917
            ]
        },
        {
            "positions": [
                1.4601029305511486,
                -1.6783524403555379,
                0.8746717244449869,
                -0.040996461955451036,
                -0.42640133854664364,
                -1.241680305936063
            ]
        },
        {
            "positions": [
                1.525735103554541,
                -1.6844042373590646,
                0.7671866815629511,
                -0.15801713756883706,
                -0.4265262518367113,
                -1.3382066275262092
            ]
        },
        {
            "positions": [
                1.5913672765579334,
                -1.6904560343625914,
                0.6597016386809154,
                -0.27503781318222287,
                -0.4266511651267789,
                -1.4347329491163554
            ]
        },
        {
            "positions": [
                1.6569994495613254,
                -1.6965078313661182,
                0.55221659579888,
                -0.3920584887956087,
                -0.4267760784168465,
                -1.5312592707065014
            ]
        },
        {
            "positions": [
                1.7226316225647178,
                -1.702559628369645,
                0.44473155291684385,
                -0.5090791644089949,
                -0.42690099170691415,
                -1.6277855922966478
            ]
        },
        {
            "positions": [
                1.7882637955681102,
                -1.7086114253731717,
                0.33724651003480854,
                -0.6260998400223803,
                -0.4270259049969818,
                -1.7243119138867937
            ]
        },
        {
            "positions": [
                1.8538959685715026,
                -1.7146632223766984,
                0.2297614671527728,
                -0.7431205156357665,
                -0.4271508182870494,
                -1.8208382354769401
            ]
        },
        {
            "positions": [
                1.9195281415748946,
                -1.7207150193802252,
                0.12227642427073704,
                -0.8601411912491523,
                -0.427275731577117,
                -1.917364557067086
            ]
        },
        {
            "positions": [
                1.985160314578287,
                -1.726766816383752,
                0.014791381388701286,
                -0.9771618668625386,
                -0.42740064486718465,
                -2.013890878657232
            ]
        },
        {
            "positions": [
                2.0507924875816794,
                -1.7328186133872787,
                -0.09269366149333402,
                -1.094182542475924,
                -0.4275255581572523,
                -2.1104172002473778
            ]
        },
        {
            "positions": [
                2.116424660585072,
                -1.7388704103908055,
                -0.20017870437537022,
                -1.2112032180893102,
                -0.42765047144731994,
                -2.206943521837524
            ]
        },
        {
            "positions": [
                2.182056833588464,
                -1.7449222073943322,
                -0.30766374725740553,
                -1.328223893702696,
                -0.4277753847373875,
                -2.30346984342767
            ]
        },
        {
            "positions": [
                2.247689006591856,
                -1.7509740043978588,
                -0.4151487901394417,
                -1.4452445693160818,
                -0.42790029802745516,
                -2.3999961650178165
            ]
        },
        {
            "positions": [
                2.3133211795952486,
                -1.7570258014013855,
                -0.522633833021477,
                -1.5622652449294676,
                -0.4280252113175228,
                -2.4965224866079625
            ]
        },
        {
            "positions": [
                2.378953352598641,
                -1.7630775984049123,
                -0.6301188759035128,
                -1.6792859205428539,
                -0.42815012460759044,
                -2.593048808198109
            ]
        },
        {
            "positions": [
                2.444585525602033,
                -1.769129395408439,
                -0.7376039187855485,
                -1.7963065961562397,
                -0.42827503789765803,
                -2.689575129788255
            ]
        },
        {
            "positions": [
                2.5102176986054254,
                -1.7751811924119658,
                -0.8450889616675843,
                -1.9133272717696255,
                -0.42839995118772567,
                -2.786101451378401
            ]
        },
        {
            "positions": [
                2.575849871608818,
                -1.7812329894154926,
                -0.9525740045496196,
                -2.030347947383011,
                -0.4285248644777933,
                -2.8826277729685468
            ]
        },
        {
            "positions": [
                2.6414820446122103,
                -1.7872847864190193,
                -1.0600590474316558,
                -2.1473686229963977,
                -0.42864977776786095,
                -2.979154094558693
            ]
        },
        {
            "positions": [
                2.7071142176156022,
                -1.793336583422546,
                -1.167544090313691,
                -2.2643892986097836,
                -0.42877469105792854,
                -3.075680416148839
            ]
        },
        {
            "positions": [
                2.772746390618995,
                -1.7993883804260729,
                -1.2750291331957273,
                -2.3814099742231694,
                -0.4288996043479962,
                -3.1722067377389855
            ]
        },
        {
            "positions": [
                2.838378563622387,
                -1.8054401774295996,
                -1.3825141760777626,
                -2.498430649836555,
                -0.4290245176380638,
                -3.2687330593291315
            ]
        },
        {
            "positions": [
                2.8353417446536526,
                -1.8696950189833659,
                -1.465289440631958,
                -2.333549954577797,
                -0.4625468874194313,
                -3.2640807796874585
            ]
        },
        {
            "positions": [
                2.8323049256849178,
                -1.9339498605371324,
                -1.5480647051861536,
                -2.168669259319039,
                -0.4960692572007988,
                -3.2594285000457854
            ]
        },
        {
            "positions": [
                2.8292681067161833,
                -1.9982047020908986,
                -1.6308399697403488,
                -2.003788564060281,
                -0.5295916269821663,
                -3.2547762204041124
            ]
        },
        {
            "positions": [
                2.8262312877474485,
                -2.062459543644665,
                -1.7136152342945443,
                -1.838907868801523,
                -0.5631139967635338,
                -3.25012394076244
            ]
        },
        {
            "positions": [
                2.823194468778714,
                -2.1267143851984316,
                -1.7963904988487398,
                -1.6740271735427648,
                -0.5966363665449013,
                -3.245471661120767
            ]
        },
        {
            "positions": [
                2.820157649809979,
                -2.190969226752198,
                -1.8791657634029353,
                -1.509146478284007,
                -0.6301587363262688,
                -3.2408193814790938
            ]
        },
        {
            "positions": [
                2.8171208308412448,
                -2.255224068305964,
                -1.9619410279571308,
                -1.3442657830252487,
                -0.6636811061076363,
                -3.2361671018374207
            ]
        },
        {
            "positions": [
                2.7861038841772796,
                -2.241349909280037,
                -1.9003587583984969,
                -1.5635433536927175,
                -0.6238528991516433,
                -3.2157272571851796
            ]
        },
        {
            "positions": [
                2.7550869375133145,
                -2.22747575025411,
                -1.8387764888398632,
                -1.782820924360186,
                -0.5840246921956505,
                -3.1952874125329385
            ]
        },
        {
            "positions": [
                2.7240699908493493,
                -2.213601591228183,
                -1.7771942192812293,
                -2.0020984950276546,
                -0.5441964852396575,
                -3.1748475678806978
            ]
        },
        {
            "positions": [
                2.693053044185384,
                -2.199727432202256,
                -1.7156119497225957,
                -2.2213760656951234,
                -0.5043682782836645,
                -3.1544077232284566
            ]
        },
        {
            "positions": [
                2.662036097521419,
                -2.185853273176329,
                -1.6540296801639618,
                -2.440653636362592,
                -0.46454007132767156,
                -3.1339678785762155
            ]
        }
    ]
}