{
    "goal": {
        "global_pose": {
            "orientation": {
                "w": 0.5084816217422485,
                "x": -0.49083608388900757,
                "y": 0.5182115435600281,
                "z": -0.4816462993621826
            },
            "position": {
                "x": 0.5540239810943604,
                "y": 0.030875300988554955,
                "z": 0.16403168439865112
            }
        },
        "name": "move_to_storage_A"
    },
    "id": "BiEST_move_to_storage_A_85",
    "joint_names": [
        "shoulder_pan_joint",
        "shoulder_lift_joint",
        "elbow_joint",
        "wrist_1_joint",
        "wrist_2_joint",
        "wrist_3_joint"
    ],
    "metrics": {
        "cart_traj_len": 0.35384192549240123,
        "distance_elbow_joint": 0.45190086308090005,
        "distance_shoulder_lift_joint": 0.23446112956408327,
        "distance_shoulder_pan_joint": 0.46332285799094425,
        "distance_wrist_1_joint": 0.24815656741882586,
        "distance_wrist_2_joint": 1.0980588698176996,
        "distance_wrist_3_joint": 0.10580212169120884,
        "smoothness": 4.440892098500626e-16,
        "time": 0.069929385,
        "traj_len": 1.6129793580711633,
        "weighted_distance": 2.0394906447891845
    },
    "planner": "BiEST",
    "start": {
        "state": {
            "elbow_joint": 1.971548259319323,
            "shoulder_lift_joint": -1.1394851275133948,
            "shoulder_pan_joint": 0.1228115487234821,
            "wrist_1_joint": -0.7804723859257726,
            "wrist_2_joint": 0.12958671773740124,
            "wrist_3_joint": -3.192489227718131
        }
    },
    "waypoints": [
        {
            "positions": [
                0.1228115487234821,
                -1.1394851275133948,
                1.971548259319323,
                -0.7804723859257726,
                0.12958671773740124,
                -3.192489227718131
            ]
        },
        {
            "positions": [
                0.056622569010490065,
                -1.1729795745939782,
                2.0361055254737375,
                -0.815923324128462,
                0.2864522705685012,
                -3.177374638905101
            ]
        },
        {
            "positions": [
                -0.00956641070250197,
                -1.2064740216745615,
                2.1006627916281517,
                -0.8513742623311514,
                0.44331782339960113,
                -3.1622600500920717
            ]
        },
        {
            "positions": [
                -0.075755390415494,
                -1.2399684687551449,
                2.165220057782566,
                -0.8868252005338408,
                0.6001833762307011,
                -3.1471454612790417
            ]
        },
        {
            "positions": [
                -0.14194437012848604,
                -1.273462915835728,
                2.2297773239369802,
                -0.9222761387365302,
                0.757048929061801,
                -3.1320308724660118
            ]
        },
        {
            "positions": [
                -0.20813334984147808,
                -1.3069573629163114,
                2.2943345900913945,
                -0.9577270769392197,
                0.913914481892901,
                -3.116916283652982
            ]
        },
        {
            "positions": [
                -0.2743223295544701,
                -1.3404518099968947,
                2.3588918562458088,
                -0.9931780151419091,
                1.0707800347240009,
                -3.1018016948399523
            ]
        },
        {
            "positions": [
                -0.34051130926746215,
                -1.373946257077478,
                2.423449122400223,
                -1.0286289533445985,
                1.227645587555101,
                -3.0866871060269223
            ]
        }
    ]
}{
    "goal": {
        "global_pose": {
            "orientation": {
                "w": 0.5084816217422485,
                "x": -0.49083608388900757,
                "y": 0.5182115435600281,
                "z": -0.4816462993621826
            },
            "position": {
                "x": 0.5540239810943604,
                "y": 0.030875300988554955,
                "z": 0.16403168439865112
            }
        },
        "name": "move_to_storage_A"
    },
    "id": "BiEST_move_to_storage_A_85",
    "joint_names": [
        "shoulder_pan_joint",
        "shoulder_lift_joint",
        "elbow_joint",
        "wrist_1_joint",
        "wrist_2_joint",
        "wrist_3_joint"
    ],
    "metrics": {
        "cart_traj_len": 0.3521777532852079,
        "distance_elbow_joint": 0.44806174414856237,
        "distance_shoulder_lift_joint": 0.23556765560659976,
        "distance_shoulder_pan_joint": 0.45769589184826576,
        "distance_wrist_1_joint": 0.23534856175658425,
        "distance_wrist_2_joint": 1.10948857674966,
        "distance_wrist_3_joint": 0.09230855990522358,
        "smoothness": 6.661338165333112e-16,
        "time": 0.056618145,
        "traj_len": 1.6057618098631241,
        "weighted_distance": 2.0268017289146925
    },
    "planner": "BiEST",
    "start": {
        "state": {
            "elbow_joint": 1.97154746011099,
            "shoulder_lift_joint": -1.13948474672311,
            "shoulder_pan_joint": 0.12281154466712228,
            "wrist_1_joint": -0.7804688027058302,
            "wrist_2_joint": 0.12958655903071145,
            "wrist_3_joint": 3.0906928834467795
        }
    },
    "waypoints": [
        {
            "positions": [
                0.12281154466712228,
                -1.13948474672311,
                1.97154746011099,
                -0.7804688027058302,
                0.12958655903071145,
                3.0906928834467795
            ]
        },
        {
            "positions": [
                0.05742641726022718,
                -1.1731372689526243,
                2.035556280703642,
                -0.8140900258139137,
                0.28808492713780576,
                3.1038798205760973
            ]
        },
        {
            "positions": [
                -0.007958710146667922,
                -1.2067897911821384,
                2.0995651012962933,
                -0.8477112489219971,
                0.44658329524490004,
                3.1170667577054147
            ]
        },
        {
            "positions": [
                -0.07334383755356304,
                -1.2404423134116527,
                2.163573921888945,
                -0.8813324720300806,
                0.6050816633519943,
                3.1302536948347326
            ]
        },
        {
            "positions": [
                -0.1387289649604581,
                -1.274094835641167,
                2.227582742481597,
                -0.914953695138164,
                0.7635800314590886,
                3.14344063196405
            ]
        },
        {
            "positions": [
                -0.20411409236735323,
                -1.3077473578706813,
                2.291591563074249,
                -0.9485749182462475,
                0.922078399566183,
                3.156627569093368
            ]
        },
        {
            "positions": [
                -0.26949921977424834,
                -1.3413998801001954,
                2.3556003836669004,
                -0.982196141354331,
                1.0805767676732771,
                3.1698145062226852
            ]
        },
        {
            "positions": [
                -0.33488434718114346,
                -1.3750524023297097,
                2.4196092042595523,
                -1.0158173644624144,
                1.2390751357803715,
                3.183001443352003
            ]
        }
    ]
}{
    "goal": {
        "global_pose": {
            "orientation": {
                "w": 0.5084816217422485,
                "x": -0.49083608388900757,
                "y": 0.5182115435600281,
                "z": -0.4816462993621826
            },
            "position": {
                "x": 0.5540239810943604,
                "y": 0.030875300988554955,
                "z": 0.16403168439865112
            }
        },
        "name": "move_to_storage_A"
    },
    "id": "BiEST_move_to_storage_A_85",
    "joint_names": [
        "shoulder_pan_joint",
        "shoulder_lift_joint",
        "elbow_joint",
        "wrist_1_joint",
        "wrist_2_joint",
        "wrist_3_joint"
    ],
    "metrics": {
        "cart_traj_len": 0.3523736695613823,
        "distance_elbow_joint": 0.4504317332709724,
        "distance_shoulder_lift_joint": 0.23395901301070787,
        "distance_shoulder_pan_joint": 0.45642833719469356,
        "distance_wrist_1_joint": 0.24488525042523102,
        "distance_wrist_2_joint": 1.1161459612196842,
        "distance_wrist_3_joint": 0.09245404451917816,
        "smoothness": 2.2204460668324854e-16,
        "time": 0.060664521,
        "traj_len": 1.61068443204759,
        "weighted_distance": 2.0347588653999615
    },
    "planner": "BiEST",
    "start": {
        "state": {
            "elbow_joint": 1.9715472970024885,
            "shoulder_lift_joint": -1.1394870060712896,
            "shoulder_pan_joint": 0.12281152778156021,
            "wrist_1_joint": -0.780463741449964,
            "wrist_2_joint": 0.12958659822042276,
            "wrist_3_joint": 3.090690232415272
        }
    },
    "waypoints": [
        {
            "positions": [
                0.12281152778156021,
                -1.1394870060712896,
                1.9715472970024885,
                -0.780463741449964,
                0.12958659822042276,
                3.090690232415272
            ]
        },
        {
            "positions": [
                0.0576074796108897,
                -1.1729097222156764,
                2.0358946874697703,
                -0.8154473486535684,
                0.2890360212518062,
                3.103897953060869
            ]
        },
        {
            "positions": [
                -0.007596568559780803,
                -1.2063324383600633,
                2.100242077937052,
                -0.8504309558571729,
                0.4484854442831897,
                3.1171056737064657
            ]
        },
        {
            "positions": [
                -0.0728006167304513,
                -1.23975515450445,
                2.164589468404334,
                -0.8854145630607773,
                0.6079348673145731,
                3.1303133943520627
            ]
        },
        {
            "positions": [
                -0.13800466490112182,
                -1.273177870648837,
                2.2289368588716156,
                -0.9203981702643818,
                0.7673842903459566,
                3.143521114997659
            ]
        },
        {
            "positions": [
                -0.20320871307179236,
                -1.3066005867932238,
                2.2932842493388974,
                -0.9553817774679861,
                0.9268337133773401,
                3.156728835643256
            ]
        },
        {
            "positions": [
                -0.2684127612424628,
                -1.3400233029376105,
                2.357631639806179,
                -0.9903653846715905,
                1.0862831364087235,
                3.169936556288853
            ]
        },
        {
            "positions": [
                -0.3336168094131333,
                -1.3734460190819975,
                2.421979030273461,
                -1.025348991875195,
                1.245732559440107,
                3.18314427693445
            ]
        }
    ]
}