{
    "goal": {
        "global_pose": {
            "orientation": {
                "w": 0.7031023502349854,
                "x": -0.7110244035720825,
                "y": 0.007748599164187908,
                "z": 0.005598929710686207
            },
            "position": {
                "x": 0.11585023208521307,
                "y": 0.44412534475326537,
                "z": 0.3711530566215515
            }
        },
        "name": "move_to_auspresseinheit_A"
    },
    "id": "BiEST_move_to_auspresseinheit_A_20",
    "joint_names": [
        "shoulder_pan_joint",
        "shoulder_lift_joint",
        "elbow_joint",
        "wrist_1_joint",
        "wrist_2_joint",
        "wrist_3_joint"
    ],
    "metrics": {
        "cart_traj_len": 3.3870190016283477,
        "distance_elbow_joint": 5.427864314315224,
        "distance_shoulder_lift_joint": 1.1814257386176945,
        "distance_shoulder_pan_joint": 2.8358486816419908,
        "distance_wrist_1_joint": 3.0796577653204316,
        "distance_wrist_2_joint": 0.8679509832592303,
        "distance_wrist_3_joint": 5.783632599983959,
        "smoothness": 0.6703522467800485,
        "time": 0.169300376,
        "traj_len": 4.379084388675165,
        "weighted_distance": 5.889928185613652
    },
    "planner": "BiEST",
    "start": {
        "state": {
            "elbow_joint": 2.4225746658250005,
            "shoulder_lift_joint": -1.3736534386056498,
            "shoulder_pan_joint": -0.3378633547517467,
            "wrist_1_joint": -1.0288598680537169,
            "wrist_2_joint": 1.233022673432363,
            "wrist_3_joint": -3.0940220416140027
        }
    },
    "waypoints": [
        {
            "positions": [
                -0.3378633547517467,
                -1.3736534386056498,
                2.4225746658250005,
                -1.0288598680537169,
                1.233022673432363,
                -3.0940220416140027
            ]
        },
        {
            "positions": [
                -0.38263770425325816,
                -1.3683344754049196,
                2.2860817650270278,
                -0.982240053851385,
                1.2316621617106398,
                -2.950552142144693
            ]
        },
        {
            "positions": [
                -0.42741205375476954,
                -1.3630155122041894,
                2.149588864229055,
                -0.9356202396490532,
                1.2303016499889166,
                -2.8070822426753828
            ]
        },
        {
            "positions": [
                -0.4721864032562809,
                -1.3576965490034592,
                2.0130959634310823,
                -0.8890004254467212,
                1.2289411382671933,
                -2.663612343206073
            ]
        },
        {
            "positions": [
                -0.5169607527577924,
                -1.3523775858027292,
                1.8766030626331092,
                -0.8423806112443893,
                1.22758062654547,
                -2.5201424437367628
            ]
        },
        {
            "positions": [
                -0.5617351022593038,
                -1.347058622601999,
                1.7401101618351364,
                -0.7957607970420575,
                1.2262201148237466,
                -2.376672544267453
            ]
        },
        {
            "positions": [
                -0.6065094517608152,
                -1.3417396594012687,
                1.6036172610371637,
                -0.7491409828397256,
                1.2248596031020234,
                -2.2332026447981432
            ]
        },
        {
            "positions": [
                -0.6512838012623265,
                -1.3364206962005385,
                1.467124360239191,
                -0.7025211686373938,
                1.2234990913803,
                -2.089732745328833
            ]
        },
        {
            "positions": [
                -0.696058150763838,
                -1.3311017329998083,
                1.330631459441218,
                -0.6559013544350618,
                1.2221385796585769,
                -1.946262845859523
            ]
        },
        {
            "positions": [
                -0.7408325002653495,
                -1.325782769799078,
                1.1941385586432454,
                -0.60928154023273,
                1.2207780679368536,
                -1.8027929463902133
            ]
        },
        {
            "positions": [
                -0.7856068497668609,
                -1.3204638065983478,
                1.0576456578452726,
                -0.5626617260303981,
                1.2194175562151304,
                -1.6593230469209033
            ]
        },
        {
            "positions": [
                -0.8303811992683723,
                -1.3151448433976178,
                0.9211527570472997,
                -0.5160419118280661,
                1.2180570444934071,
                -1.5158531474515933
            ]
        },
        {
            "positions": [
                -0.8751555487698837,
                -1.3098258801968876,
                0.7846598562493272,
                -0.4694220976257344,
                1.2166965327716839,
                -1.3723832479822835
            ]
        },
        {
            "positions": [
                -0.919929898271395,
                -1.3045069169961574,
                0.6481669554513543,
                -0.4228022834234024,
                1.2153360210499606,
                -1.2289133485129733
            ]
        },
        {
            "positions": [
                -0.9647042477729064,
                -1.2991879537954272,
                0.5116740546533816,
                -0.3761824692210707,
                1.2139755093282374,
                -1.0854434490436637
            ]
        },
        {
            "positions": [
                -1.0094785972744178,
                -1.293868990594697,
                0.37518115385540884,
                -0.3295626550187387,
                1.2126149976065141,
                -0.9419735495743535
            ]
        },
        {
            "positions": [
                -1.0542529467759294,
                -1.2885500273939667,
                0.23868825305743568,
                -0.28294284081640675,
                1.2112544858847907,
                -0.7985036501050433
            ]
        },
        {
            "positions": [
                -1.0990272962774408,
                -1.2832310641932367,
                0.10219535225946341,
                -0.236323026614075,
                1.2098939741630674,
                -0.6550337506357335
            ]
        },
        {
            "positions": [
                -1.1438016457789522,
                -1.2779121009925065,
                -0.03429754853850975,
                -0.18970321241174304,
                1.2085334624413442,
                -0.5115638511664238
            ]
        },
        {
            "positions": [
                -1.1885759952804635,
                -1.2725931377917763,
                -0.17079044933648246,
                -0.1430833982094113,
                1.207172950719621,
                -0.368093951697114
            ]
        },
        {
            "positions": [
                -1.233350344781975,
                -1.267274174591046,
                -0.3072833501344551,
                -0.09646358400707931,
                1.2058124389978977,
                -0.2246240522278039
            ]
        },
        {
            "positions": [
                -1.147586059832833,
                -1.307905311157034,
                -0.20948234326174964,
                -0.0539493639568482,
                1.1774562629915626,
                -0.320700861057732
            ]
        },
        {
            "positions": [
                -1.0618217748836911,
                -1.348536447723022,
                -0.11168133638904418,
                -0.011435143906617082,
                1.1491000869852273,
                -0.4167776698876601
            ]
        },
        {
            "positions": [
                -0.9760574899345491,
                -1.38916758428901,
                -0.013880329516338719,
                0.031079076143614034,
                1.120743910978892,
                -0.5128544787175882
            ]
        },
        {
            "positions": [
                -0.8902932049854073,
                -1.429798720854998,
                0.08392067735636677,
                0.07359329619384515,
                1.0923877349725568,
                -0.6089312875475164
            ]
        },
        {
            "positions": [
                -0.8045289200362653,
                -1.470429857420986,
                0.18172168422907226,
                0.11610751624407627,
                1.0640315589662217,
                -0.7050080963774443
            ]
        },
        {
            "positions": [
                -0.7187646350871234,
                -1.511060993986974,
                0.2795226911017777,
                0.15862173629430737,
                1.0356753829598864,
                -0.8010849052073725
            ]
        },
        {
            "positions": [
                -0.6330003501379815,
                -1.5516921305529618,
                0.37732369797448323,
                0.2011359563445385,
                1.007319206953551,
                -0.8971617140373006
            ]
        },
        {
            "positions": [
                -0.5472360651888396,
                -1.59232326711895,
                0.47512470484718866,
                0.2436501763947696,
                0.9789630309472159,
                -0.9932385228672287
            ]
        },
        {
            "positions": [
                -0.4614717802396977,
                -1.632954403684938,
                0.572925711719894,
                0.28616439644500075,
                0.9506068549408807,
                -1.0893153316971569
            ]
        },
        {
            "positions": [
                -0.3757074952905558,
                -1.6735855402509259,
                0.6707267185925996,
                0.32867861649523183,
                0.9222506789345455,
                -1.1853921405270849
            ]
        },
        {
            "positions": [
                -0.2899432103414138,
                -1.714216676816914,
                0.7685277254653051,
                0.37119283654546303,
                0.8938945029282103,
                -1.2814689493570133
            ]
        },
        {
            "positions": [
                -0.2041789253922719,
                -1.754847813382902,
                0.8663287323380104,
                0.41370705659569407,
                0.865538326921875,
                -1.3775457581869412
            ]
        },
        {
            "positions": [
                -0.11841464044312988,
                -1.79547894994889,
                0.964129739210716,
                0.45622127664592527,
                0.8371821509155398,
                -1.4736225670168692
            ]
        },
        {
            "positions": [
                -0.03265035549398809,
                -1.8361100865148778,
                1.0619307460834215,
                0.49873549669615636,
                0.8088259749092046,
                -1.5696993758467972
            ]
        },
        {
            "positions": [
                0.05311392945515392,
                -1.8767412230808658,
                1.159731752956127,
                0.5412497167463874,
                0.7804697989028694,
                -1.6657761846767256
            ]
        },
        {
            "positions": [
                0.1388782144042957,
                -1.917372359646854,
                1.2575327598288324,
                0.5837639367966185,
                0.7521136228965342,
                -1.7618529935066536
            ]
        },
        {
            "positions": [
                0.22464249935343772,
                -1.9580034962128419,
                1.355333766701538,
                0.6262781568468497,
                0.7237574468901989,
                -1.8579298023365816
            ]
        },
        {
            "positions": [
                0.3104067843025795,
                -1.9986346327788298,
                1.4531347735742433,
                0.6687923768970808,
                0.6954012708838637,
                -1.9540066111665095
            ]
        },
        {
            "positions": [
                0.3961710692517215,
                -2.039265769344818,
                1.550935780446949,
                0.7113065969473119,
                0.6670450948775285,
                -2.050083419996438
            ]
        },
        {
            "positions": [
                0.4819353542008633,
                -2.0798969059108057,
                1.6487367873196543,
                0.753820816997543,
                0.6386889188711933,
                -2.146160228826366
            ]
        },
        {
            "positions": [
                0.5676996391500053,
                -2.120528042476794,
                1.74653779419236,
                0.7963350370477742,
                0.6103327428648581,
                -2.242237037656294
            ]
        },
        {
            "positions": [
                0.5937654917818271,
                -2.076772183059197,
                1.8197327765318954,
                0.7426879216822585,
                0.6451284855043092,
                -2.341869790436947
            ]
        },
        {
            "positions": [
                0.6198313444136488,
                -2.0330163236416006,
                1.8929277588714304,
                0.6890408063167428,
                0.6799242281437604,
                -2.4415025432176005
            ]
        },
        {
            "positions": [
                0.6458971970454707,
                -1.9892604642240037,
                1.9661227412109656,
                0.6353936909512272,
                0.7147199707832117,
                -2.5411352959982536
            ]
        },
        {
            "positions": [
                0.6719630496772924,
                -1.9455046048064069,
                2.039317723550501,
                0.5817465755857115,
                0.7495157134226629,
                -2.640768048778907
            ]
        },
        {
            "positions": [
                0.6980289023091142,
                -1.9017487453888102,
                2.112512705890036,
                0.5280994602201958,
                0.784311456062114,
                -2.7404008015595602
            ]
        },
        {
            "positions": [
                0.6998253912132493,
                -1.902351407314682,
                2.168154754356291,
                0.33085400354192324,
                0.7700549881632202,
                -2.820092373812761
            ]
        },
        {
            "positions": [
                0.7016218801173845,
                -1.902954069240554,
                2.2237968028225463,
                0.13360854686365065,
                0.7557985202643264,
                -2.899783946065962
            ]
        },
        {
            "positions": [
                0.7034183690215196,
                -1.9035567311664259,
                2.279438851288802,
                -0.06363690981462189,
                0.7415420523654325,
                -2.9794755183191626
            ]
        },
        {
            "positions": [
                0.7052148579256547,
                -1.9041593930922978,
                2.335080899755057,
                -0.26088236649289454,
                0.7272855844665387,
                -3.0591670905723634
            ]
        },
        {
            "positions": [
                0.7070113468297898,
                -1.9047620550181696,
                2.3907229482213124,
                -0.45812782317116707,
                0.7130291165676448,
                -3.138858662825564
            ]
        }
    ]
}