{
    "goal": {
        "global_pose": {
            "orientation": {
                "w": 0.7031023480610252,
                "x": -0.7110244013736278,
                "y": 0.0077485991402295624,
                "z": 0.005598929693374583
            },
            "position": {
                "x": -0.8841497679147869,
                "y": 0.44412534475326537,
                "z": 0.3711530566215515
            }
        },
        "name": "move_to_auspresseinheit_D"
    },
    "id": "BiEST_move_to_auspresseinheit_D_107",
    "joint_names": [
        "shoulder_pan_joint",
        "shoulder_lift_joint",
        "elbow_joint",
        "wrist_1_joint",
        "wrist_2_joint",
        "wrist_3_joint"
    ],
    "metrics": {
        "cart_traj_len": 0.3426315393165394,
        "distance_elbow_joint": 0.6333034432375404,
        "distance_shoulder_lift_joint": 0.1180377415368703,
        "distance_shoulder_pan_joint": 0.1333631487917833,
        "distance_wrist_1_joint": 0.5218706644768889,
        "distance_wrist_2_joint": 1.4351928553718238,
        "distance_wrist_3_joint": 0.00290310493065693,
        "smoothness": 3.947459674368863e-16,
        "time": 0.057401552,
        "traj_len": 1.6866152371971397,
        "weighted_distance": 2.1926104733982257
    },
    "planner": "BiEST",
    "start": {
        "state": {
            "elbow_joint": -1.8275523626775212,
            "shoulder_lift_joint": -2.126789852344167,
            "shoulder_pan_joint": -0.03513704404078235,
            "wrist_1_joint": -2.347782403156801,
            "wrist_2_joint": -1.6058999987535132,
            "wrist_3_joint": -3.0880379163319196
        }
    },
    "waypoints": [
        {
            "positions": [
                -0.03513704404078235,
                -2.126789852344167,
                -1.8275523626775212,
                -2.347782403156801,
                -1.6058999987535132,
                -3.0880379163319196
            ]
        },
        {
            "positions": [
                -0.05180743763975526,
                -2.1415445700362756,
                -1.7483894322728286,
                -2.413016236216412,
                -1.4265008918320352,
                -3.0884008044482516
            ]
        },
        {
            "positions": [
                -0.06847783123872817,
                -2.1562992877283844,
                -1.669226501868136,
                -2.478250069276023,
                -1.2471017849105572,
                -3.0887636925645836
            ]
        },
        {
            "positions": [
                -0.08514822483770108,
                -2.171054005420493,
                -1.5900635714634435,
                -2.5434839023356344,
                -1.0677026779890793,
                -3.089126580680916
            ]
        },
        {
            "positions": [
                -0.101818618436674,
                -2.185808723112602,
                -1.5109006410587509,
                -2.6087177353952455,
                -0.8883035710676013,
                -3.089489468797248
            ]
        },
        {
            "positions": [
                -0.1184890120356469,
                -2.200563440804711,
                -1.4317377106540583,
                -2.6739515684548563,
                -0.7089044641461233,
                -3.08985235691358
            ]
        },
        {
            "positions": [
                -0.1351594056346198,
                -2.2153181584968196,
                -1.352574780249366,
                -2.7391854015144674,
                -0.5295053572246453,
                -3.0902152450299125
            ]
        },
        {
            "positions": [
                -0.15182979923359274,
                -2.2300728761889284,
                -1.2734118498446734,
                -2.8044192345740786,
                -0.35010625030316733,
                -3.0905781331462445
            ]
        },
        {
            "positions": [
                -0.16850019283256565,
                -2.244827593881037,
                -1.1942489194399808,
                -2.8696530676336898,
                -0.17070714338168932,
                -3.0909410212625765
            ]
        }
    ]
}