{
    "goal": {
        "global_pose": {
            "orientation": {
                "w": -0.4816463035849501,
                "x": 0.5182115481033762,
                "y": 0.4908360881923453,
                "z": -0.5084816262002911
            },
            "position": {
                "x": -0.8240239810943604,
                "y": -0.300875300988555,
                "z": 0.16403168439865112
            }
        },
        "name": "move_to_storage_C"
    },
    "id": "BiEST_move_to_storage_C_75",
    "joint_names": [
        "shoulder_pan_joint",
        "shoulder_lift_joint",
        "elbow_joint",
        "wrist_1_joint",
        "wrist_2_joint",
        "wrist_3_joint"
    ],
    "metrics": {
        "cart_traj_len": 0.5767080666728748,
        "distance_elbow_joint": 0.25680644205145287,
        "distance_shoulder_lift_joint": 0.1899000977939096,
        "distance_shoulder_pan_joint": 0.494345916378661,
        "distance_wrist_1_joint": 0.06776001482009841,
        "distance_wrist_2_joint": 1.0667800047398623,
        "distance_wrist_3_joint": 0.07296673546823884,
        "smoothness": 2.5376526478085547e-16,
        "time": 0.141650505,
        "traj_len": 1.4657964426386847,
        "weighted_distance": 1.8517647533498043
    },
    "planner": "BiEST",
    "start": {
        "state": {
            "elbow_joint": 2.010868314990456,
            "shoulder_lift_joint": -1.1634956873337592,
            "shoulder_pan_joint": -2.4736205022346125,
            "wrist_1_joint": -0.8367026794202681,
            "wrist_2_joint": 0.6746043897044499,
            "wrist_3_joint": -3.1496632123970403
        }
    },
    "waypoints": [
        {
            "positions": [
                -2.4736205022346125,
                -1.1634956873337592,
                2.010868314990456,
                -0.8367026794202681,
                0.6746043897044499,
                -3.1496632123970403
            ]
        },
        {
            "positions": [
                -2.5560114882977225,
                -1.1318456710347742,
                1.9680672413152136,
                -0.8254093436169183,
                0.8524010571610936,
                -3.1375020898190007
            ]
        },
        {
            "positions": [
                -2.638402474360833,
                -1.1001956547357894,
                1.9252661676399716,
                -0.8141160078135686,
                1.0301977246177374,
                -3.1253409672409607
            ]
        },
        {
            "positions": [
                -2.720793460423943,
                -1.0685456384368044,
                1.8824650939647294,
                -0.802822672010219,
                1.2079943920743812,
                -3.1131798446629206
            ]
        },
        {
            "positions": [
                -2.803184446487053,
                -1.0368956221378194,
                1.8396640202894872,
                -0.7915293362068692,
                1.3857910595310248,
                -3.101018722084881
            ]
        },
        {
            "positions": [
                -2.8855754325501635,
                -1.0052456058388346,
                1.7968629466142452,
                -0.7802360004035194,
                1.5635877269876686,
                -3.0888575995068415
            ]
        },
        {
            "positions": [
                -2.9679664186132735,
                -0.9735955895398496,
                1.754061872939003,
                -0.7689426646001697,
                1.7413843944443121,
                -3.0766964769288014
            ]
        }
    ]
}