{
    "goal": {
        "global_pose": {
            "orientation": {
                "w": -0.4816463035849501,
                "x": 0.5182115481033762,
                "y": 0.4908360881923453,
                "z": -0.5084816262002911
            },
            "position": {
                "x": -0.8240239810943604,
                "y": 0.19912469901144506,
                "z": 0.16403168439865112
            }
        },
        "name": "move_to_storage_D"
    },
    "id": "BiEST_move_to_storage_D_19",
    "joint_names": [
        "shoulder_pan_joint",
        "shoulder_lift_joint",
        "elbow_joint",
        "wrist_1_joint",
        "wrist_2_joint",
        "wrist_3_joint"
    ],
    "metrics": {
        "cart_traj_len": 3.8742267842128,
        "distance_elbow_joint": 4.208484039572962,
        "distance_shoulder_lift_joint": 1.2640093053230146,
        "distance_shoulder_pan_joint": 2.8150093453525664,
        "distance_wrist_1_joint": 2.2606378617620475,
        "distance_wrist_2_joint": 1.6056652817262795,
        "distance_wrist_3_joint": 3.140162314699205,
        "smoothness": 0.07598054324742466,
        "time": 0.093525811,
        "traj_len": 3.9107503306189306,
        "weighted_distance": 5.043867159365204
    },
    "planner": "BiEST",
    "start": {
        "state": {
            "elbow_joint": -2.384821988534728,
            "shoulder_lift_joint": -2.2788054721415256,
            "shoulder_pan_joint": -0.1854694642142757,
            "wrist_1_joint": 1.4845938289331202,
            "wrist_2_joint": 0.17898776772866878,
            "wrist_3_joint": 0.037105688729662994
        }
    },
    "waypoints": [
        {
            "positions": [
                -0.1854694642142757,
                -2.2788054721415256,
                -2.384821988534728,
                1.4845938289331202,
                0.17898776772866878,
                0.037105688729662994
            ]
        },
        {
            "positions": [
                -0.10681183519628037,
                -2.2562760507479247,
                -2.2526537947038614,
                1.4202647368868968,
                0.22048572312855108,
                -0.011467004515450428
            ]
        },
        {
            "positions": [
                -0.02815420617828504,
                -2.2337466293543238,
                -2.120485600872995,
                1.3559356448406732,
                0.26198367852843335,
                -0.06003969776056385
            ]
        },
        {
            "positions": [
                0.05050342283971032,
                -2.211217207960723,
                -1.9883174070421281,
                1.2916065527944498,
                0.3034816339283156,
                -0.1086123910056773
            ]
        },
        {
            "positions": [
                0.12916105185770563,
                -2.188687786567122,
                -1.8561492132112614,
                1.2272774607482262,
                0.34497958932819794,
                -0.1571850842507907
            ]
        },
        {
            "positions": [
                0.20781868087570096,
                -2.166158365173521,
                -1.7239810193803948,
                1.1629483687020028,
                0.3864775447280802,
                -0.20575777749590413
            ]
        },
        {
            "positions": [
                0.2864763098936963,
                -2.1436289437799205,
                -1.5918128255495283,
                1.0986192766557794,
                0.4279755001279625,
                -0.25433047074101756
            ]
        },
        {
            "positions": [
                0.36513393891169177,
                -2.1210995223863196,
                -1.4596446317186618,
                1.0342901846095558,
                0.4694734555278448,
                -0.30290316398613104
            ]
        },
        {
            "positions": [
                0.443791567929687,
                -2.0985701009927187,
                -1.327476437887795,
                0.9699610925633324,
                0.5109714109277271,
                -0.3514758572312444
            ]
        },
        {
            "positions": [
                0.5224491969476823,
                -2.0760406795991178,
                -1.1953082440569285,
                0.9056320005171089,
                0.5524693663276093,
                -0.4000485504763578
            ]
        },
        {
            "positions": [
                0.6011068259656777,
                -2.053511258205517,
                -1.063140050226062,
                0.8413029084708854,
                0.5939673217274917,
                -0.4486212437214713
            ]
        },
        {
            "positions": [
                0.679764454983673,
                -2.030981836811916,
                -0.9309718563951954,
                0.776973816424662,
                0.6354652771273739,
                -0.49719393696658465
            ]
        },
        {
            "positions": [
                0.7584220840016684,
                -2.008452415418315,
                -0.7988036625643287,
                0.7126447243784384,
                0.6769632325272562,
                -0.5457666302116981
            ]
        },
        {
            "positions": [
                0.8370797130196638,
                -1.985922994024714,
                -0.6666354687334619,
                0.6483156323322149,
                0.7184611879271385,
                -0.5943393234568115
            ]
        },
        {
            "positions": [
                0.9157373420376592,
                -1.9633935726311131,
                -0.5344672749025954,
                0.5839865402859915,
                0.7599591433270207,
                -0.642912016701925
            ]
        },
        {
            "positions": [
                0.9943949710556544,
                -1.9408641512375122,
                -0.40229908107172885,
                0.519657448239768,
                0.8014570987269031,
                -0.6914847099470384
            ]
        },
        {
            "positions": [
                1.0730526000736496,
                -1.9183347298439115,
                -0.2701308872408621,
                0.4553283561935446,
                0.8429550541267854,
                -0.7400574031921517
            ]
        },
        {
            "positions": [
                1.151710229091645,
                -1.8958053084503106,
                -0.13796269340999556,
                0.390999264147321,
                0.8844530095266676,
                -0.7886300964372652
            ]
        },
        {
            "positions": [
                1.2303678581096402,
                -1.8732758870567097,
                -0.005794499579129031,
                0.3266701721010976,
                0.9259509649265499,
                -0.8372027896823786
            ]
        },
        {
            "positions": [
                1.3090254871276357,
                -1.8507464656631087,
                0.1263736942517375,
                0.2623410800548742,
                0.9674489203264321,
                -0.885775482927492
            ]
        },
        {
            "positions": [
                1.387683116145631,
                -1.828217044269508,
                0.25854188808260403,
                0.1980119880086506,
                1.0089468757263145,
                -0.9343481761726055
            ]
        },
        {
            "positions": [
                1.4663407451636263,
                -1.8056876228759071,
                0.39071008191347056,
                0.13368289596242722,
                1.050444831126197,
                -0.982920869417719
            ]
        },
        {
            "positions": [
                1.5449983741816216,
                -1.7831582014823062,
                0.5228782757443371,
                0.06935380391620383,
                1.0919427865260791,
                -1.0314935626628323
            ]
        },
        {
            "positions": [
                1.6236560031996172,
                -1.7606287800887053,
                0.6550464695752041,
                0.005024711869979992,
                1.1334407419259616,
                -1.080066255907946
            ]
        },
        {
            "positions": [
                1.7023136322176124,
                -1.7380993586951043,
                0.7872146634060706,
                -0.0593043801762434,
                1.1749386973258438,
                -1.1286389491530593
            ]
        },
        {
            "positions": [
                1.780971261235608,
                -1.7155699373015034,
                0.9193828572369371,
                -0.12363347222246679,
                1.2164366527257262,
                -1.1772116423981727
            ]
        },
        {
            "positions": [
                1.8596288902536031,
                -1.6930405159079025,
                1.051551051067804,
                -0.1879625642686904,
                1.2579346081256084,
                -1.225784335643286
            ]
        },
        {
            "positions": [
                1.9382865192715983,
                -1.6705110945143016,
                1.1837192448986706,
                -0.2522916563149138,
                1.2994325635254906,
                -1.2743570288883994
            ]
        },
        {
            "positions": [
                2.016944148289594,
                -1.6479816731207007,
                1.3158874387295372,
                -0.3166207483611372,
                1.3409305189253728,
                -1.322929722133513
            ]
        },
        {
            "positions": [
                2.0956017773075892,
                -1.6254522517271,
                1.4480556325604037,
                -0.3809498404073608,
                1.3824284743252553,
                -1.3715024153786264
            ]
        },
        {
            "positions": [
                2.1742594063255845,
                -1.602922830333499,
                1.5802238263912702,
                -0.4452789324535842,
                1.4239264297251375,
                -1.4200751086237398
            ]
        },
        {
            "positions": [
                2.219787453806855,
                -1.5441101639820003,
                1.6045676488559666,
                -0.47835544249111844,
                1.3878537677521563,
                -1.58837326035832
            ]
        },
        {
            "positions": [
                2.265315501288126,
                -1.4852974976305013,
                1.628911471320663,
                -0.5114319525286527,
                1.3517811057791753,
                -1.7566714120929001
            ]
        },
        {
            "positions": [
                2.3108435487693963,
                -1.4264848312790026,
                1.6532552937853593,
                -0.5445084625661869,
                1.3157084438061943,
                -1.9249695638274804
            ]
        },
        {
            "positions": [
                2.356371596250667,
                -1.3676721649275039,
                1.6775991162500556,
                -0.5775849726037212,
                1.2796357818332131,
                -2.0932677155620607
            ]
        },
        {
            "positions": [
                2.4018996437319373,
                -1.308859498576005,
                1.701942938714752,
                -0.6106614826412555,
                1.243563119860232,
                -2.2615658672966408
            ]
        },
        {
            "positions": [
                2.4474276912132082,
                -1.2500468322245062,
                1.7262867611794483,
                -0.6437379926787897,
                1.207490457887251,
                -2.4298640190312213
            ]
        },
        {
            "positions": [
                2.4929557386944787,
                -1.1912341658730075,
                1.7506305836441447,
                -0.6768145027163239,
                1.17141779591427,
                -2.5981621707658014
            ]
        },
        {
            "positions": [
                2.5384837861757497,
                -1.1324214995215085,
                1.774974406108841,
                -0.7098910127538582,
                1.1353451339412888,
                -2.7664603225003814
            ]
        },
        {
            "positions": [
                2.58401183365702,
                -1.0736088331700098,
                1.7993182285735374,
                -0.7429675227913926,
                1.0992724719683076,
                -2.934758474234962
            ]
        },
        {
            "positions": [
                2.6295398811382906,
                -1.014796166818511,
                1.8236620510382338,
                -0.7760440328289268,
                1.0631998099953266,
                -3.103056625969542
            ]
        }
    ]
}