{
    "goal": {
        "global_pose": {
            "orientation": {
                "w": -0.4816463035849501,
                "x": 0.5182115481033762,
                "y": 0.4908360881923453,
                "z": -0.5084816262002911
            },
            "position": {
                "x": -0.8240239810943604,
                "y": 0.19912469901144506,
                "z": 0.16403168439865112
            }
        },
        "name": "move_to_storage_D"
    },
    "id": "BiEST_move_to_storage_D_97",
    "joint_names": [
        "shoulder_pan_joint",
        "shoulder_lift_joint",
        "elbow_joint",
        "wrist_1_joint",
        "wrist_2_joint",
        "wrist_3_joint"
    ],
    "metrics": {
        "cart_traj_len": 0.7488124751530504,
        "distance_elbow_joint": 0.9199050305448682,
        "distance_shoulder_lift_joint": 0.3006963702744976,
        "distance_shoulder_pan_joint": 0.20328331117289405,
        "distance_wrist_1_joint": 3.9622887235494266,
        "distance_wrist_2_joint": 1.8170126342703135,
        "distance_wrist_3_joint": 3.1207393640027186,
        "smoothness": 0.15164085086730264,
        "time": 0.098566919,
        "traj_len": 3.2130865898407905,
        "weighted_distance": 4.727018671386849
    },
    "planner": "BiEST",
    "start": {
        "state": {
            "elbow_joint": -2.384821988534728,
            "shoulder_lift_joint": -2.2788054721415256,
            "shoulder_pan_joint": -0.1854694642142757,
            "wrist_1_joint": 1.4845938289331202,
            "wrist_2_joint": 0.17898776772866878,
            "wrist_3_joint": 0.037105688729662994
        }
    },
    "waypoints": [
        {
            "positions": [
                -0.1854694642142757,
                -2.2788054721415256,
                -2.384821988534728,
                1.4845938289331202,
                0.17898776772866878,
                0.037105688729662994
            ]
        },
        {
            "positions": [
                -0.12620762194407098,
                -2.3036109004264738,
                -2.139147454375135,
                1.5082072823575554,
                0.18599072739987862,
                0.030383686301043288
            ]
        },
        {
            "positions": [
                -0.06694577967386628,
                -2.328416328711422,
                -1.8934729202155423,
                1.5318207357819908,
                0.1929936870710885,
                0.02366168387242358
            ]
        },
        {
            "positions": [
                -0.00768393740366155,
                -2.35322175699637,
                -1.6477983860559493,
                1.555434189206426,
                0.19999664674229833,
                0.016939681443803874
            ]
        },
        {
            "positions": [
                -0.00874634508542321,
                -2.3437934201038844,
                -1.655418445558703,
                1.3932905074032544,
                0.12516315693993652,
                -0.11225087508606527
            ]
        },
        {
            "positions": [
                -0.009808752767184868,
                -2.334365083211399,
                -1.6630385050614567,
                1.2311468256000828,
                0.050329667137574696,
                -0.2414414316159344
            ]
        },
        {
            "positions": [
                -0.010871160448946527,
                -2.3249367463189134,
                -1.6706585645642105,
                1.069003143796911,
                -0.024503822664787123,
                -0.37063198814580356
            ]
        },
        {
            "positions": [
                -0.011933568130708186,
                -2.3155084094264278,
                -1.6782786240669643,
                0.9068594619937393,
                -0.09933731246714894,
                -0.49982254467567266
            ]
        },
        {
            "positions": [
                -0.012995975812469846,
                -2.306080072533942,
                -1.685898683569718,
                0.7447157801905675,
                -0.17417080226951076,
                -0.6290131012055419
            ]
        },
        {
            "positions": [
                -0.014058383494231505,
                -2.296651735641457,
                -1.6935187430724716,
                0.5825720983873959,
                -0.24900429207187258,
                -0.758203657735411
            ]
        },
        {
            "positions": [
                -0.015120791175993166,
                -2.287223398748971,
                -1.7011388025752254,
                0.42042841658422403,
                -0.3238377818742344,
                -0.8873942142652802
            ]
        },
        {
            "positions": [
                -0.01618319885775482,
                -2.2777950618564855,
                -1.7087588620779792,
                0.2582847347810526,
                -0.3986712716765962,
                -1.0165847707951492
            ]
        },
        {
            "positions": [
                -0.017245606539516484,
                -2.2683667249640003,
                -1.7163789215807328,
                0.09614105297788078,
                -0.47350476147895804,
                -1.1457753273250184
            ]
        },
        {
            "positions": [
                -0.018308014221278143,
                -2.2589383880715146,
                -1.7239989810834866,
                -0.06600262882529107,
                -0.5483382512813199,
                -1.2749658838548876
            ]
        },
        {
            "positions": [
                -0.0193704219030398,
                -2.249510051179029,
                -1.7316190405862404,
                -0.22814631062846247,
                -0.6231717410836817,
                -1.4041564403847566
            ]
        },
        {
            "positions": [
                -0.02043282958480146,
                -2.2400817142865437,
                -1.739239100088994,
                -0.3902899924316343,
                -0.6980052308860435,
                -1.5333469969146258
            ]
        },
        {
            "positions": [
                -0.02149523726656312,
                -2.230653377394058,
                -1.7468591595917478,
                -0.5524336742348059,
                -0.7728387206884052,
                -1.6625375534444948
            ]
        },
        {
            "positions": [
                -0.02255764494832478,
                -2.2212250405015723,
                -1.7544792190945016,
                -0.714577356037978,
                -0.8476722104907671,
                -1.7917281099743643
            ]
        },
        {
            "positions": [
                -0.023620052630086437,
                -2.2117967036090866,
                -1.7620992785972553,
                -0.8767210378411492,
                -0.9225057002931291,
                -1.9209186665042333
            ]
        },
        {
            "positions": [
                -0.024682460311848096,
                -2.2023683667166014,
                -1.769719338100009,
                -1.0388647196443208,
                -0.9973391900954908,
                -2.0501092230341023
            ]
        },
        {
            "positions": [
                -0.025744867993609758,
                -2.1929400298241157,
                -1.7773393976027627,
                -1.2010084014474929,
                -1.0721726798978528,
                -2.1792997795639715
            ]
        },
        {
            "positions": [
                -0.026807275675371417,
                -2.18351169293163,
                -1.7849594571055165,
                -1.3631520832506645,
                -1.1470061697002145,
                -2.3084903360938407
            ]
        },
        {
            "positions": [
                -0.027869683357133072,
                -2.174083356039145,
                -1.79257951660827,
                -1.5252957650538361,
                -1.2218396595025762,
                -2.43768089262371
            ]
        },
        {
            "positions": [
                -0.028932091038894735,
                -2.164655019146659,
                -1.8001995761110239,
                -1.6874394468570082,
                -1.296673149304938,
                -2.566871449153579
            ]
        },
        {
            "positions": [
                -0.029994498720656394,
                -2.1552266822541735,
                -1.8078196356137777,
                -1.8495831286601798,
                -1.3715066391072996,
                -2.6960620056834483
            ]
        },
        {
            "positions": [
                -0.031056906402418052,
                -2.145798345361688,
                -1.8154396951165315,
                -2.011726810463351,
                -1.4463401289096618,
                -2.825252562213317
            ]
        },
        {
            "positions": [
                -0.032119314084179715,
                -2.1363700084692026,
                -1.823059754619285,
                -2.173870492266523,
                -1.5211736187120235,
                -2.9544431187431863
            ]
        },
        {
            "positions": [
                -0.03318172176594137,
                -2.126941671576717,
                -1.8306798141220388,
                -2.3360141740696947,
                -1.5960071085143854,
                -3.0836336752730555
            ]
        }
    ]
}