{
    "goal": {
        "global_pose": {
            "orientation": {
                "w": 0.005598929693374612,
                "x": 0.007748599140229565,
                "y": 0.7110244013736278,
                "z": -0.7031023480610252
            },
            "position": {
                "x": 0.1141497679147869,
                "y": -0.7141253447532654,
                "z": 0.3711530566215515
            }
        },
        "name": "move_to_auspresseinheit_B"
    },
    "id": "BiEST_move_to_auspresseinheit_B_106",
    "joint_names": [
        "shoulder_pan_joint",
        "shoulder_lift_joint",
        "elbow_joint",
        "wrist_1_joint",
        "wrist_2_joint",
        "wrist_3_joint"
    ],
    "metrics": {
        "cart_traj_len": 0.564801407862728,
        "distance_elbow_joint": 0.06615734082399416,
        "distance_shoulder_lift_joint": 0.29342195863285747,
        "distance_shoulder_pan_joint": 0.5754180242929994,
        "distance_wrist_1_joint": 0.3374420240225201,
        "distance_wrist_2_joint": 1.0017401351677204,
        "distance_wrist_3_joint": 0.005535832625297665,
        "smoothness": 2.5376526478085547e-16,
        "time": 0.093065879,
        "traj_len": 1.5098726156750408,
        "weighted_distance": 1.9052477896605011
    },
    "planner": "BiEST",
    "start": {
        "state": {
            "elbow_joint": 2.0193083361928714,
            "shoulder_lift_joint": -1.1220246554650708,
            "shoulder_pan_joint": -1.0952077554168747,
            "wrist_1_joint": -0.8559753972642168,
            "wrist_2_joint": 0.4759566250798843,
            "wrist_3_joint": -3.1240929996934557
        }
    },
    "waypoints": [
        {
            "positions": [
                -1.0952077554168747,
                -1.1220246554650708,
                2.0193083361928714,
                -0.8559753972642168,
                0.4759566250798843,
                -3.1240929996934557
            ]
        },
        {
            "positions": [
                -1.1911107594657078,
                -1.1709283152372136,
                2.0082821127222057,
                -0.7997350599271301,
                0.6429133142745044,
                -3.1231703609225727
            ]
        },
        {
            "positions": [
                -1.287013763514541,
                -1.2198319750093567,
                1.99725588925154,
                -0.7434947225900435,
                0.8098700034691244,
                -3.1222477221516898
            ]
        },
        {
            "positions": [
                -1.3829167675633744,
                -1.2687356347814995,
                1.9862296657808742,
                -0.6872543852529567,
                0.9768266926637446,
                -3.121325083380807
            ]
        },
        {
            "positions": [
                -1.4788197716122076,
                -1.3176392945536424,
                1.9752034423102087,
                -0.6310140479158701,
                1.1437833818583645,
                -3.120402444609924
            ]
        },
        {
            "positions": [
                -1.5747227756610407,
                -1.3665429543257854,
                1.964177218839543,
                -0.5747737105787833,
                1.3107400710529846,
                -3.119479805839041
            ]
        },
        {
            "positions": [
                -1.670625779709874,
                -1.4154466140979283,
                1.9531509953688773,
                -0.5185333732416967,
                1.4776967602476048,
                -3.118557167068158
            ]
        }
    ]
}