{
    "goal": {
        "global_pose": {
            "orientation": {
                "w": 0.5084816262002911,
                "x": -0.4908360881923452,
                "y": 0.5182115481033761,
                "z": -0.48164630358495003
            },
            "position": {
                "x": 0.5540239810943604,
                "y": -0.46912469901144505,
                "z": 0.16403168439865112
            }
        },
        "name": "move_to_storage_B"
    },
    "id": "BiEST_move_to_storage_B_1",
    "joint_names": [
        "shoulder_pan_joint",
        "shoulder_lift_joint",
        "elbow_joint",
        "wrist_1_joint",
        "wrist_2_joint",
        "wrist_3_joint"
    ],
    "metrics": {
        "cart_traj_len": 3.351049441979538,
        "distance_elbow_joint": 2.2628825140911255,
        "distance_shoulder_lift_joint": 0.8048586334457815,
        "distance_shoulder_pan_joint": 3.209648116490441,
        "distance_wrist_1_joint": 2.9826702870903983,
        "distance_wrist_2_joint": 2.7101221329445293,
        "distance_wrist_3_joint": 3.1467816813981533,
        "smoothness": 0.2911333118341513,
        "time": 0.09186464899999999,
        "traj_len": 3.888053930369334,
        "weighted_distance": 5.206084819544497
    },
    "planner": "BiEST",
    "start": {
        "state": {
            "elbow_joint": 1.664937868594044,
            "shoulder_lift_joint": -0.661644460510453,
            "shoulder_pan_joint": -0.9139846352900073,
            "wrist_1_joint": 2.146753192139373,
            "wrist_2_joint": -2.2341966793290973,
            "wrist_3_joint": 0.005466555786416001
        }
    },
    "waypoints": [
        {
            "positions": [
                -0.9139846352900073,
                -0.661644460510453,
                1.664937868594044,
                2.146753192139373,
                -2.2341966793290973,
                0.005466555786416001
            ]
        },
        {
            "positions": [
                -0.8382398693004075,
                -0.6932274969607414,
                1.6170853205126734,
                2.0717539603085493,
                -2.1069348521519484,
                0.035116244240515744
            ]
        },
        {
            "positions": [
                -0.7624951033108078,
                -0.7248105334110296,
                1.569232772431303,
                1.996754728477725,
                -1.9796730249747996,
                0.06476593269461549
            ]
        },
        {
            "positions": [
                -0.686750337321208,
                -0.756393569861318,
                1.5213802243499326,
                1.921755496646901,
                -1.8524111977976507,
                0.09441562114871523
            ]
        },
        {
            "positions": [
                -0.6110055713316083,
                -0.7879766063116064,
                1.473527676268562,
                1.846756264816077,
                -1.7251493706205017,
                0.12406530960281498
            ]
        },
        {
            "positions": [
                -0.5352608053420086,
                -0.8195596427618947,
                1.4256751281871916,
                1.7717570329852528,
                -1.5978875434433528,
                0.15371499805691471
            ]
        },
        {
            "positions": [
                -0.45951603935240887,
                -0.851142679212183,
                1.3778225801058213,
                1.6967578011544289,
                -1.470625716266204,
                0.18336468651101445
            ]
        },
        {
            "positions": [
                -0.38377127336280914,
                -0.8827257156624714,
                1.3299700320244507,
                1.6217585693236047,
                -1.3433638890890551,
                0.2130143749651142
            ]
        },
        {
            "positions": [
                -0.30802650737320936,
                -0.9143087521127597,
                1.2821174839430802,
                1.5467593374927806,
                -1.216102061911906,
                0.24266406341921395
            ]
        },
        {
            "positions": [
                -0.23228174138360957,
                -0.945891788563048,
                1.23426493586171,
                1.4717601056619565,
                -1.0888402347347572,
                0.27231375187331375
            ]
        },
        {
            "positions": [
                -0.1565369753940099,
                -0.9774748250133364,
                1.1864123877803394,
                1.3967608738311323,
                -0.9615784075576084,
                0.30196344032741346
            ]
        },
        {
            "positions": [
                -0.08079220940441012,
                -1.0090578614636248,
                1.138559839698969,
                1.3217616420003084,
                -0.8343165803804593,
                0.3316131287815132
            ]
        },
        {
            "positions": [
                -0.0050474434148104486,
                -1.040640897913913,
                1.0907072916175986,
                1.2467624101694843,
                -0.7070547532033107,
                0.36126281723561293
            ]
        },
        {
            "positions": [
                0.07069732257478933,
                -1.0722239343642013,
                1.042854743536228,
                1.1717631783386602,
                -0.5797929260261616,
                0.3909125056897127
            ]
        },
        {
            "positions": [
                0.146442088564389,
                -1.1038069708144898,
                0.9950021954548577,
                1.0967639465078363,
                -0.452531098849013,
                0.4205621941438124
            ]
        },
        {
            "positions": [
                0.2221868545539888,
                -1.135390007264778,
                0.9471496473734872,
                1.0217647146770121,
                -0.3252692716718639,
                0.45021188259791217
            ]
        },
        {
            "positions": [
                0.29793162054358857,
                -1.1669730437150663,
                0.8992970992921167,
                0.946765482846188,
                -0.19800744449471486,
                0.47986157105201194
            ]
        },
        {
            "positions": [
                0.37367638653318813,
                -1.1985560801653548,
                0.8514445512107462,
                0.8717662510153639,
                -0.07074561731756601,
                0.5095112595061115
            ]
        },
        {
            "positions": [
                0.44942115252278814,
                -1.2301391166156432,
                0.8035920031293758,
                0.7967670191845397,
                0.05651620985958283,
                0.5391609479602114
            ]
        },
        {
            "positions": [
                0.5251659185123877,
                -1.2617221530659313,
                0.7557394550480054,
                0.7217677873537158,
                0.18377803703673168,
                0.5688106364143111
            ]
        },
        {
            "positions": [
                0.6009106845019874,
                -1.2933051895162198,
                0.7078869069666349,
                0.6467685555228917,
                0.31103986421388075,
                0.5984603248684108
            ]
        },
        {
            "positions": [
                0.5117131688862797,
                -1.2841895103351664,
                0.7766148834120937,
                0.5687324686558435,
                0.31971805312975204,
                0.7328702149903139
            ]
        },
        {
            "positions": [
                0.42251565327057206,
                -1.275073831154113,
                0.8453428598575525,
                0.49069638178879516,
                0.32839624204562334,
                0.867280105112217
            ]
        },
        {
            "positions": [
                0.33331813765486434,
                -1.2659581519730596,
                0.9140708363030112,
                0.41266029492174694,
                0.33707443096149464,
                1.00168999523412
            ]
        },
        {
            "positions": [
                0.2441206220391567,
                -1.2568424727920062,
                0.98279881274847,
                0.33462420805469867,
                0.34575261987736594,
                1.1360998853560231
            ]
        },
        {
            "positions": [
                0.15492310642344898,
                -1.2477267936109526,
                1.0515267891939288,
                0.2565881211876504,
                0.35443080879323724,
                1.2705097754779262
            ]
        },
        {
            "positions": [
                0.06572559080774132,
                -1.2386111144298992,
                1.1202547656393875,
                0.17855203432060213,
                0.36310899770910854,
                1.4049196655998293
            ]
        },
        {
            "positions": [
                -0.023471924807966338,
                -1.2294954352488459,
                1.1889827420848464,
                0.10051594745355386,
                0.37178718662497984,
                1.5393295557217324
            ]
        },
        {
            "positions": [
                -0.112669440423674,
                -1.2203797560677925,
                1.2577107185303051,
                0.02247986058650564,
                0.38046537554085114,
                1.6737394458436354
            ]
        },
        {
            "positions": [
                -0.20186695603938165,
                -1.211264076886739,
                1.326438694975764,
                -0.055556226280542576,
                0.38914356445672244,
                1.8081493359655385
            ]
        },
        {
            "positions": [
                -0.2910644716550894,
                -1.2021483977056857,
                1.3951666714212227,
                -0.1335923131475909,
                0.39782175337259373,
                1.9425592260874416
            ]
        },
        {
            "positions": [
                -0.3802619872707972,
                -1.1930327185246323,
                1.4638946478666817,
                -0.21162840001463923,
                0.40649994228846503,
                2.0769691162093444
            ]
        },
        {
            "positions": [
                -0.46945950288650473,
                -1.183917039343579,
                1.5326226243121404,
                -0.28966448688168744,
                0.41517813120433633,
                2.2113790063312475
            ]
        },
        {
            "positions": [
                -0.5586570185022126,
                -1.1748013601625256,
                1.6013506007575993,
                -0.36770057374873577,
                0.42385632012020763,
                2.3457888964531506
            ]
        },
        {
            "positions": [
                -0.64785453411792,
                -1.165685680981472,
                1.670078577203058,
                -0.445736660615784,
                0.43253450903607893,
                2.4801987865750537
            ]
        },
        {
            "positions": [
                -0.7370520497336279,
                -1.1565700018004186,
                1.7388065536485167,
                -0.5237727474828322,
                0.44121269795195023,
                2.6146086766969567
            ]
        },
        {
            "positions": [
                -0.8262495653493354,
                -1.1474543226193652,
                1.8075345300939754,
                -0.6018088343498804,
                0.4498908868678215,
                2.74901856681886
            ]
        },
        {
            "positions": [
                -0.9154470809650432,
                -1.1383386434383118,
                1.8762625065394343,
                -0.6798449212169289,
                0.4585690757836928,
                2.883428456940763
            ]
        },
        {
            "positions": [
                -1.0046445965807507,
                -1.1292229642572584,
                1.944990482984893,
                -0.7578810080839768,
                0.4672472646995641,
                3.017838347062666
            ]
        },
        {
            "positions": [
                -1.0938421121964585,
                -1.120107285076205,
                2.013718459430352,
                -0.8359170949510254,
                0.4759254536154354,
                3.1522482371845695
            ]
        }
    ]
}