{
    "goal": {
        "global_pose": {
            "orientation": {
                "w": 0.5084816262002911,
                "x": -0.4908360881923452,
                "y": 0.5182115481033761,
                "z": -0.48164630358495003
            },
            "position": {
                "x": 0.5540239810943604,
                "y": -0.46912469901144505,
                "z": 0.16403168439865112
            }
        },
        "name": "move_to_storage_B"
    },
    "id": "BiEST_move_to_storage_B_26",
    "joint_names": [
        "shoulder_pan_joint",
        "shoulder_lift_joint",
        "elbow_joint",
        "wrist_1_joint",
        "wrist_2_joint",
        "wrist_3_joint"
    ],
    "metrics": {
        "cart_traj_len": 3.8207332494088266,
        "distance_elbow_joint": 1.9490705800511714,
        "distance_shoulder_lift_joint": 1.642588201059525,
        "distance_shoulder_pan_joint": 3.0914812172823734,
        "distance_wrist_1_joint": 3.428627258036177,
        "distance_wrist_2_joint": 2.7004838170884238,
        "distance_wrist_3_joint": 3.135925060436844,
        "smoothness": 0.32249558623389973,
        "time": 0.076645456,
        "traj_len": 3.9935167626985764,
        "weighted_distance": 5.324390794255508
    },
    "planner": "BiEST",
    "start": {
        "state": {
            "elbow_joint": 1.664937868594044,
            "shoulder_lift_joint": -0.661644460510453,
            "shoulder_pan_joint": -0.9139846352900073,
            "wrist_1_joint": 2.146753192139373,
            "wrist_2_joint": -2.2341966793290973,
            "wrist_3_joint": 0.005466555786416001
        }
    },
    "waypoints": [
        {
            "positions": [
                -0.9139846352900073,
                -0.661644460510453,
                1.664937868594044,
                2.146753192139373,
                -2.2341966793290973,
                0.005466555786416001
            ]
        },
        {
            "positions": [
                -0.833174213064162,
                -0.720044533028037,
                1.6205634657125225,
                2.158918233159797,
                -2.1457681618867768,
                0.11191754695042772
            ]
        },
        {
            "positions": [
                -0.7523637908383165,
                -0.7784446055456208,
                1.5761890628310011,
                2.171083274180221,
                -2.0573396444444563,
                0.21836853811443943
            ]
        },
        {
            "positions": [
                -0.6715533686124712,
                -0.8368446780632047,
                1.5318146599494797,
                2.183248315200645,
                -1.968911127002136,
                0.3248195292784512
            ]
        },
        {
            "positions": [
                -0.5907429463866258,
                -0.8952447505807886,
                1.4874402570679586,
                2.195413356221069,
                -1.8804826095598157,
                0.4312705204424629
            ]
        },
        {
            "positions": [
                -0.5099325241607804,
                -0.9536448230983725,
                1.4430658541864372,
                2.2075783972414924,
                -1.7920540921174952,
                0.5377215116064746
            ]
        },
        {
            "positions": [
                -0.42912210193493505,
                -1.0120448956159565,
                1.3986914513049158,
                2.2197434382619163,
                -1.7036255746751747,
                0.6441725027704863
            ]
        },
        {
            "positions": [
                -0.3483116797090897,
                -1.0704449681335404,
                1.3543170484233944,
                2.2319084792823403,
                -1.6151970572328542,
                0.750623493934498
            ]
        },
        {
            "positions": [
                -0.2675012574832444,
                -1.1288450406511243,
                1.3099426455418732,
                2.244073520302764,
                -1.526768539790534,
                0.8570744850985097
            ]
        },
        {
            "positions": [
                -0.18669083525739893,
                -1.187245113168708,
                1.2655682426603518,
                2.256238561323188,
                -1.4383400223482135,
                0.9635254762625215
            ]
        },
        {
            "positions": [
                -0.10588041303155349,
                -1.2456451856862922,
                1.2211938397788304,
                2.268403602343612,
                -1.349911504905893,
                1.0699764674265333
            ]
        },
        {
            "positions": [
                -0.025069990805708153,
                -1.304045258203876,
                1.176819436897309,
                2.280568643364036,
                -1.2614829874635727,
                1.176427458590545
            ]
        },
        {
            "positions": [
                0.05574043142013718,
                -1.36244533072146,
                1.1324450340157877,
                2.29273368438446,
                -1.1730544700212522,
                1.2828784497545567
            ]
        },
        {
            "positions": [
                0.13655085364598263,
                -1.4208454032390438,
                1.0880706311342663,
                2.304898725404884,
                -1.0846259525789317,
                1.3893294409185684
            ]
        },
        {
            "positions": [
                0.21736127587182785,
                -1.4792454757566276,
                1.0436962282527449,
                2.3170637664253073,
                -0.9961974351366114,
                1.49578043208258
            ]
        },
        {
            "positions": [
                0.2981716980976733,
                -1.5376455482742117,
                0.9993218253712236,
                2.3292288074457312,
                -0.9077689176942909,
                1.602231423246592
            ]
        },
        {
            "positions": [
                0.3789821203235185,
                -1.5960456207917955,
                0.9549474224897023,
                2.341393848466155,
                -0.8193404002519706,
                1.7086824144106034
            ]
        },
        {
            "positions": [
                0.45979254254936397,
                -1.6544456933093794,
                0.9105730196081809,
                2.353558889486579,
                -0.7309118828096501,
                1.8151334055746153
            ]
        },
        {
            "positions": [
                0.5406029647752095,
                -1.7128457658269634,
                0.8661986167266595,
                2.365723930507003,
                -0.6424833653673296,
                1.921584396738627
            ]
        },
        {
            "positions": [
                0.46943367707011585,
                -1.687133292099006,
                0.9162130222998677,
                2.226173647043153,
                -0.5942759521879097,
                1.9746194932379588
            ]
        },
        {
            "positions": [
                0.3982643893650221,
                -1.661420818371049,
                0.9662274278730758,
                2.0866233635793034,
                -0.54606853900849,
                2.0276545897372906
            ]
        },
        {
            "positions": [
                0.32709510165992844,
                -1.6357083446430918,
                1.016241833446284,
                1.9470730801154534,
                -0.49786112582907005,
                2.0806896862366226
            ]
        },
        {
            "positions": [
                0.2559258139548347,
                -1.6099958709151347,
                1.066256239019492,
                1.8075227966516034,
                -0.44965371264965026,
                2.1337247827359542
            ]
        },
        {
            "positions": [
                0.18475652624974104,
                -1.5842833971871775,
                1.1162706445927002,
                1.6679725131877536,
                -0.40144629947023036,
                2.1867598792352863
            ]
        },
        {
            "positions": [
                0.11358723854464736,
                -1.5585709234592204,
                1.1662850501659083,
                1.5284222297239038,
                -0.3532388862908105,
                2.2397949757346183
            ]
        },
        {
            "positions": [
                0.042417950839553575,
                -1.5328584497312632,
                1.2162994557391165,
                1.3888719462600538,
                -0.30503147311139067,
                2.29283007223395
            ]
        },
        {
            "positions": [
                -0.0287513368655401,
                -1.5071459760033061,
                1.2663138613123246,
                1.249321662796204,
                -0.2568240599319708,
                2.345865168733282
            ]
        },
        {
            "positions": [
                -0.09992062457063378,
                -1.4814335022753489,
                1.3163282668855327,
                1.109771379332354,
                -0.20861664675255093,
                2.398900265232614
            ]
        },
        {
            "positions": [
                -0.17108991227572745,
                -1.4557210285473918,
                1.3663426724587409,
                0.9702210958685042,
                -0.16040923357313114,
                2.4519353617319455
            ]
        },
        {
            "positions": [
                -0.24225919998082124,
                -1.4300085548194346,
                1.416357078031949,
                0.8306708124046542,
                -0.1122018203937113,
                2.5049704582312775
            ]
        },
        {
            "positions": [
                -0.3134284876859148,
                -1.4042960810914775,
                1.4663714836051571,
                0.6911205289408047,
                -0.0639944072142914,
                2.558005554730609
            ]
        },
        {
            "positions": [
                -0.3845977753910085,
                -1.3785836073635203,
                1.5163858891783653,
                0.5515702454769549,
                -0.015786994034871604,
                2.611040651229941
            ]
        },
        {
            "positions": [
                -0.4557670630961024,
                -1.352871133635563,
                1.5664002947515734,
                0.41201996201310465,
                0.032420419144548296,
                2.664075747729273
            ]
        },
        {
            "positions": [
                -0.5269363508011959,
                -1.327158659907606,
                1.6164147003247815,
                0.27246967854925463,
                0.0806278323239682,
                2.7171108442286047
            ]
        },
        {
            "positions": [
                -0.5981056385062897,
                -1.301446186179649,
                1.6664291058979896,
                0.13291939508540507,
                0.12883524550338799,
                2.7701459407279367
            ]
        },
        {
            "positions": [
                -0.6692749262113833,
                -1.2757337124516916,
                1.7164435114711978,
                -0.006630888378444499,
                0.17704265868280777,
                2.8231810372272683
            ]
        },
        {
            "positions": [
                -0.7404442139164771,
                -1.2500212387237344,
                1.766457917044406,
                -0.14618117184229495,
                0.22525007186222779,
                2.8762161337266003
            ]
        },
        {
            "positions": [
                -0.8116135016215709,
                -1.2243087649957773,
                1.816472322617614,
                -0.2857314553061445,
                0.2734574850416476,
                2.9292512302259324
            ]
        },
        {
            "positions": [
                -0.8827827893266644,
                -1.1985962912678203,
                1.8664867281908222,
                -0.42528173876999453,
                0.32166489822106736,
                2.982286326725264
            ]
        },
        {
            "positions": [
                -0.953952077031758,
                -1.172883817539863,
                1.9165011337640303,
                -0.5648320222338441,
                0.36987231140048715,
                3.0353214232245955
            ]
        },
        {
            "positions": [
                -1.025121364736852,
                -1.1471713438119058,
                1.9665155393372384,
                -0.7043823056976946,
                0.41807972457990705,
                3.088356519723928
            ]
        },
        {
            "positions": [
                -1.0962906524419456,
                -1.1214588700839487,
                2.0165299449104466,
                -0.8439325891615443,
                0.46628713775932706,
                3.1413916162232596
            ]
        }
    ]
}