{
    "goal": {
        "global_pose": {
            "orientation": {
                "w": 0.005598929693374612,
                "x": 0.007748599140229565,
                "y": 0.7110244013736278,
                "z": -0.7031023480610252
            },
            "position": {
                "x": -0.8858502320852131,
                "y": -0.7141253447532654,
                "z": 0.3711530566215515
            }
        },
        "name": "move_to_auspresseinheit_C"
    },
    "id": "BiEST_move_to_auspresseinheit_C_23",
    "joint_names": [
        "shoulder_pan_joint",
        "shoulder_lift_joint",
        "elbow_joint",
        "wrist_1_joint",
        "wrist_2_joint",
        "wrist_3_joint"
    ],
    "metrics": {
        "cart_traj_len": 0.4935886104229675,
        "distance_elbow_joint": 0.9944701558215207,
        "distance_shoulder_lift_joint": 0.3220082143952393,
        "distance_shoulder_pan_joint": 0.2562344342064238,
        "distance_wrist_1_joint": 0.656175660797252,
        "distance_wrist_2_joint": 1.3195643550656964,
        "distance_wrist_3_joint": 0.035933705008409866,
        "smoothness": 0.0,
        "time": 0.270446152,
        "traj_len": 1.8932476133074991,
        "weighted_distance": 2.3731822414585673
    },
    "planner": "BiEST",
    "start": {
        "state": {
            "elbow_joint": 1.7527959577737207,
            "shoulder_lift_joint": -0.9740617694225068,
            "shoulder_pan_joint": -2.967991417825858,
            "wrist_1_joint": -0.759517768980727,
            "wrist_2_joint": 1.7443932448377408,
            "wrist_3_joint": -3.0840537646736568
        }
    },
    "waypoints": [
        {
            "positions": [
                -2.967991417825858,
                -0.9740617694225068,
                1.7527959577737207,
                -0.759517768980727,
                1.7443932448377408,
                -3.0840537646736568
            ]
        },
        {
            "positions": [
                -2.9423679744052156,
                -0.9418609479829828,
                1.6533489421915686,
                -0.6939002029010017,
                1.6124368093311712,
                -3.087647135174498
            ]
        },
        {
            "positions": [
                -2.916744530984573,
                -0.909660126543459,
                1.5539019266094165,
                -0.6282826368212766,
                1.4804803738246015,
                -3.091240505675339
            ]
        },
        {
            "positions": [
                -2.891121087563931,
                -0.877459305103935,
                1.4544549110272644,
                -0.5626650707415514,
                1.3485239383180319,
                -3.0948338761761796
            ]
        },
        {
            "positions": [
                -2.8654976441432884,
                -0.845258483664411,
                1.3550078954451124,
                -0.4970475046618262,
                1.2165675028114622,
                -3.0984272466770206
            ]
        },
        {
            "positions": [
                -2.839874200722646,
                -0.8130576622248871,
                1.2555608798629603,
                -0.431429938582101,
                1.0846110673048925,
                -3.1020206171778617
            ]
        },
        {
            "positions": [
                -2.8142507573020037,
                -0.7808568407853632,
                1.1561138642808082,
                -0.3658123725023758,
                0.952654631798323,
                -3.105613987678703
            ]
        },
        {
            "positions": [
                -2.7886273138813613,
                -0.7486560193458393,
                1.0566668486986561,
                -0.3001948064226506,
                0.8206981962917534,
                -3.109207358179544
            ]
        },
        {
            "positions": [
                -2.763003870460719,
                -0.7164551979063154,
                0.957219833116504,
                -0.23457724034292537,
                0.6887417607851838,
                -3.1128007286803845
            ]
        },
        {
            "positions": [
                -2.7373804270400766,
                -0.6842543764667914,
                0.8577728175343521,
                -0.16895967426320013,
                0.5567853252786141,
                -3.1163940991812256
            ]
        },
        {
            "positions": [
                -2.711756983619434,
                -0.6520535550272675,
                0.7583258019522,
                -0.10334210818347503,
                0.42482888977204447,
                -3.1199874696820666
            ]
        }
    ]
}