{
    "goal": {
        "global_pose": {
            "orientation": {
                "w": -0.4816463035849501,
                "x": 0.5182115481033762,
                "y": 0.4908360881923453,
                "z": -0.5084816262002911
            },
            "position": {
                "x": -0.8240239810943604,
                "y": -0.300875300988555,
                "z": 0.16403168439865112
            }
        },
        "name": "move_to_storage_C"
    },
    "id": "BiEST_move_to_storage_C_124",
    "joint_names": [
        "shoulder_pan_joint",
        "shoulder_lift_joint",
        "elbow_joint",
        "wrist_1_joint",
        "wrist_2_joint",
        "wrist_3_joint"
    ],
    "metrics": {
        "cart_traj_len": 0.5773078236758975,
        "distance_elbow_joint": 0.2565514015737518,
        "distance_shoulder_lift_joint": 0.1889374772717599,
        "distance_shoulder_pan_joint": 0.4946982737770531,
        "distance_wrist_1_joint": 0.0682532209221961,
        "distance_wrist_2_joint": 1.07217685049278,
        "distance_wrist_3_joint": 0.06932680403232494,
        "smoothness": 0.0,
        "time": 0.11182628,
        "traj_len": 1.4662687434675357,
        "weighted_distance": 1.8517634048521132
    },
    "planner": "BiEST",
    "start": {
        "state": {
            "elbow_joint": 2.010868314990456,
            "shoulder_lift_joint": -1.1634956873337592,
            "shoulder_pan_joint": -2.4736205022346125,
            "wrist_1_joint": -0.8367026794202681,
            "wrist_2_joint": 0.6746043897044499,
            "wrist_3_joint": -3.1496632123970403
        }
    },
    "waypoints": [
        {
            "positions": [
                -2.4736205022346125,
                -1.1634956873337592,
                2.010868314990456,
                -0.8367026794202681,
                0.6746043897044499,
                -3.1496632123970403
            ]
        },
        {
            "positions": [
                -2.556070214530788,
                -1.1320061077884658,
                1.9681097480614973,
                -0.825327142599902,
                0.8533005314532466,
                -3.1381087450583194
            ]
        },
        {
            "positions": [
                -2.6385199268269637,
                -1.1005165282431726,
                1.9253511811325386,
                -0.8139516057795361,
                1.0319966732020434,
                -3.1265542777195985
            ]
        },
        {
            "positions": [
                -2.720969639123139,
                -1.0690269486978792,
                1.8825926142035798,
                -0.8025760689591701,
                1.21069281495084,
                -3.114999810380878
            ]
        },
        {
            "positions": [
                -2.8034193514193144,
                -1.037537369152586,
                1.8398340472746213,
                -0.791200532138804,
                1.3893889566996367,
                -3.103445343042157
            ]
        },
        {
            "positions": [
                -2.8858690637154902,
                -1.0060477896072926,
                1.7970754803456628,
                -0.779824995318438,
                1.5680850984484334,
                -3.0918908757034362
            ]
        },
        {
            "positions": [
                -2.9683187760116656,
                -0.9745582100619993,
                1.754316913416704,
                -0.768449458498072,
                1.7467812401972298,
                -3.0803364083647153
            ]
        }
    ]
}