{
    "goal": {
        "global_pose": {
            "orientation": {
                "w": 0.7031023502349854,
                "x": -0.7110244035720825,
                "y": 0.007748599164187908,
                "z": 0.005598929710686207
            },
            "position": {
                "x": 0.11585023208521307,
                "y": 0.44412534475326537,
                "z": 0.3711530566215515
            }
        },
        "name": "move_to_auspresseinheit_A"
    },
    "id": "BiEST_move_to_auspresseinheit_A_101",
    "joint_names": [
        "shoulder_pan_joint",
        "shoulder_lift_joint",
        "elbow_joint",
        "wrist_1_joint",
        "wrist_2_joint",
        "wrist_3_joint"
    ],
    "metrics": {
        "cart_traj_len": 0.7948243621457038,
        "distance_elbow_joint": 0.5333977755306392,
        "distance_shoulder_lift_joint": 0.5363371994477888,
        "distance_shoulder_pan_joint": 1.0415940061942313,
        "distance_wrist_1_joint": 1.544272099254147,
        "distance_wrist_2_joint": 0.5790345105938097,
        "distance_wrist_3_joint": 1.0737223207176023,
        "smoothness": 1.093676578658847,
        "time": 0.14905769,
        "traj_len": 2.303987394005926,
        "weighted_distance": 3.09501359658102
    },
    "planner": "BiEST",
    "start": {
        "state": {
            "elbow_joint": 2.4225746658250005,
            "shoulder_lift_joint": -1.3736534386056498,
            "shoulder_pan_joint": -0.3378633547517467,
            "wrist_1_joint": -1.0288598680537169,
            "wrist_2_joint": 1.233022673432363,
            "wrist_3_joint": -3.0940220416140027
        }
    },
    "waypoints": [
        {
            "positions": [
                -0.3378633547517467,
                -1.3736534386056498,
                2.4225746658250005,
                -1.0288598680537169,
                1.233022673432363,
                -3.0940220416140027
            ]
        },
        {
            "positions": [
                -0.30222033365104106,
                -1.4278290718724864,
                2.3914996574685374,
                -0.9127891614255793,
                1.1712620890819985,
                -3.036090672172423
            ]
        },
        {
            "positions": [
                -0.2665773125503354,
                -1.4820047051393233,
                2.360424649112075,
                -0.7967184547974417,
                1.109501504731634,
                -2.978159302730843
            ]
        },
        {
            "positions": [
                -0.23093429144962974,
                -1.5361803384061599,
                2.329349640755612,
                -0.6806477481693043,
                1.047740920381269,
                -2.9202279332892633
            ]
        },
        {
            "positions": [
                -0.19529127034892405,
                -1.5903559716729965,
                2.2982746323991488,
                -0.5645770415411666,
                0.9859803360309046,
                -2.8622965638476834
            ]
        },
        {
            "positions": [
                -0.15964824924821838,
                -1.6445316049398333,
                2.267199624042686,
                -0.44850633491302905,
                0.9242197516805399,
                -2.8043651944061034
            ]
        },
        {
            "positions": [
                -0.12400522814751272,
                -1.69870723820667,
                2.236124615686223,
                -0.3324356282848916,
                0.8624591673301754,
                -2.7464338249645235
            ]
        },
        {
            "positions": [
                -0.08836220704680703,
                -1.7528828714735065,
                2.20504960732976,
                -0.21636492165675403,
                0.8006985829798108,
                -2.6885024555229435
            ]
        },
        {
            "positions": [
                -0.052719185946101366,
                -1.8070585047403434,
                2.1739745989732975,
                -0.10029421502861646,
                0.7389379986294462,
                -2.630571086081364
            ]
        },
        {
            "positions": [
                -0.017076164845395703,
                -1.86123413800718,
                2.1428995906168344,
                0.015776491599521048,
                0.6771774142790815,
                -2.572639716639784
            ]
        },
        {
            "positions": [
                0.10305830453591766,
                -1.869360221348223,
                2.1851867073372464,
                -0.06749613166729712,
                0.6810422895191696,
                -2.6646963825970147
            ]
        },
        {
            "positions": [
                0.22319277391723102,
                -1.8774863046892662,
                2.227473824057659,
                -0.1507687549341153,
                0.6849071647592576,
                -2.7567530485542453
            ]
        },
        {
            "positions": [
                0.3433272432985444,
                -1.8856123880303093,
                2.2697609407780712,
                -0.23404137820093346,
                0.6887720399993456,
                -2.848809714511476
            ]
        },
        {
            "positions": [
                0.46346171267985775,
                -1.8937384713713523,
                2.312048057498483,
                -0.3173140014677516,
                0.6926369152394336,
                -2.9408663804687065
            ]
        },
        {
            "positions": [
                0.5835961820611713,
                -1.9018645547123956,
                2.354335174218895,
                -0.4005866247345698,
                0.6965017904795217,
                -3.032923046425937
            ]
        },
        {
            "positions": [
                0.7037306514424846,
                -1.9099906380534386,
                2.3966222909393076,
                -0.48385924800138796,
                0.7003666657196097,
                -3.1249797123831677
            ]
        }
    ]
}