{
    "goal": {
        "global_pose": {
            "orientation": {
                "w": 0.7047431468963623,
                "x": -0.7094548344612122,
                "y": 0.0024358443915843964,
                "z": -0.0022348060738295317
            },
            "position": {
                "x": 0.6094750761985779,
                "y": 0.3671506643295288,
                "z": 0.19426114857196808
            }
        },
        "name": "move_to_magneteinheit_A"
    },
    "id": "BiTRRT_move_to_magneteinheit_A_75",
    "joint_names": [
        "shoulder_pan_joint",
        "shoulder_lift_joint",
        "elbow_joint",
        "wrist_1_joint",
        "wrist_2_joint",
        "wrist_3_joint"
    ],
    "metrics": {
        "cart_traj_len": 3.0141578301141903,
        "distance_elbow_joint": 4.633735234845048,
        "distance_shoulder_lift_joint": 2.2785486157439574,
        "distance_shoulder_pan_joint": 5.193218422453064,
        "distance_wrist_1_joint": 3.4741682757132866,
        "distance_wrist_2_joint": 1.437387234670689,
        "distance_wrist_3_joint": 0.5624138434463648,
        "smoothness": 0.32285672194671017,
        "time": 0.09254538300000001,
        "traj_len": 4.192788049361953,
        "weighted_distance": 4.859614678567543
    },
    "planner": "BiTRRT",
    "start": {
        "state": {
            "elbow_joint": -1.9196185241190666,
            "shoulder_lift_joint": -1.2443396400964142,
            "shoulder_pan_joint": 2.6996025414629847,
            "wrist_1_joint": -1.5485510000780065,
            "wrist_2_joint": -1.5709468930060704,
            "wrist_3_joint": 0.4420197071253992
        }
    },
    "waypoints": [
        {
            "positions": [
                2.6996025414629847,
                -1.2443396400964142,
                -1.9196185241190666,
                -1.5485510000780065,
                -1.5709468930060704,
                0.4420197071253992
            ]
        },
        {
            "positions": [
                2.5818557466088645,
                -1.2718027549916677,
                -1.7900735647198986,
                -1.4679512150512983,
                -1.5388761605555432,
                0.4439010369417189
            ]
        },
        {
            "positions": [
                2.4641089517547443,
                -1.2992658698869213,
                -1.6605286053207307,
                -1.38735143002459,
                -1.5068054281050163,
                0.4457823667580386
            ]
        },
        {
            "positions": [
                2.346362156900624,
                -1.3267289847821748,
                -1.5309836459215624,
                -1.3067516449978818,
                -1.4747346956544891,
                0.44766369657435834
            ]
        },
        {
            "positions": [
                2.228615362046504,
                -1.3541920996774284,
                -1.4014386865223947,
                -1.2261518599711736,
                -1.442663963203962,
                0.44954502639067806
            ]
        },
        {
            "positions": [
                2.1108685671923837,
                -1.381655214572682,
                -1.2718937271232265,
                -1.1455520749444652,
                -1.410593230753435,
                0.45142635620699784
            ]
        },
        {
            "positions": [
                1.9931217723382635,
                -1.4091183294679355,
                -1.1423487677240585,
                -1.064952289917757,
                -1.3785224983029079,
                0.45330768602331756
            ]
        },
        {
            "positions": [
                1.8753749774841433,
                -1.436581444363189,
                -1.0128038083248905,
                -0.9843525048910488,
                -1.3464517658523807,
                0.4551890158396373
            ]
        },
        {
            "positions": [
                1.757628182630023,
                -1.4640445592584426,
                -0.8832588489257225,
                -0.9037527198643406,
                -1.3143810334018537,
                0.457070345655957
            ]
        },
        {
            "positions": [
                1.6398813877759029,
                -1.4915076741536961,
                -0.7537138895265545,
                -0.8231529348376323,
                -1.2823103009513266,
                0.4589516754722767
            ]
        },
        {
            "positions": [
                1.5221345929217827,
                -1.5189707890489497,
                -0.6241689301273863,
                -0.742553149810924,
                -1.2502395685007994,
                0.46083300528859644
            ]
        },
        {
            "positions": [
                1.4043877980676625,
                -1.5464339039442032,
                -0.4946239707282185,
                -0.6619533647842158,
                -1.2181688360502725,
                0.46271433510491616
            ]
        },
        {
            "positions": [
                1.2866410032135422,
                -1.5738970188394568,
                -0.3650790113290503,
                -0.5813535797575076,
                -1.1860981035997453,
                0.4645956649212359
            ]
        },
        {
            "positions": [
                1.168894208359422,
                -1.6013601337347103,
                -0.2355340519298823,
                -0.5007537947307994,
                -1.1540273711492182,
                0.46647699473755566
            ]
        },
        {
            "positions": [
                1.0511474135053018,
                -1.6288232486299639,
                -0.10598909253071431,
                -0.420154009704091,
                -1.1219566386986912,
                0.4683583245538754
            ]
        },
        {
            "positions": [
                0.9334006186511816,
                -1.6562863635252176,
                0.02355586686845368,
                -0.33955422467738283,
                -1.089885906248164,
                0.4702396543701951
            ]
        },
        {
            "positions": [
                0.8156538237970614,
                -1.683749478420471,
                0.15310082626762167,
                -0.25895443965067466,
                -1.057815173797637,
                0.4721209841865148
            ]
        },
        {
            "positions": [
                0.6979070289429412,
                -1.7112125933157247,
                0.2826457856667899,
                -0.17835465462396627,
                -1.02574444134711,
                0.47400231400283455
            ]
        },
        {
            "positions": [
                0.580160234088821,
                -1.738675708210978,
                0.41219074506595765,
                -0.0977548695972581,
                -0.9936737088965828,
                0.47588364381915427
            ]
        },
        {
            "positions": [
                0.4624134392347008,
                -1.7661388231062318,
                0.5417357044651259,
                -0.017155084570549706,
                -0.9616029764460556,
                0.477764973635474
            ]
        },
        {
            "positions": [
                0.3446666443805806,
                -1.7936019380014852,
                0.6712806638642941,
                0.06344470045615846,
                -0.9295322439955286,
                0.4796463034517937
            ]
        },
        {
            "positions": [
                0.22691984952646038,
                -1.821065052896739,
                0.8008256232634618,
                0.14404448548286664,
                -0.8974615115450015,
                0.48152763326811343
            ]
        },
        {
            "positions": [
                0.10917305467234018,
                -1.8485281677919922,
                0.9303705826626296,
                0.2246442705095748,
                -0.8653907790944745,
                0.4834089630844332
            ]
        },
        {
            "positions": [
                -0.008573740181780032,
                -1.875991282687246,
                1.0599155420617983,
                0.3052440555362832,
                -0.8333200466439473,
                0.48529029290075293
            ]
        },
        {
            "positions": [
                -0.12632053503590024,
                -1.9034543975824996,
                1.189460501460966,
                0.38584384056299137,
                -0.8012493141934203,
                0.48717162271707265
            ]
        },
        {
            "positions": [
                -0.24406732989002045,
                -1.9309175124777531,
                1.3190054608601338,
                0.46644362558969976,
                -0.7691785817428932,
                0.48905295253339237
            ]
        },
        {
            "positions": [
                -0.36181412474414065,
                -1.9583806273730064,
                1.448550420259302,
                0.5470434106164077,
                -0.7371078492923662,
                0.4909342823497121
            ]
        },
        {
            "positions": [
                -0.47956091959826086,
                -1.9858437422682602,
                1.5780953796584702,
                0.6276431956431161,
                -0.705037116841839,
                0.4928156121660318
            ]
        },
        {
            "positions": [
                -0.5973077144523811,
                -2.0133068571635135,
                1.707640339057638,
                0.7082429806698245,
                -0.6729663843913118,
                0.49469694198235153
            ]
        },
        {
            "positions": [
                -0.7150545093065013,
                -2.0407699720587673,
                1.8371852984568062,
                0.7888427656965324,
                -0.6408956519407848,
                0.4965782717986713
            ]
        },
        {
            "positions": [
                -0.8328013041606215,
                -2.068233086954021,
                1.966730257855974,
                0.8694425507232408,
                -0.6088249194902577,
                0.49845960161499103
            ]
        },
        {
            "positions": [
                -0.9505480990147417,
                -2.0956962018492744,
                2.0962752172551427,
                0.9500423357499492,
                -0.5767541870397306,
                0.5003409314313108
            ]
        },
        {
            "positions": [
                -1.068294893868862,
                -2.1231593167445277,
                2.22582017665431,
                1.0306421207766572,
                -0.5446834545892036,
                0.5022222612476305
            ]
        },
        {
            "positions": [
                -1.186041688722982,
                -2.1506224316397815,
                2.3553651360534777,
                1.1112419058033658,
                -0.5126127221386765,
                0.5041035910639502
            ]
        },
        {
            "positions": [
                -1.0770771727007236,
                -2.0362669462897323,
                2.325469171497436,
                1.1791065199560251,
                -0.4810249668217352,
                0.4624094277716324
            ]
        },
        {
            "positions": [
                -0.9681126566784652,
                -1.9219114609396832,
                2.295573206941394,
                1.2469711341086844,
                -0.4494372115047939,
                0.42071526447931457
            ]
        },
        {
            "positions": [
                -0.8591481406562068,
                -1.807555975589634,
                2.265677242385352,
                1.3148357482613438,
                -0.41784945618785263,
                0.3790211011869967
            ]
        },
        {
            "positions": [
                -0.7501836246339484,
                -1.693200490239585,
                2.23578127782931,
                1.382700362414003,
                -0.38626170087091133,
                0.33732693789467894
            ]
        },
        {
            "positions": [
                -0.64121910861169,
                -1.5788450048895357,
                2.2058853132732676,
                1.4505649765666624,
                -0.35467394555397,
                0.29563277460236115
            ]
        },
        {
            "positions": [
                -0.5322545925894315,
                -1.4644895195394865,
                2.1759893487172257,
                1.5184295907193217,
                -0.3230861902370288,
                0.2539386113100433
            ]
        },
        {
            "positions": [
                -0.4232900765671731,
                -1.3501340341894372,
                2.146093384161184,
                1.586294204871981,
                -0.2914984349200874,
                0.21224444801772546
            ]
        },
        {
            "positions": [
                -0.3143255605449147,
                -1.2357785488393882,
                2.116197419605142,
                1.6541588190246403,
                -0.2599106796031462,
                0.17055028472540767
            ]
        },
        {
            "positions": [
                -0.20536104452265624,
                -1.121423063489339,
                2.0863014550491,
                1.7220234331772997,
                -0.22832292428620488,
                0.1288561214330899
            ]
        },
        {
            "positions": [
                -0.09639652850039782,
                -1.0070675781392897,
                2.056405490493058,
                1.789888047329959,
                -0.19673516896926357,
                0.08716195814077204
            ]
        },
        {
            "positions": [
                0.012567987521860502,
                -0.8927120927892407,
                2.026509525937016,
                1.8577526614826183,
                -0.16514741365232233,
                0.04546779484845426
            ]
        },
        {
            "positions": [
                0.12153250354411894,
                -0.7783566074391913,
                1.996613561380974,
                1.9256172756352776,
                -0.13355965833538103,
                0.0037736315561364368
            ]
        }
    ]
}