{
    "goal": {
        "global_pose": {
            "orientation": {
                "w": 0.7031023480610252,
                "x": -0.7110244013736278,
                "y": 0.0077485991402295624,
                "z": 0.005598929693374583
            },
            "position": {
                "x": -0.8841497679147869,
                "y": 0.44412534475326537,
                "z": 0.3711530566215515
            }
        },
        "name": "move_to_auspresseinheit_D"
    },
    "id": "BiTRRT_move_to_auspresseinheit_D_42",
    "joint_names": [
        "shoulder_pan_joint",
        "shoulder_lift_joint",
        "elbow_joint",
        "wrist_1_joint",
        "wrist_2_joint",
        "wrist_3_joint"
    ],
    "metrics": {
        "cart_traj_len": 0.3420101485980211,
        "distance_elbow_joint": 0.6350180550057072,
        "distance_shoulder_lift_joint": 0.12022236245763152,
        "distance_shoulder_pan_joint": 0.13340355791435826,
        "distance_wrist_1_joint": 0.5276272121394814,
        "distance_wrist_2_joint": 1.4321535080783627,
        "distance_wrist_3_joint": 0.008049540805171507,
        "smoothness": 0.0,
        "time": 0.039434321,
        "traj_len": 1.6901107172018976,
        "weighted_distance": 2.198261594585344
    },
    "planner": "BiTRRT",
    "start": {
        "state": {
            "elbow_joint": -1.8275523626775212,
            "shoulder_lift_joint": -2.126789852344167,
            "shoulder_pan_joint": -0.03513704404078235,
            "wrist_1_joint": -2.347782403156801,
            "wrist_2_joint": -1.6058999987535132,
            "wrist_3_joint": -3.0880379163319196
        }
    },
    "waypoints": [
        {
            "positions": [
                -0.03513704404078235,
                -2.126789852344167,
                -1.8275523626775212,
                -2.347782403156801,
                -1.6058999987535132,
                -3.0880379163319196
            ]
        },
        {
            "positions": [
                -0.05181248878007713,
                -2.141817647651371,
                -1.7481751058018078,
                -2.413735804674236,
                -1.4268808102437178,
                -3.089044108932566
            ]
        },
        {
            "positions": [
                -0.06848793351937191,
                -2.156845442958575,
                -1.6687978489260944,
                -2.4796892061916713,
                -1.2478616217339225,
                -3.0900503015332124
            ]
        },
        {
            "positions": [
                -0.0851633782586667,
                -2.171873238265779,
                -1.589420592050381,
                -2.5456426077091066,
                -1.0688424332241273,
                -3.0910564941338587
            ]
        },
        {
            "positions": [
                -0.10183882299796149,
                -2.1869010335729824,
                -1.5100433351746676,
                -2.611596009226542,
                -0.8898232447143318,
                -3.092062686734505
            ]
        },
        {
            "positions": [
                -0.11851426773725626,
                -2.2019288288801864,
                -1.4306660782989542,
                -2.6775494107439766,
                -0.7108040562045365,
                -3.093068879335152
            ]
        },
        {
            "positions": [
                -0.13518971247655104,
                -2.2169566241873904,
                -1.3512888214232408,
                -2.743502812261412,
                -0.5317848676947412,
                -3.0940750719357983
            ]
        },
        {
            "positions": [
                -0.15186515721584584,
                -2.2319844194945944,
                -1.2719115645475274,
                -2.809456213778847,
                -0.35276567918494584,
                -3.0950812645364447
            ]
        },
        {
            "positions": [
                -0.16854060195514062,
                -2.2470122148017984,
                -1.192534307671814,
                -2.8754096152962823,
                -0.17374649067515038,
                -3.096087457137091
            ]
        }
    ]
}