{
    "goal": {
        "global_pose": {
            "orientation": {
                "w": 0.7047431468963623,
                "x": -0.7094548344612122,
                "y": 0.0024358443915843964,
                "z": -0.0022348060738295317
            },
            "position": {
                "x": 0.6094750761985779,
                "y": 0.3671506643295288,
                "z": 0.19426114857196808
            }
        },
        "name": "move_to_magneteinheit_A"
    },
    "id": "BiTRRT_move_to_magneteinheit_A_56",
    "joint_names": [
        "shoulder_pan_joint",
        "shoulder_lift_joint",
        "elbow_joint",
        "wrist_1_joint",
        "wrist_2_joint",
        "wrist_3_joint"
    ],
    "metrics": {
        "cart_traj_len": 3.4728360985744517,
        "distance_elbow_joint": 4.080975924976876,
        "distance_shoulder_lift_joint": 0.7848994520417882,
        "distance_shoulder_pan_joint": 4.7232308481623235,
        "distance_wrist_1_joint": 3.0610138938580245,
        "distance_wrist_2_joint": 1.7075904538056328,
        "distance_wrist_3_joint": 3.972896943857937,
        "smoothness": 0.3442522114080939,
        "time": 0.156123053,
        "traj_len": 4.281425874250608,
        "weighted_distance": 5.571804532831542
    },
    "planner": "BiTRRT",
    "start": {
        "state": {
            "elbow_joint": -1.9196185241190666,
            "shoulder_lift_joint": -1.2443396400964142,
            "shoulder_pan_joint": 2.6996025414629847,
            "wrist_1_joint": -1.5485510000780065,
            "wrist_2_joint": -1.5709468930060704,
            "wrist_3_joint": 0.4420197071253992
        }
    },
    "waypoints": [
        {
            "positions": [
                2.6996025414629847,
                -1.2443396400964142,
                -1.9196185241190666,
                -1.5485510000780065,
                -1.5709468930060704,
                0.4420197071253992
            ]
        },
        {
            "positions": [
                2.6009692141101346,
                -1.253495432213937,
                -1.8119483452443021,
                -1.4964856279971064,
                -1.5522395292731508,
                0.3388175264645822
            ]
        },
        {
            "positions": [
                2.5023358867572845,
                -1.26265122433146,
                -1.7042781663695379,
                -1.444420255916206,
                -1.5335321655402314,
                0.23561534580376517
            ]
        },
        {
            "positions": [
                2.4037025594044343,
                -1.271807016448983,
                -1.5966079874947736,
                -1.392354883835306,
                -1.5148248018073118,
                0.13241316514294815
            ]
        },
        {
            "positions": [
                2.3050692320515838,
                -1.2809628085665057,
                -1.4889378086200091,
                -1.3402895117544058,
                -1.4961174380743925,
                0.029210984482131164
            ]
        },
        {
            "positions": [
                2.2064359046987336,
                -1.2901186006840286,
                -1.3812676297452446,
                -1.2882241396735057,
                -1.4774100743414729,
                -0.07399119617868588
            ]
        },
        {
            "positions": [
                2.1078025773458835,
                -1.2992743928015515,
                -1.2735974508704804,
                -1.2361587675926056,
                -1.4587027106085535,
                -0.17719337683950287
            ]
        },
        {
            "positions": [
                2.0091692499930334,
                -1.3084301849190745,
                -1.1659272719957159,
                -1.1840933955117052,
                -1.439995346875634,
                -0.28039555750031986
            ]
        },
        {
            "positions": [
                1.9105359226401832,
                -1.3175859770365974,
                -1.0582570931209516,
                -1.132028023430805,
                -1.4212879831427145,
                -0.38359773816113685
            ]
        },
        {
            "positions": [
                1.811902595287333,
                -1.3267417691541203,
                -0.9505869142461871,
                -1.079962651349905,
                -1.402580619409795,
                -0.48679991882195384
            ]
        },
        {
            "positions": [
                1.713269267934483,
                -1.3358975612716433,
                -0.8429167353714229,
                -1.0278972792690046,
                -1.3838732556768756,
                -0.5900020994827709
            ]
        },
        {
            "positions": [
                1.6146359405816326,
                -1.3450533533891662,
                -0.7352465564966584,
                -0.9758319071881045,
                -1.365165891943956,
                -0.6932042801435879
            ]
        },
        {
            "positions": [
                1.5160026132287825,
                -1.354209145506689,
                -0.6275763776218941,
                -0.9237665351072044,
                -1.3464585282110364,
                -0.7964064608044049
            ]
        },
        {
            "positions": [
                1.4173692858759324,
                -1.3633649376242118,
                -0.5199061987471296,
                -0.8717011630263042,
                -1.327751164478117,
                -0.8996086414652219
            ]
        },
        {
            "positions": [
                1.3187359585230822,
                -1.3725207297417348,
                -0.41223601987236513,
                -0.8196357909454041,
                -1.3090438007451974,
                -1.002810822126039
            ]
        },
        {
            "positions": [
                1.2201026311702319,
                -1.3816765218592577,
                -0.30456584099760087,
                -0.7675704188645038,
                -1.290336437012278,
                -1.106013002786856
            ]
        },
        {
            "positions": [
                1.1214693038173817,
                -1.3908323139767806,
                -0.19689566212283638,
                -0.7155050467836037,
                -1.2716290732793585,
                -1.209215183447673
            ]
        },
        {
            "positions": [
                1.0228359764645316,
                -1.3999881060943036,
                -0.08922548324807211,
                -0.6634396747027035,
                -1.252921709546439,
                -1.31241736410849
            ]
        },
        {
            "positions": [
                0.9242026491116815,
                -1.4091438982118265,
                0.018444695626692376,
                -0.6113743026218034,
                -1.2342143458135195,
                -1.415619544769307
            ]
        },
        {
            "positions": [
                0.8255693217588314,
                -1.4182996903293492,
                0.12611487450145642,
                -0.5593089305409032,
                -1.2155069820806002,
                -1.518821725430124
            ]
        },
        {
            "positions": [
                0.726935994405981,
                -1.4274554824468721,
                0.2337850533762209,
                -0.507243558460003,
                -1.1967996183476806,
                -1.622023906090941
            ]
        },
        {
            "positions": [
                0.6283026670531311,
                -1.436611274564395,
                0.3414552322509854,
                -0.4551781863791029,
                -1.1780922546147612,
                -1.7252260867517575
            ]
        },
        {
            "positions": [
                0.5296693397002805,
                -1.445767066681918,
                0.4491254111257499,
                -0.40311281429820256,
                -1.1593848908818416,
                -1.828428267412575
            ]
        },
        {
            "positions": [
                0.43103601234743083,
                -1.454922858799441,
                0.5567955900005139,
                -0.35104744221730266,
                -1.1406775271489222,
                -1.9316304480733915
            ]
        },
        {
            "positions": [
                0.33240268499458026,
                -1.4640786509169639,
                0.6644657688752784,
                -0.2989820701364023,
                -1.1219701634160026,
                -2.034832628734209
            ]
        },
        {
            "positions": [
                0.23376935764173012,
                -1.4732344430344868,
                0.7721359477500429,
                -0.2469166980555022,
                -1.1032627996830833,
                -2.138034809395026
            ]
        },
        {
            "positions": [
                0.13513603028888,
                -1.4823902351520095,
                0.8798061266248074,
                -0.19485132597460186,
                -1.0845554359501637,
                -2.241236990055843
            ]
        },
        {
            "positions": [
                0.03650270293602986,
                -1.4915460272695324,
                0.9874763054995714,
                -0.14278595389370197,
                -1.065848072217244,
                -2.34443917071666
            ]
        },
        {
            "positions": [
                -0.06213062441682027,
                -1.5007018193870554,
                1.0951464843743364,
                -0.09072058181280163,
                -1.0471407084843247,
                -2.447641351377477
            ]
        },
        {
            "positions": [
                -0.1607639517696704,
                -1.5098576115045783,
                1.2028166632491004,
                -0.03865520973190151,
                -1.0284333447514054,
                -2.550843532038294
            ]
        },
        {
            "positions": [
                -0.259397279122521,
                -1.5190134036221012,
                1.310486842123865,
                0.013410162348998833,
                -1.0097259810184855,
                -2.654045712699111
            ]
        },
        {
            "positions": [
                -0.35803060647537066,
                -1.5281691957396242,
                1.418157020998629,
                0.06547553442989873,
                -0.9910186172855663,
                -2.757247893359928
            ]
        },
        {
            "positions": [
                -0.45666393382822124,
                -1.537324987857147,
                1.5258271998733939,
                0.11754090651079907,
                -0.9723112535526467,
                -2.860450074020745
            ]
        },
        {
            "positions": [
                -0.5552972611810714,
                -1.54648077997467,
                1.633497378748158,
                0.1696062785916992,
                -0.9536038898197272,
                -2.963652254681562
            ]
        },
        {
            "positions": [
                -0.6539305885339215,
                -1.555636572092193,
                1.7411675576229224,
                0.22167165067259953,
                -0.9348965260868077,
                -3.066854435342379
            ]
        },
        {
            "positions": [
                -0.7525639158867716,
                -1.5647923642097157,
                1.8488377364976865,
                0.2737370227534994,
                -0.9161891623538883,
                -3.1700566160031958
            ]
        },
        {
            "positions": [
                -0.8511972432396218,
                -1.5739481563272386,
                1.9565079153724514,
                0.32580239483439977,
                -0.8974817986209688,
                -3.2732587966640128
            ]
        },
        {
            "positions": [
                -0.9498305705924719,
                -1.5831039484447615,
                2.0641780942472154,
                0.3778677669152999,
                -0.8787744348880493,
                -3.3764609773248297
            ]
        },
        {
            "positions": [
                -0.842450796981785,
                -1.5384904340754175,
                2.0544601635861564,
                0.264408254228828,
                -0.7772326353192881,
                -3.361019351384059
            ]
        },
        {
            "positions": [
                -0.7350710233710982,
                -1.4938769197060733,
                2.044742232925097,
                0.15094874154235613,
                -0.6756908357505269,
                -3.345577725443288
            ]
        },
        {
            "positions": [
                -0.6276912497604112,
                -1.4492634053367293,
                2.0350243022640377,
                0.03748922885588429,
                -0.5741490361817658,
                -3.3301360995025173
            ]
        },
        {
            "positions": [
                -0.5203114761497244,
                -1.4046498909673852,
                2.0253063716029787,
                -0.07597028383058763,
                -0.4726072366130046,
                -3.3146944735617465
            ]
        },
        {
            "positions": [
                -0.41293170253903755,
                -1.3600363765980412,
                2.0155884409419196,
                -0.1894297965170595,
                -0.37106543704424344,
                -3.2992528476209757
            ]
        },
        {
            "positions": [
                -0.3055519289283507,
                -1.315422862228697,
                2.00587051028086,
                -0.3028893092035313,
                -0.26952363747548225,
                -3.283811221680205
            ]
        },
        {
            "positions": [
                -0.19817215531766386,
                -1.270809347859353,
                1.996152579619801,
                -0.4163488218900032,
                -0.16798183790672117,
                -3.268369595739434
            ]
        },
        {
            "positions": [
                -0.0907923817069769,
                -1.2261958334900087,
                1.9864346489587417,
                -0.5298083345764751,
                -0.06644003833795986,
                -3.2529279697986633
            ]
        },
        {
            "positions": [
                0.016587391903709947,
                -1.1815823191206647,
                1.9767167182976826,
                -0.643267847262947,
                0.03510176123080122,
                -3.2374863438578925
            ]
        },
        {
            "positions": [
                0.12396716551439681,
                -1.1369688047513207,
                1.9669987876366233,
                -0.756727359949419,
                0.13664356079956252,
                -3.2220447179171217
            ]
        }
    ]
}