{
    "goal": {
        "global_pose": {
            "orientation": {
                "w": 0.7031023502349854,
                "x": -0.7110244035720825,
                "y": 0.007748599164187908,
                "z": 0.005598929710686207
            },
            "position": {
                "x": 0.11585023208521307,
                "y": 0.44412534475326537,
                "z": 0.3711530566215515
            }
        },
        "name": "move_to_auspresseinheit_A"
    },
    "id": "BiTRRT_move_to_auspresseinheit_A_136",
    "joint_names": [
        "shoulder_pan_joint",
        "shoulder_lift_joint",
        "elbow_joint",
        "wrist_1_joint",
        "wrist_2_joint",
        "wrist_3_joint"
    ],
    "metrics": {
        "cart_traj_len": 1.0047365298958508,
        "distance_elbow_joint": 0.36484577668963203,
        "distance_shoulder_lift_joint": 1.2281324850009543,
        "distance_shoulder_pan_joint": 1.0445241510658911,
        "distance_wrist_1_joint": 0.5631490929188627,
        "distance_wrist_2_joint": 0.5248676635369598,
        "distance_wrist_3_joint": 1.5832969151786278,
        "smoothness": 1.179463686107817,
        "time": 0.069354509,
        "traj_len": 2.3040868222336863,
        "weighted_distance": 3.0924790494365526
    },
    "planner": "BiTRRT",
    "start": {
        "state": {
            "elbow_joint": 2.4225746658250005,
            "shoulder_lift_joint": -1.3736534386056498,
            "shoulder_pan_joint": -0.3378633547517467,
            "wrist_1_joint": -1.0288598680537169,
            "wrist_2_joint": 1.233022673432363,
            "wrist_3_joint": -3.0940220416140027
        }
    },
    "waypoints": [
        {
            "positions": [
                -0.3378633547517467,
                -1.3736534386056498,
                2.4225746658250005,
                -1.0288598680537169,
                1.233022673432363,
                -3.0940220416140027
            ]
        },
        {
            "positions": [
                -0.3035779847678639,
                -1.4836645632573604,
                2.397867490116748,
                -0.9691739365277011,
                1.1847485103223168,
                -2.9975474326560145
            ]
        },
        {
            "positions": [
                -0.26929261478398114,
                -1.5936756879090712,
                2.373160314408495,
                -0.9094880050016854,
                1.1364743472122707,
                -2.9010728236980263
            ]
        },
        {
            "positions": [
                -0.23500724480009832,
                -1.7036868125607818,
                2.3484531387002425,
                -0.8498020734756697,
                1.0882001841022246,
                -2.8045982147400377
            ]
        },
        {
            "positions": [
                -0.2007218748162155,
                -1.8136979372124924,
                2.32374596299199,
                -0.7901161419496538,
                1.0399260209921783,
                -2.7081236057820495
            ]
        },
        {
            "positions": [
                -0.1664365048323327,
                -1.9237090618642032,
                2.2990387872837372,
                -0.7304302104236382,
                0.9916518578821322,
                -2.6116489968240613
            ]
        },
        {
            "positions": [
                -0.1321511348484499,
                -2.0337201865159136,
                2.2743316115754846,
                -0.6707442788976224,
                0.943377694772086,
                -2.5151743878660726
            ]
        },
        {
            "positions": [
                -0.0978657648645671,
                -2.1437313111676244,
                2.249624435867232,
                -0.6110583473716067,
                0.8951035316620398,
                -2.4186997789080844
            ]
        },
        {
            "positions": [
                -0.06358039488068427,
                -2.253742435819335,
                2.2249172601589793,
                -0.5513724158455909,
                0.8468293685519936,
                -2.322225169950096
            ]
        },
        {
            "positions": [
                0.04918855537694494,
                -2.184964228500001,
                2.2555036465763756,
                -0.5495531657068551,
                0.8211882031542601,
                -2.4230518112185453
            ]
        },
        {
            "positions": [
                0.16195750563457417,
                -2.116186021180667,
                2.286090032993772,
                -0.5477339155681191,
                0.7955470377565267,
                -2.5238784524869944
            ]
        },
        {
            "positions": [
                0.27472645589220335,
                -2.0474078138613323,
                2.316676419411168,
                -0.5459146654293833,
                0.7699058723587932,
                -2.624705093755443
            ]
        },
        {
            "positions": [
                0.3874954061498326,
                -1.9786296065419982,
                2.3472628058285645,
                -0.5440954152906473,
                0.7442647069610597,
                -2.725531735023892
            ]
        },
        {
            "positions": [
                0.5002643564074618,
                -1.909851399222664,
                2.377849192245961,
                -0.5422761651519115,
                0.7186235415633262,
                -2.826358376292341
            ]
        },
        {
            "positions": [
                0.6034625763608031,
                -1.9077751736273652,
                2.3849774117142752,
                -0.5039934701433828,
                0.7133892757293647,
                -2.9800417948785793
            ]
        },
        {
            "positions": [
                0.7066607963141445,
                -1.9056989480320663,
                2.39210563118259,
                -0.46571077513485415,
                0.7081550098954033,
                -3.1337252134648175
            ]
        }
    ]
}