{
    "goal": {
        "global_pose": {
            "orientation": {
                "w": 0.7031023480610252,
                "x": -0.7110244013736278,
                "y": 0.0077485991402295624,
                "z": 0.005598929693374583
            },
            "position": {
                "x": -0.8841497679147869,
                "y": 0.44412534475326537,
                "z": 0.3711530566215515
            }
        },
        "name": "move_to_auspresseinheit_D"
    },
    "id": "BiTRRT_move_to_auspresseinheit_D_77",
    "joint_names": [
        "shoulder_pan_joint",
        "shoulder_lift_joint",
        "elbow_joint",
        "wrist_1_joint",
        "wrist_2_joint",
        "wrist_3_joint"
    ],
    "metrics": {
        "cart_traj_len": 0.3421883452746699,
        "distance_elbow_joint": 0.6251667738084901,
        "distance_shoulder_lift_joint": 0.11460803999384961,
        "distance_shoulder_pan_joint": 0.13441384031582843,
        "distance_wrist_1_joint": 0.49906547802186907,
        "distance_wrist_2_joint": 1.4317795098416286,
        "distance_wrist_3_joint": 0.027468885878859428,
        "smoothness": 1.9737298371844314e-16,
        "time": 0.055274351,
        "traj_len": 1.6830040189674311,
        "weighted_distance": 2.195059290197361
    },
    "planner": "BiTRRT",
    "start": {
        "state": {
            "elbow_joint": -1.8275523626775212,
            "shoulder_lift_joint": -2.126789852344167,
            "shoulder_pan_joint": -0.03513704404078235,
            "wrist_1_joint": -2.347782403156801,
            "wrist_2_joint": -1.6058999987535132,
            "wrist_3_joint": -3.0880379163319196
        }
    },
    "waypoints": [
        {
            "positions": [
                -0.03513704404078235,
                -2.126789852344167,
                -1.8275523626775212,
                -2.347782403156801,
                -1.6058999987535132,
                -3.0880379163319196
            ]
        },
        {
            "positions": [
                -0.0519387740802609,
                -2.141115857343398,
                -1.74940651595146,
                -2.4101655879095345,
                -1.4269275600233096,
                -3.091471527066777
            ]
        },
        {
            "positions": [
                -0.06874050411973945,
                -2.155441862342629,
                -1.6712606692253986,
                -2.472548772662268,
                -1.247955121293106,
                -3.0949051378016343
            ]
        },
        {
            "positions": [
                -0.08554223415921801,
                -2.1697678673418603,
                -1.5931148224993374,
                -2.5349319574150018,
                -1.0689826825629025,
                -3.098338748536492
            ]
        },
        {
            "positions": [
                -0.10234396419869657,
                -2.1840938723410916,
                -1.514968975773276,
                -2.5973151421677354,
                -0.8900102438326989,
                -3.101772359271349
            ]
        },
        {
            "positions": [
                -0.11914569423817511,
                -2.198419877340323,
                -1.4368231290472149,
                -2.659698326920469,
                -0.7110378051024953,
                -3.1052059700062067
            ]
        },
        {
            "positions": [
                -0.13594742427765366,
                -2.2127458823395543,
                -1.3586772823211537,
                -2.7220815116732027,
                -0.5320653663722918,
                -3.1086395807410643
            ]
        },
        {
            "positions": [
                -0.15274915431713224,
                -2.227071887338785,
                -1.2805314355950923,
                -2.7844646964259363,
                -0.3530929276420882,
                -3.1120731914759214
            ]
        },
        {
            "positions": [
                -0.16955088435661078,
                -2.2413978923380165,
                -1.2023855888690311,
                -2.84684788117867,
                -0.1741204889118846,
                -3.115506802210779
            ]
        }
    ]
}