{
    "goal": {
        "global_pose": {
            "orientation": {
                "w": 0.005598929693374612,
                "x": 0.007748599140229565,
                "y": 0.7110244013736278,
                "z": -0.7031023480610252
            },
            "position": {
                "x": -0.8858502320852131,
                "y": -0.7141253447532654,
                "z": 0.3711530566215515
            }
        },
        "name": "move_to_auspresseinheit_C"
    },
    "id": "BiTRRT_move_to_auspresseinheit_C_38",
    "joint_names": [
        "shoulder_pan_joint",
        "shoulder_lift_joint",
        "elbow_joint",
        "wrist_1_joint",
        "wrist_2_joint",
        "wrist_3_joint"
    ],
    "metrics": {
        "cart_traj_len": 0.49263964130751237,
        "distance_elbow_joint": 0.9950662793035675,
        "distance_shoulder_lift_joint": 0.32308402839503114,
        "distance_shoulder_pan_joint": 0.2566522621694314,
        "distance_wrist_1_joint": 0.6705237757450588,
        "distance_wrist_2_joint": 1.307178465075866,
        "distance_wrist_3_joint": 0.047572726667556076,
        "smoothness": 6.459479416000911e-16,
        "time": 0.04847412400000001,
        "traj_len": 1.8973870288785337,
        "weighted_distance": 2.3817903416364232
    },
    "planner": "BiTRRT",
    "start": {
        "state": {
            "elbow_joint": 1.7527959577737207,
            "shoulder_lift_joint": -0.9740617694225068,
            "shoulder_pan_joint": -2.967991417825858,
            "wrist_1_joint": -0.759517768980727,
            "wrist_2_joint": 1.7443932448377408,
            "wrist_3_joint": -3.0840537646736568
        }
    },
    "waypoints": [
        {
            "positions": [
                -2.967991417825858,
                -0.9740617694225068,
                1.7527959577737207,
                -0.759517768980727,
                1.7443932448377408,
                -3.0840537646736568
            ]
        },
        {
            "positions": [
                -2.942326191608915,
                -0.9417533665830037,
                1.653289329843364,
                -0.6924653914062211,
                1.6136753983301542,
                -3.0888110373404123
            ]
        },
        {
            "positions": [
                -2.9166609653919715,
                -0.9094449637435006,
                1.5537827019130073,
                -0.6254130138317152,
                1.4829575518225675,
                -3.093568310007168
            ]
        },
        {
            "positions": [
                -2.8909957391750285,
                -0.8771365609039974,
                1.4542760739826504,
                -0.5583606362572093,
                1.352239705314981,
                -3.0983255826739238
            ]
        },
        {
            "positions": [
                -2.8653305129580855,
                -0.8448281580644943,
                1.3547694460522937,
                -0.49130825868270345,
                1.2215218588073944,
                -3.1030828553406793
            ]
        },
        {
            "positions": [
                -2.839665286741142,
                -0.8125197552249912,
                1.255262818121937,
                -0.42425588110819756,
                1.0908040122998077,
                -3.107840128007435
            ]
        },
        {
            "positions": [
                -2.814000060524199,
                -0.7802113523854881,
                1.15575619019158,
                -0.3572035035336917,
                0.9600861657922213,
                -3.1125974006741903
            ]
        },
        {
            "positions": [
                -2.788334834307256,
                -0.747902949545985,
                1.0562495622612236,
                -0.29015112595918585,
                0.8293683192846347,
                -3.117354673340946
            ]
        },
        {
            "positions": [
                -2.762669608090313,
                -0.7155945467064819,
                0.9567429343308667,
                -0.2230987483846799,
                0.698650472777048,
                -3.122111946007702
            ]
        },
        {
            "positions": [
                -2.7370043818733696,
                -0.6832861438669787,
                0.8572363064005099,
                -0.15604637081017403,
                0.5679326262694615,
                -3.1268692186744573
            ]
        },
        {
            "positions": [
                -2.7113391556564266,
                -0.6509777410274756,
                0.7577296784701532,
                -0.08899399323566815,
                0.4372147797618748,
                -3.131626491341213
            ]
        }
    ]
}