{
    "goal": {
        "global_pose": {
            "orientation": {
                "w": -0.00223480608172531,
                "x": 0.0024358444001904467,
                "y": 0.7094548369677653,
                "z": -0.704743149386269
            },
            "position": {
                "x": -0.37947507619857795,
                "y": -0.6371506643295288,
                "z": 0.19426114857196808
            }
        },
        "name": "move_to_magneteinheit_C"
    },
    "id": "BiTRRT_move_to_magneteinheit_C_79",
    "joint_names": [
        "shoulder_pan_joint",
        "shoulder_lift_joint",
        "elbow_joint",
        "wrist_1_joint",
        "wrist_2_joint",
        "wrist_3_joint"
    ],
    "metrics": {
        "cart_traj_len": 0.627360115655131,
        "distance_elbow_joint": 0.5036965030294263,
        "distance_shoulder_lift_joint": 0.25136213489099,
        "distance_shoulder_pan_joint": 0.833588861077174,
        "distance_wrist_1_joint": 0.8806877502143924,
        "distance_wrist_2_joint": 1.444234313697235,
        "distance_wrist_3_joint": 0.6504767548847665,
        "smoothness": 1.1971731103110854,
        "time": 0.064190919,
        "traj_len": 2.136362871282401,
        "weighted_distance": 2.8618039575545957
    },
    "planner": "BiTRRT",
    "start": {
        "state": {
            "elbow_joint": 1.9565354010623817,
            "shoulder_lift_joint": -1.4165861575791021,
            "shoulder_pan_joint": -1.6717766225146293,
            "wrist_1_joint": -0.5286633292919765,
            "wrist_2_joint": 1.472756589071564,
            "wrist_3_joint": -3.1238370188695823
        }
    },
    "waypoints": [
        {
            "positions": [
                -1.6717766225146293,
                -1.4165861575791021,
                1.9565354010623817,
                -0.5286633292919765,
                1.472756589071564,
                -3.1238370188695823
            ]
        },
        {
            "positions": [
                -1.7418065295236063,
                -1.4046434697363863,
                1.9863509292230253,
                -0.5915673487141545,
                1.3232292839126787,
                -3.078469709098826
            ]
        },
        {
            "positions": [
                -1.811836436532583,
                -1.3927007818936707,
                2.016166457383669,
                -0.6544713681363326,
                1.1737019787537935,
                -3.0331023993280692
            ]
        },
        {
            "positions": [
                -1.88186634354156,
                -1.380758094050955,
                2.045981985544312,
                -0.7173753875585105,
                1.024174673594908,
                -2.987735089557313
            ]
        },
        {
            "positions": [
                -1.9518962505505368,
                -1.3688154062082392,
                2.0757975137049556,
                -0.7802794069806887,
                0.8746473684360228,
                -2.9423677797865566
            ]
        },
        {
            "positions": [
                -2.0219261575595135,
                -1.3568727183655234,
                2.105613041865599,
                -0.8431834264028666,
                0.7251200632771374,
                -2.8970004700158003
            ]
        },
        {
            "positions": [
                -2.0919560645684907,
                -1.3449300305228078,
                2.1354285700262428,
                -0.9060874458250446,
                0.5755927581182522,
                -2.8516331602450435
            ]
        },
        {
            "positions": [
                -2.1619859715774674,
                -1.332987342680092,
                2.165244098186886,
                -0.9689914652472227,
                0.4260654529593667,
                -2.8062658504742872
            ]
        },
        {
            "positions": [
                -2.2680519949746842,
                -1.2818928915065761,
                2.188797434338008,
                -1.0203559630864625,
                0.40203815752576566,
                -2.8445727656579014
            ]
        },
        {
            "positions": [
                -2.3741180183719015,
                -1.2307984403330603,
                2.2123507704891296,
                -1.071720460925702,
                0.3780108620921646,
                -2.882879680841515
            ]
        },
        {
            "positions": [
                -2.4801840417691183,
                -1.1797039891595444,
                2.2359041066402514,
                -1.1230849587649419,
                0.35398356665856356,
                -2.9211865960251293
            ]
        },
        {
            "positions": [
                -2.4847385181380233,
                -1.1737181273578723,
                2.192914447760727,
                -1.0686376626509893,
                0.41741350342709593,
                -2.969362092347793
            ]
        },
        {
            "positions": [
                -2.489292994506928,
                -1.1677322655562001,
                2.1499247888812034,
                -1.0141903665370366,
                0.4808434401956283,
                -3.0175375886704563
            ]
        },
        {
            "positions": [
                -2.480438785248581,
                -1.165803535236333,
                2.072417452934063,
                -0.9129432132936535,
                0.5930560337514299,
                -3.092052417241973
            ]
        },
        {
            "positions": [
                -2.473220505422053,
                -1.165224022688112,
                2.011576309188695,
                -0.8368188380235149,
                0.6794448579427989,
                -3.1391714369637587
            ]
        }
    ]
}