{
    "goal": {
        "global_pose": {
            "orientation": {
                "w": -0.4816463035849501,
                "x": 0.5182115481033762,
                "y": 0.4908360881923453,
                "z": -0.5084816262002911
            },
            "position": {
                "x": -0.8240239810943604,
                "y": 0.19912469901144506,
                "z": 0.16403168439865112
            }
        },
        "name": "move_to_storage_D"
    },
    "id": "BiTRRT_move_to_storage_D_147",
    "joint_names": [
        "shoulder_pan_joint",
        "shoulder_lift_joint",
        "elbow_joint",
        "wrist_1_joint",
        "wrist_2_joint",
        "wrist_3_joint"
    ],
    "metrics": {
        "cart_traj_len": 0.746969339857452,
        "distance_elbow_joint": 0.5529414416641154,
        "distance_shoulder_lift_joint": 0.15277544282631927,
        "distance_shoulder_pan_joint": 0.9180852974689035,
        "distance_wrist_1_joint": 4.832544878964903,
        "distance_wrist_2_joint": 2.006110664872258,
        "distance_wrist_3_joint": 3.1257070342763362,
        "smoothness": 0.5014178369856868,
        "time": 0.097217128,
        "traj_len": 3.404139356735097,
        "weighted_distance": 4.967719232450911
    },
    "planner": "BiTRRT",
    "start": {
        "state": {
            "elbow_joint": -2.384821988534728,
            "shoulder_lift_joint": -2.2788054721415256,
            "shoulder_pan_joint": -0.1854694642142757,
            "wrist_1_joint": 1.4845938289331202,
            "wrist_2_joint": 0.17898776772866878,
            "wrist_3_joint": 0.037105688729662994
        }
    },
    "waypoints": [
        {
            "positions": [
                -0.1854694642142757,
                -2.2788054721415256,
                -2.384821988534728,
                1.4845938289331202,
                0.17898776772866878,
                0.037105688729662994
            ]
        },
        {
            "positions": [
                -0.05184861019122222,
                -2.2642389918647163,
                -2.3413882679969116,
                1.6111307279925868,
                0.20702672176428055,
                0.01506034267575524
            ]
        },
        {
            "positions": [
                0.08177224383183126,
                -2.249672511587907,
                -2.2979545474590957,
                1.7376676270520532,
                0.2350656757998923,
                -0.006985003378152513
            ]
        },
        {
            "positions": [
                0.21539309785488478,
                -2.2351060313110978,
                -2.2545208269212793,
                1.8642045261115197,
                0.2631046298355041,
                -0.02903034943206026
            ]
        },
        {
            "positions": [
                0.34901395187793827,
                -2.2205395510342885,
                -2.211087106383463,
                1.9907414251709863,
                0.29114358387111583,
                -0.05107569548596802
            ]
        },
        {
            "positions": [
                0.33426003336345017,
                -2.2169045694297083,
                -2.1965022387098916,
                1.8243415296814849,
                0.21829916661227694,
                -0.16790360510368746
            ]
        },
        {
            "positions": [
                0.3195061148489621,
                -2.2132695878251285,
                -2.1819173710363207,
                1.6579416341919835,
                0.14545474935343802,
                -0.2847315147214069
            ]
        },
        {
            "positions": [
                0.304752196334474,
                -2.2096346062205483,
                -2.1673325033627493,
                1.491541738702482,
                0.07261033209459913,
                -0.40155942433912634
            ]
        },
        {
            "positions": [
                0.2899982778199859,
                -2.205999624615968,
                -2.1527476356891784,
                1.3251418432129807,
                -0.00023408516423978343,
                -0.5183873339568458
            ]
        },
        {
            "positions": [
                0.27524435930549784,
                -2.202364643011388,
                -2.138162768015607,
                1.1587419477234793,
                -0.07307850242307867,
                -0.6352152435745653
            ]
        },
        {
            "positions": [
                0.26049044079100975,
                -2.198729661406808,
                -2.123577900342036,
                0.9923420522339779,
                -0.14592291968191756,
                -0.7520431531922847
            ]
        },
        {
            "positions": [
                0.24573652227652165,
                -2.195094679802228,
                -2.1089930326684647,
                0.8259421567444765,
                -0.21876733694075645,
                -0.868871062810004
            ]
        },
        {
            "positions": [
                0.23098260376203356,
                -2.1914596981976477,
                -2.094408164994894,
                0.6595422612549751,
                -0.2916117541995954,
                -0.9856989724277235
            ]
        },
        {
            "positions": [
                0.2162286852475455,
                -2.1878247165930675,
                -2.0798232973213224,
                0.49314236576547366,
                -0.36445617145843423,
                -1.102526882045443
            ]
        },
        {
            "positions": [
                0.2014747667330574,
                -2.184189734988488,
                -2.065238429647751,
                0.32674247027597225,
                -0.4373005887172732,
                -1.2193547916631626
            ]
        },
        {
            "positions": [
                0.1867208482185693,
                -2.1805547533839076,
                -2.05065356197418,
                0.16034257478647085,
                -0.510145005976112,
                -1.3361827012808818
            ]
        },
        {
            "positions": [
                0.1719669297040812,
                -2.1769197717793274,
                -2.0360686943006088,
                -0.006057320703030555,
                -0.582989423234951,
                -1.4530106108986014
            ]
        },
        {
            "positions": [
                0.15721301118959313,
                -2.1732847901747476,
                -2.021483826627038,
                -0.17245721619253196,
                -0.6558338404937898,
                -1.5698385205163206
            ]
        },
        {
            "positions": [
                0.14245909267510506,
                -2.1696498085701674,
                -2.0068989589534665,
                -0.33885711168203336,
                -0.7286782577526287,
                -1.6866664301340402
            ]
        },
        {
            "positions": [
                0.12770517416061697,
                -2.1660148269655872,
                -1.9923140912798953,
                -0.5052570071715348,
                -0.8015226750114675,
                -1.8034943397517593
            ]
        },
        {
            "positions": [
                0.11295125564612885,
                -2.162379845361007,
                -1.9777292236063242,
                -0.6716569026610362,
                -0.8743670922703066,
                -1.920322249369479
            ]
        },
        {
            "positions": [
                0.0981973371316408,
                -2.1587448637564273,
                -1.963144355932753,
                -0.8380567981505376,
                -0.9472115095291453,
                -2.0371501589871985
            ]
        },
        {
            "positions": [
                0.08344341861715271,
                -2.155109882151847,
                -1.948559488259182,
                -1.004456693640039,
                -1.0200559267879843,
                -2.1539780686049177
            ]
        },
        {
            "positions": [
                0.06868950010266461,
                -2.151474900547267,
                -1.9339746205856108,
                -1.1708565891295404,
                -1.092900344046823,
                -2.270805978222637
            ]
        },
        {
            "positions": [
                0.05393558158817652,
                -2.1478399189426867,
                -1.9193897529120396,
                -1.3372564846190418,
                -1.1657447613056622,
                -2.387633887840357
            ]
        },
        {
            "positions": [
                0.03918166307368842,
                -2.144204937338107,
                -1.9048048852384682,
                -1.5036563801085432,
                -1.238589178564501,
                -2.504461797458076
            ]
        },
        {
            "positions": [
                0.024427744559200326,
                -2.1405699557335267,
                -1.8902200175648973,
                -1.6700562755980446,
                -1.3114335958233398,
                -2.6212897070757952
            ]
        },
        {
            "positions": [
                0.009673826044712286,
                -2.1369349741289465,
                -1.875635149891326,
                -1.836456171087546,
                -1.3842780130821786,
                -2.738117616693515
            ]
        },
        {
            "positions": [
                -0.005080092469775865,
                -2.1332999925243663,
                -1.8610502822177548,
                -2.0028560665770474,
                -1.4571224303410177,
                -2.8549455263112344
            ]
        },
        {
            "positions": [
                -0.019834010984263906,
                -2.1296650109197865,
                -1.8464654145441837,
                -2.169255962066549,
                -1.5299668475998565,
                -2.971773435928954
            ]
        },
        {
            "positions": [
                -0.034587929498752,
                -2.1260300293152063,
                -1.8318805468706125,
                -2.3356558575560507,
                -1.6028112648586954,
                -3.088601345546673
            ]
        }
    ]
}