{
    "goal": {
        "global_pose": {
            "orientation": {
                "w": 0.5084816217422485,
                "x": -0.49083608388900757,
                "y": 0.5182115435600281,
                "z": -0.4816462993621826
            },
            "position": {
                "x": 0.5540239810943604,
                "y": 0.030875300988554955,
                "z": 0.16403168439865112
            }
        },
        "name": "move_to_storage_A"
    },
    "id": "BiTRRT_move_to_storage_A_42",
    "joint_names": [
        "shoulder_pan_joint",
        "shoulder_lift_joint",
        "elbow_joint",
        "wrist_1_joint",
        "wrist_2_joint",
        "wrist_3_joint"
    ],
    "metrics": {
        "cart_traj_len": 0.3523798548011307,
        "distance_elbow_joint": 0.4497257729026687,
        "distance_shoulder_lift_joint": 0.23584429685530028,
        "distance_shoulder_pan_joint": 0.4595207624559835,
        "distance_wrist_1_joint": 0.23691675655797562,
        "distance_wrist_2_joint": 1.1039242845151684,
        "distance_wrist_3_joint": 0.10094667389379719,
        "smoothness": 4.440892133664971e-16,
        "time": 0.047675535,
        "traj_len": 1.6083776133672385,
        "weighted_distance": 2.0321449101975064
    },
    "planner": "BiTRRT",
    "start": {
        "state": {
            "elbow_joint": 1.971548259319323,
            "shoulder_lift_joint": -1.1394851275133948,
            "shoulder_pan_joint": 0.1228115487234821,
            "wrist_1_joint": -0.7804723859257726,
            "wrist_2_joint": 0.12958671773740124,
            "wrist_3_joint": -3.192489227718131
        }
    },
    "waypoints": [
        {
            "positions": [
                0.1228115487234821,
                -1.1394851275133948,
                1.971548259319323,
                -0.7804723859257726,
                0.12958671773740124,
                -3.192489227718131
            ]
        },
        {
            "positions": [
                0.05716572551548446,
                -1.173177169921295,
                2.0357947983054183,
                -0.8143176368626263,
                0.2872901869538539,
                -3.1780682743047315
            ]
        },
        {
            "positions": [
                -0.008480097692513178,
                -1.2068692123291949,
                2.100041337291514,
                -0.8481628877994799,
                0.4449936561703065,
                -3.163647320891332
            ]
        },
        {
            "positions": [
                -0.07412592090051082,
                -1.240561254737095,
                2.1642878762776094,
                -0.8820081387363335,
                0.6026971253867591,
                -3.149226367477932
            ]
        },
        {
            "positions": [
                -0.13977174410850846,
                -1.274253297144995,
                2.228534415263705,
                -0.9158533896731873,
                0.7604005946032117,
                -3.134805414064533
            ]
        },
        {
            "positions": [
                -0.20541756731650612,
                -1.307945339552895,
                2.2927809542498006,
                -0.949698640610041,
                0.9181040638196645,
                -3.1203844606511333
            ]
        },
        {
            "positions": [
                -0.27106339052450373,
                -1.341637381960795,
                2.357027493235896,
                -0.9835438915468946,
                1.075807533036117,
                -3.1059635072377336
            ]
        },
        {
            "positions": [
                -0.3367092137325014,
                -1.375329424368695,
                2.4212740322219917,
                -1.0173891424837482,
                1.2335110022525697,
                -3.091542553824334
            ]
        }
    ]
}{
    "goal": {
        "global_pose": {
            "orientation": {
                "w": 0.5084816217422485,
                "x": -0.49083608388900757,
                "y": 0.5182115435600281,
                "z": -0.4816462993621826
            },
            "position": {
                "x": 0.5540239810943604,
                "y": 0.030875300988554955,
                "z": 0.16403168439865112
            }
        },
        "name": "move_to_storage_A"
    },
    "id": "BiTRRT_move_to_storage_A_42",
    "joint_names": [
        "shoulder_pan_joint",
        "shoulder_lift_joint",
        "elbow_joint",
        "wrist_1_joint",
        "wrist_2_joint",
        "wrist_3_joint"
    ],
    "metrics": {
        "cart_traj_len": 0.35324427238871325,
        "distance_elbow_joint": 0.44737522788244055,
        "distance_shoulder_lift_joint": 0.23546312216516774,
        "distance_shoulder_pan_joint": 0.4630488807045609,
        "distance_wrist_1_joint": 0.2333906499945515,
        "distance_wrist_2_joint": 1.0941761524180604,
        "distance_wrist_3_joint": 0.0901066274407043,
        "smoothness": 2.2204460668324854e-16,
        "time": 0.042743505,
        "traj_len": 1.6011123197969235,
        "weighted_distance": 2.0177563574176904
    },
    "planner": "BiTRRT",
    "start": {
        "state": {
            "elbow_joint": 1.97154746011099,
            "shoulder_lift_joint": -1.13948474672311,
            "shoulder_pan_joint": 0.12281154466712228,
            "wrist_1_joint": -0.7804688027058302,
            "wrist_2_joint": 0.12958655903071145,
            "wrist_3_joint": 3.0906928834467795
        }
    },
    "waypoints": [
        {
            "positions": [
                0.12281154466712228,
                -1.13948474672311,
                1.97154746011099,
                -0.7804688027058302,
                0.12958655903071145,
                3.0906928834467795
            ]
        },
        {
            "positions": [
                0.056661704566470725,
                -1.1731223356038483,
                2.0354582069513385,
                -0.8138103241336233,
                0.2858974379475772,
                3.1035652587954514
            ]
        },
        {
            "positions": [
                -0.009488135534180833,
                -1.2067599244845864,
                2.099368953791687,
                -0.8471518455614163,
                0.44220831686444295,
                3.116437634144124
            ]
        },
        {
            "positions": [
                -0.07563797563483239,
                -1.2403975133653247,
                2.1632797006320357,
                -0.8804933669892094,
                0.5985191957813087,
                3.1293100094927957
            ]
        },
        {
            "positions": [
                -0.14178781573548394,
                -1.274035102246063,
                2.2271904474723847,
                -0.9138348884170024,
                0.7548300746981745,
                3.1421823848414676
            ]
        },
        {
            "positions": [
                -0.2079376558361355,
                -1.3076726911268013,
                2.2911011943127333,
                -0.9471764098447956,
                0.9111409536150403,
                3.1550547601901395
            ]
        },
        {
            "positions": [
                -0.27408749593678705,
                -1.3413102800075394,
                2.355011941153082,
                -0.9805179312725886,
                1.067451832531906,
                3.167927135538812
            ]
        },
        {
            "positions": [
                -0.3402373360374386,
                -1.3749478688882777,
                2.4189226879934305,
                -1.0138594527003817,
                1.223762711448772,
                3.180799510887484
            ]
        }
    ]
}{
    "goal": {
        "global_pose": {
            "orientation": {
                "w": 0.5084816217422485,
                "x": -0.49083608388900757,
                "y": 0.5182115435600281,
                "z": -0.4816462993621826
            },
            "position": {
                "x": 0.5540239810943604,
                "y": 0.030875300988554955,
                "z": 0.16403168439865112
            }
        },
        "name": "move_to_storage_A"
    },
    "id": "BiTRRT_move_to_storage_A_42",
    "joint_names": [
        "shoulder_pan_joint",
        "shoulder_lift_joint",
        "elbow_joint",
        "wrist_1_joint",
        "wrist_2_joint",
        "wrist_3_joint"
    ],
    "metrics": {
        "cart_traj_len": 0.3522825401910605,
        "distance_elbow_joint": 0.4492483762583208,
        "distance_shoulder_lift_joint": 0.2357245334514695,
        "distance_shoulder_pan_joint": 0.46145395567649955,
        "distance_wrist_1_joint": 0.23771856337663677,
        "distance_wrist_2_joint": 1.0944740487284785,
        "distance_wrist_3_joint": 0.09558214972199286,
        "smoothness": 2.2204460668324854e-16,
        "time": 0.042901442,
        "traj_len": 1.604431870542778,
        "weighted_distance": 2.0242427074742046
    },
    "planner": "BiTRRT",
    "start": {
        "state": {
            "elbow_joint": 1.9715472970024885,
            "shoulder_lift_joint": -1.1394870060712896,
            "shoulder_pan_joint": 0.12281152778156021,
            "wrist_1_joint": -0.780463741449964,
            "wrist_2_joint": 0.12958659822042276,
            "wrist_3_joint": 3.090690232415272
        }
    },
    "waypoints": [
        {
            "positions": [
                0.12281152778156021,
                -1.1394870060712896,
                1.9715472970024885,
                -0.780463741449964,
                0.12958659822042276,
                3.090690232415272
            ]
        },
        {
            "positions": [
                0.05688953411348886,
                -1.1731619394214996,
                2.035725636467963,
                -0.814423536218055,
                0.28594003375306254,
                3.1043448252326993
            ]
        },
        {
            "positions": [
                -0.009032459554582484,
                -1.2068368727717094,
                2.0999039759334375,
                -0.8483833309861459,
                0.44229346928570235,
                3.117999418050127
            ]
        },
        {
            "positions": [
                -0.07495445322265384,
                -1.2405118061219194,
                2.164082315398912,
                -0.8823431257542369,
                0.5986469048183422,
                3.1316540108675546
            ]
        },
        {
            "positions": [
                -0.14087644689072518,
                -1.2741867394721293,
                2.228260654864386,
                -0.9163029205223279,
                0.7550003403509818,
                3.145308603684982
            ]
        },
        {
            "positions": [
                -0.20679844055879656,
                -1.3078616728223393,
                2.2924389943298604,
                -0.9502627152904188,
                0.9113537758836217,
                3.1589631965024094
            ]
        },
        {
            "positions": [
                -0.27272043422686787,
                -1.341536606172549,
                2.356617333795335,
                -0.9842225100585098,
                1.0677072114162616,
                3.1726177893198373
            ]
        },
        {
            "positions": [
                -0.3386424278949393,
                -1.375211539522759,
                2.4207956732608094,
                -1.0181823048266008,
                1.2240606469489013,
                3.1862723821372647
            ]
        }
    ]
}