{
    "goal": {
        "global_pose": {
            "orientation": {
                "w": 0.5084816217422485,
                "x": -0.49083608388900757,
                "y": 0.5182115435600281,
                "z": -0.4816462993621826
            },
            "position": {
                "x": 0.5540239810943604,
                "y": 0.030875300988554955,
                "z": 0.16403168439865112
            }
        },
        "name": "move_to_storage_A"
    },
    "id": "BiTRRT_move_to_storage_A_50",
    "joint_names": [
        "shoulder_pan_joint",
        "shoulder_lift_joint",
        "elbow_joint",
        "wrist_1_joint",
        "wrist_2_joint",
        "wrist_3_joint"
    ],
    "metrics": {
        "cart_traj_len": 0.35250736696338203,
        "distance_elbow_joint": 0.44799947312428023,
        "distance_shoulder_lift_joint": 0.23431003882557766,
        "distance_shoulder_pan_joint": 0.4572756949055399,
        "distance_wrist_1_joint": 0.2349739948923023,
        "distance_wrist_2_joint": 1.113350465937215,
        "distance_wrist_3_joint": 0.10384897655219572,
        "smoothness": 0.0,
        "time": 0.038170048,
        "traj_len": 1.6098939854031105,
        "weighted_distance": 2.0366101880750325
    },
    "planner": "BiTRRT",
    "start": {
        "state": {
            "elbow_joint": 1.971548259319323,
            "shoulder_lift_joint": -1.1394851275133948,
            "shoulder_pan_joint": 0.1228115487234821,
            "wrist_1_joint": -0.7804723859257726,
            "wrist_2_joint": 0.12958671773740124,
            "wrist_3_joint": -3.192489227718131
        }
    },
    "waypoints": [
        {
            "positions": [
                0.1228115487234821,
                -1.1394851275133948,
                1.971548259319323,
                -0.7804723859257726,
                0.12958671773740124,
                -3.192489227718131
            ]
        },
        {
            "positions": [
                0.05748644945126212,
                -1.1729579902027631,
                2.035548184051363,
                -0.8140400994818158,
                0.2886367842998605,
                -3.177653659639246
            ]
        },
        {
            "positions": [
                -0.00783864982095786,
                -1.2064308528921313,
                2.099548108783403,
                -0.847607813037859,
                0.44768685086231985,
                -3.1628180915603608
            ]
        },
        {
            "positions": [
                -0.07316374909317783,
                -1.2399037155814996,
                2.163548033515443,
                -0.8811755265939022,
                0.6067369174247791,
                -3.147982523481476
            ]
        },
        {
            "positions": [
                -0.13848884836539782,
                -1.2733765782708677,
                2.227547958247483,
                -0.9147432401499453,
                0.7657869839872384,
                -3.133146955402591
            ]
        },
        {
            "positions": [
                -0.20381394763761784,
                -1.306849440960236,
                2.2915478829795233,
                -0.9483109537059886,
                0.9248370505496978,
                -3.118311387323706
            ]
        },
        {
            "positions": [
                -0.26913904690983775,
                -1.3403223036496041,
                2.355547807711563,
                -0.9818786672620317,
                1.083887117112157,
                -3.1034758192448204
            ]
        },
        {
            "positions": [
                -0.3344641461820578,
                -1.3737951663389725,
                2.419547732443603,
                -1.015446380818075,
                1.2429371836746164,
                -3.0886402511659354
            ]
        }
    ]
}{
    "goal": {
        "global_pose": {
            "orientation": {
                "w": 0.5084816217422485,
                "x": -0.49083608388900757,
                "y": 0.5182115435600281,
                "z": -0.4816462993621826
            },
            "position": {
                "x": 0.5540239810943604,
                "y": 0.030875300988554955,
                "z": 0.16403168439865112
            }
        },
        "name": "move_to_storage_A"
    },
    "id": "BiTRRT_move_to_storage_A_50",
    "joint_names": [
        "shoulder_pan_joint",
        "shoulder_lift_joint",
        "elbow_joint",
        "wrist_1_joint",
        "wrist_2_joint",
        "wrist_3_joint"
    ],
    "metrics": {
        "cart_traj_len": 0.35220503636410294,
        "distance_elbow_joint": 0.44824322408605033,
        "distance_shoulder_lift_joint": 0.23598690889543006,
        "distance_shoulder_pan_joint": 0.4593687560030304,
        "distance_wrist_1_joint": 0.23510756857328796,
        "distance_wrist_2_joint": 1.1027308337251913,
        "distance_wrist_3_joint": 0.0891717059714967,
        "smoothness": 8.881784197001252e-16,
        "time": 0.041391170000000005,
        "traj_len": 1.6033118839622211,
        "weighted_distance": 2.0215812651229137
    },
    "planner": "BiTRRT",
    "start": {
        "state": {
            "elbow_joint": 1.97154746011099,
            "shoulder_lift_joint": -1.13948474672311,
            "shoulder_pan_joint": 0.12281154466712228,
            "wrist_1_joint": -0.7804688027058302,
            "wrist_2_joint": 0.12958655903071145,
            "wrist_3_joint": 3.0906928834467795
        }
    },
    "waypoints": [
        {
            "positions": [
                0.12281154466712228,
                -1.13948474672311,
                1.97154746011099,
                -0.7804688027058302,
                0.12958655903071145,
                3.0906928834467795
            ]
        },
        {
            "positions": [
                0.05718743666668938,
                -1.1731971622796,
                2.0355822064089972,
                -0.8140555982162999,
                0.2871195352771674,
                3.1034316985855646
            ]
        },
        {
            "positions": [
                -0.008436671333743526,
                -1.2069095778360899,
                2.099616952707004,
                -0.8476423937267696,
                0.4446525115236233,
                3.11617051372435
            ]
        },
        {
            "positions": [
                -0.07406077933417644,
                -1.24062199339258,
                2.1636516990050114,
                -0.8812291892372393,
                0.6021854877700792,
                3.128909328863135
            ]
        },
        {
            "positions": [
                -0.13968488733460932,
                -1.27433440894907,
                2.2276864453030187,
                -0.914815984747709,
                0.7597184640165351,
                3.1416481440019206
            ]
        },
        {
            "positions": [
                -0.20530899533504227,
                -1.30804682450556,
                2.291721191601026,
                -0.9484027802581787,
                0.917251440262991,
                3.1543869591407057
            ]
        },
        {
            "positions": [
                -0.27093310333547516,
                -1.34175924006205,
                2.355755937899033,
                -0.9819895757686484,
                1.074784416509447,
                3.167125774279491
            ]
        },
        {
            "positions": [
                -0.3365572113359081,
                -1.37547165561854,
                2.4197906841970402,
                -1.0155763712791182,
                1.2323173927559028,
                3.179864589418276
            ]
        }
    ]
}{
    "goal": {
        "global_pose": {
            "orientation": {
                "w": 0.5084816217422485,
                "x": -0.49083608388900757,
                "y": 0.5182115435600281,
                "z": -0.4816462993621826
            },
            "position": {
                "x": 0.5540239810943604,
                "y": 0.030875300988554955,
                "z": 0.16403168439865112
            }
        },
        "name": "move_to_storage_A"
    },
    "id": "BiTRRT_move_to_storage_A_50",
    "joint_names": [
        "shoulder_pan_joint",
        "shoulder_lift_joint",
        "elbow_joint",
        "wrist_1_joint",
        "wrist_2_joint",
        "wrist_3_joint"
    ],
    "metrics": {
        "cart_traj_len": 0.3532230734978784,
        "distance_elbow_joint": 0.44907311711857956,
        "distance_shoulder_lift_joint": 0.2351349129603777,
        "distance_shoulder_pan_joint": 0.46119969760471297,
        "distance_wrist_1_joint": 0.24271647464776125,
        "distance_wrist_2_joint": 1.1018594529403865,
        "distance_wrist_3_joint": 0.09443920418373919,
        "smoothness": 6.661338165333112e-16,
        "time": 0.033254193,
        "traj_len": 1.6076140268906454,
        "weighted_distance": 2.029255330265559
    },
    "planner": "BiTRRT",
    "start": {
        "state": {
            "elbow_joint": 1.9715472970024885,
            "shoulder_lift_joint": -1.1394870060712896,
            "shoulder_pan_joint": 0.12281152778156021,
            "wrist_1_joint": -0.780463741449964,
            "wrist_2_joint": 0.12958659822042276,
            "wrist_3_joint": 3.090690232415272
        }
    },
    "waypoints": [
        {
            "positions": [
                0.12281152778156021,
                -1.1394870060712896,
                1.9715472970024885,
                -0.780463741449964,
                0.12958659822042276,
                3.090690232415272
            ]
        },
        {
            "positions": [
                0.05692585669517265,
                -1.173077707922772,
                2.035700599448,
                -0.8151375235425014,
                0.2869950914976208,
                3.1041815472986634
            ]
        },
        {
            "positions": [
                -0.008959814391214904,
                -1.2066684097742546,
                2.0998539018935114,
                -0.8498113056350386,
                0.4444035847748189,
                3.1176728621820544
            ]
        },
        {
            "positions": [
                -0.07484548547760245,
                -1.240259111625737,
                2.164007204339023,
                -0.884485087727576,
                0.601812078052017,
                3.131164177065446
            ]
        },
        {
            "positions": [
                -0.14073115656399002,
                -1.2738498134772196,
                2.228160506784534,
                -0.9191588698201133,
                0.7592205713292149,
                3.144655491948837
            ]
        },
        {
            "positions": [
                -0.20661682765037762,
                -1.3074405153287023,
                2.2923138092300452,
                -0.9538326519126505,
                0.916629064606413,
                3.1581468068322285
            ]
        },
        {
            "positions": [
                -0.27250249873676513,
                -1.3410312171801848,
                2.3564671116755567,
                -0.9885064340051879,
                1.0740375578836112,
                3.1716381217156195
            ]
        },
        {
            "positions": [
                -0.33838816982315273,
                -1.3746219190316673,
                2.420620414121068,
                -1.0231802160977252,
                1.2314460511608092,
                3.185129436599011
            ]
        }
    ]
}