{
    "goal": {
        "global_pose": {
            "orientation": {
                "w": -0.4816463035849501,
                "x": 0.5182115481033762,
                "y": 0.4908360881923453,
                "z": -0.5084816262002911
            },
            "position": {
                "x": -0.8240239810943604,
                "y": 0.19912469901144506,
                "z": 0.16403168439865112
            }
        },
        "name": "move_to_storage_D"
    },
    "id": "BiTRRT_move_to_storage_D_138",
    "joint_names": [
        "shoulder_pan_joint",
        "shoulder_lift_joint",
        "elbow_joint",
        "wrist_1_joint",
        "wrist_2_joint",
        "wrist_3_joint"
    ],
    "metrics": {
        "cart_traj_len": 3.946682628548767,
        "distance_elbow_joint": 4.2085168037220235,
        "distance_shoulder_lift_joint": 1.2647531902038534,
        "distance_shoulder_pan_joint": 3.98744496265558,
        "distance_wrist_1_joint": 2.265053337324736,
        "distance_wrist_2_joint": 0.8872574458580879,
        "distance_wrist_3_joint": 3.1331738815679913,
        "smoothness": 0.10871027073615654,
        "time": 0.109670009,
        "traj_len": 3.9681481350035646,
        "weighted_distance": 5.016458727793051
    },
    "planner": "BiTRRT",
    "start": {
        "state": {
            "elbow_joint": -2.384821988534728,
            "shoulder_lift_joint": -2.2788054721415256,
            "shoulder_pan_joint": -0.1854694642142757,
            "wrist_1_joint": 1.4845938289331202,
            "wrist_2_joint": 0.17898776772866878,
            "wrist_3_joint": 0.037105688729662994
        }
    },
    "waypoints": [
        {
            "positions": [
                -0.1854694642142757,
                -2.2788054721415256,
                -2.384821988534728,
                1.4845938289331202,
                0.17898776772866878,
                0.037105688729662994
            ]
        },
        {
            "positions": [
                -0.07211113026514622,
                -2.2452338375579006,
                -2.2973144261848666,
                1.4570678167367246,
                0.19851133595331658,
                -0.06685941315282135
            ]
        },
        {
            "positions": [
                0.04124720368398327,
                -2.211662202974276,
                -2.209806863835005,
                1.429541804540329,
                0.21803490417796437,
                -0.17082451503530569
            ]
        },
        {
            "positions": [
                0.15460553763311277,
                -2.178090568390651,
                -2.1222993014851435,
                1.4020157923439334,
                0.2375584724026122,
                -0.27478961691779
            ]
        },
        {
            "positions": [
                0.2679638715822422,
                -2.144518933807026,
                -2.034791739135282,
                1.3744897801475378,
                0.25708204062726,
                -0.37875471880027434
            ]
        },
        {
            "positions": [
                0.38132220553137175,
                -2.1109472992234015,
                -1.9472841767854208,
                1.346963767951142,
                0.27660560885190777,
                -0.48271982068275865
            ]
        },
        {
            "positions": [
                0.4946805394805013,
                -2.0773756646397765,
                -1.859776614435559,
                1.3194377557547463,
                0.29612917707655556,
                -0.5866849225652431
            ]
        },
        {
            "positions": [
                0.6080388734296307,
                -2.0438040300561515,
                -1.7722690520856976,
                1.2919117435583507,
                0.31565274530120335,
                -0.6906500244477274
            ]
        },
        {
            "positions": [
                0.7213972073787602,
                -2.010232395472527,
                -1.6847614897358363,
                1.264385731361955,
                0.33517631352585114,
                -0.7946151263302117
            ]
        },
        {
            "positions": [
                0.8347555413278896,
                -1.976660760888902,
                -1.597253927385975,
                1.2368597191655595,
                0.35469988175049894,
                -0.898580228212696
            ]
        },
        {
            "positions": [
                0.9481138752770192,
                -1.9430891263052772,
                -1.5097463650361134,
                1.2093337069691639,
                0.3742234499751467,
                -1.0025453300951803
            ]
        },
        {
            "positions": [
                1.0614722092261484,
                -1.9095174917216524,
                -1.4222388026862518,
                1.1818076947727683,
                0.3937470181997945,
                -1.1065104319776646
            ]
        },
        {
            "positions": [
                1.1748305431752781,
                -1.8759458571380274,
                -1.3347312403363902,
                1.1542816825763726,
                0.41327058642444237,
                -1.2104755338601492
            ]
        },
        {
            "positions": [
                1.2881888771244077,
                -1.8423742225544024,
                -1.2472236779865289,
                1.126755670379977,
                0.4327941546490901,
                -1.3144406357426335
            ]
        },
        {
            "positions": [
                1.401547211073537,
                -1.8088025879707776,
                -1.1597161156366673,
                1.0992296581835812,
                0.45231772287373795,
                -1.4184057376251178
            ]
        },
        {
            "positions": [
                1.5149055450226665,
                -1.7752309533871529,
                -1.072208553286806,
                1.0717036459871858,
                0.4718412910983857,
                -1.522370839507602
            ]
        },
        {
            "positions": [
                1.628263878971796,
                -1.7416593188035279,
                -0.9847009909369446,
                1.04417763379079,
                0.49136485932303353,
                -1.6263359413900864
            ]
        },
        {
            "positions": [
                1.7416222129209253,
                -1.7080876842199033,
                -0.8971934285870831,
                1.0166516215943944,
                0.5108884275476813,
                -1.7303010432725707
            ]
        },
        {
            "positions": [
                1.8549805468700549,
                -1.6745160496362783,
                -0.8096858662372217,
                0.9891256093979988,
                0.5304119957723291,
                -1.834266145155055
            ]
        },
        {
            "positions": [
                1.9683388808191844,
                -1.6409444150526535,
                -0.7221783038873602,
                0.9615995972016032,
                0.5499355639969769,
                -1.9382312470375394
            ]
        },
        {
            "positions": [
                2.081697214768314,
                -1.6073727804690288,
                -0.6346707415374988,
                0.9340735850052075,
                0.5694591322216247,
                -2.0421963489200237
            ]
        },
        {
            "positions": [
                2.1950555487174435,
                -1.5738011458854038,
                -0.5471631791876372,
                0.9065475728088119,
                0.5889827004462724,
                -2.146161450802508
            ]
        },
        {
            "positions": [
                2.3084138826665725,
                -1.540229511301779,
                -0.4596556168377759,
                0.8790215606124163,
                0.6085062686709203,
                -2.2501265526849923
            ]
        },
        {
            "positions": [
                2.4217722166157025,
                -1.506657876718154,
                -0.3721480544879143,
                0.8514955484160206,
                0.6280298368955681,
                -2.354091654567477
            ]
        },
        {
            "positions": [
                2.535130550564832,
                -1.4730862421345292,
                -0.28464049213805254,
                0.823969536219625,
                0.6475534051202159,
                -2.4580567564499614
            ]
        },
        {
            "positions": [
                2.6484888845139616,
                -1.4395146075509042,
                -0.1971329297881912,
                0.7964435240232294,
                0.6670769733448637,
                -2.5620218583324457
            ]
        },
        {
            "positions": [
                2.761847218463091,
                -1.4059429729672794,
                -0.10962536743832985,
                0.7689175118268338,
                0.6866005415695114,
                -2.66598696021493
            ]
        },
        {
            "positions": [
                2.87520555241222,
                -1.3723713383836547,
                -0.0221178050884685,
                0.741391499630438,
                0.7061241097941593,
                -2.7699520620974143
            ]
        },
        {
            "positions": [
                2.9885638863613497,
                -1.3387997038000297,
                0.06538975726139329,
                0.7138654874340424,
                0.725647678018807,
                -2.8739171639798986
            ]
        },
        {
            "positions": [
                3.1019222203104793,
                -1.305228069216405,
                0.15289731961125463,
                0.6863394752376468,
                0.7451712462434549,
                -2.977882265862383
            ]
        },
        {
            "positions": [
                3.215280554259609,
                -1.27165643463278,
                0.24040488196111576,
                0.6588134630412512,
                0.7646948144681026,
                -3.0818473677448672
            ]
        },
        {
            "positions": [
                3.161944650243091,
                -1.2482378752968613,
                0.3843403304362229,
                0.5279704656382633,
                0.792108487115253,
                -3.0831401700260908
            ]
        },
        {
            "positions": [
                3.1086087462265732,
                -1.2248193159609424,
                0.52827577891133,
                0.3971274682352754,
                0.8195221597624034,
                -3.0844329723073147
            ]
        },
        {
            "positions": [
                3.0552728422100555,
                -1.2014007566250235,
                0.6722112273864371,
                0.2662844708322875,
                0.8469358324095537,
                -3.0857257745885383
            ]
        },
        {
            "positions": [
                3.0019369381935377,
                -1.1779821972891045,
                0.8161466758615443,
                0.13544147342929957,
                0.8743495050567041,
                -3.087018576869762
            ]
        },
        {
            "positions": [
                2.94860103417702,
                -1.1545636379531856,
                0.9600821243366514,
                0.004598476026311693,
                0.9017631777038544,
                -3.0883113791509857
            ]
        },
        {
            "positions": [
                2.895265130160502,
                -1.1311450786172668,
                1.1040175728117585,
                -0.1262445213766762,
                0.9291768503510047,
                -3.0896041814322097
            ]
        },
        {
            "positions": [
                2.8419292261439844,
                -1.107726519281348,
                1.2479530212868657,
                -0.25708751877966407,
                0.9565905229981552,
                -3.0908969837134332
            ]
        },
        {
            "positions": [
                2.7885933221274666,
                -1.0843079599454288,
                1.391888469761973,
                -0.38793051618265206,
                0.9840041956453055,
                -3.092189785994657
            ]
        },
        {
            "positions": [
                2.735257418110949,
                -1.06088940060951,
                1.53582391823708,
                -0.51877351358564,
                1.011417868292456,
                -3.0934825882758807
            ]
        },
        {
            "positions": [
                2.681921514094431,
                -1.0374708412735911,
                1.679759366712187,
                -0.6496165109886278,
                1.0388315409396063,
                -3.0947753905571047
            ]
        },
        {
            "positions": [
                2.6285856100779132,
                -1.0140522819376723,
                1.8236948151872943,
                -0.7804595083916157,
                1.0662452135867566,
                -3.0960681928383282
            ]
        }
    ]
}