{
    "goal": {
        "global_pose": {
            "orientation": {
                "w": 0.7031023480610252,
                "x": -0.7110244013736278,
                "y": 0.0077485991402295624,
                "z": 0.005598929693374583
            },
            "position": {
                "x": -0.8841497679147869,
                "y": 0.44412534475326537,
                "z": 0.3711530566215515
            }
        },
        "name": "move_to_auspresseinheit_D"
    },
    "id": "BiTRRT_move_to_auspresseinheit_D_121",
    "joint_names": [
        "shoulder_pan_joint",
        "shoulder_lift_joint",
        "elbow_joint",
        "wrist_1_joint",
        "wrist_2_joint",
        "wrist_3_joint"
    ],
    "metrics": {
        "cart_traj_len": 0.34465258161030443,
        "distance_elbow_joint": 0.6522186381864914,
        "distance_shoulder_lift_joint": 0.1286696836039729,
        "distance_shoulder_pan_joint": 0.13453864041176206,
        "distance_wrist_1_joint": 0.5676858997144465,
        "distance_wrist_2_joint": 1.4472579979750007,
        "distance_wrist_3_joint": 0.025220363315233474,
        "smoothness": 3.947459674368863e-16,
        "time": 0.026631187,
        "traj_len": 1.7191833012238418,
        "weighted_distance": 2.2407534106917746
    },
    "planner": "BiTRRT",
    "start": {
        "state": {
            "elbow_joint": -1.8275523626775212,
            "shoulder_lift_joint": -2.126789852344167,
            "shoulder_pan_joint": -0.03513704404078235,
            "wrist_1_joint": -2.347782403156801,
            "wrist_2_joint": -1.6058999987535132,
            "wrist_3_joint": -3.0880379163319196
        }
    },
    "waypoints": [
        {
            "positions": [
                -0.03513704404078235,
                -2.126789852344167,
                -1.8275523626775212,
                -2.347782403156801,
                -1.6058999987535132,
                -3.0880379163319196
            ]
        },
        {
            "positions": [
                -0.051954374092252606,
                -2.1428735627946636,
                -1.7460250329042097,
                -2.418743140621107,
                -1.424992749006638,
                -3.0848853709175152
            ]
        },
        {
            "positions": [
                -0.06877170414372286,
                -2.15895727324516,
                -1.6644977031308983,
                -2.4897038780854124,
                -1.244085499259763,
                -3.0817328255031113
            ]
        },
        {
            "positions": [
                -0.08558903419519312,
                -2.1750409836956566,
                -1.5829703733575868,
                -2.5606646155497184,
                -1.0631782495128879,
                -3.078580280088707
            ]
        },
        {
            "positions": [
                -0.10240636424666338,
                -2.1911246941461533,
                -1.5014430435842754,
                -2.631625353014024,
                -0.8822709997660129,
                -3.075427734674303
            ]
        },
        {
            "positions": [
                -0.11922369429813365,
                -2.20720840459665,
                -1.4199157138109642,
                -2.70258609047833,
                -0.7013637500191378,
                -3.0722751892598987
            ]
        },
        {
            "positions": [
                -0.13604102434960388,
                -2.2232921150471467,
                -1.3383883840376527,
                -2.773546827942636,
                -0.5204565002722628,
                -3.0691226438454944
            ]
        },
        {
            "positions": [
                -0.15285835440107415,
                -2.239375825497643,
                -1.2568610542643412,
                -2.8445075654069414,
                -0.33954925052538765,
                -3.0659700984310905
            ]
        },
        {
            "positions": [
                -0.1696756844525444,
                -2.2554595359481397,
                -1.1753337244910298,
                -2.9154683028712474,
                -0.15864200077851248,
                -3.062817553016686
            ]
        }
    ]
}