{
    "goal": {
        "global_pose": {
            "orientation": {
                "w": -0.4816463035849501,
                "x": 0.5182115481033762,
                "y": 0.4908360881923453,
                "z": -0.5084816262002911
            },
            "position": {
                "x": -0.8240239810943604,
                "y": 0.19912469901144506,
                "z": 0.16403168439865112
            }
        },
        "name": "move_to_storage_D"
    },
    "id": "BiTRRT_move_to_storage_D_53",
    "joint_names": [
        "shoulder_pan_joint",
        "shoulder_lift_joint",
        "elbow_joint",
        "wrist_1_joint",
        "wrist_2_joint",
        "wrist_3_joint"
    ],
    "metrics": {
        "cart_traj_len": 3.8128099209331956,
        "distance_elbow_joint": 4.229368071318105,
        "distance_shoulder_lift_joint": 1.2654505429863918,
        "distance_shoulder_pan_joint": 2.8122424015029397,
        "distance_wrist_1_joint": 2.274514346052256,
        "distance_wrist_2_joint": 1.0507409083023962,
        "distance_wrist_3_joint": 3.2430048080659497,
        "smoothness": 0.17123339359903578,
        "time": 0.100047757,
        "traj_len": 3.856853779731355,
        "weighted_distance": 4.968559745913758
    },
    "planner": "BiTRRT",
    "start": {
        "state": {
            "elbow_joint": -2.384821988534728,
            "shoulder_lift_joint": -2.2788054721415256,
            "shoulder_pan_joint": -0.1854694642142757,
            "wrist_1_joint": 1.4845938289331202,
            "wrist_2_joint": 0.17898776772866878,
            "wrist_3_joint": 0.037105688729662994
        }
    },
    "waypoints": [
        {
            "positions": [
                -0.1854694642142757,
                -2.2788054721415256,
                -2.384821988534728,
                1.4845938289331202,
                0.17898776772866878,
                0.037105688729662994
            ]
        },
        {
            "positions": [
                -0.1507857644434424,
                -2.2193620613552865,
                -2.38971185139504,
                1.4412743090511944,
                0.13309101142952445,
                0.06607392845067245
            ]
        },
        {
            "positions": [
                -0.11610206467260911,
                -2.1599186505690473,
                -2.3946017142553524,
                1.3979547891692685,
                0.08719425513038012,
                0.0950421681716819
            ]
        },
        {
            "positions": [
                -0.040838370014630976,
                -2.1289257428935158,
                -2.2837337157404107,
                1.3343713069489678,
                0.11037958749376744,
                0.008571816552664188
            ]
        },
        {
            "positions": [
                0.03442532464334716,
                -2.0979328352179847,
                -2.1728657172254695,
                1.270787824728667,
                0.13356491985715477,
                -0.07789853506635352
            ]
        },
        {
            "positions": [
                0.1096890193013253,
                -2.066939927542453,
                -2.061997718710528,
                1.2072043425083663,
                0.1567502522205421,
                -0.16436888668537122
            ]
        },
        {
            "positions": [
                0.18495271395930343,
                -2.0359470198669216,
                -1.9511297201955866,
                1.1436208602880655,
                0.17993558458392941,
                -0.2508392383043889
            ]
        },
        {
            "positions": [
                0.26021640861728157,
                -2.0049541121913905,
                -1.840261721680645,
                1.0800373780677648,
                0.20312091694731674,
                -0.33730958992340665
            ]
        },
        {
            "positions": [
                0.3354801032752597,
                -1.973961204515859,
                -1.7293937231657035,
                1.016453895847464,
                0.22630624931070406,
                -0.4237799415424244
            ]
        },
        {
            "positions": [
                0.4107437979332379,
                -1.9429682968403277,
                -1.618525724650762,
                0.9528704136271634,
                0.24949158167409138,
                -0.5102502931614421
            ]
        },
        {
            "positions": [
                0.486007492591216,
                -1.9119753891647964,
                -1.5076577261358206,
                0.8892869314068627,
                0.27267691403747873,
                -0.5967206447804598
            ]
        },
        {
            "positions": [
                0.5612711872491941,
                -1.8809824814892648,
                -1.3967897276208792,
                0.8257034491865619,
                0.295862246400866,
                -0.6831909963994776
            ]
        },
        {
            "positions": [
                0.6365348819071722,
                -1.8499895738137335,
                -1.2859217291059377,
                0.7621199669662612,
                0.3190475787642534,
                -0.7696613480184953
            ]
        },
        {
            "positions": [
                0.7117985765651504,
                -1.8189966661382022,
                -1.1750537305909963,
                0.6985364847459604,
                0.34223291112764065,
                -0.856131699637513
            ]
        },
        {
            "positions": [
                0.7870622712231286,
                -1.7880037584626707,
                -1.0641857320760546,
                0.6349530025256598,
                0.365418243491028,
                -0.9426020512565306
            ]
        },
        {
            "positions": [
                0.8623259658811067,
                -1.7570108507871394,
                -0.9533177335611132,
                0.571369520305359,
                0.3886035758544153,
                -1.0290724028755482
            ]
        },
        {
            "positions": [
                0.9375896605390849,
                -1.726017943111608,
                -0.8424497350461717,
                0.5077860380850583,
                0.4117889082178027,
                -1.115542754494566
            ]
        },
        {
            "positions": [
                1.0128533551970629,
                -1.6950250354360765,
                -0.7315817365312303,
                0.44420255586475754,
                0.43497424058118994,
                -1.2020131061135837
            ]
        },
        {
            "positions": [
                1.088117049855041,
                -1.6640321277605452,
                -0.6207137380162888,
                0.3806190736444568,
                0.4581595729445773,
                -1.2884834577326014
            ]
        },
        {
            "positions": [
                1.163380744513019,
                -1.633039220085014,
                -0.5098457395013474,
                0.31703559142415605,
                0.4813449053079646,
                -1.3749538093516191
            ]
        },
        {
            "positions": [
                1.2386444391709972,
                -1.6020463124094824,
                -0.3989777409864059,
                0.2534521092038553,
                0.504530237671352,
                -1.4614241609706369
            ]
        },
        {
            "positions": [
                1.3139081338289753,
                -1.571053404733951,
                -0.28810974247146426,
                0.18986862698355456,
                0.5277155700347392,
                -1.5478945125896546
            ]
        },
        {
            "positions": [
                1.3891718284869534,
                -1.5400604970584197,
                -0.17724174395652303,
                0.1262851447632538,
                0.5509009023981266,
                -1.6343648642086723
            ]
        },
        {
            "positions": [
                1.4644355231449318,
                -1.5090675893828882,
                -0.06637374544158137,
                0.06270166254295306,
                0.5740862347615139,
                -1.72083521582769
            ]
        },
        {
            "positions": [
                1.5396992178029099,
                -1.478074681707357,
                0.04449425307335986,
                -0.0008818196773476839,
                0.5972715671249013,
                -1.8073055674467078
            ]
        },
        {
            "positions": [
                1.614962912460888,
                -1.4470817740318256,
                0.15536225158830153,
                -0.06446530189764843,
                0.6204568994882886,
                -1.8937759190657255
            ]
        },
        {
            "positions": [
                1.690226607118866,
                -1.416088866356294,
                0.2662302501032432,
                -0.12804878411794895,
                0.6436422318516759,
                -1.980246270684743
            ]
        },
        {
            "positions": [
                1.7654903017768442,
                -1.3850959586807627,
                0.3770982486181844,
                -0.1916322663382497,
                0.6668275642150632,
                -2.066716622303761
            ]
        },
        {
            "positions": [
                1.8407539964348223,
                -1.3541030510052314,
                0.4879662471331261,
                -0.25521574855855045,
                0.6900128965784506,
                -2.1531869739227787
            ]
        },
        {
            "positions": [
                1.9160176910928004,
                -1.3231101433297,
                0.5988342456480673,
                -0.3187992307788512,
                0.7131982289418379,
                -2.2396573255417964
            ]
        },
        {
            "positions": [
                1.9912813857507787,
                -1.2921172356541686,
                0.709702244163009,
                -0.38238271299915194,
                0.7363835613052252,
                -2.326127677160814
            ]
        },
        {
            "positions": [
                2.0665450804087566,
                -1.2611243279786373,
                0.8205702426779502,
                -0.4459661952194527,
                0.7595688936686125,
                -2.412598028779832
            ]
        },
        {
            "positions": [
                2.141808775066735,
                -1.2301314203031057,
                0.9314382411928919,
                -0.5095496774397534,
                0.7827542260319998,
                -2.4990683803988496
            ]
        },
        {
            "positions": [
                2.217072469724713,
                -1.1991385126275746,
                1.042306239707833,
                -0.5731331596600542,
                0.8059395583953872,
                -2.5855387320178673
            ]
        },
        {
            "positions": [
                2.292336164382691,
                -1.1681456049520431,
                1.1531742382227748,
                -0.636716641880355,
                0.8291248907587745,
                -2.672009083636885
            ]
        },
        {
            "positions": [
                2.3592235189638857,
                -1.1371874697926612,
                1.2875367168466454,
                -0.6673574169281111,
                0.8725282427739172,
                -2.755612498999958
            ]
        },
        {
            "positions": [
                2.4261108735450803,
                -1.1062293346332794,
                1.421899195470516,
                -0.6979981919758672,
                0.9159315947890597,
                -2.839215914363031
            ]
        },
        {
            "positions": [
                2.492998228126275,
                -1.0752711994738975,
                1.5562616740943866,
                -0.7286389670236232,
                0.9593349468042024,
                -2.9228193297261034
            ]
        },
        {
            "positions": [
                2.5598855827074694,
                -1.0443130643145158,
                1.6906241527182575,
                -0.7592797420713793,
                1.002738298819345,
                -3.0064227450891763
            ]
        },
        {
            "positions": [
                2.626772937288664,
                -1.0133549291551338,
                1.8249866313421281,
                -0.7899205171191354,
                1.0461416508344876,
                -3.090026160452249
            ]
        }
    ]
}