{
    "goal": {
        "global_pose": {
            "orientation": {
                "w": -0.4816463035849501,
                "x": 0.5182115481033762,
                "y": 0.4908360881923453,
                "z": -0.5084816262002911
            },
            "position": {
                "x": -0.8240239810943604,
                "y": 0.19912469901144506,
                "z": 0.16403168439865112
            }
        },
        "name": "move_to_storage_D"
    },
    "id": "BiTRRT_move_to_storage_D_115",
    "joint_names": [
        "shoulder_pan_joint",
        "shoulder_lift_joint",
        "elbow_joint",
        "wrist_1_joint",
        "wrist_2_joint",
        "wrist_3_joint"
    ],
    "metrics": {
        "cart_traj_len": 3.968939354599216,
        "distance_elbow_joint": 4.779206714045037,
        "distance_shoulder_lift_joint": 1.2648592854486929,
        "distance_shoulder_pan_joint": 2.8138953141600362,
        "distance_wrist_1_joint": 2.2622561162318924,
        "distance_wrist_2_joint": 0.9180853999837311,
        "distance_wrist_3_joint": 3.737411208510461,
        "smoothness": 0.21621879948726475,
        "time": 0.13994990499999999,
        "traj_len": 3.9718653096976806,
        "weighted_distance": 5.141096961896012
    },
    "planner": "BiTRRT",
    "start": {
        "state": {
            "elbow_joint": -2.384821988534728,
            "shoulder_lift_joint": -2.2788054721415256,
            "shoulder_pan_joint": -0.1854694642142757,
            "wrist_1_joint": 1.4845938289331202,
            "wrist_2_joint": 0.17898776772866878,
            "wrist_3_joint": 0.037105688729662994
        }
    },
    "waypoints": [
        {
            "positions": [
                -0.1854694642142757,
                -2.2788054721415256,
                -2.384821988534728,
                1.4845938289331202,
                0.17898776772866878,
                0.037105688729662994
            ]
        },
        {
            "positions": [
                -0.008121223092775492,
                -2.223948498813339,
                -2.432418715081044,
                1.460778272677293,
                0.17623259148511267,
                0.08750981822873777
            ]
        },
        {
            "positions": [
                0.16922701802872472,
                -2.1690915254851526,
                -2.48001544162736,
                1.4369627164214658,
                0.17347741524155652,
                0.13791394772781257
            ]
        },
        {
            "positions": [
                0.346575259150225,
                -2.114234552156966,
                -2.527612168173676,
                1.4131471601656385,
                0.17072223899800038,
                0.18831807722688734
            ]
        },
        {
            "positions": [
                0.5239235002717252,
                -2.059377578828779,
                -2.575208894719992,
                1.3893316039098114,
                0.16796706275444426,
                0.23872220672596212
            ]
        },
        {
            "positions": [
                0.7012717413932256,
                -2.0045206055005926,
                -2.622805621266308,
                1.3655160476539843,
                0.16521188651088814,
                0.2891263362250369
            ]
        },
        {
            "positions": [
                0.8786199825147256,
                -1.9496636321724061,
                -2.6704023478126238,
                1.341700491398157,
                0.162456710267332,
                0.3395304657241117
            ]
        },
        {
            "positions": [
                0.928614435869898,
                -1.9229288480158468,
                -2.5420130233907052,
                1.2811472691496733,
                0.18821540576797183,
                0.24138799625222568
            ]
        },
        {
            "positions": [
                0.9786088892250705,
                -1.8961940638592876,
                -2.413623698968787,
                1.2205940469011896,
                0.21397410126861166,
                0.1432455267803396
            ]
        },
        {
            "positions": [
                1.028603342580243,
                -1.8694592797027285,
                -2.285234374546869,
                1.1600408246527059,
                0.2397327967692515,
                0.04510305730845354
            ]
        },
        {
            "positions": [
                1.0785977959354154,
                -1.8427244955461692,
                -2.1568450501249505,
                1.0994876024042222,
                0.2654914922698913,
                -0.0530394121634325
            ]
        },
        {
            "positions": [
                1.1285922492905878,
                -1.81598971138961,
                -2.028455725703032,
                1.0389343801557385,
                0.29125018777053113,
                -0.15118188163531854
            ]
        },
        {
            "positions": [
                1.1785867026457604,
                -1.7892549272330507,
                -1.900066401281114,
                0.9783811579072548,
                0.317008883271171,
                -0.24932435110720463
            ]
        },
        {
            "positions": [
                1.2285811560009328,
                -1.7625201430764914,
                -1.7716770768591954,
                0.9178279356587711,
                0.34276757877181085,
                -0.34746682057909073
            ]
        },
        {
            "positions": [
                1.2785756093561051,
                -1.7357853589199321,
                -1.6432877524372773,
                0.8572747134102874,
                0.36852627427245066,
                -0.4456092900509767
            ]
        },
        {
            "positions": [
                1.3285700627112775,
                -1.709050574763373,
                -1.514898428015359,
                0.7967214911618037,
                0.39428496977309047,
                -0.5437517595228627
            ]
        },
        {
            "positions": [
                1.37856451606645,
                -1.6823157906068138,
                -1.3865091035934407,
                0.73616826891332,
                0.4200436652737303,
                -0.6418942289947488
            ]
        },
        {
            "positions": [
                1.4285589694216223,
                -1.6555810064502545,
                -1.2581197791715224,
                0.6756150466648363,
                0.4458023607743702,
                -0.740036698466635
            ]
        },
        {
            "positions": [
                1.478553422776795,
                -1.6288462222936952,
                -1.129730454749604,
                0.6150618244163526,
                0.47156105627501,
                -0.838179167938521
            ]
        },
        {
            "positions": [
                1.5285478761319673,
                -1.602111438137136,
                -1.0013411303276856,
                0.5545086021678689,
                0.49731975177564985,
                -0.9363216374104072
            ]
        },
        {
            "positions": [
                1.57854232948714,
                -1.5753766539805767,
                -0.8729518059057673,
                0.4939553799193852,
                0.5230784472762897,
                -1.034464106882293
            ]
        },
        {
            "positions": [
                1.628536782842312,
                -1.5486418698240176,
                -0.7445624814838492,
                0.4334021576709015,
                0.5488371427769294,
                -1.132606576354179
            ]
        },
        {
            "positions": [
                1.6785312361974847,
                -1.5219070856674584,
                -0.6161731570619309,
                0.3728489354224178,
                0.5745958382775693,
                -1.230749045826065
            ]
        },
        {
            "positions": [
                1.728525689552657,
                -1.495172301510899,
                -0.48778383264001235,
                0.3122957131739341,
                0.6003545337782092,
                -1.3288915152979515
            ]
        },
        {
            "positions": [
                1.7785201429078294,
                -1.4684375173543398,
                -0.35939450821809427,
                0.2517424909254504,
                0.6261132292788489,
                -1.427033984769837
            ]
        },
        {
            "positions": [
                1.8285145962630018,
                -1.4417027331977805,
                -0.23100518379617618,
                0.19118926867696673,
                0.6518719247794889,
                -1.5251764542417234
            ]
        },
        {
            "positions": [
                1.8785090496181742,
                -1.4149679490412215,
                -0.10261585937425766,
                0.13063604642848303,
                0.6776306202801287,
                -1.6233189237136094
            ]
        },
        {
            "positions": [
                1.9285035029733468,
                -1.388233164884662,
                0.02577346504766087,
                0.07008282417999934,
                0.7033893157807685,
                -1.7214613931854954
            ]
        },
        {
            "positions": [
                1.9784979563285192,
                -1.361498380728103,
                0.15416278946957895,
                0.009529601931515641,
                0.7291480112814084,
                -1.8196038626573818
            ]
        },
        {
            "positions": [
                2.0284924096836914,
                -1.3347635965715436,
                0.2825521138914975,
                -0.051023620316968055,
                0.7549067067820482,
                -1.9177463321292678
            ]
        },
        {
            "positions": [
                2.078486863038864,
                -1.3080288124149844,
                0.41094143831341556,
                -0.11157684256545175,
                0.780665402282688,
                -2.015888801601154
            ]
        },
        {
            "positions": [
                2.1284813163940366,
                -1.281294028258425,
                0.5393307627353341,
                -0.17213006481393545,
                0.8064240977833279,
                -2.11403127107304
            ]
        },
        {
            "positions": [
                2.178475769749209,
                -1.2545592441018658,
                0.6677200871572526,
                -0.23268328706241914,
                0.8321827932839677,
                -2.212173740544926
            ]
        },
        {
            "positions": [
                2.2284702231043814,
                -1.2278244599453068,
                0.7961094115791707,
                -0.29323650931090284,
                0.8579414887846075,
                -2.310316210016812
            ]
        },
        {
            "positions": [
                2.2784646764595538,
                -1.2010896757887473,
                0.9244987360010892,
                -0.35378973155938653,
                0.8837001842852474,
                -2.408458679488698
            ]
        },
        {
            "positions": [
                2.3284591298147266,
                -1.1743548916321882,
                1.0528880604230073,
                -0.41434295380787045,
                0.9094588797858872,
                -2.506601148960584
            ]
        },
        {
            "positions": [
                2.3784535831698985,
                -1.1476201074756291,
                1.1812773848449254,
                -0.4748961760563539,
                0.9352175752865269,
                -2.60474361843247
            ]
        },
        {
            "positions": [
                2.4284480365250714,
                -1.1208853233190696,
                1.309666709266844,
                -0.5354493983048376,
                0.9609762707871669,
                -2.702886087904356
            ]
        },
        {
            "positions": [
                2.4784424898802433,
                -1.0941505391625106,
                1.438056033688762,
                -0.5960026205533213,
                0.9867349662878067,
                -2.801028557376242
            ]
        },
        {
            "positions": [
                2.528436943235416,
                -1.067415755005951,
                1.56644535811068,
                -0.656555842801805,
                1.0124936617884464,
                -2.8991710268481286
            ]
        },
        {
            "positions": [
                2.5784313965905885,
                -1.040680970849392,
                1.694834682532599,
                -0.7171090650502887,
                1.0382523572890863,
                -2.9973134963200145
            ]
        },
        {
            "positions": [
                2.628425849945761,
                -1.0139461866928328,
                1.8232240069545176,
                -0.7776622872987725,
                1.0640110527897262,
                -3.0954559657919005
            ]
        }
    ]
}