{
    "goal": {
        "global_pose": {
            "orientation": {
                "w": -0.00223480608172531,
                "x": 0.0024358444001904467,
                "y": 0.7094548369677653,
                "z": -0.704743149386269
            },
            "position": {
                "x": -0.37947507619857795,
                "y": -0.6371506643295288,
                "z": 0.19426114857196808
            }
        },
        "name": "move_to_magneteinheit_C"
    },
    "id": "BiTRRT_move_to_magneteinheit_C_150",
    "joint_names": [
        "shoulder_pan_joint",
        "shoulder_lift_joint",
        "elbow_joint",
        "wrist_1_joint",
        "wrist_2_joint",
        "wrist_3_joint"
    ],
    "metrics": {
        "cart_traj_len": 0.8558540027058796,
        "distance_elbow_joint": 0.1395259186717115,
        "distance_shoulder_lift_joint": 0.25966706851034504,
        "distance_shoulder_pan_joint": 1.218436761921456,
        "distance_wrist_1_joint": 1.918443266720585,
        "distance_wrist_2_joint": 1.2065020663600223,
        "distance_wrist_3_joint": 1.9651728876151608,
        "smoothness": 0.6781975866013283,
        "time": 0.121359403,
        "traj_len": 2.5899320396101673,
        "weighted_distance": 3.7098570158579167
    },
    "planner": "BiTRRT",
    "start": {
        "state": {
            "elbow_joint": 1.9565354010623817,
            "shoulder_lift_joint": -1.4165861575791021,
            "shoulder_pan_joint": -1.6717766225146293,
            "wrist_1_joint": -0.5286633292919765,
            "wrist_2_joint": 1.472756589071564,
            "wrist_3_joint": -3.1238370188695823
        }
    },
    "waypoints": [
        {
            "positions": [
                -1.6717766225146293,
                -1.4165861575791021,
                1.9565354010623817,
                -0.5286633292919765,
                1.472756589071564,
                -3.1238370188695823
            ]
        },
        {
            "positions": [
                -1.571906203418719,
                -1.4193944905705824,
                1.925466329240934,
                -0.4180666029736033,
                1.423378012830462,
                -3.0797001300930615
            ]
        },
        {
            "positions": [
                -1.5848688995420144,
                -1.4006571368767105,
                1.9266182351939143,
                -0.310142961592326,
                1.3118283356613856,
                -2.9731107234874607
            ]
        },
        {
            "positions": [
                -1.5978315956653095,
                -1.3819197831828383,
                1.9277701411468946,
                -0.20221932021104866,
                1.200278658492309,
                -2.8665213168818595
            ]
        },
        {
            "positions": [
                -1.610794291788605,
                -1.3631824294889663,
                1.928922047099875,
                -0.09429567882977127,
                1.0887289813232326,
                -2.7599319102762587
            ]
        },
        {
            "positions": [
                -1.6676171318501753,
                -1.342007423639241,
                1.9391682467770495,
                -0.03410413025627234,
                0.995921648658221,
                -2.6637995678461364
            ]
        },
        {
            "positions": [
                -1.724439971911746,
                -1.3208324177895157,
                1.9494144464542242,
                0.026087418317226593,
                0.9031143159932092,
                -2.5676672254160144
            ]
        },
        {
            "positions": [
                -1.7812628119733165,
                -1.2996574119397906,
                1.9596606461313988,
                0.0862789668907255,
                0.8103069833281976,
                -2.471534882985892
            ]
        },
        {
            "positions": [
                -1.8380856520348872,
                -1.2784824060900652,
                1.9699068458085736,
                0.14647051546422446,
                0.7174996506631859,
                -2.37540254055577
            ]
        },
        {
            "positions": [
                -1.8949084920964576,
                -1.25730740024034,
                1.980153045485748,
                0.20666206403772336,
                0.6246923179981743,
                -2.279270198125648
            ]
        },
        {
            "positions": [
                -2.060088170179594,
                -1.249481845672054,
                1.9755141523356343,
                0.23300211581000105,
                0.5729219490629136,
                -2.238860658655959
            ]
        },
        {
            "positions": [
                -2.2252678482627304,
                -1.2416562911037683,
                1.9708752591855203,
                0.25934216758227874,
                0.5211515801276531,
                -2.1984511191862706
            ]
        },
        {
            "positions": [
                -2.390447526345867,
                -1.2338307365354824,
                1.9662363660354065,
                0.28568221935455645,
                0.4693812111923924,
                -2.1580415797165817
            ]
        },
        {
            "positions": [
                -2.4543585107903794,
                -1.212548615904066,
                1.9784163864320006,
                0.12242628539058101,
                0.49152935526467156,
                -2.2046462306335477
            ]
        },
        {
            "positions": [
                -2.5182694952348923,
                -1.1912664952726493,
                1.9905964068285948,
                -0.04082964857339444,
                0.5136774993369507,
                -2.251250881550514
            ]
        },
        {
            "positions": [
                -2.582180479679405,
                -1.1699843746412328,
                2.002776427225189,
                -0.2040855825373699,
                0.5358256434092299,
                -2.29785553246748
            ]
        },
        {
            "positions": [
                -2.560522066366433,
                -1.1684946507233298,
                2.003439105218254,
                -0.32695156577379497,
                0.5631620946620326,
                -2.4697682316097325
            ]
        },
        {
            "positions": [
                -2.5388636530534607,
                -1.1670049268054268,
                2.0041017832113193,
                -0.4498175490102201,
                0.5904985459148353,
                -2.641680930751985
            ]
        },
        {
            "positions": [
                -2.517205239740489,
                -1.1655152028875237,
                2.0047644612043842,
                -0.5726835322466451,
                0.6178349971676379,
                -2.8135936298942372
            ]
        },
        {
            "positions": [
                -2.4955468264275167,
                -1.1640254789696207,
                2.0054271391974496,
                -0.6955495154830702,
                0.6451714484204406,
                -2.9855063290364896
            ]
        },
        {
            "positions": [
                -2.473888413114545,
                -1.1625357550517177,
                2.0060898171905146,
                -0.8184154987194953,
                0.6725078996732433,
                -3.157419028178742
            ]
        }
    ]
}