{
    "goal": {
        "global_pose": {
            "orientation": {
                "w": -0.4816463035849501,
                "x": 0.5182115481033762,
                "y": 0.4908360881923453,
                "z": -0.5084816262002911
            },
            "position": {
                "x": -0.8240239810943604,
                "y": -0.300875300988555,
                "z": 0.16403168439865112
            }
        },
        "name": "move_to_storage_C"
    },
    "id": "BiTRRT_move_to_storage_C_119",
    "joint_names": [
        "shoulder_pan_joint",
        "shoulder_lift_joint",
        "elbow_joint",
        "wrist_1_joint",
        "wrist_2_joint",
        "wrist_3_joint"
    ],
    "metrics": {
        "cart_traj_len": 0.5765581627979439,
        "distance_elbow_joint": 0.25449714551594993,
        "distance_shoulder_lift_joint": 0.1882618059888952,
        "distance_shoulder_pan_joint": 0.49525469291042823,
        "distance_wrist_1_joint": 0.06970208019480661,
        "distance_wrist_2_joint": 1.0683467491693568,
        "distance_wrist_3_joint": 0.07459385777796745,
        "smoothness": 0.0,
        "time": 0.017111174,
        "traj_len": 1.4665116199871737,
        "weighted_distance": 1.8541555696536098
    },
    "planner": "BiTRRT",
    "start": {
        "state": {
            "elbow_joint": 2.010868314990456,
            "shoulder_lift_joint": -1.1634956873337592,
            "shoulder_pan_joint": -2.4736205022346125,
            "wrist_1_joint": -0.8367026794202681,
            "wrist_2_joint": 0.6746043897044499,
            "wrist_3_joint": -3.1496632123970403
        }
    },
    "waypoints": [
        {
            "positions": [
                -2.4736205022346125,
                -1.1634956873337592,
                2.010868314990456,
                -0.8367026794202681,
                0.6746043897044499,
                -3.1496632123970403
            ]
        },
        {
            "positions": [
                -2.5561629510530173,
                -1.1321187196689433,
                1.9684521240711308,
                -0.825085666054467,
                0.852662181232676,
                -3.137230902767379
            ]
        },
        {
            "positions": [
                -2.638705399871422,
                -1.1007417520041274,
                1.9260359331518058,
                -0.8134686526886659,
                1.0307199727609022,
                -3.124798593137718
            ]
        },
        {
            "positions": [
                -2.721247848689827,
                -1.0693647843393115,
                1.8836197422324807,
                -0.8018516393228647,
                1.2087777642891284,
                -3.1123662835080568
            ]
        },
        {
            "positions": [
                -2.803790297508231,
                -1.0379878166744958,
                1.841203551313156,
                -0.7902346259570637,
                1.3868355558173544,
                -3.0999339738783953
            ]
        },
        {
            "positions": [
                -2.886332746326636,
                -1.00661084900968,
                1.798787360393831,
                -0.7786176125912626,
                1.5648933473455806,
                -3.087501664248734
            ]
        },
        {
            "positions": [
                -2.9688751951450407,
                -0.975233881344864,
                1.7563711694745059,
                -0.7670005992254615,
                1.7429511388738068,
                -3.075069354619073
            ]
        }
    ]
}