{
    "goal": {
        "global_pose": {
            "orientation": {
                "w": 0.005598929693374612,
                "x": 0.007748599140229565,
                "y": 0.7110244013736278,
                "z": -0.7031023480610252
            },
            "position": {
                "x": 0.1141497679147869,
                "y": -0.7141253447532654,
                "z": 0.3711530566215515
            }
        },
        "name": "move_to_auspresseinheit_B"
    },
    "id": "BiTRRT_move_to_auspresseinheit_B_13",
    "joint_names": [
        "shoulder_pan_joint",
        "shoulder_lift_joint",
        "elbow_joint",
        "wrist_1_joint",
        "wrist_2_joint",
        "wrist_3_joint"
    ],
    "metrics": {
        "cart_traj_len": 0.5645773577575868,
        "distance_elbow_joint": 0.06417287834057994,
        "distance_shoulder_lift_joint": 0.2954581313726219,
        "distance_shoulder_pan_joint": 0.576622607762461,
        "distance_wrist_1_joint": 0.33296571718934664,
        "distance_wrist_2_joint": 0.9935471816835504,
        "distance_wrist_3_joint": 0.008728474690841814,
        "smoothness": 0.0,
        "time": 0.028070021,
        "traj_len": 1.50714796587442,
        "weighted_distance": 1.9014375717582692
    },
    "planner": "BiTRRT",
    "start": {
        "state": {
            "elbow_joint": 2.0193083361928714,
            "shoulder_lift_joint": -1.1220246554650708,
            "shoulder_pan_joint": -1.0952077554168747,
            "wrist_1_joint": -0.8559753972642168,
            "wrist_2_joint": 0.4759566250798843,
            "wrist_3_joint": -3.1240929996934557
        }
    },
    "waypoints": [
        {
            "positions": [
                -1.0952077554168747,
                -1.1220246554650708,
                2.0193083361928714,
                -0.8559753972642168,
                0.4759566250798843,
                -3.1240929996934557
            ]
        },
        {
            "positions": [
                -1.1913115233772849,
                -1.1712676773605077,
                2.0086128564694414,
                -0.8004811110659924,
                0.6415478220271427,
                -3.122638253911649
            ]
        },
        {
            "positions": [
                -1.287415291337695,
                -1.2205106992559447,
                1.9979173767460114,
                -0.7449868248677679,
                0.807139018974401,
                -3.1211835081298416
            ]
        },
        {
            "positions": [
                -1.3835190592981053,
                -1.2697537211513819,
                1.9872218970225815,
                -0.6894925386695434,
                0.9727302159216595,
                -3.1197287623480348
            ]
        },
        {
            "positions": [
                -1.4796228272585152,
                -1.3189967430468188,
                1.9765264172991515,
                -0.633998252471319,
                1.1383214128689179,
                -3.118274016566228
            ]
        },
        {
            "positions": [
                -1.5757265952189254,
                -1.3682397649422557,
                1.9658309375757215,
                -0.5785039662730946,
                1.3039126098161764,
                -3.1168192707844207
            ]
        },
        {
            "positions": [
                -1.6718303631793356,
                -1.4174827868376927,
                1.9551354578522915,
                -0.5230096800748701,
                1.4695038067634347,
                -3.115364525002614
            ]
        }
    ]
}