{
    "goal": {
        "global_pose": {
            "orientation": {
                "w": 0.7031023480610252,
                "x": -0.7110244013736278,
                "y": 0.0077485991402295624,
                "z": 0.005598929693374583
            },
            "position": {
                "x": -0.8841497679147869,
                "y": 0.44412534475326537,
                "z": 0.3711530566215515
            }
        },
        "name": "move_to_auspresseinheit_D"
    },
    "id": "BiTRRT_move_to_auspresseinheit_D_43",
    "joint_names": [
        "shoulder_pan_joint",
        "shoulder_lift_joint",
        "elbow_joint",
        "wrist_1_joint",
        "wrist_2_joint",
        "wrist_3_joint"
    ],
    "metrics": {
        "cart_traj_len": 0.34267740864428425,
        "distance_elbow_joint": 0.6316253742654467,
        "distance_shoulder_lift_joint": 0.11817926469749507,
        "distance_shoulder_pan_joint": 0.1342445102317018,
        "distance_wrist_1_joint": 0.5101453935796552,
        "distance_wrist_2_joint": 1.4343139295166032,
        "distance_wrist_3_joint": 0.017491268347191724,
        "smoothness": 1.9737298371844314e-16,
        "time": 0.047738151,
        "traj_len": 1.6870091110121763,
        "weighted_distance": 2.196688780967558
    },
    "planner": "BiTRRT",
    "start": {
        "state": {
            "elbow_joint": -1.8275523626775212,
            "shoulder_lift_joint": -2.126789852344167,
            "shoulder_pan_joint": -0.03513704404078235,
            "wrist_1_joint": -2.347782403156801,
            "wrist_2_joint": -1.6058999987535132,
            "wrist_3_joint": -3.0880379163319196
        }
    },
    "waypoints": [
        {
            "positions": [
                -0.03513704404078235,
                -2.126789852344167,
                -1.8275523626775212,
                -2.347782403156801,
                -1.6058999987535132,
                -3.0880379163319196
            ]
        },
        {
            "positions": [
                -0.051917607819745075,
                -2.141562260431354,
                -1.7485991908943403,
                -2.411550577354258,
                -1.4266107575639377,
                -3.0902243248753187
            ]
        },
        {
            "positions": [
                -0.06869817159870781,
                -2.1563346685185407,
                -1.6696460191111595,
                -2.4753187515517148,
                -1.2473215163743623,
                -3.0924107334187174
            ]
        },
        {
            "positions": [
                -0.08547873537767053,
                -2.1711070766057277,
                -1.5906928473279787,
                -2.5390869257491717,
                -1.068032275184787,
                -3.0945971419621165
            ]
        },
        {
            "positions": [
                -0.10225929915663326,
                -2.185879484692914,
                -1.5117396755447978,
                -2.6028550999466287,
                -0.8887430339952116,
                -3.0967835505055152
            ]
        },
        {
            "positions": [
                -0.11903986293559599,
                -2.200651892780101,
                -1.432786503761617,
                -2.666623274144085,
                -0.7094537928056361,
                -3.0989699590489144
            ]
        },
        {
            "positions": [
                -0.1358204267145587,
                -2.215424300867288,
                -1.3538333319784361,
                -2.730391448341542,
                -0.5301645516160609,
                -3.1011563675923135
            ]
        },
        {
            "positions": [
                -0.15260099049352144,
                -2.230196708954475,
                -1.2748801601952553,
                -2.794159622538999,
                -0.35087531042648545,
                -3.103342776135712
            ]
        },
        {
            "positions": [
                -0.16938155427248416,
                -2.244969117041662,
                -1.1959269884120745,
                -2.857927796736456,
                -0.17158606923691003,
                -3.1055291846791113
            ]
        }
    ]
}