{
    "goal": {
        "global_pose": {
            "orientation": {
                "w": 0.005598929693374612,
                "x": 0.007748599140229565,
                "y": 0.7110244013736278,
                "z": -0.7031023480610252
            },
            "position": {
                "x": 0.1141497679147869,
                "y": -0.7141253447532654,
                "z": 0.3711530566215515
            }
        },
        "name": "move_to_auspresseinheit_B"
    },
    "id": "BiTRRT_move_to_auspresseinheit_B_42",
    "joint_names": [
        "shoulder_pan_joint",
        "shoulder_lift_joint",
        "elbow_joint",
        "wrist_1_joint",
        "wrist_2_joint",
        "wrist_3_joint"
    ],
    "metrics": {
        "cart_traj_len": 0.5647613807941514,
        "distance_elbow_joint": 0.06461687841038866,
        "distance_shoulder_lift_joint": 0.29515164845349173,
        "distance_shoulder_pan_joint": 0.5759110915434682,
        "distance_wrist_1_joint": 0.338697857280684,
        "distance_wrist_2_joint": 1.0032315449899112,
        "distance_wrist_3_joint": 0.007360319685918881,
        "smoothness": 2.5376526478085547e-16,
        "time": 0.089677438,
        "traj_len": 1.5116115044428124,
        "weighted_distance": 1.9083027490433209
    },
    "planner": "BiTRRT",
    "start": {
        "state": {
            "elbow_joint": 2.0193083361928714,
            "shoulder_lift_joint": -1.1220246554650708,
            "shoulder_pan_joint": -1.0952077554168747,
            "wrist_1_joint": -0.8559753972642168,
            "wrist_2_joint": 0.4759566250798843,
            "wrist_3_joint": -3.1240929996934557
        }
    },
    "waypoints": [
        {
            "positions": [
                -1.0952077554168747,
                -1.1220246554650708,
                2.0193083361928714,
                -0.8559753972642168,
                0.4759566250798843,
                -3.1240929996934557
            ]
        },
        {
            "positions": [
                -1.191192937340786,
                -1.171216596873986,
                2.0085388564578066,
                -0.7995257543841028,
                0.6431618825782028,
                -3.1228662797458027
            ]
        },
        {
            "positions": [
                -1.2871781192646974,
                -1.2204085382829013,
                1.9977693767227418,
                -0.7430761115039888,
                0.8103671400765213,
                -3.121639559798149
            ]
        },
        {
            "positions": [
                -1.3831633011886089,
                -1.2696004796918166,
                1.986999896987677,
                -0.6866264686238748,
                0.9775723975748398,
                -3.1204128398504962
            ]
        },
        {
            "positions": [
                -1.4791484831125201,
                -1.318792421100732,
                1.9762304172526124,
                -0.6301768257437608,
                1.1447776550731583,
                -3.1191861199028432
            ]
        },
        {
            "positions": [
                -1.5751336650364314,
                -1.3679843625096473,
                1.9654609375175476,
                -0.5737271828636468,
                1.311982912571477,
                -3.11795939995519
            ]
        },
        {
            "positions": [
                -1.6711188469603429,
                -1.4171763039185625,
                1.9546914577824828,
                -0.5172775399835328,
                1.4791881700697955,
                -3.116732680007537
            ]
        }
    ]
}