{
    "goal": {
        "global_pose": {
            "orientation": {
                "w": -0.00223480608172531,
                "x": 0.0024358444001904467,
                "y": 0.7094548369677653,
                "z": -0.704743149386269
            },
            "position": {
                "x": -0.37947507619857795,
                "y": -0.6371506643295288,
                "z": 0.19426114857196808
            }
        },
        "name": "move_to_magneteinheit_C"
    },
    "id": "BiTRRT_move_to_magneteinheit_C_128",
    "joint_names": [
        "shoulder_pan_joint",
        "shoulder_lift_joint",
        "elbow_joint",
        "wrist_1_joint",
        "wrist_2_joint",
        "wrist_3_joint"
    ],
    "metrics": {
        "cart_traj_len": 5.599118361332631,
        "distance_elbow_joint": 0.17597769929260032,
        "distance_shoulder_lift_joint": 3.377974827267602,
        "distance_shoulder_pan_joint": 9.1178934546022,
        "distance_wrist_1_joint": 7.914967192113006,
        "distance_wrist_2_joint": 4.133652879285117,
        "distance_wrist_3_joint": 0.5570101121530824,
        "smoothness": 0.5399983371797484,
        "time": 0.147590689,
        "traj_len": 5.027671047782822,
        "weighted_distance": 6.20000939196207
    },
    "planner": "BiTRRT",
    "start": {
        "state": {
            "elbow_joint": 1.9565354010623817,
            "shoulder_lift_joint": -1.4165861575791021,
            "shoulder_pan_joint": -1.6717766225146293,
            "wrist_1_joint": -0.5286633292919765,
            "wrist_2_joint": 1.472756589071564,
            "wrist_3_joint": -3.1238370188695823
        }
    },
    "waypoints": [
        {
            "positions": [
                -1.6717766225146293,
                -1.4165861575791021,
                1.9565354010623817,
                -0.5286633292919765,
                1.472756589071564,
                -3.1238370188695823
            ]
        },
        {
            "positions": [
                -1.541843477117186,
                -1.4653830774038654,
                1.9600922663635392,
                -0.4097419134768515,
                1.3956207863203989,
                -3.1154831500807774
            ]
        },
        {
            "positions": [
                -1.4119103317197426,
                -1.5141799972286285,
                1.9636491316646967,
                -0.29082049766172663,
                1.3184849835692336,
                -3.107129281291972
            ]
        },
        {
            "positions": [
                -1.2819771863222993,
                -1.5629769170533918,
                1.9672059969658542,
                -0.17189908184660174,
                1.2413491808180686,
                -3.098775412503167
            ]
        },
        {
            "positions": [
                -1.152044040924856,
                -1.6117738368781551,
                1.9707628622670117,
                -0.0529776660314768,
                1.1642133780669033,
                -3.0904215437143616
            ]
        },
        {
            "positions": [
                -1.0221108955274127,
                -1.6605707567029182,
                1.9743197275681692,
                0.06594374978364814,
                1.0870775753157382,
                -3.0820676749255567
            ]
        },
        {
            "positions": [
                -0.8921777501299694,
                -1.7093676765276815,
                1.9778765928693267,
                0.18486516559877297,
                1.0099417725645732,
                -3.0737138061367513
            ]
        },
        {
            "positions": [
                -0.762244604732526,
                -1.7581645963524446,
                1.9814334581704842,
                0.3037865814138979,
                0.932805969813408,
                -3.0653599373479463
            ]
        },
        {
            "positions": [
                -0.6323114593350827,
                -1.806961516177208,
                1.9849903234716417,
                0.42270799722902286,
                0.8556701670622429,
                -3.057006068559141
            ]
        },
        {
            "positions": [
                -0.5023783139376394,
                -1.8557584360019712,
                1.988547188772799,
                0.5416294130441477,
                0.7785343643110777,
                -3.048652199770336
            ]
        },
        {
            "positions": [
                -0.37244516854019616,
                -1.9045553558267345,
                1.9921040540739565,
                0.6605508288592727,
                0.7013985615599125,
                -3.0402983309815306
            ]
        },
        {
            "positions": [
                -0.24251202314275266,
                -1.9533522756514976,
                1.995660919375114,
                0.7794722446743976,
                0.6242627588087475,
                -3.0319444621927256
            ]
        },
        {
            "positions": [
                -0.11257887774530939,
                -2.002149195476261,
                1.9992177846762715,
                0.8983936604895224,
                0.5471269560575823,
                -3.0235905934039202
            ]
        },
        {
            "positions": [
                0.01735426765213388,
                -2.050946115301024,
                2.0027746499774293,
                1.0173150763046475,
                0.46999115330641716,
                -3.0152367246151153
            ]
        },
        {
            "positions": [
                0.14728741304957738,
                -2.0997430351257873,
                2.0063315152785868,
                1.1362364921197723,
                0.3928553505552521,
                -3.00688285582631
            ]
        },
        {
            "positions": [
                0.27722055844702065,
                -2.1485399549505506,
                2.0098883805797443,
                1.2551579079348973,
                0.31571954780408684,
                -2.998528987037505
            ]
        },
        {
            "positions": [
                0.4071537038444639,
                -2.197336874775314,
                2.0134452458809013,
                1.3740793237500222,
                0.2385837450529218,
                -2.9901751182486995
            ]
        },
        {
            "positions": [
                0.5370868492419072,
                -2.246133794600077,
                2.017002111182059,
                1.493000739565147,
                0.16144794230175674,
                -2.9818212494598946
            ]
        },
        {
            "positions": [
                0.6670199946393505,
                -2.29493071442484,
                2.0205589764832164,
                1.6119221553802718,
                0.08431213955059147,
                -2.9734673806710896
            ]
        },
        {
            "positions": [
                0.7969531400367937,
                -2.3437276342496034,
                2.024115841784374,
                1.7308435711953971,
                0.007176336799426419,
                -2.9651135118822842
            ]
        },
        {
            "positions": [
                0.926886285434237,
                -2.3925245540743667,
                2.0276727070855314,
                1.849764987010522,
                -0.06995946595173885,
                -2.9567596430934793
            ]
        },
        {
            "positions": [
                1.0568194308316807,
                -2.44132147389913,
                2.031229572386689,
                1.9686864028256468,
                -0.1470952687029039,
                -2.948405774304674
            ]
        },
        {
            "positions": [
                1.186752576229124,
                -2.4901183937238933,
                2.0347864376878464,
                2.0876078186407714,
                -0.22423107145406895,
                -2.940051905515869
            ]
        },
        {
            "positions": [
                1.3166857216265673,
                -2.5389153135486566,
                2.038343302989004,
                2.206529234455896,
                -0.3013668742052342,
                -2.9316980367270635
            ]
        },
        {
            "positions": [
                1.4466188670240105,
                -2.58771223337342,
                2.0419001682901614,
                2.325450650271021,
                -0.3785026769563993,
                -2.9233441679382586
            ]
        },
        {
            "positions": [
                1.5765520124214538,
                -2.636509153198183,
                2.045457033591319,
                2.4443720660861468,
                -0.4556384797075643,
                -2.914990299149453
            ]
        },
        {
            "positions": [
                1.706485157818897,
                -2.685306073022946,
                2.0490138988924764,
                2.5632934819012716,
                -0.5327742824587296,
                -2.9066364303606482
            ]
        },
        {
            "positions": [
                1.8364183032163404,
                -2.7341029928477094,
                2.052570764193634,
                2.6822148977163964,
                -0.6099100852098949,
                -2.898282561571843
            ]
        },
        {
            "positions": [
                1.966351448613784,
                -2.7828999126724723,
                2.0561276294947914,
                2.8011363135315213,
                -0.6870458879610597,
                -2.889928692783038
            ]
        },
        {
            "positions": [
                2.0962845940112276,
                -2.8316968324972356,
                2.059684494795949,
                2.920057729346646,
                -0.764181690712225,
                -2.8815748239942325
            ]
        },
        {
            "positions": [
                2.2262177394086704,
                -2.880493752321999,
                2.0632413600971065,
                3.038979145161771,
                -0.8413174934633902,
                -2.8732209552054275
            ]
        },
        {
            "positions": [
                2.3561508848061132,
                -2.929290672146762,
                2.066798225398264,
                3.1579005609768958,
                -0.9184532962145551,
                -2.8648670864166226
            ]
        },
        {
            "positions": [
                2.486084030203557,
                -2.9780875919715255,
                2.0703550906994215,
                3.276821976792021,
                -0.9955890989657203,
                -2.856513217627817
            ]
        },
        {
            "positions": [
                2.3357800059040414,
                -2.9230429437025807,
                2.068471514649253,
                3.1522922226699297,
                -0.9451252446854831,
                -2.865291590685736
            ]
        },
        {
            "positions": [
                2.185475981604526,
                -2.867998295433636,
                2.0665879385990844,
                3.0277624685478384,
                -0.894661390405246,
                -2.8740699637436546
            ]
        },
        {
            "positions": [
                2.03517195730501,
                -2.812953647164691,
                2.064704362548916,
                2.9032327144257475,
                -0.8441975361250087,
                -2.8828483368015734
            ]
        },
        {
            "positions": [
                1.8848679330054945,
                -2.7579089988957466,
                2.0628207864987473,
                2.778702960303656,
                -0.7937336818447716,
                -2.891626709859492
            ]
        },
        {
            "positions": [
                1.734563908705979,
                -2.7028643506268017,
                2.060937210448579,
                2.654173206181565,
                -0.7432698275645343,
                -2.900405082917411
            ]
        },
        {
            "positions": [
                1.5842598844064633,
                -2.647819702357857,
                2.0590536343984103,
                2.5296434520594735,
                -0.692805973284297,
                -2.9091834559753296
            ]
        },
        {
            "positions": [
                1.4339558601069475,
                -2.592775054088912,
                2.057170058348242,
                2.4051136979373826,
                -0.6423421190040599,
                -2.9179618290332483
            ]
        },
        {
            "positions": [
                1.283651835807432,
                -2.5377304058199672,
                2.0552864822980736,
                2.2805839438152913,
                -0.5918782647238228,
                -2.926740202091167
            ]
        },
        {
            "positions": [
                1.1333478115079165,
                -2.482685757551023,
                2.053402906247905,
                2.1560541896932,
                -0.5414144104435856,
                -2.9355185751490853
            ]
        },
        {
            "positions": [
                0.9830437872084008,
                -2.427641109282078,
                2.0515193301977366,
                2.0315244355711086,
                -0.49095055616334826,
                -2.944296948207004
            ]
        },
        {
            "positions": [
                0.8327397629088853,
                -2.372596461013133,
                2.049635754147568,
                1.9069946814490175,
                -0.4404867018831111,
                -2.953075321264923
            ]
        },
        {
            "positions": [
                0.6824357386093696,
                -2.3175518127441883,
                2.0477521780973995,
                1.7824649273269262,
                -0.39002284760287387,
                -2.9618536943228415
            ]
        },
        {
            "positions": [
                0.5321317143098541,
                -2.2625071644752435,
                2.0458686020472308,
                1.657935173204835,
                -0.3395589933226367,
                -2.9706320673807602
            ]
        },
        {
            "positions": [
                0.3818276900103381,
                -2.2074625162062986,
                2.0439850259970624,
                1.5334054190827437,
                -0.2890951390423995,
                -2.979410440438679
            ]
        },
        {
            "positions": [
                0.23152366571082306,
                -2.152417867937354,
                2.042101449946894,
                1.4088756649606526,
                -0.23863128476216233,
                -2.9881888134965977
            ]
        },
        {
            "positions": [
                0.08121964141130711,
                -2.097373219668409,
                2.0402178738967254,
                1.2843459108385613,
                -0.18816743048192508,
                -2.9969671865545164
            ]
        },
        {
            "positions": [
                -0.0690843828882084,
                -2.0423285713994646,
                2.038334297846557,
                1.1598161567164702,
                -0.13770357620168794,
                -3.005745559612435
            ]
        },
        {
            "positions": [
                -0.2193884071877239,
                -1.9872839231305197,
                2.0364507217963883,
                1.0352864025943789,
                -0.0872397219214508,
                -3.014523932670354
            ]
        },
        {
            "positions": [
                -0.36969243148723985,
                -1.9322392748615747,
                2.03456714574622,
                0.9107566484722875,
                -0.03677586764121343,
                -3.0233023057282726
            ]
        },
        {
            "positions": [
                -0.5199964557867554,
                -1.87719462659263,
                2.0326835696960517,
                0.7862268943501962,
                0.01368798663902382,
                -3.0320806787861914
            ]
        },
        {
            "positions": [
                -0.6703004800862709,
                -1.8221499783236852,
                2.030799993645883,
                0.6616971402281053,
                0.06415184091926096,
                -3.04085905184411
            ]
        },
        {
            "positions": [
                -0.8206045043857864,
                -1.7671053300547406,
                2.0289164175957146,
                0.537167386106014,
                0.1146156951994981,
                -3.049637424902029
            ]
        },
        {
            "positions": [
                -0.9709085286853023,
                -1.7120606817857957,
                2.027032841545546,
                0.4126376319839222,
                0.16507954947973547,
                -3.0584157979599476
            ]
        },
        {
            "positions": [
                -1.1212125529848178,
                -1.657016033516851,
                2.0251492654953775,
                0.28810787786183134,
                0.2155434037599726,
                -3.0671941710178663
            ]
        },
        {
            "positions": [
                -1.2715165772843333,
                -1.6019713852479063,
                2.023265689445209,
                0.16357812373974,
                0.26600725804020975,
                -3.0759725440757846
            ]
        },
        {
            "positions": [
                -1.4218206015838488,
                -1.5469267369789614,
                2.0213821133950405,
                0.039048369617649126,
                0.3164711123204469,
                -3.0847509171337033
            ]
        },
        {
            "positions": [
                -1.5721246258833652,
                -1.4918820887100166,
                2.019498537344872,
                -0.08548138450444265,
                0.36693496660068425,
                -3.093529290191622
            ]
        },
        {
            "positions": [
                -1.7224286501828807,
                -1.4368374404410718,
                2.0176149612947034,
                -0.21001113862653353,
                0.4173988208809214,
                -3.1023076632495408
            ]
        },
        {
            "positions": [
                -1.8727326744823953,
                -1.3817927921721271,
                2.015731385244535,
                -0.33454089274862486,
                0.46786267516115854,
                -3.1110860363074595
            ]
        },
        {
            "positions": [
                -2.023036698781911,
                -1.3267481439031823,
                2.0138478091943663,
                -0.45907064687071575,
                0.5183265294413957,
                -3.1198644093653782
            ]
        },
        {
            "positions": [
                -2.1733407230814272,
                -1.2717034956342375,
                2.011964233144198,
                -0.5836004009928075,
                0.568790383721633,
                -3.128642782423297
            ]
        },
        {
            "positions": [
                -2.3236447473809427,
                -1.2166588473652926,
                2.0100806570940293,
                -0.7081301551148984,
                0.6192542380018702,
                -3.1374211554812157
            ]
        },
        {
            "positions": [
                -2.4739487716804582,
                -1.161614199096348,
                2.008197081043861,
                -0.8326599092369894,
                0.6697180922821074,
                -3.1461995285391344
            ]
        }
    ]
}