{
    "goal": {
        "global_pose": {
            "orientation": {
                "w": 0.5084816262002911,
                "x": -0.4908360881923452,
                "y": 0.5182115481033761,
                "z": -0.48164630358495003
            },
            "position": {
                "x": 0.5540239810943604,
                "y": -0.46912469901144505,
                "z": 0.16403168439865112
            }
        },
        "name": "move_to_storage_B"
    },
    "id": "BiTRRT_move_to_storage_B_100",
    "joint_names": [
        "shoulder_pan_joint",
        "shoulder_lift_joint",
        "elbow_joint",
        "wrist_1_joint",
        "wrist_2_joint",
        "wrist_3_joint"
    ],
    "metrics": {
        "cart_traj_len": 1.1142163264721323,
        "distance_elbow_joint": 1.0035432538248314,
        "distance_shoulder_lift_joint": 0.4588383057329235,
        "distance_shoulder_pan_joint": 1.0807252953977122,
        "distance_wrist_1_joint": 2.986209673419943,
        "distance_wrist_2_joint": 2.706928146723971,
        "distance_wrist_3_joint": 3.1384649942960436,
        "smoothness": 0.19631455689754176,
        "time": 0.099065334,
        "traj_len": 3.372641349060914,
        "weighted_distance": 4.831643351710826
    },
    "planner": "BiTRRT",
    "start": {
        "state": {
            "elbow_joint": 1.664937868594044,
            "shoulder_lift_joint": -0.661644460510453,
            "shoulder_pan_joint": -0.9139846352900073,
            "wrist_1_joint": 2.146753192139373,
            "wrist_2_joint": -2.2341966793290973,
            "wrist_3_joint": 0.005466555786416001
        }
    },
    "waypoints": [
        {
            "positions": [
                -0.9139846352900073,
                -0.661644460510453,
                1.664937868594044,
                2.146753192139373,
                -2.2341966793290973,
                0.005466555786416001
            ]
        },
        {
            "positions": [
                -0.8957168046755688,
                -0.670657398463289,
                1.663311881910108,
                2.129066906887431,
                -2.2228095182078027,
                0.0030037728927550904
            ]
        },
        {
            "positions": [
                -0.8417626703432625,
                -0.6847487583376171,
                1.6226774392422498,
                2.0222524895946794,
                -2.106721712017772,
                0.04614219631791615
            ]
        },
        {
            "positions": [
                -0.7878085360109561,
                -0.6988401182119452,
                1.5820429965743916,
                1.9154380723019278,
                -1.9906339058277414,
                0.0892806197430772
            ]
        },
        {
            "positions": [
                -0.7338544016786499,
                -0.7129314780862733,
                1.5414085539065334,
                1.808623655009176,
                -1.8745460996377106,
                0.13241904316823824
            ]
        },
        {
            "positions": [
                -0.6799002673463436,
                -0.7270228379606014,
                1.5007741112386754,
                1.7018092377164247,
                -1.75845829344768,
                0.1755574665933993
            ]
        },
        {
            "positions": [
                -0.6259461330140372,
                -0.7411141978349296,
                1.4601396685708172,
                1.5949948204236732,
                -1.6423704872576494,
                0.21869589001856035
            ]
        },
        {
            "positions": [
                -0.571991998681731,
                -0.7552055577092577,
                1.419505225902959,
                1.4881804031309216,
                -1.5262826810676187,
                0.26183431344372143
            ]
        },
        {
            "positions": [
                -0.5180378643494247,
                -0.7692969175835859,
                1.3788707832351008,
                1.38136598583817,
                -1.4101948748775879,
                0.3049727368688825
            ]
        },
        {
            "positions": [
                -0.46408373001711833,
                -0.783388277457914,
                1.3382363405672426,
                1.2745515685454185,
                -1.2941070686875573,
                0.34811116029404354
            ]
        },
        {
            "positions": [
                -0.494122986689729,
                -0.7994403959715074,
                1.3704668989385773,
                1.1738845185537048,
                -1.2099719003026796,
                0.4810109138179052
            ]
        },
        {
            "positions": [
                -0.5241622433623396,
                -0.8154925144851009,
                1.4026974573099122,
                1.073217468561991,
                -1.125836731917802,
                0.6139106673417668
            ]
        },
        {
            "positions": [
                -0.5542015000349503,
                -0.8315446329986943,
                1.434928015681247,
                0.9725504185702774,
                -1.0417015635329243,
                0.7468104208656284
            ]
        },
        {
            "positions": [
                -0.5842407567075609,
                -0.8475967515122877,
                1.4671585740525817,
                0.8718833685785636,
                -0.9575663951480466,
                0.8797101743894901
            ]
        },
        {
            "positions": [
                -0.6142800133801716,
                -0.8636488700258812,
                1.4993891324239164,
                0.7712163185868499,
                -0.873431226763169,
                1.0126099279133518
            ]
        },
        {
            "positions": [
                -0.6443192700527821,
                -0.8797009885394746,
                1.5316196907952513,
                0.6705492685951362,
                -0.7892960583782913,
                1.1455096814372134
            ]
        },
        {
            "positions": [
                -0.6743585267253928,
                -0.8957531070530681,
                1.563850249166586,
                0.5698822186034225,
                -0.7051608899934136,
                1.278409434961075
            ]
        },
        {
            "positions": [
                -0.7043977833980034,
                -0.9118052255666615,
                1.5960808075379207,
                0.46921516861170876,
                -0.621025721608536,
                1.4113091884849367
            ]
        },
        {
            "positions": [
                -0.7344370400706141,
                -0.927857344080255,
                1.6283113659092554,
                0.36854811861999504,
                -0.5368905532236583,
                1.5442089420087983
            ]
        },
        {
            "positions": [
                -0.7644762967432247,
                -0.9439094625938484,
                1.6605419242805903,
                0.2678810686282813,
                -0.45275538483878053,
                1.67710869553266
            ]
        },
        {
            "positions": [
                -0.7945155534158354,
                -0.959961581107442,
                1.692772482651925,
                0.16721401863656737,
                -0.36862021645390286,
                1.8100084490565216
            ]
        },
        {
            "positions": [
                -0.8245548100884459,
                -0.9760136996210353,
                1.7250030410232597,
                0.06654696864485388,
                -0.2844850480690253,
                1.9429082025803832
            ]
        },
        {
            "positions": [
                -0.8545940667610566,
                -0.9920658181346289,
                1.7572335993945947,
                -0.034120081346860065,
                -0.20034987968414741,
                2.075807956104245
            ]
        },
        {
            "positions": [
                -0.8846333234336672,
                -1.0081179366482222,
                1.7894641577659294,
                -0.13478713133857356,
                -0.11621471129926997,
                2.2087077096281065
            ]
        },
        {
            "positions": [
                -0.9146725801062778,
                -1.0241700551618158,
                1.821694716137264,
                -0.2354541813302875,
                -0.03207954291439208,
                2.341607463151968
            ]
        },
        {
            "positions": [
                -0.9447118367788885,
                -1.0402221736754091,
                1.8539252745085988,
                -0.336121231322001,
                0.05205562547048537,
                2.4745072166758297
            ]
        },
        {
            "positions": [
                -0.9747510934514991,
                -1.0562742921890027,
                1.8861558328799337,
                -0.43678828131371494,
                0.13619079385536326,
                2.6074069701996914
            ]
        },
        {
            "positions": [
                -1.0047903501241098,
                -1.072326410702596,
                1.9183863912512684,
                -0.5374553313054284,
                0.2203259622402407,
                2.740306723723553
            ]
        },
        {
            "positions": [
                -1.0348296067967204,
                -1.0883785292161896,
                1.9506169496226033,
                -0.6381223812971424,
                0.3044611306251186,
                2.8732064772474146
            ]
        },
        {
            "positions": [
                -1.064868863469331,
                -1.104430647729783,
                1.982847507993938,
                -0.7387894312888559,
                0.38859629900999626,
                3.0061062307712763
            ]
        },
        {
            "positions": [
                -1.0949081201419417,
                -1.1204827662433765,
                2.0150780663652728,
                -0.8394564812805697,
                0.47273146739487387,
                3.139005984295138
            ]
        }
    ]
}