{
    "goal": {
        "global_pose": {
            "orientation": {
                "w": 0.7031023480610252,
                "x": -0.7110244013736278,
                "y": 0.0077485991402295624,
                "z": 0.005598929693374583
            },
            "position": {
                "x": -0.8841497679147869,
                "y": 0.44412534475326537,
                "z": 0.3711530566215515
            }
        },
        "name": "move_to_auspresseinheit_D"
    },
    "id": "BiTRRT_move_to_auspresseinheit_D_2",
    "joint_names": [
        "shoulder_pan_joint",
        "shoulder_lift_joint",
        "elbow_joint",
        "wrist_1_joint",
        "wrist_2_joint",
        "wrist_3_joint"
    ],
    "metrics": {
        "cart_traj_len": 0.34286681029231725,
        "distance_elbow_joint": 0.6309852453297047,
        "distance_shoulder_lift_joint": 0.1167774715966945,
        "distance_shoulder_pan_joint": 0.13369479043120108,
        "distance_wrist_1_joint": 0.509864304243818,
        "distance_wrist_2_joint": 1.4418278852450839,
        "distance_wrist_3_joint": 0.017859503814476874,
        "smoothness": 0.0,
        "time": 0.044182023,
        "traj_len": 1.688493174597096,
        "weighted_distance": 2.19964097019919
    },
    "planner": "BiTRRT",
    "start": {
        "state": {
            "elbow_joint": -1.8275523626775212,
            "shoulder_lift_joint": -2.126789852344167,
            "shoulder_pan_joint": -0.03513704404078235,
            "wrist_1_joint": -2.347782403156801,
            "wrist_2_joint": -1.6058999987535132,
            "wrist_3_joint": -3.0880379163319196
        }
    },
    "waypoints": [
        {
            "positions": [
                -0.03513704404078235,
                -2.126789852344167,
                -1.8275523626775212,
                -2.347782403156801,
                -1.6058999987535132,
                -3.0880379163319196
            ]
        },
        {
            "positions": [
                -0.051848892844682484,
                -2.1413870362937537,
                -1.7486792070113082,
                -2.4115154411872783,
                -1.4256715130978777,
                -3.0902703543087293
            ]
        },
        {
            "positions": [
                -0.06856074164858261,
                -2.1559842202433406,
                -1.669806051345095,
                -2.4752484792177554,
                -1.2454430274422421,
                -3.092502792285539
            ]
        },
        {
            "positions": [
                -0.08527259045248275,
                -2.1705814041929274,
                -1.590932895678882,
                -2.5389815172482324,
                -1.0652145417866068,
                -3.0947352302623483
            ]
        },
        {
            "positions": [
                -0.1019844392563829,
                -2.185178588142514,
                -1.5120597400126687,
                -2.60271455527871,
                -0.8849860561309713,
                -3.096967668239158
            ]
        },
        {
            "positions": [
                -0.11869628806028304,
                -2.1997757720921007,
                -1.4331865843464557,
                -2.6664475933091873,
                -0.7047575704753357,
                -3.0992001062159678
            ]
        },
        {
            "positions": [
                -0.13540813686418315,
                -2.2143729560416876,
                -1.3543134286802427,
                -2.7301806313396644,
                -0.5245290848197004,
                -3.101432544192777
            ]
        },
        {
            "positions": [
                -0.1521199856680833,
                -2.2289701399912745,
                -1.2754402730140297,
                -2.7939136693701414,
                -0.34430059916406486,
                -3.1036649821695868
            ]
        },
        {
            "positions": [
                -0.16883183447198344,
                -2.2435673239408613,
                -1.1965671173478165,
                -2.857646707400619,
                -0.16407211350842937,
                -3.1058974201463965
            ]
        }
    ]
}