{
    "goal": {
        "global_pose": {
            "orientation": {
                "w": -0.00223480608172531,
                "x": 0.0024358444001904467,
                "y": 0.7094548369677653,
                "z": -0.704743149386269
            },
            "position": {
                "x": -0.37947507619857795,
                "y": -0.6371506643295288,
                "z": 0.19426114857196808
            }
        },
        "name": "move_to_magneteinheit_C"
    },
    "id": "BiTRRT_move_to_magneteinheit_C_107",
    "joint_names": [
        "shoulder_pan_joint",
        "shoulder_lift_joint",
        "elbow_joint",
        "wrist_1_joint",
        "wrist_2_joint",
        "wrist_3_joint"
    ],
    "metrics": {
        "cart_traj_len": 1.4173123281856856,
        "distance_elbow_joint": 0.6432237524008269,
        "distance_shoulder_lift_joint": 0.25254427691091874,
        "distance_shoulder_pan_joint": 1.5123291863879837,
        "distance_wrist_1_joint": 0.8639918110023509,
        "distance_wrist_2_joint": 4.969974670361892,
        "distance_wrist_3_joint": 0.6266519687634684,
        "smoothness": 1.204871210809344,
        "time": 0.077788297,
        "traj_len": 2.9780388959561024,
        "weighted_distance": 3.9944944717346424
    },
    "planner": "BiTRRT",
    "start": {
        "state": {
            "elbow_joint": 1.9565354010623817,
            "shoulder_lift_joint": -1.4165861575791021,
            "shoulder_pan_joint": -1.6717766225146293,
            "wrist_1_joint": -0.5286633292919765,
            "wrist_2_joint": 1.472756589071564,
            "wrist_3_joint": -3.1238370188695823
        }
    },
    "waypoints": [
        {
            "positions": [
                -1.6717766225146293,
                -1.4165861575791021,
                1.9565354010623817,
                -0.5286633292919765,
                1.472756589071564,
                -3.1238370188695823
            ]
        },
        {
            "positions": [
                -1.6420879147817515,
                -1.4062857983867274,
                1.9855917995691612,
                -0.5773523622366532,
                1.2329094846617918,
                -3.151321423385389
            ]
        },
        {
            "positions": [
                -1.6123992070488737,
                -1.395985439194353,
                2.0146481980759408,
                -0.6260413951813301,
                0.9930623802520195,
                -3.178805827901195
            ]
        },
        {
            "positions": [
                -1.582710499315996,
                -1.3856850800019782,
                2.04370459658272,
                -0.6747304281260069,
                0.7532152758422473,
                -3.2062902324170013
            ]
        },
        {
            "positions": [
                -1.5530217915831181,
                -1.3753847208096035,
                2.0727609950895,
                -0.7234194610706837,
                0.5133681714324752,
                -3.2337746369328078
            ]
        },
        {
            "positions": [
                -1.5233330838502404,
                -1.365084361617229,
                2.101817393596279,
                -0.7721084940153604,
                0.27352106702270285,
                -3.261259041448614
            ]
        },
        {
            "positions": [
                -1.4936443761173626,
                -1.3547840024248543,
                2.130873792103059,
                -0.8207975269600373,
                0.03367396261293076,
                -3.2887434459644203
            ]
        },
        {
            "positions": [
                -1.4639556683844848,
                -1.3444836432324796,
                2.1599301906098383,
                -0.8694865599047141,
                -0.20617314179684154,
                -3.3162278504802267
            ]
        },
        {
            "positions": [
                -1.434266960651607,
                -1.334183284040105,
                2.1889865891166176,
                -0.9181755928493909,
                -0.4460202462066136,
                -3.3437122549960328
            ]
        },
        {
            "positions": [
                -1.4045782529187292,
                -1.3238829248477304,
                2.2180429876233974,
                -0.9668646257940676,
                -0.6858673506163857,
                -3.3711966595118392
            ]
        },
        {
            "positions": [
                -1.3748895451858514,
                -1.3135825656553557,
                2.2470993861301767,
                -1.0155536587387446,
                -0.9257144550261582,
                -3.3986810640276457
            ]
        },
        {
            "positions": [
                -1.3452008374529736,
                -1.3032822064629812,
                2.2761557846369564,
                -1.0642426916834213,
                -1.1655615594359303,
                -3.4261654685434517
            ]
        },
        {
            "positions": [
                -1.3155121297200958,
                -1.2929818472706065,
                2.3052121831437358,
                -1.112931724628098,
                -1.4054086638457024,
                -3.453649873059258
            ]
        },
        {
            "positions": [
                -1.420608920046773,
                -1.2812600321249317,
                2.2784351858419654,
                -1.0875023232038954,
                -1.2152441713507365,
                -3.4266644990070954
            ]
        },
        {
            "positions": [
                -1.5257057103734504,
                -1.2695382169792568,
                2.2516581885401954,
                -1.0620729217796927,
                -1.0250796788557706,
                -3.399679124954932
            ]
        },
        {
            "positions": [
                -1.6308025007001277,
                -1.257816401833582,
                2.224881191238425,
                -1.03664352035549,
                -0.8349151863608045,
                -3.3726937509027692
            ]
        },
        {
            "positions": [
                -1.735899291026805,
                -1.2460945866879072,
                2.1981041939366546,
                -1.0112141189312875,
                -0.6447506938658385,
                -3.3457083768506064
            ]
        },
        {
            "positions": [
                -1.8409960813534822,
                -1.2343727715422323,
                2.1713271966348846,
                -0.9857847175070849,
                -0.4545862013708726,
                -3.3187230027984436
            ]
        },
        {
            "positions": [
                -1.9460928716801595,
                -1.2226509563965575,
                2.144550199333114,
                -0.9603553160828822,
                -0.26442170887590666,
                -3.2917376287462803
            ]
        },
        {
            "positions": [
                -2.051189662006837,
                -1.2109291412508827,
                2.1177732020313442,
                -0.9349259146586795,
                -0.07425721638094074,
                -3.2647522546941175
            ]
        },
        {
            "positions": [
                -2.1562864523335143,
                -1.1992073261052079,
                2.090996204729574,
                -0.9094965132344768,
                0.1159072761140254,
                -3.2377668806419546
            ]
        },
        {
            "positions": [
                -2.2613832426601914,
                -1.187485510959533,
                2.0642192074278034,
                -0.8840671118102741,
                0.3060717686089913,
                -3.2107815065897913
            ]
        },
        {
            "positions": [
                -2.3664800329868685,
                -1.1757636958138582,
                2.0374422101260334,
                -0.8586377103860715,
                0.49623626110395724,
                -3.1837961325376285
            ]
        },
        {
            "positions": [
                -2.471576823313546,
                -1.1640418806681834,
                2.010665212824263,
                -0.8332083089618688,
                0.6864007535989232,
                -3.1568107584854657
            ]
        }
    ]
}