{
    "goal": {
        "global_pose": {
            "orientation": {
                "w": 0.7031023480610252,
                "x": -0.7110244013736278,
                "y": 0.0077485991402295624,
                "z": 0.005598929693374583
            },
            "position": {
                "x": -0.8841497679147869,
                "y": 0.44412534475326537,
                "z": 0.3711530566215515
            }
        },
        "name": "move_to_auspresseinheit_D"
    },
    "id": "BiTRRT_move_to_auspresseinheit_D_39",
    "joint_names": [
        "shoulder_pan_joint",
        "shoulder_lift_joint",
        "elbow_joint",
        "wrist_1_joint",
        "wrist_2_joint",
        "wrist_3_joint"
    ],
    "metrics": {
        "cart_traj_len": 0.34326329336239336,
        "distance_elbow_joint": 0.6296355757175507,
        "distance_shoulder_lift_joint": 0.11608313142237181,
        "distance_shoulder_pan_joint": 0.13435528350667938,
        "distance_wrist_1_joint": 0.5027717622221624,
        "distance_wrist_2_joint": 1.4377602892795867,
        "distance_wrist_3_joint": 0.01705990949467573,
        "smoothness": 1.7763568337029704e-15,
        "time": 0.03696384,
        "traj_len": 1.684537310849192,
        "weighted_distance": 2.1936995742658403
    },
    "planner": "BiTRRT",
    "start": {
        "state": {
            "elbow_joint": -1.8275523626775212,
            "shoulder_lift_joint": -2.126789852344167,
            "shoulder_pan_joint": -0.03513704404078235,
            "wrist_1_joint": -2.347782403156801,
            "wrist_2_joint": -1.6058999987535132,
            "wrist_3_joint": -3.0880379163319196
        }
    },
    "waypoints": [
        {
            "positions": [
                -0.03513704404078235,
                -2.126789852344167,
                -1.8275523626775212,
                -2.347782403156801,
                -1.6058999987535132,
                -3.0880379163319196
            ]
        },
        {
            "positions": [
                -0.051931454479117276,
                -2.1413002437719633,
                -1.7488479157128274,
                -2.4106288734345713,
                -1.426179962593565,
                -3.090170405018754
            ]
        },
        {
            "positions": [
                -0.0687258649174522,
                -2.1558106351997597,
                -1.6701434687481336,
                -2.4734753437123413,
                -1.2464599264336165,
                -3.0923028937055888
            ]
        },
        {
            "positions": [
                -0.08552027535578713,
                -2.170321026627556,
                -1.5914390217834398,
                -2.536321813990112,
                -1.0667398902736682,
                -3.094435382392423
            ]
        },
        {
            "positions": [
                -0.10231468579412203,
                -2.184831418055353,
                -1.512734574818746,
                -2.599168284267882,
                -0.8870198541137199,
                -3.0965678710792575
            ]
        },
        {
            "positions": [
                -0.11910909623245697,
                -2.1993418094831494,
                -1.4340301278540522,
                -2.6620147545456523,
                -0.7072998179537715,
                -3.098700359766092
            ]
        },
        {
            "positions": [
                -0.1359035066707919,
                -2.213852200910946,
                -1.3553256808893581,
                -2.7248612248234227,
                -0.5275797817938233,
                -3.100832848452926
            ]
        },
        {
            "positions": [
                -0.1526979171091268,
                -2.2283625923387422,
                -1.2766212339246643,
                -2.7877076951011928,
                -0.3478597456338748,
                -3.1029653371397607
            ]
        },
        {
            "positions": [
                -0.16949232754746174,
                -2.2428729837665387,
                -1.1979167869599705,
                -2.8505541653789632,
                -0.16813970947392654,
                -3.1050978258265953
            ]
        }
    ]
}