{
    "goal": {
        "global_pose": {
            "orientation": {
                "w": 0.7047431493862688,
                "x": -0.7094548369677653,
                "y": 0.0024358444001904,
                "z": -0.0022348060817251984
            },
            "position": {
                "x": -0.39052492380142206,
                "y": 0.3671506643295288,
                "z": 0.19426114857196808
            }
        },
        "name": "move_to_magneteinheit_D"
    },
    "id": "BiTRRT_move_to_magneteinheit_D_33",
    "joint_names": [
        "shoulder_pan_joint",
        "shoulder_lift_joint",
        "elbow_joint",
        "wrist_1_joint",
        "wrist_2_joint",
        "wrist_3_joint"
    ],
    "metrics": {
        "cart_traj_len": 3.9034738625714867,
        "distance_elbow_joint": 4.290528748516677,
        "distance_shoulder_lift_joint": 1.0958272120908572,
        "distance_shoulder_pan_joint": 2.645536700975204,
        "distance_wrist_1_joint": 2.296998464589932,
        "distance_wrist_2_joint": 1.609106296837564,
        "distance_wrist_3_joint": 6.26756695329467,
        "smoothness": 0.41353881298672723,
        "time": 0.125173163,
        "traj_len": 4.266797906663135,
        "weighted_distance": 5.88615350159353
    },
    "planner": "BiTRRT",
    "start": {
        "state": {
            "elbow_joint": 0.749534889911806,
            "shoulder_lift_joint": -0.6476975780787326,
            "shoulder_pan_joint": -2.711696901376241,
            "wrist_1_joint": -0.07506478083263063,
            "wrist_2_joint": 0.43296659715538205,
            "wrist_3_joint": -3.14703540197715
        }
    },
    "waypoints": [
        {
            "positions": [
                -2.711696901376241,
                -0.6476975780787326,
                0.749534889911806,
                -0.07506478083263063,
                0.43296659715538205,
                -3.14703540197715
            ]
        },
        {
            "positions": [
                -2.7067068461359907,
                -0.7107895555344715,
                0.8061754784212549,
                -0.12411990789291505,
                0.4984674220888128,
                -3.040847372287979
            ]
        },
        {
            "positions": [
                -2.7017167908957407,
                -0.7738815329902105,
                0.8628160669307038,
                -0.17317503495319947,
                0.5639682470222436,
                -2.9346593425988075
            ]
        },
        {
            "positions": [
                -2.6967267356554903,
                -0.8369735104459495,
                0.9194566554401528,
                -0.22223016201348392,
                0.6294690719556743,
                -2.8284713129096364
            ]
        },
        {
            "positions": [
                -2.69173668041524,
                -0.9000654879016884,
                0.9760972439496016,
                -0.27128528907376837,
                0.6949698968891049,
                -2.7222832832204653
            ]
        },
        {
            "positions": [
                -2.68674662517499,
                -0.9631574653574274,
                1.0327378324590506,
                -0.3203404161340528,
                0.7604707218225357,
                -2.616095253531294
            ]
        },
        {
            "positions": [
                -2.6817565699347394,
                -1.0262494428131663,
                1.0893784209684996,
                -0.3693955431943372,
                0.8259715467559665,
                -2.5099072238421227
            ]
        },
        {
            "positions": [
                -2.604901318398056,
                -1.0414046213311936,
                1.0223266134658833,
                -0.3428827478362316,
                0.7895067670200402,
                -2.4221585344685224
            ]
        },
        {
            "positions": [
                -2.5280460668613722,
                -1.0565597998492207,
                0.955274805963267,
                -0.3163699524781261,
                0.7530419872841139,
                -2.3344098450949216
            ]
        },
        {
            "positions": [
                -2.4511908153246886,
                -1.071714978367248,
                0.8882229984606507,
                -0.2898571571200206,
                0.7165772075481874,
                -2.2466611557213207
            ]
        },
        {
            "positions": [
                -2.374335563788005,
                -1.0868701568852752,
                0.8211711909580344,
                -0.263344361761915,
                0.6801124278122611,
                -2.1589124663477204
            ]
        },
        {
            "positions": [
                -2.296075655541704,
                -1.08993624427011,
                0.6890576822559065,
                -0.28736358195306566,
                0.6478850556542786,
                -2.041002523154814
            ]
        },
        {
            "positions": [
                -2.217815747295403,
                -1.0930023316549446,
                0.5569441735537787,
                -0.3113828021442163,
                0.6156576834962961,
                -1.9230925799619079
            ]
        },
        {
            "positions": [
                -2.1395558390491027,
                -1.0960684190397794,
                0.4248306648516508,
                -0.335402022335367,
                0.5834303113383136,
                -1.8051826367690014
            ]
        },
        {
            "positions": [
                -2.061295930802802,
                -1.0991345064246139,
                0.292717156149523,
                -0.3594212425265176,
                0.551202939180331,
                -1.687272693576095
            ]
        },
        {
            "positions": [
                -1.983036022556501,
                -1.1022005938094486,
                0.16060364744739508,
                -0.38344046271766824,
                0.5189755670223486,
                -1.5693627503831888
            ]
        },
        {
            "positions": [
                -1.9047761143102002,
                -1.1052666811942833,
                0.02849013874526718,
                -0.4074596829088189,
                0.48674819486436605,
                -1.4514528071902824
            ]
        },
        {
            "positions": [
                -1.8265162060638995,
                -1.108332768579118,
                -0.1036233699568605,
                -0.4314789030999695,
                0.4545208227063836,
                -1.3335428639973763
            ]
        },
        {
            "positions": [
                -1.7482562978175986,
                -1.1113988559639527,
                -0.2357368786589884,
                -0.45549812329112016,
                0.42229345054840106,
                -1.2156329208044698
            ]
        },
        {
            "positions": [
                -1.6699963895712977,
                -1.1144649433487874,
                -0.3678503873611163,
                -0.4795173434822708,
                0.39006607839041857,
                -1.0977229776115636
            ]
        },
        {
            "positions": [
                -1.5917364813249968,
                -1.117531030733622,
                -0.4999638960632442,
                -0.5035365636734215,
                0.357838706232436,
                -0.9798130344186571
            ]
        },
        {
            "positions": [
                -1.513476573078696,
                -1.1205971181184566,
                -0.6320774047653719,
                -0.5275557838645721,
                0.3256113340744536,
                -0.861903091225751
            ]
        },
        {
            "positions": [
                -1.4352166648323954,
                -1.1236632055032914,
                -0.7641909134675,
                -0.5515750040557228,
                0.29338396191647104,
                -0.7439931480328446
            ]
        },
        {
            "positions": [
                -1.3569567565860945,
                -1.126729292888126,
                -0.8963044221696277,
                -0.5755942242468735,
                0.26115658975848854,
                -0.6260832048399383
            ]
        },
        {
            "positions": [
                -1.2786968483397938,
                -1.1297953802729608,
                -1.0284179308717554,
                -0.599613444438024,
                0.22892921760050605,
                -0.508173261647032
            ]
        },
        {
            "positions": [
                -1.2004369400934929,
                -1.1328614676577955,
                -1.1605314395738833,
                -0.6236326646291747,
                0.19670184544252356,
                -0.39026331845412576
            ]
        },
        {
            "positions": [
                -1.122177031847192,
                -1.1359275550426302,
                -1.2926449482760112,
                -0.6476518848203254,
                0.164474473284541,
                -0.2723533752612193
            ]
        },
        {
            "positions": [
                -1.0439171236008913,
                -1.1389936424274647,
                -1.424758456978139,
                -0.671671105011476,
                0.13224710112655846,
                -0.1544434320683128
            ]
        },
        {
            "positions": [
                -0.9656572153545904,
                -1.1420597298122994,
                -1.556871965680267,
                -0.6956903252026266,
                0.10001972896857603,
                -0.03653348887540675
            ]
        },
        {
            "positions": [
                -0.8873973071082897,
                -1.1451258171971341,
                -1.6889854743823944,
                -0.7197095453937772,
                0.06779235681059359,
                0.08137645431749929
            ]
        },
        {
            "positions": [
                -0.8091373988619888,
                -1.1481919045819688,
                -1.8210989830845228,
                -0.743728765584928,
                0.03556498465261093,
                0.19928639751040622
            ]
        },
        {
            "positions": [
                -0.7308774906156881,
                -1.1512579919668036,
                -1.9532124917866507,
                -0.7677479857760786,
                0.0033376124946284946,
                0.31719634070331226
            ]
        },
        {
            "positions": [
                -0.6526175823693872,
                -1.1543240793516383,
                -2.085326000488778,
                -0.7917672059672292,
                -0.028889759663353942,
                0.4351062838962183
            ]
        },
        {
            "positions": [
                -0.5743576741230865,
                -1.1573901667364728,
                -2.217439509190906,
                -0.8157864261583798,
                -0.06111713182133649,
                0.5530162270891248
            ]
        },
        {
            "positions": [
                -0.49609776587678556,
                -1.1604562541213075,
                -2.3495530178930344,
                -0.8398056463495306,
                -0.09334450397931904,
                0.6709261702820313
            ]
        },
        {
            "positions": [
                -0.41783785763048464,
                -1.1635223415061422,
                -2.481666526595162,
                -0.8638248665406811,
                -0.12557187613730159,
                0.7888361134749378
            ]
        },
        {
            "positions": [
                -0.3395779493841838,
                -1.166588428890977,
                -2.6137800352972897,
                -0.8878440867318318,
                -0.15779924829528408,
                0.9067460566678438
            ]
        },
        {
            "positions": [
                -0.34812573718003353,
                -1.2347722669857024,
                -2.5929422184212547,
                -0.9760315712786863,
                -0.14286307385096686,
                1.0718465839308557
            ]
        },
        {
            "positions": [
                -0.35667352497588334,
                -1.302956105080428,
                -2.57210440154522,
                -1.0642190558255409,
                -0.12792689940664964,
                1.2369471111938677
            ]
        },
        {
            "positions": [
                -0.3652213127717331,
                -1.3711399431751534,
                -2.551266584669185,
                -1.1524065403723955,
                -0.11299072496233242,
                1.4020476384568796
            ]
        },
        {
            "positions": [
                -0.3737691005675829,
                -1.439323781269879,
                -2.53042876779315,
                -1.24059402491925,
                -0.0980545505180152,
                1.5671481657198916
            ]
        },
        {
            "positions": [
                -0.38231688836343264,
                -1.5075076193646044,
                -2.509590950917115,
                -1.3287815094661046,
                -0.08311837607369799,
                1.7322486929829037
            ]
        },
        {
            "positions": [
                -0.39086467615928244,
                -1.57569145745933,
                -2.4887531340410805,
                -1.4169689940129593,
                -0.06818220162938077,
                1.8973492202459155
            ]
        },
        {
            "positions": [
                -0.3994124639551322,
                -1.6438752955540554,
                -2.4679153171650454,
                -1.5051564785598137,
                -0.05324602718506355,
                2.0624497475089276
            ]
        },
        {
            "positions": [
                -0.3638152582197661,
                -1.6604835446566444,
                -2.4509716433213873,
                -1.6142905458927979,
                -0.07454224903098172,
                2.23879671481036
            ]
        },
        {
            "positions": [
                -0.32821805248440006,
                -1.6770917937592336,
                -2.4340279694777287,
                -1.723424613225782,
                -0.0958384708768999,
                2.415143682111793
            ]
        },
        {
            "positions": [
                -0.292620846749034,
                -1.6937000428618227,
                -2.41708429563407,
                -1.832558680558766,
                -0.11713469272281807,
                2.5914906494132257
            ]
        },
        {
            "positions": [
                -0.2570236410136679,
                -1.7103082919644117,
                -2.400140621790412,
                -1.94169274789175,
                -0.13843091456873624,
                2.767837616714658
            ]
        },
        {
            "positions": [
                -0.22142643527830183,
                -1.7269165410670007,
                -2.383196947946754,
                -2.050826815224734,
                -0.1597271364146544,
                2.9441845840160905
            ]
        },
        {
            "positions": [
                -0.18582922954293576,
                -1.7435247901695898,
                -2.3662532741030953,
                -2.1599608825577183,
                -0.1810233582605726,
                3.1205315513175234
            ]
        }
    ]
}