{
    "goal": {
        "global_pose": {
            "orientation": {
                "w": 0.5084816217422485,
                "x": -0.49083608388900757,
                "y": 0.5182115435600281,
                "z": -0.4816462993621826
            },
            "position": {
                "x": 0.5540239810943604,
                "y": 0.030875300988554955,
                "z": 0.16403168439865112
            }
        },
        "name": "move_to_storage_A"
    },
    "id": "BiTRRT_move_to_storage_A_21",
    "joint_names": [
        "shoulder_pan_joint",
        "shoulder_lift_joint",
        "elbow_joint",
        "wrist_1_joint",
        "wrist_2_joint",
        "wrist_3_joint"
    ],
    "metrics": {
        "cart_traj_len": 0.3533390484218618,
        "distance_elbow_joint": 0.4506138215527058,
        "distance_shoulder_lift_joint": 0.2349974602846956,
        "distance_shoulder_pan_joint": 0.46238810444236345,
        "distance_wrist_1_joint": 0.24322203548867993,
        "distance_wrist_2_joint": 1.0983133881820462,
        "distance_wrist_3_joint": 0.1041042784397277,
        "smoothness": 8.881784197001252e-16,
        "time": 0.035083623,
        "traj_len": 1.6104779068308321,
        "weighted_distance": 2.0355301690076715
    },
    "planner": "BiTRRT",
    "start": {
        "state": {
            "elbow_joint": 1.971548259319323,
            "shoulder_lift_joint": -1.1394851275133948,
            "shoulder_pan_joint": 0.1228115487234821,
            "wrist_1_joint": -0.7804723859257726,
            "wrist_2_joint": 0.12958671773740124,
            "wrist_3_joint": -3.192489227718131
        }
    },
    "waypoints": [
        {
            "positions": [
                0.1228115487234821,
                -1.1394851275133948,
                1.971548259319323,
                -0.7804723859257726,
                0.12958671773740124,
                -3.192489227718131
            ]
        },
        {
            "positions": [
                0.0567561052317159,
                -1.1730561932683514,
                2.0359216623982808,
                -0.815218390995584,
                0.2864886303348364,
                -3.1776171879410273
            ]
        },
        {
            "positions": [
                -0.009299338260050305,
                -1.2066272590233078,
                2.1002950654772388,
                -0.8499643960653954,
                0.44339054293227154,
                -3.162745148163923
            ]
        },
        {
            "positions": [
                -0.07535478175181651,
                -1.2401983247782644,
                2.1646684685561968,
                -0.8847104011352068,
                0.6002924555297067,
                -3.147873108386819
            ]
        },
        {
            "positions": [
                -0.1414102252435827,
                -1.2737693905332208,
                2.2290418716351548,
                -0.9194564062050183,
                0.7571943681271419,
                -3.1330010686097154
            ]
        },
        {
            "positions": [
                -0.20746566873534894,
                -1.3073404562881774,
                2.2934152747141128,
                -0.9542024112748297,
                0.9140962807245772,
                -3.1181290288326116
            ]
        },
        {
            "positions": [
                -0.2735211122271151,
                -1.3409115220431338,
                2.3577886777930708,
                -0.9889484163446411,
                1.070998193322012,
                -3.1032569890555073
            ]
        },
        {
            "positions": [
                -0.33957655571888135,
                -1.3744825877980904,
                2.4221620808720288,
                -1.0236944214144525,
                1.2279001059194474,
                -3.0883849492784035
            ]
        }
    ]
}{
    "goal": {
        "global_pose": {
            "orientation": {
                "w": 0.5084816217422485,
                "x": -0.49083608388900757,
                "y": 0.5182115435600281,
                "z": -0.4816462993621826
            },
            "position": {
                "x": 0.5540239810943604,
                "y": 0.030875300988554955,
                "z": 0.16403168439865112
            }
        },
        "name": "move_to_storage_A"
    },
    "id": "BiTRRT_move_to_storage_A_21",
    "joint_names": [
        "shoulder_pan_joint",
        "shoulder_lift_joint",
        "elbow_joint",
        "wrist_1_joint",
        "wrist_2_joint",
        "wrist_3_joint"
    ],
    "metrics": {
        "cart_traj_len": 0.35321798581111263,
        "distance_elbow_joint": 0.4498885888361843,
        "distance_shoulder_lift_joint": 0.23497338211773222,
        "distance_shoulder_pan_joint": 0.46146454448906676,
        "distance_wrist_1_joint": 0.2395972915431046,
        "distance_wrist_2_joint": 1.101366224709593,
        "distance_wrist_3_joint": 0.10170024949627887,
        "smoothness": 0.0,
        "time": 0.03862116,
        "traj_len": 1.609033958992774,
        "weighted_distance": 2.033065246478139
    },
    "planner": "BiTRRT",
    "start": {
        "state": {
            "elbow_joint": 1.97154746011099,
            "shoulder_lift_joint": -1.13948474672311,
            "shoulder_pan_joint": 0.12281154466712228,
            "wrist_1_joint": -0.7804688027058302,
            "wrist_2_joint": 0.12958655903071145,
            "wrist_3_joint": 3.0906928834467795
        }
    },
    "waypoints": [
        {
            "positions": [
                0.12281154466712228,
                -1.13948474672311,
                1.97154746011099,
                -0.7804688027058302,
                0.12958655903071145,
                3.0906928834467795
            ]
        },
        {
            "positions": [
                0.05688803831154132,
                -1.173052372739929,
                2.035817258516159,
                -0.814696987211988,
                0.2869245911320819,
                3.1052214905176765
            ]
        },
        {
            "positions": [
                -0.009035468044039638,
                -1.2066199987567476,
                2.1000870569213284,
                -0.8489251717181457,
                0.44426262323345234,
                3.1197500975885735
            ]
        },
        {
            "positions": [
                -0.07495897439962061,
                -1.2401876247735666,
                2.1643568553264974,
                -0.8831533562243036,
                0.6016006553348228,
                3.1342787046594704
            ]
        },
        {
            "positions": [
                -0.14088248075520154,
                -1.2737552507903855,
                2.228626653731667,
                -0.9173815407304614,
                0.7589386874361932,
                3.1488073117303674
            ]
        },
        {
            "positions": [
                -0.20680598711078252,
                -1.3073228768072045,
                2.292896452136836,
                -0.9516097252366191,
                0.9162767195375636,
                3.1633359188012644
            ]
        },
        {
            "positions": [
                -0.2727294934663635,
                -1.3408905028240232,
                2.3571662505420052,
                -0.985837909742777,
                1.073614751638934,
                3.1778645258721614
            ]
        },
        {
            "positions": [
                -0.33865299982194447,
                -1.3744581288408422,
                2.4214360489471742,
                -1.0200660942489348,
                1.2309527837403045,
                3.1923931329430584
            ]
        }
    ]
}{
    "goal": {
        "global_pose": {
            "orientation": {
                "w": 0.5084816217422485,
                "x": -0.49083608388900757,
                "y": 0.5182115435600281,
                "z": -0.4816462993621826
            },
            "position": {
                "x": 0.5540239810943604,
                "y": 0.030875300988554955,
                "z": 0.16403168439865112
            }
        },
        "name": "move_to_storage_A"
    },
    "id": "BiTRRT_move_to_storage_A_21",
    "joint_names": [
        "shoulder_pan_joint",
        "shoulder_lift_joint",
        "elbow_joint",
        "wrist_1_joint",
        "wrist_2_joint",
        "wrist_3_joint"
    ],
    "metrics": {
        "cart_traj_len": 0.3534114689215643,
        "distance_elbow_joint": 0.45139101138641324,
        "distance_shoulder_lift_joint": 0.23410979629007378,
        "distance_shoulder_pan_joint": 0.4630637525035326,
        "distance_wrist_1_joint": 0.2475885911200304,
        "distance_wrist_2_joint": 1.095604800530468,
        "distance_wrist_3_joint": 0.09032938243808752,
        "smoothness": 7.771561092534257e-16,
        "time": 0.037585261,
        "traj_len": 1.6068874678298433,
        "weighted_distance": 2.026311795059013
    },
    "planner": "BiTRRT",
    "start": {
        "state": {
            "elbow_joint": 1.9715472970024885,
            "shoulder_lift_joint": -1.1394870060712896,
            "shoulder_pan_joint": 0.12281152778156021,
            "wrist_1_joint": -0.780463741449964,
            "wrist_2_joint": 0.12958659822042276,
            "wrist_3_joint": 3.090690232415272
        }
    },
    "waypoints": [
        {
            "positions": [
                0.12281152778156021,
                -1.1394870060712896,
                1.9715472970024885,
                -0.780463741449964,
                0.12958659822042276,
                3.090690232415272
            ]
        },
        {
            "positions": [
                0.05665956313819841,
                -1.1729312626841573,
                2.0360317272005477,
                -0.8158335401813969,
                0.2861015697247753,
                3.103594429906427
            ]
        },
        {
            "positions": [
                -0.009492401505163395,
                -1.206375519297025,
                2.1005161573986064,
                -0.8512033389128298,
                0.44261654122912786,
                3.1164986273975828
            ]
        },
        {
            "positions": [
                -0.07564436614852518,
                -1.2398197759098926,
                2.1650005875966656,
                -0.8865731376442627,
                0.5991315127334804,
                3.129402824888738
            ]
        },
        {
            "positions": [
                -0.141796330791887,
                -1.2732640325227602,
                2.2294850177947247,
                -0.9219429363756957,
                0.755646484237833,
                3.1423070223798932
            ]
        },
        {
            "positions": [
                -0.20794829543524881,
                -1.306708289135628,
                2.293969447992784,
                -0.9573127351071286,
                0.9121614557421855,
                3.1552112198710485
            ]
        },
        {
            "positions": [
                -0.27410026007861055,
                -1.3401525457484957,
                2.3584538781908426,
                -0.9926825338385614,
                1.068676427246538,
                3.168115417362204
            ]
        },
        {
            "positions": [
                -0.34025222472197236,
                -1.3735968023613634,
                2.422938308388902,
                -1.0280523325699944,
                1.2251913987508907,
                3.1810196148533594
            ]
        }
    ]
}