{
    "goal": {
        "global_pose": {
            "orientation": {
                "w": 0.7031023502349854,
                "x": -0.7110244035720825,
                "y": 0.007748599164187908,
                "z": 0.005598929710686207
            },
            "position": {
                "x": 0.11585023208521307,
                "y": 0.44412534475326537,
                "z": 0.3711530566215515
            }
        },
        "name": "move_to_auspresseinheit_A"
    },
    "id": "BiTRRT_move_to_auspresseinheit_A_56",
    "joint_names": [
        "shoulder_pan_joint",
        "shoulder_lift_joint",
        "elbow_joint",
        "wrist_1_joint",
        "wrist_2_joint",
        "wrist_3_joint"
    ],
    "metrics": {
        "cart_traj_len": 1.5181528106957467,
        "distance_elbow_joint": 1.2290255168076079,
        "distance_shoulder_lift_joint": 0.7166550076999576,
        "distance_shoulder_pan_joint": 1.1414539262220726,
        "distance_wrist_1_joint": 0.9478858590460614,
        "distance_wrist_2_joint": 2.03069960952887,
        "distance_wrist_3_joint": 0.871342204437672,
        "smoothness": 0.5882694374816612,
        "time": 0.063439296,
        "traj_len": 2.633830314151282,
        "weighted_distance": 3.414429967240874
    },
    "planner": "BiTRRT",
    "start": {
        "state": {
            "elbow_joint": 2.4225746658250005,
            "shoulder_lift_joint": -1.3736534386056498,
            "shoulder_pan_joint": -0.3378633547517467,
            "wrist_1_joint": -1.0288598680537169,
            "wrist_2_joint": 1.233022673432363,
            "wrist_3_joint": -3.0940220416140027
        }
    },
    "waypoints": [
        {
            "positions": [
                -0.3378633547517467,
                -1.3736534386056498,
                2.4225746658250005,
                -1.0288598680537169,
                1.233022673432363,
                -3.0940220416140027
            ]
        },
        {
            "positions": [
                -0.28435157399309074,
                -1.4184921934472434,
                2.3391361125322048,
                -0.9819664342548642,
                1.1468813501286996,
                -3.0242519193586914
            ]
        },
        {
            "positions": [
                -0.23083979323443482,
                -1.463330948288837,
                2.255697559239409,
                -0.9350730004560115,
                1.0607400268250362,
                -2.9544817971033797
            ]
        },
        {
            "positions": [
                -0.17732801247577884,
                -1.5081697031304306,
                2.1722590059466134,
                -0.8881795666571588,
                0.9745987035213727,
                -2.8847116748480683
            ]
        },
        {
            "positions": [
                -0.12381623171712289,
                -1.5530084579720242,
                2.088820452653818,
                -0.8412861328583061,
                0.8884573802177093,
                -2.814941552592757
            ]
        },
        {
            "positions": [
                -0.07030445095846688,
                -1.5978472128136179,
                2.0053818993610224,
                -0.7943926990594533,
                0.8023160569140457,
                -2.7451714303374453
            ]
        },
        {
            "positions": [
                -0.016792670199810927,
                -1.6426859676552115,
                1.9219433460682267,
                -0.7474992652606006,
                0.7161747336103823,
                -2.675401308082134
            ]
        },
        {
            "positions": [
                0.07940465796735363,
                -1.6921584184321952,
                1.9005810335687179,
                -0.7027370481234491,
                0.6142831121839172,
                -2.698338779742424
            ]
        },
        {
            "positions": [
                0.1756019861345182,
                -1.7416308692091789,
                1.879218721069209,
                -0.6579748309862975,
                0.5123914907574522,
                -2.7212762514027142
            ]
        },
        {
            "positions": [
                0.2717993143016828,
                -1.7911033199861626,
                1.8578564085697002,
                -0.6132126138491459,
                0.41049986933098703,
                -2.7442137230630044
            ]
        },
        {
            "positions": [
                0.36799664246884733,
                -1.8405757707631465,
                1.8364940960701917,
                -0.5684503967119944,
                0.30860824790452196,
                -2.7671511947232945
            ]
        },
        {
            "positions": [
                0.464193970636012,
                -1.8900482215401302,
                1.8151317835706828,
                -0.5236881795748428,
                0.20671662647805678,
                -2.7900886663835847
            ]
        },
        {
            "positions": [
                0.5603912988031765,
                -1.939520672317114,
                1.793769471071174,
                -0.47892596243769125,
                0.10482500505159172,
                -2.813026138043875
            ]
        },
        {
            "positions": [
                0.6373980114086887,
                -1.9691911788227638,
                1.8087876298221621,
                -0.4443892269105052,
                0.02709486030114333,
                -2.858167109161467
            ]
        },
        {
            "positions": [
                0.7144047240142009,
                -1.9988616853284138,
                1.8238057885731505,
                -0.40985249138331914,
                -0.05063528444930505,
                -2.903308080279059
            ]
        },
        {
            "positions": [
                0.7339450528727511,
                -1.9791832265035991,
                1.9501187593215896,
                -0.3521027305175241,
                -2.8793147567707233e-05,
                -2.9325143656884385
            ]
        },
        {
            "positions": [
                0.7534853817313013,
                -1.9595047676787845,
                2.076431730070029,
                -0.2943529696517291,
                0.05057769815416963,
                -2.961720651097818
            ]
        },
        {
            "positions": [
                0.7490008325840358,
                -1.9423820156787162,
                2.1593384891916534,
                -0.2841064922493745,
                0.1351877691086971,
                -2.981620861395658
            ]
        },
        {
            "positions": [
                0.7445162834367702,
                -1.9252592636786479,
                2.2422452483132784,
                -0.27386001484701994,
                0.21979784006322456,
                -3.0015210716934977
            ]
        },
        {
            "positions": [
                0.7333449624210404,
                -1.911366840273865,
                2.326856704838211,
                -0.31053272676773025,
                0.377107512404092,
                -3.04159629543477
            ]
        },
        {
            "positions": [
                0.7238875057087268,
                -1.908514736909153,
                2.3562067882994144,
                -0.35740217965585214,
                0.48384096068289467,
                -3.0701632557213934
            ]
        },
        {
            "positions": [
                0.7136338488505017,
                -1.9079648306301866,
                2.375098290712185,
                -0.41207410017111834,
                0.5901236639403955,
                -3.099143017354665
            ]
        },
        {
            "positions": [
                0.7033801919922766,
                -1.9074149243512202,
                2.3939897931249554,
                -0.4667460206863846,
                0.6964063671978964,
                -3.128122778987937
            ]
        }
    ]
}