{
    "goal": {
        "global_pose": {
            "orientation": {
                "w": -0.00223480608172531,
                "x": 0.0024358444001904467,
                "y": 0.7094548369677653,
                "z": -0.704743149386269
            },
            "position": {
                "x": -0.37947507619857795,
                "y": -0.6371506643295288,
                "z": 0.19426114857196808
            }
        },
        "name": "move_to_magneteinheit_C"
    },
    "id": "BiTRRT_move_to_magneteinheit_C_86",
    "joint_names": [
        "shoulder_pan_joint",
        "shoulder_lift_joint",
        "elbow_joint",
        "wrist_1_joint",
        "wrist_2_joint",
        "wrist_3_joint"
    ],
    "metrics": {
        "cart_traj_len": 1.8377878158700502,
        "distance_elbow_joint": 1.5938951485269373,
        "distance_shoulder_lift_joint": 1.0985772792460653,
        "distance_shoulder_pan_joint": 0.8303500550118701,
        "distance_wrist_1_joint": 1.3302417051620463,
        "distance_wrist_2_joint": 1.330029511165927,
        "distance_wrist_3_joint": 1.4949462858185947,
        "smoothness": 0.8553260944700934,
        "time": 0.077667601,
        "traj_len": 2.7709276397862577,
        "weighted_distance": 3.6507812551420558
    },
    "planner": "BiTRRT",
    "start": {
        "state": {
            "elbow_joint": 1.9565354010623817,
            "shoulder_lift_joint": -1.4165861575791021,
            "shoulder_pan_joint": -1.6717766225146293,
            "wrist_1_joint": -0.5286633292919765,
            "wrist_2_joint": 1.472756589071564,
            "wrist_3_joint": -3.1238370188695823
        }
    },
    "waypoints": [
        {
            "positions": [
                -1.6717766225146293,
                -1.4165861575791021,
                1.9565354010623817,
                -0.5286633292919765,
                1.472756589071564,
                -3.1238370188695823
            ]
        },
        {
            "positions": [
                -1.6806679192493834,
                -1.4861269442451381,
                1.9664583554151163,
                -0.4543004232393876,
                1.3710024693040581,
                -3.0536224195454653
            ]
        },
        {
            "positions": [
                -1.6895592159841373,
                -1.555667730911174,
                1.9763813097678509,
                -0.37993751718679863,
                1.2692483495365523,
                -2.9834078202213483
            ]
        },
        {
            "positions": [
                -1.697563155559623,
                -1.5938479404718444,
                1.9488967374384936,
                -0.33396076531825236,
                1.1791606731856623,
                -2.90534421726629
            ]
        },
        {
            "positions": [
                -1.7055670951351085,
                -1.632028150032515,
                1.9214121651091363,
                -0.28798401344970614,
                1.089072996834772,
                -2.827280614311232
            ]
        },
        {
            "positions": [
                -1.7833725560541671,
                -1.6532222808715444,
                1.8275098593344532,
                -0.255345167012075,
                1.0318872829321732,
                -2.7750436116311787
            ]
        },
        {
            "positions": [
                -1.8611780169732257,
                -1.674416411710574,
                1.7336075535597701,
                -0.2227063205744438,
                0.9747015690295744,
                -2.7228066089511254
            ]
        },
        {
            "positions": [
                -1.9389834778922843,
                -1.6956105425496037,
                1.639705247785087,
                -0.19006747413681266,
                0.9175158551269756,
                -2.6705696062710715
            ]
        },
        {
            "positions": [
                -2.016788938811343,
                -1.7168046733886333,
                1.545802942010404,
                -0.15742862769918148,
                0.8603301412243768,
                -2.618332603591018
            ]
        },
        {
            "positions": [
                -2.0945943997304015,
                -1.7379988042276628,
                1.451900636235721,
                -0.12478978126155033,
                0.8031444273217779,
                -2.566095600910965
            ]
        },
        {
            "positions": [
                -2.146990643793231,
                -1.6540376212530863,
                1.4113237000269858,
                -0.22137917119866085,
                0.8415894008522355,
                -2.535023773448321
            ]
        },
        {
            "positions": [
                -2.1993868878560607,
                -1.5700764382785097,
                1.3707467638182507,
                -0.3179685611357714,
                0.880034374382693,
                -2.503951945985678
            ]
        },
        {
            "positions": [
                -2.25178313191889,
                -1.4861152553039332,
                1.3301698276095157,
                -0.4145579510728819,
                0.9184793479131506,
                -2.472880118523035
            ]
        },
        {
            "positions": [
                -2.3041793759817195,
                -1.4021540723293566,
                1.2895928914007806,
                -0.5111473410099925,
                0.9569243214436082,
                -2.4418082910603913
            ]
        },
        {
            "positions": [
                -2.3565756200445493,
                -1.31819288935478,
                1.2490159551920454,
                -0.6077367309471029,
                0.9953692949740658,
                -2.4107364635977477
            ]
        },
        {
            "positions": [
                -2.4089718641073787,
                -1.2342317063802035,
                1.2084390189833103,
                -0.7043261208842135,
                1.0338142685045233,
                -2.3796646361351046
            ]
        },
        {
            "positions": [
                -2.433912941060338,
                -1.1769460855867115,
                1.3190498954494718,
                -0.7873693273969482,
                1.0465838181585758,
                -2.4514544738131585
            ]
        },
        {
            "positions": [
                -2.4588540180132976,
                -1.1196604647932196,
                1.4296607719156331,
                -0.8704125339096828,
                1.0593533678126286,
                -2.523244311491212
            ]
        },
        {
            "positions": [
                -2.483795094966257,
                -1.0623748439997276,
                1.5402716483817946,
                -0.9534557404224174,
                1.072122917466681,
                -2.595034149169266
            ]
        },
        {
            "positions": [
                -2.4850888130373465,
                -1.0694685280113463,
                1.6633049800686213,
                -0.9340354839827586,
                0.9659102596087922,
                -2.718210349398597
            ]
        },
        {
            "positions": [
                -2.4863825311084367,
                -1.0765622120229652,
                1.7863383117554477,
                -0.9146152275430997,
                0.8596976017509033,
                -2.8413865496279285
            ]
        },
        {
            "positions": [
                -2.4876762491795263,
                -1.083655896034584,
                1.9093716434422743,
                -0.8951949711034408,
                0.7534849438930142,
                -2.9645627498572598
            ]
        },
        {
            "positions": [
                -2.48045103500604,
                -1.1237857062019403,
                1.961958805731256,
                -0.8754742567775526,
                0.7170845010442287,
                -3.047500644538241
            ]
        },
        {
            "positions": [
                -2.4732258208325533,
                -1.163915516369297,
                2.0145459680202378,
                -0.8557535424516645,
                0.6806840581954432,
                -3.1304385392192215
            ]
        }
    ]
}