{
    "goal": {
        "global_pose": {
            "orientation": {
                "w": 0.7031023480610252,
                "x": -0.7110244013736278,
                "y": 0.0077485991402295624,
                "z": 0.005598929693374583
            },
            "position": {
                "x": -0.8841497679147869,
                "y": 0.44412534475326537,
                "z": 0.3711530566215515
            }
        },
        "name": "move_to_auspresseinheit_D"
    },
    "id": "BiTRRT_move_to_auspresseinheit_D_57",
    "joint_names": [
        "shoulder_pan_joint",
        "shoulder_lift_joint",
        "elbow_joint",
        "wrist_1_joint",
        "wrist_2_joint",
        "wrist_3_joint"
    ],
    "metrics": {
        "cart_traj_len": 0.34298718919756116,
        "distance_elbow_joint": 0.6338426309548391,
        "distance_shoulder_lift_joint": 0.11882514260501154,
        "distance_shoulder_pan_joint": 0.13384172260799027,
        "distance_wrist_1_joint": 0.5135358974376256,
        "distance_wrist_2_joint": 1.4344438030326538,
        "distance_wrist_3_joint": 0.019924355649621805,
        "smoothness": 5.921189511553294e-16,
        "time": 0.031221775,
        "traj_len": 1.6895009772970664,
        "weighted_distance": 2.200509478292985
    },
    "planner": "BiTRRT",
    "start": {
        "state": {
            "elbow_joint": -1.8275523626775212,
            "shoulder_lift_joint": -2.126789852344167,
            "shoulder_pan_joint": -0.03513704404078235,
            "wrist_1_joint": -2.347782403156801,
            "wrist_2_joint": -1.6058999987535132,
            "wrist_3_joint": -3.0880379163319196
        }
    },
    "waypoints": [
        {
            "positions": [
                -0.03513704404078235,
                -2.126789852344167,
                -1.8275523626775212,
                -2.347782403156801,
                -1.6058999987535132,
                -3.0880379163319196
            ]
        },
        {
            "positions": [
                -0.05186725936678113,
                -2.1416429951697933,
                -1.7483220338081664,
                -2.4119743903365043,
                -1.4265945233744315,
                -3.0905284607881223
            ]
        },
        {
            "positions": [
                -0.06859747469277991,
                -2.1564961379954197,
                -1.6690917049388114,
                -2.4761663775162073,
                -1.2472890479953498,
                -3.093019005244325
            ]
        },
        {
            "positions": [
                -0.0853276900187787,
                -2.171349280821046,
                -1.5898613760694564,
                -2.5403583646959103,
                -1.067983572616268,
                -3.0955095497005276
            ]
        },
        {
            "positions": [
                -0.10205790534477749,
                -2.1862024236466726,
                -1.5106310472001017,
                -2.6045503518756137,
                -0.8886780972371863,
                -3.0980000941567303
            ]
        },
        {
            "positions": [
                -0.11878812067077626,
                -2.201055566472299,
                -1.431400718330747,
                -2.668742339055317,
                -0.7093726218581046,
                -3.1004906386129334
            ]
        },
        {
            "positions": [
                -0.13551833599677504,
                -2.2159087092979255,
                -1.352170389461392,
                -2.73293432623502,
                -0.5300671464790228,
                -3.102981183069136
            ]
        },
        {
            "positions": [
                -0.15224855132277385,
                -2.230761852123552,
                -1.272940060592037,
                -2.797126313414723,
                -0.35076167109994105,
                -3.1054717275253387
            ]
        },
        {
            "positions": [
                -0.16897876664877262,
                -2.2456149949491784,
                -1.1937097317226821,
                -2.8613183005944265,
                -0.17145619572085927,
                -3.1079622719815414
            ]
        }
    ]
}