{
    "goal": {
        "global_pose": {
            "orientation": {
                "w": 0.7047431493862688,
                "x": -0.7094548369677653,
                "y": 0.0024358444001904,
                "z": -0.0022348060817251984
            },
            "position": {
                "x": -0.39052492380142206,
                "y": 0.3671506643295288,
                "z": 0.19426114857196808
            }
        },
        "name": "move_to_magneteinheit_D"
    },
    "id": "BiTRRT_move_to_magneteinheit_D_10",
    "joint_names": [
        "shoulder_pan_joint",
        "shoulder_lift_joint",
        "elbow_joint",
        "wrist_1_joint",
        "wrist_2_joint",
        "wrist_3_joint"
    ],
    "metrics": {
        "cart_traj_len": 4.239004832782583,
        "distance_elbow_joint": 3.1250660480361896,
        "distance_shoulder_lift_joint": 2.0890496192988466,
        "distance_shoulder_pan_joint": 3.052293562249258,
        "distance_wrist_1_joint": 2.546259480582293,
        "distance_wrist_2_joint": 1.1501058780943982,
        "distance_wrist_3_joint": 3.1673982652756405,
        "smoothness": 0.4787928596159046,
        "time": 0.133448339,
        "traj_len": 3.8897522869119348,
        "weighted_distance": 5.016107529027322
    },
    "planner": "BiTRRT",
    "start": {
        "state": {
            "elbow_joint": 0.749534889911806,
            "shoulder_lift_joint": -0.6476975780787326,
            "shoulder_pan_joint": -2.711696901376241,
            "wrist_1_joint": -0.07506478083263063,
            "wrist_2_joint": 0.43296659715538205,
            "wrist_3_joint": -3.14703540197715
        }
    },
    "waypoints": [
        {
            "positions": [
                -2.711696901376241,
                -0.6476975780787326,
                0.749534889911806,
                -0.07506478083263063,
                0.43296659715538205,
                -3.14703540197715
            ]
        },
        {
            "positions": [
                -2.7243751089461004,
                -0.6743103583663382,
                0.7463086792917666,
                -0.05645732234238996,
                0.42952407937074244,
                -2.904612105601285
            ]
        },
        {
            "positions": [
                -2.7370533165159596,
                -0.7009231386539437,
                0.7430824686717272,
                -0.03784986385214929,
                0.42608156158610283,
                -2.662188809225419
            ]
        },
        {
            "positions": [
                -2.749731524085819,
                -0.7275359189415493,
                0.7398562580516879,
                -0.019242405361908625,
                0.4226390438014632,
                -2.419765512849554
            ]
        },
        {
            "positions": [
                -2.764336765669216,
                -0.6519827150473172,
                0.6474254645405031,
                -0.056334662723399126,
                0.4242301819369397,
                -2.3037912536468887
            ]
        },
        {
            "positions": [
                -2.7789420072526134,
                -0.5764295111530852,
                0.5549946710293183,
                -0.09342692008488962,
                0.4258213200724161,
                -2.187816994444223
            ]
        },
        {
            "positions": [
                -2.7935472488360107,
                -0.500876307258853,
                0.4625638775181335,
                -0.13051917744638014,
                0.42741245820789253,
                -2.071842735241558
            ]
        },
        {
            "positions": [
                -2.7705637385335407,
                -0.5480387063757768,
                0.35427057787886,
                -0.3100866049341121,
                0.42292199805479214,
                -2.082502089058022
            ]
        },
        {
            "positions": [
                -2.7475802282310706,
                -0.5952011054927007,
                0.24597727823958654,
                -0.4896540324218441,
                0.41843153790169174,
                -2.093161442874486
            ]
        },
        {
            "positions": [
                -2.638144742382516,
                -0.6283916873238325,
                0.16662146726550575,
                -0.42710889890342857,
                0.38598731505855594,
                -2.0229845793947687
            ]
        },
        {
            "positions": [
                -2.5287092565339613,
                -0.6615822691549643,
                0.08726565629142494,
                -0.364563765385013,
                0.35354309221542013,
                -1.9528077159150516
            ]
        },
        {
            "positions": [
                -2.4192737706854066,
                -0.6947728509860962,
                0.00790984531734415,
                -0.3020186318665975,
                0.3210988693722844,
                -1.8826308524353346
            ]
        },
        {
            "positions": [
                -2.3098382848368524,
                -0.727963432817228,
                -0.07144596565673667,
                -0.239473498348182,
                0.2886546465291485,
                -1.8124539889556175
            ]
        },
        {
            "positions": [
                -2.2004027989882977,
                -0.7611540146483599,
                -0.15080177663081745,
                -0.17692836482976648,
                0.25621042368601277,
                -1.7422771254759004
            ]
        },
        {
            "positions": [
                -2.090967313139743,
                -0.7943445964794917,
                -0.23015758760489824,
                -0.11438323131135097,
                0.22376620084287696,
                -1.6721002619961836
            ]
        },
        {
            "positions": [
                -1.9815318272911884,
                -0.8275351783106235,
                -0.309513398578979,
                -0.05183809779293547,
                0.19132197799974116,
                -1.6019233985164665
            ]
        },
        {
            "positions": [
                -1.8720963414426337,
                -0.8607257601417554,
                -0.38886920955305987,
                0.010707035725480096,
                0.15887775515660535,
                -1.5317465350367494
            ]
        },
        {
            "positions": [
                -1.7626608555940793,
                -0.8939163419728873,
                -0.4682250205271406,
                0.0732521692438956,
                0.1264335323134696,
                -1.4615696715570323
            ]
        },
        {
            "positions": [
                -1.6532253697455246,
                -0.927106923804019,
                -0.5475808315012214,
                0.1357973027623111,
                0.09398930947033379,
                -1.3913928080773152
            ]
        },
        {
            "positions": [
                -1.54378988389697,
                -0.960297505635151,
                -0.6269366424753022,
                0.19834243628072662,
                0.06154508662719793,
                -1.3212159445975982
            ]
        },
        {
            "positions": [
                -1.4343543980484155,
                -0.9934880874662828,
                -0.7062924534493831,
                0.2608875697991421,
                0.02910086378406218,
                -1.2510390811178813
            ]
        },
        {
            "positions": [
                -1.3249189121998606,
                -1.0266786692974148,
                -0.7856482644234639,
                0.32343270331755763,
                -0.003343359059073625,
                -1.180862217638164
            ]
        },
        {
            "positions": [
                -1.2154834263513061,
                -1.0598692511285464,
                -0.8650040753975445,
                0.38597783683597314,
                -0.03578758190220943,
                -1.1106853541584472
            ]
        },
        {
            "positions": [
                -1.1060479405027515,
                -1.0930598329596783,
                -0.9443598863716254,
                0.44852297035438876,
                -0.06823180474534524,
                -1.0405084906787299
            ]
        },
        {
            "positions": [
                -0.996612454654197,
                -1.1262504147908101,
                -1.0237156973457062,
                0.5110681038728042,
                -0.10067602758848104,
                -0.970331627199013
            ]
        },
        {
            "positions": [
                -0.8871769688056423,
                -1.1594409966219419,
                -1.103071508319787,
                0.5736132373912197,
                -0.1331202504316168,
                -0.9001547637192959
            ]
        },
        {
            "positions": [
                -0.7777414829570879,
                -1.1926315784530739,
                -1.1824273192938677,
                0.6361583709096352,
                -0.16556447327475254,
                -0.8299779002395788
            ]
        },
        {
            "positions": [
                -0.6683059971085332,
                -1.2258221602842059,
                -1.2617831302679485,
                0.6987035044280507,
                -0.1980086961178884,
                -0.7598010367598618
            ]
        },
        {
            "positions": [
                -0.5588705112599786,
                -1.2590127421153374,
                -1.3411389412420294,
                0.7612486379464662,
                -0.23045291896102416,
                -0.6896241732801447
            ]
        },
        {
            "positions": [
                -0.44943502541142377,
                -1.2922033239464694,
                -1.4204947522161102,
                0.8237937714648819,
                -0.26289714180416,
                -0.6194473098004276
            ]
        },
        {
            "positions": [
                -0.3857820365968967,
                -1.3404545401563999,
                -1.4963420812400237,
                0.8990904890068133,
                -0.2453374543033029,
                -0.5599218599417157
            ]
        },
        {
            "positions": [
                -0.3221290477823696,
                -1.3887057563663303,
                -1.572189410263937,
                0.9743872065487448,
                -0.2277777668024458,
                -0.5003964100830038
            ]
        },
        {
            "positions": [
                -0.2584760589678426,
                -1.4369569725762608,
                -1.6480367392878503,
                1.0496839240906761,
                -0.21021807930158867,
                -0.44087096022429206
            ]
        },
        {
            "positions": [
                -0.19482307015331551,
                -1.4852081887861912,
                -1.7238840683117638,
                1.1249806416326076,
                -0.19265839180073158,
                -0.3813455103655802
            ]
        },
        {
            "positions": [
                -0.13117008133878844,
                -1.5334594049961217,
                -1.7997313973356772,
                1.200277359174539,
                -0.17509870429987445,
                -0.3218200605068683
            ]
        },
        {
            "positions": [
                -0.06751709252426141,
                -1.581710621206052,
                -1.8755787263595907,
                1.2755740767164705,
                -0.15753901679901733,
                -0.26229461064815646
            ]
        },
        {
            "positions": [
                -0.0038641037097343622,
                -1.6299618374159826,
                -1.951426055383504,
                1.350870794258402,
                -0.1399793292981602,
                -0.20276916078944457
            ]
        },
        {
            "positions": [
                -0.013823387237120954,
                -1.7345381953501795,
                -2.0636252352178976,
                1.4153972717752095,
                -0.11016607745433354,
                -0.18002998649542515
            ]
        },
        {
            "positions": [
                -0.023782670764507546,
                -1.8391145532843765,
                -2.1758244150522907,
                1.479923749292017,
                -0.08035282561050688,
                -0.15729081220140573
            ]
        },
        {
            "positions": [
                -0.06510750653526763,
                -1.955178412537035,
                -2.230935687929597,
                1.4951487164519335,
                -0.013606483078974885,
                -0.12293347068271131
            ]
        },
        {
            "positions": [
                -0.10643234230602772,
                -2.0712422717896937,
                -2.2860469608069036,
                1.5103736836118502,
                0.053139859452557114,
                -0.08857612916401689
            ]
        },
        {
            "positions": [
                -0.14775717807678782,
                -2.1873061310423525,
                -2.34115823368421,
                1.5255986507717667,
                0.11988620198408913,
                -0.05421878764532246
            ]
        },
        {
            "positions": [
                -0.18462417337294704,
                -2.2834279740121866,
                -2.375531158124383,
                1.5303714456297923,
                0.1817981685178376,
                -0.022274551967365816
            ]
        }
    ]
}