{
    "goal": {
        "global_pose": {
            "orientation": {
                "w": 0.7047431468963623,
                "x": -0.7094548344612122,
                "y": 0.0024358443915843964,
                "z": -0.0022348060738295317
            },
            "position": {
                "x": 0.6094750761985779,
                "y": 0.3671506643295288,
                "z": 0.19426114857196808
            }
        },
        "name": "move_to_magneteinheit_A"
    },
    "id": "BiTRRT_move_to_magneteinheit_A_132",
    "joint_names": [
        "shoulder_pan_joint",
        "shoulder_lift_joint",
        "elbow_joint",
        "wrist_1_joint",
        "wrist_2_joint",
        "wrist_3_joint"
    ],
    "metrics": {
        "cart_traj_len": 3.3962064841112625,
        "distance_elbow_joint": 4.459983105395873,
        "distance_shoulder_lift_joint": 0.8664118020236465,
        "distance_shoulder_pan_joint": 3.4325702774998574,
        "distance_wrist_1_joint": 3.604722021054992,
        "distance_wrist_2_joint": 1.7248526571681477,
        "distance_wrist_3_joint": 0.8214023431312625,
        "smoothness": 0.4506664817695793,
        "time": 0.11109192,
        "traj_len": 3.8613394316316954,
        "weighted_distance": 4.677854376822717
    },
    "planner": "BiTRRT",
    "start": {
        "state": {
            "elbow_joint": -1.9196185241190666,
            "shoulder_lift_joint": -1.2443396400964142,
            "shoulder_pan_joint": 2.6996025414629847,
            "wrist_1_joint": -1.5485510000780065,
            "wrist_2_joint": -1.5709468930060704,
            "wrist_3_joint": 0.4420197071253992
        }
    },
    "waypoints": [
        {
            "positions": [
                2.6996025414629847,
                -1.2443396400964142,
                -1.9196185241190666,
                -1.5485510000780065,
                -1.5709468930060704,
                0.4420197071253992
            ]
        },
        {
            "positions": [
                2.5909140411705684,
                -1.2290082553845343,
                -1.8330669199571699,
                -1.459253045080018,
                -1.4999201160853044,
                0.42969829840757817
            ]
        },
        {
            "positions": [
                2.482225540878152,
                -1.2136768706726546,
                -1.746515315795273,
                -1.3699550900820296,
                -1.4288933391645382,
                0.4173768896897572
            ]
        },
        {
            "positions": [
                2.373537040585736,
                -1.198345485960775,
                -1.6599637116333765,
                -1.2806571350840414,
                -1.357866562243772,
                0.4050554809719362
            ]
        },
        {
            "positions": [
                2.2648485402933196,
                -1.183014101248895,
                -1.5734121074714795,
                -1.191359180086053,
                -1.286839785323006,
                0.3927340722541153
            ]
        },
        {
            "positions": [
                2.1561600400009038,
                -1.1676827165370152,
                -1.486860503309583,
                -1.1020612250880646,
                -1.21581300840224,
                0.38041266353629427
            ]
        },
        {
            "positions": [
                2.0474715397084875,
                -1.1523513318251355,
                -1.4003088991476862,
                -1.0127632700900762,
                -1.1447862314814738,
                0.36809125481847327
            ]
        },
        {
            "positions": [
                1.9387830394160712,
                -1.1370199471132558,
                -1.3137572949857894,
                -0.9234653150920877,
                -1.0737594545607079,
                0.3557698461006523
            ]
        },
        {
            "positions": [
                1.830094539123655,
                -1.121688562401376,
                -1.2272056908238926,
                -0.8341673600940993,
                -1.0027326776399417,
                0.3434484373828313
            ]
        },
        {
            "positions": [
                1.7214060388312387,
                -1.106357177689496,
                -1.1406540866619959,
                -0.744869405096111,
                -0.9317059007191756,
                0.3311270286650103
            ]
        },
        {
            "positions": [
                1.6127175385388224,
                -1.0910257929776164,
                -1.0541024825000993,
                -0.6555714500981226,
                -0.8606791237984095,
                0.31880561994718937
            ]
        },
        {
            "positions": [
                1.504029038246406,
                -1.0756944082657367,
                -0.9675508783382024,
                -0.5662734951001341,
                -0.7896523468776433,
                0.30648421122936836
            ]
        },
        {
            "positions": [
                1.39534053795399,
                -1.0603630235538568,
                -0.8809992741763057,
                -0.4769755401021458,
                -0.7186255699568773,
                0.2941628025115474
            ]
        },
        {
            "positions": [
                1.2866520376615735,
                -1.045031638841977,
                -0.794447670014409,
                -0.3876775851041574,
                -0.6475987930361112,
                0.2818413937937264
            ]
        },
        {
            "positions": [
                1.1779635373691575,
                -1.0297002541300972,
                -0.7078960658525122,
                -0.29837963010616897,
                -0.5765720161153453,
                0.26951998507590547
            ]
        },
        {
            "positions": [
                1.0692750370767412,
                -1.0143688694182176,
                -0.6213444616906154,
                -0.20908167510818054,
                -0.5055452391945792,
                0.25719857635808446
            ]
        },
        {
            "positions": [
                0.9605865367843249,
                -0.9990374847063377,
                -0.5347928575287186,
                -0.11978372011019212,
                -0.43451846227381297,
                0.24487716764026346
            ]
        },
        {
            "positions": [
                0.8518980364919089,
                -0.9837060999944579,
                -0.4482412533668221,
                -0.03048576511220391,
                -0.363491685353047,
                0.2325557589224425
            ]
        },
        {
            "positions": [
                0.7432095361994924,
                -0.9683747152825781,
                -0.3616896492049253,
                0.058812189885784516,
                -0.2924649084322808,
                0.2202343502046215
            ]
        },
        {
            "positions": [
                0.6345210359070763,
                -0.9530433305706983,
                -0.2751380450430285,
                0.14811014488377294,
                -0.2214381315115148,
                0.20791294148680056
            ]
        },
        {
            "positions": [
                0.52583253561466,
                -0.9377119458588186,
                -0.18858644088113177,
                0.23740809988176143,
                -0.15041135459074856,
                0.19559153276897956
            ]
        },
        {
            "positions": [
                0.47042335477832536,
                -0.9509705178365726,
                -0.02507827611095087,
                0.35361444718118196,
                -0.1394100723063241,
                0.20902077811350442
            ]
        },
        {
            "positions": [
                0.4150141739419907,
                -0.9642290898143265,
                0.13842988865923003,
                0.46982079448060254,
                -0.12840879002189962,
                0.2224500234580293
            ]
        },
        {
            "positions": [
                0.3596049931056561,
                -0.9774876617920806,
                0.30193805342941094,
                0.5860271417800231,
                -0.11740750773747514,
                0.23587926880255417
            ]
        },
        {
            "positions": [
                0.3041958122693214,
                -0.9907462337698346,
                0.46544621819959187,
                0.7022334890794436,
                -0.10640622545305067,
                0.24930851414707902
            ]
        },
        {
            "positions": [
                0.24878663143298674,
                -1.0040048057475885,
                0.6289543829697728,
                0.8184398363788641,
                -0.09540494316862622,
                0.2627377594916039
            ]
        },
        {
            "positions": [
                0.19337745059665207,
                -1.0172633777253426,
                0.7924625477399537,
                0.9346461836782847,
                -0.08440366088420173,
                0.27616700483612877
            ]
        },
        {
            "positions": [
                0.1379682697603174,
                -1.0305219497030966,
                0.9559707125101347,
                1.0508525309777053,
                -0.07340237859977726,
                0.28959625018065366
            ]
        },
        {
            "positions": [
                0.08255908892398278,
                -1.0437805216808507,
                1.1194788772803155,
                1.1670588782771258,
                -0.0624010963153528,
                0.3030254955251785
            ]
        },
        {
            "positions": [
                0.02714990808764811,
                -1.0570390936586047,
                1.2829870420504963,
                1.2832652255765462,
                -0.05139981403092833,
                0.3164547408697034
            ]
        },
        {
            "positions": [
                -0.02825927274868656,
                -1.0702976656363588,
                1.4464952068206773,
                1.3994715728759668,
                -0.04039853174650386,
                0.3298839862142282
            ]
        },
        {
            "positions": [
                -0.08366845358502117,
                -1.0835562376141126,
                1.6100033715908582,
                1.5156779201753872,
                -0.02939724946207939,
                0.3433132315587531
            ]
        },
        {
            "positions": [
                -0.1390776344213559,
                -1.0968148095918666,
                1.7735115363610392,
                1.631884267474808,
                -0.018395967177654904,
                0.356742476903278
            ]
        },
        {
            "positions": [
                -0.19448681525769052,
                -1.1100733815696207,
                1.9370197011312202,
                1.7480906147742286,
                -0.0073946848932304465,
                0.37017172224780287
            ]
        },
        {
            "positions": [
                -0.24989599609402524,
                -1.1233319535473747,
                2.100527865901401,
                1.864296962073649,
                0.0036065973911940385,
                0.38360096759232776
            ]
        },
        {
            "positions": [
                -0.3053051769303598,
                -1.1365905255251287,
                2.2640360306715817,
                1.9805033093730695,
                0.014607879675618496,
                0.3970302129368526
            ]
        },
        {
            "positions": [
                -0.2197726651090574,
                -1.0644094199011807,
                2.2087703205505367,
                1.965369767052286,
                -0.013251697221673131,
                0.3223231152154586
            ]
        },
        {
            "positions": [
                -0.13424015328775504,
                -0.9922283142772325,
                2.1535046104294917,
                1.9502362247315026,
                -0.04111127411896476,
                0.2476160174940646
            ]
        },
        {
            "positions": [
                -0.04870764146645268,
                -0.9200472086532843,
                2.098238900308447,
                1.9351026824107191,
                -0.06897085101625638,
                0.1729089197726706
            ]
        },
        {
            "positions": [
                0.036824870354849715,
                -0.8478661030293362,
                2.042973190187402,
                1.9199691400899357,
                -0.09683042791354801,
                0.09820182205127659
            ]
        },
        {
            "positions": [
                0.12235738217615202,
                -0.775684997405388,
                1.9877074800663572,
                1.9048355977691522,
                -0.12469000481083965,
                0.02349472432988261
            ]
        }
    ]
}