{
    "goal": {
        "global_pose": {
            "orientation": {
                "w": -0.00223480608172531,
                "x": 0.0024358444001904467,
                "y": 0.7094548369677653,
                "z": -0.704743149386269
            },
            "position": {
                "x": -0.37947507619857795,
                "y": -0.6371506643295288,
                "z": 0.19426114857196808
            }
        },
        "name": "move_to_magneteinheit_C"
    },
    "id": "BiTRRT_move_to_magneteinheit_C_133",
    "joint_names": [
        "shoulder_pan_joint",
        "shoulder_lift_joint",
        "elbow_joint",
        "wrist_1_joint",
        "wrist_2_joint",
        "wrist_3_joint"
    ],
    "metrics": {
        "cart_traj_len": 0.7015151420484929,
        "distance_elbow_joint": 0.05509722107996451,
        "distance_shoulder_lift_joint": 0.27148923803931724,
        "distance_shoulder_pan_joint": 0.9216932929446064,
        "distance_wrist_1_joint": 0.3061062837786295,
        "distance_wrist_2_joint": 0.7891621595213518,
        "distance_wrist_3_joint": 0.4177517705171976,
        "smoothness": 0.7642033279708041,
        "time": 0.073486243,
        "traj_len": 1.6617159702792375,
        "weighted_distance": 2.166119098806768
    },
    "planner": "BiTRRT",
    "start": {
        "state": {
            "elbow_joint": 1.9565354010623817,
            "shoulder_lift_joint": -1.4165861575791021,
            "shoulder_pan_joint": -1.6717766225146293,
            "wrist_1_joint": -0.5286633292919765,
            "wrist_2_joint": 1.472756589071564,
            "wrist_3_joint": -3.1238370188695823
        }
    },
    "waypoints": [
        {
            "positions": [
                -1.6717766225146293,
                -1.4165861575791021,
                1.9565354010623817,
                -0.5286633292919765,
                1.472756589071564,
                -3.1238370188695823
            ]
        },
        {
            "positions": [
                -1.6414679441569837,
                -1.4216111543978214,
                1.9661783438626446,
                -0.6069683992532421,
                1.3264251237848028,
                -3.061592879237279
            ]
        },
        {
            "positions": [
                -1.611159265799338,
                -1.4266361512165406,
                1.9758212866629075,
                -0.6852734692145077,
                1.1800936584980417,
                -2.999348739604976
            ]
        },
        {
            "positions": [
                -1.652351048871648,
                -1.4112880332926545,
                1.9912135554521702,
                -0.7593579421465195,
                1.0258531201620693,
                -2.9632294796785916
            ]
        },
        {
            "positions": [
                -1.6935428319439578,
                -1.3959399153687684,
                2.006605824241433,
                -0.8334424150785313,
                0.8716125818260971,
                -2.9271102197522074
            ]
        },
        {
            "positions": [
                -1.8882159244651318,
                -1.3382541632302418,
                2.0078625237166614,
                -0.8331106155805127,
                0.8246080437571259,
                -2.982366462602163
            ]
        },
        {
            "positions": [
                -2.0828890169863055,
                -1.280568411091715,
                2.0091192231918895,
                -0.832778816082494,
                0.7776035056881546,
                -3.0376227054521188
            ]
        },
        {
            "positions": [
                -2.277562109507479,
                -1.2228826589531885,
                2.0103759226671176,
                -0.8324470165844754,
                0.7305989676191833,
                -3.0928789483020744
            ]
        },
        {
            "positions": [
                -2.4722352020286533,
                -1.165196906814662,
                2.011632622142346,
                -0.8321152170864567,
                0.6835944295502121,
                -3.14813519115203
            ]
        }
    ]
}