{
    "goal": {
        "global_pose": {
            "orientation": {
                "w": -0.4816463035849501,
                "x": 0.5182115481033762,
                "y": 0.4908360881923453,
                "z": -0.5084816262002911
            },
            "position": {
                "x": -0.8240239810943604,
                "y": -0.300875300988555,
                "z": 0.16403168439865112
            }
        },
        "name": "move_to_storage_C"
    },
    "id": "BiTRRT_move_to_storage_C_66",
    "joint_names": [
        "shoulder_pan_joint",
        "shoulder_lift_joint",
        "elbow_joint",
        "wrist_1_joint",
        "wrist_2_joint",
        "wrist_3_joint"
    ],
    "metrics": {
        "cart_traj_len": 0.5762924898356848,
        "distance_elbow_joint": 0.25531572076402487,
        "distance_shoulder_lift_joint": 0.18884230601134044,
        "distance_shoulder_pan_joint": 0.49491444713693333,
        "distance_wrist_1_joint": 0.0721635926821027,
        "distance_wrist_2_joint": 1.0671825747643293,
        "distance_wrist_3_joint": 0.06813476015660846,
        "smoothness": 0.0,
        "time": 0.021179993,
        "traj_len": 1.4651120781412388,
        "weighted_distance": 1.8499105625070063
    },
    "planner": "BiTRRT",
    "start": {
        "state": {
            "elbow_joint": 2.010868314990456,
            "shoulder_lift_joint": -1.1634956873337592,
            "shoulder_pan_joint": -2.4736205022346125,
            "wrist_1_joint": -0.8367026794202681,
            "wrist_2_joint": 0.6746043897044499,
            "wrist_3_joint": -3.1496632123970403
        }
    },
    "waypoints": [
        {
            "positions": [
                -2.4736205022346125,
                -1.1634956873337592,
                2.010868314990456,
                -0.8367026794202681,
                0.6746043897044499,
                -3.1496632123970403
            ]
        },
        {
            "positions": [
                -2.5561062434241015,
                -1.1320219696652025,
                1.9683156948631184,
                -0.824675413973251,
                0.8524681521651715,
                -3.1383074190376057
            ]
        },
        {
            "positions": [
                -2.63859198461359,
                -1.1005482519966456,
                1.9257630747357808,
                -0.8126481485262339,
                1.0303319146258931,
                -3.1269516256781706
            ]
        },
        {
            "positions": [
                -2.721077725803079,
                -1.069074534328089,
                1.8832104546084434,
                -0.8006208830792167,
                1.2081956770866147,
                -3.115595832318736
            ]
        },
        {
            "positions": [
                -2.803563466992568,
                -1.0376008166595323,
                1.840657834481106,
                -0.7885936176321996,
                1.3860594395473362,
                -3.1042400389593015
            ]
        },
        {
            "positions": [
                -2.886049208182057,
                -1.0061270989909754,
                1.7981052143537684,
                -0.7765663521851826,
                1.5639232020080578,
                -3.0928842455998664
            ]
        },
        {
            "positions": [
                -2.968534949371546,
                -0.9746533813224187,
                1.755552594226431,
                -0.7645390867381654,
                1.7417869644687793,
                -3.081528452240432
            ]
        }
    ]
}