{
    "goal": {
        "global_pose": {
            "orientation": {
                "w": 0.7047431468963623,
                "x": -0.7094548344612122,
                "y": 0.0024358443915843964,
                "z": -0.0022348060738295317
            },
            "position": {
                "x": 0.6094750761985779,
                "y": 0.3671506643295288,
                "z": 0.19426114857196808
            }
        },
        "name": "move_to_magneteinheit_A"
    },
    "id": "BiTRRT_move_to_magneteinheit_A_103",
    "joint_names": [
        "shoulder_pan_joint",
        "shoulder_lift_joint",
        "elbow_joint",
        "wrist_1_joint",
        "wrist_2_joint",
        "wrist_3_joint"
    ],
    "metrics": {
        "cart_traj_len": 3.7640063031088875,
        "distance_elbow_joint": 3.8764633781163074,
        "distance_shoulder_lift_joint": 0.584774197491454,
        "distance_shoulder_pan_joint": 3.0075119428843125,
        "distance_wrist_1_joint": 1.009894216330336,
        "distance_wrist_2_joint": 2.004323300713272,
        "distance_wrist_3_joint": 3.6833556106834546,
        "smoothness": 0.3430906914594113,
        "time": 0.11147704,
        "traj_len": 3.763817562823567,
        "weighted_distance": 4.954518279775508
    },
    "planner": "BiTRRT",
    "start": {
        "state": {
            "elbow_joint": -1.9196185241190666,
            "shoulder_lift_joint": -1.2443396400964142,
            "shoulder_pan_joint": 2.6996025414629847,
            "wrist_1_joint": -1.5485510000780065,
            "wrist_2_joint": -1.5709468930060704,
            "wrist_3_joint": 0.4420197071253992
        }
    },
    "waypoints": [
        {
            "positions": [
                2.6996025414629847,
                -1.2443396400964142,
                -1.9196185241190666,
                -1.5485510000780065,
                -1.5709468930060704,
                0.4420197071253992
            ]
        },
        {
            "positions": [
                2.6102767393966264,
                -1.2382920468742182,
                -1.8106415236347428,
                -1.5125929032306065,
                -1.5116143997557072,
                0.3550195561486368
            ]
        },
        {
            "positions": [
                2.520950937330268,
                -1.232244453652022,
                -1.7016645231504188,
                -1.4766348063832062,
                -1.452281906505344,
                0.2680194051718744
            ]
        },
        {
            "positions": [
                2.4316251352639098,
                -1.2261968604298261,
                -1.592687522666095,
                -1.4406767095358062,
                -1.392949413254981,
                0.18101925419511194
            ]
        },
        {
            "positions": [
                2.3422993331975515,
                -1.22014926720763,
                -1.483710522181771,
                -1.4047186126884061,
                -1.333616920004618,
                0.09401910321834955
            ]
        },
        {
            "positions": [
                2.252973531131193,
                -1.214101673985434,
                -1.374733521697447,
                -1.3687605158410059,
                -1.2742844267542548,
                0.007018952241587106
            ]
        },
        {
            "positions": [
                2.1636477290648344,
                -1.208054080763238,
                -1.2657565212131234,
                -1.3328024189936059,
                -1.2149519335038916,
                -0.07998119873517529
            ]
        },
        {
            "positions": [
                2.074321926998476,
                -1.202006487541042,
                -1.1567795207287994,
                -1.2968443221462058,
                -1.1556194402535285,
                -0.1669813497119378
            ]
        },
        {
            "positions": [
                1.9849961249321177,
                -1.195958894318846,
                -1.0478025202444754,
                -1.2608862252988056,
                -1.0962869470031653,
                -0.25398150068870007
            ]
        },
        {
            "positions": [
                1.8956703228657594,
                -1.1899113010966498,
                -0.9388255197601516,
                -1.2249281284514055,
                -1.0369544537528022,
                -0.34098165166546246
            ]
        },
        {
            "positions": [
                1.806344520799401,
                -1.1838637078744538,
                -0.8298485192758276,
                -1.1889700316040055,
                -0.977621960502439,
                -0.42798180264222496
            ]
        },
        {
            "positions": [
                1.7170187187330428,
                -1.1778161146522579,
                -0.7208715187915038,
                -1.1530119347566055,
                -0.9182894672520759,
                -0.5149819536189874
            ]
        },
        {
            "positions": [
                1.6276929166666845,
                -1.1717685214300617,
                -0.61189451830718,
                -1.1170538379092054,
                -0.8589569740017128,
                -0.6019821045957497
            ]
        },
        {
            "positions": [
                1.5383671146003262,
                -1.1657209282078658,
                -0.502917517822856,
                -1.0810957410618052,
                -0.7996244807513496,
                -0.6889822555725121
            ]
        },
        {
            "positions": [
                1.4490413125339676,
                -1.1596733349856696,
                -0.39394051733853197,
                -1.045137644214405,
                -0.7402919875009865,
                -0.7759824065492748
            ]
        },
        {
            "positions": [
                1.3597155104676095,
                -1.1536257417634737,
                -0.2849635168542084,
                -1.009179547367005,
                -0.6809594942506234,
                -0.8629825575260369
            ]
        },
        {
            "positions": [
                1.270389708401251,
                -1.1475781485412777,
                -0.17598651636988438,
                -0.9732214505196048,
                -0.6216270010002602,
                -0.9499827085027993
            ]
        },
        {
            "positions": [
                1.1810639063348927,
                -1.1415305553190815,
                -0.06700951588556037,
                -0.9372633536722047,
                -0.5622945077498971,
                -1.0369828594795618
            ]
        },
        {
            "positions": [
                1.0917381042685343,
                -1.1354829620968856,
                0.04196748459876343,
                -0.9013052568248047,
                -0.5029620144995339,
                -1.1239830104563242
            ]
        },
        {
            "positions": [
                1.002412302202176,
                -1.1294353688746894,
                0.15094448508308744,
                -0.8653471599774046,
                -0.44362952124917077,
                -1.2109831614330866
            ]
        },
        {
            "positions": [
                0.9130865001358175,
                -1.1233877756524935,
                0.25992148556741146,
                -0.8293890631300045,
                -0.3842970279988076,
                -1.297983312409849
            ]
        },
        {
            "positions": [
                0.8237606980694594,
                -1.1173401824302975,
                0.36889848605173503,
                -0.7934309662826045,
                -0.32496453474844467,
                -1.3849834633866114
            ]
        },
        {
            "positions": [
                0.7344348960031009,
                -1.1112925892081014,
                0.47787548653605905,
                -0.7574728694352043,
                -0.2656320414980815,
                -1.4719836143633738
            ]
        },
        {
            "positions": [
                0.6451090939367425,
                -1.1052449959859054,
                0.5868524870203831,
                -0.7215147725878042,
                -0.20629954824771812,
                -1.5589837653401362
            ]
        },
        {
            "positions": [
                0.5557832918703842,
                -1.0991974027637093,
                0.6958294875047066,
                -0.6855566757404041,
                -0.14696705499735518,
                -1.6459839163168986
            ]
        },
        {
            "positions": [
                0.466457489804026,
                -1.0931498095415133,
                0.8048064879890306,
                -0.649598578893004,
                -0.08763456174699204,
                -1.732984067293661
            ]
        },
        {
            "positions": [
                0.3953056075715343,
                -1.0776099922666829,
                0.9031200581464726,
                -0.644336434168015,
                -0.06600160905134211,
                -1.8682635407334744
            ]
        },
        {
            "positions": [
                0.3241537253390427,
                -1.0620701749918524,
                1.0014336283039145,
                -0.6390742894430259,
                -0.044368656355692204,
                -2.003543014173288
            ]
        },
        {
            "positions": [
                0.253001843106551,
                -1.046530357717022,
                1.0997471984613565,
                -0.6338121447180369,
                -0.022735703660042274,
                -2.1388224876131012
            ]
        },
        {
            "positions": [
                0.1866846588042468,
                -1.0314754186797102,
                1.1922619926025906,
                -0.6294668806793418,
                -0.0031491721386404763,
                -2.265615972648272
            ]
        },
        {
            "positions": [
                0.1307852378043044,
                -1.0041861155021568,
                1.299022185065397,
                -0.6464478930039569,
                -0.03365959096583436,
                -2.4101510498762813
            ]
        },
        {
            "positions": [
                0.07488581680436197,
                -0.9768968123246032,
                1.4057823775282035,
                -0.663428905328572,
                -0.06417000979302824,
                -2.5546861271042904
            ]
        },
        {
            "positions": [
                0.018986395804419576,
                -0.9496075091470498,
                1.5125425699910098,
                -0.6804099176531873,
                -0.09468042862022212,
                -2.6992212043323
            ]
        },
        {
            "positions": [
                -0.036913025195522864,
                -0.9223182059694963,
                1.6193027624538163,
                -0.6973909299778024,
                -0.125190847447416,
                -2.8437562815603092
            ]
        },
        {
            "positions": [
                -0.09281244619546528,
                -0.8950289027919429,
                1.7260629549166226,
                -0.7143719423024175,
                -0.15570126627460987,
                -2.9882913587883184
            ]
        },
        {
            "positions": [
                -0.03903820738899986,
                -0.9538947678386887,
                1.7837584296867774,
                -0.7158482011295664,
                -0.0847078948471417,
                -3.0515524949807524
            ]
        },
        {
            "positions": [
                0.014736031417465559,
                -1.0127606328854344,
                1.8414539044569322,
                -0.7173244599567151,
                -0.013714523419673524,
                -3.114813631173187
            ]
        },
        {
            "positions": [
                0.06851027022393097,
                -1.07162649793218,
                1.899149379227087,
                -0.7188007187838639,
                0.05727884800779465,
                -3.1780747673656213
            ]
        },
        {
            "positions": [
                0.1222845090303964,
                -1.1304923629789256,
                1.9568448539972418,
                -0.7202769776110127,
                0.12827221943526282,
                -3.2413359035580553
            ]
        }
    ]
}