{
    "goal": {
        "global_pose": {
            "orientation": {
                "w": -0.00223480608172531,
                "x": 0.0024358444001904467,
                "y": 0.7094548369677653,
                "z": -0.704743149386269
            },
            "position": {
                "x": -0.37947507619857795,
                "y": -0.6371506643295288,
                "z": 0.19426114857196808
            }
        },
        "name": "move_to_magneteinheit_C"
    },
    "id": "BiTRRT_move_to_magneteinheit_C_12",
    "joint_names": [
        "shoulder_pan_joint",
        "shoulder_lift_joint",
        "elbow_joint",
        "wrist_1_joint",
        "wrist_2_joint",
        "wrist_3_joint"
    ],
    "metrics": {
        "cart_traj_len": 0.8542409875870351,
        "distance_elbow_joint": 0.5313342748015804,
        "distance_shoulder_lift_joint": 0.5802600380302838,
        "distance_shoulder_pan_joint": 1.215743573697366,
        "distance_wrist_1_joint": 1.2555175807919499,
        "distance_wrist_2_joint": 1.471853397576111,
        "distance_wrist_3_joint": 0.23204975329933886,
        "smoothness": 1.9827690721701192,
        "time": 0.084299694,
        "traj_len": 2.2992952438076824,
        "weighted_distance": 2.911739875600732
    },
    "planner": "BiTRRT",
    "start": {
        "state": {
            "elbow_joint": 1.9565354010623817,
            "shoulder_lift_joint": -1.4165861575791021,
            "shoulder_pan_joint": -1.6717766225146293,
            "wrist_1_joint": -0.5286633292919765,
            "wrist_2_joint": 1.472756589071564,
            "wrist_3_joint": -3.1238370188695823
        }
    },
    "waypoints": [
        {
            "positions": [
                -1.6717766225146293,
                -1.4165861575791021,
                1.9565354010623817,
                -0.5286633292919765,
                1.472756589071564,
                -3.1238370188695823
            ]
        },
        {
            "positions": [
                -1.7496336770127512,
                -1.439778903885373,
                1.998019441864542,
                -0.45967426336039774,
                1.3099217311281592,
                -3.1099306927422528
            ]
        },
        {
            "positions": [
                -1.8274907315108733,
                -1.4629716501916439,
                2.0395034826667024,
                -0.390685197428819,
                1.1470868731847546,
                -3.096024366614923
            ]
        },
        {
            "positions": [
                -1.9053477860089951,
                -1.4861643964979148,
                2.080987523468863,
                -0.3216961314972403,
                0.98425201524135,
                -3.0821180404875936
            ]
        },
        {
            "positions": [
                -1.9832048405071172,
                -1.5093571428041859,
                2.122471564271023,
                -0.2527070655656615,
                0.8214171572979453,
                -3.068211714360264
            ]
        },
        {
            "positions": [
                -2.0610618950052393,
                -1.5325498891104568,
                2.163955605073183,
                -0.18371799963408275,
                0.6585822993545406,
                -3.0543053882329345
            ]
        },
        {
            "positions": [
                -2.138918949503361,
                -1.5557426354167276,
                2.2054396458753436,
                -0.11472893370250409,
                0.495747441411136,
                -3.040399062105605
            ]
        },
        {
            "positions": [
                -2.216776004001483,
                -1.5789353817229985,
                2.246923686677504,
                -0.04573986777092531,
                0.3329125834677312,
                -3.0264927359782754
            ]
        },
        {
            "positions": [
                -2.1651129264063944,
                -1.4928552640740542,
                2.2091468081377217,
                -0.1741150619559959,
                0.4051696339915998,
                -3.043467842551303
            ]
        },
        {
            "positions": [
                -2.113449848811306,
                -1.4067751464251101,
                2.1713699295979394,
                -0.3024902561410665,
                0.4774266845154683,
                -3.0604429491243303
            ]
        },
        {
            "positions": [
                -2.0617867712162172,
                -1.320695028776166,
                2.1335930510581567,
                -0.4308654503261371,
                0.5496837350393369,
                -3.077418055697358
            ]
        },
        {
            "positions": [
                -2.0101236936211286,
                -1.2346149111272218,
                2.0958161725183744,
                -0.5592406445112077,
                0.6219407855632054,
                -3.0943931622703857
            ]
        },
        {
            "positions": [
                -2.164820987564515,
                -1.2100847966970183,
                2.0658700141759314,
                -0.6456050920214131,
                0.6362678488554734,
                -3.1166615103090263
            ]
        },
        {
            "positions": [
                -2.3195182815079005,
                -1.1855546822668146,
                2.035923855833489,
                -0.7319695395316185,
                0.6505949121477412,
                -3.138929858347667
            ]
        },
        {
            "positions": [
                -2.4742155754512867,
                -1.1610245678366111,
                2.005977697491046,
                -0.8183339870418239,
                0.6649219754400092,
                -3.1611982063863073
            ]
        }
    ]
}