{
    "goal": {
        "global_pose": {
            "orientation": {
                "w": 0.7047431493862688,
                "x": -0.7094548369677653,
                "y": 0.0024358444001904,
                "z": -0.0022348060817251984
            },
            "position": {
                "x": -0.39052492380142206,
                "y": 0.3671506643295288,
                "z": 0.19426114857196808
            }
        },
        "name": "move_to_magneteinheit_D"
    },
    "id": "BiTRRT_move_to_magneteinheit_D_97",
    "joint_names": [
        "shoulder_pan_joint",
        "shoulder_lift_joint",
        "elbow_joint",
        "wrist_1_joint",
        "wrist_2_joint",
        "wrist_3_joint"
    ],
    "metrics": {
        "cart_traj_len": 5.041617121231184,
        "distance_elbow_joint": 3.3006107868221997,
        "distance_shoulder_lift_joint": 1.6324561536022106,
        "distance_shoulder_pan_joint": 5.154167568347633,
        "distance_wrist_1_joint": 2.8547683361040526,
        "distance_wrist_2_joint": 1.4721872909937643,
        "distance_wrist_3_joint": 4.442347372323654,
        "smoothness": 0.6351260076837849,
        "time": 0.248440245,
        "traj_len": 4.342411485360815,
        "weighted_distance": 5.662878056248311
    },
    "planner": "BiTRRT",
    "start": {
        "state": {
            "elbow_joint": 0.749534889911806,
            "shoulder_lift_joint": -0.6476975780787326,
            "shoulder_pan_joint": -2.711696901376241,
            "wrist_1_joint": -0.07506478083263063,
            "wrist_2_joint": 0.43296659715538205,
            "wrist_3_joint": -3.14703540197715
        }
    },
    "waypoints": [
        {
            "positions": [
                -2.711696901376241,
                -0.6476975780787326,
                0.749534889911806,
                -0.07506478083263063,
                0.43296659715538205,
                -3.14703540197715
            ]
        },
        {
            "positions": [
                -2.7230337316786475,
                -0.6778371755331642,
                0.7927031864791985,
                -0.011150474382529085,
                0.40851247920934786,
                -3.0289333545610417
            ]
        },
        {
            "positions": [
                -2.734370561981054,
                -0.7079767729875959,
                0.8358714830465909,
                0.05276383206757246,
                0.3840583612633137,
                -2.9108313071449334
            ]
        },
        {
            "positions": [
                -2.7184542410105865,
                -0.7411465204242815,
                0.8189471419964958,
                0.053768327648631334,
                0.3083815992649789,
                -2.7166410678050434
            ]
        },
        {
            "positions": [
                -2.702537920040119,
                -0.7743162678609672,
                0.8020228009464008,
                0.05477282322969021,
                0.23270483726664404,
                -2.5224508284651534
            ]
        },
        {
            "positions": [
                -2.6431707167758187,
                -0.7800614289545909,
                0.734250838085393,
                -0.010806934361138665,
                0.18969237365141775,
                -2.417959053309434
            ]
        },
        {
            "positions": [
                -2.5838035135115187,
                -0.7858065900482144,
                0.6664788752243853,
                -0.07638669195196754,
                0.14667991003619146,
                -2.313467278153715
            ]
        },
        {
            "positions": [
                -2.5244363102472187,
                -0.791551751141838,
                0.5987069123633777,
                -0.1419664495427964,
                0.1036674464209652,
                -2.208975502997996
            ]
        },
        {
            "positions": [
                -2.4650691069829183,
                -0.7972969122354616,
                0.53093494950237,
                -0.20754620713362532,
                0.06065498280573892,
                -2.1044837278422763
            ]
        },
        {
            "positions": [
                -2.353485530100915,
                -0.8291577931209725,
                0.45722611711780886,
                -0.14225455663801556,
                0.07970717329411431,
                -2.0183047239724687
            ]
        },
        {
            "positions": [
                -2.241901953218912,
                -0.8610186740064834,
                0.38351728473324775,
                -0.07696290614240583,
                0.0987593637824897,
                -1.9321257201026614
            ]
        },
        {
            "positions": [
                -2.130318376336909,
                -0.8928795548919943,
                0.30980845234868665,
                -0.011671255646796108,
                0.11781155427086508,
                -1.845946716232854
            ]
        },
        {
            "positions": [
                -2.018734799454906,
                -0.9247404357775052,
                0.23609961996412554,
                0.053620394848813646,
                0.13686374475924046,
                -1.7597677123630464
            ]
        },
        {
            "positions": [
                -1.9071512225729028,
                -0.9566013166630161,
                0.16239078757956443,
                0.1189120453444234,
                0.15591593524761585,
                -1.6735887084932388
            ]
        },
        {
            "positions": [
                -1.7955676456908995,
                -0.9884621975485269,
                0.08868195519500333,
                0.1842036958400331,
                0.17496812573599124,
                -1.5874097046234315
            ]
        },
        {
            "positions": [
                -1.6839840688088965,
                -1.0203230784340378,
                0.014973122810442274,
                0.24949534633564285,
                0.1940203162243666,
                -1.501230700753624
            ]
        },
        {
            "positions": [
                -1.5724004919268935,
                -1.0521839593195488,
                -0.05873570957411889,
                0.3147869968312526,
                0.213072506712742,
                -1.4150516968838165
            ]
        },
        {
            "positions": [
                -1.4608169150448904,
                -1.0840448402050595,
                -0.13244454195868005,
                0.3800786473268623,
                0.2321246972011174,
                -1.328872693014009
            ]
        },
        {
            "positions": [
                -1.3492333381628874,
                -1.1159057210905705,
                -0.2061533743432411,
                0.4453702978224721,
                0.2511768876894928,
                -1.2426936891442015
            ]
        },
        {
            "positions": [
                -1.237649761280884,
                -1.1477666019760813,
                -0.27986220672780215,
                0.5106619483180819,
                0.2702290781778682,
                -1.1565146852743942
            ]
        },
        {
            "positions": [
                -1.126066184398881,
                -1.1796274828615922,
                -0.3535710391123633,
                0.5759535988136915,
                0.28928126866624354,
                -1.0703356814045866
            ]
        },
        {
            "positions": [
                -1.014482607516878,
                -1.2114883637471032,
                -0.4272798714969245,
                0.6412452493093013,
                0.30833345915461896,
                -0.984156677534779
            ]
        },
        {
            "positions": [
                -0.9028990306348748,
                -1.243349244632614,
                -0.5009887038814854,
                0.7065368998049111,
                0.3273856496429943,
                -0.8979776736649716
            ]
        },
        {
            "positions": [
                -0.7913154537528717,
                -1.275210125518125,
                -0.5746975362660466,
                0.7718285503005209,
                0.34643784013136975,
                -0.8117986697951642
            ]
        },
        {
            "positions": [
                -0.6797318768708687,
                -1.307071006403636,
                -0.6484063686506077,
                0.8371202007961305,
                0.3654900306197451,
                -0.7256196659253566
            ]
        },
        {
            "positions": [
                -0.5681482999888656,
                -1.3389318872891467,
                -0.7221152010351689,
                0.9024118512917403,
                0.3845422211081205,
                -0.6394406620555491
            ]
        },
        {
            "positions": [
                -0.4565647231068626,
                -1.3707927681746574,
                -0.7958240334197301,
                0.9677035017873499,
                0.4035944115964959,
                -0.5532616581857417
            ]
        },
        {
            "positions": [
                -0.34498114622485954,
                -1.4026536490601687,
                -0.869532865804291,
                1.0329951522829597,
                0.42264660208487126,
                -0.4670826543159343
            ]
        },
        {
            "positions": [
                -0.2333975693428565,
                -1.4345145299456794,
                -0.9432416981888522,
                1.0982868027785695,
                0.4416987925732467,
                -0.38090365044612673
            ]
        },
        {
            "positions": [
                -0.121813992460853,
                -1.4663754108311902,
                -1.0169505305734132,
                1.163578453274179,
                0.46075098306162204,
                -0.29472464657631914
            ]
        },
        {
            "positions": [
                -0.01023041557884996,
                -1.4982362917167011,
                -1.0906593629579744,
                1.228870103769789,
                0.4798031735499974,
                -0.20854564270651177
            ]
        },
        {
            "positions": [
                0.10135316130315308,
                -1.5300971726022121,
                -1.1643681953425356,
                1.2941617542653987,
                0.49885536403837283,
                -0.1223666388367044
            ]
        },
        {
            "positions": [
                0.21293673818515613,
                -1.5619580534877229,
                -1.2380770277270967,
                1.3594534047610083,
                0.5179075545267482,
                -0.03618763496689681
            ]
        },
        {
            "positions": [
                0.32452031506715917,
                -1.5938189343732339,
                -1.3117858601116579,
                1.424745055256618,
                0.5369597450151236,
                0.04999136890291078
            ]
        },
        {
            "positions": [
                0.4361038919491622,
                -1.6256798152587448,
                -1.385494692496219,
                1.490036705752228,
                0.5560119355034989,
                0.13617037277271837
            ]
        },
        {
            "positions": [
                0.5476874688311653,
                -1.6575406961442556,
                -1.4592035248807798,
                1.5553283562478377,
                0.5750641259918743,
                0.22234937664252552
            ]
        },
        {
            "positions": [
                0.6592710457131687,
                -1.6894015770297663,
                -1.532912357265341,
                1.6206200067434473,
                0.5941163164802497,
                0.3085283805123331
            ]
        },
        {
            "positions": [
                0.7708546225951718,
                -1.7212624579152773,
                -1.606621189649902,
                1.6859116572390571,
                0.613168506968625,
                0.3947073843821407
            ]
        },
        {
            "positions": [
                0.8824381994771748,
                -1.7531233388007883,
                -1.6803300220344632,
                1.751203307734667,
                0.6322206974570005,
                0.48088638825194785
            ]
        },
        {
            "positions": [
                0.9940217763591779,
                -1.784984219686299,
                -1.7540388544190244,
                1.8164949582302767,
                0.6512728879453759,
                0.5670653921217554
            ]
        },
        {
            "positions": [
                1.1056053532411807,
                -1.81684510057181,
                -1.8277476868035856,
                1.8817866087258865,
                0.6703250784337512,
                0.653244395991563
            ]
        },
        {
            "positions": [
                0.9764535539891219,
                -1.8631759636827234,
                -1.8828131891873094,
                1.844458720143996,
                0.6213045203321403,
                0.5890376385560688
            ]
        },
        {
            "positions": [
                0.8473017547370632,
                -1.9095068267936366,
                -1.9378786915710333,
                1.8071308315621055,
                0.5722839622305294,
                0.5248308811205746
            ]
        },
        {
            "positions": [
                0.7181499554850046,
                -1.95583768990455,
                -1.992944193954757,
                1.769802942980215,
                0.5232634041289185,
                0.46062412368508043
            ]
        },
        {
            "positions": [
                0.5889981562329457,
                -2.0021685530154634,
                -2.048009696338481,
                1.7324750543983243,
                0.47424284602730754,
                0.39641736624958623
            ]
        },
        {
            "positions": [
                0.45984635698088705,
                -2.0484994161263765,
                -2.1030751987222045,
                1.6951471658164339,
                0.4252222879256966,
                0.33221060881409203
            ]
        },
        {
            "positions": [
                0.3306945577288284,
                -2.09483027923729,
                -2.1581407011059284,
                1.6578192772345433,
                0.37620172982408573,
                0.26800385137859783
            ]
        },
        {
            "positions": [
                0.2015427584767696,
                -2.1411611423482033,
                -2.2132062034896522,
                1.6204913886526526,
                0.3271811717224748,
                0.2037970939431037
            ]
        },
        {
            "positions": [
                0.07239095922471073,
                -2.1874920054591165,
                -2.268271705873376,
                1.583163500070762,
                0.27816061362086386,
                0.13959033650760944
            ]
        },
        {
            "positions": [
                -0.056760840027347825,
                -2.23382286857003,
                -2.3233372082571,
                1.5458356114888716,
                0.22914005551925298,
                0.07538357907211524
            ]
        },
        {
            "positions": [
                -0.1859126392794065,
                -2.2801537316809433,
                -2.378402710640824,
                1.508507722906981,
                0.18011949741764205,
                0.011176821636621034
            ]
        }
    ]
}