{
    "goal": {
        "global_pose": {
            "orientation": {
                "w": 0.5084816262002911,
                "x": -0.4908360881923452,
                "y": 0.5182115481033761,
                "z": -0.48164630358495003
            },
            "position": {
                "x": 0.5540239810943604,
                "y": -0.46912469901144505,
                "z": 0.16403168439865112
            }
        },
        "name": "move_to_storage_B"
    },
    "id": "BiTRRT_move_to_storage_B_113",
    "joint_names": [
        "shoulder_pan_joint",
        "shoulder_lift_joint",
        "elbow_joint",
        "wrist_1_joint",
        "wrist_2_joint",
        "wrist_3_joint"
    ],
    "metrics": {
        "cart_traj_len": 0.6621744180055289,
        "distance_elbow_joint": 0.38183552451161784,
        "distance_shoulder_lift_joint": 0.4594647929672906,
        "distance_shoulder_pan_joint": 0.3661499927057482,
        "distance_wrist_1_joint": 2.9768583476648214,
        "distance_wrist_2_joint": 2.707978467658107,
        "distance_wrist_3_joint": 3.142466990199714,
        "smoothness": 0.08421378798442537,
        "time": 0.11132224499999999,
        "traj_len": 3.167768002191338,
        "weighted_distance": 4.6908980922025645
    },
    "planner": "BiTRRT",
    "start": {
        "state": {
            "elbow_joint": 1.664937868594044,
            "shoulder_lift_joint": -0.661644460510453,
            "shoulder_pan_joint": -0.9139846352900073,
            "wrist_1_joint": 2.146753192139373,
            "wrist_2_joint": -2.2341966793290973,
            "wrist_3_joint": 0.005466555786416001
        }
    },
    "waypoints": [
        {
            "positions": [
                -0.9139846352900073,
                -0.661644460510453,
                1.664937868594044,
                2.146753192139373,
                -2.2341966793290973,
                0.005466555786416001
            ]
        },
        {
            "positions": [
                -0.821767330328467,
                -0.6937199706354487,
                1.6483954852672458,
                2.0712235949596645,
                -2.1406500459982865,
                -0.028024281371495027
            ]
        },
        {
            "positions": [
                -0.8327246378382354,
                -0.7108155419491404,
                1.6630072109146385,
                1.95517044494026,
                -2.036072772625195,
                -0.15238332749316713
            ]
        },
        {
            "positions": [
                -0.8436819453480037,
                -0.7279111132628322,
                1.6776189365620313,
                1.8391172949208554,
                -1.9314954992521027,
                -0.2767423736148393
            ]
        },
        {
            "positions": [
                -0.854639252857772,
                -0.7450066845765241,
                1.692230662209424,
                1.723064144901451,
                -1.826918225879011,
                -0.40110141973651137
            ]
        },
        {
            "positions": [
                -0.8655965603675403,
                -0.7621022558902159,
                1.7068423878568169,
                1.6070109948820464,
                -1.722340952505919,
                -0.5254604658581835
            ]
        },
        {
            "positions": [
                -0.8765538678773086,
                -0.7791978272039076,
                1.7214541135042096,
                1.490957844862642,
                -1.6177636791328274,
                -0.6498195119798557
            ]
        },
        {
            "positions": [
                -0.887511175387077,
                -0.7962933985175994,
                1.7360658391516024,
                1.3749046948432375,
                -1.5131864057597355,
                -0.7741785581015277
            ]
        },
        {
            "positions": [
                -0.8984684828968453,
                -0.8133889698312913,
                1.7506775647989954,
                1.2588515448238329,
                -1.4086091323866436,
                -0.8985376042232
            ]
        },
        {
            "positions": [
                -0.9094257904066136,
                -0.830484541144983,
                1.7652892904463882,
                1.1427983948044282,
                -1.3040318590135518,
                -1.022896650344872
            ]
        },
        {
            "positions": [
                -0.920383097916382,
                -0.8475801124586748,
                1.779901016093781,
                1.026745244785024,
                -1.19945458564046,
                -1.1472556964665441
            ]
        },
        {
            "positions": [
                -0.9313404054261503,
                -0.8646756837723666,
                1.7945127417411737,
                0.9106920947656194,
                -1.094877312267368,
                -1.2716147425882163
            ]
        },
        {
            "positions": [
                -0.9422977129359186,
                -0.8817712550860585,
                1.8091244673885665,
                0.794638944746215,
                -0.9903000388942762,
                -1.3959737887098884
            ]
        },
        {
            "positions": [
                -0.9532550204456869,
                -0.8988668263997502,
                1.8237361930359592,
                0.6785857947268104,
                -0.8857227655211846,
                -1.5203328348315603
            ]
        },
        {
            "positions": [
                -0.9642123279554552,
                -0.915962397713442,
                1.838347918683352,
                0.5625326447074059,
                -0.7811454921480925,
                -1.6446918809532327
            ]
        },
        {
            "positions": [
                -0.9751696354652235,
                -0.9330579690271339,
                1.8529596443307448,
                0.4464794946880013,
                -0.6765682187750006,
                -1.7690509270749049
            ]
        },
        {
            "positions": [
                -0.9861269429749918,
                -0.9501535403408257,
                1.8675713699781376,
                0.3304263446685969,
                -0.571990945401909,
                -1.8934099731965768
            ]
        },
        {
            "positions": [
                -0.9970842504847601,
                -0.9672491116545174,
                1.8821830956255303,
                0.21437319464919224,
                -0.4674136720288171,
                -2.0177690193182487
            ]
        },
        {
            "positions": [
                -1.0080415579945285,
                -0.9843446829682092,
                1.8967948212729233,
                0.09832004462978783,
                -0.36283639865572503,
                -2.142128065439921
            ]
        },
        {
            "positions": [
                -1.0189988655042967,
                -1.001440254281901,
                1.911406546920316,
                -0.017733105389616366,
                -0.2582591252826334,
                -2.266487111561593
            ]
        },
        {
            "positions": [
                -1.0299561730140652,
                -1.0185358255955927,
                1.9260182725677089,
                -0.13378625540902123,
                -0.15368185190954153,
                -2.390846157683265
            ]
        },
        {
            "positions": [
                -1.0409134805238334,
                -1.0356313969092845,
                1.9406299982151016,
                -0.24983940542842564,
                -0.04910457853644967,
                -2.5152052038049373
            ]
        },
        {
            "positions": [
                -1.0518707880336018,
                -1.0527269682229763,
                1.9552417238624944,
                -0.36589255544783006,
                0.05547269483664197,
                -2.639564249926609
            ]
        },
        {
            "positions": [
                -1.06282809554337,
                -1.0698225395366683,
                1.9698534495098872,
                -0.4819457054672345,
                0.16004996820973405,
                -2.7639232960482816
            ]
        },
        {
            "positions": [
                -1.0737854030531384,
                -1.08691811085036,
                1.98446517515728,
                -0.5979988554866393,
                0.2646272415828257,
                -2.8882823421699535
            ]
        },
        {
            "positions": [
                -1.0847427105629066,
                -1.1040136821640518,
                1.9990769008046727,
                -0.7140520055060438,
                0.36920451495591733,
                -3.0126413882916254
            ]
        },
        {
            "positions": [
                -1.095700018072675,
                -1.1211092534777436,
                2.0136886264520655,
                -0.8301051555254484,
                0.4737817883290094,
                -3.137000434413298
            ]
        }
    ]
}