{
    "goal": {
        "global_pose": {
            "orientation": {
                "w": 0.7031023502349854,
                "x": -0.7110244035720825,
                "y": 0.007748599164187908,
                "z": 0.005598929710686207
            },
            "position": {
                "x": 0.11585023208521307,
                "y": 0.44412534475326537,
                "z": 0.3711530566215515
            }
        },
        "name": "move_to_auspresseinheit_A"
    },
    "id": "BiTRRT_move_to_auspresseinheit_A_68",
    "joint_names": [
        "shoulder_pan_joint",
        "shoulder_lift_joint",
        "elbow_joint",
        "wrist_1_joint",
        "wrist_2_joint",
        "wrist_3_joint"
    ],
    "metrics": {
        "cart_traj_len": 0.7090983937152329,
        "distance_elbow_joint": 0.4307476234688088,
        "distance_shoulder_lift_joint": 0.5836261121440534,
        "distance_shoulder_pan_joint": 1.043666220043109,
        "distance_wrist_1_joint": 1.797552272969162,
        "distance_wrist_2_joint": 0.6614140555388707,
        "distance_wrist_3_joint": 0.41083400872414666,
        "smoothness": 1.1729887709171396,
        "time": 0.04304465,
        "traj_len": 2.219873936260379,
        "weighted_distance": 2.8650435666573166
    },
    "planner": "BiTRRT",
    "start": {
        "state": {
            "elbow_joint": 2.4225746658250005,
            "shoulder_lift_joint": -1.3736534386056498,
            "shoulder_pan_joint": -0.3378633547517467,
            "wrist_1_joint": -1.0288598680537169,
            "wrist_2_joint": 1.233022673432363,
            "wrist_3_joint": -3.0940220416140027
        }
    },
    "waypoints": [
        {
            "positions": [
                -0.3378633547517467,
                -1.3736534386056498,
                2.4225746658250005,
                -1.0288598680537169,
                1.233022673432363,
                -3.0940220416140027
            ]
        },
        {
            "positions": [
                -0.28409994537820543,
                -1.4539304307595031,
                2.4516291092227696,
                -0.8613437486929654,
                1.243228289304542,
                -3.1256383389491034
            ]
        },
        {
            "positions": [
                -0.23033653600466414,
                -1.5342074229133562,
                2.4806835526205386,
                -0.6938276293322138,
                1.2534339051767212,
                -3.1572546362842044
            ]
        },
        {
            "positions": [
                -0.17657312663112282,
                -1.6144844150672095,
                2.5097379960183077,
                -0.5263115099714623,
                1.2636395210489002,
                -3.188870933619305
            ]
        },
        {
            "positions": [
                -0.12280971725758152,
                -1.6947614072210628,
                2.5387924394160772,
                -0.35879539061071064,
                1.2738451369210795,
                -3.2204872309544057
            ]
        },
        {
            "positions": [
                -0.0690463078840402,
                -1.7750383993749161,
                2.5678468828138463,
                -0.19127927124995903,
                1.2840507527932585,
                -3.2521035282895063
            ]
        },
        {
            "positions": [
                -0.01528289851049891,
                -1.8553153915287692,
                2.5969013262116154,
                -0.023763151889207634,
                1.2942563686654376,
                -3.2837198256246074
            ]
        },
        {
            "positions": [
                0.03848051086304238,
                -1.9355923836826225,
                2.6259557696093845,
                0.1437529674715441,
                1.3044619845376166,
                -3.315336122959708
            ]
        },
        {
            "positions": [
                0.14970090326776234,
                -1.931977855838109,
                2.5880613496619804,
                0.03959639456422734,
                1.2061328604653472,
                -3.2837494683966346
            ]
        },
        {
            "positions": [
                0.2609212956724823,
                -1.9283633279935957,
                2.5501669297145764,
                -0.06456017834308941,
                1.1078037363930777,
                -3.2521628138335608
            ]
        },
        {
            "positions": [
                0.37214168807720227,
                -1.9247488001490822,
                2.512272509767172,
                -0.1687167512504062,
                1.009474612320808,
                -3.2205761592704873
            ]
        },
        {
            "positions": [
                0.4833620804819222,
                -1.9211342723045688,
                2.474378089819768,
                -0.2728733241577229,
                0.9111454882485386,
                -3.188989504707414
            ]
        },
        {
            "positions": [
                0.5945824728866422,
                -1.9175197444600554,
                2.4364836698723638,
                -0.37702989706503975,
                0.8128163641762691,
                -3.15740285014434
            ]
        },
        {
            "positions": [
                0.7058028652913622,
                -1.913905216615542,
                2.3985892499249597,
                -0.48118646997235653,
                0.7144872401039996,
                -3.1258161955812667
            ]
        }
    ]
}