{
    "goal": {
        "global_pose": {
            "orientation": {
                "w": 0.7031023502349854,
                "x": -0.7110244035720825,
                "y": 0.007748599164187908,
                "z": 0.005598929710686207
            },
            "position": {
                "x": 0.11585023208521307,
                "y": 0.44412534475326537,
                "z": 0.3711530566215515
            }
        },
        "name": "move_to_auspresseinheit_A"
    },
    "id": "BiTRRT_move_to_auspresseinheit_A_22",
    "joint_names": [
        "shoulder_pan_joint",
        "shoulder_lift_joint",
        "elbow_joint",
        "wrist_1_joint",
        "wrist_2_joint",
        "wrist_3_joint"
    ],
    "metrics": {
        "cart_traj_len": 0.6853876506682188,
        "distance_elbow_joint": 0.0858142806733535,
        "distance_shoulder_lift_joint": 0.5357509198842034,
        "distance_shoulder_pan_joint": 1.043891158474666,
        "distance_wrist_1_joint": 0.5509163494572522,
        "distance_wrist_2_joint": 0.5187997516368786,
        "distance_wrist_3_joint": 0.7632679923266825,
        "smoothness": 0.583185264047554,
        "time": 0.06484442900000001,
        "traj_len": 1.8704118403317052,
        "weighted_distance": 2.468743108993022
    },
    "planner": "BiTRRT",
    "start": {
        "state": {
            "elbow_joint": 2.4225746658250005,
            "shoulder_lift_joint": -1.3736534386056498,
            "shoulder_pan_joint": -0.3378633547517467,
            "wrist_1_joint": -1.0288598680537169,
            "wrist_2_joint": 1.233022673432363,
            "wrist_3_joint": -3.0940220416140027
        }
    },
    "waypoints": [
        {
            "positions": [
                -0.3378633547517467,
                -1.3736534386056498,
                2.4225746658250005,
                -1.0288598680537169,
                1.233022673432363,
                -3.0940220416140027
            ]
        },
        {
            "positions": [
                -0.2550700545522447,
                -1.4260366776447129,
                2.41322317265309,
                -0.9509606335228938,
                1.179538641702058,
                -3.0331580318321585
            ]
        },
        {
            "positions": [
                -0.17227675435274264,
                -1.478419916683776,
                2.403871679481179,
                -0.8730613989920708,
                1.126054609971753,
                -2.9722940220503147
            ]
        },
        {
            "positions": [
                -0.0894834541532406,
                -1.5308031557228392,
                2.3945201863092684,
                -0.7951621644612477,
                1.0725705782414479,
                -2.9114300122684704
            ]
        },
        {
            "positions": [
                -0.006690153953738565,
                -1.5831863947619023,
                2.385168693137358,
                -0.7172629299304246,
                1.0190865465111427,
                -2.850566002486626
            ]
        },
        {
            "positions": [
                0.07610314624576348,
                -1.6355696338009653,
                2.375817199965447,
                -0.6393636953996015,
                0.9656025147808377,
                -2.7897019927047824
            ]
        },
        {
            "positions": [
                0.1588964464452655,
                -1.6879528728400284,
                2.3664657067935364,
                -0.5614644608687784,
                0.9121184830505327,
                -2.728837982922938
            ]
        },
        {
            "positions": [
                0.29567928576467895,
                -1.7433157442524845,
                2.373892037204009,
                -0.5405842253007,
                0.8626445927367706,
                -2.8283589663318427
            ]
        },
        {
            "positions": [
                0.4324621250840923,
                -1.7986786156649408,
                2.3813183676144813,
                -0.5197039897326216,
                0.8131707024230086,
                -2.9278799497407473
            ]
        },
        {
            "positions": [
                0.5692449644035058,
                -1.8540414870773971,
                2.3887446980249534,
                -0.49882375416454316,
                0.7636968121092464,
                -3.0274009331496514
            ]
        },
        {
            "positions": [
                0.7060278037229192,
                -1.9094043584898532,
                2.396171028435426,
                -0.4779435185964647,
                0.7142229217954844,
                -3.126921916558556
            ]
        }
    ]
}