{
    "goal": {
        "global_pose": {
            "orientation": {
                "w": -0.4816463035849501,
                "x": 0.5182115481033762,
                "y": 0.4908360881923453,
                "z": -0.5084816262002911
            },
            "position": {
                "x": -0.8240239810943604,
                "y": 0.19912469901144506,
                "z": 0.16403168439865112
            }
        },
        "name": "move_to_storage_D"
    },
    "id": "BiTRRT_move_to_storage_D_117",
    "joint_names": [
        "shoulder_pan_joint",
        "shoulder_lift_joint",
        "elbow_joint",
        "wrist_1_joint",
        "wrist_2_joint",
        "wrist_3_joint"
    ],
    "metrics": {
        "cart_traj_len": 3.6018662958091916,
        "distance_elbow_joint": 4.209658836804332,
        "distance_shoulder_lift_joint": 1.2637622989808688,
        "distance_shoulder_pan_joint": 2.813132812657043,
        "distance_wrist_1_joint": 2.2617745064434494,
        "distance_wrist_2_joint": 1.1110668875690286,
        "distance_wrist_3_joint": 3.135500140406057,
        "smoothness": 0.05398933594435974,
        "time": 0.110920519,
        "traj_len": 3.846413327095878,
        "weighted_distance": 4.943555113244452
    },
    "planner": "BiTRRT",
    "start": {
        "state": {
            "elbow_joint": -2.384821988534728,
            "shoulder_lift_joint": -2.2788054721415256,
            "shoulder_pan_joint": -0.1854694642142757,
            "wrist_1_joint": 1.4845938289331202,
            "wrist_2_joint": 0.17898776772866878,
            "wrist_3_joint": 0.037105688729662994
        }
    },
    "waypoints": [
        {
            "positions": [
                -0.1854694642142757,
                -2.2788054721415256,
                -2.384821988534728,
                1.4845938289331202,
                0.17898776772866878,
                0.037105688729662994
            ]
        },
        {
            "positions": [
                -0.14383558273992264,
                -2.2051082608540655,
                -2.3605748370874737,
                1.4464219206170856,
                0.12027336215302967,
                0.08792963113722667
            ]
        },
        {
            "positions": [
                -0.1022017012655696,
                -2.131411049566605,
                -2.33632768564022,
                1.4082500123010513,
                0.06155895657739056,
                0.13875357354479034
            ]
        },
        {
            "positions": [
                -0.01647913667845971,
                -2.0967884029499375,
                -2.2114626738579077,
                1.3519824180516367,
                0.08320527138143011,
                0.21134866779946995
            ]
        },
        {
            "positions": [
                0.06924342790865018,
                -2.0621657563332696,
                -2.086597662075595,
                1.2957148238022218,
                0.10485158618546965,
                0.28394376205414956
            ]
        },
        {
            "positions": [
                0.1549659924957601,
                -2.027543109716602,
                -1.9617326502932826,
                1.2394472295528072,
                0.1264979009895092,
                0.3565388563088292
            ]
        },
        {
            "positions": [
                0.24068855708286996,
                -1.9929204630999344,
                -1.8368676385109701,
                1.1831796353033925,
                0.14814421579354875,
                0.4291339505635088
            ]
        },
        {
            "positions": [
                0.3264111216699799,
                -1.958297816483267,
                -1.7120026267286579,
                1.1269120410539777,
                0.16979053059758828,
                0.5017290448181884
            ]
        },
        {
            "positions": [
                0.4121336862570898,
                -1.9236751698665993,
                -1.5871376149463452,
                1.070644446804563,
                0.19143684540162784,
                0.5743241390728681
            ]
        },
        {
            "positions": [
                0.4978562508441997,
                -1.8890525232499316,
                -1.462272603164033,
                1.0143768525551482,
                0.21308316020566737,
                0.6469192333275476
            ]
        },
        {
            "positions": [
                0.5835788154313095,
                -1.854429876633264,
                -1.3374075913817203,
                0.9581092583057336,
                0.23472947500970692,
                0.7195143275822272
            ]
        },
        {
            "positions": [
                0.6693013800184194,
                -1.8198072300165964,
                -1.212542579599408,
                0.9018416640563189,
                0.2563757898137465,
                0.7921094218369068
            ]
        },
        {
            "positions": [
                0.7550239446055294,
                -1.785184583399929,
                -1.0876775678170956,
                0.8455740698069042,
                0.27802210461778604,
                0.8647045160915864
            ]
        },
        {
            "positions": [
                0.8407465091926392,
                -1.7505619367832612,
                -0.9628125560347831,
                0.7893064755574895,
                0.29966841942182554,
                0.937299610346266
            ]
        },
        {
            "positions": [
                0.9264690737797492,
                -1.7159392901665935,
                -0.8379475442524704,
                0.7330388813080747,
                0.32131473422586515,
                1.0098947046009457
            ]
        },
        {
            "positions": [
                1.012191638366859,
                -1.6813166435499258,
                -0.7130825324701582,
                0.67677128705866,
                0.3429610490299047,
                1.0824897988556255
            ]
        },
        {
            "positions": [
                1.097914202953969,
                -1.6466939969332584,
                -0.5882175206878457,
                0.6205036928092453,
                0.3646073638339442,
                1.1550848931103048
            ]
        },
        {
            "positions": [
                1.1836367675410788,
                -1.6120713503165907,
                -0.46335250890553326,
                0.5642360985598306,
                0.38625367863798377,
                1.2276799873649846
            ]
        },
        {
            "positions": [
                1.2693593321281886,
                -1.5774487036999232,
                -0.3384874971232208,
                0.5079685043104158,
                0.4078999934420233,
                1.300275081619664
            ]
        },
        {
            "positions": [
                1.3550818967152987,
                -1.5428260570832553,
                -0.21362248534090833,
                0.4517009100610012,
                0.4295463082460628,
                1.3728701758743438
            ]
        },
        {
            "positions": [
                1.4408044613024085,
                -1.5082034104665878,
                -0.08875747355859609,
                0.3954333158115866,
                0.4511926230501024,
                1.4454652701290231
            ]
        },
        {
            "positions": [
                1.5265270258895183,
                -1.4735807638499203,
                0.036107538223716595,
                0.33916572156217173,
                0.47283893785414194,
                1.518060364383703
            ]
        },
        {
            "positions": [
                1.6122495904766283,
                -1.4389581172332526,
                0.16097255000602884,
                0.2828981273127571,
                0.4944852526581815,
                1.5906554586383823
            ]
        },
        {
            "positions": [
                1.697972155063738,
                -1.404335470616585,
                0.2858375617883411,
                0.22663053306334247,
                0.516131567462221,
                1.6632505528930621
            ]
        },
        {
            "positions": [
                1.783694719650848,
                -1.3697128239999175,
                0.41070257357065376,
                0.1703629388139276,
                0.5377778822662606,
                1.7358456471477415
            ]
        },
        {
            "positions": [
                1.8694172842379582,
                -1.3350901773832495,
                0.5355675853529664,
                0.11409534456451276,
                0.5594241970703001,
                1.8084407414024217
            ]
        },
        {
            "positions": [
                1.955139848825068,
                -1.300467530766582,
                0.6604325971352791,
                0.057827750315098125,
                0.5810705118743397,
                1.881035835657101
            ]
        },
        {
            "positions": [
                2.040862413412178,
                -1.2658448841499144,
                0.7852976089175914,
                0.0015601560656834934,
                0.6027168266783792,
                1.9536309299117809
            ]
        },
        {
            "positions": [
                2.1265849779992876,
                -1.2312222375332467,
                0.9101626206999036,
                -0.05470743818373136,
                0.6243631414824188,
                2.0262260241664602
            ]
        },
        {
            "positions": [
                2.2123075425863976,
                -1.1965995909165792,
                1.0350276324822163,
                -0.11097503243314599,
                0.6460094562864582,
                2.09882111842114
            ]
        },
        {
            "positions": [
                2.2980301071735076,
                -1.1619769442999117,
                1.1598926442645285,
                -0.16724262668256062,
                0.6676557710904978,
                2.1714162126758194
            ]
        },
        {
            "positions": [
                2.3837526717606172,
                -1.127354297683244,
                1.2847576560468412,
                -0.22351022093197548,
                0.6893020858945373,
                2.2440113069304988
            ]
        },
        {
            "positions": [
                2.4694752363477273,
                -1.0927316510665763,
                1.4096226678291535,
                -0.2797778151813901,
                0.7109484006985769,
                2.3166064011851786
            ]
        },
        {
            "positions": [
                2.4958399216969003,
                -1.0797835714155897,
                1.4788250312358953,
                -0.3626782922362133,
                0.7683231727480042,
                2.4592729725102687
            ]
        },
        {
            "positions": [
                2.5222046070460737,
                -1.0668354917646032,
                1.5480273946426368,
                -0.4455787692910364,
                0.8256979447974316,
                2.601939543835359
            ]
        },
        {
            "positions": [
                2.548569292395247,
                -1.0538874121136166,
                1.6172297580493786,
                -0.5284792463458596,
                0.883072716846859,
                2.7446061151604493
            ]
        },
        {
            "positions": [
                2.5749339777444202,
                -1.04093933246263,
                1.6864321214561202,
                -0.6113797234006827,
                0.9404474888962863,
                2.8872726864855394
            ]
        },
        {
            "positions": [
                2.6012986630935933,
                -1.0279912528116435,
                1.755634484862862,
                -0.694280200455506,
                0.9978222609457137,
                3.02993925781063
            ]
        },
        {
            "positions": [
                2.6276633484427667,
                -1.0150431731606568,
                1.8248368482696038,
                -0.777180677510329,
                1.055197032995141,
                3.17260582913572
            ]
        }
    ]
}