{
    "goal": {
        "global_pose": {
            "orientation": {
                "w": -0.00223480608172531,
                "x": 0.0024358444001904467,
                "y": 0.7094548369677653,
                "z": -0.704743149386269
            },
            "position": {
                "x": -0.37947507619857795,
                "y": -0.6371506643295288,
                "z": 0.19426114857196808
            }
        },
        "name": "move_to_magneteinheit_C"
    },
    "id": "BiTRRT_move_to_magneteinheit_C_111",
    "joint_names": [
        "shoulder_pan_joint",
        "shoulder_lift_joint",
        "elbow_joint",
        "wrist_1_joint",
        "wrist_2_joint",
        "wrist_3_joint"
    ],
    "metrics": {
        "cart_traj_len": 1.1532795675959109,
        "distance_elbow_joint": 0.4966522605708321,
        "distance_shoulder_lift_joint": 0.7587333317302094,
        "distance_shoulder_pan_joint": 1.013818720835866,
        "distance_wrist_1_joint": 1.1010612037751129,
        "distance_wrist_2_joint": 0.8353380567080814,
        "distance_wrist_3_joint": 4.494057669538716,
        "smoothness": 0.5679411546466674,
        "time": 0.0922192,
        "traj_len": 2.949518815528868,
        "weighted_distance": 4.429918265918621
    },
    "planner": "BiTRRT",
    "start": {
        "state": {
            "elbow_joint": 1.9565354010623817,
            "shoulder_lift_joint": -1.4165861575791021,
            "shoulder_pan_joint": -1.6717766225146293,
            "wrist_1_joint": -0.5286633292919765,
            "wrist_2_joint": 1.472756589071564,
            "wrist_3_joint": -3.1238370188695823
        }
    },
    "waypoints": [
        {
            "positions": [
                -1.6717766225146293,
                -1.4165861575791021,
                1.9565354010623817,
                -0.5286633292919765,
                1.472756589071564,
                -3.1238370188695823
            ]
        },
        {
            "positions": [
                -1.643184642191241,
                -1.4323488138528502,
                1.9371890934257399,
                -0.498188797359053,
                1.4266014840130101,
                -3.000003188894589
            ]
        },
        {
            "positions": [
                -1.614592661867853,
                -1.4481114701265985,
                1.9178427857890983,
                -0.46771426542612965,
                1.3804463789544565,
                -2.8761693589195954
            ]
        },
        {
            "positions": [
                -1.5860006815444647,
                -1.4638741264003465,
                1.8984964781524565,
                -0.4372397334932062,
                1.3342912738959027,
                -2.752335528944602
            ]
        },
        {
            "positions": [
                -1.601921386037406,
                -1.4780586801534994,
                1.8765285701896153,
                -0.3967641278123665,
                1.2948034466334817,
                -2.587554076312793
            ]
        },
        {
            "positions": [
                -1.6178420905303472,
                -1.4922432339066523,
                1.854560662226774,
                -0.35628852213152673,
                1.2553156193710606,
                -2.422772623680984
            ]
        },
        {
            "positions": [
                -1.6469379714951413,
                -1.5108881130020122,
                1.8302949706017126,
                -0.30980868426535263,
                1.207098576032463,
                -2.217853545225006
            ]
        },
        {
            "positions": [
                -1.6760338524599354,
                -1.5295329920973721,
                1.8060292789766514,
                -0.26332884639917853,
                1.1588815326938655,
                -2.0129344667690283
            ]
        },
        {
            "positions": [
                -1.7051297334247293,
                -1.5481778711927319,
                1.78176358735159,
                -0.21684900853300448,
                1.1106644893552682,
                -1.8080153883130503
            ]
        },
        {
            "positions": [
                -1.7342256143895234,
                -1.5668227502880918,
                1.7574978957265288,
                -0.17036917066683038,
                1.0624474460166706,
                -1.6030963098570723
            ]
        },
        {
            "positions": [
                -1.7633214953543175,
                -1.5854676293834518,
                1.7332322041014674,
                -0.12388933280065631,
                1.014230402678073,
                -1.3981772314010945
            ]
        },
        {
            "positions": [
                -1.9259423527789337,
                -1.6019118324457553,
                1.7598200247340252,
                -0.14524344296127803,
                1.0001484343880462,
                -1.2718368541799598
            ]
        },
        {
            "positions": [
                -2.08856321020355,
                -1.6183560355080588,
                1.786407845366583,
                -0.16659755312189975,
                0.9860664660980196,
                -1.1454964769588252
            ]
        },
        {
            "positions": [
                -2.251184067628166,
                -1.6348002385703624,
                1.8129956659991409,
                -0.18795166328252147,
                0.9719844978079929,
                -1.0191560997376903
            ]
        },
        {
            "positions": [
                -2.413804925052782,
                -1.651244441632666,
                1.8395834866316987,
                -0.2093057734431432,
                0.9579025295179662,
                -0.8928157225165557
            ]
        },
        {
            "positions": [
                -2.49371140052262,
                -1.6352375214736856,
                1.8578609908370654,
                -0.23008050915398803,
                0.9763662769447901,
                -0.9229858598238543
            ]
        },
        {
            "positions": [
                -2.4911213227166034,
                -1.5437923242211156,
                1.8611905767878312,
                -0.24337011736010455,
                0.9744741642443961,
                -1.188011342952668
            ]
        },
        {
            "positions": [
                -2.488531244910587,
                -1.4523471269685455,
                1.8645201627385972,
                -0.2566597255662211,
                0.9725820515440022,
                -1.4530368260814814
            ]
        },
        {
            "positions": [
                -2.48594116710457,
                -1.3609019297159757,
                1.867849748689363,
                -0.26994933377233754,
                0.9706899388436083,
                -1.718062309210295
            ]
        },
        {
            "positions": [
                -2.4833510892985537,
                -1.2694567324634056,
                1.871179334640129,
                -0.28323894197845406,
                0.9687978261432144,
                -1.9830877923391088
            ]
        },
        {
            "positions": [
                -2.480761011492537,
                -1.1780115352108356,
                1.874508920590895,
                -0.2965285501845706,
                0.9669057134428205,
                -2.2481132754679223
            ]
        },
        {
            "positions": [
                -2.4782126046406034,
                -1.161585787003756,
                1.8876206881478934,
                -0.3506607166379151,
                0.9387383820253586,
                -2.3776016284056256
            ]
        },
        {
            "positions": [
                -2.47566419778867,
                -1.1451600387966767,
                1.9007324557048917,
                -0.4047928830912596,
                0.9105710506078968,
                -2.5070899813433285
            ]
        },
        {
            "positions": [
                -2.475092983250271,
                -1.1496577000068409,
                1.9271946587065152,
                -0.508638797339557,
                0.8515147947602052,
                -2.669280509933057
            ]
        },
        {
            "positions": [
                -2.474521768711872,
                -1.154155361217005,
                1.9536568617081385,
                -0.6124847115878543,
                0.7924585389125136,
                -2.831471038522786
            ]
        },
        {
            "positions": [
                -2.473950554173473,
                -1.158653022427169,
                1.9801190647097617,
                -0.7163306258361517,
                0.7334022830648219,
                -2.9936615671125146
            ]
        },
        {
            "positions": [
                -2.4733793396350743,
                -1.163150683637333,
                2.0065812677113852,
                -0.8201765400844491,
                0.6743460272171303,
                -3.1558520957022433
            ]
        }
    ]
}