{
    "goal": {
        "global_pose": {
            "orientation": {
                "w": 0.005598929693374612,
                "x": 0.007748599140229565,
                "y": 0.7110244013736278,
                "z": -0.7031023480610252
            },
            "position": {
                "x": 0.1141497679147869,
                "y": -0.7141253447532654,
                "z": 0.3711530566215515
            }
        },
        "name": "move_to_auspresseinheit_B"
    },
    "id": "BiTRRT_move_to_auspresseinheit_B_44",
    "joint_names": [
        "shoulder_pan_joint",
        "shoulder_lift_joint",
        "elbow_joint",
        "wrist_1_joint",
        "wrist_2_joint",
        "wrist_3_joint"
    ],
    "metrics": {
        "cart_traj_len": 0.5644697597223395,
        "distance_elbow_joint": 0.06317493418777231,
        "distance_shoulder_lift_joint": 0.29481826456774396,
        "distance_shoulder_pan_joint": 0.5782788170957476,
        "distance_wrist_1_joint": 0.3338547340303969,
        "distance_wrist_2_joint": 0.9888759186828251,
        "distance_wrist_3_joint": 0.005019096420036284,
        "smoothness": 0.0,
        "time": 0.038546488000000004,
        "traj_len": 1.504666662415474,
        "weighted_distance": 1.8965206591381536
    },
    "planner": "BiTRRT",
    "start": {
        "state": {
            "elbow_joint": 2.0193083361928714,
            "shoulder_lift_joint": -1.1220246554650708,
            "shoulder_pan_joint": -1.0952077554168747,
            "wrist_1_joint": -0.8559753972642168,
            "wrist_2_joint": 0.4759566250798843,
            "wrist_3_joint": -3.1240929996934557
        }
    },
    "waypoints": [
        {
            "positions": [
                -1.0952077554168747,
                -1.1220246554650708,
                2.0193083361928714,
                -0.8559753972642168,
                0.4759566250798843,
                -3.1240929996934557
            ]
        },
        {
            "positions": [
                -1.191587558266166,
                -1.1711610328930282,
                2.0087791804949093,
                -0.800332941592484,
                0.6407692781936885,
                -3.1232564836234498
            ]
        },
        {
            "positions": [
                -1.2879673611154572,
                -1.2202974103209854,
                1.9982500247969472,
                -0.7446904859207512,
                0.8055819313074926,
                -3.1224199675534434
            ]
        },
        {
            "positions": [
                -1.3843471639647484,
                -1.2694337877489428,
                1.9877208690989852,
                -0.6890480302490183,
                0.9703945844212969,
                -3.1215834514834375
            ]
        },
        {
            "positions": [
                -1.4807269668140397,
                -1.3185701651769002,
                1.9771917134010233,
                -0.6334055745772855,
                1.135207237535101,
                -3.1207469354134316
            ]
        },
        {
            "positions": [
                -1.577106769663331,
                -1.3677065426048574,
                1.9666625577030612,
                -0.5777631189055528,
                1.3000198906489053,
                -3.1199104193434253
            ]
        },
        {
            "positions": [
                -1.6734865725126222,
                -1.4168429200328148,
                1.956133402005099,
                -0.5221206632338199,
                1.4648325437627094,
                -3.1190739032734194
            ]
        }
    ]
}