{
    "goal": {
        "global_pose": {
            "orientation": {
                "w": 0.5084816217422485,
                "x": -0.49083608388900757,
                "y": 0.5182115435600281,
                "z": -0.4816462993621826
            },
            "position": {
                "x": 0.5540239810943604,
                "y": 0.030875300988554955,
                "z": 0.16403168439865112
            }
        },
        "name": "move_to_storage_A"
    },
    "id": "BiTRRT_move_to_storage_A_73",
    "joint_names": [
        "shoulder_pan_joint",
        "shoulder_lift_joint",
        "elbow_joint",
        "wrist_1_joint",
        "wrist_2_joint",
        "wrist_3_joint"
    ],
    "metrics": {
        "cart_traj_len": 0.3536078571162065,
        "distance_elbow_joint": 0.4492771464124561,
        "distance_shoulder_lift_joint": 0.23691185270259663,
        "distance_shoulder_pan_joint": 0.4595822025923091,
        "distance_wrist_1_joint": 0.23408392159087643,
        "distance_wrist_2_joint": 1.113291278644237,
        "distance_wrist_3_joint": 0.10250051822473027,
        "smoothness": 6.661338165333112e-16,
        "time": 0.026315719,
        "traj_len": 1.6111011514387312,
        "weighted_distance": 2.0366696238839963
    },
    "planner": "BiTRRT",
    "start": {
        "state": {
            "elbow_joint": 1.971548259319323,
            "shoulder_lift_joint": -1.1394851275133948,
            "shoulder_pan_joint": 0.1228115487234821,
            "wrist_1_joint": -0.7804723859257726,
            "wrist_2_joint": 0.12958671773740124,
            "wrist_3_joint": -3.192489227718131
        }
    },
    "waypoints": [
        {
            "positions": [
                0.1228115487234821,
                -1.1394851275133948,
                1.971548259319323,
                -0.7804723859257726,
                0.12958671773740124,
                -3.192489227718131
            ]
        },
        {
            "positions": [
                0.05715694835315223,
                -1.17332967789948,
                2.035730708806817,
                -0.8139129461530407,
                0.28862832897229224,
                -3.1778462965431697
            ]
        },
        {
            "positions": [
                -0.008497652017177643,
                -1.2071742282855653,
                2.0999131582943105,
                -0.8473535063803087,
                0.4476699402071832,
                -3.1632033653682083
            ]
        },
        {
            "positions": [
                -0.0741522523875075,
                -1.2410187786716504,
                2.164095607781804,
                -0.8807940666075768,
                0.6067115514420742,
                -3.148560434193247
            ]
        },
        {
            "positions": [
                -0.13980685275783739,
                -1.2748633290577358,
                2.2282780572692977,
                -0.9142346268348449,
                0.7657531626769652,
                -3.133917503018285
            ]
        },
        {
            "positions": [
                -0.20546145312816727,
                -1.308707879443821,
                2.292460506756792,
                -0.947675187062113,
                0.9247947739118563,
                -3.1192745718433237
            ]
        },
        {
            "positions": [
                -0.2711160534984971,
                -1.3425524298299063,
                2.3566429562442854,
                -0.981115747289381,
                1.0838363851467472,
                -3.1046316406683623
            ]
        },
        {
            "positions": [
                -0.336770653868827,
                -1.3763969802159914,
                2.420825405731779,
                -1.014556307516649,
                1.2428779963816383,
                -3.089988709493401
            ]
        }
    ]
}{
    "goal": {
        "global_pose": {
            "orientation": {
                "w": 0.5084816217422485,
                "x": -0.49083608388900757,
                "y": 0.5182115435600281,
                "z": -0.4816462993621826
            },
            "position": {
                "x": 0.5540239810943604,
                "y": 0.030875300988554955,
                "z": 0.16403168439865112
            }
        },
        "name": "move_to_storage_A"
    },
    "id": "BiTRRT_move_to_storage_A_73",
    "joint_names": [
        "shoulder_pan_joint",
        "shoulder_lift_joint",
        "elbow_joint",
        "wrist_1_joint",
        "wrist_2_joint",
        "wrist_3_joint"
    ],
    "metrics": {
        "cart_traj_len": 0.35250269215752283,
        "distance_elbow_joint": 0.4494054825985434,
        "distance_shoulder_lift_joint": 0.234523548275972,
        "distance_shoulder_pan_joint": 0.4610745175731611,
        "distance_wrist_1_joint": 0.24080438082003064,
        "distance_wrist_2_joint": 1.097138878695289,
        "distance_wrist_3_joint": 0.0977692813719222,
        "smoothness": 1.665334528953551e-15,
        "time": 0.033877615,
        "traj_len": 1.6064607338291583,
        "weighted_distance": 2.0283485675775954
    },
    "planner": "BiTRRT",
    "start": {
        "state": {
            "elbow_joint": 1.97154746011099,
            "shoulder_lift_joint": -1.13948474672311,
            "shoulder_pan_joint": 0.12281154466712228,
            "wrist_1_joint": -0.7804688027058302,
            "wrist_2_joint": 0.12958655903071145,
            "wrist_3_joint": 3.0906928834467795
        }
    },
    "waypoints": [
        {
            "positions": [
                0.12281154466712228,
                -1.13948474672311,
                1.97154746011099,
                -0.7804688027058302,
                0.12958655903071145,
                3.0906928834467795
            ]
        },
        {
            "positions": [
                0.05694375644238499,
                -1.1729881107625346,
                2.0357482433393534,
                -0.8148694285372632,
                0.2863206845586099,
                3.1046599236427683
            ]
        },
        {
            "positions": [
                -0.008924031782352307,
                -1.206491474801959,
                2.0999490265677165,
                -0.8492700543686961,
                0.44305481008650827,
                3.118626963838757
            ]
        },
        {
            "positions": [
                -0.0747918200070896,
                -1.2399948388413837,
                2.16414980979608,
                -0.8836706802001291,
                0.5997889356144067,
                3.132594004034746
            ]
        },
        {
            "positions": [
                -0.14065960823182688,
                -1.2734982028808082,
                2.228350593024443,
                -0.918071306031562,
                0.7565230611423052,
                3.1465610442307352
            ]
        },
        {
            "positions": [
                -0.2065273964565642,
                -1.3070015669202328,
                2.2925513762528067,
                -0.952471931862995,
                0.9132571866702036,
                3.160528084426724
            ]
        },
        {
            "positions": [
                -0.27239518468130147,
                -1.3405049309596573,
                2.35675215948117,
                -0.9868725576944278,
                1.069991312198102,
                3.174495124622713
            ]
        },
        {
            "positions": [
                -0.3382629729060388,
                -1.374008294999082,
                2.4209529427095333,
                -1.0212731835258608,
                1.2267254377260004,
                3.1884621648187017
            ]
        }
    ]
}{
    "goal": {
        "global_pose": {
            "orientation": {
                "w": 0.5084816217422485,
                "x": -0.49083608388900757,
                "y": 0.5182115435600281,
                "z": -0.4816462993621826
            },
            "position": {
                "x": 0.5540239810943604,
                "y": 0.030875300988554955,
                "z": 0.16403168439865112
            }
        },
        "name": "move_to_storage_A"
    },
    "id": "BiTRRT_move_to_storage_A_73",
    "joint_names": [
        "shoulder_pan_joint",
        "shoulder_lift_joint",
        "elbow_joint",
        "wrist_1_joint",
        "wrist_2_joint",
        "wrist_3_joint"
    ],
    "metrics": {
        "cart_traj_len": 0.35263457802920717,
        "distance_elbow_joint": 0.44880281663218113,
        "distance_shoulder_lift_joint": 0.23545411910097025,
        "distance_shoulder_pan_joint": 0.45828343288616835,
        "distance_wrist_1_joint": 0.23992141260899147,
        "distance_wrist_2_joint": 1.1102779497661437,
        "distance_wrist_3_joint": 0.09618542209146552,
        "smoothness": 0.0,
        "time": 0.036530521999999996,
        "traj_len": 1.6090137206021335,
        "weighted_distance": 2.0326080191822493
    },
    "planner": "BiTRRT",
    "start": {
        "state": {
            "elbow_joint": 1.9715472970024885,
            "shoulder_lift_joint": -1.1394870060712896,
            "shoulder_pan_joint": 0.12281152778156021,
            "wrist_1_joint": -0.780463741449964,
            "wrist_2_joint": 0.12958659822042276,
            "wrist_3_joint": 3.090690232415272
        }
    },
    "waypoints": [
        {
            "positions": [
                0.12281152778156021,
                -1.1394870060712896,
                1.9715472970024885,
                -0.780463741449964,
                0.12958659822042276,
                3.090690232415272
            ]
        },
        {
            "positions": [
                0.057342465940679016,
                -1.1731233087999997,
                2.0356619850928,
                -0.8147382289655342,
                0.28819773390130043,
                3.104431006999767
            ]
        },
        {
            "positions": [
                -0.008126595900202177,
                -1.2067596115287096,
                2.099776673183112,
                -0.8490127164811044,
                0.44680886958217814,
                3.118171781584262
            ]
        },
        {
            "positions": [
                -0.07359565774108337,
                -1.2403959142574197,
                2.163891361273423,
                -0.8832872039966746,
                0.6054200052630557,
                3.131912556168757
            ]
        },
        {
            "positions": [
                -0.13906471958196456,
                -1.2740322169861298,
                2.228006049363735,
                -0.9175616915122449,
                0.7640311409439334,
                3.145653330753252
            ]
        },
        {
            "positions": [
                -0.20453378142284576,
                -1.3076685197148399,
                2.2921207374540464,
                -0.951836179027815,
                0.9226422766248111,
                3.1593941053377472
            ]
        },
        {
            "positions": [
                -0.2700028432637269,
                -1.3413048224435498,
                2.356235425544358,
                -0.9861106665433852,
                1.0812534123056887,
                3.1731348799222423
            ]
        },
        {
            "positions": [
                -0.3354719051046081,
                -1.3749411251722599,
                2.4203501136346697,
                -1.0203851540589555,
                1.2398645479865664,
                3.1868756545067374
            ]
        }
    ]
}