{
    "goal": {
        "global_pose": {
            "orientation": {
                "w": 0.005598929693374612,
                "x": 0.007748599140229565,
                "y": 0.7110244013736278,
                "z": -0.7031023480610252
            },
            "position": {
                "x": 0.1141497679147869,
                "y": -0.7141253447532654,
                "z": 0.3711530566215515
            }
        },
        "name": "move_to_auspresseinheit_B"
    },
    "id": "BiTRRT_move_to_auspresseinheit_B_7",
    "joint_names": [
        "shoulder_pan_joint",
        "shoulder_lift_joint",
        "elbow_joint",
        "wrist_1_joint",
        "wrist_2_joint",
        "wrist_3_joint"
    ],
    "metrics": {
        "cart_traj_len": 0.5641488088520866,
        "distance_elbow_joint": 0.059730017478581754,
        "distance_shoulder_lift_joint": 0.29456011100170376,
        "distance_shoulder_pan_joint": 0.5769015942365976,
        "distance_wrist_1_joint": 0.3190615697668413,
        "distance_wrist_2_joint": 0.9947080932465953,
        "distance_wrist_3_joint": 0.0011240842207365098,
        "smoothness": 5.075305295617109e-16,
        "time": 0.039133539,
        "traj_len": 1.498694588617393,
        "weighted_distance": 1.8873535178672716
    },
    "planner": "BiTRRT",
    "start": {
        "state": {
            "elbow_joint": 2.0193083361928714,
            "shoulder_lift_joint": -1.1220246554650708,
            "shoulder_pan_joint": -1.0952077554168747,
            "wrist_1_joint": -0.8559753972642168,
            "wrist_2_joint": 0.4759566250798843,
            "wrist_3_joint": -3.1240929996934557
        }
    },
    "waypoints": [
        {
            "positions": [
                -1.0952077554168747,
                -1.1220246554650708,
                2.0193083361928714,
                -0.8559753972642168,
                0.4759566250798843,
                -3.1240929996934557
            ]
        },
        {
            "positions": [
                -1.1913580211229742,
                -1.1711180072986882,
                2.0093533332797744,
                -0.8027984689697433,
                0.6417413072876501,
                -3.123905652323333
            ]
        },
        {
            "positions": [
                -1.287508286829074,
                -1.2202113591323054,
                1.9993983303666776,
                -0.7496215406752696,
                0.8075259894954161,
                -3.12371830495321
            ]
        },
        {
            "positions": [
                -1.3836585525351734,
                -1.2693047109659226,
                1.9894433274535805,
                -0.6964446123807961,
                0.9733106717031819,
                -3.123530957583087
            ]
        },
        {
            "positions": [
                -1.479808818241273,
                -1.31839806279954,
                1.9794883245404835,
                -0.6432676840863226,
                1.1390953539109478,
                -3.123343610212965
            ]
        },
        {
            "positions": [
                -1.5759590839473727,
                -1.3674914146331574,
                1.9695333216273867,
                -0.590090755791849,
                1.3048800361187136,
                -3.123156262842842
            ]
        },
        {
            "positions": [
                -1.6721093496534722,
                -1.4165847664667746,
                1.9595783187142897,
                -0.5369138274973755,
                1.4706647183264796,
                -3.122968915472719
            ]
        }
    ]
}