{
    "goal": {
        "global_pose": {
            "orientation": {
                "w": -0.00223480608172531,
                "x": 0.0024358444001904467,
                "y": 0.7094548369677653,
                "z": -0.704743149386269
            },
            "position": {
                "x": 0.6205249238014221,
                "y": -0.6371506643295288,
                "z": 0.19426114857196808
            }
        },
        "name": "move_to_magneteinheit_B"
    },
    "id": "BiTRRT_move_to_magneteinheit_B_16",
    "joint_names": [
        "shoulder_pan_joint",
        "shoulder_lift_joint",
        "elbow_joint",
        "wrist_1_joint",
        "wrist_2_joint",
        "wrist_3_joint"
    ],
    "metrics": {
        "cart_traj_len": 4.425838916640582,
        "distance_elbow_joint": 6.520736997954687,
        "distance_shoulder_lift_joint": 2.801608930963199,
        "distance_shoulder_pan_joint": 2.9818079886396243,
        "distance_wrist_1_joint": 5.036811778873542,
        "distance_wrist_2_joint": 4.706171721131604,
        "distance_wrist_3_joint": 10.837674533864046,
        "smoothness": 0.34948652312397693,
        "time": 0.376036008,
        "traj_len": 5.734528049580602,
        "weighted_distance": 8.018924149732303
    },
    "planner": "BiTRRT",
    "start": {
        "state": {
            "elbow_joint": 2.6216224122426386,
            "shoulder_lift_joint": -1.4174107377796124,
            "shoulder_pan_joint": 0.7066234856936794,
            "wrist_1_joint": 1.9546482284002225,
            "wrist_2_joint": -0.7096286983471962,
            "wrist_3_joint": 0.005740856962016249
        }
    },
    "waypoints": [
        {
            "positions": [
                0.7066234856936794,
                -1.4174107377796124,
                2.6216224122426386,
                1.9546482284002225,
                -0.7096286983471962,
                0.005740856962016249
            ]
        },
        {
            "positions": [
                0.7553084333911898,
                -1.474891501266391,
                2.6247950881519673,
                1.937010796745643,
                -0.827602960622167,
                -0.1254447165723496
            ]
        },
        {
            "positions": [
                0.8039933810887001,
                -1.5323722647531697,
                2.627967764061296,
                1.9193733650910634,
                -0.9455772228971377,
                -0.25663029010671545
            ]
        },
        {
            "positions": [
                0.8526783287862105,
                -1.5898530282399483,
                2.6311404399706246,
                1.9017359334364838,
                -1.0635514851721086,
                -0.3878158636410813
            ]
        },
        {
            "positions": [
                0.9013632764837209,
                -1.647333791726727,
                2.6343131158799533,
                1.8840985017819043,
                -1.1815257474470793,
                -0.5190014371754472
            ]
        },
        {
            "positions": [
                0.9500482241812314,
                -1.7048145552135057,
                2.6374857917892824,
                1.866461070127325,
                -1.2995000097220502,
                -0.6501870107098131
            ]
        },
        {
            "positions": [
                0.9987331718787417,
                -1.7622953187002843,
                2.640658467698611,
                1.8488236384727454,
                -1.4174742719970208,
                -0.7813725842441789
            ]
        },
        {
            "positions": [
                1.047418119576252,
                -1.8197760821870632,
                2.64383114360794,
                1.831186206818166,
                -1.5354485342719917,
                -0.9125581577785449
            ]
        },
        {
            "positions": [
                1.0961030672737624,
                -1.8772568456738419,
                2.6470038195172685,
                1.8135487751635864,
                -1.6534227965469623,
                -1.0437437313129105
            ]
        },
        {
            "positions": [
                1.1447880149712728,
                -1.9347376091606205,
                2.650176495426597,
                1.7959113435090068,
                -1.7713970588219332,
                -1.1749293048472764
            ]
        },
        {
            "positions": [
                1.1982077389405577,
                -1.9478526948109365,
                2.5911533861483753,
                1.6829104606427925,
                -1.7064541258805463,
                -1.088241901932423
            ]
        },
        {
            "positions": [
                1.2516274629098425,
                -1.9609677804612526,
                2.5321302768701535,
                1.5699095777765781,
                -1.6415111929391597,
                -1.0015544990175698
            ]
        },
        {
            "positions": [
                1.3050471868791276,
                -1.9740828661115686,
                2.4731071675919316,
                1.4569086949103638,
                -1.5765682599977728,
                -0.9148670961027163
            ]
        },
        {
            "positions": [
                1.3584669108484124,
                -1.9871979517618847,
                2.41408405831371,
                1.3439078120441492,
                -1.511625327056386,
                -0.8281796931878629
            ]
        },
        {
            "positions": [
                1.4118866348176973,
                -2.0003130374122007,
                2.3550609490354883,
                1.2309069291779349,
                -1.4466823941149993,
                -0.7414922902730097
            ]
        },
        {
            "positions": [
                1.4653063587869823,
                -2.013428123062517,
                2.2960378397572665,
                1.1179060463117205,
                -1.3817394611736125,
                -0.6548048873581562
            ]
        },
        {
            "positions": [
                1.5187260827562672,
                -2.026543208712833,
                2.2370147304790446,
                1.004905163445506,
                -1.3167965282322258,
                -0.5681174844433029
            ]
        },
        {
            "positions": [
                1.572145806725552,
                -2.0396582943631487,
                2.177991621200823,
                0.8919042805792917,
                -1.251853595290839,
                -0.48143008152844946
            ]
        },
        {
            "positions": [
                1.625565530694837,
                -2.052773380013465,
                2.118968511922601,
                0.7789033977130773,
                -1.1869106623494523,
                -0.39474267861359613
            ]
        },
        {
            "positions": [
                1.6789852546641217,
                -2.065888465663781,
                2.059945402644379,
                0.6659025148468629,
                -1.1219677294080654,
                -0.3080552756987428
            ]
        },
        {
            "positions": [
                1.7324049786334068,
                -2.0790035513140968,
                2.0009222933661572,
                0.5529016319806483,
                -1.0570247964666786,
                -0.22136787278388936
            ]
        },
        {
            "positions": [
                1.7858247026026917,
                -2.092118636964413,
                1.9418991840879358,
                0.4399007491144342,
                -0.9920818635252918,
                -0.13468046986903603
            ]
        },
        {
            "positions": [
                1.8392444265719767,
                -2.105233722614729,
                1.882876074809714,
                0.32689986624821965,
                -0.927138930583905,
                -0.047993066954182595
            ]
        },
        {
            "positions": [
                1.8926641505412616,
                -2.1183488082650452,
                1.8238529655314921,
                0.2138989833820053,
                -0.8621959976425183,
                0.03869433596067062
            ]
        },
        {
            "positions": [
                1.9460838745105464,
                -2.131463893915361,
                1.7648298562532703,
                0.10089810051579096,
                -0.7972530647011314,
                0.12538173887552406
            ]
        },
        {
            "positions": [
                1.9995035984798313,
                -2.144578979565677,
                1.7058067469750484,
                -0.012102782350423391,
                -0.7323101317597447,
                0.2120691417903775
            ]
        },
        {
            "positions": [
                2.052923322449116,
                -2.1576940652159933,
                1.6467836376968266,
                -0.12510366521663796,
                -0.6673671988183578,
                0.29875654470523094
            ]
        },
        {
            "positions": [
                2.106343046418401,
                -2.170809150866309,
                1.587760528418605,
                -0.2381045480828523,
                -0.6024242658769712,
                0.38544394762008416
            ]
        },
        {
            "positions": [
                2.159762770387686,
                -2.183924236516625,
                1.528737419140383,
                -0.35110543094906665,
                -0.5374813329355843,
                0.4721313505349376
            ]
        },
        {
            "positions": [
                2.213182494356971,
                -2.1970393221669413,
                1.4697143098621614,
                -0.464106313815281,
                -0.47253839999419767,
                0.5588187534497908
            ]
        },
        {
            "positions": [
                2.266602218326256,
                -2.2101544078172575,
                1.4106912005839394,
                -0.5771071966814958,
                -0.4075954670528106,
                0.6455061563646445
            ]
        },
        {
            "positions": [
                2.320021942295541,
                -2.2232694934675736,
                1.3516680913057177,
                -0.6901080795477101,
                -0.34265253411142393,
                0.7321935592794977
            ]
        },
        {
            "positions": [
                2.3734416662648257,
                -2.2363845791178893,
                1.292644982027496,
                -0.803108962413924,
                -0.2777096011700373,
                0.8188809621943511
            ]
        },
        {
            "positions": [
                2.4268613902341105,
                -2.2494996647682055,
                1.2336218727492743,
                -0.9161098452801384,
                -0.21276666822865042,
                0.9055683651092044
            ]
        },
        {
            "positions": [
                2.480281114203396,
                -2.2626147504185217,
                1.1745987634710522,
                -1.0291107281463532,
                -0.14782373528726356,
                0.9922557680240578
            ]
        },
        {
            "positions": [
                2.53370083817268,
                -2.2757298360688374,
                1.1155756541928306,
                -1.1421116110125675,
                -0.08288080234587669,
                1.0789431709389112
            ]
        },
        {
            "positions": [
                2.5871205621419655,
                -2.2888449217191535,
                1.0565525449146087,
                -1.2551124938787819,
                -0.017937869404490048,
                1.1656305738537647
            ]
        },
        {
            "positions": [
                2.64054028611125,
                -2.3019600073694697,
                0.9975294356363871,
                -1.3681133767449962,
                0.047005063536896596,
                1.2523179767686177
            ]
        },
        {
            "positions": [
                2.693960010080535,
                -2.315075093019786,
                0.938506326358165,
                -1.4811142596112106,
                0.11194799647828368,
                1.3390053796834716
            ]
        },
        {
            "positions": [
                2.74737973404982,
                -2.3281901786701016,
                0.8794832170799434,
                -1.594115142477425,
                0.17689092941967033,
                1.4256927825983245
            ]
        },
        {
            "positions": [
                2.800799458019105,
                -2.3413052643204177,
                0.8204601078017215,
                -1.7071160253436393,
                0.2418338623610572,
                1.512380185513178
            ]
        },
        {
            "positions": [
                2.8542191819883898,
                -2.354420349970734,
                0.7614369985234999,
                -1.8201169082098536,
                0.30677679530244384,
                1.5990675884280314
            ]
        },
        {
            "positions": [
                2.9076389059576746,
                -2.3675354356210496,
                0.7024138892452778,
                -1.9331177910760684,
                0.3717197282438309,
                1.6857549913428849
            ]
        },
        {
            "positions": [
                2.96105862992696,
                -2.380650521271366,
                0.643390779967056,
                -2.0461186739422828,
                0.43666266118521757,
                1.7724423942577383
            ]
        },
        {
            "positions": [
                3.0144783538962443,
                -2.393765606921682,
                0.5843676706888346,
                -2.1591195568084967,
                0.5016055941266042,
                1.8591297971725913
            ]
        },
        {
            "positions": [
                3.0678980778655296,
                -2.406880692571998,
                0.5253445614106127,
                -2.2721204396747114,
                0.5665485270679909,
                1.9458172000874447
            ]
        },
        {
            "positions": [
                3.1213178018348144,
                -2.419995778222314,
                0.46632145213239085,
                -2.385121322540926,
                0.631491460009378,
                2.032504603002298
            ]
        },
        {
            "positions": [
                3.1747375258040993,
                -2.43311086387263,
                0.407298342854169,
                -2.4981222054071406,
                0.6964343929507648,
                2.1191920059171516
            ]
        },
        {
            "positions": [
                3.1669578802939147,
                -2.360472533935609,
                0.18194253067969102,
                -2.475500988370516,
                0.6832396742499479,
                2.158728544855525
            ]
        },
        {
            "positions": [
                3.15917823478373,
                -2.287834203998589,
                -0.04341328149478696,
                -2.4528797713338912,
                0.670044955549131,
                2.198265083793898
            ]
        },
        {
            "positions": [
                3.1513985892735454,
                -2.215195874061568,
                -0.26876909366926494,
                -2.430258554297267,
                0.6568502368483141,
                2.2378016227322717
            ]
        },
        {
            "positions": [
                3.143618943763361,
                -2.1425575441245472,
                -0.4941249058437429,
                -2.4076373372606423,
                0.6436555181474971,
                2.2773381616706447
            ]
        },
        {
            "positions": [
                3.135839298253176,
                -2.0699192141875264,
                -0.719480718018221,
                -2.3850161202240177,
                0.6304607994466802,
                2.3168747006090182
            ]
        },
        {
            "positions": [
                3.1280596527429916,
                -1.997280884250506,
                -0.9448365301926989,
                -2.362394903187393,
                0.6172660807458633,
                2.3564112395473913
            ]
        },
        {
            "positions": [
                3.120280007232807,
                -1.9246425543134853,
                -1.170192342367177,
                -2.3397736861507683,
                0.6040713620450464,
                2.395947778485765
            ]
        },
        {
            "positions": [
                3.1125003617226223,
                -1.8520042243764645,
                -1.3955481545416548,
                -2.317152469114144,
                0.5908766433442295,
                2.4354843174241383
            ]
        },
        {
            "positions": [
                3.1047207162124377,
                -1.779365894439444,
                -1.6209039667161331,
                -2.2945312520775194,
                0.5776819246434126,
                2.4750208563625113
            ]
        },
        {
            "positions": [
                3.096941070702253,
                -1.7067275645024234,
                -1.846259778890611,
                -2.2719100350408947,
                0.5644872059425956,
                2.514557395300885
            ]
        },
        {
            "positions": [
                3.0891614251920685,
                -1.6340892345654026,
                -2.071615591065089,
                -2.24928881800427,
                0.5512924872417788,
                2.554093934239258
            ]
        },
        {
            "positions": [
                3.081381779681884,
                -1.561450904628382,
                -2.2969714032395667,
                -2.226667600967646,
                0.5380977685409618,
                2.5936304731776314
            ]
        },
        {
            "positions": [
                3.0736021341716993,
                -1.4888125746913614,
                -2.522327215414045,
                -2.204046383931021,
                0.5249030498401449,
                2.6331670121160045
            ]
        },
        {
            "positions": [
                3.0658224886615146,
                -1.4161742447543406,
                -2.747683027588523,
                -2.1814251668943965,
                0.511708331139328,
                2.672703551054378
            ]
        },
        {
            "positions": [
                3.0489567006870724,
                -1.4482147524940028,
                -2.702086219598706,
                -2.1925645130007894,
                0.47038142084463097,
                2.430646404547999
            ]
        },
        {
            "positions": [
                3.0320909127126296,
                -1.480255260233665,
                -2.6564894116088893,
                -2.2037038591071827,
                0.4290545105499339,
                2.1885892580416195
            ]
        },
        {
            "positions": [
                3.0152251247381874,
                -1.512295767973327,
                -2.6108926036190723,
                -2.2148432052135756,
                0.3877276002552368,
                1.9465321115352405
            ]
        },
        {
            "positions": [
                2.9983593367637447,
                -1.544336275712989,
                -2.5652957956292557,
                -2.2259825513199685,
                0.34640068996053974,
                1.7044749650288615
            ]
        },
        {
            "positions": [
                2.9814935487893024,
                -1.5763767834526512,
                -2.5196989876394387,
                -2.237121897426362,
                0.3050737796658427,
                1.462417818522482
            ]
        },
        {
            "positions": [
                2.9646277608148597,
                -1.6084172911923134,
                -2.474102179649622,
                -2.2482612435327547,
                0.2637468693711456,
                1.220360672016103
            ]
        },
        {
            "positions": [
                2.9477619728404174,
                -1.6404577989319755,
                -2.428505371659805,
                -2.2594005896391476,
                0.22241995907644851,
                0.9783035255097239
            ]
        },
        {
            "positions": [
                2.9308961848659747,
                -1.6724983066716375,
                -2.3829085636699885,
                -2.270539935745541,
                0.18109304878175148,
                0.7362463790033449
            ]
        },
        {
            "positions": [
                2.9140303968915324,
                -1.7045388144112996,
                -2.3373117556801715,
                -2.281679281851934,
                0.13976613848705444,
                0.49418923249696567
            ]
        },
        {
            "positions": [
                2.8971646089170897,
                -1.7365793221509618,
                -2.2917149476903544,
                -2.2928186279583267,
                0.09843922819235734,
                0.25213208599058623
            ]
        },
        {
            "positions": [
                2.8802988209426474,
                -1.768619829890624,
                -2.246118139700538,
                -2.30395797406472,
                0.0571123178976603,
                0.010074939484207679
            ]
        },
        {
            "positions": [
                2.8634330329682047,
                -1.800660337630286,
                -2.200521331710721,
                -2.315097320171113,
                0.01578540760296321,
                -0.23198220702217176
            ]
        },
        {
            "positions": [
                2.8465672449937625,
                -1.8327008453699483,
                -2.1549245237209043,
                -2.326236666277506,
                -0.02554150269173383,
                -0.47403935352855076
            ]
        },
        {
            "positions": [
                2.82970145701932,
                -1.8647413531096104,
                -2.1093277157310872,
                -2.337376012383899,
                -0.06686841298643098,
                -0.7160965000349302
            ]
        },
        {
            "positions": [
                2.8128356690448775,
                -1.8967818608492726,
                -2.06373090774127,
                -2.348515358490292,
                -0.10819532328112802,
                -0.9581536465413092
            ]
        },
        {
            "positions": [
                2.795969881070435,
                -1.9288223685889345,
                -2.0181340997514536,
                -2.359654704596685,
                -0.14952223357582506,
                -1.2002107930476882
            ]
        },
        {
            "positions": [
                2.7791040930959925,
                -1.960862876328597,
                -1.9725372917616366,
                -2.3707940507030782,
                -0.1908491438705222,
                -1.442267939554068
            ]
        },
        {
            "positions": [
                2.76223830512155,
                -1.9929033840682588,
                -1.92694048377182,
                -2.381933396809471,
                -0.23217605416521914,
                -1.6843250860604466
            ]
        },
        {
            "positions": [
                2.7453725171471075,
                -2.024943891807921,
                -1.8813436757820032,
                -2.393072742915864,
                -0.2735029644599162,
                -1.9263822325668252
            ]
        },
        {
            "positions": [
                2.7285067291726652,
                -2.0569843995475834,
                -1.8357468677921864,
                -2.4042120890222574,
                -0.3148298747546133,
                -2.1684393790732055
            ]
        },
        {
            "positions": [
                2.7116409411982225,
                -2.089024907287245,
                -1.7901500598023694,
                -2.4153514351286502,
                -0.35615678504931036,
                -2.410496525579584
            ]
        },
        {
            "positions": [
                2.6947751532237803,
                -2.1210654150269073,
                -1.7445532518125526,
                -2.426490781235043,
                -0.3974836953440074,
                -2.6525536720859626
            ]
        },
        {
            "positions": [
                2.6779093652493375,
                -2.1531059227665694,
                -1.6989564438227358,
                -2.4376301273414365,
                -0.43881060563870455,
                -2.894610818592343
            ]
        },
        {
            "positions": [
                2.6610435772748953,
                -2.1851464305062316,
                -1.653359635832919,
                -2.4487694734478294,
                -0.48013751593340165,
                -3.1366679650987215
            ]
        }
    ]
}