{
    "goal": {
        "global_pose": {
            "orientation": {
                "w": 0.5084816262002911,
                "x": -0.4908360881923452,
                "y": 0.5182115481033761,
                "z": -0.48164630358495003
            },
            "position": {
                "x": 0.5540239810943604,
                "y": -0.46912469901144505,
                "z": 0.16403168439865112
            }
        },
        "name": "move_to_storage_B"
    },
    "id": "BiTRRT_move_to_storage_B_42",
    "joint_names": [
        "shoulder_pan_joint",
        "shoulder_lift_joint",
        "elbow_joint",
        "wrist_1_joint",
        "wrist_2_joint",
        "wrist_3_joint"
    ],
    "metrics": {
        "cart_traj_len": 1.1826032718096038,
        "distance_elbow_joint": 1.4027509185386706,
        "distance_shoulder_lift_joint": 0.4576309913087009,
        "distance_shoulder_pan_joint": 1.0725609480834728,
        "distance_wrist_1_joint": 2.9778861137516466,
        "distance_wrist_2_joint": 2.7020499685943933,
        "distance_wrist_3_joint": 3.151426471205437,
        "smoothness": 0.3090484014905133,
        "time": 0.088785209,
        "traj_len": 3.4299133241938233,
        "weighted_distance": 4.873099058734517
    },
    "planner": "BiTRRT",
    "start": {
        "state": {
            "elbow_joint": 1.664937868594044,
            "shoulder_lift_joint": -0.661644460510453,
            "shoulder_pan_joint": -0.9139846352900073,
            "wrist_1_joint": 2.146753192139373,
            "wrist_2_joint": -2.2341966793290973,
            "wrist_3_joint": 0.005466555786416001
        }
    },
    "waypoints": [
        {
            "positions": [
                -0.9139846352900073,
                -0.661644460510453,
                1.664937868594044,
                2.146753192139373,
                -2.2341966793290973,
                0.005466555786416001
            ]
        },
        {
            "positions": [
                -0.8953984471869403,
                -0.664722100539558,
                1.6612078403556214,
                2.1387352473432744,
                -2.2171659436149804,
                -0.005589599852005601
            ]
        },
        {
            "positions": [
                -0.8565927078055864,
                -0.6727780897589886,
                1.6136158948201895,
                2.0479739960863426,
                -2.0991408236270916,
                0.052281409356594914
            ]
        },
        {
            "positions": [
                -0.8177869684242324,
                -0.6808340789784192,
                1.5660239492847576,
                1.9572127448294108,
                -1.981115703639203,
                0.11015241856519542
            ]
        },
        {
            "positions": [
                -0.7789812290428785,
                -0.6888900681978497,
                1.5184320037493257,
                1.866451493572479,
                -1.8630905836513145,
                0.16802342777379592
            ]
        },
        {
            "positions": [
                -0.7401754896615245,
                -0.6969460574172802,
                1.4708400582138939,
                1.775690242315547,
                -1.7450654636634257,
                0.22589443698239645
            ]
        },
        {
            "positions": [
                -0.7013697502801706,
                -0.7050020466367108,
                1.4232481126784622,
                1.6849289910586152,
                -1.6270403436755372,
                0.283765446190997
            ]
        },
        {
            "positions": [
                -0.6625640108988167,
                -0.7130580358561414,
                1.3756561671430303,
                1.5941677398016834,
                -1.5090152236876486,
                0.34163645539959747
            ]
        },
        {
            "positions": [
                -0.6237582715174628,
                -0.721114025075572,
                1.3280642216075984,
                1.5034064885447516,
                -1.3909901036997598,
                0.399507464608198
            ]
        },
        {
            "positions": [
                -0.5849525321361088,
                -0.7291700142950025,
                1.2804722760721665,
                1.4126452372878195,
                -1.272964983711871,
                0.4573784738167985
            ]
        },
        {
            "positions": [
                -0.5461467927547548,
                -0.737226003514433,
                1.2328803305367346,
                1.3218839860308877,
                -1.1549398637239825,
                0.5152494830253991
            ]
        },
        {
            "positions": [
                -0.5073410533734009,
                -0.7452819927338636,
                1.1852883850013027,
                1.231122734773956,
                -1.036914743736094,
                0.5731204922339995
            ]
        },
        {
            "positions": [
                -0.46853531399204695,
                -0.7533379819532942,
                1.1376964394658708,
                1.1403614835170242,
                -0.918889623748205,
                0.6309915014426001
            ]
        },
        {
            "positions": [
                -0.4998908953313226,
                -0.7716348554465872,
                1.1814719139363956,
                1.0417867632605593,
                -0.84955247809753,
                0.7561809621562205
            ]
        },
        {
            "positions": [
                -0.5312464766705982,
                -0.7899317289398802,
                1.2252473884069206,
                0.9432120430040943,
                -0.7802153324468548,
                0.8813704228698411
            ]
        },
        {
            "positions": [
                -0.5626020580098738,
                -0.8082286024331731,
                1.2690228628774456,
                0.8446373227476295,
                -0.7108781867961798,
                1.0065598835834615
            ]
        },
        {
            "positions": [
                -0.5939576393491495,
                -0.8265254759264661,
                1.3127983373479704,
                0.7460626024911645,
                -0.6415410411455047,
                1.131749344297082
            ]
        },
        {
            "positions": [
                -0.6253132206884251,
                -0.8448223494197591,
                1.3565738118184951,
                0.6474878822346997,
                -0.5722038954948296,
                1.2569388050107024
            ]
        },
        {
            "positions": [
                -0.6566688020277007,
                -0.8631192229130521,
                1.4003492862890201,
                0.5489131619782348,
                -0.5028667498441546,
                1.382128265724323
            ]
        },
        {
            "positions": [
                -0.6880243833669764,
                -0.8814160964063451,
                1.444124760759545,
                0.45033844172176996,
                -0.4335296041934795,
                1.5073177264379436
            ]
        },
        {
            "positions": [
                -0.719379964706252,
                -0.899712969899638,
                1.4879002352300699,
                0.3517637214653049,
                -0.36419245854280435,
                1.632507187151564
            ]
        },
        {
            "positions": [
                -0.7507355460455276,
                -0.918009843392931,
                1.5316757097005946,
                0.25318900120884,
                -0.2948553128921293,
                1.7576966478651848
            ]
        },
        {
            "positions": [
                -0.7820911273848032,
                -0.936306716886224,
                1.5754511841711196,
                0.15461428095237517,
                -0.22551816724145424,
                1.8828861085788051
            ]
        },
        {
            "positions": [
                -0.8134467087240789,
                -0.954603590379517,
                1.6192266586416446,
                0.056039560695910096,
                -0.15618102159077907,
                2.0080755692924255
            ]
        },
        {
            "positions": [
                -0.8448022900633545,
                -0.97290046387281,
                1.6630021331121694,
                -0.042535159560554536,
                -0.08684387594010412,
                2.133265030006046
            ]
        },
        {
            "positions": [
                -0.8761578714026301,
                -0.9911973373661029,
                1.7067776075826941,
                -0.1411098798170196,
                -0.01750673028942895,
                2.2584544907196666
            ]
        },
        {
            "positions": [
                -0.9075134527419058,
                -1.0094942108593958,
                1.7505530820532191,
                -0.23968460007348424,
                0.051830415361245996,
                2.383643951433287
            ]
        },
        {
            "positions": [
                -0.9388690340811814,
                -1.027791084352689,
                1.7943285565237441,
                -0.3382593203299493,
                0.12116756101192128,
                2.5088334121469074
            ]
        },
        {
            "positions": [
                -0.970224615420457,
                -1.046087957845982,
                1.838104030994269,
                -0.4368340405864144,
                0.19050470666259633,
                2.634022872860528
            ]
        },
        {
            "positions": [
                -1.0015801967597326,
                -1.064384831339275,
                1.8818795054647937,
                -0.535408760842879,
                0.2598418523132714,
                2.7592123335741485
            ]
        },
        {
            "positions": [
                -1.0329357780990083,
                -1.0826817048325679,
                1.9256549799353186,
                -0.6339834810993441,
                0.32917899796394645,
                2.8844017942877693
            ]
        },
        {
            "positions": [
                -1.064291359438284,
                -1.100978578325861,
                1.9694304544058436,
                -0.7325582013558087,
                0.3985161436146215,
                3.0095912550013892
            ]
        },
        {
            "positions": [
                -1.0956469407775595,
                -1.1192754518191539,
                2.0132059288763684,
                -0.8311329216122737,
                0.46785328926529646,
                3.13478071571501
            ]
        }
    ]
}