{
    "goal": {
        "global_pose": {
            "orientation": {
                "w": -0.4816463035849501,
                "x": 0.5182115481033762,
                "y": 0.4908360881923453,
                "z": -0.5084816262002911
            },
            "position": {
                "x": -0.8240239810943604,
                "y": -0.300875300988555,
                "z": 0.16403168439865112
            }
        },
        "name": "move_to_storage_C"
    },
    "id": "BiTRRT_move_to_storage_C_34",
    "joint_names": [
        "shoulder_pan_joint",
        "shoulder_lift_joint",
        "elbow_joint",
        "wrist_1_joint",
        "wrist_2_joint",
        "wrist_3_joint"
    ],
    "metrics": {
        "cart_traj_len": 0.5774501974245049,
        "distance_elbow_joint": 0.2615053620334489,
        "distance_shoulder_lift_joint": 0.19029044318754895,
        "distance_shoulder_pan_joint": 0.49423836052258974,
        "distance_wrist_1_joint": 0.09034245502531013,
        "distance_wrist_2_joint": 1.0779296623083066,
        "distance_wrist_3_joint": 0.0639339855926262,
        "smoothness": 0.0,
        "time": 0.025603828000000002,
        "traj_len": 1.4758862654926466,
        "weighted_distance": 1.863968979674474
    },
    "planner": "BiTRRT",
    "start": {
        "state": {
            "elbow_joint": 2.010868314990456,
            "shoulder_lift_joint": -1.1634956873337592,
            "shoulder_pan_joint": -2.4736205022346125,
            "wrist_1_joint": -0.8367026794202681,
            "wrist_2_joint": 0.6746043897044499,
            "wrist_3_joint": -3.1496632123970403
        }
    },
    "waypoints": [
        {
            "positions": [
                -2.4736205022346125,
                -1.1634956873337592,
                2.010868314990456,
                -0.8367026794202681,
                0.6746043897044499,
                -3.1496632123970403
            ]
        },
        {
            "positions": [
                -2.555993562321711,
                -1.1317806134691677,
                1.967284087984881,
                -0.8216456035827164,
                0.854259333422501,
                -3.1390075481316027
            ]
        },
        {
            "positions": [
                -2.638366622408809,
                -1.1000655396045762,
                1.9236998609793061,
                -0.8065885277451648,
                1.033914277140552,
                -3.128351883866165
            ]
        },
        {
            "positions": [
                -2.7207396824959074,
                -1.0683504657399847,
                1.8801156339737313,
                -0.7915314519076131,
                1.213569220858603,
                -3.1176962196007274
            ]
        },
        {
            "positions": [
                -2.803112742583006,
                -1.0366353918753932,
                1.8365314069681566,
                -0.7764743760700613,
                1.393224164576654,
                -3.1070405553352893
            ]
        },
        {
            "positions": [
                -2.885485802670104,
                -1.0049203180108017,
                1.7929471799625818,
                -0.7614173002325096,
                1.5728791082947056,
                -3.0963848910698517
            ]
        },
        {
            "positions": [
                -2.9678588627572022,
                -0.9732052441462102,
                1.749362952957007,
                -0.746360224394958,
                1.7525340520127566,
                -3.085729226804414
            ]
        }
    ]
}