{
    "goal": {
        "global_pose": {
            "orientation": {
                "w": -0.00223480608172531,
                "x": 0.0024358444001904467,
                "y": 0.7094548369677653,
                "z": -0.704743149386269
            },
            "position": {
                "x": -0.37947507619857795,
                "y": -0.6371506643295288,
                "z": 0.19426114857196808
            }
        },
        "name": "move_to_magneteinheit_C"
    },
    "id": "BiTRRT_move_to_magneteinheit_C_109",
    "joint_names": [
        "shoulder_pan_joint",
        "shoulder_lift_joint",
        "elbow_joint",
        "wrist_1_joint",
        "wrist_2_joint",
        "wrist_3_joint"
    ],
    "metrics": {
        "cart_traj_len": 3.912567108204903,
        "distance_elbow_joint": 2.5536812205978117,
        "distance_shoulder_lift_joint": 1.0691374227063086,
        "distance_shoulder_pan_joint": 3.068569540955983,
        "distance_wrist_1_joint": 2.449011021521414,
        "distance_wrist_2_joint": 5.093926531647123,
        "distance_wrist_3_joint": 9.026307181206622,
        "smoothness": 0.7567630230270226,
        "time": 0.17142612299999999,
        "traj_len": 4.822927836764227,
        "weighted_distance": 6.989719939612535
    },
    "planner": "BiTRRT",
    "start": {
        "state": {
            "elbow_joint": 1.9565354010623817,
            "shoulder_lift_joint": -1.4165861575791021,
            "shoulder_pan_joint": -1.6717766225146293,
            "wrist_1_joint": -0.5286633292919765,
            "wrist_2_joint": 1.472756589071564,
            "wrist_3_joint": -3.1238370188695823
        }
    },
    "waypoints": [
        {
            "positions": [
                -1.6717766225146293,
                -1.4165861575791021,
                1.9565354010623817,
                -0.5286633292919765,
                1.472756589071564,
                -3.1238370188695823
            ]
        },
        {
            "positions": [
                -1.5802853948952644,
                -1.3913426851605741,
                1.9185789612650381,
                -0.46088999928297153,
                1.4101446946233032,
                -3.02178476471693
            ]
        },
        {
            "positions": [
                -1.4887941672758993,
                -1.3660992127420462,
                1.8806225214676946,
                -0.3931166692739666,
                1.3475328001750424,
                -2.919732510564278
            ]
        },
        {
            "positions": [
                -1.3973029396565346,
                -1.3408557403235184,
                1.8426660816703513,
                -0.3253433392649616,
                1.2849209057267816,
                -2.817680256411626
            ]
        },
        {
            "positions": [
                -1.3058117120371695,
                -1.3156122679049904,
                1.8047096418730078,
                -0.2575700092559567,
                1.2223090112785209,
                -2.715628002258974
            ]
        },
        {
            "positions": [
                -1.2143204844178046,
                -1.2903687954864624,
                1.7667532020756642,
                -0.18979667924695176,
                1.15969711683026,
                -2.6135757481063218
            ]
        },
        {
            "positions": [
                -1.1759123857694647,
                -1.295974020202722,
                1.6683978695551829,
                -0.18664650767502658,
                1.0734503401096185,
                -2.513878585017939
            ]
        },
        {
            "positions": [
                -1.137504287121125,
                -1.3015792449189814,
                1.5700425370347015,
                -0.1834963361031014,
                0.9872035633889766,
                -2.414181421929556
            ]
        },
        {
            "positions": [
                -1.099096188472785,
                -1.3071844696352408,
                1.4716872045142202,
                -0.18034616453117622,
                0.9009567866683349,
                -2.3144842588411727
            ]
        },
        {
            "positions": [
                -1.060688089824445,
                -1.3127896943515003,
                1.3733318719937389,
                -0.17719599295925104,
                0.8147100099476932,
                -2.21478709575279
            ]
        },
        {
            "positions": [
                -1.1030638755234514,
                -1.3209926436445083,
                1.2753227433567536,
                -0.23301541095225176,
                0.7509026500619418,
                -2.1549870229980193
            ]
        },
        {
            "positions": [
                -1.1454396612224578,
                -1.329195592937516,
                1.1773136147197685,
                -0.2888348289452525,
                0.6870952901761904,
                -2.0951869502432485
            ]
        },
        {
            "positions": [
                -1.2258711171871524,
                -1.340067236265088,
                1.1569434244696057,
                -0.2585729294907152,
                0.7806623164426291,
                -1.9441953743207487
            ]
        },
        {
            "positions": [
                -1.3063025731518467,
                -1.35093887959266,
                1.1365732342194432,
                -0.2283110300361779,
                0.8742293427090677,
                -1.7932037983982487
            ]
        },
        {
            "positions": [
                -1.3867340291165413,
                -1.361810522920232,
                1.1162030439692805,
                -0.1980491305816406,
                0.9677963689755062,
                -1.642212222475749
            ]
        },
        {
            "positions": [
                -1.4671654850812357,
                -1.372682166247804,
                1.095832853719118,
                -0.1677872311271033,
                1.061363395241945,
                -1.491220646553249
            ]
        },
        {
            "positions": [
                -1.5475969410459303,
                -1.3835538095753759,
                1.0754626634689552,
                -0.13752533167256603,
                1.1549304215083835,
                -1.3402290706307491
            ]
        },
        {
            "positions": [
                -1.6280283970106249,
                -1.394425452902948,
                1.0550924732187927,
                -0.10726343221802873,
                1.248497447774822,
                -1.1892374947082494
            ]
        },
        {
            "positions": [
                -1.7084598529753192,
                -1.40529709623052,
                1.03472228296863,
                -0.07700153276349142,
                1.3420644740412608,
                -1.0382459187857493
            ]
        },
        {
            "positions": [
                -1.7888913089400138,
                -1.416168739558092,
                1.0143520927184673,
                -0.04673963330895414,
                1.4356315003076996,
                -0.8872543428632496
            ]
        },
        {
            "positions": [
                -1.8693227649047084,
                -1.427040382885664,
                0.9939819024683048,
                -0.01647773385441681,
                1.5291985265741381,
                -0.7362627669407498
            ]
        },
        {
            "positions": [
                -1.9497542208694028,
                -1.4379120262132359,
                0.9736117122181421,
                0.013784165600120413,
                1.6227655528405767,
                -0.58527119101825
            ]
        },
        {
            "positions": [
                -2.0301856768340976,
                -1.4487836695408078,
                0.9532415219679795,
                0.044046065054657746,
                1.7163325791070154,
                -0.43427961509574997
            ]
        },
        {
            "positions": [
                -2.110617132798792,
                -1.4596553128683798,
                0.9328713317178168,
                0.07430796450919502,
                1.809899605373454,
                -0.2832880391732502
            ]
        },
        {
            "positions": [
                -2.1910485887634863,
                -1.4705269561959518,
                0.9125011414676543,
                0.1045698639637323,
                1.9034666316398925,
                -0.1322964632507504
            ]
        },
        {
            "positions": [
                -2.2714800447281807,
                -1.4813985995235237,
                0.8921309512174915,
                0.13483176341826963,
                1.9970336579063312,
                0.018695112671749836
            ]
        },
        {
            "positions": [
                -2.351911500692875,
                -1.4922702428510957,
                0.8717607609673289,
                0.1650936628728069,
                2.0906006841727702,
                0.16968668859424962
            ]
        },
        {
            "positions": [
                -2.43234295665757,
                -1.5031418861786676,
                0.8513905707171663,
                0.1953555623273442,
                2.1841677104392083,
                0.3206782645167494
            ]
        },
        {
            "positions": [
                -2.512774412622264,
                -1.5140135295062396,
                0.8310203804670037,
                0.22561746178188147,
                2.2777347367056473,
                0.4716698404392492
            ]
        },
        {
            "positions": [
                -2.593205868586959,
                -1.5248851728338118,
                0.810650190216841,
                0.25587936123641886,
                2.371301762972086,
                0.622661416361749
            ]
        },
        {
            "positions": [
                -2.6736373245516534,
                -1.5357568161613837,
                0.7902799999666783,
                0.28614126069095613,
                2.4648687892385244,
                0.7736529922842488
            ]
        },
        {
            "positions": [
                -2.7540687805163477,
                -1.5466284594889557,
                0.7699098097165158,
                0.3164031601454933,
                2.558435815504963,
                0.9246445682067486
            ]
        },
        {
            "positions": [
                -2.834500236481042,
                -1.5575001028165276,
                0.7495396194663531,
                0.3466650596000306,
                2.6520028417714014,
                1.0756361441292484
            ]
        },
        {
            "positions": [
                -2.914931692445737,
                -1.5683717461440996,
                0.7291694292161904,
                0.37692695905456797,
                2.7455698680378404,
                1.2266277200517486
            ]
        },
        {
            "positions": [
                -2.9953631484104313,
                -1.5792433894716715,
                0.7087992389660278,
                0.40718885850910524,
                2.839136894304279,
                1.3776192959742484
            ]
        },
        {
            "positions": [
                -2.979853625417482,
                -1.553835273437314,
                0.7418273881156054,
                0.35534407972200854,
                2.7382555003360514,
                1.2168712723697093
            ]
        },
        {
            "positions": [
                -2.964344102424533,
                -1.5284271574029564,
                0.7748555372651832,
                0.3034993009349119,
                2.6373741063678238,
                1.05612324876517
            ]
        },
        {
            "positions": [
                -2.9488345794315833,
                -1.5030190413685989,
                0.8078836864147608,
                0.25165452214781525,
                2.536492712399596,
                0.8953752251606308
            ]
        },
        {
            "positions": [
                -2.933325056438634,
                -1.4776109253342413,
                0.8409118355643386,
                0.19980974336071855,
                2.4356113184313686,
                0.7346272015560916
            ]
        },
        {
            "positions": [
                -2.917815533445685,
                -1.4522028092998838,
                0.8739399847139162,
                0.1479649645736219,
                2.334729924463141,
                0.5738791779515525
            ]
        },
        {
            "positions": [
                -2.902306010452736,
                -1.4267946932655262,
                0.906968133863494,
                0.0961201857865252,
                2.233848530494914,
                0.4131311543470133
            ]
        },
        {
            "positions": [
                -2.8867964874597867,
                -1.4013865772311687,
                0.9399962830130716,
                0.04427540699942856,
                2.1329671365266862,
                0.2523831307424742
            ]
        },
        {
            "positions": [
                -2.8712869644668375,
                -1.375978461196811,
                0.9730244321626493,
                -0.007569371787668144,
                2.0320857425584586,
                0.09163510713793488
            ]
        },
        {
            "positions": [
                -2.855777441473888,
                -1.3505703451624536,
                1.006052581312227,
                -0.05941415057476479,
                1.931204348590231,
                -0.06911291646660422
            ]
        },
        {
            "positions": [
                -2.8402679184809387,
                -1.3251622291280962,
                1.0390807304618046,
                -0.11125892936186144,
                1.8303229546220035,
                -0.22986094007114333
            ]
        },
        {
            "positions": [
                -2.8247583954879896,
                -1.2997541130937385,
                1.0721088796113825,
                -0.16310370814895825,
                1.7294415606537759,
                -0.3906089636756829
            ]
        },
        {
            "positions": [
                -2.8092488724950404,
                -1.2743459970593811,
                1.10513702876096,
                -0.21494848693605484,
                1.6285601666855485,
                -0.5513569872802218
            ]
        },
        {
            "positions": [
                -2.793739349502091,
                -1.2489378810250233,
                1.1381651779105377,
                -0.26679326572315154,
                1.5276787727173207,
                -0.7121050108847613
            ]
        },
        {
            "positions": [
                -2.7782298265091416,
                -1.223529764990666,
                1.1711933270601154,
                -0.31863804451024813,
                1.4267973787490933,
                -0.8728530344893
            ]
        },
        {
            "positions": [
                -2.7627203035161925,
                -1.1981216489563085,
                1.204221476209693,
                -0.37048282329734494,
                1.3259159847808657,
                -1.0336010580938395
            ]
        },
        {
            "positions": [
                -2.7472107805232433,
                -1.172713532921951,
                1.2372496253592709,
                -0.42232760208444153,
                1.225034590812638,
                -1.1943490816983786
            ]
        },
        {
            "positions": [
                -2.731701257530294,
                -1.1473054168875934,
                1.2702777745088485,
                -0.47417238087153823,
                1.1241531968444105,
                -1.3550971053029177
            ]
        },
        {
            "positions": [
                -2.716191734537345,
                -1.1218973008532358,
                1.3033059236584261,
                -0.5260171596586348,
                1.0232718028761831,
                -1.5158451289074568
            ]
        },
        {
            "positions": [
                -2.7006822115443954,
                -1.0964891848188782,
                1.336334072808004,
                -0.5778619384457316,
                0.9223904089079555,
                -1.6765931525119964
            ]
        },
        {
            "positions": [
                -2.685172688551446,
                -1.0710810687845207,
                1.3693622219575814,
                -0.6297067172328281,
                0.8215090149397279,
                -1.837341176116535
            ]
        },
        {
            "positions": [
                -2.669663165558497,
                -1.0456729527501631,
                1.4023903711071593,
                -0.681551496019925,
                0.7206276209715002,
                -1.9980891997210746
            ]
        },
        {
            "positions": [
                -2.6378116442870922,
                -1.0682081314135101,
                1.5163369038850973,
                -0.6777799208367951,
                0.7164653882562152,
                -2.1544092944722704
            ]
        },
        {
            "positions": [
                -2.605960123015687,
                -1.090743310076857,
                1.6302834366630357,
                -0.6740083456536651,
                0.7123031555409302,
                -2.310729389223466
            ]
        },
        {
            "positions": [
                -2.5741086017442822,
                -1.113278488740204,
                1.7442299694409737,
                -0.670236770470535,
                0.7081409228256451,
                -2.4670494839746615
            ]
        },
        {
            "positions": [
                -2.542257080472877,
                -1.135813667403551,
                1.858176502218912,
                -0.666465195287405,
                0.7039786901103601,
                -2.6233695787258573
            ]
        },
        {
            "positions": [
                -2.5104055592014722,
                -1.158348846066898,
                1.9721230349968502,
                -0.662693620104275,
                0.699816457395075,
                -2.779689673477053
            ]
        },
        {
            "positions": [
                -2.4914813789660455,
                -1.1622484143620064,
                1.9934336662321686,
                -0.7538350857560998,
                0.6913648615378478,
                -2.963460621932797
            ]
        },
        {
            "positions": [
                -2.4725571987306183,
                -1.1661479826571146,
                2.014744297467487,
                -0.8449765514079245,
                0.6829132656806206,
                -3.1472315703885405
            ]
        }
    ]
}