{
    "goal": {
        "global_pose": {
            "orientation": {
                "w": 0.7047431468963623,
                "x": -0.7094548344612122,
                "y": 0.0024358443915843964,
                "z": -0.0022348060738295317
            },
            "position": {
                "x": 0.6094750761985779,
                "y": 0.3671506643295288,
                "z": 0.19426114857196808
            }
        },
        "name": "move_to_magneteinheit_A"
    },
    "id": "BiTRRT_move_to_magneteinheit_A_53",
    "joint_names": [
        "shoulder_pan_joint",
        "shoulder_lift_joint",
        "elbow_joint",
        "wrist_1_joint",
        "wrist_2_joint",
        "wrist_3_joint"
    ],
    "metrics": {
        "cart_traj_len": 3.287028547226146,
        "distance_elbow_joint": 3.9098408788931422,
        "distance_shoulder_lift_joint": 0.4686051769375882,
        "distance_shoulder_pan_joint": 2.7467569307512965,
        "distance_wrist_1_joint": 3.4540279894626797,
        "distance_wrist_2_joint": 1.8834269580650789,
        "distance_wrist_3_joint": 0.5854365961932277,
        "smoothness": 0.07071196143293083,
        "time": 0.099440729,
        "traj_len": 3.612214629600934,
        "weighted_distance": 4.422264427894065
    },
    "planner": "BiTRRT",
    "start": {
        "state": {
            "elbow_joint": -1.9196185241190666,
            "shoulder_lift_joint": -1.2443396400964142,
            "shoulder_pan_joint": 2.6996025414629847,
            "wrist_1_joint": -1.5485510000780065,
            "wrist_2_joint": -1.5709468930060704,
            "wrist_3_joint": 0.4420197071253992
        }
    },
    "waypoints": [
        {
            "positions": [
                2.6996025414629847,
                -1.2443396400964142,
                -1.9196185241190666,
                -1.5485510000780065,
                -1.5709468930060704,
                0.4420197071253992
            ]
        },
        {
            "positions": [
                2.593148562104316,
                -1.2351427226093752,
                -1.8056928057724309,
                -1.4597879039787767,
                -1.499786382018117,
                0.4453964548129644
            ]
        },
        {
            "positions": [
                2.4866945827456477,
                -1.2259458051223362,
                -1.6917670874257953,
                -1.3710248078795468,
                -1.4286258710301634,
                0.44877320250052966
            ]
        },
        {
            "positions": [
                2.380240603386979,
                -1.2167488876352972,
                -1.5778413690791595,
                -1.282261711780317,
                -1.35746536004221,
                0.4521499501880949
            ]
        },
        {
            "positions": [
                2.27378662402831,
                -1.2075519701482584,
                -1.463915650732524,
                -1.193498615681087,
                -1.2863048490542566,
                0.45552669787566014
            ]
        },
        {
            "positions": [
                2.167332644669642,
                -1.1983550526612194,
                -1.3499899323858882,
                -1.1047355195818573,
                -1.215144338066303,
                0.4589034455632254
            ]
        },
        {
            "positions": [
                2.060878665310973,
                -1.1891581351741805,
                -1.2360642140392524,
                -1.0159724234826273,
                -1.1439838270783496,
                0.4622801932507906
            ]
        },
        {
            "positions": [
                1.9544246859523047,
                -1.1799612176871415,
                -1.1221384956926168,
                -0.9272093273833975,
                -1.0728233160903962,
                0.4656569409383559
            ]
        },
        {
            "positions": [
                1.8479707065936362,
                -1.1707643002001025,
                -1.008212777345981,
                -0.8384462312841676,
                -1.0016628051024425,
                0.46903368862592115
            ]
        },
        {
            "positions": [
                1.7415167272349676,
                -1.1615673827130635,
                -0.8942870589993452,
                -0.7496831351849377,
                -0.9305022941144891,
                0.4724104363134864
            ]
        },
        {
            "positions": [
                1.6350627478762991,
                -1.1523704652260245,
                -0.7803613406527097,
                -0.660920039085708,
                -0.8593417831265358,
                0.47578718400105163
            ]
        },
        {
            "positions": [
                1.5286087685176304,
                -1.1431735477389855,
                -0.6664356223060739,
                -0.572156942986478,
                -0.7881812721385822,
                0.4791639316886169
            ]
        },
        {
            "positions": [
                1.4221547891589619,
                -1.1339766302519467,
                -0.5525099039594383,
                -0.4833938468872483,
                -0.7170207611506288,
                0.4825406793761821
            ]
        },
        {
            "positions": [
                1.3157008098002934,
                -1.1247797127649077,
                -0.43858418561280277,
                -0.39463075078801846,
                -0.6458602501626755,
                0.48591742706374735
            ]
        },
        {
            "positions": [
                1.2092468304416246,
                -1.1155827952778687,
                -0.32465846726616676,
                -0.3058676546887884,
                -0.5746997391747218,
                0.4892941747513126
            ]
        },
        {
            "positions": [
                1.102792851082956,
                -1.1063858777908298,
                -0.2107327489195312,
                -0.21710455858955857,
                -0.5035392281867683,
                0.49267092243887783
            ]
        },
        {
            "positions": [
                0.9963388717242876,
                -1.0971889603037908,
                -0.09680703057289541,
                -0.12834146249032874,
                -0.43237871719881493,
                0.4960476701264431
            ]
        },
        {
            "positions": [
                0.8898848923656191,
                -1.0879920428167518,
                0.01711868777374015,
                -0.03957836639109891,
                -0.36121820621086154,
                0.4994244178140083
            ]
        },
        {
            "positions": [
                0.7834309130069503,
                -1.0787951253297128,
                0.13104440612037616,
                0.04918472970813115,
                -0.2900576952229079,
                0.5028011655015736
            ]
        },
        {
            "positions": [
                0.6769769336482816,
                -1.0695982078426738,
                0.24497012446701172,
                0.13794782580736098,
                -0.21889718423495452,
                0.5061779131891389
            ]
        },
        {
            "positions": [
                0.5705229542896135,
                -1.060401290355635,
                0.3588958428136473,
                0.2267109219065906,
                -0.14773667324700113,
                0.5095546608767041
            ]
        },
        {
            "positions": [
                0.464068974930945,
                -1.051204372868596,
                0.47282156116028284,
                0.3154740180058204,
                -0.07657616225904773,
                0.5129314085642693
            ]
        },
        {
            "positions": [
                0.35761499557227605,
                -1.042007455381557,
                0.5867472795069189,
                0.4042371141050505,
                -0.005415651271094113,
                0.5163081562518346
            ]
        },
        {
            "positions": [
                0.2511610162136076,
                -1.032810537894518,
                0.7006729978535544,
                0.49300021020428053,
                0.06574485971685931,
                0.5196849039393998
            ]
        },
        {
            "positions": [
                0.19220070415970097,
                -1.0241282166919783,
                0.808773257030973,
                0.589015933423779,
                0.07680720523031875,
                0.5209053360819168
            ]
        },
        {
            "positions": [
                0.13324039210579436,
                -1.0154458954894385,
                0.9168735162083916,
                0.6850316566432775,
                0.0878695507437782,
                0.5221257682244338
            ]
        },
        {
            "positions": [
                0.11966963571592462,
                -0.9938170904179449,
                1.0340976049095685,
                0.813066087923134,
                0.0708571367158919,
                0.4762280534764887
            ]
        },
        {
            "positions": [
                0.10609887932605487,
                -0.9721882853464512,
                1.151321693610745,
                0.9411005192029904,
                0.053844722688005615,
                0.43033033872854365
            ]
        },
        {
            "positions": [
                0.09252812293618512,
                -0.9505594802749575,
                1.268545782311922,
                1.069134950482847,
                0.03683230866011932,
                0.38443262398059863
            ]
        },
        {
            "positions": [
                0.07895736654631538,
                -0.928930675203464,
                1.3857698710130986,
                1.1971693817627034,
                0.019819894632233034,
                0.33853490923265356
            ]
        },
        {
            "positions": [
                0.06538661015644563,
                -0.9073018701319703,
                1.5029939597142754,
                1.3252038130425599,
                0.0028074806043467404,
                0.2926371944847085
            ]
        },
        {
            "positions": [
                0.051815853766575895,
                -0.8856730650604766,
                1.620218048415452,
                1.4532382443224163,
                -0.014204933423539554,
                0.2467394797367634
            ]
        },
        {
            "positions": [
                0.03824509737670615,
                -0.8640442599889829,
                1.7374421371166289,
                1.5812726756022728,
                -0.03121734745142584,
                0.20084176498881834
            ]
        },
        {
            "positions": [
                0.06310905719454049,
                -0.8384210186946107,
                1.811773839545961,
                1.6787467976200614,
                -0.06133813433044305,
                0.1437972452217549
            ]
        },
        {
            "positions": [
                0.08797301701237482,
                -0.8127977774002386,
                1.8861055419752935,
                1.7762209196378498,
                -0.09145892120946025,
                0.08675272545469147
            ]
        },
        {
            "positions": [
                0.11283697683020916,
                -0.7871745361058664,
                1.9604372444046256,
                1.8736950416556384,
                -0.12157970808847748,
                0.029708205687628025
            ]
        },
        {
            "positions": [
                0.12364458404172225,
                -0.775734463158826,
                1.9902223547740754,
                1.9054769893846721,
                -0.13674096357145246,
                0.016795233130240728
            ]
        }
    ]
}