{
    "goal": {
        "global_pose": {
            "orientation": {
                "w": 0.5084816262002911,
                "x": -0.4908360881923452,
                "y": 0.5182115481033761,
                "z": -0.48164630358495003
            },
            "position": {
                "x": 0.5540239810943604,
                "y": -0.46912469901144505,
                "z": 0.16403168439865112
            }
        },
        "name": "move_to_storage_B"
    },
    "id": "BiTRRT_move_to_storage_B_6",
    "joint_names": [
        "shoulder_pan_joint",
        "shoulder_lift_joint",
        "elbow_joint",
        "wrist_1_joint",
        "wrist_2_joint",
        "wrist_3_joint"
    ],
    "metrics": {
        "cart_traj_len": 0.9858224664555011,
        "distance_elbow_joint": 1.0640710712284824,
        "distance_shoulder_lift_joint": 0.4578629480229013,
        "distance_shoulder_pan_joint": 0.7164653380788307,
        "distance_wrist_1_joint": 2.9787340801627136,
        "distance_wrist_2_joint": 2.6988288864623287,
        "distance_wrist_3_joint": 3.1405295730630978,
        "smoothness": 0.14675010931879323,
        "time": 0.11537934799999999,
        "traj_len": 3.325130357898522,
        "weighted_distance": 4.7974070089757435
    },
    "planner": "BiTRRT",
    "start": {
        "state": {
            "elbow_joint": 1.664937868594044,
            "shoulder_lift_joint": -0.661644460510453,
            "shoulder_pan_joint": -0.9139846352900073,
            "wrist_1_joint": 2.146753192139373,
            "wrist_2_joint": -2.2341966793290973,
            "wrist_3_joint": 0.005466555786416001
        }
    },
    "waypoints": [
        {
            "positions": [
                -0.9139846352900073,
                -0.661644460510453,
                1.664937868594044,
                2.146753192139373,
                -2.2341966793290973,
                0.005466555786416001
            ]
        },
        {
            "positions": [
                -0.8827265476435397,
                -0.6782141125946111,
                1.6534261026098407,
                2.109462625147647,
                -2.2045588871716104,
                -0.006550337085594888
            ]
        },
        {
            "positions": [
                -0.8435170609192423,
                -0.7061004865778624,
                1.595656853731362,
                1.995169663383411,
                -2.1000536413581417,
                -0.05514710720701626
            ]
        },
        {
            "positions": [
                -0.8043075741949448,
                -0.7339868605611137,
                1.5378876048528833,
                1.8808767016191752,
                -1.995548395544673,
                -0.10374387732843762
            ]
        },
        {
            "positions": [
                -0.7650980874706472,
                -0.7618732345443651,
                1.4801183559744047,
                1.766583739854939,
                -1.8910431497312041,
                -0.152340647449859
            ]
        },
        {
            "positions": [
                -0.7258886007463499,
                -0.7897596085276165,
                1.422349107095926,
                1.6522907780907032,
                -1.7865379039177356,
                -0.20093741757128036
            ]
        },
        {
            "positions": [
                -0.6866791140220523,
                -0.8176459825108678,
                1.3645798582174473,
                1.5379978163264671,
                -1.6820326581042666,
                -0.24953418769270178
            ]
        },
        {
            "positions": [
                -0.6474696272977548,
                -0.8455323564941192,
                1.3068106093389686,
                1.423704854562231,
                -1.577527412290798,
                -0.29813095781412313
            ]
        },
        {
            "positions": [
                -0.6679219150289629,
                -0.857985767950448,
                1.338898964428669,
                1.321173684444705,
                -1.4847019750442514,
                -0.4270824150624213
            ]
        },
        {
            "positions": [
                -0.688374202760171,
                -0.870439179406777,
                1.3709873195183693,
                1.218642514327179,
                -1.3918765377977045,
                -0.5560338723107194
            ]
        },
        {
            "positions": [
                -0.7088264904913791,
                -0.8828925908631058,
                1.4030756746080697,
                1.116111344209653,
                -1.2990511005511578,
                -0.6849853295590174
            ]
        },
        {
            "positions": [
                -0.7292787782225872,
                -0.8953460023194346,
                1.43516402969777,
                1.013580174092127,
                -1.206225663304611,
                -0.8139367868073156
            ]
        },
        {
            "positions": [
                -0.7497310659537954,
                -0.9077994137757636,
                1.4672523847874703,
                0.9110490039746011,
                -1.1134002260580642,
                -0.9428882440556137
            ]
        },
        {
            "positions": [
                -0.7701833536850035,
                -0.9202528252320924,
                1.4993407398771705,
                0.8085178338570751,
                -1.0205747888115173,
                -1.0718397013039116
            ]
        },
        {
            "positions": [
                -0.7906356414162116,
                -0.9327062366884212,
                1.531429094966871,
                0.7059866637395491,
                -0.9277493515649706,
                -1.2007911585522097
            ]
        },
        {
            "positions": [
                -0.8110879291474197,
                -0.9451596481447502,
                1.5635174500565712,
                0.6034554936220231,
                -0.8349239143184238,
                -1.3297426158005081
            ]
        },
        {
            "positions": [
                -0.8315402168786278,
                -0.957613059601079,
                1.5956058051462716,
                0.500924323504497,
                -0.7420984770718769,
                -1.4586940730488063
            ]
        },
        {
            "positions": [
                -0.8519925046098358,
                -0.9700664710574078,
                1.627694160235972,
                0.3983931533869711,
                -0.6492730398253302,
                -1.5876455302971042
            ]
        },
        {
            "positions": [
                -0.8724447923410439,
                -0.9825198825137367,
                1.6597825153256722,
                0.29586198326944513,
                -0.5564476025787835,
                -1.7165969875454024
            ]
        },
        {
            "positions": [
                -0.892897080072252,
                -0.9949732939700656,
                1.6918708704153724,
                0.19333081315191913,
                -0.46362216533223677,
                -1.8455484447937003
            ]
        },
        {
            "positions": [
                -0.9133493678034601,
                -1.0074267054263946,
                1.7239592255050729,
                0.09079964303439314,
                -0.37079672808568986,
                -1.9744999020419987
            ]
        },
        {
            "positions": [
                -0.9338016555346682,
                -1.0198801168827234,
                1.7560475805947733,
                -0.011731527083132853,
                -0.2779712908391432,
                -2.103451359290297
            ]
        },
        {
            "positions": [
                -0.9542539432658763,
                -1.0323335283390522,
                1.7881359356844735,
                -0.11426269720065863,
                -0.1851458535925965,
                -2.2324028165385945
            ]
        },
        {
            "positions": [
                -0.9747062309970844,
                -1.044786939795381,
                1.820224290774174,
                -0.21679386731818484,
                -0.0923204163460496,
                -2.361354273786893
            ]
        },
        {
            "positions": [
                -0.9951585187282925,
                -1.05724035125171,
                1.8523126458638741,
                -0.31932503743571083,
                0.0005050209004973105,
                -2.490305731035191
            ]
        },
        {
            "positions": [
                -1.0156108064595006,
                -1.0696937627080387,
                1.8844010009535745,
                -0.42185620755323705,
                0.09333045814704422,
                -2.6192571882834894
            ]
        },
        {
            "positions": [
                -1.0360630941907087,
                -1.0821471741643678,
                1.9164893560432747,
                -0.5243873776707628,
                0.1861558953935909,
                -2.748208645531787
            ]
        },
        {
            "positions": [
                -1.0565153819219169,
                -1.0946005856206966,
                1.9485777111329752,
                -0.6269185477882888,
                0.2789813326401376,
                -2.8771601027800853
            ]
        },
        {
            "positions": [
                -1.076967669653125,
                -1.1070539970770255,
                1.9806660662226756,
                -0.729449717905815,
                0.3718067698866845,
                -3.0061115600283834
            ]
        },
        {
            "positions": [
                -1.097419957384333,
                -1.1195074085333543,
                2.012754421312376,
                -0.8319808880233408,
                0.4646322071332311,
                -3.1350630172766816
            ]
        }
    ]
}