{
    "goal": {
        "global_pose": {
            "orientation": {
                "w": -0.00223480608172531,
                "x": 0.0024358444001904467,
                "y": 0.7094548369677653,
                "z": -0.704743149386269
            },
            "position": {
                "x": -0.37947507619857795,
                "y": -0.6371506643295288,
                "z": 0.19426114857196808
            }
        },
        "name": "move_to_magneteinheit_C"
    },
    "id": "BiTRRT_move_to_magneteinheit_C_76",
    "joint_names": [
        "shoulder_pan_joint",
        "shoulder_lift_joint",
        "elbow_joint",
        "wrist_1_joint",
        "wrist_2_joint",
        "wrist_3_joint"
    ],
    "metrics": {
        "cart_traj_len": 1.581221034172576,
        "distance_elbow_joint": 0.9168909438213317,
        "distance_shoulder_lift_joint": 0.5891505680471325,
        "distance_shoulder_pan_joint": 2.0583698064237788,
        "distance_wrist_1_joint": 1.1212180149748403,
        "distance_wrist_2_joint": 0.7900655406687779,
        "distance_wrist_3_joint": 2.8622675912209816,
        "smoothness": 0.7379021787971572,
        "time": 0.067352384,
        "traj_len": 2.8875530237827394,
        "weighted_distance": 3.996721306676564
    },
    "planner": "BiTRRT",
    "start": {
        "state": {
            "elbow_joint": 1.9565354010623817,
            "shoulder_lift_joint": -1.4165861575791021,
            "shoulder_pan_joint": -1.6717766225146293,
            "wrist_1_joint": -0.5286633292919765,
            "wrist_2_joint": 1.472756589071564,
            "wrist_3_joint": -3.1238370188695823
        }
    },
    "waypoints": [
        {
            "positions": [
                -1.6717766225146293,
                -1.4165861575791021,
                1.9565354010623817,
                -0.5286633292919765,
                1.472756589071564,
                -3.1238370188695823
            ]
        },
        {
            "positions": [
                -1.487422486241542,
                -1.4221480031870335,
                1.916505831226108,
                -0.5692109359974393,
                1.47273136817099,
                -3.016476501797875
            ]
        },
        {
            "positions": [
                -1.3030683499684543,
                -1.4277098487949647,
                1.8764762613898343,
                -0.6097585427029022,
                1.4727061472704157,
                -2.909115984726168
            ]
        },
        {
            "positions": [
                -1.118714213695367,
                -1.433271694402896,
                1.8364466915535607,
                -0.6503061494083651,
                1.4726809263698417,
                -2.801755467654461
            ]
        },
        {
            "positions": [
                -1.093450976121254,
                -1.4118859201088045,
                1.7937718964280889,
                -0.5715577780258702,
                1.419160790280447,
                -2.673723524444465
            ]
        },
        {
            "positions": [
                -1.0681877385471414,
                -1.390500145814713,
                1.7510971013026173,
                -0.49280940664337536,
                1.3656406541910526,
                -2.5456915812344696
            ]
        },
        {
            "positions": [
                -1.0429245009730286,
                -1.3691143715206215,
                1.7084223061771455,
                -0.41406103526088045,
                1.312120518101658,
                -2.4176596380244737
            ]
        },
        {
            "positions": [
                -1.1037031815745741,
                -1.3733997768326096,
                1.7057742046241995,
                -0.35419206987861285,
                1.2411964246331666,
                -2.298456814777433
            ]
        },
        {
            "positions": [
                -1.16448186217612,
                -1.377685182144598,
                1.7031261030712532,
                -0.29432310449634524,
                1.1702723311646754,
                -2.179253991530392
            ]
        },
        {
            "positions": [
                -1.2252605427776655,
                -1.381970587456586,
                1.7004780015183072,
                -0.2344541391140776,
                1.099348237696184,
                -2.0600511682833513
            ]
        },
        {
            "positions": [
                -1.391920172991909,
                -1.4017000782925404,
                1.7695973407510261,
                -0.25643037376614103,
                1.0596700233191851,
                -2.010649979528836
            ]
        },
        {
            "positions": [
                -1.5585798032061526,
                -1.4214295691284946,
                1.8387166799837449,
                -0.2784066084182044,
                1.0199918089421862,
                -1.9612487907743212
            ]
        },
        {
            "positions": [
                -1.7252394334203964,
                -1.441159059964449,
                1.9078360192164638,
                -0.30038284307026786,
                0.9803135945651872,
                -1.9118476020198063
            ]
        },
        {
            "positions": [
                -1.89189906363464,
                -1.4608885508004033,
                1.9769553584491828,
                -0.32235907772233124,
                0.9406353801881883,
                -1.8624464132652914
            ]
        },
        {
            "positions": [
                -2.058558693848884,
                -1.4806180416363577,
                2.0460746976819015,
                -0.3443353123743947,
                0.9009571658111892,
                -1.8130452245107764
            ]
        },
        {
            "positions": [
                -2.2252183240631274,
                -1.500347532472312,
                2.1151940369146205,
                -0.3663115470264581,
                0.8612789514341903,
                -1.7636440357562613
            ]
        },
        {
            "positions": [
                -2.391877954277371,
                -1.5200770233082663,
                2.1843133761473394,
                -0.3882877816785215,
                0.8216007370571914,
                -1.7142428470017463
            ]
        },
        {
            "positions": [
                -2.408163046564163,
                -1.4656968312865788,
                2.1587688359774067,
                -0.4611798211909005,
                0.8124610999110904,
                -1.9304036656030263
            ]
        },
        {
            "positions": [
                -2.4244481388509542,
                -1.4113166392648915,
                2.1332242958074734,
                -0.5340718607032795,
                0.8033214627649894,
                -2.146564484204306
            ]
        },
        {
            "positions": [
                -2.440733231137746,
                -1.356936447243204,
                2.1076797556375406,
                -0.6069639002156586,
                0.7941818256188884,
                -2.362725302805586
            ]
        },
        {
            "positions": [
                -2.4486604698171113,
                -1.3083853271211148,
                2.082588618352934,
                -0.6597672560813044,
                0.7663091313148628,
                -2.5637730436929127
            ]
        },
        {
            "positions": [
                -2.4565877084964765,
                -1.2598342069990256,
                2.0574974810683275,
                -0.7125706119469501,
                0.7384364370108372,
                -2.7648207845802393
            ]
        },
        {
            "positions": [
                -2.4645149471758416,
                -1.2112830868769362,
                2.032406343783721,
                -0.7653739678125958,
                0.7105637427068117,
                -2.9658685254675654
            ]
        },
        {
            "positions": [
                -2.472442185855207,
                -1.162731966754847,
                2.0073152064991144,
                -0.8181773236782416,
                0.682691048402786,
                -3.166916266354892
            ]
        }
    ]
}