{
    "goal": {
        "global_pose": {
            "orientation": {
                "w": -0.4816463035849501,
                "x": 0.5182115481033762,
                "y": 0.4908360881923453,
                "z": -0.5084816262002911
            },
            "position": {
                "x": -0.8240239810943604,
                "y": 0.19912469901144506,
                "z": 0.16403168439865112
            }
        },
        "name": "move_to_storage_D"
    },
    "id": "BiTRRT_move_to_storage_D_71",
    "joint_names": [
        "shoulder_pan_joint",
        "shoulder_lift_joint",
        "elbow_joint",
        "wrist_1_joint",
        "wrist_2_joint",
        "wrist_3_joint"
    ],
    "metrics": {
        "cart_traj_len": 3.8608282194090577,
        "distance_elbow_joint": 4.34092724844183,
        "distance_shoulder_lift_joint": 1.2649421998990689,
        "distance_shoulder_pan_joint": 2.864940873390572,
        "distance_wrist_1_joint": 2.4684211717998035,
        "distance_wrist_2_joint": 1.3107095008506802,
        "distance_wrist_3_joint": 3.4191713436131472,
        "smoothness": 0.5765950963749812,
        "time": 0.11311344200000001,
        "traj_len": 3.958422960977655,
        "weighted_distance": 5.127044538315606
    },
    "planner": "BiTRRT",
    "start": {
        "state": {
            "elbow_joint": -2.384821988534728,
            "shoulder_lift_joint": -2.2788054721415256,
            "shoulder_pan_joint": -0.1854694642142757,
            "wrist_1_joint": 1.4845938289331202,
            "wrist_2_joint": 0.17898776772866878,
            "wrist_3_joint": 0.037105688729662994
        }
    },
    "waypoints": [
        {
            "positions": [
                -0.1854694642142757,
                -2.2788054721415256,
                -2.384821988534728,
                1.4845938289331202,
                0.17898776772866878,
                0.037105688729662994
            ]
        },
        {
            "positions": [
                -0.19822244710290332,
                -2.2749397027321594,
                -2.4178628505350748,
                1.3705291411430724,
                0.08798163891153324,
                -0.033768221456351485
            ]
        },
        {
            "positions": [
                -0.21097542999153096,
                -2.271073933322793,
                -2.450903712535421,
                1.2564644533530247,
                -0.0030244899056023067,
                -0.10464213164236597
            ]
        },
        {
            "positions": [
                -0.13154866003774968,
                -2.2569519110861553,
                -2.36154561066895,
                1.2901575960336815,
                0.0611807290430085,
                -0.05199324037496846
            ]
        },
        {
            "positions": [
                -0.05212189008396839,
                -2.242829888849517,
                -2.2721875088024786,
                1.3238507387143381,
                0.1253859479916193,
                0.0006556508924290411
            ]
        },
        {
            "positions": [
                0.0273048798698129,
                -2.2287078666128792,
                -2.1828294069360075,
                1.357543881394995,
                0.18959116694023015,
                0.05330454215982655
            ]
        },
        {
            "positions": [
                0.10343533364688129,
                -2.1994270334960118,
                -2.0593096610787396,
                1.3051914977975283,
                0.22062210638837867,
                0.12812133748049293
            ]
        },
        {
            "positions": [
                0.17956578742394966,
                -2.1701462003791443,
                -1.9357899152214715,
                1.2528391142000614,
                0.2516530458365272,
                0.2029381328011593
            ]
        },
        {
            "positions": [
                0.255696241201018,
                -2.140865367262277,
                -1.8122701693642036,
                1.2004867306025948,
                0.28268398528467575,
                0.2777549281218257
            ]
        },
        {
            "positions": [
                0.3318266949780864,
                -2.111584534145409,
                -1.6887504235069357,
                1.148134347005128,
                0.31371492473282425,
                0.35257172344249205
            ]
        },
        {
            "positions": [
                0.4079571487551548,
                -2.0823037010285415,
                -1.5652306776496676,
                1.0957819634076613,
                0.3447458641809728,
                0.4273885187631584
            ]
        },
        {
            "positions": [
                0.48408760253222316,
                -2.053022867911674,
                -1.4417109317923997,
                1.0434295798101947,
                0.37577680362912136,
                0.5022053140838247
            ]
        },
        {
            "positions": [
                0.5602180563092916,
                -2.0237420347948065,
                -1.3181911859351318,
                0.9910771962127278,
                0.40680774307726986,
                0.5770221094044912
            ]
        },
        {
            "positions": [
                0.63634851008636,
                -1.994461201677939,
                -1.194671440077864,
                0.9387248126152612,
                0.43783868252541835,
                0.6518389047251576
            ]
        },
        {
            "positions": [
                0.7124789638634283,
                -1.9651803685610714,
                -1.0711516942205959,
                0.8863724290177944,
                0.4688696219735669,
                0.7266557000458238
            ]
        },
        {
            "positions": [
                0.7886094176404967,
                -1.935899535444204,
                -0.9476319483633278,
                0.8340200454203277,
                0.49990056142171546,
                0.8014724953664902
            ]
        },
        {
            "positions": [
                0.864739871417565,
                -1.9066187023273364,
                -0.8241122025060601,
                0.7816676618228611,
                0.530931500869864,
                0.8762892906871567
            ]
        },
        {
            "positions": [
                0.9408703251946334,
                -1.8773378692104687,
                -0.700592456648792,
                0.7293152782253943,
                0.5619624403180126,
                0.9511060860078229
            ]
        },
        {
            "positions": [
                1.017000778971702,
                -1.8480570360936013,
                -0.5770727107915239,
                0.6769628946279276,
                0.5929933797661611,
                1.0259228813284893
            ]
        },
        {
            "positions": [
                1.0931312327487703,
                -1.8187762029767338,
                -0.453552964934256,
                0.6246105110304608,
                0.6240243192143096,
                1.1007396766491557
            ]
        },
        {
            "positions": [
                1.1692616865258387,
                -1.7894953698598661,
                -0.3300332190769879,
                0.5722581274329941,
                0.6550552586624581,
                1.1755564719698222
            ]
        },
        {
            "positions": [
                1.2453921403029071,
                -1.7602145367429987,
                -0.20651347321972024,
                0.5199057438355275,
                0.6860861981106066,
                1.2503732672904886
            ]
        },
        {
            "positions": [
                1.3215225940799753,
                -1.7309337036261312,
                -0.08299372736245214,
                0.4675533602380608,
                0.7171171375587551,
                1.3251900626111548
            ]
        },
        {
            "positions": [
                1.397653047857044,
                -1.7016528705092635,
                0.04052601849481574,
                0.41520097664059397,
                0.7481480770069037,
                1.4000068579318212
            ]
        },
        {
            "positions": [
                1.473783501634112,
                -1.672372037392396,
                0.16404576435208362,
                0.36284859304312733,
                0.7791790164550522,
                1.4748236532524877
            ]
        },
        {
            "positions": [
                1.5499139554111807,
                -1.6430912042755286,
                0.28756551020935195,
                0.3104962094456605,
                0.8102099559032008,
                1.549640448573154
            ]
        },
        {
            "positions": [
                1.626044409188249,
                -1.613810371158661,
                0.41108525606661983,
                0.25814382584819384,
                0.8412408953513493,
                1.6244572438938203
            ]
        },
        {
            "positions": [
                1.7021748629653173,
                -1.5845295380417936,
                0.5346050019238873,
                0.2057914422507272,
                0.8722718347994978,
                1.6992740392144867
            ]
        },
        {
            "positions": [
                1.778305316742386,
                -1.5552487049249257,
                0.6581247477811556,
                0.15343905865326035,
                0.9033027742476464,
                1.7740908345351531
            ]
        },
        {
            "positions": [
                1.854435770519454,
                -1.5259678718080583,
                0.7816444936384235,
                0.10108667505579372,
                0.9343337136957949,
                1.8489076298558194
            ]
        },
        {
            "positions": [
                1.9305662242965225,
                -1.4966870386911908,
                0.9051642394956914,
                0.048734291458327084,
                0.9653646531439433,
                1.9237244251764858
            ]
        },
        {
            "positions": [
                2.006696678073591,
                -1.4674062055743233,
                1.0286839853529597,
                -0.0036180921391397725,
                0.9963955925920919,
                1.9985412204971522
            ]
        },
        {
            "positions": [
                2.0828271318506593,
                -1.4381253724574559,
                1.1522037312102271,
                -0.055970475736606407,
                1.0274265320402405,
                2.0733580158178184
            ]
        },
        {
            "positions": [
                2.1589575856277277,
                -1.4088445393405882,
                1.2757234770674954,
                -0.10832285933407326,
                1.058457471488389,
                2.148174811138485
            ]
        },
        {
            "positions": [
                2.235088039404796,
                -1.3795637062237207,
                1.3992432229247633,
                -0.1606752429315398,
                1.0894884109365375,
                2.2229916064591513
            ]
        },
        {
            "positions": [
                2.2842594691819196,
                -1.3338511519760627,
                1.4523305465473821,
                -0.23829939841294018,
                1.0849653681397537,
                2.3417153296016013
            ]
        },
        {
            "positions": [
                2.3334308989590435,
                -1.2881385977284048,
                1.505417870170001,
                -0.31592355389434057,
                1.08044232534297,
                2.4604390527440514
            ]
        },
        {
            "positions": [
                2.3826023287361675,
                -1.2424260434807468,
                1.55850519379262,
                -0.3935477093757409,
                1.0759192825461863,
                2.5791627758865014
            ]
        },
        {
            "positions": [
                2.431773758513291,
                -1.1967134892330886,
                1.6115925174152388,
                -0.47117186485714124,
                1.0713962397494026,
                2.6978864990289515
            ]
        },
        {
            "positions": [
                2.4809451882904145,
                -1.1510009349854307,
                1.6646798410378576,
                -0.5487960203385416,
                1.0668731969526188,
                2.8166102221714016
            ]
        },
        {
            "positions": [
                2.5301166180675385,
                -1.1052883807377727,
                1.7177671646604766,
                -0.626420175819942,
                1.0623501541558351,
                2.9353339453138516
            ]
        },
        {
            "positions": [
                2.5792880478446625,
                -1.0595758264901147,
                1.7708544882830954,
                -0.7040443313013424,
                1.0578271113590514,
                3.0540576684563017
            ]
        },
        {
            "positions": [
                2.628459477621786,
                -1.0138632722424568,
                1.8239418119057142,
                -0.7816684867827427,
                1.0533040685622677,
                3.1727813915987517
            ]
        }
    ]
}