{
    "goal": {
        "global_pose": {
            "orientation": {
                "w": 0.7047431468963623,
                "x": -0.7094548344612122,
                "y": 0.0024358443915843964,
                "z": -0.0022348060738295317
            },
            "position": {
                "x": 0.6094750761985779,
                "y": 0.3671506643295288,
                "z": 0.19426114857196808
            }
        },
        "name": "move_to_magneteinheit_A"
    },
    "id": "BiTRRT_move_to_magneteinheit_A_84",
    "joint_names": [
        "shoulder_pan_joint",
        "shoulder_lift_joint",
        "elbow_joint",
        "wrist_1_joint",
        "wrist_2_joint",
        "wrist_3_joint"
    ],
    "metrics": {
        "cart_traj_len": 3.8649229125612816,
        "distance_elbow_joint": 4.200196080353848,
        "distance_shoulder_lift_joint": 1.2341225171583554,
        "distance_shoulder_pan_joint": 3.219255196769064,
        "distance_wrist_1_joint": 1.136572202537765,
        "distance_wrist_2_joint": 2.560976778645225,
        "distance_wrist_3_joint": 2.5867348754006856,
        "smoothness": 0.5555137306788872,
        "time": 0.074321409,
        "traj_len": 3.864952477180664,
        "weighted_distance": 4.87943402279909
    },
    "planner": "BiTRRT",
    "start": {
        "state": {
            "elbow_joint": -1.9196185241190666,
            "shoulder_lift_joint": -1.2443396400964142,
            "shoulder_pan_joint": 2.6996025414629847,
            "wrist_1_joint": -1.5485510000780065,
            "wrist_2_joint": -1.5709468930060704,
            "wrist_3_joint": 0.4420197071253992
        }
    },
    "waypoints": [
        {
            "positions": [
                2.6996025414629847,
                -1.2443396400964142,
                -1.9196185241190666,
                -1.5485510000780065,
                -1.5709468930060704,
                0.4420197071253992
            ]
        },
        {
            "positions": [
                2.5874270981424,
                -1.2221938301533934,
                -1.8036539998733383,
                -1.5033133697854064,
                -1.4996069177398919,
                0.46649916812269215
            ]
        },
        {
            "positions": [
                2.4752516548218155,
                -1.200048020210373,
                -1.6876894756276097,
                -1.4580757394928063,
                -1.428266942473713,
                0.49097862911998513
            ]
        },
        {
            "positions": [
                2.3630762115012307,
                -1.1779022102673522,
                -1.5717249513818814,
                -1.4128381092002062,
                -1.3569269672075346,
                0.5154580901172781
            ]
        },
        {
            "positions": [
                2.2509007681806463,
                -1.1557564003243315,
                -1.4557604271361528,
                -1.367600478907606,
                -1.285586991941356,
                0.5399375511145711
            ]
        },
        {
            "positions": [
                2.1387253248600615,
                -1.1336105903813107,
                -1.3397959028904245,
                -1.3223628486150059,
                -1.2142470166751775,
                0.564417012111864
            ]
        },
        {
            "positions": [
                2.0265498815394767,
                -1.1114647804382902,
                -1.2238313786446962,
                -1.2771252183224058,
                -1.142907041408999,
                0.588896473109157
            ]
        },
        {
            "positions": [
                1.9143744382188923,
                -1.0893189704952695,
                -1.1078668543989676,
                -1.2318875880298057,
                -1.0715670661428205,
                0.61337593410645
            ]
        },
        {
            "positions": [
                1.8021989948983075,
                -1.0671731605522488,
                -0.9919023301532393,
                -1.1866499577372056,
                -1.0002270908766417,
                0.6378553951037429
            ]
        },
        {
            "positions": [
                1.6900235515777229,
                -1.0450273506092282,
                -0.8759378059075109,
                -1.1414123274446055,
                -0.9288871156104632,
                0.6623348561010359
            ]
        },
        {
            "positions": [
                1.5778481082571383,
                -1.0228815406662075,
                -0.7599732816617824,
                -1.0961746971520054,
                -0.8575471403442846,
                0.6868143170983289
            ]
        },
        {
            "positions": [
                1.4656726649365537,
                -1.0007357307231868,
                -0.644008757416054,
                -1.0509370668594054,
                -0.786207165078106,
                0.7112937780956219
            ]
        },
        {
            "positions": [
                1.3534972216159689,
                -0.9785899207801662,
                -0.5280442331703254,
                -1.0056994365668053,
                -0.7148671898119274,
                0.7357732390929148
            ]
        },
        {
            "positions": [
                1.2413217782953845,
                -0.9564441108371455,
                -0.41207970892459733,
                -0.9604618062742051,
                -0.6435272145457489,
                0.7602527000902077
            ]
        },
        {
            "positions": [
                1.1291463349747999,
                -0.9342983008941248,
                -0.29611518467886877,
                -0.915224175981605,
                -0.5721872392795704,
                0.7847321610875007
            ]
        },
        {
            "positions": [
                1.0169708916542153,
                -0.9121524909511042,
                -0.18015066043314043,
                -0.8699865456890049,
                -0.5008472640133919,
                0.8092116220847937
            ]
        },
        {
            "positions": [
                0.9047954483336305,
                -0.8900066810080836,
                -0.06418613618741187,
                -0.8247489153964047,
                -0.4295072887472131,
                0.8336910830820867
            ]
        },
        {
            "positions": [
                0.792620005013046,
                -0.8678608710650628,
                0.0517783880583165,
                -0.7795112851038046,
                -0.3581673134810347,
                0.8581705440793796
            ]
        },
        {
            "positions": [
                0.7241397057476191,
                -0.8723394507622154,
                0.17965252706219315,
                -0.7731160274613061,
                -0.2858452772694407,
                0.9653112184936216
            ]
        },
        {
            "positions": [
                0.6556594064821922,
                -0.876818030459368,
                0.3075266660660698,
                -0.7667207698188075,
                -0.2135232410578467,
                1.0724518929078635
            ]
        },
        {
            "positions": [
                0.5871791072167654,
                -0.8812966101565206,
                0.4354008050699465,
                -0.7603255121763091,
                -0.1412012048462527,
                1.1795925673221055
            ]
        },
        {
            "positions": [
                0.5186988079513384,
                -0.8857751898536731,
                0.5632749440738231,
                -0.7539302545338105,
                -0.0688791686346587,
                1.2867332417363473
            ]
        },
        {
            "positions": [
                0.4502185086859115,
                -0.8902537695508257,
                0.6911490830776997,
                -0.747534996891312,
                0.003442867576935349,
                1.3938739161505893
            ]
        },
        {
            "positions": [
                0.3817382094204847,
                -0.8947323492479783,
                0.8190232220815764,
                -0.7411397392488134,
                0.07576490378852929,
                1.5010145905648313
            ]
        },
        {
            "positions": [
                0.3132579101550578,
                -0.8992109289451309,
                0.9468973610854531,
                -0.7347444816063149,
                0.14808694000012337,
                1.6081552649790731
            ]
        },
        {
            "positions": [
                0.26674922311609556,
                -0.9472910609883292,
                1.0534747282584283,
                -0.7484649545715878,
                0.109373807471712,
                1.7323651441124974
            ]
        },
        {
            "positions": [
                0.2202405360771334,
                -0.9953711930315274,
                1.1600520954314035,
                -0.7621854275368608,
                0.07066067494330064,
                1.8565750232459217
            ]
        },
        {
            "positions": [
                0.1737318490381712,
                -1.0434513250747257,
                1.2666294626043786,
                -0.7759059005021337,
                0.031947542414889285,
                1.980784902379346
            ]
        },
        {
            "positions": [
                0.127223161999209,
                -1.091531457117924,
                1.3732068297773539,
                -0.7896263734674066,
                -0.006765590113522096,
                2.1049947815127705
            ]
        },
        {
            "positions": [
                0.08071447496024683,
                -1.1396115891611223,
                1.479784196950329,
                -0.8033468464326795,
                -0.04547872264193345,
                2.229204660646195
            ]
        },
        {
            "positions": [
                0.03420578792128465,
                -1.1876917212043205,
                1.5863615641233042,
                -0.8170673193979525,
                -0.0841918551703448,
                2.353414539779619
            ]
        },
        {
            "positions": [
                -0.012302899117677568,
                -1.2357718532475188,
                1.6929389312962795,
                -0.8307877923632254,
                -0.12290498769875616,
                2.4776244189130434
            ]
        },
        {
            "positions": [
                -0.058811586156639784,
                -1.283851985290717,
                1.7995162984692548,
                -0.8445082653284983,
                -0.16161812022716757,
                2.6018342980464677
            ]
        },
        {
            "positions": [
                -0.10532027319560194,
                -1.3319321173339154,
                1.90609366564223,
                -0.8582287382937712,
                -0.20033125275557892,
                2.726044177179892
            ]
        },
        {
            "positions": [
                -0.1518289602345641,
                -1.3800122493771136,
                2.012671032815205,
                -0.8719492112590442,
                -0.23904438528399027,
                2.8502540563133163
            ]
        },
        {
            "positions": [
                -0.19833764727352632,
                -1.428092381420312,
                2.11924839998818,
                -0.8856696842243171,
                -0.27775751781240166,
                2.9744639354467406
            ]
        },
        {
            "positions": [
                -0.1180088952653881,
                -1.3537393219773732,
                2.0789161109265297,
                -0.8427095638622993,
                -0.17373289585577506,
                2.9880365972165768
            ]
        },
        {
            "positions": [
                -0.03768014325724989,
                -1.2793862625344343,
                2.0385838218648793,
                -0.7997494435002817,
                -0.06970827389914847,
                3.001609258986413
            ]
        },
        {
            "positions": [
                0.04264860875088833,
                -1.2050332030914956,
                1.9982515328032289,
                -0.7567893231382639,
                0.03431634805747813,
                3.0151819207562487
            ]
        },
        {
            "positions": [
                0.12297736075902657,
                -1.130680143648557,
                1.9579192437415784,
                -0.7138292027762461,
                0.1383409700141047,
                3.028754582526085
            ]
        }
    ]
}