{
    "goal": {
        "global_pose": {
            "orientation": {
                "w": -0.00223480608172531,
                "x": 0.0024358444001904467,
                "y": 0.7094548369677653,
                "z": -0.704743149386269
            },
            "position": {
                "x": 0.6205249238014221,
                "y": -0.6371506643295288,
                "z": 0.19426114857196808
            }
        },
        "name": "move_to_magneteinheit_B"
    },
    "id": "BiTRRT_move_to_magneteinheit_B_61",
    "joint_names": [
        "shoulder_pan_joint",
        "shoulder_lift_joint",
        "elbow_joint",
        "wrist_1_joint",
        "wrist_2_joint",
        "wrist_3_joint"
    ],
    "metrics": {
        "cart_traj_len": 3.7200901585649624,
        "distance_elbow_joint": 5.019938137856327,
        "distance_shoulder_lift_joint": 1.3259496393318444,
        "distance_shoulder_pan_joint": 2.666138736581462,
        "distance_wrist_1_joint": 2.7908621022085645,
        "distance_wrist_2_joint": 1.3533584584989375,
        "distance_wrist_3_joint": 1.033986375205882,
        "smoothness": 0.34863315095269753,
        "time": 0.11554487999999999,
        "traj_len": 3.7669926267094036,
        "weighted_distance": 4.516904555201747
    },
    "planner": "BiTRRT",
    "start": {
        "state": {
            "elbow_joint": 2.6216224122426386,
            "shoulder_lift_joint": -1.4174107377796124,
            "shoulder_pan_joint": 0.7066234856936794,
            "wrist_1_joint": 1.9546482284002225,
            "wrist_2_joint": -0.7096286983471962,
            "wrist_3_joint": 0.005740856962016249
        }
    },
    "waypoints": [
        {
            "positions": [
                0.7066234856936794,
                -1.4174107377796124,
                2.6216224122426386,
                1.9546482284002225,
                -0.7096286983471962,
                0.005740856962016249
            ]
        },
        {
            "positions": [
                0.6638154219105566,
                -1.3728904344045463,
                2.579508707616732,
                1.8998119973441383,
                -0.6483311452644761,
                -0.01774924378665791
            ]
        },
        {
            "positions": [
                0.621007358127434,
                -1.32837013102948,
                2.537395002990825,
                1.844975766288054,
                -0.5870335921817559,
                -0.04123934453533207
            ]
        },
        {
            "positions": [
                0.5781992943443113,
                -1.283849827654414,
                2.4952812983649184,
                1.7901395352319698,
                -0.5257360390990358,
                -0.06472944528400623
            ]
        },
        {
            "positions": [
                0.5326782203736433,
                -1.287580316396722,
                2.335349124004338,
                1.7217284380504938,
                -0.5417813205899876,
                -0.15343892444907664
            ]
        },
        {
            "positions": [
                0.48715714640297547,
                -1.2913108051390303,
                2.175416949643757,
                1.6533173408690176,
                -0.5578266020809395,
                -0.24214840361414708
            ]
        },
        {
            "positions": [
                0.4416360724323075,
                -1.2950412938813383,
                2.015484775283177,
                1.5849062436875416,
                -0.5738718835718915,
                -0.33085788277921746
            ]
        },
        {
            "positions": [
                0.3961149984616396,
                -1.2987717826236465,
                1.8555526009225964,
                1.5164951465060654,
                -0.5899171650628433,
                -0.4195673619442879
            ]
        },
        {
            "positions": [
                0.3505939244909717,
                -1.3025022713659546,
                1.6956204265620158,
                1.4480840493245895,
                -0.6059624465537952,
                -0.5082768411093583
            ]
        },
        {
            "positions": [
                0.4324305550129109,
                -1.3234758384590937,
                1.52602256007063,
                1.385633480154445,
                -0.5627845288431748,
                -0.4928516924128413
            ]
        },
        {
            "positions": [
                0.5142671855348501,
                -1.3444494055522327,
                1.3564246935792443,
                1.3231829109843007,
                -0.5196066111325544,
                -0.47742654371632426
            ]
        },
        {
            "positions": [
                0.5961038160567892,
                -1.3654229726453717,
                1.1868268270878586,
                1.2607323418141563,
                -0.47642869342193395,
                -0.46200139501980725
            ]
        },
        {
            "positions": [
                0.6779404465787284,
                -1.3863965397385107,
                1.0172289605964728,
                1.1982817726440118,
                -0.43325077571131354,
                -0.44657624632329024
            ]
        },
        {
            "positions": [
                0.7597770771006676,
                -1.4073701068316498,
                0.8476310941050872,
                1.1358312034738676,
                -0.3900728580006932,
                -0.43115109762677317
            ]
        },
        {
            "positions": [
                0.8416137076226067,
                -1.4283436739247888,
                0.6780332276137016,
                1.073380634303723,
                -0.3468949402900728,
                -0.41572594893025616
            ]
        },
        {
            "positions": [
                0.9234503381445458,
                -1.4493172410179278,
                0.5084353611223158,
                1.0109300651335786,
                -0.3037170225794524,
                -0.40030080023373915
            ]
        },
        {
            "positions": [
                1.0052869686664851,
                -1.4702908081110668,
                0.33883749463093005,
                0.9484794959634344,
                -0.26053910486883197,
                -0.38487565153722214
            ]
        },
        {
            "positions": [
                1.0871235991884243,
                -1.4912643752042058,
                0.16923962813954407,
                0.8860289267932899,
                -0.21736118715821157,
                -0.3694505028407051
            ]
        },
        {
            "positions": [
                1.1689602297103634,
                -1.5122379422973449,
                -0.0003582383518414556,
                0.8235783576231456,
                -0.17418326944759122,
                -0.35402535414418806
            ]
        },
        {
            "positions": [
                1.2507968602323025,
                -1.5332115093904837,
                -0.1699561048432272,
                0.7611277884530012,
                -0.1310053517369708,
                -0.338600205447671
            ]
        },
        {
            "positions": [
                1.3326334907542416,
                -1.5541850764836227,
                -0.33955397133461274,
                0.6986772192828569,
                -0.0878274340263504,
                -0.323175056751154
            ]
        },
        {
            "positions": [
                1.414470121276181,
                -1.5751586435767617,
                -0.5091518378259989,
                0.6362266501127124,
                -0.04464951631573,
                -0.307749908054637
            ]
        },
        {
            "positions": [
                1.49630675179812,
                -1.5961322106699007,
                -0.6787497043173842,
                0.573776080942568,
                -0.001471598605109592,
                -0.29232475935811997
            ]
        },
        {
            "positions": [
                1.578143382320059,
                -1.6171057777630398,
                -0.84834757080877,
                0.5113255117724238,
                0.0417063191055107,
                -0.27689961066160296
            ]
        },
        {
            "positions": [
                1.6599800128419984,
                -1.6380793448561788,
                -1.0179454373001557,
                0.4488749426022792,
                0.08488423681613122,
                -0.2614744619650859
            ]
        },
        {
            "positions": [
                1.7418166433639375,
                -1.6590529119493178,
                -1.1875433037915415,
                0.38642437343213487,
                0.12806215452675151,
                -0.24604931326856888
            ]
        },
        {
            "positions": [
                1.8236532738858768,
                -1.6800264790424568,
                -1.3571411702829277,
                0.3239738042619904,
                0.17124007223737203,
                -0.23062416457205182
            ]
        },
        {
            "positions": [
                1.905489904407816,
                -1.7010000461355959,
                -1.526739036774313,
                0.26152323509184616,
                0.21441798994799233,
                -0.2151990158755348
            ]
        },
        {
            "positions": [
                1.9873265349297549,
                -1.7219736132287349,
                -1.6963369032656987,
                0.1990726659217017,
                0.25759590765861273,
                -0.1997738671790178
            ]
        },
        {
            "positions": [
                2.069163165451694,
                -1.742947180321874,
                -1.8659347697570845,
                0.13662209675155723,
                0.30077382536923314,
                -0.18434871848250073
            ]
        },
        {
            "positions": [
                2.1509997959736333,
                -1.763920747415013,
                -2.0355326362484703,
                0.0741715275814129,
                0.3439517430798535,
                -0.16892356978598372
            ]
        },
        {
            "positions": [
                2.250190199607039,
                -1.8802173818407066,
                -2.0141117575807184,
                0.11050499193373624,
                0.3838828949727544,
                -0.11471593577352485
            ]
        },
        {
            "positions": [
                2.3493806032404443,
                -1.9965140162664006,
                -1.9926908789129665,
                0.14683845628605957,
                0.42381404686565527,
                -0.060508301761065975
            ]
        },
        {
            "positions": [
                2.406724219874098,
                -2.0766923714708776,
                -1.9455111391102218,
                0.2576758644612265,
                0.4386683133519891,
                -0.04416731473388327
            ]
        },
        {
            "positions": [
                2.4640678365077524,
                -2.156870726675355,
                -1.898331399307477,
                0.36851327263639344,
                0.4535225798383229,
                -0.027826327706700564
            ]
        },
        {
            "positions": [
                2.5214114531414067,
                -2.237049081879832,
                -1.8511516595047324,
                0.47935068081156035,
                0.46837684632465665,
                -0.011485340679517855
            ]
        },
        {
            "positions": [
                2.5787550697750605,
                -2.317227437084309,
                -1.8039719197019877,
                0.5901880889867273,
                0.48323111281099046,
                0.004855646347664852
            ]
        },
        {
            "positions": [
                2.619729084822393,
                -2.3967329969726845,
                -1.7383607332926208,
                0.787372508978947,
                0.4832081965953745,
                0.008273741186407058
            ]
        },
        {
            "positions": [
                2.660703099869726,
                -2.47623855686106,
                -1.6727495468832538,
                0.9845569289711666,
                0.48318528037975855,
                0.011691836025149265
            ]
        }
    ]
}