{
    "goal": {
        "global_pose": {
            "orientation": {
                "w": 0.5084816262002911,
                "x": -0.4908360881923452,
                "y": 0.5182115481033761,
                "z": -0.48164630358495003
            },
            "position": {
                "x": 0.5540239810943604,
                "y": -0.46912469901144505,
                "z": 0.16403168439865112
            }
        },
        "name": "move_to_storage_B"
    },
    "id": "BiTRRT_move_to_storage_B_124",
    "joint_names": [
        "shoulder_pan_joint",
        "shoulder_lift_joint",
        "elbow_joint",
        "wrist_1_joint",
        "wrist_2_joint",
        "wrist_3_joint"
    ],
    "metrics": {
        "cart_traj_len": 0.7984273081098953,
        "distance_elbow_joint": 0.7462288764937566,
        "distance_shoulder_lift_joint": 0.47946671160483234,
        "distance_shoulder_pan_joint": 0.7524807657824418,
        "distance_wrist_1_joint": 2.9861416306177606,
        "distance_wrist_2_joint": 2.708716123601069,
        "distance_wrist_3_joint": 3.135086486845612,
        "smoothness": 0.13003434653396975,
        "time": 0.110812566,
        "traj_len": 3.2875706220468444,
        "weighted_distance": 4.772122308036071
    },
    "planner": "BiTRRT",
    "start": {
        "state": {
            "elbow_joint": 1.664937868594044,
            "shoulder_lift_joint": -0.661644460510453,
            "shoulder_pan_joint": -0.9139846352900073,
            "wrist_1_joint": 2.146753192139373,
            "wrist_2_joint": -2.2341966793290973,
            "wrist_3_joint": 0.005466555786416001
        }
    },
    "waypoints": [
        {
            "positions": [
                -0.9139846352900073,
                -0.661644460510453,
                1.664937868594044,
                2.146753192139373,
                -2.2341966793290973,
                0.005466555786416001
            ]
        },
        {
            "positions": [
                -0.8425183242299663,
                -0.6589404389422905,
                1.6152770232413682,
                2.0190297863219597,
                -2.1475093374525773,
                -0.04991715921211874
            ]
        },
        {
            "positions": [
                -0.7710520131699252,
                -0.656236417374128,
                1.5656161778886928,
                1.8913063805045465,
                -2.060821995576057,
                -0.10530087421065348
            ]
        },
        {
            "positions": [
                -0.6995857021098842,
                -0.6535323958059654,
                1.5159553325360173,
                1.7635829746871332,
                -1.974134653699537,
                -0.16068458920918824
            ]
        },
        {
            "positions": [
                -0.6281193910498433,
                -0.6508283742378029,
                1.4662944871833417,
                1.6358595688697197,
                -1.887447311823017,
                -0.21606830420772297
            ]
        },
        {
            "positions": [
                -0.6475617044474382,
                -0.6703554836266439,
                1.4891105494784689,
                1.5327242352302153,
                -1.7890320303190592,
                -0.33746628865986766
            ]
        },
        {
            "positions": [
                -0.667004017845033,
                -0.6898825930154848,
                1.511926611773596,
                1.4295889015907108,
                -1.6906167488151014,
                -0.4588642731120124
            ]
        },
        {
            "positions": [
                -0.686446331242628,
                -0.7094097024043258,
                1.5347426740687236,
                1.3264535679512064,
                -1.5922014673111435,
                -0.5802622575641571
            ]
        },
        {
            "positions": [
                -0.7058886446402229,
                -0.7289368117931666,
                1.5575587363638508,
                1.223318234311702,
                -1.4937861858071857,
                -0.7016602420163017
            ]
        },
        {
            "positions": [
                -0.7253309580378178,
                -0.7484639211820076,
                1.580374798658978,
                1.1201829006721973,
                -1.3953709043032279,
                -0.8230582264684465
            ]
        },
        {
            "positions": [
                -0.7447732714354127,
                -0.7679910305708485,
                1.6031908609541052,
                1.0170475670326928,
                -1.29695562279927,
                -0.9444562109205912
            ]
        },
        {
            "positions": [
                -0.7642155848330077,
                -0.7875181399596894,
                1.6260069232492325,
                0.9139122333931883,
                -1.1985403412953122,
                -1.065854195372736
            ]
        },
        {
            "positions": [
                -0.7836578982306025,
                -0.8070452493485303,
                1.6488229855443597,
                0.8107768997536839,
                -1.1001250597913543,
                -1.1872521798248805
            ]
        },
        {
            "positions": [
                -0.8031002116281974,
                -0.8265723587373712,
                1.671639047839487,
                0.7076415661141794,
                -1.0017097782873965,
                -1.3086501642770254
            ]
        },
        {
            "positions": [
                -0.8225425250257924,
                -0.8460994681262122,
                1.6944551101346144,
                0.6045062324746748,
                -0.9032944967834386,
                -1.43004814872917
            ]
        },
        {
            "positions": [
                -0.8419848384233872,
                -0.8656265775150531,
                1.7172711724297416,
                0.5013708988351704,
                -0.8048792152794808,
                -1.5514461331813147
            ]
        },
        {
            "positions": [
                -0.8614271518209822,
                -0.8851536869038941,
                1.7400872347248688,
                0.39823556519566594,
                -0.706463933775523,
                -1.6728441176334594
            ]
        },
        {
            "positions": [
                -0.8808694652185771,
                -0.904680796292735,
                1.762903297019996,
                0.2951002315561615,
                -0.6080486522715651,
                -1.794242102085604
            ]
        },
        {
            "positions": [
                -0.9003117786161721,
                -0.924207905681576,
                1.7857193593151233,
                0.19196489791665683,
                -0.5096333707676073,
                -1.915640086537749
            ]
        },
        {
            "positions": [
                -0.9197540920137669,
                -0.9437350150704169,
                1.8085354216102507,
                0.0888295642771526,
                -0.41121808926364944,
                -2.0370380709898934
            ]
        },
        {
            "positions": [
                -0.9391964054113617,
                -0.9632621244592577,
                1.8313514839053777,
                -0.014305769362351839,
                -0.3128028077596916,
                -2.158436055442038
            ]
        },
        {
            "positions": [
                -0.9586387188089567,
                -0.9827892338480988,
                1.8541675462005052,
                -0.1174411030018565,
                -0.21438752625573376,
                -2.279834039894183
            ]
        },
        {
            "positions": [
                -0.9780810322065516,
                -1.0023163432369397,
                1.8769836084956324,
                -0.22057643664136095,
                -0.11597224475177592,
                -2.401232024346328
            ]
        },
        {
            "positions": [
                -0.9975233456041466,
                -1.0218434526257805,
                1.8997996707907596,
                -0.3237117702808654,
                -0.01755696324781808,
                -2.522630008798472
            ]
        },
        {
            "positions": [
                -1.0169656590017415,
                -1.0413705620146216,
                1.922615733085887,
                -0.42684710392037006,
                0.08085831825613976,
                -2.644027993250617
            ]
        },
        {
            "positions": [
                -1.0364079723993362,
                -1.0608976714034624,
                1.945431795381014,
                -0.5299824375598745,
                0.17927359976009782,
                -2.765425977702762
            ]
        },
        {
            "positions": [
                -1.0558502857969312,
                -1.0804247807923033,
                1.9682478576761415,
                -0.633117771199379,
                0.27768888126405544,
                -2.8868239621549066
            ]
        },
        {
            "positions": [
                -1.0752925991945261,
                -1.0999518901811443,
                1.9910639199712687,
                -0.7362531048388834,
                0.3761041627680135,
                -3.0082219466070512
            ]
        },
        {
            "positions": [
                -1.094734912592121,
                -1.1194789995699852,
                2.013879982266396,
                -0.8393884384783876,
                0.4745194442719712,
                -3.129619931059196
            ]
        }
    ]
}