{
    "goal": {
        "global_pose": {
            "orientation": {
                "w": 0.7031023502349854,
                "x": -0.7110244035720825,
                "y": 0.007748599164187908,
                "z": 0.005598929710686207
            },
            "position": {
                "x": 0.11585023208521307,
                "y": 0.44412534475326537,
                "z": 0.3711530566215515
            }
        },
        "name": "move_to_auspresseinheit_A"
    },
    "id": "BiTRRT_move_to_auspresseinheit_A_24",
    "joint_names": [
        "shoulder_pan_joint",
        "shoulder_lift_joint",
        "elbow_joint",
        "wrist_1_joint",
        "wrist_2_joint",
        "wrist_3_joint"
    ],
    "metrics": {
        "cart_traj_len": 0.6842591730854196,
        "distance_elbow_joint": 0.14623811341880355,
        "distance_shoulder_lift_joint": 0.5333369819469882,
        "distance_shoulder_pan_joint": 1.0417116352073867,
        "distance_wrist_1_joint": 0.8006088166503105,
        "distance_wrist_2_joint": 0.5258285634656504,
        "distance_wrist_3_joint": 0.6541822318215949,
        "smoothness": 0.7171801150741944,
        "time": 0.047303262,
        "traj_len": 1.924033872495683,
        "weighted_distance": 2.5172819044099697
    },
    "planner": "BiTRRT",
    "start": {
        "state": {
            "elbow_joint": 2.4225746658250005,
            "shoulder_lift_joint": -1.3736534386056498,
            "shoulder_pan_joint": -0.3378633547517467,
            "wrist_1_joint": -1.0288598680537169,
            "wrist_2_joint": 1.233022673432363,
            "wrist_3_joint": -3.0940220416140027
        }
    },
    "waypoints": [
        {
            "positions": [
                -0.3378633547517467,
                -1.3736534386056498,
                2.4225746658250005,
                -1.0288598680537169,
                1.233022673432363,
                -3.0940220416140027
            ]
        },
        {
            "positions": [
                -0.3160532878327081,
                -1.4262879261886519,
                2.404765856801799,
                -0.8913978458462213,
                1.1677265972472777,
                -3.0326762053421334
            ]
        },
        {
            "positions": [
                -0.2942432209136695,
                -1.478922413771654,
                2.3869570477785977,
                -0.7539358236387257,
                1.1024305210621925,
                -2.971330369070264
            ]
        },
        {
            "positions": [
                -0.27243315399463086,
                -1.531556901354656,
                2.3691482387553964,
                -0.6164738014312301,
                1.0371344448771072,
                -2.9099845327983953
            ]
        },
        {
            "positions": [
                -0.2506230870755922,
                -1.584191388937658,
                2.351339429732195,
                -0.4790117792237346,
                0.9718383686920219,
                -2.848638696526526
            ]
        },
        {
            "positions": [
                -0.22881302015655364,
                -1.63682587652066,
                2.3335306207089936,
                -0.341549757016239,
                0.9065422925069366,
                -2.7872928602546567
            ]
        },
        {
            "positions": [
                -0.04623027034675073,
                -1.6898988823554002,
                2.344591295404219,
                -0.3631406018349274,
                0.867209935265686,
                -2.8550870417897154
            ]
        },
        {
            "positions": [
                0.13635247946305218,
                -1.7429718881901406,
                2.3556519700994447,
                -0.38473144665361575,
                0.8278775780244354,
                -2.922881223324774
            ]
        },
        {
            "positions": [
                0.31893522927285506,
                -1.7960448940248808,
                2.36671264479467,
                -0.40632229147230414,
                0.7885452207831848,
                -2.990675404859833
            ]
        },
        {
            "positions": [
                0.501517979082658,
                -1.8491178998596212,
                2.3777733194898953,
                -0.4279131362909925,
                0.7492128635419342,
                -3.058469586394892
            ]
        },
        {
            "positions": [
                0.6841007288924608,
                -1.9021909056943613,
                2.388833994185121,
                -0.4495039811096809,
                0.7098805063006836,
                -3.1262637679299505
            ]
        },
        {
            "positions": [
                0.7038482804556401,
                -1.906990420552638,
                2.3907246890117904,
                -0.4548484626290717,
                0.7071941099667126,
                -3.1347459107169056
            ]
        }
    ]
}