{
    "goal": {
        "global_pose": {
            "orientation": {
                "w": 0.7031023502349854,
                "x": -0.7110244035720825,
                "y": 0.007748599164187908,
                "z": 0.005598929710686207
            },
            "position": {
                "x": 0.11585023208521307,
                "y": 0.44412534475326537,
                "z": 0.3711530566215515
            }
        },
        "name": "move_to_auspresseinheit_A"
    },
    "id": "BiTRRT_move_to_auspresseinheit_A_132",
    "joint_names": [
        "shoulder_pan_joint",
        "shoulder_lift_joint",
        "elbow_joint",
        "wrist_1_joint",
        "wrist_2_joint",
        "wrist_3_joint"
    ],
    "metrics": {
        "cart_traj_len": 0.6879441904319517,
        "distance_elbow_joint": 0.05449611875729232,
        "distance_shoulder_lift_joint": 0.6368106068540649,
        "distance_shoulder_pan_joint": 1.0480513287887754,
        "distance_wrist_1_joint": 0.5487379998855468,
        "distance_wrist_2_joint": 0.5146319278353589,
        "distance_wrist_3_joint": 0.5654799026995296,
        "smoothness": 0.5705910475398341,
        "time": 0.048423777,
        "traj_len": 1.8352677964865423,
        "weighted_distance": 2.3585032579881107
    },
    "planner": "BiTRRT",
    "start": {
        "state": {
            "elbow_joint": 2.4225746658250005,
            "shoulder_lift_joint": -1.3736534386056498,
            "shoulder_pan_joint": -0.3378633547517467,
            "wrist_1_joint": -1.0288598680537169,
            "wrist_2_joint": 1.233022673432363,
            "wrist_3_joint": -3.0940220416140027
        }
    },
    "waypoints": [
        {
            "positions": [
                -0.3378633547517467,
                -1.3736534386056498,
                2.4225746658250005,
                -1.0288598680537169,
                1.233022673432363,
                -3.0940220416140027
            ]
        },
        {
            "positions": [
                -0.2368777247707732,
                -1.4714307751942635,
                2.4249712211188883,
                -0.9678279869763499,
                1.1581533929703256,
                -3.0491012403224413
            ]
        },
        {
            "positions": [
                -0.1358920947897997,
                -1.569208111782877,
                2.4273677764127757,
                -0.9067961058989829,
                1.083284112508288,
                -3.00418043903088
            ]
        },
        {
            "positions": [
                -0.03490646480882614,
                -1.6669854483714905,
                2.4297643317066635,
                -0.8457642248216158,
                1.0084148320462505,
                -2.9592596377393185
            ]
        },
        {
            "positions": [
                0.06607916517214735,
                -1.7647627849601042,
                2.4321608870005513,
                -0.7847323437442488,
                0.933545551584213,
                -2.9143388364477567
            ]
        },
        {
            "positions": [
                0.16706479515312095,
                -1.8625401215487178,
                2.4345574422944387,
                -0.7237004626668818,
                0.8586762711221754,
                -2.8694180351561953
            ]
        },
        {
            "positions": [
                0.26805042513409444,
                -1.9603174581373313,
                2.4369539975883265,
                -0.6626685815895148,
                0.7838069906601379,
                -2.824497233864634
            ]
        },
        {
            "positions": [
                0.41542960810173923,
                -1.94360192902987,
                2.4235817352570046,
                -0.6018196771157333,
                0.7620015756390933,
                -2.923148932181354
            ]
        },
        {
            "positions": [
                0.562808791069384,
                -1.926886399922409,
                2.410209472925682,
                -0.5409707726419517,
                0.7401961606180487,
                -3.0218006304980745
            ]
        },
        {
            "positions": [
                0.7101879740370288,
                -1.9101708708149479,
                2.3968372105943603,
                -0.4801218681681701,
                0.7183907455970041,
                -3.1204523288147947
            ]
        }
    ]
}