{
    "goal": {
        "global_pose": {
            "orientation": {
                "w": -0.4816463035849501,
                "x": 0.5182115481033762,
                "y": 0.4908360881923453,
                "z": -0.5084816262002911
            },
            "position": {
                "x": -0.8240239810943604,
                "y": -0.300875300988555,
                "z": 0.16403168439865112
            }
        },
        "name": "move_to_storage_C"
    },
    "id": "BiTRRT_move_to_storage_C_118",
    "joint_names": [
        "shoulder_pan_joint",
        "shoulder_lift_joint",
        "elbow_joint",
        "wrist_1_joint",
        "wrist_2_joint",
        "wrist_3_joint"
    ],
    "metrics": {
        "cart_traj_len": 0.5757059838243994,
        "distance_elbow_joint": 0.2545017804852545,
        "distance_shoulder_lift_joint": 0.18904215407203906,
        "distance_shoulder_pan_joint": 0.4931999967213798,
        "distance_wrist_1_joint": 0.0645396876480091,
        "distance_wrist_2_joint": 1.0720804259768077,
        "distance_wrist_3_joint": 0.05734916945120716,
        "smoothness": 0.0,
        "time": 0.03202675,
        "traj_len": 1.4596962746937108,
        "weighted_distance": 1.8390300886287665
    },
    "planner": "BiTRRT",
    "start": {
        "state": {
            "elbow_joint": 2.010868314990456,
            "shoulder_lift_joint": -1.1634956873337592,
            "shoulder_pan_joint": -2.4736205022346125,
            "wrist_1_joint": -0.8367026794202681,
            "wrist_2_joint": 0.6746043897044499,
            "wrist_3_joint": -3.1496632123970403
        }
    },
    "waypoints": [
        {
            "positions": [
                -2.4736205022346125,
                -1.1634956873337592,
                2.010868314990456,
                -0.8367026794202681,
                0.6746043897044499,
                -3.1496632123970403
            ]
        },
        {
            "positions": [
                -2.5558205016881756,
                -1.131988661655086,
                1.9684513515762467,
                -0.8259460648122666,
                0.8532844607005845,
                -3.140105017488506
            ]
        },
        {
            "positions": [
                -2.6380205011417392,
                -1.100481635976413,
                1.9260343881620376,
                -0.815189450204265,
                1.0319645316967192,
                -3.130546822579971
            ]
        },
        {
            "positions": [
                -2.7202205005953024,
                -1.0689746102977398,
                1.8836174247478286,
                -0.8044328355962636,
                1.2106446026928537,
                -3.1209886276714367
            ]
        },
        {
            "positions": [
                -2.8024205000488656,
                -1.0374675846190664,
                1.8412004613336195,
                -0.7936762209882621,
                1.3893246736889884,
                -3.1114304327629023
            ]
        },
        {
            "positions": [
                -2.884620499502429,
                -1.0059605589403933,
                1.7987834979194104,
                -0.7829196063802605,
                1.568004744685123,
                -3.1018722378543675
            ]
        },
        {
            "positions": [
                -2.9668204989559923,
                -0.9744535332617201,
                1.7563665345052013,
                -0.772162991772259,
                1.7466848156812576,
                -3.092314042945833
            ]
        }
    ]
}