{
    "goal": {
        "global_pose": {
            "orientation": {
                "w": 0.005598929693374612,
                "x": 0.007748599140229565,
                "y": 0.7110244013736278,
                "z": -0.7031023480610252
            },
            "position": {
                "x": -0.8858502320852131,
                "y": -0.7141253447532654,
                "z": 0.3711530566215515
            }
        },
        "name": "move_to_auspresseinheit_C"
    },
    "id": "BiTRRT_move_to_auspresseinheit_C_58",
    "joint_names": [
        "shoulder_pan_joint",
        "shoulder_lift_joint",
        "elbow_joint",
        "wrist_1_joint",
        "wrist_2_joint",
        "wrist_3_joint"
    ],
    "metrics": {
        "cart_traj_len": 0.4929655684160012,
        "distance_elbow_joint": 0.9930171666600178,
        "distance_shoulder_lift_joint": 0.3212304036560292,
        "distance_shoulder_pan_joint": 0.25573152310445924,
        "distance_wrist_1_joint": 0.6559195420218451,
        "distance_wrist_2_joint": 1.315833934734748,
        "distance_wrist_3_joint": 0.03203291097038896,
        "smoothness": 6.459479416000911e-16,
        "time": 0.047912956,
        "traj_len": 1.8904405521326206,
        "weighted_distance": 2.368456201799995
    },
    "planner": "BiTRRT",
    "start": {
        "state": {
            "elbow_joint": 1.7527959577737207,
            "shoulder_lift_joint": -0.9740617694225068,
            "shoulder_pan_joint": -2.967991417825858,
            "wrist_1_joint": -0.759517768980727,
            "wrist_2_joint": 1.7443932448377408,
            "wrist_3_joint": -3.0840537646736568
        }
    },
    "waypoints": [
        {
            "positions": [
                -2.967991417825858,
                -0.9740617694225068,
                1.7527959577737207,
                -0.759517768980727,
                1.7443932448377408,
                -3.0840537646736568
            ]
        },
        {
            "positions": [
                -2.942418265515412,
                -0.9419387290569039,
                1.653494241107719,
                -0.6939258147785424,
                1.6128098513642661,
                -3.0872570557706958
            ]
        },
        {
            "positions": [
                -2.916845113204966,
                -0.9098156886913009,
                1.5541925244417172,
                -0.628333860576358,
                1.4812264578907912,
                -3.0904603468677347
            ]
        },
        {
            "positions": [
                -2.89127196089452,
                -0.877692648325698,
                1.4548908077757154,
                -0.5627419063741734,
                1.3496430644173163,
                -3.0936636379647733
            ]
        },
        {
            "positions": [
                -2.8656988085840744,
                -0.8455696079600951,
                1.3555890911097135,
                -0.49714995217198893,
                1.2180596709438416,
                -3.0968669290618123
            ]
        },
        {
            "positions": [
                -2.8401256562736283,
                -0.8134465675944922,
                1.2562873744437117,
                -0.43155799796980443,
                1.086476277470367,
                -3.1000702201588513
            ]
        },
        {
            "positions": [
                -2.8145525039631822,
                -0.7813235272288893,
                1.15698565777771,
                -0.36596604376761993,
                0.954892883996892,
                -3.1032735112558902
            ]
        },
        {
            "positions": [
                -2.7889793516527366,
                -0.7492004868632863,
                1.0576839411117083,
                -0.30037408956543543,
                0.8233094905234173,
                -3.1064768023529292
            ]
        },
        {
            "positions": [
                -2.7634061993422905,
                -0.7170774464976835,
                0.9583822244457063,
                -0.23478213536325088,
                0.6917260970499424,
                -3.1096800934499678
            ]
        },
        {
            "positions": [
                -2.737833047031845,
                -0.6849544061320805,
                0.8590805077797046,
                -0.16919018116106632,
                0.5601427035764674,
                -3.1128833845470067
            ]
        },
        {
            "positions": [
                -2.7122598947213987,
                -0.6528313657664776,
                0.7597787911137028,
                -0.10359822695888182,
                0.4285593101029928,
                -3.1160866756440457
            ]
        }
    ]
}