{
    "goal": {
        "global_pose": {
            "orientation": {
                "w": -0.4816463035849501,
                "x": 0.5182115481033762,
                "y": 0.4908360881923453,
                "z": -0.5084816262002911
            },
            "position": {
                "x": -0.8240239810943604,
                "y": -0.300875300988555,
                "z": 0.16403168439865112
            }
        },
        "name": "move_to_storage_C"
    },
    "id": "BiTRRT_move_to_storage_C_16",
    "joint_names": [
        "shoulder_pan_joint",
        "shoulder_lift_joint",
        "elbow_joint",
        "wrist_1_joint",
        "wrist_2_joint",
        "wrist_3_joint"
    ],
    "metrics": {
        "cart_traj_len": 0.5757292492453643,
        "distance_elbow_joint": 0.2559990302008772,
        "distance_shoulder_lift_joint": 0.18816809099186427,
        "distance_shoulder_pan_joint": 0.4945178184233989,
        "distance_wrist_1_joint": 0.07431852760935931,
        "distance_wrist_2_joint": 1.0639964164126483,
        "distance_wrist_3_joint": 0.06966252249340288,
        "smoothness": 2.5376526478085547e-16,
        "time": 0.018393789,
        "traj_len": 1.4651492777637203,
        "weighted_distance": 1.8504870697036402
    },
    "planner": "BiTRRT",
    "start": {
        "state": {
            "elbow_joint": 2.010868314990456,
            "shoulder_lift_joint": -1.1634956873337592,
            "shoulder_pan_joint": -2.4736205022346125,
            "wrist_1_joint": -0.8367026794202681,
            "wrist_2_joint": 0.6746043897044499,
            "wrist_3_joint": -3.1496632123970403
        }
    },
    "waypoints": [
        {
            "positions": [
                -2.4736205022346125,
                -1.1634956873337592,
                2.010868314990456,
                -0.8367026794202681,
                0.6746043897044499,
                -3.1496632123970403
            ]
        },
        {
            "positions": [
                -2.5560401386385125,
                -1.132134338835115,
                1.9682018099569762,
                -0.8243162581520416,
                0.8519371257732247,
                -3.1380527919814734
            ]
        },
        {
            "positions": [
                -2.638459775042412,
                -1.1007729903364711,
                1.9255353049234967,
                -0.811929836883815,
                1.0292698618419993,
                -3.126442371565906
            ]
        },
        {
            "positions": [
                -2.7208794114463117,
                -1.069411641837827,
                1.882868799890017,
                -0.7995434156155885,
                1.206602597910774,
                -3.1148319511503386
            ]
        },
        {
            "positions": [
                -2.8032990478502118,
                -1.038050293339183,
                1.8402022948565377,
                -0.7871569943473619,
                1.3839353339795486,
                -3.1032215307347717
            ]
        },
        {
            "positions": [
                -2.885718684254112,
                -1.006688944840539,
                1.7975357898230582,
                -0.7747705730791353,
                1.5612680700483237,
                -3.0916111103192048
            ]
        },
        {
            "positions": [
                -2.9681383206580114,
                -0.9753275963418949,
                1.7548692847895786,
                -0.7623841518109088,
                1.7386008061170983,
                -3.0800006899036374
            ]
        }
    ]
}