{
    "goal": {
        "global_pose": {
            "orientation": {
                "w": -0.4816463035849501,
                "x": 0.5182115481033762,
                "y": 0.4908360881923453,
                "z": -0.5084816262002911
            },
            "position": {
                "x": -0.8240239810943604,
                "y": -0.300875300988555,
                "z": 0.16403168439865112
            }
        },
        "name": "move_to_storage_C"
    },
    "id": "BiTRRT_move_to_storage_C_150",
    "joint_names": [
        "shoulder_pan_joint",
        "shoulder_lift_joint",
        "elbow_joint",
        "wrist_1_joint",
        "wrist_2_joint",
        "wrist_3_joint"
    ],
    "metrics": {
        "cart_traj_len": 0.5770339566272601,
        "distance_elbow_joint": 0.25560040955502905,
        "distance_shoulder_lift_joint": 0.19062338208138274,
        "distance_shoulder_pan_joint": 0.4947578601355218,
        "distance_wrist_1_joint": 0.06416644322146159,
        "distance_wrist_2_joint": 1.0679167221946972,
        "distance_wrist_3_joint": 0.061628591627925555,
        "smoothness": 0.0,
        "time": 0.017811201,
        "traj_len": 1.4610590025101717,
        "weighted_distance": 1.8412044312047555
    },
    "planner": "BiTRRT",
    "start": {
        "state": {
            "elbow_joint": 2.010868314990456,
            "shoulder_lift_joint": -1.1634956873337592,
            "shoulder_pan_joint": -2.4736205022346125,
            "wrist_1_joint": -0.8367026794202681,
            "wrist_2_joint": 0.6746043897044499,
            "wrist_3_joint": -3.1496632123970403
        }
    },
    "waypoints": [
        {
            "positions": [
                -2.4736205022346125,
                -1.1634956873337592,
                2.010868314990456,
                -0.8367026794202681,
                0.6746043897044499,
                -3.1496632123970403
            ]
        },
        {
            "positions": [
                -2.5560801455905326,
                -1.1317251236535286,
                1.9682682467312844,
                -0.8260082722166912,
                0.8525905100702328,
                -3.1393917804590528
            ]
        },
        {
            "positions": [
                -2.6385397889464532,
                -1.0999545599732983,
                1.9256681784721128,
                -0.8153138650131142,
                1.0305766304360158,
                -3.1291203485210652
            ]
        },
        {
            "positions": [
                -2.7209994323023734,
                -1.068183996293068,
                1.8830681102129412,
                -0.8046194578095374,
                1.2085627508017986,
                -3.1188489165830777
            ]
        },
        {
            "positions": [
                -2.8034590756582936,
                -1.0364134326128374,
                1.8404680419537698,
                -0.7939250506059604,
                1.3865488711675815,
                -3.1085774846450898
            ]
        },
        {
            "positions": [
                -2.885918719014214,
                -1.0046428689326068,
                1.7978679736945984,
                -0.7832306434023835,
                1.5645349915333644,
                -3.0983060527071022
            ]
        },
        {
            "positions": [
                -2.9683783623701343,
                -0.9728723052523764,
                1.7552679054354268,
                -0.7725362361988065,
                1.742521111899147,
                -3.0880346207691147
            ]
        }
    ]
}