{
    "goal": {
        "global_pose": {
            "orientation": {
                "w": 0.7047431493862688,
                "x": -0.7094548369677653,
                "y": 0.0024358444001904,
                "z": -0.0022348060817251984
            },
            "position": {
                "x": -0.39052492380142206,
                "y": 0.3671506643295288,
                "z": 0.19426114857196808
            }
        },
        "name": "move_to_magneteinheit_D"
    },
    "id": "BiTRRT_move_to_magneteinheit_D_81",
    "joint_names": [
        "shoulder_pan_joint",
        "shoulder_lift_joint",
        "elbow_joint",
        "wrist_1_joint",
        "wrist_2_joint",
        "wrist_3_joint"
    ],
    "metrics": {
        "cart_traj_len": 3.7278334693891932,
        "distance_elbow_joint": 3.3124514679173305,
        "distance_shoulder_lift_joint": 1.6343963903918521,
        "distance_shoulder_pan_joint": 2.8605852980012916,
        "distance_wrist_1_joint": 1.8675907009100627,
        "distance_wrist_2_joint": 0.3705500281474903,
        "distance_wrist_3_joint": 3.1392540723089715,
        "smoothness": 0.2714715362921934,
        "time": 0.156135895,
        "traj_len": 3.6310918409862616,
        "weighted_distance": 4.658484392090683
    },
    "planner": "BiTRRT",
    "start": {
        "state": {
            "elbow_joint": 0.749534889911806,
            "shoulder_lift_joint": -0.6476975780787326,
            "shoulder_pan_joint": -2.711696901376241,
            "wrist_1_joint": -0.07506478083263063,
            "wrist_2_joint": 0.43296659715538205,
            "wrist_3_joint": -3.14703540197715
        }
    },
    "waypoints": [
        {
            "positions": [
                -2.711696901376241,
                -0.6476975780787326,
                0.749534889911806,
                -0.07506478083263063,
                0.43296659715538205,
                -3.14703540197715
            ]
        },
        {
            "positions": [
                -2.7229537569735665,
                -0.6790846828776949,
                0.7968861270681076,
                -0.01702498668035031,
                0.37292886967072225,
                -2.9753514471887423
            ]
        },
        {
            "positions": [
                -2.734210612570892,
                -0.710471787676657,
                0.8442373642244092,
                0.04101480747193001,
                0.3128911421860624,
                -2.8036674924003346
            ]
        },
        {
            "positions": [
                -2.6380067093676884,
                -0.7413906871690302,
                0.7360928349158835,
                0.09761181208243497,
                0.3073576533807499,
                -2.7071507640958252
            ]
        },
        {
            "positions": [
                -2.5418028061644846,
                -0.7723095866614035,
                0.6279483056073578,
                0.15420881669293995,
                0.30182416457543737,
                -2.610634035791316
            ]
        },
        {
            "positions": [
                -2.4455989029612812,
                -0.8032284861537767,
                0.5198037762988321,
                0.2108058213034449,
                0.29629067577012486,
                -2.5141173074868064
            ]
        },
        {
            "positions": [
                -2.349394999758078,
                -0.83414738564615,
                0.4116592469903064,
                0.26740282591394987,
                0.29075718696481234,
                -2.4176005791822965
            ]
        },
        {
            "positions": [
                -2.253191096554874,
                -0.8650662851385232,
                0.30351471768178073,
                0.3239998305244549,
                0.28522369815949983,
                -2.321083850877787
            ]
        },
        {
            "positions": [
                -2.1569871933516707,
                -0.8959851846308965,
                0.19537018837325504,
                0.3805968351349598,
                0.2796902093541873,
                -2.2245671225732777
            ]
        },
        {
            "positions": [
                -2.060783290148467,
                -0.9269040841232697,
                0.08722565906472934,
                0.4371938397454648,
                0.27415672054887474,
                -2.1280503942687683
            ]
        },
        {
            "positions": [
                -1.9645793869452635,
                -0.9578229836156429,
                -0.02091887024379635,
                0.49379084435596976,
                0.26862323174356223,
                -2.031533665964259
            ]
        },
        {
            "positions": [
                -1.86837548374206,
                -0.9887418831080163,
                -0.12906339955232216,
                0.5503878489664747,
                0.2630897429382497,
                -1.935016937659749
            ]
        },
        {
            "positions": [
                -1.7721715805388565,
                -1.0196607826003894,
                -0.23720792886084774,
                0.6069848535769797,
                0.2575562541329372,
                -1.8385002093552396
            ]
        },
        {
            "positions": [
                -1.6759676773356529,
                -1.0505796820927626,
                -0.34535245816937343,
                0.6635818581874846,
                0.2520227653276247,
                -1.7419834810507302
            ]
        },
        {
            "positions": [
                -1.5797637741324495,
                -1.081498581585136,
                -0.4534969874778991,
                0.7201788627979896,
                0.24648927652231217,
                -1.6454667527462208
            ]
        },
        {
            "positions": [
                -1.483559870929246,
                -1.1124174810775092,
                -0.5616415167864248,
                0.7767758674084946,
                0.24095578771699966,
                -1.5489500244417111
            ]
        },
        {
            "positions": [
                -1.3873559677260423,
                -1.1433363805698824,
                -0.6697860460949505,
                0.8333728720189996,
                0.23542229891168714,
                -1.4524332961372017
            ]
        },
        {
            "positions": [
                -1.2911520645228387,
                -1.1742552800622557,
                -0.7779305754034762,
                0.8899698766295046,
                0.22988881010637463,
                -1.3559165678326923
            ]
        },
        {
            "positions": [
                -1.1949481613196353,
                -1.205174179554629,
                -0.8860751047120019,
                0.9465668812400094,
                0.22435532130106212,
                -1.259399839528183
            ]
        },
        {
            "positions": [
                -1.0987442581164317,
                -1.2360930790470022,
                -0.9942196340205274,
                1.0031638858505145,
                0.21882183249574957,
                -1.1628831112236735
            ]
        },
        {
            "positions": [
                -1.0025403549132281,
                -1.2670119785393754,
                -1.1023641633290535,
                1.0597608904610196,
                0.21328834369043703,
                -1.0663663829191636
            ]
        },
        {
            "positions": [
                -0.9063364517100245,
                -1.2979308780317487,
                -1.210508692637579,
                1.1163578950715245,
                0.20775485488512452,
                -0.9698496546146542
            ]
        },
        {
            "positions": [
                -0.8101325485068211,
                -1.328849777524122,
                -1.3186532219461047,
                1.1729548996820296,
                0.202221366079812,
                -0.8733329263101448
            ]
        },
        {
            "positions": [
                -0.7139286453036178,
                -1.3597686770164952,
                -1.4267977512546304,
                1.2295519042925345,
                0.1966878772744995,
                -0.7768161980056352
            ]
        },
        {
            "positions": [
                -0.617724742100414,
                -1.3906875765088684,
                -1.534942280563156,
                1.2861489089030393,
                0.19115438846918698,
                -0.6802994697011258
            ]
        },
        {
            "positions": [
                -0.5215208388972106,
                -1.4216064760012417,
                -1.6430868098716818,
                1.3427459135135444,
                0.18562089966387446,
                -0.5837827413966163
            ]
        },
        {
            "positions": [
                -0.4253169356940072,
                -1.452525375493615,
                -1.7512313391802075,
                1.3993429181240493,
                0.18008741085856195,
                -0.48726601309210693
            ]
        },
        {
            "positions": [
                -0.32911303249080337,
                -1.4834442749859882,
                -1.8593758684887332,
                1.4559399227345544,
                0.1745539220532494,
                -0.3907492847875971
            ]
        },
        {
            "positions": [
                -0.2329091292876,
                -1.5143631744783614,
                -1.9675203977972588,
                1.5125369273450593,
                0.1690204332479369,
                -0.29423255648308766
            ]
        },
        {
            "positions": [
                -0.13670522608439617,
                -1.5452820739707347,
                -2.0756649271057848,
                1.5691339319555644,
                0.16348694444262438,
                -0.19771582817857825
            ]
        },
        {
            "positions": [
                -0.04050132288119274,
                -1.576200973463108,
                -2.18380945641431,
                1.6257309365660693,
                0.15795345563731186,
                -0.10119909987406865
            ]
        },
        {
            "positions": [
                -0.04515818073840808,
                -1.668097759107442,
                -2.240315923682041,
                1.642169739298497,
                0.13781095664632864,
                -0.05664139351770121
            ]
        },
        {
            "positions": [
                -0.049815038595623404,
                -1.759994544751776,
                -2.2968223909497714,
                1.658608542030925,
                0.11766845765534545,
                -0.012083687161333775
            ]
        },
        {
            "positions": [
                -0.09483123239646055,
                -1.934027685991379,
                -2.3223854704266205,
                1.6139694160154225,
                0.13608575387116334,
                -0.010649567996948512
            ]
        },
        {
            "positions": [
                -0.13984742619729768,
                -2.108060827230982,
                -2.3479485499034696,
                1.56933028999992,
                0.1545030500869812,
                -0.009215448832563249
            ]
        },
        {
            "positions": [
                -0.18486361999813483,
                -2.2820939684705848,
                -2.3735116293803187,
                1.5246911639844176,
                0.1729203463027991,
                -0.007781329668177984
            ]
        }
    ]
}