{
    "goal": {
        "global_pose": {
            "orientation": {
                "w": 0.7047431493862688,
                "x": -0.7094548369677653,
                "y": 0.0024358444001904,
                "z": -0.0022348060817251984
            },
            "position": {
                "x": -0.39052492380142206,
                "y": 0.3671506643295288,
                "z": 0.19426114857196808
            }
        },
        "name": "move_to_magneteinheit_D"
    },
    "id": "BiTRRT_move_to_magneteinheit_D_53",
    "joint_names": [
        "shoulder_pan_joint",
        "shoulder_lift_joint",
        "elbow_joint",
        "wrist_1_joint",
        "wrist_2_joint",
        "wrist_3_joint"
    ],
    "metrics": {
        "cart_traj_len": 3.665789831497755,
        "distance_elbow_joint": 3.121586271118642,
        "distance_shoulder_lift_joint": 1.6349582130465568,
        "distance_shoulder_pan_joint": 3.358950284196019,
        "distance_wrist_1_joint": 1.6014649972365027,
        "distance_wrist_2_joint": 0.911927894177675,
        "distance_wrist_3_joint": 3.129719250980944,
        "smoothness": 0.1449964506413487,
        "time": 0.127780505,
        "traj_len": 3.709259617599763,
        "weighted_distance": 4.746729221699127
    },
    "planner": "BiTRRT",
    "start": {
        "state": {
            "elbow_joint": 0.749534889911806,
            "shoulder_lift_joint": -0.6476975780787326,
            "shoulder_pan_joint": -2.711696901376241,
            "wrist_1_joint": -0.07506478083263063,
            "wrist_2_joint": 0.43296659715538205,
            "wrist_3_joint": -3.14703540197715
        }
    },
    "waypoints": [
        {
            "positions": [
                -2.711696901376241,
                -0.6476975780787326,
                0.749534889911806,
                -0.07506478083263063,
                0.43296659715538205,
                -3.14703540197715
            ]
        },
        {
            "positions": [
                -2.729013617973167,
                -0.7171261326518813,
                0.7001501590696231,
                -0.0017175485428171239,
                0.38192690238612864,
                -3.0124850336305395
            ]
        },
        {
            "positions": [
                -2.746330334570093,
                -0.7865546872250299,
                0.6507654282274402,
                0.07162968374699638,
                0.33088720761687523,
                -2.877934665283929
            ]
        },
        {
            "positions": [
                -2.763647051167019,
                -0.8559832417981785,
                0.6013806973852573,
                0.14497691603680987,
                0.2798475128476219,
                -2.743384296937319
            ]
        },
        {
            "positions": [
                -2.7809637677639447,
                -0.9254117963713271,
                0.5519959665430744,
                0.2183241483266234,
                0.22880781807836845,
                -2.6088339285907085
            ]
        },
        {
            "positions": [
                -2.7982804843608706,
                -0.9948403509444758,
                0.5026112357008915,
                0.2916713806164369,
                0.17776812330911507,
                -2.474283560244098
            ]
        },
        {
            "positions": [
                -2.8155972009577965,
                -1.0642689055176244,
                0.45322650485870863,
                0.3650186129062504,
                0.12672842853986166,
                -2.3397331918974875
            ]
        },
        {
            "positions": [
                -2.8329139175547224,
                -1.133697460090773,
                0.40384177401652577,
                0.43836584519606386,
                0.07568873377060831,
                -2.205182823550877
            ]
        },
        {
            "positions": [
                -2.8502306341516483,
                -1.2031260146639218,
                0.35445704317434285,
                0.5117130774858774,
                0.024649039001354844,
                -2.070632455204267
            ]
        },
        {
            "positions": [
                -2.8675473507485743,
                -1.2725545692370703,
                0.30507231233216,
                0.585060309775691,
                -0.026390655767898508,
                -1.9360820868576563
            ]
        },
        {
            "positions": [
                -2.8848640673455,
                -1.341983123810219,
                0.2556875814899771,
                0.6584075420655043,
                -0.07743035053715194,
                -1.801531718511046
            ]
        },
        {
            "positions": [
                -2.7335200848813317,
                -1.3516342519519253,
                0.1310687371890239,
                0.6756687447362324,
                -0.08019845415457923,
                -1.7193524942074006
            ]
        },
        {
            "positions": [
                -2.5821761024171637,
                -1.3612853800936318,
                0.006449892888070657,
                0.6929299474069603,
                -0.0829665577720065,
                -1.6371732699037551
            ]
        },
        {
            "positions": [
                -2.430832119952995,
                -1.3709365082353382,
                -0.11816895141288258,
                0.7101911500776884,
                -0.08573466138943378,
                -1.5549940456001097
            ]
        },
        {
            "positions": [
                -2.2794881374888267,
                -1.3805876363770446,
                -0.2427877957138358,
                0.7274523527484165,
                -0.08850276500686106,
                -1.4728148212964645
            ]
        },
        {
            "positions": [
                -2.1281441550246587,
                -1.390238764518751,
                -0.367406640014789,
                0.7447135554191445,
                -0.09127086862428835,
                -1.390635596992819
            ]
        },
        {
            "positions": [
                -1.9768001725604902,
                -1.3998898926604577,
                -0.4920254843157423,
                0.7619747580898725,
                -0.09403897224171562,
                -1.3084563726891736
            ]
        },
        {
            "positions": [
                -1.8254561900963218,
                -1.4095410208021641,
                -0.6166443286166954,
                0.7792359607606005,
                -0.0968070758591429,
                -1.2262771483855281
            ]
        },
        {
            "positions": [
                -1.6741122076321535,
                -1.4191921489438706,
                -0.7412631729176486,
                0.7964971634313286,
                -0.09957517947657019,
                -1.144097924081883
            ]
        },
        {
            "positions": [
                -1.522768225167985,
                -1.428843277085577,
                -0.8658820172186019,
                0.8137583661020567,
                -0.10234328309399746,
                -1.0619186997782375
            ]
        },
        {
            "positions": [
                -1.3714242427038168,
                -1.4384944052272834,
                -0.9905008615195552,
                0.8310195687727846,
                -0.10511138671142474,
                -0.9797394754745921
            ]
        },
        {
            "positions": [
                -1.220080260239648,
                -1.4481455333689899,
                -1.1151197058205087,
                0.8482807714435127,
                -0.10787949032885202,
                -0.8975602511709465
            ]
        },
        {
            "positions": [
                -1.06873627777548,
                -1.4577966615106963,
                -1.2397385501214617,
                0.8655419741142407,
                -0.1106475939462793,
                -0.8153810268673012
            ]
        },
        {
            "positions": [
                -0.9173922953113116,
                -1.4674477896524027,
                -1.364357394422415,
                0.8828031767849688,
                -0.11341569756370659,
                -0.7332018025636557
            ]
        },
        {
            "positions": [
                -0.7660483128471434,
                -1.4770989177941094,
                -1.488976238723368,
                0.9000643794556967,
                -0.11618380118113386,
                -0.6510225782600103
            ]
        },
        {
            "positions": [
                -0.6147043303829749,
                -1.4867500459358158,
                -1.6135950830243215,
                0.9173255821264248,
                -0.11895190479856114,
                -0.5688433539563649
            ]
        },
        {
            "positions": [
                -0.46336034791880687,
                -1.4964011740775223,
                -1.7382139273252746,
                0.9345867847971527,
                -0.12172000841598843,
                -0.48666412965271966
            ]
        },
        {
            "positions": [
                -0.31201636545463796,
                -1.5060523022192287,
                -1.8628327716262278,
                0.9518479874678809,
                -0.1244881120334157,
                -0.4044849053490742
            ]
        },
        {
            "positions": [
                -0.16067238299046993,
                -1.5157034303609351,
                -1.987451615927181,
                0.9691091901386089,
                -0.127256215650843,
                -0.3223056810454288
            ]
        },
        {
            "positions": [
                -0.009328400526301243,
                -1.5253545585026416,
                -2.1120704602281344,
                0.9863703928093369,
                -0.13002431926827027,
                -0.2401264567417833
            ]
        },
        {
            "positions": [
                0.024045600047705156,
                -1.612523231957302,
                -2.1732455612320125,
                1.0724013156856722,
                -0.1393079916996247,
                -0.1490966175829872
            ]
        },
        {
            "positions": [
                0.05741960062171156,
                -1.6996919054119624,
                -2.23442066223589,
                1.1584322385620076,
                -0.14859166413097913,
                -0.058066778424191084
            ]
        },
        {
            "positions": [
                0.008719710569802128,
                -1.8162846825546277,
                -2.261946806030079,
                1.2320258341303805,
                -0.08251773755271645,
                -0.049916652938594014
            ]
        },
        {
            "positions": [
                -0.0399801794821073,
                -1.932877459697293,
                -2.2894729498242685,
                1.3056194296987533,
                -0.01644381097445377,
                -0.04176652745299694
            ]
        },
        {
            "positions": [
                -0.08868006953401672,
                -2.0494702368399587,
                -2.3169990936184575,
                1.3792130252671264,
                0.049630115603808894,
                -0.03361640196739987
            ]
        },
        {
            "positions": [
                -0.13737995958592616,
                -2.1660630139826242,
                -2.344525237412647,
                1.4528066208354993,
                0.11570404218207159,
                -0.02546627648180281
            ]
        },
        {
            "positions": [
                -0.18607984963783558,
                -2.2826557911252894,
                -2.372051381206836,
                1.5264002164038721,
                0.18177796876033425,
                -0.01731615099620574
            ]
        }
    ]
}