{
    "goal": {
        "global_pose": {
            "orientation": {
                "w": 0.5084816217422485,
                "x": -0.49083608388900757,
                "y": 0.5182115435600281,
                "z": -0.4816462993621826
            },
            "position": {
                "x": 0.5540239810943604,
                "y": 0.030875300988554955,
                "z": 0.16403168439865112
            }
        },
        "name": "move_to_storage_A"
    },
    "id": "BiTRRT_move_to_storage_A_101",
    "joint_names": [
        "shoulder_pan_joint",
        "shoulder_lift_joint",
        "elbow_joint",
        "wrist_1_joint",
        "wrist_2_joint",
        "wrist_3_joint"
    ],
    "metrics": {
        "cart_traj_len": 0.3530771761437439,
        "distance_elbow_joint": 0.4477929835932042,
        "distance_shoulder_lift_joint": 0.23643024146968528,
        "distance_shoulder_pan_joint": 0.4584297825791883,
        "distance_wrist_1_joint": 0.23456679926143498,
        "distance_wrist_2_joint": 1.113300757638225,
        "distance_wrist_3_joint": 0.10316649776498421,
        "smoothness": 4.440892133664971e-16,
        "time": 0.037154652,
        "traj_len": 1.6104928010726165,
        "weighted_distance": 2.036636348182058
    },
    "planner": "BiTRRT",
    "start": {
        "state": {
            "elbow_joint": 1.971548259319323,
            "shoulder_lift_joint": -1.1394851275133948,
            "shoulder_pan_joint": 0.1228115487234821,
            "wrist_1_joint": -0.7804723859257726,
            "wrist_2_joint": 0.12958671773740124,
            "wrist_3_joint": -3.192489227718131
        }
    },
    "waypoints": [
        {
            "positions": [
                0.1228115487234821,
                -1.1394851275133948,
                1.971548259319323,
                -0.7804723859257726,
                0.12958671773740124,
                -3.192489227718131
            ]
        },
        {
            "positions": [
                0.05732157978359806,
                -1.1732608762947785,
                2.0355186855469234,
                -0.8139819286774062,
                0.2886296831142905,
                -3.177751156608848
            ]
        },
        {
            "positions": [
                -0.008168389156285982,
                -1.207036625076162,
                2.099489111774524,
                -0.8474914714290398,
                0.4476726484911798,
                -3.163013085499564
            ]
        },
        {
            "positions": [
                -0.07365835809617002,
                -1.2408123738575456,
                2.1634595380021246,
                -0.8810010141806733,
                0.606715613868069,
                -3.148275014390281
            ]
        },
        {
            "positions": [
                -0.13914832703605406,
                -1.2745881226389293,
                2.2274299642297253,
                -0.9145105569323069,
                0.7657585792449584,
                -3.133536943280997
            ]
        },
        {
            "positions": [
                -0.20463829597593813,
                -1.308363871420313,
                2.291400390457326,
                -0.9480200996839405,
                0.9248015446218477,
                -3.118798872171714
            ]
        },
        {
            "positions": [
                -0.27012826491582215,
                -1.3421396202016964,
                2.3553708166849265,
                -0.981529642435574,
                1.0838445099987368,
                -3.10406080106243
            ]
        },
        {
            "positions": [
                -0.3356182338557062,
                -1.37591536898308,
                2.419341242912527,
                -1.0150391851872076,
                1.2428874753756263,
                -3.089322729953147
            ]
        }
    ]
}{
    "goal": {
        "global_pose": {
            "orientation": {
                "w": 0.5084816217422485,
                "x": -0.49083608388900757,
                "y": 0.5182115435600281,
                "z": -0.4816462993621826
            },
            "position": {
                "x": 0.5540239810943604,
                "y": 0.030875300988554955,
                "z": 0.16403168439865112
            }
        },
        "name": "move_to_storage_A"
    },
    "id": "BiTRRT_move_to_storage_A_101",
    "joint_names": [
        "shoulder_pan_joint",
        "shoulder_lift_joint",
        "elbow_joint",
        "wrist_1_joint",
        "wrist_2_joint",
        "wrist_3_joint"
    ],
    "metrics": {
        "cart_traj_len": 0.35242472147089604,
        "distance_elbow_joint": 0.4493044147991987,
        "distance_shoulder_lift_joint": 0.23643460506427139,
        "distance_shoulder_pan_joint": 0.46221506762658643,
        "distance_wrist_1_joint": 0.23643323375717418,
        "distance_wrist_2_joint": 1.0926498681561922,
        "distance_wrist_3_joint": 0.09837846909468562,
        "smoothness": 0.0,
        "time": 0.046463669,
        "traj_len": 1.604810162760103,
        "weighted_distance": 2.0251557220620953
    },
    "planner": "BiTRRT",
    "start": {
        "state": {
            "elbow_joint": 1.97154746011099,
            "shoulder_lift_joint": -1.13948474672311,
            "shoulder_pan_joint": 0.12281154466712228,
            "wrist_1_joint": -0.7804688027058302,
            "wrist_2_joint": 0.12958655903071145,
            "wrist_3_joint": 3.0906928834467795
        }
    },
    "waypoints": [
        {
            "positions": [
                0.12281154466712228,
                -1.13948474672311,
                1.97154746011099,
                -0.7804688027058302,
                0.12958655903071145,
                3.0906928834467795
            ]
        },
        {
            "positions": [
                0.056780820720467085,
                -1.1732611188751487,
                2.035733805082304,
                -0.8142449789568551,
                0.2856793973387389,
                3.104746950460306
            ]
        },
        {
            "positions": [
                -0.009249903226188114,
                -1.2070374910271875,
                2.099920150053618,
                -0.8480211552078799,
                0.4417722356467664,
                3.1188010174738325
            ]
        },
        {
            "positions": [
                -0.07528062717284333,
                -1.2408138631792263,
                2.164106495024932,
                -0.8817973314589048,
                0.5978650739547938,
                3.132855084487359
            ]
        },
        {
            "positions": [
                -0.1413113511194985,
                -1.274590235331265,
                2.2282928399962465,
                -0.9155735077099297,
                0.7539579122628213,
                3.1469091515008856
            ]
        },
        {
            "positions": [
                -0.2073420750661537,
                -1.3083666074833038,
                2.2924791849675605,
                -0.9493496839609545,
                0.9100507505708488,
                3.160963218514412
            ]
        },
        {
            "positions": [
                -0.2733727990128089,
                -1.3421429796353426,
                2.3566655299388746,
                -0.9831258602119795,
                1.0661435888788762,
                3.1750172855279386
            ]
        },
        {
            "positions": [
                -0.33940352295946413,
                -1.3759193517873813,
                2.4208518749101886,
                -1.0169020364630044,
                1.2222364271869037,
                3.189071352541465
            ]
        }
    ]
}{
    "goal": {
        "global_pose": {
            "orientation": {
                "w": 0.5084816217422485,
                "x": -0.49083608388900757,
                "y": 0.5182115435600281,
                "z": -0.4816462993621826
            },
            "position": {
                "x": 0.5540239810943604,
                "y": 0.030875300988554955,
                "z": 0.16403168439865112
            }
        },
        "name": "move_to_storage_A"
    },
    "id": "BiTRRT_move_to_storage_A_101",
    "joint_names": [
        "shoulder_pan_joint",
        "shoulder_lift_joint",
        "elbow_joint",
        "wrist_1_joint",
        "wrist_2_joint",
        "wrist_3_joint"
    ],
    "metrics": {
        "cart_traj_len": 0.35378705638231306,
        "distance_elbow_joint": 0.4494854773430621,
        "distance_shoulder_lift_joint": 0.23262527829306023,
        "distance_shoulder_pan_joint": 0.46059501785574797,
        "distance_wrist_1_joint": 0.24587437319277328,
        "distance_wrist_2_joint": 1.1077520135898191,
        "distance_wrist_3_joint": 0.08945372667026108,
        "smoothness": 2.2204460668324854e-16,
        "time": 0.037175274,
        "traj_len": 1.608037899722741,
        "weighted_distance": 2.029364365279887
    },
    "planner": "BiTRRT",
    "start": {
        "state": {
            "elbow_joint": 1.9715472970024885,
            "shoulder_lift_joint": -1.1394870060712896,
            "shoulder_pan_joint": 0.12281152778156021,
            "wrist_1_joint": -0.780463741449964,
            "wrist_2_joint": 0.12958659822042276,
            "wrist_3_joint": 3.090690232415272
        }
    },
    "waypoints": [
        {
            "positions": [
                0.12281152778156021,
                -1.1394870060712896,
                1.9715472970024885,
                -0.780463741449964,
                0.12958659822042276,
                3.090690232415272
            ]
        },
        {
            "positions": [
                0.05701223951645336,
                -1.172719188684584,
                2.0357595080514974,
                -0.8155886519060744,
                0.2878368858761112,
                3.103469336225309
            ]
        },
        {
            "positions": [
                -0.008787048748653492,
                -1.2059513712978782,
                2.0999717191005063,
                -0.8507135623621849,
                0.4460871735317996,
                3.1162484400353465
            ]
        },
        {
            "positions": [
                -0.07458633701376033,
                -1.2391835539111726,
                2.164183930149515,
                -0.8858384728182954,
                0.6043374611874881,
                3.1290275438453836
            ]
        },
        {
            "positions": [
                -0.1403856252788672,
                -1.2724157365244668,
                2.228396141198524,
                -0.9209633832744059,
                0.7625877488431765,
                3.141806647655421
            ]
        },
        {
            "positions": [
                -0.20618491354397409,
                -1.3056479191377612,
                2.292608352247533,
                -0.9560882937305164,
                0.920838036498865,
                3.1545857514654583
            ]
        },
        {
            "positions": [
                -0.2719842018090809,
                -1.3388801017510554,
                2.3568205632965418,
                -0.9912132041866268,
                1.0790883241545535,
                3.167364855275496
            ]
        },
        {
            "positions": [
                -0.33778349007418773,
                -1.3721122843643498,
                2.4210327743455506,
                -1.0263381146427373,
                1.2373386118102419,
                3.180143959085533
            ]
        }
    ]
}