{
    "goal": {
        "global_pose": {
            "orientation": {
                "w": 0.7047431468963623,
                "x": -0.7094548344612122,
                "y": 0.0024358443915843964,
                "z": -0.0022348060738295317
            },
            "position": {
                "x": 0.6094750761985779,
                "y": 0.3671506643295288,
                "z": 0.19426114857196808
            }
        },
        "name": "move_to_magneteinheit_A"
    },
    "id": "BiTRRT_move_to_magneteinheit_A_16",
    "joint_names": [
        "shoulder_pan_joint",
        "shoulder_lift_joint",
        "elbow_joint",
        "wrist_1_joint",
        "wrist_2_joint",
        "wrist_3_joint"
    ],
    "metrics": {
        "cart_traj_len": 3.4756415843214974,
        "distance_elbow_joint": 3.8764924597722406,
        "distance_shoulder_lift_joint": 0.49642285050022017,
        "distance_shoulder_pan_joint": 2.7125116716560296,
        "distance_wrist_1_joint": 0.8848501550369021,
        "distance_wrist_2_joint": 1.7186014387459787,
        "distance_wrist_3_joint": 2.5816365709873645,
        "smoothness": 0.11856879611109662,
        "time": 0.095754747,
        "traj_len": 3.5029295092391934,
        "weighted_distance": 4.476297564109913
    },
    "planner": "BiTRRT",
    "start": {
        "state": {
            "elbow_joint": -1.9196185241190666,
            "shoulder_lift_joint": -1.2443396400964142,
            "shoulder_pan_joint": 2.6996025414629847,
            "wrist_1_joint": -1.5485510000780065,
            "wrist_2_joint": -1.5709468930060704,
            "wrist_3_joint": 0.4420197071253992
        }
    },
    "waypoints": [
        {
            "positions": [
                2.6996025414629847,
                -1.2443396400964142,
                -1.9196185241190666,
                -1.5485510000780065,
                -1.5709468930060704,
                0.4420197071253992
            ]
        },
        {
            "positions": [
                2.5875803753311466,
                -1.2273931281546429,
                -1.818365296829802,
                -1.512190753968551,
                -1.507633500451244,
                0.48948187292310974
            ]
        },
        {
            "positions": [
                2.475558209199308,
                -1.2104466162128715,
                -1.7171120695405375,
                -1.4758305078590956,
                -1.4443201078964178,
                0.5369440387208203
            ]
        },
        {
            "positions": [
                2.36353604306747,
                -1.1935001042711002,
                -1.615858842251273,
                -1.4394702617496402,
                -1.3810067153415915,
                0.5844062045185309
            ]
        },
        {
            "positions": [
                2.2515138769356318,
                -1.176553592329329,
                -1.5146056149620084,
                -1.4031100156401848,
                -1.317693322786765,
                0.6318683703162414
            ]
        },
        {
            "positions": [
                2.139491710803793,
                -1.1596070803875578,
                -1.4133523876727438,
                -1.3667497695307294,
                -1.254379930231939,
                0.679330536113952
            ]
        },
        {
            "positions": [
                2.0274695446719555,
                -1.1426605684457865,
                -1.3120991603834793,
                -1.330389523421274,
                -1.1910665376771128,
                0.7267927019116626
            ]
        },
        {
            "positions": [
                1.915447378540117,
                -1.1257140565040151,
                -1.2108459330942147,
                -1.2940292773118185,
                -1.1277531451222864,
                0.7742548677093732
            ]
        },
        {
            "positions": [
                1.8034252124082788,
                -1.1087675445622438,
                -1.1095927058049502,
                -1.257669031202363,
                -1.06443975256746,
                0.8217170335070838
            ]
        },
        {
            "positions": [
                1.6914030462764404,
                -1.0918210326204725,
                -1.0083394785156856,
                -1.2213087850929076,
                -1.0011263600126337,
                0.8691791993047944
            ]
        },
        {
            "positions": [
                1.579380880144602,
                -1.0748745206787012,
                -0.9070862512264211,
                -1.184948538983452,
                -0.9378129674578075,
                0.9166413651025049
            ]
        },
        {
            "positions": [
                1.4673587140127637,
                -1.0579280087369298,
                -0.8058330239371565,
                -1.1485882928739966,
                -0.8744995749029811,
                0.9641035309002155
            ]
        },
        {
            "positions": [
                1.3553365478809258,
                -1.0409814967951587,
                -0.7045797966478919,
                -1.1122280467645411,
                -0.811186182348155,
                1.011565696697926
            ]
        },
        {
            "positions": [
                1.2433143817490875,
                -1.0240349848533874,
                -0.6033265693586274,
                -1.0758678006550857,
                -0.7478727897933286,
                1.0590278624956366
            ]
        },
        {
            "positions": [
                1.1312922156172491,
                -1.007088472911616,
                -0.5020733420693628,
                -1.0395075545456303,
                -0.6845593972385023,
                1.1064900282933472
            ]
        },
        {
            "positions": [
                1.0192700494854108,
                -0.9901419609698447,
                -0.40082011478009827,
                -1.0031473084361748,
                -0.621246004683676,
                1.1539521940910578
            ]
        },
        {
            "positions": [
                0.9072478833535729,
                -0.9731954490280734,
                -0.2995668874908337,
                -0.9667870623267195,
                -0.5579326121288497,
                1.2014143598887683
            ]
        },
        {
            "positions": [
                0.7952257172217345,
                -0.9562489370863022,
                -0.19831366020156915,
                -0.930426816217264,
                -0.49461921957402355,
                1.2488765256864789
            ]
        },
        {
            "positions": [
                0.6832035510898963,
                -0.9393024251445309,
                -0.09706043291230462,
                -0.8940665701078085,
                -0.4313058270191972,
                1.2963386914841895
            ]
        },
        {
            "positions": [
                0.6307099930689928,
                -0.9487131532313895,
                0.036479797096515804,
                -0.8759312905176667,
                -0.3863740037161927,
                1.4064696974630935
            ]
        },
        {
            "positions": [
                0.5782164350480892,
                -0.9581238813182481,
                0.17002002710533623,
                -0.8577960109275249,
                -0.34144218041318825,
                1.5166007034419973
            ]
        },
        {
            "positions": [
                0.5257228770271857,
                -0.9675346094051067,
                0.3035602571141567,
                -0.839660731337383,
                -0.2965103571101838,
                1.6267317094209013
            ]
        },
        {
            "positions": [
                0.47322931900628207,
                -0.9769453374919653,
                0.4371004871229771,
                -0.8215254517472411,
                -0.2515785338071793,
                1.736862715399805
            ]
        },
        {
            "positions": [
                0.42073576098537857,
                -0.9863560655788239,
                0.5706407171317975,
                -0.8033901721570993,
                -0.20664671050417482,
                1.846993721378709
            ]
        },
        {
            "positions": [
                0.368242202964475,
                -0.9957667936656827,
                0.704180947140618,
                -0.7852548925669575,
                -0.1617148872011704,
                1.9571247273576131
            ]
        },
        {
            "positions": [
                0.3157486449435715,
                -1.0051775217525412,
                0.8377211771494383,
                -0.7671196129768156,
                -0.1167830638981659,
                2.067255733336517
            ]
        },
        {
            "positions": [
                0.2632550869226679,
                -1.0145882498393999,
                0.9712614071582588,
                -0.7489843333866737,
                -0.0718512405951614,
                2.1773867393154207
            ]
        },
        {
            "positions": [
                0.21076152890176442,
                -1.0239989779262584,
                1.1048016371670792,
                -0.7308490537965319,
                -0.02691941729215691,
                2.2875177452943247
            ]
        },
        {
            "positions": [
                0.15826797088086086,
                -1.033409706013117,
                1.2383418671758997,
                -0.71271377420639,
                0.018012406010847498,
                2.3976487512732287
            ]
        },
        {
            "positions": [
                0.1324338585330137,
                -1.049373259319644,
                1.369413748112728,
                -0.7063341210406605,
                0.04912265312308541,
                2.5115690883567448
            ]
        },
        {
            "positions": [
                0.10659974618516654,
                -1.0653368126261713,
                1.5004856290495565,
                -0.699954467874931,
                0.08023290023532333,
                2.6254894254402603
            ]
        },
        {
            "positions": [
                0.0807656338373194,
                -1.0813003659326985,
                1.631557509986385,
                -0.6935748147092013,
                0.11134314734756123,
                2.739409762523776
            ]
        },
        {
            "positions": [
                0.05493152148947224,
                -1.0972639192392255,
                1.7626293909232134,
                -0.6871951615434718,
                0.14245339445979915,
                2.853330099607292
            ]
        },
        {
            "positions": [
                0.10636994998557273,
                -1.1229981703955936,
                1.9122606431803582,
                -0.7051064785373194,
                0.13881098264308822,
                2.9846414587844357
            ]
        },
        {
            "positions": [
                0.12277217317199014,
                -1.1306880606928678,
                1.956873935653174,
                -0.7106894780458393,
                0.13725224317969054,
                3.023656278112764
            ]
        }
    ]
}