{
    "goal": {
        "global_pose": {
            "orientation": {
                "w": 0.7031023502349854,
                "x": -0.7110244035720825,
                "y": 0.007748599164187908,
                "z": 0.005598929710686207
            },
            "position": {
                "x": 0.11585023208521307,
                "y": 0.44412534475326537,
                "z": 0.3711530566215515
            }
        },
        "name": "move_to_auspresseinheit_A"
    },
    "id": "BiTRRT_move_to_auspresseinheit_A_37",
    "joint_names": [
        "shoulder_pan_joint",
        "shoulder_lift_joint",
        "elbow_joint",
        "wrist_1_joint",
        "wrist_2_joint",
        "wrist_3_joint"
    ],
    "metrics": {
        "cart_traj_len": 0.6868207651306518,
        "distance_elbow_joint": 0.07757044351123454,
        "distance_shoulder_lift_joint": 0.5361430546756474,
        "distance_shoulder_pan_joint": 1.0396628049051855,
        "distance_wrist_1_joint": 0.6598965878666531,
        "distance_wrist_2_joint": 0.6038591047755388,
        "distance_wrist_3_joint": 0.2935820167717469,
        "smoothness": 0.8070782272502368,
        "time": 0.05344108,
        "traj_len": 1.7918465370968593,
        "weighted_distance": 2.249807489251401
    },
    "planner": "BiTRRT",
    "start": {
        "state": {
            "elbow_joint": 2.4225746658250005,
            "shoulder_lift_joint": -1.3736534386056498,
            "shoulder_pan_joint": -0.3378633547517467,
            "wrist_1_joint": -1.0288598680537169,
            "wrist_2_joint": 1.233022673432363,
            "wrist_3_joint": -3.0940220416140027
        }
    },
    "waypoints": [
        {
            "positions": [
                -0.3378633547517467,
                -1.3736534386056498,
                2.4225746658250005,
                -1.0288598680537169,
                1.233022673432363,
                -3.0940220416140027
            ]
        },
        {
            "positions": [
                -0.20930810092907154,
                -1.4446698681534549,
                2.4149882286064708,
                -0.9417980990671861,
                1.1515933473633668,
                -3.0752894447518018
            ]
        },
        {
            "positions": [
                -0.08075284710639635,
                -1.5156862977012597,
                2.407401791387941,
                -0.8547363300806553,
                1.0701640212943704,
                -3.056556847889601
            ]
        },
        {
            "positions": [
                0.047802406716278834,
                -1.5867027272490648,
                2.3998153541694114,
                -0.7676745610941246,
                0.9887346952253742,
                -3.0378242510274
            ]
        },
        {
            "positions": [
                0.17635766053895402,
                -1.6577191567968697,
                2.3922289169508817,
                -0.6806127921075937,
                0.9073053691563779,
                -3.0190916541651993
            ]
        },
        {
            "positions": [
                0.3049129143616293,
                -1.7287355863446747,
                2.384642479732352,
                -0.593551023121063,
                0.8258760430873816,
                -3.0003590573029983
            ]
        },
        {
            "positions": [
                0.4334681681843044,
                -1.7997520158924796,
                2.3770560425138223,
                -0.5064892541345323,
                0.7444467170183854,
                -2.9816264604407974
            ]
        },
        {
            "positions": [
                0.5620234220069797,
                -1.8707684454402846,
                2.3694696052952926,
                -0.41942748514800143,
                0.663017390949389,
                -2.9628938635785964
            ]
        },
        {
            "positions": [
                0.6319114360802092,
                -1.890282469360791,
                2.381702296786056,
                -0.44465958762847024,
                0.6799443020956715,
                -3.0441207829467665
            ]
        },
        {
            "positions": [
                0.7017994501534387,
                -1.9097964932812972,
                2.3939349882768193,
                -0.46989169010893905,
                0.6968712132419539,
                -3.125347702314937
            ]
        }
    ]
}