{
    "goal": {
        "global_pose": {
            "orientation": {
                "w": -0.00223480608172531,
                "x": 0.0024358444001904467,
                "y": 0.7094548369677653,
                "z": -0.704743149386269
            },
            "position": {
                "x": -0.37947507619857795,
                "y": -0.6371506643295288,
                "z": 0.19426114857196808
            }
        },
        "name": "move_to_magneteinheit_C"
    },
    "id": "BiTRRT_move_to_magneteinheit_C_68",
    "joint_names": [
        "shoulder_pan_joint",
        "shoulder_lift_joint",
        "elbow_joint",
        "wrist_1_joint",
        "wrist_2_joint",
        "wrist_3_joint"
    ],
    "metrics": {
        "cart_traj_len": 2.452190176217324,
        "distance_elbow_joint": 2.3692827460311623,
        "distance_shoulder_lift_joint": 0.7154264313317948,
        "distance_shoulder_pan_joint": 1.249691869219917,
        "distance_wrist_1_joint": 1.2047054097838559,
        "distance_wrist_2_joint": 1.2621124356971107,
        "distance_wrist_3_joint": 1.469063079768845,
        "smoothness": 1.2117250930768129,
        "time": 0.10910646400000001,
        "traj_len": 2.8758097940984704,
        "weighted_distance": 3.6980029714497715
    },
    "planner": "BiTRRT",
    "start": {
        "state": {
            "elbow_joint": 1.9565354010623817,
            "shoulder_lift_joint": -1.4165861575791021,
            "shoulder_pan_joint": -1.6717766225146293,
            "wrist_1_joint": -0.5286633292919765,
            "wrist_2_joint": 1.472756589071564,
            "wrist_3_joint": -3.1238370188695823
        }
    },
    "waypoints": [
        {
            "positions": [
                -1.6717766225146293,
                -1.4165861575791021,
                1.9565354010623817,
                -0.5286633292919765,
                1.472756589071564,
                -3.1238370188695823
            ]
        },
        {
            "positions": [
                -1.6519472774009034,
                -1.4052166876566616,
                1.9609246800392732,
                -0.5319430156224725,
                1.4578952296046124,
                -3.087440742862351
            ]
        },
        {
            "positions": [
                -1.5427521756519464,
                -1.377179575523095,
                1.9968280144087107,
                -0.5151623542300401,
                1.358768555480498,
                -3.001190523180475
            ]
        },
        {
            "positions": [
                -1.5220202304415897,
                -1.3051470126739635,
                1.8718657272205486,
                -0.569725287103183,
                1.381645555098844,
                -2.907901420345537
            ]
        },
        {
            "positions": [
                -1.501288285231233,
                -1.233114449824832,
                1.7469034400323866,
                -0.6242882199763261,
                1.40452255471719,
                -2.8146123175105986
            ]
        },
        {
            "positions": [
                -1.4805563400208763,
                -1.161081886975701,
                1.6219411528442245,
                -0.6788511528494692,
                1.427399554335536,
                -2.7213232146756603
            ]
        },
        {
            "positions": [
                -1.4598243948105196,
                -1.0890493241265695,
                1.4969788656560623,
                -0.7334140857226121,
                1.450276553953882,
                -2.628034111840722
            ]
        },
        {
            "positions": [
                -1.4815241234417778,
                -1.116844503000747,
                1.3918719615515682,
                -0.8204879167582064,
                1.4290758667940107,
                -2.5726002910343784
            ]
        },
        {
            "positions": [
                -1.5032238520730359,
                -1.1446396818749247,
                1.286765057447074,
                -0.9075617477938008,
                1.4078751796341393,
                -2.5171664702280343
            ]
        },
        {
            "positions": [
                -1.5249235807042942,
                -1.1724348607491022,
                1.1816581533425796,
                -0.9946355788293952,
                1.3866744924742682,
                -2.4617326494216902
            ]
        },
        {
            "positions": [
                -1.5466233093355524,
                -1.2002300396232797,
                1.0765512492380855,
                -1.0817094098649895,
                1.3654738053143969,
                -2.4062988286153466
            ]
        },
        {
            "positions": [
                -1.6412975034758284,
                -1.1668625938064479,
                0.997054765677648,
                -1.0493495079503954,
                1.2296818743273812,
                -2.4243956924367147
            ]
        },
        {
            "positions": [
                -1.7359716976161044,
                -1.1334951479896158,
                0.9175582821172105,
                -1.0169896060358012,
                1.0938899433403653,
                -2.442492556258083
            ]
        },
        {
            "positions": [
                -1.8306458917563804,
                -1.100127702172784,
                0.8380617985567729,
                -0.9846297041212071,
                0.9580980123533496,
                -2.460589420079451
            ]
        },
        {
            "positions": [
                -1.9602155164353683,
                -1.0813631975826974,
                0.839588491212982,
                -0.9671244437407597,
                0.9195376001375453,
                -2.5380533939150633
            ]
        },
        {
            "positions": [
                -2.089785141114356,
                -1.062598692992611,
                0.841115183869191,
                -0.9496191833603121,
                0.880977187921741,
                -2.6155173677506753
            ]
        },
        {
            "positions": [
                -2.219354765793344,
                -1.0438341884025244,
                0.8426418765254001,
                -0.9321139229798647,
                0.8424167757059366,
                -2.6929813415862878
            ]
        },
        {
            "positions": [
                -2.2814772854377887,
                -1.0441219931525656,
                0.959766960645405,
                -0.8739021104705036,
                0.8786647204283488,
                -2.7282712500530457
            ]
        },
        {
            "positions": [
                -2.343599805082234,
                -1.0444097979026068,
                1.07689204476541,
                -0.8156902979611425,
                0.9149126651507609,
                -2.7635611585198037
            ]
        },
        {
            "positions": [
                -2.405722324726679,
                -1.044697602652648,
                1.194017128885415,
                -0.7574784854517814,
                0.9511606098731729,
                -2.798851066986561
            ]
        },
        {
            "positions": [
                -2.4678448443711236,
                -1.0449854074026892,
                1.3111422130054198,
                -0.6992666729424203,
                0.987408554595585,
                -2.834140975453319
            ]
        },
        {
            "positions": [
                -2.4736336947546453,
                -1.0544705850096958,
                1.4881215331971194,
                -0.6798609131478023,
                0.9096629321513622,
                -2.888845578384582
            ]
        },
        {
            "positions": [
                -2.4794225451381675,
                -1.0639557626167027,
                1.6651008533888187,
                -0.6604551533531842,
                0.8319173097071395,
                -2.943550181315845
            ]
        },
        {
            "positions": [
                -2.4852113955216892,
                -1.0734409402237093,
                1.8420801735805183,
                -0.6410493935585662,
                0.7541716872629167,
                -2.998254784247108
            ]
        },
        {
            "positions": [
                -2.4790350751193704,
                -1.1187940798940152,
                1.9251829444850936,
                -0.7297683886183436,
                0.7189076976817173,
                -3.0780392511885317
            ]
        },
        {
            "positions": [
                -2.4728587547170515,
                -1.1641472195643212,
                2.0082857153896687,
                -0.818487383678121,
                0.6836437081005178,
                -3.157823718129956
            ]
        }
    ]
}