{
    "goal": {
        "global_pose": {
            "orientation": {
                "w": -0.4816463035849501,
                "x": 0.5182115481033762,
                "y": 0.4908360881923453,
                "z": -0.5084816262002911
            },
            "position": {
                "x": -0.8240239810943604,
                "y": -0.300875300988555,
                "z": 0.16403168439865112
            }
        },
        "name": "move_to_storage_C"
    },
    "id": "BiTRRT_move_to_storage_C_18",
    "joint_names": [
        "shoulder_pan_joint",
        "shoulder_lift_joint",
        "elbow_joint",
        "wrist_1_joint",
        "wrist_2_joint",
        "wrist_3_joint"
    ],
    "metrics": {
        "cart_traj_len": 0.5770178038909239,
        "distance_elbow_joint": 0.2616404997209183,
        "distance_shoulder_lift_joint": 0.19017669950033966,
        "distance_shoulder_pan_joint": 0.4931014074422255,
        "distance_wrist_1_joint": 0.08579859403346912,
        "distance_wrist_2_joint": 1.0786282527000695,
        "distance_wrist_3_joint": 0.06474697608697655,
        "smoothness": 0.0,
        "time": 0.041229396,
        "traj_len": 1.4744803930483439,
        "weighted_distance": 1.862260247224187
    },
    "planner": "BiTRRT",
    "start": {
        "state": {
            "elbow_joint": 2.010868314990456,
            "shoulder_lift_joint": -1.1634956873337592,
            "shoulder_pan_joint": -2.4736205022346125,
            "wrist_1_joint": -0.8367026794202681,
            "wrist_2_joint": 0.6746043897044499,
            "wrist_3_joint": -3.1496632123970403
        }
    },
    "waypoints": [
        {
            "positions": [
                -2.4736205022346125,
                -1.1634956873337592,
                2.010868314990456,
                -0.8367026794202681,
                0.6746043897044499,
                -3.1496632123970403
            ]
        },
        {
            "positions": [
                -2.55580407014165,
                -1.1317995707503692,
                1.9672615650369694,
                -0.8224029137480232,
                0.8543757651544615,
                -3.1388720497158777
            ]
        },
        {
            "positions": [
                -2.6379876380486875,
                -1.1001034541669794,
                1.9236548150834831,
                -0.8081031480757784,
                1.034147140604473,
                -3.1280808870347148
            ]
        },
        {
            "positions": [
                -2.720171205955725,
                -1.0684073375835894,
                1.8800480651299967,
                -0.7938033824035335,
                1.2139185160544845,
                -3.117289724353552
            ]
        },
        {
            "positions": [
                -2.802354773862763,
                -1.0367112210001994,
                1.8364413151765102,
                -0.7795036167312887,
                1.3936898915044962,
                -3.1064985616723892
            ]
        },
        {
            "positions": [
                -2.8845383417698005,
                -1.0050151044168094,
                1.792834565223024,
                -0.7652038510590439,
                1.5734612669545078,
                -3.0957073989912267
            ]
        },
        {
            "positions": [
                -2.966721909676838,
                -0.9733189878334195,
                1.7492278152695375,
                -0.750904085386799,
                1.7532326424045193,
                -3.0849162363100637
            ]
        }
    ]
}