{
    "goal": {
        "global_pose": {
            "orientation": {
                "w": 0.5084816262002911,
                "x": -0.4908360881923452,
                "y": 0.5182115481033761,
                "z": -0.48164630358495003
            },
            "position": {
                "x": 0.5540239810943604,
                "y": -0.46912469901144505,
                "z": 0.16403168439865112
            }
        },
        "name": "move_to_storage_B"
    },
    "id": "BiTRRT_move_to_storage_B_87",
    "joint_names": [
        "shoulder_pan_joint",
        "shoulder_lift_joint",
        "elbow_joint",
        "wrist_1_joint",
        "wrist_2_joint",
        "wrist_3_joint"
    ],
    "metrics": {
        "cart_traj_len": 0.7169715946944147,
        "distance_elbow_joint": 0.35191451367864657,
        "distance_shoulder_lift_joint": 0.46037458226157035,
        "distance_shoulder_pan_joint": 0.1810851707840685,
        "distance_wrist_1_joint": 2.99410718456871,
        "distance_wrist_2_joint": 2.7043470605262776,
        "distance_wrist_3_joint": 3.1294656874736,
        "smoothness": 6.250144465429184e-16,
        "time": 0.095903435,
        "traj_len": 3.1338944141902534,
        "weighted_distance": 4.666763312975607
    },
    "planner": "BiTRRT",
    "start": {
        "state": {
            "elbow_joint": 1.664937868594044,
            "shoulder_lift_joint": -0.661644460510453,
            "shoulder_pan_joint": -0.9139846352900073,
            "wrist_1_joint": 2.146753192139373,
            "wrist_2_joint": -2.2341966793290973,
            "wrist_3_joint": 0.005466555786416001
        }
    },
    "waypoints": [
        {
            "positions": [
                -0.9139846352900073,
                -0.661644460510453,
                1.664937868594044,
                2.146753192139373,
                -2.2341966793290973,
                0.005466555786416001
            ]
        },
        {
            "positions": [
                -0.9145877816537281,
                -0.6845525936804449,
                1.680852358390693,
                2.014450964566665,
                -2.1246710022294506,
                -0.09002941427054059
            ]
        },
        {
            "positions": [
                -0.9151909280174491,
                -0.7074607268504367,
                1.6967668481873417,
                1.882148736993956,
                -2.015145325129804,
                -0.18552538432749718
            ]
        },
        {
            "positions": [
                -0.9157940743811699,
                -0.7303688600204286,
                1.7126813379839907,
                1.7498465094212476,
                -1.9056196480301573,
                -0.2810213543844537
            ]
        },
        {
            "positions": [
                -0.9163972207448907,
                -0.7532769931904204,
                1.7285958277806395,
                1.6175442818485388,
                -1.7960939709305106,
                -0.37651732444141034
            ]
        },
        {
            "positions": [
                -0.9170003671086115,
                -0.7761851263604123,
                1.7445103175772885,
                1.4852420542758304,
                -1.686568293830864,
                -0.4720132944983669
            ]
        },
        {
            "positions": [
                -0.9176035134723325,
                -0.799093259530404,
                1.7604248073739375,
                1.352939826703122,
                -1.5770426167312173,
                -0.5675092645553235
            ]
        },
        {
            "positions": [
                -0.9182066598360533,
                -0.8220013927003958,
                1.7763392971705863,
                1.2206375991304133,
                -1.4675169396315706,
                -0.66300523461228
            ]
        },
        {
            "positions": [
                -0.9188098061997741,
                -0.8449095258703877,
                1.7922537869672353,
                1.0883353715577047,
                -1.357991262531924,
                -0.7585012046692368
            ]
        },
        {
            "positions": [
                -0.9194129525634951,
                -0.8678176590403796,
                1.808168276763884,
                0.9560331439849963,
                -1.2484655854322773,
                -0.8539971747261933
            ]
        },
        {
            "positions": [
                -0.9200160989272159,
                -0.8907257922103714,
                1.824082766560533,
                0.8237309164122877,
                -1.1389399083326306,
                -0.9494931447831498
            ]
        },
        {
            "positions": [
                -0.9206192452909367,
                -0.9136339253803633,
                1.839997256357182,
                0.6914286888395791,
                -1.029414231232984,
                -1.0449891148401065
            ]
        },
        {
            "positions": [
                -0.9212223916546577,
                -0.936542058550355,
                1.8559117461538308,
                0.5591264612668707,
                -0.9198885541333373,
                -1.140485084897063
            ]
        },
        {
            "positions": [
                -0.9218255380183785,
                -0.959450191720347,
                1.8718262359504798,
                0.4268242336941619,
                -0.8103628770336906,
                -1.2359810549540196
            ]
        },
        {
            "positions": [
                -0.9224286843820994,
                -0.9823583248903387,
                1.8877407257471286,
                0.2945220061214535,
                -0.7008371999340439,
                -1.331477025010976
            ]
        },
        {
            "positions": [
                -0.9230318307458203,
                -1.0052664580603305,
                1.9036552155437776,
                0.16221977854874492,
                -0.5913115228343973,
                -1.4269729950679328
            ]
        },
        {
            "positions": [
                -0.9236349771095411,
                -1.0281745912303224,
                1.9195697053404266,
                0.0299175509760361,
                -0.4817858457347506,
                -1.5224689651248895
            ]
        },
        {
            "positions": [
                -0.924238123473262,
                -1.0510827244003142,
                1.9354841951370754,
                -0.10238467659667227,
                -0.3722601686351039,
                -1.617964935181846
            ]
        },
        {
            "positions": [
                -0.9248412698369828,
                -1.073990857570306,
                1.9513986849337244,
                -0.23468690416938065,
                -0.26273449153545725,
                -1.7134609052388026
            ]
        },
        {
            "positions": [
                -0.9254444162007037,
                -1.096898990740298,
                1.9673131747303731,
                -0.366989131742089,
                -0.15320881443581058,
                -1.808956875295759
            ]
        },
        {
            "positions": [
                -0.9260475625644246,
                -1.1198071239102898,
                1.9832276645270221,
                -0.49929135931479773,
                -0.043683137336164024,
                -1.9044528453527156
            ]
        },
        {
            "positions": [
                -0.9542179364826997,
                -1.120175777053912,
                1.9888317841513001,
                -0.5573017981672208,
                0.04195578241939338,
                -2.1077105597417938
            ]
        },
        {
            "positions": [
                -0.982388310400975,
                -1.1205444301975342,
                1.9944359037755783,
                -0.6153122370196438,
                0.12759470217495078,
                -2.3109682741308717
            ]
        },
        {
            "positions": [
                -1.0105586843192502,
                -1.1209130833411565,
                2.0000400233998565,
                -0.6733226758720668,
                0.2132336219305082,
                -2.51422598851995
            ]
        },
        {
            "positions": [
                -1.0387290582375255,
                -1.121281736484779,
                2.0056441430241345,
                -0.7313331147244899,
                0.2988725416860656,
                -2.717483702909028
            ]
        },
        {
            "positions": [
                -1.0668994321558005,
                -1.1216503896284011,
                2.0112482626484125,
                -0.7893435535769129,
                0.38451146144162307,
                -2.920741417298106
            ]
        },
        {
            "positions": [
                -1.0950698060740758,
                -1.1220190427720234,
                2.0168523822726905,
                -0.847353992429336,
                0.47015038119718044,
                -3.1239991316871842
            ]
        }
    ]
}