{
    "goal": {
        "global_pose": {
            "orientation": {
                "w": -0.4816463035849501,
                "x": 0.5182115481033762,
                "y": 0.4908360881923453,
                "z": -0.5084816262002911
            },
            "position": {
                "x": -0.8240239810943604,
                "y": -0.300875300988555,
                "z": 0.16403168439865112
            }
        },
        "name": "move_to_storage_C"
    },
    "id": "BiTRRT_move_to_storage_C_42",
    "joint_names": [
        "shoulder_pan_joint",
        "shoulder_lift_joint",
        "elbow_joint",
        "wrist_1_joint",
        "wrist_2_joint",
        "wrist_3_joint"
    ],
    "metrics": {
        "cart_traj_len": 0.5771238526325391,
        "distance_elbow_joint": 0.25699443168954916,
        "distance_shoulder_lift_joint": 0.18932841560064195,
        "distance_shoulder_pan_joint": 0.4949097097961679,
        "distance_wrist_1_joint": 0.06784747700992999,
        "distance_wrist_2_joint": 1.0660376747087787,
        "distance_wrist_3_joint": 0.0703182826474098,
        "smoothness": 0.0,
        "time": 0.057030825,
        "traj_len": 1.4647306890525909,
        "weighted_distance": 1.8493127665341
    },
    "planner": "BiTRRT",
    "start": {
        "state": {
            "elbow_joint": 2.010868314990456,
            "shoulder_lift_joint": -1.1634956873337592,
            "shoulder_pan_joint": -2.4736205022346125,
            "wrist_1_joint": -0.8367026794202681,
            "wrist_2_joint": 0.6746043897044499,
            "wrist_3_joint": -3.1496632123970403
        }
    },
    "waypoints": [
        {
            "positions": [
                -2.4736205022346125,
                -1.1634956873337592,
                2.010868314990456,
                -0.8367026794202681,
                0.6746043897044499,
                -3.1496632123970403
            ]
        },
        {
            "positions": [
                -2.556105453867307,
                -1.131940951400319,
                1.9680359097088642,
                -0.8253947665852798,
                0.8522773354892463,
                -3.137943498622472
            ]
        },
        {
            "positions": [
                -2.638590405500002,
                -1.1003862154668784,
                1.9252035044272728,
                -0.8140868537502914,
                1.0299502812740429,
                -3.1262237848479035
            ]
        },
        {
            "positions": [
                -2.7210753571326967,
                -1.0688314795334382,
                1.8823710991456812,
                -0.8027789409153031,
                1.2076232270588392,
                -3.1145040710733354
            ]
        },
        {
            "positions": [
                -2.803560308765391,
                -1.0372767435999979,
                1.8395386938640896,
                -0.7914710280803148,
                1.3852961728436357,
                -3.1027843572987672
            ]
        },
        {
            "positions": [
                -2.8860452603980855,
                -1.0057220076665576,
                1.7967062885824983,
                -0.7801631152453264,
                1.5629691186284322,
                -3.0910646435241986
            ]
        },
        {
            "positions": [
                -2.9685302120307804,
                -0.9741672717331172,
                1.7538738833009067,
                -0.7688552024103381,
                1.7406420644132288,
                -3.0793449297496305
            ]
        }
    ]
}