{
    "goal": {
        "global_pose": {
            "orientation": {
                "w": 0.7031023502349854,
                "x": -0.7110244035720825,
                "y": 0.007748599164187908,
                "z": 0.005598929710686207
            },
            "position": {
                "x": 0.11585023208521307,
                "y": 0.44412534475326537,
                "z": 0.3711530566215515
            }
        },
        "name": "move_to_auspresseinheit_A"
    },
    "id": "BiTRRT_move_to_auspresseinheit_A_98",
    "joint_names": [
        "shoulder_pan_joint",
        "shoulder_lift_joint",
        "elbow_joint",
        "wrist_1_joint",
        "wrist_2_joint",
        "wrist_3_joint"
    ],
    "metrics": {
        "cart_traj_len": 0.6613526185417815,
        "distance_elbow_joint": 0.036336251133578745,
        "distance_shoulder_lift_joint": 0.5316665663602576,
        "distance_shoulder_pan_joint": 1.0423181354903106,
        "distance_wrist_1_joint": 0.9699777928904023,
        "distance_wrist_2_joint": 0.7035110969026921,
        "distance_wrist_3_joint": 0.47512544650249566,
        "smoothness": 0.9016769656363902,
        "time": 0.055842591,
        "traj_len": 1.9387973822139686,
        "weighted_distance": 2.5263956681560833
    },
    "planner": "BiTRRT",
    "start": {
        "state": {
            "elbow_joint": 2.4225746658250005,
            "shoulder_lift_joint": -1.3736534386056498,
            "shoulder_pan_joint": -0.3378633547517467,
            "wrist_1_joint": -1.0288598680537169,
            "wrist_2_joint": 1.233022673432363,
            "wrist_3_joint": -3.0940220416140027
        }
    },
    "waypoints": [
        {
            "positions": [
                -0.3378633547517467,
                -1.3736534386056498,
                2.4225746658250005,
                -1.0288598680537169,
                1.233022673432363,
                -3.0940220416140027
            ]
        },
        {
            "positions": [
                -0.26100675524322214,
                -1.4186332995543594,
                2.423128481843961,
                -0.9013356317858257,
                1.1299514259258863,
                -3.0576971988390986
            ]
        },
        {
            "positions": [
                -0.18415015573469756,
                -1.4636131605030689,
                2.4236822978629218,
                -0.7738113955179344,
                1.0268801784194097,
                -3.021372356064195
            ]
        },
        {
            "positions": [
                -0.10729355622617295,
                -1.5085930214517784,
                2.424236113881882,
                -0.6462871592500431,
                0.9238089309129329,
                -2.985047513289291
            ]
        },
        {
            "positions": [
                -0.0304369567176484,
                -1.5535728824004882,
                2.4247899299008426,
                -0.5187629229821519,
                0.8207376834064563,
                -2.9487226705143867
            ]
        },
        {
            "positions": [
                0.04641964279087624,
                -1.5985527433491977,
                2.4253437459198035,
                -0.39123868671426054,
                0.7176664358999795,
                -2.912397827739483
            ]
        },
        {
            "positions": [
                0.12327624229940083,
                -1.6435326042979073,
                2.425897561938764,
                -0.26371445044636926,
                0.6145951883935028,
                -2.876072984964579
            ]
        },
        {
            "positions": [
                0.2685708769091916,
                -1.7089794544649073,
                2.4176442231838102,
                -0.31492254426713295,
                0.6358660913594607,
                -2.940367082427847
            ]
        },
        {
            "positions": [
                0.4138655115189824,
                -1.7744263046319073,
                2.4093908844288565,
                -0.3661306380878966,
                0.6571369943254187,
                -3.004661179891115
            ]
        },
        {
            "positions": [
                0.5591601461287732,
                -1.8398731547989073,
                2.4011375456739024,
                -0.4173387319086603,
                0.6784078972913767,
                -3.068955277354383
            ]
        },
        {
            "positions": [
                0.7044547807385639,
                -1.9053200049659074,
                2.3928842069189487,
                -0.46854682572942397,
                0.6996788002573346,
                -3.133249374817651
            ]
        }
    ]
}