{
    "goal": {
        "global_pose": {
            "orientation": {
                "w": 0.7047431493862688,
                "x": -0.7094548369677653,
                "y": 0.0024358444001904,
                "z": -0.0022348060817251984
            },
            "position": {
                "x": -0.39052492380142206,
                "y": 0.3671506643295288,
                "z": 0.19426114857196808
            }
        },
        "name": "move_to_magneteinheit_D"
    },
    "id": "BiTRRT_move_to_magneteinheit_D_108",
    "joint_names": [
        "shoulder_pan_joint",
        "shoulder_lift_joint",
        "elbow_joint",
        "wrist_1_joint",
        "wrist_2_joint",
        "wrist_3_joint"
    ],
    "metrics": {
        "cart_traj_len": 6.736881024088573,
        "distance_elbow_joint": 3.1093820516365436,
        "distance_shoulder_lift_joint": 4.948436649286535,
        "distance_shoulder_pan_joint": 4.3057857827607675,
        "distance_wrist_1_joint": 2.7478346781366705,
        "distance_wrist_2_joint": 2.5588128909218524,
        "distance_wrist_3_joint": 6.333977211899161,
        "smoothness": 0.43949897191570025,
        "time": 0.119766517,
        "traj_len": 4.899411114066827,
        "weighted_distance": 6.479107288623826
    },
    "planner": "BiTRRT",
    "start": {
        "state": {
            "elbow_joint": 0.749534889911806,
            "shoulder_lift_joint": -0.6476975780787326,
            "shoulder_pan_joint": -2.711696901376241,
            "wrist_1_joint": -0.07506478083263063,
            "wrist_2_joint": 0.43296659715538205,
            "wrist_3_joint": -3.14703540197715
        }
    },
    "waypoints": [
        {
            "positions": [
                -2.711696901376241,
                -0.6476975780787326,
                0.749534889911806,
                -0.07506478083263063,
                0.43296659715538205,
                -3.14703540197715
            ]
        },
        {
            "positions": [
                -2.710396154124546,
                -0.7615556662601827,
                0.6905535616776034,
                -0.16992197618340238,
                0.47209545378670315,
                -3.0743875516139427
            ]
        },
        {
            "positions": [
                -2.70909540687285,
                -0.8754137544416327,
                0.6315722334434009,
                -0.2647791715341741,
                0.5112243104180243,
                -3.001739701250736
            ]
        },
        {
            "positions": [
                -2.707794659621155,
                -0.9892718426230827,
                0.5725909052091983,
                -0.3596363668849459,
                0.5503531670493454,
                -2.9290918508875285
            ]
        },
        {
            "positions": [
                -2.7064939123694596,
                -1.1031299308045326,
                0.5136095769749958,
                -0.4544935622357176,
                0.5894820236806665,
                -2.8564440005243217
            ]
        },
        {
            "positions": [
                -2.7051931651177643,
                -1.2169880189859827,
                0.45462824874079316,
                -0.5493507575864893,
                0.6286108803119876,
                -2.7837961501611144
            ]
        },
        {
            "positions": [
                -2.7038924178660686,
                -1.330846107167433,
                0.3956469205065906,
                -0.6442079529372611,
                0.6677397369433088,
                -2.711148299797907
            ]
        },
        {
            "positions": [
                -2.7025916706143733,
                -1.4447041953488826,
                0.3366655922723881,
                -0.7390651482880328,
                0.7068685935746299,
                -2.6385004494347
            ]
        },
        {
            "positions": [
                -2.701290923362678,
                -1.5585622835303328,
                0.2776842640381855,
                -0.8339223436388046,
                0.745997450205951,
                -2.565852599071493
            ]
        },
        {
            "positions": [
                -2.6999901761109824,
                -1.6724203717117827,
                0.21870293580398292,
                -0.9287795389895763,
                0.7851263068372721,
                -2.493204748708286
            ]
        },
        {
            "positions": [
                -2.698689428859287,
                -1.7862784598932329,
                0.15972160756978038,
                -1.023636734340348,
                0.8242551634685933,
                -2.4205568983450787
            ]
        },
        {
            "positions": [
                -2.697388681607592,
                -1.9001365480746828,
                0.10074027933557783,
                -1.1184939296911198,
                0.8633840200999143,
                -2.3479090479818714
            ]
        },
        {
            "positions": [
                -2.696087934355896,
                -2.013994636256133,
                0.041758951101375286,
                -1.2133511250418916,
                0.9025128767312355,
                -2.2752611976186645
            ]
        },
        {
            "positions": [
                -2.694787187104201,
                -2.1278527244375827,
                -0.01722237713282715,
                -1.308208320392663,
                0.9416417333625566,
                -2.2026133472554577
            ]
        },
        {
            "positions": [
                -2.6934864398525056,
                -2.241710812619033,
                -0.0762037053670297,
                -1.4030655157434349,
                0.9807705899938777,
                -2.1299654968922503
            ]
        },
        {
            "positions": [
                -2.6921856926008103,
                -2.355568900800483,
                -0.13518503360123235,
                -1.4979227110942066,
                1.0198994466251987,
                -2.057317646529043
            ]
        },
        {
            "positions": [
                -2.6908849453491146,
                -2.469426988981933,
                -0.1941663618354349,
                -1.5927799064449784,
                1.05902830325652,
                -1.984669796165836
            ]
        },
        {
            "positions": [
                -2.6895841980974193,
                -2.583285077163383,
                -0.25314769006963744,
                -1.68763710179575,
                1.098157159887841,
                -1.9120219458026289
            ]
        },
        {
            "positions": [
                -2.6082724092815397,
                -2.512010808942506,
                -0.29886074773788074,
                -1.675809527949903,
                1.0539456875343887,
                -1.7838689524515878
            ]
        },
        {
            "positions": [
                -2.5269606204656605,
                -2.440736540721629,
                -0.34457380540612403,
                -1.6639819541040561,
                1.0097342151809363,
                -1.6557159591005468
            ]
        },
        {
            "positions": [
                -2.4456488316497813,
                -2.369462272500752,
                -0.39028686307436733,
                -1.652154380258209,
                0.965522742827484,
                -1.5275629657495058
            ]
        },
        {
            "positions": [
                -2.3643370428339017,
                -2.2981880042798752,
                -0.4359999207426106,
                -1.6403268064123622,
                0.9213112704740316,
                -1.3994099723984648
            ]
        },
        {
            "positions": [
                -2.283025254018022,
                -2.2269137360589983,
                -0.4817129784108539,
                -1.628499232566515,
                0.8770997981205793,
                -1.2712569790474237
            ]
        },
        {
            "positions": [
                -2.201713465202143,
                -2.1556394678381214,
                -0.5274260360790972,
                -1.616671658720668,
                0.8328883257671269,
                -1.1431039856963827
            ]
        },
        {
            "positions": [
                -2.1204016763862636,
                -2.0843651996172445,
                -0.5731390937473404,
                -1.604844084874821,
                0.7886768534136746,
                -1.0149509923453417
            ]
        },
        {
            "positions": [
                -2.039089887570384,
                -2.0130909313963676,
                -0.6188521514155838,
                -1.593016511028974,
                0.7444653810602223,
                -0.8867979989943009
            ]
        },
        {
            "positions": [
                -1.9577780987545046,
                -1.941816663175491,
                -0.664565209083827,
                -1.581188937183127,
                0.70025390870677,
                -0.7586450056432599
            ]
        },
        {
            "positions": [
                -1.8764663099386252,
                -1.870542394954614,
                -0.7102782667520704,
                -1.56936136333728,
                0.6560424363533176,
                -0.6304920122922189
            ]
        },
        {
            "positions": [
                -1.7951545211227458,
                -1.7992681267337371,
                -0.7559913244203136,
                -1.557533789491433,
                0.6118309639998653,
                -0.5023390189411778
            ]
        },
        {
            "positions": [
                -1.7138427323068663,
                -1.7279938585128602,
                -0.8017043820885569,
                -1.5457062156455859,
                0.5676194916464129,
                -0.3741860255901368
            ]
        },
        {
            "positions": [
                -1.632530943490987,
                -1.6567195902919833,
                -0.8474174397568002,
                -1.533878641799739,
                0.5234080192929605,
                -0.24603303223909578
            ]
        },
        {
            "positions": [
                -1.5512191546751075,
                -1.5854453220711067,
                -0.8931304974250435,
                -1.522051067953892,
                0.4791965469395082,
                -0.11788003888805476
            ]
        },
        {
            "positions": [
                -1.4699073658592279,
                -1.5141710538502295,
                -0.9388435550932869,
                -1.510223494108045,
                0.43498507458605584,
                0.010272954462986261
            ]
        },
        {
            "positions": [
                -1.3885955770433487,
                -1.4428967856293526,
                -0.9845566127615301,
                -1.498395920262198,
                0.3907736022326036,
                0.13842594781402706
            ]
        },
        {
            "positions": [
                -1.307283788227469,
                -1.3716225174084757,
                -1.0302696704297736,
                -1.4865683464163508,
                0.34656212987915114,
                0.26657894116506853
            ]
        },
        {
            "positions": [
                -1.2259719994115899,
                -1.300348249187599,
                -1.0759827280980168,
                -1.474740772570504,
                0.3023506575256989,
                0.3947319345161091
            ]
        },
        {
            "positions": [
                -1.1446602105957102,
                -1.229073980966722,
                -1.12169578576626,
                -1.4629131987246569,
                0.25813918517224643,
                0.5228849278671501
            ]
        },
        {
            "positions": [
                -1.063348421779831,
                -1.1577997127458453,
                -1.1674088434345031,
                -1.45108562487881,
                0.2139277128187942,
                0.6510379212181912
            ]
        },
        {
            "positions": [
                -0.9820366329639514,
                -1.0865254445249681,
                -1.2131219011027465,
                -1.439258051032963,
                0.16971624046534173,
                0.7791909145692322
            ]
        },
        {
            "positions": [
                -0.9007248441480722,
                -1.0152511763040915,
                -1.2588349587709897,
                -1.4274304771871158,
                0.1255047681118895,
                0.9073439079202732
            ]
        },
        {
            "positions": [
                -0.8194130553321926,
                -0.9439769080832145,
                -1.3045480164392331,
                -1.4156029033412687,
                0.08129329575843713,
                1.0354969012713142
            ]
        },
        {
            "positions": [
                -0.7381012665163134,
                -0.8727026398623376,
                -1.3502610741074763,
                -1.4037753294954218,
                0.03708182340498478,
                1.1636498946223552
            ]
        },
        {
            "positions": [
                -0.6567894777004337,
                -0.8014283716414607,
                -1.3959741317757197,
                -1.3919477556495747,
                -0.007129648948467571,
                1.2918028879733963
            ]
        },
        {
            "positions": [
                -0.5754776888845545,
                -0.7301541034205838,
                -1.441687189443963,
                -1.3801201818037279,
                -0.05134112130191992,
                1.4199558813244373
            ]
        },
        {
            "positions": [
                -0.4941659000686749,
                -0.658879835199707,
                -1.4874002471122063,
                -1.3682926079578808,
                -0.09555259365537219,
                1.548108874675478
            ]
        },
        {
            "positions": [
                -0.3443487334005139,
                -0.6732403188373572,
                -1.5343637506551304,
                -1.3751262014049843,
                -0.05659202067565655,
                1.6639403614938995
            ]
        },
        {
            "positions": [
                -0.19453156673235295,
                -0.6876008024750075,
                -1.5813272541980545,
                -1.381959794852088,
                -0.01763144769594091,
                1.7797718483123208
            ]
        },
        {
            "positions": [
                -0.04471440006419197,
                -0.7019612861126577,
                -1.6282907577409786,
                -1.3887933882991916,
                0.02132912528377473,
                1.8956033351307422
            ]
        },
        {
            "positions": [
                0.105102766603969,
                -0.7163217697503079,
                -1.6752542612839028,
                -1.3956269817462954,
                0.06028969826349037,
                2.0114348219491633
            ]
        },
        {
            "positions": [
                0.2549199332721299,
                -0.7306822533879582,
                -1.722217764826827,
                -1.402460575193399,
                0.09925027124320601,
                2.127266308767585
            ]
        },
        {
            "positions": [
                0.40473709994029095,
                -0.7450427370256084,
                -1.7691812683697512,
                -1.4092941686405025,
                0.13821084422292165,
                2.243097795586006
            ]
        },
        {
            "positions": [
                0.554554266608452,
                -0.7594032206632587,
                -1.8161447719126753,
                -1.4161277620876063,
                0.17717141720263727,
                2.3589292824044277
            ]
        },
        {
            "positions": [
                0.7043714332766128,
                -0.7737637043009089,
                -1.8631082754555994,
                -1.4229613555347098,
                0.21613199018235296,
                2.474760769222849
            ]
        },
        {
            "positions": [
                0.6199531406889847,
                -0.8540074789604823,
                -1.9112755814510831,
                -1.4928411960216825,
                0.1819406730503073,
                2.5442889887384887
            ]
        },
        {
            "positions": [
                0.5355348481013564,
                -0.9342512536200559,
                -1.959442887446567,
                -1.562721036508655,
                0.14774935591826166,
                2.613817208254128
            ]
        },
        {
            "positions": [
                0.45111655551372837,
                -1.0144950282796295,
                -2.007610193442051,
                -1.6326008769956277,
                0.11355803878621602,
                2.683345427769768
            ]
        },
        {
            "positions": [
                0.3666982629261002,
                -1.094738802939203,
                -2.055777499437535,
                -1.7024807174826004,
                0.07936672165417039,
                2.7528736472854076
            ]
        },
        {
            "positions": [
                0.2822799703384721,
                -1.1749825775987763,
                -2.1039448054330183,
                -1.7723605579695731,
                0.045175404522124735,
                2.8224018668010475
            ]
        },
        {
            "positions": [
                0.19786167775084396,
                -1.2552263522583498,
                -2.1521121114285022,
                -1.8422403984565456,
                0.010984087390079084,
                2.8919300863166875
            ]
        },
        {
            "positions": [
                0.11344338516321584,
                -1.3354701269179232,
                -2.200279417423986,
                -1.9121202389435183,
                -0.02320722974196654,
                2.961458305832327
            ]
        },
        {
            "positions": [
                0.029025092575587608,
                -1.4157139015774969,
                -2.2484467234194696,
                -1.9820000794304908,
                -0.05739854687401219,
                3.030986525347967
            ]
        },
        {
            "positions": [
                -0.05539320001204051,
                -1.4959576762370703,
                -2.2966140294149535,
                -2.0518799199174635,
                -0.09158986400605784,
                3.100514744863607
            ]
        },
        {
            "positions": [
                -0.13981149259966857,
                -1.5762014508966438,
                -2.3447813354104374,
                -2.1217597604044363,
                -0.1257811811381035,
                3.1700429643792463
            ]
        },
        {
            "positions": [
                -0.1853460148312992,
                -1.747323743437917,
                -2.3598471617247387,
                -2.1842104712935617,
                -0.17209600062610053,
                3.1531441188364777
            ]
        }
    ]
}