{
    "goal": {
        "global_pose": {
            "orientation": {
                "w": 0.7047431493862688,
                "x": -0.7094548369677653,
                "y": 0.0024358444001904,
                "z": -0.0022348060817251984
            },
            "position": {
                "x": -0.39052492380142206,
                "y": 0.3671506643295288,
                "z": 0.19426114857196808
            }
        },
        "name": "move_to_magneteinheit_D"
    },
    "id": "BiTRRT_move_to_magneteinheit_D_114",
    "joint_names": [
        "shoulder_pan_joint",
        "shoulder_lift_joint",
        "elbow_joint",
        "wrist_1_joint",
        "wrist_2_joint",
        "wrist_3_joint"
    ],
    "metrics": {
        "cart_traj_len": 5.959479722033144,
        "distance_elbow_joint": 3.1477076861816427,
        "distance_shoulder_lift_joint": 3.1144249624273534,
        "distance_shoulder_pan_joint": 6.1837110905248975,
        "distance_wrist_1_joint": 2.6300676982704,
        "distance_wrist_2_joint": 4.506279520373574,
        "distance_wrist_3_joint": 3.2328586735498224,
        "smoothness": 0.4512611131550732,
        "time": 0.197983913,
        "traj_len": 4.7765101937845476,
        "weighted_distance": 6.034659410196348
    },
    "planner": "BiTRRT",
    "start": {
        "state": {
            "elbow_joint": 0.749534889911806,
            "shoulder_lift_joint": -0.6476975780787326,
            "shoulder_pan_joint": -2.711696901376241,
            "wrist_1_joint": -0.07506478083263063,
            "wrist_2_joint": 0.43296659715538205,
            "wrist_3_joint": -3.14703540197715
        }
    },
    "waypoints": [
        {
            "positions": [
                -2.711696901376241,
                -0.6476975780787326,
                0.749534889911806,
                -0.07506478083263063,
                0.43296659715538205,
                -3.14703540197715
            ]
        },
        {
            "positions": [
                -2.724959532394464,
                -0.6442907121875018,
                0.715868811868655,
                0.002921485957001174,
                0.33255294117447826,
                -2.988471597239057
            ]
        },
        {
            "positions": [
                -2.738222163412687,
                -0.6408838462962708,
                0.682202733825504,
                0.08090775274663298,
                0.23213928519357444,
                -2.829907792500964
            ]
        },
        {
            "positions": [
                -2.75148479443091,
                -0.63747698040504,
                0.6485366557823531,
                0.15889401953626478,
                0.13172562921267061,
                -2.671343987762871
            ]
        },
        {
            "positions": [
                -2.690600143175306,
                -0.7488802734309484,
                0.5375551389371889,
                0.22352480519181014,
                0.12583247574612194,
                -2.638949314176345
            ]
        },
        {
            "positions": [
                -2.6297154919197023,
                -0.8602835664568569,
                0.4265736220920246,
                0.28815559084735554,
                0.1199393222795733,
                -2.6065546405898194
            ]
        },
        {
            "positions": [
                -2.5688308406640985,
                -0.9716868594827653,
                0.3155921052468603,
                0.3527863765029009,
                0.11404616881302464,
                -2.574159967003294
            ]
        },
        {
            "positions": [
                -2.5079461894084947,
                -1.0830901525086738,
                0.2046105884016961,
                0.41741716215844626,
                0.10815301534647598,
                -2.5417652934167685
            ]
        },
        {
            "positions": [
                -2.381494320330739,
                -1.1084691066653374,
                0.15424322053905998,
                0.4380438281532975,
                0.14144526648996408,
                -2.4214988093464287
            ]
        },
        {
            "positions": [
                -2.255042451252983,
                -1.1338480608220012,
                0.10387585267642387,
                0.45867049414814876,
                0.17473751763345216,
                -2.301232325276089
            ]
        },
        {
            "positions": [
                -2.1285905821752276,
                -1.1592270149786648,
                0.053508484813787754,
                0.479297160143,
                0.20802976877694024,
                -2.180965841205749
            ]
        },
        {
            "positions": [
                -2.0021387130974717,
                -1.1846059691353283,
                0.003141116951151629,
                0.49992382613785125,
                0.24132201992042834,
                -2.0606993571354093
            ]
        },
        {
            "positions": [
                -1.875686844019716,
                -1.2099849232919921,
                -0.04722625091148447,
                0.5205504921327025,
                0.27461427106391645,
                -1.9404328730650697
            ]
        },
        {
            "positions": [
                -1.7492349749419605,
                -1.2353638774486557,
                -0.0975936187741206,
                0.5411771581275537,
                0.3079065222074045,
                -1.8201663889947302
            ]
        },
        {
            "positions": [
                -1.6227831058642046,
                -1.2607428316053193,
                -0.14796098663675672,
                0.561803824122405,
                0.3411987733508926,
                -1.6998999049243904
            ]
        },
        {
            "positions": [
                -1.4963312367864487,
                -1.286121785761983,
                -0.19832835449939284,
                0.5824304901172563,
                0.3744910244943807,
                -1.5796334208540506
            ]
        },
        {
            "positions": [
                -1.3698793677086931,
                -1.3115007399186467,
                -0.24869572236202903,
                0.6030571561121075,
                0.4077832756378688,
                -1.4593669367837105
            ]
        },
        {
            "positions": [
                -1.2434274986309375,
                -1.3368796940753103,
                -0.29906309022466504,
                0.6236838221069587,
                0.44107552678135686,
                -1.339100452713371
            ]
        },
        {
            "positions": [
                -1.1169756295531816,
                -1.362258648231974,
                -0.3494304580873013,
                0.64431048810181,
                0.47436777792484497,
                -1.2188339686430312
            ]
        },
        {
            "positions": [
                -0.9569481971075324,
                -1.3190485175562083,
                -0.3619056657696672,
                0.6113876361228647,
                0.5778645210518226,
                -1.1784385792227994
            ]
        },
        {
            "positions": [
                -0.7969207646618832,
                -1.2758383868804424,
                -0.3743808734520332,
                0.5784647841439194,
                0.6813612641788003,
                -1.1380431898025674
            ]
        },
        {
            "positions": [
                -0.636893332216234,
                -1.2326282562046766,
                -0.3868560811343991,
                0.5455419321649742,
                0.784858007305778,
                -1.0976478003823356
            ]
        },
        {
            "positions": [
                -0.4768658997705849,
                -1.189418125528911,
                -0.39933128881676505,
                0.5126190801860289,
                0.8883547504327556,
                -1.0572524109621035
            ]
        },
        {
            "positions": [
                -0.3168384673249356,
                -1.1462079948531452,
                -0.41180649649913104,
                0.47969622820708346,
                0.9918514935597333,
                -1.0168570215418717
            ]
        },
        {
            "positions": [
                -0.15681103487928638,
                -1.1029978641773792,
                -0.42428170418149697,
                0.4467733762281382,
                1.095348236686711,
                -0.9764616321216397
            ]
        },
        {
            "positions": [
                0.0032163975663626054,
                -1.0597877335016135,
                -0.4367569118638629,
                0.4138505242491929,
                1.1988449798136886,
                -0.9360662427014079
            ]
        },
        {
            "positions": [
                0.16324383001201181,
                -1.0165776028258477,
                -0.4492321195462289,
                0.3809276722702476,
                1.3023417229406662,
                -0.8956708532811759
            ]
        },
        {
            "positions": [
                0.32327126245766125,
                -0.9733674721500818,
                -0.4617073272285948,
                0.3480048202913023,
                1.4058384660676442,
                -0.8552754638609441
            ]
        },
        {
            "positions": [
                0.48329869490331046,
                -0.9301573414743161,
                -0.47418253491096074,
                0.31508196831235696,
                1.5093352091946217,
                -0.8148800744407121
            ]
        },
        {
            "positions": [
                0.6433261273489597,
                -0.8869472107985503,
                -0.4866577425933267,
                0.2821591163334117,
                1.6128319523215995,
                -0.7744846850204803
            ]
        },
        {
            "positions": [
                0.8033535597946089,
                -0.8437370801227845,
                -0.4991329502756927,
                0.24923626435446639,
                1.716328695448577,
                -0.7340892956002483
            ]
        },
        {
            "positions": [
                0.9633809922402579,
                -0.8005269494470187,
                -0.5116081579580586,
                0.2163134123755211,
                1.8198254385755546,
                -0.6936939061800165
            ]
        },
        {
            "positions": [
                1.1234084246859068,
                -0.7573168187712529,
                -0.5240833656404246,
                0.1833905603965758,
                1.9233221817025323,
                -0.6532985167597846
            ]
        },
        {
            "positions": [
                1.2834358571315563,
                -0.714106688095487,
                -0.5365585733227904,
                0.15046770841763052,
                2.0268189248295103,
                -0.6129031273395527
            ]
        },
        {
            "positions": [
                1.4434632895772053,
                -0.6708965574197213,
                -0.5490337810051564,
                0.11754485643868517,
                2.130315667956488,
                -0.5725077379193207
            ]
        },
        {
            "positions": [
                1.6034907220228547,
                -0.6276864267439555,
                -0.5615089886875224,
                0.08462200445973989,
                2.2338124110834654,
                -0.5321123484990888
            ]
        },
        {
            "positions": [
                1.5297964715004484,
                -0.6960534216890906,
                -0.6377670672970244,
                0.1398674792534239,
                2.1483106443094897,
                -0.5064492521025453
            ]
        },
        {
            "positions": [
                1.456102220978042,
                -0.7644204166342257,
                -0.7140251459065263,
                0.19511295404710793,
                2.0628088775355136,
                -0.48078615570600186
            ]
        },
        {
            "positions": [
                1.3824079704556358,
                -0.8327874115793608,
                -0.7902832245160283,
                0.25035842884079196,
                1.9773071107615379,
                -0.4551230593094584
            ]
        },
        {
            "positions": [
                1.3087137199332295,
                -0.9011544065244959,
                -0.8665413031255301,
                0.305603903634476,
                1.8918053439875622,
                -0.4294599629129149
            ]
        },
        {
            "positions": [
                1.2350194694108232,
                -0.969521401469631,
                -0.9427993817350322,
                0.36084937842816006,
                1.806303577213586,
                -0.40379686651637137
            ]
        },
        {
            "positions": [
                1.1613252188884169,
                -1.037888396414766,
                -1.0190574603445341,
                0.4160948532218441,
                1.7208018104396103,
                -0.3781337701198279
            ]
        },
        {
            "positions": [
                1.0876309683660106,
                -1.1062553913599011,
                -1.0953155389540359,
                0.47134032801552816,
                1.6353000436656344,
                -0.35247067372328444
            ]
        },
        {
            "positions": [
                1.0139367178436043,
                -1.1746223863050362,
                -1.1715736175635378,
                0.5265858028092121,
                1.5497982768916587,
                -0.32680757732674093
            ]
        },
        {
            "positions": [
                0.940242467321198,
                -1.2429893812501713,
                -1.2478316961730398,
                0.5818312776028962,
                1.4642965101176828,
                -0.3011444809301974
            ]
        },
        {
            "positions": [
                0.8665482167987917,
                -1.3113563761953064,
                -1.324089774782542,
                0.6370767523965802,
                1.3787947433437069,
                -0.27548138453365395
            ]
        },
        {
            "positions": [
                0.7928539662763854,
                -1.3797233711404415,
                -1.4003478533920437,
                0.6923222271902643,
                1.2932929765697312,
                -0.2498182881371105
            ]
        },
        {
            "positions": [
                0.7191597157539791,
                -1.4480903660855766,
                -1.4766059320015457,
                0.7475677019839483,
                1.2077912097957553,
                -0.22415519174056697
            ]
        },
        {
            "positions": [
                0.6454654652315729,
                -1.5164573610307115,
                -1.5528640106110476,
                0.8028131767776323,
                1.1222894430217796,
                -0.1984920953440235
            ]
        },
        {
            "positions": [
                0.5717712147091665,
                -1.5848243559758468,
                -1.6291220892205496,
                0.8580586515713164,
                1.0367876762478034,
                -0.17282899894748
            ]
        },
        {
            "positions": [
                0.4980769641867602,
                -1.653191350920982,
                -1.7053801678300515,
                0.9133041263650004,
                0.9512859094738277,
                -0.14716590255093653
            ]
        },
        {
            "positions": [
                0.42438271366435387,
                -1.721558345866117,
                -1.7816382464395533,
                0.9685496011586844,
                0.865784142699852,
                -0.12150280615439302
            ]
        },
        {
            "positions": [
                0.35068846314194757,
                -1.789925340811252,
                -1.8578963250490554,
                1.0237950759523686,
                0.7802823759258759,
                -0.0958397097578495
            ]
        },
        {
            "positions": [
                0.27699421261954127,
                -1.8582923357563872,
                -1.9341544036585572,
                1.0790405507460525,
                0.6947806091519002,
                -0.07017661336130604
            ]
        },
        {
            "positions": [
                0.20329996209713497,
                -1.9266593307015223,
                -2.010412482268059,
                1.1342860255397365,
                0.6092788423779245,
                -0.04451351696476258
            ]
        },
        {
            "positions": [
                0.12960571157472867,
                -1.9950263256466574,
                -2.086670560877561,
                1.1895315003334206,
                0.5237770756039484,
                -0.018850420568219062
            ]
        },
        {
            "positions": [
                0.055911461052322364,
                -2.0633933205917927,
                -2.1629286394870633,
                1.2447769751271045,
                0.4382753088299727,
                0.006812675828324455
            ]
        },
        {
            "positions": [
                -0.017782789470083937,
                -2.1317603155369276,
                -2.239186718096565,
                1.3000224499207886,
                0.352773542055997,
                0.03247577222486786
            ]
        },
        {
            "positions": [
                -0.09147703999249024,
                -2.2001273104820624,
                -2.3154447967060667,
                1.3552679247144728,
                0.26727177528202084,
                0.05813886862141138
            ]
        },
        {
            "positions": [
                -0.16517129051489643,
                -2.2684943054271978,
                -2.391702875315569,
                1.4105133995081567,
                0.18177000850804514,
                0.08380196501795495
            ]
        },
        {
            "positions": [
                -0.18545695899361375,
                -2.2725369021826625,
                -2.398172796269836,
                1.4356259501536293,
                0.17800586825578685,
                0.08582327157267593
            ]
        }
    ]
}