{
    "goal": {
        "global_pose": {
            "orientation": {
                "w": 0.7031023480610252,
                "x": -0.7110244013736278,
                "y": 0.0077485991402295624,
                "z": 0.005598929693374583
            },
            "position": {
                "x": -0.8841497679147869,
                "y": 0.44412534475326537,
                "z": 0.3711530566215515
            }
        },
        "name": "move_to_auspresseinheit_D"
    },
    "id": "BiTRRT_move_to_auspresseinheit_D_71",
    "joint_names": [
        "shoulder_pan_joint",
        "shoulder_lift_joint",
        "elbow_joint",
        "wrist_1_joint",
        "wrist_2_joint",
        "wrist_3_joint"
    ],
    "metrics": {
        "cart_traj_len": 0.3428489877790985,
        "distance_elbow_joint": 0.6349291844635816,
        "distance_shoulder_lift_joint": 0.11915127435329165,
        "distance_shoulder_pan_joint": 0.13330213758283949,
        "distance_wrist_1_joint": 0.5177955840903339,
        "distance_wrist_2_joint": 1.4402507791780563,
        "distance_wrist_3_joint": 0.0070505659475421645,
        "smoothness": 1.3816108766519434e-15,
        "time": 0.049297742000000006,
        "traj_len": 1.6889285140631751,
        "weighted_distance": 2.1965033623418653
    },
    "planner": "BiTRRT",
    "start": {
        "state": {
            "elbow_joint": -1.8275523626775212,
            "shoulder_lift_joint": -2.126789852344167,
            "shoulder_pan_joint": -0.03513704404078235,
            "wrist_1_joint": -2.347782403156801,
            "wrist_2_joint": -1.6058999987535132,
            "wrist_3_joint": -3.0880379163319196
        }
    },
    "waypoints": [
        {
            "positions": [
                -0.03513704404078235,
                -2.126789852344167,
                -1.8275523626775212,
                -2.347782403156801,
                -1.6058999987535132,
                -3.0880379163319196
            ]
        },
        {
            "positions": [
                -0.051799811238637285,
                -2.1416837616383284,
                -1.7481862146195735,
                -2.4125068511680925,
                -1.4258686513562562,
                -3.088919237075362
            ]
        },
        {
            "positions": [
                -0.06846257843649223,
                -2.1565776709324895,
                -1.6688200665616257,
                -2.477231299179384,
                -1.2458373039589992,
                -3.0898005578188052
            ]
        },
        {
            "positions": [
                -0.08512534563434715,
                -2.171471580226651,
                -1.589453918503678,
                -2.541955747190676,
                -1.065805956561742,
                -3.090681878562248
            ]
        },
        {
            "positions": [
                -0.1017881128322021,
                -2.1863654895208127,
                -1.5100877704457303,
                -2.606680195201968,
                -0.885774609164485,
                -3.091563199305691
            ]
        },
        {
            "positions": [
                -0.11845088003005702,
                -2.2012593988149742,
                -1.4307216223877828,
                -2.6714046432132594,
                -0.705743261767228,
                -3.0924445200491335
            ]
        },
        {
            "positions": [
                -0.13511364722791197,
                -2.216153308109136,
                -1.351355474329835,
                -2.7361290912245515,
                -0.5257119143699709,
                -3.093325840792576
            ]
        },
        {
            "positions": [
                -0.1517764144257669,
                -2.231047217403297,
                -1.2719893262718873,
                -2.800853539235843,
                -0.3456805669727139,
                -3.094207161536019
            ]
        },
        {
            "positions": [
                -0.16843918162362184,
                -2.2459411266974585,
                -1.1926231782139396,
                -2.8655779872471348,
                -0.16564921957545692,
                -3.0950884822794618
            ]
        }
    ]
}