{
    "goal": {
        "global_pose": {
            "orientation": {
                "w": -0.00223480608172531,
                "x": 0.0024358444001904467,
                "y": 0.7094548369677653,
                "z": -0.704743149386269
            },
            "position": {
                "x": -0.37947507619857795,
                "y": -0.6371506643295288,
                "z": 0.19426114857196808
            }
        },
        "name": "move_to_magneteinheit_C"
    },
    "id": "BiTRRT_move_to_magneteinheit_C_80",
    "joint_names": [
        "shoulder_pan_joint",
        "shoulder_lift_joint",
        "elbow_joint",
        "wrist_1_joint",
        "wrist_2_joint",
        "wrist_3_joint"
    ],
    "metrics": {
        "cart_traj_len": 1.3976543645650357,
        "distance_elbow_joint": 0.7791289518706432,
        "distance_shoulder_lift_joint": 1.1258295916041445,
        "distance_shoulder_pan_joint": 1.9677809774379675,
        "distance_wrist_1_joint": 4.918849171763146,
        "distance_wrist_2_joint": 4.430620266691291,
        "distance_wrist_3_joint": 11.157144559524241,
        "smoothness": 0.5320200505620362,
        "time": 0.129647155,
        "traj_len": 4.937545292844557,
        "weighted_distance": 7.48619476612747
    },
    "planner": "BiTRRT",
    "start": {
        "state": {
            "elbow_joint": 1.9565354010623817,
            "shoulder_lift_joint": -1.4165861575791021,
            "shoulder_pan_joint": -1.6717766225146293,
            "wrist_1_joint": -0.5286633292919765,
            "wrist_2_joint": 1.472756589071564,
            "wrist_3_joint": -3.1238370188695823
        }
    },
    "waypoints": [
        {
            "positions": [
                -1.6717766225146293,
                -1.4165861575791021,
                1.9565354010623817,
                -0.5286633292919765,
                1.472756589071564,
                -3.1238370188695823
            ]
        },
        {
            "positions": [
                -1.7137335498359196,
                -1.4298104297594012,
                1.969188281178184,
                -0.45891920790082874,
                1.393452029811603,
                -2.9549923180543205
            ]
        },
        {
            "positions": [
                -1.75569047715721,
                -1.4430347019397003,
                1.9818411612939864,
                -0.38917508650968097,
                1.314147470551642,
                -2.7861476172390587
            ]
        },
        {
            "positions": [
                -1.7976474044785002,
                -1.4562589741199994,
                1.9944940414097887,
                -0.3194309651185332,
                1.2348429112916812,
                -2.6173029164237964
            ]
        },
        {
            "positions": [
                -1.8396043317997905,
                -1.4694832463002985,
                2.007146921525591,
                -0.24968684372738548,
                1.1555383520317202,
                -2.4484582156085346
            ]
        },
        {
            "positions": [
                -1.8815612591210809,
                -1.4827075184805976,
                2.0197998016413936,
                -0.1799427223362377,
                1.0762337927717593,
                -2.279613514793273
            ]
        },
        {
            "positions": [
                -1.9235181864423712,
                -1.4959317906608967,
                2.0324526817571957,
                -0.11019860094508999,
                0.9969292335117984,
                -2.1107688139780105
            ]
        },
        {
            "positions": [
                -1.9654751137636615,
                -1.5091560628411957,
                2.0451055618729983,
                -0.04045447955394221,
                0.9176246742518375,
                -1.9419241131627487
            ]
        },
        {
            "positions": [
                -2.007432041084952,
                -1.5223803350214948,
                2.0577584419888004,
                0.029289641837205505,
                0.8383201149918766,
                -1.773079412347487
            ]
        },
        {
            "positions": [
                -2.0493889684062423,
                -1.535604607201794,
                2.070411322104603,
                0.09903376322835322,
                0.7590155557319157,
                -1.604234711532225
            ]
        },
        {
            "positions": [
                -2.0913458957275326,
                -1.548828879382093,
                2.083064202220405,
                0.16877788461950105,
                0.6797109964719548,
                -1.435390010716963
            ]
        },
        {
            "positions": [
                -2.133302823048823,
                -1.562053151562392,
                2.0957170823362077,
                0.23852200601064877,
                0.6004064372119939,
                -1.2665453099017012
            ]
        },
        {
            "positions": [
                -2.175259750370113,
                -1.5752774237426912,
                2.1083699624520102,
                0.3082661274017965,
                0.5211018779520329,
                -1.0977006090864392
            ]
        },
        {
            "positions": [
                -2.2172166776914035,
                -1.5885016959229903,
                2.1210228425678124,
                0.3780102487929442,
                0.44179731869207206,
                -0.9288559082711774
            ]
        },
        {
            "positions": [
                -2.259173605012694,
                -1.6017259681032894,
                2.133675722683615,
                0.44775437018409203,
                0.362492759432111,
                -0.7600112074559151
            ]
        },
        {
            "positions": [
                -2.301130532333984,
                -1.6149502402835885,
                2.146328602799417,
                0.5174984915752396,
                0.2831882001721502,
                -0.5911665066406537
            ]
        },
        {
            "positions": [
                -2.3430874596552744,
                -1.6281745124638873,
                2.1589814829152196,
                0.5872426129663875,
                0.20388364091218936,
                -0.42232180582539147
            ]
        },
        {
            "positions": [
                -2.3850443869765647,
                -1.6413987846441866,
                2.1716343630310218,
                0.6569867343575353,
                0.12457908165222831,
                -0.25347710501012966
            ]
        },
        {
            "positions": [
                -2.427001314297855,
                -1.6546230568244855,
                2.1842872431468243,
                0.7267308557486829,
                0.04527452239226748,
                -0.08463240419486784
            ]
        },
        {
            "positions": [
                -2.4689582416191453,
                -1.6678473290047848,
                2.1969401232626264,
                0.796474977139831,
                -0.03403003686769357,
                0.08421229662039442
            ]
        },
        {
            "positions": [
                -2.5109151689404356,
                -1.6810716011850837,
                2.209593003378429,
                0.8662190985309786,
                -0.1133345961276544,
                0.25305699743565624
            ]
        },
        {
            "positions": [
                -2.552872096261726,
                -1.6942958733653828,
                2.2222458834942316,
                0.9359632199221262,
                -0.19263915538761522,
                0.42190169825091806
            ]
        },
        {
            "positions": [
                -2.5948290235830163,
                -1.7075201455456819,
                2.2348987636100337,
                1.005707341313274,
                -0.27194371464757605,
                0.5907463990661799
            ]
        },
        {
            "positions": [
                -2.6367859509043066,
                -1.7207444177259812,
                2.2475516437258363,
                1.0754514627044218,
                -0.3512482739075373,
                0.7595910998814421
            ]
        },
        {
            "positions": [
                -2.678742878225597,
                -1.73396868990628,
                2.2602045238416384,
                1.1451955840955694,
                -0.43055283316749815,
                0.928435800696704
            ]
        },
        {
            "positions": [
                -2.720699805546887,
                -1.7471929620865791,
                2.272857403957441,
                1.2149397054867173,
                -0.509857392427459,
                1.0972805015119658
            ]
        },
        {
            "positions": [
                -2.7626567328681775,
                -1.7604172342668782,
                2.285510284073243,
                1.2846838268778649,
                -0.5891619516874198,
                1.2661252023272276
            ]
        },
        {
            "positions": [
                -2.804613660189468,
                -1.7736415064471773,
                2.2981631641890456,
                1.354427948269013,
                -0.6684665109473809,
                1.4349699031424903
            ]
        },
        {
            "positions": [
                -2.846570587510758,
                -1.7868657786274764,
                2.3108160443048478,
                1.4241720696601605,
                -0.7477710702073419,
                1.603814603957752
            ]
        },
        {
            "positions": [
                -2.8885275148320484,
                -1.8000900508077755,
                2.3234689244206503,
                1.4939161910513084,
                -0.8270756294673025,
                1.772659304773013
            ]
        },
        {
            "positions": [
                -2.9304844421533387,
                -1.8133143229880746,
                2.3361218045364525,
                1.5636603124424557,
                -0.9063801887272636,
                1.9415040055882749
            ]
        },
        {
            "positions": [
                -2.972441369474629,
                -1.8265385951683737,
                2.348774684652255,
                1.633404433833604,
                -0.9856847479872246,
                2.1103487064035376
            ]
        },
        {
            "positions": [
                -3.0143982967959193,
                -1.8397628673486728,
                2.361427564768057,
                1.7031485552247514,
                -1.0649893072471852,
                2.2791934072187994
            ]
        },
        {
            "positions": [
                -3.0563552241172096,
                -1.8529871395289719,
                2.3740804448838597,
                1.7728926766158994,
                -1.1442938665071463,
                2.4480381080340607
            ]
        },
        {
            "positions": [
                -3.0369151449226965,
                -1.8300061858738295,
                2.3620276479488878,
                1.6856495710873904,
                -1.0838415394700602,
                2.2618624602800406
            ]
        },
        {
            "positions": [
                -3.017475065728184,
                -1.8070252322186868,
                2.3499748510139153,
                1.5984064655588814,
                -1.0233892124329744,
                2.0756868125260204
            ]
        },
        {
            "positions": [
                -2.998034986533671,
                -1.7840442785635444,
                2.3379220540789434,
                1.5111633600303724,
                -0.9629368853958884,
                1.8895111647720002
            ]
        },
        {
            "positions": [
                -2.9785949073391578,
                -1.761063324908402,
                2.325869257143971,
                1.4239202545018637,
                -0.9024845583588025,
                1.7033355170179802
            ]
        },
        {
            "positions": [
                -2.959154828144645,
                -1.7380823712532594,
                2.313816460208999,
                1.3366771489733547,
                -0.8420322313217166,
                1.5171598692639603
            ]
        },
        {
            "positions": [
                -2.939714748950132,
                -1.715101417598117,
                2.3017636632740266,
                1.2494340434448457,
                -0.7815799042846305,
                1.33098422150994
            ]
        },
        {
            "positions": [
                -2.9202746697556194,
                -1.6921204639429743,
                2.2897108663390546,
                1.1621909379163369,
                -0.7211275772475447,
                1.14480857375592
            ]
        },
        {
            "positions": [
                -2.9008345905611064,
                -1.669139510287832,
                2.277658069404082,
                1.0749478323878279,
                -0.6606752502104587,
                0.9586329260018998
            ]
        },
        {
            "positions": [
                -2.8813945113665933,
                -1.6461585566326895,
                2.2656052724691103,
                0.9877047268593189,
                -0.6002229231733728,
                0.7724572782478798
            ]
        },
        {
            "positions": [
                -2.8619544321720807,
                -1.6231776029775469,
                2.253552475534138,
                0.9004616213308099,
                -0.5397705961362869,
                0.5862816304938596
            ]
        },
        {
            "positions": [
                -2.8425143529775676,
                -1.6001966493224045,
                2.241499678599166,
                0.813218515802301,
                -0.47931826909920094,
                0.40010598273983966
            ]
        },
        {
            "positions": [
                -2.8230742737830545,
                -1.5772156956672618,
                2.2294468816641935,
                0.7259754102737919,
                -0.4188659420621149,
                0.21393033498581904
            ]
        },
        {
            "positions": [
                -2.803634194588542,
                -1.5542347420121194,
                2.2173940847292215,
                0.6387323047452829,
                -0.358413615025029,
                0.027754687231799302
            ]
        },
        {
            "positions": [
                -2.784194115394029,
                -1.531253788356977,
                2.205341287794249,
                0.5514891992167741,
                -0.2979612879879431,
                -0.15842096052222088
            ]
        },
        {
            "positions": [
                -2.764754036199516,
                -1.5082728347018346,
                2.193288490859277,
                0.4642460936882651,
                -0.23750896095085716,
                -0.34459660827624106
            ]
        },
        {
            "positions": [
                -2.745313957005003,
                -1.485291881046692,
                2.181235693924305,
                0.3770029881597561,
                -0.17705663391377124,
                -0.5307722560302612
            ]
        },
        {
            "positions": [
                -2.72587387781049,
                -1.4623109273915496,
                2.1691828969893328,
                0.2897598826312473,
                -0.11660430687668533,
                -0.7169479037842814
            ]
        },
        {
            "positions": [
                -2.7064337986159774,
                -1.439329973736407,
                2.157130100054361,
                0.2025167771027383,
                -0.0561519798395993,
                -0.9031235515383012
            ]
        },
        {
            "positions": [
                -2.6869937194214644,
                -1.4163490200812645,
                2.1450773031193884,
                0.1152736715742293,
                0.004300347197486509,
                -1.0892991992923213
            ]
        },
        {
            "positions": [
                -2.6675536402269513,
                -1.393368066426122,
                2.1330245061844164,
                0.028030566045720295,
                0.06475267423457254,
                -1.2754748470463415
            ]
        },
        {
            "positions": [
                -2.6481135610324387,
                -1.3703871127709797,
                2.120971709249444,
                -0.059212539482788484,
                0.12520500127165834,
                -1.4616504948003617
            ]
        },
        {
            "positions": [
                -2.6286734818379256,
                -1.347406159115837,
                2.108918912314472,
                -0.14645564501129749,
                0.18565732830874437,
                -1.6478261425543814
            ]
        },
        {
            "positions": [
                -2.6092334026434125,
                -1.3244252054606944,
                2.0968661153794996,
                -0.2336987505398067,
                0.2461096553458304,
                -1.834001790308402
            ]
        },
        {
            "positions": [
                -2.5897933234489,
                -1.301444251805552,
                2.0848133184445277,
                -0.3209418560683157,
                0.30656198238291643,
                -2.0201774380624227
            ]
        },
        {
            "positions": [
                -2.570353244254387,
                -1.2784632981504096,
                2.0727605215095553,
                -0.4081849615968247,
                0.36701430942000224,
                -2.2063530858164424
            ]
        },
        {
            "positions": [
                -2.5509131650598738,
                -1.2554823444952672,
                2.0607077245745833,
                -0.4954280671253337,
                0.42746663645708827,
                -2.392528733570462
            ]
        },
        {
            "positions": [
                -2.531473085865361,
                -1.2325013908401246,
                2.048654927639611,
                -0.5826711726538423,
                0.4879189634941741,
                -2.5787043813244828
            ]
        },
        {
            "positions": [
                -2.512033006670848,
                -1.209520437184982,
                2.036602130704639,
                -0.6699142781823513,
                0.5483712905312601,
                -2.7648800290785025
            ]
        },
        {
            "positions": [
                -2.492592927476335,
                -1.1865394835298395,
                2.0245493337696665,
                -0.7571573837108603,
                0.6088236175683459,
                -2.951055676832523
            ]
        },
        {
            "positions": [
                -2.4731528482818224,
                -1.163558529874697,
                2.0124965368346945,
                -0.8444004892393693,
                0.6692759446054318,
                -3.137231324586543
            ]
        }
    ]
}