{
    "goal": {
        "global_pose": {
            "orientation": {
                "w": 0.7031023502349854,
                "x": -0.7110244035720825,
                "y": 0.007748599164187908,
                "z": 0.005598929710686207
            },
            "position": {
                "x": 0.11585023208521307,
                "y": 0.44412534475326537,
                "z": 0.3711530566215515
            }
        },
        "name": "move_to_auspresseinheit_A"
    },
    "id": "BiTRRT_move_to_auspresseinheit_A_99",
    "joint_names": [
        "shoulder_pan_joint",
        "shoulder_lift_joint",
        "elbow_joint",
        "wrist_1_joint",
        "wrist_2_joint",
        "wrist_3_joint"
    ],
    "metrics": {
        "cart_traj_len": 3.671952903114104,
        "distance_elbow_joint": 3.428403409703584,
        "distance_shoulder_lift_joint": 2.7582798484667714,
        "distance_shoulder_pan_joint": 1.9458180831034178,
        "distance_wrist_1_joint": 0.701818500313079,
        "distance_wrist_2_joint": 5.240449676484787,
        "distance_wrist_3_joint": 5.419337940713971,
        "smoothness": 0.7512634168335727,
        "time": 0.078695103,
        "traj_len": 4.415213183843517,
        "weighted_distance": 6.022877345340134
    },
    "planner": "BiTRRT",
    "start": {
        "state": {
            "elbow_joint": 2.4225746658250005,
            "shoulder_lift_joint": -1.3736534386056498,
            "shoulder_pan_joint": -0.3378633547517467,
            "wrist_1_joint": -1.0288598680537169,
            "wrist_2_joint": 1.233022673432363,
            "wrist_3_joint": -3.0940220416140027
        }
    },
    "waypoints": [
        {
            "positions": [
                -0.3378633547517467,
                -1.3736534386056498,
                2.4225746658250005,
                -1.0288598680537169,
                1.233022673432363,
                -3.0940220416140027
            ]
        },
        {
            "positions": [
                -0.2864447332270315,
                -1.3963856101593426,
                2.3956029082076196,
                -0.9643365771648869,
                1.1794176643631016,
                -2.9893373720873555
            ]
        },
        {
            "positions": [
                -0.2350261117023163,
                -1.4191177817130354,
                2.368631150590238,
                -0.8998132862760567,
                1.1258126552938401,
                -2.884652702560708
            ]
        },
        {
            "positions": [
                -0.18360749017760108,
                -1.4418499532667282,
                2.3416593929728573,
                -0.8352899953872267,
                1.0722076462245786,
                -2.7799680330340606
            ]
        },
        {
            "positions": [
                -0.13218886865288587,
                -1.464582124820421,
                2.314687635355476,
                -0.7707667044983966,
                1.0186026371553172,
                -2.675283363507413
            ]
        },
        {
            "positions": [
                -0.08077024712817069,
                -1.4873142963741137,
                2.287715877738095,
                -0.7062434136095666,
                0.9649976280860557,
                -2.5705986939807657
            ]
        },
        {
            "positions": [
                -0.10132729156842063,
                -1.5552349258842921,
                2.2158519256846096,
                -0.6934127047974425,
                0.8460685410195639,
                -2.472495048023331
            ]
        },
        {
            "positions": [
                -0.12188433600867056,
                -1.6231555553944705,
                2.143987973631124,
                -0.6805819959853187,
                0.7271394539530721,
                -2.374391402065896
            ]
        },
        {
            "positions": [
                -0.1424413804489205,
                -1.6910761849046487,
                2.0721240215776384,
                -0.6677512871731947,
                0.6082103668865804,
                -2.276287756108461
            ]
        },
        {
            "positions": [
                -0.16299842488917043,
                -1.7589968144148271,
                2.0002600695241526,
                -0.6549205783610708,
                0.48928127982008845,
                -2.178184110151026
            ]
        },
        {
            "positions": [
                -0.18355546932942035,
                -1.8269174439250055,
                1.9283961174706672,
                -0.6420898695489468,
                0.37035219275359665,
                -2.0800804641935913
            ]
        },
        {
            "positions": [
                -0.2041125137696703,
                -1.894838073435184,
                1.8565321654171816,
                -0.6292591607368229,
                0.2514231056871049,
                -1.9819768182361561
            ]
        },
        {
            "positions": [
                -0.22466955820992024,
                -1.9627587029453624,
                1.784668213363696,
                -0.6164284519246989,
                0.13249401862061305,
                -1.8838731722787214
            ]
        },
        {
            "positions": [
                -0.24522660265017018,
                -2.0306793324555406,
                1.7128042613102101,
                -0.603597743112575,
                0.013564931554121196,
                -1.7857695263212863
            ]
        },
        {
            "positions": [
                -0.2657836470904201,
                -2.098599961965719,
                1.6409403092567247,
                -0.590767034300451,
                -0.10536415551237077,
                -1.6876658803638516
            ]
        },
        {
            "positions": [
                -0.28634069153067004,
                -2.1665205914758974,
                1.5690763572032391,
                -0.577936325488327,
                -0.2242932425788624,
                -1.5895622344064166
            ]
        },
        {
            "positions": [
                -0.30689773597091996,
                -2.234441220986076,
                1.4972124051497535,
                -0.5651056166762031,
                -0.34322232964535426,
                -1.4914585884489817
            ]
        },
        {
            "positions": [
                -0.32745478041116993,
                -2.302361850496254,
                1.4253484530962681,
                -0.5522749078640792,
                -0.4621514167118459,
                -1.3933549424915468
            ]
        },
        {
            "positions": [
                -0.3480118248514199,
                -2.3702824800064324,
                1.3534845010427823,
                -0.5394441990519552,
                -0.581080503778338,
                -1.2952512965341119
            ]
        },
        {
            "positions": [
                -0.36856886929166977,
                -2.438203109516611,
                1.2816205489892967,
                -0.5266134902398312,
                -0.7000095908448296,
                -1.197147650576677
            ]
        },
        {
            "positions": [
                -0.38912591373191974,
                -2.506123739026789,
                1.2097565969358113,
                -0.5137827814277073,
                -0.8189386779113215,
                -1.0990440046192422
            ]
        },
        {
            "positions": [
                -0.4096829581721697,
                -2.574044368536968,
                1.1378926448823254,
                -0.5009520726155833,
                -0.9378677649778133,
                -1.000940358661807
            ]
        },
        {
            "positions": [
                -0.43024000261241957,
                -2.641964998047146,
                1.06602869282884,
                -0.4881213638034594,
                -1.056796852044305,
                -0.9028367127043724
            ]
        },
        {
            "positions": [
                -0.45079704705266954,
                -2.709885627557324,
                0.9941647407753542,
                -0.4752906549913354,
                -1.1757259391107973,
                -0.8047330667469372
            ]
        },
        {
            "positions": [
                -0.4713540914929195,
                -2.777806257067503,
                0.9223007887218688,
                -0.46245994617921143,
                -1.2946550261772887,
                -0.7066294207895025
            ]
        },
        {
            "positions": [
                -0.4919111359331694,
                -2.845726886577681,
                0.8504368366683832,
                -0.4496292373670875,
                -1.4135841132437805,
                -0.6085257748320676
            ]
        },
        {
            "positions": [
                -0.5124681803734193,
                -2.9136475160878597,
                0.7785728846148976,
                -0.43679852855496354,
                -1.5325132003102724,
                -0.5104221288746325
            ]
        },
        {
            "positions": [
                -0.5330252248136693,
                -2.981568145598038,
                0.706708932561412,
                -0.4239678197428396,
                -1.651442287376764,
                -0.41231848291719775
            ]
        },
        {
            "positions": [
                -0.48716842206225,
                -2.930958933295364,
                0.7838792955204137,
                -0.42687148680225534,
                -1.5444554425922368,
                -0.5203738029062865
            ]
        },
        {
            "positions": [
                -0.4413116193108306,
                -2.8803497209926907,
                0.8610496584794154,
                -0.4297751538616711,
                -1.4374685978077095,
                -0.6284291228953752
            ]
        },
        {
            "positions": [
                -0.3954548165594113,
                -2.829740508690017,
                0.938220021438417,
                -0.43267882092108684,
                -1.3304817530231825,
                -0.7364844428844639
            ]
        },
        {
            "positions": [
                -0.34959801380799194,
                -2.7791312963873436,
                1.0153903843974188,
                -0.4355824879805026,
                -1.2234949082386553,
                -0.8445397628735527
            ]
        },
        {
            "positions": [
                -0.30374121105657265,
                -2.72852208408467,
                1.0925607473564205,
                -0.43848615503991833,
                -1.116508063454128,
                -0.9525950828626414
            ]
        },
        {
            "positions": [
                -0.2578844083051533,
                -2.677912871781996,
                1.169731110315422,
                -0.4413898220993341,
                -1.009521218669601,
                -1.06065040285173
            ]
        },
        {
            "positions": [
                -0.21202760555373396,
                -2.6273036594793227,
                1.246901473274424,
                -0.44429348915874983,
                -0.9025343738850736,
                -1.1687057228408189
            ]
        },
        {
            "positions": [
                -0.1661708028023146,
                -2.576694447176649,
                1.3240718362334256,
                -0.4471971562181656,
                -0.7955475291005464,
                -1.2767610428299077
            ]
        },
        {
            "positions": [
                -0.12031400005089526,
                -2.5260852348739755,
                1.4012421991924273,
                -0.45010082327758133,
                -0.6885606843160191,
                -1.3848163628189964
            ]
        },
        {
            "positions": [
                -0.07445719729947597,
                -2.4754760225713017,
                1.4784125621514288,
                -0.4530044903369971,
                -0.581573839531492,
                -1.492871682808085
            ]
        },
        {
            "positions": [
                -0.02860039454805663,
                -2.424866810268628,
                1.5555829251104305,
                -0.4559081573964128,
                -0.47458699474696475,
                -1.6009270027971738
            ]
        },
        {
            "positions": [
                0.017256408203362716,
                -2.3742575979659546,
                1.632753288069432,
                -0.4588118244558286,
                -0.36760014996243773,
                -1.7089823227862624
            ]
        },
        {
            "positions": [
                0.06311321095478206,
                -2.323648385663281,
                1.709923651028434,
                -0.4617154915152443,
                -0.26061330517791026,
                -1.8170376427753514
            ]
        },
        {
            "positions": [
                0.10897001370620141,
                -2.2730391733606075,
                1.7870940139874356,
                -0.4646191585746601,
                -0.15362646039338324,
                -1.92509296276444
            ]
        },
        {
            "positions": [
                0.15482681645762064,
                -2.2224299610579337,
                1.864264376946437,
                -0.4675228256340758,
                -0.04663961560885599,
                -2.0331482827535288
            ]
        },
        {
            "positions": [
                0.2006836192090401,
                -2.17182074875526,
                1.941434739905439,
                -0.47042649269349157,
                0.06034722917567126,
                -2.1412036027426176
            ]
        },
        {
            "positions": [
                0.24654042196045933,
                -2.1212115364525865,
                2.0186051028644405,
                -0.4733301597529073,
                0.1673340739601985,
                -2.2492589227317064
            ]
        },
        {
            "positions": [
                0.2923972247118788,
                -2.0706023241499127,
                2.0957754658234427,
                -0.47623382681232307,
                0.27432091874472575,
                -2.357314242720795
            ]
        },
        {
            "positions": [
                0.338254027463298,
                -2.0199931118472394,
                2.172945828782444,
                -0.4791374938717388,
                0.3813077635292528,
                -2.4653695627098835
            ]
        },
        {
            "positions": [
                0.38411083021471737,
                -1.9693838995445658,
                2.2501161917414456,
                -0.48204116093115457,
                0.48829460831378,
                -2.5734248826989723
            ]
        },
        {
            "positions": [
                0.4299676329661367,
                -1.918774687241892,
                2.3272865547004473,
                -0.4849448279905703,
                0.5952814530983073,
                -2.681480202688061
            ]
        },
        {
            "positions": [
                0.47582443571755617,
                -1.8681654749392185,
                2.404456917659449,
                -0.48784849504998606,
                0.7022682978828343,
                -2.78953552267715
            ]
        },
        {
            "positions": [
                0.5896346043491153,
                -1.8866467103470006,
                2.3970620719884703,
                -0.47132560670245915,
                0.7011312326748032,
                -2.9697441938057567
            ]
        },
        {
            "positions": [
                0.7034447729806744,
                -1.9051279457547827,
                2.3896672263174916,
                -0.45480271835493224,
                0.699994167466772,
                -3.149952864934364
            ]
        }
    ]
}