{
    "goal": {
        "global_pose": {
            "orientation": {
                "w": -0.4816463035849501,
                "x": 0.5182115481033762,
                "y": 0.4908360881923453,
                "z": -0.5084816262002911
            },
            "position": {
                "x": -0.8240239810943604,
                "y": -0.300875300988555,
                "z": 0.16403168439865112
            }
        },
        "name": "move_to_storage_C"
    },
    "id": "BiTRRT_move_to_storage_C_46",
    "joint_names": [
        "shoulder_pan_joint",
        "shoulder_lift_joint",
        "elbow_joint",
        "wrist_1_joint",
        "wrist_2_joint",
        "wrist_3_joint"
    ],
    "metrics": {
        "cart_traj_len": 0.5768992520446597,
        "distance_elbow_joint": 0.25737550294647127,
        "distance_shoulder_lift_joint": 0.18863963685262952,
        "distance_shoulder_pan_joint": 0.4960211153309846,
        "distance_wrist_1_joint": 0.07559170120168435,
        "distance_wrist_2_joint": 1.0594472613988786,
        "distance_wrist_3_joint": 0.06480715838184237,
        "smoothness": 0.0,
        "time": 0.043635768000000005,
        "traj_len": 1.4635171253225878,
        "weighted_distance": 1.8456802690273142
    },
    "planner": "BiTRRT",
    "start": {
        "state": {
            "elbow_joint": 2.010868314990456,
            "shoulder_lift_joint": -1.1634956873337592,
            "shoulder_pan_joint": -2.4736205022346125,
            "wrist_1_joint": -0.8367026794202681,
            "wrist_2_joint": 0.6746043897044499,
            "wrist_3_joint": -3.1496632123970403
        }
    },
    "waypoints": [
        {
            "positions": [
                -2.4736205022346125,
                -1.1634956873337592,
                2.010868314990456,
                -0.8367026794202681,
                0.6746043897044499,
                -3.1496632123970403
            ]
        },
        {
            "positions": [
                -2.5562906881231098,
                -1.1320557478583209,
                1.9679723978327106,
                -0.8241040625533207,
                0.8511789332709296,
                -3.1388620193334
            ]
        },
        {
            "positions": [
                -2.6389608740116075,
                -1.1006158083828828,
                1.9250764806749654,
                -0.8115054456863733,
                1.0277534768374095,
                -3.1280608262697593
            ]
        },
        {
            "positions": [
                -2.721631059900105,
                -1.0691758689074444,
                1.8821805635172202,
                -0.7989068288194259,
                1.204328020403889,
                -3.1172596332061193
            ]
        },
        {
            "positions": [
                -2.804301245788602,
                -1.037735929432006,
                1.839284646359475,
                -0.7863082119524786,
                1.380902563970369,
                -3.106458440142479
            ]
        },
        {
            "positions": [
                -2.8869714316771,
                -1.006295989956568,
                1.7963887292017298,
                -0.7737095950855312,
                1.5574771075368488,
                -3.0956572470788384
            ]
        },
        {
            "positions": [
                -2.969641617565597,
                -0.9748560504811297,
                1.7534928120439846,
                -0.7611109782185838,
                1.7340516511033286,
                -3.084856054015198
            ]
        }
    ]
}