{
    "goal": {
        "global_pose": {
            "orientation": {
                "w": -0.00223480608172531,
                "x": 0.0024358444001904467,
                "y": 0.7094548369677653,
                "z": -0.704743149386269
            },
            "position": {
                "x": 0.6205249238014221,
                "y": -0.6371506643295288,
                "z": 0.19426114857196808
            }
        },
        "name": "move_to_magneteinheit_B"
    },
    "id": "BiTRRT_move_to_magneteinheit_B_117",
    "joint_names": [
        "shoulder_pan_joint",
        "shoulder_lift_joint",
        "elbow_joint",
        "wrist_1_joint",
        "wrist_2_joint",
        "wrist_3_joint"
    ],
    "metrics": {
        "cart_traj_len": 3.8494065686808137,
        "distance_elbow_joint": 4.4265097581270965,
        "distance_shoulder_lift_joint": 1.1178652919669707,
        "distance_shoulder_pan_joint": 3.0951305864320933,
        "distance_wrist_1_joint": 4.809930515660419,
        "distance_wrist_2_joint": 2.427455874379718,
        "distance_wrist_3_joint": 3.887527745151094,
        "smoothness": 0.5606599376988854,
        "time": 0.265703587,
        "traj_len": 4.445719263709461,
        "weighted_distance": 5.897190996742409
    },
    "planner": "BiTRRT",
    "start": {
        "state": {
            "elbow_joint": 2.6216224122426386,
            "shoulder_lift_joint": -1.4174107377796124,
            "shoulder_pan_joint": 0.7066234856936794,
            "wrist_1_joint": 1.9546482284002225,
            "wrist_2_joint": -0.7096286983471962,
            "wrist_3_joint": 0.005740856962016249
        }
    },
    "waypoints": [
        {
            "positions": [
                0.7066234856936794,
                -1.4174107377796124,
                2.6216224122426386,
                1.9546482284002225,
                -0.7096286983471962,
                0.005740856962016249
            ]
        },
        {
            "positions": [
                0.6096522719573937,
                -1.426616952805274,
                2.6186722681717547,
                1.8411828458645438,
                -0.746475211667897,
                -0.06636219613746626
            ]
        },
        {
            "positions": [
                0.512681058221108,
                -1.4358231678309352,
                2.615722124100871,
                1.7277174633288652,
                -0.7833217249885979,
                -0.13846524923694875
            ]
        },
        {
            "positions": [
                0.5261791962692199,
                -1.4300923394737792,
                2.4560232359091594,
                1.6464813415742159,
                -0.7403083689898037,
                -0.19364144877167722
            ]
        },
        {
            "positions": [
                0.539677334317332,
                -1.4243615111166232,
                2.2963243477174484,
                1.5652452198195663,
                -0.6972950129910094,
                -0.24881764830640568
            ]
        },
        {
            "positions": [
                0.553175472365444,
                -1.4186306827594675,
                2.136625459525737,
                1.484009098064917,
                -0.6542816569922152,
                -0.30399384784113415
            ]
        },
        {
            "positions": [
                0.566673610413556,
                -1.4128998544023115,
                1.9769265713340258,
                1.4027729763102674,
                -0.611268300993421,
                -0.3591700473758626
            ]
        },
        {
            "positions": [
                0.580171748461668,
                -1.4071690260451555,
                1.8172276831423146,
                1.321536854555618,
                -0.5682549449946268,
                -0.4143462469105911
            ]
        },
        {
            "positions": [
                0.6712035781582468,
                -1.418266563425302,
                1.685602345655461,
                1.392582380127043,
                -0.5887205227555569,
                -0.470626591090231
            ]
        },
        {
            "positions": [
                0.7622354078548256,
                -1.4293641008054485,
                1.5539770081686073,
                1.4636279056984678,
                -0.6091861005164868,
                -0.526906935269871
            ]
        },
        {
            "positions": [
                0.8532672375514044,
                -1.4404616381855948,
                1.4223516706817536,
                1.5346734312698926,
                -0.6296516782774169,
                -0.5831872794495109
            ]
        },
        {
            "positions": [
                0.9442990672479832,
                -1.4515591755657413,
                1.2907263331949,
                1.6057189568413175,
                -0.6501172560383469,
                -0.6394676236291508
            ]
        },
        {
            "positions": [
                1.035330896944562,
                -1.4626567129458878,
                1.1591009957080463,
                1.6767644824127423,
                -0.6705828337992769,
                -0.6957479678087907
            ]
        },
        {
            "positions": [
                1.126362726641141,
                -1.4737542503260344,
                1.0274756582211926,
                1.7478100079841672,
                -0.6910484115602069,
                -0.7520283119884306
            ]
        },
        {
            "positions": [
                1.2173945563377195,
                -1.4848517877061806,
                0.8958503207343387,
                1.818855533555592,
                -0.7115139893211369,
                -0.8083086561680706
            ]
        },
        {
            "positions": [
                1.3084263860342986,
                -1.4959493250863272,
                0.764224983247485,
                1.889901059127017,
                -0.7319795670820669,
                -0.8645890003477105
            ]
        },
        {
            "positions": [
                1.3994582157308773,
                -1.5070468624664737,
                0.6325996457606313,
                1.9609465846984417,
                -0.752445144842997,
                -0.9208693445273504
            ]
        },
        {
            "positions": [
                1.4904900454274561,
                -1.5181443998466202,
                0.5009743082737776,
                2.031992110269867,
                -0.7729107226039269,
                -0.9771496887069903
            ]
        },
        {
            "positions": [
                1.581521875124035,
                -1.5292419372267667,
                0.36934897078692397,
                2.103037635841291,
                -0.793376300364857,
                -1.0334300328866304
            ]
        },
        {
            "positions": [
                1.6725537048206138,
                -1.540339474606913,
                0.2377236333000703,
                2.1740831614127165,
                -0.813841878125787,
                -1.0897103770662702
            ]
        },
        {
            "positions": [
                1.7635855345171925,
                -1.5514370119870595,
                0.10609829581321661,
                2.2451286869841414,
                -0.834307455886717,
                -1.14599072124591
            ]
        },
        {
            "positions": [
                1.8546173642137713,
                -1.562534549367206,
                -0.025527041673637285,
                2.316174212555566,
                -0.854773033647647,
                -1.20227106542555
            ]
        },
        {
            "positions": [
                1.9456491939103502,
                -1.5736320867473526,
                -0.15715237916049118,
                2.387219738126991,
                -0.8752386114085771,
                -1.25855140960519
            ]
        },
        {
            "positions": [
                2.036681023606929,
                -1.5847296241274988,
                -0.28877771664734464,
                2.458265263698416,
                -0.895704189169507,
                -1.31483175378483
            ]
        },
        {
            "positions": [
                2.1277128533035077,
                -1.5958271615076454,
                -0.4204030541341983,
                2.5293107892698408,
                -0.9161697669304372,
                -1.37111209796447
            ]
        },
        {
            "positions": [
                2.2187446830000868,
                -1.6069246988877919,
                -0.552028391621052,
                2.6003563148412656,
                -0.9366353446913671,
                -1.4273924421441095
            ]
        },
        {
            "positions": [
                2.309776512696666,
                -1.6180222362679384,
                -0.6836537291079061,
                2.6714018404126905,
                -0.957100922452297,
                -1.4836727863237495
            ]
        },
        {
            "positions": [
                2.400808342393244,
                -1.629119773648085,
                -0.8152790665947593,
                2.7424473659841153,
                -0.9775665002132271,
                -1.5399531305033896
            ]
        },
        {
            "positions": [
                2.491840172089823,
                -1.6402173110282312,
                -0.9469044040816135,
                2.81349289155554,
                -0.9980320779741572,
                -1.5962334746830296
            ]
        },
        {
            "positions": [
                2.582872001786402,
                -1.6513148484083777,
                -1.0785297415684667,
                2.884538417126965,
                -1.018497655735087,
                -1.6525138188626696
            ]
        },
        {
            "positions": [
                2.6739038314829804,
                -1.6624123857885242,
                -1.2101550790553208,
                2.95558394269839,
                -1.0389632334960173,
                -1.7087941630423096
            ]
        },
        {
            "positions": [
                2.7649356611795595,
                -1.6735099231686705,
                -1.341780416542174,
                3.0266294682698147,
                -1.0594288112569472,
                -1.7650745072219491
            ]
        },
        {
            "positions": [
                2.8559674908761385,
                -1.684607460548817,
                -1.4734057540290282,
                3.0976749938412396,
                -1.0798943890178774,
                -1.8213548514015891
            ]
        },
        {
            "positions": [
                2.9469993205727167,
                -1.6957049979289636,
                -1.6050310915158814,
                3.1687205194126644,
                -1.1003599667788073,
                -1.8776351955812292
            ]
        },
        {
            "positions": [
                3.038031150269296,
                -1.70680253530911,
                -1.7366564290027355,
                3.2397660449840893,
                -1.1208255445397373,
                -1.9339155397608692
            ]
        },
        {
            "positions": [
                3.0171512576631105,
                -1.7496450470238831,
                -1.7328658225093068,
                3.11428882546257,
                -1.032707462973113,
                -1.825700464848191
            ]
        },
        {
            "positions": [
                2.9962713650569253,
                -1.792487558738656,
                -1.7290752160158778,
                2.988811605941051,
                -0.944589381406489,
                -1.7174853899355125
            ]
        },
        {
            "positions": [
                2.97539147245074,
                -1.835330070453429,
                -1.725284609522449,
                2.863334386419532,
                -0.8564712998398648,
                -1.6092703150228342
            ]
        },
        {
            "positions": [
                2.9545115798445547,
                -1.878172582168202,
                -1.72149400302902,
                2.737857166898013,
                -0.7683532182732407,
                -1.5010552401101558
            ]
        },
        {
            "positions": [
                2.93363168723837,
                -1.9210150938829749,
                -1.7177033965355912,
                2.612379947376494,
                -0.6802351367066164,
                -1.3928401651974776
            ]
        },
        {
            "positions": [
                2.9127517946321846,
                -1.963857605597748,
                -1.7139127900421625,
                2.486902727854975,
                -0.5921170551399924,
                -1.2846250902847993
            ]
        },
        {
            "positions": [
                2.8918719020259993,
                -2.006700117312521,
                -1.7101221835487335,
                2.361425508333456,
                -0.5039989735733681,
                -1.1764100153721209
            ]
        },
        {
            "positions": [
                2.870992009419814,
                -2.049542629027294,
                -1.7063315770553047,
                2.2359482888119366,
                -0.41588089200674394,
                -1.0681949404594426
            ]
        },
        {
            "positions": [
                2.8501121168136287,
                -2.092385140742067,
                -1.7025409705618757,
                2.110471069290418,
                -0.3277628104401198,
                -0.9599798655467643
            ]
        },
        {
            "positions": [
                2.8292322242074435,
                -2.1352276524568397,
                -1.698750364068447,
                1.9849938497688988,
                -0.23964472887349564,
                -0.8517647906340859
            ]
        },
        {
            "positions": [
                2.808352331601258,
                -2.1780701641716127,
                -1.6949597575750182,
                1.8595166302473796,
                -0.15152664730687138,
                -0.7435497157214075
            ]
        },
        {
            "positions": [
                2.787472438995073,
                -2.2209126758863857,
                -1.6911691510815892,
                1.7340394107258608,
                -0.06340856574024745,
                -0.6353346408087295
            ]
        },
        {
            "positions": [
                2.766592546388888,
                -2.263755187601159,
                -1.6873785445881604,
                1.6085621912043417,
                0.024709515826376816,
                -0.527119565896051
            ]
        },
        {
            "positions": [
                2.745712653782703,
                -2.306597699315932,
                -1.6835879380947316,
                1.4830849716828225,
                0.11282759739300108,
                -0.41890449098337257
            ]
        },
        {
            "positions": [
                2.7248327611765175,
                -2.3494402110307044,
                -1.6797973316013026,
                1.3576077521613035,
                0.20094567895962534,
                -0.31068941607069434
            ]
        },
        {
            "positions": [
                2.7039528685703322,
                -2.3922827227454775,
                -1.6760067251078739,
                1.2321305326397844,
                0.2890637605262494,
                -0.2024743411580161
            ]
        },
        {
            "positions": [
                2.683072975964147,
                -2.4351252344602505,
                -1.6722161186144449,
                1.1066533131182656,
                0.3771818420928734,
                -0.09425926624533787
            ]
        },
        {
            "positions": [
                2.6621930833579617,
                -2.4779677461750236,
                -1.668425512121016,
                0.9811760935967465,
                0.4652999236594977,
                0.013955808667340506
            ]
        }
    ]
}