{
    "goal": {
        "global_pose": {
            "orientation": {
                "w": 0.5084816217422485,
                "x": -0.49083608388900757,
                "y": 0.5182115435600281,
                "z": -0.4816462993621826
            },
            "position": {
                "x": 0.5540239810943604,
                "y": 0.030875300988554955,
                "z": 0.16403168439865112
            }
        },
        "name": "move_to_storage_A"
    },
    "id": "BiTRRT_move_to_storage_A_141",
    "joint_names": [
        "shoulder_pan_joint",
        "shoulder_lift_joint",
        "elbow_joint",
        "wrist_1_joint",
        "wrist_2_joint",
        "wrist_3_joint"
    ],
    "metrics": {
        "cart_traj_len": 0.35281568880492453,
        "distance_elbow_joint": 0.447123438110111,
        "distance_shoulder_lift_joint": 0.23551748308589704,
        "distance_shoulder_pan_joint": 0.46105170779450944,
        "distance_wrist_1_joint": 0.23336005420920147,
        "distance_wrist_2_joint": 1.0994807723878377,
        "distance_wrist_3_joint": 0.08840868742762442,
        "smoothness": 8.881784232165597e-16,
        "time": 0.023734077,
        "traj_len": 1.6015436750258112,
        "weighted_distance": 2.0185639312311783
    },
    "planner": "BiTRRT",
    "start": {
        "state": {
            "elbow_joint": 1.971548259319323,
            "shoulder_lift_joint": -1.1394851275133948,
            "shoulder_pan_joint": 0.1228115487234821,
            "wrist_1_joint": -0.7804723859257726,
            "wrist_2_joint": 0.12958671773740124,
            "wrist_3_joint": -3.192489227718131
        }
    },
    "waypoints": [
        {
            "positions": [
                0.1228115487234821,
                -1.1394851275133948,
                1.971548259319323,
                -0.7804723859257726,
                0.12958671773740124,
                -3.192489227718131
            ]
        },
        {
            "positions": [
                0.05694701903855219,
                -1.1731304822399515,
                2.035423036192196,
                -0.8138095365270871,
                0.28665539950709235,
                -3.1798594152284707
            ]
        },
        {
            "positions": [
                -0.008917510646377719,
                -1.2067758369665083,
                2.099297813065069,
                -0.8471466871284016,
                0.4437240812767834,
                -3.16722960273881
            ]
        },
        {
            "positions": [
                -0.07478204033130764,
                -1.240421191693065,
                2.163172589937942,
                -0.8804838377297161,
                0.6007927630464746,
                -3.1545997902491494
            ]
        },
        {
            "positions": [
                -0.14064657001623754,
                -1.2740665464196217,
                2.227047366810815,
                -0.9138209883310306,
                0.7578614448161657,
                -3.1419699777594885
            ]
        },
        {
            "positions": [
                -0.2065110997011675,
                -1.3077119011461784,
                2.290922143683688,
                -0.9471581389323451,
                0.9149301265858568,
                -3.129340165269828
            ]
        },
        {
            "positions": [
                -0.2723756293860974,
                -1.3413572558727351,
                2.354796920556561,
                -0.9804952895336596,
                1.0719988083555478,
                -3.116710352780167
            ]
        },
        {
            "positions": [
                -0.33824015907102734,
                -1.3750026105992919,
                2.418671697429434,
                -1.013832440134974,
                1.229067490125239,
                -3.1040805402905067
            ]
        }
    ]
}{
    "goal": {
        "global_pose": {
            "orientation": {
                "w": 0.5084816217422485,
                "x": -0.49083608388900757,
                "y": 0.5182115435600281,
                "z": -0.4816462993621826
            },
            "position": {
                "x": 0.5540239810943604,
                "y": 0.030875300988554955,
                "z": 0.16403168439865112
            }
        },
        "name": "move_to_storage_A"
    },
    "id": "BiTRRT_move_to_storage_A_141",
    "joint_names": [
        "shoulder_pan_joint",
        "shoulder_lift_joint",
        "elbow_joint",
        "wrist_1_joint",
        "wrist_2_joint",
        "wrist_3_joint"
    ],
    "metrics": {
        "cart_traj_len": 0.35371856436529703,
        "distance_elbow_joint": 0.4498266531878312,
        "distance_shoulder_lift_joint": 0.233203808481107,
        "distance_shoulder_pan_joint": 0.4621241280943846,
        "distance_wrist_1_joint": 0.24190666021702634,
        "distance_wrist_2_joint": 1.101410785552472,
        "distance_wrist_3_joint": 0.10400238740600143,
        "smoothness": 0.0,
        "time": 0.036017617,
        "traj_len": 1.6101162762169763,
        "weighted_distance": 2.0356317553821768
    },
    "planner": "BiTRRT",
    "start": {
        "state": {
            "elbow_joint": 1.97154746011099,
            "shoulder_lift_joint": -1.13948474672311,
            "shoulder_pan_joint": 0.12281154466712228,
            "wrist_1_joint": -0.7804688027058302,
            "wrist_2_joint": 0.12958655903071145,
            "wrist_3_joint": 3.0906928834467795
        }
    },
    "waypoints": [
        {
            "positions": [
                0.12281154466712228,
                -1.13948474672311,
                1.97154746011099,
                -0.7804688027058302,
                0.12958655903071145,
                3.0906928834467795
            ]
        },
        {
            "positions": [
                0.05679381208221021,
                -1.1727995765061252,
                2.0358084105663945,
                -0.8150268970225483,
                0.28693095696677884,
                3.1055503673619227
            ]
        },
        {
            "positions": [
                -0.009223920502701863,
                -1.2061144062891405,
                2.1000693610217986,
                -0.8495849913392662,
                0.4442753549028463,
                3.1204078512770654
            ]
        },
        {
            "positions": [
                -0.07524165308761395,
                -1.2394292360721557,
                2.1643303114772032,
                -0.8841430856559843,
                0.6016197528389137,
                3.1352653351922086
            ]
        },
        {
            "positions": [
                -0.141259385672526,
                -1.272744065855171,
                2.228591261932608,
                -0.9187011799727024,
                0.7589641507749811,
                3.150122819107352
            ]
        },
        {
            "positions": [
                -0.2072771182574381,
                -1.3060588956381864,
                2.2928522123880124,
                -0.9532592742894204,
                0.9163085487110486,
                3.164980303022495
            ]
        },
        {
            "positions": [
                -0.27329485084235017,
                -1.3393737254212017,
                2.3571131628434165,
                -0.9878173686061384,
                1.0736529466471159,
                3.1798377869376377
            ]
        },
        {
            "positions": [
                -0.3393125834272623,
                -1.372688555204217,
                2.421374113298821,
                -1.0223754629228565,
                1.2309973445831834,
                3.194695270852781
            ]
        }
    ]
}{
    "goal": {
        "global_pose": {
            "orientation": {
                "w": 0.5084816217422485,
                "x": -0.49083608388900757,
                "y": 0.5182115435600281,
                "z": -0.4816462993621826
            },
            "position": {
                "x": 0.5540239810943604,
                "y": 0.030875300988554955,
                "z": 0.16403168439865112
            }
        },
        "name": "move_to_storage_A"
    },
    "id": "BiTRRT_move_to_storage_A_141",
    "joint_names": [
        "shoulder_pan_joint",
        "shoulder_lift_joint",
        "elbow_joint",
        "wrist_1_joint",
        "wrist_2_joint",
        "wrist_3_joint"
    ],
    "metrics": {
        "cart_traj_len": 0.35361979196091464,
        "distance_elbow_joint": 0.44772249269945696,
        "distance_shoulder_lift_joint": 0.2346320309255132,
        "distance_shoulder_pan_joint": 0.46165290525011143,
        "distance_wrist_1_joint": 0.234549752648596,
        "distance_wrist_2_joint": 1.1028296538412241,
        "distance_wrist_3_joint": 0.09146066238000783,
        "smoothness": 1.3322676295501878e-15,
        "time": 0.048367756,
        "traj_len": 1.604009818468986,
        "weighted_distance": 2.0231530414169723
    },
    "planner": "BiTRRT",
    "start": {
        "state": {
            "elbow_joint": 1.9715472970024885,
            "shoulder_lift_joint": -1.1394870060712896,
            "shoulder_pan_joint": 0.12281152778156021,
            "wrist_1_joint": -0.780463741449964,
            "wrist_2_joint": 0.12958659822042276,
            "wrist_3_joint": 3.090690232415272
        }
    },
    "waypoints": [
        {
            "positions": [
                0.12281152778156021,
                -1.1394870060712896,
                1.9715472970024885,
                -0.780463741449964,
                0.12958659822042276,
                3.090690232415272
            ]
        },
        {
            "positions": [
                0.056861112745830014,
                -1.1730058676320771,
                2.0355076531024108,
                -0.813970848971192,
                0.2871336916263119,
                3.1037560413267014
            ]
        },
        {
            "positions": [
                -0.00908930228990018,
                -1.206524729192865,
                2.0994680092023335,
                -0.84747795649242,
                0.4446807850322011,
                3.1168218502381313
            ]
        },
        {
            "positions": [
                -0.07503971732563036,
                -1.2400435907536524,
                2.1634283653022557,
                -0.880985064013648,
                0.6022278784380902,
                3.129887659149561
            ]
        },
        {
            "positions": [
                -0.14099013236136057,
                -1.27356245231444,
                2.2273887214021784,
                -0.9144921715348759,
                0.7597749718439794,
                3.1429534680609907
            ]
        },
        {
            "positions": [
                -0.2069405473970908,
                -1.3070813138752277,
                2.2913490775021006,
                -0.947999279056104,
                0.9173220652498686,
                3.1560192769724202
            ]
        },
        {
            "positions": [
                -0.27289096243282096,
                -1.3406001754360153,
                2.355309433602023,
                -0.981506386577332,
                1.0748691586557577,
                3.16908508588385
            ]
        },
        {
            "positions": [
                -0.3388413774685512,
                -1.3741190369968028,
                2.4192697897019455,
                -1.01501349409856,
                1.2324162520616468,
                3.1821508947952797
            ]
        }
    ]
}