{
    "goal": {
        "global_pose": {
            "orientation": {
                "w": 0.7031023502349854,
                "x": -0.7110244035720825,
                "y": 0.007748599164187908,
                "z": 0.005598929710686207
            },
            "position": {
                "x": 0.11585023208521307,
                "y": 0.44412534475326537,
                "z": 0.3711530566215515
            }
        },
        "name": "move_to_auspresseinheit_A"
    },
    "id": "BiTRRT_move_to_auspresseinheit_A_10",
    "joint_names": [
        "shoulder_pan_joint",
        "shoulder_lift_joint",
        "elbow_joint",
        "wrist_1_joint",
        "wrist_2_joint",
        "wrist_3_joint"
    ],
    "metrics": {
        "cart_traj_len": 0.7614676091833328,
        "distance_elbow_joint": 0.3690923181170387,
        "distance_shoulder_lift_joint": 0.537412034901714,
        "distance_shoulder_pan_joint": 1.045224757536754,
        "distance_wrist_1_joint": 1.0669711145634324,
        "distance_wrist_2_joint": 0.5227651972082101,
        "distance_wrist_3_joint": 1.3129378149799842,
        "smoothness": 1.0333801425520452,
        "time": 0.056843029,
        "traj_len": 2.203271031286694,
        "weighted_distance": 3.0116465893326105
    },
    "planner": "BiTRRT",
    "start": {
        "state": {
            "elbow_joint": 2.4225746658250005,
            "shoulder_lift_joint": -1.3736534386056498,
            "shoulder_pan_joint": -0.3378633547517467,
            "wrist_1_joint": -1.0288598680537169,
            "wrist_2_joint": 1.233022673432363,
            "wrist_3_joint": -3.0940220416140027
        }
    },
    "waypoints": [
        {
            "positions": [
                -0.3378633547517467,
                -1.3736534386056498,
                2.4225746658250005,
                -1.0288598680537169,
                1.233022673432363,
                -3.0940220416140027
            ]
        },
        {
            "positions": [
                -0.27139809254408764,
                -1.4403819780531188,
                2.3978128876798777,
                -0.9275075792810035,
                1.1914196635199013,
                -3.0145389689439197
            ]
        },
        {
            "positions": [
                -0.2049328303364285,
                -1.507110517500588,
                2.373051109534755,
                -0.8261552905082901,
                1.1498166536074392,
                -2.9350558962738367
            ]
        },
        {
            "positions": [
                -0.1384675681287694,
                -1.5738390569480571,
                2.348289331389632,
                -0.7248030017355768,
                1.1082136436949774,
                -2.855572823603754
            ]
        },
        {
            "positions": [
                -0.07200230592111029,
                -1.6405675963955262,
                2.323527553244509,
                -0.6234507129628634,
                1.0666106337825156,
                -2.776089750933671
            ]
        },
        {
            "positions": [
                -0.005537043713451151,
                -1.7072961358429954,
                2.298765775099387,
                -0.52209842419015,
                1.0250076238700536,
                -2.696606678263588
            ]
        },
        {
            "positions": [
                0.06092821849420793,
                -1.7740246752904645,
                2.274003996954264,
                -0.42074613541743666,
                0.9834046139575918,
                -2.6171236055935054
            ]
        },
        {
            "positions": [
                0.127393480701867,
                -1.8407532147379335,
                2.249242218809141,
                -0.31939384664472326,
                0.9418016040451299,
                -2.5376405329234224
            ]
        },
        {
            "positions": [
                0.19385874290952615,
                -1.9074817541854028,
                2.2244804406640184,
                -0.21804155787200982,
                0.900198594132668,
                -2.4581574602533394
            ]
        },
        {
            "positions": [
                0.2965592748846224,
                -1.908198498049795,
                2.2586800592552296,
                -0.26927211874835494,
                0.8622103705509649,
                -2.5935721069772035
            ]
        },
        {
            "positions": [
                0.3992598068597187,
                -1.9089152419141873,
                2.292879677846441,
                -0.3205026796247,
                0.824222146969262,
                -2.7289867537010677
            ]
        },
        {
            "positions": [
                0.5019603388348148,
                -1.9096319857785793,
                2.3270792964376525,
                -0.3717332405010451,
                0.7862339233875589,
                -2.864401400424932
            ]
        },
        {
            "positions": [
                0.6046608708099113,
                -1.9103487296429715,
                2.361278915028864,
                -0.4229638013773902,
                0.748245699805856,
                -2.999816047148796
            ]
        },
        {
            "positions": [
                0.7073614027850074,
                -1.9110654735073638,
                2.395478533620075,
                -0.4741943622537353,
                0.7102574762241529,
                -3.13523069387266
            ]
        }
    ]
}