{
    "goal": {
        "global_pose": {
            "orientation": {
                "w": 0.005598929693374612,
                "x": 0.007748599140229565,
                "y": 0.7110244013736278,
                "z": -0.7031023480610252
            },
            "position": {
                "x": -0.8858502320852131,
                "y": -0.7141253447532654,
                "z": 0.3711530566215515
            }
        },
        "name": "move_to_auspresseinheit_C"
    },
    "id": "BiTRRT_move_to_auspresseinheit_C_106",
    "joint_names": [
        "shoulder_pan_joint",
        "shoulder_lift_joint",
        "elbow_joint",
        "wrist_1_joint",
        "wrist_2_joint",
        "wrist_3_joint"
    ],
    "metrics": {
        "cart_traj_len": 0.535434826972825,
        "distance_elbow_joint": 0.9823665452830667,
        "distance_shoulder_lift_joint": 0.31677692055296713,
        "distance_shoulder_pan_joint": 0.25639209921245065,
        "distance_wrist_1_joint": 0.6503730148353166,
        "distance_wrist_2_joint": 1.3021102405387963,
        "distance_wrist_3_joint": 0.6025113875746109,
        "smoothness": 0.24645004040839472,
        "time": 0.0729513,
        "traj_len": 2.0274442552132497,
        "weighted_distance": 2.695929568538567
    },
    "planner": "BiTRRT",
    "start": {
        "state": {
            "elbow_joint": 1.7527959577737207,
            "shoulder_lift_joint": -0.9740617694225068,
            "shoulder_pan_joint": -2.967991417825858,
            "wrist_1_joint": -0.759517768980727,
            "wrist_2_joint": 1.7443932448377408,
            "wrist_3_joint": -3.0840537646736568
        }
    },
    "waypoints": [
        {
            "positions": [
                -2.967991417825858,
                -0.9740617694225068,
                1.7527959577737207,
                -0.759517768980727,
                1.7443932448377408,
                -3.0840537646736568
            ]
        },
        {
            "positions": [
                -2.9408646025352616,
                -0.9541779307084255,
                1.6631930911637534,
                -0.6953117658861376,
                1.6153529295378133,
                -3.0526228567315292
            ]
        },
        {
            "positions": [
                -2.9137377872446653,
                -0.9342940919943442,
                1.5735902245537858,
                -0.6311057627915483,
                1.4863126142378857,
                -3.0211919487894017
            ]
        },
        {
            "positions": [
                -2.886610971954069,
                -0.9144102532802629,
                1.4839873579438185,
                -0.5668997596969589,
                1.3572722989379584,
                -2.989761040847274
            ]
        },
        {
            "positions": [
                -2.8594841566634726,
                -0.8945264145661816,
                1.394384491333851,
                -0.5026937566023695,
                1.2282319836380309,
                -2.9583301329051466
            ]
        },
        {
            "positions": [
                -2.8323573413728766,
                -0.8746425758521004,
                1.3047816247238837,
                -0.4384877535077802,
                1.0991916683381033,
                -2.9268992249630195
            ]
        },
        {
            "positions": [
                -2.8052305260822803,
                -0.8547587371380191,
                1.2151787581139164,
                -0.37428175041319084,
                0.9701513530381759,
                -2.895468317020892
            ]
        },
        {
            "positions": [
                -2.778103710791684,
                -0.8348748984239378,
                1.1255758915039489,
                -0.31007574731860144,
                0.8411110377382484,
                -2.8640374090787644
            ]
        },
        {
            "positions": [
                -2.7509768955010876,
                -0.8149910597098565,
                1.0359730248939814,
                -0.2458697442240121,
                0.7120707224383209,
                -2.832606501136637
            ]
        },
        {
            "positions": [
                -2.7238500802104912,
                -0.7951072209957752,
                0.946370158284014,
                -0.18166374112942274,
                0.5830304071383934,
                -2.8011755931945093
            ]
        },
        {
            "positions": [
                -2.719766493011463,
                -0.74916643028703,
                0.8877232430195607,
                -0.15749074546808522,
                0.5361146061919104,
                -2.9077199985596636
            ]
        },
        {
            "positions": [
                -2.7156829058124354,
                -0.7032256395782849,
                0.8290763277551073,
                -0.1333177498067477,
                0.48919880524542747,
                -3.0142644039248183
            ]
        },
        {
            "positions": [
                -2.7115993186134073,
                -0.6572848488695396,
                0.770429412490654,
                -0.1091447541454102,
                0.4422830042989445,
                -3.1208088092899726
            ]
        }
    ]
}