{
    "goal": {
        "global_pose": {
            "orientation": {
                "w": -0.4816463035849501,
                "x": 0.5182115481033762,
                "y": 0.4908360881923453,
                "z": -0.5084816262002911
            },
            "position": {
                "x": -0.8240239810943604,
                "y": -0.300875300988555,
                "z": 0.16403168439865112
            }
        },
        "name": "move_to_storage_C"
    },
    "id": "BiTRRT_move_to_storage_C_86",
    "joint_names": [
        "shoulder_pan_joint",
        "shoulder_lift_joint",
        "elbow_joint",
        "wrist_1_joint",
        "wrist_2_joint",
        "wrist_3_joint"
    ],
    "metrics": {
        "cart_traj_len": 0.5763323506564197,
        "distance_elbow_joint": 0.25601179822004294,
        "distance_shoulder_lift_joint": 0.1896421905044844,
        "distance_shoulder_pan_joint": 0.4939712209420515,
        "distance_wrist_1_joint": 0.06830208170616825,
        "distance_wrist_2_joint": 1.0695298106450757,
        "distance_wrist_3_joint": 0.07292511581595917,
        "smoothness": 1.2688263239042772e-15,
        "time": 0.053260139,
        "traj_len": 1.4664181592689658,
        "weighted_distance": 1.853122862040438
    },
    "planner": "BiTRRT",
    "start": {
        "state": {
            "elbow_joint": 2.010868314990456,
            "shoulder_lift_joint": -1.1634956873337592,
            "shoulder_pan_joint": -2.4736205022346125,
            "wrist_1_joint": -0.8367026794202681,
            "wrist_2_joint": 0.6746043897044499,
            "wrist_3_joint": -3.1496632123970403
        }
    },
    "waypoints": [
        {
            "positions": [
                -2.4736205022346125,
                -1.1634956873337592,
                2.010868314990456,
                -0.8367026794202681,
                0.6746043897044499,
                -3.1496632123970403
            ]
        },
        {
            "positions": [
                -2.5559490390582877,
                -1.1318886555830119,
                1.968199681953782,
                -0.8253189991359067,
                0.8528593581452959,
                -3.137509026427714
            ]
        },
        {
            "positions": [
                -2.638277575881963,
                -1.1002816238322644,
                1.9255310489171082,
                -0.8139353188515454,
                1.0311143265861418,
                -3.125354840458387
            ]
        },
        {
            "positions": [
                -2.7206061127056382,
                -1.068674592081517,
                1.8828624158804343,
                -0.802551638567184,
                1.2093692950269879,
                -3.1132006544890607
            ]
        },
        {
            "positions": [
                -2.8029346495293135,
                -1.0370675603307695,
                1.8401937828437605,
                -0.7911679582828226,
                1.3876242634678335,
                -3.1010464685197343
            ]
        },
        {
            "positions": [
                -2.8852631863529887,
                -1.0054605285800222,
                1.7975251498070868,
                -0.7797842779984612,
                1.5658792319086796,
                -3.0888922825504075
            ]
        },
        {
            "positions": [
                -2.967591723176664,
                -0.9738534968292748,
                1.7548565167704129,
                -0.7684005977140999,
                1.7441342003495255,
                -3.076738096581081
            ]
        }
    ]
}