{
    "goal": {
        "global_pose": {
            "orientation": {
                "w": 0.7031023480610252,
                "x": -0.7110244013736278,
                "y": 0.0077485991402295624,
                "z": 0.005598929693374583
            },
            "position": {
                "x": -0.8841497679147869,
                "y": 0.44412534475326537,
                "z": 0.3711530566215515
            }
        },
        "name": "move_to_auspresseinheit_D"
    },
    "id": "BiTRRT_move_to_auspresseinheit_D_50",
    "joint_names": [
        "shoulder_pan_joint",
        "shoulder_lift_joint",
        "elbow_joint",
        "wrist_1_joint",
        "wrist_2_joint",
        "wrist_3_joint"
    ],
    "metrics": {
        "cart_traj_len": 0.34251233954988247,
        "distance_elbow_joint": 0.6273257692700007,
        "distance_shoulder_lift_joint": 0.11574483480239328,
        "distance_shoulder_pan_joint": 0.13439762809029887,
        "distance_wrist_1_joint": 0.4996641291251529,
        "distance_wrist_2_joint": 1.4348385991986226,
        "distance_wrist_3_joint": 0.035175471657490576,
        "smoothness": 5.921189480296099e-16,
        "time": 0.036061387,
        "traj_len": 1.687348936095898,
        "weighted_distance": 2.2027256079191333
    },
    "planner": "BiTRRT",
    "start": {
        "state": {
            "elbow_joint": -1.8275523626775212,
            "shoulder_lift_joint": -2.126789852344167,
            "shoulder_pan_joint": -0.03513704404078235,
            "wrist_1_joint": -2.347782403156801,
            "wrist_2_joint": -1.6058999987535132,
            "wrist_3_joint": -3.0880379163319196
        }
    },
    "waypoints": [
        {
            "positions": [
                -0.03513704404078235,
                -2.126789852344167,
                -1.8275523626775212,
                -2.347782403156801,
                -1.6058999987535132,
                -3.0880379163319196
            ]
        },
        {
            "positions": [
                -0.05193674755206971,
                -2.141257956694466,
                -1.749136641518771,
                -2.410240419297445,
                -1.4265451738536854,
                -3.0924348502891057
            ]
        },
        {
            "positions": [
                -0.06873645106335707,
                -2.1557260610447653,
                -1.670720920360021,
                -2.472698435438089,
                -1.2471903489538576,
                -3.0968317842462922
            ]
        },
        {
            "positions": [
                -0.08553615457464442,
                -2.1701941653950643,
                -1.592305199201271,
                -2.5351564515787333,
                -1.0678355240540296,
                -3.101228718203479
            ]
        },
        {
            "positions": [
                -0.10233585808593179,
                -2.1846622697453633,
                -1.513889478042521,
                -2.597614467719377,
                -0.8884806991542019,
                -3.105625652160665
            ]
        },
        {
            "positions": [
                -0.11913556159721914,
                -2.1991303740956627,
                -1.4354737568837708,
                -2.6600724838600214,
                -0.7091258742543741,
                -3.110022586117851
            ]
        },
        {
            "positions": [
                -0.1359352651085065,
                -2.2135984784459617,
                -1.3570580357250206,
                -2.7225305000006657,
                -0.5297710493545462,
                -3.1144195200750375
            ]
        },
        {
            "positions": [
                -0.15273496861979385,
                -2.228066582796261,
                -1.2786423145662704,
                -2.7849885161413095,
                -0.35041622445471843,
                -3.118816454032224
            ]
        },
        {
            "positions": [
                -0.16953467213108123,
                -2.24253468714656,
                -1.2002265934075205,
                -2.8474465322819538,
                -0.17106139955489072,
                -3.12321338798941
            ]
        }
    ]
}