{
    "goal": {
        "global_pose": {
            "orientation": {
                "w": 0.5084816217422485,
                "x": -0.49083608388900757,
                "y": 0.5182115435600281,
                "z": -0.4816462993621826
            },
            "position": {
                "x": 0.5540239810943604,
                "y": 0.030875300988554955,
                "z": 0.16403168439865112
            }
        },
        "name": "move_to_storage_A"
    },
    "id": "BiTRRT_move_to_storage_A_3",
    "joint_names": [
        "shoulder_pan_joint",
        "shoulder_lift_joint",
        "elbow_joint",
        "wrist_1_joint",
        "wrist_2_joint",
        "wrist_3_joint"
    ],
    "metrics": {
        "cart_traj_len": 0.35350986989180055,
        "distance_elbow_joint": 0.44937059370603705,
        "distance_shoulder_lift_joint": 0.23507656475213667,
        "distance_shoulder_pan_joint": 0.46402838976495725,
        "distance_wrist_1_joint": 0.23709227756042062,
        "distance_wrist_2_joint": 1.092497390565982,
        "distance_wrist_3_joint": 0.09656205983976474,
        "smoothness": 0.0,
        "time": 0.036835375000000004,
        "traj_len": 1.6045645129409096,
        "weighted_distance": 2.024188989199188
    },
    "planner": "BiTRRT",
    "start": {
        "state": {
            "elbow_joint": 1.971548259319323,
            "shoulder_lift_joint": -1.1394851275133948,
            "shoulder_pan_joint": 0.1228115487234821,
            "wrist_1_joint": -0.7804723859257726,
            "wrist_2_joint": 0.12958671773740124,
            "wrist_3_joint": -3.192489227718131
        }
    },
    "waypoints": [
        {
            "positions": [
                0.1228115487234821,
                -1.1394851275133948,
                1.971548259319323,
                -0.7804723859257726,
                0.12958671773740124,
                -3.192489227718131
            ]
        },
        {
            "positions": [
                0.056521778757059646,
                -1.1730674939065573,
                2.0357440584201854,
                -0.814342711291547,
                0.2856577735325415,
                -3.178694647741022
            ]
        },
        {
            "positions": [
                -0.009767991209362809,
                -1.2066498602997195,
                2.099939857521048,
                -0.8482130366573214,
                0.44172882932768176,
                -3.1649000677639125
            ]
        },
        {
            "positions": [
                -0.07605776117578528,
                -1.240232226692882,
                2.16413565662191,
                -0.8820833620230957,
                0.5977998851228221,
                -3.151105487786803
            ]
        },
        {
            "positions": [
                -0.14234753114220772,
                -1.2738145930860443,
                2.2283314557227727,
                -0.9159536873888701,
                0.7538709409179624,
                -3.1373109078096943
            ]
        },
        {
            "positions": [
                -0.2086373011086302,
                -1.3073969594792068,
                2.2925272548236353,
                -0.9498240127546445,
                0.9099419967131027,
                -3.123516327832585
            ]
        },
        {
            "positions": [
                -0.27492707107505265,
                -1.340979325872369,
                2.3567230539244974,
                -0.9836943381204188,
                1.066013052508243,
                -3.1097217478554757
            ]
        },
        {
            "positions": [
                -0.34121684104147515,
                -1.3745616922655315,
                2.42091885302536,
                -1.0175646634861932,
                1.2220841083033833,
                -3.0959271678783664
            ]
        }
    ]
}{
    "goal": {
        "global_pose": {
            "orientation": {
                "w": 0.5084816217422485,
                "x": -0.49083608388900757,
                "y": 0.5182115435600281,
                "z": -0.4816462993621826
            },
            "position": {
                "x": 0.5540239810943604,
                "y": 0.030875300988554955,
                "z": 0.16403168439865112
            }
        },
        "name": "move_to_storage_A"
    },
    "id": "BiTRRT_move_to_storage_A_3",
    "joint_names": [
        "shoulder_pan_joint",
        "shoulder_lift_joint",
        "elbow_joint",
        "wrist_1_joint",
        "wrist_2_joint",
        "wrist_3_joint"
    ],
    "metrics": {
        "cart_traj_len": 0.35245682331251865,
        "distance_elbow_joint": 0.4483716012966439,
        "distance_shoulder_lift_joint": 0.23323331103958544,
        "distance_shoulder_pan_joint": 0.46043041820925185,
        "distance_wrist_1_joint": 0.24182665525996083,
        "distance_wrist_2_joint": 1.0984921816423827,
        "distance_wrist_3_joint": 0.09427595260917787,
        "smoothness": 0.0,
        "time": 0.043346849,
        "traj_len": 1.6051884998519652,
        "weighted_distance": 2.0262035589194145
    },
    "planner": "BiTRRT",
    "start": {
        "state": {
            "elbow_joint": 1.97154746011099,
            "shoulder_lift_joint": -1.13948474672311,
            "shoulder_pan_joint": 0.12281154466712228,
            "wrist_1_joint": -0.7804688027058302,
            "wrist_2_joint": 0.12958655903071145,
            "wrist_3_joint": 3.0906928834467795
        }
    },
    "waypoints": [
        {
            "positions": [
                0.12281154466712228,
                -1.13948474672311,
                1.97154746011099,
                -0.7804688027058302,
                0.12958655903071145,
                3.0906928834467795
            ]
        },
        {
            "positions": [
                0.05703577063722917,
                -1.1728037911573364,
                2.0356005460105107,
                -0.8150154677429674,
                0.2865140135510518,
                3.104160876676662
            ]
        },
        {
            "positions": [
                -0.00874000339266394,
                -1.206122835591563,
                2.099653631910031,
                -0.8495621327801047,
                0.4434414680713922,
                3.1176288699065444
            ]
        },
        {
            "positions": [
                -0.07451577742255706,
                -1.2394418800257894,
                2.1637067178095517,
                -0.8841087978172419,
                0.6003689225917326,
                3.131096863136427
            ]
        },
        {
            "positions": [
                -0.14029155145245015,
                -1.272760924460016,
                2.227759803709072,
                -0.9186554628543793,
                0.757296377112073,
                3.14456485636631
            ]
        },
        {
            "positions": [
                -0.2060673254823433,
                -1.3060799688942424,
                2.2918128896085928,
                -0.9532021278915165,
                0.9142238316324134,
                3.1580328495961925
            ]
        },
        {
            "positions": [
                -0.2718430995122364,
                -1.3393990133284688,
                2.355865975508113,
                -0.9877487929286537,
                1.0711512861527537,
                3.1715008428260747
            ]
        },
        {
            "positions": [
                -0.33761887354212955,
                -1.3727180577626954,
                2.419919061407634,
                -1.022295457965791,
                1.2280787406730942,
                3.1849688360559574
            ]
        }
    ]
}{
    "goal": {
        "global_pose": {
            "orientation": {
                "w": 0.5084816217422485,
                "x": -0.49083608388900757,
                "y": 0.5182115435600281,
                "z": -0.4816462993621826
            },
            "position": {
                "x": 0.5540239810943604,
                "y": 0.030875300988554955,
                "z": 0.16403168439865112
            }
        },
        "name": "move_to_storage_A"
    },
    "id": "BiTRRT_move_to_storage_A_3",
    "joint_names": [
        "shoulder_pan_joint",
        "shoulder_lift_joint",
        "elbow_joint",
        "wrist_1_joint",
        "wrist_2_joint",
        "wrist_3_joint"
    ],
    "metrics": {
        "cart_traj_len": 0.35336019367030763,
        "distance_elbow_joint": 0.45024508190854196,
        "distance_shoulder_lift_joint": 0.23398910003552698,
        "distance_shoulder_pan_joint": 0.46301113115337533,
        "distance_wrist_1_joint": 0.2416756524410164,
        "distance_wrist_2_joint": 1.095395406313509,
        "distance_wrist_3_joint": 0.10236119204457683,
        "smoothness": 0.0,
        "time": 0.044362287,
        "traj_len": 1.6083151320237419,
        "weighted_distance": 2.0318639242676233
    },
    "planner": "BiTRRT",
    "start": {
        "state": {
            "elbow_joint": 1.9715472970024885,
            "shoulder_lift_joint": -1.1394870060712896,
            "shoulder_pan_joint": 0.12281152778156021,
            "wrist_1_joint": -0.780463741449964,
            "wrist_2_joint": 0.12958659822042276,
            "wrist_3_joint": 3.090690232415272
        }
    },
    "waypoints": [
        {
            "positions": [
                0.12281152778156021,
                -1.1394870060712896,
                1.9715472970024885,
                -0.780463741449964,
                0.12958659822042276,
                3.090690232415272
            ]
        },
        {
            "positions": [
                0.056667080473935164,
                -1.1729140203620791,
                2.035868022989423,
                -0.8149888346558235,
                0.28607165626520975,
                3.1053132598502113
            ]
        },
        {
            "positions": [
                -0.009477366833689882,
                -1.2063410346528687,
                2.1001887489763575,
                -0.849513927861683,
                0.44255671430999677,
                3.119936287285151
            ]
        },
        {
            "positions": [
                -0.07562181414131491,
                -1.2397680489436582,
                2.164509474963292,
                -0.8840390210675424,
                0.5990417723547837,
                3.1345593147200903
            ]
        },
        {
            "positions": [
                -0.14176626144893997,
                -1.2731950632344478,
                2.2288302009502265,
                -0.9185641142734019,
                0.7555268303995707,
                3.1491823421550302
            ]
        },
        {
            "positions": [
                -0.20791070875656506,
                -1.3066220775252375,
                2.2931509269371615,
                -0.9530892074792614,
                0.9120118884443578,
                3.1638053695899697
            ]
        },
        {
            "positions": [
                -0.27405515606419006,
                -1.340049091816027,
                2.357471652924096,
                -0.9876143006851209,
                1.0684969464891447,
                3.178428397024909
            ]
        },
        {
            "positions": [
                -0.3401996033718151,
                -1.3734761061068166,
                2.4217923789110305,
                -1.0221393938909804,
                1.2249820045339317,
                3.1930514244598487
            ]
        }
    ]
}