{
    "goal": {
        "global_pose": {
            "orientation": {
                "w": 0.5084816217422485,
                "x": -0.49083608388900757,
                "y": 0.5182115435600281,
                "z": -0.4816462993621826
            },
            "position": {
                "x": 0.5540239810943604,
                "y": 0.030875300988554955,
                "z": 0.16403168439865112
            }
        },
        "name": "move_to_storage_A"
    },
    "id": "BiTRRT_move_to_storage_A_139",
    "joint_names": [
        "shoulder_pan_joint",
        "shoulder_lift_joint",
        "elbow_joint",
        "wrist_1_joint",
        "wrist_2_joint",
        "wrist_3_joint"
    ],
    "metrics": {
        "cart_traj_len": 0.352387500582593,
        "distance_elbow_joint": 0.449203468926745,
        "distance_shoulder_lift_joint": 0.23355412303665735,
        "distance_shoulder_pan_joint": 0.45788456844828374,
        "distance_wrist_1_joint": 0.24189713543530955,
        "distance_wrist_2_joint": 1.1095060176764011,
        "distance_wrist_3_joint": 0.0933417261803191,
        "smoothness": 0.0,
        "time": 0.040395863000000004,
        "traj_len": 1.6079138781986166,
        "weighted_distance": 2.030633803810048
    },
    "planner": "BiTRRT",
    "start": {
        "state": {
            "elbow_joint": 1.971548259319323,
            "shoulder_lift_joint": -1.1394851275133948,
            "shoulder_pan_joint": 0.1228115487234821,
            "wrist_1_joint": -0.7804723859257726,
            "wrist_2_joint": 0.12958671773740124,
            "wrist_3_joint": -3.192489227718131
        }
    },
    "waypoints": [
        {
            "positions": [
                0.1228115487234821,
                -1.1394851275133948,
                1.971548259319323,
                -0.7804723859257726,
                0.12958671773740124,
                -3.192489227718131
            ]
        },
        {
            "positions": [
                0.057399467516584424,
                -1.1728500022329174,
                2.035720183451715,
                -0.8150291195593883,
                0.28808757740545854,
                -3.179154695406657
            ]
        },
        {
            "positions": [
                -0.008012613690313253,
                -1.2062148769524397,
                2.0998921075841075,
                -0.849585853193004,
                0.4465884370735158,
                -3.1658201630951828
            ]
        },
        {
            "positions": [
                -0.07342469489721093,
                -1.2395797516719622,
                2.1640640317164994,
                -0.8841425868266195,
                0.6050892967415731,
                -3.152485630783709
            ]
        },
        {
            "positions": [
                -0.1388367761041086,
                -1.2729446263914848,
                2.2282359558488913,
                -0.9186993204602352,
                0.7635901564096305,
                -3.1391510984722344
            ]
        },
        {
            "positions": [
                -0.20424885731100628,
                -1.3063095011110073,
                2.2924078799812837,
                -0.9532560540938508,
                0.9220910160776878,
                -3.1258165661607604
            ]
        },
        {
            "positions": [
                -0.26966093851790396,
                -1.3396743758305296,
                2.356579804113676,
                -0.9878127877274665,
                1.080591875745745,
                -3.112482033849286
            ]
        },
        {
            "positions": [
                -0.33507301972480164,
                -1.3730392505500522,
                2.420751728246068,
                -1.0223695213610822,
                1.2390927354138024,
                -3.099147501537812
            ]
        }
    ]
}{
    "goal": {
        "global_pose": {
            "orientation": {
                "w": 0.5084816217422485,
                "x": -0.49083608388900757,
                "y": 0.5182115435600281,
                "z": -0.4816462993621826
            },
            "position": {
                "x": 0.5540239810943604,
                "y": 0.030875300988554955,
                "z": 0.16403168439865112
            }
        },
        "name": "move_to_storage_A"
    },
    "id": "BiTRRT_move_to_storage_A_139",
    "joint_names": [
        "shoulder_pan_joint",
        "shoulder_lift_joint",
        "elbow_joint",
        "wrist_1_joint",
        "wrist_2_joint",
        "wrist_3_joint"
    ],
    "metrics": {
        "cart_traj_len": 0.3534094559950787,
        "distance_elbow_joint": 0.4500403221695901,
        "distance_shoulder_lift_joint": 0.23678013574324752,
        "distance_shoulder_pan_joint": 0.46138988359535343,
        "distance_wrist_1_joint": 0.24018381796990473,
        "distance_wrist_2_joint": 1.1037578922477618,
        "distance_wrist_3_joint": 0.09612649099095494,
        "smoothness": 0.0,
        "time": 0.024807114999999998,
        "traj_len": 1.6088127742894176,
        "weighted_distance": 2.030879916419577
    },
    "planner": "BiTRRT",
    "start": {
        "state": {
            "elbow_joint": 1.97154746011099,
            "shoulder_lift_joint": -1.13948474672311,
            "shoulder_pan_joint": 0.12281154466712228,
            "wrist_1_joint": -0.7804688027058302,
            "wrist_2_joint": 0.12958655903071145,
            "wrist_3_joint": 3.0906928834467795
        }
    },
    "waypoints": [
        {
            "positions": [
                0.12281154466712228,
                -1.13948474672311,
                1.97154746011099,
                -0.7804688027058302,
                0.12958655903071145,
                3.0906928834467795
            ]
        },
        {
            "positions": [
                0.056898704153500373,
                -1.1733104804007168,
                2.0358389347066455,
                -0.8147807767015308,
                0.28726625792324884,
                3.10442523930263
            ]
        },
        {
            "positions": [
                -0.009014136360121536,
                -1.2071362140783235,
                2.1001304093023014,
                -0.8490927506972316,
                0.4449459568157862,
                3.118157595158481
            ]
        },
        {
            "positions": [
                -0.07492697687374346,
                -1.2409619477559304,
                2.164421883897957,
                -0.8834047246929322,
                0.6026256557083236,
                3.1318899510143314
            ]
        },
        {
            "positions": [
                -0.14083981738736534,
                -1.274787681433537,
                2.228713358493613,
                -0.9177166986886329,
                0.760305354600861,
                3.1456223068701825
            ]
        },
        {
            "positions": [
                -0.2067526579009873,
                -1.308613415111144,
                2.2930048330892685,
                -0.9520286726843336,
                0.9179850534933984,
                3.159354662726033
            ]
        },
        {
            "positions": [
                -0.2726654984146092,
                -1.3424391487887506,
                2.3572963076849245,
                -0.9863406466800342,
                1.0756647523859357,
                3.173087018581884
            ]
        },
        {
            "positions": [
                -0.33857833892823114,
                -1.3762648824663575,
                2.42158778228058,
                -1.020652620675735,
                1.2333444512784733,
                3.1868193744377344
            ]
        }
    ]
}{
    "goal": {
        "global_pose": {
            "orientation": {
                "w": 0.5084816217422485,
                "x": -0.49083608388900757,
                "y": 0.5182115435600281,
                "z": -0.4816462993621826
            },
            "position": {
                "x": 0.5540239810943604,
                "y": 0.030875300988554955,
                "z": 0.16403168439865112
            }
        },
        "name": "move_to_storage_A"
    },
    "id": "BiTRRT_move_to_storage_A_139",
    "joint_names": [
        "shoulder_pan_joint",
        "shoulder_lift_joint",
        "elbow_joint",
        "wrist_1_joint",
        "wrist_2_joint",
        "wrist_3_joint"
    ],
    "metrics": {
        "cart_traj_len": 0.3537986078456578,
        "distance_elbow_joint": 0.45010243298755404,
        "distance_shoulder_lift_joint": 0.23655671063465689,
        "distance_shoulder_pan_joint": 0.4599718665836617,
        "distance_wrist_1_joint": 0.23680403192757327,
        "distance_wrist_2_joint": 1.1130829404539038,
        "distance_wrist_3_joint": 0.09326192782291765,
        "smoothness": 2.2204460668324854e-16,
        "time": 0.014828606,
        "traj_len": 1.609279313981966,
        "weighted_distance": 2.031302719546641
    },
    "planner": "BiTRRT",
    "start": {
        "state": {
            "elbow_joint": 1.9715472970024885,
            "shoulder_lift_joint": -1.1394870060712896,
            "shoulder_pan_joint": 0.12281152778156021,
            "wrist_1_joint": -0.780463741449964,
            "wrist_2_joint": 0.12958659822042276,
            "wrist_3_joint": 3.090690232415272
        }
    },
    "waypoints": [
        {
            "positions": [
                0.12281152778156021,
                -1.1394870060712896,
                1.9715472970024885,
                -0.780463741449964,
                0.12958659822042276,
                3.090690232415272
            ]
        },
        {
            "positions": [
                0.057101261126751415,
                -1.1732808218762405,
                2.035847644572139,
                -0.8142928888681887,
                0.2885984468566947,
                3.104013364961403
            ]
        },
        {
            "positions": [
                -0.008609005528057379,
                -1.2070746376811916,
                2.10014799214179,
                -0.8481220362864135,
                0.4476102954929667,
                3.117336497507534
            ]
        },
        {
            "positions": [
                -0.07431927218286619,
                -1.2408684534861425,
                2.1644483397114405,
                -0.8819511837046382,
                0.6066221441292386,
                3.1306596300536653
            ]
        },
        {
            "positions": [
                -0.14002953883767497,
                -1.2746622692910936,
                2.2287486872810907,
                -0.915780331122863,
                0.7656339927655106,
                3.143982762599796
            ]
        },
        {
            "positions": [
                -0.2057398054924838,
                -1.3084560850960445,
                2.2930490348507413,
                -0.9496094785410878,
                0.9246458414017826,
                3.157305895145927
            ]
        },
        {
            "positions": [
                -0.27145007214729255,
                -1.3422499009009954,
                2.357349382420392,
                -0.9834386259593125,
                1.0836576900380546,
                3.1706290276920583
            ]
        },
        {
            "positions": [
                -0.33716033880210144,
                -1.3760437167059465,
                2.4216497299900426,
                -1.0172677733775373,
                1.2426695386743265,
                3.1839521602381895
            ]
        }
    ]
}