{
    "goal": {
        "global_pose": {
            "orientation": {
                "w": 0.005598929693374612,
                "x": 0.007748599140229565,
                "y": 0.7110244013736278,
                "z": -0.7031023480610252
            },
            "position": {
                "x": -0.8858502320852131,
                "y": -0.7141253447532654,
                "z": 0.3711530566215515
            }
        },
        "name": "move_to_auspresseinheit_C"
    },
    "id": "BiTRRT_move_to_auspresseinheit_C_80",
    "joint_names": [
        "shoulder_pan_joint",
        "shoulder_lift_joint",
        "elbow_joint",
        "wrist_1_joint",
        "wrist_2_joint",
        "wrist_3_joint"
    ],
    "metrics": {
        "cart_traj_len": 0.4926117691228782,
        "distance_elbow_joint": 0.9883612207372777,
        "distance_shoulder_lift_joint": 0.3198123758263006,
        "distance_shoulder_pan_joint": 0.2568338996494086,
        "distance_wrist_1_joint": 0.6538709227304129,
        "distance_wrist_2_joint": 1.3079802830880036,
        "distance_wrist_3_joint": 0.047266239497766094,
        "smoothness": 1.6148698667872622e-16,
        "time": 0.078552538,
        "traj_len": 1.8905356229199095,
        "weighted_distance": 2.372869281343395
    },
    "planner": "BiTRRT",
    "start": {
        "state": {
            "elbow_joint": 1.7527959577737207,
            "shoulder_lift_joint": -0.9740617694225068,
            "shoulder_pan_joint": -2.967991417825858,
            "wrist_1_joint": -0.759517768980727,
            "wrist_2_joint": 1.7443932448377408,
            "wrist_3_joint": -3.0840537646736568
        }
    },
    "waypoints": [
        {
            "positions": [
                -2.967991417825858,
                -0.9740617694225068,
                1.7527959577737207,
                -0.759517768980727,
                1.7443932448377408,
                -3.0840537646736568
            ]
        },
        {
            "positions": [
                -2.9423080278609173,
                -0.9420805318398767,
                1.653959835699993,
                -0.6941306767076857,
                1.6135952165289404,
                -3.0887803886234333
            ]
        },
        {
            "positions": [
                -2.916624637895976,
                -0.9100992942572467,
                1.5551237136262652,
                -0.6287435844346444,
                1.48279718822014,
                -3.09350701257321
            ]
        },
        {
            "positions": [
                -2.8909412479310355,
                -0.8781180566746166,
                1.4562875915525373,
                -0.5633564921616031,
                1.3519991599113397,
                -3.0982336365229868
            ]
        },
        {
            "positions": [
                -2.8652578579660943,
                -0.8461368190919865,
                1.3574514694788096,
                -0.4979693998885618,
                1.2212011316025393,
                -3.1029602604727633
            ]
        },
        {
            "positions": [
                -2.8395744680011537,
                -0.8141555815093564,
                1.2586153474050819,
                -0.4325823076155205,
                1.0904031032937391,
                -3.10768688442254
            ]
        },
        {
            "positions": [
                -2.813891078036213,
                -0.7821743439267264,
                1.159779225331354,
                -0.36719521534247923,
                0.9596050749849386,
                -3.1124135083723163
            ]
        },
        {
            "positions": [
                -2.788207688071272,
                -0.7501931063440963,
                1.0609431032576264,
                -0.301808123069438,
                0.8288070466761384,
                -3.117140132322093
            ]
        },
        {
            "positions": [
                -2.762524298106331,
                -0.7182118687614663,
                0.9621069811838985,
                -0.23642103079639665,
                0.698009018367338,
                -3.12186675627187
            ]
        },
        {
            "positions": [
                -2.73684090814139,
                -0.6862306311788362,
                0.8632708591101707,
                -0.17103393852335536,
                0.5672109900585376,
                -3.1265933802216463
            ]
        },
        {
            "positions": [
                -2.7111575181764493,
                -0.6542493935962062,
                0.7644347370364429,
                -0.10564684625031401,
                0.4364129617497372,
                -3.131320004171423
            ]
        }
    ]
}