{
    "goal": {
        "global_pose": {
            "orientation": {
                "w": 0.7047431468963623,
                "x": -0.7094548344612122,
                "y": 0.0024358443915843964,
                "z": -0.0022348060738295317
            },
            "position": {
                "x": 0.6094750761985779,
                "y": 0.3671506643295288,
                "z": 0.19426114857196808
            }
        },
        "name": "move_to_magneteinheit_A"
    },
    "id": "BiTRRT_move_to_magneteinheit_A_85",
    "joint_names": [
        "shoulder_pan_joint",
        "shoulder_lift_joint",
        "elbow_joint",
        "wrist_1_joint",
        "wrist_2_joint",
        "wrist_3_joint"
    ],
    "metrics": {
        "cart_traj_len": 3.187552065572381,
        "distance_elbow_joint": 3.881576088892765,
        "distance_shoulder_lift_joint": 0.4160178928596694,
        "distance_shoulder_pan_joint": 2.7039276735712803,
        "distance_wrist_1_joint": 1.9246493867792913,
        "distance_wrist_2_joint": 1.694145132560651,
        "distance_wrist_3_joint": 2.7126679305532853,
        "smoothness": 0.08527924403820622,
        "time": 0.08874717800000001,
        "traj_len": 3.65143589635871,
        "weighted_distance": 4.730445484905566
    },
    "planner": "BiTRRT",
    "start": {
        "state": {
            "elbow_joint": -1.9196185241190666,
            "shoulder_lift_joint": -1.2443396400964142,
            "shoulder_pan_joint": 2.6996025414629847,
            "wrist_1_joint": -1.5485510000780065,
            "wrist_2_joint": -1.5709468930060704,
            "wrist_3_joint": 0.4420197071253992
        }
    },
    "waypoints": [
        {
            "positions": [
                2.6996025414629847,
                -1.2443396400964142,
                -1.9196185241190666,
                -1.5485510000780065,
                -1.5709468930060704,
                0.4420197071253992
            ]
        },
        {
            "positions": [
                2.5651684979310487,
                -1.2278888992505168,
                -1.8020419193359338,
                -1.470890111874035,
                -1.545248969334239,
                0.43930072275153537
            ]
        },
        {
            "positions": [
                2.4307344543991123,
                -1.2114381584046197,
                -1.6844653145528012,
                -1.3932292236700634,
                -1.519551045662408,
                0.4365817383776715
            ]
        },
        {
            "positions": [
                2.2963004108671763,
                -1.1949874175587223,
                -1.5668887097696684,
                -1.3155683354660919,
                -1.4938531219905766,
                0.4338627540038077
            ]
        },
        {
            "positions": [
                2.1618663673352403,
                -1.178536676712825,
                -1.4493121049865358,
                -1.2379074472621205,
                -1.4681551983187455,
                0.4311437696299439
            ]
        },
        {
            "positions": [
                2.0274323238033043,
                -1.1620859358669278,
                -1.331735500203403,
                -1.160246559058149,
                -1.4424572746469142,
                0.42842478525608
            ]
        },
        {
            "positions": [
                1.8929982802713679,
                -1.1456351950210304,
                -1.2141588954202702,
                -1.0825856708541775,
                -1.416759350975083,
                0.4257058008822162
            ]
        },
        {
            "positions": [
                1.7585642367394319,
                -1.129184454175133,
                -1.0965822906371376,
                -1.004924782650206,
                -1.3910614273032518,
                0.4229868165083524
            ]
        },
        {
            "positions": [
                1.6241301932074956,
                -1.1127337133292357,
                -0.9790056858540048,
                -0.9272638944462344,
                -1.3653635036314204,
                0.4202678321344886
            ]
        },
        {
            "positions": [
                1.4896961496755594,
                -1.0962829724833385,
                -0.861429081070872,
                -0.8496030062422628,
                -1.3396655799595893,
                0.41754884776062473
            ]
        },
        {
            "positions": [
                1.3552621061436234,
                -1.0798322316374411,
                -0.7438524762877394,
                -0.7719421180382913,
                -1.3139676562877582,
                0.4148298633867609
            ]
        },
        {
            "positions": [
                1.2208280626116872,
                -1.063381490791544,
                -0.6262758715046066,
                -0.6942812298343198,
                -1.288269732615927,
                0.4121108790128971
            ]
        },
        {
            "positions": [
                1.086394019079751,
                -1.0469307499456466,
                -0.5086992667214738,
                -0.6166203416303483,
                -1.2625718089440956,
                0.40939189463903325
            ]
        },
        {
            "positions": [
                0.951959975547815,
                -1.0304800090997492,
                -0.3911226619383412,
                -0.5389594534263769,
                -1.2368738852722645,
                0.40667291026516944
            ]
        },
        {
            "positions": [
                0.8175259320158788,
                -1.0140292682538519,
                -0.2735460571552084,
                -0.4612985652224053,
                -1.2111759616004332,
                0.40395392589130563
            ]
        },
        {
            "positions": [
                0.6830918884839425,
                -0.9975785274079547,
                -0.15596945237207582,
                -0.38363767701843376,
                -1.1854780379286018,
                0.40123494151744177
            ]
        },
        {
            "positions": [
                0.5486578449520066,
                -0.9811277865620573,
                -0.03839284758894307,
                -0.30597678881446233,
                -1.1597801142567707,
                0.39851595714357796
            ]
        },
        {
            "positions": [
                0.4804972361950709,
                -0.9874963185017902,
                0.07648508085449388,
                -0.2857043335745325,
                -1.0856590051008472,
                0.4969477131291416
            ]
        },
        {
            "positions": [
                0.41233662743813515,
                -0.9938648504415232,
                0.19136300929793082,
                -0.26543187833460274,
                -1.0115378959449235,
                0.5953794691147052
            ]
        },
        {
            "positions": [
                0.3441760186811994,
                -1.0002333823812561,
                0.3062409377413678,
                -0.24515942309467292,
                -0.937416786789,
                0.6938112251002688
            ]
        },
        {
            "positions": [
                0.2760154099242637,
                -1.006601914320989,
                0.4211188661848047,
                -0.22488696785474313,
                -0.8632956776330765,
                0.7922429810858325
            ]
        },
        {
            "positions": [
                0.20785480116732796,
                -1.0129704462607219,
                0.5359967946282418,
                -0.2046145126148133,
                -0.7891745684771527,
                0.8906747370713961
            ]
        },
        {
            "positions": [
                0.13969419241039222,
                -1.0193389782004547,
                0.6508747230716787,
                -0.18434205737488352,
                -0.7150534593212292,
                0.9891064930569597
            ]
        },
        {
            "positions": [
                0.13244065270298616,
                -1.0285256215985366,
                0.7557257523128172,
                -0.22421455035093596,
                -0.6472742678894057,
                1.1480240831990731
            ]
        },
        {
            "positions": [
                0.1251871129955801,
                -1.0377122649966186,
                0.8605767815539557,
                -0.2640870433269884,
                -0.5794950764575822,
                1.3069416733411865
            ]
        },
        {
            "positions": [
                0.11793357328817404,
                -1.0468989083947005,
                0.9654278107950942,
                -0.3039595363030408,
                -0.5117158850257588,
                1.4658592634832999
            ]
        },
        {
            "positions": [
                0.11068003358076797,
                -1.0560855517927825,
                1.0702788400362326,
                -0.3438320292790933,
                -0.4439366935939353,
                1.6247768536254132
            ]
        },
        {
            "positions": [
                0.10342649387336192,
                -1.0652721951908644,
                1.175129869277371,
                -0.3837045222551457,
                -0.37615750216211186,
                1.7836944437675268
            ]
        },
        {
            "positions": [
                0.09617295416595587,
                -1.0744588385889464,
                1.2799808985185095,
                -0.42357701523119806,
                -0.3083783107302884,
                1.94261203390964
            ]
        },
        {
            "positions": [
                0.08891941445854981,
                -1.0836454819870283,
                1.3848319277596481,
                -0.46344950820725056,
                -0.2405991192984649,
                2.1015296240517536
            ]
        },
        {
            "positions": [
                0.08166587475114374,
                -1.0928321253851103,
                1.4896829570007868,
                -0.5033220011833031,
                -0.17281992786664135,
                2.260447214193867
            ]
        },
        {
            "positions": [
                0.07441233504373768,
                -1.1020187687831922,
                1.5945339862419252,
                -0.5431944941593554,
                -0.10504073643481793,
                2.4193648043359803
            ]
        },
        {
            "positions": [
                0.06715879533633164,
                -1.1112054121812742,
                1.6993850154830636,
                -0.5830669871354078,
                -0.0372615450029945,
                2.5782823944780935
            ]
        },
        {
            "positions": [
                0.05990525562892557,
                -1.120392055579356,
                1.804236044724202,
                -0.6229394801114603,
                0.030517646428829093,
                2.737199984620207
            ]
        },
        {
            "positions": [
                0.09202044949753514,
                -1.127162940733363,
                1.8830968047489502,
                -0.6838609907812562,
                0.07685794299170462,
                2.9024400611676247
            ]
        },
        {
            "positions": [
                0.12413564336614472,
                -1.13393382588737,
                1.9619575647736982,
                -0.7447825014510521,
                0.12319823955458016,
                3.067680137715042
            ]
        }
    ]
}