{
    "goal": {
        "global_pose": {
            "orientation": {
                "w": -0.4816463035849501,
                "x": 0.5182115481033762,
                "y": 0.4908360881923453,
                "z": -0.5084816262002911
            },
            "position": {
                "x": -0.8240239810943604,
                "y": -0.300875300988555,
                "z": 0.16403168439865112
            }
        },
        "name": "move_to_storage_C"
    },
    "id": "BiTRRT_move_to_storage_C_24",
    "joint_names": [
        "shoulder_pan_joint",
        "shoulder_lift_joint",
        "elbow_joint",
        "wrist_1_joint",
        "wrist_2_joint",
        "wrist_3_joint"
    ],
    "metrics": {
        "cart_traj_len": 0.5761586005588389,
        "distance_elbow_joint": 0.2531916854808163,
        "distance_shoulder_lift_joint": 0.1882864903130559,
        "distance_shoulder_pan_joint": 0.4951682768924264,
        "distance_wrist_1_joint": 0.06330843306272083,
        "distance_wrist_2_joint": 1.06403013581438,
        "distance_wrist_3_joint": 0.056021619017024626,
        "smoothness": 1.2688263138573217e-16,
        "time": 0.030744078,
        "traj_len": 1.456024258238998,
        "weighted_distance": 1.83286345576848
    },
    "planner": "BiTRRT",
    "start": {
        "state": {
            "elbow_joint": 2.010868314990456,
            "shoulder_lift_joint": -1.1634956873337592,
            "shoulder_pan_joint": -2.4736205022346125,
            "wrist_1_joint": -0.8367026794202681,
            "wrist_2_joint": 0.6746043897044499,
            "wrist_3_joint": -3.1496632123970403
        }
    },
    "waypoints": [
        {
            "positions": [
                -2.4736205022346125,
                -1.1634956873337592,
                2.010868314990456,
                -0.8367026794202681,
                0.6746043897044499,
                -3.1496632123970403
            ]
        },
        {
            "positions": [
                -2.55614854838335,
                -1.1321146056149165,
                1.968669700743653,
                -0.8261512739098147,
                0.8519427456735132,
                -3.140326275894203
            ]
        },
        {
            "positions": [
                -2.638676594532088,
                -1.1007335238960738,
                1.9264710864968504,
                -0.8155998683993612,
                1.0292811016425767,
                -3.1309893393913653
            ]
        },
        {
            "positions": [
                -2.721204640680826,
                -1.0693524421772311,
                1.8842724722500477,
                -0.8050484628889076,
                1.20661945761164,
                -3.121652402888528
            ]
        },
        {
            "positions": [
                -2.8037326868295636,
                -1.0379713604583887,
                1.842073858003245,
                -0.7944970573784542,
                1.3839578135807034,
                -3.1123154663856907
            ]
        },
        {
            "positions": [
                -2.886260732978301,
                -1.006590278739546,
                1.7998752437564423,
                -0.7839456518680008,
                1.5612961695497667,
                -3.102978529882853
            ]
        },
        {
            "positions": [
                -2.968788779127039,
                -0.9752091970207033,
                1.7576766295096395,
                -0.7733942463575473,
                1.73863452551883,
                -3.0936415933800157
            ]
        }
    ]
}