{
    "goal": {
        "global_pose": {
            "orientation": {
                "w": -0.00223480608172531,
                "x": 0.0024358444001904467,
                "y": 0.7094548369677653,
                "z": -0.704743149386269
            },
            "position": {
                "x": 0.6205249238014221,
                "y": -0.6371506643295288,
                "z": 0.19426114857196808
            }
        },
        "name": "move_to_magneteinheit_B"
    },
    "id": "BiTRRT_move_to_magneteinheit_B_77",
    "joint_names": [
        "shoulder_pan_joint",
        "shoulder_lift_joint",
        "elbow_joint",
        "wrist_1_joint",
        "wrist_2_joint",
        "wrist_3_joint"
    ],
    "metrics": {
        "cart_traj_len": 1.4744998462864087,
        "distance_elbow_joint": 0.954996448065335,
        "distance_shoulder_lift_joint": 0.7544468569149612,
        "distance_shoulder_pan_joint": 1.622041854776619,
        "distance_wrist_1_joint": 2.0620564772301275,
        "distance_wrist_2_joint": 3.0033803875609384,
        "distance_wrist_3_joint": 1.1411914845228854,
        "smoothness": 0.6437422028960229,
        "time": 0.15674581199999998,
        "traj_len": 3.088383640202568,
        "weighted_distance": 4.109249729927314
    },
    "planner": "BiTRRT",
    "start": {
        "state": {
            "elbow_joint": 2.6216224122426386,
            "shoulder_lift_joint": -1.4174107377796124,
            "shoulder_pan_joint": 0.7066234856936794,
            "wrist_1_joint": 1.9546482284002225,
            "wrist_2_joint": -0.7096286983471962,
            "wrist_3_joint": 0.005740856962016249
        }
    },
    "waypoints": [
        {
            "positions": [
                0.7066234856936794,
                -1.4174107377796124,
                2.6216224122426386,
                1.9546482284002225,
                -0.7096286983471962,
                0.005740856962016249
            ]
        },
        {
            "positions": [
                0.7064580138304528,
                -1.4040227299307304,
                2.60558543500444,
                1.9467343166092634,
                -0.6888843868374366,
                0.01644140455866657
            ]
        },
        {
            "positions": [
                0.6430025300812515,
                -1.3776983097702449,
                2.5741584335916015,
                1.8440692249513106,
                -0.6087224216996235,
                0.07899109099435861
            ]
        },
        {
            "positions": [
                0.5795470463320503,
                -1.3513738896097593,
                2.542731432178763,
                1.7414041332933579,
                -0.5285604565618105,
                0.14154077743005067
            ]
        },
        {
            "positions": [
                0.516091562582849,
                -1.325049469449274,
                2.511304430765924,
                1.638739041635405,
                -0.44839849142399757,
                0.2040904638657427
            ]
        },
        {
            "positions": [
                0.4526360788336478,
                -1.2987250492887885,
                2.479877429353085,
                1.536073949977452,
                -0.36823652628618453,
                0.26664015030143473
            ]
        },
        {
            "positions": [
                0.3891805950844465,
                -1.272400629128303,
                2.4484504279402466,
                1.4334088583194993,
                -0.2880745611483715,
                0.32918983673712676
            ]
        },
        {
            "positions": [
                0.3257251113352453,
                -1.2460762089678175,
                2.417023426527408,
                1.3307437666615465,
                -0.2079125960105585,
                0.3917395231728188
            ]
        },
        {
            "positions": [
                0.26226962758604405,
                -1.219751788807332,
                2.385596425114569,
                1.2280786750035935,
                -0.1277506308727454,
                0.4542892096085109
            ]
        },
        {
            "positions": [
                0.19881414383684282,
                -1.1934273686468466,
                2.3541694237017303,
                1.1254135833456407,
                -0.04758866573493248,
                0.516838896044203
            ]
        },
        {
            "positions": [
                0.1353586600876415,
                -1.167102948486361,
                2.3227424222888917,
                1.0227484916876879,
                0.03257329940288054,
                0.579388582479895
            ]
        },
        {
            "positions": [
                0.06968509576448022,
                -1.1355942567600041,
                2.2817351436569173,
                1.0933832879700374,
                -0.10875034996029831,
                0.5439170975420821
            ]
        },
        {
            "positions": [
                0.0040115314413189385,
                -1.1040855650336474,
                2.2407278650249434,
                1.164018084252387,
                -0.2500739993234771,
                0.5084456126042691
            ]
        },
        {
            "positions": [
                -0.06166203288184233,
                -1.0725768733072905,
                2.199720586392969,
                1.2346528805347365,
                -0.39139764868665594,
                0.4729741276664562
            ]
        },
        {
            "positions": [
                -0.12733559720500362,
                -1.0410681815809335,
                2.1587133077609946,
                1.3052876768170862,
                -0.5327212980498348,
                0.43750264272864325
            ]
        },
        {
            "positions": [
                -0.1930091615281649,
                -1.0095594898545768,
                2.1177060291290206,
                1.3759224730994357,
                -0.6740449474130137,
                0.4020311577908303
            ]
        },
        {
            "positions": [
                -0.2586827258513261,
                -0.9780507981282198,
                2.076698750497046,
                1.4465572693817852,
                -0.8153685967761924,
                0.3665596728530174
            ]
        },
        {
            "positions": [
                -0.3243562901744874,
                -0.946542106401863,
                2.035691471865072,
                1.5171920656641347,
                -0.9566922461393713,
                0.33108818791520445
            ]
        },
        {
            "positions": [
                -0.3900298544976487,
                -0.9150334146755061,
                1.9946841932330976,
                1.5878268619464844,
                -1.0980158955025503,
                0.2956167029773915
            ]
        },
        {
            "positions": [
                -0.45570341882081,
                -0.8835247229491493,
                1.9536769146011235,
                1.658461658228834,
                -1.2393395448657292,
                0.2601452180395786
            ]
        },
        {
            "positions": [
                -0.5213769831439713,
                -0.8520160312227925,
                1.912669635969149,
                1.7290964545111835,
                -1.380663194228908,
                0.22467373310176564
            ]
        },
        {
            "positions": [
                -0.5870505474671326,
                -0.8205073394964355,
                1.871662357337175,
                1.799731250793533,
                -1.521986843592087,
                0.1892022481639527
            ]
        },
        {
            "positions": [
                -0.6527241117902938,
                -0.7889986477700787,
                1.8306550787052007,
                1.8703660470758825,
                -1.6633104929552656,
                0.15373076322613977
            ]
        },
        {
            "positions": [
                -0.7183976761134551,
                -0.7574899560437218,
                1.7896478000732263,
                1.9410008433582322,
                -1.8046341423184444,
                0.11825927828832683
            ]
        },
        {
            "positions": [
                -0.7840712404366164,
                -0.7259812643173649,
                1.7486405214412521,
                2.0116356396405815,
                -1.9459577916816233,
                0.0827877933505139
            ]
        },
        {
            "positions": [
                -0.8497448047597776,
                -0.694472572591008,
                1.707633242809278,
                2.0822704359229314,
                -2.0872814410448024,
                0.04731630841270096
            ]
        },
        {
            "positions": [
                -0.915418369082939,
                -0.6629638808646512,
                1.6666259641773036,
                2.152905232205281,
                -2.228605090407981,
                0.011844823474888053
            ]
        }
    ]
}