{
    "goal": {
        "global_pose": {
            "orientation": {
                "w": 0.005598929693374612,
                "x": 0.007748599140229565,
                "y": 0.7110244013736278,
                "z": -0.7031023480610252
            },
            "position": {
                "x": 0.1141497679147869,
                "y": -0.7141253447532654,
                "z": 0.3711530566215515
            }
        },
        "name": "move_to_auspresseinheit_B"
    },
    "id": "BiTRRT_move_to_auspresseinheit_B_70",
    "joint_names": [
        "shoulder_pan_joint",
        "shoulder_lift_joint",
        "elbow_joint",
        "wrist_1_joint",
        "wrist_2_joint",
        "wrist_3_joint"
    ],
    "metrics": {
        "cart_traj_len": 0.5652788092413028,
        "distance_elbow_joint": 0.06271364493228782,
        "distance_shoulder_lift_joint": 0.29451051610305856,
        "distance_shoulder_pan_joint": 0.5775824944424999,
        "distance_wrist_1_joint": 0.32528444240468213,
        "distance_wrist_2_joint": 0.9941740192186945,
        "distance_wrist_3_joint": 0.003866879191034567,
        "smoothness": 5.075305255429287e-16,
        "time": 0.04565036,
        "traj_len": 1.5027082206111262,
        "weighted_distance": 1.893495237991821
    },
    "planner": "BiTRRT",
    "start": {
        "state": {
            "elbow_joint": 2.0193083361928714,
            "shoulder_lift_joint": -1.1220246554650708,
            "shoulder_pan_joint": -1.0952077554168747,
            "wrist_1_joint": -0.8559753972642168,
            "wrist_2_joint": 0.4759566250798843,
            "wrist_3_joint": -3.1240929996934557
        }
    },
    "waypoints": [
        {
            "positions": [
                -1.0952077554168747,
                -1.1220246554650708,
                2.0193083361928714,
                -0.8559753972642168,
                0.4759566250798843,
                -3.1240929996934557
            ]
        },
        {
            "positions": [
                -1.1914715044906246,
                -1.1711097414822471,
                2.00885606203749,
                -0.8017613235301031,
                0.6416522949496667,
                -3.124737479558628
            ]
        },
        {
            "positions": [
                -1.2877352535643747,
                -1.2201948274994237,
                1.9984037878821088,
                -0.7475472497959894,
                0.807347964819449,
                -3.1253819594238004
            ]
        },
        {
            "positions": [
                -1.3839990026381246,
                -1.2692799135166002,
                1.9879515137267276,
                -0.6933331760618757,
                0.9730436346892315,
                -3.1260264392889727
            ]
        },
        {
            "positions": [
                -1.4802627517118745,
                -1.3183649995337765,
                1.9774992395713462,
                -0.639119102327762,
                1.138739304559014,
                -3.1266709191541455
            ]
        },
        {
            "positions": [
                -1.5765265007856246,
                -1.3674500855509528,
                1.9670469654159648,
                -0.5849050285936483,
                1.3044349744287964,
                -3.127315399019318
            ]
        },
        {
            "positions": [
                -1.6727902498593745,
                -1.4165351715681294,
                1.9565946912605836,
                -0.5306909548595347,
                1.4701306442985789,
                -3.1279598788844902
            ]
        }
    ]
}