{
    "goal": {
        "global_pose": {
            "orientation": {
                "w": 0.005598929693374612,
                "x": 0.007748599140229565,
                "y": 0.7110244013736278,
                "z": -0.7031023480610252
            },
            "position": {
                "x": 0.1141497679147869,
                "y": -0.7141253447532654,
                "z": 0.3711530566215515
            }
        },
        "name": "move_to_auspresseinheit_B"
    },
    "id": "BiTRRT_move_to_auspresseinheit_B_64",
    "joint_names": [
        "shoulder_pan_joint",
        "shoulder_lift_joint",
        "elbow_joint",
        "wrist_1_joint",
        "wrist_2_joint",
        "wrist_3_joint"
    ],
    "metrics": {
        "cart_traj_len": 0.5648241308040038,
        "distance_elbow_joint": 0.062136522702618935,
        "distance_shoulder_lift_joint": 0.29380039358967025,
        "distance_shoulder_pan_joint": 0.5785527843025233,
        "distance_wrist_1_joint": 0.3263060394218428,
        "distance_wrist_2_joint": 0.9890538150712849,
        "distance_wrist_3_joint": 0.008441843913590041,
        "smoothness": 2.5376526478085547e-16,
        "time": 0.05077609499999999,
        "traj_len": 1.50276125815165,
        "weighted_distance": 1.8948706925069685
    },
    "planner": "BiTRRT",
    "start": {
        "state": {
            "elbow_joint": 2.0193083361928714,
            "shoulder_lift_joint": -1.1220246554650708,
            "shoulder_pan_joint": -1.0952077554168747,
            "wrist_1_joint": -0.8559753972642168,
            "wrist_2_joint": 0.4759566250798843,
            "wrist_3_joint": -3.1240929996934557
        }
    },
    "waypoints": [
        {
            "positions": [
                -1.0952077554168747,
                -1.1220246554650708,
                2.0193083361928714,
                -0.8559753972642168,
                0.4759566250798843,
                -3.1240929996934557
            ]
        },
        {
            "positions": [
                -1.1916332194672952,
                -1.1709913877300158,
                2.0089522490757683,
                -0.8015910573605763,
                0.6407989275917652,
                -3.125499973679054
            ]
        },
        {
            "positions": [
                -1.2880586835177157,
                -1.219958119994961,
                1.9985961619586652,
                -0.7472067174569359,
                0.805641230103646,
                -3.1269069476646525
            ]
        },
        {
            "positions": [
                -1.3844841475681364,
                -1.268924852259906,
                1.988240074841562,
                -0.6928223775532953,
                0.9704835326155268,
                -3.1283139216502507
            ]
        },
        {
            "positions": [
                -1.4809096116185567,
                -1.317891584524851,
                1.9778839877244587,
                -0.638438037649655,
                1.1353258351274076,
                -3.129720895635849
            ]
        },
        {
            "positions": [
                -1.5773350756689775,
                -1.366858316789796,
                1.9675279006073556,
                -0.5840536977460145,
                1.3001681376392884,
                -3.1311278696214475
            ]
        },
        {
            "positions": [
                -1.673760539719398,
                -1.415825049054741,
                1.9571718134902525,
                -0.529669357842374,
                1.4650104401511692,
                -3.1325348436070457
            ]
        }
    ]
}