{
    "goal": {
        "global_pose": {
            "orientation": {
                "w": 0.005598929693374612,
                "x": 0.007748599140229565,
                "y": 0.7110244013736278,
                "z": -0.7031023480610252
            },
            "position": {
                "x": -0.8858502320852131,
                "y": -0.7141253447532654,
                "z": 0.3711530566215515
            }
        },
        "name": "move_to_auspresseinheit_C"
    },
    "id": "BiTRRT_move_to_auspresseinheit_C_3",
    "joint_names": [
        "shoulder_pan_joint",
        "shoulder_lift_joint",
        "elbow_joint",
        "wrist_1_joint",
        "wrist_2_joint",
        "wrist_3_joint"
    ],
    "metrics": {
        "cart_traj_len": 0.4933424900342637,
        "distance_elbow_joint": 0.9927071523598753,
        "distance_shoulder_lift_joint": 0.32106039119981866,
        "distance_shoulder_pan_joint": 0.2564731257175663,
        "distance_wrist_1_joint": 0.6576710538144621,
        "distance_wrist_2_joint": 1.316800514538654,
        "distance_wrist_3_joint": 0.03819350026599766,
        "smoothness": 6.459479416000911e-16,
        "time": 0.058892535,
        "traj_len": 1.8928565021935428,
        "weighted_distance": 2.373555204072887
    },
    "planner": "BiTRRT",
    "start": {
        "state": {
            "elbow_joint": 1.7527959577737207,
            "shoulder_lift_joint": -0.9740617694225068,
            "shoulder_pan_joint": -2.967991417825858,
            "wrist_1_joint": -0.759517768980727,
            "wrist_2_joint": 1.7443932448377408,
            "wrist_3_joint": -3.0840537646736568
        }
    },
    "waypoints": [
        {
            "positions": [
                -2.967991417825858,
                -0.9740617694225068,
                1.7527959577737207,
                -0.759517768980727,
                1.7443932448377408,
                -3.0840537646736568
            ]
        },
        {
            "positions": [
                -2.9423441052541013,
                -0.9419557303025249,
                1.6535252425377331,
                -0.6937506635992807,
                1.6127131933838754,
                -3.0878731147002565
            ]
        },
        {
            "positions": [
                -2.9166967926823446,
                -0.909849691182543,
                1.5542545273017456,
                -0.6279835582178346,
                1.48103314193001,
                -3.091692464726856
            ]
        },
        {
            "positions": [
                -2.891049480110588,
                -0.8777436520625612,
                1.454983812065758,
                -0.5622164528363883,
                1.3493530904761446,
                -3.095511814753456
            ]
        },
        {
            "positions": [
                -2.8654021675388313,
                -0.8456376129425793,
                1.3557130968297706,
                -0.4964493474549421,
                1.2176730390222792,
                -3.0993311647800557
            ]
        },
        {
            "positions": [
                -2.839754854967075,
                -0.8135315738225974,
                1.256442381593783,
                -0.4306822420734959,
                1.0859929875684138,
                -3.1031505148066554
            ]
        },
        {
            "positions": [
                -2.8141075423953184,
                -0.7814255347026156,
                1.1571716663577956,
                -0.3649151366920497,
                0.9543129361145484,
                -3.1069698648332555
            ]
        },
        {
            "positions": [
                -2.7884602298235617,
                -0.7493194955826337,
                1.057900951121808,
                -0.2991480313106035,
                0.8226328846606831,
                -3.1107892148598553
            ]
        },
        {
            "positions": [
                -2.762812917251805,
                -0.7172134564626518,
                0.9586302358858204,
                -0.23338092592915727,
                0.6909528332068176,
                -3.114608564886455
            ]
        },
        {
            "positions": [
                -2.7371656046800483,
                -0.6851074173426699,
                0.8593595206498329,
                -0.167613820547711,
                0.5592727817529521,
                -3.1184279149130547
            ]
        },
        {
            "positions": [
                -2.7115182921082917,
                -0.6530013782226881,
                0.7600888054138454,
                -0.10184671516626481,
                0.4275927302990867,
                -3.1222472649396544
            ]
        }
    ]
}