{
    "goal": {
        "global_pose": {
            "orientation": {
                "w": -0.4816463035849501,
                "x": 0.5182115481033762,
                "y": 0.4908360881923453,
                "z": -0.5084816262002911
            },
            "position": {
                "x": -0.8240239810943604,
                "y": -0.300875300988555,
                "z": 0.16403168439865112
            }
        },
        "name": "move_to_storage_C"
    },
    "id": "BiTRRT_move_to_storage_C_5",
    "joint_names": [
        "shoulder_pan_joint",
        "shoulder_lift_joint",
        "elbow_joint",
        "wrist_1_joint",
        "wrist_2_joint",
        "wrist_3_joint"
    ],
    "metrics": {
        "cart_traj_len": 0.5760349364171259,
        "distance_elbow_joint": 0.2579692133683862,
        "distance_shoulder_lift_joint": 0.18948037340915658,
        "distance_shoulder_pan_joint": 0.4944599077546199,
        "distance_wrist_1_joint": 0.07910570250072013,
        "distance_wrist_2_joint": 1.0640525482706922,
        "distance_wrist_3_joint": 0.0697030493993811,
        "smoothness": 2.5376526478085547e-16,
        "time": 0.046744507000000005,
        "traj_len": 1.4679137558804183,
        "weighted_distance": 1.8540051629575174
    },
    "planner": "BiTRRT",
    "start": {
        "state": {
            "elbow_joint": 2.010868314990456,
            "shoulder_lift_joint": -1.1634956873337592,
            "shoulder_pan_joint": -2.4736205022346125,
            "wrist_1_joint": -0.8367026794202681,
            "wrist_2_joint": 0.6746043897044499,
            "wrist_3_joint": -3.1496632123970403
        }
    },
    "waypoints": [
        {
            "positions": [
                -2.4736205022346125,
                -1.1634956873337592,
                2.010868314990456,
                -0.8367026794202681,
                0.6746043897044499,
                -3.1496632123970403
            ]
        },
        {
            "positions": [
                -2.5560304868603825,
                -1.1319156250988998,
                1.9678734460957248,
                -0.8235183956701481,
                0.8519464810828986,
                -3.1380460374971433
            ]
        },
        {
            "positions": [
                -2.6384404714861525,
                -1.1003355628640403,
                1.9248785772009938,
                -0.810334111920028,
                1.0292885724613474,
                -3.1264288625972467
            ]
        },
        {
            "positions": [
                -2.7208504561119224,
                -1.068755500629181,
                1.8818837083062627,
                -0.7971498281699081,
                1.2066306638397961,
                -3.1148116876973497
            ]
        },
        {
            "positions": [
                -2.8032604407376924,
                -1.0371754383943215,
                1.8388888394115317,
                -0.783965544419788,
                1.3839727552182448,
                -3.1031945127974527
            ]
        },
        {
            "positions": [
                -2.8856704253634624,
                -1.005595376159462,
                1.7958939705168007,
                -0.770781260669668,
                1.5613148465966935,
                -3.091577337897556
            ]
        },
        {
            "positions": [
                -2.9680804099892324,
                -0.9740153139246026,
                1.7528991016220696,
                -0.757596976919548,
                1.738656937975142,
                -3.079960162997659
            ]
        }
    ]
}