{
    "goal": {
        "global_pose": {
            "orientation": {
                "w": 0.7047431468963623,
                "x": -0.7094548344612122,
                "y": 0.0024358443915843964,
                "z": -0.0022348060738295317
            },
            "position": {
                "x": 0.6094750761985779,
                "y": 0.3671506643295288,
                "z": 0.19426114857196808
            }
        },
        "name": "move_to_magneteinheit_A"
    },
    "id": "BiTRRT_move_to_magneteinheit_A_117",
    "joint_names": [
        "shoulder_pan_joint",
        "shoulder_lift_joint",
        "elbow_joint",
        "wrist_1_joint",
        "wrist_2_joint",
        "wrist_3_joint"
    ],
    "metrics": {
        "cart_traj_len": 3.4367253326841456,
        "distance_elbow_joint": 3.8905273412707944,
        "distance_shoulder_lift_joint": 0.4450582441295565,
        "distance_shoulder_pan_joint": 2.7156435070700438,
        "distance_wrist_1_joint": 1.6301502743868999,
        "distance_wrist_2_joint": 2.007262157151162,
        "distance_wrist_3_joint": 3.631779597993602,
        "smoothness": 0.4153418603444917,
        "time": 0.112283784,
        "traj_len": 3.784233227749323,
        "weighted_distance": 5.022090476039567
    },
    "planner": "BiTRRT",
    "start": {
        "state": {
            "elbow_joint": -1.9196185241190666,
            "shoulder_lift_joint": -1.2443396400964142,
            "shoulder_pan_joint": 2.6996025414629847,
            "wrist_1_joint": -1.5485510000780065,
            "wrist_2_joint": -1.5709468930060704,
            "wrist_3_joint": 0.4420197071253992
        }
    },
    "waypoints": [
        {
            "positions": [
                2.6996025414629847,
                -1.2443396400964142,
                -1.9196185241190666,
                -1.5485510000780065,
                -1.5709468930060704,
                0.4420197071253992
            ]
        },
        {
            "positions": [
                2.6117408683240266,
                -1.2466737168140405,
                -1.806038991822196,
                -1.50865906670378,
                -1.506917378795734,
                0.3627911270556946
            ]
        },
        {
            "positions": [
                2.523879195185069,
                -1.2490077935316668,
                -1.6924594595253253,
                -1.4687671333295536,
                -1.4428878645853973,
                0.28356254698599004
            ]
        },
        {
            "positions": [
                2.436017522046111,
                -1.2513418702492929,
                -1.5788799272284546,
                -1.428875199955327,
                -1.3788583503750607,
                0.2043339669162855
            ]
        },
        {
            "positions": [
                2.348155848907153,
                -1.2536759469669192,
                -1.465300394931584,
                -1.3889832665811004,
                -1.3148288361647242,
                0.12510538684658096
            ]
        },
        {
            "positions": [
                2.2602941757681947,
                -1.2560100236845455,
                -1.3517208626347132,
                -1.349091333206874,
                -1.2507993219543878,
                0.04587680677687639
            ]
        },
        {
            "positions": [
                2.172432502629237,
                -1.2583441004021718,
                -1.2381413303378426,
                -1.3091993998326474,
                -1.1867698077440512,
                -0.03335177329282818
            ]
        },
        {
            "positions": [
                2.084570829490279,
                -1.260678177119798,
                -1.124561798040972,
                -1.269307466458421,
                -1.1227402935337145,
                -0.11258035336253269
            ]
        },
        {
            "positions": [
                1.996709156351321,
                -1.2630122538374242,
                -1.0109822657441012,
                -1.2294155330841945,
                -1.058710779323378,
                -0.19180893343223726
            ]
        },
        {
            "positions": [
                1.9088474832123632,
                -1.2653463305550505,
                -0.8974027334472305,
                -1.1895235997099678,
                -0.9946812651130416,
                -0.27103751350194183
            ]
        },
        {
            "positions": [
                1.820985810073405,
                -1.2676804072726768,
                -0.7838232011503599,
                -1.1496316663357413,
                -0.930651750902705,
                -0.3502660935716464
            ]
        },
        {
            "positions": [
                1.7331241369344472,
                -1.2700144839903031,
                -0.670243668853489,
                -1.1097397329615148,
                -0.8666222366923685,
                -0.42949467364135097
            ]
        },
        {
            "positions": [
                1.6452624637954891,
                -1.2723485607079292,
                -0.5566641365566183,
                -1.0698477995872884,
                -0.802592722482032,
                -0.5087232537110555
            ]
        },
        {
            "positions": [
                1.5574007906565313,
                -1.2746826374255555,
                -0.4430846042597476,
                -1.029955866213062,
                -0.7385632082716954,
                -0.58795183378076
            ]
        },
        {
            "positions": [
                1.4695391175175734,
                -1.2770167141431819,
                -0.3295050719628769,
                -0.9900639328388353,
                -0.6745336940613589,
                -0.6671804138504646
            ]
        },
        {
            "positions": [
                1.3816774443786153,
                -1.2793507908608082,
                -0.21592553966600625,
                -0.9501719994646087,
                -0.6105041798510222,
                -0.7464089939201694
            ]
        },
        {
            "positions": [
                1.2938157712396574,
                -1.2816848675784343,
                -0.10234600736913557,
                -0.9102800660903823,
                -0.5464746656406858,
                -0.8256375739898737
            ]
        },
        {
            "positions": [
                1.2059540981006993,
                -1.2840189442960606,
                0.011233524927735328,
                -0.8703881327161558,
                -0.48244515143034916,
                -0.9048661540595785
            ]
        },
        {
            "positions": [
                1.1180924249617414,
                -1.2863530210136869,
                0.12481305722460556,
                -0.8304961993419293,
                -0.41841563722001274,
                -0.9840947341292828
            ]
        },
        {
            "positions": [
                1.0302307518227833,
                -1.2886870977313132,
                0.23839258952147668,
                -0.7906042659677027,
                -0.3543861230096761,
                -1.0633233141989873
            ]
        },
        {
            "positions": [
                0.9423690786838255,
                -1.2910211744489395,
                0.3519721218183469,
                -0.7507123325934763,
                -0.29035660879933967,
                -1.142551894268692
            ]
        },
        {
            "positions": [
                0.8545074055448674,
                -1.2933552511665656,
                0.46555165411521804,
                -0.7108203992192497,
                -0.22632709458900302,
                -1.2217804743383964
            ]
        },
        {
            "positions": [
                0.7666457324059097,
                -1.2956893278841919,
                0.5791311864120887,
                -0.6709284658450232,
                -0.1622975803786666,
                -1.3010090544081012
            ]
        },
        {
            "positions": [
                0.6787840592669516,
                -1.2980234046018182,
                0.6927107187089594,
                -0.6310365324707966,
                -0.09826806616832995,
                -1.3802376344778056
            ]
        },
        {
            "positions": [
                0.5909223861279935,
                -1.3003574813194445,
                0.8062902510058301,
                -0.5911445990965702,
                -0.034238551957993524,
                -1.4594662145475104
            ]
        },
        {
            "positions": [
                0.5030607129890354,
                -1.3026915580370706,
                0.9198697833027007,
                -0.5512526657223437,
                0.029790962252343123,
                -1.5386947946172147
            ]
        },
        {
            "positions": [
                0.4151990398500778,
                -1.305025634754697,
                1.0334493155995714,
                -0.5113607323481171,
                0.09382047646267955,
                -1.617923374686919
            ]
        },
        {
            "positions": [
                0.3273373667111199,
                -1.3073597114723232,
                1.147028847896442,
                -0.47146879897389055,
                0.1578499906730162,
                -1.697151954756624
            ]
        },
        {
            "positions": [
                0.2799113789254171,
                -1.2885092724945513,
                1.2457106112722236,
                -0.5074766071184106,
                0.18238880264240948,
                -1.8049633548524755
            ]
        },
        {
            "positions": [
                0.2324853911397143,
                -1.2696588335167796,
                1.344392374648005,
                -0.5434844152629306,
                0.20692761461180278,
                -1.912774754948327
            ]
        },
        {
            "positions": [
                0.18505940335401153,
                -1.2508083945390076,
                1.4430741380237864,
                -0.5794922234074505,
                0.23146642658119607,
                -2.020586155044178
            ]
        },
        {
            "positions": [
                0.13763341556830871,
                -1.2319579555612359,
                1.5417559013995679,
                -0.6155000315519705,
                0.2560052385505894,
                -2.1283975551400296
            ]
        },
        {
            "positions": [
                0.09020742778260593,
                -1.213107516583464,
                1.6404376647753494,
                -0.6515078396964905,
                0.28054405051998266,
                -2.236208955235881
            ]
        },
        {
            "positions": [
                0.05403287727195101,
                -1.1906195557861323,
                1.7512337096754989,
                -0.6916034586772335,
                0.2862360637366999,
                -2.4124090920916457
            ]
        },
        {
            "positions": [
                0.06874414763525563,
                -1.1510722352767426,
                1.7867573608339589,
                -0.7437251360645296,
                0.2602844875490856,
                -2.5801393612593593
            ]
        },
        {
            "positions": [
                0.08345541799856027,
                -1.1115249147673532,
                1.8222810119924189,
                -0.7958468134518257,
                0.23433291136147133,
                -2.7478696304270733
            ]
        },
        {
            "positions": [
                0.09816668836186489,
                -1.0719775942579635,
                1.8578046631508789,
                -0.8479684908391218,
                0.20838133517385704,
                -2.9155998995947874
            ]
        },
        {
            "positions": [
                0.11287795872516951,
                -1.0324302737485738,
                1.893328314309339,
                -0.900090168226418,
                0.18242975898624275,
                -3.083330168762501
            ]
        },
        {
            "positions": [
                0.1184923394380655,
                -1.0859846412635228,
                1.9321185657305335,
                -0.8378668162112897,
                0.15929331115727535,
                -3.136545029815352
            ]
        },
        {
            "positions": [
                0.12410672015096148,
                -1.1395390087784718,
                1.9709088171517284,
                -0.7756434641961613,
                0.13615686332830795,
                -3.1897598908682028
            ]
        }
    ]
}