{
    "goal": {
        "global_pose": {
            "orientation": {
                "w": -0.00223480608172531,
                "x": 0.0024358444001904467,
                "y": 0.7094548369677653,
                "z": -0.704743149386269
            },
            "position": {
                "x": -0.37947507619857795,
                "y": -0.6371506643295288,
                "z": 0.19426114857196808
            }
        },
        "name": "move_to_magneteinheit_C"
    },
    "id": "BiTRRT_move_to_magneteinheit_C_83",
    "joint_names": [
        "shoulder_pan_joint",
        "shoulder_lift_joint",
        "elbow_joint",
        "wrist_1_joint",
        "wrist_2_joint",
        "wrist_3_joint"
    ],
    "metrics": {
        "cart_traj_len": 4.23642729256885,
        "distance_elbow_joint": 4.5385007947454294,
        "distance_shoulder_lift_joint": 1.7600653313831236,
        "distance_shoulder_pan_joint": 2.4230971263638357,
        "distance_wrist_1_joint": 1.7137846204995504,
        "distance_wrist_2_joint": 2.4558180623923205,
        "distance_wrist_3_joint": 5.378785428675712,
        "smoothness": 0.7057173836428194,
        "time": 0.132142397,
        "traj_len": 4.274348063045401,
        "weighted_distance": 5.761703298878141
    },
    "planner": "BiTRRT",
    "start": {
        "state": {
            "elbow_joint": 1.9565354010623817,
            "shoulder_lift_joint": -1.4165861575791021,
            "shoulder_pan_joint": -1.6717766225146293,
            "wrist_1_joint": -0.5286633292919765,
            "wrist_2_joint": 1.472756589071564,
            "wrist_3_joint": -3.1238370188695823
        }
    },
    "waypoints": [
        {
            "positions": [
                -1.6717766225146293,
                -1.4165861575791021,
                1.9565354010623817,
                -0.5286633292919765,
                1.472756589071564,
                -3.1238370188695823
            ]
        },
        {
            "positions": [
                -1.574956770226795,
                -1.3803799410137292,
                1.9688780216348691,
                -0.5942659171726683,
                1.47321044366936,
                -2.9797969390550687
            ]
        },
        {
            "positions": [
                -1.4781369179389607,
                -1.3441737244483563,
                1.9812206422073568,
                -0.6598685050533601,
                1.4736642982671562,
                -2.835756859240555
            ]
        },
        {
            "positions": [
                -1.3813170656511264,
                -1.3079675078829833,
                1.9935632627798445,
                -0.725471092934052,
                1.4741181528649523,
                -2.691716779426041
            ]
        },
        {
            "positions": [
                -1.2844972133632921,
                -1.2717612913176104,
                2.005905883352332,
                -0.7910736808147438,
                1.4745720074627484,
                -2.5476766996115274
            ]
        },
        {
            "positions": [
                -1.2112624250548498,
                -1.2092038630700943,
                1.9670234890955618,
                -0.8238495083768447,
                1.4123383030535812,
                -2.460966525176886
            ]
        },
        {
            "positions": [
                -1.1380276367464073,
                -1.146646434822578,
                1.9281410948387916,
                -0.8566253359389456,
                1.3501045986444142,
                -2.374256350742245
            ]
        },
        {
            "positions": [
                -1.064792848437965,
                -1.084089006575062,
                1.8892587005820214,
                -0.8894011635010465,
                1.287870894235247,
                -2.2875461763076035
            ]
        },
        {
            "positions": [
                -1.021240942806441,
                -1.0423540355250949,
                1.799053092646298,
                -0.9090049368888643,
                1.2316206712282587,
                -2.209700965541007
            ]
        },
        {
            "positions": [
                -0.9776890371749173,
                -1.0006190644751278,
                1.7088474847105743,
                -0.9286087102766821,
                1.1753704482212701,
                -2.131855754774411
            ]
        },
        {
            "positions": [
                -0.9559535516967032,
                -0.9619037379058462,
                1.566591528192272,
                -0.906894904249143,
                1.0987843217758742,
                -2.0430308275341726
            ]
        },
        {
            "positions": [
                -0.9342180662184889,
                -0.9231884113365644,
                1.4243355716739698,
                -0.8851810982216037,
                1.022198195330478,
                -1.954205900293934
            ]
        },
        {
            "positions": [
                -0.9124825807402748,
                -0.8844730847672826,
                1.2820796151556677,
                -0.8634672921940645,
                0.9456120688850819,
                -1.8653809730536959
            ]
        },
        {
            "positions": [
                -0.8907470952620606,
                -0.8457577581980009,
                1.1398236586373653,
                -0.8417534861665253,
                0.8690259424396858,
                -1.7765560458134575
            ]
        },
        {
            "positions": [
                -0.8850873842135007,
                -0.817857865862661,
                1.0059133302459535,
                -0.8047213810051551,
                0.8007543335334969,
                -1.7036417401478396
            ]
        },
        {
            "positions": [
                -0.8794276731649409,
                -0.7899579735273209,
                0.8720030018545418,
                -0.767689275843785,
                0.732482724627308,
                -1.630727434482222
            ]
        },
        {
            "positions": [
                -0.8737679621163809,
                -0.7620580811919808,
                0.7380926734631301,
                -0.7306571706824148,
                0.6642111157211192,
                -1.5578131288166042
            ]
        },
        {
            "positions": [
                -0.868108251067821,
                -0.7341581888566409,
                0.6041823450717183,
                -0.6936250655210445,
                0.5959395068149304,
                -1.4848988231509863
            ]
        },
        {
            "positions": [
                -0.8667419034295961,
                -0.7083705626710629,
                0.46828114587702047,
                -0.6511350169162481,
                0.5277831543433922,
                -1.4140650500157705
            ]
        },
        {
            "positions": [
                -0.8653755557913713,
                -0.6825829364854848,
                0.3323799466823226,
                -0.6086449683114518,
                0.4596268018718541,
                -1.3432312768805545
            ]
        },
        {
            "positions": [
                -0.8640092081531464,
                -0.6567953102999069,
                0.19647874748762473,
                -0.5661549197066553,
                0.39147044940031595,
                -1.2723975037453388
            ]
        },
        {
            "positions": [
                -1.013514014442734,
                -0.6477090763190274,
                0.1520601072668881,
                -0.5496460021956371,
                0.35703562560015856,
                -1.1690293654912178
            ]
        },
        {
            "positions": [
                -1.1630188207323213,
                -0.638622842338148,
                0.10764146704615146,
                -0.5331370846846188,
                0.32260080180000117,
                -1.0656612272370967
            ]
        },
        {
            "positions": [
                -1.312523627021909,
                -0.6295366083572687,
                0.06322282682541483,
                -0.5166281671736006,
                0.2881659779998438,
                -0.9622930889829757
            ]
        },
        {
            "positions": [
                -1.4620284333114966,
                -0.6204503743763892,
                0.018804186604678197,
                -0.5001192496625824,
                0.2537311541996864,
                -0.8589249507288548
            ]
        },
        {
            "positions": [
                -1.611533239601084,
                -0.6113641403955097,
                -0.025614453616058436,
                -0.4836103321515641,
                0.21929633039952898,
                -0.7555568124747337
            ]
        },
        {
            "positions": [
                -1.7610380458906714,
                -0.6022779064146303,
                -0.07003309383679507,
                -0.4671014146405459,
                0.18486150659937156,
                -0.6521886742206127
            ]
        },
        {
            "positions": [
                -1.9105428521802592,
                -0.5931916724337509,
                -0.11445173405753173,
                -0.45059249712952765,
                0.15042668279921417,
                -0.5488205359664917
            ]
        },
        {
            "positions": [
                -2.0600476584698466,
                -0.5841054384528714,
                -0.15887037427826833,
                -0.4340835796185094,
                0.1159918589990568,
                -0.44545239771237066
            ]
        },
        {
            "positions": [
                -2.064022897872669,
                -0.6468473447673908,
                -0.18445911406884388,
                -0.3641309179528036,
                0.05111881851184652,
                -0.5502704153179893
            ]
        },
        {
            "positions": [
                -2.0679981372754916,
                -0.7095892510819102,
                -0.2100478538594194,
                -0.29417825628709776,
                -0.013754221975363759,
                -0.655088432923608
            ]
        },
        {
            "positions": [
                -2.071973376678314,
                -0.7723311573964295,
                -0.23563659364999495,
                -0.2242255946213919,
                -0.07862726246257404,
                -0.7599064505292266
            ]
        },
        {
            "positions": [
                -2.1124361077036804,
                -0.7376524818014514,
                -0.11321164073734927,
                -0.2797192475420865,
                0.0036190760066945327,
                -0.8051114306966918
            ]
        },
        {
            "positions": [
                -2.1528988387290466,
                -0.7029738062064732,
                0.009213312175296418,
                -0.33521290046278107,
                0.0858654144759631,
                -0.8503164108641571
            ]
        },
        {
            "positions": [
                -2.193361569754413,
                -0.6682951306114949,
                0.13163826508794207,
                -0.3907065533834757,
                0.16811175294523165,
                -0.8955213910316223
            ]
        },
        {
            "positions": [
                -2.233824300779779,
                -0.6336164550165168,
                0.2540632180005878,
                -0.4462002063041703,
                0.25035809141450027,
                -0.9407263711990876
            ]
        },
        {
            "positions": [
                -2.2742870318051454,
                -0.5989377794215386,
                0.3764881709132335,
                -0.5016938592248649,
                0.3326044298837688,
                -0.9859313513665529
            ]
        },
        {
            "positions": [
                -2.292674662741688,
                -0.6320453940277265,
                0.49711741879438065,
                -0.5038623231041851,
                0.3705430895384991,
                -1.134610926869992
            ]
        },
        {
            "positions": [
                -2.3110622936782304,
                -0.6651530086339145,
                0.6177466666755278,
                -0.5060307869835055,
                0.4084817491932294,
                -1.2832905023734311
            ]
        },
        {
            "positions": [
                -2.329449924614773,
                -0.6982606232401023,
                0.7383759145566751,
                -0.5081992508628257,
                0.4464204088479597,
                -1.43197007787687
            ]
        },
        {
            "positions": [
                -2.347837555551316,
                -0.7313682378462902,
                0.8590051624378222,
                -0.5103677147421459,
                0.48435906850268995,
                -1.5806496533803092
            ]
        },
        {
            "positions": [
                -2.3662251864878585,
                -0.7644758524524782,
                0.9796344103189694,
                -0.5125361786214662,
                0.5222977281574203,
                -1.7293292288837483
            ]
        },
        {
            "positions": [
                -2.384612817424401,
                -0.7975834670586661,
                1.1002636582001166,
                -0.5147046425007865,
                0.5602363878121506,
                -1.8780088043871874
            ]
        },
        {
            "positions": [
                -2.4030004483609435,
                -0.8306910816648541,
                1.2208929060812639,
                -0.5168731063801068,
                0.5981750474668808,
                -2.0266883798906266
            ]
        },
        {
            "positions": [
                -2.4213880792974862,
                -0.863798696271042,
                1.341522153962411,
                -0.519041570259427,
                0.6361137071216112,
                -2.1753679553940657
            ]
        },
        {
            "positions": [
                -2.439775710234029,
                -0.8969063108772299,
                1.4621514018435582,
                -0.5212100341387472,
                0.6740523667763414,
                -2.324047530897505
            ]
        },
        {
            "positions": [
                -2.4581633411705712,
                -0.9300139254834178,
                1.5827806497247052,
                -0.5233784980180676,
                0.7119910264310717,
                -2.472727106400944
            ]
        },
        {
            "positions": [
                -2.476550972107114,
                -0.9631215400896057,
                1.7034098976058525,
                -0.5255469618973878,
                0.749929686085802,
                -2.621406681904383
            ]
        },
        {
            "positions": [
                -2.475853985095018,
                -1.0135669787572,
                1.7805452336551784,
                -0.6025806510432775,
                0.7318680797039431,
                -2.752518312736005
            ]
        },
        {
            "positions": [
                -2.4751569980829213,
                -1.064012417424794,
                1.8576805697045045,
                -0.6796143401891672,
                0.7138064733220841,
                -2.8836299435676267
            ]
        },
        {
            "positions": [
                -2.474460011070825,
                -1.1144578560923881,
                1.9348159057538306,
                -0.7566480293350568,
                0.6957448669402251,
                -3.014741574399248
            ]
        },
        {
            "positions": [
                -2.4737630240587287,
                -1.1649032947599822,
                2.0119512418031564,
                -0.8336817184809465,
                0.6776832605583661,
                -3.14585320523087
            ]
        }
    ]
}