{
    "goal": {
        "global_pose": {
            "orientation": {
                "w": 0.7031023502349854,
                "x": -0.7110244035720825,
                "y": 0.007748599164187908,
                "z": 0.005598929710686207
            },
            "position": {
                "x": 0.11585023208521307,
                "y": 0.44412534475326537,
                "z": 0.3711530566215515
            }
        },
        "name": "move_to_auspresseinheit_A"
    },
    "id": "BiTRRT_move_to_auspresseinheit_A_13",
    "joint_names": [
        "shoulder_pan_joint",
        "shoulder_lift_joint",
        "elbow_joint",
        "wrist_1_joint",
        "wrist_2_joint",
        "wrist_3_joint"
    ],
    "metrics": {
        "cart_traj_len": 1.3945438150667995,
        "distance_elbow_joint": 1.3914335767754644,
        "distance_shoulder_lift_joint": 0.7563211253713689,
        "distance_shoulder_pan_joint": 1.0790416156061595,
        "distance_wrist_1_joint": 0.6588855898428885,
        "distance_wrist_2_joint": 0.7776183806637018,
        "distance_wrist_3_joint": 1.2060283716698965,
        "smoothness": 1.7172519243744124,
        "time": 0.07215015999999999,
        "traj_len": 2.4226697381049442,
        "weighted_distance": 3.1173529434082154
    },
    "planner": "BiTRRT",
    "start": {
        "state": {
            "elbow_joint": 2.4225746658250005,
            "shoulder_lift_joint": -1.3736534386056498,
            "shoulder_pan_joint": -0.3378633547517467,
            "wrist_1_joint": -1.0288598680537169,
            "wrist_2_joint": 1.233022673432363,
            "wrist_3_joint": -3.0940220416140027
        }
    },
    "waypoints": [
        {
            "positions": [
                -0.3378633547517467,
                -1.3736534386056498,
                2.4225746658250005,
                -1.0288598680537169,
                1.233022673432363,
                -3.0940220416140027
            ]
        },
        {
            "positions": [
                -0.2438775798075784,
                -1.4075825836037257,
                2.3212808724931144,
                -0.9785898423216252,
                1.204837082644808,
                -3.009846910429584
            ]
        },
        {
            "positions": [
                -0.14989180486341006,
                -1.4415117286018015,
                2.219987079161229,
                -0.9283198165895336,
                1.1766514918572533,
                -2.9256717792451656
            ]
        },
        {
            "positions": [
                -0.055906029919241707,
                -1.4754408735998774,
                2.118693285829343,
                -0.8780497908574418,
                1.1484659010696983,
                -2.8414966480607475
            ]
        },
        {
            "positions": [
                0.038079745024926615,
                -1.5093700185979535,
                2.0173994924974568,
                -0.8277797651253502,
                1.1202803102821435,
                -2.757321516876329
            ]
        },
        {
            "positions": [
                0.132065519969095,
                -1.5432991635960294,
                1.916105699165571,
                -0.7775097393932585,
                1.0920947194945885,
                -2.6731463856919104
            ]
        },
        {
            "positions": [
                0.2260512949132633,
                -1.5772283085941052,
                1.8148119058336851,
                -0.7272397136611668,
                1.0639091287070337,
                -2.588971254507492
            ]
        },
        {
            "positions": [
                0.32003706985743163,
                -1.611157453592181,
                1.713518112501799,
                -0.6769696879290752,
                1.0357235379194787,
                -2.5047961233230733
            ]
        },
        {
            "positions": [
                0.3678525124476803,
                -1.6725490331977628,
                1.7693107530900745,
                -0.7037741227246035,
                1.0146385629841368,
                -2.539923091271488
            ]
        },
        {
            "positions": [
                0.41566795503792897,
                -1.7339406128033448,
                1.8251033936783498,
                -0.7305785575201318,
                0.9935535880487951,
                -2.5750500592199033
            ]
        },
        {
            "positions": [
                0.45633708056720984,
                -1.7719124482839348,
                1.9241285332560614,
                -0.7119604570854956,
                0.9531604610604311,
                -2.6522158765186523
            ]
        },
        {
            "positions": [
                0.4970062060964907,
                -1.8098842837645248,
                2.023153672833773,
                -0.6933423566508595,
                0.9127673340720671,
                -2.729381693817402
            ]
        },
        {
            "positions": [
                0.5376753316257716,
                -1.8478561192451148,
                2.1221788124114846,
                -0.6747242562162233,
                0.8723742070837031,
                -2.806547511116151
            ]
        },
        {
            "positions": [
                0.5321934122118156,
                -1.8116160233537444,
                2.2032800943087456,
                -0.6681624353648827,
                0.7775383099508612,
                -2.8837525239799007
            ]
        },
        {
            "positions": [
                0.5267114927978597,
                -1.7753759274623742,
                2.284381376206007,
                -0.6616006145135422,
                0.6827024128180192,
                -2.960957536843651
            ]
        },
        {
            "positions": [
                0.5212295733839036,
                -1.7391358315710037,
                2.365482658103268,
                -0.6550387936622016,
                0.5878665156851772,
                -3.0381625497074007
            ]
        },
        {
            "positions": [
                0.6147581588772904,
                -1.8258349100999,
                2.380688897028665,
                -0.5661154055275717,
                0.6540976271434352,
                -3.0798805632047204
            ]
        },
        {
            "positions": [
                0.708286744370677,
                -1.9125339886287964,
                2.395895135954062,
                -0.4771920173929416,
                0.7203287386016932,
                -3.1215985767020404
            ]
        }
    ]
}