{
    "goal": {
        "global_pose": {
            "orientation": {
                "w": -0.4816463035849501,
                "x": 0.5182115481033762,
                "y": 0.4908360881923453,
                "z": -0.5084816262002911
            },
            "position": {
                "x": -0.8240239810943604,
                "y": -0.300875300988555,
                "z": 0.16403168439865112
            }
        },
        "name": "move_to_storage_C"
    },
    "id": "BiTRRT_move_to_storage_C_21",
    "joint_names": [
        "shoulder_pan_joint",
        "shoulder_lift_joint",
        "elbow_joint",
        "wrist_1_joint",
        "wrist_2_joint",
        "wrist_3_joint"
    ],
    "metrics": {
        "cart_traj_len": 0.5765973864030844,
        "distance_elbow_joint": 0.2603746722638307,
        "distance_shoulder_lift_joint": 0.19009692025200653,
        "distance_shoulder_pan_joint": 0.4954703599259713,
        "distance_wrist_1_joint": 0.08643673299623045,
        "distance_wrist_2_joint": 1.058488106220984,
        "distance_wrist_3_joint": 0.07332572754103062,
        "smoothness": 5.075305295617109e-16,
        "time": 0.02681824,
        "traj_len": 1.4711194782206012,
        "weighted_distance": 1.8589698258711274
    },
    "planner": "BiTRRT",
    "start": {
        "state": {
            "elbow_joint": 2.010868314990456,
            "shoulder_lift_joint": -1.1634956873337592,
            "shoulder_pan_joint": -2.4736205022346125,
            "wrist_1_joint": -0.8367026794202681,
            "wrist_2_joint": 0.6746043897044499,
            "wrist_3_joint": -3.1496632123970403
        }
    },
    "waypoints": [
        {
            "positions": [
                -2.4736205022346125,
                -1.1634956873337592,
                2.010868314990456,
                -0.8367026794202681,
                0.6746043897044499,
                -3.1496632123970403
            ]
        },
        {
            "positions": [
                -2.5561988955556076,
                -1.131812867291758,
                1.9674725362798173,
                -0.8222965572542297,
                0.851019074074614,
                -3.1374422578068684
            ]
        },
        {
            "positions": [
                -2.638777288876603,
                -1.100130047249757,
                1.9240767575691788,
                -0.8078904350881912,
                1.027433758444778,
                -3.125221303216697
            ]
        },
        {
            "positions": [
                -2.721355682197598,
                -1.0684472272077559,
                1.8806809788585404,
                -0.7934843129221529,
                1.2038484428149419,
                -3.113000348626525
            ]
        },
        {
            "positions": [
                -2.8039340755185935,
                -1.036764407165755,
                1.837285200147902,
                -0.7790781907561145,
                1.3802631271851058,
                -3.100779394036353
            ]
        },
        {
            "positions": [
                -2.8865124688395887,
                -1.0050815871237537,
                1.7938894214372636,
                -0.7646720685900761,
                1.5566778115552702,
                -3.0885584394461816
            ]
        },
        {
            "positions": [
                -2.969090862160584,
                -0.9733987670817527,
                1.750493642726625,
                -0.7502659464240377,
                1.733092495925434,
                -3.0763374848560097
            ]
        }
    ]
}