{
    "goal": {
        "global_pose": {
            "orientation": {
                "w": -0.4816463035849501,
                "x": 0.5182115481033762,
                "y": 0.4908360881923453,
                "z": -0.5084816262002911
            },
            "position": {
                "x": -0.8240239810943604,
                "y": 0.19912469901144506,
                "z": 0.16403168439865112
            }
        },
        "name": "move_to_storage_D"
    },
    "id": "BiTRRT_move_to_storage_D_75",
    "joint_names": [
        "shoulder_pan_joint",
        "shoulder_lift_joint",
        "elbow_joint",
        "wrist_1_joint",
        "wrist_2_joint",
        "wrist_3_joint"
    ],
    "metrics": {
        "cart_traj_len": 3.5862368174841297,
        "distance_elbow_joint": 4.210535059536001,
        "distance_shoulder_lift_joint": 1.263920571588918,
        "distance_shoulder_pan_joint": 2.81227266606093,
        "distance_wrist_1_joint": 2.2723321130004837,
        "distance_wrist_2_joint": 1.8646176985847132,
        "distance_wrist_3_joint": 3.8741084402099606,
        "smoothness": 0.24752712954768616,
        "time": 0.127158205,
        "traj_len": 4.037051714925263,
        "weighted_distance": 5.308761931089595
    },
    "planner": "BiTRRT",
    "start": {
        "state": {
            "elbow_joint": -2.384821988534728,
            "shoulder_lift_joint": -2.2788054721415256,
            "shoulder_pan_joint": -0.1854694642142757,
            "wrist_1_joint": 1.4845938289331202,
            "wrist_2_joint": 0.17898776772866878,
            "wrist_3_joint": 0.037105688729662994
        }
    },
    "waypoints": [
        {
            "positions": [
                -0.1854694642142757,
                -2.2788054721415256,
                -2.384821988534728,
                1.4845938289331202,
                0.17898776772866878,
                0.037105688729662994
            ]
        },
        {
            "positions": [
                -0.14923230408258337,
                -2.2233437902222337,
                -2.337174060231829,
                1.4775612798461326,
                0.07993449086404762,
                0.11152206123609289
            ]
        },
        {
            "positions": [
                -0.112995143950891,
                -2.1678821083029414,
                -2.28952613192893,
                1.470528730759145,
                -0.01911878600057354,
                0.18593843374252278
            ]
        },
        {
            "positions": [
                -0.07675798381919866,
                -2.1124204263836495,
                -2.241878203626031,
                1.4634961816721574,
                -0.11817206286519469,
                0.2603548062489527
            ]
        },
        {
            "positions": [
                -0.040520823687506285,
                -2.056958744464357,
                -2.194230275323132,
                1.4564636325851699,
                -0.21722533972981586,
                0.33477117875538254
            ]
        },
        {
            "positions": [
                -0.004283663555813937,
                -2.001497062545065,
                -2.146582347020233,
                1.4494310834981823,
                -0.316278616594437,
                0.4091875512618125
            ]
        },
        {
            "positions": [
                0.07097392922196863,
                -1.9744256148450654,
                -2.0401772762513306,
                1.3803759194878158,
                -0.2777100878905239,
                0.33343751000300414
            ]
        },
        {
            "positions": [
                0.14623152199975117,
                -1.9473541671450656,
                -1.9337722054824285,
                1.3113207554774493,
                -0.2391415591866109,
                0.2576874687441958
            ]
        },
        {
            "positions": [
                0.22148911477753372,
                -1.920282719445066,
                -1.827367134713526,
                1.2422655914670826,
                -0.2005730304826978,
                0.1819374274853874
            ]
        },
        {
            "positions": [
                0.2967467075553163,
                -1.8932112717450662,
                -1.720962063944624,
                1.1732104274567163,
                -0.16200450177878475,
                0.10618738622657908
            ]
        },
        {
            "positions": [
                0.37200430033309884,
                -1.8661398240450664,
                -1.6145569931757215,
                1.1041552634463496,
                -0.1234359730748717,
                0.03043734496777073
            ]
        },
        {
            "positions": [
                0.4472618931108814,
                -1.8390683763450666,
                -1.5081519224068192,
                1.0351000994359831,
                -0.08486744437095861,
                -0.04531269629103768
            ]
        },
        {
            "positions": [
                0.522519485888664,
                -1.8119969286450668,
                -1.401746851637917,
                0.9660449354256166,
                -0.04629891566704558,
                -0.12106273754984598
            ]
        },
        {
            "positions": [
                0.5977770786664466,
                -1.7849254809450672,
                -1.2953417808690146,
                0.8969897714152502,
                -0.007730386963132496,
                -0.19681277880865433
            ]
        },
        {
            "positions": [
                0.6730346714442292,
                -1.7578540332450674,
                -1.1889367101001123,
                0.8279346074048836,
                0.03083814174078059,
                -0.2725628200674628
            ]
        },
        {
            "positions": [
                0.7482922642220117,
                -1.7307825855450676,
                -1.08253163933121,
                0.7588794433945171,
                0.06940667044469362,
                -0.34831286132627104
            ]
        },
        {
            "positions": [
                0.8235498569997943,
                -1.7037111378450678,
                -0.9761265685623077,
                0.6898242793841505,
                0.1079751991486067,
                -0.4240629025850795
            ]
        },
        {
            "positions": [
                0.8988074497775768,
                -1.676639690145068,
                -0.8697214977934056,
                0.620769115373784,
                0.1465437278525198,
                -0.49981294384388786
            ]
        },
        {
            "positions": [
                0.9740650425553594,
                -1.6495682424450684,
                -0.7633164270245032,
                0.5517139513634174,
                0.18511225655643282,
                -0.5755629851026962
            ]
        },
        {
            "positions": [
                1.049322635333142,
                -1.6224967947450686,
                -0.656911356255601,
                0.482658787353051,
                0.22368078526034585,
                -0.6513130263615045
            ]
        },
        {
            "positions": [
                1.1245802281109245,
                -1.5954253470450688,
                -0.5505062854866987,
                0.4136036233426843,
                0.262249313964259,
                -0.727063067620313
            ]
        },
        {
            "positions": [
                1.199837820888707,
                -1.568353899345069,
                -0.4441012147177963,
                0.34454845933231804,
                0.300817842668172,
                -0.8028131088791212
            ]
        },
        {
            "positions": [
                1.2750954136664896,
                -1.5412824516450692,
                -0.33769614394889413,
                0.27549329532195155,
                0.33938637137208505,
                -0.8785631501379295
            ]
        },
        {
            "positions": [
                1.3503530064442724,
                -1.5142110039450694,
                -0.23129107317999154,
                0.20643813131158484,
                0.3779549000759982,
                -0.9543131913967381
            ]
        },
        {
            "positions": [
                1.4256105992220547,
                -1.4871395562450695,
                -0.1248860024110896,
                0.13738296730121835,
                0.4165234287799112,
                -1.0300632326555466
            ]
        },
        {
            "positions": [
                1.5008681919998372,
                -1.46006810854507,
                -0.018480931642187226,
                0.06832780329085186,
                0.45509195748382425,
                -1.1058132739143547
            ]
        },
        {
            "positions": [
                1.5761257847776198,
                -1.4329966608450702,
                0.08792413912671515,
                -0.0007273607195146248,
                0.4936604861877373,
                -1.1815633151731628
            ]
        },
        {
            "positions": [
                1.6513833775554025,
                -1.4059252131450704,
                0.19432920989561753,
                -0.06978252472988133,
                0.5322290148916504,
                -1.2573133564319714
            ]
        },
        {
            "positions": [
                1.726640970333185,
                -1.3788537654450708,
                0.3007342806645199,
                -0.13883768874024782,
                0.5707975435955635,
                -1.33306339769078
            ]
        },
        {
            "positions": [
                1.8018985631109674,
                -1.3517823177450707,
                0.40713935143342184,
                -0.2078928527506143,
                0.6093660722994766,
                -1.408813438949588
            ]
        },
        {
            "positions": [
                1.87715615588875,
                -1.3247108700450712,
                0.5135444222023242,
                -0.2769480167609808,
                0.6479346010033896,
                -1.4845634802083962
            ]
        },
        {
            "positions": [
                1.9524137486665327,
                -1.2976394223450713,
                0.6199494929712266,
                -0.3460031807713475,
                0.6865031297073027,
                -1.5603135214672048
            ]
        },
        {
            "positions": [
                2.0276713414443153,
                -1.2705679746450715,
                0.726354563740129,
                -0.4150583447817138,
                0.7250716584112157,
                -1.6360635627260134
            ]
        },
        {
            "positions": [
                2.102928934222098,
                -1.243496526945072,
                0.8327596345090309,
                -0.48411350879208026,
                0.7636401871151287,
                -1.7118136039848215
            ]
        },
        {
            "positions": [
                2.1781865269998804,
                -1.2164250792450721,
                0.9391647052779333,
                -0.553168672802447,
                0.8022087158190417,
                -1.78756364524363
            ]
        },
        {
            "positions": [
                2.253444119777663,
                -1.1893536315450723,
                1.0455697760468357,
                -0.6222238368128137,
                0.840777244522955,
                -1.8633136865024387
            ]
        },
        {
            "positions": [
                2.3287017125554454,
                -1.1622821838450725,
                1.151974846815738,
                -0.69127900082318,
                0.879345773226868,
                -1.9390637277612468
            ]
        },
        {
            "positions": [
                2.3712876395970466,
                -1.141225429089006,
                1.2482231645565287,
                -0.7050588984294918,
                0.9041639052897684,
                -2.1038887704262113
            ]
        },
        {
            "positions": [
                2.413873566638648,
                -1.1201686743329398,
                1.3444714822973194,
                -0.7188387960358037,
                0.9289820373526688,
                -2.2687138130911757
            ]
        },
        {
            "positions": [
                2.4564594936802493,
                -1.0991119195768733,
                1.44071980003811,
                -0.7326186936421155,
                0.9538001694155692,
                -2.4335388557561406
            ]
        },
        {
            "positions": [
                2.4990454207218504,
                -1.078055164820807,
                1.5369681177789007,
                -0.7463985912484273,
                0.9786183014784697,
                -2.598363898421105
            ]
        },
        {
            "positions": [
                2.5416313477634516,
                -1.0569984100647405,
                1.6332164355196914,
                -0.7601784888547392,
                1.0034364335413701,
                -2.76318894108607
            ]
        },
        {
            "positions": [
                2.584217274805053,
                -1.0359416553086742,
                1.729464753260482,
                -0.7739583864610511,
                1.0282545656042705,
                -2.9280139837510344
            ]
        },
        {
            "positions": [
                2.6268032018466543,
                -1.0148849005526077,
                1.8257130710012728,
                -0.7877382840673629,
                1.053072697667171,
                -3.092839026415999
            ]
        }
    ]
}