{
    "goal": {
        "global_pose": {
            "orientation": {
                "w": -0.4816463035849501,
                "x": 0.5182115481033762,
                "y": 0.4908360881923453,
                "z": -0.5084816262002911
            },
            "position": {
                "x": -0.8240239810943604,
                "y": 0.19912469901144506,
                "z": 0.16403168439865112
            }
        },
        "name": "move_to_storage_D"
    },
    "id": "BiTRRT_move_to_storage_D_30",
    "joint_names": [
        "shoulder_pan_joint",
        "shoulder_lift_joint",
        "elbow_joint",
        "wrist_1_joint",
        "wrist_2_joint",
        "wrist_3_joint"
    ],
    "metrics": {
        "cart_traj_len": 3.9224743079157816,
        "distance_elbow_joint": 4.210160101414517,
        "distance_shoulder_lift_joint": 1.263383013919566,
        "distance_shoulder_pan_joint": 2.8125391620996605,
        "distance_wrist_1_joint": 2.2675834247449282,
        "distance_wrist_2_joint": 0.8722731088872006,
        "distance_wrist_3_joint": 3.136638869889823,
        "smoothness": 1.5941663923061812e-16,
        "time": 0.15388996300000002,
        "traj_len": 3.8160945587020896,
        "weighted_distance": 4.8964999698118525
    },
    "planner": "BiTRRT",
    "start": {
        "state": {
            "elbow_joint": -2.384821988534728,
            "shoulder_lift_joint": -2.2788054721415256,
            "shoulder_pan_joint": -0.1854694642142757,
            "wrist_1_joint": 1.4845938289331202,
            "wrist_2_joint": 0.17898776772866878,
            "wrist_3_joint": 0.037105688729662994
        }
    },
    "waypoints": [
        {
            "positions": [
                -0.1854694642142757,
                -2.2788054721415256,
                -2.384821988534728,
                1.4845938289331202,
                0.17898776772866878,
                0.037105688729662994
            ]
        },
        {
            "positions": [
                -0.06906890445395525,
                -2.277917157623791,
                -2.226865123791346,
                1.4773950558827504,
                0.18287205852790023,
                0.030831411341067275
            ]
        },
        {
            "positions": [
                0.04733165530636521,
                -2.2770288431060566,
                -2.068908259047964,
                1.470196282832381,
                0.1867563493271317,
                0.024557133952471555
            ]
        },
        {
            "positions": [
                0.1215952454792497,
                -2.239452364161568,
                -1.9626119967460405,
                1.3951281862050513,
                0.1996814665284383,
                -0.05617371676141143
            ]
        },
        {
            "positions": [
                0.1958588356521342,
                -2.201875885217079,
                -1.8563157344441172,
                1.320060089577722,
                0.2126065837297449,
                -0.13690456747529442
            ]
        },
        {
            "positions": [
                0.27012242582501866,
                -2.1642994062725904,
                -1.7500194721421938,
                1.2449919929503923,
                0.2255317009310515,
                -0.2176354181891774
            ]
        },
        {
            "positions": [
                0.3443860159979032,
                -2.1267229273281014,
                -1.6437232098402703,
                1.1699238963230627,
                0.23845681813235808,
                -0.2983662689030604
            ]
        },
        {
            "positions": [
                0.4186496061707876,
                -2.089146448383613,
                -1.5374269475383469,
                1.094855799695733,
                0.2513819353336647,
                -0.3790971196169434
            ]
        },
        {
            "positions": [
                0.49291319634367214,
                -2.0515699694391243,
                -1.4311306852364236,
                1.0197877030684037,
                0.2643070525349713,
                -0.45982797033082634
            ]
        },
        {
            "positions": [
                0.5671767865165566,
                -2.0139934904946353,
                -1.3248344229345002,
                0.9447196064410742,
                0.2772321697362779,
                -0.5405588210447094
            ]
        },
        {
            "positions": [
                0.6414403766894411,
                -1.9764170115501467,
                -1.2185381606325767,
                0.8696515098137447,
                0.29015728693758447,
                -0.6212896717585923
            ]
        },
        {
            "positions": [
                0.7157039668623255,
                -1.9388405326056577,
                -1.1122418983306535,
                0.7945834131864151,
                0.3030824041388911,
                -0.7020205224724754
            ]
        },
        {
            "positions": [
                0.78996755703521,
                -1.9012640536611691,
                -1.00594563602873,
                0.7195153165590855,
                0.3160075213401977,
                -0.7827513731863585
            ]
        },
        {
            "positions": [
                0.8642311472080945,
                -1.8636875747166803,
                -0.8996493737268068,
                0.6444472199317561,
                0.32893263854150423,
                -0.8634822239002413
            ]
        },
        {
            "positions": [
                0.938494737380979,
                -1.8261110957721916,
                -0.7933531114248833,
                0.5693791233044265,
                0.34185775574281085,
                -0.9442130746141242
            ]
        },
        {
            "positions": [
                1.0127583275538636,
                -1.7885346168277028,
                -0.6870568491229598,
                0.49431102667709703,
                0.3547828729441175,
                -1.0249439253280073
            ]
        },
        {
            "positions": [
                1.087021917726748,
                -1.750958137883214,
                -0.5807605868210364,
                0.41924293004976754,
                0.3677079901454241,
                -1.1056747760418904
            ]
        },
        {
            "positions": [
                1.1612855078996325,
                -1.7133816589387254,
                -0.4744643245191129,
                0.34417483342243793,
                0.38063310734673067,
                -1.1864056267557734
            ]
        },
        {
            "positions": [
                1.235549098072517,
                -1.6758051799942366,
                -0.3681680622171897,
                0.26910673679510855,
                0.39355822454803724,
                -1.2671364774696563
            ]
        },
        {
            "positions": [
                1.3098126882454013,
                -1.6382287010497478,
                -0.26187179991526643,
                0.19403864016777894,
                0.40648334174934386,
                -1.3478673281835392
            ]
        },
        {
            "positions": [
                1.3840762784182858,
                -1.600652222105259,
                -0.15557553761334275,
                0.11897054354044934,
                0.4194084589506505,
                -1.4285981788974222
            ]
        },
        {
            "positions": [
                1.4583398685911704,
                -1.5630757431607702,
                -0.049279275311419735,
                0.04390244691311995,
                0.432333576151957,
                -1.509329029611305
            ]
        },
        {
            "positions": [
                1.532603458764055,
                -1.5254992642162815,
                0.05701698699050395,
                -0.031165649714209875,
                0.4452586933532637,
                -1.5900598803251884
            ]
        },
        {
            "positions": [
                1.6068670489369394,
                -1.4879227852717927,
                0.1633132492924272,
                -0.10623374634153926,
                0.45818381055457025,
                -1.6707907310390713
            ]
        },
        {
            "positions": [
                1.6811306391098237,
                -1.450346306327304,
                0.2696095115943504,
                -0.18130184296886864,
                0.4711089277558768,
                -1.7515215817529541
            ]
        },
        {
            "positions": [
                1.7553942292827085,
                -1.4127698273828153,
                0.3759057738962741,
                -0.25636993959619825,
                0.48403404495718344,
                -1.8322524324668372
            ]
        },
        {
            "positions": [
                1.8296578194555928,
                -1.3751933484383265,
                0.48220203619819735,
                -0.33143803622352785,
                0.49695916215849,
                -1.91298328318072
            ]
        },
        {
            "positions": [
                1.9039214096284771,
                -1.337616869493838,
                0.5884982985001206,
                -0.40650613285085724,
                0.5098842793597966,
                -1.9937141338946032
            ]
        },
        {
            "positions": [
                1.9781849998013619,
                -1.300040390549349,
                0.6947945608020443,
                -0.48157422947818684,
                0.5228093965611033,
                -2.074444984608486
            ]
        },
        {
            "positions": [
                2.0524485899742464,
                -1.2624639116048604,
                0.8010908231039675,
                -0.5566423261055162,
                0.5357345137624099,
                -2.155175835322369
            ]
        },
        {
            "positions": [
                2.126712180147131,
                -1.2248874326603716,
                0.9073870854058912,
                -0.6317104227328458,
                0.5486596309637164,
                -2.235906686036252
            ]
        },
        {
            "positions": [
                2.2009757703200155,
                -1.1873109537158828,
                1.0136833477078144,
                -0.7067785193601754,
                0.561584748165023,
                -2.316637536750135
            ]
        },
        {
            "positions": [
                2.2618463314007826,
                -1.1627554543596081,
                1.1296340284466682,
                -0.7176658159961229,
                0.6315384808008582,
                -2.428479771665853
            ]
        },
        {
            "positions": [
                2.3227168924815493,
                -1.1381999550033333,
                1.2455847091855219,
                -0.7285531126320705,
                0.7014922134366934,
                -2.5403220065815706
            ]
        },
        {
            "positions": [
                2.3835874535623165,
                -1.1136444556470586,
                1.3615353899243756,
                -0.7394404092680179,
                0.7714459460725286,
                -2.6521642414972884
            ]
        },
        {
            "positions": [
                2.4444580146430837,
                -1.0890889562907837,
                1.4774860706632293,
                -0.7503277059039654,
                0.8413996787083637,
                -2.764006476413006
            ]
        },
        {
            "positions": [
                2.505328575723851,
                -1.064533456934509,
                1.593436751402083,
                -0.7612150025399128,
                0.911353411344199,
                -2.8758487113287243
            ]
        },
        {
            "positions": [
                2.5661991368046175,
                -1.0399779575782344,
                1.7093874321409368,
                -0.7721022991758604,
                0.981307143980034,
                -2.987690946244442
            ]
        },
        {
            "positions": [
                2.6270696978853847,
                -1.0154224582219595,
                1.8253381128797905,
                -0.7829895958118078,
                1.0512608766158693,
                -3.09953318116016
            ]
        }
    ]
}