{
    "goal": {
        "global_pose": {
            "orientation": {
                "w": 0.005598929693374612,
                "x": 0.007748599140229565,
                "y": 0.7110244013736278,
                "z": -0.7031023480610252
            },
            "position": {
                "x": -0.8858502320852131,
                "y": -0.7141253447532654,
                "z": 0.3711530566215515
            }
        },
        "name": "move_to_auspresseinheit_C"
    },
    "id": "BiTRRT_move_to_auspresseinheit_C_23",
    "joint_names": [
        "shoulder_pan_joint",
        "shoulder_lift_joint",
        "elbow_joint",
        "wrist_1_joint",
        "wrist_2_joint",
        "wrist_3_joint"
    ],
    "metrics": {
        "cart_traj_len": 0.49215678653224004,
        "distance_elbow_joint": 0.9891621196867766,
        "distance_shoulder_lift_joint": 0.31998146003076533,
        "distance_shoulder_pan_joint": 0.25595325457177953,
        "distance_wrist_1_joint": 0.6545403977199349,
        "distance_wrist_2_joint": 1.3051037233000542,
        "distance_wrist_3_joint": 0.04195535125118166,
        "smoothness": 3.2297397080004555e-16,
        "time": 0.030788342,
        "traj_len": 1.8885699104244174,
        "weighted_distance": 2.3685968694741715
    },
    "planner": "BiTRRT",
    "start": {
        "state": {
            "elbow_joint": 1.7527959577737207,
            "shoulder_lift_joint": -0.9740617694225068,
            "shoulder_pan_joint": -2.967991417825858,
            "wrist_1_joint": -0.759517768980727,
            "wrist_2_joint": 1.7443932448377408,
            "wrist_3_joint": -3.0840537646736568
        }
    },
    "waypoints": [
        {
            "positions": [
                -2.967991417825858,
                -0.9740617694225068,
                1.7527959577737207,
                -0.759517768980727,
                1.7443932448377408,
                -3.0840537646736568
            ]
        },
        {
            "positions": [
                -2.94239609236868,
                -0.9420636234194303,
                1.653879745805043,
                -0.6940637292087335,
                1.6138828725077354,
                -3.088249299798775
            ]
        },
        {
            "positions": [
                -2.916800766911502,
                -0.9100654774163537,
                1.5549635338363652,
                -0.62860968943674,
                1.48337250017773,
                -3.092444834923893
            ]
        },
        {
            "positions": [
                -2.891205441454324,
                -0.8780673314132772,
                1.4560473218676877,
                -0.5631556496647465,
                1.3528621278477246,
                -3.0966403700490113
            ]
        },
        {
            "positions": [
                -2.8656101159971463,
                -0.8460691854102006,
                1.35713110989901,
                -0.497701609892753,
                1.2223517555177192,
                -3.1008359051741294
            ]
        },
        {
            "positions": [
                -2.840014790539968,
                -0.8140710394071241,
                1.2582148979303325,
                -0.43224757012075954,
                1.0918413831877136,
                -3.1050314402992476
            ]
        },
        {
            "positions": [
                -2.81441946508279,
                -0.7820728934040476,
                1.1592986859616548,
                -0.36679353034876605,
                0.9613310108577083,
                -3.1092269754243658
            ]
        },
        {
            "positions": [
                -2.7888241396256124,
                -0.750074747400971,
                1.060382473992977,
                -0.3013394905767726,
                0.8308206385277029,
                -3.113422510549484
            ]
        },
        {
            "positions": [
                -2.7632288141684342,
                -0.7180766013978945,
                0.9614662620242993,
                -0.23588545080477907,
                0.7003102661976974,
                -3.117618045674602
            ]
        },
        {
            "positions": [
                -2.7376334887112566,
                -0.686078455394818,
                0.8625500500556217,
                -0.17043141103278558,
                0.569799893867692,
                -3.1218135807997203
            ]
        },
        {
            "positions": [
                -2.7120381632540784,
                -0.6540803093917414,
                0.7636338380869441,
                -0.1049773712607921,
                0.4392895215376866,
                -3.1260091159248384
            ]
        }
    ]
}