{
    "goal": {
        "global_pose": {
            "orientation": {
                "w": 0.005598929693374612,
                "x": 0.007748599140229565,
                "y": 0.7110244013736278,
                "z": -0.7031023480610252
            },
            "position": {
                "x": 0.1141497679147869,
                "y": -0.7141253447532654,
                "z": 0.3711530566215515
            }
        },
        "name": "move_to_auspresseinheit_B"
    },
    "id": "BiTRRT_move_to_auspresseinheit_B_48",
    "joint_names": [
        "shoulder_pan_joint",
        "shoulder_lift_joint",
        "elbow_joint",
        "wrist_1_joint",
        "wrist_2_joint",
        "wrist_3_joint"
    ],
    "metrics": {
        "cart_traj_len": 0.5637302041245136,
        "distance_elbow_joint": 0.060977216931341394,
        "distance_shoulder_lift_joint": 0.2943659186049934,
        "distance_shoulder_pan_joint": 0.5771434223975518,
        "distance_wrist_1_joint": 0.32127605522056046,
        "distance_wrist_2_joint": 0.9870810403502888,
        "distance_wrist_3_joint": 0.0037763361156888386,
        "smoothness": 0.0,
        "time": 0.033654431,
        "traj_len": 1.4982055899042777,
        "weighted_distance": 1.8869366066253133
    },
    "planner": "BiTRRT",
    "start": {
        "state": {
            "elbow_joint": 2.0193083361928714,
            "shoulder_lift_joint": -1.1220246554650708,
            "shoulder_pan_joint": -1.0952077554168747,
            "wrist_1_joint": -0.8559753972642168,
            "wrist_2_joint": 0.4759566250798843,
            "wrist_3_joint": -3.1240929996934557
        }
    },
    "waypoints": [
        {
            "positions": [
                -1.0952077554168747,
                -1.1220246554650708,
                2.0193083361928714,
                -0.8559753972642168,
                0.4759566250798843,
                -3.1240929996934557
            ]
        },
        {
            "positions": [
                -1.1913983258164667,
                -1.1710856418992364,
                2.0091454667043145,
                -0.80242938806079,
                0.6404701318049324,
                -3.123463610340841
            ]
        },
        {
            "positions": [
                -1.2875888962160587,
                -1.220146628333402,
                1.9989825972157576,
                -0.7488833788573633,
                0.8049836385299804,
                -3.122834220988226
            ]
        },
        {
            "positions": [
                -1.3837794666156507,
                -1.2692076147675675,
                1.9888197277272006,
                -0.6953373696539366,
                0.9694971452550287,
                -3.122204831635611
            ]
        },
        {
            "positions": [
                -1.4799700370152424,
                -1.318268601201733,
                1.978656858238644,
                -0.6417913604505099,
                1.1340106519800768,
                -3.1215754422829964
            ]
        },
        {
            "positions": [
                -1.5761606074148344,
                -1.3673295876358986,
                1.968493988750087,
                -0.5882453512470831,
                1.298524158705125,
                -3.120946052930382
            ]
        },
        {
            "positions": [
                -1.6723511778144264,
                -1.4163905740700642,
                1.95833111926153,
                -0.5346993420436563,
                1.463037665430173,
                -3.120316663577767
            ]
        }
    ]
}