{
    "goal": {
        "global_pose": {
            "orientation": {
                "w": 0.7047431468963623,
                "x": -0.7094548344612122,
                "y": 0.0024358443915843964,
                "z": -0.0022348060738295317
            },
            "position": {
                "x": 0.6094750761985779,
                "y": 0.3671506643295288,
                "z": 0.19426114857196808
            }
        },
        "name": "move_to_magneteinheit_A"
    },
    "id": "BiTRRT_move_to_magneteinheit_A_138",
    "joint_names": [
        "shoulder_pan_joint",
        "shoulder_lift_joint",
        "elbow_joint",
        "wrist_1_joint",
        "wrist_2_joint",
        "wrist_3_joint"
    ],
    "metrics": {
        "cart_traj_len": 3.6695419613093625,
        "distance_elbow_joint": 3.907553518934315,
        "distance_shoulder_lift_joint": 0.3697911540816834,
        "distance_shoulder_pan_joint": 2.6574452656488496,
        "distance_wrist_1_joint": 0.7754955421030558,
        "distance_wrist_2_joint": 1.977668752357728,
        "distance_wrist_3_joint": 3.5725928261037687,
        "smoothness": 0.14411439462406123,
        "time": 0.09537283399999999,
        "traj_len": 3.6415034064558283,
        "weighted_distance": 4.812369167665519
    },
    "planner": "BiTRRT",
    "start": {
        "state": {
            "elbow_joint": -1.9196185241190666,
            "shoulder_lift_joint": -1.2443396400964142,
            "shoulder_pan_joint": 2.6996025414629847,
            "wrist_1_joint": -1.5485510000780065,
            "wrist_2_joint": -1.5709468930060704,
            "wrist_3_joint": 0.4420197071253992
        }
    },
    "waypoints": [
        {
            "positions": [
                2.6996025414629847,
                -1.2443396400964142,
                -1.9196185241190666,
                -1.5485510000780065,
                -1.5709468930060704,
                0.4420197071253992
            ]
        },
        {
            "positions": [
                2.613507632631599,
                -1.236584272394471,
                -1.812710017721805,
                -1.5242182416791261,
                -1.5095839616360858,
                0.3377158301638718
            ]
        },
        {
            "positions": [
                2.527412723800213,
                -1.2288289046925283,
                -1.705801511324543,
                -1.4998854832802457,
                -1.4482210302661014,
                0.23341195320234445
            ]
        },
        {
            "positions": [
                2.4413178149688273,
                -1.2210735369905852,
                -1.5988930049272814,
                -1.4755527248813656,
                -1.3868580988961168,
                0.1291080762408171
            ]
        },
        {
            "positions": [
                2.3552229061374415,
                -1.2133181692886421,
                -1.4919844985300197,
                -1.4512199664824852,
                -1.3254951675261324,
                0.02480419927928973
            ]
        },
        {
            "positions": [
                2.2691279973060556,
                -1.2055628015866993,
                -1.3850759921327578,
                -1.4268872080836048,
                -1.264132236156148,
                -0.07949967768223754
            ]
        },
        {
            "positions": [
                2.1830330884746694,
                -1.1978074338847562,
                -1.278167485735496,
                -1.4025544496847244,
                -1.2027693047861634,
                -0.18380355464376497
            ]
        },
        {
            "positions": [
                2.0969381796432836,
                -1.1900520661828131,
                -1.1712589793382344,
                -1.378221691285844,
                -1.1414063734161788,
                -0.2881074316052923
            ]
        },
        {
            "positions": [
                2.0108432708118977,
                -1.18229669848087,
                -1.0643504729409727,
                -1.3538889328869639,
                -1.0800434420461944,
                -0.3924113085668197
            ]
        },
        {
            "positions": [
                1.924748361980512,
                -1.1745413307789272,
                -0.9574419665437108,
                -1.3295561744880835,
                -1.01868051067621,
                -0.49671518552834704
            ]
        },
        {
            "positions": [
                1.838653453149126,
                -1.1667859630769841,
                -0.8505334601464491,
                -1.3052234160892031,
                -0.9573175793062254,
                -0.6010190624898742
            ]
        },
        {
            "positions": [
                1.7525585443177403,
                -1.159030595375041,
                -0.7436249537491875,
                -1.2808906576903227,
                -0.8959546479362409,
                -0.7053229394514017
            ]
        },
        {
            "positions": [
                1.6664636354863542,
                -1.1512752276730982,
                -0.6367164473519256,
                -1.2565578992914423,
                -0.8345917165662563,
                -0.8096268164129291
            ]
        },
        {
            "positions": [
                1.5803687266549684,
                -1.1435198599711551,
                -0.5298079409546637,
                -1.2322251408925622,
                -0.7732287851962718,
                -0.9139306933744565
            ]
        },
        {
            "positions": [
                1.4942738178235826,
                -1.135764492269212,
                -0.422899434557402,
                -1.2078923824936818,
                -0.7118658538262873,
                -1.0182345703359839
            ]
        },
        {
            "positions": [
                1.4081789089921968,
                -1.128009124567269,
                -0.3159909281601403,
                -1.1835596240948014,
                -0.6505029224563028,
                -1.122538447297511
            ]
        },
        {
            "positions": [
                1.322084000160811,
                -1.1202537568653261,
                -0.2090824217628786,
                -1.159226865695921,
                -0.5891399910863183,
                -1.2268423242590387
            ]
        },
        {
            "positions": [
                1.2359890913294251,
                -1.112498389163383,
                -0.10217391536561693,
                -1.1348941072970407,
                -0.5277770597163338,
                -1.331146201220566
            ]
        },
        {
            "positions": [
                1.1498941824980393,
                -1.10474302146144,
                0.004734591031644975,
                -1.1105613488981605,
                -0.46641412834634943,
                -1.4354500781820931
            ]
        },
        {
            "positions": [
                1.0637992736666535,
                -1.0969876537594971,
                0.11164309742890666,
                -1.0862285904992801,
                -0.4050511969763648,
                -1.5397539551436203
            ]
        },
        {
            "positions": [
                0.9777043648352675,
                -1.089232286057554,
                0.21855160382616834,
                -1.0618958321003997,
                -0.34368826560638044,
                -1.6440578321051476
            ]
        },
        {
            "positions": [
                0.8916094560038816,
                -1.081476918355611,
                0.32546011022343,
                -1.0375630737015196,
                -0.28232533423639583,
                -1.7483617090666752
            ]
        },
        {
            "positions": [
                0.8055145471724958,
                -1.0737215506536681,
                0.4323686166206917,
                -1.0132303153026392,
                -0.22096240286641144,
                -1.8526655860282024
            ]
        },
        {
            "positions": [
                0.7194196383411098,
                -1.065966182951725,
                0.5392771230179538,
                -0.9888975569037587,
                -0.15959947149642661,
                -1.95696946298973
            ]
        },
        {
            "positions": [
                0.6333247295097237,
                -1.058210815249782,
                0.6461856294152155,
                -0.9645647985048783,
                -0.09823654012644223,
                -2.0612733399512573
            ]
        },
        {
            "positions": [
                0.5472298206783379,
                -1.0504554475478391,
                0.7530941358124772,
                -0.940232040105998,
                -0.03687360875645762,
                -2.165577216912785
            ]
        },
        {
            "positions": [
                0.4611349118469521,
                -1.042700079845896,
                0.8600026422097393,
                -0.9158992817071177,
                0.024489322613526765,
                -2.269881093874312
            ]
        },
        {
            "positions": [
                0.3750400030155663,
                -1.034944712143953,
                0.966911148607001,
                -0.8915665233082374,
                0.08585225398351137,
                -2.3741849708358393
            ]
        },
        {
            "positions": [
                0.28894509418418046,
                -1.02718934444201,
                1.0738196550042627,
                -0.867233764909357,
                0.14721518535349576,
                -2.4784888477973666
            ]
        },
        {
            "positions": [
                0.20285018535279464,
                -1.019433976740067,
                1.1807281614015244,
                -0.8429010065104767,
                0.20857811672348037,
                -2.582792724758894
            ]
        },
        {
            "positions": [
                0.11675527652140862,
                -1.011678609038124,
                1.287636667798786,
                -0.8185682481115963,
                0.2699410480934647,
                -2.6870966017204214
            ]
        },
        {
            "positions": [
                0.09941097673729682,
                -1.0339659320682535,
                1.4135408824156133,
                -0.836661057114078,
                0.25868528304576893,
                -2.8067967078715172
            ]
        },
        {
            "positions": [
                0.08206667695318502,
                -1.0562532550983832,
                1.5394450970324403,
                -0.8547538661165596,
                0.2474295179980732,
                -2.9264968140226135
            ]
        },
        {
            "positions": [
                0.09536981066620169,
                -1.0871050807527611,
                1.6889417296267097,
                -0.8516448087393321,
                0.20933975761047263,
                -2.9945222490078653
            ]
        },
        {
            "positions": [
                0.10867294437921836,
                -1.1179569064071393,
                1.8384383622209794,
                -0.8485357513621046,
                0.17124999722287204,
                -3.0625476839931176
            ]
        },
        {
            "positions": [
                0.12197607809223503,
                -1.1488087320615172,
                1.987934994815249,
                -0.8454266939848771,
                0.13316023683527145,
                -3.1305731189783694
            ]
        }
    ]
}