{
    "goal": {
        "global_pose": {
            "orientation": {
                "w": 0.5084816262002911,
                "x": -0.4908360881923452,
                "y": 0.5182115481033761,
                "z": -0.48164630358495003
            },
            "position": {
                "x": 0.5540239810943604,
                "y": -0.46912469901144505,
                "z": 0.16403168439865112
            }
        },
        "name": "move_to_storage_B"
    },
    "id": "BiTRRT_move_to_storage_B_88",
    "joint_names": [
        "shoulder_pan_joint",
        "shoulder_lift_joint",
        "elbow_joint",
        "wrist_1_joint",
        "wrist_2_joint",
        "wrist_3_joint"
    ],
    "metrics": {
        "cart_traj_len": 2.025287105133384,
        "distance_elbow_joint": 1.3162607180197572,
        "distance_shoulder_lift_joint": 0.5038891310931499,
        "distance_shoulder_pan_joint": 2.3273757751065243,
        "distance_wrist_1_joint": 2.9857797133114463,
        "distance_wrist_2_joint": 2.7123096892382517,
        "distance_wrist_3_joint": 3.1415280254024744,
        "smoothness": 0.07437160193081305,
        "time": 0.103154385,
        "traj_len": 3.603767896545448,
        "weighted_distance": 4.996827844295444
    },
    "planner": "BiTRRT",
    "start": {
        "state": {
            "elbow_joint": 1.664937868594044,
            "shoulder_lift_joint": -0.661644460510453,
            "shoulder_pan_joint": -0.9139846352900073,
            "wrist_1_joint": 2.146753192139373,
            "wrist_2_joint": -2.2341966793290973,
            "wrist_3_joint": 0.005466555786416001
        }
    },
    "waypoints": [
        {
            "positions": [
                -0.9139846352900073,
                -0.661644460510453,
                1.664937868594044,
                2.146753192139373,
                -2.2341966793290973,
                0.005466555786416001
            ]
        },
        {
            "positions": [
                -0.779847209739369,
                -0.6600220387744589,
                1.605793087351039,
                2.060581945859198,
                -2.1498356112632893,
                0.031935391423005055
            ]
        },
        {
            "positions": [
                -0.6457097841887308,
                -0.6583996170384647,
                1.546648306108034,
                1.974410699579023,
                -2.0654745431974812,
                0.058404227059594103
            ]
        },
        {
            "positions": [
                -0.5115723586380926,
                -0.6567771953024706,
                1.4875035248650292,
                1.8882394532988476,
                -1.9811134751316735,
                0.08487306269618315
            ]
        },
        {
            "positions": [
                -0.37743493308745435,
                -0.6551547735664764,
                1.4283587436220242,
                1.8020682070186724,
                -1.8967524070658655,
                0.11134189833277221
            ]
        },
        {
            "positions": [
                -0.24329750753681612,
                -0.6535323518304823,
                1.3692139623790194,
                1.7158969607384973,
                -1.8123913390000574,
                0.13781073396936125
            ]
        },
        {
            "positions": [
                -0.10916008198617788,
                -0.6519099300944882,
                1.3100691811360146,
                1.629725714458322,
                -1.7280302709342497,
                0.1642795696059503
            ]
        },
        {
            "positions": [
                0.024977343564460353,
                -0.650287508358494,
                1.2509243998930097,
                1.5435544681781468,
                -1.6436692028684416,
                0.19074840524253936
            ]
        },
        {
            "positions": [
                0.15911476911509861,
                -0.6486650866224999,
                1.1917796186500047,
                1.4573832218979716,
                -1.5593081348026336,
                0.21721724087912841
            ]
        },
        {
            "positions": [
                0.14618910837413135,
                -0.6429125197958103,
                1.1846516716982303,
                1.3941214534858286,
                -1.5286178344744181,
                0.23904562376185667
            ]
        },
        {
            "positions": [
                0.10901389306046477,
                -0.6387478600860534,
                1.1816837936187987,
                1.2578522430415426,
                -1.4516705121309323,
                0.31215962875951897
            ]
        },
        {
            "positions": [
                0.06549367317425489,
                -0.6427756444024109,
                1.1911219804122362,
                1.13139561861986,
                -1.369694476754275,
                0.4049243432172709
            ]
        },
        {
            "positions": [
                0.021973453288044995,
                -0.6468034287187683,
                1.2005601672056734,
                1.0049389941981772,
                -1.2877184413776177,
                0.4976890576750228
            ]
        },
        {
            "positions": [
                -0.0215467665981649,
                -0.6508312130351257,
                1.2099983539991108,
                0.8784823697764947,
                -1.2057424060009603,
                0.5904537721327747
            ]
        },
        {
            "positions": [
                -0.06506698648437478,
                -0.6548589973514832,
                1.2194365407925483,
                0.752025745354812,
                -1.123766370624303,
                0.6832184865905266
            ]
        },
        {
            "positions": [
                -0.1085872063705847,
                -0.6588867816678406,
                1.2288747275859857,
                0.6255691209331293,
                -1.0417903352476456,
                0.7759832010482786
            ]
        },
        {
            "positions": [
                -0.15210742625679458,
                -0.6629145659841981,
                1.238312914379423,
                0.49911249651144673,
                -0.9598142998709884,
                0.8687479155060305
            ]
        },
        {
            "positions": [
                -0.19562764614300449,
                -0.6669423503005555,
                1.2477511011728604,
                0.37265587208976403,
                -0.877838264494331,
                0.9615126299637824
            ]
        },
        {
            "positions": [
                -0.2456017547787442,
                -0.6920977969924582,
                1.2903588420334409,
                0.30534018357521747,
                -0.8025076381385817,
                1.0829282939207328
            ]
        },
        {
            "positions": [
                -0.29557586341448394,
                -0.7172532436843608,
                1.3329665828940216,
                0.23802449506067094,
                -0.7271770117828324,
                1.2043439578776833
            ]
        },
        {
            "positions": [
                -0.34554997205022364,
                -0.7424086903762636,
                1.375574323754602,
                0.1707088065461244,
                -0.6518463854270832,
                1.3257596218346337
            ]
        },
        {
            "positions": [
                -0.39552408068596334,
                -0.7675641370681662,
                1.4181820646151826,
                0.10339311803157786,
                -0.5765157590713339,
                1.4471752857915843
            ]
        },
        {
            "positions": [
                -0.44549818932170315,
                -0.7927195837600689,
                1.4607898054757633,
                0.036077429517031245,
                -0.5011851327155846,
                1.5685909497485349
            ]
        },
        {
            "positions": [
                -0.4954722979574428,
                -0.8178750304519715,
                1.5033975463363438,
                -0.031238258997515256,
                -0.42585450635983535,
                1.690006613705485
            ]
        },
        {
            "positions": [
                -0.5454464065931826,
                -0.8430304771438742,
                1.5460052871969243,
                -0.09855394751206181,
                -0.3505238800040861,
                1.8114222776624356
            ]
        },
        {
            "positions": [
                -0.5954205152289223,
                -0.868185923835777,
                1.5886130280575048,
                -0.1658696360266083,
                -0.2751932536483368,
                1.9328379416193862
            ]
        },
        {
            "positions": [
                -0.645394623864662,
                -0.8933413705276796,
                1.6312207689180855,
                -0.23318532454115493,
                -0.19986262729258752,
                2.0542536055763367
            ]
        },
        {
            "positions": [
                -0.6953687325004018,
                -0.9184968172195823,
                1.6738285097786663,
                -0.30050101305570154,
                -0.12453200093683825,
                2.1756692695332873
            ]
        },
        {
            "positions": [
                -0.7453428411361416,
                -0.943652263911485,
                1.7164362506392468,
                -0.36781670157024804,
                -0.049201374581088864,
                2.2970849334902375
            ]
        },
        {
            "positions": [
                -0.795316949771881,
                -0.9688077106033877,
                1.7590439914998273,
                -0.43513239008479454,
                0.0261292517746603,
                2.4185005974471876
            ]
        },
        {
            "positions": [
                -0.845291058407621,
                -0.9939631572952904,
                1.801651732360408,
                -0.5024480785993412,
                0.10145987813040958,
                2.539916261404138
            ]
        },
        {
            "positions": [
                -0.8952651670433607,
                -1.0191186039871931,
                1.8442594732209883,
                -0.5697637671138877,
                0.17679050448615885,
                2.6613319253610888
            ]
        },
        {
            "positions": [
                -0.9452392756791004,
                -1.0442740506790957,
                1.886867214081569,
                -0.6370794556284344,
                0.25212113084190824,
                2.7827475893180393
            ]
        },
        {
            "positions": [
                -0.9952133843148401,
                -1.0694294973709983,
                1.9294749549421495,
                -0.7043951441429807,
                0.3274517571976574,
                2.90416325327499
            ]
        },
        {
            "positions": [
                -1.0451874929505798,
                -1.0945849440629012,
                1.97208269580273,
                -0.7717108326575274,
                0.40278238355340656,
                3.02557891723194
            ]
        },
        {
            "positions": [
                -1.0951616015863195,
                -1.1197403907548038,
                2.0146904366633107,
                -0.8390265211720739,
                0.478113009909156,
                3.1469945811888906
            ]
        }
    ]
}