{
    "goal": {
        "global_pose": {
            "orientation": {
                "w": 0.7031023502349854,
                "x": -0.7110244035720825,
                "y": 0.007748599164187908,
                "z": 0.005598929710686207
            },
            "position": {
                "x": 0.11585023208521307,
                "y": 0.44412534475326537,
                "z": 0.3711530566215515
            }
        },
        "name": "move_to_auspresseinheit_A"
    },
    "id": "BiTRRT_move_to_auspresseinheit_A_84",
    "joint_names": [
        "shoulder_pan_joint",
        "shoulder_lift_joint",
        "elbow_joint",
        "wrist_1_joint",
        "wrist_2_joint",
        "wrist_3_joint"
    ],
    "metrics": {
        "cart_traj_len": 2.658185844776087,
        "distance_elbow_joint": 0.6652486201969543,
        "distance_shoulder_lift_joint": 0.9054593423814095,
        "distance_shoulder_pan_joint": 3.7067360227424135,
        "distance_wrist_1_joint": 7.8737073071342385,
        "distance_wrist_2_joint": 2.6598181239276046,
        "distance_wrist_3_joint": 0.7385951447750623,
        "smoothness": 0.867468039215737,
        "time": 0.153262182,
        "traj_len": 4.068115603219467,
        "weighted_distance": 5.34418190949463
    },
    "planner": "BiTRRT",
    "start": {
        "state": {
            "elbow_joint": 2.4225746658250005,
            "shoulder_lift_joint": -1.3736534386056498,
            "shoulder_pan_joint": -0.3378633547517467,
            "wrist_1_joint": -1.0288598680537169,
            "wrist_2_joint": 1.233022673432363,
            "wrist_3_joint": -3.0940220416140027
        }
    },
    "waypoints": [
        {
            "positions": [
                -0.3378633547517467,
                -1.3736534386056498,
                2.4225746658250005,
                -1.0288598680537169,
                1.233022673432363,
                -3.0940220416140027
            ]
        },
        {
            "positions": [
                -0.2854650858823282,
                -1.4056886902928987,
                2.307301604900957,
                -1.0051186352980541,
                1.189812922795383,
                -2.9837464132816516
            ]
        },
        {
            "positions": [
                -0.23306681701290966,
                -1.4377239419801473,
                2.192028543976914,
                -0.9813774025423913,
                1.1466031721584033,
                -2.8734707849493
            ]
        },
        {
            "positions": [
                -0.18066854814349112,
                -1.4697591936673962,
                2.0767554830528705,
                -0.9576361697867284,
                1.1033934215214234,
                -2.763195156616949
            ]
        },
        {
            "positions": [
                -0.25079450484750865,
                -1.4600050064813008,
                2.077588095359206,
                -0.7398668300944093,
                1.026170137119996,
                -2.783194305198048
            ]
        },
        {
            "positions": [
                -0.3209204615515262,
                -1.4502508192952055,
                2.078420707665541,
                -0.5220974904020903,
                0.9489468527185687,
                -2.8031934537791474
            ]
        },
        {
            "positions": [
                -0.39104641825554376,
                -1.44049663210911,
                2.0792533199718766,
                -0.30432815070977137,
                0.8717235683171414,
                -2.8231926023602467
            ]
        },
        {
            "positions": [
                -0.4611723749595613,
                -1.4307424449230146,
                2.0800859322782124,
                -0.08655881101745233,
                0.794500283915714,
                -2.843191750941346
            ]
        },
        {
            "positions": [
                -0.5312983316635789,
                -1.4209882577369193,
                2.0809185445845477,
                0.1312105286748666,
                0.7172769995142867,
                -2.8631908995224453
            ]
        },
        {
            "positions": [
                -0.6014242883675964,
                -1.411234070550824,
                2.081751156890883,
                0.34897986836718564,
                0.6400537151128594,
                -2.883190048103545
            ]
        },
        {
            "positions": [
                -0.671550245071614,
                -1.4014798833647286,
                2.0825837691972184,
                0.5667492080595047,
                0.562830430711432,
                -2.9031891966846444
            ]
        },
        {
            "positions": [
                -0.7416762017756315,
                -1.391725696178633,
                2.083416381503554,
                0.7845185477518237,
                0.48560714631000457,
                -2.9231883452657437
            ]
        },
        {
            "positions": [
                -0.8118021584796491,
                -1.3819715089925377,
                2.084248993809889,
                1.0022878874441428,
                0.40838386190857723,
                -2.943187493846843
            ]
        },
        {
            "positions": [
                -0.8819281151836666,
                -1.3722173218064424,
                2.085081606116225,
                1.2200572271364616,
                0.3311605775071499,
                -2.9631866424279423
            ]
        },
        {
            "positions": [
                -0.9520540718876842,
                -1.362463134620347,
                2.0859142184225603,
                1.4378265668287808,
                0.25393729310572255,
                -2.9831857910090416
            ]
        },
        {
            "positions": [
                -1.0221800285917018,
                -1.3527089474342517,
                2.0867468307288957,
                1.6555959065210997,
                0.1767140087042952,
                -3.003184939590141
            ]
        },
        {
            "positions": [
                -1.0923059852957193,
                -1.3429547602481562,
                2.087579443035231,
                1.873365246213419,
                0.09949072430286776,
                -3.02318408817124
            ]
        },
        {
            "positions": [
                -1.1624319419997369,
                -1.3332005730620609,
                2.0884120553415664,
                2.0911345859057375,
                0.022267439901440644,
                -3.0431832367523395
            ]
        },
        {
            "positions": [
                -1.2325578987037544,
                -1.3234463858759655,
                2.0892446676479017,
                2.308903925598057,
                -0.05495584449998692,
                -3.0631823853334392
            ]
        },
        {
            "positions": [
                -1.302683855407772,
                -1.3136921986898702,
                2.0900772799542375,
                2.526673265290376,
                -0.13217912890141426,
                -3.0831815339145385
            ]
        },
        {
            "positions": [
                -1.3728098121117895,
                -1.3039380115037746,
                2.090909892260573,
                2.7444426049826953,
                -0.2094024133028416,
                -3.103180682495638
            ]
        },
        {
            "positions": [
                -1.442935768815807,
                -1.2941838243176793,
                2.0917425045669082,
                2.9622119446750137,
                -0.28662569770426893,
                -3.123179831076737
            ]
        },
        {
            "positions": [
                -1.5130617255198247,
                -1.284429637131584,
                2.0925751168732436,
                3.1799812843673334,
                -0.3638489821056963,
                -3.1431789796578364
            ]
        },
        {
            "positions": [
                -1.4022043235819335,
                -1.3156308386707765,
                2.107755607053466,
                2.9967379766316737,
                -0.31070165868621896,
                -3.1417897578209804
            ]
        },
        {
            "positions": [
                -1.291346921644042,
                -1.3468320402099692,
                2.122936097233689,
                2.8134946688960145,
                -0.25755433526674165,
                -3.1404005359841243
            ]
        },
        {
            "positions": [
                -1.1804895197061507,
                -1.3780332417491616,
                2.1381165874139114,
                2.630251361160355,
                -0.20440701184726437,
                -3.139011314147268
            ]
        },
        {
            "positions": [
                -1.0696321177682595,
                -1.4092344432883541,
                2.153297077594134,
                2.447008053424695,
                -0.15125968842778706,
                -3.137622092310412
            ]
        },
        {
            "positions": [
                -0.9587747158303682,
                -1.4404356448275468,
                2.1684775677743566,
                2.263764745689036,
                -0.09811236500830978,
                -3.136232870473556
            ]
        },
        {
            "positions": [
                -0.8479173138924769,
                -1.4716368463667393,
                2.183658057954579,
                2.0805214379533763,
                -0.044965041588832466,
                -3.1348436486367004
            ]
        },
        {
            "positions": [
                -0.7370599119545856,
                -1.5028380479059318,
                2.1988385481348014,
                1.8972781302177169,
                0.008182281830644789,
                -3.1334544267998443
            ]
        },
        {
            "positions": [
                -0.6262025100166944,
                -1.5340392494451245,
                2.214019038315024,
                1.7140348224820572,
                0.061329605250122154,
                -3.1320652049629882
            ]
        },
        {
            "positions": [
                -0.5153451080788031,
                -1.565240450984317,
                2.2291995284952466,
                1.5307915147463977,
                0.11447692866959941,
                -3.130675983126132
            ]
        },
        {
            "positions": [
                -0.4044877061409118,
                -1.5964416525235094,
                2.244380018675469,
                1.3475482070107383,
                0.16762425208907672,
                -3.129286761289276
            ]
        },
        {
            "positions": [
                -0.2936303042030204,
                -1.6276428540627021,
                2.259560508855692,
                1.1643048992750784,
                0.22077157550855409,
                -3.12789753945242
            ]
        },
        {
            "positions": [
                -0.1827729022651292,
                -1.6588440556018944,
                2.2747409990359144,
                0.9810615915394192,
                0.27391889892803134,
                -3.126508317615564
            ]
        },
        {
            "positions": [
                -0.07191550032723781,
                -1.690045257141087,
                2.289921489216137,
                0.7978182838037595,
                0.3270662223475086,
                -3.125119095778708
            ]
        },
        {
            "positions": [
                0.03894190161065336,
                -1.7212464586802796,
                2.3051019793963596,
                0.6145749760681003,
                0.38021354576698585,
                -3.1237298739418518
            ]
        },
        {
            "positions": [
                0.14979930354854476,
                -1.752447660219472,
                2.320282469576582,
                0.43133166833244063,
                0.4333608691864632,
                -3.122340652104996
            ]
        },
        {
            "positions": [
                0.26065670548643594,
                -1.7836488617586648,
                2.3354629597568044,
                0.24808836059678097,
                0.4865081926059406,
                -3.12095143026814
            ]
        },
        {
            "positions": [
                0.3715141074243271,
                -1.8148500632978573,
                2.350643449937027,
                0.06484505286112174,
                0.5396555160254178,
                -3.119562208431284
            ]
        },
        {
            "positions": [
                0.4823715093622185,
                -1.8460512648370497,
                2.3658239401172496,
                -0.11839825487453792,
                0.5928028394448951,
                -3.118172986594428
            ]
        },
        {
            "positions": [
                0.5932289113001099,
                -1.8772524663762424,
                2.381004430297472,
                -0.30164156261019714,
                0.6459501628643725,
                -3.116783764757572
            ]
        },
        {
            "positions": [
                0.7040863132380011,
                -1.908453667915435,
                2.396184920477695,
                -0.484884870345857,
                0.6990974862838498,
                -3.1153945429207157
            ]
        }
    ]
}