{
    "goal": {
        "global_pose": {
            "orientation": {
                "w": 0.005598929693374612,
                "x": 0.007748599140229565,
                "y": 0.7110244013736278,
                "z": -0.7031023480610252
            },
            "position": {
                "x": 0.1141497679147869,
                "y": -0.7141253447532654,
                "z": 0.3711530566215515
            }
        },
        "name": "move_to_auspresseinheit_B"
    },
    "id": "BiTRRT_move_to_auspresseinheit_B_72",
    "joint_names": [
        "shoulder_pan_joint",
        "shoulder_lift_joint",
        "elbow_joint",
        "wrist_1_joint",
        "wrist_2_joint",
        "wrist_3_joint"
    ],
    "metrics": {
        "cart_traj_len": 0.5640890913432438,
        "distance_elbow_joint": 0.06062273711091537,
        "distance_shoulder_lift_joint": 0.29473031386244797,
        "distance_shoulder_pan_joint": 0.5769978323038321,
        "distance_wrist_1_joint": 0.3232915648642549,
        "distance_wrist_2_joint": 0.9937003353660454,
        "distance_wrist_3_joint": 0.005248656628221049,
        "smoothness": 0.0,
        "time": 0.035643943,
        "traj_len": 1.5015297000511567,
        "weighted_distance": 1.8926385427816004
    },
    "planner": "BiTRRT",
    "start": {
        "state": {
            "elbow_joint": 2.0193083361928714,
            "shoulder_lift_joint": -1.1220246554650708,
            "shoulder_pan_joint": -1.0952077554168747,
            "wrist_1_joint": -0.8559753972642168,
            "wrist_2_joint": 0.4759566250798843,
            "wrist_3_joint": -3.1240929996934557
        }
    },
    "waypoints": [
        {
            "positions": [
                -1.0952077554168747,
                -1.1220246554650708,
                2.0193083361928714,
                -0.8559753972642168,
                0.4759566250798843,
                -3.1240929996934557
            ]
        },
        {
            "positions": [
                -1.1913740608008467,
                -1.1711463744421455,
                2.0092045466743853,
                -0.8020934697868409,
                0.6415733476408918,
                -3.123218223588752
            ]
        },
        {
            "positions": [
                -1.2875403661848186,
                -1.22026809341922,
                1.9991007571558996,
                -0.7482115423094652,
                0.8071900702018995,
                -3.122343447484049
            ]
        },
        {
            "positions": [
                -1.3837066715687907,
                -1.2693898123962948,
                1.9889969676374137,
                -0.6943296148320893,
                0.9728067927629069,
                -3.121468671379345
            ]
        },
        {
            "positions": [
                -1.4798729769527625,
                -1.3185115313733695,
                1.9788931781189278,
                -0.6404476873547136,
                1.1384235153239146,
                -3.1205938952746415
            ]
        },
        {
            "positions": [
                -1.5760392823367346,
                -1.367633250350444,
                1.968789388600442,
                -0.5865657598773377,
                1.304040237884922,
                -3.1197191191699383
            ]
        },
        {
            "positions": [
                -1.6722055877207067,
                -1.4167549693275188,
                1.958685599081956,
                -0.5326838323999619,
                1.4696569604459297,
                -3.1188443430652346
            ]
        }
    ]
}