{
    "goal": {
        "global_pose": {
            "orientation": {
                "w": 0.7047431468963623,
                "x": -0.7094548344612122,
                "y": 0.0024358443915843964,
                "z": -0.0022348060738295317
            },
            "position": {
                "x": 0.6094750761985779,
                "y": 0.3671506643295288,
                "z": 0.19426114857196808
            }
        },
        "name": "move_to_magneteinheit_A"
    },
    "id": "BiTRRT_move_to_magneteinheit_A_36",
    "joint_names": [
        "shoulder_pan_joint",
        "shoulder_lift_joint",
        "elbow_joint",
        "wrist_1_joint",
        "wrist_2_joint",
        "wrist_3_joint"
    ],
    "metrics": {
        "cart_traj_len": 2.957741406171293,
        "distance_elbow_joint": 3.9406453425566856,
        "distance_shoulder_lift_joint": 0.6914691696635423,
        "distance_shoulder_pan_joint": 2.9876610288098866,
        "distance_wrist_1_joint": 3.66896360693364,
        "distance_wrist_2_joint": 1.731635070650063,
        "distance_wrist_3_joint": 0.8858487564363486,
        "smoothness": 0.4293632650760952,
        "time": 0.12009687799999999,
        "traj_len": 3.7291048490288086,
        "weighted_distance": 4.5911348450580896
    },
    "planner": "BiTRRT",
    "start": {
        "state": {
            "elbow_joint": -1.9196185241190666,
            "shoulder_lift_joint": -1.2443396400964142,
            "shoulder_pan_joint": 2.6996025414629847,
            "wrist_1_joint": -1.5485510000780065,
            "wrist_2_joint": -1.5709468930060704,
            "wrist_3_joint": 0.4420197071253992
        }
    },
    "waypoints": [
        {
            "positions": [
                2.6996025414629847,
                -1.2443396400964142,
                -1.9196185241190666,
                -1.5485510000780065,
                -1.5709468930060704,
                0.4420197071253992
            ]
        },
        {
            "positions": [
                2.6038510262219843,
                -1.2487399008323663,
                -1.8077925218083841,
                -1.4171618129202594,
                -1.5405385721038596,
                0.43084408060825335
            ]
        },
        {
            "positions": [
                2.5080995109809843,
                -1.2531401615683184,
                -1.6959665194977016,
                -1.2857726257625126,
                -1.5101302512016488,
                0.4196684540911076
            ]
        },
        {
            "positions": [
                2.412347995739984,
                -1.2575404223042705,
                -1.584140517187019,
                -1.1543834386047656,
                -1.479721930299438,
                0.40849282757396177
            ]
        },
        {
            "positions": [
                2.316596480498984,
                -1.2619406830402227,
                -1.4723145148763366,
                -1.0229942514470185,
                -1.4493136093972272,
                0.39731720105681595
            ]
        },
        {
            "positions": [
                2.2208449652579834,
                -1.2663409437761748,
                -1.360488512565654,
                -0.8916050642892716,
                -1.4189052884950164,
                0.3861415745396702
            ]
        },
        {
            "positions": [
                2.1250934500169834,
                -1.270741204512127,
                -1.2486625102549715,
                -0.7602158771315245,
                -1.3884969675928054,
                0.37496594802252436
            ]
        },
        {
            "positions": [
                2.029341934775983,
                -1.275141465248079,
                -1.136836507944289,
                -0.6288266899737776,
                -1.3580886466905946,
                0.3637903215053786
            ]
        },
        {
            "positions": [
                1.933590419534983,
                -1.2795417259840312,
                -1.0250105056336067,
                -0.4974375028160305,
                -1.3276803257883838,
                0.3526146949882328
            ]
        },
        {
            "positions": [
                1.8378389042939824,
                -1.2839419867199833,
                -0.9131845033229242,
                -0.36604831565828344,
                -1.297272004886173,
                0.34143906847108696
            ]
        },
        {
            "positions": [
                1.7420873890529822,
                -1.2883422474559354,
                -0.8013585010122417,
                -0.2346591285005366,
                -1.2668636839839622,
                0.3302634419539412
            ]
        },
        {
            "positions": [
                1.646335873811982,
                -1.2927425081918875,
                -0.6895324987015592,
                -0.10326994134278955,
                -1.2364553630817514,
                0.3190878154367954
            ]
        },
        {
            "positions": [
                1.5505843585709818,
                -1.2971427689278396,
                -0.5777064963908767,
                0.028119245814957505,
                -1.2060470421795406,
                0.30791218891964955
            ]
        },
        {
            "positions": [
                1.4548328433299815,
                -1.3015430296637918,
                -0.46588049408019416,
                0.15950843297270456,
                -1.1756387212773298,
                0.2967365624025038
            ]
        },
        {
            "positions": [
                1.3590813280889813,
                -1.3059432903997439,
                -0.35405449176951165,
                0.2908976201304514,
                -1.145230400375119,
                0.28556093588535797
            ]
        },
        {
            "positions": [
                1.2633298128479808,
                -1.3103435511356962,
                -0.24222848945882913,
                0.4222868072881987,
                -1.114822079472908,
                0.27438530936821215
            ]
        },
        {
            "positions": [
                1.1675782976069808,
                -1.3147438118716483,
                -0.13040248714814684,
                0.5536759944459455,
                -1.0844137585706972,
                0.2632096828510664
            ]
        },
        {
            "positions": [
                1.0718267823659804,
                -1.3191440726076005,
                -0.018576484837464102,
                0.6850651816036926,
                -1.0540054376684864,
                0.2520340563339205
            ]
        },
        {
            "positions": [
                0.9760752671249802,
                -1.3235443333435526,
                0.09324951747321819,
                0.8164543687614396,
                -1.0235971167662756,
                0.24085842981677474
            ]
        },
        {
            "positions": [
                0.8803237518839799,
                -1.3279445940795047,
                0.2050755197839007,
                0.9478435559191867,
                -0.9931887958640648,
                0.22968280329962892
            ]
        },
        {
            "positions": [
                0.7845722366429797,
                -1.3323448548154568,
                0.3169015220945832,
                1.0792327430769333,
                -0.962780474961854,
                0.21850717678248316
            ]
        },
        {
            "positions": [
                0.6888207214019793,
                -1.336745115551409,
                0.42872752440526574,
                1.2106219302346808,
                -0.9323721540596431,
                0.20733155026533734
            ]
        },
        {
            "positions": [
                0.5930692061609792,
                -1.341145376287361,
                0.5405535267159483,
                1.3420111173924274,
                -0.9019638331574323,
                0.19615592374819155
            ]
        },
        {
            "positions": [
                0.4973176909199788,
                -1.3455456370233132,
                0.6523795290266308,
                1.473400304550175,
                -0.8715555122552215,
                0.18498029723104575
            ]
        },
        {
            "positions": [
                0.4015661756789788,
                -1.3499458977592653,
                0.7642055313373133,
                1.6047894917079215,
                -0.8411471913530107,
                0.17380467071389993
            ]
        },
        {
            "positions": [
                0.30581466043797834,
                -1.3543461584952174,
                0.8760315336479958,
                1.7361786788656686,
                -0.8107388704507998,
                0.1626290441967541
            ]
        },
        {
            "positions": [
                0.21006314519697833,
                -1.3587464192311696,
                0.9878575359586783,
                1.8675678660234156,
                -0.7803305495485892,
                0.15145341767960835
            ]
        },
        {
            "positions": [
                0.11431162995597799,
                -1.3631466799671217,
                1.0996835382693608,
                1.998957053181163,
                -0.7499222286463783,
                0.14027779116246253
            ]
        },
        {
            "positions": [
                0.08620269783324458,
                -1.308258956866326,
                1.2235393976077527,
                2.0093130077471177,
                -0.6408714610259666,
                0.08113376335017763
            ]
        },
        {
            "positions": [
                0.058093765710511155,
                -1.2533712337655303,
                1.3473952569461443,
                2.0196689623130726,
                -0.5318206934055549,
                0.021989735537892727
            ]
        },
        {
            "positions": [
                0.029984833587777746,
                -1.1984835106647347,
                1.471251116284536,
                2.0300249168790274,
                -0.4227699257851433,
                -0.03715429227439218
            ]
        },
        {
            "positions": [
                0.0018759014650443218,
                -1.143595787563939,
                1.595106975622928,
                2.0403808714449823,
                -0.3137191581647316,
                -0.09629832008667707
            ]
        },
        {
            "positions": [
                -0.026233030657689116,
                -1.0887080644631433,
                1.7189628349613195,
                2.050736826010937,
                -0.20466839054431996,
                -0.155442347898962
            ]
        },
        {
            "positions": [
                -0.0543419627804225,
                -1.0338203413623477,
                1.8428186942997113,
                2.061092780576892,
                -0.0956176229239083,
                -0.2145863757112469
            ]
        },
        {
            "positions": [
                -0.08245089490315594,
                -0.978932618261552,
                1.9666745536381032,
                2.0714487351428468,
                0.013433144696503363,
                -0.2737304035235318
            ]
        },
        {
            "positions": [
                -0.013915030755240115,
                -0.9161165955657969,
                1.9847919752379417,
                2.0551274445719176,
                -0.03565186628599304,
                -0.2170308549277259
            ]
        },
        {
            "positions": [
                0.054620833392675705,
                -0.8533005728700419,
                2.0029093968377802,
                2.038806154000989,
                -0.08473687726848944,
                -0.16033130633191997
            ]
        },
        {
            "positions": [
                0.12315669754059155,
                -0.7904845501742869,
                2.0210268184376186,
                2.02248486343006,
                -0.13382188825098584,
                -0.10363175773611406
            ]
        }
    ]
}