{
    "goal": {
        "global_pose": {
            "orientation": {
                "w": 0.7047431468963623,
                "x": -0.7094548344612122,
                "y": 0.0024358443915843964,
                "z": -0.0022348060738295317
            },
            "position": {
                "x": 0.6094750761985779,
                "y": 0.3671506643295288,
                "z": 0.19426114857196808
            }
        },
        "name": "move_to_magneteinheit_A"
    },
    "id": "BiTRRT_move_to_magneteinheit_A_57",
    "joint_names": [
        "shoulder_pan_joint",
        "shoulder_lift_joint",
        "elbow_joint",
        "wrist_1_joint",
        "wrist_2_joint",
        "wrist_3_joint"
    ],
    "metrics": {
        "cart_traj_len": 3.6579525215710156,
        "distance_elbow_joint": 3.8765915482832716,
        "distance_shoulder_lift_joint": 1.009946715474449,
        "distance_shoulder_pan_joint": 3.207687406259434,
        "distance_wrist_1_joint": 0.8358088410422716,
        "distance_wrist_2_joint": 7.276309167566356,
        "distance_wrist_3_joint": 2.5841013033066127,
        "smoothness": 0.3134888987506891,
        "time": 0.120999297,
        "traj_len": 4.334794687402437,
        "weighted_distance": 5.663105649478406
    },
    "planner": "BiTRRT",
    "start": {
        "state": {
            "elbow_joint": -1.9196185241190666,
            "shoulder_lift_joint": -1.2443396400964142,
            "shoulder_pan_joint": 2.6996025414629847,
            "wrist_1_joint": -1.5485510000780065,
            "wrist_2_joint": -1.5709468930060704,
            "wrist_3_joint": 0.4420197071253992
        }
    },
    "waypoints": [
        {
            "positions": [
                2.6996025414629847,
                -1.2443396400964142,
                -1.9196185241190666,
                -1.5485510000780065,
                -1.5709468930060704,
                0.4420197071253992
            ]
        },
        {
            "positions": [
                2.6092029642544534,
                -1.2583555781358962,
                -1.8099320817194902,
                -1.5227436319053018,
                -1.4306457398990944,
                0.44605446744168586
            ]
        },
        {
            "positions": [
                2.518803387045922,
                -1.2723715161753784,
                -1.7002456393199135,
                -1.4969362637325971,
                -1.2903445867921186,
                0.4500892277579726
            ]
        },
        {
            "positions": [
                2.428403809837391,
                -1.2863874542148603,
                -1.590559196920337,
                -1.4711288955598922,
                -1.1500434336851426,
                0.4541239880742593
            ]
        },
        {
            "positions": [
                2.3380042326288595,
                -1.3004033922543425,
                -1.4808727545207605,
                -1.4453215273871876,
                -1.0097422805781666,
                0.458158748390546
            ]
        },
        {
            "positions": [
                2.2476046554203286,
                -1.3144193302938245,
                -1.3711863121211838,
                -1.4195141592144829,
                -0.8694411274711906,
                0.46219350870683273
            ]
        },
        {
            "positions": [
                2.1572050782117973,
                -1.3284352683333065,
                -1.2614998697216073,
                -1.3937067910417782,
                -0.7291399743642147,
                0.4662282690231194
            ]
        },
        {
            "positions": [
                2.066805501003266,
                -1.3424512063727887,
                -1.1518134273220308,
                -1.3678994228690735,
                -0.5888388212572389,
                0.4702630293394061
            ]
        },
        {
            "positions": [
                1.9764059237947347,
                -1.3564671444122707,
                -1.0421269849224544,
                -1.3420920546963686,
                -0.44853766815026286,
                0.4742977896556928
            ]
        },
        {
            "positions": [
                1.8860063465862034,
                -1.3704830824517527,
                -0.9324405425228777,
                -1.316284686523664,
                -0.30823651504328686,
                0.47833254997197955
            ]
        },
        {
            "positions": [
                1.795606769377672,
                -1.3844990204912349,
                -0.8227541001233012,
                -1.2904773183509592,
                -0.16793536193631087,
                0.48236731028826624
            ]
        },
        {
            "positions": [
                1.7052071921691407,
                -1.3985149585307168,
                -0.7130676577237247,
                -1.2646699501782543,
                -0.027634208829335094,
                0.486402070604553
            ]
        },
        {
            "positions": [
                1.6148076149606094,
                -1.4125308965701988,
                -0.603381215324148,
                -1.2388625820055497,
                0.1126669442776409,
                0.4904368309208397
            ]
        },
        {
            "positions": [
                1.5244080377520781,
                -1.426546834609681,
                -0.49369477292457153,
                -1.213055213832845,
                0.2529680973846169,
                0.49447159123712636
            ]
        },
        {
            "positions": [
                1.434008460543547,
                -1.440562772649163,
                -0.38400833052499506,
                -1.1872478456601403,
                0.39326925049159267,
                0.49850635155341305
            ]
        },
        {
            "positions": [
                1.3436088833350157,
                -1.4545787106886452,
                -0.27432188812541836,
                -1.1614404774874356,
                0.5335704035985687,
                0.5025411118696997
            ]
        },
        {
            "positions": [
                1.2532093061264844,
                -1.4685946487281272,
                -0.16463544572584188,
                -1.135633109314731,
                0.6738715567055447,
                0.5065758721859865
            ]
        },
        {
            "positions": [
                1.162809728917953,
                -1.4826105867676092,
                -0.0549490033262654,
                -1.109825741142026,
                0.8141727098125207,
                0.5106106325022732
            ]
        },
        {
            "positions": [
                1.0724101517094218,
                -1.4966265248070914,
                0.0547374390733113,
                -1.0840183729693214,
                0.9544738629194967,
                0.5146453928185599
            ]
        },
        {
            "positions": [
                0.9820105745008907,
                -1.5106424628465733,
                0.16442388147288778,
                -1.0582110047966167,
                1.0947750160264726,
                0.5186801531348466
            ]
        },
        {
            "positions": [
                0.8916109972923594,
                -1.5246584008860555,
                0.27411032387246426,
                -1.0324036366239118,
                1.2350761691334486,
                0.5227149134511333
            ]
        },
        {
            "positions": [
                0.8012114200838281,
                -1.5386743389255375,
                0.38379676627204073,
                -1.006596268451207,
                1.3753773222404242,
                0.52674967376742
            ]
        },
        {
            "positions": [
                0.7108118428752968,
                -1.5526902769650195,
                0.4934832086716172,
                -0.9807889002785024,
                1.5156784753474002,
                0.5307844340837067
            ]
        },
        {
            "positions": [
                0.6204122656667654,
                -1.5667062150045017,
                0.6031696510711941,
                -0.9549815321057977,
                1.6559796284543762,
                0.5348191943999935
            ]
        },
        {
            "positions": [
                0.5300126884582341,
                -1.5807221530439837,
                0.7128560934707706,
                -0.929174163933093,
                1.7962807815613522,
                0.5388539547162802
            ]
        },
        {
            "positions": [
                0.4396131112497028,
                -1.5947380910834656,
                0.8225425358703471,
                -0.9033667957603883,
                1.9365819346683282,
                0.5428887150325669
            ]
        },
        {
            "positions": [
                0.3492135340411715,
                -1.6087540291229478,
                0.9322289782699236,
                -0.8775594275876836,
                2.076883087775304,
                0.5469234753488535
            ]
        },
        {
            "positions": [
                0.25881395683264063,
                -1.6227699671624298,
                1.0419154206695,
                -0.8517520594149788,
                2.21718424088228,
                0.5509582356651402
            ]
        },
        {
            "positions": [
                0.16841437962410932,
                -1.6367859052019118,
                1.1516018630690765,
                -0.8259446912422741,
                2.357485393989256,
                0.5549929959814269
            ]
        },
        {
            "positions": [
                0.07801480241557801,
                -1.650801843241394,
                1.2612883054686534,
                -0.8001373230695693,
                2.497786547096232,
                0.5590277562977137
            ]
        },
        {
            "positions": [
                -0.012384774792953301,
                -1.664817781280876,
                1.37097474786823,
                -0.7743299548968646,
                2.638087700203208,
                0.5630625166140004
            ]
        },
        {
            "positions": [
                -0.10278435200148461,
                -1.678833719320358,
                1.4806611902678064,
                -0.7485225867241598,
                2.778388853310184,
                0.5670972769302871
            ]
        },
        {
            "positions": [
                -0.19318392921001593,
                -1.6928496573598402,
                1.5903476326673829,
                -0.7227152185514552,
                2.9186900064171595,
                0.5711320372465738
            ]
        },
        {
            "positions": [
                -0.17466034476375525,
                -1.65982396922978,
                1.611913832167196,
                -0.7221285679917069,
                2.754768108291093,
                0.7155431533163055
            ]
        },
        {
            "positions": [
                -0.15613676031749457,
                -1.62679828109972,
                1.6334800316670088,
                -0.7215419174319586,
                2.5908462101650263,
                0.8599542693860371
            ]
        },
        {
            "positions": [
                -0.1376131758712339,
                -1.5937725929696596,
                1.655046231166822,
                -0.7209552668722105,
                2.4269243120389596,
                1.0043653854557688
            ]
        },
        {
            "positions": [
                -0.11908959142497322,
                -1.5607469048395994,
                1.6766124306666348,
                -0.7203686163124622,
                2.263002413912893,
                1.1487765015255005
            ]
        },
        {
            "positions": [
                -0.10056600697871254,
                -1.5277212167095393,
                1.6981786301664479,
                -0.7197819657527139,
                2.0990805157868264,
                1.2931876175952322
            ]
        },
        {
            "positions": [
                -0.08204242253245185,
                -1.494695528579479,
                1.7197448296662607,
                -0.7191953151929656,
                1.9351586176607598,
                1.4375987336649638
            ]
        },
        {
            "positions": [
                -0.06351883808619119,
                -1.4616698404494188,
                1.7413110291660738,
                -0.7186086646332174,
                1.7712367195346934,
                1.5820098497346953
            ]
        },
        {
            "positions": [
                -0.04499525363993051,
                -1.4286441523193587,
                1.7628772286658867,
                -0.7180220140734691,
                1.6073148214086268,
                1.726420965804427
            ]
        },
        {
            "positions": [
                -0.026471669193669833,
                -1.3956184641892986,
                1.7844434281656998,
                -0.717435363513721,
                1.4433929232825602,
                1.8708320818741588
            ]
        },
        {
            "positions": [
                -0.007948084747409156,
                -1.3625927760592385,
                1.8060096276655127,
                -0.7168487129539727,
                1.2794710251564936,
                2.0152431979438905
            ]
        },
        {
            "positions": [
                0.01057549969885152,
                -1.329567087929178,
                1.8275758271653257,
                -0.7162620623942244,
                1.115549127030427,
                2.159654314013622
            ]
        },
        {
            "positions": [
                0.029099084145112225,
                -1.296541399799118,
                1.8491420266651386,
                -0.7156754118344761,
                0.9516272289043604,
                2.304065430083354
            ]
        },
        {
            "positions": [
                0.047622668591372846,
                -1.2635157116690579,
                1.8707082261649517,
                -0.7150887612747279,
                0.787705330778294,
                2.4484765461530853
            ]
        },
        {
            "positions": [
                0.06614625303763355,
                -1.2304900235389977,
                1.8922744256647646,
                -0.7145021107149796,
                0.6237834326522274,
                2.5928876622228167
            ]
        },
        {
            "positions": [
                0.08466983748389423,
                -1.1974643354089376,
                1.9138406251645776,
                -0.7139154601552314,
                0.45986153452616074,
                2.7372987782925486
            ]
        },
        {
            "positions": [
                0.1031934219301549,
                -1.1644386472788772,
                1.9354068246643905,
                -0.7133288095954832,
                0.29593963640009413,
                2.88170989436228
            ]
        },
        {
            "positions": [
                0.1217170063764156,
                -1.1314129591488171,
                1.9569730241642036,
                -0.7127421590357349,
                0.13201773827402735,
                3.026121010432012
            ]
        }
    ]
}