{
    "goal": {
        "global_pose": {
            "orientation": {
                "w": 0.7047431468963623,
                "x": -0.7094548344612122,
                "y": 0.0024358443915843964,
                "z": -0.0022348060738295317
            },
            "position": {
                "x": 0.6094750761985779,
                "y": 0.3671506643295288,
                "z": 0.19426114857196808
            }
        },
        "name": "move_to_magneteinheit_A"
    },
    "id": "BiTRRT_move_to_magneteinheit_A_5",
    "joint_names": [
        "shoulder_pan_joint",
        "shoulder_lift_joint",
        "elbow_joint",
        "wrist_1_joint",
        "wrist_2_joint",
        "wrist_3_joint"
    ],
    "metrics": {
        "cart_traj_len": 3.616760497323766,
        "distance_elbow_joint": 3.9038470859124734,
        "distance_shoulder_lift_joint": 0.22650159389579638,
        "distance_shoulder_pan_joint": 2.7119281338770946,
        "distance_wrist_1_joint": 1.042754765567705,
        "distance_wrist_2_joint": 1.8734208721648558,
        "distance_wrist_3_joint": 2.6935602332642437,
        "smoothness": 0.1599257899360249,
        "time": 0.08071550699999999,
        "traj_len": 3.5287409489337933,
        "weighted_distance": 4.555799467595476
    },
    "planner": "BiTRRT",
    "start": {
        "state": {
            "elbow_joint": -1.9196185241190666,
            "shoulder_lift_joint": -1.2443396400964142,
            "shoulder_pan_joint": 2.6996025414629847,
            "wrist_1_joint": -1.5485510000780065,
            "wrist_2_joint": -1.5709468930060704,
            "wrist_3_joint": 0.4420197071253992
        }
    },
    "waypoints": [
        {
            "positions": [
                2.6996025414629847,
                -1.2443396400964142,
                -1.9196185241190666,
                -1.5485510000780065,
                -1.5709468930060704,
                0.4420197071253992
            ]
        },
        {
            "positions": [
                2.589130231302951,
                -1.2329620571074176,
                -1.811254471998507,
                -1.560941386185691,
                -1.4808637049582618,
                0.4774861915605035
            ]
        },
        {
            "positions": [
                2.4786579211429167,
                -1.2215844741184207,
                -1.7028904198779478,
                -1.573331772293375,
                -1.3907805169104535,
                0.5129526759956078
            ]
        },
        {
            "positions": [
                2.368185610982883,
                -1.2102068911294241,
                -1.5945263677573882,
                -1.5857221584010595,
                -1.3006973288626449,
                0.548419160430712
            ]
        },
        {
            "positions": [
                2.2577133008228487,
                -1.1988293081404275,
                -1.4861623156368289,
                -1.5981125445087436,
                -1.2106141408148363,
                0.5838856448658163
            ]
        },
        {
            "positions": [
                2.147240990662815,
                -1.1874517251514307,
                -1.3777982635162693,
                -1.610502930616428,
                -1.120530952767028,
                0.6193521293009207
            ]
        },
        {
            "positions": [
                2.0367686805027807,
                -1.176074142162434,
                -1.2694342113957098,
                -1.6228933167241124,
                -1.0304477647192192,
                0.654818613736025
            ]
        },
        {
            "positions": [
                1.926296370342747,
                -1.1646965591734375,
                -1.1610701592751504,
                -1.6352837028317966,
                -0.9403645766714109,
                0.6902850981711293
            ]
        },
        {
            "positions": [
                1.8158240601827127,
                -1.153318976184441,
                -1.0527061071545911,
                -1.647674088939481,
                -0.8502813886236024,
                0.7257515826062335
            ]
        },
        {
            "positions": [
                1.705351750022679,
                -1.141941393195444,
                -0.9443420550340317,
                -1.6600644750471654,
                -0.7601982005757939,
                0.7612180670413378
            ]
        },
        {
            "positions": [
                1.5948794398626447,
                -1.1305638102064475,
                -0.835978002913472,
                -1.6724548611548495,
                -0.6701150125279853,
                0.7966845514764421
            ]
        },
        {
            "positions": [
                1.484407129702611,
                -1.1191862272174509,
                -0.7276139507929127,
                -1.684845247262534,
                -0.5800318244801769,
                0.8321510359115464
            ]
        },
        {
            "positions": [
                1.373934819542577,
                -1.107808644228454,
                -0.6192498986723531,
                -1.697235633370218,
                -0.4899486364323682,
                0.8676175203466507
            ]
        },
        {
            "positions": [
                1.263462509382543,
                -1.0964310612394574,
                -0.5108858465517938,
                -1.7096260194779025,
                -0.3998654483845599,
                0.903084004781755
            ]
        },
        {
            "positions": [
                1.1923907421470903,
                -1.0956079904213942,
                -0.386900135268256,
                -1.6726707476928178,
                -0.36350741876930703,
                1.0165141546303553
            ]
        },
        {
            "positions": [
                1.1213189749116377,
                -1.094784919603331,
                -0.2629144239847182,
                -1.6357154759077333,
                -0.3271493891540542,
                1.1299443044789557
            ]
        },
        {
            "positions": [
                1.050247207676185,
                -1.0939618487852678,
                -0.13892871270118035,
                -1.5987602041226485,
                -0.2907913595388014,
                1.243374454327556
            ]
        },
        {
            "positions": [
                0.9791754404407325,
                -1.0931387779672046,
                -0.014943001417642543,
                -1.561804932337564,
                -0.25443332992354856,
                1.3568046041761563
            ]
        },
        {
            "positions": [
                0.9081036732052798,
                -1.0923157071491414,
                0.10904270986589526,
                -1.5248496605524793,
                -0.21807530030829572,
                1.470234754024757
            ]
        },
        {
            "positions": [
                0.8370319059698272,
                -1.0914926363310782,
                0.23302842114943312,
                -1.4878943887673945,
                -0.1817172706930429,
                1.5836649038733572
            ]
        },
        {
            "positions": [
                0.7659601387343747,
                -1.090669565513015,
                0.35701413243297087,
                -1.45093911698231,
                -0.14535924107779008,
                1.6970950537219573
            ]
        },
        {
            "positions": [
                0.6948883714989221,
                -1.0898464946949518,
                0.4809998437165087,
                -1.4139838451972253,
                -0.10900121146253722,
                1.810525203570558
            ]
        },
        {
            "positions": [
                0.6238166042634695,
                -1.0890234238768883,
                0.6049855550000465,
                -1.3770285734121408,
                -0.07264318184728441,
                1.9239553534191582
            ]
        },
        {
            "positions": [
                0.5527448370280169,
                -1.0882003530588251,
                0.7289712662835843,
                -1.340073301627056,
                -0.03628515223203155,
                2.0373855032677586
            ]
        },
        {
            "positions": [
                0.4816730697925643,
                -1.087377282240762,
                0.8529569775671222,
                -1.3031180298419716,
                7.287738322131476e-05,
                2.150815653116359
            ]
        },
        {
            "positions": [
                0.4106013025571117,
                -1.0865542114226987,
                0.97694268885066,
                -1.2661627580568868,
                0.03643090699847412,
                2.2642458029649593
            ]
        },
        {
            "positions": [
                0.3395295353216592,
                -1.0857311406046355,
                1.1009284001341977,
                -1.229207486271802,
                0.07278893661372693,
                2.3776759528135596
            ]
        },
        {
            "positions": [
                0.2684577680862066,
                -1.0849080697865723,
                1.2249141114177355,
                -1.1922522144867176,
                0.10914696622897974,
                2.49110610266216
            ]
        },
        {
            "positions": [
                0.19738600085075397,
                -1.084084998968509,
                1.3488998227012734,
                -1.155296942701633,
                0.14550499584423254,
                2.6045362525107603
            ]
        },
        {
            "positions": [
                0.12631423361530136,
                -1.0832619281504459,
                1.4728855339848113,
                -1.1183416709165481,
                0.18186302545948546,
                2.7179664023593606
            ]
        },
        {
            "positions": [
                0.055242466379848726,
                -1.0824388573323827,
                1.5968712452683491,
                -1.0813863991314636,
                0.2182210550747383,
                2.831396552207961
            ]
        },
        {
            "positions": [
                0.07776515264450141,
                -1.1039724610429709,
                1.7259903507767016,
                -0.996906357191007,
                0.19013674704672248,
                2.932791014935188
            ]
        },
        {
            "positions": [
                0.1002878389091541,
                -1.1255060647535593,
                1.8551094562850543,
                -0.9124263152505503,
                0.16205243901870664,
                3.0341854776624158
            ]
        },
        {
            "positions": [
                0.1228105251738068,
                -1.1470396684641475,
                1.9842285617934068,
                -0.8279462733100935,
                0.13396813099069083,
                3.135579940389643
            ]
        }
    ]
}