{
    "goal": {
        "global_pose": {
            "orientation": {
                "w": 0.005598929693374612,
                "x": 0.007748599140229565,
                "y": 0.7110244013736278,
                "z": -0.7031023480610252
            },
            "position": {
                "x": -0.8858502320852131,
                "y": -0.7141253447532654,
                "z": 0.3711530566215515
            }
        },
        "name": "move_to_auspresseinheit_C"
    },
    "id": "BiTRRT_move_to_auspresseinheit_C_119",
    "joint_names": [
        "shoulder_pan_joint",
        "shoulder_lift_joint",
        "elbow_joint",
        "wrist_1_joint",
        "wrist_2_joint",
        "wrist_3_joint"
    ],
    "metrics": {
        "cart_traj_len": 0.49391082511568174,
        "distance_elbow_joint": 1.01890169831819,
        "distance_shoulder_lift_joint": 0.33422572109169324,
        "distance_shoulder_pan_joint": 0.25594619810737296,
        "distance_wrist_1_joint": 0.7163681502347417,
        "distance_wrist_2_joint": 1.3160795136658632,
        "distance_wrist_3_joint": 0.07516020289961434,
        "smoothness": 0.0,
        "time": 0.102397351,
        "traj_len": 1.9278696751382016,
        "weighted_distance": 2.428878250142915
    },
    "planner": "BiTRRT",
    "start": {
        "state": {
            "elbow_joint": 1.7527959577737207,
            "shoulder_lift_joint": -0.9740617694225068,
            "shoulder_pan_joint": -2.967991417825858,
            "wrist_1_joint": -0.759517768980727,
            "wrist_2_joint": 1.7443932448377408,
            "wrist_3_joint": -3.0840537646736568
        }
    },
    "waypoints": [
        {
            "positions": [
                -2.967991417825858,
                -0.9740617694225068,
                1.7527959577737207,
                -0.759517768980727,
                1.7443932448377408,
                -3.0840537646736568
            ]
        },
        {
            "positions": [
                -2.9423967980151207,
                -0.9406391973133374,
                1.6509057879419016,
                -0.6878809539572528,
                1.6127852934711546,
                -3.0915697849636183
            ]
        },
        {
            "positions": [
                -2.9168021782043834,
                -0.9072166252041681,
                1.5490156181100827,
                -0.6162441389337787,
                1.4811773421045682,
                -3.0990858052535795
            ]
        },
        {
            "positions": [
                -2.891207558393646,
                -0.8737940530949988,
                1.4471254482782636,
                -0.5446073239103045,
                1.3495693907379818,
                -3.106601825543541
            ]
        },
        {
            "positions": [
                -2.8656129385829088,
                -0.8403714809858295,
                1.3452352784464447,
                -0.47297050888683034,
                1.2179614393713956,
                -3.1141178458335026
            ]
        },
        {
            "positions": [
                -2.8400183187721715,
                -0.8069489088766602,
                1.2433451086146257,
                -0.4013336938633562,
                1.0863534880048094,
                -3.1216338661234637
            ]
        },
        {
            "positions": [
                -2.814423698961434,
                -0.7735263367674908,
                1.1414549387828066,
                -0.3296968788398821,
                0.9547455366382229,
                -3.1291498864134253
            ]
        },
        {
            "positions": [
                -2.788829079150697,
                -0.7401037646583215,
                1.0395647689509877,
                -0.2580600638164079,
                0.8231375852716367,
                -3.136665906703387
            ]
        },
        {
            "positions": [
                -2.7632344593399596,
                -0.7066811925491522,
                0.9376745991191686,
                -0.1864232487929337,
                0.6915296339050503,
                -3.1441819269933484
            ]
        },
        {
            "positions": [
                -2.7376398395292223,
                -0.6732586204399829,
                0.8357844292873496,
                -0.11478643376945963,
                0.5599216825384639,
                -3.1516979472833095
            ]
        },
        {
            "positions": [
                -2.712045219718485,
                -0.6398360483308135,
                0.7338942594555308,
                -0.04314961874598539,
                0.4283137311718777,
                -3.159213967573271
            ]
        }
    ]
}