{
    "goal": {
        "global_pose": {
            "orientation": {
                "w": 0.005598929693374612,
                "x": 0.007748599140229565,
                "y": 0.7110244013736278,
                "z": -0.7031023480610252
            },
            "position": {
                "x": -0.8858502320852131,
                "y": -0.7141253447532654,
                "z": 0.3711530566215515
            }
        },
        "name": "move_to_auspresseinheit_C"
    },
    "id": "BiTRRT_move_to_auspresseinheit_C_32",
    "joint_names": [
        "shoulder_pan_joint",
        "shoulder_lift_joint",
        "elbow_joint",
        "wrist_1_joint",
        "wrist_2_joint",
        "wrist_3_joint"
    ],
    "metrics": {
        "cart_traj_len": 0.49287527695558947,
        "distance_elbow_joint": 0.9908976169640128,
        "distance_shoulder_lift_joint": 0.3198248839637867,
        "distance_shoulder_pan_joint": 0.2563699656491303,
        "distance_wrist_1_joint": 0.6600622589695067,
        "distance_wrist_2_joint": 1.311326534138123,
        "distance_wrist_3_joint": 0.05362982405437755,
        "smoothness": 0.0,
        "time": 0.051381578,
        "traj_len": 1.8952865439660929,
        "weighted_distance": 2.3813356598672355
    },
    "planner": "BiTRRT",
    "start": {
        "state": {
            "elbow_joint": 1.7527959577737207,
            "shoulder_lift_joint": -0.9740617694225068,
            "shoulder_pan_joint": -2.967991417825858,
            "wrist_1_joint": -0.759517768980727,
            "wrist_2_joint": 1.7443932448377408,
            "wrist_3_joint": -3.0840537646736568
        }
    },
    "waypoints": [
        {
            "positions": [
                -2.967991417825858,
                -0.9740617694225068,
                1.7527959577737207,
                -0.759517768980727,
                1.7443932448377408,
                -3.0840537646736568
            ]
        },
        {
            "positions": [
                -2.942354421260945,
                -0.9420792810261281,
                1.6537061960773194,
                -0.6935115430837763,
                1.6132605914239284,
                -3.0894167470790945
            ]
        },
        {
            "positions": [
                -2.916717424696032,
                -0.9100967926297494,
                1.5546164343809181,
                -0.6275053171868257,
                1.4821279380101162,
                -3.0947797294845323
            ]
        },
        {
            "positions": [
                -2.8910804281311187,
                -0.8781143042333708,
                1.4555266726845169,
                -0.561499091289875,
                1.350995284596304,
                -3.10014271188997
            ]
        },
        {
            "positions": [
                -2.865443431566206,
                -0.846131815836992,
                1.3564369109881156,
                -0.4954928653929243,
                1.2198626311824916,
                -3.105505694295408
            ]
        },
        {
            "positions": [
                -2.839806435001293,
                -0.8141493274406134,
                1.2573471492917143,
                -0.42948663949597365,
                1.0887299777686792,
                -3.1108686767008455
            ]
        },
        {
            "positions": [
                -2.81416943843638,
                -0.7821668390442348,
                1.158257387595313,
                -0.363480413599023,
                0.957597324354867,
                -3.1162316591062833
            ]
        },
        {
            "positions": [
                -2.7885324418714665,
                -0.750184350647856,
                1.0591676258989118,
                -0.29747418770207235,
                0.8264646709410548,
                -3.121594641511721
            ]
        },
        {
            "positions": [
                -2.7628954453065537,
                -0.7182018622514774,
                0.9600778642025104,
                -0.23146796180512164,
                0.6953320175272424,
                -3.126957623917159
            ]
        },
        {
            "positions": [
                -2.737258448741641,
                -0.6862193738550988,
                0.8609881025061091,
                -0.16546173590817093,
                0.56419936411343,
                -3.1323206063225966
            ]
        },
        {
            "positions": [
                -2.7116214521767277,
                -0.65423688545872,
                0.7618983408097079,
                -0.09945551001122031,
                0.4330667106996178,
                -3.1376835887280343
            ]
        }
    ]
}