{
    "goal": {
        "global_pose": {
            "orientation": {
                "w": 0.7047431493862688,
                "x": -0.7094548369677653,
                "y": 0.0024358444001904,
                "z": -0.0022348060817251984
            },
            "position": {
                "x": -0.39052492380142206,
                "y": 0.3671506643295288,
                "z": 0.19426114857196808
            }
        },
        "name": "move_to_magneteinheit_D"
    },
    "id": "BiTRRT_move_to_magneteinheit_D_117",
    "joint_names": [
        "shoulder_pan_joint",
        "shoulder_lift_joint",
        "elbow_joint",
        "wrist_1_joint",
        "wrist_2_joint",
        "wrist_3_joint"
    ],
    "metrics": {
        "cart_traj_len": 4.036351167477525,
        "distance_elbow_joint": 3.138445003696455,
        "distance_shoulder_lift_joint": 2.1858419995263625,
        "distance_shoulder_pan_joint": 2.983445658457325,
        "distance_wrist_1_joint": 1.6059185235455673,
        "distance_wrist_2_joint": 0.45602439782415694,
        "distance_wrist_3_joint": 3.249263445440965,
        "smoothness": 0.12397308727052064,
        "time": 0.211788426,
        "traj_len": 3.690384672156933,
        "weighted_distance": 4.709501973748658
    },
    "planner": "BiTRRT",
    "start": {
        "state": {
            "elbow_joint": 0.749534889911806,
            "shoulder_lift_joint": -0.6476975780787326,
            "shoulder_pan_joint": -2.711696901376241,
            "wrist_1_joint": -0.07506478083263063,
            "wrist_2_joint": 0.43296659715538205,
            "wrist_3_joint": -3.14703540197715
        }
    },
    "waypoints": [
        {
            "positions": [
                -2.711696901376241,
                -0.6476975780787326,
                0.749534889911806,
                -0.07506478083263063,
                0.43296659715538205,
                -3.14703540197715
            ]
        },
        {
            "positions": [
                -2.7212045921227204,
                -0.5553875503618732,
                0.5955858716229788,
                -0.08449578874435419,
                0.38623493543498294,
                -3.0888025508903247
            ]
        },
        {
            "positions": [
                -2.730712282869199,
                -0.4630775226450137,
                0.44163685333415176,
                -0.09392679665607774,
                0.3395032737145839,
                -3.030569699803499
            ]
        },
        {
            "positions": [
                -2.7402199736156785,
                -0.3707674949281542,
                0.28768783504532464,
                -0.1033578045678013,
                0.2927716119941848,
                -2.9723368487166737
            ]
        },
        {
            "positions": [
                -2.7533174261602618,
                -0.3704131419431587,
                0.24973797426854394,
                -0.10392340397551465,
                0.31148231314291774,
                -2.687009392785939
            ]
        },
        {
            "positions": [
                -2.766414878704845,
                -0.3700587889581632,
                0.21178811349176324,
                -0.104489003383228,
                0.33019301429165065,
                -2.4016819368552045
            ]
        },
        {
            "positions": [
                -2.7795123312494283,
                -0.3697044359731677,
                0.17383825271498252,
                -0.10505460279094135,
                0.3489037154403836,
                -2.11635448092447
            ]
        },
        {
            "positions": [
                -2.78241769565298,
                -0.4054421222590925,
                0.16488685451166593,
                -0.09615084790987607,
                0.32318051414600635,
                -1.8550600569665439
            ]
        },
        {
            "positions": [
                -2.7853230600565313,
                -0.4411798085450172,
                0.15593545630834932,
                -0.0872470930288108,
                0.297457312851629,
                -1.593765633008618
            ]
        },
        {
            "positions": [
                -2.7882284244600823,
                -0.476917494830942,
                0.14698405810503273,
                -0.07834333814774552,
                0.27173411155725175,
                -1.3324712090506923
            ]
        },
        {
            "positions": [
                -2.791133788863634,
                -0.5126551811168667,
                0.13803265990171615,
                -0.06943958326668023,
                0.24601091026287444,
                -1.0711767850927663
            ]
        },
        {
            "positions": [
                -2.7940391532671853,
                -0.5483928674027915,
                0.12908126169839954,
                -0.060535828385614956,
                0.22028770896849714,
                -0.8098823611348402
            ]
        },
        {
            "positions": [
                -2.796944517670737,
                -0.5841305536887162,
                0.12012986349508295,
                -0.05163207350454968,
                0.19456450767411984,
                -0.5485879371769145
            ]
        },
        {
            "positions": [
                -2.6592463191655757,
                -0.6298174710210279,
                0.016106370830756098,
                0.013849947242866145,
                0.19152837666436223,
                -0.517130738401048
            ]
        },
        {
            "positions": [
                -2.5215481206604147,
                -0.6755043883533397,
                -0.08791712183357075,
                0.07933196799028197,
                0.18849224565460462,
                -0.48567353962518145
            ]
        },
        {
            "positions": [
                -2.3838499221552536,
                -0.7211913056856514,
                -0.1919406144978976,
                0.1448139887376978,
                0.18545611464484701,
                -0.45421634084931495
            ]
        },
        {
            "positions": [
                -2.246151723650092,
                -0.766878223017963,
                -0.29596410716222443,
                0.21029600948511362,
                0.1824199836350894,
                -0.42275914207344845
            ]
        },
        {
            "positions": [
                -2.108453525144931,
                -0.8125651403502747,
                -0.3999875998265513,
                0.27577803023252945,
                0.1793838526253318,
                -0.39130194329758194
            ]
        },
        {
            "positions": [
                -1.97075532663977,
                -0.8582520576825865,
                -0.5040110924908782,
                0.3412600509799453,
                0.1763477216155742,
                -0.35984474452171544
            ]
        },
        {
            "positions": [
                -1.8330571281346089,
                -0.9039389750148982,
                -0.6080345851552049,
                0.40674207172736104,
                0.17331159060581658,
                -0.32838754574584894
            ]
        },
        {
            "positions": [
                -1.6953589296294476,
                -0.9496258923472098,
                -0.7120580778195319,
                0.4722240924747769,
                0.17027545959605894,
                -0.29693034696998244
            ]
        },
        {
            "positions": [
                -1.5576607311242865,
                -0.9953128096795216,
                -0.8160815704838587,
                0.5377061132221927,
                0.16723932858630136,
                -0.26547314819411594
            ]
        },
        {
            "positions": [
                -1.4199625326191254,
                -1.0409997270118332,
                -0.9201050631481855,
                0.6031881339696086,
                0.16420319757654372,
                -0.23401594941824944
            ]
        },
        {
            "positions": [
                -1.2822643341139641,
                -1.086686644344145,
                -1.0241285558125124,
                0.6686701547170245,
                0.16116706656678612,
                -0.20255875064238288
            ]
        },
        {
            "positions": [
                -1.1445661356088033,
                -1.1323735616764568,
                -1.1281520484768393,
                0.7341521754644402,
                0.1581309355570285,
                -0.17110155186651643
            ]
        },
        {
            "positions": [
                -1.006867937103642,
                -1.1780604790087685,
                -1.2321755411411661,
                0.799634196211856,
                0.1550948045472709,
                -0.13964435309064993
            ]
        },
        {
            "positions": [
                -0.8691697385984809,
                -1.22374739634108,
                -1.3361990338054928,
                0.8651162169592718,
                0.1520586735375133,
                -0.10818715431478348
            ]
        },
        {
            "positions": [
                -0.7314715400933198,
                -1.2694343136733919,
                -1.4402225264698196,
                0.9305982377066877,
                0.14902254252775568,
                -0.07672995553891693
            ]
        },
        {
            "positions": [
                -0.5937733415881583,
                -1.3151212310057034,
                -1.5442460191341467,
                0.9960802584541035,
                0.14598641151799807,
                -0.045272756763050426
            ]
        },
        {
            "positions": [
                -0.4560751430829977,
                -1.3608081483380152,
                -1.6482695117984734,
                1.0615622792015194,
                0.14295028050824046,
                -0.013815557987183924
            ]
        },
        {
            "positions": [
                -0.31837694457783616,
                -1.406495065670327,
                -1.7522930044628002,
                1.1270442999489352,
                0.13991414949848285,
                0.017641640788682578
            ]
        },
        {
            "positions": [
                -0.1806787460726751,
                -1.4521819830026386,
                -1.856316497127127,
                1.192526320696351,
                0.13687801848872524,
                0.04909883956454908
            ]
        },
        {
            "positions": [
                -0.042980547567513835,
                -1.4978689003349503,
                -1.960339989791454,
                1.2580083414437668,
                0.13384188747896764,
                0.0805560383404156
            ]
        },
        {
            "positions": [
                -0.046091912994243096,
                -1.6484912713904285,
                -2.0958033848478395,
                1.3283105345420076,
                0.13442778261197233,
                0.07398968386918323
            ]
        },
        {
            "positions": [
                -0.049203278420972364,
                -1.7991136424459064,
                -2.2312667799042245,
                1.3986127276402487,
                0.13501367774497705,
                0.06742332939795086
            ]
        },
        {
            "positions": [
                -0.052314643847701625,
                -1.9497360135013846,
                -2.36673017496061,
                1.4689149207384895,
                0.13559957287798174,
                0.06085697492671849
            ]
        },
        {
            "positions": [
                -0.11976463173741059,
                -2.113644653447675,
                -2.3778201443726297,
                1.4679353317095767,
                0.15703847080614683,
                0.05987050407186724
            ]
        },
        {
            "positions": [
                -0.18721461962711955,
                -2.2775532933939653,
                -2.3889101137846493,
                1.4669557426806639,
                0.17847736873431191,
                0.058884033217015984
            ]
        }
    ]
}