{
    "goal": {
        "global_pose": {
            "orientation": {
                "w": 0.7031023502349854,
                "x": -0.7110244035720825,
                "y": 0.007748599164187908,
                "z": 0.005598929710686207
            },
            "position": {
                "x": 0.11585023208521307,
                "y": 0.44412534475326537,
                "z": 0.3711530566215515
            }
        },
        "name": "move_to_auspresseinheit_A"
    },
    "id": "BiTRRT_move_to_auspresseinheit_A_26",
    "joint_names": [
        "shoulder_pan_joint",
        "shoulder_lift_joint",
        "elbow_joint",
        "wrist_1_joint",
        "wrist_2_joint",
        "wrist_3_joint"
    ],
    "metrics": {
        "cart_traj_len": 0.6894709955549722,
        "distance_elbow_joint": 0.07740381621696635,
        "distance_shoulder_lift_joint": 0.5322864268919227,
        "distance_shoulder_pan_joint": 1.0475915089659475,
        "distance_wrist_1_joint": 0.6546218812222013,
        "distance_wrist_2_joint": 0.5169346769291031,
        "distance_wrist_3_joint": 0.1371405361871676,
        "smoothness": 0.5349575196198689,
        "time": 0.051554051000000004,
        "traj_len": 1.7222017438190302,
        "weighted_distance": 2.100432449982372
    },
    "planner": "BiTRRT",
    "start": {
        "state": {
            "elbow_joint": 2.4225746658250005,
            "shoulder_lift_joint": -1.3736534386056498,
            "shoulder_pan_joint": -0.3378633547517467,
            "wrist_1_joint": -1.0288598680537169,
            "wrist_2_joint": 1.233022673432363,
            "wrist_3_joint": -3.0940220416140027
        }
    },
    "waypoints": [
        {
            "positions": [
                -0.3378633547517467,
                -1.3736534386056498,
                2.4225746658250005,
                -1.0288598680537169,
                1.233022673432363,
                -3.0940220416140027
            ]
        },
        {
            "positions": [
                -0.20660866192095187,
                -1.4453787516365133,
                2.414693668495049,
                -0.9409602174798987,
                1.1652515721014578,
                -3.0877605341257226
            ]
        },
        {
            "positions": [
                -0.07535396909015701,
                -1.5171040646673766,
                2.4068126711650977,
                -0.8530605669060805,
                1.0974804707705526,
                -3.0814990266374425
            ]
        },
        {
            "positions": [
                0.05590072374063787,
                -1.58882937769824,
                2.398931673835146,
                -0.7651609163322622,
                1.0297093694396473,
                -3.0752375191491623
            ]
        },
        {
            "positions": [
                0.1871554165714327,
                -1.6605546907291033,
                2.3910506765051944,
                -0.677261265758444,
                0.9619382681087423,
                -3.068976011660882
            ]
        },
        {
            "positions": [
                0.31841010940222764,
                -1.7322800037599668,
                2.383169679175243,
                -0.5893616151846258,
                0.894167166777837,
                -3.062714504172602
            ]
        },
        {
            "positions": [
                0.44966480223302246,
                -1.80400531679083,
                2.3752886818452916,
                -0.5014619646108076,
                0.8263960654469318,
                -3.056452996684322
            ]
        },
        {
            "positions": [
                0.5809194950638175,
                -1.8757306298216936,
                2.36740768451534,
                -0.4135623140369894,
                0.7586249641160265,
                -3.0501914891960418
            ]
        },
        {
            "positions": [
                0.7097281542142009,
                -1.9059398654975725,
                2.389644519422646,
                -0.4528866412424632,
                0.7160879965032599,
                -3.1435014729652484
            ]
        }
    ]
}