{
    "goal": {
        "global_pose": {
            "orientation": {
                "w": 0.7047431468963623,
                "x": -0.7094548344612122,
                "y": 0.0024358443915843964,
                "z": -0.0022348060738295317
            },
            "position": {
                "x": 0.6094750761985779,
                "y": 0.3671506643295288,
                "z": 0.19426114857196808
            }
        },
        "name": "move_to_magneteinheit_A"
    },
    "id": "BiTRRT_move_to_magneteinheit_A_9",
    "joint_names": [
        "shoulder_pan_joint",
        "shoulder_lift_joint",
        "elbow_joint",
        "wrist_1_joint",
        "wrist_2_joint",
        "wrist_3_joint"
    ],
    "metrics": {
        "cart_traj_len": 3.3525592245217566,
        "distance_elbow_joint": 3.8681889436089536,
        "distance_shoulder_lift_joint": 0.7380541282649271,
        "distance_shoulder_pan_joint": 2.576916566207787,
        "distance_wrist_1_joint": 0.8624267942061089,
        "distance_wrist_2_joint": 1.692073435560025,
        "distance_wrist_3_joint": 2.5623413590094644,
        "smoothness": 0.17062501929216625,
        "time": 0.081357828,
        "traj_len": 3.5071357582587623,
        "weighted_distance": 4.46980806910569
    },
    "planner": "BiTRRT",
    "start": {
        "state": {
            "elbow_joint": -1.9196185241190666,
            "shoulder_lift_joint": -1.2443396400964142,
            "shoulder_pan_joint": 2.6996025414629847,
            "wrist_1_joint": -1.5485510000780065,
            "wrist_2_joint": -1.5709468930060704,
            "wrist_3_joint": 0.4420197071253992
        }
    },
    "waypoints": [
        {
            "positions": [
                2.6996025414629847,
                -1.2443396400964142,
                -1.9196185241190666,
                -1.5485510000780065,
                -1.5709468930060704,
                0.4420197071253992
            ]
        },
        {
            "positions": [
                2.5725912717726853,
                -1.2148729235610447,
                -1.8344082348734534,
                -1.507268550711076,
                -1.5283273880351318,
                0.5082421583892118
            ]
        },
        {
            "positions": [
                2.4455800020823855,
                -1.1854062070256755,
                -1.7491979456278401,
                -1.4659861013441453,
                -1.4857078830641932,
                0.5744646096530246
            ]
        },
        {
            "positions": [
                2.318568732392086,
                -1.1559394904903062,
                -1.663987656382227,
                -1.4247036519772145,
                -1.4430883780932546,
                0.6406870609168372
            ]
        },
        {
            "positions": [
                2.191557462701786,
                -1.1264727739549367,
                -1.5787773671366139,
                -1.383421202610284,
                -1.400468873122316,
                0.7069095121806499
            ]
        },
        {
            "positions": [
                2.064546193011487,
                -1.0970060574195672,
                -1.4935670778910006,
                -1.3421387532433533,
                -1.3578493681513775,
                0.7731319634444627
            ]
        },
        {
            "positions": [
                1.937534923321187,
                -1.067539340884198,
                -1.4083567886453874,
                -1.3008563038764227,
                -1.3152298631804389,
                0.8393544147082752
            ]
        },
        {
            "positions": [
                1.8105236536308875,
                -1.0380726243488287,
                -1.3231464993997741,
                -1.259573854509492,
                -1.2726103582095003,
                0.905576865972088
            ]
        },
        {
            "positions": [
                1.6835123839405879,
                -1.0086059078134593,
                -1.237936210154161,
                -1.2182914051425615,
                -1.2299908532385617,
                0.9717993172359006
            ]
        },
        {
            "positions": [
                1.5565011142502883,
                -0.9791391912780899,
                -1.1527259209085479,
                -1.177008955775631,
                -1.1873713482676231,
                1.0380217684997133
            ]
        },
        {
            "positions": [
                1.4294898445599886,
                -0.9496724747427205,
                -1.0675156316629346,
                -1.1357265064087,
                -1.1447518432966846,
                1.104244219763526
            ]
        },
        {
            "positions": [
                1.302478574869689,
                -0.9202057582073512,
                -0.9823053424173214,
                -1.0944440570417695,
                -1.102132338325746,
                1.1704666710273386
            ]
        },
        {
            "positions": [
                1.1754673051793894,
                -0.8907390416719818,
                -0.897095053171708,
                -1.053161607674839,
                -1.0595128333548074,
                1.2366891222911514
            ]
        },
        {
            "positions": [
                1.1109015786111287,
                -0.902962891565639,
                -0.7610740970593459,
                -1.0348974557665902,
                -0.9948391757375444,
                1.330853261959057
            ]
        },
        {
            "positions": [
                1.0463358520428678,
                -0.9151867414592961,
                -0.6250531409469837,
                -1.0166333038583415,
                -0.9301655181202815,
                1.4250174016269626
            ]
        },
        {
            "positions": [
                0.9817701254746072,
                -0.9274105913529533,
                -0.48903218483462163,
                -0.9983691519500929,
                -0.8654918605030186,
                1.5191815412948682
            ]
        },
        {
            "positions": [
                0.9172043989063465,
                -0.9396344412466104,
                -0.35301122872225954,
                -0.9801050000418442,
                -0.8008182028857557,
                1.6133456809627738
            ]
        },
        {
            "positions": [
                0.8526386723380859,
                -0.9518582911402677,
                -0.21699027260989745,
                -0.9618408481335955,
                -0.7361445452684927,
                1.7075098206306794
            ]
        },
        {
            "positions": [
                0.7880729457698251,
                -0.9640821410339249,
                -0.08096931649753525,
                -0.9435766962253469,
                -0.6714708876512299,
                1.8016739602985847
            ]
        },
        {
            "positions": [
                0.7235072192015644,
                -0.976305990927582,
                0.05505163961482684,
                -0.9253125443170982,
                -0.6067972300339669,
                1.8958380999664906
            ]
        },
        {
            "positions": [
                0.6589414926333037,
                -0.9885298408212392,
                0.19107259572718893,
                -0.9070483924088495,
                -0.542123572416704,
                1.990002239634396
            ]
        },
        {
            "positions": [
                0.594375766065043,
                -1.0007536907148964,
                0.32709355183955113,
                -0.8887842405006008,
                -0.477449914799441,
                2.0841663793023018
            ]
        },
        {
            "positions": [
                0.5298100394967823,
                -1.0129775406085535,
                0.4631145079519131,
                -0.8705200885923521,
                -0.41277625718217803,
                2.178330518970207
            ]
        },
        {
            "positions": [
                0.46524431292852153,
                -1.0252013905022106,
                0.5991354640642753,
                -0.8522559366841035,
                -0.3481025995649152,
                2.272494658638113
            ]
        },
        {
            "positions": [
                0.4006785863602609,
                -1.037425240395868,
                0.7351564201766375,
                -0.8339917847758548,
                -0.2834289419476522,
                2.3666587983060183
            ]
        },
        {
            "positions": [
                0.33611285979200023,
                -1.049649090289525,
                0.8711773762889995,
                -0.8157276328676061,
                -0.21875528433038927,
                2.4608229379739237
            ]
        },
        {
            "positions": [
                0.27154713322373947,
                -1.0618729401831821,
                1.0071983324013618,
                -0.7974634809593575,
                -0.15408162671312642,
                2.5549870776418295
            ]
        },
        {
            "positions": [
                0.2069814066554787,
                -1.0740967900768394,
                1.1432192885137238,
                -0.7791993290511088,
                -0.08940796909586346,
                2.6491512173097354
            ]
        },
        {
            "positions": [
                0.1424156800872181,
                -1.0863206399704965,
                1.2792402446260858,
                -0.7609351771428601,
                -0.02473431147860057,
                2.7433153569776407
            ]
        },
        {
            "positions": [
                0.14222716074682135,
                -1.049243276545879,
                1.4753251923854536,
                -0.7365204429638201,
                0.028450435553691922,
                2.8058199121266494
            ]
        },
        {
            "positions": [
                0.14203864140642458,
                -1.0121659131212615,
                1.6714101401448211,
                -0.7121057087847803,
                0.08163518258598441,
                2.8683244672756576
            ]
        },
        {
            "positions": [
                0.13236230833081097,
                -1.0695245154676338,
                1.8099902798173544,
                -0.699114957328339,
                0.10138086256996975,
                2.936342766705261
            ]
        },
        {
            "positions": [
                0.12268597525519735,
                -1.1268831178140064,
                1.9485704194898876,
                -0.6861242058718976,
                0.12112654255395508,
                3.0043610661348636
            ]
        }
    ]
}