{
    "goal": {
        "global_pose": {
            "orientation": {
                "w": 0.5084816217422485,
                "x": -0.49083608388900757,
                "y": 0.5182115435600281,
                "z": -0.4816462993621826
            },
            "position": {
                "x": 0.5540239810943604,
                "y": 0.030875300988554955,
                "z": 0.16403168439865112
            }
        },
        "name": "move_to_storage_A"
    },
    "id": "BiTRRT_move_to_storage_A_31",
    "joint_names": [
        "shoulder_pan_joint",
        "shoulder_lift_joint",
        "elbow_joint",
        "wrist_1_joint",
        "wrist_2_joint",
        "wrist_3_joint"
    ],
    "metrics": {
        "cart_traj_len": 0.35327389079210814,
        "distance_elbow_joint": 0.4481365452958592,
        "distance_shoulder_lift_joint": 0.23580541465726745,
        "distance_shoulder_pan_joint": 0.4606795719612809,
        "distance_wrist_1_joint": 0.2375312084541089,
        "distance_wrist_2_joint": 1.1047439535720869,
        "distance_wrist_3_joint": 0.10242262904965527,
        "smoothness": 4.440892098500626e-16,
        "time": 0.033736109,
        "traj_len": 1.6091362039896617,
        "weighted_distance": 2.0338239213648177
    },
    "planner": "BiTRRT",
    "start": {
        "state": {
            "elbow_joint": 1.971548259319323,
            "shoulder_lift_joint": -1.1394851275133948,
            "shoulder_pan_joint": 0.1228115487234821,
            "wrist_1_joint": -0.7804723859257726,
            "wrist_2_joint": 0.12958671773740124,
            "wrist_3_joint": -3.192489227718131
        }
    },
    "waypoints": [
        {
            "positions": [
                0.1228115487234821,
                -1.1394851275133948,
                1.971548259319323,
                -0.7804723859257726,
                0.12958671773740124,
                -3.192489227718131
            ]
        },
        {
            "positions": [
                0.057000181300441974,
                -1.1731716153215759,
                2.03556776579016,
                -0.8144054157049311,
                0.28740728253341363,
                -3.1778574235681805
            ]
        },
        {
            "positions": [
                -0.008811186122598152,
                -1.206858103129757,
                2.099587272260997,
                -0.8483384454840894,
                0.445227847329426,
                -3.1632256194182298
            ]
        },
        {
            "positions": [
                -0.07462255354563826,
                -1.240544590937938,
                2.1636067787318343,
                -0.8822714752632479,
                0.6030484121254385,
                -3.148593815268279
            ]
        },
        {
            "positions": [
                -0.1404339209686784,
                -1.274231078746119,
                2.227626285202671,
                -0.9162045050424062,
                0.7608689769214508,
                -3.133962011118328
            ]
        },
        {
            "positions": [
                -0.20624528839171857,
                -1.3079175665543001,
                2.291645791673508,
                -0.9501375348215647,
                0.9186895417174633,
                -3.1193302069683773
            ]
        },
        {
            "positions": [
                -0.27205665581475863,
                -1.3416040543624812,
                2.3556652981443453,
                -0.9840705646007231,
                1.0765101065134757,
                -3.1046984028184266
            ]
        },
        {
            "positions": [
                -0.3378680232377988,
                -1.3752905421706623,
                2.419684804615182,
                -1.0180035943798815,
                1.2343306713094881,
                -3.090066598668476
            ]
        }
    ]
}{
    "goal": {
        "global_pose": {
            "orientation": {
                "w": 0.5084816217422485,
                "x": -0.49083608388900757,
                "y": 0.5182115435600281,
                "z": -0.4816462993621826
            },
            "position": {
                "x": 0.5540239810943604,
                "y": 0.030875300988554955,
                "z": 0.16403168439865112
            }
        },
        "name": "move_to_storage_A"
    },
    "id": "BiTRRT_move_to_storage_A_31",
    "joint_names": [
        "shoulder_pan_joint",
        "shoulder_lift_joint",
        "elbow_joint",
        "wrist_1_joint",
        "wrist_2_joint",
        "wrist_3_joint"
    ],
    "metrics": {
        "cart_traj_len": 0.35250107279334664,
        "distance_elbow_joint": 0.45241972615472426,
        "distance_shoulder_lift_joint": 0.23266906514037733,
        "distance_shoulder_pan_joint": 0.45911572410507206,
        "distance_wrist_1_joint": 0.25887977081144165,
        "distance_wrist_2_joint": 1.1047273665658142,
        "distance_wrist_3_joint": 0.09423524182062293,
        "smoothness": 1.1102230263833737e-15,
        "time": 0.037758168,
        "traj_len": 1.6130861398567815,
        "weighted_distance": 2.0381669498881965
    },
    "planner": "BiTRRT",
    "start": {
        "state": {
            "elbow_joint": 1.97154746011099,
            "shoulder_lift_joint": -1.13948474672311,
            "shoulder_pan_joint": 0.12281154466712228,
            "wrist_1_joint": -0.7804688027058302,
            "wrist_2_joint": 0.12958655903071145,
            "wrist_3_joint": 3.0906928834467795
        }
    },
    "waypoints": [
        {
            "positions": [
                0.12281154466712228,
                -1.13948474672311,
                1.97154746011099,
                -0.7804688027058302,
                0.12958655903071145,
                3.0906928834467795
            ]
        },
        {
            "positions": [
                0.057223584080683426,
                -1.1727231846003068,
                2.0361788495616646,
                -0.8174516271074647,
                0.28740475425439915,
                3.1041550608497257
            ]
        },
        {
            "positions": [
                -0.00836437650575543,
                -1.2059616224775034,
                2.1008102390123398,
                -0.8544344515090992,
                0.44522294947808694,
                3.117617238252672
            ]
        },
        {
            "positions": [
                -0.0739523370921943,
                -1.2392000603547002,
                2.1654416284630145,
                -0.8914172759107337,
                0.6030411447017746,
                3.131079415655618
            ]
        },
        {
            "positions": [
                -0.13954029767863313,
                -1.272438498231897,
                2.2300730179136896,
                -0.9284001003123683,
                0.7608593399254624,
                3.144541593058564
            ]
        },
        {
            "positions": [
                -0.20512825826507203,
                -1.3056769361090939,
                2.2947044073643643,
                -0.9653829247140028,
                0.9186775351491502,
                3.15800377046151
            ]
        },
        {
            "positions": [
                -0.27071621885151087,
                -1.3389153739862905,
                2.3593357968150395,
                -1.0023657491156373,
                1.0764957303728377,
                3.1714659478644562
            ]
        },
        {
            "positions": [
                -0.33630417943794977,
                -1.3721538118634873,
                2.423967186265714,
                -1.0393485735172718,
                1.2343139255965256,
                3.1849281252674024
            ]
        }
    ]
}{
    "goal": {
        "global_pose": {
            "orientation": {
                "w": 0.5084816217422485,
                "x": -0.49083608388900757,
                "y": 0.5182115435600281,
                "z": -0.4816462993621826
            },
            "position": {
                "x": 0.5540239810943604,
                "y": 0.030875300988554955,
                "z": 0.16403168439865112
            }
        },
        "name": "move_to_storage_A"
    },
    "id": "BiTRRT_move_to_storage_A_31",
    "joint_names": [
        "shoulder_pan_joint",
        "shoulder_lift_joint",
        "elbow_joint",
        "wrist_1_joint",
        "wrist_2_joint",
        "wrist_3_joint"
    ],
    "metrics": {
        "cart_traj_len": 0.35246436629451494,
        "distance_elbow_joint": 0.44840544622604694,
        "distance_shoulder_lift_joint": 0.23471927581248608,
        "distance_shoulder_pan_joint": 0.45722557237950284,
        "distance_wrist_1_joint": 0.24119991029938848,
        "distance_wrist_2_joint": 1.112984348061216,
        "distance_wrist_3_joint": 0.09559043403658984,
        "smoothness": 4.440892098500626e-16,
        "time": 0.041137996999999996,
        "traj_len": 1.6093865249887083,
        "weighted_distance": 2.0335904487504397
    },
    "planner": "BiTRRT",
    "start": {
        "state": {
            "elbow_joint": 1.9715472970024885,
            "shoulder_lift_joint": -1.1394870060712896,
            "shoulder_pan_joint": 0.12281152778156021,
            "wrist_1_joint": -0.780463741449964,
            "wrist_2_joint": 0.12958659822042276,
            "wrist_3_joint": 3.090690232415272
        }
    },
    "waypoints": [
        {
            "positions": [
                0.12281152778156021,
                -1.1394870060712896,
                1.9715472970024885,
                -0.780463741449964,
                0.12958659822042276,
                3.090690232415272
            ]
        },
        {
            "positions": [
                0.05749358887020267,
                -1.173018331187359,
                2.035605217891924,
                -0.8149208714927337,
                0.2885843622291679,
                3.104346008706213
            ]
        },
        {
            "positions": [
                -0.007824350041154865,
                -1.2065496563034286,
                2.099663138781359,
                -0.8493780015355036,
                0.44758212623791305,
                3.118001784997155
            ]
        },
        {
            "positions": [
                -0.0731422889525124,
                -1.240080981419498,
                2.1637210596707943,
                -0.8838351315782733,
                0.6065798902466581,
                3.131657561288096
            ]
        },
        {
            "positions": [
                -0.13846022786386994,
                -1.2736123065355673,
                2.2277789805602297,
                -0.9182922616210432,
                0.7655776542554033,
                3.1453133375790374
            ]
        },
        {
            "positions": [
                -0.2037781667752275,
                -1.3071436316516367,
                2.291836901449665,
                -0.9527493916638129,
                0.9245754182641485,
                3.1589691138699787
            ]
        },
        {
            "positions": [
                -0.26909610568658504,
                -1.3406749567677063,
                2.3558948223391,
                -0.9872065217065826,
                1.0835731822728936,
                3.1726248901609204
            ]
        },
        {
            "positions": [
                -0.3344140445979426,
                -1.3742062818837757,
                2.4199527432285355,
                -1.0216636517493525,
                1.2425709462816388,
                3.1862806664518617
            ]
        }
    ]
}