{
    "goal": {
        "global_pose": {
            "orientation": {
                "w": 0.7031023502349854,
                "x": -0.7110244035720825,
                "y": 0.007748599164187908,
                "z": 0.005598929710686207
            },
            "position": {
                "x": 0.11585023208521307,
                "y": 0.44412534475326537,
                "z": 0.3711530566215515
            }
        },
        "name": "move_to_auspresseinheit_A"
    },
    "id": "BiTRRT_move_to_auspresseinheit_A_71",
    "joint_names": [
        "shoulder_pan_joint",
        "shoulder_lift_joint",
        "elbow_joint",
        "wrist_1_joint",
        "wrist_2_joint",
        "wrist_3_joint"
    ],
    "metrics": {
        "cart_traj_len": 0.679905066465476,
        "distance_elbow_joint": 0.03014351448644703,
        "distance_shoulder_lift_joint": 0.5347469830153924,
        "distance_shoulder_pan_joint": 1.042325180745912,
        "distance_wrist_1_joint": 0.5594481393430949,
        "distance_wrist_2_joint": 0.9411697530245757,
        "distance_wrist_3_joint": 0.6177761843039327,
        "smoothness": 0.7758681186154427,
        "time": 0.0562474,
        "traj_len": 1.930183865573266,
        "weighted_distance": 2.542003150252747
    },
    "planner": "BiTRRT",
    "start": {
        "state": {
            "elbow_joint": 2.4225746658250005,
            "shoulder_lift_joint": -1.3736534386056498,
            "shoulder_pan_joint": -0.3378633547517467,
            "wrist_1_joint": -1.0288598680537169,
            "wrist_2_joint": 1.233022673432363,
            "wrist_3_joint": -3.0940220416140027
        }
    },
    "waypoints": [
        {
            "positions": [
                -0.3378633547517467,
                -1.3736534386056498,
                2.4225746658250005,
                -1.0288598680537169,
                1.233022673432363,
                -3.0940220416140027
            ]
        },
        {
            "positions": [
                -0.24956056098455348,
                -1.4315428825853294,
                2.4209436794022614,
                -0.9775021797393717,
                1.1278746507909538,
                -3.0523132826755264
            ]
        },
        {
            "positions": [
                -0.16125776721736024,
                -1.4894323265650091,
                2.4193126929795223,
                -0.9261444914250265,
                1.0227266281495448,
                -3.0106045237370505
            ]
        },
        {
            "positions": [
                -0.072954973450167,
                -1.5473217705446887,
                2.4176817065567833,
                -0.8747868031106814,
                0.9175786055081356,
                -2.968895764798574
            ]
        },
        {
            "positions": [
                0.01534782031702625,
                -1.6052112145243684,
                2.4160507201340438,
                -0.8234291147963362,
                0.8124305828667265,
                -2.9271870058600977
            ]
        },
        {
            "positions": [
                0.10365061408421955,
                -1.663100658504048,
                2.4144197337113047,
                -0.772071426481991,
                0.7072825602253173,
                -2.8854782469216214
            ]
        },
        {
            "positions": [
                0.19195340785141274,
                -1.7209901024837277,
                2.4127887472885656,
                -0.7207137381676458,
                0.6021345375839083,
                -2.8437694879831454
            ]
        },
        {
            "positions": [
                0.2802562016186061,
                -1.7788795464634073,
                2.4111577608658266,
                -0.6693560498533007,
                0.4969865149424991,
                -2.802060729044669
            ]
        },
        {
            "positions": [
                0.38630760771249595,
                -1.811259765252816,
                2.406476108484008,
                -0.619369969567631,
                0.548269913576177,
                -2.8835144469783187
            ]
        },
        {
            "positions": [
                0.49235901380638575,
                -1.8436399840422246,
                2.40179445610219,
                -0.5693838892819614,
                0.5995533122098551,
                -2.9649681649119684
            ]
        },
        {
            "positions": [
                0.5984104199002755,
                -1.8760202028316335,
                2.397112803720372,
                -0.5193978089962916,
                0.650836710843533,
                -3.0464218828456184
            ]
        },
        {
            "positions": [
                0.7044618259941654,
                -1.9084004216210422,
                2.3924311513385534,
                -0.469411728710622,
                0.7021201094772109,
                -3.127875600779268
            ]
        }
    ]
}