{
    "goal": {
        "global_pose": {
            "orientation": {
                "w": 0.5084816217422485,
                "x": -0.49083608388900757,
                "y": 0.5182115435600281,
                "z": -0.4816462993621826
            },
            "position": {
                "x": 0.5540239810943604,
                "y": 0.030875300988554955,
                "z": 0.16403168439865112
            }
        },
        "name": "move_to_storage_A"
    },
    "id": "BiTRRT_move_to_storage_A_97",
    "joint_names": [
        "shoulder_pan_joint",
        "shoulder_lift_joint",
        "elbow_joint",
        "wrist_1_joint",
        "wrist_2_joint",
        "wrist_3_joint"
    ],
    "metrics": {
        "cart_traj_len": 0.3534610951650737,
        "distance_elbow_joint": 0.4488933396900061,
        "distance_shoulder_lift_joint": 0.23313896097545062,
        "distance_shoulder_pan_joint": 0.46411425498837655,
        "distance_wrist_1_joint": 0.24223459625902566,
        "distance_wrist_2_joint": 1.0903049923608163,
        "distance_wrist_3_joint": 0.09848149127346728,
        "smoothness": 2.2204460668324854e-16,
        "time": 0.037596525,
        "traj_len": 1.6053559217653706,
        "weighted_distance": 2.026492093918434
    },
    "planner": "BiTRRT",
    "start": {
        "state": {
            "elbow_joint": 1.971548259319323,
            "shoulder_lift_joint": -1.1394851275133948,
            "shoulder_pan_joint": 0.1228115487234821,
            "wrist_1_joint": -0.7804723859257726,
            "wrist_2_joint": 0.12958671773740124,
            "wrist_3_joint": -3.192489227718131
        }
    },
    "waypoints": [
        {
            "positions": [
                0.1228115487234821,
                -1.1394851275133948,
                1.971548259319323,
                -0.7804723859257726,
                0.12958671773740124,
                -3.192489227718131
            ]
        },
        {
            "positions": [
                0.05650951229657117,
                -1.1727906933670307,
                2.035675879275038,
                -0.8150773282484906,
                0.2853445737889464,
                -3.1784204432504928
            ]
        },
        {
            "positions": [
                -0.009792524130339764,
                -1.2060962592206663,
                2.0998034992307533,
                -0.8496822705712085,
                0.44110242984049164,
                -3.164351658782855
            ]
        },
        {
            "positions": [
                -0.0760945605572507,
                -1.2394018250743022,
                2.1639311191864685,
                -0.8842872128939264,
                0.5968602858920368,
                -3.1502828743152165
            ]
        },
        {
            "positions": [
                -0.14239659698416163,
                -1.272707390927938,
                2.2280587391421838,
                -0.9188921552166445,
                0.752618141943582,
                -3.1362140898475785
            ]
        },
        {
            "positions": [
                -0.2086986334110726,
                -1.306012956781574,
                2.292186359097899,
                -0.9534970975393624,
                0.9083759979951272,
                -3.12214530537994
            ]
        },
        {
            "positions": [
                -0.2750006698379835,
                -1.3393185226352096,
                2.356313979053614,
                -0.9881020398620803,
                1.0641338540466723,
                -3.1080765209123022
            ]
        },
        {
            "positions": [
                -0.34130270626489445,
                -1.3726240884888454,
                2.420441599009329,
                -1.0227069821847983,
                1.2198917100982176,
                -3.094007736444664
            ]
        }
    ]
}{
    "goal": {
        "global_pose": {
            "orientation": {
                "w": 0.5084816217422485,
                "x": -0.49083608388900757,
                "y": 0.5182115435600281,
                "z": -0.4816462993621826
            },
            "position": {
                "x": 0.5540239810943604,
                "y": 0.030875300988554955,
                "z": 0.16403168439865112
            }
        },
        "name": "move_to_storage_A"
    },
    "id": "BiTRRT_move_to_storage_A_97",
    "joint_names": [
        "shoulder_pan_joint",
        "shoulder_lift_joint",
        "elbow_joint",
        "wrist_1_joint",
        "wrist_2_joint",
        "wrist_3_joint"
    ],
    "metrics": {
        "cart_traj_len": 0.3526285762264167,
        "distance_elbow_joint": 0.44936648221532494,
        "distance_shoulder_lift_joint": 0.23431617281392692,
        "distance_shoulder_pan_joint": 0.46234516190408004,
        "distance_wrist_1_joint": 0.23831517435884098,
        "distance_wrist_2_joint": 1.092746512368751,
        "distance_wrist_3_joint": 0.09967853963334505,
        "smoothness": 6.661338165333112e-16,
        "time": 0.049856294999999995,
        "traj_len": 1.6052314609719898,
        "weighted_distance": 2.026619552182538
    },
    "planner": "BiTRRT",
    "start": {
        "state": {
            "elbow_joint": 1.97154746011099,
            "shoulder_lift_joint": -1.13948474672311,
            "shoulder_pan_joint": 0.12281154466712228,
            "wrist_1_joint": -0.7804688027058302,
            "wrist_2_joint": 0.12958655903071145,
            "wrist_3_joint": 3.0906928834467795
        }
    },
    "waypoints": [
        {
            "positions": [
                0.12281154466712228,
                -1.13948474672311,
                1.97154746011099,
                -0.7804688027058302,
                0.12958655903071145,
                3.0906928834467795
            ]
        },
        {
            "positions": [
                0.05676223582368228,
                -1.172958485696528,
                2.0357426718560365,
                -0.8145138276142361,
                0.28569320365481876,
                3.1049326748229715
            ]
        },
        {
            "positions": [
                -0.009287073019757716,
                -1.2064322246699462,
                2.0999378836010827,
                -0.8485588525226418,
                0.44179984827892604,
                3.119172466199164
            ]
        },
        {
            "positions": [
                -0.07533638186319773,
                -1.2399059636433643,
                2.1641330953461293,
                -0.8826038774310477,
                0.5979064929030333,
                3.133412257575356
            ]
        },
        {
            "positions": [
                -0.1413856907066377,
                -1.2733797026167823,
                2.2283283070911755,
                -0.9166489023394536,
                0.7540131375271406,
                3.147652048951548
            ]
        },
        {
            "positions": [
                -0.20743499955007771,
                -1.3068534415902007,
                2.292523518836222,
                -0.9506939272478594,
                0.9101197821512479,
                3.16189184032774
            ]
        },
        {
            "positions": [
                -0.2734843083935177,
                -1.3403271805636188,
                2.3567187305812682,
                -0.9847389521562653,
                1.0662264267753552,
                3.1761316317039325
            ]
        },
        {
            "positions": [
                -0.33953361723695774,
                -1.3738009195370369,
                2.420913942326315,
                -1.0187839770646712,
                1.2223330713994625,
                3.1903714230801246
            ]
        }
    ]
}{
    "goal": {
        "global_pose": {
            "orientation": {
                "w": 0.5084816217422485,
                "x": -0.49083608388900757,
                "y": 0.5182115435600281,
                "z": -0.4816462993621826
            },
            "position": {
                "x": 0.5540239810943604,
                "y": 0.030875300988554955,
                "z": 0.16403168439865112
            }
        },
        "name": "move_to_storage_A"
    },
    "id": "BiTRRT_move_to_storage_A_97",
    "joint_names": [
        "shoulder_pan_joint",
        "shoulder_lift_joint",
        "elbow_joint",
        "wrist_1_joint",
        "wrist_2_joint",
        "wrist_3_joint"
    ],
    "metrics": {
        "cart_traj_len": 0.35349820240719215,
        "distance_elbow_joint": 0.44742547833378543,
        "distance_shoulder_lift_joint": 0.23578874614398115,
        "distance_shoulder_pan_joint": 0.45985629184821486,
        "distance_wrist_1_joint": 0.2331229955871308,
        "distance_wrist_2_joint": 1.1100495065987537,
        "distance_wrist_3_joint": 0.09126995202529997,
        "smoothness": 2.2204460668324854e-16,
        "time": 0.044529593000000006,
        "traj_len": 1.605463475304613,
        "weighted_distance": 2.025641966580879
    },
    "planner": "BiTRRT",
    "start": {
        "state": {
            "elbow_joint": 1.9715472970024885,
            "shoulder_lift_joint": -1.1394870060712896,
            "shoulder_pan_joint": 0.12281152778156021,
            "wrist_1_joint": -0.780463741449964,
            "wrist_2_joint": 0.12958659822042276,
            "wrist_3_joint": 3.090690232415272
        }
    },
    "waypoints": [
        {
            "positions": [
                0.12281152778156021,
                -1.1394870060712896,
                1.9715472970024885,
                -0.780463741449964,
                0.12958659822042276,
                3.090690232415272
            ]
        },
        {
            "positions": [
                0.0571177718032438,
                -1.1731711126632869,
                2.0354652224787437,
                -0.8137670265338398,
                0.28816509916310185,
                3.103728796990315
            ]
        },
        {
            "positions": [
                -0.008575984175072604,
                -1.2068552192552842,
                2.0993831479549985,
                -0.8470703116177156,
                0.44674360010578096,
                3.1167673615653575
            ]
        },
        {
            "positions": [
                -0.074269740153389,
                -1.2405393258472814,
                2.1633010734312537,
                -0.8803735967015914,
                0.6053221010484601,
                3.1298059261404005
            ]
        },
        {
            "positions": [
                -0.13996349613170542,
                -1.2742234324392787,
                2.227218998907509,
                -0.9136768817854672,
                0.7639006019911391,
                3.142844490715443
            ]
        },
        {
            "positions": [
                -0.20565725211002187,
                -1.3079075390312762,
                2.291136924383764,
                -0.9469801668693432,
                0.9224791029338182,
                3.155883055290486
            ]
        },
        {
            "positions": [
                -0.27135100808833823,
                -1.3415916456232735,
                2.355054849860019,
                -0.980283451953219,
                1.0810576038764974,
                3.168921619865529
            ]
        },
        {
            "positions": [
                -0.3370447640666546,
                -1.3752757522152708,
                2.418972775336274,
                -1.0135867370370948,
                1.2396361048191764,
                3.181960184440572
            ]
        }
    ]
}