{
    "goal": {
        "global_pose": {
            "orientation": {
                "w": 0.7047431468963623,
                "x": -0.7094548344612122,
                "y": 0.0024358443915843964,
                "z": -0.0022348060738295317
            },
            "position": {
                "x": 0.6094750761985779,
                "y": 0.3671506643295288,
                "z": 0.19426114857196808
            }
        },
        "name": "move_to_magneteinheit_A"
    },
    "id": "BiTRRT_move_to_magneteinheit_A_129",
    "joint_names": [
        "shoulder_pan_joint",
        "shoulder_lift_joint",
        "elbow_joint",
        "wrist_1_joint",
        "wrist_2_joint",
        "wrist_3_joint"
    ],
    "metrics": {
        "cart_traj_len": 3.3144947252389256,
        "distance_elbow_joint": 3.918747680823909,
        "distance_shoulder_lift_joint": 0.4656688510786767,
        "distance_shoulder_pan_joint": 2.982255368681679,
        "distance_wrist_1_joint": 3.480530427497018,
        "distance_wrist_2_joint": 1.52592052482041,
        "distance_wrist_3_joint": 0.6813015146748485,
        "smoothness": 0.13927875194113712,
        "time": 0.119763655,
        "traj_len": 3.6130906946237236,
        "weighted_distance": 4.407207545514922
    },
    "planner": "BiTRRT",
    "start": {
        "state": {
            "elbow_joint": -1.9196185241190666,
            "shoulder_lift_joint": -1.2443396400964142,
            "shoulder_pan_joint": 2.6996025414629847,
            "wrist_1_joint": -1.5485510000780065,
            "wrist_2_joint": -1.5709468930060704,
            "wrist_3_joint": 0.4420197071253992
        }
    },
    "waypoints": [
        {
            "positions": [
                2.6996025414629847,
                -1.2443396400964142,
                -1.9196185241190666,
                -1.5485510000780065,
                -1.5709468930060704,
                0.4420197071253992
            ]
        },
        {
            "positions": [
                2.5999271521144434,
                -1.23463211879398,
                -1.8158882760739476,
                -1.451364995284191,
                -1.513367957503381,
                0.418647057015077
            ]
        },
        {
            "positions": [
                2.500251762765902,
                -1.2249245974915457,
                -1.7121580280288284,
                -1.3541789904903754,
                -1.4557890220006917,
                0.39527440690475485
            ]
        },
        {
            "positions": [
                2.4005763734173606,
                -1.2152170761891115,
                -1.6084277799837094,
                -1.2569929856965598,
                -1.3982100864980023,
                0.3719017567944327
            ]
        },
        {
            "positions": [
                2.3009009840688193,
                -1.2055095548866772,
                -1.5046975319385905,
                -1.1598069809027445,
                -1.3406311509953128,
                0.3485291066841105
            ]
        },
        {
            "positions": [
                2.2012255947202775,
                -1.195802033584243,
                -1.4009672838934712,
                -1.0626209761089287,
                -1.2830522154926234,
                0.32515645657378833
            ]
        },
        {
            "positions": [
                2.101550205371736,
                -1.1860945122818087,
                -1.2972370358483523,
                -0.9654349713151132,
                -1.2254732799899342,
                0.3017838064634662
            ]
        },
        {
            "positions": [
                2.0018748160231947,
                -1.1763869909793747,
                -1.193506787803233,
                -0.8682489665212977,
                -1.1678943444872447,
                0.27841115635314406
            ]
        },
        {
            "positions": [
                1.9021994266746536,
                -1.1666794696769405,
                -1.0897765397581143,
                -0.7710629617274822,
                -1.1103154089845555,
                0.25503850624282187
            ]
        },
        {
            "positions": [
                1.802524037326112,
                -1.1569719483745062,
                -0.9860462917129951,
                -0.6738769569336667,
                -1.052736473481866,
                0.2316658561324997
            ]
        },
        {
            "positions": [
                1.7028486479775706,
                -1.147264427072072,
                -0.8823160436678759,
                -0.576690952139851,
                -0.9951575379791766,
                0.20829320602217755
            ]
        },
        {
            "positions": [
                1.6031732586290293,
                -1.1375569057696377,
                -0.7785857956227571,
                -0.47950494734603555,
                -0.9375786024764873,
                0.1849205559118554
            ]
        },
        {
            "positions": [
                1.503497869280488,
                -1.1278493844672035,
                -0.6748555475776379,
                -0.38231894255222,
                -0.8799996669737978,
                0.16154790580153322
            ]
        },
        {
            "positions": [
                1.4038224799319465,
                -1.1181418631647693,
                -0.5711252995325189,
                -0.2851329377584044,
                -0.8224207314711085,
                0.13817525569121109
            ]
        },
        {
            "positions": [
                1.304147090583405,
                -1.108434341862335,
                -0.4673950514873997,
                -0.18794693296458886,
                -0.7648417959684191,
                0.1148026055808889
            ]
        },
        {
            "positions": [
                1.2044717012348638,
                -1.0987268205599008,
                -0.3636648034422807,
                -0.0907609281707733,
                -0.7072628604657297,
                0.09142995547056676
            ]
        },
        {
            "positions": [
                1.1047963118863224,
                -1.0890192992574665,
                -0.2599345553971617,
                0.006425076623042036,
                -0.6496839249630404,
                0.06805730536024457
            ]
        },
        {
            "positions": [
                1.0051209225377808,
                -1.0793117779550323,
                -0.1562043073520425,
                0.10361108141685782,
                -0.5921049894603508,
                0.04468465524992238
            ]
        },
        {
            "positions": [
                0.9054455331892395,
                -1.0696042566525983,
                -0.052474059306923504,
                0.20079708621067316,
                -0.5345260539576615,
                0.021312005139600243
            ]
        },
        {
            "positions": [
                0.8057701438406981,
                -1.059896735350164,
                0.051256188738195485,
                0.2979830910044887,
                -0.4769471184549723,
                -0.002060644970721892
            ]
        },
        {
            "positions": [
                0.7060947544921565,
                -1.0501892140477298,
                0.15498643678331492,
                0.3951690957983045,
                -0.41936818295228284,
                -0.025433295081044083
            ]
        },
        {
            "positions": [
                0.6064193651436152,
                -1.0404816927452956,
                0.2587166848284337,
                0.49235510059212007,
                -0.3617892474495934,
                -0.04880594519136627
            ]
        },
        {
            "positions": [
                0.5067439757950738,
                -1.0307741714428613,
                0.36244693287355245,
                0.5895411053859354,
                -0.3042103119469042,
                -0.07217859530168835
            ]
        },
        {
            "positions": [
                0.40706858644653243,
                -1.021066650140427,
                0.4661771809186721,
                0.6867271101797512,
                -0.2466313764442145,
                -0.09555124541201054
            ]
        },
        {
            "positions": [
                0.3073931970979909,
                -1.0113591288379928,
                0.5699074289637907,
                0.7839131149735664,
                -0.18905244094152526,
                -0.1189238955223327
            ]
        },
        {
            "positions": [
                0.21056664651889295,
                -0.9978583518497137,
                0.702185110940441,
                0.8553171174426409,
                -0.20083836366215632,
                -0.12053328448076421
            ]
        },
        {
            "positions": [
                0.11374009593979498,
                -0.9843575748614346,
                0.8344627929170914,
                0.9267211199117156,
                -0.21262428638278738,
                -0.12214267343919571
            ]
        },
        {
            "positions": [
                0.016913545360697002,
                -0.9708567978731554,
                0.9667404748937417,
                0.9981251223807901,
                -0.22441020910341844,
                -0.12375206239762722
            ]
        },
        {
            "positions": [
                -0.07991300521840093,
                -0.9573560208848763,
                1.099018156870392,
                1.0695291248498646,
                -0.2361961318240495,
                -0.12536145135605872
            ]
        },
        {
            "positions": [
                -0.05187306233998701,
                -0.9297036989317927,
                1.2393641604243273,
                1.2014132353354672,
                -0.22337023653949248,
                -0.10657888995221637
            ]
        },
        {
            "positions": [
                -0.023833119461573078,
                -0.9020513769787093,
                1.3797101639782623,
                1.3332973458210697,
                -0.21054434125493546,
                -0.08779632854837402
            ]
        },
        {
            "positions": [
                0.004206823416840852,
                -0.8743990550256258,
                1.5200561675321973,
                1.4651814563066723,
                -0.19771844597037846,
                -0.06901376714453165
            ]
        },
        {
            "positions": [
                0.032246766295254775,
                -0.8467467330725422,
                1.6604021710861325,
                1.597065566792275,
                -0.18489255068582144,
                -0.0502312057406893
            ]
        },
        {
            "positions": [
                0.060286709173668726,
                -0.8190944111194587,
                1.8007481746400678,
                1.7289496772778776,
                -0.17206665540126442,
                -0.03144864433684694
            ]
        },
        {
            "positions": [
                0.08832665205208265,
                -0.7914420891663753,
                1.9410941781940028,
                1.8608337877634802,
                -0.1592407601167074,
                -0.012666082933004578
            ]
        },
        {
            "positions": [
                0.12282681678189328,
                -0.7786707890177375,
                1.9991291567048421,
                1.9319794274190119,
                -0.13931374995070903,
                -0.011441095162668455
            ]
        }
    ]
}