{
    "goal": {
        "global_pose": {
            "orientation": {
                "w": 0.005598929693374612,
                "x": 0.007748599140229565,
                "y": 0.7110244013736278,
                "z": -0.7031023480610252
            },
            "position": {
                "x": 0.1141497679147869,
                "y": -0.7141253447532654,
                "z": 0.3711530566215515
            }
        },
        "name": "move_to_auspresseinheit_B"
    },
    "id": "BiTRRT_move_to_auspresseinheit_B_57",
    "joint_names": [
        "shoulder_pan_joint",
        "shoulder_lift_joint",
        "elbow_joint",
        "wrist_1_joint",
        "wrist_2_joint",
        "wrist_3_joint"
    ],
    "metrics": {
        "cart_traj_len": 0.5651995883446094,
        "distance_elbow_joint": 0.059974277907231865,
        "distance_shoulder_lift_joint": 0.2963114091148198,
        "distance_shoulder_pan_joint": 0.5780597899150943,
        "distance_wrist_1_joint": 0.31816644942731176,
        "distance_wrist_2_joint": 0.9924094443295253,
        "distance_wrist_3_joint": 0.00715121378773409,
        "smoothness": 0.0,
        "time": 0.035006623,
        "traj_len": 1.5006907024706049,
        "weighted_distance": 1.8912828730293156
    },
    "planner": "BiTRRT",
    "start": {
        "state": {
            "elbow_joint": 2.0193083361928714,
            "shoulder_lift_joint": -1.1220246554650708,
            "shoulder_pan_joint": -1.0952077554168747,
            "wrist_1_joint": -0.8559753972642168,
            "wrist_2_joint": 0.4759566250798843,
            "wrist_3_joint": -3.1240929996934557
        }
    },
    "waypoints": [
        {
            "positions": [
                -1.0952077554168747,
                -1.1220246554650708,
                2.0193083361928714,
                -0.8559753972642168,
                0.4759566250798843,
                -3.1240929996934557
            ]
        },
        {
            "positions": [
                -1.191551053736057,
                -1.1714098903175407,
                2.009312623208333,
                -0.8029476556929982,
                0.6413581991348052,
                -3.1229011307288332
            ]
        },
        {
            "positions": [
                -1.2878943520552395,
                -1.2207951251700107,
                1.9993169102237942,
                -0.7499199141217795,
                0.806759773189726,
                -3.121709261764211
            ]
        },
        {
            "positions": [
                -1.3842376503744218,
                -1.2701803600224806,
                1.9893211972392555,
                -0.6968921725505609,
                0.9721613472446469,
                -3.120517392799589
            ]
        },
        {
            "positions": [
                -1.4805809486936041,
                -1.3195655948749507,
                1.9793254842547168,
                -0.6438644309793423,
                1.1375629212995677,
                -3.1193255238349664
            ]
        },
        {
            "positions": [
                -1.5769242470127867,
                -1.3689508297274207,
                1.9693297712701783,
                -0.5908366894081236,
                1.3029644953544888,
                -3.118133654870344
            ]
        },
        {
            "positions": [
                -1.673267545331969,
                -1.4183360645798906,
                1.9593340582856396,
                -0.537808947836905,
                1.4683660694094096,
                -3.1169417859057216
            ]
        }
    ]
}