{
    "goal": {
        "global_pose": {
            "orientation": {
                "w": 0.7047431468963623,
                "x": -0.7094548344612122,
                "y": 0.0024358443915843964,
                "z": -0.0022348060738295317
            },
            "position": {
                "x": 0.6094750761985779,
                "y": 0.3671506643295288,
                "z": 0.19426114857196808
            }
        },
        "name": "move_to_magneteinheit_A"
    },
    "id": "BiTRRT_move_to_magneteinheit_A_147",
    "joint_names": [
        "shoulder_pan_joint",
        "shoulder_lift_joint",
        "elbow_joint",
        "wrist_1_joint",
        "wrist_2_joint",
        "wrist_3_joint"
    ],
    "metrics": {
        "cart_traj_len": 3.532095179103319,
        "distance_elbow_joint": 3.923730261008811,
        "distance_shoulder_lift_joint": 1.1390289891913827,
        "distance_shoulder_pan_joint": 2.857443094505158,
        "distance_wrist_1_joint": 3.5010847181249263,
        "distance_wrist_2_joint": 1.751637253262561,
        "distance_wrist_3_joint": 0.8570455330268051,
        "smoothness": 0.3117082525736991,
        "time": 0.08377305700000001,
        "traj_len": 3.7456601352925287,
        "weighted_distance": 4.582224665657583
    },
    "planner": "BiTRRT",
    "start": {
        "state": {
            "elbow_joint": -1.9196185241190666,
            "shoulder_lift_joint": -1.2443396400964142,
            "shoulder_pan_joint": 2.6996025414629847,
            "wrist_1_joint": -1.5485510000780065,
            "wrist_2_joint": -1.5709468930060704,
            "wrist_3_joint": 0.4420197071253992
        }
    },
    "waypoints": [
        {
            "positions": [
                2.6996025414629847,
                -1.2443396400964142,
                -1.9196185241190666,
                -1.5485510000780065,
                -1.5709468930060704,
                0.4420197071253992
            ]
        },
        {
            "positions": [
                2.595443654002832,
                -1.2161633687674676,
                -1.8330810409504126,
                -1.4731320197835491,
                -1.50412598661877,
                0.41285257846249424
            ]
        },
        {
            "positions": [
                2.491284766542679,
                -1.1879870974385212,
                -1.7465435577817585,
                -1.3977130394890918,
                -1.4373050802314693,
                0.38368544979958924
            ]
        },
        {
            "positions": [
                2.387125879082526,
                -1.1598108261095745,
                -1.6600060746131047,
                -1.3222940591946344,
                -1.3704841738441689,
                0.3545183211366843
            ]
        },
        {
            "positions": [
                2.282966991622373,
                -1.1316345547806281,
                -1.5734685914444506,
                -1.246875078900177,
                -1.3036632674568684,
                0.3253511924737793
            ]
        },
        {
            "positions": [
                2.1788081041622203,
                -1.1034582834516815,
                -1.4869311082757966,
                -1.1714560986057196,
                -1.2368423610695678,
                0.29618406381087437
            ]
        },
        {
            "positions": [
                2.074649216702068,
                -1.075282012122735,
                -1.4003936251071427,
                -1.0960371183112623,
                -1.1700214546822674,
                0.2670169351479694
            ]
        },
        {
            "positions": [
                1.9704903292419147,
                -1.0471057407937885,
                -1.3138561419384884,
                -1.020618138016805,
                -1.103200548294967,
                0.2378498064850644
            ]
        },
        {
            "positions": [
                1.866331441781762,
                -1.018929469464842,
                -1.2273186587698346,
                -0.9451991577223474,
                -1.0363796419076663,
                0.20868267782215946
            ]
        },
        {
            "positions": [
                1.7621725543216091,
                -0.9907531981358955,
                -1.1407811756011805,
                -0.86978017742789,
                -0.9695587355203659,
                0.1795155491592545
            ]
        },
        {
            "positions": [
                1.6580136668614562,
                -0.962576926806949,
                -1.0542436924325265,
                -0.7943611971334327,
                -0.9027378291330653,
                0.15034842049634956
            ]
        },
        {
            "positions": [
                1.5538547794013033,
                -0.9344006554780024,
                -0.9677062092638725,
                -0.7189422168389753,
                -0.8359169227457648,
                0.12118129183344456
            ]
        },
        {
            "positions": [
                1.4496958919411504,
                -0.9062243841490558,
                -0.8811687260952186,
                -0.6435232365445179,
                -0.7690960163584644,
                0.09201416317053962
            ]
        },
        {
            "positions": [
                1.3455370044809978,
                -0.8780481128201094,
                -0.7946312429265645,
                -0.5681042562500607,
                -0.7022751099711639,
                0.06284703450763468
            ]
        },
        {
            "positions": [
                1.2413781170208447,
                -0.8498718414911628,
                -0.7080937597579104,
                -0.4926852759556031,
                -0.6354542035838633,
                0.03367990584472963
            ]
        },
        {
            "positions": [
                1.137219229560692,
                -0.8216955701622163,
                -0.6215562765892564,
                -0.4172662956611457,
                -0.5686332971965629,
                0.00451277718182469
            ]
        },
        {
            "positions": [
                1.033060342100539,
                -0.7935192988332698,
                -0.5350187934206025,
                -0.34184731536668833,
                -0.5018123908092624,
                -0.02465435148108025
            ]
        },
        {
            "positions": [
                0.9289014546403862,
                -0.7653430275043233,
                -0.4484813102519485,
                -0.2664283350722312,
                -0.4349914844219618,
                -0.05382148014398519
            ]
        },
        {
            "positions": [
                0.8247425671802333,
                -0.7371667561753766,
                -0.3619438270832944,
                -0.1910093547777736,
                -0.36817057803466136,
                -0.08298860880689019
            ]
        },
        {
            "positions": [
                0.7205836797200804,
                -0.7089904848464301,
                -0.27540634391464036,
                -0.11559037448331622,
                -0.3013496716473607,
                -0.11215573746979512
            ]
        },
        {
            "positions": [
                0.6164247922599277,
                -0.6808142135174837,
                -0.18886886074598652,
                -0.040171394188858844,
                -0.23452876526006028,
                -0.14132286613270006
            ]
        },
        {
            "positions": [
                0.5122659047997749,
                -0.6526379421885372,
                -0.10233137757733246,
                0.035247586105598305,
                -0.16770785887275985,
                -0.170489994795605
            ]
        },
        {
            "positions": [
                0.40810701733962196,
                -0.6244616708595906,
                -0.0157938944086784,
                0.1106665664000559,
                -0.1008869524854592,
                -0.19965712345851006
            ]
        },
        {
            "positions": [
                0.30394812987946906,
                -0.5962853995306441,
                0.07074358875997577,
                0.18608554669451322,
                -0.03406604609815877,
                -0.22882425212141502
            ]
        },
        {
            "positions": [
                0.27178191880793845,
                -0.6300914475051046,
                0.2306761100932639,
                0.3034130370381633,
                -0.049513685795706384,
                -0.222793631634049
            ]
        },
        {
            "positions": [
                0.23961570773640783,
                -0.6638974954795651,
                0.390608631426552,
                0.4207405273818134,
                -0.06496132549325401,
                -0.21676301114668298
            ]
        },
        {
            "positions": [
                0.20744949666487722,
                -0.6977035434540257,
                0.5505411527598401,
                0.5380680177254635,
                -0.08040896519080162,
                -0.21073239065931695
            ]
        },
        {
            "positions": [
                0.17528328559334658,
                -0.7315095914284863,
                0.7104736740931282,
                0.6553955080691136,
                -0.09585660488834924,
                -0.2047017701719509
            ]
        },
        {
            "positions": [
                0.14311707452181596,
                -0.7653156394029468,
                0.8704061954264163,
                0.7727229984127637,
                -0.11130424458589686,
                -0.19867114968458488
            ]
        },
        {
            "positions": [
                0.11095086345028535,
                -0.7991216873774073,
                1.0303387167597045,
                0.8900504887564138,
                -0.12675188428344447,
                -0.19264052919721886
            ]
        },
        {
            "positions": [
                0.07878465237875473,
                -0.8329277353518678,
                1.1902712380929925,
                1.0073779791000639,
                -0.1421995239809921,
                -0.18660990870985283
            ]
        },
        {
            "positions": [
                0.04661844130722409,
                -0.8667337833263284,
                1.3502037594262806,
                1.124705469443714,
                -0.1576471636785397,
                -0.1805792882224868
            ]
        },
        {
            "positions": [
                0.014452230235693475,
                -0.900539831300789,
                1.5101362807595686,
                1.242032959787364,
                -0.17309480337608732,
                -0.1745486677351208
            ]
        },
        {
            "positions": [
                -0.01771398083583714,
                -0.9343458792752495,
                1.670068802092857,
                1.3593604501310141,
                -0.18854244307363494,
                -0.16851804724775477
            ]
        },
        {
            "positions": [
                0.017317662215747015,
                -0.8961173120549977,
                1.753579535792079,
                1.5076537671099906,
                -0.17347244072884155,
                -0.1370442050211721
            ]
        },
        {
            "positions": [
                0.05234930526733117,
                -0.8578887448347459,
                1.8370902694913012,
                1.6559470840889672,
                -0.15840243838404813,
                -0.10557036279458944
            ]
        },
        {
            "positions": [
                0.08738094831891532,
                -0.819660177614494,
                1.9206010031905232,
                1.8042404010679438,
                -0.14333243603925472,
                -0.07409652056800678
            ]
        },
        {
            "positions": [
                0.12241259137049948,
                -0.7814316103942421,
                2.004111736889745,
                1.9525337180469202,
                -0.12826243369446133,
                -0.0426226783414241
            ]
        }
    ]
}