{
    "goal": {
        "global_pose": {
            "orientation": {
                "w": -0.4816463035849501,
                "x": 0.5182115481033762,
                "y": 0.4908360881923453,
                "z": -0.5084816262002911
            },
            "position": {
                "x": -0.8240239810943604,
                "y": -0.300875300988555,
                "z": 0.16403168439865112
            }
        },
        "name": "move_to_storage_C"
    },
    "id": "BiTRRT_move_to_storage_C_39",
    "joint_names": [
        "shoulder_pan_joint",
        "shoulder_lift_joint",
        "elbow_joint",
        "wrist_1_joint",
        "wrist_2_joint",
        "wrist_3_joint"
    ],
    "metrics": {
        "cart_traj_len": 0.5765054445280642,
        "distance_elbow_joint": 0.25879511452839665,
        "distance_shoulder_lift_joint": 0.18894427550455273,
        "distance_shoulder_pan_joint": 0.49485677500570135,
        "distance_wrist_1_joint": 0.08646292853129689,
        "distance_wrist_2_joint": 1.0694010129317135,
        "distance_wrist_3_joint": 0.07186250503218528,
        "smoothness": 0.0,
        "time": 0.019990434,
        "traj_len": 1.4732014836857334,
        "weighted_distance": 1.8627698631503644
    },
    "planner": "BiTRRT",
    "start": {
        "state": {
            "elbow_joint": 2.010868314990456,
            "shoulder_lift_joint": -1.1634956873337592,
            "shoulder_pan_joint": -2.4736205022346125,
            "wrist_1_joint": -0.8367026794202681,
            "wrist_2_joint": 0.6746043897044499,
            "wrist_3_joint": -3.1496632123970403
        }
    },
    "waypoints": [
        {
            "positions": [
                -2.4736205022346125,
                -1.1634956873337592,
                2.010868314990456,
                -0.8367026794202681,
                0.6746043897044499,
                -3.1496632123970403
            ]
        },
        {
            "positions": [
                -2.5560966314022293,
                -1.132004974749667,
                1.9677357959023898,
                -0.8222921913317186,
                0.8528378918597355,
                -3.1376861282250093
            ]
        },
        {
            "positions": [
                -2.638572760569846,
                -1.100514262165575,
                1.9246032768143235,
                -0.8078817032431691,
                1.0310713940150211,
                -3.1257090440529787
            ]
        },
        {
            "positions": [
                -2.721048889737463,
                -1.0690235495814828,
                1.8814707577262575,
                -0.7934712151546197,
                1.2093048961703068,
                -3.1137319598809476
            ]
        },
        {
            "positions": [
                -2.80352501890508,
                -1.0375328369973906,
                1.8383382386381915,
                -0.7790607270660702,
                1.3875383983255922,
                -3.1017548757089166
            ]
        },
        {
            "positions": [
                -2.886001148072697,
                -1.0060421244132987,
                1.7952057195501252,
                -0.7646502389775207,
                1.5657719004808779,
                -3.089777791536886
            ]
        },
        {
            "positions": [
                -2.968477277240314,
                -0.9745514118292065,
                1.7520732004620592,
                -0.7502397508889712,
                1.7440054026361633,
                -3.077800707364855
            ]
        }
    ]
}