{
    "goal": {
        "global_pose": {
            "orientation": {
                "w": 0.7031023480610252,
                "x": -0.7110244013736278,
                "y": 0.0077485991402295624,
                "z": 0.005598929693374583
            },
            "position": {
                "x": -0.8841497679147869,
                "y": 0.44412534475326537,
                "z": 0.3711530566215515
            }
        },
        "name": "move_to_auspresseinheit_D"
    },
    "id": "BiTRRT_move_to_auspresseinheit_D_133",
    "joint_names": [
        "shoulder_pan_joint",
        "shoulder_lift_joint",
        "elbow_joint",
        "wrist_1_joint",
        "wrist_2_joint",
        "wrist_3_joint"
    ],
    "metrics": {
        "cart_traj_len": 0.34366368151377313,
        "distance_elbow_joint": 0.6384850596785849,
        "distance_shoulder_lift_joint": 0.12148808653759824,
        "distance_shoulder_pan_joint": 0.13459168709400932,
        "distance_wrist_1_joint": 0.5262100862237018,
        "distance_wrist_2_joint": 1.4425109108751457,
        "distance_wrist_3_joint": 0.007451261665293973,
        "smoothness": 1.1842378929335002e-15,
        "time": 0.037450579,
        "traj_len": 1.6943249664908837,
        "weighted_distance": 2.2032613581923886
    },
    "planner": "BiTRRT",
    "start": {
        "state": {
            "elbow_joint": -1.8275523626775212,
            "shoulder_lift_joint": -2.126789852344167,
            "shoulder_pan_joint": -0.03513704404078235,
            "wrist_1_joint": -2.347782403156801,
            "wrist_2_joint": -1.6058999987535132,
            "wrist_3_joint": -3.0880379163319196
        }
    },
    "waypoints": [
        {
            "positions": [
                -0.03513704404078235,
                -2.126789852344167,
                -1.8275523626775212,
                -2.347782403156801,
                -1.6058999987535132,
                -3.0880379163319196
            ]
        },
        {
            "positions": [
                -0.05196100492753351,
                -2.141975863161367,
                -1.747741730217698,
                -2.4135586639347637,
                -1.42558613489412,
                -3.0889693240400815
            ]
        },
        {
            "positions": [
                -0.06878496581428467,
                -2.1571618739785663,
                -1.667931097757875,
                -2.4793349247127265,
                -1.2452722710347268,
                -3.089900731748243
            ]
        },
        {
            "positions": [
                -0.08560892670103584,
                -2.1723478847957662,
                -1.5881204652980518,
                -2.545111185490689,
                -1.0649584071753335,
                -3.090832139456405
            ]
        },
        {
            "positions": [
                -0.10243288758778701,
                -2.187533895612966,
                -1.5083098328382287,
                -2.6108874462686518,
                -0.8846445433159403,
                -3.0917635471645664
            ]
        },
        {
            "positions": [
                -0.11925684847453819,
                -2.2027199064301657,
                -1.4284992003784056,
                -2.6766637070466146,
                -0.7043306794565471,
                -3.0926949548727283
            ]
        },
        {
            "positions": [
                -0.13608080936128933,
                -2.2179059172473656,
                -1.3486885679185825,
                -2.742439967824577,
                -0.5240168155971539,
                -3.09362636258089
            ]
        },
        {
            "positions": [
                -0.1529047702480405,
                -2.233091928064565,
                -1.2688779354587594,
                -2.80821622860254,
                -0.3437029517377608,
                -3.0945577702890517
            ]
        },
        {
            "positions": [
                -0.16972873113479167,
                -2.248277938881765,
                -1.1890673029989363,
                -2.8739924893805027,
                -0.16338908787836748,
                -3.0954891779972136
            ]
        }
    ]
}