{
    "goal": {
        "global_pose": {
            "orientation": {
                "w": 0.7047431468963623,
                "x": -0.7094548344612122,
                "y": 0.0024358443915843964,
                "z": -0.0022348060738295317
            },
            "position": {
                "x": 0.6094750761985779,
                "y": 0.3671506643295288,
                "z": 0.19426114857196808
            }
        },
        "name": "move_to_magneteinheit_A"
    },
    "id": "BiTRRT_move_to_magneteinheit_A_37",
    "joint_names": [
        "shoulder_pan_joint",
        "shoulder_lift_joint",
        "elbow_joint",
        "wrist_1_joint",
        "wrist_2_joint",
        "wrist_3_joint"
    ],
    "metrics": {
        "cart_traj_len": 4.74947247318093,
        "distance_elbow_joint": 3.9454752519393503,
        "distance_shoulder_lift_joint": 2.01540908352328,
        "distance_shoulder_pan_joint": 8.044926494262448,
        "distance_wrist_1_joint": 3.7383630862690156,
        "distance_wrist_2_joint": 1.4507335189169952,
        "distance_wrist_3_joint": 3.143090844735158,
        "smoothness": 0.2708148954748169,
        "time": 0.09560881800000001,
        "traj_len": 4.726309160396329,
        "weighted_distance": 5.81491844949717
    },
    "planner": "BiTRRT",
    "start": {
        "state": {
            "elbow_joint": -1.9196185241190666,
            "shoulder_lift_joint": -1.2443396400964142,
            "shoulder_pan_joint": 2.6996025414629847,
            "wrist_1_joint": -1.5485510000780065,
            "wrist_2_joint": -1.5709468930060704,
            "wrist_3_joint": 0.4420197071253992
        }
    },
    "waypoints": [
        {
            "positions": [
                2.6996025414629847,
                -1.2443396400964142,
                -1.9196185241190666,
                -1.5485510000780065,
                -1.5709468930060704,
                0.4420197071253992
            ]
        },
        {
            "positions": [
                2.52255904783632,
                -1.2703809021714612,
                -1.8209840491560887,
                -1.5510149371730886,
                -1.5448070802630456,
                0.37987952507003814
            ]
        },
        {
            "positions": [
                2.3455155542096553,
                -1.296422164246508,
                -1.7223495741931107,
                -1.5534788742681707,
                -1.5186672675200208,
                0.31773934301467716
            ]
        },
        {
            "positions": [
                2.1684720605829906,
                -1.322463426321555,
                -1.6237150992301328,
                -1.555942811363253,
                -1.4925274547769962,
                0.2555991609593161
            ]
        },
        {
            "positions": [
                1.9914285669563259,
                -1.3485046883966019,
                -1.525080624267155,
                -1.558406748458335,
                -1.4663876420339714,
                0.1934589789039551
            ]
        },
        {
            "positions": [
                1.8143850733296614,
                -1.3745459504716486,
                -1.4264461493041771,
                -1.5608706855534171,
                -1.4402478292909466,
                0.1313187968485941
            ]
        },
        {
            "positions": [
                1.6373415797029967,
                -1.4005872125466956,
                -1.3278116743411992,
                -1.5633346226484992,
                -1.4141080165479218,
                0.06917861479323306
            ]
        },
        {
            "positions": [
                1.460298086076332,
                -1.4266284746217426,
                -1.2291771993782215,
                -1.5657985597435813,
                -1.3879682038048973,
                0.007038432737872025
            ]
        },
        {
            "positions": [
                1.2832545924496672,
                -1.4526697366967893,
                -1.1305427244152435,
                -1.5682624968386636,
                -1.3618283910618725,
                -0.05510174931748896
            ]
        },
        {
            "positions": [
                1.1062110988230025,
                -1.4787109987718363,
                -1.0319082494522656,
                -1.5707264339337457,
                -1.3356885783188477,
                -0.11724193137285
            ]
        },
        {
            "positions": [
                0.929167605196338,
                -1.504752260846883,
                -0.9332737744892876,
                -1.5731903710288277,
                -1.3095487655758231,
                -0.17938211342821098
            ]
        },
        {
            "positions": [
                0.7521241115696733,
                -1.53079352292193,
                -0.8346392995263099,
                -1.5756543081239098,
                -1.2834089528327983,
                -0.24152229548357196
            ]
        },
        {
            "positions": [
                0.5750806179430086,
                -1.556834784996977,
                -0.7360048245633317,
                -1.578118245218992,
                -1.2572691400897735,
                -0.30366247753893305
            ]
        },
        {
            "positions": [
                0.39803712431634386,
                -1.582876047072024,
                -0.6373703496003538,
                -1.5805821823140742,
                -1.2311293273467487,
                -0.36580265959429414
            ]
        },
        {
            "positions": [
                0.22099363068967914,
                -1.6089173091470708,
                -0.538735874637376,
                -1.5830461194091563,
                -1.204989514603724,
                -0.4279428416496551
            ]
        },
        {
            "positions": [
                0.04395013706301443,
                -1.6349585712221177,
                -0.4401013996743981,
                -1.5855100565042384,
                -1.1788497018606994,
                -0.4900830237050161
            ]
        },
        {
            "positions": [
                -0.1330933565636503,
                -1.6609998332971647,
                -0.34146692471142015,
                -1.5879739935993205,
                -1.1527098891176746,
                -0.5522232057603771
            ]
        },
        {
            "positions": [
                -0.310136850190315,
                -1.6870410953722115,
                -0.24283244974844242,
                -1.5904379306944025,
                -1.1265700763746498,
                -0.6143633878157381
            ]
        },
        {
            "positions": [
                -0.4871803438169797,
                -1.7130823574472585,
                -0.14419797478546448,
                -1.5929018677894848,
                -1.100430263631625,
                -0.6765035698710992
            ]
        },
        {
            "positions": [
                -0.664223837443644,
                -1.7391236195223052,
                -0.04556349982248653,
                -1.595365804884567,
                -1.0742904508886002,
                -0.73864375192646
            ]
        },
        {
            "positions": [
                -0.8412673310703087,
                -1.7651648815973522,
                0.053070975140491417,
                -1.597829741979649,
                -1.0481506381455756,
                -0.8007839339818211
            ]
        },
        {
            "positions": [
                -1.0183108246969734,
                -1.7912061436723992,
                0.15170545010346936,
                -1.600293679074731,
                -1.0220108254025508,
                -0.8629241160371822
            ]
        },
        {
            "positions": [
                -1.1953543183236381,
                -1.817247405747446,
                0.25033992506644687,
                -1.6027576161698132,
                -0.9958710126595262,
                -0.9250642980925431
            ]
        },
        {
            "positions": [
                -1.3723978119503033,
                -1.8432886678224931,
                0.34897440002942526,
                -1.6052215532648955,
                -0.9697311999165013,
                -0.9872044801479044
            ]
        },
        {
            "positions": [
                -1.5494413055769676,
                -1.8693299298975399,
                0.4476088749924032,
                -1.6076854903599775,
                -0.9435913871734766,
                -1.0493446622032652
            ]
        },
        {
            "positions": [
                -1.7264847992036327,
                -1.8953711919725869,
                0.5462433499553812,
                -1.6101494274550596,
                -0.9174515744304518,
                -1.1114848442586265
            ]
        },
        {
            "positions": [
                -1.903528292830297,
                -1.9214124540476338,
                0.6448778249183591,
                -1.6126133645501417,
                -0.8913117616874271,
                -1.1736250263139874
            ]
        },
        {
            "positions": [
                -2.080571786456962,
                -1.9474537161226806,
                0.7435122998813366,
                -1.6150773016452238,
                -0.8651719489444023,
                -1.2357652083693482
            ]
        },
        {
            "positions": [
                -2.2576152800836264,
                -1.9734949781977273,
                0.8421467748443145,
                -1.617541238740306,
                -0.8390321362013776,
                -1.2979053904247095
            ]
        },
        {
            "positions": [
                -2.4346587737102916,
                -1.9995362402727745,
                0.9407812498072925,
                -1.6200051758353882,
                -0.8128923234583528,
                -1.3600455724800704
            ]
        },
        {
            "positions": [
                -2.6117022673369554,
                -2.0255775023478213,
                1.0394157247702704,
                -1.6224691129304702,
                -0.7867525107153281,
                -1.4221857545354313
            ]
        },
        {
            "positions": [
                -2.510457019727233,
                -1.9798674571155297,
                1.0759505767350859,
                -1.4867489287298572,
                -0.7620658760254669,
                -1.3748196292363821
            ]
        },
        {
            "positions": [
                -2.409211772117511,
                -1.934157411883238,
                1.112485428699901,
                -1.3510287445292442,
                -0.7373792413356057,
                -1.327453503937333
            ]
        },
        {
            "positions": [
                -2.3079665245077883,
                -1.8884473666509465,
                1.1490202806647165,
                -1.2153085603286313,
                -0.7126926066457444,
                -1.2800873786382838
            ]
        },
        {
            "positions": [
                -2.206721276898066,
                -1.8427373214186549,
                1.1855551326295317,
                -1.0795883761280183,
                -0.6880059719558832,
                -1.2327212533392347
            ]
        },
        {
            "positions": [
                -2.1054760292883437,
                -1.7970272761863635,
                1.2220899845943471,
                -0.9438681919274052,
                -0.663319337266022,
                -1.1853551280401855
            ]
        },
        {
            "positions": [
                -2.004230781678621,
                -1.7513172309540719,
                1.2586248365591626,
                -0.8081480077267922,
                -0.6386327025761608,
                -1.1379890027411363
            ]
        },
        {
            "positions": [
                -1.902985534068899,
                -1.7056071857217803,
                1.2951596885239778,
                -0.6724278235261792,
                -0.6139460678862996,
                -1.090622877442087
            ]
        },
        {
            "positions": [
                -1.8017402864591765,
                -1.6598971404894887,
                1.3316945404887932,
                -0.5367076393255661,
                -0.5892594331964383,
                -1.0432567521430378
            ]
        },
        {
            "positions": [
                -1.7004950388494542,
                -1.614187095257197,
                1.3682293924536084,
                -0.40098745512495326,
                -0.564572798506577,
                -0.9958906268439887
            ]
        },
        {
            "positions": [
                -1.5992497912397319,
                -1.5684770500249055,
                1.4047642444184238,
                -0.2652672709243402,
                -0.5398861638167158,
                -0.9485245015449395
            ]
        },
        {
            "positions": [
                -1.4980045436300093,
                -1.5227670047926138,
                1.441299096383239,
                -0.12954708672372717,
                -0.5151995291268545,
                -0.9011583762458903
            ]
        },
        {
            "positions": [
                -1.396759296020287,
                -1.4770569595603225,
                1.4778339483480545,
                0.00617309747688588,
                -0.49051289443699336,
                -0.8537922509468412
            ]
        },
        {
            "positions": [
                -1.2955140484105647,
                -1.4313469143280306,
                1.51436880031287,
                0.14189328167749893,
                -0.46582625974713215,
                -0.8064261256477919
            ]
        },
        {
            "positions": [
                -1.1942688008008424,
                -1.3856368690957392,
                1.5509036522776851,
                0.27761346587811175,
                -0.4411396250572709,
                -0.7590600003487428
            ]
        },
        {
            "positions": [
                -1.0930235531911199,
                -1.3399268238634474,
                1.5874385042425005,
                0.413333650078725,
                -0.4164529903674096,
                -0.7116938750496935
            ]
        },
        {
            "positions": [
                -0.9917783055813976,
                -1.294216778631156,
                1.623973356207316,
                0.5490538342793381,
                -0.3917663556775484,
                -0.6643277497506445
            ]
        },
        {
            "positions": [
                -0.890533057971675,
                -1.2485067333988644,
                1.6605082081721312,
                0.6847740184799511,
                -0.36707972098768715,
                -0.6169616244515952
            ]
        },
        {
            "positions": [
                -0.789287810361953,
                -1.2027966881665728,
                1.6970430601369464,
                0.8204942026805637,
                -0.34239308629782594,
                -0.569595499152546
            ]
        },
        {
            "positions": [
                -0.6880425627522304,
                -1.1570866429342812,
                1.733577912101762,
                0.9562143868811772,
                -0.3177064516079647,
                -0.5222293738534969
            ]
        },
        {
            "positions": [
                -0.5867973151425083,
                -1.1113765977019896,
                1.7701127640665772,
                1.0919345710817898,
                -0.2930198169181035,
                -0.4748632485544477
            ]
        },
        {
            "positions": [
                -0.4855520675327858,
                -1.0656665524696982,
                1.8066476160313925,
                1.2276547552824033,
                -0.2683331822282422,
                -0.42749712325539846
            ]
        },
        {
            "positions": [
                -0.38430681992306326,
                -1.0199565072374066,
                1.8431824679962079,
                1.363374939483016,
                -0.243646547538381,
                -0.3801309979563494
            ]
        },
        {
            "positions": [
                -0.2830615723133407,
                -0.974246462005115,
                1.8797173199610233,
                1.499095123683629,
                -0.2189599128485198,
                -0.33276487265730004
            ]
        },
        {
            "positions": [
                -0.18181632470361864,
                -0.9285364167728234,
                1.9162521719258385,
                1.634815307884242,
                -0.19427327815865858,
                -0.2853987473582511
            ]
        },
        {
            "positions": [
                -0.0805710770938961,
                -0.8828263715405318,
                1.952787023890654,
                1.770535492084855,
                -0.16958664346879726,
                -0.23803262205920173
            ]
        },
        {
            "positions": [
                0.020674170515825985,
                -0.8371163263082402,
                1.9893218758554692,
                1.906255676285468,
                -0.14490000877893616,
                -0.19066649676015257
            ]
        },
        {
            "positions": [
                0.12191941812554868,
                -0.7914062810759486,
                2.0258567278202846,
                2.0419758604860814,
                -0.12021337408907483,
                -0.1433003714611035
            ]
        }
    ]
}