{
    "goal": {
        "global_pose": {
            "orientation": {
                "w": 0.005598929693374612,
                "x": 0.007748599140229565,
                "y": 0.7110244013736278,
                "z": -0.7031023480610252
            },
            "position": {
                "x": 0.1141497679147869,
                "y": -0.7141253447532654,
                "z": 0.3711530566215515
            }
        },
        "name": "move_to_auspresseinheit_B"
    },
    "id": "BiTRRT_move_to_auspresseinheit_B_45",
    "joint_names": [
        "shoulder_pan_joint",
        "shoulder_lift_joint",
        "elbow_joint",
        "wrist_1_joint",
        "wrist_2_joint",
        "wrist_3_joint"
    ],
    "metrics": {
        "cart_traj_len": 0.5647655838707161,
        "distance_elbow_joint": 0.06604975296154447,
        "distance_shoulder_lift_joint": 0.29456106311644437,
        "distance_shoulder_pan_joint": 0.5760898545916269,
        "distance_wrist_1_joint": 0.33858519934027753,
        "distance_wrist_2_joint": 0.9972631921699922,
        "distance_wrist_3_joint": 0.0005998716745314603,
        "smoothness": 3.806478935924272e-16,
        "time": 0.033181963,
        "traj_len": 1.5076965655775756,
        "weighted_distance": 1.9000518594800904
    },
    "planner": "BiTRRT",
    "start": {
        "state": {
            "elbow_joint": 2.0193083361928714,
            "shoulder_lift_joint": -1.1220246554650708,
            "shoulder_pan_joint": -1.0952077554168747,
            "wrist_1_joint": -0.8559753972642168,
            "wrist_2_joint": 0.4759566250798843,
            "wrist_3_joint": -3.1240929996934557
        }
    },
    "waypoints": [
        {
            "positions": [
                -1.0952077554168747,
                -1.1220246554650708,
                2.0193083361928714,
                -0.8559753972642168,
                0.4759566250798843,
                -3.1240929996934557
            ]
        },
        {
            "positions": [
                -1.1912227311821457,
                -1.1711181659844783,
                2.008300044032614,
                -0.7995445307075039,
                0.6421671571082164,
                -3.1241929783058775
            ]
        },
        {
            "positions": [
                -1.287237706947417,
                -1.2202116765038855,
                1.9972917518723565,
                -0.7431136641507909,
                0.8083776891365484,
                -3.1242929569182993
            ]
        },
        {
            "positions": [
                -1.383252682712688,
                -1.269305187023293,
                1.9862834597120993,
                -0.686682797594078,
                0.9745882211648804,
                -3.1243929355307216
            ]
        },
        {
            "positions": [
                -1.4792676584779592,
                -1.3183986975427004,
                1.9752751675518418,
                -0.6302519310373651,
                1.1407987531932124,
                -3.1244929141431435
            ]
        },
        {
            "positions": [
                -1.5752826342432305,
                -1.3674922080621077,
                1.9642668753915844,
                -0.5738210644806522,
                1.3070092852215445,
                -3.1245928927555653
            ]
        },
        {
            "positions": [
                -1.6712976100085015,
                -1.4165857185815152,
                1.953258583231327,
                -0.5173901979239393,
                1.4732198172498765,
                -3.124692871367987
            ]
        }
    ]
}