{
    "goal": {
        "global_pose": {
            "orientation": {
                "w": 0.005598929693374612,
                "x": 0.007748599140229565,
                "y": 0.7110244013736278,
                "z": -0.7031023480610252
            },
            "position": {
                "x": -0.8858502320852131,
                "y": -0.7141253447532654,
                "z": 0.3711530566215515
            }
        },
        "name": "move_to_auspresseinheit_C"
    },
    "id": "BiTRRT_move_to_auspresseinheit_C_74",
    "joint_names": [
        "shoulder_pan_joint",
        "shoulder_lift_joint",
        "elbow_joint",
        "wrist_1_joint",
        "wrist_2_joint",
        "wrist_3_joint"
    ],
    "metrics": {
        "cart_traj_len": 0.493407247729481,
        "distance_elbow_joint": 0.99058391619414,
        "distance_shoulder_lift_joint": 0.3207011383334486,
        "distance_shoulder_pan_joint": 0.25721457433342687,
        "distance_wrist_1_joint": 0.6541837277449416,
        "distance_wrist_2_joint": 1.3099095911718979,
        "distance_wrist_3_joint": 0.04097333524545688,
        "smoothness": 4.844609600361787e-16,
        "time": 0.062036930000000004,
        "traj_len": 1.8903878657628206,
        "weighted_distance": 2.3705708747959986
    },
    "planner": "BiTRRT",
    "start": {
        "state": {
            "elbow_joint": 1.7527959577737207,
            "shoulder_lift_joint": -0.9740617694225068,
            "shoulder_pan_joint": -2.967991417825858,
            "wrist_1_joint": -0.759517768980727,
            "wrist_2_joint": 1.7443932448377408,
            "wrist_3_joint": -3.0840537646736568
        }
    },
    "waypoints": [
        {
            "positions": [
                -2.967991417825858,
                -0.9740617694225068,
                1.7527959577737207,
                -0.759517768980727,
                1.7443932448377408,
                -3.0840537646736568
            ]
        },
        {
            "positions": [
                -2.9422699603925153,
                -0.9419916555891619,
                1.6537375661543066,
                -0.6940993962062328,
                1.613402285720551,
                -3.0881510981982023
            ]
        },
        {
            "positions": [
                -2.9165485029591727,
                -0.9099215417558171,
                1.5546791745348927,
                -0.6286810234317386,
                1.4824113266033612,
                -3.0922484317227483
            ]
        },
        {
            "positions": [
                -2.89082704552583,
                -0.8778514279224722,
                1.4556207829154788,
                -0.5632626506572445,
                1.3514203674861716,
                -3.096345765247294
            ]
        },
        {
            "positions": [
                -2.8651055880924874,
                -0.8457813140891273,
                1.3565623912960647,
                -0.4978442778827503,
                1.2204294083689815,
                -3.1004430987718394
            ]
        },
        {
            "positions": [
                -2.8393841306591447,
                -0.8137112002557825,
                1.2575039996766506,
                -0.4324259051082562,
                1.089438449251792,
                -3.1045404322963854
            ]
        },
        {
            "positions": [
                -2.8136626732258017,
                -0.7816410864224377,
                1.1584456080572367,
                -0.36700753233376204,
                0.9584474901346022,
                -3.108637765820931
            ]
        },
        {
            "positions": [
                -2.787941215792459,
                -0.7495709725890928,
                1.0593872164378229,
                -0.3015891595592679,
                0.8274565310174123,
                -3.1127350993454765
            ]
        },
        {
            "positions": [
                -2.7622197583591164,
                -0.7175008587557479,
                0.9603288248184086,
                -0.23617078678477366,
                0.6964655719002224,
                -3.116832432870022
            ]
        },
        {
            "positions": [
                -2.7364983009257737,
                -0.6854307449224031,
                0.8612704331989947,
                -0.17075241401027952,
                0.5654746127830328,
                -3.120929766394568
            ]
        },
        {
            "positions": [
                -2.710776843492431,
                -0.6533606310890582,
                0.7622120415795807,
                -0.10533404123578541,
                0.4344836536658429,
                -3.1250270999191136
            ]
        }
    ]
}