{
    "goal": {
        "global_pose": {
            "orientation": {
                "w": 0.7047431468963623,
                "x": -0.7094548344612122,
                "y": 0.0024358443915843964,
                "z": -0.0022348060738295317
            },
            "position": {
                "x": 0.6094750761985779,
                "y": 0.3671506643295288,
                "z": 0.19426114857196808
            }
        },
        "name": "move_to_magneteinheit_A"
    },
    "id": "BiTRRT_move_to_magneteinheit_A_10",
    "joint_names": [
        "shoulder_pan_joint",
        "shoulder_lift_joint",
        "elbow_joint",
        "wrist_1_joint",
        "wrist_2_joint",
        "wrist_3_joint"
    ],
    "metrics": {
        "cart_traj_len": 3.812947323781798,
        "distance_elbow_joint": 4.785084970308656,
        "distance_shoulder_lift_joint": 0.8385358605810492,
        "distance_shoulder_pan_joint": 3.745671935639324,
        "distance_wrist_1_joint": 3.4580935458168494,
        "distance_wrist_2_joint": 1.7883721511006558,
        "distance_wrist_3_joint": 0.5344164621753377,
        "smoothness": 0.4607961597619908,
        "time": 0.136132506,
        "traj_len": 3.8923225618673842,
        "weighted_distance": 4.63308466865112
    },
    "planner": "BiTRRT",
    "start": {
        "state": {
            "elbow_joint": -1.9196185241190666,
            "shoulder_lift_joint": -1.2443396400964142,
            "shoulder_pan_joint": 2.6996025414629847,
            "wrist_1_joint": -1.5485510000780065,
            "wrist_2_joint": -1.5709468930060704,
            "wrist_3_joint": 0.4420197071253992
        }
    },
    "waypoints": [
        {
            "positions": [
                2.6996025414629847,
                -1.2443396400964142,
                -1.9196185241190666,
                -1.5485510000780065,
                -1.5709468930060704,
                0.4420197071253992
            ]
        },
        {
            "positions": [
                2.5865901317256954,
                -1.2238949698593857,
                -1.8162945479152224,
                -1.457662156408456,
                -1.5227900633238973,
                0.43472900126974307
            ]
        },
        {
            "positions": [
                2.4735777219884065,
                -1.2034502996223575,
                -1.7129705717113783,
                -1.3667733127389055,
                -1.4746332336417243,
                0.4274382954140869
            ]
        },
        {
            "positions": [
                2.360565312251117,
                -1.183005629385329,
                -1.609646595507534,
                -1.275884469069355,
                -1.4264764039595512,
                0.4201475895584308
            ]
        },
        {
            "positions": [
                2.2475529025138283,
                -1.1625609591483008,
                -1.50632261930369,
                -1.1849956253998042,
                -1.3783195742773782,
                0.4128568837027746
            ]
        },
        {
            "positions": [
                2.134540492776539,
                -1.1421162889112724,
                -1.4029986430998458,
                -1.0941067817302539,
                -1.3301627445952051,
                0.4055661778471185
            ]
        },
        {
            "positions": [
                2.02152808303925,
                -1.1216716186742441,
                -1.2996746668960015,
                -1.0032179380607031,
                -1.282005914913032,
                0.39827547199146235
            ]
        },
        {
            "positions": [
                1.9085156733019608,
                -1.1012269484372157,
                -1.1963506906921575,
                -0.9123290943911527,
                -1.233849085230859,
                0.39098476613580624
            ]
        },
        {
            "positions": [
                1.7955032635646717,
                -1.0807822782001875,
                -1.0930267144883132,
                -0.8214402507216021,
                -1.185692255548686,
                0.3836940602801501
            ]
        },
        {
            "positions": [
                1.6824908538273826,
                -1.060337607963159,
                -0.989702738284469,
                -0.7305514070520516,
                -1.137535425866513,
                0.37640335442449396
            ]
        },
        {
            "positions": [
                1.5694784440900935,
                -1.0398929377261308,
                -0.8863787620806249,
                -0.639662563382501,
                -1.0893785961843399,
                0.36911264856883785
            ]
        },
        {
            "positions": [
                1.4564660343528044,
                -1.0194482674891023,
                -0.7830547858767807,
                -0.5487737197129505,
                -1.0412217665021668,
                0.3618219427131817
            ]
        },
        {
            "positions": [
                1.3434536246155153,
                -0.9990035972520741,
                -0.6797308096729366,
                -0.4578848760434,
                -0.9930649368199937,
                0.3545312368575256
            ]
        },
        {
            "positions": [
                1.230441214878226,
                -0.9785589270150457,
                -0.5764068334690922,
                -0.3669960323738495,
                -0.9449081071378207,
                0.3472405310018694
            ]
        },
        {
            "positions": [
                1.1174288051409371,
                -0.9581142567780174,
                -0.4730828572652481,
                -0.27610718870429896,
                -0.8967512774556476,
                0.3399498251462133
            ]
        },
        {
            "positions": [
                1.004416395403648,
                -0.937669586540989,
                -0.3697588810614041,
                -0.18521834503474843,
                -0.8485944477734746,
                0.33265911929055714
            ]
        },
        {
            "positions": [
                0.8914039856663587,
                -0.9172249163039606,
                -0.26643490485755983,
                -0.09432950136519769,
                -0.8004376180913015,
                0.325368413434901
            ]
        },
        {
            "positions": [
                0.7783915759290698,
                -0.8967802460669323,
                -0.16311092865371557,
                -0.0034406576956473867,
                -0.7522807884091285,
                0.31807770757924486
            ]
        },
        {
            "positions": [
                0.6653791661917805,
                -0.876335575829904,
                -0.05978695244987131,
                0.08744818597390336,
                -0.7041239587269554,
                0.31078700172358875
            ]
        },
        {
            "positions": [
                0.5523667564544916,
                -0.8558909055928756,
                0.043537023753972726,
                0.17833702964345388,
                -0.6559671290447824,
                0.3034962958679326
            ]
        },
        {
            "positions": [
                0.4393543467172023,
                -0.8354462353558473,
                0.14686099995781676,
                0.2692258733130044,
                -0.6078102993626093,
                0.2962055900122765
            ]
        },
        {
            "positions": [
                0.326341936979913,
                -0.8150015651188189,
                0.25018497616166124,
                0.3601147169825549,
                -0.5596534696804363,
                0.28891488415662037
            ]
        },
        {
            "positions": [
                0.21332952724262394,
                -0.7945568948817906,
                0.35350895236550545,
                0.45100356065210545,
                -0.5114966399982631,
                0.2816241783009642
            ]
        },
        {
            "positions": [
                0.15713794629348693,
                -0.8099695764058141,
                0.5263623367302828,
                0.5199074141289046,
                -0.4655320312110449,
                0.2551075707090673
            ]
        },
        {
            "positions": [
                0.10094636534434992,
                -0.8253822579298377,
                0.69921572109506,
                0.5888112676057038,
                -0.4195674224238268,
                0.22859096311717045
            ]
        },
        {
            "positions": [
                0.04475478439521291,
                -0.8407949394538612,
                0.8720691054598375,
                0.657715121082503,
                -0.3736028136366086,
                0.20207435552527356
            ]
        },
        {
            "positions": [
                -0.0114367965539241,
                -0.8562076209778847,
                1.0449224898246148,
                0.726618974559302,
                -0.32763820484939044,
                0.1755577479333767
            ]
        },
        {
            "positions": [
                -0.06762837750306111,
                -0.8716203025019083,
                1.2177758741893923,
                0.7955228280361013,
                -0.28167359606217224,
                0.14904114034147978
            ]
        },
        {
            "positions": [
                -0.12381995845219812,
                -0.8870329840259318,
                1.3906292585541695,
                0.8644266815129004,
                -0.23570898727495404,
                0.12252453274958292
            ]
        },
        {
            "positions": [
                -0.18001153940133513,
                -0.9024456655499553,
                1.563482642918947,
                0.9333305349896995,
                -0.18974437848773584,
                0.09600792515768602
            ]
        },
        {
            "positions": [
                -0.23620312035047214,
                -0.9178583470739788,
                1.736336027283724,
                1.0022343884664986,
                -0.1437797697005177,
                0.06949131756578916
            ]
        },
        {
            "positions": [
                -0.29239470129960915,
                -0.9332710285980024,
                1.9091894116485015,
                1.0711382419432978,
                -0.0978151609132995,
                0.04297470997389227
            ]
        },
        {
            "positions": [
                -0.34858628224874616,
                -0.9486837101220259,
                2.082042796013279,
                1.140042095420097,
                -0.051850552126081306,
                0.016458102381995354
            ]
        },
        {
            "positions": [
                -0.40477786319788317,
                -0.9640963916460494,
                2.254896180378056,
                1.208945948896896,
                -0.005885943338863164,
                -0.01005850520990148
            ]
        },
        {
            "positions": [
                -0.4609694441470201,
                -0.979509073170073,
                2.4277495647428333,
                1.2778498023736953,
                0.04007866544835503,
                -0.03657511280179837
            ]
        },
        {
            "positions": [
                -0.36345278580879986,
                -0.9455422503237157,
                2.3547967511683736,
                1.3831319262678865,
                0.010520900007316342,
                -0.027271505760441704
            ]
        },
        {
            "positions": [
                -0.2659361274705796,
                -0.9115754274773585,
                2.2818439375939144,
                1.4884140501620777,
                -0.01903686543372235,
                -0.017967898719085034
            ]
        },
        {
            "positions": [
                -0.16841946913235933,
                -0.8776086046310013,
                2.2088911240194546,
                1.593696174056269,
                -0.04859463087476104,
                -0.008664291677728364
            ]
        },
        {
            "positions": [
                -0.07090281079413907,
                -0.8436417817846441,
                2.135938310444995,
                1.6989782979504602,
                -0.07815239631579973,
                0.0006393153636283025
            ]
        },
        {
            "positions": [
                0.026613847544081193,
                -0.8096749589382869,
                2.0629854968705357,
                1.8042604218446514,
                -0.10771016175683842,
                0.009942922404984976
            ]
        },
        {
            "positions": [
                0.12413050588230144,
                -0.7757081360919297,
                1.990032683296076,
                1.9095425457388426,
                -0.13726792719787712,
                0.019246529446341643
            ]
        }
    ]
}