{
    "goal": {
        "global_pose": {
            "orientation": {
                "w": 0.7031023502349854,
                "x": -0.7110244035720825,
                "y": 0.007748599164187908,
                "z": 0.005598929710686207
            },
            "position": {
                "x": 0.11585023208521307,
                "y": 0.44412534475326537,
                "z": 0.3711530566215515
            }
        },
        "name": "move_to_auspresseinheit_A"
    },
    "id": "BiTRRT_move_to_auspresseinheit_A_39",
    "joint_names": [
        "shoulder_pan_joint",
        "shoulder_lift_joint",
        "elbow_joint",
        "wrist_1_joint",
        "wrist_2_joint",
        "wrist_3_joint"
    ],
    "metrics": {
        "cart_traj_len": 0.7830464182188241,
        "distance_elbow_joint": 0.09320599556387243,
        "distance_shoulder_lift_joint": 0.952781486623854,
        "distance_shoulder_pan_joint": 1.0452719003005397,
        "distance_wrist_1_joint": 0.548360967444216,
        "distance_wrist_2_joint": 0.5178607838041984,
        "distance_wrist_3_joint": 0.6599178914473534,
        "smoothness": 1.2373708699396848,
        "time": 0.048381054,
        "traj_len": 1.9538165280250943,
        "weighted_distance": 2.4906739166994853
    },
    "planner": "BiTRRT",
    "start": {
        "state": {
            "elbow_joint": 2.4225746658250005,
            "shoulder_lift_joint": -1.3736534386056498,
            "shoulder_pan_joint": -0.3378633547517467,
            "wrist_1_joint": -1.0288598680537169,
            "wrist_2_joint": 1.233022673432363,
            "wrist_3_joint": -3.0940220416140027
        }
    },
    "waypoints": [
        {
            "positions": [
                -0.3378633547517467,
                -1.3736534386056498,
                2.4225746658250005,
                -1.0288598680537169,
                1.233022673432363,
                -3.0940220416140027
            ]
        },
        {
            "positions": [
                -0.2372095792375405,
                -1.4749077377323954,
                2.414136118699629,
                -0.9658281760539495,
                1.19562312552534,
                -3.0495169677690774
            ]
        },
        {
            "positions": [
                -0.13655580372333426,
                -1.5761620368591411,
                2.4056975715742572,
                -0.9027964840541822,
                1.1582235776183172,
                -3.005011893924152
            ]
        },
        {
            "positions": [
                -0.03590202820912802,
                -1.6774163359858867,
                2.3972590244488856,
                -0.8397647920544148,
                1.1208240297112941,
                -2.960506820079227
            ]
        },
        {
            "positions": [
                0.06475174730507821,
                -1.7786706351126322,
                2.3888204773235135,
                -0.7767331000546475,
                1.083424481804271,
                -2.916001746234301
            ]
        },
        {
            "positions": [
                0.1654055228192845,
                -1.879924934239378,
                2.380381930198142,
                -0.71370140805488,
                1.0460249338972483,
                -2.871496672389376
            ]
        },
        {
            "positions": [
                0.2660592983334907,
                -1.9811792333661238,
                2.3719433830727703,
                -0.6506697160551127,
                1.0086253859902252,
                -2.8269915985444505
            ]
        },
        {
            "positions": [
                0.36671307384769697,
                -2.0824335324928693,
                2.3635048359473987,
                -0.5876380240553454,
                0.9712258380832023,
                -2.782486524699525
            ]
        },
        {
            "positions": [
                0.4305071666412098,
                -2.013563211816953,
                2.363840404211006,
                -0.5531857845015785,
                0.8991995938757662,
                -2.8897526467682355
            ]
        },
        {
            "positions": [
                0.4943012594347227,
                -1.944692891141036,
                2.364175972474613,
                -0.5187335449478118,
                0.8271733496683302,
                -2.9970187688369454
            ]
        },
        {
            "positions": [
                0.5580953522282356,
                -1.8758225704651192,
                2.3645115407382207,
                -0.4842813053940449,
                0.7551471054608941,
                -3.1042848909056557
            ]
        },
        {
            "positions": [
                0.707408545548793,
                -1.9132130011740036,
                2.3976410016336693,
                -0.4804989006095009,
                0.7151618896281646,
                -3.130868899232401
            ]
        }
    ]
}