{
    "goal": {
        "global_pose": {
            "orientation": {
                "w": 0.7031023480610252,
                "x": -0.7110244013736278,
                "y": 0.0077485991402295624,
                "z": 0.005598929693374583
            },
            "position": {
                "x": -0.8841497679147869,
                "y": 0.44412534475326537,
                "z": 0.3711530566215515
            }
        },
        "name": "move_to_auspresseinheit_D"
    },
    "id": "BiTRRT_move_to_auspresseinheit_D_54",
    "joint_names": [
        "shoulder_pan_joint",
        "shoulder_lift_joint",
        "elbow_joint",
        "wrist_1_joint",
        "wrist_2_joint",
        "wrist_3_joint"
    ],
    "metrics": {
        "cart_traj_len": 0.3437090699330007,
        "distance_elbow_joint": 0.6354056104535164,
        "distance_shoulder_lift_joint": 0.1196788917231788,
        "distance_shoulder_pan_joint": 0.13457993128994652,
        "distance_wrist_1_joint": 0.5122287474324514,
        "distance_wrist_2_joint": 1.4412708545535458,
        "distance_wrist_3_joint": 0.010456097324528901,
        "smoothness": 7.89491931748053e-16,
        "time": 0.02258102,
        "traj_len": 1.6892661521433405,
        "weighted_distance": 2.1972783004007987
    },
    "planner": "BiTRRT",
    "start": {
        "state": {
            "elbow_joint": -1.8275523626775212,
            "shoulder_lift_joint": -2.126789852344167,
            "shoulder_pan_joint": -0.03513704404078235,
            "wrist_1_joint": -2.347782403156801,
            "wrist_2_joint": -1.6058999987535132,
            "wrist_3_joint": -3.0880379163319196
        }
    },
    "waypoints": [
        {
            "positions": [
                -0.03513704404078235,
                -2.126789852344167,
                -1.8275523626775212,
                -2.347782403156801,
                -1.6058999987535132,
                -3.0880379163319196
            ]
        },
        {
            "positions": [
                -0.05195953545202567,
                -2.1417497138095642,
                -1.7481266613708317,
                -2.4118109965858574,
                -1.42574114193432,
                -3.0893449284974857
            ]
        },
        {
            "positions": [
                -0.06878202686326898,
                -2.1567095752749617,
                -1.668700960064142,
                -2.475839590014914,
                -1.2455822851151268,
                -3.0906519406630517
            ]
        },
        {
            "positions": [
                -0.08560451827451229,
                -2.171669436740359,
                -1.5892752587574526,
                -2.53986818344397,
                -1.0654234282959334,
                -3.0919589528286178
            ]
        },
        {
            "positions": [
                -0.1024270096857556,
                -2.186629298205756,
                -1.5098495574507629,
                -2.6038967768730266,
                -0.8852645714767403,
                -3.093265964994184
            ]
        },
        {
            "positions": [
                -0.11924950109699892,
                -2.2015891596711534,
                -1.4304238561440734,
                -2.667925370302083,
                -0.7051057146575471,
                -3.0945729771597503
            ]
        },
        {
            "positions": [
                -0.13607199250824226,
                -2.216549021136551,
                -1.350998154837384,
                -2.731953963731139,
                -0.5249468578383538,
                -3.0958799893253164
            ]
        },
        {
            "positions": [
                -0.15289448391948557,
                -2.2315088826019482,
                -1.2715724535306943,
                -2.7959825571601957,
                -0.34478800101916063,
                -3.0971870014908824
            ]
        },
        {
            "positions": [
                -0.16971697533072888,
                -2.2464687440673456,
                -1.1921467522240048,
                -2.8600111505892523,
                -0.16462914419996744,
                -3.0984940136564485
            ]
        }
    ]
}