{
    "goal": {
        "global_pose": {
            "orientation": {
                "w": 0.7047431468963623,
                "x": -0.7094548344612122,
                "y": 0.0024358443915843964,
                "z": -0.0022348060738295317
            },
            "position": {
                "x": 0.6094750761985779,
                "y": 0.3671506643295288,
                "z": 0.19426114857196808
            }
        },
        "name": "move_to_magneteinheit_A"
    },
    "id": "BiTRRT_move_to_magneteinheit_A_13",
    "joint_names": [
        "shoulder_pan_joint",
        "shoulder_lift_joint",
        "elbow_joint",
        "wrist_1_joint",
        "wrist_2_joint",
        "wrist_3_joint"
    ],
    "metrics": {
        "cart_traj_len": 3.417340992897514,
        "distance_elbow_joint": 3.913430565349042,
        "distance_shoulder_lift_joint": 0.6523214370901507,
        "distance_shoulder_pan_joint": 2.654321857842043,
        "distance_wrist_1_joint": 3.4692232667288057,
        "distance_wrist_2_joint": 1.4423388398582864,
        "distance_wrist_3_joint": 0.43199507543327387,
        "smoothness": 0.016432314345356056,
        "time": 0.10228045499999999,
        "traj_len": 3.544521271244059,
        "weighted_distance": 4.282427267304752
    },
    "planner": "BiTRRT",
    "start": {
        "state": {
            "elbow_joint": -1.9196185241190666,
            "shoulder_lift_joint": -1.2443396400964142,
            "shoulder_pan_joint": 2.6996025414629847,
            "wrist_1_joint": -1.5485510000780065,
            "wrist_2_joint": -1.5709468930060704,
            "wrist_3_joint": 0.4420197071253992
        }
    },
    "waypoints": [
        {
            "positions": [
                2.6996025414629847,
                -1.2443396400964142,
                -1.9196185241190666,
                -1.5485510000780065,
                -1.5709468930060704,
                0.4420197071253992
            ]
        },
        {
            "positions": [
                2.5808781069591133,
                -1.214871807732275,
                -1.8249286730439347,
                -1.4738145650291843,
                -1.5047388412271492,
                0.43445188342772906
            ]
        },
        {
            "positions": [
                2.4621536724552424,
                -1.185403975368136,
                -1.730238821968803,
                -1.399078129980362,
                -1.4385307894482282,
                0.42688405973005894
            ]
        },
        {
            "positions": [
                2.343429237951371,
                -1.155936143003997,
                -1.635548970893671,
                -1.3243416949315399,
                -1.372322737669307,
                0.4193162360323888
            ]
        },
        {
            "positions": [
                2.2247048034474997,
                -1.1264683106398579,
                -1.540859119818539,
                -1.2496052598827176,
                -1.3061146858903858,
                0.4117484123347187
            ]
        },
        {
            "positions": [
                2.1059803689436287,
                -1.0970004782757186,
                -1.4461692687434073,
                -1.1748688248338954,
                -1.2399066341114648,
                0.40418058863704864
            ]
        },
        {
            "positions": [
                1.9872559344397573,
                -1.0675326459115795,
                -1.3514794176682754,
                -1.100132389785073,
                -1.1736985823325436,
                0.3966127649393785
            ]
        },
        {
            "positions": [
                1.8685314999358864,
                -1.0380648135474404,
                -1.2567895665931434,
                -1.025395954736251,
                -1.1074905305536225,
                0.3890449412417084
            ]
        },
        {
            "positions": [
                1.749807065432015,
                -1.0085969811833013,
                -1.1620997155180115,
                -0.9506595196874287,
                -1.0412824787747015,
                0.3814771175440383
            ]
        },
        {
            "positions": [
                1.6310826309281439,
                -0.9791291488191622,
                -1.0674098644428798,
                -0.8759230846386064,
                -0.9750744269957803,
                0.3739092938463682
            ]
        },
        {
            "positions": [
                1.5123581964242727,
                -0.9496613164550232,
                -0.9727200133677479,
                -0.8011866495897841,
                -0.9088663752168592,
                0.36634147014869806
            ]
        },
        {
            "positions": [
                1.3936337619204013,
                -0.920193484090884,
                -0.8780301622926159,
                -0.7264502145409618,
                -0.842658323437938,
                0.35877364645102794
            ]
        },
        {
            "positions": [
                1.2749093274165302,
                -0.8907256517267449,
                -0.7833403112174842,
                -0.6517137794921397,
                -0.7764502716590169,
                0.3512058227533578
            ]
        },
        {
            "positions": [
                1.1561848929126588,
                -0.8612578193626057,
                -0.6886504601423522,
                -0.5769773444433174,
                -0.7102422198800957,
                0.3436379990556877
            ]
        },
        {
            "positions": [
                1.0374604584087879,
                -0.8317899869984666,
                -0.5939606090672205,
                -0.5022409093944953,
                -0.6440341681011746,
                0.33607017535801764
            ]
        },
        {
            "positions": [
                0.9187360239049165,
                -0.8023221546343275,
                -0.49927075799208853,
                -0.42750447434567285,
                -0.5778261163222534,
                0.32850235166034747
            ]
        },
        {
            "positions": [
                0.8000115894010453,
                -0.7728543222701885,
                -0.4045809069169566,
                -0.35276803929685085,
                -0.5116180645433324,
                0.3209345279626774
            ]
        },
        {
            "positions": [
                0.681287154897174,
                -0.7433864899060493,
                -0.30989105584182464,
                -0.2780316042480284,
                -0.44541001276441117,
                0.3133667042650073
            ]
        },
        {
            "positions": [
                0.562562720393303,
                -0.7139186575419103,
                -0.2152012047666929,
                -0.2032951691992062,
                -0.3792019609854902,
                0.3057988805673372
            ]
        },
        {
            "positions": [
                0.44383828588943164,
                -0.6844508251777711,
                -0.12051135369156094,
                -0.1285587341503839,
                -0.312993909206569,
                0.29823105686966705
            ]
        },
        {
            "positions": [
                0.3855545869314632,
                -0.6867850252192311,
                0.028450304336980703,
                0.009228532575351528,
                -0.28839055100176786,
                0.2883976519610305
            ]
        },
        {
            "positions": [
                0.3272708879734948,
                -0.6891192252606911,
                0.17741196236552234,
                0.14701579930108696,
                -0.2637871927969668,
                0.27856424705239397
            ]
        },
        {
            "positions": [
                0.26898718901552643,
                -0.6914534253021511,
                0.3263736203940639,
                0.28480306602682237,
                -0.23918383459216563,
                0.2687308421437574
            ]
        },
        {
            "positions": [
                0.21070349005755798,
                -0.6937876253436112,
                0.4753352784226056,
                0.42259033275255786,
                -0.21458047638736452,
                0.2588974372351209
            ]
        },
        {
            "positions": [
                0.15241979109958959,
                -0.6961218253850712,
                0.6242969364511471,
                0.5603775994782932,
                -0.1899771181825634,
                0.24906403232648436
            ]
        },
        {
            "positions": [
                0.14271545176281228,
                -0.7046588314520245,
                0.7758029158356331,
                0.709367693706095,
                -0.18244052306289074,
                0.2253419107120833
            ]
        },
        {
            "positions": [
                0.13301111242603497,
                -0.7131958375189777,
                0.927308895220119,
                0.8583577879338966,
                -0.1749039279432181,
                0.20161978909768222
            ]
        },
        {
            "positions": [
                0.12330677308925765,
                -0.721732843585931,
                1.078814874604605,
                1.0073478821616983,
                -0.16736733282354543,
                0.17789766748328112
            ]
        },
        {
            "positions": [
                0.11360243375248034,
                -0.7302698496528844,
                1.2303208539890909,
                1.1563379763895,
                -0.1598307377038728,
                0.15417554586888005
            ]
        },
        {
            "positions": [
                0.10389809441570302,
                -0.7388068557198377,
                1.3818268333735768,
                1.3053280706173018,
                -0.15229414258420013,
                0.13045342425447898
            ]
        },
        {
            "positions": [
                0.09419375507892572,
                -0.747343861786791,
                1.5333328127580628,
                1.4543181648451036,
                -0.1447575474645275,
                0.10673130264007791
            ]
        },
        {
            "positions": [
                0.08448941574214841,
                -0.7558808678537443,
                1.6848387921425487,
                1.603308259072905,
                -0.13722095234485482,
                0.08300918102567684
            ]
        },
        {
            "positions": [
                0.08870526916440968,
                -0.7654141568278748,
                1.8388118321256863,
                1.7579509090034344,
                -0.1311739285473063,
                0.053029153913156636
            ]
        },
        {
            "positions": [
                0.10620170851388222,
                -0.7711488020885768,
                1.9163119366778316,
                1.8393115878271167,
                -0.12989099084754502,
                0.03152689280264097
            ]
        },
        {
            "positions": [
                0.12369814786335476,
                -0.7768834473492787,
                1.993812041229977,
                1.9206722666507987,
                -0.12860805314778376,
                0.010024631692125299
            ]
        }
    ]
}