{
    "goal": {
        "global_pose": {
            "orientation": {
                "w": 0.5084816262002911,
                "x": -0.4908360881923452,
                "y": 0.5182115481033761,
                "z": -0.48164630358495003
            },
            "position": {
                "x": 0.5540239810943604,
                "y": -0.46912469901144505,
                "z": 0.16403168439865112
            }
        },
        "name": "move_to_storage_B"
    },
    "id": "BiTRRT_move_to_storage_B_77",
    "joint_names": [
        "shoulder_pan_joint",
        "shoulder_lift_joint",
        "elbow_joint",
        "wrist_1_joint",
        "wrist_2_joint",
        "wrist_3_joint"
    ],
    "metrics": {
        "cart_traj_len": 0.7542574840669177,
        "distance_elbow_joint": 0.5983884748095272,
        "distance_shoulder_lift_joint": 0.45909924514765366,
        "distance_shoulder_pan_joint": 0.4892485297961878,
        "distance_wrist_1_joint": 3.020188039875693,
        "distance_wrist_2_joint": 2.7534120164820015,
        "distance_wrist_3_joint": 3.1339141492374067,
        "smoothness": 0.22053231335023055,
        "time": 0.097558772,
        "traj_len": 3.2333033348803624,
        "weighted_distance": 4.742960974979763
    },
    "planner": "BiTRRT",
    "start": {
        "state": {
            "elbow_joint": 1.664937868594044,
            "shoulder_lift_joint": -0.661644460510453,
            "shoulder_pan_joint": -0.9139846352900073,
            "wrist_1_joint": 2.146753192139373,
            "wrist_2_joint": -2.2341966793290973,
            "wrist_3_joint": 0.005466555786416001
        }
    },
    "waypoints": [
        {
            "positions": [
                -0.9139846352900073,
                -0.661644460510453,
                1.664937868594044,
                2.146753192139373,
                -2.2341966793290973,
                0.005466555786416001
            ]
        },
        {
            "positions": [
                -0.7606539793593374,
                -0.7192067773328619,
                1.542921555499569,
                2.1548936742016958,
                -2.2592212590556304,
                0.01206727030210328
            ]
        },
        {
            "positions": [
                -0.7735738975849342,
                -0.7346505053453712,
                1.5612435617193787,
                2.039045691208874,
                -2.1542832807188814,
                -0.10821401564873209
            ]
        },
        {
            "positions": [
                -0.7864938158105311,
                -0.7500942333578807,
                1.5795655679391885,
                1.9231977082160518,
                -2.049345302382133,
                -0.22849530159956746
            ]
        },
        {
            "positions": [
                -0.7994137340361279,
                -0.7655379613703901,
                1.5978875741589982,
                1.8073497252232298,
                -1.944407324045384,
                -0.3487765875504028
            ]
        },
        {
            "positions": [
                -0.8123336522617248,
                -0.7809816893828996,
                1.616209580378808,
                1.691501742230408,
                -1.8394693457086353,
                -0.4690578735012382
            ]
        },
        {
            "positions": [
                -0.8252535704873216,
                -0.796425417395409,
                1.6345315865986174,
                1.575653759237586,
                -1.7345313673718865,
                -0.5893391594520736
            ]
        },
        {
            "positions": [
                -0.8381734887129185,
                -0.8118691454079183,
                1.6528535928184271,
                1.459805776244764,
                -1.6295933890351377,
                -0.7096204454029089
            ]
        },
        {
            "positions": [
                -0.8510934069385153,
                -0.8273128734204278,
                1.6711755990382369,
                1.3439577932519422,
                -1.524655410698389,
                -0.8299017313537442
            ]
        },
        {
            "positions": [
                -0.8640133251641122,
                -0.8427566014329372,
                1.6894976052580466,
                1.2281098102591201,
                -1.4197174323616402,
                -0.9501830173045797
            ]
        },
        {
            "positions": [
                -0.876933243389709,
                -0.8582003294454466,
                1.7078196114778563,
                1.1122618272662983,
                -1.3147794540248914,
                -1.070464303255415
            ]
        },
        {
            "positions": [
                -0.8898531616153059,
                -0.873644057457956,
                1.726141617697666,
                0.9964138442734762,
                -1.2098414756881426,
                -1.1907455892062506
            ]
        },
        {
            "positions": [
                -0.9027730798409027,
                -0.8890877854704654,
                1.7444636239174758,
                0.8805658612806544,
                -1.1049034973513938,
                -1.3110268751570857
            ]
        },
        {
            "positions": [
                -0.9156929980664996,
                -0.9045315134829749,
                1.7627856301372855,
                0.7647178782878323,
                -0.999965519014645,
                -1.4313081611079213
            ]
        },
        {
            "positions": [
                -0.9286129162920964,
                -0.9199752414954843,
                1.781107636357095,
                0.6488698952950105,
                -0.8950275406778962,
                -1.5515894470587566
            ]
        },
        {
            "positions": [
                -0.9415328345176932,
                -0.9354189695079936,
                1.7994296425769047,
                0.5330219123021886,
                -0.7900895623411475,
                -1.6718707330095919
            ]
        },
        {
            "positions": [
                -0.9544527527432901,
                -0.950862697520503,
                1.8177516487967145,
                0.4171739293093668,
                -0.6851515840043989,
                -1.7921520189604272
            ]
        },
        {
            "positions": [
                -0.967372670968887,
                -0.9663064255330125,
                1.8360736550165242,
                0.3013259463165445,
                -0.5802136056676499,
                -1.9124333049112627
            ]
        },
        {
            "positions": [
                -0.9802925891944838,
                -0.981750153545522,
                1.854395661236334,
                0.18547796332372268,
                -0.4752756273309011,
                -2.032714590862098
            ]
        },
        {
            "positions": [
                -0.9932125074200806,
                -0.9971938815580313,
                1.8727176674561437,
                0.06962998033090084,
                -0.37033764899415234,
                -2.152995876812933
            ]
        },
        {
            "positions": [
                -1.0061324256456774,
                -1.0126376095705407,
                1.8910396736759534,
                -0.046218002661921,
                -0.2653996706574038,
                -2.2732771627637685
            ]
        },
        {
            "positions": [
                -1.0190523438712744,
                -1.0280813375830502,
                1.909361679895763,
                -0.16206598565474328,
                -0.16046169232065477,
                -2.393558448714604
            ]
        },
        {
            "positions": [
                -1.0319722620968712,
                -1.0435250655955595,
                1.9276836861155728,
                -0.2779139686475651,
                -0.055523713983905765,
                -2.5138397346654395
            ]
        },
        {
            "positions": [
                -1.044892180322468,
                -1.058968793608069,
                1.9460056923353823,
                -0.39376195164038696,
                0.049414264352842796,
                -2.6341210206162744
            ]
        },
        {
            "positions": [
                -1.0578120985480648,
                -1.0744125216205784,
                1.964327698555192,
                -0.5096099346332088,
                0.15435224268959136,
                -2.7544023065671097
            ]
        },
        {
            "positions": [
                -1.0707320167736616,
                -1.089856249633088,
                1.9826497047750018,
                -0.6254579176260311,
                0.25929022102634036,
                -2.8746835925179455
            ]
        },
        {
            "positions": [
                -1.0836519349992586,
                -1.1052999776455972,
                2.0009717109948117,
                -0.7413059006188529,
                0.36422819936308937,
                -2.994964878468781
            ]
        },
        {
            "positions": [
                -1.0965718532248554,
                -1.1207437056581067,
                2.0192937172146213,
                -0.8571538836116745,
                0.4691661776998378,
                -3.115246164419616
            ]
        }
    ]
}