{
    "goal": {
        "global_pose": {
            "orientation": {
                "w": 0.005598929693374612,
                "x": 0.007748599140229565,
                "y": 0.7110244013736278,
                "z": -0.7031023480610252
            },
            "position": {
                "x": -0.8858502320852131,
                "y": -0.7141253447532654,
                "z": 0.3711530566215515
            }
        },
        "name": "move_to_auspresseinheit_C"
    },
    "id": "BiTRRT_move_to_auspresseinheit_C_7",
    "joint_names": [
        "shoulder_pan_joint",
        "shoulder_lift_joint",
        "elbow_joint",
        "wrist_1_joint",
        "wrist_2_joint",
        "wrist_3_joint"
    ],
    "metrics": {
        "cart_traj_len": 0.49350715540340534,
        "distance_elbow_joint": 0.9986330439823022,
        "distance_shoulder_lift_joint": 0.32399438853007634,
        "distance_shoulder_pan_joint": 0.2557959813103854,
        "distance_wrist_1_joint": 0.6648025859880639,
        "distance_wrist_2_joint": 1.319302089394463,
        "distance_wrist_3_joint": 0.04456849286447895,
        "smoothness": 3.2297397080004555e-16,
        "time": 0.08740648599999999,
        "traj_len": 1.899235788960857,
        "weighted_distance": 2.3833460183492563
    },
    "planner": "BiTRRT",
    "start": {
        "state": {
            "elbow_joint": 1.7527959577737207,
            "shoulder_lift_joint": -0.9740617694225068,
            "shoulder_pan_joint": -2.967991417825858,
            "wrist_1_joint": -0.759517768980727,
            "wrist_2_joint": 1.7443932448377408,
            "wrist_3_joint": -3.0840537646736568
        }
    },
    "waypoints": [
        {
            "positions": [
                -2.967991417825858,
                -0.9740617694225068,
                1.7527959577737207,
                -0.759517768980727,
                1.7443932448377408,
                -3.0840537646736568
            ]
        },
        {
            "positions": [
                -2.9424118196948195,
                -0.9416623305694991,
                1.6529326533754904,
                -0.6930375103819206,
                1.6124630358982945,
                -3.088510613960105
            ]
        },
        {
            "positions": [
                -2.916832221563781,
                -0.9092628917164916,
                1.5530693489772602,
                -0.6265572517831142,
                1.4805328269588482,
                -3.0929674632465525
            ]
        },
        {
            "positions": [
                -2.8912526234327425,
                -0.8768634528634839,
                1.45320604457903,
                -0.5600769931843078,
                1.348602618019402,
                -3.0974243125330005
            ]
        },
        {
            "positions": [
                -2.865673025301704,
                -0.8444640140104762,
                1.3533427401807998,
                -0.4935967345855014,
                1.2166724090799557,
                -3.101881161819448
            ]
        },
        {
            "positions": [
                -2.8400934271706655,
                -0.8120645751574687,
                1.2534794357825696,
                -0.42711647598669505,
                1.0847422001405094,
                -3.1063380111058962
            ]
        },
        {
            "positions": [
                -2.8145138290396265,
                -0.779665136304461,
                1.1536161313843394,
                -0.3606362173878887,
                0.9528119912010631,
                -3.1107948603923443
            ]
        },
        {
            "positions": [
                -2.788934230908588,
                -0.7472656974514533,
                1.0537528269861092,
                -0.2941559587890823,
                0.8208817822616169,
                -3.115251709678792
            ]
        },
        {
            "positions": [
                -2.7633546327775496,
                -0.7148662585984458,
                0.9538895225878788,
                -0.22767570019027583,
                0.6889515733221705,
                -3.11970855896524
            ]
        },
        {
            "positions": [
                -2.737775034646511,
                -0.682466819745438,
                0.8540262181896486,
                -0.16119544159146948,
                0.5570213643827242,
                -3.1241654082516876
            ]
        },
        {
            "positions": [
                -2.7121954365154726,
                -0.6500673808924304,
                0.7541629137914184,
                -0.09471518299266309,
                0.42509115544327797,
                -3.1286222575381357
            ]
        }
    ]
}