{
    "goal": {
        "global_pose": {
            "orientation": {
                "w": -0.00223480608172531,
                "x": 0.0024358444001904467,
                "y": 0.7094548369677653,
                "z": -0.704743149386269
            },
            "position": {
                "x": -0.37947507619857795,
                "y": -0.6371506643295288,
                "z": 0.19426114857196808
            }
        },
        "name": "move_to_magneteinheit_C"
    },
    "id": "BiTRRT_move_to_magneteinheit_C_108",
    "joint_names": [
        "shoulder_pan_joint",
        "shoulder_lift_joint",
        "elbow_joint",
        "wrist_1_joint",
        "wrist_2_joint",
        "wrist_3_joint"
    ],
    "metrics": {
        "cart_traj_len": 3.332598615735505,
        "distance_elbow_joint": 3.477009292393748,
        "distance_shoulder_lift_joint": 1.3826387154005837,
        "distance_shoulder_pan_joint": 2.1364362187185177,
        "distance_wrist_1_joint": 1.0621093394907062,
        "distance_wrist_2_joint": 2.194242287594827,
        "distance_wrist_3_joint": 4.658142268127558,
        "smoothness": 0.48757403186867265,
        "time": 0.110448464,
        "traj_len": 3.86142177464803,
        "weighted_distance": 5.242443541428614
    },
    "planner": "BiTRRT",
    "start": {
        "state": {
            "elbow_joint": 1.9565354010623817,
            "shoulder_lift_joint": -1.4165861575791021,
            "shoulder_pan_joint": -1.6717766225146293,
            "wrist_1_joint": -0.5286633292919765,
            "wrist_2_joint": 1.472756589071564,
            "wrist_3_joint": -3.1238370188695823
        }
    },
    "waypoints": [
        {
            "positions": [
                -1.6717766225146293,
                -1.4165861575791021,
                1.9565354010623817,
                -0.5286633292919765,
                1.472756589071564,
                -3.1238370188695823
            ]
        },
        {
            "positions": [
                -1.5595309726185027,
                -1.4395943624981016,
                1.9197376028478215,
                -0.4555536571073415,
                1.4604392087595934,
                -2.9967494819350113
            ]
        },
        {
            "positions": [
                -1.4472853227223759,
                -1.462602567417101,
                1.8829398046332613,
                -0.3824439849227066,
                1.448121828447623,
                -2.8696619450004404
            ]
        },
        {
            "positions": [
                -1.3350396728262492,
                -1.4856107723361007,
                1.8461420064187009,
                -0.30933431273807177,
                1.4358044481356527,
                -2.742574408065869
            ]
        },
        {
            "positions": [
                -1.2227940229301224,
                -1.5086189772551002,
                1.8093442082041407,
                -0.23622464055343678,
                1.4234870678236822,
                -2.615486871131298
            ]
        },
        {
            "positions": [
                -1.1105483730339958,
                -1.5316271821740997,
                1.7725464099895805,
                -0.16311496836880193,
                1.4111696875117117,
                -2.488399334196727
            ]
        },
        {
            "positions": [
                -1.1035148452822794,
                -1.4770662977027398,
                1.6707755013381058,
                -0.20240189440133877,
                1.3403488536581354,
                -2.3759511963969695
            ]
        },
        {
            "positions": [
                -1.0964813175305628,
                -1.4225054132313801,
                1.5690045926866312,
                -0.2416888204338756,
                1.2695280198045593,
                -2.2635030585972116
            ]
        },
        {
            "positions": [
                -1.0894477897788464,
                -1.3679445287600203,
                1.4672336840351565,
                -0.28097574646641243,
                1.198707185950983,
                -2.1510549207974536
            ]
        },
        {
            "positions": [
                -1.08241426202713,
                -1.3133836442886606,
                1.3654627753836819,
                -0.32026267249894924,
                1.127886352097407,
                -2.038606782997696
            ]
        },
        {
            "positions": [
                -1.0753807342754134,
                -1.2588227598173007,
                1.2636918667322072,
                -0.3595495985314861,
                1.0570655182438307,
                -1.9261586451979384
            ]
        },
        {
            "positions": [
                -1.068347206523697,
                -1.2042618753459409,
                1.1619209580807326,
                -0.39883652456402297,
                0.9862446843902544,
                -1.8137105073981807
            ]
        },
        {
            "positions": [
                -1.0613136787719806,
                -1.1497009908745812,
                1.060150049429258,
                -0.43812345059655977,
                0.9154238505366783,
                -1.701262369598423
            ]
        },
        {
            "positions": [
                -1.054280151020264,
                -1.0951401064032213,
                0.9583791407777833,
                -0.4774103766290966,
                0.844603016683102,
                -1.5888142317986653
            ]
        },
        {
            "positions": [
                -1.0472466232685476,
                -1.0405792219318617,
                0.8566082321263087,
                -0.5166973026616335,
                0.7737821828295258,
                -1.4763660939989076
            ]
        },
        {
            "positions": [
                -1.0402130955168312,
                -0.9860183374605018,
                0.754837323474834,
                -0.5559842286941703,
                0.7029613489759496,
                -1.36391795619915
            ]
        },
        {
            "positions": [
                -1.0331795677651145,
                -0.9314574529891421,
                0.6530664148233594,
                -0.5952711547267071,
                0.6321405151223735,
                -1.2514698183993922
            ]
        },
        {
            "positions": [
                -1.0261460400133982,
                -0.8768965685177822,
                0.5512955061718847,
                -0.634558080759244,
                0.5613196812687972,
                -1.1390216805996345
            ]
        },
        {
            "positions": [
                -1.0191125122616818,
                -0.8223356840464224,
                0.4495245975204101,
                -0.6738450067917808,
                0.490498847415221,
                -1.0265735427998768
            ]
        },
        {
            "positions": [
                -1.0120789845099651,
                -0.7677747995750627,
                0.34775368886893543,
                -0.7131319328243176,
                0.4196780135616448,
                -0.9141254050001191
            ]
        },
        {
            "positions": [
                -1.0050454567582487,
                -0.7132139151037029,
                0.2459827802174609,
                -0.7524188588568544,
                0.34885717970806873,
                -0.8016772672003614
            ]
        },
        {
            "positions": [
                -1.1912827305795988,
                -0.7186886592539377,
                0.2591140672331182,
                -0.7542589273393531,
                0.3046395108488441,
                -0.871801335351982
            ]
        },
        {
            "positions": [
                -1.3775200044009486,
                -0.7241634034041723,
                0.2722453542487755,
                -0.7560989958218517,
                0.2604218419896195,
                -0.9419254035036025
            ]
        },
        {
            "positions": [
                -1.5637572782222984,
                -0.729638147554407,
                0.28537664126443274,
                -0.7579390643043502,
                0.2162041731303949,
                -1.012049471655223
            ]
        },
        {
            "positions": [
                -1.7499945520436484,
                -0.7351128917046417,
                0.29850792828009004,
                -0.7597791327868488,
                0.17198650427117027,
                -1.0821735398068437
            ]
        },
        {
            "positions": [
                -1.9362318258649982,
                -0.7405876358548764,
                0.31163921529574734,
                -0.7616192012693475,
                0.12776883541194567,
                -1.1522976079584644
            ]
        },
        {
            "positions": [
                -2.1352455503963865,
                -0.7485056974429465,
                0.3494333226578761,
                -0.7641843171214485,
                0.09759991853785663,
                -1.2521626847417904
            ]
        },
        {
            "positions": [
                -2.334259274927775,
                -0.7564237590310167,
                0.3872274300200048,
                -0.7667494329735496,
                0.06743100166376759,
                -1.3520277615251164
            ]
        },
        {
            "positions": [
                -2.3491108888327012,
                -0.7692297589648032,
                0.5133816820944055,
                -0.7764091165615807,
                0.14408879374915606,
                -1.4949674073542036
            ]
        },
        {
            "positions": [
                -2.3639625027376274,
                -0.7820357588985896,
                0.6395359341688062,
                -0.786068800149612,
                0.22074658583454454,
                -1.6379070531832909
            ]
        },
        {
            "positions": [
                -2.3788141166425536,
                -0.7948417588323761,
                0.7656901862432068,
                -0.7957284837376432,
                0.297404377919933,
                -1.7808466990123781
            ]
        },
        {
            "positions": [
                -2.3936657305474798,
                -0.8076477587661626,
                0.8918444383176075,
                -0.8053881673256743,
                0.3740621700053215,
                -1.9237863448414654
            ]
        },
        {
            "positions": [
                -2.408517344452406,
                -0.820453758699949,
                1.0179986903920084,
                -0.8150478509137056,
                0.45071996209070997,
                -2.0667259906705526
            ]
        },
        {
            "positions": [
                -2.423368958357332,
                -0.8332597586337355,
                1.144152942466409,
                -0.8247075345017367,
                0.5273777541760984,
                -2.20966563649964
            ]
        },
        {
            "positions": [
                -2.430909950409538,
                -0.8589528530906617,
                1.2570028478778268,
                -0.8307580752823502,
                0.5743924367320198,
                -2.3342930134534847
            ]
        },
        {
            "positions": [
                -2.438450942461744,
                -0.884645947547588,
                1.3698527532892446,
                -0.8368086160629638,
                0.6214071192879411,
                -2.4589203904073296
            ]
        },
        {
            "positions": [
                -2.44599193451395,
                -0.9103390420045142,
                1.4827026587006626,
                -0.8428591568435773,
                0.6684218018438626,
                -2.583547767361175
            ]
        },
        {
            "positions": [
                -2.4535329265661563,
                -0.9360321364614405,
                1.5955525641120805,
                -0.8489096976241908,
                0.7154364843997839,
                -2.7081751443150197
            ]
        },
        {
            "positions": [
                -2.461073918618362,
                -0.9617252309183667,
                1.7084024695234983,
                -0.8549602384048043,
                0.7624511669557053,
                -2.8328025212688646
            ]
        },
        {
            "positions": [
                -2.465632782319037,
                -1.0286162668918752,
                1.8097481302710954,
                -0.8533883355609613,
                0.7311523219906741,
                -2.9344216087321424
            ]
        },
        {
            "positions": [
                -2.4701916460197113,
                -1.0955073028653837,
                1.9110937910186923,
                -0.8518164327171182,
                0.6998534770256432,
                -3.0360406961954203
            ]
        },
        {
            "positions": [
                -2.474750509720386,
                -1.162398338838892,
                2.0124394517662894,
                -0.8502445298732751,
                0.668554632060612,
                -3.137659783658698
            ]
        }
    ]
}