{
    "goal": {
        "global_pose": {
            "orientation": {
                "w": 0.005598929693374612,
                "x": 0.007748599140229565,
                "y": 0.7110244013736278,
                "z": -0.7031023480610252
            },
            "position": {
                "x": -0.8858502320852131,
                "y": -0.7141253447532654,
                "z": 0.3711530566215515
            }
        },
        "name": "move_to_auspresseinheit_C"
    },
    "id": "BiTRRT_move_to_auspresseinheit_C_122",
    "joint_names": [
        "shoulder_pan_joint",
        "shoulder_lift_joint",
        "elbow_joint",
        "wrist_1_joint",
        "wrist_2_joint",
        "wrist_3_joint"
    ],
    "metrics": {
        "cart_traj_len": 0.4931119006552585,
        "distance_elbow_joint": 0.9904414513506872,
        "distance_shoulder_lift_joint": 0.3198884522886416,
        "distance_shoulder_pan_joint": 0.25703708231096245,
        "distance_wrist_1_joint": 0.6605463548716015,
        "distance_wrist_2_joint": 1.3078830006052404,
        "distance_wrist_3_joint": 0.04445084153831713,
        "smoothness": 1.6148698565576344e-15,
        "time": 0.046577776,
        "traj_len": 1.8921541118432847,
        "weighted_distance": 2.3743584863113925
    },
    "planner": "BiTRRT",
    "start": {
        "state": {
            "elbow_joint": 1.7527959577737207,
            "shoulder_lift_joint": -0.9740617694225068,
            "shoulder_pan_joint": -2.967991417825858,
            "wrist_1_joint": -0.759517768980727,
            "wrist_2_joint": 1.7443932448377408,
            "wrist_3_joint": -3.0840537646736568
        }
    },
    "waypoints": [
        {
            "positions": [
                -2.967991417825858,
                -0.9740617694225068,
                1.7527959577737207,
                -0.759517768980727,
                1.7443932448377408,
                -3.0840537646736568
            ]
        },
        {
            "positions": [
                -2.942287709594762,
                -0.9420729241936426,
                1.653751812638652,
                -0.6934631334935668,
                1.6136049447772167,
                -3.0884988488274887
            ]
        },
        {
            "positions": [
                -2.9165840013636655,
                -0.9100840789647785,
                1.5547076675035831,
                -0.6274084980064066,
                1.4828166447166926,
                -3.09294393298132
            ]
        },
        {
            "positions": [
                -2.890880293132569,
                -0.8780952337359142,
                1.4556635223685146,
                -0.5613538625192466,
                1.3520283446561687,
                -3.0973890171351517
            ]
        },
        {
            "positions": [
                -2.865176584901473,
                -0.8461063885070501,
                1.3566193772334458,
                -0.49529922703208634,
                1.2212400445956446,
                -3.1018341012889836
            ]
        },
        {
            "positions": [
                -2.839472876670377,
                -0.814117543278186,
                1.257575232098377,
                -0.4292445915449262,
                1.0904517445351205,
                -3.1062791854428156
            ]
        },
        {
            "positions": [
                -2.8137691684392805,
                -0.7821286980493218,
                1.1585310869633085,
                -0.3631899560577661,
                0.9596634444745966,
                -3.110724269596647
            ]
        },
        {
            "positions": [
                -2.788065460208184,
                -0.7501398528204577,
                1.0594869418282395,
                -0.29713532057060593,
                0.8288751444140726,
                -3.1151693537504785
            ]
        },
        {
            "positions": [
                -2.762361751977088,
                -0.7181510075915936,
                0.9604427966931709,
                -0.2310806850834457,
                0.6980868443535484,
                -3.1196144379043105
            ]
        },
        {
            "positions": [
                -2.736658043745992,
                -0.6861621623627293,
                0.8613986515581021,
                -0.16502604959628564,
                0.5672985442930245,
                -3.1240595220581424
            ]
        },
        {
            "positions": [
                -2.7109543355148955,
                -0.6541733171338652,
                0.7623545064230335,
                -0.09897141410912548,
                0.43651024423250046,
                -3.128504606211974
            ]
        }
    ]
}