{
    "goal": {
        "global_pose": {
            "orientation": {
                "w": 0.5084816262002911,
                "x": -0.4908360881923452,
                "y": 0.5182115481033761,
                "z": -0.48164630358495003
            },
            "position": {
                "x": 0.5540239810943604,
                "y": -0.46912469901144505,
                "z": 0.16403168439865112
            }
        },
        "name": "move_to_storage_B"
    },
    "id": "BiTRRT_move_to_storage_B_92",
    "joint_names": [
        "shoulder_pan_joint",
        "shoulder_lift_joint",
        "elbow_joint",
        "wrist_1_joint",
        "wrist_2_joint",
        "wrist_3_joint"
    ],
    "metrics": {
        "cart_traj_len": 0.7076786720565602,
        "distance_elbow_joint": 0.34659556196997565,
        "distance_shoulder_lift_joint": 0.45774930565963423,
        "distance_shoulder_pan_joint": 0.46644959038777467,
        "distance_wrist_1_joint": 2.9765071902346003,
        "distance_wrist_2_joint": 2.7045463373060055,
        "distance_wrist_3_joint": 3.140133337599382,
        "smoothness": 0.04161333412600975,
        "time": 0.085180385,
        "traj_len": 3.1767878939515897,
        "weighted_distance": 4.696094284178795
    },
    "planner": "BiTRRT",
    "start": {
        "state": {
            "elbow_joint": 1.664937868594044,
            "shoulder_lift_joint": -0.661644460510453,
            "shoulder_pan_joint": -0.9139846352900073,
            "wrist_1_joint": 2.146753192139373,
            "wrist_2_joint": -2.2341966793290973,
            "wrist_3_joint": 0.005466555786416001
        }
    },
    "waypoints": [
        {
            "positions": [
                -0.9139846352900073,
                -0.661644460510453,
                1.664937868594044,
                2.146753192139373,
                -2.2341966793290973,
                0.005466555786416001
            ]
        },
        {
            "positions": [
                -0.8427034780109004,
                -0.7034061244885139,
                1.665557630677858,
                2.0210771614255236,
                -2.1274168809306855,
                -0.033232115083132854
            ]
        },
        {
            "positions": [
                -0.7714223207317936,
                -0.7451677884665748,
                1.6661773927616719,
                1.8954011307116736,
                -2.0206370825322737,
                -0.07193078595268171
            ]
        },
        {
            "positions": [
                -0.7849176238913587,
                -0.7607605375375546,
                1.6805672276701031,
                1.7818530003447195,
                -1.916845968344391,
                -0.19954478578019355
            ]
        },
        {
            "positions": [
                -0.7984129270509237,
                -0.7763532866085342,
                1.6949570625785342,
                1.6683048699777652,
                -1.8130548541565086,
                -0.3271587856077054
            ]
        },
        {
            "positions": [
                -0.8119082302104887,
                -0.7919460356795138,
                1.7093468974869652,
                1.554756739610811,
                -1.709263739968626,
                -0.45477278543521726
            ]
        },
        {
            "positions": [
                -0.8254035333700538,
                -0.8075387847504936,
                1.7237367323953965,
                1.441208609243857,
                -1.6054726257807435,
                -0.5823867852627291
            ]
        },
        {
            "positions": [
                -0.8388988365296188,
                -0.8231315338214733,
                1.7381265673038278,
                1.3276604788769026,
                -1.5016815115928608,
                -0.710000785090241
            ]
        },
        {
            "positions": [
                -0.8523941396891839,
                -0.8387242828924529,
                1.7525164022122588,
                1.2141123485099485,
                -1.3978903974049781,
                -0.8376147849177529
            ]
        },
        {
            "positions": [
                -0.8658894428487489,
                -0.8543170319634326,
                1.7669062371206898,
                1.1005642181429942,
                -1.2940992832170957,
                -0.9652287847452647
            ]
        },
        {
            "positions": [
                -0.879384746008314,
                -0.8699097810344123,
                1.781296072029121,
                0.9870160877760402,
                -1.1903081690292132,
                -1.0928427845727764
            ]
        },
        {
            "positions": [
                -0.892880049167879,
                -0.885502530105392,
                1.7956859069375524,
                0.873467957409086,
                -1.0865170548413305,
                -1.2204567844002883
            ]
        },
        {
            "positions": [
                -0.906375352327444,
                -0.9010952791763717,
                1.8100757418459834,
                0.7599198270421317,
                -0.9827259406534479,
                -1.3480707842278001
            ]
        },
        {
            "positions": [
                -0.9198706554870091,
                -0.9166880282473513,
                1.8244655767544145,
                0.6463716966751778,
                -0.8789348264655654,
                -1.475684784055312
            ]
        },
        {
            "positions": [
                -0.9333659586465741,
                -0.932280777318331,
                1.8388554116628457,
                0.5328235663082235,
                -0.7751437122776828,
                -1.6032987838828239
            ]
        },
        {
            "positions": [
                -0.9468612618061392,
                -0.9478735263893108,
                1.853245246571277,
                0.41927543594126937,
                -0.6713525980898003,
                -1.7309127837103355
            ]
        },
        {
            "positions": [
                -0.9603565649657042,
                -0.9634662754602904,
                1.867635081479708,
                0.30572730557431504,
                -0.5675614839019174,
                -1.8585267835378476
            ]
        },
        {
            "positions": [
                -0.9738518681252692,
                -0.97905902453127,
                1.882024916388139,
                0.19217917520736094,
                -0.46377036971403496,
                -1.9861407833653595
            ]
        },
        {
            "positions": [
                -0.9873471712848343,
                -0.9946517736022498,
                1.8964147512965703,
                0.07863104484040684,
                -0.3599792555261525,
                -2.113754783192871
            ]
        },
        {
            "positions": [
                -1.0008424744443993,
                -1.0102445226732295,
                1.9108045862050016,
                -0.03491708552654749,
                -0.25618814133826984,
                -2.2413687830203832
            ]
        },
        {
            "positions": [
                -1.0143377776039644,
                -1.025837271744209,
                1.9251944211134326,
                -0.1484652158935016,
                -0.1523970271503874,
                -2.368982782847895
            ]
        },
        {
            "positions": [
                -1.0278330807635294,
                -1.0414300208151888,
                1.9395842560218637,
                -0.26201334626045547,
                -0.048605912962504716,
                -2.4965967826754065
            ]
        },
        {
            "positions": [
                -1.0413283839230945,
                -1.0570227698861685,
                1.953974090930295,
                -0.37556147662741024,
                0.055185201225377956,
                -2.6242107825029186
            ]
        },
        {
            "positions": [
                -1.0548236870826595,
                -1.0726155189571482,
                1.9683639258387262,
                -0.4891096069943641,
                0.1589763154132604,
                -2.7518247823304307
            ]
        },
        {
            "positions": [
                -1.0683189902422245,
                -1.088208268028128,
                1.9827537607471573,
                -0.602657737361318,
                0.26276742960114285,
                -2.8794387821579424
            ]
        },
        {
            "positions": [
                -1.0818142934017896,
                -1.1038010170991075,
                1.9971435956555883,
                -0.7162058677282728,
                0.36655854378902575,
                -3.0070527819854544
            ]
        },
        {
            "positions": [
                -1.0953095965613546,
                -1.1193937661700872,
                2.0115334305640196,
                -0.8297539980952264,
                0.4703496579769081,
                -3.134666781812966
            ]
        }
    ]
}