{
    "goal": {
        "global_pose": {
            "orientation": {
                "w": -0.00223480608172531,
                "x": 0.0024358444001904467,
                "y": 0.7094548369677653,
                "z": -0.704743149386269
            },
            "position": {
                "x": -0.37947507619857795,
                "y": -0.6371506643295288,
                "z": 0.19426114857196808
            }
        },
        "name": "move_to_magneteinheit_C"
    },
    "id": "BiTRRT_move_to_magneteinheit_C_116",
    "joint_names": [
        "shoulder_pan_joint",
        "shoulder_lift_joint",
        "elbow_joint",
        "wrist_1_joint",
        "wrist_2_joint",
        "wrist_3_joint"
    ],
    "metrics": {
        "cart_traj_len": 0.787348754573825,
        "distance_elbow_joint": 0.3990027183022278,
        "distance_shoulder_lift_joint": 0.34485438115187117,
        "distance_shoulder_pan_joint": 0.9967265792139954,
        "distance_wrist_1_joint": 0.7464896226460112,
        "distance_wrist_2_joint": 0.7883733645706099,
        "distance_wrist_3_joint": 1.3806626022004274,
        "smoothness": 1.004290428952056,
        "time": 0.071608413,
        "traj_len": 2.157801952933851,
        "weighted_distance": 2.9920390137333794
    },
    "planner": "BiTRRT",
    "start": {
        "state": {
            "elbow_joint": 1.9565354010623817,
            "shoulder_lift_joint": -1.4165861575791021,
            "shoulder_pan_joint": -1.6717766225146293,
            "wrist_1_joint": -0.5286633292919765,
            "wrist_2_joint": 1.472756589071564,
            "wrist_3_joint": -3.1238370188695823
        }
    },
    "waypoints": [
        {
            "positions": [
                -1.6717766225146293,
                -1.4165861575791021,
                1.9565354010623817,
                -0.5286633292919765,
                1.472756589071564,
                -3.1238370188695823
            ]
        },
        {
            "positions": [
                -1.639150873231663,
                -1.4317099522608137,
                1.9344273731937136,
                -0.4825448099515338,
                1.4224280011398187,
                -2.981911757261117
            ]
        },
        {
            "positions": [
                -1.6065251239486968,
                -1.4468337469425252,
                1.9123193453250453,
                -0.4364262906110912,
                1.3720994132080735,
                -2.8399864956526515
            ]
        },
        {
            "positions": [
                -1.5738993746657306,
                -1.4619575416242367,
                1.8902113174563773,
                -0.3903077712706486,
                1.3217708252763283,
                -2.6980612340441863
            ]
        },
        {
            "positions": [
                -1.7448859130513439,
                -1.438151493447332,
                1.9354543454034978,
                -0.373677608529374,
                1.2338575015018782,
                -2.647163466509947
            ]
        },
        {
            "positions": [
                -1.9158724514369574,
                -1.4143454452704274,
                1.9806973733506184,
                -0.3570474457880994,
                1.145944177727428,
                -2.5962656989757082
            ]
        },
        {
            "positions": [
                -2.086858989822571,
                -1.390539397093523,
                2.025940401297739,
                -0.34041728304682484,
                1.058030853952978,
                -2.545367931441469
            ]
        },
        {
            "positions": [
                -2.2578455282081844,
                -1.3667333489166182,
                2.0711834292448597,
                -0.32378712030555024,
                0.9701175301785279,
                -2.49447016390723
            ]
        },
        {
            "positions": [
                -2.4288320665937975,
                -1.3429273007397136,
                2.11642645719198,
                -0.30715695756427563,
                0.8822042064040777,
                -2.443572396372991
            ]
        },
        {
            "positions": [
                -2.439581554311147,
                -1.3147281937183983,
                2.0995398703128165,
                -0.3959575763723375,
                0.8478707707484386,
                -2.560294957290456
            ]
        },
        {
            "positions": [
                -2.4503310420284965,
                -1.2865290866970829,
                2.082653283433653,
                -0.4847581951803994,
                0.8135373350927997,
                -2.6770175182079208
            ]
        },
        {
            "positions": [
                -2.4610805297458462,
                -1.2583299796757677,
                2.0657666965544896,
                -0.5735588139884613,
                0.7792038994371606,
                -2.793740079125386
            ]
        },
        {
            "positions": [
                -2.46496992184084,
                -1.2263781679563452,
                2.047165451780113,
                -0.6597526121531695,
                0.7475970077917584,
                -2.910483511442533
            ]
        },
        {
            "positions": [
                -2.4688593139358335,
                -1.1944263562369226,
                2.028564207005736,
                -0.7459464103178777,
                0.7159901161463562,
                -3.02722694375968
            ]
        },
        {
            "positions": [
                -2.4727487060308273,
                -1.1624745445175002,
                2.0099629622313593,
                -0.832140208482586,
                0.684383224500954,
                -3.143970376076827
            ]
        }
    ]
}