{
    "goal": {
        "global_pose": {
            "orientation": {
                "w": 0.005598929693374612,
                "x": 0.007748599140229565,
                "y": 0.7110244013736278,
                "z": -0.7031023480610252
            },
            "position": {
                "x": 0.1141497679147869,
                "y": -0.7141253447532654,
                "z": 0.3711530566215515
            }
        },
        "name": "move_to_auspresseinheit_B"
    },
    "id": "BiTRRT_move_to_auspresseinheit_B_127",
    "joint_names": [
        "shoulder_pan_joint",
        "shoulder_lift_joint",
        "elbow_joint",
        "wrist_1_joint",
        "wrist_2_joint",
        "wrist_3_joint"
    ],
    "metrics": {
        "cart_traj_len": 0.5653127673900017,
        "distance_elbow_joint": 0.06236762352900316,
        "distance_shoulder_lift_joint": 0.29443821101840006,
        "distance_shoulder_pan_joint": 0.5788575195379138,
        "distance_wrist_1_joint": 0.3212849139494546,
        "distance_wrist_2_joint": 0.9848724728122971,
        "distance_wrist_3_joint": 0.010289468475514152,
        "smoothness": 5.075305255429287e-16,
        "time": 0.105985117,
        "traj_len": 1.5007032382595111,
        "weighted_distance": 1.8917839551691316
    },
    "planner": "BiTRRT",
    "start": {
        "state": {
            "elbow_joint": 2.0193083361928714,
            "shoulder_lift_joint": -1.1220246554650708,
            "shoulder_pan_joint": -1.0952077554168747,
            "wrist_1_joint": -0.8559753972642168,
            "wrist_2_joint": 0.4759566250798843,
            "wrist_3_joint": -3.1240929996934557
        }
    },
    "waypoints": [
        {
            "positions": [
                -1.0952077554168747,
                -1.1220246554650708,
                2.0193083361928714,
                -0.8559753972642168,
                0.4759566250798843,
                -3.1240929996934557
            ]
        },
        {
            "positions": [
                -1.1916840086731937,
                -1.171097690634804,
                2.008913732271371,
                -0.8024279116059744,
                0.6401020372152672,
                -3.12237808828087
            ]
        },
        {
            "positions": [
                -1.2881602619295125,
                -1.2201707258045376,
                1.9985191283498704,
                -0.748880425947732,
                0.80424744935065,
                -3.1206631768682844
            ]
        },
        {
            "positions": [
                -1.3846365151858315,
                -1.2692437609742708,
                1.9881245244283698,
                -0.6953329402894894,
                0.9683928614860329,
                -3.118948265455699
            ]
        },
        {
            "positions": [
                -1.4811127684421503,
                -1.318316796144004,
                1.9777299205068692,
                -0.6417854546312471,
                1.1325382736214156,
                -3.1172333540431127
            ]
        },
        {
            "positions": [
                -1.5775890216984694,
                -1.3673898313137376,
                1.9673353165853689,
                -0.5882379689730046,
                1.2966836857567985,
                -3.115518442630527
            ]
        },
        {
            "positions": [
                -1.6740652749547884,
                -1.4164628664834709,
                1.9569407126638683,
                -0.5346904833147622,
                1.4608290978921814,
                -3.1138035312179415
            ]
        }
    ]
}