{
    "goal": {
        "global_pose": {
            "orientation": {
                "w": 0.005598929693374612,
                "x": 0.007748599140229565,
                "y": 0.7110244013736278,
                "z": -0.7031023480610252
            },
            "position": {
                "x": 0.1141497679147869,
                "y": -0.7141253447532654,
                "z": 0.3711530566215515
            }
        },
        "name": "move_to_auspresseinheit_B"
    },
    "id": "BiTRRT_move_to_auspresseinheit_B_110",
    "joint_names": [
        "shoulder_pan_joint",
        "shoulder_lift_joint",
        "elbow_joint",
        "wrist_1_joint",
        "wrist_2_joint",
        "wrist_3_joint"
    ],
    "metrics": {
        "cart_traj_len": 0.5647020089902649,
        "distance_elbow_joint": 0.0644201322648541,
        "distance_shoulder_lift_joint": 0.29501435412956445,
        "distance_shoulder_pan_joint": 0.575774464341974,
        "distance_wrist_1_joint": 0.3339647608487494,
        "distance_wrist_2_joint": 1.0001408107572503,
        "distance_wrist_3_joint": 0.007941566686595625,
        "smoothness": 2.5376526478085547e-16,
        "time": 0.025660611,
        "traj_len": 1.5090580138049656,
        "weighted_distance": 1.9045326970173493
    },
    "planner": "BiTRRT",
    "start": {
        "state": {
            "elbow_joint": 2.0193083361928714,
            "shoulder_lift_joint": -1.1220246554650708,
            "shoulder_pan_joint": -1.0952077554168747,
            "wrist_1_joint": -0.8559753972642168,
            "wrist_2_joint": 0.4759566250798843,
            "wrist_3_joint": -3.1240929996934557
        }
    },
    "waypoints": [
        {
            "positions": [
                -1.0952077554168747,
                -1.1220246554650708,
                2.0193083361928714,
                -0.8559753972642168,
                0.4759566250798843,
                -3.1240929996934557
            ]
        },
        {
            "positions": [
                -1.191170166140537,
                -1.1711937144866649,
                2.0085716474820625,
                -0.8003146037894252,
                0.6426467602060927,
                -3.1254165941412215
            ]
        },
        {
            "positions": [
                -1.2871325768641992,
                -1.220362773508259,
                1.9978349587712534,
                -0.7446538103146336,
                0.809336895332301,
                -3.1267401885889874
            ]
        },
        {
            "positions": [
                -1.3830949875878615,
                -1.269531832529853,
                1.9870982700604443,
                -0.6889930168398422,
                0.9760270304585095,
                -3.1280637830367537
            ]
        },
        {
            "positions": [
                -1.4790573983115238,
                -1.318700891551447,
                1.9763615813496354,
                -0.6333322233650506,
                1.1427171655847177,
                -3.1293873774845196
            ]
        },
        {
            "positions": [
                -1.5750198090351863,
                -1.3678699505730412,
                1.9656248926388264,
                -0.577671429890259,
                1.3094073007109261,
                -3.1307109719322854
            ]
        },
        {
            "positions": [
                -1.6709822197588486,
                -1.4170390095946352,
                1.9548882039280173,
                -0.5220106364154674,
                1.4760974358371346,
                -3.1320345663800513
            ]
        }
    ]
}