{
    "goal": {
        "global_pose": {
            "orientation": {
                "w": -0.00223480608172531,
                "x": 0.0024358444001904467,
                "y": 0.7094548369677653,
                "z": -0.704743149386269
            },
            "position": {
                "x": -0.37947507619857795,
                "y": -0.6371506643295288,
                "z": 0.19426114857196808
            }
        },
        "name": "move_to_magneteinheit_C"
    },
    "id": "BiTRRT_move_to_magneteinheit_C_62",
    "joint_names": [
        "shoulder_pan_joint",
        "shoulder_lift_joint",
        "elbow_joint",
        "wrist_1_joint",
        "wrist_2_joint",
        "wrist_3_joint"
    ],
    "metrics": {
        "cart_traj_len": 5.645667801988638,
        "distance_elbow_joint": 0.44141019723005837,
        "distance_shoulder_lift_joint": 3.8779656156409015,
        "distance_shoulder_pan_joint": 8.824977765141334,
        "distance_wrist_1_joint": 2.226457250723284,
        "distance_wrist_2_joint": 0.8402401513956916,
        "distance_wrist_3_joint": 2.5493937759382406,
        "smoothness": 0.7229049313024065,
        "time": 0.152690579,
        "traj_len": 4.331332907555077,
        "weighted_distance": 5.18902011077862
    },
    "planner": "BiTRRT",
    "start": {
        "state": {
            "elbow_joint": 1.9565354010623817,
            "shoulder_lift_joint": -1.4165861575791021,
            "shoulder_pan_joint": -1.6717766225146293,
            "wrist_1_joint": -0.5286633292919765,
            "wrist_2_joint": 1.472756589071564,
            "wrist_3_joint": -3.1238370188695823
        }
    },
    "waypoints": [
        {
            "positions": [
                -1.6717766225146293,
                -1.4165861575791021,
                1.9565354010623817,
                -0.5286633292919765,
                1.472756589071564,
                -3.1238370188695823
            ]
        },
        {
            "positions": [
                -1.4807661552353801,
                -1.5028485024047726,
                1.9472360906519204,
                -0.48262037104063826,
                1.47369160737302,
                -3.0638397915447473
            ]
        },
        {
            "positions": [
                -1.2897556879561312,
                -1.5891108472304432,
                1.9379367802414589,
                -0.43657741278930007,
                1.474626625674476,
                -3.0038425642199122
            ]
        },
        {
            "positions": [
                -1.0987452206768817,
                -1.6753731920561135,
                1.9286374698309976,
                -0.3905344545379619,
                1.475561643975932,
                -2.943845336895077
            ]
        },
        {
            "positions": [
                -0.9077347533976328,
                -1.761635536881784,
                1.9193381594205363,
                -0.3444914962866237,
                1.476496662277388,
                -2.883848109570242
            ]
        },
        {
            "positions": [
                -0.7167242861183836,
                -1.8478978817074545,
                1.910038849010075,
                -0.2984485380352855,
                1.477431680578844,
                -2.823850882245407
            ]
        },
        {
            "positions": [
                -0.5257138188391344,
                -1.934160226533125,
                1.9007395385996135,
                -0.25240557978394723,
                1.4783666988803004,
                -2.763853654920572
            ]
        },
        {
            "positions": [
                -0.3347033515598852,
                -2.0204225713587953,
                1.8914402281891523,
                -0.20636262153260904,
                1.4793017171817564,
                -2.703856427595737
            ]
        },
        {
            "positions": [
                -0.1436928842806362,
                -2.106684916184466,
                1.882140917778691,
                -0.16031966328127084,
                1.4802367354832124,
                -2.643859200270902
            ]
        },
        {
            "positions": [
                0.047317582998612995,
                -2.1929472610101364,
                1.8728416073682295,
                -0.11427670502993265,
                1.4811717537846685,
                -2.583861972946067
            ]
        },
        {
            "positions": [
                0.2383280502778622,
                -2.279209605835807,
                1.8635422969577682,
                -0.06823374677859445,
                1.4821067720861245,
                -2.523864745621232
            ]
        },
        {
            "positions": [
                0.4293385175571116,
                -2.3654719506614774,
                1.854242986547307,
                -0.0221907885272562,
                1.4830417903875805,
                -2.463867518296397
            ]
        },
        {
            "positions": [
                0.6203489848363606,
                -2.4517342954871477,
                1.8449436761368456,
                0.023852169724081995,
                1.4839768086890366,
                -2.403870290971562
            ]
        },
        {
            "positions": [
                0.81135945211561,
                -2.5379966403128185,
                1.8356443657263841,
                0.06989512797542019,
                1.4849118269904926,
                -2.343873063646727
            ]
        },
        {
            "positions": [
                1.002369919394859,
                -2.6242589851384888,
                1.8263450553159228,
                0.11593808622675839,
                1.4858468452919487,
                -2.283875836321892
            ]
        },
        {
            "positions": [
                1.1933803866741084,
                -2.710521329964159,
                1.8170457449054616,
                0.1619810444780967,
                1.4867818635934047,
                -2.223878608997057
            ]
        },
        {
            "positions": [
                1.384390853953357,
                -2.79678367478983,
                1.8077464344950003,
                0.20802400272943478,
                1.487716881894861,
                -2.1638813816722218
            ]
        },
        {
            "positions": [
                1.5754013212326063,
                -2.8830460196155006,
                1.7984471240845388,
                0.2540669609807731,
                1.488651900196317,
                -2.1038841543473867
            ]
        },
        {
            "positions": [
                1.7664117885118553,
                -2.9693083644411704,
                1.7891478136740775,
                0.30010991923211117,
                1.489586918497773,
                -2.0438869270225517
            ]
        },
        {
            "positions": [
                1.9574222557911047,
                -3.055570709266841,
                1.7798485032636162,
                0.3461528774834495,
                1.490521936799229,
                -1.9838896996977167
            ]
        },
        {
            "positions": [
                2.1484327230703535,
                -3.141833054092512,
                1.7705491928531547,
                0.39219583573478756,
                1.491456955100685,
                -1.9238924723728816
            ]
        },
        {
            "positions": [
                2.339443190349603,
                -3.228095398918182,
                1.7612498824426934,
                0.43823879398612586,
                1.4923919734021411,
                -1.8638952450480466
            ]
        },
        {
            "positions": [
                2.1611558587837845,
                -3.1515599776477443,
                1.7703656112801145,
                0.3915886040807488,
                1.4619992042515813,
                -1.9116527266079246
            ]
        },
        {
            "positions": [
                1.982868527217966,
                -3.0750245563773064,
                1.7794813401175356,
                0.34493841417537174,
                1.4316064351010216,
                -1.9594102081678024
            ]
        },
        {
            "positions": [
                1.8045811956521476,
                -2.998489135106869,
                1.7885970689549568,
                0.2982882242699947,
                1.4012136659504617,
                -2.0071676897276807
            ]
        },
        {
            "positions": [
                1.6262938640863294,
                -2.921953713836431,
                1.797712797792378,
                0.2516380343646177,
                1.370820896799902,
                -2.0549251712875582
            ]
        },
        {
            "positions": [
                1.448006532520511,
                -2.845418292565993,
                1.806828526629799,
                0.20498784445924062,
                1.3404281276493422,
                -2.1026826528474363
            ]
        },
        {
            "positions": [
                1.2697192009546925,
                -2.7688828712955553,
                1.81594425546722,
                0.15833765455386356,
                1.3100353584987823,
                -2.1504401344073143
            ]
        },
        {
            "positions": [
                1.091431869388874,
                -2.6923474500251174,
                1.8250599843046413,
                0.1116874646484865,
                1.2796425893482226,
                -2.1981976159671923
            ]
        },
        {
            "positions": [
                0.9131445378230558,
                -2.6158120287546796,
                1.8341757131420624,
                0.0650372747431095,
                1.2492498201976627,
                -2.2459550975270703
            ]
        },
        {
            "positions": [
                0.7348572062572374,
                -2.5392766074842417,
                1.8432914419794835,
                0.018387084837732437,
                1.218857051047103,
                -2.2937125790869484
            ]
        },
        {
            "positions": [
                0.5565698746914189,
                -2.462741186213804,
                1.8524071708169045,
                -0.028263105067644623,
                1.1884642818965432,
                -2.3414700606468264
            ]
        },
        {
            "positions": [
                0.3782825431256005,
                -2.3862057649433663,
                1.8615228996543256,
                -0.07491329497302168,
                1.1580715127459835,
                -2.389227542206704
            ]
        },
        {
            "positions": [
                0.19999521155978206,
                -2.3096703436729284,
                1.870638628491747,
                -0.12156348487839874,
                1.1276787435954236,
                -2.436985023766582
            ]
        },
        {
            "positions": [
                0.02170787999396362,
                -2.2331349224024906,
                1.879754357329168,
                -0.1682136747837758,
                1.0972859744448638,
                -2.48474250532646
            ]
        },
        {
            "positions": [
                -0.15657945157185482,
                -2.1565995011320527,
                1.888870086166589,
                -0.21486386468915286,
                1.066893205294304,
                -2.532499986886338
            ]
        },
        {
            "positions": [
                -0.33486678313767326,
                -2.080064079861615,
                1.89798581500401,
                -0.2615140545945299,
                1.0365004361437442,
                -2.580257468446216
            ]
        },
        {
            "positions": [
                -0.5131541147034913,
                -2.0035286585911773,
                1.9071015438414314,
                -0.30816424449990687,
                1.0061076669931845,
                -2.6280149500060936
            ]
        },
        {
            "positions": [
                -0.6914414462693101,
                -1.9269932373207392,
                1.9162172726788524,
                -0.35481443440528404,
                0.9757148978426247,
                -2.6757724315659717
            ]
        },
        {
            "positions": [
                -0.8697287778351281,
                -1.8504578160503016,
                1.9253330015162735,
                -0.401464624310661,
                0.9453221286920649,
                -2.7235299131258497
            ]
        },
        {
            "positions": [
                -1.048016109400947,
                -1.7739223947798635,
                1.9344487303536946,
                -0.44811481421603816,
                0.914929359541505,
                -2.7712873946857277
            ]
        },
        {
            "positions": [
                -1.226303440966765,
                -1.6973869735094258,
                1.9435644591911156,
                -0.4947650041214151,
                0.8845365903909453,
                -2.8190448762456057
            ]
        },
        {
            "positions": [
                -1.404590772532584,
                -1.620851552238988,
                1.952680188028537,
                -0.5414151940267923,
                0.8541438212403855,
                -2.8668023578054838
            ]
        },
        {
            "positions": [
                -1.582878104098402,
                -1.5443161309685502,
                1.961795916865958,
                -0.5880653839321692,
                0.8237510520898257,
                -2.914559839365362
            ]
        },
        {
            "positions": [
                -1.7611654356642203,
                -1.4677807096981124,
                1.970911645703379,
                -0.6347155738375463,
                0.7933582829392659,
                -2.96231732092524
            ]
        },
        {
            "positions": [
                -1.9394527672300388,
                -1.3912452884276747,
                1.9800273745408001,
                -0.6813657637429233,
                0.7629655137887061,
                -3.010074802485118
            ]
        },
        {
            "positions": [
                -2.1177400987958572,
                -1.3147098671572366,
                1.9891431033782214,
                -0.7280159536483004,
                0.7325727446381463,
                -3.057832284044996
            ]
        },
        {
            "positions": [
                -2.2960274303616757,
                -1.238174445886799,
                1.9982588322156425,
                -0.7746661435536775,
                0.7021799754875866,
                -3.1055897656048734
            ]
        },
        {
            "positions": [
                -2.4743147619274946,
                -1.1616390246163608,
                2.0073745610530636,
                -0.8213163334590545,
                0.6717872063370267,
                -3.1533472471647515
            ]
        }
    ]
}