{
    "goal": {
        "global_pose": {
            "orientation": {
                "w": 0.7047431468963623,
                "x": -0.7094548344612122,
                "y": 0.0024358443915843964,
                "z": -0.0022348060738295317
            },
            "position": {
                "x": 0.6094750761985779,
                "y": 0.3671506643295288,
                "z": 0.19426114857196808
            }
        },
        "name": "move_to_magneteinheit_A"
    },
    "id": "BiTRRT_move_to_magneteinheit_A_66",
    "joint_names": [
        "shoulder_pan_joint",
        "shoulder_lift_joint",
        "elbow_joint",
        "wrist_1_joint",
        "wrist_2_joint",
        "wrist_3_joint"
    ],
    "metrics": {
        "cart_traj_len": 4.461563450180739,
        "distance_elbow_joint": 5.109812689607643,
        "distance_shoulder_lift_joint": 0.24896396995540693,
        "distance_shoulder_pan_joint": 4.175443632734828,
        "distance_wrist_1_joint": 1.8858117485135337,
        "distance_wrist_2_joint": 1.70721394393638,
        "distance_wrist_3_joint": 6.7149301377162605,
        "smoothness": 0.24803753461400904,
        "time": 0.24406176300000001,
        "traj_len": 4.454455760523843,
        "weighted_distance": 6.071660571074974
    },
    "planner": "BiTRRT",
    "start": {
        "state": {
            "elbow_joint": -1.9196185241190666,
            "shoulder_lift_joint": -1.2443396400964142,
            "shoulder_pan_joint": 2.6996025414629847,
            "wrist_1_joint": -1.5485510000780065,
            "wrist_2_joint": -1.5709468930060704,
            "wrist_3_joint": 0.4420197071253992
        }
    },
    "waypoints": [
        {
            "positions": [
                2.6996025414629847,
                -1.2443396400964142,
                -1.9196185241190666,
                -1.5485510000780065,
                -1.5709468930060704,
                0.4420197071253992
            ]
        },
        {
            "positions": [
                2.5461734035993717,
                -1.236367319158496,
                -1.9471973992317162,
                -1.4887887493702834,
                -1.5109329273408363,
                0.5127007154453409
            ]
        },
        {
            "positions": [
                2.3927442657357583,
                -1.2283949982205782,
                -1.974776274344366,
                -1.4290264986625603,
                -1.450918961675602,
                0.5833817237652826
            ]
        },
        {
            "positions": [
                2.2393151278721453,
                -1.22042267728266,
                -2.0023551494570158,
                -1.3692642479548371,
                -1.3909049960103679,
                0.6540627320852244
            ]
        },
        {
            "positions": [
                2.0858859900085323,
                -1.212450356344742,
                -2.0299340245696653,
                -1.309501997247114,
                -1.3308910303451338,
                0.724743740405166
            ]
        },
        {
            "positions": [
                1.9324568521449192,
                -1.204478035406824,
                -2.057512899682315,
                -1.249739746539391,
                -1.2708770646798997,
                0.7954247487251078
            ]
        },
        {
            "positions": [
                1.779027714281306,
                -1.196505714468906,
                -2.0850917747949644,
                -1.189977495831668,
                -1.2108630990146656,
                0.8661057570450494
            ]
        },
        {
            "positions": [
                1.6255985764176928,
                -1.188533393530988,
                -2.1126706499076144,
                -1.1302152451239447,
                -1.1508491333494315,
                0.9367867653649913
            ]
        },
        {
            "positions": [
                1.4721694385540796,
                -1.18056107259307,
                -2.140249525020264,
                -1.0704529944162215,
                -1.0908351676841972,
                1.007467773684933
            ]
        },
        {
            "positions": [
                1.3187403006904665,
                -1.1725887516551519,
                -2.1678284001329136,
                -1.0106907437084987,
                -1.030821202018963,
                1.0781487820048747
            ]
        },
        {
            "positions": [
                1.1653111628268535,
                -1.164616430717234,
                -2.195407275245563,
                -0.9509284930007754,
                -0.970807236353729,
                1.1488297903248164
            ]
        },
        {
            "positions": [
                1.0118820249632403,
                -1.1566441097793159,
                -2.2229861503582127,
                -0.8911662422930523,
                -0.9107932706884948,
                1.219510798644758
            ]
        },
        {
            "positions": [
                0.8584528870996273,
                -1.1486717888413978,
                -2.2505650254708627,
                -0.8314039915853293,
                -0.8507793050232607,
                1.2901918069646996
            ]
        },
        {
            "positions": [
                0.7050237492360139,
                -1.1406994679034799,
                -2.2781439005835122,
                -0.7716417408776061,
                -0.7907653393580265,
                1.3608728152846417
            ]
        },
        {
            "positions": [
                0.5515946113724008,
                -1.1327271469655618,
                -2.305722775696162,
                -0.711879490169883,
                -0.7307513736927924,
                1.4315538236045833
            ]
        },
        {
            "positions": [
                0.39816547350878784,
                -1.1247548260276439,
                -2.3333016508088114,
                -0.6521172394621599,
                -0.6707374080275583,
                1.502234831924525
            ]
        },
        {
            "positions": [
                0.24473633564517439,
                -1.1167825050897258,
                -2.3608805259214614,
                -0.5923549887544367,
                -0.610723442362324,
                1.5729158402444665
            ]
        },
        {
            "positions": [
                0.09130719778156182,
                -1.1088101841518077,
                -2.388459401034111,
                -0.5325927380467137,
                -0.5507094766970899,
                1.6435968485644086
            ]
        },
        {
            "positions": [
                -0.06212194008205163,
                -1.1008378632138895,
                -2.4160382761467605,
                -0.4728304873389906,
                -0.4906955110318558,
                1.7142778568843502
            ]
        },
        {
            "positions": [
                -0.21555107794566464,
                -1.0928655422759717,
                -2.44361715125941,
                -0.41306823663126746,
                -0.43068154536662173,
                1.7849588652042918
            ]
        },
        {
            "positions": [
                -0.36898021580927765,
                -1.0848932213380535,
                -2.47119602637206,
                -0.35330598592354434,
                -0.37066757970138764,
                1.8556398735242334
            ]
        },
        {
            "positions": [
                -0.5224093536728911,
                -1.0769209004001357,
                -2.4987749014847096,
                -0.2935437352158212,
                -0.3106536140361533,
                1.9263208818441755
            ]
        },
        {
            "positions": [
                -0.6758384915365041,
                -1.0689485794622176,
                -2.526353776597359,
                -0.2337814845080981,
                -0.25063964837091923,
                1.997001890164117
            ]
        },
        {
            "positions": [
                -0.648476295528335,
                -1.0712746541730576,
                -2.371608952201143,
                -0.2534658920751637,
                -0.237596842128432,
                1.8197673935523133
            ]
        },
        {
            "positions": [
                -0.6211140995201658,
                -1.0736007288838976,
                -2.216864127804927,
                -0.2731502996422292,
                -0.22455403588594477,
                1.6425328969405095
            ]
        },
        {
            "positions": [
                -0.5937519035119968,
                -1.0759268035947374,
                -2.06211930340871,
                -0.2928347072092947,
                -0.21151122964345753,
                1.4652984003287055
            ]
        },
        {
            "positions": [
                -0.5663897075038277,
                -1.0782528783055774,
                -1.907374479012494,
                -0.3125191147763603,
                -0.1984684234009703,
                1.2880639037169017
            ]
        },
        {
            "positions": [
                -0.5390275114956585,
                -1.0805789530164174,
                -1.7526296546162776,
                -0.33220352234342587,
                -0.18542561715848305,
                1.110829407105098
            ]
        },
        {
            "positions": [
                -0.5116653154874895,
                -1.0829050277272574,
                -1.5978848302200612,
                -0.3518879299104914,
                -0.17238281091599583,
                0.9335949104932941
            ]
        },
        {
            "positions": [
                -0.4843031194793203,
                -1.0852311024380972,
                -1.443140005823845,
                -0.3715723374775569,
                -0.1593400046735086,
                0.7563604138814901
            ]
        },
        {
            "positions": [
                -0.45694092347115123,
                -1.0875571771489372,
                -1.2883951814276289,
                -0.3912567450446225,
                -0.14629719843102135,
                0.5791259172696863
            ]
        },
        {
            "positions": [
                -0.4295787274629821,
                -1.0898832518597772,
                -1.1336503570314125,
                -0.41094115261168807,
                -0.13325439218853413,
                0.4018914206578825
            ]
        },
        {
            "positions": [
                -0.40221653145481295,
                -1.0922093265706172,
                -0.9789055326351961,
                -0.43062556017875364,
                -0.12021158594604689,
                0.2246569240460785
            ]
        },
        {
            "positions": [
                -0.3748543354466439,
                -1.094535401281457,
                -0.8241607082389799,
                -0.4503099677458191,
                -0.10716877970355967,
                0.04742242743427494
            ]
        },
        {
            "positions": [
                -0.3474921394384748,
                -1.096861475992297,
                -0.6694158838427635,
                -0.4699943753128847,
                -0.09412597346107243,
                -0.12981206917752885
            ]
        },
        {
            "positions": [
                -0.32012994343030565,
                -1.099187550703137,
                -0.5146710594465471,
                -0.48967878287995026,
                -0.08108316721858519,
                -0.30704656578933287
            ]
        },
        {
            "positions": [
                -0.2927677474221365,
                -1.101513625413977,
                -0.35992623505033094,
                -0.5093631904470157,
                -0.06804036097609795,
                -0.4842810624011369
            ]
        },
        {
            "positions": [
                -0.26540555141396743,
                -1.1038397001248168,
                -0.20518141065411477,
                -0.5290475980140814,
                -0.054997554733610704,
                -0.6615155590129409
            ]
        },
        {
            "positions": [
                -0.23804335540579835,
                -1.1061657748356568,
                -0.0504365862578986,
                -0.5487320055811469,
                -0.04195474849112349,
                -0.8387500556247445
            ]
        },
        {
            "positions": [
                -0.21068115939762927,
                -1.1084918495464968,
                0.10430823813831758,
                -0.5684164131482123,
                -0.028911942248636274,
                -1.015984552236548
            ]
        },
        {
            "positions": [
                -0.18331896338946008,
                -1.1108179242573368,
                0.2590530625345342,
                -0.588100820715278,
                -0.015869136006149004,
                -1.193219048848352
            ]
        },
        {
            "positions": [
                -0.15595676738129105,
                -1.1131439989681766,
                0.41379788693075037,
                -0.6077852282823435,
                -0.002826329763661789,
                -1.370453545460156
            ]
        },
        {
            "positions": [
                -0.1285945713731218,
                -1.1154700736790166,
                0.568542711326967,
                -0.6274696358494092,
                0.010216476478825454,
                -1.54768804207196
            ]
        },
        {
            "positions": [
                -0.10123237536495278,
                -1.1177961483898566,
                0.7232875357231832,
                -0.6471540434164746,
                0.02325928272131267,
                -1.7249225386837637
            ]
        },
        {
            "positions": [
                -0.07387017935678375,
                -1.1201222231006966,
                0.8780323601193993,
                -0.6668384509835401,
                0.03630208896379988,
                -1.9021570352955672
            ]
        },
        {
            "positions": [
                -0.0465079833486145,
                -1.1224482978115364,
                1.032777184515616,
                -0.6865228585506058,
                0.049344895206287154,
                -2.0793915319073712
            ]
        },
        {
            "positions": [
                -0.019145787340445475,
                -1.1247743725223764,
                1.1875220089118321,
                -0.7062072661176713,
                0.06238770144877437,
                -2.256626028519175
            ]
        },
        {
            "positions": [
                0.008216408667723663,
                -1.1271004472332165,
                1.3422668333080479,
                -0.7258916736847367,
                0.07543050769126158,
                -2.4338605251309784
            ]
        },
        {
            "positions": [
                0.0355786046758928,
                -1.1294265219440565,
                1.497011657704265,
                -0.7455760812518024,
                0.08847331393374885,
                -2.611095021742783
            ]
        },
        {
            "positions": [
                0.06294080068406183,
                -1.1317525966548962,
                1.651756482100481,
                -0.7652604888188679,
                0.10151612017623607,
                -2.7883295183545864
            ]
        },
        {
            "positions": [
                0.09030299669223107,
                -1.1340786713657363,
                1.8065013064966973,
                -0.7849448963859335,
                0.11455892641872334,
                -2.965564014966391
            ]
        },
        {
            "positions": [
                0.11766519270040007,
                -1.1364047460765763,
                1.9612461308929137,
                -0.804629303952999,
                0.12760173266121055,
                -3.142798511578194
            ]
        },
        {
            "positions": [
                0.12416410819883845,
                -1.1425214887834279,
                1.976723660531992,
                -0.804434890454275,
                0.1362670509303101,
                -3.162946064513424
            ]
        }
    ]
}