{
    "goal": {
        "global_pose": {
            "orientation": {
                "w": 0.7047431468963623,
                "x": -0.7094548344612122,
                "y": 0.0024358443915843964,
                "z": -0.0022348060738295317
            },
            "position": {
                "x": 0.6094750761985779,
                "y": 0.3671506643295288,
                "z": 0.19426114857196808
            }
        },
        "name": "move_to_magneteinheit_A"
    },
    "id": "BiTRRT_move_to_magneteinheit_A_47",
    "joint_names": [
        "shoulder_pan_joint",
        "shoulder_lift_joint",
        "elbow_joint",
        "wrist_1_joint",
        "wrist_2_joint",
        "wrist_3_joint"
    ],
    "metrics": {
        "cart_traj_len": 3.3650947320290077,
        "distance_elbow_joint": 3.9188167292569824,
        "distance_shoulder_lift_joint": 0.4645426677070633,
        "distance_shoulder_pan_joint": 2.746636809748835,
        "distance_wrist_1_joint": 3.4883508775105083,
        "distance_wrist_2_joint": 1.7358625276916972,
        "distance_wrist_3_joint": 1.4737061346005231,
        "smoothness": 0.158491893966553,
        "time": 0.09825012999999999,
        "traj_len": 3.7185905591387183,
        "weighted_distance": 4.690366874874382
    },
    "planner": "BiTRRT",
    "start": {
        "state": {
            "elbow_joint": -1.9196185241190666,
            "shoulder_lift_joint": -1.2443396400964142,
            "shoulder_pan_joint": 2.6996025414629847,
            "wrist_1_joint": -1.5485510000780065,
            "wrist_2_joint": -1.5709468930060704,
            "wrist_3_joint": 0.4420197071253992
        }
    },
    "waypoints": [
        {
            "positions": [
                2.6996025414629847,
                -1.2443396400964142,
                -1.9196185241190666,
                -1.5485510000780065,
                -1.5709468930060704,
                0.4420197071253992
            ]
        },
        {
            "positions": [
                2.5866013638921315,
                -1.2318593723715574,
                -1.8142826491538262,
                -1.4958999710807817,
                -1.5171665852633107,
                0.3957670934595396
            ]
        },
        {
            "positions": [
                2.4736001863212778,
                -1.2193791046467006,
                -1.708946774188586,
                -1.4432489420835568,
                -1.4633862775205513,
                0.34951447979368
            ]
        },
        {
            "positions": [
                2.3605990087504245,
                -1.2068988369218439,
                -1.6036108992233458,
                -1.390597913086332,
                -1.4096059697777916,
                0.30326186612782047
            ]
        },
        {
            "positions": [
                2.2475978311795712,
                -1.1944185691969873,
                -1.4982750242581053,
                -1.3379468840891071,
                -1.355825662035032,
                0.2570092524619609
            ]
        },
        {
            "positions": [
                2.1345966536087175,
                -1.1819383014721305,
                -1.3929391492928649,
                -1.2852958550918823,
                -1.3020453542922723,
                0.2107566387961013
            ]
        },
        {
            "positions": [
                2.0215954760378643,
                -1.1694580337472738,
                -1.2876032743276247,
                -1.2326448260946574,
                -1.2482650465495126,
                0.1645040251302417
            ]
        },
        {
            "positions": [
                1.908594298467011,
                -1.156977766022417,
                -1.1822673993623845,
                -1.1799937970974326,
                -1.1944847388067532,
                0.11825141146438212
            ]
        },
        {
            "positions": [
                1.7955931208961575,
                -1.1444974982975602,
                -1.076931524397144,
                -1.1273427681002077,
                -1.1407044310639936,
                0.07199879779852258
            ]
        },
        {
            "positions": [
                1.682591943325304,
                -1.1320172305727034,
                -0.9715956494319037,
                -1.0746917391029829,
                -1.086924123321234,
                0.025746184132662997
            ]
        },
        {
            "positions": [
                1.5695907657544508,
                -1.1195369628478467,
                -0.8662597744666634,
                -1.0220407101057578,
                -1.0331438155784745,
                -0.02050642953319659
            ]
        },
        {
            "positions": [
                1.456589588183597,
                -1.1070566951229899,
                -0.7609238995014229,
                -0.9693896811085331,
                -0.9793635078357147,
                -0.06675904319905623
            ]
        },
        {
            "positions": [
                1.3435884106127438,
                -1.0945764273981333,
                -0.6555880245361827,
                -0.9167386521113082,
                -0.9255832000929551,
                -0.11301165686491577
            ]
        },
        {
            "positions": [
                1.2305872330418903,
                -1.0820961596732765,
                -0.5502521495709423,
                -0.8640876231140834,
                -0.8718028923501955,
                -0.1592642705307754
            ]
        },
        {
            "positions": [
                1.117586055471037,
                -1.0696158919484198,
                -0.44491627460570204,
                -0.8114365941168585,
                -0.8180225846074359,
                -0.20551688419663494
            ]
        },
        {
            "positions": [
                1.0045848779001836,
                -1.057135624223563,
                -0.3395803996404616,
                -0.7587855651196336,
                -0.7642422768646763,
                -0.2517694978624946
            ]
        },
        {
            "positions": [
                0.8915837003293303,
                -1.0446553564987062,
                -0.2342445246752214,
                -0.7061345361224088,
                -0.7104619691219167,
                -0.298022111528354
            ]
        },
        {
            "positions": [
                0.7785825227584768,
                -1.0321750887738494,
                -0.12890864970998095,
                -0.6534835071251839,
                -0.6566816613791571,
                -0.34427472519421365
            ]
        },
        {
            "positions": [
                0.6655813451876234,
                -1.019694821048993,
                -0.023572774744740732,
                -0.6008324781279591,
                -0.6029013536363975,
                -0.3905273388600732
            ]
        },
        {
            "positions": [
                0.5525801676167701,
                -1.0072145533241361,
                0.08176310022049993,
                -0.5481814491307342,
                -0.5491210458936377,
                -0.4367799525259328
            ]
        },
        {
            "positions": [
                0.43957899004591683,
                -0.9947342855992793,
                0.18709897518573992,
                -0.49553042013350934,
                -0.4953407381508783,
                -0.48303256619179236
            ]
        },
        {
            "positions": [
                0.32657781247506334,
                -0.9822540178744226,
                0.2924348501509803,
                -0.4428793911362846,
                -0.44156043040811876,
                -0.529285179857652
            ]
        },
        {
            "positions": [
                0.29089082657057014,
                -0.9646521114082058,
                0.41514246163240626,
                -0.270582498855637,
                -0.399740053309469,
                -0.5237129434068031
            ]
        },
        {
            "positions": [
                0.25520384066607693,
                -0.9470502049419891,
                0.5378500731138323,
                -0.09828560657498947,
                -0.3579196762108192,
                -0.5181407069559543
            ]
        },
        {
            "positions": [
                0.21951685476158375,
                -0.9294482984757723,
                0.6605576845952582,
                0.07401128570565807,
                -0.3160992991121695,
                -0.5125684705051055
            ]
        },
        {
            "positions": [
                0.18382986885709054,
                -0.9118463920095555,
                0.7832652960766842,
                0.2463081779863057,
                -0.2742789220135197,
                -0.5069962340542565
            ]
        },
        {
            "positions": [
                0.1718892098198707,
                -0.8966177610752989,
                0.8764927066475008,
                0.3920159477193734,
                -0.24845031345752747,
                -0.4840238039291651
            ]
        },
        {
            "positions": [
                0.15994855078265086,
                -0.8813891301410421,
                0.9697201172183173,
                0.5377237174524412,
                -0.2226217049015352,
                -0.4610513738040737
            ]
        },
        {
            "positions": [
                0.148007891745431,
                -0.8661604992067855,
                1.0629475277891338,
                0.683431487185509,
                -0.19679309634554298,
                -0.4380789436789822
            ]
        },
        {
            "positions": [
                0.13606723270821114,
                -0.8509318682725289,
                1.1561749383599504,
                0.8291392569185767,
                -0.17096448778955073,
                -0.4151065135538908
            ]
        },
        {
            "positions": [
                0.1162987380704522,
                -0.8432809284473122,
                1.2920502735287691,
                0.9481730782951729,
                -0.133115330520075,
                -0.40496744237750987
            ]
        },
        {
            "positions": [
                0.09653024343269326,
                -0.8356299886220956,
                1.4279256086975876,
                1.0672068996717692,
                -0.09526617325059923,
                -0.39482837120112896
            ]
        },
        {
            "positions": [
                0.07676174879493432,
                -0.8279790487968789,
                1.5638009438664062,
                1.1862407210483652,
                -0.05741701598112349,
                -0.3846893000247481
            ]
        },
        {
            "positions": [
                0.05699325415717538,
                -0.8203281089716623,
                1.699676279035225,
                1.3052745424249614,
                -0.019567858711647734,
                -0.3745502288483672
            ]
        },
        {
            "positions": [
                0.03722475951941644,
                -0.8126771691464456,
                1.8355516142040433,
                1.4243083638015577,
                0.018281298557828007,
                -0.3644111576719863
            ]
        },
        {
            "positions": [
                0.058289516470733285,
                -0.804457119957172,
                1.8764632619375115,
                1.5531812422092939,
                -0.018377285474121666,
                -0.28002935131403467
            ]
        },
        {
            "positions": [
                0.07935427342205013,
                -0.7962370707678983,
                1.9173749096709796,
                1.68205412061703,
                -0.05503586950607134,
                -0.19564754495608302
            ]
        },
        {
            "positions": [
                0.10041903037336698,
                -0.7880170215786245,
                1.9582865574044477,
                1.810926999024766,
                -0.09169445353802101,
                -0.11126573859813138
            ]
        },
        {
            "positions": [
                0.12148378732468383,
                -0.7797969723893509,
                1.9991982051379158,
                1.9397998774325023,
                -0.12835303756997068,
                -0.026883932240179764
            ]
        }
    ]
}