{
    "goal": {
        "global_pose": {
            "orientation": {
                "w": 0.005598929693374612,
                "x": 0.007748599140229565,
                "y": 0.7110244013736278,
                "z": -0.7031023480610252
            },
            "position": {
                "x": 0.1141497679147869,
                "y": -0.7141253447532654,
                "z": 0.3711530566215515
            }
        },
        "name": "move_to_auspresseinheit_B"
    },
    "id": "BiTRRT_move_to_auspresseinheit_B_56",
    "joint_names": [
        "shoulder_pan_joint",
        "shoulder_lift_joint",
        "elbow_joint",
        "wrist_1_joint",
        "wrist_2_joint",
        "wrist_3_joint"
    ],
    "metrics": {
        "cart_traj_len": 0.5654591523750131,
        "distance_elbow_joint": 0.06098269092466113,
        "distance_shoulder_lift_joint": 0.2950241033187002,
        "distance_shoulder_pan_joint": 0.5770604230884862,
        "distance_wrist_1_joint": 0.31635457197770334,
        "distance_wrist_2_joint": 0.9966451573806729,
        "distance_wrist_3_joint": 0.0028159434117527304,
        "smoothness": 5.075305295617109e-16,
        "time": 0.046222702,
        "traj_len": 1.4996275838027175,
        "weighted_distance": 1.8887865168631044
    },
    "planner": "BiTRRT",
    "start": {
        "state": {
            "elbow_joint": 2.0193083361928714,
            "shoulder_lift_joint": -1.1220246554650708,
            "shoulder_pan_joint": -1.0952077554168747,
            "wrist_1_joint": -0.8559753972642168,
            "wrist_2_joint": 0.4759566250798843,
            "wrist_3_joint": -3.1240929996934557
        }
    },
    "waypoints": [
        {
            "positions": [
                -1.0952077554168747,
                -1.1220246554650708,
                2.0193083361928714,
                -0.8559753972642168,
                0.4759566250798843,
                -3.1240929996934557
            ]
        },
        {
            "positions": [
                -1.191384492598289,
                -1.1711953393515209,
                2.0091445543720945,
                -0.8032496352679329,
                0.6420641513099965,
                -3.123623675791497
            ]
        },
        {
            "positions": [
                -1.2875612297797034,
                -1.220366023237971,
                1.9989807725513178,
                -0.750523873271649,
                0.8081716775401087,
                -3.123154351889538
            ]
        },
        {
            "positions": [
                -1.3837379669611178,
                -1.2695367071244208,
                1.9888169907305409,
                -0.6977981112753651,
                0.9742792037702208,
                -3.122685027987579
            ]
        },
        {
            "positions": [
                -1.479914704142532,
                -1.3187073910108709,
                1.978653208909764,
                -0.6450723492790813,
                1.140386730000333,
                -3.1222157040856207
            ]
        },
        {
            "positions": [
                -1.5760914413239464,
                -1.367878074897321,
                1.9684894270889872,
                -0.5923465872827973,
                1.3064942562304451,
                -3.121746380183662
            ]
        },
        {
            "positions": [
                -1.6722681785053608,
                -1.417048758783771,
                1.9583256452682103,
                -0.5396208252865135,
                1.4726017824605573,
                -3.121277056281703
            ]
        }
    ]
}