{
    "goal": {
        "global_pose": {
            "orientation": {
                "w": 0.7031023480610252,
                "x": -0.7110244013736278,
                "y": 0.0077485991402295624,
                "z": 0.005598929693374583
            },
            "position": {
                "x": -0.8841497679147869,
                "y": 0.44412534475326537,
                "z": 0.3711530566215515
            }
        },
        "name": "move_to_auspresseinheit_D"
    },
    "id": "BiTRRT_move_to_auspresseinheit_D_105",
    "joint_names": [
        "shoulder_pan_joint",
        "shoulder_lift_joint",
        "elbow_joint",
        "wrist_1_joint",
        "wrist_2_joint",
        "wrist_3_joint"
    ],
    "metrics": {
        "cart_traj_len": 0.3424480210239468,
        "distance_elbow_joint": 0.6355901341453849,
        "distance_shoulder_lift_joint": 0.12041466711760895,
        "distance_shoulder_pan_joint": 0.1335646194702925,
        "distance_wrist_1_joint": 0.5222579215758252,
        "distance_wrist_2_joint": 1.4424772893484992,
        "distance_wrist_3_joint": 0.0011188344918324766,
        "smoothness": 1.9737298371844314e-16,
        "time": 0.055987661,
        "traj_len": 1.6897998302016257,
        "weighted_distance": 2.1959955250540544
    },
    "planner": "BiTRRT",
    "start": {
        "state": {
            "elbow_joint": -1.8275523626775212,
            "shoulder_lift_joint": -2.126789852344167,
            "shoulder_pan_joint": -0.03513704404078235,
            "wrist_1_joint": -2.347782403156801,
            "wrist_2_joint": -1.6058999987535132,
            "wrist_3_joint": -3.0880379163319196
        }
    },
    "waypoints": [
        {
            "positions": [
                -0.03513704404078235,
                -2.126789852344167,
                -1.8275523626775212,
                -2.347782403156801,
                -1.6058999987535132,
                -3.0880379163319196
            ]
        },
        {
            "positions": [
                -0.05183262147456891,
                -2.141841685733868,
                -1.748103595909348,
                -2.413064643353779,
                -1.4255903375849508,
                -3.088177770643399
            ]
        },
        {
            "positions": [
                -0.06852819890835547,
                -2.156893519123569,
                -1.668654829141175,
                -2.478346883550757,
                -1.2452806764163884,
                -3.0883176249548776
            ]
        },
        {
            "positions": [
                -0.08522377634214204,
                -2.17194535251327,
                -1.5892060623730018,
                -2.5436291237477353,
                -1.064971015247826,
                -3.088457479266357
            ]
        },
        {
            "positions": [
                -0.10191935377592859,
                -2.186997185902971,
                -1.5097572956048286,
                -2.6089113639447135,
                -0.8846613540792636,
                -3.0885973335778356
            ]
        },
        {
            "positions": [
                -0.11861493120971517,
                -2.2020490192926725,
                -1.4303085288366555,
                -2.6741936041416916,
                -0.7043516929107012,
                -3.088737187889315
            ]
        },
        {
            "positions": [
                -0.13531050864350172,
                -2.2171008526823734,
                -1.3508597620684826,
                -2.7394758443386698,
                -0.5240420317421388,
                -3.088877042200794
            ]
        },
        {
            "positions": [
                -0.15200608607728827,
                -2.232152686072075,
                -1.2714109953003094,
                -2.804758084535648,
                -0.3437323705735764,
                -3.089016896512273
            ]
        },
        {
            "positions": [
                -0.16870166351107485,
                -2.247204519461776,
                -1.1919622285321363,
                -2.870040324732626,
                -0.16342270940501402,
                -3.089156750823752
            ]
        }
    ]
}