{
    "goal": {
        "global_pose": {
            "orientation": {
                "w": 0.5084816262002911,
                "x": -0.4908360881923452,
                "y": 0.5182115481033761,
                "z": -0.48164630358495003
            },
            "position": {
                "x": 0.5540239810943604,
                "y": -0.46912469901144505,
                "z": 0.16403168439865112
            }
        },
        "name": "move_to_storage_B"
    },
    "id": "BiTRRT_move_to_storage_B_131",
    "joint_names": [
        "shoulder_pan_joint",
        "shoulder_lift_joint",
        "elbow_joint",
        "wrist_1_joint",
        "wrist_2_joint",
        "wrist_3_joint"
    ],
    "metrics": {
        "cart_traj_len": 1.8329575117879233,
        "distance_elbow_joint": 2.1570877669039965,
        "distance_shoulder_lift_joint": 0.4671037034543317,
        "distance_shoulder_pan_joint": 1.5844070291079793,
        "distance_wrist_1_joint": 2.990794383640154,
        "distance_wrist_2_joint": 2.702091682020291,
        "distance_wrist_3_joint": 3.1806656318350175,
        "smoothness": 0.3678200562526777,
        "time": 0.097302271,
        "traj_len": 3.616925517198518,
        "weighted_distance": 5.013618207072837
    },
    "planner": "BiTRRT",
    "start": {
        "state": {
            "elbow_joint": 1.664937868594044,
            "shoulder_lift_joint": -0.661644460510453,
            "shoulder_pan_joint": -0.9139846352900073,
            "wrist_1_joint": 2.146753192139373,
            "wrist_2_joint": -2.2341966793290973,
            "wrist_3_joint": 0.005466555786416001
        }
    },
    "waypoints": [
        {
            "positions": [
                -0.9139846352900073,
                -0.661644460510453,
                1.664937868594044,
                2.146753192139373,
                -2.2341966793290973,
                0.005466555786416001
            ]
        },
        {
            "positions": [
                -0.8837863925309993,
                -0.6576598416021175,
                1.6359498714957421,
                2.1296153457683396,
                -2.2349598193600597,
                0.030003723544282344
            ]
        },
        {
            "positions": [
                -0.8484782499884835,
                -0.6619151666322258,
                1.5899416892455591,
                2.0061032266015393,
                -2.112252829077439,
                -0.03147712303230063
            ]
        },
        {
            "positions": [
                -0.8131701074459677,
                -0.6661704916623342,
                1.5439335069953761,
                1.8825911074347388,
                -1.9895458387948186,
                -0.09295796960888361
            ]
        },
        {
            "positions": [
                -0.7778619649034519,
                -0.6704258166924425,
                1.497925324745193,
                1.7590789882679383,
                -1.8668388485121978,
                -0.15443881618546657
            ]
        },
        {
            "positions": [
                -0.7425538223609361,
                -0.6746811417225508,
                1.45191714249501,
                1.635566869101138,
                -1.7441318582295773,
                -0.21591966276204955
            ]
        },
        {
            "positions": [
                -0.7072456798184203,
                -0.6789364667526592,
                1.405908960244827,
                1.5120547499343375,
                -1.6214248679469567,
                -0.27740050933863253
            ]
        },
        {
            "positions": [
                -0.6719375372759046,
                -0.6831917917827675,
                1.359900777994644,
                1.388542630767537,
                -1.498717877664336,
                -0.3388813559152155
            ]
        },
        {
            "positions": [
                -0.6366293947333888,
                -0.6874471168128757,
                1.313892595744461,
                1.2650305116007368,
                -1.3760108873817156,
                -0.4003622024917985
            ]
        },
        {
            "positions": [
                -0.601321252190873,
                -0.691702441842984,
                1.2678844134942777,
                1.1415183924339363,
                -1.2533038970990948,
                -0.4618430490683815
            ]
        },
        {
            "positions": [
                -0.5660131096483572,
                -0.6959577668730924,
                1.2218762312440947,
                1.018006273267136,
                -1.1305969068164743,
                -0.5233238956449644
            ]
        },
        {
            "positions": [
                -0.5307049671058414,
                -0.7002130919032007,
                1.1758680489939117,
                0.8944941541003355,
                -1.0078899165338537,
                -0.5848047422215473
            ]
        },
        {
            "positions": [
                -0.49539682456332557,
                -0.7044684169333091,
                1.1298598667437285,
                0.770982034933535,
                -0.885182926251233,
                -0.6462855887981304
            ]
        },
        {
            "positions": [
                -0.46008868202080977,
                -0.7087237419634174,
                1.0838516844935455,
                0.6474699157667347,
                -0.7624759359686124,
                -0.7077664353747133
            ]
        },
        {
            "positions": [
                -0.424780539478294,
                -0.7129790669935256,
                1.0378435022433625,
                0.5239577965999342,
                -0.6397689456859916,
                -0.7692472819512963
            ]
        },
        {
            "positions": [
                -0.3894723969357782,
                -0.7172343920236339,
                0.9918353199931795,
                0.400445677433134,
                -0.5170619554033713,
                -0.8307281285278793
            ]
        },
        {
            "positions": [
                -0.3541642543932624,
                -0.7214897170537423,
                0.9458271377429964,
                0.27693355826633326,
                -0.3943549651207505,
                -0.8922089751044623
            ]
        },
        {
            "positions": [
                -0.3188561118507466,
                -0.7257450420838506,
                0.8998189554928134,
                0.15342143909953299,
                -0.27164797483812997,
                -0.9536898216810452
            ]
        },
        {
            "positions": [
                -0.2835479693082308,
                -0.7300003671139589,
                0.8538107732426303,
                0.029909319932732714,
                -0.1489409845555092,
                -1.0151706682576285
            ]
        },
        {
            "positions": [
                -0.248239826765715,
                -0.7342556921440673,
                0.8078025909924473,
                -0.09360279923406756,
                -0.02623399427288886,
                -1.0766515148342113
            ]
        },
        {
            "positions": [
                -0.21293168422319922,
                -0.7385110171741756,
                0.7617944087422642,
                -0.21711491840086827,
                0.09647299600973204,
                -1.1381323614107943
            ]
        },
        {
            "positions": [
                -0.2760284040832829,
                -0.7658158678151712,
                0.8513618592459941,
                -0.26189536647943346,
                0.12289411933969899,
                -1.280131817062371
            ]
        },
        {
            "positions": [
                -0.3391251239433665,
                -0.7931207184561667,
                0.9409293097497238,
                -0.30667581455799864,
                0.14931524266966592,
                -1.4221312727139477
            ]
        },
        {
            "positions": [
                -0.40222184380345016,
                -0.8204255690971624,
                1.0304967602534536,
                -0.3514562626365638,
                0.17573636599963285,
                -1.5641307283655246
            ]
        },
        {
            "positions": [
                -0.46531856366353386,
                -0.8477304197381579,
                1.1200642107571834,
                -0.396236710715129,
                0.20215748932959982,
                -1.7061301840171013
            ]
        },
        {
            "positions": [
                -0.5284152835236176,
                -0.8750352703791535,
                1.2096316612609133,
                -0.44101715879369424,
                0.22857861265956675,
                -1.8481296396686782
            ]
        },
        {
            "positions": [
                -0.5915120033837011,
                -0.902340121020149,
                1.299199111764643,
                -0.4857976068722594,
                0.2549997359895337,
                -1.9901290953202548
            ]
        },
        {
            "positions": [
                -0.6546087232437848,
                -0.9296449716611447,
                1.3887665622683727,
                -0.5305780549508246,
                0.2814208593195006,
                -2.1321285509718315
            ]
        },
        {
            "positions": [
                -0.7177054431038684,
                -0.9569498223021402,
                1.4783340127721025,
                -0.5753585030293897,
                0.30784198264946755,
                -2.274128006623408
            ]
        },
        {
            "positions": [
                -0.7808021629639522,
                -0.9842546729431358,
                1.5679014632758324,
                -0.620138951107955,
                0.33426310597943454,
                -2.416127462274985
            ]
        },
        {
            "positions": [
                -0.8438988828240358,
                -1.0115595235841315,
                1.6574689137795622,
                -0.6649193991865202,
                0.36068422930940147,
                -2.558126917926562
            ]
        },
        {
            "positions": [
                -0.9069956026841195,
                -1.0388643742251271,
                1.747036364283292,
                -0.7096998472650853,
                0.38710535263936835,
                -2.7001263735781382
            ]
        },
        {
            "positions": [
                -0.9700923225442031,
                -1.0661692248661225,
                1.8366038147870216,
                -0.7544802953436506,
                0.4135264759693353,
                -2.8421258292297154
            ]
        },
        {
            "positions": [
                -1.0331890424042869,
                -1.0934740755071182,
                1.9261712652907517,
                -0.7992607434222158,
                0.43994759929930227,
                -2.984125284881292
            ]
        },
        {
            "positions": [
                -1.0962857622643705,
                -1.1207789261481138,
                2.0157387157944813,
                -0.8440411915007809,
                0.4663687226292692,
                -3.1261247405328687
            ]
        }
    ]
}