{
    "goal": {
        "global_pose": {
            "orientation": {
                "w": 0.005598929693374612,
                "x": 0.007748599140229565,
                "y": 0.7110244013736278,
                "z": -0.7031023480610252
            },
            "position": {
                "x": 0.1141497679147869,
                "y": -0.7141253447532654,
                "z": 0.3711530566215515
            }
        },
        "name": "move_to_auspresseinheit_B"
    },
    "id": "BiTRRT_move_to_auspresseinheit_B_122",
    "joint_names": [
        "shoulder_pan_joint",
        "shoulder_lift_joint",
        "elbow_joint",
        "wrist_1_joint",
        "wrist_2_joint",
        "wrist_3_joint"
    ],
    "metrics": {
        "cart_traj_len": 0.5649245725913487,
        "distance_elbow_joint": 0.06506606639245227,
        "distance_shoulder_lift_joint": 0.2941034677838983,
        "distance_shoulder_pan_joint": 0.5770855666977741,
        "distance_wrist_1_joint": 0.33389378216234,
        "distance_wrist_2_joint": 0.9931673648524253,
        "distance_wrist_3_joint": 0.00019206458537324167,
        "smoothness": 5.075305295617109e-16,
        "time": 0.045255981,
        "traj_len": 1.504496032721344,
        "weighted_distance": 1.8949811578640499
    },
    "planner": "BiTRRT",
    "start": {
        "state": {
            "elbow_joint": 2.0193083361928714,
            "shoulder_lift_joint": -1.1220246554650708,
            "shoulder_pan_joint": -1.0952077554168747,
            "wrist_1_joint": -0.8559753972642168,
            "wrist_2_joint": 0.4759566250798843,
            "wrist_3_joint": -3.1240929996934557
        }
    },
    "waypoints": [
        {
            "positions": [
                -1.0952077554168747,
                -1.1220246554650708,
                2.0193083361928714,
                -0.8559753972642168,
                0.4759566250798843,
                -3.1240929996934557
            ]
        },
        {
            "positions": [
                -1.191388683199837,
                -1.1710419000957204,
                2.0084639917941294,
                -0.8003264335704935,
                0.6414845192219552,
                -3.1241250104576848
            ]
        },
        {
            "positions": [
                -1.2875696109827994,
                -1.2200591447263702,
                1.9976196473953873,
                -0.7446774698767701,
                0.807012413364026,
                -3.1241570212219134
            ]
        },
        {
            "positions": [
                -1.3837505387657618,
                -1.26907638935702,
                1.9867753029966453,
                -0.6890285061830468,
                0.972540307506097,
                -3.124189031986142
            ]
        },
        {
            "positions": [
                -1.479931466548724,
                -1.3180936339876697,
                1.9759309585979032,
                -0.6333795424893235,
                1.1380682016481678,
                -3.124221042750371
            ]
        },
        {
            "positions": [
                -1.5761123943316864,
                -1.3671108786183193,
                1.9650866141991612,
                -0.5777305787956001,
                1.3035960957902388,
                -3.1242530535146003
            ]
        },
        {
            "positions": [
                -1.6722933221146488,
                -1.416128123248969,
                1.9542422698004192,
                -0.5220816151018768,
                1.4691239899323096,
                -3.124285064278829
            ]
        }
    ]
}