{
    "goal": {
        "global_pose": {
            "orientation": {
                "w": 0.005598929693374612,
                "x": 0.007748599140229565,
                "y": 0.7110244013736278,
                "z": -0.7031023480610252
            },
            "position": {
                "x": 0.1141497679147869,
                "y": -0.7141253447532654,
                "z": 0.3711530566215515
            }
        },
        "name": "move_to_auspresseinheit_B"
    },
    "id": "BiTRRT_move_to_auspresseinheit_B_126",
    "joint_names": [
        "shoulder_pan_joint",
        "shoulder_lift_joint",
        "elbow_joint",
        "wrist_1_joint",
        "wrist_2_joint",
        "wrist_3_joint"
    ],
    "metrics": {
        "cart_traj_len": 0.5647203816766719,
        "distance_elbow_joint": 0.06095408942687297,
        "distance_shoulder_lift_joint": 0.2940555212311764,
        "distance_shoulder_pan_joint": 0.577794386745482,
        "distance_wrist_1_joint": 0.31631648795965783,
        "distance_wrist_2_joint": 0.9876886016529434,
        "distance_wrist_3_joint": 0.0033593912336460363,
        "smoothness": 0.0,
        "time": 0.054537574000000005,
        "traj_len": 1.4967192382841141,
        "weighted_distance": 1.8843811584522046
    },
    "planner": "BiTRRT",
    "start": {
        "state": {
            "elbow_joint": 2.0193083361928714,
            "shoulder_lift_joint": -1.1220246554650708,
            "shoulder_pan_joint": -1.0952077554168747,
            "wrist_1_joint": -0.8559753972642168,
            "wrist_2_joint": 0.4759566250798843,
            "wrist_3_joint": -3.1240929996934557
        }
    },
    "waypoints": [
        {
            "positions": [
                -1.0952077554168747,
                -1.1220246554650708,
                2.0193083361928714,
                -0.8559753972642168,
                0.4759566250798843,
                -3.1240929996934557
            ]
        },
        {
            "positions": [
                -1.191506819874455,
                -1.1710339090036002,
                2.0091493212883926,
                -0.8032559826042738,
                0.6405713920220415,
                -3.1235331011545147
            ]
        },
        {
            "positions": [
                -1.2878058843320352,
                -1.2200431625421295,
                1.9989903063839138,
                -0.7505365679443309,
                0.8051861589641987,
                -3.1229732026155737
            ]
        },
        {
            "positions": [
                -1.3841049487896155,
                -1.269052416080659,
                1.988831291479435,
                -0.6978171532843879,
                0.969800925906356,
                -3.1224133040766326
            ]
        },
        {
            "positions": [
                -1.4804040132471958,
                -1.3180616696191885,
                1.978672276574956,
                -0.645097738624445,
                1.1344156928485132,
                -3.1218534055376916
            ]
        },
        {
            "positions": [
                -1.5767030777047764,
                -1.3670709231577178,
                1.9685132616704772,
                -0.592378323964502,
                1.2990304597906706,
                -3.1212935069987506
            ]
        },
        {
            "positions": [
                -1.6730021421623567,
                -1.4160801766962472,
                1.9583542467659985,
                -0.539658909304559,
                1.4636452267328277,
                -3.1207336084598096
            ]
        }
    ]
}