{
    "goal": {
        "global_pose": {
            "orientation": {
                "w": 0.7047431493862688,
                "x": -0.7094548369677653,
                "y": 0.0024358444001904,
                "z": -0.0022348060817251984
            },
            "position": {
                "x": -0.39052492380142206,
                "y": 0.3671506643295288,
                "z": 0.19426114857196808
            }
        },
        "name": "move_to_magneteinheit_D"
    },
    "id": "BiTRRT_move_to_magneteinheit_D_109",
    "joint_names": [
        "shoulder_pan_joint",
        "shoulder_lift_joint",
        "elbow_joint",
        "wrist_1_joint",
        "wrist_2_joint",
        "wrist_3_joint"
    ],
    "metrics": {
        "cart_traj_len": 4.120296420569993,
        "distance_elbow_joint": 3.1267216403918123,
        "distance_shoulder_lift_joint": 1.8163745751638498,
        "distance_shoulder_pan_joint": 2.8841324594844506,
        "distance_wrist_1_joint": 1.7287552209613317,
        "distance_wrist_2_joint": 2.0838967870586687,
        "distance_wrist_3_joint": 3.4419018626357722,
        "smoothness": 0.7198259556482165,
        "time": 0.177398359,
        "traj_len": 3.883527075442617,
        "weighted_distance": 5.07722742045178
    },
    "planner": "BiTRRT",
    "start": {
        "state": {
            "elbow_joint": 0.749534889911806,
            "shoulder_lift_joint": -0.6476975780787326,
            "shoulder_pan_joint": -2.711696901376241,
            "wrist_1_joint": -0.07506478083263063,
            "wrist_2_joint": 0.43296659715538205,
            "wrist_3_joint": -3.14703540197715
        }
    },
    "waypoints": [
        {
            "positions": [
                -2.711696901376241,
                -0.6476975780787326,
                0.749534889911806,
                -0.07506478083263063,
                0.43296659715538205,
                -3.14703540197715
            ]
        },
        {
            "positions": [
                -2.6900166081603087,
                -0.6819911194639291,
                0.74125042988889,
                0.1265264838030636,
                0.559433258176595,
                -3.150575495349985
            ]
        },
        {
            "positions": [
                -2.668336314944376,
                -0.7162846608491256,
                0.732965969865974,
                0.32811774843875785,
                0.6858999191978079,
                -3.1541155887228194
            ]
        },
        {
            "positions": [
                -2.6466560217284436,
                -0.750578202234322,
                0.724681509843058,
                0.5297090130744521,
                0.8123665802190209,
                -3.1576556820956543
            ]
        },
        {
            "positions": [
                -2.5548208113341646,
                -0.7938594904490268,
                0.6444758674677908,
                0.559832616895159,
                0.7784650240305487,
                -3.0464344076726135
            ]
        },
        {
            "positions": [
                -2.462985600939885,
                -0.8371407786637316,
                0.5642702250925236,
                0.5899562207158658,
                0.7445634678420766,
                -2.935213133249573
            ]
        },
        {
            "positions": [
                -2.371150390545606,
                -0.8804220668784364,
                0.4840645827172564,
                0.6200798245365728,
                0.7106619116536045,
                -2.8239918588265316
            ]
        },
        {
            "positions": [
                -2.279315180151327,
                -0.9237033550931412,
                0.4038589403419892,
                0.6502034283572797,
                0.6767603554651322,
                -2.712770584403491
            ]
        },
        {
            "positions": [
                -2.1874799697570477,
                -0.966984643307846,
                0.323653297966722,
                0.6803270321779866,
                0.6428587992766601,
                -2.60154930998045
            ]
        },
        {
            "positions": [
                -2.0956447593627687,
                -1.0102659315225506,
                0.24344765559145481,
                0.7104506359986935,
                0.608957243088188,
                -2.4903280355574093
            ]
        },
        {
            "positions": [
                -2.0038095489684893,
                -1.0535472197372555,
                0.1632420132161876,
                0.7405742398194004,
                0.5750556868997159,
                -2.379106761134368
            ]
        },
        {
            "positions": [
                -1.9119743385742103,
                -1.0968285079519604,
                0.08303637084092041,
                0.7706978436401073,
                0.5411541307112437,
                -2.267885486711328
            ]
        },
        {
            "positions": [
                -1.8201391281799308,
                -1.140109796166665,
                0.0028307284656531317,
                0.8008214474608143,
                0.5072525745227716,
                -2.1566642122882866
            ]
        },
        {
            "positions": [
                -1.7283039177856518,
                -1.1833910843813698,
                -0.07737491390961404,
                0.8309450512815212,
                0.47335101833429943,
                -2.045442937865246
            ]
        },
        {
            "positions": [
                -1.6364687073913726,
                -1.2266723725960746,
                -0.1575805562848812,
                0.8610686551022281,
                0.4394494621458273,
                -1.934221663442205
            ]
        },
        {
            "positions": [
                -1.5446334969970936,
                -1.2699536608107795,
                -0.23778619866014838,
                0.891192258922935,
                0.4055479059573552,
                -1.8230003890191642
            ]
        },
        {
            "positions": [
                -1.4527982866028144,
                -1.3132349490254842,
                -0.3179918410354158,
                0.921315862743642,
                0.371646349768883,
                -1.7117791145961232
            ]
        },
        {
            "positions": [
                -1.3609630762085352,
                -1.3565162372401889,
                -0.39819748341068284,
                0.9514394665643489,
                0.3377447935804109,
                -1.6005578401730824
            ]
        },
        {
            "positions": [
                -1.269127865814256,
                -1.3997975254548938,
                -0.4784031257859499,
                0.9815630703850557,
                0.30384323739193875,
                -1.4893365657500417
            ]
        },
        {
            "positions": [
                -1.177292655419977,
                -1.4430788136695987,
                -0.5586087681612172,
                1.0116866742057626,
                0.2699416812034666,
                -1.378115291327001
            ]
        },
        {
            "positions": [
                -1.0854574450256977,
                -1.4863601018843031,
                -0.6388144105364842,
                1.0418102780264695,
                0.2360401250149945,
                -1.26689401690396
            ]
        },
        {
            "positions": [
                -0.9936222346314183,
                -1.5296413900990082,
                -0.7190200529117518,
                1.0719338818471766,
                0.20213856882652226,
                -1.155672742480919
            ]
        },
        {
            "positions": [
                -0.9017870242371393,
                -1.572922678313713,
                -0.799225695287019,
                1.1020574856678835,
                0.16823701263805013,
                -1.0444514680578783
            ]
        },
        {
            "positions": [
                -0.8099518138428601,
                -1.6162039665284178,
                -0.8794313376622861,
                1.1321810894885904,
                0.134335456449578,
                -0.9332301936348375
            ]
        },
        {
            "positions": [
                -0.7181166034485811,
                -1.6594852547431225,
                -0.9596369800375534,
                1.1623046933092973,
                0.10043390026110588,
                -0.8220089192117963
            ]
        },
        {
            "positions": [
                -0.6262813930543016,
                -1.7027665429578271,
                -1.0398426224128205,
                1.1924282971300042,
                0.06653234407263375,
                -0.7107876447887556
            ]
        },
        {
            "positions": [
                -0.5344461826600226,
                -1.746047831172532,
                -1.1200482647880876,
                1.222551900950711,
                0.03263078788416163,
                -0.5995663703657148
            ]
        },
        {
            "positions": [
                -0.44261097226574364,
                -1.789329119387237,
                -1.2002539071633547,
                1.252675504771418,
                -0.001270768304310499,
                -0.48834509594267406
            ]
        },
        {
            "positions": [
                -0.3507757618714642,
                -1.8326104076019418,
                -1.2804595495386222,
                1.2827991085921249,
                -0.035172324492782736,
                -0.37712382151963286
            ]
        },
        {
            "positions": [
                -0.2589405514771852,
                -1.8758916958166463,
                -1.3606651919138897,
                1.3129227124128318,
                -0.06907388068125486,
                -0.2659025470965921
            ]
        },
        {
            "positions": [
                -0.16710534108290576,
                -1.9191729840313512,
                -1.4408708342891567,
                1.3430463162335387,
                -0.10297543686972699,
                -0.15468127267355136
            ]
        },
        {
            "positions": [
                -0.07527013068862676,
                -1.962454272246056,
                -1.5210764766644238,
                1.3731699200542455,
                -0.13687699305819906,
                -0.04345999825051072
            ]
        },
        {
            "positions": [
                -0.05210962565899331,
                -2.0179691454387605,
                -1.6437924969994342,
                1.4150026835186114,
                -0.21202791909892504,
                0.017082832679485904
            ]
        },
        {
            "positions": [
                -0.028949120629359858,
                -2.0734840186314645,
                -1.7665085173344448,
                1.4568354469829774,
                -0.28717884513965103,
                0.07762566360948253
            ]
        },
        {
            "positions": [
                -0.0057886155997263974,
                -2.128998891824169,
                -1.8892245376694552,
                1.4986682104473432,
                -0.362329771180377,
                0.13816849453947916
            ]
        },
        {
            "positions": [
                -0.02937481655509312,
                -2.0827290956658584,
                -2.0386937219608514,
                1.461390018144074,
                -0.3386257621914206,
                0.07434656824663835
            ]
        },
        {
            "positions": [
                -0.05296101751045984,
                -2.036459299507548,
                -2.1881629062522476,
                1.4241118258408045,
                -0.3149217532024642,
                0.010524641953797528
            ]
        },
        {
            "positions": [
                -0.09664494144286055,
                -2.117303855874812,
                -2.251170854328167,
                1.4509337741990775,
                -0.1541242749965576,
                0.01312915971928172
            ]
        },
        {
            "positions": [
                -0.14032886537526126,
                -2.1981484122420762,
                -2.314178802404087,
                1.4777557225573508,
                0.006673203209348999,
                0.015733677484765913
            ]
        },
        {
            "positions": [
                -0.184012789307662,
                -2.2789929686093404,
                -2.377186750480006,
                1.5045776709156238,
                0.16747068141525562,
                0.018338195250250107
            ]
        }
    ]
}