{
    "goal": {
        "global_pose": {
            "orientation": {
                "w": 0.7047431493862688,
                "x": -0.7094548369677653,
                "y": 0.0024358444001904,
                "z": -0.0022348060817251984
            },
            "position": {
                "x": -0.39052492380142206,
                "y": 0.3671506643295288,
                "z": 0.19426114857196808
            }
        },
        "name": "move_to_magneteinheit_D"
    },
    "id": "BiTRRT_move_to_magneteinheit_D_12",
    "joint_names": [
        "shoulder_pan_joint",
        "shoulder_lift_joint",
        "elbow_joint",
        "wrist_1_joint",
        "wrist_2_joint",
        "wrist_3_joint"
    ],
    "metrics": {
        "cart_traj_len": 3.9805654086920796,
        "distance_elbow_joint": 3.1926955755171713,
        "distance_shoulder_lift_joint": 1.7219195729104502,
        "distance_shoulder_pan_joint": 3.636312347492215,
        "distance_wrist_1_joint": 2.2336212896073113,
        "distance_wrist_2_joint": 1.877869672186916,
        "distance_wrist_3_joint": 6.848258378613446,
        "smoothness": 0.6478534161750522,
        "time": 0.117958894,
        "traj_len": 4.417089181387163,
        "weighted_distance": 6.10890207446057
    },
    "planner": "BiTRRT",
    "start": {
        "state": {
            "elbow_joint": 0.749534889911806,
            "shoulder_lift_joint": -0.6476975780787326,
            "shoulder_pan_joint": -2.711696901376241,
            "wrist_1_joint": -0.07506478083263063,
            "wrist_2_joint": 0.43296659715538205,
            "wrist_3_joint": -3.14703540197715
        }
    },
    "waypoints": [
        {
            "positions": [
                -2.711696901376241,
                -0.6476975780787326,
                0.749534889911806,
                -0.07506478083263063,
                0.43296659715538205,
                -3.14703540197715
            ]
        },
        {
            "positions": [
                -2.70841984205338,
                -0.6877038379384217,
                0.7906090592087879,
                -0.020906648880447975,
                0.3714266325905228,
                -3.0883245740147585
            ]
        },
        {
            "positions": [
                -2.607669947880454,
                -0.8021072526564549,
                0.7434858445682961,
                -0.025593252700723577,
                0.3949582468499896,
                -3.1417433827759784
            ]
        },
        {
            "positions": [
                -2.5069200537075282,
                -0.916510667374488,
                0.6963626299278045,
                -0.030279856520999175,
                0.41848986110945635,
                -3.195162191537198
            ]
        },
        {
            "positions": [
                -2.406170159534602,
                -1.0309140820925213,
                0.6492394152873128,
                -0.03496646034127478,
                0.44202147536892317,
                -3.248581000298418
            ]
        },
        {
            "positions": [
                -2.305420265361676,
                -1.1453174968105544,
                0.602116200646821,
                -0.03965306416155038,
                0.4655530896283899,
                -3.3019998090596374
            ]
        },
        {
            "positions": [
                -2.20467037118875,
                -1.2597209115285877,
                0.5549929860063294,
                -0.04433966798182598,
                0.48908470388785674,
                -3.3554186178208574
            ]
        },
        {
            "positions": [
                -2.1266515584479406,
                -1.2502359435352657,
                0.46865508822823837,
                -0.08007006246811185,
                0.4583985507387683,
                -3.205556535130186
            ]
        },
        {
            "positions": [
                -2.048632745707131,
                -1.2407509755419437,
                0.38231719045014734,
                -0.11580045695439774,
                0.4277123975896798,
                -3.0556944524395147
            ]
        },
        {
            "positions": [
                -1.9706139329663217,
                -1.2312660075486217,
                0.29597929267205636,
                -0.15153085144068362,
                0.3970262444405914,
                -2.9058323697488433
            ]
        },
        {
            "positions": [
                -1.8925951202255122,
                -1.2217810395552997,
                0.20964139489396533,
                -0.1872612459269695,
                0.36634009129150297,
                -2.755970287058172
            ]
        },
        {
            "positions": [
                -1.8145763074847028,
                -1.2122960715619777,
                0.1233034971158743,
                -0.2229916404132554,
                0.3356539381424145,
                -2.6061082043675006
            ]
        },
        {
            "positions": [
                -1.7365574947438933,
                -1.2028111035686557,
                0.03696559933778332,
                -0.25872203489954126,
                0.30496778499332605,
                -2.456246121676829
            ]
        },
        {
            "positions": [
                -1.6585386820030839,
                -1.1933261355753337,
                -0.04937229844030766,
                -0.29445242938582716,
                0.2742816318442376,
                -2.306384038986158
            ]
        },
        {
            "positions": [
                -1.5805198692622744,
                -1.1838411675820117,
                -0.13571019621839875,
                -0.330182823872113,
                0.24359547869514916,
                -2.1565219562954865
            ]
        },
        {
            "positions": [
                -1.502501056521465,
                -1.1743561995886898,
                -0.22204809399648961,
                -0.36591321835839885,
                0.21290932554606073,
                -2.006659873604815
            ]
        },
        {
            "positions": [
                -1.4244822437806555,
                -1.1648712315953678,
                -0.3083859917745808,
                -0.4016436128446848,
                0.18222317239697228,
                -1.8567977909141438
            ]
        },
        {
            "positions": [
                -1.346463431039846,
                -1.1553862636020458,
                -0.3947238895526717,
                -0.43737400733097065,
                0.15153701924788388,
                -1.7069357082234726
            ]
        },
        {
            "positions": [
                -1.2684446182990363,
                -1.1459012956087238,
                -0.48106178733076277,
                -0.47310440181725655,
                0.12085086609879536,
                -1.5570736255328013
            ]
        },
        {
            "positions": [
                -1.1904258055582269,
                -1.1364163276154018,
                -0.5673996851088536,
                -0.5088347963035424,
                0.09016471294970696,
                -1.40721154284213
            ]
        },
        {
            "positions": [
                -1.1124069928174174,
                -1.1269313596220798,
                -0.6537375828869447,
                -0.5445651907898283,
                0.0594785598006185,
                -1.2573494601514583
            ]
        },
        {
            "positions": [
                -1.034388180076608,
                -1.117446391628758,
                -0.7400754806650358,
                -0.5802955852761141,
                0.028792406651530045,
                -1.1074873774607874
            ]
        },
        {
            "positions": [
                -0.9563693673357985,
                -1.107961423635436,
                -0.8264133784431269,
                -0.6160259797624,
                -0.0018937464975584128,
                -0.9576252947701156
            ]
        },
        {
            "positions": [
                -0.878350554594989,
                -1.098476455642114,
                -0.9127512762212178,
                -0.6517563742486859,
                -0.03257989964664687,
                -0.8077632120794447
            ]
        },
        {
            "positions": [
                -0.8003317418541795,
                -1.088991487648792,
                -0.9990891739993086,
                -0.6874867687349717,
                -0.06326605279573527,
                -0.6579011293887733
            ]
        },
        {
            "positions": [
                -0.7223129291133699,
                -1.07950651965547,
                -1.0854270717774,
                -0.7232171632212577,
                -0.09395220594482379,
                -0.5080390466981015
            ]
        },
        {
            "positions": [
                -0.6442941163725606,
                -1.070021551662148,
                -1.171764969555491,
                -0.7589475577075436,
                -0.12463835909391219,
                -0.35817696400743015
            ]
        },
        {
            "positions": [
                -0.5662753036317512,
                -1.060536583668826,
                -1.258102867333582,
                -0.7946779521938294,
                -0.1553245122430006,
                -0.20831488131675924
            ]
        },
        {
            "positions": [
                -0.4882564908909417,
                -1.051051615675504,
                -1.3444407651116728,
                -0.8304083466801153,
                -0.186010665392089,
                -0.058452798626087876
            ]
        },
        {
            "positions": [
                -0.410237678150132,
                -1.041566647682182,
                -1.430778662889764,
                -0.8661387411664012,
                -0.2166968185411775,
                0.09140928406458393
            ]
        },
        {
            "positions": [
                -0.33221886540932255,
                -1.03208167968886,
                -1.517116560667855,
                -0.9018691356526871,
                -0.24738297169026602,
                0.24127136675525485
            ]
        },
        {
            "positions": [
                -0.2542000526685133,
                -1.0225967116955381,
                -1.6034544584459458,
                -0.9375995301389729,
                -0.2780691248393544,
                0.3911334494459262
            ]
        },
        {
            "positions": [
                -0.17618123992770363,
                -1.0131117437022161,
                -1.6897923562240367,
                -0.9733299246252588,
                -0.3087552779884428,
                0.5409955321365976
            ]
        },
        {
            "positions": [
                -0.09816242718689416,
                -1.0036267757088941,
                -1.776130254002128,
                -1.0090603191115448,
                -0.33944143113753134,
                0.6908576148272689
            ]
        },
        {
            "positions": [
                -0.0201436144460847,
                -0.9941418077155721,
                -1.8624681517802189,
                -1.0447907135978307,
                -0.37012758428661974,
                0.8407196975179407
            ]
        },
        {
            "positions": [
                0.05787519829472476,
                -0.9846568397222502,
                -1.9488060495583102,
                -1.0805211080841164,
                -0.40081373743570814,
                0.9905817802086117
            ]
        },
        {
            "positions": [
                0.13589401103553422,
                -0.9751718717289282,
                -2.035143947336401,
                -1.1162515025704023,
                -0.43149989058479665,
                1.1404438628992826
            ]
        },
        {
            "positions": [
                0.21391282377634369,
                -0.9656869037356062,
                -2.1214818451144923,
                -1.1519818970566882,
                -0.46218604373388517,
                1.2903059455899544
            ]
        },
        {
            "positions": [
                0.29193163651715315,
                -0.9562019357422842,
                -2.207819742892583,
                -1.187712291542974,
                -0.49287219688297357,
                1.4401680282806262
            ]
        },
        {
            "positions": [
                0.3699504492579626,
                -0.9467169677489622,
                -2.294157640670674,
                -1.22344268602926,
                -0.523558350032062,
                1.5900301109712975
            ]
        },
        {
            "positions": [
                0.3287907055730617,
                -1.0023531553524323,
                -2.298629377612311,
                -1.290267897069803,
                -0.4724666298855116,
                1.740321906601744
            ]
        },
        {
            "positions": [
                0.28763096188816084,
                -1.0579893429559022,
                -2.303101114553948,
                -1.3570931081103461,
                -0.4213749097389612,
                1.8906137022321903
            ]
        },
        {
            "positions": [
                0.24647121820325993,
                -1.1136255305593723,
                -2.3075728514955847,
                -1.423918319150889,
                -0.3702831895924108,
                2.040905497862637
            ]
        },
        {
            "positions": [
                0.20531147451835902,
                -1.1692617181628422,
                -2.3120445884372214,
                -1.4907435301914322,
                -0.3191914694458604,
                2.191197293493083
            ]
        },
        {
            "positions": [
                0.16415173083345813,
                -1.2248979057663123,
                -2.316516325378858,
                -1.5575687412319752,
                -0.2680997492993101,
                2.3414890891235296
            ]
        },
        {
            "positions": [
                0.12299198714855725,
                -1.2805340933697824,
                -2.3209880623204953,
                -1.6243939522725181,
                -0.21700802915275968,
                2.491780884753976
            ]
        },
        {
            "positions": [
                0.08183224346365636,
                -1.3361702809732523,
                -2.325459799262132,
                -1.6912191633130613,
                -0.16591630900620935,
                2.6420726803844223
            ]
        },
        {
            "positions": [
                0.04067249977875542,
                -1.3918064685767224,
                -2.3299315362037687,
                -1.7580443743536045,
                -0.1148245888596589,
                2.792364476014869
            ]
        },
        {
            "positions": [
                -0.00048724390614546254,
                -1.4474426561801925,
                -2.334403273145406,
                -1.8248695853941475,
                -0.06373286871310857,
                2.9426562716453155
            ]
        },
        {
            "positions": [
                -0.041646987591046326,
                -1.5030788437836624,
                -2.3388750100870426,
                -1.8916947964346904,
                -0.012641148566558166,
                3.0929480672757617
            ]
        },
        {
            "positions": [
                -0.08933617426071429,
                -1.5832556503324189,
                -2.346254122395162,
                -1.9945864664683193,
                -0.0710116088796583,
                3.1176436745252087
            ]
        },
        {
            "positions": [
                -0.13702536093038226,
                -1.6634324568811754,
                -2.3536332347032816,
                -2.097478136501948,
                -0.1293820691927584,
                3.1423392817746554
            ]
        },
        {
            "positions": [
                -0.1847145476000502,
                -1.7436092634299318,
                -2.361012347011401,
                -2.200369806535577,
                -0.18775252950585855,
                3.1670348890241025
            ]
        }
    ]
}