{
    "goal": {
        "global_pose": {
            "orientation": {
                "w": -0.00223480608172531,
                "x": 0.0024358444001904467,
                "y": 0.7094548369677653,
                "z": -0.704743149386269
            },
            "position": {
                "x": -0.37947507619857795,
                "y": -0.6371506643295288,
                "z": 0.19426114857196808
            }
        },
        "name": "move_to_magneteinheit_C"
    },
    "id": "BiTRRT_move_to_magneteinheit_C_13",
    "joint_names": [
        "shoulder_pan_joint",
        "shoulder_lift_joint",
        "elbow_joint",
        "wrist_1_joint",
        "wrist_2_joint",
        "wrist_3_joint"
    ],
    "metrics": {
        "cart_traj_len": 0.5695908743798883,
        "distance_elbow_joint": 0.13325245417643172,
        "distance_shoulder_lift_joint": 0.2822934265507482,
        "distance_shoulder_pan_joint": 0.8013994851163722,
        "distance_wrist_1_joint": 0.9155568447874874,
        "distance_wrist_2_joint": 0.7905589224777071,
        "distance_wrist_3_joint": 1.038389050939093,
        "smoothness": 0.2585247263034748,
        "time": 0.032840536000000004,
        "traj_len": 1.9903392133121025,
        "weighted_distance": 2.782866157972966
    },
    "planner": "BiTRRT",
    "start": {
        "state": {
            "elbow_joint": 1.9565354010623817,
            "shoulder_lift_joint": -1.4165861575791021,
            "shoulder_pan_joint": -1.6717766225146293,
            "wrist_1_joint": -0.5286633292919765,
            "wrist_2_joint": 1.472756589071564,
            "wrist_3_joint": -3.1238370188695823
        }
    },
    "waypoints": [
        {
            "positions": [
                -1.6717766225146293,
                -1.4165861575791021,
                1.9565354010623817,
                -0.5286633292919765,
                1.472756589071564,
                -3.1238370188695823
            ]
        },
        {
            "positions": [
                -1.7537639197860124,
                -1.4196347543259018,
                1.9730220687861126,
                -0.46866334748226984,
                1.3876843064028714,
                -3.0230722716861065
            ]
        },
        {
            "positions": [
                -1.8357512170573953,
                -1.4226833510727013,
                1.9895087365098434,
                -0.40866336567256323,
                1.302612023734179,
                -2.922307524502631
            ]
        },
        {
            "positions": [
                -1.9177385143287784,
                -1.425731947819501,
                2.005995404233574,
                -0.34866338386285667,
                1.2175397410654865,
                -2.8215427773191553
            ]
        },
        {
            "positions": [
                -1.9997258116001615,
                -1.4287805445663004,
                2.022482071957305,
                -0.28866340205315,
                1.132467458396794,
                -2.72077803013568
            ]
        },
        {
            "positions": [
                -2.0817131088715444,
                -1.4318291413131001,
                2.038968739681036,
                -0.22866342024344344,
                1.0473951757281015,
                -2.620013282952204
            ]
        },
        {
            "positions": [
                -2.1509354405039898,
                -1.4193287043325793,
                2.042822054537471,
                -0.21973678665565127,
                1.018174303819074,
                -2.624916071238715
            ]
        },
        {
            "positions": [
                -2.2880158079947366,
                -1.385803154274779,
                2.046547683409238,
                -0.23241309363109192,
                0.9762239984204665,
                -2.6846095075725147
            ]
        },
        {
            "positions": [
                -2.4250961754854834,
                -1.3522776042169788,
                2.0502733122810053,
                -0.24508940060653253,
                0.9342736930218589,
                -2.7443029439063142
            ]
        },
        {
            "positions": [
                -2.437116158521863,
                -1.3054028777868216,
                2.0403946765415535,
                -0.3904088226566028,
                0.8712546864148584,
                -2.8468718574232152
            ]
        },
        {
            "positions": [
                -2.4491361415582427,
                -1.2585281513566644,
                2.0305160408021012,
                -0.535728244706673,
                0.8082356798078578,
                -2.9494407709401163
            ]
        },
        {
            "positions": [
                -2.461156124594622,
                -1.2116534249265072,
                2.020637405062649,
                -0.6810476667567433,
                0.7452166732008574,
                -3.0520096844570177
            ]
        },
        {
            "positions": [
                -2.4731761076310015,
                -1.16477869849635,
                2.010758769323197,
                -0.8263670888068135,
                0.6821976665938568,
                -3.1545785979739187
            ]
        }
    ]
}