{
    "goal": {
        "global_pose": {
            "orientation": {
                "w": -0.00223480608172531,
                "x": 0.0024358444001904467,
                "y": 0.7094548369677653,
                "z": -0.704743149386269
            },
            "position": {
                "x": -0.37947507619857795,
                "y": -0.6371506643295288,
                "z": 0.19426114857196808
            }
        },
        "name": "move_to_magneteinheit_C"
    },
    "id": "BiTRRT_move_to_magneteinheit_C_115",
    "joint_names": [
        "shoulder_pan_joint",
        "shoulder_lift_joint",
        "elbow_joint",
        "wrist_1_joint",
        "wrist_2_joint",
        "wrist_3_joint"
    ],
    "metrics": {
        "cart_traj_len": 2.038721619837732,
        "distance_elbow_joint": 0.970545947284017,
        "distance_shoulder_lift_joint": 2.1796242138851216,
        "distance_shoulder_pan_joint": 1.9401334310848732,
        "distance_wrist_1_joint": 3.0933509687040153,
        "distance_wrist_2_joint": 4.650949805107363,
        "distance_wrist_3_joint": 0.4682813332956193,
        "smoothness": 1.0115173604735708,
        "time": 0.30559367,
        "traj_len": 3.647312119816592,
        "weighted_distance": 4.688683092272672
    },
    "planner": "BiTRRT",
    "start": {
        "state": {
            "elbow_joint": 1.9565354010623817,
            "shoulder_lift_joint": -1.4165861575791021,
            "shoulder_pan_joint": -1.6717766225146293,
            "wrist_1_joint": -0.5286633292919765,
            "wrist_2_joint": 1.472756589071564,
            "wrist_3_joint": -3.1238370188695823
        }
    },
    "waypoints": [
        {
            "positions": [
                -1.6717766225146293,
                -1.4165861575791021,
                1.9565354010623817,
                -0.5286633292919765,
                1.472756589071564,
                -3.1238370188695823
            ]
        },
        {
            "positions": [
                -1.771785647789347,
                -1.4555974833191043,
                1.9897784113279464,
                -0.47980868312872327,
                1.3566223496250263,
                -3.105011539619086
            ]
        },
        {
            "positions": [
                -1.8717946730640649,
                -1.4946088090591063,
                2.023021421593511,
                -0.43095403696547013,
                1.2404881101784886,
                -3.08618606036859
            ]
        },
        {
            "positions": [
                -1.9718036983387826,
                -1.5336201347991085,
                2.056264431859076,
                -0.382099390802217,
                1.1243538707319511,
                -3.0673605811180935
            ]
        },
        {
            "positions": [
                -2.0718127236135,
                -1.5726314605391107,
                2.089507442124641,
                -0.3332447446389638,
                1.0082196312854135,
                -3.0485351018675972
            ]
        },
        {
            "positions": [
                -2.171821748888218,
                -1.6116427862791127,
                2.1227504523902057,
                -0.2843900984757106,
                0.8920853918388758,
                -3.0297096226171005
            ]
        },
        {
            "positions": [
                -2.271830774162936,
                -1.650654112019115,
                2.1559934626557706,
                -0.23553545231245748,
                0.7759511523923381,
                -3.0108841433666043
            ]
        },
        {
            "positions": [
                -2.3718397994376534,
                -1.6896654377591172,
                2.189236472921335,
                -0.18668080614920435,
                0.6598169129458006,
                -2.992058664116108
            ]
        },
        {
            "positions": [
                -2.4718488247123713,
                -1.7286767634991191,
                2.2224794831869,
                -0.13782615998595116,
                0.5436826734992629,
                -2.9732331848656117
            ]
        },
        {
            "positions": [
                -2.5193631959236753,
                -1.782929061116435,
                2.184182176300998,
                -0.0537784801928745,
                0.3944529532299799,
                -2.994105258134022
            ]
        },
        {
            "positions": [
                -2.5668775671349793,
                -1.8371813587337509,
                2.145884869415096,
                0.030269199600202162,
                0.24522323296069692,
                -3.0149773314024317
            ]
        },
        {
            "positions": [
                -2.6143919383462833,
                -1.891433656351067,
                2.1075875625291935,
                0.11431687939327884,
                0.09599351269141387,
                -3.035849404670842
            ]
        },
        {
            "positions": [
                -2.6619063095575872,
                -1.9456859539683828,
                2.0692902556432915,
                0.19836455918635548,
                -0.053236207577869066,
                -3.056721477939252
            ]
        },
        {
            "positions": [
                -2.709420680768891,
                -1.9999382515856987,
                2.0309929487573894,
                0.2824122389794322,
                -0.20246592784715223,
                -3.077593551207662
            ]
        },
        {
            "positions": [
                -2.7569350519801956,
                -2.054190549203015,
                1.9926956418714874,
                0.36645991877250883,
                -0.35169564811643517,
                -3.098465624476072
            ]
        },
        {
            "positions": [
                -2.8044494231914996,
                -2.1084428468203305,
                1.9543983349855854,
                0.45050759856558553,
                -0.5009253683857183,
                -3.1193376977444824
            ]
        },
        {
            "positions": [
                -2.8519637944028036,
                -2.1626951444376465,
                1.9161010280996833,
                0.5345552783586621,
                -0.650155088655001,
                -3.1402097710128922
            ]
        },
        {
            "positions": [
                -2.8994781656141075,
                -2.216947442054962,
                1.877803721213781,
                0.6186029581517388,
                -0.7993848089242842,
                -3.1610818442813025
            ]
        },
        {
            "positions": [
                -2.9469925368254115,
                -2.2711997396722783,
                1.8395064143278788,
                0.7026506379448155,
                -0.9486145291935674,
                -3.1819539175497127
            ]
        },
        {
            "positions": [
                -2.9945069080367155,
                -2.325452037289594,
                1.8012091074419767,
                0.7866983177378921,
                -1.0978442494628502,
                -3.2028259908181225
            ]
        },
        {
            "positions": [
                -3.0420212792480195,
                -2.37970433490691,
                1.7629118005560747,
                0.8707459975309688,
                -1.2470739697321331,
                -3.2236980640865327
            ]
        },
        {
            "positions": [
                -3.0040286942912537,
                -2.2986039324697556,
                1.779247412724653,
                0.7578165547388974,
                -1.1183326866452221,
                -3.219217222748484
            ]
        },
        {
            "positions": [
                -2.9660361093344885,
                -2.2175035300326016,
                1.795583024893231,
                0.644887111946826,
                -0.9895914035583112,
                -3.2147363814104355
            ]
        },
        {
            "positions": [
                -2.9280435243777228,
                -2.136403127595447,
                1.8119186370618092,
                0.5319576691547547,
                -0.8608501204714003,
                -3.2102555400723873
            ]
        },
        {
            "positions": [
                -2.8900509394209575,
                -2.055302725158293,
                1.8282542492303875,
                0.41902822636268333,
                -0.7321088373844893,
                -3.2057746987343387
            ]
        },
        {
            "positions": [
                -2.8520583544641918,
                -1.9742023227211387,
                1.8445898613989657,
                0.30609878357061193,
                -0.6033675542975784,
                -3.20129385739629
            ]
        },
        {
            "positions": [
                -2.814065769507426,
                -1.8931019202839845,
                1.8609254735675438,
                0.19316934077854053,
                -0.47462627121066736,
                -3.1968130160582415
            ]
        },
        {
            "positions": [
                -2.7760731845506608,
                -1.8120015178468303,
                1.877261085736122,
                0.08023989798646913,
                -0.34588498812375645,
                -3.192332174720193
            ]
        },
        {
            "positions": [
                -2.738080599593895,
                -1.7309011154096758,
                1.8935966979047003,
                -0.032689544805602155,
                -0.21714370503684544,
                -3.1878513333821448
            ]
        },
        {
            "positions": [
                -2.7000880146371298,
                -1.6498007129725218,
                1.9099323100732786,
                -0.14561898759767344,
                -0.08840242194993464,
                -3.183370492044096
            ]
        },
        {
            "positions": [
                -2.662095429680364,
                -1.5687003105353674,
                1.9262679222418566,
                -0.25854843038974495,
                0.04033886113697638,
                -3.1788896507060476
            ]
        },
        {
            "positions": [
                -2.6241028447235983,
                -1.4875999080982132,
                1.9426035344104349,
                -0.37147787318181624,
                0.1690801442238874,
                -3.174408809367999
            ]
        },
        {
            "positions": [
                -2.586110259766833,
                -1.406499505661059,
                1.9589391465790131,
                -0.48440731597388775,
                0.2978214273107984,
                -3.1699279680299504
            ]
        },
        {
            "positions": [
                -2.5481176748100673,
                -1.3253991032239045,
                1.9752747587475914,
                -0.597336758765959,
                0.42656271039770943,
                -3.165447126691902
            ]
        },
        {
            "positions": [
                -2.510125089853302,
                -1.2442987007867503,
                1.9916103709161694,
                -0.7102662015580306,
                0.5553039934846202,
                -3.1609662853538536
            ]
        },
        {
            "positions": [
                -2.4721325048965364,
                -1.163198298349596,
                2.0079459830847477,
                -0.8231956443501018,
                0.6840452765715312,
                -3.156485444015805
            ]
        }
    ]
}