{
    "goal": {
        "global_pose": {
            "orientation": {
                "w": -0.00223480608172531,
                "x": 0.0024358444001904467,
                "y": 0.7094548369677653,
                "z": -0.704743149386269
            },
            "position": {
                "x": 0.6205249238014221,
                "y": -0.6371506643295288,
                "z": 0.19426114857196808
            }
        },
        "name": "move_to_magneteinheit_B"
    },
    "id": "BiTRRT_move_to_magneteinheit_B_85",
    "joint_names": [
        "shoulder_pan_joint",
        "shoulder_lift_joint",
        "elbow_joint",
        "wrist_1_joint",
        "wrist_2_joint",
        "wrist_3_joint"
    ],
    "metrics": {
        "cart_traj_len": 1.4536718481733866,
        "distance_elbow_joint": 1.0905943652461119,
        "distance_shoulder_lift_joint": 0.7985564638580025,
        "distance_shoulder_pan_joint": 1.6199290092499834,
        "distance_wrist_1_joint": 0.6302308241470187,
        "distance_wrist_2_joint": 1.533830691231499,
        "distance_wrist_3_joint": 0.6875350805876095,
        "smoothness": 0.40613220598710054,
        "time": 0.063973979,
        "traj_len": 2.522038150845507,
        "weighted_distance": 3.1463960511788662
    },
    "planner": "BiTRRT",
    "start": {
        "state": {
            "elbow_joint": 2.6216224122426386,
            "shoulder_lift_joint": -1.4174107377796124,
            "shoulder_pan_joint": 0.7066234856936794,
            "wrist_1_joint": 1.9546482284002225,
            "wrist_2_joint": -0.7096286983471962,
            "wrist_3_joint": 0.005740856962016249
        }
    },
    "waypoints": [
        {
            "positions": [
                0.7066234856936794,
                -1.4174107377796124,
                2.6216224122426386,
                1.9546482284002225,
                -0.7096286983471962,
                0.005740856962016249
            ]
        },
        {
            "positions": [
                0.6503657490259342,
                -1.4243283106782403,
                2.6436964983995823,
                1.8817281658492526,
                -0.813203242427675,
                0.12193350280981625
            ]
        },
        {
            "positions": [
                0.594108012358189,
                -1.431245883576868,
                2.6657705845565265,
                1.808808103298283,
                -0.9167777865081538,
                0.23812614865761628
            ]
        },
        {
            "positions": [
                0.5378502756904439,
                -1.438163456475496,
                2.68784467071347,
                1.7358880407473132,
                -1.0203523305886326,
                0.3543187945054163
            ]
        },
        {
            "positions": [
                0.43419629002996185,
                -1.382606046106773,
                2.6146752345152358,
                1.7652788004968925,
                -1.1077171205164942,
                0.3301075700022585
            ]
        },
        {
            "positions": [
                0.3305423043694799,
                -1.3270486357380504,
                2.5415057983170017,
                1.7946695602464717,
                -1.1950819104443557,
                0.3058963454991007
            ]
        },
        {
            "positions": [
                0.2268883187089979,
                -1.2714912253693276,
                2.4683363621187673,
                1.824060319996051,
                -1.2824467003722173,
                0.2816851209959429
            ]
        },
        {
            "positions": [
                0.12323433304851594,
                -1.215933815000605,
                2.395166925920533,
                1.85345107974563,
                -1.369811490300079,
                0.25747389649278507
            ]
        },
        {
            "positions": [
                0.019580347388033936,
                -1.160376404631882,
                2.321997489722299,
                1.8828418394952093,
                -1.4571762802279407,
                0.23326267198962725
            ]
        },
        {
            "positions": [
                -0.08407363827244807,
                -1.1048189942631592,
                2.2488280535240643,
                1.9122325992447886,
                -1.5445410701558022,
                0.20905144748646945
            ]
        },
        {
            "positions": [
                -0.18772762393293008,
                -1.0492615838944364,
                2.17565861732583,
                1.9416233589943679,
                -1.631905860083664,
                0.18484022298331163
            ]
        },
        {
            "positions": [
                -0.29138160959341197,
                -0.9937041735257137,
                2.102489181127596,
                1.9710141187439472,
                -1.7192706500115253,
                0.16062899848015383
            ]
        },
        {
            "positions": [
                -0.3950355952538941,
                -0.9381467631569909,
                2.0293197449293614,
                2.0004048784935264,
                -1.8066354399393871,
                0.13641777397699598
            ]
        },
        {
            "positions": [
                -0.498689580914376,
                -0.8825893527882681,
                1.9561503087311272,
                2.0297956382431055,
                -1.8940002298672487,
                0.11220654947383818
            ]
        },
        {
            "positions": [
                -0.6023435665748581,
                -0.8270319424195454,
                1.882980872532893,
                2.059186397992685,
                -1.9813650197951103,
                0.08799532497068036
            ]
        },
        {
            "positions": [
                -0.70599755223534,
                -0.7714745320508226,
                1.8098114363346587,
                2.088577157742264,
                -2.0687298097229716,
                0.06378410046752259
            ]
        },
        {
            "positions": [
                -0.8096515378958221,
                -0.7159171216820998,
                1.7366420001364242,
                2.1179679174918435,
                -2.1560945996508334,
                0.03957287596436476
            ]
        },
        {
            "positions": [
                -0.9133055235563039,
                -0.660359711313377,
                1.66347256393819,
                2.1473586772414226,
                -2.243459389578695,
                0.015361651461206962
            ]
        }
    ]
}