{
    "goal": {
        "global_pose": {
            "orientation": {
                "w": -0.00223480608172531,
                "x": 0.0024358444001904467,
                "y": 0.7094548369677653,
                "z": -0.704743149386269
            },
            "position": {
                "x": 0.6205249238014221,
                "y": -0.6371506643295288,
                "z": 0.19426114857196808
            }
        },
        "name": "move_to_magneteinheit_B"
    },
    "id": "BiTRRT_move_to_magneteinheit_B_11",
    "joint_names": [
        "shoulder_pan_joint",
        "shoulder_lift_joint",
        "elbow_joint",
        "wrist_1_joint",
        "wrist_2_joint",
        "wrist_3_joint"
    ],
    "metrics": {
        "cart_traj_len": 1.570530588583134,
        "distance_elbow_joint": 0.9601700564209026,
        "distance_shoulder_lift_joint": 0.7584822769178993,
        "distance_shoulder_pan_joint": 1.6200753207640086,
        "distance_wrist_1_joint": 1.2715151176258441,
        "distance_wrist_2_joint": 2.515700084685142,
        "distance_wrist_3_joint": 0.2985741099329284,
        "smoothness": 0.4741509253651539,
        "time": 0.06989611200000001,
        "traj_len": 2.724796683487912,
        "weighted_distance": 3.4364051548854895
    },
    "planner": "BiTRRT",
    "start": {
        "state": {
            "elbow_joint": 2.6216224122426386,
            "shoulder_lift_joint": -1.4174107377796124,
            "shoulder_pan_joint": 0.7066234856936794,
            "wrist_1_joint": 1.9546482284002225,
            "wrist_2_joint": -0.7096286983471962,
            "wrist_3_joint": 0.005740856962016249
        }
    },
    "waypoints": [
        {
            "positions": [
                0.7066234856936794,
                -1.4174107377796124,
                2.6216224122426386,
                1.9546482284002225,
                -0.7096286983471962,
                0.005740856962016249
            ]
        },
        {
            "positions": [
                0.6436455584240373,
                -1.4000809329725075,
                2.5809111314844464,
                1.883056983579182,
                -0.6002800013678502,
                -0.027514265303035898
            ]
        },
        {
            "positions": [
                0.5806676311543952,
                -1.3827511281654028,
                2.5401998507262546,
                1.8114657387581414,
                -0.4909313043885042,
                -0.06076938756808804
            ]
        },
        {
            "positions": [
                0.5176897038847531,
                -1.365421323358298,
                2.4994885699680625,
                1.739874493937101,
                -0.38158260740915817,
                -0.09402450983314019
            ]
        },
        {
            "positions": [
                0.4213479822317444,
                -1.3598688771043865,
                2.3858011101833263,
                1.657803547176507,
                -0.3402680660184769,
                -0.10705325163872999
            ]
        },
        {
            "positions": [
                0.3250062605787357,
                -1.3543164308504752,
                2.27211365039859,
                1.575732600415913,
                -0.2989535246277957,
                -0.1200819934443198
            ]
        },
        {
            "positions": [
                0.22866453892572697,
                -1.3487639845965638,
                2.158426190613854,
                1.493661653655319,
                -0.2576389832371144,
                -0.1331107352499096
            ]
        },
        {
            "positions": [
                0.13232281727271827,
                -1.3432115383426524,
                2.044738730829118,
                1.411590706894725,
                -0.21632444184643315,
                -0.1461394770554994
            ]
        },
        {
            "positions": [
                0.051878613246330016,
                -1.2905743785364263,
                2.0152551635208575,
                1.4676259065962902,
                -0.37189335170676996,
                -0.1348553404466215
            ]
        },
        {
            "positions": [
                -0.028565590780058242,
                -1.2379372187302002,
                1.9857715962125975,
                1.5236611062978553,
                -0.5274622615671067,
                -0.12357120383774359
            ]
        },
        {
            "positions": [
                -0.10900979480644651,
                -1.1853000589239742,
                1.9562880289043374,
                1.5796963059994205,
                -0.6830311714274435,
                -0.1122870672288657
            ]
        },
        {
            "positions": [
                -0.18945399883283476,
                -1.132662899117748,
                1.9268044615960773,
                1.6357315057009856,
                -0.8386000812877804,
                -0.10100293061998777
            ]
        },
        {
            "positions": [
                -0.26989820285922306,
                -1.0800257393115218,
                1.897320894287817,
                1.691766705402551,
                -0.9941689911481172,
                -0.08971879401110988
            ]
        },
        {
            "positions": [
                -0.3503424068856113,
                -1.0273885795052957,
                1.867837326979557,
                1.747801905104116,
                -1.1497379010084539,
                -0.07843465740223197
            ]
        },
        {
            "positions": [
                -0.4307866109119995,
                -0.9747514196990696,
                1.8383537596712969,
                1.8038371048056812,
                -1.3053068108687906,
                -0.06715052079335408
            ]
        },
        {
            "positions": [
                -0.5112308149383877,
                -0.9221142598928436,
                1.8088701923630368,
                1.8598723045072463,
                -1.4608757207291276,
                -0.05586638418447616
            ]
        },
        {
            "positions": [
                -0.5916750189647759,
                -0.8694771000866175,
                1.7793866250547765,
                1.9159075042088114,
                -1.6164446305894644,
                -0.04458224757559827
            ]
        },
        {
            "positions": [
                -0.6721192229911643,
                -0.8168399402803913,
                1.7499030577465164,
                1.9719427039103765,
                -1.7720135404498012,
                -0.03329811096672036
            ]
        },
        {
            "positions": [
                -0.7525634270175525,
                -0.7642027804741653,
                1.7204194904382564,
                2.0279779036119416,
                -1.927582450310138,
                -0.02201397435784247
            ]
        },
        {
            "positions": [
                -0.8330076310439409,
                -0.7115656206679392,
                1.690935923129996,
                2.0840131033135068,
                -2.0831513601704748,
                -0.010729837748964549
            ]
        },
        {
            "positions": [
                -0.9134518350703291,
                -0.6589284608617131,
                1.661452355821736,
                2.140048303015072,
                -2.2387202700308113,
                0.0005542988599133399
            ]
        }
    ]
}