{
    "goal": {
        "global_pose": {
            "orientation": {
                "w": 0.7031023502349854,
                "x": -0.7110244035720825,
                "y": 0.007748599164187908,
                "z": 0.005598929710686207
            },
            "position": {
                "x": 0.11585023208521307,
                "y": 0.44412534475326537,
                "z": 0.3711530566215515
            }
        },
        "name": "move_to_auspresseinheit_A"
    },
    "id": "BiTRRT_move_to_auspresseinheit_A_29",
    "joint_names": [
        "shoulder_pan_joint",
        "shoulder_lift_joint",
        "elbow_joint",
        "wrist_1_joint",
        "wrist_2_joint",
        "wrist_3_joint"
    ],
    "metrics": {
        "cart_traj_len": 2.9934882947676185,
        "distance_elbow_joint": 0.7770744136841921,
        "distance_shoulder_lift_joint": 2.998455618713903,
        "distance_shoulder_pan_joint": 2.3472779420514165,
        "distance_wrist_1_joint": 5.352675751488006,
        "distance_wrist_2_joint": 6.377503664044378,
        "distance_wrist_3_joint": 1.47643146557831,
        "smoothness": 0.6972827089547871,
        "time": 0.120848844,
        "traj_len": 4.396523496532255,
        "weighted_distance": 5.832020336234194
    },
    "planner": "BiTRRT",
    "start": {
        "state": {
            "elbow_joint": 2.4225746658250005,
            "shoulder_lift_joint": -1.3736534386056498,
            "shoulder_pan_joint": -0.3378633547517467,
            "wrist_1_joint": -1.0288598680537169,
            "wrist_2_joint": 1.233022673432363,
            "wrist_3_joint": -3.0940220416140027
        }
    },
    "waypoints": [
        {
            "positions": [
                -0.3378633547517467,
                -1.3736534386056498,
                2.4225746658250005,
                -1.0288598680537169,
                1.233022673432363,
                -3.0940220416140027
            ]
        },
        {
            "positions": [
                -0.27726516500846277,
                -1.4367206965482873,
                2.4081799758880784,
                -0.9233722309378363,
                1.109774814571661,
                -3.068451019566477
            ]
        },
        {
            "positions": [
                -0.2166669752651788,
                -1.4997879544909247,
                2.3937852859511564,
                -0.8178845938219557,
                0.9865269557109592,
                -3.042879997518951
            ]
        },
        {
            "positions": [
                -0.15606878552189485,
                -1.5628552124335622,
                2.3793905960142343,
                -0.7123969567060751,
                0.8632790968502572,
                -3.017308975471425
            ]
        },
        {
            "positions": [
                -0.09547059577861086,
                -1.6259224703761999,
                2.3649959060773127,
                -0.6069093195901943,
                0.7400312379895553,
                -2.991737953423899
            ]
        },
        {
            "positions": [
                -0.034872406035326875,
                -1.6889897283188373,
                2.3506012161403906,
                -0.5014216824743136,
                0.6167833791288532,
                -2.966166931376373
            ]
        },
        {
            "positions": [
                0.02572578370795703,
                -1.7520569862614748,
                2.3362065262034686,
                -0.39593404535843313,
                0.4935355202681513,
                -2.9405959093288474
            ]
        },
        {
            "positions": [
                0.08632397345124104,
                -1.8151242442041122,
                2.3218118362665465,
                -0.2904464082425524,
                0.3702876614074493,
                -2.915024887281321
            ]
        },
        {
            "positions": [
                0.146922163194525,
                -1.8781915021467497,
                2.3074171463296245,
                -0.1849587711266718,
                0.2470398025467474,
                -2.8894538652337953
            ]
        },
        {
            "positions": [
                0.20752035293780907,
                -1.9412587600893874,
                2.2930224563927024,
                -0.07947113401079109,
                0.12379194368604529,
                -2.8638828431862695
            ]
        },
        {
            "positions": [
                0.268118542681093,
                -2.0043260180320246,
                2.2786277664557804,
                0.026016503105089628,
                0.0005440848253432939,
                -2.8383118211387437
            ]
        },
        {
            "positions": [
                0.3287167324243769,
                -2.0673932759746623,
                2.2642330765188587,
                0.13150414022097,
                -0.12270377403535848,
                -2.812740799091218
            ]
        },
        {
            "positions": [
                0.3893149221676608,
                -2.1304605339173,
                2.2498383865819367,
                0.23699177733685062,
                -0.24595163289606048,
                -2.787169777043692
            ]
        },
        {
            "positions": [
                0.4499131119109449,
                -2.193527791859937,
                2.2354436966450146,
                0.34247941445273145,
                -0.3691994917567625,
                -2.761598754996166
            ]
        },
        {
            "positions": [
                0.5105113016542289,
                -2.256595049802575,
                2.2210490067080926,
                0.44796705156861205,
                -0.4924473506174645,
                -2.73602773294864
            ]
        },
        {
            "positions": [
                0.5711094913975128,
                -2.319662307745212,
                2.2066543167711705,
                0.5534546886844927,
                -0.6156952094781665,
                -2.710456710901114
            ]
        },
        {
            "positions": [
                0.6317076811407967,
                -2.3827295656878498,
                2.1922596268342485,
                0.6589423258003733,
                -0.7389430683388682,
                -2.6848856888535884
            ]
        },
        {
            "positions": [
                0.6923058708840806,
                -2.445796823630487,
                2.1778649368973264,
                0.7644299629162539,
                -0.8621909271995702,
                -2.659314666806062
            ]
        },
        {
            "positions": [
                0.7529040606273649,
                -2.508864081573125,
                2.1634702469604044,
                0.8699176000321347,
                -0.9854387860602725,
                -2.6337436447585363
            ]
        },
        {
            "positions": [
                0.8135022503706488,
                -2.5719313395157624,
                2.1490755570234827,
                0.9754052371480155,
                -1.1086866449209742,
                -2.6081726227110105
            ]
        },
        {
            "positions": [
                0.8741004401139327,
                -2.6349985974583996,
                2.1346808670865607,
                1.0808928742638961,
                -1.2319345037816765,
                -2.5826016006634847
            ]
        },
        {
            "positions": [
                0.9346986298572166,
                -2.6980658554010373,
                2.1202861771496386,
                1.1863805113797763,
                -1.3551823626423782,
                -2.557030578615959
            ]
        },
        {
            "positions": [
                0.9952968196005005,
                -2.761133113343675,
                2.1058914872127166,
                1.291868148495657,
                -1.47843022150308,
                -2.5314595565684326
            ]
        },
        {
            "positions": [
                1.0558950093437844,
                -2.824200371286312,
                2.0914967972757945,
                1.3973557856115375,
                -1.6016780803637822,
                -2.5058885345209068
            ]
        },
        {
            "positions": [
                1.1164931990870683,
                -2.8872676292289494,
                2.077102107338873,
                1.502843422727418,
                -1.724925939224484,
                -2.480317512473381
            ]
        },
        {
            "positions": [
                1.1770913888303527,
                -2.9503348871715875,
                2.062707417401951,
                1.6083310598432992,
                -1.8481737980851862,
                -2.4547464904258547
            ]
        },
        {
            "positions": [
                1.2376895785736366,
                -3.0134021451142248,
                2.048312727465029,
                1.7138186969591798,
                -1.971421656945888,
                -2.429175468378329
            ]
        },
        {
            "positions": [
                1.2982877683169205,
                -3.076469403056862,
                2.0339180375281067,
                1.8193063340750604,
                -2.09466951580659,
                -2.403604446330803
            ]
        },
        {
            "positions": [
                1.3588859580602044,
                -3.1395366609994997,
                2.0195233475911847,
                1.9247939711909408,
                -2.217917374667292,
                -2.3780334242832772
            ]
        },
        {
            "positions": [
                1.329316474912956,
                -3.083510642984952,
                2.0365243973843836,
                1.815747520634425,
                -2.084891755760714,
                -2.412599008294531
            ]
        },
        {
            "positions": [
                1.2997469917657074,
                -3.0274846249704037,
                2.0535254471775826,
                1.7067010700779093,
                -1.9518661368541357,
                -2.4471645923057848
            ]
        },
        {
            "positions": [
                1.270177508618459,
                -2.971458606955856,
                2.0705264969707815,
                1.5976546195213934,
                -1.8188405179475575,
                -2.481730176317039
            ]
        },
        {
            "positions": [
                1.2406080254712106,
                -2.915432588941308,
                2.0875275467639804,
                1.4886081689648778,
                -1.6858148990409791,
                -2.5162957603282927
            ]
        },
        {
            "positions": [
                1.211038542323962,
                -2.8594065709267604,
                2.1045285965571794,
                1.379561718408362,
                -1.552789280134401,
                -2.5508613443395465
            ]
        },
        {
            "positions": [
                1.1814690591767136,
                -2.803380552912212,
                2.1215296463503783,
                1.270515267851846,
                -1.4197636612278228,
                -2.5854269283508002
            ]
        },
        {
            "positions": [
                1.1518995760294652,
                -2.7473545348976645,
                2.1385306961435773,
                1.1614688172953302,
                -1.2867380423212444,
                -2.619992512362054
            ]
        },
        {
            "positions": [
                1.1223300928822169,
                -2.6913285168831167,
                2.155531745936776,
                1.0524223667388146,
                -1.153712423414666,
                -2.654558096373308
            ]
        },
        {
            "positions": [
                1.0927606097349682,
                -2.635302498868569,
                2.172532795729975,
                0.9433759161822988,
                -1.020686804508088,
                -2.689123680384562
            ]
        },
        {
            "positions": [
                1.0631911265877199,
                -2.5792764808540207,
                2.189533845523174,
                0.8343294656257831,
                -0.8876611856015098,
                -2.7236892643958157
            ]
        },
        {
            "positions": [
                1.0336216434404715,
                -2.523250462839473,
                2.2065348953163726,
                0.7252830150692673,
                -0.7546355666949314,
                -2.7582548484070695
            ]
        },
        {
            "positions": [
                1.0040521602932229,
                -2.467224444824925,
                2.2235359451095715,
                0.6162365645127517,
                -0.6216099477883532,
                -2.7928204324183232
            ]
        },
        {
            "positions": [
                0.9744826771459745,
                -2.411198426810377,
                2.2405369949027705,
                0.5071901139562356,
                -0.48858432888177483,
                -2.827386016429577
            ]
        },
        {
            "positions": [
                0.9449131939987261,
                -2.3551724087958292,
                2.2575380446959694,
                0.39814366339971996,
                -0.3555587099751967,
                -2.8619516004408307
            ]
        },
        {
            "positions": [
                0.9153437108514777,
                -2.2991463907812815,
                2.2745390944891684,
                0.28909721284320433,
                -0.22253309106861852,
                -2.896517184452085
            ]
        },
        {
            "positions": [
                0.8857742277042291,
                -2.2431203727667333,
                2.2915401442823673,
                0.18005076228668848,
                -0.08950747216203991,
                -2.9310827684633387
            ]
        },
        {
            "positions": [
                0.8562047445569807,
                -2.187094354752186,
                2.3085411940755662,
                0.07100431173017263,
                0.04351814674453802,
                -2.9656483524745925
            ]
        },
        {
            "positions": [
                0.8266352614097322,
                -2.1310683367376377,
                2.325542243868765,
                -0.03804213882634322,
                0.1765437656511164,
                -3.0002139364858462
            ]
        },
        {
            "positions": [
                0.7970657782624838,
                -2.07504231872309,
                2.342543293661964,
                -0.14708858938285907,
                0.3095693845576948,
                -3.0347795204971
            ]
        },
        {
            "positions": [
                0.7674962951152353,
                -2.019016300708542,
                2.359544343455163,
                -0.2561350399393745,
                0.4425950034642727,
                -3.069345104508354
            ]
        },
        {
            "positions": [
                0.7379268119679868,
                -1.962990282693994,
                2.376545393248362,
                -0.3651814904958903,
                0.5756206223708515,
                -3.103910688519608
            ]
        },
        {
            "positions": [
                0.7083573288207384,
                -1.9069642646794462,
                2.393546443041561,
                -0.4742279410524061,
                0.7086462412774293,
                -3.1384762725308617
            ]
        }
    ]
}