{
    "goal": {
        "global_pose": {
            "orientation": {
                "w": -0.4816463035849501,
                "x": 0.5182115481033762,
                "y": 0.4908360881923453,
                "z": -0.5084816262002911
            },
            "position": {
                "x": -0.8240239810943604,
                "y": 0.19912469901144506,
                "z": 0.16403168439865112
            }
        },
        "name": "move_to_storage_D"
    },
    "id": "BiTRRT_move_to_storage_D_130",
    "joint_names": [
        "shoulder_pan_joint",
        "shoulder_lift_joint",
        "elbow_joint",
        "wrist_1_joint",
        "wrist_2_joint",
        "wrist_3_joint"
    ],
    "metrics": {
        "cart_traj_len": 3.532817773771648,
        "distance_elbow_joint": 4.206621452863726,
        "distance_shoulder_lift_joint": 1.2660006981436847,
        "distance_shoulder_pan_joint": 2.8125164392658943,
        "distance_wrist_1_joint": 2.2620880753261794,
        "distance_wrist_2_joint": 1.146314368132411,
        "distance_wrist_3_joint": 3.145067655263004,
        "smoothness": 0.03266865827699921,
        "time": 0.125090339,
        "traj_len": 3.85209146944811,
        "weighted_distance": 4.953498404459165
    },
    "planner": "BiTRRT",
    "start": {
        "state": {
            "elbow_joint": -2.384821988534728,
            "shoulder_lift_joint": -2.2788054721415256,
            "shoulder_pan_joint": -0.1854694642142757,
            "wrist_1_joint": 1.4845938289331202,
            "wrist_2_joint": 0.17898776772866878,
            "wrist_3_joint": 0.037105688729662994
        }
    },
    "waypoints": [
        {
            "positions": [
                -0.1854694642142757,
                -2.2788054721415256,
                -2.384821988534728,
                1.4845938289331202,
                0.17898776772866878,
                0.037105688729662994
            ]
        },
        {
            "positions": [
                -0.14477243487306166,
                -2.229414007278865,
                -2.3832171530720894,
                1.4402491930880423,
                0.11002631159886614,
                0.046726797928819834
            ]
        },
        {
            "positions": [
                -0.10407540553184759,
                -2.180022542416204,
                -2.381612317609451,
                1.3959045572429645,
                0.041064855469063494,
                0.056347907127976674
            ]
        },
        {
            "positions": [
                -0.022096702477737526,
                -2.1463408768250005,
                -2.256698428131289,
                1.3431869461356853,
                0.05248227360740804,
                0.1349022728551059
            ]
        },
        {
            "positions": [
                0.05988200057637254,
                -2.1126592112337965,
                -2.1317845386531276,
                1.2904693350284062,
                0.0638996917457526,
                0.21345663858223513
            ]
        },
        {
            "positions": [
                0.1418607036304826,
                -2.078977545642593,
                -2.006870649174966,
                1.237751723921127,
                0.07531710988409715,
                0.29201100430936433
            ]
        },
        {
            "positions": [
                0.22383940668459268,
                -2.045295880051389,
                -1.8819567596968043,
                1.185034112813848,
                0.08673452802244169,
                0.37056537003649354
            ]
        },
        {
            "positions": [
                0.3058181097387027,
                -2.0116142144601854,
                -1.7570428702186427,
                1.1323165017065688,
                0.09815194616078625,
                0.44911973576362274
            ]
        },
        {
            "positions": [
                0.3877968127928128,
                -1.9779325488689814,
                -1.632128980740481,
                1.0795988905992897,
                0.1095693642991308,
                0.527674101490752
            ]
        },
        {
            "positions": [
                0.4697755158469228,
                -1.9442508832777778,
                -1.5072150912623195,
                1.0268812794920106,
                0.12098678243747536,
                0.6062284672178812
            ]
        },
        {
            "positions": [
                0.5517542189010329,
                -1.9105692176865738,
                -1.3823012017841578,
                0.9741636683847315,
                0.13240420057581992,
                0.6847828329450104
            ]
        },
        {
            "positions": [
                0.633732921955143,
                -1.8768875520953703,
                -1.2573873123059964,
                0.9214460572774523,
                0.14382161871416446,
                0.7633371986721396
            ]
        },
        {
            "positions": [
                0.715711625009253,
                -1.8432058865041665,
                -1.1324734228278348,
                0.8687284461701732,
                0.155239036852509,
                0.8418915643992688
            ]
        },
        {
            "positions": [
                0.797690328063363,
                -1.8095242209129627,
                -1.0075595333496732,
                0.8160108350628941,
                0.16665645499085355,
                0.920445930126398
            ]
        },
        {
            "positions": [
                0.8796690311174732,
                -1.775842555321759,
                -0.8826456438715113,
                0.7632932239556149,
                0.17807387312919812,
                0.9990002958535273
            ]
        },
        {
            "positions": [
                0.9616477341715832,
                -1.7421608897305552,
                -0.7577317543933499,
                0.7105756128483358,
                0.1894912912675427,
                1.0775546615806566
            ]
        },
        {
            "positions": [
                1.0436264372256931,
                -1.7084792241393514,
                -0.6328178649151883,
                0.6578580017410567,
                0.20090870940588723,
                1.1561090273077856
            ]
        },
        {
            "positions": [
                1.1256051402798033,
                -1.6747975585481476,
                -0.5079039754370267,
                0.6051403906337776,
                0.21232612754423177,
                1.234663393034915
            ]
        },
        {
            "positions": [
                1.2075838433339134,
                -1.6411158929569438,
                -0.3829900859588651,
                0.5524227795264984,
                0.22374354568257632,
                1.3132177587620442
            ]
        },
        {
            "positions": [
                1.2895625463880234,
                -1.60743422736574,
                -0.2580761964807037,
                0.4997051684192193,
                0.23516096382092086,
                1.3917721244891732
            ]
        },
        {
            "positions": [
                1.3715412494421335,
                -1.5737525617745365,
                -0.13316230700254206,
                0.4469875573119402,
                0.24657838195926543,
                1.4703264902163025
            ]
        },
        {
            "positions": [
                1.4535199524962434,
                -1.5400708961833325,
                -0.008248417524380436,
                0.39426994620466105,
                0.25799580009761,
                1.5488808559434317
            ]
        },
        {
            "positions": [
                1.5354986555503536,
                -1.506389230592129,
                0.11666547195378119,
                0.3415523350973819,
                0.26941321823595454,
                1.627435221670561
            ]
        },
        {
            "positions": [
                1.6174773586044635,
                -1.472707565000925,
                0.2415793614319428,
                0.2888347239901028,
                0.28083063637429906,
                1.70598958739769
            ]
        },
        {
            "positions": [
                1.6994560616585737,
                -1.4390258994097214,
                0.36649325091010443,
                0.23611711288282367,
                0.2922480545126436,
                1.7845439531248193
            ]
        },
        {
            "positions": [
                1.7814347647126838,
                -1.4053442338185174,
                0.4914071403882665,
                0.18339950177554454,
                0.3036654726509882,
                1.8630983188519488
            ]
        },
        {
            "positions": [
                1.863413467766794,
                -1.3716625682273138,
                0.6163210298664281,
                0.1306818906682654,
                0.3150828907893327,
                1.941652684579078
            ]
        },
        {
            "positions": [
                1.945392170820904,
                -1.3379809026361098,
                0.7412349193445893,
                0.07796427956098628,
                0.32650030892767734,
                2.0202070503062073
            ]
        },
        {
            "positions": [
                2.027370873875014,
                -1.3042992370449062,
                0.8661488088227509,
                0.025246668453707155,
                0.33791772706602186,
                2.0987614160333368
            ]
        },
        {
            "positions": [
                2.109349576929124,
                -1.2706175714537022,
                0.9910626983009125,
                -0.027470942653571973,
                0.34933514520436637,
                2.177315781760466
            ]
        },
        {
            "positions": [
                2.191328279983234,
                -1.2369359058624987,
                1.1159765877790742,
                -0.0801885537608511,
                0.360752563342711,
                2.255870147487595
            ]
        },
        {
            "positions": [
                2.2733069830373442,
                -1.203254240271295,
                1.2408904772572358,
                -0.13290616486813023,
                0.3721699814810555,
                2.3344245132147243
            ]
        },
        {
            "positions": [
                2.355285686091454,
                -1.1695725746800911,
                1.3658043667353974,
                -0.1856237759754093,
                0.3835873996194,
                2.4129788789418534
            ]
        },
        {
            "positions": [
                2.3892558472114747,
                -1.14997659959481,
                1.4228037539345975,
                -0.25960758477761553,
                0.4668210135847087,
                2.509128187073205
            ]
        },
        {
            "positions": [
                2.423226008331495,
                -1.1303806245095287,
                1.4798031411337977,
                -0.33359139357982176,
                0.5500546275500173,
                2.6052774952045565
            ]
        },
        {
            "positions": [
                2.4571961694515156,
                -1.1107846494242473,
                1.5368025283329978,
                -0.407575202382028,
                0.6332882415153259,
                2.7014268033359086
            ]
        },
        {
            "positions": [
                2.491166330571536,
                -1.091188674338966,
                1.593801915532198,
                -0.4815590111842342,
                0.7165218554806345,
                2.79757611146726
            ]
        },
        {
            "positions": [
                2.5251364916915566,
                -1.0715926992536848,
                1.6508013027313981,
                -0.5555428199864405,
                0.7997554694459432,
                2.8937254195986117
            ]
        },
        {
            "positions": [
                2.559106652811577,
                -1.0519967241684034,
                1.7078006899305982,
                -0.6295266287886467,
                0.8829890834112518,
                2.9898747277299638
            ]
        },
        {
            "positions": [
                2.5930768139315976,
                -1.0324007490831222,
                1.7648000771297983,
                -0.703510437590853,
                0.9662226973765605,
                3.0860240358613154
            ]
        },
        {
            "positions": [
                2.627046975051618,
                -1.012804773997841,
                1.8217994643289985,
                -0.7774942463930591,
                1.0494563113418691,
                3.182173343992667
            ]
        }
    ]
}