{
    "goal": {
        "global_pose": {
            "orientation": {
                "w": 0.5084816217422485,
                "x": -0.49083608388900757,
                "y": 0.5182115435600281,
                "z": -0.4816462993621826
            },
            "position": {
                "x": 0.5540239810943604,
                "y": 0.030875300988554955,
                "z": 0.16403168439865112
            }
        },
        "name": "move_to_storage_A"
    },
    "id": "BiTRRT_move_to_storage_A_149",
    "joint_names": [
        "shoulder_pan_joint",
        "shoulder_lift_joint",
        "elbow_joint",
        "wrist_1_joint",
        "wrist_2_joint",
        "wrist_3_joint"
    ],
    "metrics": {
        "cart_traj_len": 0.3526884533416354,
        "distance_elbow_joint": 0.4492244887325134,
        "distance_shoulder_lift_joint": 0.23698430769232304,
        "distance_shoulder_pan_joint": 0.4619685809548765,
        "distance_wrist_1_joint": 0.23558194693003498,
        "distance_wrist_2_joint": 1.0959338983982865,
        "distance_wrist_3_joint": 0.10321033178325756,
        "smoothness": 6.661338165333112e-16,
        "time": 0.039252727,
        "traj_len": 1.6071414233014132,
        "weighted_distance": 2.029985237233544
    },
    "planner": "BiTRRT",
    "start": {
        "state": {
            "elbow_joint": 1.971548259319323,
            "shoulder_lift_joint": -1.1394851275133948,
            "shoulder_pan_joint": 0.1228115487234821,
            "wrist_1_joint": -0.7804723859257726,
            "wrist_2_joint": 0.12958671773740124,
            "wrist_3_joint": -3.192489227718131
        }
    },
    "waypoints": [
        {
            "positions": [
                0.1228115487234821,
                -1.1394851275133948,
                1.971548259319323,
                -0.7804723859257726,
                0.12958671773740124,
                -3.192489227718131
            ]
        },
        {
            "positions": [
                0.056816037158499755,
                -1.1733400286122981,
                2.0357231862811105,
                -0.8141269497729204,
                0.2861487032228707,
                -3.177744894606237
            ]
        },
        {
            "positions": [
                -0.00917947440648259,
                -1.2071949297112015,
                2.099898113242898,
                -0.8477815136200684,
                0.4427106887083402,
                -3.1630005614943433
            ]
        },
        {
            "positions": [
                -0.07517498597146494,
                -1.2410498308101048,
                2.164073040204686,
                -0.8814360774672162,
                0.5992726741938097,
                -3.1482562283824493
            ]
        },
        {
            "positions": [
                -0.14117049753644728,
                -1.2749047319090079,
                2.2282479671664737,
                -0.915090641314364,
                0.7558346596792792,
                -3.1335118952705554
            ]
        },
        {
            "positions": [
                -0.20716600910142968,
                -1.3087596330079112,
                2.2924228941282614,
                -0.948745205161512,
                0.9123966451647487,
                -3.1187675621586615
            ]
        },
        {
            "positions": [
                -0.27316152066641197,
                -1.3426145341068145,
                2.3565978210900487,
                -0.9823997690086597,
                1.0689586306502181,
                -3.1040232290467675
            ]
        },
        {
            "positions": [
                -0.3391570322313944,
                -1.3764694352057179,
                2.4207727480518364,
                -1.0160543328558076,
                1.2255206161356877,
                -3.0892788959348736
            ]
        }
    ]
}{
    "goal": {
        "global_pose": {
            "orientation": {
                "w": 0.5084816217422485,
                "x": -0.49083608388900757,
                "y": 0.5182115435600281,
                "z": -0.4816462993621826
            },
            "position": {
                "x": 0.5540239810943604,
                "y": 0.030875300988554955,
                "z": 0.16403168439865112
            }
        },
        "name": "move_to_storage_A"
    },
    "id": "BiTRRT_move_to_storage_A_149",
    "joint_names": [
        "shoulder_pan_joint",
        "shoulder_lift_joint",
        "elbow_joint",
        "wrist_1_joint",
        "wrist_2_joint",
        "wrist_3_joint"
    ],
    "metrics": {
        "cart_traj_len": 0.35255388181876457,
        "distance_elbow_joint": 0.44860759869961875,
        "distance_shoulder_lift_joint": 0.2352186970030583,
        "distance_shoulder_pan_joint": 0.45897950802061804,
        "distance_wrist_1_joint": 0.23979099536165527,
        "distance_wrist_2_joint": 1.106499574580304,
        "distance_wrist_3_joint": 0.08854429899348837,
        "smoothness": 0.0,
        "time": 0.033643851,
        "traj_len": 1.6055032459197156,
        "weighted_distance": 2.02509748915643
    },
    "planner": "BiTRRT",
    "start": {
        "state": {
            "elbow_joint": 1.97154746011099,
            "shoulder_lift_joint": -1.13948474672311,
            "shoulder_pan_joint": 0.12281154466712228,
            "wrist_1_joint": -0.7804688027058302,
            "wrist_2_joint": 0.12958655903071145,
            "wrist_3_joint": 3.0906928834467795
        }
    },
    "waypoints": [
        {
            "positions": [
                0.12281154466712228,
                -1.13948474672311,
                1.97154746011099,
                -0.7804688027058302,
                0.12958655903071145,
                3.0906928834467795
            ]
        },
        {
            "positions": [
                0.0572430435213197,
                -1.1730874177235469,
                2.0356342599252213,
                -0.8147246591860666,
                0.2876579268278977,
                3.1033420690172777
            ]
        },
        {
            "positions": [
                -0.008325457624482877,
                -1.2066900887239838,
                2.0997210597394522,
                -0.8489805156663031,
                0.4457292946250839,
                3.1159912545877764
            ]
        },
        {
            "positions": [
                -0.07389395877028544,
                -1.2402927597244207,
                2.1638078595536836,
                -0.8832363721465396,
                0.6038006624222703,
                3.1286404401582746
            ]
        },
        {
            "positions": [
                -0.13946245991608802,
                -1.2738954307248576,
                2.227894659367915,
                -0.917492228626776,
                0.7618720302194565,
                3.141289625728773
            ]
        },
        {
            "positions": [
                -0.20503096106189062,
                -1.3074981017252945,
                2.2919814591821464,
                -0.9517480851070126,
                0.9199433980166428,
                3.153938811299271
            ]
        },
        {
            "positions": [
                -0.27059946220769315,
                -1.3411007727257314,
                2.3560682589963773,
                -0.986003941587249,
                1.078014765813829,
                3.1665879968697697
            ]
        },
        {
            "positions": [
                -0.33616796335349575,
                -1.3747034437261683,
                2.4201550588106087,
                -1.0202597980674855,
                1.2360861336110154,
                3.179237182440268
            ]
        }
    ]
}{
    "goal": {
        "global_pose": {
            "orientation": {
                "w": 0.5084816217422485,
                "x": -0.49083608388900757,
                "y": 0.5182115435600281,
                "z": -0.4816462993621826
            },
            "position": {
                "x": 0.5540239810943604,
                "y": 0.030875300988554955,
                "z": 0.16403168439865112
            }
        },
        "name": "move_to_storage_A"
    },
    "id": "BiTRRT_move_to_storage_A_149",
    "joint_names": [
        "shoulder_pan_joint",
        "shoulder_lift_joint",
        "elbow_joint",
        "wrist_1_joint",
        "wrist_2_joint",
        "wrist_3_joint"
    ],
    "metrics": {
        "cart_traj_len": 0.3536671037473044,
        "distance_elbow_joint": 0.450961712875261,
        "distance_shoulder_lift_joint": 0.23369352342558924,
        "distance_shoulder_pan_joint": 0.46458268700500316,
        "distance_wrist_1_joint": 0.24555568488895707,
        "distance_wrist_2_joint": 1.0907941934964802,
        "distance_wrist_3_joint": 0.09695736998070092,
        "smoothness": 4.440892098500626e-16,
        "time": 0.028821121999999998,
        "traj_len": 1.6070299224569502,
        "weighted_distance": 2.028006358475937
    },
    "planner": "BiTRRT",
    "start": {
        "state": {
            "elbow_joint": 1.9715472970024885,
            "shoulder_lift_joint": -1.1394870060712896,
            "shoulder_pan_joint": 0.12281152778156021,
            "wrist_1_joint": -0.780463741449964,
            "wrist_2_joint": 0.12958659822042276,
            "wrist_3_joint": 3.090690232415272
        }
    },
    "waypoints": [
        {
            "positions": [
                0.12281152778156021,
                -1.1394870060712896,
                1.9715472970024885,
                -0.780463741449964,
                0.12958659822042276,
                3.090690232415272
            ]
        },
        {
            "positions": [
                0.056442572495131196,
                -1.1728717951320882,
                2.0359703988418114,
                -0.8155431250055293,
                0.2854143401484913,
                3.104541285269658
            ]
        },
        {
            "positions": [
                -0.009926382791297816,
                -1.2062565841928865,
                2.1003935006811347,
                -0.8506225085610946,
                0.4412420820765599,
                3.1183923381240435
            ]
        },
        {
            "positions": [
                -0.07629533807772684,
                -1.239641373253685,
                2.1648166025204576,
                -0.8857018921166598,
                0.5970698240046285,
                3.1322433909784295
            ]
        },
        {
            "positions": [
                -0.14266429336415584,
                -1.2730261623144834,
                2.2292397043597805,
                -0.9207812756722251,
                0.7528975659326971,
                3.146094443832815
            ]
        },
        {
            "positions": [
                -0.2090332486505849,
                -1.306410951375282,
                2.2936628061991033,
                -0.9558606592277905,
                0.9087253078607658,
                3.159945496687201
            ]
        },
        {
            "positions": [
                -0.27540220393701387,
                -1.3397957404360803,
                2.3580859080384267,
                -0.9909400427833558,
                1.0645530497888342,
                3.1737965495415867
            ]
        },
        {
            "positions": [
                -0.3417711592234429,
                -1.3731805294968789,
                2.4225090098777495,
                -1.026019426338921,
                1.220380791716903,
                3.187647602395973
            ]
        }
    ]
}