{
    "goal": {
        "global_pose": {
            "orientation": {
                "w": -0.4816463035849501,
                "x": 0.5182115481033762,
                "y": 0.4908360881923453,
                "z": -0.5084816262002911
            },
            "position": {
                "x": -0.8240239810943604,
                "y": 0.19912469901144506,
                "z": 0.16403168439865112
            }
        },
        "name": "move_to_storage_D"
    },
    "id": "BiTRRT_move_to_storage_D_91",
    "joint_names": [
        "shoulder_pan_joint",
        "shoulder_lift_joint",
        "elbow_joint",
        "wrist_1_joint",
        "wrist_2_joint",
        "wrist_3_joint"
    ],
    "metrics": {
        "cart_traj_len": 3.841956320928774,
        "distance_elbow_joint": 4.214988539705056,
        "distance_shoulder_lift_joint": 1.2635212859865115,
        "distance_shoulder_pan_joint": 2.8136517676451636,
        "distance_wrist_1_joint": 2.2864755483450327,
        "distance_wrist_2_joint": 1.005108764589683,
        "distance_wrist_3_joint": 3.268062805924769,
        "smoothness": 0.18479341935188864,
        "time": 0.08937378,
        "traj_len": 3.85380444654321,
        "weighted_distance": 4.96784849174977
    },
    "planner": "BiTRRT",
    "start": {
        "state": {
            "elbow_joint": -2.384821988534728,
            "shoulder_lift_joint": -2.2788054721415256,
            "shoulder_pan_joint": -0.1854694642142757,
            "wrist_1_joint": 1.4845938289331202,
            "wrist_2_joint": 0.17898776772866878,
            "wrist_3_joint": 0.037105688729662994
        }
    },
    "waypoints": [
        {
            "positions": [
                -0.1854694642142757,
                -2.2788054721415256,
                -2.384821988534728,
                1.4845938289331202,
                0.17898776772866878,
                0.037105688729662994
            ]
        },
        {
            "positions": [
                -0.11400685019791965,
                -2.161726448538991,
                -2.3488440427004953,
                1.4658005905498115,
                0.11595795912997874,
                -0.025248145299866645
            ]
        },
        {
            "positions": [
                -0.034021373123486215,
                -2.124784062964756,
                -2.242782584719184,
                1.3954740093301365,
                0.1374450349267707,
                0.04624708455566333
            ]
        },
        {
            "positions": [
                0.045964103950947216,
                -2.087841677390521,
                -2.1367211267378723,
                1.3251474281104618,
                0.15893211072356267,
                0.1177423144111933
            ]
        },
        {
            "positions": [
                0.12594958102538065,
                -2.050899291816286,
                -2.0306596687565603,
                1.2548208468907869,
                0.18041918652035466,
                0.1892375442667233
            ]
        },
        {
            "positions": [
                0.20593505809981408,
                -2.0139569062420515,
                -1.9245982107752488,
                1.1844942656711122,
                0.20190626231714662,
                0.26073277412225326
            ]
        },
        {
            "positions": [
                0.28592053517424754,
                -1.9770145206678165,
                -1.8185367527939373,
                1.1141676844514372,
                0.22339333811393858,
                0.33222800397778324
            ]
        },
        {
            "positions": [
                0.3659060122486809,
                -1.9400721350935815,
                -1.7124752948126258,
                1.0438411032317623,
                0.24488041391073057,
                0.4037232338333132
            ]
        },
        {
            "positions": [
                0.4458914893231143,
                -1.9031297495193464,
                -1.6064138368313143,
                0.9735145220120874,
                0.2663674897075225,
                0.47521846368884324
            ]
        },
        {
            "positions": [
                0.5258769663975478,
                -1.8661873639451114,
                -1.5003523788500026,
                0.9031879407924126,
                0.2878545655043145,
                0.5467136935443732
            ]
        },
        {
            "positions": [
                0.6058624434719813,
                -1.8292449783708766,
                -1.3942909208686909,
                0.8328613595727377,
                0.3093416413011065,
                0.6182089233999032
            ]
        },
        {
            "positions": [
                0.6858479205464146,
                -1.7923025927966416,
                -1.2882294628873794,
                0.7625347783530628,
                0.3308287170978984,
                0.6897041532554331
            ]
        },
        {
            "positions": [
                0.7658333976208481,
                -1.7553602072224068,
                -1.1821680049060677,
                0.6922081971333879,
                0.3523157928946904,
                0.7611993831109631
            ]
        },
        {
            "positions": [
                0.8458188746952815,
                -1.7184178216481718,
                -1.0761065469247564,
                0.6218816159137132,
                0.3738028686914824,
                0.832694612966493
            ]
        },
        {
            "positions": [
                0.925804351769715,
                -1.6814754360739368,
                -0.9700450889434447,
                0.5515550346940382,
                0.39528994448827437,
                0.9041898428220231
            ]
        },
        {
            "positions": [
                1.0057898288441482,
                -1.6445330504997018,
                -0.8639836309621332,
                0.4812284534743634,
                0.4167770202850663,
                0.9756850726775531
            ]
        },
        {
            "positions": [
                1.0857753059185817,
                -1.607590664925467,
                -0.7579221729808214,
                0.41090187225468844,
                0.4382640960818583,
                1.047180302533083
            ]
        },
        {
            "positions": [
                1.1657607829930152,
                -1.570648279351232,
                -0.6518607149995099,
                0.3405752910350137,
                0.4597511718786503,
                1.1186755323886128
            ]
        },
        {
            "positions": [
                1.2457462600674485,
                -1.5337058937769972,
                -0.5457992570181984,
                0.2702487098153388,
                0.4812382476754422,
                1.1901707622441429
            ]
        },
        {
            "positions": [
                1.3257317371418822,
                -1.4967635082027622,
                -0.4397377990368865,
                0.19992212859566383,
                0.5027253234722342,
                1.261665992099673
            ]
        },
        {
            "positions": [
                1.4057172142163155,
                -1.4598211226285271,
                -0.333676341055575,
                0.1295955473759891,
                0.5242123992690262,
                1.333161221955203
            ]
        },
        {
            "positions": [
                1.485702691290749,
                -1.4228787370542921,
                -0.22761488307426347,
                0.05926896615631416,
                0.5456994750658181,
                1.4046564518107327
            ]
        },
        {
            "positions": [
                1.5656881683651822,
                -1.3859363514800573,
                -0.12155342509295197,
                -0.01105761506336056,
                0.56718655086261,
                1.4761516816662628
            ]
        },
        {
            "positions": [
                1.645673645439616,
                -1.3489939659058223,
                -0.015491967111640026,
                -0.08138419628303573,
                0.588673626659402,
                1.5476469115217928
            ]
        },
        {
            "positions": [
                1.7256591225140492,
                -1.3120515803315875,
                0.09056949086967148,
                -0.15171077750271045,
                0.610160702456194,
                1.6191421413773228
            ]
        },
        {
            "positions": [
                1.8056445995884827,
                -1.2751091947573525,
                0.19663094885098253,
                -0.22203735872238517,
                0.631647778252986,
                1.6906373712328526
            ]
        },
        {
            "positions": [
                1.885630076662916,
                -1.2381668091831175,
                0.30269240683229404,
                -0.2923639399420601,
                0.653134854049778,
                1.7621326010883827
            ]
        },
        {
            "positions": [
                1.9656155537373496,
                -1.2012244236088825,
                0.408753864813606,
                -0.36269052116173506,
                0.67462192984657,
                1.8336278309439127
            ]
        },
        {
            "positions": [
                2.0456010308117833,
                -1.1642820380346475,
                0.5148153227949175,
                -0.4330171023814098,
                0.696109005643362,
                1.9051230607994427
            ]
        },
        {
            "positions": [
                2.1255865078862164,
                -1.1273396524604127,
                0.620876780776229,
                -0.5033436836010847,
                0.7175960814401539,
                1.9766182906549727
            ]
        },
        {
            "positions": [
                2.20557198496065,
                -1.0903972668861779,
                0.7269382387575405,
                -0.5736702648207594,
                0.7390831572369458,
                2.0481135205105025
            ]
        },
        {
            "positions": [
                2.2855574620350834,
                -1.0534548813119429,
                0.8329996967388524,
                -0.6439968460404346,
                0.7605702330337378,
                2.119608750366033
            ]
        },
        {
            "positions": [
                2.365542939109517,
                -1.0165124957377079,
                0.9390611547201639,
                -0.7143234272601096,
                0.7820573088305298,
                2.1911039802215626
            ]
        },
        {
            "positions": [
                2.4030628482982843,
                -1.0163370229401802,
                1.0663619256416157,
                -0.7268317547103671,
                0.8214829668720215,
                2.3324406725606783
            ]
        },
        {
            "positions": [
                2.4405827574870513,
                -1.0161615501426524,
                1.1936626965630677,
                -0.7393400821606245,
                0.8609086249135133,
                2.473777364899794
            ]
        },
        {
            "positions": [
                2.478102666675819,
                -1.0159860773451248,
                1.3209634674845194,
                -0.7518484096108821,
                0.900334282955005,
                2.6151140572389098
            ]
        },
        {
            "positions": [
                2.515622575864586,
                -1.0158106045475972,
                1.4482642384059714,
                -0.7643567370611395,
                0.9397599409964967,
                2.7564507495780255
            ]
        },
        {
            "positions": [
                2.5531424850533533,
                -1.0156351317500696,
                1.5755650093274232,
                -0.776865064511397,
                0.9791855990379884,
                2.8977874419171417
            ]
        },
        {
            "positions": [
                2.5906623942421203,
                -1.0154596589525418,
                1.702865780248875,
                -0.7893733919616545,
                1.01861125707948,
                3.0391241342562574
            ]
        },
        {
            "positions": [
                2.6281823034308878,
                -1.0152841861550141,
                1.830166551170327,
                -0.801881719411912,
                1.0580369151209719,
                3.180460826595373
            ]
        }
    ]
}