{
    "goal": {
        "global_pose": {
            "orientation": {
                "w": 0.7047431468963623,
                "x": -0.7094548344612122,
                "y": 0.0024358443915843964,
                "z": -0.0022348060738295317
            },
            "position": {
                "x": 0.6094750761985779,
                "y": 0.3671506643295288,
                "z": 0.19426114857196808
            }
        },
        "name": "move_to_magneteinheit_A"
    },
    "id": "BiTRRT_move_to_magneteinheit_A_39",
    "joint_names": [
        "shoulder_pan_joint",
        "shoulder_lift_joint",
        "elbow_joint",
        "wrist_1_joint",
        "wrist_2_joint",
        "wrist_3_joint"
    ],
    "metrics": {
        "cart_traj_len": 3.5531304309798792,
        "distance_elbow_joint": 3.8817778540789956,
        "distance_shoulder_lift_joint": 0.11294347805632654,
        "distance_shoulder_pan_joint": 2.6840795592750717,
        "distance_wrist_1_joint": 1.0107403577595058,
        "distance_wrist_2_joint": 2.2334371639177744,
        "distance_wrist_3_joint": 2.6094108897888444,
        "smoothness": 0.3687313444949734,
        "time": 0.093885005,
        "traj_len": 3.540111481701744,
        "weighted_distance": 4.58207252279266
    },
    "planner": "BiTRRT",
    "start": {
        "state": {
            "elbow_joint": -1.9196185241190666,
            "shoulder_lift_joint": -1.2443396400964142,
            "shoulder_pan_joint": 2.6996025414629847,
            "wrist_1_joint": -1.5485510000780065,
            "wrist_2_joint": -1.5709468930060704,
            "wrist_3_joint": 0.4420197071253992
        }
    },
    "waypoints": [
        {
            "positions": [
                2.6996025414629847,
                -1.2443396400964142,
                -1.9196185241190666,
                -1.5485510000780065,
                -1.5709468930060704,
                0.4420197071253992
            ]
        },
        {
            "positions": [
                2.5972630706335815,
                -1.2399453198426216,
                -1.8021870883011686,
                -1.5129965773791583,
                -1.4967765738165584,
                0.5041730298328058
            ]
        },
        {
            "positions": [
                2.494923599804178,
                -1.235550999588829,
                -1.6847556524832705,
                -1.4774421546803103,
                -1.4226062546270466,
                0.5663263525402125
            ]
        },
        {
            "positions": [
                2.3925841289747747,
                -1.2311566793350361,
                -1.5673242166653725,
                -1.441887731981462,
                -1.3484359354375346,
                0.628479675247619
            ]
        },
        {
            "positions": [
                2.2902446581453715,
                -1.2267623590812435,
                -1.4498927808474744,
                -1.4063333092826138,
                -1.2742656162480228,
                0.6906329979550258
            ]
        },
        {
            "positions": [
                2.1879051873159683,
                -1.222368038827451,
                -1.3324613450295764,
                -1.3707788865837658,
                -1.2000952970585108,
                0.7527863206624323
            ]
        },
        {
            "positions": [
                2.085565716486565,
                -1.2179737185736583,
                -1.2150299092116783,
                -1.3352244638849176,
                -1.125924977868999,
                0.814939643369839
            ]
        },
        {
            "positions": [
                1.9832262456571614,
                -1.2135793983198657,
                -1.09759847339378,
                -1.2996700411860693,
                -1.051754658679487,
                0.8770929660772457
            ]
        },
        {
            "positions": [
                1.8808867748277582,
                -1.209185078066073,
                -0.9801670375758821,
                -1.2641156184872213,
                -0.9775843394899751,
                0.9392462887846522
            ]
        },
        {
            "positions": [
                1.778547303998355,
                -1.2047907578122803,
                -0.8627356017579839,
                -1.228561195788373,
                -0.9034140203004632,
                1.001399611492059
            ]
        },
        {
            "positions": [
                1.6762078331689516,
                -1.2003964375584877,
                -0.7453041659400859,
                -1.1930067730895249,
                -0.8292437011109512,
                1.0635529341994656
            ]
        },
        {
            "positions": [
                1.5738683623395484,
                -1.196002117304695,
                -0.6278727301221878,
                -1.1574523503906768,
                -0.7550733819214395,
                1.1257062569068723
            ]
        },
        {
            "positions": [
                1.471528891510145,
                -1.1916077970509025,
                -0.5104412943042897,
                -1.1218979276918288,
                -0.6809030627319276,
                1.1878595796142788
            ]
        },
        {
            "positions": [
                1.3691894206807418,
                -1.1872134767971096,
                -0.3930098584863917,
                -1.0863435049929806,
                -0.6067327435424156,
                1.2500129023216855
            ]
        },
        {
            "positions": [
                1.2668499498513384,
                -1.182819156543317,
                -0.2755784226684934,
                -1.0507890822941324,
                -0.5325624243529037,
                1.3121662250290922
            ]
        },
        {
            "positions": [
                1.1645104790219352,
                -1.1784248362895244,
                -0.15814698685059558,
                -1.0152346595952841,
                -0.4583921051633919,
                1.3743195477364987
            ]
        },
        {
            "positions": [
                1.0621710081925317,
                -1.1740305160357318,
                -0.04071555103269753,
                -0.979680236896436,
                -0.3842217859738799,
                1.4364728704439054
            ]
        },
        {
            "positions": [
                0.9598315373631283,
                -1.1696361957819392,
                0.07671588478520075,
                -0.9441258141975879,
                -0.3100514667843679,
                1.498626193151312
            ]
        },
        {
            "positions": [
                0.8574920665337253,
                -1.1652418755281464,
                0.1941473206030988,
                -0.9085713914987398,
                -0.23588114759485612,
                1.5607795158587185
            ]
        },
        {
            "positions": [
                0.7551525957043219,
                -1.1608475552743538,
                0.31157875642099686,
                -0.8730169687998917,
                -0.16171082840534412,
                1.6229328385661255
            ]
        },
        {
            "positions": [
                0.6528131248749185,
                -1.1564532350205612,
                0.4290101922388949,
                -0.8374625461010434,
                -0.08754050921583212,
                1.685086161273532
            ]
        },
        {
            "positions": [
                0.5504736540455153,
                -1.1520589147667686,
                0.546441628056793,
                -0.8019081234021953,
                -0.013370190026320339,
                1.7472394839809384
            ]
        },
        {
            "positions": [
                0.4481341832161121,
                -1.147664594512976,
                0.663873063874691,
                -0.7663537007033472,
                0.06080012916319144,
                1.8093928066883453
            ]
        },
        {
            "positions": [
                0.34579471238670845,
                -1.1432702742591832,
                0.7813044996925891,
                -0.730799278004499,
                0.13497044835270344,
                1.8715461293957518
            ]
        },
        {
            "positions": [
                0.24345524155730525,
                -1.1388759540053905,
                0.8987359355104871,
                -0.6952448553056509,
                0.20914076754221522,
                1.9336994521031583
            ]
        },
        {
            "positions": [
                0.141115770727902,
                -1.134481633751598,
                1.0161673713283852,
                -0.6596904326068027,
                0.2833110867317271,
                1.995852774810565
            ]
        },
        {
            "positions": [
                0.1291982982139596,
                -1.1347208047819781,
                1.150962302818944,
                -0.676855363616148,
                0.23871516557742284,
                2.127172789778837
            ]
        },
        {
            "positions": [
                0.11728082570001717,
                -1.1349599758123583,
                1.2857572343095027,
                -0.6940202946254931,
                0.19411924442311856,
                2.2584928047471085
            ]
        },
        {
            "positions": [
                0.10536335318607476,
                -1.1351991468427385,
                1.4205521658000617,
                -0.7111852256348383,
                0.14952332326881426,
                2.3898128197153805
            ]
        },
        {
            "positions": [
                0.09344588067213236,
                -1.1354383178731184,
                1.5553470972906205,
                -0.7283501566441836,
                0.10492740211450999,
                2.521132834683652
            ]
        },
        {
            "positions": [
                0.08152840815818993,
                -1.1356774889034986,
                1.6901420287811795,
                -0.7455150876535287,
                0.060331480960205686,
                2.652452849651924
            ]
        },
        {
            "positions": [
                0.06961093564424753,
                -1.1359166599338788,
                1.8249369602717382,
                -0.7626800186628739,
                0.01573555980590141,
                2.783772864620196
            ]
        },
        {
            "positions": [
                0.09665491237241404,
                -1.135091437169264,
                1.8935481451158336,
                -0.7532349165467587,
                0.07153738843297697,
                2.9176017307672195
            ]
        },
        {
            "positions": [
                0.12369888910058055,
                -1.1342662144046494,
                1.9621593299599287,
                -0.7437898144306433,
                0.12733921706005252,
                3.0514305969142437
            ]
        }
    ]
}