{
    "goal": {
        "global_pose": {
            "orientation": {
                "w": 0.005598929693374612,
                "x": 0.007748599140229565,
                "y": 0.7110244013736278,
                "z": -0.7031023480610252
            },
            "position": {
                "x": -0.8858502320852131,
                "y": -0.7141253447532654,
                "z": 0.3711530566215515
            }
        },
        "name": "move_to_auspresseinheit_C"
    },
    "id": "BiTRRT_move_to_auspresseinheit_C_105",
    "joint_names": [
        "shoulder_pan_joint",
        "shoulder_lift_joint",
        "elbow_joint",
        "wrist_1_joint",
        "wrist_2_joint",
        "wrist_3_joint"
    ],
    "metrics": {
        "cart_traj_len": 0.4932275469457339,
        "distance_elbow_joint": 0.995519033370458,
        "distance_shoulder_lift_joint": 0.32229233197131946,
        "distance_shoulder_pan_joint": 0.25641463073011916,
        "distance_wrist_1_joint": 0.6675317658148034,
        "distance_wrist_2_joint": 1.3156946813311976,
        "distance_wrist_3_joint": 0.04364279646863922,
        "smoothness": 8.074349282788172e-16,
        "time": 0.052711317,
        "traj_len": 1.897655195151779,
        "weighted_distance": 2.3815136530723096
    },
    "planner": "BiTRRT",
    "start": {
        "state": {
            "elbow_joint": 1.7527959577737207,
            "shoulder_lift_joint": -0.9740617694225068,
            "shoulder_pan_joint": -2.967991417825858,
            "wrist_1_joint": -0.759517768980727,
            "wrist_2_joint": 1.7443932448377408,
            "wrist_3_joint": -3.0840537646736568
        }
    },
    "waypoints": [
        {
            "positions": [
                -2.967991417825858,
                -0.9740617694225068,
                1.7527959577737207,
                -0.759517768980727,
                1.7443932448377408,
                -3.0840537646736568
            ]
        },
        {
            "positions": [
                -2.942349954752846,
                -0.9418325362253748,
                1.6532440544366749,
                -0.6927645923992466,
                1.6128237767046212,
                -3.0884180443205205
            ]
        },
        {
            "positions": [
                -2.916708491679834,
                -0.9096033030282429,
                1.553692151099629,
                -0.6260114158177663,
                1.4812543085715013,
                -3.0927823239673846
            ]
        },
        {
            "positions": [
                -2.8910670286068223,
                -0.877374069831111,
                1.4541402477625833,
                -0.5592582392362859,
                1.3496848404383814,
                -3.0971466036142488
            ]
        },
        {
            "positions": [
                -2.86542556553381,
                -0.845144836633979,
                1.3545883444255375,
                -0.4925050626548056,
                1.2181153723052618,
                -3.1015108832611125
            ]
        },
        {
            "positions": [
                -2.8397841024607984,
                -0.812915603436847,
                1.2550364410884916,
                -0.42575188607332526,
                1.0865459041721421,
                -3.105875162907976
            ]
        },
        {
            "positions": [
                -2.8141426393877866,
                -0.7806863702397151,
                1.155484537751446,
                -0.3589987094918449,
                0.9549764360390223,
                -3.1102394425548403
            ]
        },
        {
            "positions": [
                -2.7885011763147745,
                -0.7484571370425832,
                1.0559326344144,
                -0.2922455329103646,
                0.8234069679059026,
                -3.114603722201704
            ]
        },
        {
            "positions": [
                -2.7628597132417627,
                -0.7162279038454512,
                0.9563807310773542,
                -0.2254923563288842,
                0.6918374997727827,
                -3.118968001848568
            ]
        },
        {
            "positions": [
                -2.7372182501687505,
                -0.6839986706483192,
                0.8568288277403084,
                -0.1587391797474038,
                0.5602680316396629,
                -3.123332281495432
            ]
        },
        {
            "positions": [
                -2.711576787095739,
                -0.6517694374511873,
                0.7572769244032627,
                -0.09198600316592358,
                0.42869856350654323,
                -3.127696561142296
            ]
        }
    ]
}