{
    "goal": {
        "global_pose": {
            "orientation": {
                "w": 0.5084816217422485,
                "x": -0.49083608388900757,
                "y": 0.5182115435600281,
                "z": -0.4816462993621826
            },
            "position": {
                "x": 0.5540239810943604,
                "y": 0.030875300988554955,
                "z": 0.16403168439865112
            }
        },
        "name": "move_to_storage_A"
    },
    "id": "BiTRRT_move_to_storage_A_30",
    "joint_names": [
        "shoulder_pan_joint",
        "shoulder_lift_joint",
        "elbow_joint",
        "wrist_1_joint",
        "wrist_2_joint",
        "wrist_3_joint"
    ],
    "metrics": {
        "cart_traj_len": 0.35311358993690234,
        "distance_elbow_joint": 0.4499412863965626,
        "distance_shoulder_lift_joint": 0.2359740304120559,
        "distance_shoulder_pan_joint": 0.4624566824303564,
        "distance_wrist_1_joint": 0.23900339487770783,
        "distance_wrist_2_joint": 1.0967210670033938,
        "distance_wrist_3_joint": 0.10588395184231292,
        "smoothness": 0.0,
        "time": 0.054320063,
        "traj_len": 1.6093416085351144,
        "weighted_distance": 2.0340778693373855
    },
    "planner": "BiTRRT",
    "start": {
        "state": {
            "elbow_joint": 1.971548259319323,
            "shoulder_lift_joint": -1.1394851275133948,
            "shoulder_pan_joint": 0.1228115487234821,
            "wrist_1_joint": -0.7804723859257726,
            "wrist_2_joint": 0.12958671773740124,
            "wrist_3_joint": -3.192489227718131
        }
    },
    "waypoints": [
        {
            "positions": [
                0.1228115487234821,
                -1.1394851275133948,
                1.971548259319323,
                -0.7804723859257726,
                0.12958671773740124,
                -3.192489227718131
            ]
        },
        {
            "positions": [
                0.05674630837628833,
                -1.1731957032865457,
                2.0358255859474035,
                -0.8146157280511594,
                0.2862611558807432,
                -3.177362948883515
            ]
        },
        {
            "positions": [
                -0.009318931970905442,
                -1.2069062790596965,
                2.1001029125754838,
                -0.8487590701765463,
                0.4429355940240851,
                -3.162236670048899
            ]
        },
        {
            "positions": [
                -0.07538417231809921,
                -1.2406168548328473,
                2.164380239203564,
                -0.8829024123019331,
                0.5996100321674271,
                -3.147110391214283
            ]
        },
        {
            "positions": [
                -0.14144941266529298,
                -1.2743274306059982,
                2.2286575658316443,
                -0.91704575442732,
                0.7562844703107691,
                -3.1319841123796666
            ]
        },
        {
            "positions": [
                -0.20751465301248678,
                -1.308038006379149,
                2.292934892459725,
                -0.9511890965527068,
                0.9129589084541111,
                -3.1168578335450503
            ]
        },
        {
            "positions": [
                -0.2735798933596805,
                -1.3417485821522999,
                2.3572122190878053,
                -0.9853324386780936,
                1.069633346597453,
                -3.1017315547104345
            ]
        },
        {
            "positions": [
                -0.3396451337068743,
                -1.3754591579254507,
                2.4214895457158856,
                -1.0194757808034804,
                1.226307784740795,
                -3.0866052758758182
            ]
        }
    ]
}{
    "goal": {
        "global_pose": {
            "orientation": {
                "w": 0.5084816217422485,
                "x": -0.49083608388900757,
                "y": 0.5182115435600281,
                "z": -0.4816462993621826
            },
            "position": {
                "x": 0.5540239810943604,
                "y": 0.030875300988554955,
                "z": 0.16403168439865112
            }
        },
        "name": "move_to_storage_A"
    },
    "id": "BiTRRT_move_to_storage_A_30",
    "joint_names": [
        "shoulder_pan_joint",
        "shoulder_lift_joint",
        "elbow_joint",
        "wrist_1_joint",
        "wrist_2_joint",
        "wrist_3_joint"
    ],
    "metrics": {
        "cart_traj_len": 0.3526818080287349,
        "distance_elbow_joint": 0.44984483488451854,
        "distance_shoulder_lift_joint": 0.23292338064558282,
        "distance_shoulder_pan_joint": 0.45891474964237194,
        "distance_wrist_1_joint": 0.2432837023427803,
        "distance_wrist_2_joint": 1.1072447614602106,
        "distance_wrist_3_joint": 0.09649311775687286,
        "smoothness": 2.2204460668324854e-16,
        "time": 0.038302415,
        "traj_len": 1.6089451658562939,
        "weighted_distance": 2.0327860797558297
    },
    "planner": "BiTRRT",
    "start": {
        "state": {
            "elbow_joint": 1.97154746011099,
            "shoulder_lift_joint": -1.13948474672311,
            "shoulder_pan_joint": 0.12281154466712228,
            "wrist_1_joint": -0.7804688027058302,
            "wrist_2_joint": 0.12958655903071145,
            "wrist_3_joint": 3.0906928834467795
        }
    },
    "waypoints": [
        {
            "positions": [
                0.12281154466712228,
                -1.13948474672311,
                1.97154746011099,
                -0.7804688027058302,
                0.12958655903071145,
                3.0906928834467795
            ]
        },
        {
            "positions": [
                0.05725229471821201,
                -1.1727595153867647,
                2.0358110079516356,
                -0.8152236173262274,
                0.28776438209645583,
                3.104477614554904
            ]
        },
        {
            "positions": [
                -0.008306955230698257,
                -1.2060342840504192,
                2.100074555792281,
                -0.8499784319466246,
                0.4459422051622002,
                3.118262345663029
            ]
        },
        {
            "positions": [
                -0.07386620517960853,
                -1.239309052714074,
                2.1643381036329266,
                -0.8847332465670217,
                0.6041200282279445,
                3.1320470767711535
            ]
        },
        {
            "positions": [
                -0.13942545512851878,
                -1.2725838213777287,
                2.228601651473572,
                -0.9194880611874189,
                0.7622978512936889,
                3.1458318078792784
            ]
        },
        {
            "positions": [
                -0.2049847050774291,
                -1.3058585900413835,
                2.2928651993142175,
                -0.9542428758078161,
                0.9204756743594333,
                3.159616538987403
            ]
        },
        {
            "positions": [
                -0.2705439550263393,
                -1.339133358705038,
                2.3571287471548628,
                -0.9889976904282133,
                1.0786534974251776,
                3.173401270095528
            ]
        },
        {
            "positions": [
                -0.33610320497524965,
                -1.3724081273686928,
                2.4213922949955085,
                -1.0237525050486105,
                1.236831320490922,
                3.1871860012036524
            ]
        }
    ]
}{
    "goal": {
        "global_pose": {
            "orientation": {
                "w": 0.5084816217422485,
                "x": -0.49083608388900757,
                "y": 0.5182115435600281,
                "z": -0.4816462993621826
            },
            "position": {
                "x": 0.5540239810943604,
                "y": 0.030875300988554955,
                "z": 0.16403168439865112
            }
        },
        "name": "move_to_storage_A"
    },
    "id": "BiTRRT_move_to_storage_A_30",
    "joint_names": [
        "shoulder_pan_joint",
        "shoulder_lift_joint",
        "elbow_joint",
        "wrist_1_joint",
        "wrist_2_joint",
        "wrist_3_joint"
    ],
    "metrics": {
        "cart_traj_len": 0.352892055415549,
        "distance_elbow_joint": 0.44960388574369725,
        "distance_shoulder_lift_joint": 0.23377863219497352,
        "distance_shoulder_pan_joint": 0.4595129967402362,
        "distance_wrist_1_joint": 0.2385667893463601,
        "distance_wrist_2_joint": 1.1068775721266344,
        "distance_wrist_3_joint": 0.08939125293680839,
        "smoothness": 6.661338165333112e-16,
        "time": 0.043593357,
        "traj_len": 1.605531416412868,
        "weighted_distance": 2.0253291081785503
    },
    "planner": "BiTRRT",
    "start": {
        "state": {
            "elbow_joint": 1.9715472970024885,
            "shoulder_lift_joint": -1.1394870060712896,
            "shoulder_pan_joint": 0.12281152778156021,
            "wrist_1_joint": -0.780463741449964,
            "wrist_2_joint": 0.12958659822042276,
            "wrist_3_joint": 3.090690232415272
        }
    },
    "waypoints": [
        {
            "positions": [
                0.12281152778156021,
                -1.1394870060712896,
                1.9715472970024885,
                -0.780463741449964,
                0.12958659822042276,
                3.090690232415272
            ]
        },
        {
            "positions": [
                0.05716681396152648,
                -1.1728839535277145,
                2.0357764235373024,
                -0.8145447113565869,
                0.2877119656670848,
                3.1034604114062443
            ]
        },
        {
            "positions": [
                -0.008477899858507248,
                -1.206280900984139,
                2.100005550072116,
                -0.8486256812632097,
                0.44583733311374685,
                3.116230590397217
            ]
        },
        {
            "positions": [
                -0.07412261367854098,
                -1.239677848440564,
                2.16423467660693,
                -0.8827066511698326,
                0.6039627005604089,
                3.1290007693881896
            ]
        },
        {
            "positions": [
                -0.1397673274985747,
                -1.2730747958969888,
                2.228463803141744,
                -0.9167876210764555,
                0.762088068007071,
                3.1417709483791625
            ]
        },
        {
            "positions": [
                -0.2054120413186085,
                -1.3064717433534137,
                2.292692929676558,
                -0.9508685909830783,
                0.920213435453733,
                3.154541127370135
            ]
        },
        {
            "positions": [
                -0.27105675513864214,
                -1.3398686908098383,
                2.356922056211372,
                -0.9849495608897012,
                1.078338802900395,
                3.167311306361108
            ]
        },
        {
            "positions": [
                -0.336701468958676,
                -1.3732656382662631,
                2.421151182746186,
                -1.019030530796324,
                1.2364641703470571,
                3.1800814853520802
            ]
        }
    ]
}