{
    "goal": {
        "global_pose": {
            "orientation": {
                "w": 0.5084816262002911,
                "x": -0.4908360881923452,
                "y": 0.5182115481033761,
                "z": -0.48164630358495003
            },
            "position": {
                "x": 0.5540239810943604,
                "y": -0.46912469901144505,
                "z": 0.16403168439865112
            }
        },
        "name": "move_to_storage_B"
    },
    "id": "BiTRRT_move_to_storage_B_103",
    "joint_names": [
        "shoulder_pan_joint",
        "shoulder_lift_joint",
        "elbow_joint",
        "wrist_1_joint",
        "wrist_2_joint",
        "wrist_3_joint"
    ],
    "metrics": {
        "cart_traj_len": 0.6542148454976404,
        "distance_elbow_joint": 0.3507648701207162,
        "distance_shoulder_lift_joint": 0.45985829637837305,
        "distance_shoulder_pan_joint": 0.35024640161182774,
        "distance_wrist_1_joint": 2.993014471092899,
        "distance_wrist_2_joint": 2.7048700509632178,
        "distance_wrist_3_joint": 3.1368754070566585,
        "smoothness": 0.04207638831748128,
        "time": 0.130503663,
        "traj_len": 3.161586547482718,
        "weighted_distance": 4.686924880280579
    },
    "planner": "BiTRRT",
    "start": {
        "state": {
            "elbow_joint": 1.664937868594044,
            "shoulder_lift_joint": -0.661644460510453,
            "shoulder_pan_joint": -0.9139846352900073,
            "wrist_1_joint": 2.146753192139373,
            "wrist_2_joint": -2.2341966793290973,
            "wrist_3_joint": 0.005466555786416001
        }
    },
    "waypoints": [
        {
            "positions": [
                -0.9139846352900073,
                -0.661644460510453,
                1.664937868594044,
                2.146753192139373,
                -2.2341966793290973,
                0.005466555786416001
            ]
        },
        {
            "positions": [
                -0.8299958150650709,
                -0.7008520578445135,
                1.6824364049566938,
                2.0863179386050943,
                -2.2066385510286444,
                -0.012331954099731063
            ]
        },
        {
            "positions": [
                -0.8406461183205466,
                -0.717678085806286,
                1.6957670583070164,
                1.9690147699027496,
                -2.099546074122134,
                -0.13709502998655154
            ]
        },
        {
            "positions": [
                -0.8512964215760223,
                -0.7345041137680586,
                1.7090977116573391,
                1.8517116012004047,
                -1.9924535972156232,
                -0.261858105873372
            ]
        },
        {
            "positions": [
                -0.8619467248314979,
                -0.751330141729831,
                1.7224283650076617,
                1.7344084324980598,
                -1.8853611203091125,
                -0.38662118176019244
            ]
        },
        {
            "positions": [
                -0.8725970280869735,
                -0.7681561696916035,
                1.7357590183579843,
                1.617105263795715,
                -1.778268643402602,
                -0.5113842576470129
            ]
        },
        {
            "positions": [
                -0.8832473313424491,
                -0.7849821976533761,
                1.749089671708307,
                1.4998020950933704,
                -1.6711761664960914,
                -0.6361473335338335
            ]
        },
        {
            "positions": [
                -0.8938976345979248,
                -0.8018082256151485,
                1.7624203250586297,
                1.3824989263910255,
                -1.5640836895895807,
                -0.7609104094206538
            ]
        },
        {
            "positions": [
                -0.9045479378534005,
                -0.8186342535769211,
                1.7757509784089525,
                1.2651957576886805,
                -1.4569912126830702,
                -0.8856734853074744
            ]
        },
        {
            "positions": [
                -0.9151982411088762,
                -0.8354602815386936,
                1.789081631759275,
                1.1478925889863358,
                -1.3498987357765597,
                -1.0104365611942947
            ]
        },
        {
            "positions": [
                -0.9258485443643518,
                -0.852286309500466,
                1.8024122851095976,
                1.0305894202839911,
                -1.242806258870049,
                -1.135199637081115
            ]
        },
        {
            "positions": [
                -0.9364988476198275,
                -0.8691123374622386,
                1.8157429384599204,
                0.9132862515816462,
                -1.1357137819635383,
                -1.2599627129679358
            ]
        },
        {
            "positions": [
                -0.9471491508753032,
                -0.885938365424011,
                1.829073591810243,
                0.7959830828793015,
                -1.0286213050570279,
                -1.3847257888547562
            ]
        },
        {
            "positions": [
                -0.9577994541307788,
                -0.9027643933857835,
                1.8424042451605656,
                0.6786799141769566,
                -0.9215288281505172,
                -1.5094888647415765
            ]
        },
        {
            "positions": [
                -0.9684497573862545,
                -0.9195904213475561,
                1.8557348985108884,
                0.5613767454746119,
                -0.8144363512440067,
                -1.634251940628397
            ]
        },
        {
            "positions": [
                -0.9791000606417302,
                -0.9364164493093285,
                1.869065551861211,
                0.444073576772267,
                -0.707343874337496,
                -1.7590150165152176
            ]
        },
        {
            "positions": [
                -0.9897503638972057,
                -0.953242477271101,
                1.8823962052115335,
                0.3267704080699223,
                -0.6002513974309855,
                -1.8837780924020378
            ]
        },
        {
            "positions": [
                -1.0004006671526815,
                -0.9700685052328736,
                1.8957268585618563,
                0.20946723936757738,
                -0.49315892052447485,
                -2.0085411682888585
            ]
        },
        {
            "positions": [
                -1.011050970408157,
                -0.9868945331946462,
                1.9090575119121789,
                0.09216407066523247,
                -0.38606644361796416,
                -2.1333042441756787
            ]
        },
        {
            "positions": [
                -1.0217012736636326,
                -1.0037205611564186,
                1.9223881652625017,
                -0.025139098037112007,
                -0.2789739667114537,
                -2.2580673200624988
            ]
        },
        {
            "positions": [
                -1.0323515769191083,
                -1.020546589118191,
                1.9357188186128242,
                -0.14244226673945715,
                -0.17188148980494322,
                -2.38283039594932
            ]
        },
        {
            "positions": [
                -1.043001880174584,
                -1.0373726170799635,
                1.9490494719631468,
                -0.25974543544180184,
                -0.06478901289843231,
                -2.5075934718361403
            ]
        },
        {
            "positions": [
                -1.0536521834300596,
                -1.054198645041736,
                1.9623801253134694,
                -0.37704860414414654,
                0.04230346400807816,
                -2.6323565477229605
            ]
        },
        {
            "positions": [
                -1.0643024866855353,
                -1.0710246730035085,
                1.9757107786637922,
                -0.49435177284649123,
                0.14939594091458863,
                -2.757119623609781
            ]
        },
        {
            "positions": [
                -1.074952789941011,
                -1.0878507009652811,
                1.9890414320141148,
                -0.6116549415488364,
                0.25648841782109955,
                -2.8818826994966016
            ]
        },
        {
            "positions": [
                -1.0856030931964866,
                -1.1046767289270536,
                2.0023720853644376,
                -0.7289581102511811,
                0.36358089472761,
                -3.0066457753834217
            ]
        },
        {
            "positions": [
                -1.0962533964519623,
                -1.121502756888826,
                2.01570273871476,
                -0.8462612789535257,
                0.4706733716341205,
                -3.1314088512702423
            ]
        }
    ]
}