{
    "goal": {
        "global_pose": {
            "orientation": {
                "w": 0.5084816217422485,
                "x": -0.49083608388900757,
                "y": 0.5182115435600281,
                "z": -0.4816462993621826
            },
            "position": {
                "x": 0.5540239810943604,
                "y": 0.030875300988554955,
                "z": 0.16403168439865112
            }
        },
        "name": "move_to_storage_A"
    },
    "id": "BiTRRT_move_to_storage_A_109",
    "joint_names": [
        "shoulder_pan_joint",
        "shoulder_lift_joint",
        "elbow_joint",
        "wrist_1_joint",
        "wrist_2_joint",
        "wrist_3_joint"
    ],
    "metrics": {
        "cart_traj_len": 0.3531410943944951,
        "distance_elbow_joint": 0.45044881040213114,
        "distance_shoulder_lift_joint": 0.23363186976642503,
        "distance_shoulder_pan_joint": 0.4609940554564452,
        "distance_wrist_1_joint": 0.24287496643628892,
        "distance_wrist_2_joint": 1.102321568557571,
        "distance_wrist_3_joint": 0.10579765820618547,
        "smoothness": 8.881784197001252e-16,
        "time": 0.033632105,
        "traj_len": 1.611232115129613,
        "weighted_distance": 2.037856908674227
    },
    "planner": "BiTRRT",
    "start": {
        "state": {
            "elbow_joint": 1.971548259319323,
            "shoulder_lift_joint": -1.1394851275133948,
            "shoulder_pan_joint": 0.1228115487234821,
            "wrist_1_joint": -0.7804723859257726,
            "wrist_2_joint": 0.12958671773740124,
            "wrist_3_joint": -3.192489227718131
        }
    },
    "waypoints": [
        {
            "positions": [
                0.1228115487234821,
                -1.1394851275133948,
                1.971548259319323,
                -0.7804723859257726,
                0.12958671773740124,
                -3.192489227718131
            ]
        },
        {
            "positions": [
                0.05695525508684708,
                -1.1728611089085983,
                2.0358980893767704,
                -0.8151688097023854,
                0.28706122753133995,
                -3.1773752765458187
            ]
        },
        {
            "positions": [
                -0.008901038549787937,
                -1.206237090303802,
                2.1002479194342176,
                -0.849865233478998,
                0.4445357373252786,
                -3.162261325373507
            ]
        },
        {
            "positions": [
                -0.07475733218642297,
                -1.2396130716990055,
                2.164597749491665,
                -0.8845616572556108,
                0.6020102471192174,
                -3.1471473742011944
            ]
        },
        {
            "positions": [
                -0.14061362582305797,
                -1.2729890530942092,
                2.228947579549112,
                -0.9192580810322234,
                0.7594847569131561,
                -3.1320334230288824
            ]
        },
        {
            "positions": [
                -0.206469919459693,
                -1.3063650344894127,
                2.2932974096065597,
                -0.9539545048088361,
                0.9169592667070948,
                -3.11691947185657
            ]
        },
        {
            "positions": [
                -0.27232621309632804,
                -1.3397410158846164,
                2.357647239664007,
                -0.9886509285854488,
                1.0744337765010334,
                -3.101805520684258
            ]
        },
        {
            "positions": [
                -0.3381825067329631,
                -1.3731169972798198,
                2.421997069721454,
                -1.0233473523620615,
                1.2319082862949722,
                -3.0866915695119457
            ]
        }
    ]
}{
    "goal": {
        "global_pose": {
            "orientation": {
                "w": 0.5084816217422485,
                "x": -0.49083608388900757,
                "y": 0.5182115435600281,
                "z": -0.4816462993621826
            },
            "position": {
                "x": 0.5540239810943604,
                "y": 0.030875300988554955,
                "z": 0.16403168439865112
            }
        },
        "name": "move_to_storage_A"
    },
    "id": "BiTRRT_move_to_storage_A_109",
    "joint_names": [
        "shoulder_pan_joint",
        "shoulder_lift_joint",
        "elbow_joint",
        "wrist_1_joint",
        "wrist_2_joint",
        "wrist_3_joint"
    ],
    "metrics": {
        "cart_traj_len": 0.3524338327277101,
        "distance_elbow_joint": 0.45076449671087326,
        "distance_shoulder_lift_joint": 0.23535382429614415,
        "distance_shoulder_pan_joint": 0.460956839968056,
        "distance_wrist_1_joint": 0.243367646724306,
        "distance_wrist_2_joint": 1.097863598180912,
        "distance_wrist_3_joint": 0.08814669943467957,
        "smoothness": 2.2204460668324854e-16,
        "time": 0.052685236999999996,
        "traj_len": 1.6051333606012215,
        "weighted_distance": 2.023358037790037
    },
    "planner": "BiTRRT",
    "start": {
        "state": {
            "elbow_joint": 1.97154746011099,
            "shoulder_lift_joint": -1.13948474672311,
            "shoulder_pan_joint": 0.12281154466712228,
            "wrist_1_joint": -0.7804688027058302,
            "wrist_2_joint": 0.12958655903071145,
            "wrist_3_joint": 3.0906928834467795
        }
    },
    "waypoints": [
        {
            "positions": [
                0.12281154466712228,
                -1.13948474672311,
                1.97154746011099,
                -0.7804688027058302,
                0.12958655903071145,
                3.0906928834467795
            ]
        },
        {
            "positions": [
                0.05696056752882858,
                -1.173106721622559,
                2.0359423882125434,
                -0.815235609380731,
                0.2864242159136989,
                3.103285269080305
            ]
        },
        {
            "positions": [
                -0.00889040960946512,
                -1.2067286965220083,
                2.1003373163140964,
                -0.8500024160556319,
                0.4432618727966863,
                3.115877654713831
            ]
        },
        {
            "positions": [
                -0.07474138674775883,
                -1.2403506714214574,
                2.16473224441565,
                -0.8847692227305327,
                0.6000995296796737,
                3.1284700403473567
            ]
        },
        {
            "positions": [
                -0.1405923638860525,
                -1.2739726463209067,
                2.2291271725172033,
                -0.9195360294054336,
                0.7569371865626612,
                3.141062425980882
            ]
        },
        {
            "positions": [
                -0.20644334102434625,
                -1.3075946212203557,
                2.2935221006187567,
                -0.9543028360803345,
                0.9137748434456486,
                3.1536548116144076
            ]
        },
        {
            "positions": [
                -0.27229431816263994,
                -1.3412165961198048,
                2.3579170287203097,
                -0.9890696427552353,
                1.070612500328636,
                3.1662471972479334
            ]
        },
        {
            "positions": [
                -0.3381452953009337,
                -1.374838571019254,
                2.422311956821863,
                -1.0238364494301362,
                1.2274501572116234,
                3.178839582881459
            ]
        }
    ]
}{
    "goal": {
        "global_pose": {
            "orientation": {
                "w": 0.5084816217422485,
                "x": -0.49083608388900757,
                "y": 0.5182115435600281,
                "z": -0.4816462993621826
            },
            "position": {
                "x": 0.5540239810943604,
                "y": 0.030875300988554955,
                "z": 0.16403168439865112
            }
        },
        "name": "move_to_storage_A"
    },
    "id": "BiTRRT_move_to_storage_A_109",
    "joint_names": [
        "shoulder_pan_joint",
        "shoulder_lift_joint",
        "elbow_joint",
        "wrist_1_joint",
        "wrist_2_joint",
        "wrist_3_joint"
    ],
    "metrics": {
        "cart_traj_len": 0.3539954781634483,
        "distance_elbow_joint": 0.4485189047493203,
        "distance_shoulder_lift_joint": 0.23537803589823802,
        "distance_shoulder_pan_joint": 0.4625294621064673,
        "distance_wrist_1_joint": 0.2355977130532596,
        "distance_wrist_2_joint": 1.1024364744761541,
        "distance_wrist_3_joint": 0.08868634777671147,
        "smoothness": 6.661338165333112e-16,
        "time": 0.050625086,
        "traj_len": 1.6041031569260598,
        "weighted_distance": 2.022017265293001
    },
    "planner": "BiTRRT",
    "start": {
        "state": {
            "elbow_joint": 1.9715472970024885,
            "shoulder_lift_joint": -1.1394870060712896,
            "shoulder_pan_joint": 0.12281152778156021,
            "wrist_1_joint": -0.780463741449964,
            "wrist_2_joint": 0.12958659822042276,
            "wrist_3_joint": 3.090690232415272
        }
    },
    "waypoints": [
        {
            "positions": [
                0.12281152778156021,
                -1.1394870060712896,
                1.9715472970024885,
                -0.780463741449964,
                0.12958659822042276,
                3.090690232415272
            ]
        },
        {
            "positions": [
                0.05673589033777918,
                -1.173112439771038,
                2.0356214262523915,
                -0.8141205576004297,
                0.28707752314558765,
                3.103359710669088
            ]
        },
        {
            "positions": [
                -0.009339747106001856,
                -1.206737873470786,
                2.0996955555022945,
                -0.8477773737508953,
                0.44456844807075246,
                3.1160291889229037
            ]
        },
        {
            "positions": [
                -0.07541538454978289,
                -1.2403633071705344,
                2.1637696847521974,
                -0.8814341899013609,
                0.6020593729959174,
                3.1286986671767196
            ]
        },
        {
            "positions": [
                -0.14149102199356392,
                -1.2739887408702828,
                2.2278438140021,
                -0.9150910060518266,
                0.7595502979210822,
                3.1413681454305356
            ]
        },
        {
            "positions": [
                -0.207566659437345,
                -1.3076141745700312,
                2.291917943252003,
                -0.9487478222022923,
                0.9170412228462471,
                3.1540376236843515
            ]
        },
        {
            "positions": [
                -0.27364229688112596,
                -1.3412396082697793,
                2.355992072501906,
                -0.9824046383527579,
                1.074532147771412,
                3.1667071019381674
            ]
        },
        {
            "positions": [
                -0.33971793432490704,
                -1.3748650419695276,
                2.420066201751809,
                -1.0160614545032236,
                1.2320230726965768,
                3.1793765801919833
            ]
        }
    ]
}