{
    "goal": {
        "global_pose": {
            "orientation": {
                "w": 0.5084816262002911,
                "x": -0.4908360881923452,
                "y": 0.5182115481033761,
                "z": -0.48164630358495003
            },
            "position": {
                "x": 0.5540239810943604,
                "y": -0.46912469901144505,
                "z": 0.16403168439865112
            }
        },
        "name": "move_to_storage_B"
    },
    "id": "BiTRRT_move_to_storage_B_98",
    "joint_names": [
        "shoulder_pan_joint",
        "shoulder_lift_joint",
        "elbow_joint",
        "wrist_1_joint",
        "wrist_2_joint",
        "wrist_3_joint"
    ],
    "metrics": {
        "cart_traj_len": 0.7292099524060762,
        "distance_elbow_joint": 0.35083562976843385,
        "distance_shoulder_lift_joint": 0.4593541209511305,
        "distance_shoulder_pan_joint": 0.46130783732450753,
        "distance_wrist_1_joint": 3.008525106247438,
        "distance_wrist_2_joint": 2.710310251207303,
        "distance_wrist_3_joint": 3.1669848133607386,
        "smoothness": 0.11407109687955744,
        "time": 0.113786164,
        "traj_len": 3.1870547153852806,
        "weighted_distance": 4.712761689607886
    },
    "planner": "BiTRRT",
    "start": {
        "state": {
            "elbow_joint": 1.664937868594044,
            "shoulder_lift_joint": -0.661644460510453,
            "shoulder_pan_joint": -0.9139846352900073,
            "wrist_1_joint": 2.146753192139373,
            "wrist_2_joint": -2.2341966793290973,
            "wrist_3_joint": 0.005466555786416001
        }
    },
    "waypoints": [
        {
            "positions": [
                -0.9139846352900073,
                -0.661644460510453,
                1.664937868594044,
                2.146753192139373,
                -2.2341966793290973,
                0.005466555786416001
            ]
        },
        {
            "positions": [
                -0.8441823287743293,
                -0.7054684566001475,
                1.693091387252179,
                2.1523747431137394,
                -2.176578065207175,
                0.013918248718887354
            ]
        },
        {
            "positions": [
                -0.7743800222586512,
                -0.7492924526898418,
                1.7212449059103139,
                2.1579962940881057,
                -2.118959451085253,
                0.022369941651358707
            ]
        },
        {
            "positions": [
                -0.7872481512303773,
                -0.7641606978407115,
                1.7330260496084005,
                2.0381050139161574,
                -2.0151565301667147,
                -0.10363331544847314
            ]
        },
        {
            "positions": [
                -0.8001162802021033,
                -0.7790289429915811,
                1.744807193306487,
                1.9182137337442091,
                -1.9113536092481762,
                -0.229636572548305
            ]
        },
        {
            "positions": [
                -0.8129844091738294,
                -0.7938971881424508,
                1.7565883370045736,
                1.798322453572261,
                -1.807550688329638,
                -0.3556398296481368
            ]
        },
        {
            "positions": [
                -0.8258525381455555,
                -0.8087654332933205,
                1.7683694807026602,
                1.6784311734003128,
                -1.7037477674110995,
                -0.4816430867479687
            ]
        },
        {
            "positions": [
                -0.8387206671172815,
                -0.8236336784441901,
                1.7801506244007466,
                1.5585398932283645,
                -1.5999448464925612,
                -0.6076463438478005
            ]
        },
        {
            "positions": [
                -0.8515887960890076,
                -0.8385019235950598,
                1.7919317680988331,
                1.4386486130564164,
                -1.496141925574023,
                -0.7336496009476322
            ]
        },
        {
            "positions": [
                -0.8644569250607337,
                -0.8533701687459295,
                1.8037129117969197,
                1.3187573328844682,
                -1.3923390046554844,
                -0.8596528580474642
            ]
        },
        {
            "positions": [
                -0.8773250540324596,
                -0.8682384138967991,
                1.8154940554950063,
                1.19886605271252,
                -1.288536083736946,
                -0.985656115147296
            ]
        },
        {
            "positions": [
                -0.8901931830041857,
                -0.8831066590476688,
                1.827275199193093,
                1.0789747725405716,
                -1.1847331628184077,
                -1.1116593722471277
            ]
        },
        {
            "positions": [
                -0.9030613119759118,
                -0.8979749041985385,
                1.8390563428911795,
                0.9590834923686233,
                -1.0809302418998694,
                -1.2376626293469597
            ]
        },
        {
            "positions": [
                -0.9159294409476378,
                -0.9128431493494081,
                1.850837486589266,
                0.8391922121966753,
                -0.9771273209813311,
                -1.3636658864467914
            ]
        },
        {
            "positions": [
                -0.9287975699193639,
                -0.9277113945002777,
                1.8626186302873524,
                0.719300932024727,
                -0.8733244000627927,
                -1.4896691435466232
            ]
        },
        {
            "positions": [
                -0.94166569889109,
                -0.9425796396511474,
                1.8743997739854392,
                0.5994096518527787,
                -0.7695214791442544,
                -1.6156724006464551
            ]
        },
        {
            "positions": [
                -0.954533827862816,
                -0.9574478848020171,
                1.8861809176835256,
                0.47951837168083045,
                -0.6657185582257159,
                -1.741675657746287
            ]
        },
        {
            "positions": [
                -0.9674019568345421,
                -0.9723161299528869,
                1.8979620613816122,
                0.3596270915088824,
                -0.5619156373071776,
                -1.8676789148461186
            ]
        },
        {
            "positions": [
                -0.9802700858062682,
                -0.9871843751037565,
                1.9097432050796987,
                0.2397358113369341,
                -0.45811271638863915,
                -1.9936821719459508
            ]
        },
        {
            "positions": [
                -0.9931382147779942,
                -1.0020526202546263,
                1.9215243487777853,
                0.11984453116498583,
                -0.3543097954701009,
                -2.119685429045783
            ]
        },
        {
            "positions": [
                -1.0060063437497202,
                -1.0169208654054958,
                1.933305492475872,
                -4.674900696244322e-05,
                -0.2505068745515626,
                -2.2456886861456145
            ]
        },
        {
            "positions": [
                -1.0188744727214463,
                -1.0317891105563655,
                1.9450866361739585,
                -0.11993802917891072,
                -0.14670395363302413,
                -2.3716919432454464
            ]
        },
        {
            "positions": [
                -1.0317426016931723,
                -1.0466573557072352,
                1.956867779872045,
                -0.239829309350859,
                -0.042901032714485865,
                -2.4976952003452784
            ]
        },
        {
            "positions": [
                -1.0446107306648984,
                -1.0615256008581049,
                1.9686489235701314,
                -0.35972058952280683,
                0.0609018882040524,
                -2.62369845744511
            ]
        },
        {
            "positions": [
                -1.0574788596366245,
                -1.0763938460089744,
                1.980430067268218,
                -0.4796118696947551,
                0.16470480912259067,
                -2.749701714544942
            ]
        },
        {
            "positions": [
                -1.0703469886083505,
                -1.091262091159844,
                1.9922112109663046,
                -0.5995031498667038,
                0.2685077300411294,
                -2.875704971644774
            ]
        },
        {
            "positions": [
                -1.0832151175800766,
                -1.1061303363107138,
                2.0039923546643914,
                -0.7193944300386517,
                0.37231065095966764,
                -3.0017082287446053
            ]
        },
        {
            "positions": [
                -1.0960832465518027,
                -1.1209985814615835,
                2.0157734983624778,
                -0.8392857102105999,
                0.476113571878206,
                -3.1277114858444373
            ]
        }
    ]
}