{
    "goal": {
        "global_pose": {
            "orientation": {
                "w": 0.5084816217422485,
                "x": -0.49083608388900757,
                "y": 0.5182115435600281,
                "z": -0.4816462993621826
            },
            "position": {
                "x": 0.5540239810943604,
                "y": 0.030875300988554955,
                "z": 0.16403168439865112
            }
        },
        "name": "move_to_storage_A"
    },
    "id": "BiTRRT_move_to_storage_A_32",
    "joint_names": [
        "shoulder_pan_joint",
        "shoulder_lift_joint",
        "elbow_joint",
        "wrist_1_joint",
        "wrist_2_joint",
        "wrist_3_joint"
    ],
    "metrics": {
        "cart_traj_len": 0.35226107416585417,
        "distance_elbow_joint": 0.44943265641293073,
        "distance_shoulder_lift_joint": 0.23372129975042966,
        "distance_shoulder_pan_joint": 0.45959235338185594,
        "distance_wrist_1_joint": 0.24272629914473243,
        "distance_wrist_2_joint": 1.1012756366760021,
        "distance_wrist_3_joint": 0.1008494915720739,
        "smoothness": 8.881784197001252e-16,
        "time": 0.036596235000000005,
        "traj_len": 1.6086011739825459,
        "weighted_distance": 2.0330515625293195
    },
    "planner": "BiTRRT",
    "start": {
        "state": {
            "elbow_joint": 1.971548259319323,
            "shoulder_lift_joint": -1.1394851275133948,
            "shoulder_pan_joint": 0.1228115487234821,
            "wrist_1_joint": -0.7804723859257726,
            "wrist_2_joint": 0.12958671773740124,
            "wrist_3_joint": -3.192489227718131
        }
    },
    "waypoints": [
        {
            "positions": [
                0.1228115487234821,
                -1.1394851275133948,
                1.971548259319323,
                -0.7804723859257726,
                0.12958671773740124,
                -3.192489227718131
            ]
        },
        {
            "positions": [
                0.05715549824035983,
                -1.172873884620599,
                2.0357529245211703,
                -0.8151475715178772,
                0.2869118086911158,
                -3.178082157493549
            ]
        },
        {
            "positions": [
                -0.008500552242762444,
                -1.2062626417278033,
                2.0999575897230174,
                -0.8498227571099819,
                0.4442368996448304,
                -3.163675087268967
            ]
        },
        {
            "positions": [
                -0.07415660272588473,
                -1.2396513988350075,
                2.164162254924865,
                -0.8844979427020865,
                0.601561990598545,
                -3.149268017044385
            ]
        },
        {
            "positions": [
                -0.139812653209007,
                -1.2730401559422118,
                2.228366920126712,
                -0.9191731282941912,
                0.7588870815522596,
                -3.134860946819803
            ]
        },
        {
            "positions": [
                -0.20546870369212927,
                -1.306428913049416,
                2.292571585328559,
                -0.9538483138862958,
                0.9162121725059742,
                -3.120453876595221
            ]
        },
        {
            "positions": [
                -0.27112475417525156,
                -1.3398176701566202,
                2.3567762505304066,
                -0.9885234994784005,
                1.0735372634596887,
                -3.1060468063706392
            ]
        },
        {
            "positions": [
                -0.33678080465837384,
                -1.3732064272638245,
                2.4209809157322537,
                -1.023198685070505,
                1.2308623544134034,
                -3.0916397361460572
            ]
        }
    ]
}{
    "goal": {
        "global_pose": {
            "orientation": {
                "w": 0.5084816217422485,
                "x": -0.49083608388900757,
                "y": 0.5182115435600281,
                "z": -0.4816462993621826
            },
            "position": {
                "x": 0.5540239810943604,
                "y": 0.030875300988554955,
                "z": 0.16403168439865112
            }
        },
        "name": "move_to_storage_A"
    },
    "id": "BiTRRT_move_to_storage_A_32",
    "joint_names": [
        "shoulder_pan_joint",
        "shoulder_lift_joint",
        "elbow_joint",
        "wrist_1_joint",
        "wrist_2_joint",
        "wrist_3_joint"
    ],
    "metrics": {
        "cart_traj_len": 0.35279637653582624,
        "distance_elbow_joint": 0.45048416321620177,
        "distance_shoulder_lift_joint": 0.23402105829367037,
        "distance_shoulder_pan_joint": 0.46182903773809064,
        "distance_wrist_1_joint": 0.24391780679412012,
        "distance_wrist_2_joint": 1.0961682349886448,
        "distance_wrist_3_joint": 0.08929019144465533,
        "smoothness": 1.1102230263833737e-15,
        "time": 0.037903651999999996,
        "traj_len": 1.6049020195872965,
        "weighted_distance": 2.023456675381872
    },
    "planner": "BiTRRT",
    "start": {
        "state": {
            "elbow_joint": 1.97154746011099,
            "shoulder_lift_joint": -1.13948474672311,
            "shoulder_pan_joint": 0.12281154466712228,
            "wrist_1_joint": -0.7804688027058302,
            "wrist_2_joint": 0.12958655903071145,
            "wrist_3_joint": 3.0906928834467795
        }
    },
    "waypoints": [
        {
            "positions": [
                0.12281154466712228,
                -1.13948474672311,
                1.97154746011099,
                -0.7804688027058302,
                0.12958655903071145,
                3.0906928834467795
            ]
        },
        {
            "positions": [
                0.05683596784739506,
                -1.1729163264793485,
                2.0359023405704475,
                -0.8153142036764188,
                0.2861820211719464,
                3.10344862508173
            ]
        },
        {
            "positions": [
                -0.009139608972332167,
                -1.2063479062355873,
                2.1002572210299046,
                -0.8501596046470073,
                0.44277748331318134,
                3.116204366716681
            ]
        },
        {
            "positions": [
                -0.0751151857920594,
                -1.2397794859918259,
                2.1646121014893622,
                -0.885005005617596,
                0.5993729454544163,
                3.128960108351632
            ]
        },
        {
            "positions": [
                -0.1410907626117866,
                -1.2732110657480644,
                2.2289669819488194,
                -0.9198504065881845,
                0.7559684075956513,
                3.1417158499865825
            ]
        },
        {
            "positions": [
                -0.20706633943151387,
                -1.306642645504303,
                2.293321862408277,
                -0.9546958075587731,
                0.9125638697368863,
                3.154471591621533
            ]
        },
        {
            "positions": [
                -0.2730419162512411,
                -1.3400742252605418,
                2.357676742867734,
                -0.9895412085293617,
                1.0691593318781212,
                3.167227333256484
            ]
        },
        {
            "positions": [
                -0.33901749307096835,
                -1.3735058050167803,
                2.4220316233271917,
                -1.0243866094999503,
                1.2257547940193563,
                3.179983074891435
            ]
        }
    ]
}{
    "goal": {
        "global_pose": {
            "orientation": {
                "w": 0.5084816217422485,
                "x": -0.49083608388900757,
                "y": 0.5182115435600281,
                "z": -0.4816462993621826
            },
            "position": {
                "x": 0.5540239810943604,
                "y": 0.030875300988554955,
                "z": 0.16403168439865112
            }
        },
        "name": "move_to_storage_A"
    },
    "id": "BiTRRT_move_to_storage_A_32",
    "joint_names": [
        "shoulder_pan_joint",
        "shoulder_lift_joint",
        "elbow_joint",
        "wrist_1_joint",
        "wrist_2_joint",
        "wrist_3_joint"
    ],
    "metrics": {
        "cart_traj_len": 0.35353006826861133,
        "distance_elbow_joint": 0.44741031388405483,
        "distance_shoulder_lift_joint": 0.23426450731618154,
        "distance_shoulder_pan_joint": 0.4593439865338967,
        "distance_wrist_1_joint": 0.23652714199134373,
        "distance_wrist_2_joint": 1.11163387083272,
        "distance_wrist_3_joint": 0.08871365953126142,
        "smoothness": 0.0,
        "time": 0.041434731,
        "traj_len": 1.6055819755121374,
        "weighted_distance": 2.0257052628593444
    },
    "planner": "BiTRRT",
    "start": {
        "state": {
            "elbow_joint": 1.9715472970024885,
            "shoulder_lift_joint": -1.1394870060712896,
            "shoulder_pan_joint": 0.12281152778156021,
            "wrist_1_joint": -0.780463741449964,
            "wrist_2_joint": 0.12958659822042276,
            "wrist_3_joint": 3.090690232415272
        }
    },
    "waypoints": [
        {
            "positions": [
                0.12281152778156021,
                -1.1394870060712896,
                1.9715472970024885,
                -0.780463741449964,
                0.12958659822042276,
                3.090690232415272
            ]
        },
        {
            "positions": [
                0.05719095827671784,
                -1.1729533642593155,
                2.035463056128782,
                -0.8142533331630131,
                0.2883914369108113,
                3.1033636123483093
            ]
        },
        {
            "positions": [
                -0.008429611228124523,
                -1.2064197224473414,
                2.0993788152550756,
                -0.8480429248760621,
                0.4471962756011999,
                3.1160369922813467
            ]
        },
        {
            "positions": [
                -0.0740501807329669,
                -1.2398860806353673,
                2.163294574381369,
                -0.8818325165891113,
                0.6060011142915884,
                3.128710372214384
            ]
        },
        {
            "positions": [
                -0.13967075023780925,
                -1.2733524388233932,
                2.2272103335076627,
                -0.9156221083021604,
                0.764805952981977,
                3.141383752147421
            ]
        },
        {
            "positions": [
                -0.20529131974265166,
                -1.3068187970114193,
                2.2911260926339563,
                -0.9494117000152096,
                0.9236107916723656,
                3.1540571320804585
            ]
        },
        {
            "positions": [
                -0.270911889247494,
                -1.3402851551994452,
                2.35504185176025,
                -0.9832012917282587,
                1.0824156303627541,
                3.166730512013496
            ]
        },
        {
            "positions": [
                -0.33653245875233645,
                -1.3737515133874711,
                2.4189576108865434,
                -1.0169908834413077,
                1.2412204690531428,
                3.1794038919465333
            ]
        }
    ]
}