{
    "goal": {
        "global_pose": {
            "orientation": {
                "w": -0.00223480608172531,
                "x": 0.0024358444001904467,
                "y": 0.7094548369677653,
                "z": -0.704743149386269
            },
            "position": {
                "x": -0.37947507619857795,
                "y": -0.6371506643295288,
                "z": 0.19426114857196808
            }
        },
        "name": "move_to_magneteinheit_C"
    },
    "id": "BiTRRT_move_to_magneteinheit_C_75",
    "joint_names": [
        "shoulder_pan_joint",
        "shoulder_lift_joint",
        "elbow_joint",
        "wrist_1_joint",
        "wrist_2_joint",
        "wrist_3_joint"
    ],
    "metrics": {
        "cart_traj_len": 0.8475763016335428,
        "distance_elbow_joint": 0.1380539631753832,
        "distance_shoulder_lift_joint": 0.2529620973100326,
        "distance_shoulder_pan_joint": 1.0801737379811527,
        "distance_wrist_1_joint": 0.3281601560833176,
        "distance_wrist_2_joint": 0.7998938097447286,
        "distance_wrist_3_joint": 1.0113116177481762,
        "smoothness": 0.8597672857761819,
        "time": 0.10083249899999999,
        "traj_len": 1.900146147548338,
        "weighted_distance": 2.600237024458961
    },
    "planner": "BiTRRT",
    "start": {
        "state": {
            "elbow_joint": 1.9565354010623817,
            "shoulder_lift_joint": -1.4165861575791021,
            "shoulder_pan_joint": -1.6717766225146293,
            "wrist_1_joint": -0.5286633292919765,
            "wrist_2_joint": 1.472756589071564,
            "wrist_3_joint": -3.1238370188695823
        }
    },
    "waypoints": [
        {
            "positions": [
                -1.6717766225146293,
                -1.4165861575791021,
                1.9565354010623817,
                -0.5286633292919765,
                1.472756589071564,
                -3.1238370188695823
            ]
        },
        {
            "positions": [
                -1.6021293439520492,
                -1.412156208346682,
                1.9531370305546192,
                -0.5427317351356586,
                1.3866236409551083,
                -2.9911971589978155
            ]
        },
        {
            "positions": [
                -1.5324820653894689,
                -1.4077262591142623,
                1.9497386600468567,
                -0.5568001409793408,
                1.3004906928386526,
                -2.858557299126048
            ]
        },
        {
            "positions": [
                -1.5481659334210571,
                -1.3969632266463299,
                1.938759282093106,
                -0.627483180285463,
                1.0931666410494632,
                -2.779107139588593
            ]
        },
        {
            "positions": [
                -1.5638498014526456,
                -1.3862001941783977,
                1.9277799041393557,
                -0.6981662195915851,
                0.8858425892602738,
                -2.6996569800511376
            ]
        },
        {
            "positions": [
                -1.579533669484234,
                -1.3754371617104653,
                1.9168005261856051,
                -0.7688492588977073,
                0.6785185374710844,
                -2.6202068205136824
            ]
        },
        {
            "positions": [
                -1.7582991848364793,
                -1.333074541422186,
                1.9364643438453264,
                -0.7864441041932246,
                0.6773873858422346,
                -2.7217431043921376
            ]
        },
        {
            "positions": [
                -1.9370647001887247,
                -1.2907119211339069,
                1.9561281615050479,
                -0.804038949488742,
                0.6762562342133848,
                -2.823279388270593
            ]
        },
        {
            "positions": [
                -2.1158302155409703,
                -1.248349300845628,
                1.9757919791647691,
                -0.8216337947842594,
                0.675125082584535,
                -2.924815672149048
            ]
        },
        {
            "positions": [
                -2.2945957308932154,
                -1.2059866805573487,
                1.9954557968244906,
                -0.8392286400797767,
                0.6739939309556852,
                -3.0263519560275034
            ]
        },
        {
            "positions": [
                -2.473361246245461,
                -1.1636240602690695,
                2.015119614484212,
                -0.8568234853752941,
                0.6728627793268354,
                -3.1278882399059587
            ]
        }
    ]
}