{
    "goal": {
        "global_pose": {
            "orientation": {
                "w": 0.005598929693374612,
                "x": 0.007748599140229565,
                "y": 0.7110244013736278,
                "z": -0.7031023480610252
            },
            "position": {
                "x": 0.1141497679147869,
                "y": -0.7141253447532654,
                "z": 0.3711530566215515
            }
        },
        "name": "move_to_auspresseinheit_B"
    },
    "id": "BiTRRT_move_to_auspresseinheit_B_52",
    "joint_names": [
        "shoulder_pan_joint",
        "shoulder_lift_joint",
        "elbow_joint",
        "wrist_1_joint",
        "wrist_2_joint",
        "wrist_3_joint"
    ],
    "metrics": {
        "cart_traj_len": 0.5648991595265448,
        "distance_elbow_joint": 0.06075699781656252,
        "distance_shoulder_lift_joint": 0.29435476620257206,
        "distance_shoulder_pan_joint": 0.5785686059853015,
        "distance_wrist_1_joint": 0.31867676227280506,
        "distance_wrist_2_joint": 0.9872420305449725,
        "distance_wrist_3_joint": 0.0066832296366610144,
        "smoothness": 5.075305255429287e-16,
        "time": 0.064835975,
        "traj_len": 1.498760285188687,
        "weighted_distance": 1.888271072846792
    },
    "planner": "BiTRRT",
    "start": {
        "state": {
            "elbow_joint": 2.0193083361928714,
            "shoulder_lift_joint": -1.1220246554650708,
            "shoulder_pan_joint": -1.0952077554168747,
            "wrist_1_joint": -0.8559753972642168,
            "wrist_2_joint": 0.4759566250798843,
            "wrist_3_joint": -3.1240929996934557
        }
    },
    "waypoints": [
        {
            "positions": [
                -1.0952077554168747,
                -1.1220246554650708,
                2.0193083361928714,
                -0.8559753972642168,
                0.4759566250798843,
                -3.1240929996934557
            ]
        },
        {
            "positions": [
                -1.191635856414425,
                -1.1710837831654994,
                2.009182169890111,
                -0.8028626035520826,
                0.6404969635040464,
                -3.1229791280873456
            ]
        },
        {
            "positions": [
                -1.2880639574119752,
                -1.220142910865928,
                1.9990560035873506,
                -0.7497498098399484,
                0.8050373019282084,
                -3.1218652564812355
            ]
        },
        {
            "positions": [
                -1.3844920584095255,
                -1.2692020385663567,
                1.9889298372845903,
                -0.6966370161278143,
                0.9695776403523706,
                -3.120751384875125
            ]
        },
        {
            "positions": [
                -1.4809201594070756,
                -1.3182611662667856,
                1.9788036709818297,
                -0.6435242224156801,
                1.1341179787765325,
                -3.119637513269015
            ]
        },
        {
            "positions": [
                -1.5773482604046258,
                -1.3673202939672142,
                1.9686775046790692,
                -0.5904114287035459,
                1.2986583172006947,
                -3.1185236416629047
            ]
        },
        {
            "positions": [
                -1.6737763614021761,
                -1.4163794216676429,
                1.958551338376309,
                -0.5372986349914117,
                1.4631986556248568,
                -3.1174097700567946
            ]
        }
    ]
}