{
    "goal": {
        "global_pose": {
            "orientation": {
                "w": 0.005598929693374612,
                "x": 0.007748599140229565,
                "y": 0.7110244013736278,
                "z": -0.7031023480610252
            },
            "position": {
                "x": -0.8858502320852131,
                "y": -0.7141253447532654,
                "z": 0.3711530566215515
            }
        },
        "name": "move_to_auspresseinheit_C"
    },
    "id": "BiTRRT_move_to_auspresseinheit_C_112",
    "joint_names": [
        "shoulder_pan_joint",
        "shoulder_lift_joint",
        "elbow_joint",
        "wrist_1_joint",
        "wrist_2_joint",
        "wrist_3_joint"
    ],
    "metrics": {
        "cart_traj_len": 0.4925427534185816,
        "distance_elbow_joint": 0.9899692316772452,
        "distance_shoulder_lift_joint": 0.3195724598297267,
        "distance_shoulder_pan_joint": 0.25599455859645337,
        "distance_wrist_1_joint": 0.6569815829990645,
        "distance_wrist_2_joint": 1.3120852174316937,
        "distance_wrist_3_joint": 0.038911426243584124,
        "smoothness": 4.844609600361787e-16,
        "time": 0.05047098,
        "traj_len": 1.8903741631692303,
        "weighted_distance": 2.3707391526053
    },
    "planner": "BiTRRT",
    "start": {
        "state": {
            "elbow_joint": 1.7527959577737207,
            "shoulder_lift_joint": -0.9740617694225068,
            "shoulder_pan_joint": -2.967991417825858,
            "wrist_1_joint": -0.759517768980727,
            "wrist_2_joint": 1.7443932448377408,
            "wrist_3_joint": -3.0840537646736568
        }
    },
    "waypoints": [
        {
            "positions": [
                -2.967991417825858,
                -0.9740617694225068,
                1.7527959577737207,
                -0.759517768980727,
                1.7443932448377408,
                -3.0840537646736568
            ]
        },
        {
            "positions": [
                -2.9423919619662127,
                -0.9421045234395341,
                1.653799034605996,
                -0.6938196106808205,
                1.6131847230945715,
                -3.087944907298015
            ]
        },
        {
            "positions": [
                -2.9167925061065674,
                -0.9101472774565614,
                1.5548021114382715,
                -0.6281214523809141,
                1.4819762013514022,
                -3.0918360499223736
            ]
        },
        {
            "positions": [
                -2.891193050246922,
                -0.8781900314735888,
                1.4558051882705472,
                -0.5624232940810077,
                1.3507676796082326,
                -3.095727192546732
            ]
        },
        {
            "positions": [
                -2.865593594387277,
                -0.8462327854906161,
                1.3568082651028226,
                -0.49672513578110117,
                1.2195591578650633,
                -3.0996183351710904
            ]
        },
        {
            "positions": [
                -2.839994138527631,
                -0.8142755395076434,
                1.257811341935098,
                -0.43102697748119473,
                1.088350636121894,
                -3.103509477795449
            ]
        },
        {
            "positions": [
                -2.8143946826679858,
                -0.7823182935246707,
                1.1588144187673737,
                -0.3653288191812883,
                0.9571421143787247,
                -3.1074006204198072
            ]
        },
        {
            "positions": [
                -2.7887952268083405,
                -0.7503610475416981,
                1.059817495599649,
                -0.29963066088138185,
                0.8259335926355553,
                -3.1112917630441657
            ]
        },
        {
            "positions": [
                -2.763195770948695,
                -0.7184038015587254,
                0.9608205724319245,
                -0.23393250258147535,
                0.6947250708923858,
                -3.115182905668524
            ]
        },
        {
            "positions": [
                -2.73759631508905,
                -0.6864465555757527,
                0.8618236492642,
                -0.16823434428156891,
                0.5635165491492165,
                -3.1190740482928825
            ]
        },
        {
            "positions": [
                -2.7119968592294046,
                -0.6544893095927801,
                0.7628267260964755,
                -0.10253618598166245,
                0.43230802740604723,
                -3.122965190917241
            ]
        }
    ]
}