{
    "goal": {
        "global_pose": {
            "orientation": {
                "w": 0.7031023502349854,
                "x": -0.7110244035720825,
                "y": 0.007748599164187908,
                "z": 0.005598929710686207
            },
            "position": {
                "x": 0.11585023208521307,
                "y": 0.44412534475326537,
                "z": 0.3711530566215515
            }
        },
        "name": "move_to_auspresseinheit_A"
    },
    "id": "BiTRRT_move_to_auspresseinheit_A_47",
    "joint_names": [
        "shoulder_pan_joint",
        "shoulder_lift_joint",
        "elbow_joint",
        "wrist_1_joint",
        "wrist_2_joint",
        "wrist_3_joint"
    ],
    "metrics": {
        "cart_traj_len": 0.6777184551475516,
        "distance_elbow_joint": 0.046927661034620094,
        "distance_shoulder_lift_joint": 0.5385048189980584,
        "distance_shoulder_pan_joint": 1.0417378041110923,
        "distance_wrist_1_joint": 0.5503088544465973,
        "distance_wrist_2_joint": 1.2189899353875573,
        "distance_wrist_3_joint": 0.6484331624225859,
        "smoothness": 0.9037728821314185,
        "time": 0.059429021,
        "traj_len": 2.0111942313959914,
        "weighted_distance": 2.66665846164818
    },
    "planner": "BiTRRT",
    "start": {
        "state": {
            "elbow_joint": 2.4225746658250005,
            "shoulder_lift_joint": -1.3736534386056498,
            "shoulder_pan_joint": -0.3378633547517467,
            "wrist_1_joint": -1.0288598680537169,
            "wrist_2_joint": 1.233022673432363,
            "wrist_3_joint": -3.0940220416140027
        }
    },
    "waypoints": [
        {
            "positions": [
                -0.3378633547517467,
                -1.3736534386056498,
                2.4225746658250005,
                -1.0288598680537169,
                1.233022673432363,
                -3.0940220416140027
            ]
        },
        {
            "positions": [
                -0.2534009924662718,
                -1.4176764855841235,
                2.4241438883903017,
                -0.9767705978712493,
                1.1083838645230175,
                -3.049845954139896
            ]
        },
        {
            "positions": [
                -0.16893863018079683,
                -1.4616995325625974,
                2.4257131109556034,
                -0.9246813276887819,
                0.983745055613672,
                -3.005669866665789
            ]
        },
        {
            "positions": [
                -0.08447626789532187,
                -1.5057225795410711,
                2.4272823335209046,
                -0.8725920575063143,
                0.8591062467043264,
                -2.961493779191682
            ]
        },
        {
            "positions": [
                -1.3905609846931455e-05,
                -1.5497456265195448,
                2.428851556086206,
                -0.8205027873238468,
                0.7344674377949809,
                -2.917317691717575
            ]
        },
        {
            "positions": [
                0.08444845667562806,
                -1.5937686734980185,
                2.430420778651507,
                -0.7684135171413793,
                0.6098286288856354,
                -2.873141604243468
            ]
        },
        {
            "positions": [
                0.168910818961103,
                -1.6377917204764925,
                2.4319900012168087,
                -0.7163242469589117,
                0.48518981997628985,
                -2.8289655167693613
            ]
        },
        {
            "positions": [
                0.2533731812465779,
                -1.6818147674549662,
                2.43355922378211,
                -0.6642349767764443,
                0.3605510110669443,
                -2.7847894292952544
            ]
        },
        {
            "positions": [
                0.34347343486913146,
                -1.7278834654847146,
                2.4263706031666077,
                -0.6270981841425793,
                0.42985466567137204,
                -2.852629539316022
            ]
        },
        {
            "positions": [
                0.433573688491685,
                -1.773952163514463,
                2.419181982551106,
                -0.5899613915087144,
                0.49915832027579976,
                -2.9204696493367894
            ]
        },
        {
            "positions": [
                0.5236739421142385,
                -1.8200208615442113,
                2.4119933619356035,
                -0.5528245988748495,
                0.5684619748802275,
                -2.988309759357557
            ]
        },
        {
            "positions": [
                0.613774195736792,
                -1.8660895595739597,
                2.4048047413201017,
                -0.5156878062409845,
                0.6377656294846552,
                -3.0561498693783244
            ]
        },
        {
            "positions": [
                0.7038744493593455,
                -1.9121582576037082,
                2.3976161207045994,
                -0.4785510136071196,
                0.707069284089083,
                -3.123989979399092
            ]
        }
    ]
}