{
    "goal": {
        "global_pose": {
            "orientation": {
                "w": -0.00223480608172531,
                "x": 0.0024358444001904467,
                "y": 0.7094548369677653,
                "z": -0.704743149386269
            },
            "position": {
                "x": -0.37947507619857795,
                "y": -0.6371506643295288,
                "z": 0.19426114857196808
            }
        },
        "name": "move_to_magneteinheit_C"
    },
    "id": "BiTRRT_move_to_magneteinheit_C_72",
    "joint_names": [
        "shoulder_pan_joint",
        "shoulder_lift_joint",
        "elbow_joint",
        "wrist_1_joint",
        "wrist_2_joint",
        "wrist_3_joint"
    ],
    "metrics": {
        "cart_traj_len": 0.7747075884458484,
        "distance_elbow_joint": 0.24829744506656803,
        "distance_shoulder_lift_joint": 0.5312769963145836,
        "distance_shoulder_pan_joint": 0.9701367543335879,
        "distance_wrist_1_joint": 2.1324386269708517,
        "distance_wrist_2_joint": 1.2403873053155574,
        "distance_wrist_3_joint": 3.1523350806505714,
        "smoothness": 1.063242901318962,
        "time": 0.091084253,
        "traj_len": 2.876607760653461,
        "weighted_distance": 4.237023519198267
    },
    "planner": "BiTRRT",
    "start": {
        "state": {
            "elbow_joint": 1.9565354010623817,
            "shoulder_lift_joint": -1.4165861575791021,
            "shoulder_pan_joint": -1.6717766225146293,
            "wrist_1_joint": -0.5286633292919765,
            "wrist_2_joint": 1.472756589071564,
            "wrist_3_joint": -3.1238370188695823
        }
    },
    "waypoints": [
        {
            "positions": [
                -1.6717766225146293,
                -1.4165861575791021,
                1.9565354010623817,
                -0.5286633292919765,
                1.472756589071564,
                -3.1238370188695823
            ]
        },
        {
            "positions": [
                -1.6490997647244292,
                -1.4291144498994992,
                1.9668615494541943,
                -0.44188216791899637,
                1.416897471412233,
                -2.9601329363261226
            ]
        },
        {
            "positions": [
                -1.6264229069342293,
                -1.4416427422198965,
                1.977187697846007,
                -0.35510100654601623,
                1.361038353752902,
                -2.7964288537826625
            ]
        },
        {
            "positions": [
                -1.6037460491440292,
                -1.4541710345402936,
                1.9875138462378197,
                -0.2683198451730361,
                1.3051792360935712,
                -2.632724771239203
            ]
        },
        {
            "positions": [
                -1.6379109206579454,
                -1.415856060463128,
                1.9767938468376791,
                -0.19776869673416553,
                1.2133063609282806,
                -2.52082568796764
            ]
        },
        {
            "positions": [
                -1.6720757921718616,
                -1.3775410863859623,
                1.9660738474375385,
                -0.12721754829529494,
                1.1214334857629902,
                -2.4089266046960773
            ]
        },
        {
            "positions": [
                -1.706240663685778,
                -1.3392261123087965,
                1.9553538480373978,
                -0.056666399856424354,
                1.0295606105976995,
                -2.2970275214245146
            ]
        },
        {
            "positions": [
                -1.7404055351996943,
                -1.300911138231631,
                1.9446338486372572,
                0.013884748582446205,
                0.937687735432409,
                -2.185128438152952
            ]
        },
        {
            "positions": [
                -1.7745704067136105,
                -1.2625961641544654,
                1.9339138492371166,
                0.08443589702131682,
                0.8458148602671184,
                -2.0732293548813887
            ]
        },
        {
            "positions": [
                -1.8087352782275268,
                -1.2242811900772996,
                1.923193849836976,
                0.15498704546018738,
                0.7539419851018279,
                -1.9613302716098262
            ]
        },
        {
            "positions": [
                -1.8478373129354861,
                -1.1942988537110049,
                1.9152300003620664,
                0.21205285344613084,
                0.6801446633329438,
                -1.861534998292802
            ]
        },
        {
            "positions": [
                -1.8869393476434457,
                -1.1643165173447103,
                1.907266150887157,
                0.2691186614320743,
                0.6063473415640598,
                -1.761739724975778
            ]
        },
        {
            "positions": [
                -1.9260413823514053,
                -1.1343341809784158,
                1.8993023014122472,
                0.32618446941801776,
                0.5325500197951757,
                -1.6619444516587538
            ]
        },
        {
            "positions": [
                -1.9651434170593647,
                -1.104351844612121,
                1.8913384519373375,
                0.3832502774039612,
                0.45875269802629165,
                -1.5621491783417296
            ]
        },
        {
            "positions": [
                -2.1398541909220987,
                -1.138435087399353,
                1.9088772137176242,
                0.326806150832583,
                0.5038772097736455,
                -1.618627707992019
            ]
        },
        {
            "positions": [
                -2.3145649647848323,
                -1.172518330186585,
                1.9264159754979107,
                0.27036202426120487,
                0.5490017215209992,
                -1.6751062376423083
            ]
        },
        {
            "positions": [
                -2.4892757386475663,
                -1.2066015729738169,
                1.9439547372781973,
                0.21391789768982666,
                0.594126233268353,
                -1.7315847672925977
            ]
        },
        {
            "positions": [
                -2.4869076684390734,
                -1.2006554013933135,
                1.9537443544567386,
                0.06374752046685819,
                0.6071276445580993,
                -1.9346150031742906
            ]
        },
        {
            "positions": [
                -2.4845395982305805,
                -1.1947092298128101,
                1.9635339716352795,
                -0.08642285675611028,
                0.6201290558478455,
                -2.1376452390559835
            ]
        },
        {
            "positions": [
                -2.4821715280220875,
                -1.1887630582323068,
                1.9733235888138208,
                -0.23659323397907878,
                0.6331304671375918,
                -2.3406754749376764
            ]
        },
        {
            "positions": [
                -2.4798034578135946,
                -1.1828168866518034,
                1.983113205992362,
                -0.3867636112020472,
                0.6461318784273381,
                -2.5437057108193697
            ]
        },
        {
            "positions": [
                -2.4774353876051016,
                -1.1768707150713,
                1.9929028231709032,
                -0.5369339884250157,
                0.6591332897170844,
                -2.7467359467010626
            ]
        },
        {
            "positions": [
                -2.4750673173966087,
                -1.1709245434907967,
                2.002692440349444,
                -0.6871043656479843,
                0.6721347010068306,
                -2.9497661825827555
            ]
        },
        {
            "positions": [
                -2.4726992471881157,
                -1.1649783719102933,
                2.0124820575279854,
                -0.8372747428709528,
                0.6851361122965769,
                -3.1527964184644484
            ]
        }
    ]
}