{
    "goal": {
        "global_pose": {
            "orientation": {
                "w": 0.7031023480610252,
                "x": -0.7110244013736278,
                "y": 0.0077485991402295624,
                "z": 0.005598929693374583
            },
            "position": {
                "x": -0.8841497679147869,
                "y": 0.44412534475326537,
                "z": 0.3711530566215515
            }
        },
        "name": "move_to_auspresseinheit_D"
    },
    "id": "BiTRRT_move_to_auspresseinheit_D_64",
    "joint_names": [
        "shoulder_pan_joint",
        "shoulder_lift_joint",
        "elbow_joint",
        "wrist_1_joint",
        "wrist_2_joint",
        "wrist_3_joint"
    ],
    "metrics": {
        "cart_traj_len": 0.34245113982090464,
        "distance_elbow_joint": 0.6258435301132352,
        "distance_shoulder_lift_joint": 0.11402431687027414,
        "distance_shoulder_pan_joint": 0.13386519008200196,
        "distance_wrist_1_joint": 0.500805947392593,
        "distance_wrist_2_joint": 1.4304234107952523,
        "distance_wrist_3_joint": 0.02191255230785849,
        "smoothness": 0.0,
        "time": 0.030668758,
        "traj_len": 1.681331302141614,
        "weighted_distance": 2.1913305114392894
    },
    "planner": "BiTRRT",
    "start": {
        "state": {
            "elbow_joint": -1.8275523626775212,
            "shoulder_lift_joint": -2.126789852344167,
            "shoulder_pan_joint": -0.03513704404078235,
            "wrist_1_joint": -2.347782403156801,
            "wrist_2_joint": -1.6058999987535132,
            "wrist_3_joint": -3.0880379163319196
        }
    },
    "waypoints": [
        {
            "positions": [
                -0.03513704404078235,
                -2.126789852344167,
                -1.8275523626775212,
                -2.347782403156801,
                -1.6058999987535132,
                -3.0880379163319196
            ]
        },
        {
            "positions": [
                -0.0518701928010326,
                -2.141042891952951,
                -1.7493219214133668,
                -2.410383146580875,
                -1.4270970724041065,
                -3.090776985370402
            ]
        },
        {
            "positions": [
                -0.06860334156128284,
                -2.1552959315617355,
                -1.6710914801492125,
                -2.472983890004949,
                -1.2482941460547001,
                -3.093516054408884
            ]
        },
        {
            "positions": [
                -0.08533649032153309,
                -2.16954897117052,
                -1.592861038885058,
                -2.535584633429023,
                -1.0694912197052937,
                -3.0962551234473663
            ]
        },
        {
            "positions": [
                -0.10206963908178332,
                -2.1838020107793037,
                -1.5146305976209036,
                -2.598185376853097,
                -0.8906882933558871,
                -3.098994192485849
            ]
        },
        {
            "positions": [
                -0.11880278784203357,
                -2.198055050388088,
                -1.4364001563567492,
                -2.6607861202771717,
                -0.7118853670064805,
                -3.1017332615243314
            ]
        },
        {
            "positions": [
                -0.13553593660228383,
                -2.2123080899968723,
                -1.3581697150925947,
                -2.7233868637012457,
                -0.533082440657074,
                -3.1044723305628135
            ]
        },
        {
            "positions": [
                -0.15226908536253406,
                -2.2265611296056567,
                -1.2799392738284403,
                -2.78598760712532,
                -0.3542795143076676,
                -3.1072113996012956
            ]
        },
        {
            "positions": [
                -0.1690022341227843,
                -2.240814169214441,
                -1.201708832564286,
                -2.848588350549394,
                -0.17547658795826093,
                -3.109950468639778
            ]
        }
    ]
}