{
    "goal": {
        "global_pose": {
            "orientation": {
                "w": 0.005598929693374612,
                "x": 0.007748599140229565,
                "y": 0.7110244013736278,
                "z": -0.7031023480610252
            },
            "position": {
                "x": 0.1141497679147869,
                "y": -0.7141253447532654,
                "z": 0.3711530566215515
            }
        },
        "name": "move_to_auspresseinheit_B"
    },
    "id": "BiTRRT_move_to_auspresseinheit_B_66",
    "joint_names": [
        "shoulder_pan_joint",
        "shoulder_lift_joint",
        "elbow_joint",
        "wrist_1_joint",
        "wrist_2_joint",
        "wrist_3_joint"
    ],
    "metrics": {
        "cart_traj_len": 0.5650418804923123,
        "distance_elbow_joint": 0.06420975005185703,
        "distance_shoulder_lift_joint": 0.2953133135731285,
        "distance_shoulder_pan_joint": 0.5790233194631604,
        "distance_wrist_1_joint": 0.3337602478051528,
        "distance_wrist_2_joint": 0.9844045925401728,
        "distance_wrist_3_joint": 0.007002253917567369,
        "smoothness": 1.0150610551046396e-15,
        "time": 0.047577595,
        "traj_len": 1.5045642150971952,
        "weighted_distance": 1.896281314977158
    },
    "planner": "BiTRRT",
    "start": {
        "state": {
            "elbow_joint": 2.0193083361928714,
            "shoulder_lift_joint": -1.1220246554650708,
            "shoulder_pan_joint": -1.0952077554168747,
            "wrist_1_joint": -0.8559753972642168,
            "wrist_2_joint": 0.4759566250798843,
            "wrist_3_joint": -3.1240929996934557
        }
    },
    "waypoints": [
        {
            "positions": [
                -1.0952077554168747,
                -1.1220246554650708,
                2.0193083361928714,
                -0.8559753972642168,
                0.4759566250798843,
                -3.1240929996934557
            ]
        },
        {
            "positions": [
                -1.191711641994068,
                -1.1712435410605921,
                2.0086067111842287,
                -0.8003486892966913,
                0.6400240571699131,
                -3.122925957373861
            ]
        },
        {
            "positions": [
                -1.2882155285712615,
                -1.2204624266561137,
                1.9979050861755858,
                -0.7447219813291659,
                0.8040914892599418,
                -3.1217589150542664
            ]
        },
        {
            "positions": [
                -1.3847194151484548,
                -1.269681312251635,
                1.987203461166943,
                -0.6890952733616404,
                0.9681589213499706,
                -3.120591872734672
            ]
        },
        {
            "positions": [
                -1.4812233017256482,
                -1.3189001978471564,
                1.9765018361583,
                -0.633468565394115,
                1.1322263534399994,
                -3.1194248304150776
            ]
        },
        {
            "positions": [
                -1.5777271883028416,
                -1.368119083442678,
                1.9658002111496573,
                -0.5778418574265894,
                1.2962937855300283,
                -3.118257788095483
            ]
        },
        {
            "positions": [
                -1.674231074880035,
                -1.4173379690381993,
                1.9550985861410144,
                -0.522215149459064,
                1.460361217620057,
                -3.1170907457758883
            ]
        }
    ]
}