{
    "goal": {
        "global_pose": {
            "orientation": {
                "w": 0.5084816217422485,
                "x": -0.49083608388900757,
                "y": 0.5182115435600281,
                "z": -0.4816462993621826
            },
            "position": {
                "x": 0.5540239810943604,
                "y": 0.030875300988554955,
                "z": 0.16403168439865112
            }
        },
        "name": "move_to_storage_A"
    },
    "id": "BiTRRT_move_to_storage_A_129",
    "joint_names": [
        "shoulder_pan_joint",
        "shoulder_lift_joint",
        "elbow_joint",
        "wrist_1_joint",
        "wrist_2_joint",
        "wrist_3_joint"
    ],
    "metrics": {
        "cart_traj_len": 0.35306910497007626,
        "distance_elbow_joint": 0.4498837462988774,
        "distance_shoulder_lift_joint": 0.23519946221132604,
        "distance_shoulder_pan_joint": 0.46374908205984644,
        "distance_wrist_1_joint": 0.2418429687611291,
        "distance_wrist_2_joint": 1.0902099289879226,
        "distance_wrist_3_joint": 0.10393134773173873,
        "smoothness": 4.440892098500626e-16,
        "time": 0.044606395,
        "traj_len": 1.607736463494823,
        "weighted_distance": 2.0309436548716384
    },
    "planner": "BiTRRT",
    "start": {
        "state": {
            "elbow_joint": 1.971548259319323,
            "shoulder_lift_joint": -1.1394851275133948,
            "shoulder_pan_joint": 0.1228115487234821,
            "wrist_1_joint": -0.7804723859257726,
            "wrist_2_joint": 0.12958671773740124,
            "wrist_3_joint": -3.192489227718131
        }
    },
    "waypoints": [
        {
            "positions": [
                0.1228115487234821,
                -1.1394851275133948,
                1.971548259319323,
                -0.7804723859257726,
                0.12958671773740124,
                -3.192489227718131
            ]
        },
        {
            "positions": [
                0.05656167985778976,
                -1.1730850506864414,
                2.035817365933448,
                -0.8150213814630768,
                0.28533099330710443,
                -3.1776418923278826
            ]
        },
        {
            "positions": [
                -0.009688189007902581,
                -1.206684973859488,
                2.1000864725475736,
                -0.849570377000381,
                0.4410752688768077,
                -3.1627945569376346
            ]
        },
        {
            "positions": [
                -0.07593805787359492,
                -1.2402848970325346,
                2.164355579161699,
                -0.884119372537685,
                0.5968195444465109,
                -3.147947221547386
            ]
        },
        {
            "positions": [
                -0.14218792673928726,
                -1.273884820205581,
                2.2286246857758245,
                -0.9186683680749892,
                0.7525638200162141,
                -3.1330998861571375
            ]
        },
        {
            "positions": [
                -0.20843779560497966,
                -1.3074847433786276,
                2.2928937923899495,
                -0.9532173636122934,
                0.9083080955859174,
                -3.118252550766889
            ]
        },
        {
            "positions": [
                -0.27468766447067194,
                -1.3410846665516742,
                2.357162899004075,
                -0.9877663591495975,
                1.0640523711556205,
                -3.103405215376641
            ]
        },
        {
            "positions": [
                -0.34093753333636434,
                -1.3746845897247209,
                2.4214320056182004,
                -1.0223153546869017,
                1.2197966467253238,
                -3.0885578799863924
            ]
        }
    ]
}{
    "goal": {
        "global_pose": {
            "orientation": {
                "w": 0.5084816217422485,
                "x": -0.49083608388900757,
                "y": 0.5182115435600281,
                "z": -0.4816462993621826
            },
            "position": {
                "x": 0.5540239810943604,
                "y": 0.030875300988554955,
                "z": 0.16403168439865112
            }
        },
        "name": "move_to_storage_A"
    },
    "id": "BiTRRT_move_to_storage_A_129",
    "joint_names": [
        "shoulder_pan_joint",
        "shoulder_lift_joint",
        "elbow_joint",
        "wrist_1_joint",
        "wrist_2_joint",
        "wrist_3_joint"
    ],
    "metrics": {
        "cart_traj_len": 0.3532743328670336,
        "distance_elbow_joint": 0.4499689805846372,
        "distance_shoulder_lift_joint": 0.23553439443124158,
        "distance_shoulder_pan_joint": 0.4639070197618968,
        "distance_wrist_1_joint": 0.23889400371552316,
        "distance_wrist_2_joint": 1.0915363791254074,
        "distance_wrist_3_joint": 0.08856290292143854,
        "smoothness": 0.0,
        "time": 0.042028060000000006,
        "traj_len": 1.6026239984912696,
        "weighted_distance": 2.018900658582277
    },
    "planner": "BiTRRT",
    "start": {
        "state": {
            "elbow_joint": 1.97154746011099,
            "shoulder_lift_joint": -1.13948474672311,
            "shoulder_pan_joint": 0.12281154466712228,
            "wrist_1_joint": -0.7804688027058302,
            "wrist_2_joint": 0.12958655903071145,
            "wrist_3_joint": 3.0906928834467795
        }
    },
    "waypoints": [
        {
            "positions": [
                0.12281154466712228,
                -1.13948474672311,
                1.97154746011099,
                -0.7804688027058302,
                0.12958655903071145,
                3.0906928834467795
            ]
        },
        {
            "positions": [
                0.0565391132725656,
                -1.1731325173561444,
                2.035828743051652,
                -0.8145965175223335,
                0.28552032747719824,
                3.1033447267212706
            ]
        },
        {
            "positions": [
                -0.009733318121991089,
                -1.206780287989179,
                2.100110025992315,
                -0.8487242323388368,
                0.441454095923685,
                3.115996569995762
            ]
        },
        {
            "positions": [
                -0.07600574951654777,
                -1.2404280586222134,
                2.164391308932977,
                -0.8828519471553401,
                0.5973878643701718,
                3.1286484132702532
            ]
        },
        {
            "positions": [
                -0.14227818091110445,
                -1.2740758292552479,
                2.22867259187364,
                -0.9169796619718434,
                0.7533216328166585,
                3.1413002565447443
            ]
        },
        {
            "positions": [
                -0.20855061230566113,
                -1.3077235998882826,
                2.292953874814302,
                -0.9511073767883467,
                0.9092554012631453,
                3.1539520998192354
            ]
        },
        {
            "positions": [
                -0.2748230437002178,
                -1.341371370521317,
                2.357235157754965,
                -0.98523509160485,
                1.065189169709632,
                3.166603943093727
            ]
        },
        {
            "positions": [
                -0.3410954750947745,
                -1.3750191411543515,
                2.421516440695627,
                -1.0193628064213534,
                1.2211229381561188,
                3.179255786368218
            ]
        }
    ]
}{
    "goal": {
        "global_pose": {
            "orientation": {
                "w": 0.5084816217422485,
                "x": -0.49083608388900757,
                "y": 0.5182115435600281,
                "z": -0.4816462993621826
            },
            "position": {
                "x": 0.5540239810943604,
                "y": 0.030875300988554955,
                "z": 0.16403168439865112
            }
        },
        "name": "move_to_storage_A"
    },
    "id": "BiTRRT_move_to_storage_A_129",
    "joint_names": [
        "shoulder_pan_joint",
        "shoulder_lift_joint",
        "elbow_joint",
        "wrist_1_joint",
        "wrist_2_joint",
        "wrist_3_joint"
    ],
    "metrics": {
        "cart_traj_len": 0.3532460327465315,
        "distance_elbow_joint": 0.44797231737075194,
        "distance_shoulder_lift_joint": 0.23398492895403278,
        "distance_shoulder_pan_joint": 0.4630756974628892,
        "distance_wrist_1_joint": 0.23893616044634602,
        "distance_wrist_2_joint": 1.0933206061861247,
        "distance_wrist_3_joint": 0.09451918429596562,
        "smoothness": 4.440892098500626e-16,
        "time": 0.042389074,
        "traj_len": 1.603686033709875,
        "weighted_distance": 2.0231421180778457
    },
    "planner": "BiTRRT",
    "start": {
        "state": {
            "elbow_joint": 1.9715472970024885,
            "shoulder_lift_joint": -1.1394870060712896,
            "shoulder_pan_joint": 0.12281152778156021,
            "wrist_1_joint": -0.780463741449964,
            "wrist_2_joint": 0.12958659822042276,
            "wrist_3_joint": 3.090690232415272
        }
    },
    "waypoints": [
        {
            "positions": [
                0.12281152778156021,
                -1.1394870060712896,
                1.9715472970024885,
                -0.780463741449964,
                0.12958659822042276,
                3.090690232415272
            ]
        },
        {
            "positions": [
                0.05665785671543319,
                -1.1729134244932944,
                2.0355433423411675,
                -0.8145974786565848,
                0.285775256247012,
                3.1041929730289812
            ]
        },
        {
            "positions": [
                -0.009495814350693826,
                -1.206339842915299,
                2.099539387679846,
                -0.8487312158632057,
                0.44196391427360127,
                3.1176957136426906
            ]
        },
        {
            "positions": [
                -0.07564948541682084,
                -1.2397662613373037,
                2.163535433018525,
                -0.8828649530698266,
                0.5981525723001905,
                3.1311984542564
            ]
        },
        {
            "positions": [
                -0.14180315648294786,
                -1.2731926797593083,
                2.227531478357204,
                -0.9169986902764474,
                0.7543412303267797,
                3.1447011948701094
            ]
        },
        {
            "positions": [
                -0.20795682754907488,
                -1.306619098181313,
                2.291527523695883,
                -0.9511324274830684,
                0.910529888353369,
                3.1582039354838187
            ]
        },
        {
            "positions": [
                -0.27411049861520187,
                -1.3400455166033176,
                2.3555235690345615,
                -0.9852661646896892,
                1.0667185463799582,
                3.171706676097528
            ]
        },
        {
            "positions": [
                -0.34026416968132894,
                -1.3734719350253224,
                2.4195196143732405,
                -1.01939990189631,
                1.2229072044065474,
                3.1852094167112375
            ]
        }
    ]
}