{
    "goal": {
        "global_pose": {
            "orientation": {
                "w": 0.7047431493862688,
                "x": -0.7094548369677653,
                "y": 0.0024358444001904,
                "z": -0.0022348060817251984
            },
            "position": {
                "x": -0.39052492380142206,
                "y": 0.3671506643295288,
                "z": 0.19426114857196808
            }
        },
        "name": "move_to_magneteinheit_D"
    },
    "id": "BiTRRT_move_to_magneteinheit_D_26",
    "joint_names": [
        "shoulder_pan_joint",
        "shoulder_lift_joint",
        "elbow_joint",
        "wrist_1_joint",
        "wrist_2_joint",
        "wrist_3_joint"
    ],
    "metrics": {
        "cart_traj_len": 4.826179334520187,
        "distance_elbow_joint": 3.104894794846908,
        "distance_shoulder_lift_joint": 1.123133234818645,
        "distance_shoulder_pan_joint": 3.158129021746583,
        "distance_wrist_1_joint": 2.1622106912318655,
        "distance_wrist_2_joint": 0.8025155909618841,
        "distance_wrist_3_joint": 6.319719220822172,
        "smoothness": 0.35451955957810466,
        "time": 0.146431329,
        "traj_len": 4.082964922017829,
        "weighted_distance": 5.681088564550472
    },
    "planner": "BiTRRT",
    "start": {
        "state": {
            "elbow_joint": 0.749534889911806,
            "shoulder_lift_joint": -0.6476975780787326,
            "shoulder_pan_joint": -2.711696901376241,
            "wrist_1_joint": -0.07506478083263063,
            "wrist_2_joint": 0.43296659715538205,
            "wrist_3_joint": -3.14703540197715
        }
    },
    "waypoints": [
        {
            "positions": [
                -2.711696901376241,
                -0.6476975780787326,
                0.749534889911806,
                -0.07506478083263063,
                0.43296659715538205,
                -3.14703540197715
            ]
        },
        {
            "positions": [
                -2.859467275090126,
                -0.6947891167992514,
                0.6524707009548547,
                -0.090887489141246,
                0.4003516025975916,
                -3.1181585160241965
            ]
        },
        {
            "positions": [
                -2.7715852271324626,
                -0.7627405863170499,
                0.6180594505161413,
                -0.20422321825505332,
                0.43117426446901247,
                -3.100339839857778
            ]
        },
        {
            "positions": [
                -2.6837031791747994,
                -0.8306920558348483,
                0.5836482000774279,
                -0.31755894736886064,
                0.4619969263404334,
                -3.0825211636913594
            ]
        },
        {
            "positions": [
                -2.5958211312171358,
                -0.8986435253526468,
                0.5492369496387145,
                -0.430894676482668,
                0.49281958821185423,
                -3.064702487524941
            ]
        },
        {
            "positions": [
                -2.4837359563995594,
                -0.9306419584734912,
                0.4974205466178321,
                -0.46626444333800254,
                0.4758187758436699,
                -2.9221597307480742
            ]
        },
        {
            "positions": [
                -2.3716507815819834,
                -0.9626403915943357,
                0.44560414359694966,
                -0.5016342101933371,
                0.4588179634754855,
                -2.779616973971208
            ]
        },
        {
            "positions": [
                -2.259565606764407,
                -0.9946388247151801,
                0.3937877405760672,
                -0.5370039770486716,
                0.44181715110730113,
                -2.6370742171943413
            ]
        },
        {
            "positions": [
                -2.147480431946831,
                -1.0266372578360246,
                0.3419713375551848,
                -0.5723737439040062,
                0.42481633873911673,
                -2.4945314604174746
            ]
        },
        {
            "positions": [
                -2.0353952571292546,
                -1.058635690956869,
                0.29015493453430236,
                -0.6077435107593407,
                0.4078155263709324,
                -2.3519887036406084
            ]
        },
        {
            "positions": [
                -1.9233100823116782,
                -1.0906341240777133,
                0.23833853151341988,
                -0.6431132776146753,
                0.390814714002748,
                -2.2094459468637417
            ]
        },
        {
            "positions": [
                -1.8112249074941023,
                -1.1226325571985578,
                0.18652212849253746,
                -0.6784830444700098,
                0.37381390163456363,
                -2.066903190086875
            ]
        },
        {
            "positions": [
                -1.6991397326765258,
                -1.1546309903194023,
                0.13470572547165505,
                -0.7138528113253444,
                0.3568130892663792,
                -1.9243604333100086
            ]
        },
        {
            "positions": [
                -1.5870545578589497,
                -1.1866294234402468,
                0.08288932245077263,
                -0.749222578180679,
                0.3398122768981949,
                -1.7818176765331422
            ]
        },
        {
            "positions": [
                -1.4749693830413735,
                -1.218627856561091,
                0.03107291942989021,
                -0.7845923450360136,
                0.32281146453001053,
                -1.6392749197562757
            ]
        },
        {
            "positions": [
                -1.362884208223797,
                -1.2506262896819356,
                -0.020743483590992318,
                -0.8199621118913483,
                0.3058106521618261,
                -1.496732162979409
            ]
        },
        {
            "positions": [
                -1.250799033406221,
                -1.28262472280278,
                -0.07255988661187474,
                -0.8553318787466827,
                0.2888098397936417,
                -1.3541894062025426
            ]
        },
        {
            "positions": [
                -1.1387138585886445,
                -1.3146231559236246,
                -0.12437628963275715,
                -0.8907016456020174,
                0.2718090274254573,
                -1.211646649425676
            ]
        },
        {
            "positions": [
                -1.0266286837710685,
                -1.3466215890444688,
                -0.17619269265363957,
                -0.9260714124573518,
                0.254808215057273,
                -1.0691038926488095
            ]
        },
        {
            "positions": [
                -0.9145435089534921,
                -1.3786200221653133,
                -0.228009095674522,
                -0.9614411793126865,
                0.23780740268908862,
                -0.926561135871943
            ]
        },
        {
            "positions": [
                -0.8024583341359159,
                -1.4106184552861576,
                -0.2798254986954044,
                -0.9968109461680209,
                0.22080659032090427,
                -0.7840183790950763
            ]
        },
        {
            "positions": [
                -0.6903731593183395,
                -1.4426168884070023,
                -0.33164190171628694,
                -1.0321807130233556,
                0.20380577795271987,
                -0.6414756223182096
            ]
        },
        {
            "positions": [
                -0.5782879845007636,
                -1.4746153215278466,
                -0.38345830473716924,
                -1.0675504798786901,
                0.18680496558453552,
                -0.4989328655413434
            ]
        },
        {
            "positions": [
                -0.4662028096831874,
                -1.506613754648691,
                -0.4352747077580518,
                -1.1029202467340247,
                0.16980415321635114,
                -0.35639010876447674
            ]
        },
        {
            "positions": [
                -0.44131579969362067,
                -1.5207064528107161,
                -0.5248545925243093,
                -1.1653558208132582,
                0.15023764979667803,
                -0.175904838711852
            ]
        },
        {
            "positions": [
                -0.416428789704054,
                -1.534799150972741,
                -0.6144344772905669,
                -1.227791394892492,
                0.13067114637700494,
                0.004580431340772739
            ]
        },
        {
            "positions": [
                -0.3915417797144873,
                -1.548891849134766,
                -0.7040143620568244,
                -1.2902269689717254,
                0.11110464295733183,
                0.1850657013933974
            ]
        },
        {
            "positions": [
                -0.3666547697249206,
                -1.5629845472967911,
                -0.7935942468230819,
                -1.352662543050959,
                0.09153813953765873,
                0.3655509714460222
            ]
        },
        {
            "positions": [
                -0.3417677597353539,
                -1.577077245458816,
                -0.8831741315893394,
                -1.4150981171301926,
                0.07197163611798561,
                0.5460362414986469
            ]
        },
        {
            "positions": [
                -0.31688074974578717,
                -1.591169943620841,
                -0.972754016355597,
                -1.4775336912094261,
                0.05240513269831251,
                0.7265215115512715
            ]
        },
        {
            "positions": [
                -0.29199373975622045,
                -1.6052626417828662,
                -1.0623339011218544,
                -1.5399692652886598,
                0.0328386292786394,
                0.9070067816038965
            ]
        },
        {
            "positions": [
                -0.26710672976665384,
                -1.619355339944891,
                -1.1519137858881119,
                -1.6024048393678934,
                0.01327212585896631,
                1.0874920516565212
            ]
        },
        {
            "positions": [
                -0.2422197197770871,
                -1.633448038106916,
                -1.2414936706543696,
                -1.664840413447127,
                -0.006294377560706804,
                1.267977321709146
            ]
        },
        {
            "positions": [
                -0.21733270978752037,
                -1.6475407362689412,
                -1.331073555420627,
                -1.7272759875263606,
                -0.02586088098037992,
                1.4484625917617706
            ]
        },
        {
            "positions": [
                -0.19244569979795367,
                -1.661633434430966,
                -1.4206534401868847,
                -1.789711561605594,
                -0.045427384400053034,
                1.6289478618143955
            ]
        },
        {
            "positions": [
                -0.167558689808387,
                -1.675726132592991,
                -1.510233324953142,
                -1.8521471356848278,
                -0.06499388781972612,
                1.8094331318670198
            ]
        },
        {
            "positions": [
                -0.14267167981882029,
                -1.6898188307550162,
                -1.5998132097193996,
                -1.9145827097640613,
                -0.08456039123939921,
                1.989918401919645
            ]
        },
        {
            "positions": [
                -0.11778466982925356,
                -1.703911528917041,
                -1.6893930944856572,
                -1.9770182838432948,
                -0.10412689465907235,
                2.1704036719722697
            ]
        },
        {
            "positions": [
                -0.0928976598396869,
                -1.718004227079066,
                -1.7789729792519147,
                -2.0394538579225285,
                -0.12369339807874544,
                2.3508889420248944
            ]
        },
        {
            "positions": [
                -0.06801064985012023,
                -1.7320969252410912,
                -1.868552864018172,
                -2.1018894320017623,
                -0.14325990149841852,
                2.531374212077519
            ]
        },
        {
            "positions": [
                -0.04312363986055351,
                -1.746189623403116,
                -1.9581327487844296,
                -2.1643250060809955,
                -0.16282640491809167,
                2.711859482130144
            ]
        },
        {
            "positions": [
                -0.018236629870986794,
                -1.760282321565141,
                -2.0477126335506872,
                -2.2267605801602293,
                -0.18239290833776473,
                2.8923447521827685
            ]
        },
        {
            "positions": [
                -0.10280063127776676,
                -1.7550080758990227,
                -2.2015362692428946,
                -2.2215031342080955,
                -0.18350296545787065,
                3.032514285513896
            ]
        },
        {
            "positions": [
                -0.18736463268454673,
                -1.7497338302329046,
                -2.3553599049351024,
                -2.2162456882559622,
                -0.18461302257797654,
                3.172683818845023
            ]
        }
    ]
}