{
    "goal": {
        "global_pose": {
            "orientation": {
                "w": 0.7047431493862688,
                "x": -0.7094548369677653,
                "y": 0.0024358444001904,
                "z": -0.0022348060817251984
            },
            "position": {
                "x": -0.39052492380142206,
                "y": 0.3671506643295288,
                "z": 0.19426114857196808
            }
        },
        "name": "move_to_magneteinheit_D"
    },
    "id": "BiTRRT_move_to_magneteinheit_D_148",
    "joint_names": [
        "shoulder_pan_joint",
        "shoulder_lift_joint",
        "elbow_joint",
        "wrist_1_joint",
        "wrist_2_joint",
        "wrist_3_joint"
    ],
    "metrics": {
        "cart_traj_len": 3.758494666499267,
        "distance_elbow_joint": 3.3186307309514254,
        "distance_shoulder_lift_joint": 1.6334900782465585,
        "distance_shoulder_pan_joint": 3.4661351317753604,
        "distance_wrist_1_joint": 2.1373925000144247,
        "distance_wrist_2_joint": 2.432198428018666,
        "distance_wrist_3_joint": 3.1656588400921364,
        "smoothness": 0.436114000562522,
        "time": 0.20224869,
        "traj_len": 4.01914240965639,
        "weighted_distance": 5.201385807389789
    },
    "planner": "BiTRRT",
    "start": {
        "state": {
            "elbow_joint": 0.749534889911806,
            "shoulder_lift_joint": -0.6476975780787326,
            "shoulder_pan_joint": -2.711696901376241,
            "wrist_1_joint": -0.07506478083263063,
            "wrist_2_joint": 0.43296659715538205,
            "wrist_3_joint": -3.14703540197715
        }
    },
    "waypoints": [
        {
            "positions": [
                -2.711696901376241,
                -0.6476975780787326,
                0.749534889911806,
                -0.07506478083263063,
                0.43296659715538205,
                -3.14703540197715
            ]
        },
        {
            "positions": [
                -2.740188827891024,
                -0.6767937695852646,
                0.7735920595605579,
                0.07688971455958526,
                0.5354685017897172,
                -3.148651417679588
            ]
        },
        {
            "positions": [
                -2.768680754405807,
                -0.7058899610917966,
                0.7976492292093097,
                0.22884420995180116,
                0.6379704064240523,
                -3.1502674333820258
            ]
        },
        {
            "positions": [
                -2.79717268092059,
                -0.7349861525983287,
                0.8217063988580615,
                0.38079870534401705,
                0.7404723110583875,
                -3.151883449084463
            ]
        },
        {
            "positions": [
                -2.825664607435373,
                -0.7640823441048606,
                0.8457635685068134,
                0.5327532007362329,
                0.8429742156927227,
                -3.153499464786901
            ]
        },
        {
            "positions": [
                -2.7328679457996925,
                -0.7798708266616784,
                0.7135970745523792,
                0.5576684006164501,
                0.8471415303578104,
                -3.0571590637258383
            ]
        },
        {
            "positions": [
                -2.640071284164012,
                -0.7956593092184961,
                0.5814305805979448,
                0.5825836004966672,
                0.8513088450228979,
                -2.960818662664776
            ]
        },
        {
            "positions": [
                -2.547274622528332,
                -0.8114477917753139,
                0.4492640866435106,
                0.6074988003768844,
                0.8554761596879856,
                -2.8644782616037134
            ]
        },
        {
            "positions": [
                -2.4544779608926515,
                -0.8272362743321316,
                0.3170975926890762,
                0.6324140002571016,
                0.8596434743530733,
                -2.7681378605426508
            ]
        },
        {
            "positions": [
                -2.361681299256971,
                -0.8430247568889494,
                0.18493109873464197,
                0.6573292001373188,
                0.863810789018161,
                -2.6717974594815885
            ]
        },
        {
            "positions": [
                -2.268884637621291,
                -0.8588132394457673,
                0.052764604780207724,
                0.682244400017536,
                0.8679781036832486,
                -2.575457058420526
            ]
        },
        {
            "positions": [
                -2.1760879759856104,
                -0.874601722002585,
                -0.07940188917422653,
                0.7071595998977531,
                0.8721454183483363,
                -2.479116657359463
            ]
        },
        {
            "positions": [
                -2.08329131434993,
                -0.8903902045594028,
                -0.211568383128661,
                0.7320747997779703,
                0.8763127330134239,
                -2.382776256298401
            ]
        },
        {
            "positions": [
                -1.9904946527142497,
                -0.9061786871162205,
                -0.34373487708309525,
                0.7569899996581875,
                0.8804800476785116,
                -2.2864358552373383
            ]
        },
        {
            "positions": [
                -1.8976979910785696,
                -0.9219671696730383,
                -0.4759013710375295,
                0.7819051995384046,
                0.8846473623435992,
                -2.190095454176276
            ]
        },
        {
            "positions": [
                -1.8049013294428893,
                -0.937755652229856,
                -0.6080678649919637,
                0.8068203994186218,
                0.8888146770086869,
                -2.0937550531152134
            ]
        },
        {
            "positions": [
                -1.7108279205058914,
                -0.960284986722478,
                -0.6847027137562876,
                0.8532538082522468,
                0.8246734077623316,
                -2.0154304631499524
            ]
        },
        {
            "positions": [
                -1.6167545115688933,
                -0.9828143212150999,
                -0.7613375625206115,
                0.8996872170858717,
                0.7605321385159762,
                -1.9371058731846913
            ]
        },
        {
            "positions": [
                -1.5226811026318954,
                -1.005343655707722,
                -0.8379724112849353,
                0.9461206259194967,
                0.696390869269621,
                -1.8587812832194301
            ]
        },
        {
            "positions": [
                -1.4286076936948975,
                -1.0278729902003438,
                -0.9146072600492592,
                0.9925540347531217,
                0.6322496000232657,
                -1.7804566932541692
            ]
        },
        {
            "positions": [
                -1.3345342847578994,
                -1.050402324692966,
                -0.991242108813583,
                1.0389874435867468,
                0.5681083307769104,
                -1.7021321032889083
            ]
        },
        {
            "positions": [
                -1.2404608758209015,
                -1.072931659185588,
                -1.0678769575779068,
                1.0854208524203717,
                0.5039670615305551,
                -1.6238075133236471
            ]
        },
        {
            "positions": [
                -1.1463874668839034,
                -1.0954609936782098,
                -1.1445118063422306,
                1.1318542612539966,
                0.4398257922841998,
                -1.545482923358386
            ]
        },
        {
            "positions": [
                -1.0523140579469055,
                -1.1179903281708319,
                -1.2211466551065544,
                1.1782876700876215,
                0.3756845230378445,
                -1.467158333393125
            ]
        },
        {
            "positions": [
                -0.9582406490099076,
                -1.1405196626634537,
                -1.2977815038708784,
                1.2247210789212466,
                0.31154325379148917,
                -1.3888337434278641
            ]
        },
        {
            "positions": [
                -0.8641672400729096,
                -1.1630489971560758,
                -1.374416352635202,
                1.2711544877548715,
                0.24740198454513396,
                -1.310509153462603
            ]
        },
        {
            "positions": [
                -0.7700938311359116,
                -1.1855783316486979,
                -1.451051201399526,
                1.3175878965884966,
                0.18326071529877852,
                -1.2321845634973418
            ]
        },
        {
            "positions": [
                -0.6760204221989137,
                -1.2081076661413197,
                -1.5276860501638498,
                1.3640213054221215,
                0.1191194460524233,
                -1.153859973532081
            ]
        },
        {
            "positions": [
                -0.5819470132619156,
                -1.2306370006339418,
                -1.6043208989281736,
                1.4104547142557466,
                0.05497817680606798,
                -1.0755353835668198
            ]
        },
        {
            "positions": [
                -0.48787360432491766,
                -1.2531663351265636,
                -1.6809557476924974,
                1.4568881230893713,
                -0.009163092440287235,
                -0.9972107936015588
            ]
        },
        {
            "positions": [
                -0.39380019538791955,
                -1.2756956696191857,
                -1.7575905964568215,
                1.5033215319229964,
                -0.07330436168664267,
                -0.9188862036362977
            ]
        },
        {
            "positions": [
                -0.29972678645092166,
                -1.2982250041118077,
                -1.8342254452211453,
                1.5497549407566213,
                -0.1374456309329979,
                -0.8405616136710368
            ]
        },
        {
            "positions": [
                -0.20565337751392354,
                -1.3207543386044298,
                -1.910860293985469,
                1.5961883495902462,
                -0.20158690017935332,
                -0.7622370237057756
            ]
        },
        {
            "positions": [
                -0.11157996857692587,
                -1.3432836730970517,
                -1.9874951427497929,
                1.6426217584238714,
                -0.26572816942570854,
                -0.6839124337405147
            ]
        },
        {
            "positions": [
                -0.017506559639927755,
                -1.3658130075896737,
                -2.064129991514117,
                1.6890551672574965,
                -0.32986943867206375,
                -0.6055878437752535
            ]
        },
        {
            "positions": [
                0.07656684929707014,
                -1.3883423420822956,
                -2.1407648402784405,
                1.7354885760911212,
                -0.39401070791841897,
                -0.5272632538099926
            ]
        },
        {
            "positions": [
                0.17064025823406836,
                -1.4108716765749176,
                -2.2173996890427645,
                1.7819219849247463,
                -0.45815197716477435,
                -0.4489386638447314
            ]
        },
        {
            "positions": [
                0.11980274965595568,
                -1.535202530824971,
                -2.2401480883008844,
                1.7418640228880253,
                -0.3682400208802173,
                -0.3839909529389862
            ]
        },
        {
            "positions": [
                0.06896524107784299,
                -1.6595333850750242,
                -2.2628964875590043,
                1.7018060608513041,
                -0.27832806459566023,
                -0.31904324203324097
            ]
        },
        {
            "positions": [
                0.018127732499730292,
                -1.7838642393250776,
                -2.285644886817124,
                1.6617480988145832,
                -0.18841610831110317,
                -0.25409553112749583
            ]
        },
        {
            "positions": [
                -0.03270977607838238,
                -1.908195093575131,
                -2.3083932860752436,
                1.621690136777862,
                -0.09850415202654611,
                -0.18914782022175058
            ]
        },
        {
            "positions": [
                -0.08354728465649508,
                -2.0325259478251843,
                -2.3311416853333635,
                1.581632174741141,
                -0.00859219574198905,
                -0.12420010931600534
            ]
        },
        {
            "positions": [
                -0.13438479323460778,
                -2.1568568020752377,
                -2.3538900845914834,
                1.54157421270442,
                0.08131976054256801,
                -0.0592523984102602
            ]
        },
        {
            "positions": [
                -0.1852223018127205,
                -2.281187656325291,
                -2.3766384838496033,
                1.501516250667699,
                0.17123171682712504,
                0.00569531249548507
            ]
        }
    ]
}