{
    "goal": {
        "global_pose": {
            "orientation": {
                "w": -0.00223480608172531,
                "x": 0.0024358444001904467,
                "y": 0.7094548369677653,
                "z": -0.704743149386269
            },
            "position": {
                "x": 0.6205249238014221,
                "y": -0.6371506643295288,
                "z": 0.19426114857196808
            }
        },
        "name": "move_to_magneteinheit_B"
    },
    "id": "BiTRRT_move_to_magneteinheit_B_110",
    "joint_names": [
        "shoulder_pan_joint",
        "shoulder_lift_joint",
        "elbow_joint",
        "wrist_1_joint",
        "wrist_2_joint",
        "wrist_3_joint"
    ],
    "metrics": {
        "cart_traj_len": 2.465825784255618,
        "distance_elbow_joint": 3.655724534796521,
        "distance_shoulder_lift_joint": 1.2757644925856364,
        "distance_shoulder_pan_joint": 1.695121832411719,
        "distance_wrist_1_joint": 2.5199052876490997,
        "distance_wrist_2_joint": 4.499655554807081,
        "distance_wrist_3_joint": 1.1674788975319588,
        "smoothness": 0.5214211378537563,
        "time": 0.130337847,
        "traj_len": 3.848850555657106,
        "weighted_distance": 4.9161132246218795
    },
    "planner": "BiTRRT",
    "start": {
        "state": {
            "elbow_joint": 2.6216224122426386,
            "shoulder_lift_joint": -1.4174107377796124,
            "shoulder_pan_joint": 0.7066234856936794,
            "wrist_1_joint": 1.9546482284002225,
            "wrist_2_joint": -0.7096286983471962,
            "wrist_3_joint": 0.005740856962016249
        }
    },
    "waypoints": [
        {
            "positions": [
                0.7066234856936794,
                -1.4174107377796124,
                2.6216224122426386,
                1.9546482284002225,
                -0.7096286983471962,
                0.005740856962016249
            ]
        },
        {
            "positions": [
                0.6496326698223472,
                -1.421809682682122,
                2.6195936846495824,
                1.8687669470252635,
                -0.6505866182389083,
                -0.08527138292524103
            ]
        },
        {
            "positions": [
                0.592641853951015,
                -1.4262086275846317,
                2.617564957056526,
                1.7828856656503047,
                -0.5915445381306204,
                -0.1762836228124983
            ]
        },
        {
            "positions": [
                0.5356510380796828,
                -1.4306075724871414,
                2.615536229463469,
                1.697004384275346,
                -0.5325024580223323,
                -0.2672958626997556
            ]
        },
        {
            "positions": [
                0.4786602222083507,
                -1.4350065173896511,
                2.613507501870413,
                1.611123102900387,
                -0.47346037791404444,
                -0.35830810258701284
            ]
        },
        {
            "positions": [
                0.4741146324375921,
                -1.469566069352508,
                2.5389301447283454,
                1.5715130064947869,
                -0.3285955539666971,
                -0.3084007322961282
            ]
        },
        {
            "positions": [
                0.46956904266683347,
                -1.504125621315365,
                2.4643527875862783,
                1.5319029100891866,
                -0.18373073001934975,
                -0.25849336200524353
            ]
        },
        {
            "positions": [
                0.4650234528960749,
                -1.538685173278222,
                2.3897754304442107,
                1.4922928136835865,
                -0.03886590607200241,
                -0.20858599171435885
            ]
        },
        {
            "positions": [
                0.46047786312531624,
                -1.5732447252410788,
                2.315198073302143,
                1.4526827172779861,
                0.10599891787534493,
                -0.15867862142347416
            ]
        },
        {
            "positions": [
                0.45593227335455766,
                -1.6078042772039358,
                2.2406207161600755,
                1.413072620872386,
                0.2508637418226923,
                -0.10877125113258948
            ]
        },
        {
            "positions": [
                0.451386683583799,
                -1.6423638291667928,
                2.1660433590180084,
                1.373462524466786,
                0.3957285657700396,
                -0.05886388084170485
            ]
        },
        {
            "positions": [
                0.44684109381304044,
                -1.6769233811296498,
                2.091466001875941,
                1.3338524280611856,
                0.540593389717387,
                -0.008956510550820113
            ]
        },
        {
            "positions": [
                0.4523819583111844,
                -1.6464802463760115,
                1.9415489527567937,
                1.3039527324701627,
                0.6009884056354161,
                0.03807277853742542
            ]
        },
        {
            "positions": [
                0.45792282280932833,
                -1.616037111622373,
                1.7916319036376467,
                1.2740530368791396,
                0.6613834215534452,
                0.08510206762567095
            ]
        },
        {
            "positions": [
                0.4634636873074723,
                -1.5855939768687348,
                1.6417148545184999,
                1.2441533412881167,
                0.7217784374714743,
                0.1321313567139165
            ]
        },
        {
            "positions": [
                0.46900455180561623,
                -1.5551508421150966,
                1.4917978053993528,
                1.2142536456970938,
                0.7821734533895034,
                0.179160645802162
            ]
        },
        {
            "positions": [
                0.47202851692307046,
                -1.4830358755567628,
                1.335392835311133,
                1.1558051545477261,
                0.7566970428957605,
                0.18862743016236255
            ]
        },
        {
            "positions": [
                0.4750524820405247,
                -1.410920908998429,
                1.1789878652229135,
                1.0973566633983587,
                0.7312206324020175,
                0.19809421452256312
            ]
        },
        {
            "positions": [
                0.4780764471579789,
                -1.338805942440095,
                1.0225828951346938,
                1.038908172248991,
                0.7057442219082747,
                0.20756099888276366
            ]
        },
        {
            "positions": [
                0.48110041227543315,
                -1.2666909758817613,
                0.8661779250464742,
                0.9804596810996234,
                0.6802678114145317,
                0.21702778324296423
            ]
        },
        {
            "positions": [
                0.4841243773928874,
                -1.1945760093234274,
                0.7097729549582545,
                0.9220111899502559,
                0.6547914009207888,
                0.22649456760316478
            ]
        },
        {
            "positions": [
                0.45737555525518414,
                -1.1194638006068751,
                0.6111006483285424,
                0.8885906611363106,
                0.56560620625245,
                0.210091594902309
            ]
        },
        {
            "positions": [
                0.4306267331174809,
                -1.0443515918903228,
                0.5124283416988303,
                0.8551701323223652,
                0.47642101158411104,
                0.1936886222014532
            ]
        },
        {
            "positions": [
                0.40387791097977765,
                -0.9692393831737703,
                0.41375603506911823,
                0.8217496035084197,
                0.38723581691577214,
                0.1772856495005974
            ]
        },
        {
            "positions": [
                0.3771290888420744,
                -0.894127174457218,
                0.31508372843940613,
                0.7883290746944744,
                0.2980506222474333,
                0.1608826767997416
            ]
        },
        {
            "positions": [
                0.30540348504205106,
                -0.8811574165370422,
                0.39003849793903334,
                0.863528304357994,
                0.1578433682514159,
                0.15238182252255658
            ]
        },
        {
            "positions": [
                0.23367788124202768,
                -0.8681876586168662,
                0.46499326743866054,
                0.9387275340215134,
                0.017636114255398516,
                0.14388096824537155
            ]
        },
        {
            "positions": [
                0.16195227744200433,
                -0.8552179006966902,
                0.5399480369382876,
                1.013926763685033,
                -0.1225711397406189,
                0.13538011396818656
            ]
        },
        {
            "positions": [
                0.09022667364198095,
                -0.8422481427765144,
                0.614902806437915,
                1.0891259933485524,
                -0.26277839373663625,
                0.12687925969100153
            ]
        },
        {
            "positions": [
                0.018501069841957596,
                -0.8292783848563385,
                0.689857575937542,
                1.164325223012072,
                -0.4029856477326538,
                0.1183784054138165
            ]
        },
        {
            "positions": [
                -0.053224533958065756,
                -0.8163086269361626,
                0.7648123454371692,
                1.2395244526755915,
                -0.5431929017286711,
                0.10987755113663147
            ]
        },
        {
            "positions": [
                -0.12495013775808916,
                -0.8033388690159866,
                0.8397671149367965,
                1.314723682339111,
                -0.6834001557246885,
                0.10137669685944645
            ]
        },
        {
            "positions": [
                -0.19667574155811252,
                -0.7903691110958108,
                0.9147218844364237,
                1.3899229120026306,
                -0.8236074097207058,
                0.09287584258226143
            ]
        },
        {
            "positions": [
                -0.26840134535813587,
                -0.7773993531756349,
                0.9896766539360509,
                1.46512214166615,
                -0.9638146637167233,
                0.0843749883050764
            ]
        },
        {
            "positions": [
                -0.3401269491581592,
                -0.764429595255459,
                1.064631423435678,
                1.5403213713296697,
                -1.1040219177127408,
                0.07587413402789138
            ]
        },
        {
            "positions": [
                -0.4118525529581827,
                -0.751459837335283,
                1.1395861929353053,
                1.615520600993189,
                -1.2442291717087581,
                0.06737327975070635
            ]
        },
        {
            "positions": [
                -0.4835781567582059,
                -0.7384900794151071,
                1.2145409624349324,
                1.6907198306567086,
                -1.3844364257047754,
                0.05887242547352134
            ]
        },
        {
            "positions": [
                -0.5553037605582293,
                -0.7255203214949313,
                1.2894957319345597,
                1.7659190603202282,
                -1.524643679700793,
                0.05037157119633631
            ]
        },
        {
            "positions": [
                -0.6270293643582527,
                -0.7125505635747553,
                1.3644505014341868,
                1.8411182899837477,
                -1.6648509336968103,
                0.0418707169191513
            ]
        },
        {
            "positions": [
                -0.6987549681582761,
                -0.6995808056545794,
                1.439405270933814,
                1.9163175196472673,
                -1.805058187692828,
                0.03336986264196626
            ]
        },
        {
            "positions": [
                -0.7704805719582994,
                -0.6866110477344035,
                1.5143600404334412,
                1.9915167493107866,
                -1.9452654416888449,
                0.02486900836478126
            ]
        },
        {
            "positions": [
                -0.8422061757583228,
                -0.6736412898142277,
                1.5893148099330683,
                2.0667159789743064,
                -2.085472695684863,
                0.01636815408759623
            ]
        },
        {
            "positions": [
                -0.9139317795583461,
                -0.6606715318940517,
                1.6642695794326956,
                2.1419152086378257,
                -2.2256799496808797,
                0.007867299810411192
            ]
        }
    ]
}