{
    "goal": {
        "global_pose": {
            "orientation": {
                "w": 0.5084816262002911,
                "x": -0.4908360881923452,
                "y": 0.5182115481033761,
                "z": -0.48164630358495003
            },
            "position": {
                "x": 0.5540239810943604,
                "y": -0.46912469901144505,
                "z": 0.16403168439865112
            }
        },
        "name": "move_to_storage_B"
    },
    "id": "BiTRRT_move_to_storage_B_135",
    "joint_names": [
        "shoulder_pan_joint",
        "shoulder_lift_joint",
        "elbow_joint",
        "wrist_1_joint",
        "wrist_2_joint",
        "wrist_3_joint"
    ],
    "metrics": {
        "cart_traj_len": 0.7888020345393894,
        "distance_elbow_joint": 0.7173862427318762,
        "distance_shoulder_lift_joint": 0.49715572543547615,
        "distance_shoulder_pan_joint": 0.6510573397981404,
        "distance_wrist_1_joint": 2.975099446290819,
        "distance_wrist_2_joint": 2.704203055441912,
        "distance_wrist_3_joint": 3.346691992271108,
        "smoothness": 0.2446998215009091,
        "time": 0.142182602,
        "traj_len": 3.3002414763118972,
        "weighted_distance": 4.823305950097327
    },
    "planner": "BiTRRT",
    "start": {
        "state": {
            "elbow_joint": 1.664937868594044,
            "shoulder_lift_joint": -0.661644460510453,
            "shoulder_pan_joint": -0.9139846352900073,
            "wrist_1_joint": 2.146753192139373,
            "wrist_2_joint": -2.2341966793290973,
            "wrist_3_joint": 0.005466555786416001
        }
    },
    "waypoints": [
        {
            "positions": [
                -0.9139846352900073,
                -0.661644460510453,
                1.664937868594044,
                2.146753192139373,
                -2.2341966793290973,
                0.005466555786416001
            ]
        },
        {
            "positions": [
                -0.8357127838217578,
                -0.6552065844440468,
                1.6030973695276385,
                2.0811657632184586,
                -2.163477381152578,
                0.03890137264415551
            ]
        },
        {
            "positions": [
                -0.7574409323535085,
                -0.6487687083776407,
                1.5412568704612328,
                2.0155783342975435,
                -2.0927580829760584,
                0.07233618950189502
            ]
        },
        {
            "positions": [
                -0.6791690808852591,
                -0.6423308323112344,
                1.4794163713948274,
                1.9499909053766287,
                -2.022038784799539,
                0.10577100635963455
            ]
        },
        {
            "positions": [
                -0.6951783803234665,
                -0.660709374512629,
                1.4998727077614682,
                1.8431317838563182,
                -1.9261908939952177,
                -0.019090052936438118
            ]
        },
        {
            "positions": [
                -0.7111876797616739,
                -0.6790879167140235,
                1.520329044128109,
                1.7362726623360074,
                -1.8303430031908963,
                -0.14395111223251078
            ]
        },
        {
            "positions": [
                -0.7271969791998812,
                -0.697466458915418,
                1.5407853804947498,
                1.629413540815697,
                -1.734495112386575,
                -0.26881217152858344
            ]
        },
        {
            "positions": [
                -0.7432062786380886,
                -0.7158450011168125,
                1.5612417168613903,
                1.5225544192953864,
                -1.6386472215822536,
                -0.3936732308246561
            ]
        },
        {
            "positions": [
                -0.759215578076296,
                -0.734223543318207,
                1.5816980532280311,
                1.4156952977750756,
                -1.5427993307779324,
                -0.5185342901207288
            ]
        },
        {
            "positions": [
                -0.7752248775145034,
                -0.7526020855196016,
                1.602154389594672,
                1.3088361762547653,
                -1.4469514399736112,
                -0.6433953494168014
            ]
        },
        {
            "positions": [
                -0.7912341769527108,
                -0.7709806277209961,
                1.6226107259613127,
                1.2019770547344546,
                -1.3511035491692898,
                -0.768256408712874
            ]
        },
        {
            "positions": [
                -0.8072434763909182,
                -0.7893591699223906,
                1.6430670623279535,
                1.095117933214144,
                -1.2552556583649683,
                -0.8931174680089468
            ]
        },
        {
            "positions": [
                -0.8232527758291256,
                -0.8077377121237852,
                1.6635233986945943,
                0.9882588116938336,
                -1.1594077675606473,
                -1.0179785273050195
            ]
        },
        {
            "positions": [
                -0.839262075267333,
                -0.8261162543251797,
                1.6839797350612349,
                0.8813996901735228,
                -1.063559876756326,
                -1.142839586601092
            ]
        },
        {
            "positions": [
                -0.8552713747055404,
                -0.8444947965265742,
                1.7044360714278757,
                0.7745405686532125,
                -0.9677119859520047,
                -1.2677006458971647
            ]
        },
        {
            "positions": [
                -0.8712806741437478,
                -0.8628733387279688,
                1.7248924077945165,
                0.6676814471329018,
                -0.8718640951476833,
                -1.3925617051932373
            ]
        },
        {
            "positions": [
                -0.8872899735819552,
                -0.8812518809293632,
                1.7453487441611573,
                0.5608223256125913,
                -0.776016204343362,
                -1.51742276448931
            ]
        },
        {
            "positions": [
                -0.9032992730201626,
                -0.8996304231307577,
                1.765805080527798,
                0.45396320409228075,
                -0.6801683135390408,
                -1.6422838237853825
            ]
        },
        {
            "positions": [
                -0.9193085724583699,
                -0.9180089653321523,
                1.7862614168944386,
                0.34710408257197023,
                -0.5843204227347196,
                -1.7671448830814551
            ]
        },
        {
            "positions": [
                -0.9353178718965773,
                -0.9363875075335468,
                1.8067177532610796,
                0.2402449610516595,
                -0.48847253193039797,
                -1.8920059423775282
            ]
        },
        {
            "positions": [
                -0.9513271713347847,
                -0.9547660497349413,
                1.8271740896277202,
                0.13338583953134897,
                -0.39262464112607676,
                -2.016867001673601
            ]
        },
        {
            "positions": [
                -0.9673364707729921,
                -0.9731445919363358,
                1.847630425994361,
                0.026526718011038453,
                -0.29677675032175554,
                -2.1417280609696734
            ]
        },
        {
            "positions": [
                -0.9833457702111995,
                -0.9915231341377304,
                1.8680867623610018,
                -0.08033240350927184,
                -0.20092885951743433,
                -2.266589120265746
            ]
        },
        {
            "positions": [
                -0.9993550696494069,
                -1.0099016763391249,
                1.8885430987276426,
                -0.18719152502958303,
                -0.1050809687131129,
                -2.391450179561819
            ]
        },
        {
            "positions": [
                -1.0153643690876142,
                -1.0282802185405195,
                1.9089994350942834,
                -0.2940506465498933,
                -0.009233077908791465,
                -2.5163112388578917
            ]
        },
        {
            "positions": [
                -1.0313736685258217,
                -1.046658760741914,
                1.929455771460924,
                -0.4009097680702036,
                0.08661481289552952,
                -2.641172298153964
            ]
        },
        {
            "positions": [
                -1.0473829679640292,
                -1.0650373029433085,
                1.949912107827565,
                -0.5077688895905144,
                0.18246270369985096,
                -2.7660333574500364
            ]
        },
        {
            "positions": [
                -1.0633922674022365,
                -1.0834158451447031,
                1.9703684441942055,
                -0.6146280111108251,
                0.2783105945041724,
                -2.8908944167461095
            ]
        },
        {
            "positions": [
                -1.0794015668404437,
                -1.1017943873460976,
                1.9908247805608463,
                -0.7214871326311358,
                0.3741584853084934,
                -3.015755476042182
            ]
        },
        {
            "positions": [
                -1.0954108662786513,
                -1.120172929547492,
                2.011281116927487,
                -0.8283462541514461,
                0.47000637611281487,
                -3.1406165353382547
            ]
        }
    ]
}