{
    "goal": {
        "global_pose": {
            "orientation": {
                "w": -0.4816463035849501,
                "x": 0.5182115481033762,
                "y": 0.4908360881923453,
                "z": -0.5084816262002911
            },
            "position": {
                "x": -0.8240239810943604,
                "y": -0.300875300988555,
                "z": 0.16403168439865112
            }
        },
        "name": "move_to_storage_C"
    },
    "id": "BiTRRT_move_to_storage_C_33",
    "joint_names": [
        "shoulder_pan_joint",
        "shoulder_lift_joint",
        "elbow_joint",
        "wrist_1_joint",
        "wrist_2_joint",
        "wrist_3_joint"
    ],
    "metrics": {
        "cart_traj_len": 0.5768279319819616,
        "distance_elbow_joint": 0.2567744780405312,
        "distance_shoulder_lift_joint": 0.19044423734619487,
        "distance_shoulder_pan_joint": 0.49555452195871297,
        "distance_wrist_1_joint": 0.0696615087235598,
        "distance_wrist_2_joint": 1.0590489753157177,
        "distance_wrist_3_joint": 0.06125009397968162,
        "smoothness": 0.0,
        "time": 0.023013267,
        "traj_len": 1.4603882413126992,
        "weighted_distance": 1.839550077427369
    },
    "planner": "BiTRRT",
    "start": {
        "state": {
            "elbow_joint": 2.010868314990456,
            "shoulder_lift_joint": -1.1634956873337592,
            "shoulder_pan_joint": -2.4736205022346125,
            "wrist_1_joint": -0.8367026794202681,
            "wrist_2_joint": 0.6746043897044499,
            "wrist_3_joint": -3.1496632123970403
        }
    },
    "waypoints": [
        {
            "positions": [
                -2.4736205022346125,
                -1.1634956873337592,
                2.010868314990456,
                -0.8367026794202681,
                0.6746043897044499,
                -3.1496632123970403
            ]
        },
        {
            "positions": [
                -2.556212922561065,
                -1.1317549811093934,
                1.9680725686503673,
                -0.8250924279663414,
                0.8511125522570695,
                -3.1394548634004265
            ]
        },
        {
            "positions": [
                -2.6388053428875167,
                -1.1000142748850275,
                1.9252768223102787,
                -0.8134821765124148,
                1.0276207148096892,
                -3.129246514403813
            ]
        },
        {
            "positions": [
                -2.721397763213969,
                -1.0682735686606617,
                1.8824810759701902,
                -0.8018719250584883,
                1.204128877362309,
                -3.1190381654071997
            ]
        },
        {
            "positions": [
                -2.8039901835404213,
                -1.036532862436296,
                1.8396853296301017,
                -0.7902616736045616,
                1.3806370399149284,
                -3.108829816410586
            ]
        },
        {
            "positions": [
                -2.886582603866873,
                -1.0047921562119302,
                1.7968895832900131,
                -0.7786514221506349,
                1.557145202467548,
                -3.098621467413972
            ]
        },
        {
            "positions": [
                -2.9691750241933255,
                -0.9730514499875643,
                1.7540938369499246,
                -0.7670411706967083,
                1.7336533650201678,
                -3.0884131184173587
            ]
        }
    ]
}