{
    "goal": {
        "global_pose": {
            "orientation": {
                "w": -0.4816463035849501,
                "x": 0.5182115481033762,
                "y": 0.4908360881923453,
                "z": -0.5084816262002911
            },
            "position": {
                "x": -0.8240239810943604,
                "y": 0.19912469901144506,
                "z": 0.16403168439865112
            }
        },
        "name": "move_to_storage_D"
    },
    "id": "BiTRRT_move_to_storage_D_55",
    "joint_names": [
        "shoulder_pan_joint",
        "shoulder_lift_joint",
        "elbow_joint",
        "wrist_1_joint",
        "wrist_2_joint",
        "wrist_3_joint"
    ],
    "metrics": {
        "cart_traj_len": 0.5464245342928246,
        "distance_elbow_joint": 0.5563646043645218,
        "distance_shoulder_lift_joint": 0.15320566075382303,
        "distance_shoulder_pan_joint": 0.15139779640210727,
        "distance_wrist_1_joint": 3.8326975801580203,
        "distance_wrist_2_joint": 1.7814751446338548,
        "distance_wrist_3_joint": 3.126383603143995,
        "smoothness": 6.148927516553211e-16,
        "time": 0.120544241,
        "traj_len": 3.098632664491925,
        "weighted_distance": 4.633407420089042
    },
    "planner": "BiTRRT",
    "start": {
        "state": {
            "elbow_joint": -2.384821988534728,
            "shoulder_lift_joint": -2.2788054721415256,
            "shoulder_pan_joint": -0.1854694642142757,
            "wrist_1_joint": 1.4845938289331202,
            "wrist_2_joint": 0.17898776772866878,
            "wrist_3_joint": 0.037105688729662994
        }
    },
    "waypoints": [
        {
            "positions": [
                -0.1854694642142757,
                -2.2788054721415256,
                -2.384821988534728,
                1.4845938289331202,
                0.17898776772866878,
                0.037105688729662994
            ]
        },
        {
            "positions": [
                -0.13986430002783018,
                -2.2335210371175798,
                -2.363056769315843,
                1.4537398295476884,
                0.0251656800983125,
                -0.032515126283019634
            ]
        },
        {
            "positions": [
                -0.13545627368551094,
                -2.229024319378835,
                -2.3407817949347747,
                1.2953296803488306,
                -0.04265319727683325,
                -0.15988024245515764
            ]
        },
        {
            "positions": [
                -0.1310482473431917,
                -2.22452760164009,
                -2.3185068205537065,
                1.1369195311499727,
                -0.110472074651979,
                -0.2872453586272956
            ]
        },
        {
            "positions": [
                -0.12664022100087247,
                -2.220030883901345,
                -2.2962318461726383,
                0.9785093819511148,
                -0.17829095202712478,
                -0.41461047479943364
            ]
        },
        {
            "positions": [
                -0.12223219465855323,
                -2.2155341661626,
                -2.27395687179157,
                0.820099232752257,
                -0.2461098294022705,
                -0.5419755909715717
            ]
        },
        {
            "positions": [
                -0.11782416831623399,
                -2.2110374484238555,
                -2.251681897410502,
                0.6616890835533992,
                -0.3139287067774163,
                -0.6693407071437097
            ]
        },
        {
            "positions": [
                -0.11341614197391475,
                -2.2065407306851106,
                -2.2294069230294338,
                0.5032789343545413,
                -0.38174758415256205,
                -0.7967058233158477
            ]
        },
        {
            "positions": [
                -0.10900811563159551,
                -2.2020440129463656,
                -2.2071319486483656,
                0.3448687851556833,
                -0.44956646152770785,
                -0.9240709394879858
            ]
        },
        {
            "positions": [
                -0.10460008928927628,
                -2.1975472952076207,
                -2.1848569742672974,
                0.18645863595682566,
                -0.5173853389028534,
                -1.0514360556601237
            ]
        },
        {
            "positions": [
                -0.10019206294695704,
                -2.1930505774688758,
                -2.1625819998862292,
                0.028048486757967783,
                -0.5852042162779992,
                -1.1788011718322617
            ]
        },
        {
            "positions": [
                -0.0957840366046378,
                -2.188553859730131,
                -2.140307025505161,
                -0.1303616624408901,
                -0.653023093653145,
                -1.3061662880043998
            ]
        },
        {
            "positions": [
                -0.09137601026231856,
                -2.184057141991386,
                -2.118032051124093,
                -0.28877181163974797,
                -0.7208419710282907,
                -1.4335314041765377
            ]
        },
        {
            "positions": [
                -0.08696798391999933,
                -2.1795604242526414,
                -2.0957570767430242,
                -0.44718196083860584,
                -0.7886608484034365,
                -1.5608965203486758
            ]
        },
        {
            "positions": [
                -0.08255995757768009,
                -2.1750637065138965,
                -2.0734821023619565,
                -0.6055921100374637,
                -0.8564797257785822,
                -1.6882616365208136
            ]
        },
        {
            "positions": [
                -0.07815193123536084,
                -2.1705669887751515,
                -2.051207127980888,
                -0.7640022592363218,
                -0.9242986031537281,
                -1.815626752692952
            ]
        },
        {
            "positions": [
                -0.0737439048930416,
                -2.1660702710364066,
                -2.0289321535998197,
                -0.9224124084351795,
                -0.9921174805288738,
                -1.9429918688650898
            ]
        },
        {
            "positions": [
                -0.06933587855072237,
                -2.1615735532976617,
                -2.0066571792187515,
                -1.0808225576340371,
                -1.0599363579040195,
                -2.0703569850372276
            ]
        },
        {
            "positions": [
                -0.06492785220840312,
                -2.1570768355589167,
                -1.9843822048376834,
                -1.2392327068328952,
                -1.1277552352791655,
                -2.197722101209366
            ]
        },
        {
            "positions": [
                -0.060519825866083884,
                -2.152580117820172,
                -1.9621072304566152,
                -1.3976428560317529,
                -1.1955741126543111,
                -2.325087217381504
            ]
        },
        {
            "positions": [
                -0.05611179952376465,
                -2.148083400081427,
                -1.939832256075547,
                -1.5560530052306105,
                -1.263392990029457,
                -2.4524523335536417
            ]
        },
        {
            "positions": [
                -0.05170377318144541,
                -2.143586682342682,
                -1.9175572816944788,
                -1.7144631544294686,
                -1.3312118674046027,
                -2.57981744972578
            ]
        },
        {
            "positions": [
                -0.04729574683912617,
                -2.1390899646039374,
                -1.8952823073134106,
                -1.8728733036283267,
                -1.3990307447797485,
                -2.707182565897918
            ]
        },
        {
            "positions": [
                -0.04288772049680693,
                -2.1345932468651925,
                -1.8730073329323425,
                -2.0312834528271844,
                -1.4668496221548941,
                -2.8345476820700557
            ]
        },
        {
            "positions": [
                -0.038479694154487695,
                -2.1300965291264475,
                -1.8507323585512743,
                -2.1896936020260425,
                -1.53466849953004,
                -2.961912798242194
            ]
        },
        {
            "positions": [
                -0.03407166781216846,
                -2.1255998113877026,
                -1.828457384170206,
                -2.3481037512249,
                -1.6024873769051857,
                -3.089277914414332
            ]
        }
    ]
}