{
    "goal": {
        "global_pose": {
            "orientation": {
                "w": -0.00223480608172531,
                "x": 0.0024358444001904467,
                "y": 0.7094548369677653,
                "z": -0.704743149386269
            },
            "position": {
                "x": -0.37947507619857795,
                "y": -0.6371506643295288,
                "z": 0.19426114857196808
            }
        },
        "name": "move_to_magneteinheit_C"
    },
    "id": "BiTRRT_move_to_magneteinheit_C_8",
    "joint_names": [
        "shoulder_pan_joint",
        "shoulder_lift_joint",
        "elbow_joint",
        "wrist_1_joint",
        "wrist_2_joint",
        "wrist_3_joint"
    ],
    "metrics": {
        "cart_traj_len": 2.4141821473019554,
        "distance_elbow_joint": 3.506505778036023,
        "distance_shoulder_lift_joint": 1.2460774586447132,
        "distance_shoulder_pan_joint": 1.2880189998830003,
        "distance_wrist_1_joint": 1.0225740194641646,
        "distance_wrist_2_joint": 2.9127398789968186,
        "distance_wrist_3_joint": 2.3217777985890136,
        "smoothness": 0.6379405120832609,
        "time": 0.131421704,
        "traj_len": 3.5068068001550547,
        "weighted_distance": 4.569087811506006
    },
    "planner": "BiTRRT",
    "start": {
        "state": {
            "elbow_joint": 1.9565354010623817,
            "shoulder_lift_joint": -1.4165861575791021,
            "shoulder_pan_joint": -1.6717766225146293,
            "wrist_1_joint": -0.5286633292919765,
            "wrist_2_joint": 1.472756589071564,
            "wrist_3_joint": -3.1238370188695823
        }
    },
    "waypoints": [
        {
            "positions": [
                -1.6717766225146293,
                -1.4165861575791021,
                1.9565354010623817,
                -0.5286633292919765,
                1.472756589071564,
                -3.1238370188695823
            ]
        },
        {
            "positions": [
                -1.5787500261702678,
                -1.4402255451265358,
                1.948355040137099,
                -0.46917087507940713,
                1.4571081607989311,
                -3.018088213549254
            ]
        },
        {
            "positions": [
                -1.5477215776728175,
                -1.4421832082550365,
                1.8478438212079618,
                -0.494442636544047,
                1.3591033692333003,
                -2.924176841311035
            ]
        },
        {
            "positions": [
                -1.5166931291753671,
                -1.4441408713835373,
                1.7473326022788245,
                -0.5197143980086869,
                1.2610985776676695,
                -2.830265469072816
            ]
        },
        {
            "positions": [
                -1.537269372490248,
                -1.41910431065727,
                1.6432044696271269,
                -0.5532429790895824,
                1.1555643995907328,
                -2.7529815067554013
            ]
        },
        {
            "positions": [
                -1.5578456158051288,
                -1.394067749931003,
                1.5390763369754292,
                -0.5867715601704779,
                1.050030221513796,
                -2.6756975444379867
            ]
        },
        {
            "positions": [
                -1.5784218591200097,
                -1.3690311892047358,
                1.4349482043237316,
                -0.6203001412513733,
                0.9444960434368594,
                -2.5984135821205725
            ]
        },
        {
            "positions": [
                -1.5989981024348905,
                -1.3439946284784687,
                1.330820071672034,
                -0.6538287223322689,
                0.8389618653599227,
                -2.521129619803158
            ]
        },
        {
            "positions": [
                -1.6195743457497713,
                -1.3189580677522015,
                1.2266919390203364,
                -0.6873573034131644,
                0.7334276872829859,
                -2.4438456574857432
            ]
        },
        {
            "positions": [
                -1.674763533949051,
                -1.277625917120444,
                1.140296320356271,
                -0.7205141888827713,
                0.6407215311149925,
                -2.3951235569623495
            ]
        },
        {
            "positions": [
                -1.7299527221483306,
                -1.2362937664886866,
                1.0539007016922057,
                -0.7536710743523782,
                0.5480153749469991,
                -2.3464014564389557
            ]
        },
        {
            "positions": [
                -1.7851419103476103,
                -1.1949616158569294,
                0.9675050830281405,
                -0.7868279598219852,
                0.45530921877900576,
                -2.297679355915562
            ]
        },
        {
            "positions": [
                -1.8403310985468897,
                -1.153629465225172,
                0.8811094643640753,
                -0.8199848452915921,
                0.36260306261101233,
                -2.248957255392168
            ]
        },
        {
            "positions": [
                -1.8955202867461693,
                -1.1122973145934145,
                0.79471384570001,
                -0.853141730761199,
                0.26989690644301895,
                -2.200235154868774
            ]
        },
        {
            "positions": [
                -1.950709474945449,
                -1.070965163961657,
                0.7083182270359447,
                -0.886298616230806,
                0.17719075027502562,
                -2.15151305434538
            ]
        },
        {
            "positions": [
                -2.0058986631447286,
                -1.0296330133298999,
                0.6219226083718794,
                -0.919455501700413,
                0.08448459410703213,
                -2.1027909538219864
            ]
        },
        {
            "positions": [
                -2.0610878513440083,
                -0.9883008626981424,
                0.5355269897078142,
                -0.95261238717002,
                -0.008221562060961252,
                -2.0540688532985927
            ]
        },
        {
            "positions": [
                -2.116277039543288,
                -0.946968712066385,
                0.4491313710437489,
                -0.9857692726396269,
                -0.10092771822895463,
                -2.005346752775199
            ]
        },
        {
            "positions": [
                -2.199111512911785,
                -0.8923097323189791,
                0.3949059232301452,
                -1.013759730328876,
                -0.1720905350848398,
                -1.9976740759604303
            ]
        },
        {
            "positions": [
                -2.281945986280282,
                -0.8376507525715733,
                0.34068047541654145,
                -1.0417501880181248,
                -0.24325335194072498,
                -1.990001399145662
            ]
        },
        {
            "positions": [
                -2.3647804596487787,
                -0.7829917728241674,
                0.2864550276029377,
                -1.069740645707374,
                -0.31441616879661016,
                -1.9823287223308936
            ]
        },
        {
            "positions": [
                -2.4476149330172756,
                -0.7283327930767616,
                0.23222957978933395,
                -1.0977311033966228,
                -0.3855789856524953,
                -1.974656045516125
            ]
        },
        {
            "positions": [
                -2.4493012425450464,
                -0.7198940721790125,
                0.362871638641323,
                -1.053632695428369,
                -0.33564172597190256,
                -2.0679646840560375
            ]
        },
        {
            "positions": [
                -2.4509875520728173,
                -0.7114553512812634,
                0.49351369749331203,
                -1.0095342874601152,
                -0.28570446629130986,
                -2.1612733225959495
            ]
        },
        {
            "positions": [
                -2.4526738616005876,
                -0.7030166303835143,
                0.6241557563453011,
                -0.9654358794918614,
                -0.23576720661071712,
                -2.2545819611358615
            ]
        },
        {
            "positions": [
                -2.4543601711283585,
                -0.6945779094857651,
                0.7547978151972901,
                -0.9213374715236076,
                -0.1858299469301244,
                -2.347890599675774
            ]
        },
        {
            "positions": [
                -2.4678412577203694,
                -0.7306700792062549,
                0.8749949040003104,
                -0.9070425652839267,
                -0.10364345778663245,
                -2.429433046927226
            ]
        },
        {
            "positions": [
                -2.481322344312381,
                -0.7667622489267447,
                0.9951919928033309,
                -0.8927476590442457,
                -0.021456968643140506,
                -2.5109754941786777
            ]
        },
        {
            "positions": [
                -2.494803430904392,
                -0.8028544186472345,
                1.1153890816063514,
                -0.8784527528045648,
                0.060729520500351436,
                -2.5925179414301294
            ]
        },
        {
            "positions": [
                -2.508284517496403,
                -0.8389465883677243,
                1.2355861704093718,
                -0.8641578465648838,
                0.14291600964384338,
                -2.6740603886815815
            ]
        },
        {
            "positions": [
                -2.521765604088414,
                -0.8750387580882142,
                1.3557832592123922,
                -0.8498629403252029,
                0.2251024987873353,
                -2.7556028359330336
            ]
        },
        {
            "positions": [
                -2.535246690680425,
                -0.911130927808704,
                1.4759803480154128,
                -0.835568034085522,
                0.30728898793082726,
                -2.8371452831844852
            ]
        },
        {
            "positions": [
                -2.5487277772724366,
                -0.9472230975291938,
                1.5961774368184332,
                -0.8212731278458411,
                0.38947547707431923,
                -2.918687730435937
            ]
        },
        {
            "positions": [
                -2.5622088638644476,
                -0.9833152672496835,
                1.7163745256214535,
                -0.8069782216061602,
                0.4716619662178111,
                -3.000230177687389
            ]
        },
        {
            "positions": [
                -2.533068939912895,
                -1.0433894089758793,
                1.8157261959317388,
                -0.8215677066541325,
                0.5373830836852951,
                -3.0492377420421533
            ]
        },
        {
            "positions": [
                -2.5039290159613423,
                -1.1034635507020751,
                1.9150778662420243,
                -0.8361571917021049,
                0.6031042011527792,
                -3.098245306396917
            ]
        },
        {
            "positions": [
                -2.47478909200979,
                -1.1635376924282708,
                2.0144295365523095,
                -0.8507466767500772,
                0.6688253186202632,
                -3.1472528707516814
            ]
        }
    ]
}