{
    "goal": {
        "global_pose": {
            "orientation": {
                "w": 0.005598929693374612,
                "x": 0.007748599140229565,
                "y": 0.7110244013736278,
                "z": -0.7031023480610252
            },
            "position": {
                "x": -0.8858502320852131,
                "y": -0.7141253447532654,
                "z": 0.3711530566215515
            }
        },
        "name": "move_to_auspresseinheit_C"
    },
    "id": "BiTRRT_move_to_auspresseinheit_C_99",
    "joint_names": [
        "shoulder_pan_joint",
        "shoulder_lift_joint",
        "elbow_joint",
        "wrist_1_joint",
        "wrist_2_joint",
        "wrist_3_joint"
    ],
    "metrics": {
        "cart_traj_len": 0.4931579746282958,
        "distance_elbow_joint": 0.9887538193996777,
        "distance_shoulder_lift_joint": 0.31977406205247183,
        "distance_shoulder_pan_joint": 0.2574909626129025,
        "distance_wrist_1_joint": 0.6552702386712023,
        "distance_wrist_2_joint": 1.3012900441821849,
        "distance_wrist_3_joint": 0.04602903669325942,
        "smoothness": 6.459479416000911e-16,
        "time": 0.047673446,
        "traj_len": 1.8890760078969027,
        "weighted_distance": 2.370068885043556
    },
    "planner": "BiTRRT",
    "start": {
        "state": {
            "elbow_joint": 1.7527959577737207,
            "shoulder_lift_joint": -0.9740617694225068,
            "shoulder_pan_joint": -2.967991417825858,
            "wrist_1_joint": -0.759517768980727,
            "wrist_2_joint": 1.7443932448377408,
            "wrist_3_joint": -3.0840537646736568
        }
    },
    "waypoints": [
        {
            "positions": [
                -2.967991417825858,
                -0.9740617694225068,
                1.7527959577737207,
                -0.759517768980727,
                1.7443932448377408,
                -3.0840537646736568
            ]
        },
        {
            "positions": [
                -2.9422423215645677,
                -0.9420843632172596,
                1.653920575833753,
                -0.6939907451136067,
                1.6142642404195224,
                -3.0886566683429826
            ]
        },
        {
            "positions": [
                -2.9164932253032774,
                -0.9101069570120124,
                1.555045193893785,
                -0.6284637212464865,
                1.4841352360013038,
                -3.093259572012309
            ]
        },
        {
            "positions": [
                -2.890744129041987,
                -0.8781295508067652,
                1.4561698119538173,
                -0.5629366973793664,
                1.3540062315830854,
                -3.0978624756816346
            ]
        },
        {
            "positions": [
                -2.864995032780697,
                -0.846152144601518,
                1.3572944300138496,
                -0.4974096735122461,
                1.2238772271648668,
                -3.1024653793509605
            ]
        },
        {
            "positions": [
                -2.839245936519407,
                -0.8141747383962709,
                1.2584190480738817,
                -0.43188264964512585,
                1.0937482227466484,
                -3.1070682830202863
            ]
        },
        {
            "positions": [
                -2.8134968402581166,
                -0.7821973321910237,
                1.159543666133914,
                -0.3663556257780056,
                0.9636192183284299,
                -3.1116711866896125
            ]
        },
        {
            "positions": [
                -2.7877477439968263,
                -0.7502199259857765,
                1.0606682841939463,
                -0.30082860191088545,
                0.8334902139102115,
                -3.1162740903589383
            ]
        },
        {
            "positions": [
                -2.761998647735536,
                -0.7182425197805293,
                0.9617929022539785,
                -0.23530157804376517,
                0.703361209491993,
                -3.120876994028264
            ]
        },
        {
            "positions": [
                -2.7362495514742458,
                -0.6862651135752822,
                0.8629175203140107,
                -0.1697745541766449,
                0.5732322050737744,
                -3.1254798976975904
            ]
        },
        {
            "positions": [
                -2.7105004552129555,
                -0.6542877073700349,
                0.764042138374043,
                -0.10424753030952473,
                0.44310320065555586,
                -3.130082801366916
            ]
        }
    ]
}