{
    "goal": {
        "global_pose": {
            "orientation": {
                "w": 0.7047431493862688,
                "x": -0.7094548369677653,
                "y": 0.0024358444001904,
                "z": -0.0022348060817251984
            },
            "position": {
                "x": -0.39052492380142206,
                "y": 0.3671506643295288,
                "z": 0.19426114857196808
            }
        },
        "name": "move_to_magneteinheit_D"
    },
    "id": "BiTRRT_move_to_magneteinheit_D_126",
    "joint_names": [
        "shoulder_pan_joint",
        "shoulder_lift_joint",
        "elbow_joint",
        "wrist_1_joint",
        "wrist_2_joint",
        "wrist_3_joint"
    ],
    "metrics": {
        "cart_traj_len": 6.086345525196668,
        "distance_elbow_joint": 3.332121173279985,
        "distance_shoulder_lift_joint": 1.8390362831295215,
        "distance_shoulder_pan_joint": 5.015247634546511,
        "distance_wrist_1_joint": 3.730102605567445,
        "distance_wrist_2_joint": 1.2984343308558168,
        "distance_wrist_3_joint": 0.16588326689509492,
        "smoothness": 0.8690663374230122,
        "time": 0.17943648,
        "traj_len": 3.921839529388521,
        "weighted_distance": 4.554242940872592
    },
    "planner": "BiTRRT",
    "start": {
        "state": {
            "elbow_joint": 0.749534889911806,
            "shoulder_lift_joint": -0.6476975780787326,
            "shoulder_pan_joint": -2.711696901376241,
            "wrist_1_joint": -0.07506478083263063,
            "wrist_2_joint": 0.43296659715538205,
            "wrist_3_joint": -3.14703540197715
        }
    },
    "waypoints": [
        {
            "positions": [
                -2.711696901376241,
                -0.6476975780787326,
                0.749534889911806,
                -0.07506478083263063,
                0.43296659715538205,
                -3.14703540197715
            ]
        },
        {
            "positions": [
                -2.701131402707054,
                -0.7199372964945095,
                0.7863754539263318,
                0.03302975880408404,
                0.5459658431847219,
                -3.135900756543997
            ]
        },
        {
            "positions": [
                -2.6905659040378667,
                -0.7921770149102865,
                0.8232160179408575,
                0.1411242984407987,
                0.6589650892140616,
                -3.1247661111108447
            ]
        },
        {
            "positions": [
                -2.6800004053686797,
                -0.8644167333260634,
                0.8600565819553834,
                0.24921883807751338,
                0.7719643352434014,
                -3.113631465677692
            ]
        },
        {
            "positions": [
                -2.541511957426839,
                -0.9107764927680269,
                0.7846875364066761,
                0.1410325142990786,
                0.7480423619512552,
                -3.111426662600951
            ]
        },
        {
            "positions": [
                -2.4030235094849988,
                -0.9571362522099903,
                0.7093184908579689,
                0.032846190520643775,
                0.7241203886591089,
                -3.10922185952421
            ]
        },
        {
            "positions": [
                -2.264535061543158,
                -1.0034960116519538,
                0.6339494453092617,
                -0.07534013325779099,
                0.7001984153669627,
                -3.107017056447469
            ]
        },
        {
            "positions": [
                -2.1260466136013174,
                -1.0498557710939171,
                0.5585803997605545,
                -0.18352645703622583,
                0.6762764420748164,
                -3.1048122533707283
            ]
        },
        {
            "positions": [
                -1.987558165659477,
                -1.0962155305358807,
                0.4832113542118472,
                -0.2917127808146606,
                0.6523544687826702,
                -3.1026074502939873
            ]
        },
        {
            "positions": [
                -1.8490697177176365,
                -1.142575289977844,
                0.40784230866314,
                -0.39989910459309536,
                0.628432495490524,
                -3.1004026472172463
            ]
        },
        {
            "positions": [
                -1.7105812697757958,
                -1.1889350494198077,
                0.3324732631144327,
                -0.5080854283715301,
                0.6045105221983778,
                -3.0981978441405054
            ]
        },
        {
            "positions": [
                -1.5720928218339554,
                -1.235294808861771,
                0.25710421756572555,
                -0.616271752149965,
                0.5805885489062316,
                -3.0959930410637644
            ]
        },
        {
            "positions": [
                -1.433604373892115,
                -1.2816545683037344,
                0.18173517201701828,
                -0.7244580759283998,
                0.5566665756140854,
                -3.0937882379870234
            ]
        },
        {
            "positions": [
                -1.2951159259502742,
                -1.328014327745698,
                0.106366126468311,
                -0.8326443997068347,
                0.5327446023219391,
                -3.0915834349102824
            ]
        },
        {
            "positions": [
                -1.1566274780084338,
                -1.3743740871876615,
                0.030997080919603848,
                -0.9408307234852695,
                0.5088226290297928,
                -3.089378631833542
            ]
        },
        {
            "positions": [
                -1.0181390300665933,
                -1.4207338466296249,
                -0.04437196462910342,
                -1.0490170472637041,
                0.4849006557376467,
                -3.087173828756801
            ]
        },
        {
            "positions": [
                -0.8796505821247527,
                -1.4670936060715882,
                -0.11974101017781069,
                -1.157203371042139,
                0.46097868244550044,
                -3.08496902568006
            ]
        },
        {
            "positions": [
                -0.7411621341829122,
                -1.5134533655135516,
                -0.19511005572651796,
                -1.2653896948205738,
                0.4370567091533542,
                -3.082764222603319
            ]
        },
        {
            "positions": [
                -0.6026736862410713,
                -1.5598131249555154,
                -0.27047910127522523,
                -1.373576018599009,
                0.4131347358612079,
                -3.080559419526578
            ]
        },
        {
            "positions": [
                -0.4641852382992311,
                -1.6061728843974787,
                -0.3458481468239323,
                -1.4817623423774435,
                0.38921276256906173,
                -3.078354616449837
            ]
        },
        {
            "positions": [
                -0.3256967903573904,
                -1.652532643839442,
                -0.42121719237263977,
                -1.5899486661558784,
                0.3652907892769155,
                -3.0761498133730965
            ]
        },
        {
            "positions": [
                -0.18720834241555018,
                -1.6988924032814054,
                -0.4965862379213468,
                -1.698134989934313,
                0.3413688159847693,
                -3.0739450102963555
            ]
        },
        {
            "positions": [
                -0.04871989447370906,
                -1.745252162723369,
                -0.5719552834700541,
                -1.806321313712748,
                0.317446842692623,
                -3.0717402072196145
            ]
        },
        {
            "positions": [
                0.08976855346813117,
                -1.7916119221653324,
                -0.6473243290187614,
                -1.9145076374911827,
                0.29352486940047684,
                -3.0695354041428735
            ]
        },
        {
            "positions": [
                0.22825700140997185,
                -1.837971681607296,
                -0.7226933745674686,
                -2.0226939612696175,
                0.26960289610833055,
                -3.0673306010661325
            ]
        },
        {
            "positions": [
                0.3667454493518121,
                -1.8843314410492593,
                -0.7980624201161757,
                -2.130880285048052,
                0.24568092281618437,
                -3.0651257979893916
            ]
        },
        {
            "positions": [
                0.5052338972936528,
                -1.9306912004912227,
                -0.8734314656648832,
                -2.239066608826487,
                0.22175894952403818,
                -3.0629209949126506
            ]
        },
        {
            "positions": [
                0.643722345235493,
                -1.977050959933186,
                -0.9488005112135902,
                -2.3472529326049214,
                0.197836976231892,
                -3.06071619183591
            ]
        },
        {
            "positions": [
                0.7822107931773341,
                -2.02341071937515,
                -1.0241695567622975,
                -2.4554392563833565,
                0.1739150029397457,
                -3.058511388759169
            ]
        },
        {
            "positions": [
                0.9206992411191743,
                -2.069770478817113,
                -1.0995386023110048,
                -2.563625580161791,
                0.14999302964759953,
                -3.056306585682428
            ]
        },
        {
            "positions": [
                1.0591876890610148,
                -2.1161302382590765,
                -1.1749076478597118,
                -2.671811903940226,
                0.12607105635545324,
                -3.054101782605687
            ]
        },
        {
            "positions": [
                0.9347513846500893,
                -2.0790698759641586,
                -1.2935711730018429,
                -2.62333307947627,
                0.09471672496746822,
                -3.0613967473580503
            ]
        },
        {
            "positions": [
                0.8103150802391639,
                -2.042009513669241,
                -1.412234698143974,
                -2.5748542550123137,
                0.06336239357948321,
                -3.0686917121104136
            ]
        },
        {
            "positions": [
                0.6858787758282383,
                -2.004949151374323,
                -1.530898223286105,
                -2.5263754305483577,
                0.032008062191498196,
                -3.075986676862777
            ]
        },
        {
            "positions": [
                0.5614424714173128,
                -1.9678887890794055,
                -1.649561748428236,
                -2.4778966060844017,
                0.0006537308035131917,
                -3.08328164161514
            ]
        },
        {
            "positions": [
                0.4370061670063874,
                -1.9308284267844877,
                -1.7682252735703672,
                -2.4294177816204456,
                -0.030700600584471827,
                -3.0905766063675033
            ]
        },
        {
            "positions": [
                0.31256986259546193,
                -1.89376806448957,
                -1.8868887987124983,
                -2.380938957156489,
                -0.062054931972456845,
                -3.097871571119866
            ]
        },
        {
            "positions": [
                0.18813355818453648,
                -1.8567077021946523,
                -2.005552323854629,
                -2.332460132692533,
                -0.09340926336044184,
                -3.1051665358722293
            ]
        },
        {
            "positions": [
                0.0636972537736109,
                -1.8196473398997344,
                -2.1242158489967604,
                -2.2839813082285767,
                -0.12476359474842685,
                -3.1124615006245926
            ]
        },
        {
            "positions": [
                -0.06073905063731466,
                -1.7825869776048167,
                -2.2428793741388917,
                -2.2355024837646207,
                -0.1561179261364119,
                -3.119756465376956
            ]
        },
        {
            "positions": [
                -0.18517535504824,
                -1.745526615309899,
                -2.3615428992810226,
                -2.1870236593006647,
                -0.18747225752439686,
                -3.127051430129319
            ]
        }
    ]
}