{
    "goal": {
        "global_pose": {
            "orientation": {
                "w": 0.005598929693374612,
                "x": 0.007748599140229565,
                "y": 0.7110244013736278,
                "z": -0.7031023480610252
            },
            "position": {
                "x": -0.8858502320852131,
                "y": -0.7141253447532654,
                "z": 0.3711530566215515
            }
        },
        "name": "move_to_auspresseinheit_C"
    },
    "id": "BiTRRT_move_to_auspresseinheit_C_125",
    "joint_names": [
        "shoulder_pan_joint",
        "shoulder_lift_joint",
        "elbow_joint",
        "wrist_1_joint",
        "wrist_2_joint",
        "wrist_3_joint"
    ],
    "metrics": {
        "cart_traj_len": 0.49344475849814,
        "distance_elbow_joint": 0.9948912870591718,
        "distance_shoulder_lift_joint": 0.32159137553646155,
        "distance_shoulder_pan_joint": 0.25695428364288686,
        "distance_wrist_1_joint": 0.6701164134572558,
        "distance_wrist_2_joint": 1.3021110683270565,
        "distance_wrist_3_joint": 0.04839060872253942,
        "smoothness": 0.0,
        "time": 0.07397630499999999,
        "traj_len": 1.8957993134151545,
        "weighted_distance": 2.379719255705337
    },
    "planner": "BiTRRT",
    "start": {
        "state": {
            "elbow_joint": 1.7527959577737207,
            "shoulder_lift_joint": -0.9740617694225068,
            "shoulder_pan_joint": -2.967991417825858,
            "wrist_1_joint": -0.759517768980727,
            "wrist_2_joint": 1.7443932448377408,
            "wrist_3_joint": -3.0840537646736568
        }
    },
    "waypoints": [
        {
            "positions": [
                -2.967991417825858,
                -0.9740617694225068,
                1.7527959577737207,
                -0.759517768980727,
                1.7443932448377408,
                -3.0840537646736568
            ]
        },
        {
            "positions": [
                -2.9422959894615692,
                -0.9419026318688606,
                1.6533068290678035,
                -0.6925061276350014,
                1.6141821380050352,
                -3.0888928255459107
            ]
        },
        {
            "positions": [
                -2.9166005610972805,
                -0.9097434943152145,
                1.5538177003618863,
                -0.6254944862892758,
                1.4839710311723295,
                -3.0937318864181647
            ]
        },
        {
            "positions": [
                -2.8909051327329918,
                -0.8775843567615683,
                1.454328571655969,
                -0.5584828449435503,
                1.3537599243396239,
                -3.0985709472904186
            ]
        },
        {
            "positions": [
                -2.865209704368703,
                -0.8454252192079221,
                1.3548394429500519,
                -0.49147120359782465,
                1.2235488175069182,
                -3.1034100081626725
            ]
        },
        {
            "positions": [
                -2.8395142760044143,
                -0.813266081654276,
                1.2553503142441347,
                -0.4244595622520991,
                1.0933377106742126,
                -3.1082490690349265
            ]
        },
        {
            "positions": [
                -2.813818847640126,
                -0.7811069441006299,
                1.1558611855382175,
                -0.3574479209063735,
                0.963126603841507,
                -3.1130881299071804
            ]
        },
        {
            "positions": [
                -2.7881234192758373,
                -0.7489478065469837,
                1.0563720568323003,
                -0.29043627956064794,
                0.8329154970088014,
                -3.1179271907794344
            ]
        },
        {
            "positions": [
                -2.7624279909115486,
                -0.7167886689933376,
                0.9568829281263831,
                -0.2234246382149223,
                0.7027043901760957,
                -3.1227662516516883
            ]
        },
        {
            "positions": [
                -2.73673256254726,
                -0.6846295314396913,
                0.857393799420466,
                -0.15641299686919674,
                0.57249328334339,
                -3.1276053125239422
            ]
        },
        {
            "positions": [
                -2.711037134182971,
                -0.6524703938860452,
                0.7579046707145488,
                -0.08940135552347121,
                0.4422821765106844,
                -3.132444373396196
            ]
        }
    ]
}