{
    "goal": {
        "global_pose": {
            "orientation": {
                "w": 0.7031023502349854,
                "x": -0.7110244035720825,
                "y": 0.007748599164187908,
                "z": 0.005598929710686207
            },
            "position": {
                "x": 0.11585023208521307,
                "y": 0.44412534475326537,
                "z": 0.3711530566215515
            }
        },
        "name": "move_to_auspresseinheit_A"
    },
    "id": "BiTRRT_move_to_auspresseinheit_A_89",
    "joint_names": [
        "shoulder_pan_joint",
        "shoulder_lift_joint",
        "elbow_joint",
        "wrist_1_joint",
        "wrist_2_joint",
        "wrist_3_joint"
    ],
    "metrics": {
        "cart_traj_len": 1.7702954259728647,
        "distance_elbow_joint": 0.21597558077482093,
        "distance_shoulder_lift_joint": 0.5352905187227983,
        "distance_shoulder_pan_joint": 4.590331096296448,
        "distance_wrist_1_joint": 3.617784762433671,
        "distance_wrist_2_joint": 4.122778053044632,
        "distance_wrist_3_joint": 7.85788781211707,
        "smoothness": 0.5980924473598687,
        "time": 0.068362272,
        "traj_len": 4.576029700885849,
        "weighted_distance": 6.663061328181054
    },
    "planner": "BiTRRT",
    "start": {
        "state": {
            "elbow_joint": 2.4225746658250005,
            "shoulder_lift_joint": -1.3736534386056498,
            "shoulder_pan_joint": -0.3378633547517467,
            "wrist_1_joint": -1.0288598680537169,
            "wrist_2_joint": 1.233022673432363,
            "wrist_3_joint": -3.0940220416140027
        }
    },
    "waypoints": [
        {
            "positions": [
                -0.3378633547517467,
                -1.3736534386056498,
                2.4225746658250005,
                -1.0288598680537169,
                1.233022673432363,
                -3.0940220416140027
            ]
        },
        {
            "positions": [
                -0.40119443583102504,
                -1.3919170329602242,
                2.4182070197040386,
                -0.9543433379286489,
                1.1500227274793502,
                -2.9542491984281973
            ]
        },
        {
            "positions": [
                -0.46452551691030336,
                -1.4101806273147983,
                2.4138393735830768,
                -0.8798268078035808,
                1.0670227815263371,
                -2.8144763552423924
            ]
        },
        {
            "positions": [
                -0.5278565979895817,
                -1.4284442216693727,
                2.409471727462115,
                -0.8053102776785128,
                0.9840228355733243,
                -2.674703512056587
            ]
        },
        {
            "positions": [
                -0.5911876790688599,
                -1.4467078160239468,
                2.405104081341153,
                -0.7307937475534447,
                0.9010228896203112,
                -2.5349306688707816
            ]
        },
        {
            "positions": [
                -0.6545187601481384,
                -1.4649714103785212,
                2.400736435220191,
                -0.6562772174283767,
                0.8180229436672983,
                -2.3951578256849766
            ]
        },
        {
            "positions": [
                -0.7178498412274166,
                -1.4832350047330956,
                2.3963687890992293,
                -0.5817606873033088,
                0.7350229977142854,
                -2.255384982499171
            ]
        },
        {
            "positions": [
                -0.781180922306695,
                -1.5014985990876697,
                2.3920011429782675,
                -0.5072441571782407,
                0.6520230517612724,
                -2.115612139313366
            ]
        },
        {
            "positions": [
                -0.8445120033859732,
                -1.519762193442244,
                2.3876334968573056,
                -0.4327276270531727,
                0.5690231058082594,
                -1.9758392961275606
            ]
        },
        {
            "positions": [
                -0.9078430844652516,
                -1.5380257877968182,
                2.383265850736344,
                -0.3582110969281046,
                0.48602315985524647,
                -1.8360664529417552
            ]
        },
        {
            "positions": [
                -0.9711741655445298,
                -1.5562893821513926,
                2.378898204615382,
                -0.2836945668030366,
                0.4030232139022335,
                -1.69629360975595
            ]
        },
        {
            "positions": [
                -1.0345052466238083,
                -1.574552976505967,
                2.37453055849442,
                -0.20917803667796853,
                0.32002326794922065,
                -1.5565207665701448
            ]
        },
        {
            "positions": [
                -1.0978363277030865,
                -1.592816570860541,
                2.370162912373458,
                -0.13466150655290055,
                0.23702332199620768,
                -1.4167479233843396
            ]
        },
        {
            "positions": [
                -1.161167408782365,
                -1.6110801652151154,
                2.3657952662524964,
                -0.06014497642783245,
                0.1540233760431946,
                -1.2769750801985342
            ]
        },
        {
            "positions": [
                -1.2244984898616431,
                -1.6293437595696898,
                2.3614276201315345,
                0.014371553697235528,
                0.07102343009018175,
                -1.137202237012729
            ]
        },
        {
            "positions": [
                -1.2878295709409215,
                -1.647607353924264,
                2.3570599740105727,
                0.08888808382230362,
                -0.011976515862831105,
                -0.9974293938269239
            ]
        },
        {
            "positions": [
                -1.3511606520201997,
                -1.6658709482788383,
                2.352692327889611,
                0.1634046139473715,
                -0.09497646181584418,
                -0.8576565506411185
            ]
        },
        {
            "positions": [
                -1.414491733099478,
                -1.6841345426334124,
                2.348324681768649,
                0.23792114407243958,
                -0.17797640776885704,
                -0.7178837074553135
            ]
        },
        {
            "positions": [
                -1.4778228141787564,
                -1.7023981369879868,
                2.343957035647687,
                0.3124376741975077,
                -0.2609763537218701,
                -0.5781108642695076
            ]
        },
        {
            "positions": [
                -1.5411538952580348,
                -1.720661731342561,
                2.3395893895267252,
                0.38695420432257577,
                -0.34397629967488297,
                -0.4383380210837027
            ]
        },
        {
            "positions": [
                -1.604484976337313,
                -1.7389253256971353,
                2.3352217434057634,
                0.46147073444764364,
                -0.42697624562789604,
                -0.29856517789789727
            ]
        },
        {
            "positions": [
                -1.6678160574165912,
                -1.7571889200517097,
                2.3308540972848015,
                0.5359872645727117,
                -0.5099761915809089,
                -0.1587923347120923
            ]
        },
        {
            "positions": [
                -1.7311471384958697,
                -1.7754525144062838,
                2.3264864511638397,
                0.6105037946977798,
                -0.5929761375339218,
                -0.019019491526286902
            ]
        },
        {
            "positions": [
                -1.7944782195751479,
                -1.7937161087608582,
                2.322118805042878,
                0.6850203248228477,
                -0.6759760834869348,
                0.12075335165951806
            ]
        },
        {
            "positions": [
                -1.8578093006544263,
                -1.8119797031154325,
                2.317751158921916,
                0.7595368549479158,
                -0.7589760294399477,
                0.26052619484532347
            ]
        },
        {
            "positions": [
                -1.9211403817337047,
                -1.8302432974700067,
                2.313383512800954,
                0.8340533850729839,
                -0.841975975392961,
                0.4002990380311289
            ]
        },
        {
            "positions": [
                -1.984471462812983,
                -1.848506891824581,
                2.3090158666799923,
                0.908569915198052,
                -0.9249759213459738,
                0.5400718812169343
            ]
        },
        {
            "positions": [
                -2.0478025438922614,
                -1.8667704861791554,
                2.3046482205590304,
                0.9830864453231201,
                -1.0079758672989867,
                0.6798447244027392
            ]
        },
        {
            "positions": [
                -2.1111336249715396,
                -1.8850340805337296,
                2.3002805744380685,
                1.0576029754481877,
                -1.0909758132519993,
                0.8196175675885446
            ]
        },
        {
            "positions": [
                -2.002785131660899,
                -1.8859536911796804,
                2.3038837086452952,
                0.9987059785661968,
                -1.0217919837766043,
                0.6679157136302938
            ]
        },
        {
            "positions": [
                -1.8944366383502584,
                -1.886873301825631,
                2.3074868428525215,
                0.9398089816842059,
                -0.9526081543012093,
                0.5162138596720428
            ]
        },
        {
            "positions": [
                -1.786088145039618,
                -1.8877929124715818,
                2.311089977059748,
                0.8809119848022149,
                -0.8834243248258142,
                0.36451200571379194
            ]
        },
        {
            "positions": [
                -1.6777396517289773,
                -1.8887125231175323,
                2.3146931112669744,
                0.822014987920224,
                -0.8142404953504191,
                0.21281015175554097
            ]
        },
        {
            "positions": [
                -1.5693911584183369,
                -1.8896321337634832,
                2.318296245474201,
                0.7631179910382331,
                -0.7450566658750241,
                0.0611082977972901
            ]
        },
        {
            "positions": [
                -1.4610426651076964,
                -1.8905517444094337,
                2.3218993796814273,
                0.7042209941562421,
                -0.675872836399629,
                -0.09059355616096076
            ]
        },
        {
            "positions": [
                -1.3526941717970558,
                -1.8914713550553846,
                2.325502513888654,
                0.6453239972742513,
                -0.606689006924234,
                -0.24229541011921163
            ]
        },
        {
            "positions": [
                -1.244345678486415,
                -1.8923909657013354,
                2.3291056480958807,
                0.5864270003922603,
                -0.5375051774488389,
                -0.3939972640774627
            ]
        },
        {
            "positions": [
                -1.1359971851757749,
                -1.893310576347286,
                2.332708782303107,
                0.5275300035102694,
                -0.46832134797344394,
                -0.5456991180357134
            ]
        },
        {
            "positions": [
                -1.0276486918651342,
                -1.8942301869932368,
                2.3363119165103337,
                0.46863300662827834,
                -0.3991375184980488,
                -0.6974009719939644
            ]
        },
        {
            "positions": [
                -0.9193001985544937,
                -1.8951497976391873,
                2.33991505071756,
                0.40973600974628754,
                -0.32995368902265376,
                -0.8491028259522153
            ]
        },
        {
            "positions": [
                -0.8109517052438531,
                -1.8960694082851381,
                2.3435181849247866,
                0.35083901286429653,
                -0.26076985954725873,
                -1.0008046799104662
            ]
        },
        {
            "positions": [
                -0.7026032119332126,
                -1.8969890189310887,
                2.347121319132013,
                0.2919420159823056,
                -0.1915860300718637,
                -1.152506533868717
            ]
        },
        {
            "positions": [
                -0.5942547186225722,
                -1.8979086295770395,
                2.3507244533392395,
                0.23304501910031472,
                -0.12240220059646867,
                -1.304208387826968
            ]
        },
        {
            "positions": [
                -0.4859062253119317,
                -1.8988282402229903,
                2.354327587546466,
                0.17414802221832382,
                -0.05321837112107364,
                -1.4559102417852188
            ]
        },
        {
            "positions": [
                -0.37755773200129084,
                -1.899747850868941,
                2.3579307217536924,
                0.1152510253363328,
                0.015965458354321616,
                -1.60761209574347
            ]
        },
        {
            "positions": [
                -0.2692092386906504,
                -1.9006674615148917,
                2.361533855960919,
                0.05635402845434179,
                0.08514928782971642,
                -1.7593139497017205
            ]
        },
        {
            "positions": [
                -0.16086074538000994,
                -1.9015870721608423,
                2.3651369901681454,
                -0.002542968427649006,
                0.15433311730511146,
                -1.9110158036599714
            ]
        },
        {
            "positions": [
                -0.05251225206936949,
                -1.9025066828067931,
                2.368740124375372,
                -0.0614399653096398,
                0.2235169467805065,
                -2.0627176576182222
            ]
        },
        {
            "positions": [
                0.05583624124127118,
                -1.903426293452744,
                2.3723432585825988,
                -0.12033696219163104,
                0.29270077625590174,
                -2.2144195115764735
            ]
        },
        {
            "positions": [
                0.16418473455191185,
                -1.9043459040986945,
                2.375946392789825,
                -0.17923395907362183,
                0.36188460573129677,
                -2.3661213655347244
            ]
        },
        {
            "positions": [
                0.2725332278625521,
                -1.9052655147446453,
                2.3795495269970517,
                -0.23813095595561262,
                0.4310684352066918,
                -2.5178232194929753
            ]
        },
        {
            "positions": [
                0.38088172117319274,
                -1.906185125390596,
                2.383152661204278,
                -0.29702795283760364,
                0.5002522646820866,
                -2.6695250734512257
            ]
        },
        {
            "positions": [
                0.4892302144838334,
                -1.9071047360365467,
                2.3867557954115046,
                -0.35592494971959465,
                0.5694360941574819,
                -2.821226927409477
            ]
        },
        {
            "positions": [
                0.5975787077944736,
                -1.9080243466824973,
                2.390358929618731,
                -0.41482194660158567,
                0.6386199236328769,
                -2.972928781367728
            ]
        },
        {
            "positions": [
                0.7059272011051142,
                -1.9089439573284481,
                2.3939620638259576,
                -0.47371894348357646,
                0.707803753108272,
                -3.1246306353259787
            ]
        }
    ]
}