{
    "goal": {
        "global_pose": {
            "orientation": {
                "w": 0.7047431493862688,
                "x": -0.7094548369677653,
                "y": 0.0024358444001904,
                "z": -0.0022348060817251984
            },
            "position": {
                "x": -0.39052492380142206,
                "y": 0.3671506643295288,
                "z": 0.19426114857196808
            }
        },
        "name": "move_to_magneteinheit_D"
    },
    "id": "BiTRRT_move_to_magneteinheit_D_118",
    "joint_names": [
        "shoulder_pan_joint",
        "shoulder_lift_joint",
        "elbow_joint",
        "wrist_1_joint",
        "wrist_2_joint",
        "wrist_3_joint"
    ],
    "metrics": {
        "cart_traj_len": 4.612724994183234,
        "distance_elbow_joint": 3.1429984757006144,
        "distance_shoulder_lift_joint": 1.627179936639789,
        "distance_shoulder_pan_joint": 3.6259309187151842,
        "distance_wrist_1_joint": 1.5129956650623637,
        "distance_wrist_2_joint": 0.6001448827869749,
        "distance_wrist_3_joint": 3.2422337057242685,
        "smoothness": 0.3530717222608545,
        "time": 0.142371329,
        "traj_len": 3.708299284662606,
        "weighted_distance": 4.727482579970769
    },
    "planner": "BiTRRT",
    "start": {
        "state": {
            "elbow_joint": 0.749534889911806,
            "shoulder_lift_joint": -0.6476975780787326,
            "shoulder_pan_joint": -2.711696901376241,
            "wrist_1_joint": -0.07506478083263063,
            "wrist_2_joint": 0.43296659715538205,
            "wrist_3_joint": -3.14703540197715
        }
    },
    "waypoints": [
        {
            "positions": [
                -2.711696901376241,
                -0.6476975780787326,
                0.749534889911806,
                -0.07506478083263063,
                0.43296659715538205,
                -3.14703540197715
            ]
        },
        {
            "positions": [
                -2.769595916724845,
                -0.7119038901530934,
                0.6832810521069168,
                -0.037395618701294306,
                0.4752097322735532,
                -3.0962671899442995
            ]
        },
        {
            "positions": [
                -2.8274949320734493,
                -0.7761102022274542,
                0.6170272143020277,
                0.000273543430042017,
                0.5174528673917244,
                -3.0454989779114494
            ]
        },
        {
            "positions": [
                -2.885393947422054,
                -0.8403165143018149,
                0.5507733764971385,
                0.03794270556137834,
                0.5596960025098955,
                -2.9947307658785993
            ]
        },
        {
            "positions": [
                -2.943292962770658,
                -0.9045228263761756,
                0.4845195386922494,
                0.07561186769271466,
                0.6019391376280666,
                -2.943962553845749
            ]
        },
        {
            "positions": [
                -2.8334350129381694,
                -0.9497075666910385,
                0.3972523678655572,
                0.11778912494565391,
                0.5952083625061584,
                -2.8414015682088345
            ]
        },
        {
            "positions": [
                -2.7235770631056804,
                -0.9948923070059014,
                0.30998519703886496,
                0.15996638219859316,
                0.5884775873842503,
                -2.73884058257192
            ]
        },
        {
            "positions": [
                -2.613719113273192,
                -1.0400770473207643,
                0.22271802621217274,
                0.2021436394515324,
                0.581746812262342,
                -2.636279596935006
            ]
        },
        {
            "positions": [
                -2.503861163440703,
                -1.0852617876356272,
                0.13545085538548052,
                0.24432089670447166,
                0.5750160371404338,
                -2.5337186112980916
            ]
        },
        {
            "positions": [
                -2.3940032136082143,
                -1.13044652795049,
                0.0481836845587883,
                0.2864981539574109,
                0.5682852620185256,
                -2.4311576256611773
            ]
        },
        {
            "positions": [
                -2.2841452637757254,
                -1.175631268265353,
                -0.03908348626790392,
                0.32867541121035015,
                0.5615544868966174,
                -2.328596640024263
            ]
        },
        {
            "positions": [
                -2.174287313943237,
                -1.2208160085802158,
                -0.12635065709459614,
                0.3708526684632894,
                0.5548237117747092,
                -2.2260356543873487
            ]
        },
        {
            "positions": [
                -2.0644293641107483,
                -1.2660007488950786,
                -0.21361782792128836,
                0.41302992571622865,
                0.548092936652801,
                -2.1234746687504344
            ]
        },
        {
            "positions": [
                -1.9545714142782593,
                -1.3111854892099415,
                -0.3008849987479807,
                0.45520718296916796,
                0.5413621615308928,
                -2.0209136831135197
            ]
        },
        {
            "positions": [
                -1.8447134644457706,
                -1.3563702295248043,
                -0.3881521695746728,
                0.49738444022210715,
                0.5346313864089847,
                -1.9183526974766056
            ]
        },
        {
            "positions": [
                -1.734855514613282,
                -1.4015549698396672,
                -0.475419340401365,
                0.5395616974750463,
                0.5279006112870764,
                -1.8157917118396913
            ]
        },
        {
            "positions": [
                -1.6249975647807933,
                -1.44673971015453,
                -0.5626865112280572,
                0.5817389547279856,
                0.5211698361651682,
                -1.713230726202777
            ]
        },
        {
            "positions": [
                -1.5151396149483045,
                -1.491924450469393,
                -0.6499536820547496,
                0.623916211980925,
                0.51443906104326,
                -1.6106697405658628
            ]
        },
        {
            "positions": [
                -1.4052816651158158,
                -1.537109190784256,
                -0.7372208528814417,
                0.6660934692338641,
                0.5077082859213518,
                -1.5081087549289485
            ]
        },
        {
            "positions": [
                -1.295423715283327,
                -1.5822939310991186,
                -0.8244880237081338,
                0.7082707264868033,
                0.5009775107994436,
                -1.4055477692920342
            ]
        },
        {
            "positions": [
                -1.1855657654508385,
                -1.6274786714139817,
                -0.9117551945348261,
                0.7504479837397426,
                0.4942467356775354,
                -1.3029867836551199
            ]
        },
        {
            "positions": [
                -1.0757078156183497,
                -1.6726634117288444,
                -0.9990223653615182,
                0.7926252409926818,
                0.48751596055562724,
                -1.2004257980182056
            ]
        },
        {
            "positions": [
                -0.9658498657858607,
                -1.7178481520437074,
                -1.0862895361882108,
                0.8348024982456212,
                0.480785185433719,
                -1.097864812381291
            ]
        },
        {
            "positions": [
                -0.8559919159533722,
                -1.7630328923585703,
                -1.1735567070149029,
                0.8769797554985604,
                0.47405441031181084,
                -0.9953038267443768
            ]
        },
        {
            "positions": [
                -0.7461339661208832,
                -1.8082176326734332,
                -1.260823877841595,
                0.9191570127514996,
                0.4673236351899026,
                -0.8927428411074625
            ]
        },
        {
            "positions": [
                -0.6362760162883947,
                -1.853402372988296,
                -1.348091048668287,
                0.9613342700044389,
                0.4605928600679944,
                -0.7901818554705482
            ]
        },
        {
            "positions": [
                -0.5264180664559062,
                -1.8985871133031589,
                -1.4353582194949794,
                1.0035115272573782,
                0.4538620849460862,
                -0.6876208698336339
            ]
        },
        {
            "positions": [
                -0.4165601166234172,
                -1.9437718536180215,
                -1.5226253903216718,
                1.0456887845103173,
                0.44713130982417804,
                -0.5850598841967196
            ]
        },
        {
            "positions": [
                -0.30670216679092865,
                -1.9889565939328846,
                -1.6098925611483639,
                1.0878660417632566,
                0.4404005347022698,
                -0.4824988985598053
            ]
        },
        {
            "positions": [
                -0.19684421695843968,
                -2.0341413342477477,
                -1.6971597319750564,
                1.130043299016196,
                0.4336697595803616,
                -0.37993791292289103
            ]
        },
        {
            "positions": [
                -0.08698626712595114,
                -2.0793260745626103,
                -1.7844269028017485,
                1.1722205562691352,
                0.4269389844584534,
                -0.27737692728597674
            ]
        },
        {
            "positions": [
                0.022871682706537833,
                -2.1245108148774734,
                -1.8716940736284406,
                1.2143978135220743,
                0.42020820933654524,
                -0.17481594164906245
            ]
        },
        {
            "positions": [
                0.13272963253902625,
                -2.169695555192336,
                -1.9589612444551328,
                1.2565750707750136,
                0.413477434214637,
                -0.07225495601214799
            ]
        },
        {
            "positions": [
                0.053151567036255565,
                -2.1959910450738827,
                -2.0675868297885516,
                1.3019140241386935,
                0.35279977448942185,
                -0.03039164107233113
            ]
        },
        {
            "positions": [
                -0.026426498466515125,
                -2.222286534955429,
                -2.1762124151219706,
                1.3472529775023734,
                0.29212211476420663,
                0.011471673867485724
            ]
        },
        {
            "positions": [
                -0.10600456396928581,
                -2.248582024836975,
                -2.2848380004553897,
                1.3925919308660533,
                0.23144445503899147,
                0.053334988807302586
            ]
        },
        {
            "positions": [
                -0.1855826294720565,
                -2.2748775147185216,
                -2.3934635857888087,
                1.4379308842297331,
                0.17076679531377628,
                0.09519830374711943
            ]
        }
    ]
}