{
    "goal": {
        "global_pose": {
            "orientation": {
                "w": 0.5084816262002911,
                "x": -0.4908360881923452,
                "y": 0.5182115481033761,
                "z": -0.48164630358495003
            },
            "position": {
                "x": 0.5540239810943604,
                "y": -0.46912469901144505,
                "z": 0.16403168439865112
            }
        },
        "name": "move_to_storage_B"
    },
    "id": "BiTRRT_move_to_storage_B_108",
    "joint_names": [
        "shoulder_pan_joint",
        "shoulder_lift_joint",
        "elbow_joint",
        "wrist_1_joint",
        "wrist_2_joint",
        "wrist_3_joint"
    ],
    "metrics": {
        "cart_traj_len": 1.1197468382656421,
        "distance_elbow_joint": 1.5852895519631818,
        "distance_shoulder_lift_joint": 0.4603162082292369,
        "distance_shoulder_pan_joint": 0.33143836021178197,
        "distance_wrist_1_joint": 2.9816897629833643,
        "distance_wrist_2_joint": 2.7156668925670706,
        "distance_wrist_3_joint": 3.1336722350391533,
        "smoothness": 0.2672361673157856,
        "time": 0.090062823,
        "traj_len": 3.347846025580296,
        "weighted_distance": 4.813810770753513
    },
    "planner": "BiTRRT",
    "start": {
        "state": {
            "elbow_joint": 1.664937868594044,
            "shoulder_lift_joint": -0.661644460510453,
            "shoulder_pan_joint": -0.9139846352900073,
            "wrist_1_joint": 2.146753192139373,
            "wrist_2_joint": -2.2341966793290973,
            "wrist_3_joint": 0.005466555786416001
        }
    },
    "waypoints": [
        {
            "positions": [
                -0.9139846352900073,
                -0.661644460510453,
                1.664937868594044,
                2.146753192139373,
                -2.2341966793290973,
                0.005466555786416001
            ]
        },
        {
            "positions": [
                -0.8388089995520684,
                -0.7412412931329257,
                1.7079523864124977,
                2.089805224668239,
                -2.2347660408267567,
                0.09831100203242428
            ]
        },
        {
            "positions": [
                -0.8414924162615225,
                -0.766626797018847,
                1.6307986479659666,
                1.9928502158903574,
                -2.1131967510674485,
                0.16253374049227243
            ]
        },
        {
            "positions": [
                -0.8441758329709764,
                -0.792012300904768,
                1.5536449095194356,
                1.8958952071124762,
                -1.9916274613081404,
                0.2267564789521206
            ]
        },
        {
            "positions": [
                -0.8468592496804304,
                -0.8173978047906891,
                1.4764911710729045,
                1.798940198334595,
                -1.8700581715488325,
                0.2909792174119687
            ]
        },
        {
            "positions": [
                -0.8495426663898844,
                -0.8427833086766103,
                1.3993374326263734,
                1.7019851895567135,
                -1.7484888817895243,
                0.35520195587181685
            ]
        },
        {
            "positions": [
                -0.8522260830993384,
                -0.8681688125625315,
                1.3221836941798424,
                1.605030180778832,
                -1.6269195920302162,
                0.419424694331665
            ]
        },
        {
            "positions": [
                -0.8549094998087924,
                -0.8935543164484526,
                1.245029955733311,
                1.5080751720009509,
                -1.5053503022709083,
                0.4836474327915131
            ]
        },
        {
            "positions": [
                -0.8575929165182463,
                -0.9189398203343737,
                1.16787621728678,
                1.4111201632230697,
                -1.3837810125116001,
                0.5478701712513613
            ]
        },
        {
            "positions": [
                -0.8602763332277004,
                -0.9443253242202949,
                1.090722478840249,
                1.3141651544451882,
                -1.262211722752292,
                0.6120929097112094
            ]
        },
        {
            "positions": [
                -0.8720161027676109,
                -0.9532070914462647,
                1.136974735168873,
                1.2067100681807292,
                -1.1750845621025447,
                0.7384452037669275
            ]
        },
        {
            "positions": [
                -0.8837558723075215,
                -0.9620888586722344,
                1.1832269914974969,
                1.0992549819162702,
                -1.0879574014527975,
                0.8647974978226454
            ]
        },
        {
            "positions": [
                -0.895495641847432,
                -0.9709706258982042,
                1.229479247826121,
                0.9917998956518115,
                -1.00083024080305,
                0.9911497918783634
            ]
        },
        {
            "positions": [
                -0.9072354113873426,
                -0.9798523931241739,
                1.2757315041547448,
                0.8843448093873525,
                -0.9137030801533028,
                1.1175020859340814
            ]
        },
        {
            "positions": [
                -0.9189751809272532,
                -0.9887341603501436,
                1.3219837604833689,
                0.7768897231228936,
                -0.8265759195035556,
                1.2438543799897994
            ]
        },
        {
            "positions": [
                -0.9307149504671637,
                -0.9976159275761134,
                1.3682360168119927,
                0.6694346368584347,
                -0.7394487588538083,
                1.3702066740455172
            ]
        },
        {
            "positions": [
                -0.9424547200070743,
                -1.0064976948020832,
                1.4144882731406168,
                0.5619795505939759,
                -0.6523215982040611,
                1.4965589681012352
            ]
        },
        {
            "positions": [
                -0.9541944895469848,
                -1.015379462028053,
                1.4607405294692408,
                0.45452446432951676,
                -0.5651944375543138,
                1.6229112621569532
            ]
        },
        {
            "positions": [
                -0.9659342590868955,
                -1.0242612292540227,
                1.5069927857978647,
                0.3470693780650579,
                -0.4780672769045665,
                1.749263556212671
            ]
        },
        {
            "positions": [
                -0.977674028626806,
                -1.0331429964799925,
                1.5532450421264885,
                0.239614291800599,
                -0.3909401162548193,
                1.8756158502683893
            ]
        },
        {
            "positions": [
                -0.9894137981667166,
                -1.042024763705962,
                1.5994972984551126,
                0.13215920553614002,
                -0.30381295560507193,
                2.001968144324107
            ]
        },
        {
            "positions": [
                -1.001153567706627,
                -1.0509065309319319,
                1.6457495547837366,
                0.024704119271681257,
                -0.2166857949553247,
                2.128320438379825
            ]
        },
        {
            "positions": [
                -1.0128933372465376,
                -1.0597882981579017,
                1.6920018111123605,
                -0.08275096699277773,
                -0.12955863430557746,
                2.254672732435543
            ]
        },
        {
            "positions": [
                -1.0246331067864483,
                -1.0686700653838714,
                1.7382540674409843,
                -0.1902060532572365,
                -0.04243147365583022,
                2.381025026491261
            ]
        },
        {
            "positions": [
                -1.0363728763263587,
                -1.0775518326098412,
                1.7845063237696084,
                -0.2976611395216957,
                0.044695686993917016,
                2.507377320546979
            ]
        },
        {
            "positions": [
                -1.0481126458662693,
                -1.086433599835811,
                1.8307585800982324,
                -0.4051162257861547,
                0.13182284764366448,
                2.6337296146026974
            ]
        },
        {
            "positions": [
                -1.05985241540618,
                -1.0953153670617806,
                1.8770108364268565,
                -0.5125713120506135,
                0.2189500082934115,
                2.760081908658415
            ]
        },
        {
            "positions": [
                -1.0715921849460905,
                -1.1041971342877503,
                1.9232630927554804,
                -0.6200263983150724,
                0.30607716894315895,
                2.886434202714133
            ]
        },
        {
            "positions": [
                -1.083331954486001,
                -1.1130789015137201,
                1.9695153490841042,
                -0.7274814845795312,
                0.3932043295929062,
                3.0127864967698508
            ]
        },
        {
            "positions": [
                -1.0950717240259116,
                -1.12196066873969,
                2.0157676054127283,
                -0.8349365708439901,
                0.4803314902426534,
                3.139138790825569
            ]
        }
    ]
}