{
    "goal": {
        "global_pose": {
            "orientation": {
                "w": -0.00223480608172531,
                "x": 0.0024358444001904467,
                "y": 0.7094548369677653,
                "z": -0.704743149386269
            },
            "position": {
                "x": -0.37947507619857795,
                "y": -0.6371506643295288,
                "z": 0.19426114857196808
            }
        },
        "name": "move_to_magneteinheit_C"
    },
    "id": "BiTRRT_move_to_magneteinheit_C_67",
    "joint_names": [
        "shoulder_pan_joint",
        "shoulder_lift_joint",
        "elbow_joint",
        "wrist_1_joint",
        "wrist_2_joint",
        "wrist_3_joint"
    ],
    "metrics": {
        "cart_traj_len": 2.1218785456952753,
        "distance_elbow_joint": 2.1734037107180146,
        "distance_shoulder_lift_joint": 0.8188010470879534,
        "distance_shoulder_pan_joint": 1.2103819112558696,
        "distance_wrist_1_joint": 1.0264113749426667,
        "distance_wrist_2_joint": 0.848281819653025,
        "distance_wrist_3_joint": 2.756924123635869,
        "smoothness": 0.813788333317549,
        "time": 0.10436957399999999,
        "traj_len": 2.972238884627781,
        "weighted_distance": 4.02774694204599
    },
    "planner": "BiTRRT",
    "start": {
        "state": {
            "elbow_joint": 1.9565354010623817,
            "shoulder_lift_joint": -1.4165861575791021,
            "shoulder_pan_joint": -1.6717766225146293,
            "wrist_1_joint": -0.5286633292919765,
            "wrist_2_joint": 1.472756589071564,
            "wrist_3_joint": -3.1238370188695823
        }
    },
    "waypoints": [
        {
            "positions": [
                -1.6717766225146293,
                -1.4165861575791021,
                1.9565354010623817,
                -0.5286633292919765,
                1.472756589071564,
                -3.1238370188695823
            ]
        },
        {
            "positions": [
                -1.608272597635216,
                -1.4080846698860106,
                1.9315677487106573,
                -0.4915188255253165,
                1.4559413599542446,
                -3.015795173150996
            ]
        },
        {
            "positions": [
                -1.5447685727558027,
                -1.399583182192919,
                1.9066000963589327,
                -0.45437432175865655,
                1.4391261308369252,
                -2.9077533274324097
            ]
        },
        {
            "positions": [
                -1.5261517992730007,
                -1.4159205106496822,
                1.8185867044881052,
                -0.4098073610085174,
                1.4476166044352639,
                -2.781800062265458
            ]
        },
        {
            "positions": [
                -1.507535025790199,
                -1.432257839106445,
                1.730573312617278,
                -0.3652404002583783,
                1.4561070780336025,
                -2.6558467970985062
            ]
        },
        {
            "positions": [
                -1.488918252307397,
                -1.4485951675632083,
                1.6425599207464505,
                -0.3206734395082391,
                1.4645975516319412,
                -2.5298935319315548
            ]
        },
        {
            "positions": [
                -1.5362669610298427,
                -1.446684099892366,
                1.5015261693993538,
                -0.31273074934086786,
                1.4385672431058971,
                -2.4086087284522986
            ]
        },
        {
            "positions": [
                -1.5836156697522883,
                -1.4447730322215238,
                1.360492418052257,
                -0.3047880591734966,
                1.4125369345798529,
                -2.2873239249730424
            ]
        },
        {
            "positions": [
                -1.6306223832413467,
                -1.4299949307636455,
                1.2954738299232649,
                -0.3221323845731587,
                1.3814209503965436,
                -2.2365036893956622
            ]
        },
        {
            "positions": [
                -1.718813800924557,
                -1.385767682484988,
                1.238642703234335,
                -0.3858907088929311,
                1.3172079444533067,
                -2.1674775128399397
            ]
        },
        {
            "positions": [
                -1.8070052186077672,
                -1.3415404342063304,
                1.1818115765454051,
                -0.4496490332127035,
                1.2529949385100698,
                -2.098451336284217
            ]
        },
        {
            "positions": [
                -1.8951966362909776,
                -1.297313185927673,
                1.1249804498564753,
                -0.5134073575324759,
                1.1887819325668332,
                -2.0294251597284947
            ]
        },
        {
            "positions": [
                -1.9833880539741877,
                -1.2530859376490153,
                1.0681493231675452,
                -0.5771656818522484,
                1.1245689266235963,
                -1.9603989831727724
            ]
        },
        {
            "positions": [
                -2.0715794716573983,
                -1.208858689370358,
                1.0113181964786153,
                -0.6409240061720207,
                1.0603559206803594,
                -1.89137280661705
            ]
        },
        {
            "positions": [
                -2.1597708893406082,
                -1.1646314410917005,
                0.9544870697896854,
                -0.7046823304917931,
                0.9961429147371226,
                -1.8223466300613276
            ]
        },
        {
            "positions": [
                -2.2479623070238186,
                -1.1204041928130428,
                0.8976559431007556,
                -0.7684406548115655,
                0.9319299087938857,
                -1.753320453505605
            ]
        },
        {
            "positions": [
                -2.2928724506178497,
                -1.082263214457043,
                1.0025257896290642,
                -0.8097188757357044,
                0.907229669309729,
                -1.827928582639742
            ]
        },
        {
            "positions": [
                -2.337782594211881,
                -1.0441222361010434,
                1.107395636157373,
                -0.8509970966598435,
                0.8825294298255725,
                -1.902536711773879
            ]
        },
        {
            "positions": [
                -2.3826927378059115,
                -1.0059812577450435,
                1.2122654826856816,
                -0.8922753175839824,
                0.8578291903414158,
                -1.9771448409080157
            ]
        },
        {
            "positions": [
                -2.4276028813999426,
                -0.9678402793890438,
                1.3171353292139902,
                -0.9335535385081213,
                0.8331289508572592,
                -2.051752970042153
            ]
        },
        {
            "positions": [
                -2.4725130249939737,
                -0.9296993010330441,
                1.422005175742299,
                -0.9748317594322602,
                0.8084287113731026,
                -2.1263610991762896
            ]
        },
        {
            "positions": [
                -2.4782642552037144,
                -0.9530796946995139,
                1.527211248953913,
                -0.9556169089661928,
                0.7925702238739791,
                -2.287137722521237
            ]
        },
        {
            "positions": [
                -2.484015485413455,
                -0.9764600883659837,
                1.632417322165527,
                -0.9364020585001254,
                0.7767117363748557,
                -2.447914345866184
            ]
        },
        {
            "positions": [
                -2.4897667156231957,
                -0.9998404820324536,
                1.737623395377141,
                -0.9171872080340578,
                0.7608532488757322,
                -2.608690969211131
            ]
        },
        {
            "positions": [
                -2.4955179458329364,
                -1.0232208756989234,
                1.842829468588755,
                -0.8979723575679904,
                0.7449947613766088,
                -2.7694675925560786
            ]
        },
        {
            "positions": [
                -2.488543329991904,
                -1.0700104240774027,
                1.8992797110115516,
                -0.8794280233342726,
                0.7218023779205962,
                -2.8928877322965514
            ]
        },
        {
            "positions": [
                -2.481568714150871,
                -1.1167999724558817,
                1.955729953434348,
                -0.8608836891005547,
                0.6986099944645835,
                -3.0163078720370238
            ]
        },
        {
            "positions": [
                -2.4745940983098387,
                -1.163589520834361,
                2.0121801958571446,
                -0.8423393548668369,
                0.6754176110085709,
                -3.1397280117774966
            ]
        }
    ]
}