{
    "goal": {
        "global_pose": {
            "orientation": {
                "w": 0.7047431468963623,
                "x": -0.7094548344612122,
                "y": 0.0024358443915843964,
                "z": -0.0022348060738295317
            },
            "position": {
                "x": 0.6094750761985779,
                "y": 0.3671506643295288,
                "z": 0.19426114857196808
            }
        },
        "name": "move_to_magneteinheit_A"
    },
    "id": "BiTRRT_move_to_magneteinheit_A_81",
    "joint_names": [
        "shoulder_pan_joint",
        "shoulder_lift_joint",
        "elbow_joint",
        "wrist_1_joint",
        "wrist_2_joint",
        "wrist_3_joint"
    ],
    "metrics": {
        "cart_traj_len": 3.980753117744014,
        "distance_elbow_joint": 4.003446100340211,
        "distance_shoulder_lift_joint": 1.00346719551662,
        "distance_shoulder_pan_joint": 3.45433774881184,
        "distance_wrist_1_joint": 1.9592270884676515,
        "distance_wrist_2_joint": 1.6959422225761,
        "distance_wrist_3_joint": 2.6235332314697004,
        "smoothness": 0.34529385976685534,
        "time": 0.105884555,
        "traj_len": 3.839264719602196,
        "weighted_distance": 4.86232345295593
    },
    "planner": "BiTRRT",
    "start": {
        "state": {
            "elbow_joint": -1.9196185241190666,
            "shoulder_lift_joint": -1.2443396400964142,
            "shoulder_pan_joint": 2.6996025414629847,
            "wrist_1_joint": -1.5485510000780065,
            "wrist_2_joint": -1.5709468930060704,
            "wrist_3_joint": 0.4420197071253992
        }
    },
    "waypoints": [
        {
            "positions": [
                2.6996025414629847,
                -1.2443396400964142,
                -1.9196185241190666,
                -1.5485510000780065,
                -1.5709468930060704,
                0.4420197071253992
            ]
        },
        {
            "positions": [
                2.5808404429858376,
                -1.224713285309289,
                -1.8143416279138314,
                -1.5214159201788051,
                -1.5153323799965335,
                0.49671704960465046
            ]
        },
        {
            "positions": [
                2.4620783445086905,
                -1.2050869305221639,
                -1.7090647317085963,
                -1.4942808402796037,
                -1.4597178669869966,
                0.5514143920839017
            ]
        },
        {
            "positions": [
                2.3433162460315433,
                -1.1854605757350387,
                -1.603787835503361,
                -1.4671457603804023,
                -1.4041033539774594,
                0.606111734563153
            ]
        },
        {
            "positions": [
                2.224554147554396,
                -1.1658342209479133,
                -1.498510939298126,
                -1.440010680481201,
                -1.3484888409679225,
                0.6608090770424043
            ]
        },
        {
            "positions": [
                2.105792049077249,
                -1.1462078661607882,
                -1.3932340430928907,
                -1.4128756005819996,
                -1.2928743279583856,
                0.7155064195216556
            ]
        },
        {
            "positions": [
                1.987029950600102,
                -1.126581511373663,
                -1.2879571468876554,
                -1.3857405206827982,
                -1.2372598149488487,
                0.7702037620009068
            ]
        },
        {
            "positions": [
                1.8682678521229548,
                -1.1069551565865379,
                -1.18268025068242,
                -1.3586054407835966,
                -1.1816453019393118,
                0.8249011044801582
            ]
        },
        {
            "positions": [
                1.7495057536458076,
                -1.0873288017994127,
                -1.077403354477185,
                -1.3314703608843952,
                -1.126030788929775,
                0.8795984469594094
            ]
        },
        {
            "positions": [
                1.6307436551686605,
                -1.0677024470122876,
                -0.9721264582719498,
                -1.3043352809851938,
                -1.0704162759202378,
                0.9342957894386608
            ]
        },
        {
            "positions": [
                1.5119815566915134,
                -1.0480760922251624,
                -0.8668495620667147,
                -1.2772002010859924,
                -1.0148017629107011,
                0.9889931319179119
            ]
        },
        {
            "positions": [
                1.3932194582143662,
                -1.028449737438037,
                -0.7615726658614794,
                -1.250065121186791,
                -0.959187249901164,
                1.0436904743971631
            ]
        },
        {
            "positions": [
                1.274457359737219,
                -1.0088233826509119,
                -0.6562957696562444,
                -1.2229300412875896,
                -0.9035727368916271,
                1.0983878168764143
            ]
        },
        {
            "positions": [
                1.155695261260072,
                -0.9891970278637867,
                -0.5510188734510089,
                -1.1957949613883883,
                -0.8479582238820901,
                1.153085159355666
            ]
        },
        {
            "positions": [
                1.0369331627829248,
                -0.9695706730766616,
                -0.4457419772457738,
                -1.1686598814891869,
                -0.7923437108725532,
                1.207782501834917
            ]
        },
        {
            "positions": [
                0.9181710643057779,
                -0.9499443182895364,
                -0.34046508104053874,
                -1.1415248015899855,
                -0.7367291978630163,
                1.2624798443141683
            ]
        },
        {
            "positions": [
                0.7994089658286305,
                -0.9303179635024112,
                -0.23518818483530346,
                -1.114389721690784,
                -0.6811146848534793,
                1.3171771867934197
            ]
        },
        {
            "positions": [
                0.6806468673514834,
                -0.9106916087152861,
                -0.12991128863006818,
                -1.0872546417915827,
                -0.6255001718439424,
                1.3718745292726708
            ]
        },
        {
            "positions": [
                0.5618847688743362,
                -0.8910652539281608,
                -0.024634392424832896,
                -1.0601195618923813,
                -0.5698856588344052,
                1.4265718717519222
            ]
        },
        {
            "positions": [
                0.4431226703971891,
                -0.8714388991410357,
                0.08064250378040239,
                -1.03298448199318,
                -0.5142711458248683,
                1.4812692142311734
            ]
        },
        {
            "positions": [
                0.324360571920042,
                -0.8518125443539104,
                0.18591939998563722,
                -1.0058494020939786,
                -0.45865663281533164,
                1.5359665567104246
            ]
        },
        {
            "positions": [
                0.20559847344289484,
                -0.8321861895667853,
                0.2911962961908725,
                -0.978714322194777,
                -0.4030421198057945,
                1.5906638991896762
            ]
        },
        {
            "positions": [
                0.08683637496574786,
                -0.8125598347796601,
                0.396473192396108,
                -0.9515792422955757,
                -0.3474276067962577,
                1.6453612416689274
            ]
        },
        {
            "positions": [
                0.053244629161480775,
                -0.8498727748972082,
                0.5322280492885221,
                -0.8868761102192239,
                -0.3337180743816488,
                1.7252531163867673
            ]
        },
        {
            "positions": [
                0.019652883357213685,
                -0.8871857150147564,
                0.667982906180936,
                -0.8221729781428719,
                -0.3200085419670399,
                1.8051449911046074
            ]
        },
        {
            "positions": [
                -0.013938862447053404,
                -0.9244986551323047,
                0.80373776307335,
                -0.7574698460665201,
                -0.30629900955243095,
                1.8850368658224472
            ]
        },
        {
            "positions": [
                -0.047530608251320494,
                -0.9618115952498527,
                0.939492619965764,
                -0.6927667139901683,
                -0.292589477137822,
                1.964928740540287
            ]
        },
        {
            "positions": [
                -0.0811223540555876,
                -0.999124535367401,
                1.0752474768581781,
                -0.6280635819138164,
                -0.2788799447232131,
                2.044820615258127
            ]
        },
        {
            "positions": [
                -0.11471409985985467,
                -1.036437475484949,
                1.2110023337505922,
                -0.5633604498374645,
                -0.26517041230860416,
                2.124712489975967
            ]
        },
        {
            "positions": [
                -0.14830584566412178,
                -1.0737504156024973,
                1.346757190643006,
                -0.49865731776111266,
                -0.25146087989399524,
                2.204604364693807
            ]
        },
        {
            "positions": [
                -0.18189759146838885,
                -1.1110633557200456,
                1.48251204753542,
                -0.43395418568476085,
                -0.2377513474793863,
                2.284496239411647
            ]
        },
        {
            "positions": [
                -0.21548933727265596,
                -1.1483762958375936,
                1.6182669044278342,
                -0.36925105360840893,
                -0.22404181506477738,
                2.364388114129487
            ]
        },
        {
            "positions": [
                -0.24908108307692306,
                -1.1856892359551419,
                1.7540217613202482,
                -0.3045479215320571,
                -0.21033228265016846,
                2.444279988847327
            ]
        },
        {
            "positions": [
                -0.2826728288811901,
                -1.22300217607269,
                1.889776618212662,
                -0.2398447894557053,
                -0.19662275023555953,
                2.524171863565167
            ]
        },
        {
            "positions": [
                -0.3162645746854572,
                -1.2603151161902382,
                2.025531475105076,
                -0.1751416573793534,
                -0.1829132178209506,
                2.6040637382830067
            ]
        },
        {
            "positions": [
                -0.22857044815277766,
                -1.2355286944323807,
                2.0138722548818624,
                -0.2923052065331531,
                -0.12133150834275433,
                2.6963615783454253
            ]
        },
        {
            "positions": [
                -0.1408763216200981,
                -1.2107422726745232,
                2.002213034658649,
                -0.40946875568695285,
                -0.05974979886455804,
                2.788659418407844
            ]
        },
        {
            "positions": [
                -0.05318219508741856,
                -1.1859558509166654,
                1.9905538144354353,
                -0.5266323048407525,
                0.0018319106136382157,
                2.8809572584702625
            ]
        },
        {
            "positions": [
                0.03451193144526099,
                -1.161169429158808,
                1.9788945942122216,
                -0.6437958539945523,
                0.06341362009183452,
                2.973255098532681
            ]
        },
        {
            "positions": [
                0.12220605797794055,
                -1.1363830074009504,
                1.967235373989008,
                -0.760959403148352,
                0.12499532957003077,
                3.0655529385950997
            ]
        }
    ]
}