{
    "goal": {
        "global_pose": {
            "orientation": {
                "w": -0.00223480608172531,
                "x": 0.0024358444001904467,
                "y": 0.7094548369677653,
                "z": -0.704743149386269
            },
            "position": {
                "x": -0.37947507619857795,
                "y": -0.6371506643295288,
                "z": 0.19426114857196808
            }
        },
        "name": "move_to_magneteinheit_C"
    },
    "id": "BiTRRT_move_to_magneteinheit_C_87",
    "joint_names": [
        "shoulder_pan_joint",
        "shoulder_lift_joint",
        "elbow_joint",
        "wrist_1_joint",
        "wrist_2_joint",
        "wrist_3_joint"
    ],
    "metrics": {
        "cart_traj_len": 3.516942947893755,
        "distance_elbow_joint": 2.0357339236710574,
        "distance_shoulder_lift_joint": 0.8782909441560831,
        "distance_shoulder_pan_joint": 2.871285420798596,
        "distance_wrist_1_joint": 1.420954786145174,
        "distance_wrist_2_joint": 1.467338496343282,
        "distance_wrist_3_joint": 3.304098715334275,
        "smoothness": 1.2641620070824837,
        "time": 0.092901645,
        "traj_len": 3.460881720956159,
        "weighted_distance": 4.634025571747039
    },
    "planner": "BiTRRT",
    "start": {
        "state": {
            "elbow_joint": 1.9565354010623817,
            "shoulder_lift_joint": -1.4165861575791021,
            "shoulder_pan_joint": -1.6717766225146293,
            "wrist_1_joint": -0.5286633292919765,
            "wrist_2_joint": 1.472756589071564,
            "wrist_3_joint": -3.1238370188695823
        }
    },
    "waypoints": [
        {
            "positions": [
                -1.6717766225146293,
                -1.4165861575791021,
                1.9565354010623817,
                -0.5286633292919765,
                1.472756589071564,
                -3.1238370188695823
            ]
        },
        {
            "positions": [
                -1.5718439911304463,
                -1.3745720396862982,
                1.9307025824179733,
                -0.4816611320048629,
                1.4491768117302748,
                -3.029021286387153
            ]
        },
        {
            "positions": [
                -1.4719113597462632,
                -1.3325579217934942,
                1.904869763773565,
                -0.4346589347177493,
                1.4255970343889857,
                -2.9342055539047234
            ]
        },
        {
            "positions": [
                -1.3719787283620803,
                -1.29054380390069,
                1.8790369451291569,
                -0.38765673743063567,
                1.4020172570476968,
                -2.839389821422294
            ]
        },
        {
            "positions": [
                -1.2720460969778973,
                -1.248529686007886,
                1.8532041264847485,
                -0.3406545401435221,
                1.3784374797064076,
                -2.7445740889398644
            ]
        },
        {
            "positions": [
                -1.1721134655937142,
                -1.206515568115082,
                1.8273713078403402,
                -0.2936523428564085,
                1.3548577023651185,
                -2.649758356457435
            ]
        },
        {
            "positions": [
                -1.149797633152595,
                -1.206733869044657,
                1.7235070163998802,
                -0.27783244709946964,
                1.206162618592803,
                -2.559367132786796
            ]
        },
        {
            "positions": [
                -1.1274818007114757,
                -1.2069521699742316,
                1.6196427249594203,
                -0.2620125513425308,
                1.0574675348204874,
                -2.4689759091161574
            ]
        },
        {
            "positions": [
                -1.1051659682703563,
                -1.2071704709038065,
                1.5157784335189604,
                -0.24619265558559195,
                0.9087724510481721,
                -2.378584685445519
            ]
        },
        {
            "positions": [
                -1.082850135829237,
                -1.2073887718333811,
                1.4119141420785002,
                -0.23037275982865307,
                0.7600773672758565,
                -2.2881934617748803
            ]
        },
        {
            "positions": [
                -1.0605343033881178,
                -1.207607072762956,
                1.3080498506380402,
                -0.21455286407171423,
                0.6113822835035411,
                -2.1978022381042415
            ]
        },
        {
            "positions": [
                -0.9955316608505813,
                -1.1948977954363016,
                1.1943671560759248,
                -0.28327004280802603,
                0.6357937569852249,
                -2.302979824236147
            ]
        },
        {
            "positions": [
                -0.9305290183130448,
                -1.1821885181096474,
                1.0806844615138094,
                -0.35198722154433787,
                0.6602052304669086,
                -2.408157410368053
            ]
        },
        {
            "positions": [
                -0.8655263757755083,
                -1.169479240782993,
                0.9670017669516939,
                -0.4207044002806497,
                0.6846167039485924,
                -2.5133349964999585
            ]
        },
        {
            "positions": [
                -1.0365697721313014,
                -1.1745948757207132,
                0.9751506828455417,
                -0.47115103446979284,
                0.6505384327787478,
                -2.4231977561178075
            ]
        },
        {
            "positions": [
                -1.2076131684870945,
                -1.1797105106584334,
                0.9832995987393895,
                -0.521597668658936,
                0.6164601616089032,
                -2.3330605157356565
            ]
        },
        {
            "positions": [
                -1.378656564842888,
                -1.1848261455961533,
                0.9914485146332375,
                -0.5720443028480792,
                0.5823818904390585,
                -2.2429232753535056
            ]
        },
        {
            "positions": [
                -1.549699961198681,
                -1.1899417805338734,
                0.9995974305270853,
                -0.6224909370372222,
                0.5483036192692139,
                -2.152786034971354
            ]
        },
        {
            "positions": [
                -1.7207433575544742,
                -1.1950574154715936,
                1.007746346420933,
                -0.6729375712263654,
                0.5142253480993693,
                -2.062648794589203
            ]
        },
        {
            "positions": [
                -1.8917867539102673,
                -1.2001730504093135,
                1.015895262314781,
                -0.7233842054155086,
                0.4801470769295246,
                -1.9725115542070522
            ]
        },
        {
            "positions": [
                -2.0628301502660604,
                -1.2052886853470337,
                1.0240441782086287,
                -0.7738308396046518,
                0.44606880575967994,
                -1.8823743138249012
            ]
        },
        {
            "positions": [
                -2.2338735466218536,
                -1.2104043202847539,
                1.0321930941024766,
                -0.8242774737937949,
                0.4119905345898353,
                -1.79223707344275
            ]
        },
        {
            "positions": [
                -2.3089789968121193,
                -1.1806638097742221,
                1.0702465957959808,
                -0.891136687756498,
                0.4154411985256306,
                -1.8436173730222751
            ]
        },
        {
            "positions": [
                -2.3840844470023854,
                -1.1509232992636902,
                1.108300097489485,
                -0.9579959017192012,
                0.41889186246142596,
                -1.8949976726018003
            ]
        },
        {
            "positions": [
                -2.459189897192651,
                -1.1211827887531585,
                1.1463535991829892,
                -1.0248551156819043,
                0.42234252639722125,
                -1.9463779721813255
            ]
        },
        {
            "positions": [
                -2.4996265868955505,
                -1.0830928782884874,
                1.212268690665342,
                -1.0352093522560768,
                0.449682908079261,
                -2.1037176878375585
            ]
        },
        {
            "positions": [
                -2.54006327659845,
                -1.0450029678238164,
                1.2781837821476947,
                -1.0455635888302495,
                0.47702328976130065,
                -2.2610574034937914
            ]
        },
        {
            "positions": [
                -2.5804999663013493,
                -1.0069130573591454,
                1.3440988736300474,
                -1.055917825404422,
                0.5043636714433404,
                -2.418397119150024
            ]
        },
        {
            "positions": [
                -2.6209366560042486,
                -0.9688231468944742,
                1.4100139651124002,
                -1.0662720619785944,
                0.53170405312538,
                -2.575736834806257
            ]
        },
        {
            "positions": [
                -2.661373345707148,
                -0.9307332364298031,
                1.475929056594753,
                -1.076626298552767,
                0.5590444348074198,
                -2.7330765504624903
            ]
        },
        {
            "positions": [
                -2.7018100354100474,
                -0.8926433259651321,
                1.5418441480771057,
                -1.0869805351269395,
                0.5863848164894595,
                -2.890416266118723
            ]
        },
        {
            "positions": [
                -2.647496539398504,
                -0.944569582044255,
                1.6446103057975643,
                -1.0441184604249,
                0.6066460461516067,
                -2.927131763165364
            ]
        },
        {
            "positions": [
                -2.593183043386961,
                -0.996495838123378,
                1.7473764635180227,
                -1.0012563857228607,
                0.6269072758137538,
                -2.9638472602120047
            ]
        },
        {
            "positions": [
                -2.538869547375418,
                -1.048422094202501,
                1.8501426212384813,
                -0.9583943110208214,
                0.647168505475901,
                -3.0005627572586455
            ]
        },
        {
            "positions": [
                -2.4845560513638745,
                -1.100348350281624,
                1.9529087789589399,
                -0.915532236318782,
                0.6674297351380482,
                -3.0372782543052863
            ]
        },
        {
            "positions": [
                -2.473058520985112,
                -1.1629582702079757,
                2.013202056512064,
                -0.8525638852572529,
                0.6720941355612858,
                -3.1336703265587587
            ]
        }
    ]
}