{
    "goal": {
        "global_pose": {
            "orientation": {
                "w": 0.005598929693374612,
                "x": 0.007748599140229565,
                "y": 0.7110244013736278,
                "z": -0.7031023480610252
            },
            "position": {
                "x": -0.8858502320852131,
                "y": -0.7141253447532654,
                "z": 0.3711530566215515
            }
        },
        "name": "move_to_auspresseinheit_C"
    },
    "id": "BiTRRT_move_to_auspresseinheit_C_49",
    "joint_names": [
        "shoulder_pan_joint",
        "shoulder_lift_joint",
        "elbow_joint",
        "wrist_1_joint",
        "wrist_2_joint",
        "wrist_3_joint"
    ],
    "metrics": {
        "cart_traj_len": 0.49263284077379543,
        "distance_elbow_joint": 0.9975343516974329,
        "distance_shoulder_lift_joint": 0.324519756804147,
        "distance_shoulder_pan_joint": 0.2558369119502686,
        "distance_wrist_1_joint": 0.66810346621671,
        "distance_wrist_2_joint": 1.3199933534112496,
        "distance_wrist_3_joint": 0.042682117335562264,
        "smoothness": 4.844609574787718e-16,
        "time": 0.045656428,
        "traj_len": 1.8996499565486717,
        "weighted_distance": 2.383722091963418
    },
    "planner": "BiTRRT",
    "start": {
        "state": {
            "elbow_joint": 1.7527959577737207,
            "shoulder_lift_joint": -0.9740617694225068,
            "shoulder_pan_joint": -2.967991417825858,
            "wrist_1_joint": -0.759517768980727,
            "wrist_2_joint": 1.7443932448377408,
            "wrist_3_joint": -3.0840537646736568
        }
    },
    "waypoints": [
        {
            "positions": [
                -2.967991417825858,
                -0.9740617694225068,
                1.7527959577737207,
                -0.759517768980727,
                1.7443932448377408,
                -3.0840537646736568
            ]
        },
        {
            "positions": [
                -2.9424077266308313,
                -0.9416097937420921,
                1.6530425226039773,
                -0.692707422359056,
                1.6123939094966158,
                -3.088321976407213
            ]
        },
        {
            "positions": [
                -2.916824035435804,
                -0.9091578180616774,
                1.553289087434234,
                -0.625897075737385,
                1.480394574155491,
                -3.092590188140769
            ]
        },
        {
            "positions": [
                -2.8912403442407775,
                -0.8767058423812627,
                1.4535356522644909,
                -0.559086729115714,
                1.348395238814366,
                -3.0968583998743253
            ]
        },
        {
            "positions": [
                -2.8656566530457503,
                -0.8442538667008479,
                1.3537822170947476,
                -0.492276382494043,
                1.216395903473241,
                -3.1011266116078815
            ]
        },
        {
            "positions": [
                -2.8400729618507237,
                -0.8118018910204332,
                1.2540287819250042,
                -0.425466035872372,
                1.084396568132116,
                -3.105394823341438
            ]
        },
        {
            "positions": [
                -2.814489270655697,
                -0.7793499153400185,
                1.1542753467552611,
                -0.35865568925070096,
                0.9523972327909911,
                -3.1096630350749943
            ]
        },
        {
            "positions": [
                -2.78890557946067,
                -0.7468979396596038,
                1.0545219115855176,
                -0.29184534262903,
                0.8203978974498662,
                -3.1139312468085505
            ]
        },
        {
            "positions": [
                -2.763321888265643,
                -0.7144459639791891,
                0.9547684764157743,
                -0.225034996007359,
                0.6883985621087412,
                -3.1181994585421067
            ]
        },
        {
            "positions": [
                -2.737738197070616,
                -0.6819939882987744,
                0.855015041246031,
                -0.15822464938568792,
                0.5563992267676161,
                -3.122467670275663
            ]
        },
        {
            "positions": [
                -2.7121545058755894,
                -0.6495420126183598,
                0.7552616060762878,
                -0.091414302764017,
                0.4243998914264912,
                -3.126735882009219
            ]
        }
    ]
}