{
    "goal": {
        "global_pose": {
            "orientation": {
                "w": -0.4816463035849501,
                "x": 0.5182115481033762,
                "y": 0.4908360881923453,
                "z": -0.5084816262002911
            },
            "position": {
                "x": -0.8240239810943604,
                "y": 0.19912469901144506,
                "z": 0.16403168439865112
            }
        },
        "name": "move_to_storage_D"
    },
    "id": "BiTRRT_move_to_storage_D_133",
    "joint_names": [
        "shoulder_pan_joint",
        "shoulder_lift_joint",
        "elbow_joint",
        "wrist_1_joint",
        "wrist_2_joint",
        "wrist_3_joint"
    ],
    "metrics": {
        "cart_traj_len": 0.5826853794981678,
        "distance_elbow_joint": 0.5540261845163825,
        "distance_shoulder_lift_joint": 0.1519871420853729,
        "distance_shoulder_pan_joint": 0.17446164122732252,
        "distance_wrist_1_joint": 3.821068603880608,
        "distance_wrist_2_joint": 2.0008847674166272,
        "distance_wrist_3_joint": 3.1503985254701026,
        "smoothness": 0.13705804703219476,
        "time": 0.10663686,
        "traj_len": 3.1389212899651393,
        "weighted_distance": 4.687811566907725
    },
    "planner": "BiTRRT",
    "start": {
        "state": {
            "elbow_joint": -2.384821988534728,
            "shoulder_lift_joint": -2.2788054721415256,
            "shoulder_pan_joint": -0.1854694642142757,
            "wrist_1_joint": 1.4845938289331202,
            "wrist_2_joint": 0.17898776772866878,
            "wrist_3_joint": 0.037105688729662994
        }
    },
    "waypoints": [
        {
            "positions": [
                -0.1854694642142757,
                -2.2788054721415256,
                -2.384821988534728,
                1.4845938289331202,
                0.17898776772866878,
                0.037105688729662994
            ]
        },
        {
            "positions": [
                -0.1448467038059475,
                -2.263087953314189,
                -2.376132673701946,
                1.4632136871077794,
                0.2073040306092655,
                0.05392216437955064
            ]
        },
        {
            "positions": [
                -0.08408739127917503,
                -2.204985917674895,
                -2.3142779789663193,
                1.392422515713903,
                0.24684980448192842,
                0.0830427916669194
            ]
        },
        {
            "positions": [
                -0.02332807875240256,
                -2.146883882035601,
                -2.252423284230693,
                1.3216313443200263,
                0.28639557835459134,
                0.11216341895428816
            ]
        },
        {
            "positions": [
                -0.023863742046552523,
                -2.146011466732147,
                -2.2340916546562433,
                1.1625832521779604,
                0.2040704932767346,
                0.24587388831278717
            ]
        },
        {
            "positions": [
                -0.02439940534070249,
                -2.1451390514286923,
                -2.215760025081793,
                1.0035351600358946,
                0.12174540819887789,
                0.3795843576712862
            ]
        },
        {
            "positions": [
                -0.024935068634852453,
                -2.1442666361252383,
                -2.1974283955073433,
                0.8444870678938288,
                0.039420323121021145,
                0.5132948270297852
            ]
        },
        {
            "positions": [
                -0.02547073192900242,
                -2.1433942208217838,
                -2.1790967659328935,
                0.6854389757517629,
                -0.04290476195683557,
                0.6470052963882842
            ]
        },
        {
            "positions": [
                -0.026006395223152384,
                -2.1425218055183297,
                -2.1607651363584437,
                0.5263908836096971,
                -0.1252298470346923,
                0.7807157657467831
            ]
        },
        {
            "positions": [
                -0.02654205851730235,
                -2.141649390214875,
                -2.1424335067839935,
                0.36734279146763127,
                -0.20755493211254905,
                0.9144262351052822
            ]
        },
        {
            "positions": [
                -0.027077721811452314,
                -2.140776974911421,
                -2.1241018772095437,
                0.20829469932556544,
                -0.28988001719040585,
                1.0481367044637813
            ]
        },
        {
            "positions": [
                -0.02761338510560228,
                -2.1399045596079667,
                -2.105770247635094,
                0.0492466071834996,
                -0.3722051022682625,
                1.1818471738222802
            ]
        },
        {
            "positions": [
                -0.028149048399752245,
                -2.1390321443045126,
                -2.087438618060644,
                -0.10980148495856623,
                -0.45453018734611933,
                1.3155576431807794
            ]
        },
        {
            "positions": [
                -0.02868471169390221,
                -2.138159729001058,
                -2.069106988486194,
                -0.26884957710063206,
                -0.5368552724239759,
                1.4492681125392781
            ]
        },
        {
            "positions": [
                -0.029220374988052175,
                -2.137287313697604,
                -2.050775358911744,
                -0.4278976692426979,
                -0.6191803575018326,
                1.5829785818977773
            ]
        },
        {
            "positions": [
                -0.029756038282202142,
                -2.1364148983941496,
                -2.0324437293372943,
                -0.5869457613847637,
                -0.7015054425796894,
                1.7166890512562762
            ]
        },
        {
            "positions": [
                -0.030291701576352106,
                -2.1355424830906955,
                -2.0141120997628446,
                -0.7459938535268296,
                -0.7838305276575461,
                1.8503995206147752
            ]
        },
        {
            "positions": [
                -0.030827364870502073,
                -2.134670067787241,
                -1.9957804701883943,
                -0.9050419456688954,
                -0.8661556127354031,
                1.9841099899732744
            ]
        },
        {
            "positions": [
                -0.031363028164652036,
                -2.133797652483787,
                -1.9774488406139445,
                -1.0640900378109612,
                -0.9484806978132596,
                2.1178204593317735
            ]
        },
        {
            "positions": [
                -0.031898691458802,
                -2.1329252371803324,
                -1.9591172110394948,
                -1.223138129953027,
                -1.0308057828911164,
                2.251530928690272
            ]
        },
        {
            "positions": [
                -0.03243435475295196,
                -2.1320528218768784,
                -1.9407855814650448,
                -1.382186222095093,
                -1.113130867968973,
                2.3852413980487714
            ]
        },
        {
            "positions": [
                -0.03297001804710193,
                -2.131180406573424,
                -1.9224539518905948,
                -1.5412343142371587,
                -1.19545595304683,
                2.518951867407271
            ]
        },
        {
            "positions": [
                -0.0335056813412519,
                -2.13030799126997,
                -1.904122322316145,
                -1.7002824063792246,
                -1.2777810381246866,
                2.6526623367657693
            ]
        },
        {
            "positions": [
                -0.034041344635401864,
                -2.1294355759665153,
                -1.8857906927416952,
                -1.8593304985212904,
                -1.3601061232025433,
                2.786372806124268
            ]
        },
        {
            "positions": [
                -0.03457700792955183,
                -2.1285631606630613,
                -1.8674590631672452,
                -2.0183785906633562,
                -1.4424312082804,
                2.9200832754827672
            ]
        },
        {
            "positions": [
                -0.03511267122370179,
                -2.127690745359607,
                -1.8491274335927952,
                -2.177426682805422,
                -1.5247562933582568,
                3.0537937448412666
            ]
        },
        {
            "positions": [
                -0.03564833451785176,
                -2.1268183300561527,
                -1.8307958040183454,
                -2.336474774947488,
                -1.6070813784361135,
                3.1875042141997656
            ]
        }
    ]
}