{
    "goal": {
        "global_pose": {
            "orientation": {
                "w": 0.5084816217422485,
                "x": -0.49083608388900757,
                "y": 0.5182115435600281,
                "z": -0.4816462993621826
            },
            "position": {
                "x": 0.5540239810943604,
                "y": 0.030875300988554955,
                "z": 0.16403168439865112
            }
        },
        "name": "move_to_storage_A"
    },
    "id": "BiTRRT_move_to_storage_A_18",
    "joint_names": [
        "shoulder_pan_joint",
        "shoulder_lift_joint",
        "elbow_joint",
        "wrist_1_joint",
        "wrist_2_joint",
        "wrist_3_joint"
    ],
    "metrics": {
        "cart_traj_len": 0.3536997635568532,
        "distance_elbow_joint": 0.4491755988662913,
        "distance_shoulder_lift_joint": 0.23620402747053681,
        "distance_shoulder_pan_joint": 0.46499530318392696,
        "distance_wrist_1_joint": 0.2372818164332563,
        "distance_wrist_2_joint": 1.0899990475283725,
        "distance_wrist_3_joint": 0.09370767301483163,
        "smoothness": 2.2204460668324854e-16,
        "time": 0.036756379,
        "traj_len": 1.6035471513171091,
        "weighted_distance": 2.0214004245790855
    },
    "planner": "BiTRRT",
    "start": {
        "state": {
            "elbow_joint": 1.971548259319323,
            "shoulder_lift_joint": -1.1394851275133948,
            "shoulder_pan_joint": 0.1228115487234821,
            "wrist_1_joint": -0.7804723859257726,
            "wrist_2_joint": 0.12958671773740124,
            "wrist_3_joint": -3.192489227718131
        }
    },
    "waypoints": [
        {
            "positions": [
                0.1228115487234821,
                -1.1394851275133948,
                1.971548259319323,
                -0.7804723859257726,
                0.12958671773740124,
                -3.192489227718131
            ]
        },
        {
            "positions": [
                0.0563836482686354,
                -1.1732285600091859,
                2.0357162020145076,
                -0.8143697882733807,
                0.2853008673843116,
                -3.179102417287441
            ]
        },
        {
            "positions": [
                -0.0100442521862113,
                -1.2069719925049767,
                2.099884144709692,
                -0.8482671906209887,
                0.4410150170312219,
                -3.1657156068567507
            ]
        },
        {
            "positions": [
                -0.076472152641058,
                -1.2407154250007677,
                2.1640520874048765,
                -0.8821645929685967,
                0.5967291666781323,
                -3.1523287964260605
            ]
        },
        {
            "positions": [
                -0.1429000530959047,
                -1.2744588574965587,
                2.228220030100061,
                -0.9160619953162048,
                0.7524433163250427,
                -3.13894198599537
            ]
        },
        {
            "positions": [
                -0.20932795355075146,
                -1.3082022899923498,
                2.2923879727952454,
                -0.9499593976638128,
                0.9081574659719531,
                -3.12555517556468
            ]
        },
        {
            "positions": [
                -0.2757558540055981,
                -1.3419457224881406,
                2.35655591549043,
                -0.9838568000114208,
                1.0638716156188632,
                -3.1121683651339898
            ]
        },
        {
            "positions": [
                -0.34218375446044486,
                -1.3756891549839316,
                2.4207238581856143,
                -1.017754202359029,
                1.2195857652657738,
                -3.0987815547032995
            ]
        }
    ]
}{
    "goal": {
        "global_pose": {
            "orientation": {
                "w": 0.5084816217422485,
                "x": -0.49083608388900757,
                "y": 0.5182115435600281,
                "z": -0.4816462993621826
            },
            "position": {
                "x": 0.5540239810943604,
                "y": 0.030875300988554955,
                "z": 0.16403168439865112
            }
        },
        "name": "move_to_storage_A"
    },
    "id": "BiTRRT_move_to_storage_A_18",
    "joint_names": [
        "shoulder_pan_joint",
        "shoulder_lift_joint",
        "elbow_joint",
        "wrist_1_joint",
        "wrist_2_joint",
        "wrist_3_joint"
    ],
    "metrics": {
        "cart_traj_len": 0.35262395510041183,
        "distance_elbow_joint": 0.4501800651813772,
        "distance_shoulder_lift_joint": 0.23572634541581272,
        "distance_shoulder_pan_joint": 0.4625400029086202,
        "distance_wrist_1_joint": 0.24308076488610153,
        "distance_wrist_2_joint": 1.0922968199786725,
        "distance_wrist_3_joint": 0.08906829131970406,
        "smoothness": 8.881784197001252e-16,
        "time": 0.040863660999999996,
        "traj_len": 1.6040237808992384,
        "weighted_distance": 2.021486200099934
    },
    "planner": "BiTRRT",
    "start": {
        "state": {
            "elbow_joint": 1.97154746011099,
            "shoulder_lift_joint": -1.13948474672311,
            "shoulder_pan_joint": 0.12281154466712228,
            "wrist_1_joint": -0.7804688027058302,
            "wrist_2_joint": 0.12958655903071145,
            "wrist_3_joint": 3.0906928834467795
        }
    },
    "waypoints": [
        {
            "positions": [
                0.12281154466712228,
                -1.13948474672311,
                1.97154746011099,
                -0.7804688027058302,
                0.12958655903071145,
                3.0906928834467795
            ]
        },
        {
            "positions": [
                0.05673440139446226,
                -1.1731599389253689,
                2.0358588979940437,
                -0.8151946262609876,
                0.2856289618848075,
                3.10341692506388
            ]
        },
        {
            "positions": [
                -0.009342741878197766,
                -1.206835131127628,
                2.1001703358770976,
                -0.8499204498161449,
                0.44167136473890356,
                3.1161409666809807
            ]
        },
        {
            "positions": [
                -0.07541988515085778,
                -1.2405103233298869,
                2.1644817737601514,
                -0.8846462733713023,
                0.5977137675929997,
                3.128865008298081
            ]
        },
        {
            "positions": [
                -0.1414970284235178,
                -1.2741855155321458,
                2.2287932116432057,
                -0.9193720969264596,
                0.7537561704470958,
                3.141589049915182
            ]
        },
        {
            "positions": [
                -0.20757417169617787,
                -1.3078607077344047,
                2.2931046495262595,
                -0.954097920481617,
                0.9097985733011918,
                3.1543130915322823
            ]
        },
        {
            "positions": [
                -0.2736513149688378,
                -1.3415358999366638,
                2.3574160874093133,
                -0.9888237440367743,
                1.0658409761552878,
                3.167037133149383
            ]
        },
        {
            "positions": [
                -0.3397284582414979,
                -1.3752110921389227,
                2.421727525292367,
                -1.0235495675919317,
                1.221883379009384,
                3.1797611747664836
            ]
        }
    ]
}{
    "goal": {
        "global_pose": {
            "orientation": {
                "w": 0.5084816217422485,
                "x": -0.49083608388900757,
                "y": 0.5182115435600281,
                "z": -0.4816462993621826
            },
            "position": {
                "x": 0.5540239810943604,
                "y": 0.030875300988554955,
                "z": 0.16403168439865112
            }
        },
        "name": "move_to_storage_A"
    },
    "id": "BiTRRT_move_to_storage_A_18",
    "joint_names": [
        "shoulder_pan_joint",
        "shoulder_lift_joint",
        "elbow_joint",
        "wrist_1_joint",
        "wrist_2_joint",
        "wrist_3_joint"
    ],
    "metrics": {
        "cart_traj_len": 0.3529320944656938,
        "distance_elbow_joint": 0.4504336220054608,
        "distance_shoulder_lift_joint": 0.23329723713514494,
        "distance_shoulder_pan_joint": 0.46229217123117133,
        "distance_wrist_1_joint": 0.2521886085611842,
        "distance_wrist_2_joint": 1.0940723983577798,
        "distance_wrist_3_joint": 0.0942638748786222,
        "smoothness": 4.440892098500626e-16,
        "time": 0.025437529,
        "traj_len": 1.6082748248260816,
        "weighted_distance": 2.0301075510537787
    },
    "planner": "BiTRRT",
    "start": {
        "state": {
            "elbow_joint": 1.9715472970024885,
            "shoulder_lift_joint": -1.1394870060712896,
            "shoulder_pan_joint": 0.12281152778156021,
            "wrist_1_joint": -0.780463741449964,
            "wrist_2_joint": 0.12958659822042276,
            "wrist_3_joint": 3.090690232415272
        }
    },
    "waypoints": [
        {
            "positions": [
                0.12281152778156021,
                -1.1394870060712896,
                1.9715472970024885,
                -0.780463741449964,
                0.12958659822042276,
                3.090690232415272
            ]
        },
        {
            "positions": [
                0.056769789034250034,
                -1.1728151828048818,
                2.035894957288983,
                -0.8164906855301332,
                0.285882655128677,
                3.104156500255075
            ]
        },
        {
            "positions": [
                -0.00927194971306014,
                -1.2061433595384738,
                2.100242617575477,
                -0.8525176296103023,
                0.44217871203693127,
                3.1176227680948783
            ]
        },
        {
            "positions": [
                -0.07531368846037031,
                -1.239471536272066,
                2.1645902778619717,
                -0.8885445736904715,
                0.5984747689451855,
                3.1310890359346812
            ]
        },
        {
            "positions": [
                -0.1413554272076805,
                -1.272799713005658,
                2.228937938148466,
                -0.9245715177706406,
                0.7547708258534397,
                3.1445553037744847
            ]
        },
        {
            "positions": [
                -0.20739716595499072,
                -1.3061278897392503,
                2.2932855984349607,
                -0.9605984618508099,
                0.911066882761694,
                3.1580215716142876
            ]
        },
        {
            "positions": [
                -0.2734389047023008,
                -1.3394560664728423,
                2.357633258721455,
                -0.996625405930979,
                1.0673629396699482,
                3.171487839454091
            ]
        },
        {
            "positions": [
                -0.3394806434496111,
                -1.3727842432064346,
                2.4219809190079493,
                -1.0326523500111482,
                1.2236589965782025,
                3.184954107293894
            ]
        }
    ]
}