{
    "goal": {
        "global_pose": {
            "orientation": {
                "w": -0.4816463035849501,
                "x": 0.5182115481033762,
                "y": 0.4908360881923453,
                "z": -0.5084816262002911
            },
            "position": {
                "x": -0.8240239810943604,
                "y": -0.300875300988555,
                "z": 0.16403168439865112
            }
        },
        "name": "move_to_storage_C"
    },
    "id": "BiTRRT_move_to_storage_C_29",
    "joint_names": [
        "shoulder_pan_joint",
        "shoulder_lift_joint",
        "elbow_joint",
        "wrist_1_joint",
        "wrist_2_joint",
        "wrist_3_joint"
    ],
    "metrics": {
        "cart_traj_len": 0.576646454482844,
        "distance_elbow_joint": 0.2555120473585901,
        "distance_shoulder_lift_joint": 0.18872875326701644,
        "distance_shoulder_pan_joint": 0.4939748304813971,
        "distance_wrist_1_joint": 0.07105894434614246,
        "distance_wrist_2_joint": 1.0777503078374502,
        "distance_wrist_3_joint": 0.06368773687468776,
        "smoothness": 2.5376526478085547e-16,
        "time": 0.045559426,
        "traj_len": 1.4665308111885287,
        "weighted_distance": 1.8511880904160583
    },
    "planner": "BiTRRT",
    "start": {
        "state": {
            "elbow_joint": 2.010868314990456,
            "shoulder_lift_joint": -1.1634956873337592,
            "shoulder_pan_joint": -2.4736205022346125,
            "wrist_1_joint": -0.8367026794202681,
            "wrist_2_joint": 0.6746043897044499,
            "wrist_3_joint": -3.1496632123970403
        }
    },
    "waypoints": [
        {
            "positions": [
                -2.4736205022346125,
                -1.1634956873337592,
                2.010868314990456,
                -0.8367026794202681,
                0.6746043897044499,
                -3.1496632123970403
            ]
        },
        {
            "positions": [
                -2.5559496406481785,
                -1.1320408951225898,
                1.9682829737640242,
                -0.8248595220292444,
                0.8542294410106916,
                -3.1390485895845925
            ]
        },
        {
            "positions": [
                -2.638278779061745,
                -1.1005861029114203,
                1.9256976325375925,
                -0.8130163646382206,
                1.0338544923169333,
                -3.1284339667721444
            ]
        },
        {
            "positions": [
                -2.720607917475311,
                -1.069131310700251,
                1.8831122913111606,
                -0.8011732072471969,
                1.213479543623175,
                -3.117819343959696
            ]
        },
        {
            "positions": [
                -2.802937055888877,
                -1.0376765184890815,
                1.840526950084729,
                -0.7893300498561732,
                1.3931045949294165,
                -3.1072047211472484
            ]
        },
        {
            "positions": [
                -2.8852661943024436,
                -1.006221726277912,
                1.7979416088582973,
                -0.7774868924651493,
                1.5727296462356586,
                -3.0965900983348007
            ]
        },
        {
            "positions": [
                -2.9675953327160096,
                -0.9747669340667428,
                1.7553562676318657,
                -0.7656437350741256,
                1.7523546975419002,
                -3.0859754755223525
            ]
        }
    ]
}