{
    "goal": {
        "global_pose": {
            "orientation": {
                "w": -0.4816463035849501,
                "x": 0.5182115481033762,
                "y": 0.4908360881923453,
                "z": -0.5084816262002911
            },
            "position": {
                "x": -0.8240239810943604,
                "y": -0.300875300988555,
                "z": 0.16403168439865112
            }
        },
        "name": "move_to_storage_C"
    },
    "id": "BiTRRT_move_to_storage_C_112",
    "joint_names": [
        "shoulder_pan_joint",
        "shoulder_lift_joint",
        "elbow_joint",
        "wrist_1_joint",
        "wrist_2_joint",
        "wrist_3_joint"
    ],
    "metrics": {
        "cart_traj_len": 0.5769197512294681,
        "distance_elbow_joint": 0.26090477826251823,
        "distance_shoulder_lift_joint": 0.18864373306015347,
        "distance_shoulder_pan_joint": 0.4957537757079393,
        "distance_wrist_1_joint": 0.09056159704643041,
        "distance_wrist_2_joint": 1.061839890033994,
        "distance_wrist_3_joint": 0.07387362466090952,
        "smoothness": 2.5376526478085547e-16,
        "time": 0.040417145,
        "traj_len": 1.4736272930330603,
        "weighted_distance": 1.8632568623714199
    },
    "planner": "BiTRRT",
    "start": {
        "state": {
            "elbow_joint": 2.010868314990456,
            "shoulder_lift_joint": -1.1634956873337592,
            "shoulder_pan_joint": -2.4736205022346125,
            "wrist_1_joint": -0.8367026794202681,
            "wrist_2_joint": 0.6746043897044499,
            "wrist_3_joint": -3.1496632123970403
        }
    },
    "waypoints": [
        {
            "positions": [
                -2.4736205022346125,
                -1.1634956873337592,
                2.010868314990456,
                -0.8367026794202681,
                0.6746043897044499,
                -3.1496632123970403
            ]
        },
        {
            "positions": [
                -2.556246131519269,
                -1.1320550651570669,
                1.9673841852800362,
                -0.8216090799125297,
                0.8515777047101156,
                -3.137350941620222
            ]
        },
        {
            "positions": [
                -2.6388717608039256,
                -1.1006144429803748,
                1.9239000555696164,
                -0.8065154804047913,
                1.0285510197157812,
                -3.125038670843404
            ]
        },
        {
            "positions": [
                -2.721497390088582,
                -1.0691738208036825,
                1.8804159258591966,
                -0.7914218808970529,
                1.205524334721447,
                -3.1127264000665855
            ]
        },
        {
            "positions": [
                -2.8041230193732387,
                -1.0377331986269902,
                1.836931796148777,
                -0.7763282813893145,
                1.3824976497271124,
                -3.100414129289767
            ]
        },
        {
            "positions": [
                -2.8867486486578953,
                -1.006292576450298,
                1.7934476664383574,
                -0.7612346818815761,
                1.5594709647327782,
                -3.088101858512949
            ]
        },
        {
            "positions": [
                -2.969374277942552,
                -0.9748519542736057,
                1.7499635367279376,
                -0.7461410823738377,
                1.7364442797384438,
                -3.0757895877361308
            ]
        }
    ]
}