{
    "goal": {
        "global_pose": {
            "orientation": {
                "w": 0.7031023502349854,
                "x": -0.7110244035720825,
                "y": 0.007748599164187908,
                "z": 0.005598929710686207
            },
            "position": {
                "x": 0.11585023208521307,
                "y": 0.44412534475326537,
                "z": 0.3711530566215515
            }
        },
        "name": "move_to_auspresseinheit_A"
    },
    "id": "BiTRRT_move_to_auspresseinheit_A_66",
    "joint_names": [
        "shoulder_pan_joint",
        "shoulder_lift_joint",
        "elbow_joint",
        "wrist_1_joint",
        "wrist_2_joint",
        "wrist_3_joint"
    ],
    "metrics": {
        "cart_traj_len": 2.0185368835162354,
        "distance_elbow_joint": 0.7889342892277313,
        "distance_shoulder_lift_joint": 0.8237540017998284,
        "distance_shoulder_pan_joint": 4.449390151850402,
        "distance_wrist_1_joint": 1.413536737447605,
        "distance_wrist_2_joint": 1.8896299125283043,
        "distance_wrist_3_joint": 5.746282329756699,
        "smoothness": 0.7837306087340299,
        "time": 0.155976919,
        "traj_len": 3.8873548104862476,
        "weighted_distance": 5.468752941219768
    },
    "planner": "BiTRRT",
    "start": {
        "state": {
            "elbow_joint": 2.4225746658250005,
            "shoulder_lift_joint": -1.3736534386056498,
            "shoulder_pan_joint": -0.3378633547517467,
            "wrist_1_joint": -1.0288598680537169,
            "wrist_2_joint": 1.233022673432363,
            "wrist_3_joint": -3.0940220416140027
        }
    },
    "waypoints": [
        {
            "positions": [
                -0.3378633547517467,
                -1.3736534386056498,
                2.4225746658250005,
                -1.0288598680537169,
                1.233022673432363,
                -3.0940220416140027
            ]
        },
        {
            "positions": [
                -0.4381239014052321,
                -1.4136151771761674,
                2.444941859921333,
                -1.0538538270390485,
                1.2729458713351844,
                -2.926300753723832
            ]
        },
        {
            "positions": [
                -0.5383844480587175,
                -1.453576915746685,
                2.467309054017665,
                -1.07884778602438,
                1.3128690692380056,
                -2.758579465833662
            ]
        },
        {
            "positions": [
                -0.6386449947122029,
                -1.4935386543172027,
                2.489676248113998,
                -1.1038417450097116,
                1.352792267140827,
                -2.5908581779434914
            ]
        },
        {
            "positions": [
                -0.7389055413656883,
                -1.5335003928877202,
                2.5120434422103304,
                -1.1288357039950432,
                1.3927154650436484,
                -2.4231368900533212
            ]
        },
        {
            "positions": [
                -0.8391660880191738,
                -1.5734621314582378,
                2.5344106363066627,
                -1.1538296629803748,
                1.4326386629464696,
                -2.2554156021631506
            ]
        },
        {
            "positions": [
                -0.9394266346726592,
                -1.6134238700287553,
                2.556777830402995,
                -1.1788236219657062,
                1.472561860849291,
                -2.08769431427298
            ]
        },
        {
            "positions": [
                -1.0396871813261446,
                -1.6533856085992729,
                2.5791450244993275,
                -1.2038175809510379,
                1.5124850587521124,
                -1.91997302638281
            ]
        },
        {
            "positions": [
                -1.13994772797963,
                -1.6933473471697904,
                2.60151221859566,
                -1.2288115399363695,
                1.5524082566549335,
                -1.7522517384926397
            ]
        },
        {
            "positions": [
                -1.2402082746331153,
                -1.733309085740308,
                2.6238794126919927,
                -1.253805498921701,
                1.592331454557755,
                -1.584530450602469
            ]
        },
        {
            "positions": [
                -1.3404688212866007,
                -1.7732708243108257,
                2.646246606788325,
                -1.2787994579070325,
                1.6322546524605763,
                -1.4168091627122987
            ]
        },
        {
            "positions": [
                -1.440729367940086,
                -1.8132325628813433,
                2.6686138008846574,
                -1.3037934168923642,
                1.6721778503633975,
                -1.2490878748221284
            ]
        },
        {
            "positions": [
                -1.5409899145935715,
                -1.8531943014518608,
                2.6909809949809897,
                -1.3287873758776958,
                1.712101048266219,
                -1.0813665869319578
            ]
        },
        {
            "positions": [
                -1.6412504612470566,
                -1.8931560400223784,
                2.713348189077322,
                -1.3537813348630272,
                1.7520242461690403,
                -0.9136452990417876
            ]
        },
        {
            "positions": [
                -1.7415110079005423,
                -1.9331177785928961,
                2.7357153831736545,
                -1.3787752938483588,
                1.7919474440718615,
                -0.7459240111516174
            ]
        },
        {
            "positions": [
                -1.8417715545540276,
                -1.9730795171634137,
                2.7580825772699873,
                -1.4037692528336905,
                1.8318706419746826,
                -0.5782027232614468
            ]
        },
        {
            "positions": [
                -1.942032101207513,
                -2.0130412557339312,
                2.7804497713663197,
                -1.4287632118190219,
                1.8717938398775043,
                -0.4104814353712767
            ]
        },
        {
            "positions": [
                -2.0422926478609984,
                -2.0530029943044488,
                2.802816965462652,
                -1.4537571708043535,
                1.9117170377803254,
                -0.24276014748110608
            ]
        },
        {
            "positions": [
                -1.9175216997364006,
                -2.046439155845311,
                2.7842400568449213,
                -1.408819014681764,
                1.856674512863037,
                -0.37435198546400605
            ]
        },
        {
            "positions": [
                -1.7927507516118029,
                -2.0398753173861732,
                2.76566314822719,
                -1.3638808585591746,
                1.801631987945749,
                -0.505943823446906
            ]
        },
        {
            "positions": [
                -1.667979803487205,
                -2.0333114789270357,
                2.7470862396094593,
                -1.3189427024365852,
                1.7465894630284606,
                -0.637535661429806
            ]
        },
        {
            "positions": [
                -1.543208855362607,
                -2.026747640467898,
                2.7285093309917285,
                -1.2740045463139955,
                1.6915469381111723,
                -0.7691274994127061
            ]
        },
        {
            "positions": [
                -1.4184379072380093,
                -2.02018380200876,
                2.7099324223739973,
                -1.229066390191406,
                1.6365044131938842,
                -0.9007193373956061
            ]
        },
        {
            "positions": [
                -1.2936669591134116,
                -2.0136199635496226,
                2.6913555137562666,
                -1.1841282340688166,
                1.5814618882765958,
                -1.032311175378506
            ]
        },
        {
            "positions": [
                -1.1688960109888138,
                -2.007056125090485,
                2.672778605138536,
                -1.1391900779462272,
                1.5264193633593077,
                -1.1639030133614061
            ]
        },
        {
            "positions": [
                -1.0441250628642158,
                -2.000492286631347,
                2.6542016965208046,
                -1.0942519218236377,
                1.4713768384420194,
                -1.295494851344306
            ]
        },
        {
            "positions": [
                -0.919354114739618,
                -1.9939284481722095,
                2.635624787903074,
                -1.0493137657010483,
                1.416334313524731,
                -1.427086689327206
            ]
        },
        {
            "positions": [
                -0.7945831666150203,
                -1.9873646097130717,
                2.617047879285343,
                -1.0043756095784588,
                1.361291788607443,
                -1.558678527310106
            ]
        },
        {
            "positions": [
                -0.6698122184904225,
                -1.980800771253934,
                2.598470970667612,
                -0.9594374534558693,
                1.3062492636901546,
                -1.690270365293006
            ]
        },
        {
            "positions": [
                -0.5450412703658247,
                -1.9742369327947964,
                2.579894062049881,
                -0.9144992973332798,
                1.2512067387728663,
                -1.821862203275906
            ]
        },
        {
            "positions": [
                -0.42027032224122673,
                -1.9676730943356586,
                2.5613171534321504,
                -0.8695611412106903,
                1.1961642138555781,
                -1.9534540412588062
            ]
        },
        {
            "positions": [
                -0.2954993741166292,
                -1.9611092558765209,
                2.5427402448144196,
                -0.8246229850881008,
                1.1411216889382898,
                -2.085045879241706
            ]
        },
        {
            "positions": [
                -0.17072842599203142,
                -1.9545454174173833,
                2.5241633361966884,
                -0.7796848289655114,
                1.0860791640210015,
                -2.216637717224606
            ]
        },
        {
            "positions": [
                -0.04595747786743343,
                -1.9479815789582455,
                2.5055864275789577,
                -0.7347466728429218,
                1.0310366391037133,
                -2.348229555207506
            ]
        },
        {
            "positions": [
                0.07881347025716412,
                -1.9414177404991078,
                2.487009518961227,
                -0.6898085167203325,
                0.9759941141864251,
                -2.479821393190406
            ]
        },
        {
            "positions": [
                0.20358441838176233,
                -1.9348539020399702,
                2.4684326103434957,
                -0.6448703605977429,
                0.9209515892691368,
                -2.611413231173306
            ]
        },
        {
            "positions": [
                0.3283553665063601,
                -1.9282900635808324,
                2.449855701725765,
                -0.5999322044751535,
                0.8659090643518486,
                -2.743005069156206
            ]
        },
        {
            "positions": [
                0.45312631463095787,
                -1.9217262251216947,
                2.431278793108034,
                -0.554994048352564,
                0.8108665394345602,
                -2.874596907139106
            ]
        },
        {
            "positions": [
                0.5778972627555556,
                -1.9151623866625571,
                2.412701884490303,
                -0.5100558922299745,
                0.7558240145172719,
                -3.006188745122006
            ]
        },
        {
            "positions": [
                0.7026682108801532,
                -1.9085985482034193,
                2.3941249758725722,
                -0.46511773610738505,
                0.7007814895999838,
                -3.137780583104906
            ]
        }
    ]
}