{
    "goal": {
        "global_pose": {
            "orientation": {
                "w": 0.5084816262002911,
                "x": -0.4908360881923452,
                "y": 0.5182115481033761,
                "z": -0.48164630358495003
            },
            "position": {
                "x": 0.5540239810943604,
                "y": -0.46912469901144505,
                "z": 0.16403168439865112
            }
        },
        "name": "move_to_storage_B"
    },
    "id": "BiTRRT_move_to_storage_B_67",
    "joint_names": [
        "shoulder_pan_joint",
        "shoulder_lift_joint",
        "elbow_joint",
        "wrist_1_joint",
        "wrist_2_joint",
        "wrist_3_joint"
    ],
    "metrics": {
        "cart_traj_len": 2.7898791297730647,
        "distance_elbow_joint": 1.2236947422335747,
        "distance_shoulder_lift_joint": 2.396847388074691,
        "distance_shoulder_pan_joint": 1.4049986275483384,
        "distance_wrist_1_joint": 2.9818033662348293,
        "distance_wrist_2_joint": 2.7110156923590405,
        "distance_wrist_3_joint": 4.169794397537448,
        "smoothness": 0.3371110667205382,
        "time": 0.102802581,
        "traj_len": 3.858517100388169,
        "weighted_distance": 5.3777841224482685
    },
    "planner": "BiTRRT",
    "start": {
        "state": {
            "elbow_joint": 1.664937868594044,
            "shoulder_lift_joint": -0.661644460510453,
            "shoulder_pan_joint": -0.9139846352900073,
            "wrist_1_joint": 2.146753192139373,
            "wrist_2_joint": -2.2341966793290973,
            "wrist_3_joint": 0.005466555786416001
        }
    },
    "waypoints": [
        {
            "positions": [
                -0.9139846352900073,
                -0.661644460510453,
                1.664937868594044,
                2.146753192139373,
                -2.2341966793290973,
                0.005466555786416001
            ]
        },
        {
            "positions": [
                -0.9344227646196565,
                -0.6690965876131734,
                1.663965842699119,
                2.0350386857414104,
                -2.140508606064541,
                -0.057487390410944625
            ]
        },
        {
            "positions": [
                -0.9548608939493057,
                -0.6765487147158938,
                1.6629938168041942,
                1.923324179343448,
                -2.046820532799984,
                -0.12044133660830525
            ]
        },
        {
            "positions": [
                -0.9752990232789549,
                -0.6840008418186142,
                1.6620217909092694,
                1.8116096729454851,
                -1.9531324595354276,
                -0.1833952828056659
            ]
        },
        {
            "positions": [
                -0.9345091214337014,
                -0.7777245007759733,
                1.6330966261259896,
                1.7638431610523182,
                -1.7969319593043585,
                -0.20532169622024132
            ]
        },
        {
            "positions": [
                -0.8937192195884478,
                -0.8714481597333326,
                1.6041714613427096,
                1.7160766491591515,
                -1.640731459073289,
                -0.22724810963481676
            ]
        },
        {
            "positions": [
                -0.8529293177431942,
                -0.9651718186906917,
                1.5752462965594298,
                1.6683101372659845,
                -1.48453095884222,
                -0.2491745230493922
            ]
        },
        {
            "positions": [
                -0.8121394158979407,
                -1.0588954776480508,
                1.5463211317761498,
                1.6205436253728178,
                -1.3283304586111506,
                -0.2711009364639676
            ]
        },
        {
            "positions": [
                -0.7713495140526871,
                -1.15261913660541,
                1.51739596699287,
                1.5727771134796509,
                -1.1721299583800815,
                -0.29302734987854306
            ]
        },
        {
            "positions": [
                -0.7305596122074335,
                -1.2463427955627693,
                1.48847080220959,
                1.525010601586484,
                -1.0159294581490124,
                -0.3149537632931185
            ]
        },
        {
            "positions": [
                -0.6897697103621799,
                -1.3400664545201284,
                1.4595456374263103,
                1.4772440896933172,
                -0.859728957917943,
                -0.33688017670769393
            ]
        },
        {
            "positions": [
                -0.6489798085169264,
                -1.4337901134774875,
                1.4306204726430303,
                1.4294775778001503,
                -0.7035284576868739,
                -0.35880659012226934
            ]
        },
        {
            "positions": [
                -0.6081899066716728,
                -1.5275137724348467,
                1.4016953078597505,
                1.3817110659069836,
                -0.5473279574558048,
                -0.3807330035368448
            ]
        },
        {
            "positions": [
                -0.5674000048264193,
                -1.6212374313922058,
                1.3727701430764707,
                1.3339445540138166,
                -0.3911274572247354,
                -0.4026594169514202
            ]
        },
        {
            "positions": [
                -0.5266101029811657,
                -1.714961090349565,
                1.3438449782931907,
                1.2861780421206497,
                -0.23492695699366628,
                -0.4245858303659956
            ]
        },
        {
            "positions": [
                -0.48582020113591207,
                -1.808684749306924,
                1.3149198135099107,
                1.238411530227483,
                -0.07872645676259693,
                -0.4465122437805711
            ]
        },
        {
            "positions": [
                -0.4450302992906585,
                -1.9024084082642831,
                1.285994648726631,
                1.190645018334316,
                0.07747404346847242,
                -0.46843865719514655
            ]
        },
        {
            "positions": [
                -0.40424039744540496,
                -1.9961320672216423,
                1.2570694839433512,
                1.142878506441149,
                0.23367454369954155,
                -0.490365070609722
            ]
        },
        {
            "positions": [
                -0.3634504956001514,
                -2.0898557261790014,
                1.2281443191600712,
                1.0951119945479824,
                0.3898750439306107,
                -0.5122914840242974
            ]
        },
        {
            "positions": [
                -0.3982998152135127,
                -2.0437301965406136,
                1.2656158045314807,
                1.0031995103268663,
                0.3940152329353408,
                -0.3383849907992148
            ]
        },
        {
            "positions": [
                -0.433149134826874,
                -1.9976046669022258,
                1.3030872899028905,
                0.9112870261057502,
                0.398155421940071,
                -0.1644784975741322
            ]
        },
        {
            "positions": [
                -0.4679984544402353,
                -1.9514791372638383,
                1.3405587752743,
                0.8193745418846341,
                0.4022956109448011,
                0.009427995650950316
            ]
        },
        {
            "positions": [
                -0.5028477740535966,
                -1.9053536076254505,
                1.3780302606457095,
                0.7274620576635179,
                0.4064357999495312,
                0.18333448887603299
            ]
        },
        {
            "positions": [
                -0.537697093666958,
                -1.8592280779870627,
                1.4155017460171193,
                0.6355495734424018,
                0.4105759889542614,
                0.35724098210111555
            ]
        },
        {
            "positions": [
                -0.5725464132803192,
                -1.813102548348675,
                1.4529732313885289,
                0.5436370892212857,
                0.4147161779589915,
                0.531147475326198
            ]
        },
        {
            "positions": [
                -0.6073957328936805,
                -1.7669770187102873,
                1.4904447167599384,
                0.45172460500016953,
                0.41885636696372164,
                0.7050539685512807
            ]
        },
        {
            "positions": [
                -0.6422450525070418,
                -1.7208514890718996,
                1.527916202131348,
                0.35981212077905345,
                0.4229965559684518,
                0.8789604617763633
            ]
        },
        {
            "positions": [
                -0.6770943721204031,
                -1.6747259594335118,
                1.5653876875027577,
                0.26789963655793736,
                0.42713674497318194,
                1.0528669550014458
            ]
        },
        {
            "positions": [
                -0.7119436917337645,
                -1.628600429795124,
                1.6028591728741672,
                0.17598715233682127,
                0.43127693397791206,
                1.2267734482265285
            ]
        },
        {
            "positions": [
                -0.7467930113471257,
                -1.5824749001567362,
                1.640330658245577,
                0.08407466811570496,
                0.43541712298264224,
                1.4006799414516111
            ]
        },
        {
            "positions": [
                -0.781642330960487,
                -1.5363493705183484,
                1.6778021436169865,
                -0.0078378161054109,
                0.43955731198737236,
                1.5745864346766933
            ]
        },
        {
            "positions": [
                -0.8164916505738484,
                -1.4902238408799606,
                1.7152736289883963,
                -0.09975030032652721,
                0.4436975009921025,
                1.7484929279017765
            ]
        },
        {
            "positions": [
                -0.8513409701872097,
                -1.444098311241573,
                1.7527451143598056,
                -0.1916627845476433,
                0.44783768999683266,
                1.9223994211268587
            ]
        },
        {
            "positions": [
                -0.886190289800571,
                -1.3979727816031853,
                1.7902165997312154,
                -0.2835752687687594,
                0.4519778790015628,
                2.0963059143519414
            ]
        },
        {
            "positions": [
                -0.9210396094139323,
                -1.3518472519647975,
                1.827688085102625,
                -0.37548775298987547,
                0.4561180680062929,
                2.270212407577024
            ]
        },
        {
            "positions": [
                -0.9558889290272936,
                -1.3057217223264097,
                1.8651595704740345,
                -0.4674002372109918,
                0.4602582570110231,
                2.4441189008021067
            ]
        },
        {
            "positions": [
                -0.9907382486406549,
                -1.2595961926880221,
                1.9026310558454442,
                -0.5593127214321076,
                0.4643984460157532,
                2.618025394027189
            ]
        },
        {
            "positions": [
                -1.025587568254016,
                -1.2134706630496344,
                1.940102541216854,
                -0.651225205653224,
                0.4685386350204833,
                2.7919318872522716
            ]
        },
        {
            "positions": [
                -1.0604368878673776,
                -1.1673451334112466,
                1.9775740265882633,
                -0.7431376898743398,
                0.47267882402521344,
                2.9658383804773543
            ]
        },
        {
            "positions": [
                -1.0952862074807388,
                -1.1212196037728588,
                2.015045511959673,
                -0.8350501740954562,
                0.4768190130299436,
                3.139744873702437
            ]
        }
    ]
}