{
    "goal": {
        "global_pose": {
            "orientation": {
                "w": 0.5084816217422485,
                "x": -0.49083608388900757,
                "y": 0.5182115435600281,
                "z": -0.4816462993621826
            },
            "position": {
                "x": 0.5540239810943604,
                "y": 0.030875300988554955,
                "z": 0.16403168439865112
            }
        },
        "name": "move_to_storage_A"
    },
    "id": "BiTRRT_move_to_storage_A_130",
    "joint_names": [
        "shoulder_pan_joint",
        "shoulder_lift_joint",
        "elbow_joint",
        "wrist_1_joint",
        "wrist_2_joint",
        "wrist_3_joint"
    ],
    "metrics": {
        "cart_traj_len": 0.3522453432741878,
        "distance_elbow_joint": 0.4489672603172903,
        "distance_shoulder_lift_joint": 0.2332632521935718,
        "distance_shoulder_pan_joint": 0.46090908166108824,
        "distance_wrist_1_joint": 0.2412379519908009,
        "distance_wrist_2_joint": 1.0952076176159036,
        "distance_wrist_3_joint": 0.10570996237962538,
        "smoothness": 8.881784197001252e-16,
        "time": 0.041341036,
        "traj_len": 1.6078852963312653,
        "weighted_distance": 2.033017614415634
    },
    "planner": "BiTRRT",
    "start": {
        "state": {
            "elbow_joint": 1.971548259319323,
            "shoulder_lift_joint": -1.1394851275133948,
            "shoulder_pan_joint": 0.1228115487234821,
            "wrist_1_joint": -0.7804723859257726,
            "wrist_2_joint": 0.12958671773740124,
            "wrist_3_joint": -3.192489227718131
        }
    },
    "waypoints": [
        {
            "positions": [
                0.1228115487234821,
                -1.1394851275133948,
                1.971548259319323,
                -0.7804723859257726,
                0.12958671773740124,
                -3.192489227718131
            ]
        },
        {
            "positions": [
                0.05696739420046949,
                -1.1728084492553337,
                2.03568643936465,
                -0.814934950495887,
                0.28604494882538745,
                -3.1773878045210417
            ]
        },
        {
            "positions": [
                -0.008876760322543115,
                -1.2061317709972725,
                2.0998246194099774,
                -0.8493975150660015,
                0.4425031799133736,
                -3.1622863813239523
            ]
        },
        {
            "positions": [
                -0.07472091484555571,
                -1.2394550927392114,
                2.1639627994553043,
                -0.8838600796361158,
                0.5989614110013599,
                -3.147184958126863
            ]
        },
        {
            "positions": [
                -0.14056506936856833,
                -1.27277841448115,
                2.2281009795006317,
                -0.9183226442062302,
                0.7554196420893461,
                -3.132083534929774
            ]
        },
        {
            "positions": [
                -0.20640922389158095,
                -1.306101736223089,
                2.292239159545959,
                -0.9527852087763446,
                0.9118778731773324,
                -3.1169821117326846
            ]
        },
        {
            "positions": [
                -0.2722533784145935,
                -1.3394250579650278,
                2.356377339591286,
                -0.9872477733464591,
                1.0683361042653186,
                -3.101880688535595
            ]
        },
        {
            "positions": [
                -0.33809753293760614,
                -1.3727483797069666,
                2.4205155196366133,
                -1.0217103379165735,
                1.2247943353533048,
                -3.0867792653385058
            ]
        }
    ]
}{
    "goal": {
        "global_pose": {
            "orientation": {
                "w": 0.5084816217422485,
                "x": -0.49083608388900757,
                "y": 0.5182115435600281,
                "z": -0.4816462993621826
            },
            "position": {
                "x": 0.5540239810943604,
                "y": 0.030875300988554955,
                "z": 0.16403168439865112
            }
        },
        "name": "move_to_storage_A"
    },
    "id": "BiTRRT_move_to_storage_A_130",
    "joint_names": [
        "shoulder_pan_joint",
        "shoulder_lift_joint",
        "elbow_joint",
        "wrist_1_joint",
        "wrist_2_joint",
        "wrist_3_joint"
    ],
    "metrics": {
        "cart_traj_len": 0.35270940197938416,
        "distance_elbow_joint": 0.44938704807275265,
        "distance_shoulder_lift_joint": 0.2332871460168371,
        "distance_shoulder_pan_joint": 0.4622544188595704,
        "distance_wrist_1_joint": 0.2418654016825612,
        "distance_wrist_2_joint": 1.0930472619214646,
        "distance_wrist_3_joint": 0.08727251083342846,
        "smoothness": 2.2204460668324854e-16,
        "time": 0.059309834,
        "traj_len": 1.6022215163286924,
        "weighted_distance": 2.0190521223231204
    },
    "planner": "BiTRRT",
    "start": {
        "state": {
            "elbow_joint": 1.97154746011099,
            "shoulder_lift_joint": -1.13948474672311,
            "shoulder_pan_joint": 0.12281154466712228,
            "wrist_1_joint": -0.7804688027058302,
            "wrist_2_joint": 0.12958655903071145,
            "wrist_3_joint": 3.0906928834467795
        }
    },
    "waypoints": [
        {
            "positions": [
                0.12281154466712228,
                -1.13948474672311,
                1.97154746011099,
                -0.7804688027058302,
                0.12958655903071145,
                3.0906928834467795
            ]
        },
        {
            "positions": [
                0.056775199115755084,
                -1.1728114818683724,
                2.035745609835669,
                -0.8150210029461961,
                0.28573616787663497,
                3.1031603849944123
            ]
        },
        {
            "positions": [
                -0.009261146435612114,
                -1.2061382170136348,
                2.0999437595603476,
                -0.8495732031865619,
                0.44188577672255847,
                3.1156278865420446
            ]
        },
        {
            "positions": [
                -0.07529749198697931,
                -1.2394649521588972,
                2.1641419092850267,
                -0.8841254034269278,
                0.598035385568482,
                3.1280953880896774
            ]
        },
        {
            "positions": [
                -0.1413338375383465,
                -1.2727916873041596,
                2.2283400590097058,
                -0.9186776036672937,
                0.7541849944144056,
                3.14056288963731
            ]
        },
        {
            "positions": [
                -0.20737018308971372,
                -1.3061184224494222,
                2.292538208734385,
                -0.9532298039076597,
                0.9103346032603291,
                3.153030391184943
            ]
        },
        {
            "positions": [
                -0.2734065286410809,
                -1.3394451575946846,
                2.3567363584590635,
                -0.9877820041480255,
                1.0664842121062525,
                3.165497892732575
            ]
        },
        {
            "positions": [
                -0.3394428741924481,
                -1.372771892739947,
                2.4209345081837426,
                -1.0223342043883914,
                1.222633820952176,
                3.177965394280208
            ]
        }
    ]
}{
    "goal": {
        "global_pose": {
            "orientation": {
                "w": 0.5084816217422485,
                "x": -0.49083608388900757,
                "y": 0.5182115435600281,
                "z": -0.4816462993621826
            },
            "position": {
                "x": 0.5540239810943604,
                "y": 0.030875300988554955,
                "z": 0.16403168439865112
            }
        },
        "name": "move_to_storage_A"
    },
    "id": "BiTRRT_move_to_storage_A_130",
    "joint_names": [
        "shoulder_pan_joint",
        "shoulder_lift_joint",
        "elbow_joint",
        "wrist_1_joint",
        "wrist_2_joint",
        "wrist_3_joint"
    ],
    "metrics": {
        "cart_traj_len": 0.35358415448829716,
        "distance_elbow_joint": 0.4502800881821978,
        "distance_shoulder_lift_joint": 0.23548209066096826,
        "distance_shoulder_pan_joint": 0.46182851361756544,
        "distance_wrist_1_joint": 0.24436912325212123,
        "distance_wrist_2_joint": 1.1024478433173535,
        "distance_wrist_3_joint": 0.10574715757436559,
        "smoothness": 4.440892098500626e-16,
        "time": 0.043118025000000004,
        "traj_len": 1.61249955553624,
        "weighted_distance": 2.039231742182035
    },
    "planner": "BiTRRT",
    "start": {
        "state": {
            "elbow_joint": 1.9715472970024885,
            "shoulder_lift_joint": -1.1394870060712896,
            "shoulder_pan_joint": 0.12281152778156021,
            "wrist_1_joint": -0.780463741449964,
            "wrist_2_joint": 0.12958659822042276,
            "wrist_3_joint": 3.090690232415272
        }
    },
    "waypoints": [
        {
            "positions": [
                0.12281152778156021,
                -1.1394870060712896,
                1.9715472970024885,
                -0.780463741449964,
                0.12958659822042276,
                3.090690232415272
            ]
        },
        {
            "positions": [
                0.056836025836193724,
                -1.1731273047371422,
                2.0358730238856597,
                -0.815373616200267,
                0.28707914726575895,
                3.10579696921161
            ]
        },
        {
            "positions": [
                -0.009139476109172762,
                -1.2067676034029948,
                2.100198750768831,
                -0.8502834909505701,
                0.44457169631109517,
                3.120903706007948
            ]
        },
        {
            "positions": [
                -0.07511497805453923,
                -1.2404079020688474,
                2.164524477652002,
                -0.885193365700873,
                0.6020642453564313,
                3.136010442804286
            ]
        },
        {
            "positions": [
                -0.14109047999990573,
                -1.2740482007347,
                2.228850204535173,
                -0.9201032404511761,
                0.7595567944017675,
                3.1511171796006234
            ]
        },
        {
            "positions": [
                -0.20706598194527223,
                -1.3076884994005527,
                2.293175931418344,
                -0.9550131152014791,
                0.9170493434471038,
                3.1662239163969614
            ]
        },
        {
            "positions": [
                -0.27304148389063865,
                -1.3413287980664053,
                2.357501658301515,
                -0.9899229899517822,
                1.07454189249244,
                3.1813306531932994
            ]
        },
        {
            "positions": [
                -0.3390169858360052,
                -1.3749690967322579,
                2.4218273851846863,
                -1.0248328647020852,
                1.2320344415377762,
                3.1964373899896374
            ]
        }
    ]
}