{
    "goal": {
        "global_pose": {
            "orientation": {
                "w": 0.7047431468963623,
                "x": -0.7094548344612122,
                "y": 0.0024358443915843964,
                "z": -0.0022348060738295317
            },
            "position": {
                "x": 0.6094750761985779,
                "y": 0.3671506643295288,
                "z": 0.19426114857196808
            }
        },
        "name": "move_to_magneteinheit_A"
    },
    "id": "BiTRRT_move_to_magneteinheit_A_68",
    "joint_names": [
        "shoulder_pan_joint",
        "shoulder_lift_joint",
        "elbow_joint",
        "wrist_1_joint",
        "wrist_2_joint",
        "wrist_3_joint"
    ],
    "metrics": {
        "cart_traj_len": 3.5958394760727255,
        "distance_elbow_joint": 3.911262022991468,
        "distance_shoulder_lift_joint": 0.7281252541889313,
        "distance_shoulder_pan_joint": 2.577711768239471,
        "distance_wrist_1_joint": 3.472363172259716,
        "distance_wrist_2_joint": 3.167410270353834,
        "distance_wrist_3_joint": 0.43060688184837087,
        "smoothness": 0.1942431819454042,
        "time": 0.08633576100000001,
        "traj_len": 3.7798782215677,
        "weighted_distance": 4.667811754579663
    },
    "planner": "BiTRRT",
    "start": {
        "state": {
            "elbow_joint": -1.9196185241190666,
            "shoulder_lift_joint": -1.2443396400964142,
            "shoulder_pan_joint": 2.6996025414629847,
            "wrist_1_joint": -1.5485510000780065,
            "wrist_2_joint": -1.5709468930060704,
            "wrist_3_joint": 0.4420197071253992
        }
    },
    "waypoints": [
        {
            "positions": [
                2.6996025414629847,
                -1.2443396400964142,
                -1.9196185241190666,
                -1.5485510000780065,
                -1.5709468930060704,
                0.4420197071253992
            ]
        },
        {
            "positions": [
                2.6022393263993706,
                -1.2162501575923081,
                -1.8342899491070617,
                -1.4747861622797882,
                -1.4704058527328117,
                0.4338527986223317
            ]
        },
        {
            "positions": [
                2.5048761113357565,
                -1.1881606750882021,
                -1.7489613740950567,
                -1.40102132448157,
                -1.3698648124595527,
                0.4256858901192643
            ]
        },
        {
            "positions": [
                2.4075128962721424,
                -1.160071192584096,
                -1.6636327990830515,
                -1.3272564866833516,
                -1.269323772186294,
                0.4175189816161968
            ]
        },
        {
            "positions": [
                2.3101496812085287,
                -1.1319817100799903,
                -1.5783042240710465,
                -1.2534916488851335,
                -1.1687827319130353,
                0.4093520731131294
            ]
        },
        {
            "positions": [
                2.2127864661449146,
                -1.1038922275758842,
                -1.4929756490590416,
                -1.1797268110869152,
                -1.0682416916397766,
                0.40118516461006193
            ]
        },
        {
            "positions": [
                2.1154232510813005,
                -1.0758027450717782,
                -1.4076470740470364,
                -1.105961973288697,
                -0.9677006513665176,
                0.3930182561069945
            ]
        },
        {
            "positions": [
                2.0180600360176864,
                -1.0477132625676722,
                -1.3223184990350314,
                -1.0321971354904786,
                -0.8671596110932589,
                0.38485134760392703
            ]
        },
        {
            "positions": [
                1.9206968209540722,
                -1.0196237800635661,
                -1.2369899240230264,
                -0.9584322976922603,
                -0.7666185708200002,
                0.3766844391008596
            ]
        },
        {
            "positions": [
                1.8233336058904583,
                -0.9915342975594601,
                -1.1516613490110212,
                -0.8846674598940422,
                -0.6660775305467415,
                0.3685175305977922
            ]
        },
        {
            "positions": [
                1.7259703908268444,
                -0.9634448150553542,
                -1.0663327739990165,
                -0.8109026220958239,
                -0.5655364902734827,
                0.36035062209472474
            ]
        },
        {
            "positions": [
                1.6286071757632303,
                -0.9353553325512481,
                -0.9810041989870114,
                -0.7371377842976056,
                -0.4649954500002238,
                0.3521837135916573
            ]
        },
        {
            "positions": [
                1.5312439606996162,
                -0.9072658500471421,
                -0.8956756239750063,
                -0.6633729464993873,
                -0.36445440972696486,
                0.34401680508858984
            ]
        },
        {
            "positions": [
                1.433880745636002,
                -0.8791763675430362,
                -0.8103470489630011,
                -0.589608108701169,
                -0.26391336945370614,
                0.3358498965855224
            ]
        },
        {
            "positions": [
                1.3365175305723882,
                -0.8510868850389302,
                -0.7250184739509962,
                -0.5158432709029508,
                -0.16337232918044742,
                0.32768298808245494
            ]
        },
        {
            "positions": [
                1.239154315508774,
                -0.8229974025348241,
                -0.6396898989389912,
                -0.4420784331047325,
                -0.06283128890718867,
                0.3195160795793875
            ]
        },
        {
            "positions": [
                1.1563081682563183,
                -0.806983116114171,
                -0.5376623290904713,
                -0.35236262628205683,
                0.009891400690423241,
                0.30771515115155357
            ]
        },
        {
            "positions": [
                1.0734620210038628,
                -0.7909688296935177,
                -0.4356347592419514,
                -0.2626468194593811,
                0.08261409028803515,
                0.2959142227237197
            ]
        },
        {
            "positions": [
                0.990615873751407,
                -0.7749545432728645,
                -0.3336071893934315,
                -0.17293101263670546,
                0.15533677988564704,
                0.2841132942958858
            ]
        },
        {
            "positions": [
                0.9077697264989513,
                -0.7589402568522112,
                -0.23157961954491152,
                -0.08321520581402975,
                0.22805946948325898,
                0.27231236586805185
            ]
        },
        {
            "positions": [
                0.8249235792464956,
                -0.7429259704315581,
                -0.12955204969639167,
                0.006500601008645912,
                0.3007821590808708,
                0.260511437440218
            ]
        },
        {
            "positions": [
                0.74207743199404,
                -0.7269116840109049,
                -0.027524479847871763,
                0.09621640783132157,
                0.37350484867848277,
                0.24871050901238406
            ]
        },
        {
            "positions": [
                0.6592312847415842,
                -0.7108973975902517,
                0.07450309000064825,
                0.18593221465399734,
                0.4462275382760946,
                0.23690958058455014
            ]
        },
        {
            "positions": [
                0.5763851374891285,
                -0.6948831111695984,
                0.17653065984916816,
                0.275648021476673,
                0.5189502278737066,
                0.22510865215671624
            ]
        },
        {
            "positions": [
                0.4935389902366727,
                -0.6788688247489453,
                0.27855822969768806,
                0.36536382829934877,
                0.5916729174713184,
                0.21330772372888235
            ]
        },
        {
            "positions": [
                0.41069284298421715,
                -0.662854538328292,
                0.38058579954620786,
                0.4550796351220243,
                0.6643956070689303,
                0.20150679530104842
            ]
        },
        {
            "positions": [
                0.32784669573176134,
                -0.6468402519076388,
                0.4826133693947279,
                0.5447954419447001,
                0.7371182966665423,
                0.18970586687321453
            ]
        },
        {
            "positions": [
                0.3091234300491932,
                -0.6587153306349257,
                0.6197979266199709,
                0.6701605992389735,
                0.6589960166046132,
                0.1734974085462885
            ]
        },
        {
            "positions": [
                0.290400164366625,
                -0.6705904093622126,
                0.7569824838452139,
                0.795525756533247,
                0.580873736542684,
                0.1572889502193625
            ]
        },
        {
            "positions": [
                0.27167689868405687,
                -0.6824654880894996,
                0.8941670410704567,
                0.9208909138275204,
                0.5027514564807549,
                0.1410804918924365
            ]
        },
        {
            "positions": [
                0.25295363300148865,
                -0.6943405668167865,
                1.0313515982957,
                1.0462560711217939,
                0.4246291764188258,
                0.12487203356551047
            ]
        },
        {
            "positions": [
                0.2342303673189205,
                -0.7062156455440733,
                1.1685361555209428,
                1.1716212284160674,
                0.3465068963568967,
                0.10866357523858446
            ]
        },
        {
            "positions": [
                0.21550710163635234,
                -0.7180907242713602,
                1.3057207127461856,
                1.2969863857103408,
                0.2683846162949676,
                0.09245511691165845
            ]
        },
        {
            "positions": [
                0.19678383595378418,
                -0.7299658029986471,
                1.4429052699714289,
                1.4223515430046143,
                0.19026233623303845,
                0.07624665858473242
            ]
        },
        {
            "positions": [
                0.178060570271216,
                -0.7418408817259341,
                1.580089827196672,
                1.5477167002988876,
                0.11214005617110934,
                0.0600382002578064
            ]
        },
        {
            "positions": [
                0.1593373045886478,
                -0.753715960453221,
                1.717274384421915,
                1.6730818575931612,
                0.03401777610918022,
                0.04382974193088038
            ]
        },
        {
            "positions": [
                0.14061403890607968,
                -0.7655910391805079,
                1.8544589416471577,
                1.7984470148874345,
                -0.0441045039527489,
                0.027621283603954383
            ]
        },
        {
            "positions": [
                0.12189077322351151,
                -0.7774661179077947,
                1.9916434988724008,
                1.923812172181708,
                -0.12222678401467797,
                0.011412825277028353
            ]
        }
    ]
}