{
    "goal": {
        "global_pose": {
            "orientation": {
                "w": 0.005598929693374612,
                "x": 0.007748599140229565,
                "y": 0.7110244013736278,
                "z": -0.7031023480610252
            },
            "position": {
                "x": 0.1141497679147869,
                "y": -0.7141253447532654,
                "z": 0.3711530566215515
            }
        },
        "name": "move_to_auspresseinheit_B"
    },
    "id": "BiTRRT_move_to_auspresseinheit_B_142",
    "joint_names": [
        "shoulder_pan_joint",
        "shoulder_lift_joint",
        "elbow_joint",
        "wrist_1_joint",
        "wrist_2_joint",
        "wrist_3_joint"
    ],
    "metrics": {
        "cart_traj_len": 0.5639809591701435,
        "distance_elbow_joint": 0.06270038046504744,
        "distance_shoulder_lift_joint": 0.294531825776974,
        "distance_shoulder_pan_joint": 0.5783642472318831,
        "distance_wrist_1_joint": 0.3333495941940098,
        "distance_wrist_2_joint": 0.9861183417050892,
        "distance_wrist_3_joint": 0.004633781106680335,
        "smoothness": 0.0,
        "time": 0.034715631999999996,
        "traj_len": 1.503229247480132,
        "weighted_distance": 1.8943161480049056
    },
    "planner": "BiTRRT",
    "start": {
        "state": {
            "elbow_joint": 2.0193083361928714,
            "shoulder_lift_joint": -1.1220246554650708,
            "shoulder_pan_joint": -1.0952077554168747,
            "wrist_1_joint": -0.8559753972642168,
            "wrist_2_joint": 0.4759566250798843,
            "wrist_3_joint": -3.1240929996934557
        }
    },
    "waypoints": [
        {
            "positions": [
                -1.0952077554168747,
                -1.1220246554650708,
                2.0193083361928714,
                -0.8559753972642168,
                0.4759566250798843,
                -3.1240929996934557
            ]
        },
        {
            "positions": [
                -1.1916017966221886,
                -1.1711132930945665,
                2.0088582727820303,
                -0.8004171315652151,
                0.6403096820307325,
                -3.124865296544569
            ]
        },
        {
            "positions": [
                -1.2879958378275023,
                -1.2202019307240621,
                1.998408209371189,
                -0.7448588658662135,
                0.8046627389815806,
                -3.1256375933956826
            ]
        },
        {
            "positions": [
                -1.3843898790328162,
                -1.2692905683535578,
                1.9879581459603477,
                -0.689300600167212,
                0.9690157959324288,
                -3.126409890246796
            ]
        },
        {
            "positions": [
                -1.4807839202381299,
                -1.3183792059830535,
                1.9775080825495064,
                -0.6337423344682103,
                1.133368852883277,
                -3.127182187097909
            ]
        },
        {
            "positions": [
                -1.5771779614434438,
                -1.3674678436125491,
                1.9670580191386653,
                -0.5781840687692086,
                1.2977219098341253,
                -3.1279544839490225
            ]
        },
        {
            "positions": [
                -1.6735720026487577,
                -1.4165564812420448,
                1.956607955727824,
                -0.522625803070207,
                1.4620749667849735,
                -3.128726780800136
            ]
        }
    ]
}