{
    "goal": {
        "global_pose": {
            "orientation": {
                "w": -0.00223480608172531,
                "x": 0.0024358444001904467,
                "y": 0.7094548369677653,
                "z": -0.704743149386269
            },
            "position": {
                "x": 0.6205249238014221,
                "y": -0.6371506643295288,
                "z": 0.19426114857196808
            }
        },
        "name": "move_to_magneteinheit_B"
    },
    "id": "BiTRRT_move_to_magneteinheit_B_75",
    "joint_names": [
        "shoulder_pan_joint",
        "shoulder_lift_joint",
        "elbow_joint",
        "wrist_1_joint",
        "wrist_2_joint",
        "wrist_3_joint"
    ],
    "metrics": {
        "cart_traj_len": 3.405856146003653,
        "distance_elbow_joint": 1.1074510946756098,
        "distance_shoulder_lift_joint": 2.396759462252472,
        "distance_shoulder_pan_joint": 7.147693333279891,
        "distance_wrist_1_joint": 1.6141465005451718,
        "distance_wrist_2_joint": 1.5154473537137416,
        "distance_wrist_3_joint": 7.471662967278661,
        "smoothness": 0.7899998126231618,
        "time": 0.090002987,
        "traj_len": 4.610115043222408,
        "weighted_distance": 6.271050988515545
    },
    "planner": "BiTRRT",
    "start": {
        "state": {
            "elbow_joint": 2.6216224122426386,
            "shoulder_lift_joint": -1.4174107377796124,
            "shoulder_pan_joint": 0.7066234856936794,
            "wrist_1_joint": 1.9546482284002225,
            "wrist_2_joint": -0.7096286983471962,
            "wrist_3_joint": 0.005740856962016249
        }
    },
    "waypoints": [
        {
            "positions": [
                0.7066234856936794,
                -1.4174107377796124,
                2.6216224122426386,
                1.9546482284002225,
                -0.7096286983471962,
                0.005740856962016249
            ]
        },
        {
            "positions": [
                0.5340831980740802,
                -1.4547892091001908,
                2.625158548314087,
                1.9718994224448285,
                -0.717715091110804,
                -0.1515870825670026
            ]
        },
        {
            "positions": [
                0.3615429104544811,
                -1.4921676804207693,
                2.628694684385535,
                1.9891506164894344,
                -0.7258014838744118,
                -0.30891502209602145
            ]
        },
        {
            "positions": [
                0.189002622834882,
                -1.5295461517413476,
                2.6322308204569835,
                2.00640181053404,
                -0.7338878766380195,
                -0.4662429616250403
            ]
        },
        {
            "positions": [
                0.01646233521528284,
                -1.566924623061926,
                2.635766956528432,
                2.0236530045786463,
                -0.7419742694016273,
                -0.6235709011540592
            ]
        },
        {
            "positions": [
                -0.1560779524043162,
                -1.6043030943825045,
                2.63930309259988,
                2.0409041986232523,
                -0.750060662165235,
                -0.780898840683078
            ]
        },
        {
            "positions": [
                -0.3286182400239154,
                -1.641681565703083,
                2.642839228671328,
                2.0581553926678584,
                -0.7581470549288428,
                -0.9382267802120969
            ]
        },
        {
            "positions": [
                -0.5011585276435145,
                -1.6790600370236615,
                2.6463753647427763,
                2.0754065867124645,
                -0.7662334476924506,
                -1.0955547197411157
            ]
        },
        {
            "positions": [
                -0.6736988152631137,
                -1.7164385083442397,
                2.6499115008142247,
                2.0926577807570705,
                -0.7743198404560583,
                -1.2528826592701345
            ]
        },
        {
            "positions": [
                -0.8462391028827129,
                -1.7538169796648182,
                2.653447636885673,
                2.109908974801676,
                -0.7824062332196661,
                -1.4102105987991536
            ]
        },
        {
            "positions": [
                -1.0187793905023117,
                -1.7911954509853967,
                2.6569837729571213,
                2.1271601688462822,
                -0.7904926259832739,
                -1.5675385383281721
            ]
        },
        {
            "positions": [
                -1.191319678121911,
                -1.8285739223059752,
                2.6605199090285696,
                2.1444113628908883,
                -0.7985790187468816,
                -1.7248664778571912
            ]
        },
        {
            "positions": [
                -1.36385996574151,
                -1.8659523936265536,
                2.664056045100018,
                2.1616625569354944,
                -0.8066654115104894,
                -1.88219441738621
            ]
        },
        {
            "positions": [
                -1.5364002533611094,
                -1.903330864947132,
                2.6675921811714662,
                2.1789137509801004,
                -0.8147518042740972,
                -2.039522356915229
            ]
        },
        {
            "positions": [
                -1.7089405409807084,
                -1.9407093362677106,
                2.6711283172429146,
                2.196164945024706,
                -0.822838197037705,
                -2.196850296444248
            ]
        },
        {
            "positions": [
                -1.8814808286003073,
                -1.9780878075882888,
                2.674664453314363,
                2.213416139069312,
                -0.8309245898013127,
                -2.3541782359732664
            ]
        },
        {
            "positions": [
                -2.0540211162199067,
                -2.0154662789088675,
                2.678200589385811,
                2.230667333113918,
                -0.8390109825649205,
                -2.5115061755022854
            ]
        },
        {
            "positions": [
                -2.2265614038395056,
                -2.052844750229446,
                2.681736725457259,
                2.2479185271585242,
                -0.8470973753285282,
                -2.6688341150313044
            ]
        },
        {
            "positions": [
                -2.399101691459105,
                -2.0902232215500245,
                2.6852728615287074,
                2.2651697212031303,
                -0.855183768092136,
                -2.8261620545603234
            ]
        },
        {
            "positions": [
                -2.571641979078704,
                -2.1276016928706025,
                2.6888089976001557,
                2.2824209152477364,
                -0.8632701608557438,
                -2.983489994089342
            ]
        },
        {
            "positions": [
                -2.744182266698303,
                -2.164980164191181,
                2.692345133671604,
                2.299672109292342,
                -0.8713565536193515,
                -3.1408179336183606
            ]
        },
        {
            "positions": [
                -2.9167225543179023,
                -2.2023586355117595,
                2.6958812697430523,
                2.316923303336948,
                -0.8794429463829593,
                -3.29814587314738
            ]
        },
        {
            "positions": [
                -3.0892628419375012,
                -2.239737106832338,
                2.6994174058145006,
                2.334174497381554,
                -0.8875293391465671,
                -3.4554738126763986
            ]
        },
        {
            "positions": [
                -2.974138929537016,
                -2.181139387984965,
                2.663548027556846,
                2.3046751387437503,
                -0.8876329984760215,
                -3.2995835529993927
            ]
        },
        {
            "positions": [
                -2.8590150171365316,
                -2.1225416691375925,
                2.6276786492991913,
                2.275175780105946,
                -0.887736657805476,
                -3.1436932933223867
            ]
        },
        {
            "positions": [
                -2.7438911047360466,
                -2.0639439502902195,
                2.591809271041537,
                2.245676421468142,
                -0.8878403171349305,
                -2.9878030336453807
            ]
        },
        {
            "positions": [
                -2.628767192335562,
                -2.0053462314428465,
                2.555939892783882,
                2.2161770628303383,
                -0.8879439764643849,
                -2.8319127739683747
            ]
        },
        {
            "positions": [
                -2.513643279935077,
                -1.946748512595474,
                2.5200705145262274,
                2.1866777041925345,
                -0.8880476357938394,
                -2.6760225142913683
            ]
        },
        {
            "positions": [
                -2.3985193675345924,
                -1.888150793748101,
                2.484201136268573,
                2.1571783455547306,
                -0.8881512951232939,
                -2.5201322546143623
            ]
        },
        {
            "positions": [
                -2.2833954551341074,
                -1.8295530749007283,
                2.448331758010918,
                2.1276789869169264,
                -0.8882549544527484,
                -2.3642419949373563
            ]
        },
        {
            "positions": [
                -2.1682715427336223,
                -1.7709553560533555,
                2.4124623797532636,
                2.0981796282791225,
                -0.8883586137822028,
                -2.2083517352603503
            ]
        },
        {
            "positions": [
                -2.0531476303331377,
                -1.7123576372059828,
                2.3765930014956087,
                2.0686802696413187,
                -0.8884622731116573,
                -2.0524614755833444
            ]
        },
        {
            "positions": [
                -1.9380237179326527,
                -1.65375991835861,
                2.3407236232379542,
                2.0391809110035144,
                -0.8885659324411117,
                -1.8965712159063381
            ]
        },
        {
            "positions": [
                -1.822899805532168,
                -1.595162199511237,
                2.3048542449803,
                2.0096815523657106,
                -0.8886695917705663,
                -1.7406809562293324
            ]
        },
        {
            "positions": [
                -1.707775893131683,
                -1.5365644806638643,
                2.268984866722645,
                1.9801821937279067,
                -0.8887732511000207,
                -1.5847906965523262
            ]
        },
        {
            "positions": [
                -1.5926519807311983,
                -1.4779667618164916,
                2.2331154884649904,
                1.9506828350901029,
                -0.8888769104294751,
                -1.4289004368753204
            ]
        },
        {
            "positions": [
                -1.4775280683307133,
                -1.4193690429691186,
                2.1972461102073355,
                1.9211834764522988,
                -0.8889805697589297,
                -1.273010177198314
            ]
        },
        {
            "positions": [
                -1.3624041559302285,
                -1.3607713241217458,
                2.161376731949681,
                1.8916841178144947,
                -0.8890842290883841,
                -1.117119917521308
            ]
        },
        {
            "positions": [
                -1.2472802435297439,
                -1.302173605274373,
                2.1255073536920266,
                1.862184759176691,
                -0.8891878884178386,
                -0.961229657844302
            ]
        },
        {
            "positions": [
                -1.1321563311292588,
                -1.2435758864270001,
                2.0896379754343717,
                1.832685400538887,
                -0.889291547747293,
                -0.805339398167296
            ]
        },
        {
            "positions": [
                -1.0170324187287743,
                -1.1849781675796276,
                2.053768597176717,
                1.803186041901083,
                -0.8893952070767475,
                -0.6494491384902901
            ]
        },
        {
            "positions": [
                -0.9019085063282892,
                -1.1263804487322546,
                2.0178992189190623,
                1.773686683263279,
                -0.889498866406202,
                -0.4935588788132841
            ]
        },
        {
            "positions": [
                -0.7867845939278042,
                -1.0677827298848819,
                1.9820298406614076,
                1.744187324625475,
                -0.8896025257356565,
                -0.33766861913627766
            ]
        },
        {
            "positions": [
                -0.6716606815273196,
                -1.0091850110375091,
                1.946160462403753,
                1.7146879659876713,
                -0.8897061850651109,
                -0.18177835945927168
            ]
        },
        {
            "positions": [
                -0.5565367691268346,
                -0.9505872921901364,
                1.9102910841460985,
                1.6851886073498672,
                -0.8898098443945655,
                -0.02588809978226614
            ]
        },
        {
            "positions": [
                -0.44141285672634956,
                -0.8919895733427634,
                1.8744217058884436,
                1.6556892487120631,
                -0.8899135037240199,
                0.1300021598947403
            ]
        },
        {
            "positions": [
                -0.3262889443258651,
                -0.8333918544953907,
                1.8385523276307891,
                1.6261898900742593,
                -0.8900171630534743,
                0.28589241957174616
            ]
        },
        {
            "positions": [
                -0.3998930828305,
                -0.8123808743875408,
                1.8174534497657846,
                1.6920193431063275,
                -1.0568995241794072,
                0.2522571613977339
            ]
        },
        {
            "positions": [
                -0.47349722133513494,
                -0.791369894279691,
                1.79635457190078,
                1.7578487961383957,
                -1.2237818853053402,
                0.2186219032237216
            ]
        },
        {
            "positions": [
                -0.5471013598397698,
                -0.7703589141718412,
                1.7752556940357755,
                1.8236782491704637,
                -1.3906642464312733,
                0.18498664504970935
            ]
        },
        {
            "positions": [
                -0.6207054983444048,
                -0.7493479340639914,
                1.754156816170771,
                1.889507702202532,
                -1.5575466075572062,
                0.15135138687569707
            ]
        },
        {
            "positions": [
                -0.6943096368490398,
                -0.7283369539561415,
                1.7330579383057665,
                1.9553371552346002,
                -1.724428968683139,
                0.1177161287016848
            ]
        },
        {
            "positions": [
                -0.7679137753536747,
                -0.7073259738482918,
                1.711959060440762,
                2.021166608266668,
                -1.891311329809072,
                0.08408087052767255
            ]
        },
        {
            "positions": [
                -0.8415179138583097,
                -0.6863149937404419,
                1.6908601825757574,
                2.0869960612987364,
                -2.058193690935005,
                0.05044561235366027
            ]
        },
        {
            "positions": [
                -0.9151220523629445,
                -0.6653040136325921,
                1.669761304710753,
                2.1528255143308046,
                -2.225076052060938,
                0.016810354179647977
            ]
        }
    ]
}