{
    "goal": {
        "global_pose": {
            "orientation": {
                "w": -0.4816463035849501,
                "x": 0.5182115481033762,
                "y": 0.4908360881923453,
                "z": -0.5084816262002911
            },
            "position": {
                "x": -0.8240239810943604,
                "y": -0.300875300988555,
                "z": 0.16403168439865112
            }
        },
        "name": "move_to_storage_C"
    },
    "id": "BiTRRT_move_to_storage_C_9",
    "joint_names": [
        "shoulder_pan_joint",
        "shoulder_lift_joint",
        "elbow_joint",
        "wrist_1_joint",
        "wrist_2_joint",
        "wrist_3_joint"
    ],
    "metrics": {
        "cart_traj_len": 0.5769539843108188,
        "distance_elbow_joint": 0.25920509760341903,
        "distance_shoulder_lift_joint": 0.18907880359086449,
        "distance_shoulder_pan_joint": 0.4961419937383136,
        "distance_wrist_1_joint": 0.08590745228304775,
        "distance_wrist_2_joint": 1.060968475956622,
        "distance_wrist_3_joint": 0.07122115361744763,
        "smoothness": 2.5376526478085547e-16,
        "time": 0.03428236,
        "traj_len": 1.4705519293073994,
        "weighted_distance": 1.8579131336702155
    },
    "planner": "BiTRRT",
    "start": {
        "state": {
            "elbow_joint": 2.010868314990456,
            "shoulder_lift_joint": -1.1634956873337592,
            "shoulder_pan_joint": -2.4736205022346125,
            "wrist_1_joint": -0.8367026794202681,
            "wrist_2_joint": 0.6746043897044499,
            "wrist_3_joint": -3.1496632123970403
        }
    },
    "waypoints": [
        {
            "positions": [
                -2.4736205022346125,
                -1.1634956873337592,
                2.010868314990456,
                -0.8367026794202681,
                0.6746043897044499,
                -3.1496632123970403
            ]
        },
        {
            "positions": [
                -2.5563108345243313,
                -1.1319825534019485,
                1.967667465389886,
                -0.8223847707064268,
                0.8514324690305536,
                -3.1377930201274657
            ]
        },
        {
            "positions": [
                -2.6390011668140505,
                -1.1004694194701377,
                1.9244666157893162,
                -0.8080668619925855,
                1.0282605483566574,
                -3.125922827857891
            ]
        },
        {
            "positions": [
                -2.7216914991037693,
                -1.068956285538327,
                1.8812657661887462,
                -0.7937489532787443,
                1.2050886276827608,
                -3.1140526355883162
            ]
        },
        {
            "positions": [
                -2.804381831393488,
                -1.0374431516065161,
                1.8380649165881764,
                -0.779431044564903,
                1.3819167070088647,
                -3.1021824433187417
            ]
        },
        {
            "positions": [
                -2.8870721636832073,
                -1.0059300176747055,
                1.7948640669876066,
                -0.7651131358510617,
                1.5587447863349682,
                -3.090312251049167
            ]
        },
        {
            "positions": [
                -2.969762495972926,
                -0.9744168837428947,
                1.7516632173870368,
                -0.7507952271372204,
                1.735572865661072,
                -3.0784420587795926
            ]
        }
    ]
}