{
    "goal": {
        "global_pose": {
            "orientation": {
                "w": 0.5084816262002911,
                "x": -0.4908360881923452,
                "y": 0.5182115481033761,
                "z": -0.48164630358495003
            },
            "position": {
                "x": 0.5540239810943604,
                "y": -0.46912469901144505,
                "z": 0.16403168439865112
            }
        },
        "name": "move_to_storage_B"
    },
    "id": "BiTRRT_move_to_storage_B_13",
    "joint_names": [
        "shoulder_pan_joint",
        "shoulder_lift_joint",
        "elbow_joint",
        "wrist_1_joint",
        "wrist_2_joint",
        "wrist_3_joint"
    ],
    "metrics": {
        "cart_traj_len": 0.8644596745814885,
        "distance_elbow_joint": 0.5427552073321036,
        "distance_shoulder_lift_joint": 0.47901748347906103,
        "distance_shoulder_pan_joint": 0.680590242758674,
        "distance_wrist_1_joint": 3.090876089840758,
        "distance_wrist_2_joint": 2.7198847681205707,
        "distance_wrist_3_joint": 3.1348559075552904,
        "smoothness": 0.1954683370080513,
        "time": 0.077480069,
        "traj_len": 3.2631242236676274,
        "weighted_distance": 4.767436666821949
    },
    "planner": "BiTRRT",
    "start": {
        "state": {
            "elbow_joint": 1.664937868594044,
            "shoulder_lift_joint": -0.661644460510453,
            "shoulder_pan_joint": -0.9139846352900073,
            "wrist_1_joint": 2.146753192139373,
            "wrist_2_joint": -2.2341966793290973,
            "wrist_3_joint": 0.005466555786416001
        }
    },
    "waypoints": [
        {
            "positions": [
                -0.9139846352900073,
                -0.661644460510453,
                1.664937868594044,
                2.146753192139373,
                -2.2341966793290973,
                0.005466555786416001
            ]
        },
        {
            "positions": [
                -0.8307379709230599,
                -0.6584573665604394,
                1.6330868275332124,
                2.164517481552796,
                -2.1121679409856653,
                0.02772396914681661
            ]
        },
        {
            "positions": [
                -0.7474913065561124,
                -0.6552702726104258,
                1.601235786472381,
                2.182281770966219,
                -1.990139202642233,
                0.04998138250721722
            ]
        },
        {
            "positions": [
                -0.664244642189165,
                -0.6520831786604122,
                1.5693847454115495,
                2.2000460603796417,
                -1.868110464298801,
                0.07223879586761783
            ]
        },
        {
            "positions": [
                -0.6814786521754783,
                -0.670861426725573,
                1.587272828777534,
                2.078542731515622,
                -1.77395852217519,
                0.19496214256658134
            ]
        },
        {
            "positions": [
                -0.6987126621617915,
                -0.6896396747907338,
                1.6051609121435182,
                1.9570394026516025,
                -1.679806580051579,
                0.31768548926554485
            ]
        },
        {
            "positions": [
                -0.7159466721481048,
                -0.7084179228558947,
                1.6230489955095027,
                1.835536073787583,
                -1.5856546379279681,
                0.4404088359645084
            ]
        },
        {
            "positions": [
                -0.7331806821344181,
                -0.7271961709210555,
                1.640937078875487,
                1.7140327449235633,
                -1.4915026958043571,
                0.5631321826634719
            ]
        },
        {
            "positions": [
                -0.7504146921207313,
                -0.7459744189862163,
                1.6588251622414714,
                1.5925294160595436,
                -1.3973507536807461,
                0.6858555293624355
            ]
        },
        {
            "positions": [
                -0.7676487021070446,
                -0.7647526670513771,
                1.6767132456074556,
                1.4710260871955243,
                -1.3031988115571354,
                0.808578876061399
            ]
        },
        {
            "positions": [
                -0.7848827120933579,
                -0.7835309151165379,
                1.69460132897344,
                1.3495227583315046,
                -1.2090468694335241,
                0.9313022227603626
            ]
        },
        {
            "positions": [
                -0.8021167220796712,
                -0.8023091631816988,
                1.7124894123394245,
                1.2280194294674849,
                -1.1148949273099134,
                1.0540255694593261
            ]
        },
        {
            "positions": [
                -0.8193507320659844,
                -0.8210874112468595,
                1.7303774957054088,
                1.1065161006034654,
                -1.0207429851863024,
                1.1767489161582896
            ]
        },
        {
            "positions": [
                -0.8365847420522977,
                -0.8398656593120203,
                1.7482655790713932,
                0.9850127717394457,
                -0.9265910430626914,
                1.2994722628572533
            ]
        },
        {
            "positions": [
                -0.8538187520386109,
                -0.8586439073771811,
                1.7661536624373775,
                0.8635094428754262,
                -0.8324391009390804,
                1.4221956095562167
            ]
        },
        {
            "positions": [
                -0.8710527620249242,
                -0.8774221554423419,
                1.784041745803362,
                0.7420061140114067,
                -0.7382871588154696,
                1.5449189562551802
            ]
        },
        {
            "positions": [
                -0.8882867720112375,
                -0.8962004035075027,
                1.8019298291693462,
                0.620502785147387,
                -0.6441352166918584,
                1.6676423029541436
            ]
        },
        {
            "positions": [
                -0.9055207819975508,
                -0.9149786515726636,
                1.8198179125353307,
                0.4989994562833673,
                -0.5499832745682474,
                1.7903656496531073
            ]
        },
        {
            "positions": [
                -0.922754791983864,
                -0.9337568996378243,
                1.837705995901315,
                0.377496127419348,
                -0.4558313324446366,
                1.9130889963520705
            ]
        },
        {
            "positions": [
                -0.9399888019701773,
                -0.9525351477029852,
                1.8555940792672994,
                0.2559927985553283,
                -0.3616793903210256,
                2.035812343051034
            ]
        },
        {
            "positions": [
                -0.9572228119564905,
                -0.971313395768146,
                1.8734821626332838,
                0.13448946969130837,
                -0.2675274481974146,
                2.158535689749998
            ]
        },
        {
            "positions": [
                -0.9744568219428038,
                -0.9900916438333067,
                1.891370245999268,
                0.012986140827289105,
                -0.1733755060738038,
                2.2812590364489616
            ]
        },
        {
            "positions": [
                -0.9916908319291171,
                -1.0088698918984675,
                1.9092583293652525,
                -0.1085171880367306,
                -0.07922356395019281,
                2.403982383147925
            ]
        },
        {
            "positions": [
                -1.0089248419154304,
                -1.0276481399636284,
                1.9271464127312368,
                -0.23002051690075032,
                0.014928378173418189,
                2.5267057298468885
            ]
        },
        {
            "positions": [
                -1.0261588519017435,
                -1.0464263880287892,
                1.9450344960972212,
                -0.3515238457647696,
                0.10908032029702897,
                2.649429076545852
            ]
        },
        {
            "positions": [
                -1.0433928618880568,
                -1.06520463609395,
                1.9629225794632055,
                -0.4730271746287893,
                0.2032322624206402,
                2.7721524232448154
            ]
        },
        {
            "positions": [
                -1.06062687187437,
                -1.0839828841591108,
                1.98081066282919,
                -0.594530503492809,
                0.29738420454425096,
                2.894875769943779
            ]
        },
        {
            "positions": [
                -1.0778608818606834,
                -1.1027611322242716,
                1.9986987461951742,
                -0.7160338323568283,
                0.39153614666786174,
                3.0175991166427423
            ]
        },
        {
            "positions": [
                -1.0950948918469967,
                -1.1215393802894325,
                2.0165868295611586,
                -0.8375371612208481,
                0.4856880887914728,
                3.140322463341706
            ]
        }
    ]
}