{
    "goal": {
        "global_pose": {
            "orientation": {
                "w": 0.005598929693374612,
                "x": 0.007748599140229565,
                "y": 0.7110244013736278,
                "z": -0.7031023480610252
            },
            "position": {
                "x": 0.1141497679147869,
                "y": -0.7141253447532654,
                "z": 0.3711530566215515
            }
        },
        "name": "move_to_auspresseinheit_B"
    },
    "id": "BiTRRT_move_to_auspresseinheit_B_86",
    "joint_names": [
        "shoulder_pan_joint",
        "shoulder_lift_joint",
        "elbow_joint",
        "wrist_1_joint",
        "wrist_2_joint",
        "wrist_3_joint"
    ],
    "metrics": {
        "cart_traj_len": 0.5645306509257666,
        "distance_elbow_joint": 0.060986259071578175,
        "distance_shoulder_lift_joint": 0.29406379188272536,
        "distance_shoulder_pan_joint": 0.5777051585906714,
        "distance_wrist_1_joint": 0.32059232717052644,
        "distance_wrist_2_joint": 0.9904138862978151,
        "distance_wrist_3_joint": 0.004551298045103458,
        "smoothness": 0.0,
        "time": 0.044076679,
        "traj_len": 1.4994374682054668,
        "weighted_distance": 1.8890266092929895
    },
    "planner": "BiTRRT",
    "start": {
        "state": {
            "elbow_joint": 2.0193083361928714,
            "shoulder_lift_joint": -1.1220246554650708,
            "shoulder_pan_joint": -1.0952077554168747,
            "wrist_1_joint": -0.8559753972642168,
            "wrist_2_joint": 0.4759566250798843,
            "wrist_3_joint": -3.1240929996934557
        }
    },
    "waypoints": [
        {
            "positions": [
                -1.0952077554168747,
                -1.1220246554650708,
                2.0193083361928714,
                -0.8559753972642168,
                0.4759566250798843,
                -3.1240929996934557
            ]
        },
        {
            "positions": [
                -1.19149194851532,
                -1.171035287445525,
                2.0091439596809417,
                -0.8025433427357958,
                0.6410256061295201,
                -3.123334450019272
            ]
        },
        {
            "positions": [
                -1.2877761416137652,
                -1.2200459194259792,
                1.998979583169012,
                -0.7491112882073746,
                0.806094587179156,
                -3.1225759003450877
            ]
        },
        {
            "positions": [
                -1.3840603347122102,
                -1.2690565514064334,
                1.9888152066570823,
                -0.6956792336789536,
                0.9711635682287918,
                -3.121817350670904
            ]
        },
        {
            "positions": [
                -1.4803445278106555,
                -1.3180671833868878,
                1.9786508301451526,
                -0.6422471791505325,
                1.1362325492784278,
                -3.12105880099672
            ]
        },
        {
            "positions": [
                -1.5766287209091008,
                -1.367077815367342,
                1.968486453633223,
                -0.5888151246221114,
                1.3013015303280635,
                -3.120300251322536
            ]
        },
        {
            "positions": [
                -1.672912914007546,
                -1.4160884473477962,
                1.9583220771212932,
                -0.5353830700936903,
                1.4663705113776995,
                -3.119541701648352
            ]
        }
    ]
}