{
    "goal": {
        "global_pose": {
            "orientation": {
                "w": 0.7047431493862688,
                "x": -0.7094548369677653,
                "y": 0.0024358444001904,
                "z": -0.0022348060817251984
            },
            "position": {
                "x": -0.39052492380142206,
                "y": 0.3671506643295288,
                "z": 0.19426114857196808
            }
        },
        "name": "move_to_magneteinheit_D"
    },
    "id": "BiTRRT_move_to_magneteinheit_D_56",
    "joint_names": [
        "shoulder_pan_joint",
        "shoulder_lift_joint",
        "elbow_joint",
        "wrist_1_joint",
        "wrist_2_joint",
        "wrist_3_joint"
    ],
    "metrics": {
        "cart_traj_len": 5.631858539477095,
        "distance_elbow_joint": 4.1831999114070015,
        "distance_shoulder_lift_joint": 1.6350070311243894,
        "distance_shoulder_pan_joint": 6.377645968277006,
        "distance_wrist_1_joint": 1.598604640943453,
        "distance_wrist_2_joint": 3.547395372357665,
        "distance_wrist_3_joint": 3.3745687690260744,
        "smoothness": 0.476361466848316,
        "time": 0.22233480500000002,
        "traj_len": 4.5515295992814995,
        "weighted_distance": 5.71065313641871
    },
    "planner": "BiTRRT",
    "start": {
        "state": {
            "elbow_joint": 0.749534889911806,
            "shoulder_lift_joint": -0.6476975780787326,
            "shoulder_pan_joint": -2.711696901376241,
            "wrist_1_joint": -0.07506478083263063,
            "wrist_2_joint": 0.43296659715538205,
            "wrist_3_joint": -3.14703540197715
        }
    },
    "waypoints": [
        {
            "positions": [
                -2.711696901376241,
                -0.6476975780787326,
                0.749534889911806,
                -0.07506478083263063,
                0.43296659715538205,
                -3.14703540197715
            ]
        },
        {
            "positions": [
                -2.770201853569205,
                -0.6974144749680552,
                0.810577621250192,
                -0.0011308433897894432,
                0.4464930482438241,
                -3.0267415635622186
            ]
        },
        {
            "positions": [
                -2.8287068057621685,
                -0.7471313718573778,
                0.871620352588578,
                0.07280309405305174,
                0.46001949933226605,
                -2.9064477251472867
            ]
        },
        {
            "positions": [
                -2.887211757955132,
                -0.7968482687467004,
                0.932663083926964,
                0.14673703149589293,
                0.4735459504207081,
                -2.786153886732355
            ]
        },
        {
            "positions": [
                -2.945716710148096,
                -0.846565165636023,
                0.99370581526535,
                0.2206709689387341,
                0.4870724015091501,
                -2.6658600483174237
            ]
        },
        {
            "positions": [
                -3.0042216623410596,
                -0.8962820625253456,
                1.054748546603736,
                0.2946049063815753,
                0.5005988525975921,
                -2.545566209902492
            ]
        },
        {
            "positions": [
                -3.0627266145340233,
                -0.9459989594146683,
                1.115791277942122,
                0.3685388438244165,
                0.5141253036860342,
                -2.4252723714875604
            ]
        },
        {
            "positions": [
                -3.121231566726987,
                -0.9957158563039908,
                1.176834009280508,
                0.44247278126725764,
                0.5276517547744761,
                -2.304978533072629
            ]
        },
        {
            "positions": [
                -2.9820856997815266,
                -1.0098169638153038,
                1.062657778172422,
                0.4430446876850459,
                0.576111886495367,
                -2.2296456671982336
            ]
        },
        {
            "positions": [
                -2.842939832836066,
                -1.0239180713266167,
                0.948481547064336,
                0.44361659410283416,
                0.624572018216258,
                -2.154312801323838
            ]
        },
        {
            "positions": [
                -2.7037939658906054,
                -1.0380191788379296,
                0.8343053159562499,
                0.4441885005206224,
                0.6730321499371489,
                -2.0789799354494427
            ]
        },
        {
            "positions": [
                -2.564648098945145,
                -1.0521202863492425,
                0.7201290848481638,
                0.4447604069384107,
                0.7214922816580398,
                -2.003647069575047
            ]
        },
        {
            "positions": [
                -2.4255022319996846,
                -1.0662213938605554,
                0.6059528537400778,
                0.44533231335619894,
                0.7699524133789307,
                -1.9283142037006515
            ]
        },
        {
            "positions": [
                -2.286356365054224,
                -1.0803225013718685,
                0.49177662263199173,
                0.4459042197739872,
                0.8184125450998216,
                -1.852981337826256
            ]
        },
        {
            "positions": [
                -2.1472104981087634,
                -1.0944236088831814,
                0.3776003915239057,
                0.44647612619177546,
                0.8668726768207127,
                -1.7776484719518608
            ]
        },
        {
            "positions": [
                -2.008064631163303,
                -1.1085247163944942,
                0.2634241604158196,
                0.4470480326095637,
                0.9153328085416035,
                -1.7023156060774651
            ]
        },
        {
            "positions": [
                -1.8689187642178426,
                -1.1226258239058071,
                0.14924792930773356,
                0.4476199390273519,
                0.9637929402624945,
                -1.6269827402030699
            ]
        },
        {
            "positions": [
                -1.729772897272382,
                -1.1367269314171202,
                0.035071698199647505,
                0.4481918454451402,
                1.0122530719833853,
                -1.5516498743286742
            ]
        },
        {
            "positions": [
                -1.5906270303269214,
                -1.150828038928433,
                -0.07910453290843855,
                0.44876375186292844,
                1.0607132037042764,
                -1.476317008454279
            ]
        },
        {
            "positions": [
                -1.451481163381461,
                -1.164929146439746,
                -0.1932807640165246,
                0.4493356582807167,
                1.1091733354251674,
                -1.4009841425798835
            ]
        },
        {
            "positions": [
                -1.3123352964360007,
                -1.1790302539510589,
                -0.30745699512461067,
                0.44990756469850496,
                1.1576334671460582,
                -1.325651276705488
            ]
        },
        {
            "positions": [
                -1.17318942949054,
                -1.1931313614623718,
                -0.4216332262326967,
                0.4504794711162932,
                1.206093598866949,
                -1.2503184108310925
            ]
        },
        {
            "positions": [
                -1.0340435625450795,
                -1.2072324689736846,
                -0.5358094573407828,
                0.4510513775340815,
                1.25455373058784,
                -1.174985544956697
            ]
        },
        {
            "positions": [
                -0.8948976955996191,
                -1.2213335764849977,
                -0.6499856884488688,
                0.45162328395186974,
                1.303013862308731,
                -1.0996526790823016
            ]
        },
        {
            "positions": [
                -0.7557518286541587,
                -1.2354346839963106,
                -0.7641619195569549,
                0.452195190369658,
                1.3514739940296219,
                -1.024319813207906
            ]
        },
        {
            "positions": [
                -0.6166059617086983,
                -1.2495357915076235,
                -0.878338150665041,
                0.45276709678744625,
                1.3999341257505127,
                -0.9489869473335106
            ]
        },
        {
            "positions": [
                -0.4774600947632375,
                -1.2636368990189364,
                -0.992514381773127,
                0.4533390032052345,
                1.4483942574714037,
                -0.8736540814591152
            ]
        },
        {
            "positions": [
                -0.3383142278177771,
                -1.2777380065302495,
                -1.106690612881213,
                0.4539109096230228,
                1.4968543891922947,
                -0.7983212155847197
            ]
        },
        {
            "positions": [
                -0.1991683608723167,
                -1.2918391140415624,
                -1.2208668439892991,
                0.45448281604081103,
                1.5453145209131856,
                -0.7229883497103242
            ]
        },
        {
            "positions": [
                -0.06002249392685588,
                -1.3059402215528753,
                -1.3350430750973852,
                0.4550547224585993,
                1.5937746526340766,
                -0.6476554838359287
            ]
        },
        {
            "positions": [
                0.0791233730186045,
                -1.3200413290641881,
                -1.4492193062054712,
                0.45562662887638755,
                1.6422347843549674,
                -0.5723226179615333
            ]
        },
        {
            "positions": [
                0.2182692399640649,
                -1.334142436575501,
                -1.5633955373135573,
                0.45619853529417576,
                1.6906949160758584,
                -0.496989752087138
            ]
        },
        {
            "positions": [
                0.35741510690952527,
                -1.348243544086814,
                -1.6775717684216434,
                0.456770441711964,
                1.7391550477967492,
                -0.42165688621274255
            ]
        },
        {
            "positions": [
                0.49656097385498565,
                -1.362344651598127,
                -1.7917479995297294,
                0.4573423481297523,
                1.7876151795176403,
                -0.3463240203383471
            ]
        },
        {
            "positions": [
                0.6357068408004465,
                -1.37644575910944,
                -1.9059242306378155,
                0.45791425454754053,
                1.836075311238531,
                -0.2709911544639514
            ]
        },
        {
            "positions": [
                0.7748527077459069,
                -1.3905468666207528,
                -2.0201004617459013,
                0.4584861609653288,
                1.884535442959422,
                -0.19565828858955614
            ]
        },
        {
            "positions": [
                0.9139985746913677,
                -1.4046479741320659,
                -2.1342766928539874,
                0.45905806738311705,
                1.932995574680313,
                -0.12032542271516045
            ]
        },
        {
            "positions": [
                1.053144441636828,
                -1.4187490816433788,
                -2.2484529239620734,
                0.4596299738009053,
                1.981455706401204,
                -0.0449925568407652
            ]
        },
        {
            "positions": [
                1.1922903085822885,
                -1.4328501891546916,
                -2.3626291550701595,
                0.46020188021869357,
                2.0299158381220948,
                0.030340309033630497
            ]
        },
        {
            "positions": [
                1.3314361755277484,
                -1.4469512966660045,
                -2.4768053861782455,
                0.46077378663648183,
                2.078375969842986,
                0.10567317490802575
            ]
        },
        {
            "positions": [
                1.2231902069083533,
                -1.5066479618472273,
                -2.469501000708278,
                0.5366856490275062,
                1.94251982700941,
                0.09696887546939043
            ]
        },
        {
            "positions": [
                1.1149442382889585,
                -1.5663446270284498,
                -2.4621966152383106,
                0.6125975114185305,
                1.8066636841758341,
                0.08826457603075509
            ]
        },
        {
            "positions": [
                1.0066982696695634,
                -1.6260412922096725,
                -2.4548922297683426,
                0.6885093738095547,
                1.6708075413422583,
                0.07956027659211977
            ]
        },
        {
            "positions": [
                0.8984523010501686,
                -1.6857379573908953,
                -2.447587844298375,
                0.7644212362005791,
                1.5349513985086825,
                0.07085597715348443
            ]
        },
        {
            "positions": [
                0.7902063324307735,
                -1.7454346225721178,
                -2.4402834588284077,
                0.8403330985916033,
                1.3990952556751064,
                0.06215167771484911
            ]
        },
        {
            "positions": [
                0.6819603638113786,
                -1.8051312877533405,
                -2.43297907335844,
                0.9162449609826276,
                1.2632391128415308,
                0.053447378276213785
            ]
        },
        {
            "positions": [
                0.5737143951919836,
                -1.8648279529345633,
                -2.4256746878884723,
                0.992156823373652,
                1.1273829700079547,
                0.04474307883757846
            ]
        },
        {
            "positions": [
                0.4654684265725887,
                -1.924524618115786,
                -2.418370302418505,
                1.0680686857646764,
                0.9915268271743789,
                0.036038779398943135
            ]
        },
        {
            "positions": [
                0.35722245795319363,
                -1.9842212832970088,
                -2.4110659169485373,
                1.1439805481557006,
                0.8556706843408028,
                0.0273344799603078
            ]
        },
        {
            "positions": [
                0.24897648933379868,
                -2.0439179484782315,
                -2.40376153147857,
                1.2198924105467248,
                0.719814541507227,
                0.01863018052167248
            ]
        },
        {
            "positions": [
                0.14073052071440384,
                -2.1036146136594542,
                -2.3964571460086024,
                1.2958042729377492,
                0.5839583986736514,
                0.009925881083037144
            ]
        },
        {
            "positions": [
                0.03248455209500878,
                -2.1633112788406765,
                -2.3891527605386345,
                1.3717161353287735,
                0.44810225584007557,
                0.001221581644401823
            ]
        },
        {
            "positions": [
                -0.07576141652438628,
                -2.2230079440218993,
                -2.381848375068667,
                1.4476279977197977,
                0.3122461130064995,
                -0.007482717794233512
            ]
        },
        {
            "positions": [
                -0.18400738514378118,
                -2.282704609203122,
                -2.3745439895986995,
                1.523539860110822,
                0.1763899701729238,
                -0.016187017232868826
            ]
        }
    ]
}