{
    "goal": {
        "global_pose": {
            "orientation": {
                "w": 0.5084816262002911,
                "x": -0.4908360881923452,
                "y": 0.5182115481033761,
                "z": -0.48164630358495003
            },
            "position": {
                "x": 0.5540239810943604,
                "y": -0.46912469901144505,
                "z": 0.16403168439865112
            }
        },
        "name": "move_to_storage_B"
    },
    "id": "BiTRRT_move_to_storage_B_143",
    "joint_names": [
        "shoulder_pan_joint",
        "shoulder_lift_joint",
        "elbow_joint",
        "wrist_1_joint",
        "wrist_2_joint",
        "wrist_3_joint"
    ],
    "metrics": {
        "cart_traj_len": 2.6511042279670574,
        "distance_elbow_joint": 0.8229229839812016,
        "distance_shoulder_lift_joint": 2.8945932638795107,
        "distance_shoulder_pan_joint": 2.2176727930686244,
        "distance_wrist_1_joint": 2.9820750203649578,
        "distance_wrist_2_joint": 2.70511731413834,
        "distance_wrist_3_joint": 7.5228181310109585,
        "smoothness": 0.3855882597536666,
        "time": 0.117582831,
        "traj_len": 4.375522769503502,
        "weighted_distance": 6.314905233094855
    },
    "planner": "BiTRRT",
    "start": {
        "state": {
            "elbow_joint": 1.664937868594044,
            "shoulder_lift_joint": -0.661644460510453,
            "shoulder_pan_joint": -0.9139846352900073,
            "wrist_1_joint": 2.146753192139373,
            "wrist_2_joint": -2.2341966793290973,
            "wrist_3_joint": 0.005466555786416001
        }
    },
    "waypoints": [
        {
            "positions": [
                -0.9139846352900073,
                -0.661644460510453,
                1.664937868594044,
                2.146753192139373,
                -2.2341966793290973,
                0.005466555786416001
            ]
        },
        {
            "positions": [
                -0.8540915656808339,
                -0.7602261114564449,
                1.6993635578188826,
                2.1308064849840216,
                -2.1864192214877756,
                0.13448088586035786
            ]
        },
        {
            "positions": [
                -0.7941984960716605,
                -0.8588077624024368,
                1.7337892470437213,
                2.11485977782867,
                -2.138641763646454,
                0.26349521593429975
            ]
        },
        {
            "positions": [
                -0.7343054264624871,
                -0.9573894133484289,
                1.76821493626856,
                2.098913070673318,
                -2.090864305805132,
                0.3925095460082416
            ]
        },
        {
            "positions": [
                -0.6744123568533137,
                -1.0559710642944207,
                1.8026406254933987,
                2.0829663635179663,
                -2.0430868479638105,
                0.5215238760821834
            ]
        },
        {
            "positions": [
                -0.6145192872441403,
                -1.1545527152404127,
                1.8370663147182376,
                2.0670196563626146,
                -1.9953093901224885,
                0.6505382061561252
            ]
        },
        {
            "positions": [
                -0.5546262176349669,
                -1.2531343661864045,
                1.8714920039430762,
                2.051072949207263,
                -1.9475319322811668,
                0.7795525362300672
            ]
        },
        {
            "positions": [
                -0.49473314802579355,
                -1.3517160171323965,
                1.905917693167915,
                2.035126242051911,
                -1.8997544744398451,
                0.9085668663040088
            ]
        },
        {
            "positions": [
                -0.43484007841662015,
                -1.4502976680783886,
                1.9403433823927536,
                2.0191795348965593,
                -1.8519770165985234,
                1.0375811963779509
            ]
        },
        {
            "positions": [
                -0.3749470088074467,
                -1.5488793190243806,
                1.9747690716175923,
                2.0032328277412077,
                -1.8041995587572017,
                1.1665955264518926
            ]
        },
        {
            "positions": [
                -0.3150539391982733,
                -1.6474609699703724,
                2.009194760842431,
                1.9872861205858559,
                -1.75642210091588,
                1.2956098565258345
            ]
        },
        {
            "positions": [
                -0.2551608695890999,
                -1.7460426209163644,
                2.04362045006727,
                1.9713394134305042,
                -1.708644643074558,
                1.4246241865997764
            ]
        },
        {
            "positions": [
                -0.1952677999799265,
                -1.8446242718623562,
                2.0780461392921086,
                1.9553927062751524,
                -1.6608671852332364,
                1.5536385166737183
            ]
        },
        {
            "positions": [
                -0.1353747303707532,
                -1.943205922808348,
                2.1124718285169473,
                1.9394459991198008,
                -1.6130897273919147,
                1.68265284674766
            ]
        },
        {
            "positions": [
                -0.0754816607615798,
                -2.0417875737543403,
                2.146897517741786,
                1.9234992919644491,
                -1.565312269550593,
                1.8116671768216017
            ]
        },
        {
            "positions": [
                -0.015588591152406406,
                -2.140369224700332,
                2.1813232069666246,
                1.9075525848090973,
                -1.5175348117092713,
                1.9406815068955436
            ]
        },
        {
            "positions": [
                0.044304478456766994,
                -2.238950875646324,
                2.2157488961914633,
                1.8916058776537454,
                -1.4697573538679496,
                2.069695836969486
            ]
        },
        {
            "positions": [
                0.10419754806594028,
                -2.337532526592316,
                2.250174585416302,
                1.8756591704983938,
                -1.4219798960266279,
                2.1987101670434277
            ]
        },
        {
            "positions": [
                0.06671346651241916,
                -2.2994479891611395,
                2.242746889567585,
                1.7909410142882696,
                -1.362826754438007,
                2.032160963301117
            ]
        },
        {
            "positions": [
                0.02922938495889804,
                -2.261363451729963,
                2.235319193718868,
                1.706222858078145,
                -1.303673612849386,
                1.865611759558806
            ]
        },
        {
            "positions": [
                -0.008254696594623079,
                -2.223278914298786,
                2.227891497870151,
                1.6215047018680209,
                -1.2445204712607651,
                1.6990625558164953
            ]
        },
        {
            "positions": [
                -0.0457387781481442,
                -2.1851943768676096,
                2.2204638020214342,
                1.5367865456578964,
                -1.1853673296721443,
                1.5325133520741845
            ]
        },
        {
            "positions": [
                -0.08322285970166532,
                -2.147109839436433,
                2.213036106172717,
                1.4520683894477722,
                -1.1262141880835235,
                1.3659641483318736
            ]
        },
        {
            "positions": [
                -0.12070694125518644,
                -2.1090253020052567,
                2.205608410324,
                1.367350233237648,
                -1.0670610464949024,
                1.199414944589563
            ]
        },
        {
            "positions": [
                -0.15819102280870756,
                -2.0709407645740803,
                2.198180714475283,
                1.2826320770275235,
                -1.0079079049062816,
                1.0328657408472521
            ]
        },
        {
            "positions": [
                -0.19567510436222868,
                -2.0328562271429034,
                2.190753018626566,
                1.1979139208173992,
                -0.9487547633176607,
                0.8663165371049413
            ]
        },
        {
            "positions": [
                -0.2331591859157498,
                -1.994771689711727,
                2.1833253227778493,
                1.113195764607275,
                -0.8896016217290398,
                0.6997673333626304
            ]
        },
        {
            "positions": [
                -0.2706432674692709,
                -1.9566871522805505,
                2.175897626929132,
                1.0284776083971505,
                -0.8304484801404188,
                0.5332181296203196
            ]
        },
        {
            "positions": [
                -0.30812734902279204,
                -1.918602614849374,
                2.168469931080415,
                0.9437594521870263,
                -0.771295338551798,
                0.3666689258780089
            ]
        },
        {
            "positions": [
                -0.34561143057631316,
                -1.8805180774181975,
                2.1610422352316982,
                0.859041295976902,
                -0.712142196963177,
                0.20011972213569806
            ]
        },
        {
            "positions": [
                -0.3830955121298343,
                -1.8424335399870209,
                2.153614539382981,
                0.7743231397667776,
                -0.6529890553745562,
                0.03357051839338743
            ]
        },
        {
            "positions": [
                -0.4205795936833554,
                -1.8043490025558444,
                2.1461868435342644,
                0.6896049835566533,
                -0.5938359137859353,
                -0.13297868534892343
            ]
        },
        {
            "positions": [
                -0.4580636752368765,
                -1.7662644651246677,
                2.138759147685547,
                0.6048868273465289,
                -0.5346827721973144,
                -0.2995278890912343
            ]
        },
        {
            "positions": [
                -0.49554775679039764,
                -1.7281799276934913,
                2.1313314518368305,
                0.5201686711364046,
                -0.47552963060869347,
                -0.46607709283354515
            ]
        },
        {
            "positions": [
                -0.5330318383439188,
                -1.6900953902623148,
                2.1239037559881133,
                0.4354505149262804,
                -0.4163764890200725,
                -0.632626296575856
            ]
        },
        {
            "positions": [
                -0.5705159198974399,
                -1.6520108528311381,
                2.116476060139396,
                0.35073235871615593,
                -0.3572233474314517,
                -0.7991755003181669
            ]
        },
        {
            "positions": [
                -0.608000001450961,
                -1.6139263153999617,
                2.1090483642906794,
                0.2660142025060317,
                -0.29807020584283084,
                -0.9657247040604777
            ]
        },
        {
            "positions": [
                -0.6454840830044821,
                -1.575841777968785,
                2.1016206684419623,
                0.18129604629590723,
                -0.23891706425420978,
                -1.1322739078027886
            ]
        },
        {
            "positions": [
                -0.6829681645580032,
                -1.5377572405376085,
                2.0941929725932455,
                0.09657789008578299,
                -0.17976392266558894,
                -1.298823111545099
            ]
        },
        {
            "positions": [
                -0.7204522461115244,
                -1.499672703106432,
                2.0867652767445284,
                0.011859733875658751,
                -0.1206107810769681,
                -1.4653723152874099
            ]
        },
        {
            "positions": [
                -0.7579363276650455,
                -1.4615881656752556,
                2.079337580895811,
                -0.07285842233446571,
                -0.06145763948834726,
                -1.6319215190297207
            ]
        },
        {
            "positions": [
                -0.7954204092185666,
                -1.423503628244079,
                2.0719098850470945,
                -0.15757657854458973,
                -0.002304497899726199,
                -1.7984707227720316
            ]
        },
        {
            "positions": [
                -0.8329044907720877,
                -1.3854190908129023,
                2.0644821891983773,
                -0.2422947347547142,
                0.05684864368889464,
                -1.965019926514342
            ]
        },
        {
            "positions": [
                -0.8703885723256088,
                -1.3473345533817258,
                2.0570544933496606,
                -0.32701289096483865,
                0.11600178527751548,
                -2.131569130256653
            ]
        },
        {
            "positions": [
                -0.90787265387913,
                -1.3092500159505494,
                2.0496267975009435,
                -0.4117310471749631,
                0.17515492686613654,
                -2.2981183339989637
            ]
        },
        {
            "positions": [
                -0.9453567354326511,
                -1.271165478519373,
                2.0421991016522263,
                -0.49644920338508713,
                0.23430806845475738,
                -2.4646675377412746
            ]
        },
        {
            "positions": [
                -0.9828408169861722,
                -1.2330809410881962,
                2.0347714058035096,
                -0.5811673595952116,
                0.2934612100433782,
                -2.6312167414835854
            ]
        },
        {
            "positions": [
                -1.0203248985396933,
                -1.1949964036570198,
                2.0273437099547924,
                -0.6658855158053361,
                0.35261435163199906,
                -2.7977659452258963
            ]
        },
        {
            "positions": [
                -1.0578089800932144,
                -1.156911866225843,
                2.0199160141060757,
                -0.7506036720154601,
                0.4117674932206201,
                -2.964315148968207
            ]
        },
        {
            "positions": [
                -1.0952930616467356,
                -1.1188273287946666,
                2.0124883182573585,
                -0.8353218282255843,
                0.47092063480924096,
                -3.130864352710518
            ]
        }
    ]
}