{
    "goal": {
        "global_pose": {
            "orientation": {
                "w": 0.7031023480610252,
                "x": -0.7110244013736278,
                "y": 0.0077485991402295624,
                "z": 0.005598929693374583
            },
            "position": {
                "x": -0.8841497679147869,
                "y": 0.44412534475326537,
                "z": 0.3711530566215515
            }
        },
        "name": "move_to_auspresseinheit_D"
    },
    "id": "BiTRRT_move_to_auspresseinheit_D_11",
    "joint_names": [
        "shoulder_pan_joint",
        "shoulder_lift_joint",
        "elbow_joint",
        "wrist_1_joint",
        "wrist_2_joint",
        "wrist_3_joint"
    ],
    "metrics": {
        "cart_traj_len": 0.34278271108074826,
        "distance_elbow_joint": 0.6348236378477208,
        "distance_shoulder_lift_joint": 0.11902182493546931,
        "distance_shoulder_pan_joint": 0.13377927236568513,
        "distance_wrist_1_joint": 0.5291931939874126,
        "distance_wrist_2_joint": 1.433004527246346,
        "distance_wrist_3_joint": 0.001917881241563002,
        "smoothness": 0.0,
        "time": 0.036877432,
        "traj_len": 1.6887096664685133,
        "weighted_distance": 2.1949427831588415
    },
    "planner": "BiTRRT",
    "start": {
        "state": {
            "elbow_joint": -1.8275523626775212,
            "shoulder_lift_joint": -2.126789852344167,
            "shoulder_pan_joint": -0.03513704404078235,
            "wrist_1_joint": -2.347782403156801,
            "wrist_2_joint": -1.6058999987535132,
            "wrist_3_joint": -3.0880379163319196
        }
    },
    "waypoints": [
        {
            "positions": [
                -0.03513704404078235,
                -2.126789852344167,
                -1.8275523626775212,
                -2.347782403156801,
                -1.6058999987535132,
                -3.0880379163319196
            ]
        },
        {
            "positions": [
                -0.05185945308649299,
                -2.1416675804611005,
                -1.7481994079465561,
                -2.4139315524052276,
                -1.4267744328477199,
                -3.087798181176724
            ]
        },
        {
            "positions": [
                -0.06858186213220363,
                -2.156545308578034,
                -1.668846453215591,
                -2.480080701653654,
                -1.2476488669419266,
                -3.0875584460215286
            ]
        },
        {
            "positions": [
                -0.08530427117791428,
                -2.171423036694968,
                -1.5894934984846258,
                -2.5462298509020806,
                -1.0685233010361335,
                -3.0873187108663336
            ]
        },
        {
            "positions": [
                -0.1020266802236249,
                -2.1863007648119015,
                -1.5101405437536608,
                -2.612379000150507,
                -0.8893977351303402,
                -3.087078975711138
            ]
        },
        {
            "positions": [
                -0.11874908926933556,
                -2.201178492928835,
                -1.4307875890226958,
                -2.6785281493989337,
                -0.7102721692245468,
                -3.0868392405559426
            ]
        },
        {
            "positions": [
                -0.1354714983150462,
                -2.216056221045769,
                -1.3514346342917305,
                -2.7446772986473604,
                -0.5311466033187537,
                -3.0865995054007476
            ]
        },
        {
            "positions": [
                -0.15219390736075683,
                -2.2309339491627025,
                -1.2720816795607655,
                -2.8108264478957867,
                -0.3520210374129604,
                -3.086359770245552
            ]
        },
        {
            "positions": [
                -0.16891631640646748,
                -2.245811677279636,
                -1.1927287248298004,
                -2.8769755971442135,
                -0.17289547150716708,
                -3.0861200350903566
            ]
        }
    ]
}