{
    "goal": {
        "global_pose": {
            "orientation": {
                "w": -0.00223480608172531,
                "x": 0.0024358444001904467,
                "y": 0.7094548369677653,
                "z": -0.704743149386269
            },
            "position": {
                "x": 0.6205249238014221,
                "y": -0.6371506643295288,
                "z": 0.19426114857196808
            }
        },
        "name": "move_to_magneteinheit_B"
    },
    "id": "BiTRRT_move_to_magneteinheit_B_36",
    "joint_names": [
        "shoulder_pan_joint",
        "shoulder_lift_joint",
        "elbow_joint",
        "wrist_1_joint",
        "wrist_2_joint",
        "wrist_3_joint"
    ],
    "metrics": {
        "cart_traj_len": 3.997210600250843,
        "distance_elbow_joint": 4.572922536629012,
        "distance_shoulder_lift_joint": 1.1620604227704536,
        "distance_shoulder_pan_joint": 2.437607060269796,
        "distance_wrist_1_joint": 4.538984408558617,
        "distance_wrist_2_joint": 1.180650044621242,
        "distance_wrist_3_joint": 3.4673205890364276,
        "smoothness": 0.7411162167901221,
        "time": 0.172095825,
        "traj_len": 4.16647873652147,
        "weighted_distance": 5.478487080676403
    },
    "planner": "BiTRRT",
    "start": {
        "state": {
            "elbow_joint": 2.6216224122426386,
            "shoulder_lift_joint": -1.4174107377796124,
            "shoulder_pan_joint": 0.7066234856936794,
            "wrist_1_joint": 1.9546482284002225,
            "wrist_2_joint": -0.7096286983471962,
            "wrist_3_joint": 0.005740856962016249
        }
    },
    "waypoints": [
        {
            "positions": [
                0.7066234856936794,
                -1.4174107377796124,
                2.6216224122426386,
                1.9546482284002225,
                -0.7096286983471962,
                0.005740856962016249
            ]
        },
        {
            "positions": [
                0.6738052872500542,
                -1.4474475293809541,
                2.6259044620407765,
                1.969893172868343,
                -0.7951403754184523,
                -0.024901945133769143
            ]
        },
        {
            "positions": [
                0.6409870888064289,
                -1.4774843209822959,
                2.6301865118389145,
                1.9851381173364635,
                -0.8806520524897085,
                -0.05554474722955454
            ]
        },
        {
            "positions": [
                0.6117126993277934,
                -1.4460890944000573,
                2.479052793342182,
                1.8729654421176978,
                -0.8947181492022414,
                -0.11061329772553694
            ]
        },
        {
            "positions": [
                0.582438309849158,
                -1.4146938678178187,
                2.3279190748454495,
                1.7607927668989318,
                -0.9087842459147741,
                -0.16568184822151935
            ]
        },
        {
            "positions": [
                0.5531639203705225,
                -1.38329864123558,
                2.176785356348717,
                1.6486200916801659,
                -0.9228503426273069,
                -0.22075039871750177
            ]
        },
        {
            "positions": [
                0.5238895308918871,
                -1.3519034146533417,
                2.0256516378519844,
                1.5364474164614002,
                -0.9369164393398398,
                -0.27581894921348415
            ]
        },
        {
            "positions": [
                0.49461514141325164,
                -1.3205081880711032,
                1.874517919355252,
                1.4242747412426344,
                -0.9509825360523727,
                -0.33088749970946657
            ]
        },
        {
            "positions": [
                0.4653407519346162,
                -1.2891129614888646,
                1.7233842008585194,
                1.3121020660238685,
                -0.9650486327649055,
                -0.385956050205449
            ]
        },
        {
            "positions": [
                0.5242427707046337,
                -1.308207498481696,
                1.6201087780658592,
                1.2053462303467113,
                -0.9473055538592254,
                -0.4684844937161593
            ]
        },
        {
            "positions": [
                0.5831447894746511,
                -1.3273020354745275,
                1.516833355273199,
                1.0985903946695543,
                -0.9295624749535453,
                -0.5510129372268696
            ]
        },
        {
            "positions": [
                0.6420468082446685,
                -1.346396572467359,
                1.413557932480539,
                0.9918345589923971,
                -0.9118193960478652,
                -0.6335413807375798
            ]
        },
        {
            "positions": [
                0.700948827014686,
                -1.3654911094601905,
                1.3102825096878787,
                0.88507872331524,
                -0.8940763171421852,
                -0.7160698242482901
            ]
        },
        {
            "positions": [
                0.7598508457847034,
                -1.3845856464530222,
                1.2070070868952185,
                0.7783228876380829,
                -0.8763332382365051,
                -0.7985982677590004
            ]
        },
        {
            "positions": [
                0.8187528645547208,
                -1.4036801834458537,
                1.1037316641025585,
                0.6715670519609258,
                -0.8585901593308249,
                -0.8811267112697108
            ]
        },
        {
            "positions": [
                0.8776548833247383,
                -1.4227747204386851,
                1.000456241309898,
                0.5648112162837686,
                -0.8408470804251449,
                -0.9636551547804211
            ]
        },
        {
            "positions": [
                0.9365569020947557,
                -1.4418692574315166,
                0.8971808185172381,
                0.45805538060661155,
                -0.8231040015194648,
                -1.0461835982911314
            ]
        },
        {
            "positions": [
                0.9954589208647733,
                -1.460963794424348,
                0.7939053957245777,
                0.35129954492945437,
                -0.8053609226137847,
                -1.1287120418018417
            ]
        },
        {
            "positions": [
                1.0543609396347906,
                -1.4800583314171796,
                0.6906299729319176,
                0.2445437092522973,
                -0.7876178437081046,
                -1.211240485312552
            ]
        },
        {
            "positions": [
                1.1132629584048082,
                -1.499152868410011,
                0.5873545501392574,
                0.1377878735751401,
                -0.7698747648024246,
                -1.2937689288232623
            ]
        },
        {
            "positions": [
                1.1721649771748255,
                -1.5182474054028425,
                0.4840791273465974,
                0.031032037897983145,
                -0.7521316858967444,
                -1.3762973723339726
            ]
        },
        {
            "positions": [
                1.231066995944843,
                -1.537341942395674,
                0.3808037045539372,
                -0.07572379777917404,
                -0.7343886069910643,
                -1.458825815844683
            ]
        },
        {
            "positions": [
                1.2899690147148604,
                -1.5564364793885055,
                0.277528281761277,
                -0.18247963345633123,
                -0.7166455280853843,
                -1.5413542593553933
            ]
        },
        {
            "positions": [
                1.348871033484878,
                -1.575531016381337,
                0.17425285896861675,
                -0.2892354691334884,
                -0.6989024491797042,
                -1.6238827028661036
            ]
        },
        {
            "positions": [
                1.4077730522548952,
                -1.5946255533741684,
                0.07097743617595675,
                -0.3959913048106454,
                -0.6811593702740242,
                -1.706411146376814
            ]
        },
        {
            "positions": [
                1.4666750710249126,
                -1.613720090367,
                -0.03229798661670347,
                -0.5027471404878023,
                -0.6634162913683441,
                -1.7889395898875238
            ]
        },
        {
            "positions": [
                1.5255770897949303,
                -1.6328146273598316,
                -0.1355734094093639,
                -0.6095029761649597,
                -0.6456732124626638,
                -1.8714680333982345
            ]
        },
        {
            "positions": [
                1.5844791085649477,
                -1.651909164352663,
                -0.2388488322020239,
                -0.7162588118421169,
                -0.6279301335569838,
                -1.9539964769089448
            ]
        },
        {
            "positions": [
                1.643381127334965,
                -1.6710037013454946,
                -0.34212425499468413,
                -0.8230146475192739,
                -0.6101870546513037,
                -2.036524920419655
            ]
        },
        {
            "positions": [
                1.7022831461049823,
                -1.690098238338326,
                -0.44539967778734413,
                -0.9297704831964309,
                -0.5924439757456237,
                -2.119053363930365
            ]
        },
        {
            "positions": [
                1.761185164875,
                -1.7091927753311575,
                -0.5486751005800046,
                -1.0365263188735883,
                -0.5747008968399436,
                -2.201581807441076
            ]
        },
        {
            "positions": [
                1.8200871836450174,
                -1.728287312323989,
                -0.6519505233726646,
                -1.1432821545507452,
                -0.5569578179342636,
                -2.284110250951786
            ]
        },
        {
            "positions": [
                1.8789892024150348,
                -1.7473818493168205,
                -0.7552259461653246,
                -1.2500379902279022,
                -0.5392147390285834,
                -2.366638694462496
            ]
        },
        {
            "positions": [
                1.937891221185052,
                -1.766476386309652,
                -0.8585013689579846,
                -1.3567938259050591,
                -0.5214716601229034,
                -2.4491671379732063
            ]
        },
        {
            "positions": [
                1.9967932399550699,
                -1.7855709233024837,
                -0.961776791750645,
                -1.4635496615822166,
                -0.5037285812172232,
                -2.5316955814839166
            ]
        },
        {
            "positions": [
                2.055695258725087,
                -1.8046654602953152,
                -1.065052214543305,
                -1.570305497259374,
                -0.48598550231154314,
                -2.614224024994627
            ]
        },
        {
            "positions": [
                2.1145972774951045,
                -1.8237599972881466,
                -1.1683276373359655,
                -1.677061332936531,
                -0.4682424234058631,
                -2.6967524685053372
            ]
        },
        {
            "positions": [
                2.1734992962651223,
                -1.8428545342809781,
                -1.2716030601286255,
                -1.7838171686136879,
                -0.45049934450018303,
                -2.7792809120160475
            ]
        },
        {
            "positions": [
                2.2324013150351396,
                -1.8619490712738096,
                -1.374878482921286,
                -1.8905730042908453,
                -0.43275626559450286,
                -2.861809355526758
            ]
        },
        {
            "positions": [
                2.291303333805157,
                -1.881043608266641,
                -1.478153905713946,
                -1.9973288399680023,
                -0.4150131866888228,
                -2.944337799037468
            ]
        },
        {
            "positions": [
                2.2977601624902917,
                -1.9067138922117364,
                -1.5568990485066183,
                -2.0873118954969505,
                -0.37444764580301193,
                -3.0181092631216684
            ]
        },
        {
            "positions": [
                2.304216991175426,
                -1.932384176156832,
                -1.6356441912992907,
                -2.1772949510258988,
                -0.33388210491720105,
                -3.0918807272058686
            ]
        },
        {
            "positions": [
                2.3106738198605603,
                -1.9580544601019274,
                -1.7143893340919631,
                -2.267278006554847,
                -0.2933165640313902,
                -3.1656521912900693
            ]
        },
        {
            "positions": [
                2.317130648545695,
                -1.9837247440470227,
                -1.7931344768846356,
                -2.3572610620837953,
                -0.25275102314557935,
                -3.2394236553742695
            ]
        },
        {
            "positions": [
                2.397408888249163,
                -2.0538715432619314,
                -1.753412686871129,
                -2.344148071185221,
                -0.30093844386836827,
                -3.1850794482900544
            ]
        },
        {
            "positions": [
                2.4776871279526307,
                -2.1240183424768406,
                -1.7136908968576223,
                -2.331035080286647,
                -0.34912586459115713,
                -3.13073524120584
            ]
        },
        {
            "positions": [
                2.5579653676560987,
                -2.1941651416917494,
                -1.6739691068441158,
                -2.3179220893880728,
                -0.39731328531394605,
                -3.0763910341216247
            ]
        },
        {
            "positions": [
                2.661665078445349,
                -2.1856018418202954,
                -1.652097028575449,
                -2.4446784568944655,
                -0.46568352372978605,
                -3.135514489569122
            ]
        }
    ]
}