{
    "goal": {
        "global_pose": {
            "orientation": {
                "w": -0.00223480608172531,
                "x": 0.0024358444001904467,
                "y": 0.7094548369677653,
                "z": -0.704743149386269
            },
            "position": {
                "x": -0.37947507619857795,
                "y": -0.6371506643295288,
                "z": 0.19426114857196808
            }
        },
        "name": "move_to_magneteinheit_C"
    },
    "id": "BiTRRT_move_to_magneteinheit_C_146",
    "joint_names": [
        "shoulder_pan_joint",
        "shoulder_lift_joint",
        "elbow_joint",
        "wrist_1_joint",
        "wrist_2_joint",
        "wrist_3_joint"
    ],
    "metrics": {
        "cart_traj_len": 2.038991160044803,
        "distance_elbow_joint": 1.1015608756671114,
        "distance_shoulder_lift_joint": 1.6038968268767366,
        "distance_shoulder_pan_joint": 1.3986299003889993,
        "distance_wrist_1_joint": 7.219101104055398,
        "distance_wrist_2_joint": 1.7646299650231416,
        "distance_wrist_3_joint": 5.930043930363652,
        "smoothness": 0.6367788190352951,
        "time": 0.165493499,
        "traj_len": 4.360947443202573,
        "weighted_distance": 6.3136108157045046
    },
    "planner": "BiTRRT",
    "start": {
        "state": {
            "elbow_joint": 1.9565354010623817,
            "shoulder_lift_joint": -1.4165861575791021,
            "shoulder_pan_joint": -1.6717766225146293,
            "wrist_1_joint": -0.5286633292919765,
            "wrist_2_joint": 1.472756589071564,
            "wrist_3_joint": -3.1238370188695823
        }
    },
    "waypoints": [
        {
            "positions": [
                -1.6717766225146293,
                -1.4165861575791021,
                1.9565354010623817,
                -0.5286633292919765,
                1.472756589071564,
                -3.1238370188695823
            ]
        },
        {
            "positions": [
                -1.7141173328932515,
                -1.442531151413948,
                1.9364171388362927,
                -0.3960502657818423,
                1.4232603710792882,
                -3.009920786059315
            ]
        },
        {
            "positions": [
                -1.7564580432718737,
                -1.468476145248794,
                1.916298876610204,
                -0.26343720227170825,
                1.3737641530870124,
                -2.8960045532490484
            ]
        },
        {
            "positions": [
                -1.7987987536504961,
                -1.49442113908364,
                1.8961806143841151,
                -0.13082413876157412,
                1.3242679350947368,
                -2.782088320438781
            ]
        },
        {
            "positions": [
                -1.8411394640291183,
                -1.5203661329184859,
                1.8760623521580264,
                0.0017889247485599613,
                1.274771717102461,
                -2.6681720876285144
            ]
        },
        {
            "positions": [
                -1.8834801744077405,
                -1.5463111267533318,
                1.8559440899319375,
                0.1344019882586941,
                1.2252754991101853,
                -2.5542558548182472
            ]
        },
        {
            "positions": [
                -1.9258208847863627,
                -1.5722561205881778,
                1.8358258277058486,
                0.2670150517688282,
                1.1757792811179095,
                -2.44033962200798
            ]
        },
        {
            "positions": [
                -1.968161595164985,
                -1.5982011144230237,
                1.8157075654797599,
                0.39962811527896214,
                1.126283063125634,
                -2.3264233891977133
            ]
        },
        {
            "positions": [
                -2.010502305543607,
                -1.6241461082578696,
                1.795589303253671,
                0.5322411787890964,
                1.0767868451333582,
                -2.212507156387446
            ]
        },
        {
            "positions": [
                -2.0528430159222295,
                -1.6500911020927156,
                1.7754710410275822,
                0.6648542422992303,
                1.0272906271410824,
                -2.0985909235771794
            ]
        },
        {
            "positions": [
                -2.095183726300852,
                -1.6760360959275615,
                1.7553527788014933,
                0.7974673058093646,
                0.9777944091488067,
                -1.9846746907669122
            ]
        },
        {
            "positions": [
                -2.137524436679474,
                -1.7019810897624073,
                1.7352345165754044,
                0.9300803693194986,
                0.928298191156531,
                -1.8707584579566452
            ]
        },
        {
            "positions": [
                -2.1798651470580963,
                -1.7279260835972532,
                1.7151162543493155,
                1.062693432829633,
                0.8788019731642552,
                -1.7568422251463782
            ]
        },
        {
            "positions": [
                -2.2222058574367183,
                -1.7538710774320991,
                1.6949979921232268,
                1.1953064963397668,
                0.8293057551719796,
                -1.6429259923361113
            ]
        },
        {
            "positions": [
                -2.2645465678153407,
                -1.779816071266945,
                1.674879729897138,
                1.3279195598499007,
                0.7798095371797039,
                -1.5290097595258443
            ]
        },
        {
            "positions": [
                -2.3068872781939627,
                -1.805761065101791,
                1.6547614676710491,
                1.4605326233600349,
                0.7303133191874283,
                -1.4150935267155773
            ]
        },
        {
            "positions": [
                -2.349227988572585,
                -1.831706058936637,
                1.6346432054449602,
                1.5931456868701692,
                0.6808171011951524,
                -1.3011772939053101
            ]
        },
        {
            "positions": [
                -2.3915686989512075,
                -1.857651052771483,
                1.6145249432188713,
                1.7257587503803034,
                0.6313208832028767,
                -1.1872610610950431
            ]
        },
        {
            "positions": [
                -2.4339094093298295,
                -1.8835960466063288,
                1.5944066809927826,
                1.858371813890437,
                0.581824665210601,
                -1.0733448282847764
            ]
        },
        {
            "positions": [
                -2.476250119708452,
                -1.9095410404411748,
                1.574288418766694,
                1.9909848774005712,
                0.5323284472183253,
                -0.9594285954745092
            ]
        },
        {
            "positions": [
                -2.5185908300870743,
                -1.9354860342760207,
                1.554170156540605,
                2.123597940910706,
                0.4828322292260495,
                -0.845512362664242
            ]
        },
        {
            "positions": [
                -2.5609315404656963,
                -1.9614310281108667,
                1.534051894314516,
                2.25621100442084,
                0.43333601123377385,
                -0.7315961298539753
            ]
        },
        {
            "positions": [
                -2.6032722508443182,
                -1.9873760219457126,
                1.5139336320884271,
                2.3888240679309733,
                0.3838397932414981,
                -0.6176798970437081
            ]
        },
        {
            "positions": [
                -2.6456129612229407,
                -2.0133210157805586,
                1.4938153698623384,
                2.5214371314411075,
                0.33434357524922254,
                -0.5037636642334413
            ]
        },
        {
            "positions": [
                -2.687953671601563,
                -2.0392660096154045,
                1.4736971076362495,
                2.6540501949512425,
                0.28484735725694654,
                -0.38984743142317413
            ]
        },
        {
            "positions": [
                -2.730294381980185,
                -2.0652110034502504,
                1.4535788454101608,
                2.7866632584613757,
                0.235351139264671,
                -0.27593119861290694
            ]
        },
        {
            "positions": [
                -2.7726350923588075,
                -2.0911559972850964,
                1.4334605831840719,
                2.9192763219715103,
                0.18585492127239522,
                -0.1620149658026402
            ]
        },
        {
            "positions": [
                -2.759688508422076,
                -2.05075047610376,
                1.4586121509140197,
                2.7553127805457747,
                0.2066257168038723,
                -0.2910680909024973
            ]
        },
        {
            "positions": [
                -2.746741924485345,
                -2.0103449549224233,
                1.4837637186439676,
                2.5913492391200394,
                0.22739651233534935,
                -0.42012121600235436
            ]
        },
        {
            "positions": [
                -2.7337953405486135,
                -1.9699394337410865,
                1.5089152863739155,
                2.427385697694304,
                0.2481673078668264,
                -0.5491743411022114
            ]
        },
        {
            "positions": [
                -2.720848756611882,
                -1.92953391255975,
                1.5340668541038633,
                2.2634221562685686,
                0.2689381033983035,
                -0.6782274662020685
            ]
        },
        {
            "positions": [
                -2.707902172675151,
                -1.8891283913784132,
                1.5592184218338114,
                2.099458614842833,
                0.2897088989297805,
                -0.8072805913019255
            ]
        },
        {
            "positions": [
                -2.694955588738419,
                -1.8487228701970766,
                1.5843699895637593,
                1.9354950734170977,
                0.31047969446125756,
                -0.9363337164017826
            ]
        },
        {
            "positions": [
                -2.682009004801688,
                -1.80831734901574,
                1.6095215572937072,
                1.771531531991362,
                0.33125048999273465,
                -1.0653868415016396
            ]
        },
        {
            "positions": [
                -2.6690624208649565,
                -1.7679118278344035,
                1.634673125023655,
                1.6075679905656266,
                0.3520212855242117,
                -1.1944399666014969
            ]
        },
        {
            "positions": [
                -2.656115836928225,
                -1.7275063066530667,
                1.659824692753603,
                1.4436044491398912,
                0.37279208105568873,
                -1.3234930917013539
            ]
        },
        {
            "positions": [
                -2.643169252991494,
                -1.6871007854717301,
                1.6849762604835508,
                1.2796409077141557,
                0.3935628765871658,
                -1.4525462168012109
            ]
        },
        {
            "positions": [
                -2.6302226690547625,
                -1.6466952642903934,
                1.7101278282134986,
                1.11567736628842,
                0.4143336721186429,
                -1.581599341901068
            ]
        },
        {
            "positions": [
                -2.6172760851180312,
                -1.6062897431090568,
                1.7352793959434467,
                0.9517138248626849,
                0.4351044676501199,
                -1.710652467000925
            ]
        },
        {
            "positions": [
                -2.6043295011813,
                -1.5658842219277203,
                1.7604309636733944,
                0.7877502834369494,
                0.455875263181597,
                -1.839705592100782
            ]
        },
        {
            "positions": [
                -2.5913829172445686,
                -1.5254787007463837,
                1.7855825314033424,
                0.6237867420112138,
                0.4766460587130741,
                -1.9687587172006393
            ]
        },
        {
            "positions": [
                -2.5784363333078373,
                -1.4850731795650471,
                1.8107340991332903,
                0.4598232005854781,
                0.4974168542445511,
                -2.097811842300496
            ]
        },
        {
            "positions": [
                -2.565489749371106,
                -1.4446676583837104,
                1.8358856668632382,
                0.2958596591597429,
                0.5181876497760282,
                -2.2268649674003536
            ]
        },
        {
            "positions": [
                -2.5525431654343747,
                -1.4042621372023738,
                1.861037234593186,
                0.13189611773400767,
                0.5389584453075051,
                -2.3559180925002106
            ]
        },
        {
            "positions": [
                -2.539596581497643,
                -1.363856616021037,
                1.886188802323134,
                -0.03206742369172799,
                0.5597292408389822,
                -2.4849712176000676
            ]
        },
        {
            "positions": [
                -2.5266499975609116,
                -1.3234510948397005,
                1.911340370053082,
                -0.19603096511746365,
                0.5805000363704593,
                -2.6140243426999246
            ]
        },
        {
            "positions": [
                -2.5137034136241803,
                -1.283045573658364,
                1.9364919377830296,
                -0.35999450654319887,
                0.6012708319019364,
                -2.7430774677997816
            ]
        },
        {
            "positions": [
                -2.500756829687449,
                -1.2426400524770274,
                1.9616435055129777,
                -0.5239580479689341,
                0.6220416274334135,
                -2.8721305928996386
            ]
        },
        {
            "positions": [
                -2.4878102457507176,
                -1.2022345312956906,
                1.9867950732429256,
                -0.6879215893946702,
                0.6428124229648906,
                -3.001183717999496
            ]
        },
        {
            "positions": [
                -2.4748636618139863,
                -1.161829010114354,
                2.0119466409728735,
                -0.8518851308204054,
                0.6635832184963676,
                -3.130236843099353
            ]
        }
    ]
}