{
    "goal": {
        "global_pose": {
            "orientation": {
                "w": 0.5084816217422485,
                "x": -0.49083608388900757,
                "y": 0.5182115435600281,
                "z": -0.4816462993621826
            },
            "position": {
                "x": 0.5540239810943604,
                "y": 0.030875300988554955,
                "z": 0.16403168439865112
            }
        },
        "name": "move_to_storage_A"
    },
    "id": "BiTRRT_move_to_storage_A_113",
    "joint_names": [
        "shoulder_pan_joint",
        "shoulder_lift_joint",
        "elbow_joint",
        "wrist_1_joint",
        "wrist_2_joint",
        "wrist_3_joint"
    ],
    "metrics": {
        "cart_traj_len": 0.35297143094616645,
        "distance_elbow_joint": 0.4502026309910516,
        "distance_shoulder_lift_joint": 0.2339445653466381,
        "distance_shoulder_pan_joint": 0.4617559700287971,
        "distance_wrist_1_joint": 0.24688592947630206,
        "distance_wrist_2_joint": 1.0973312755573192,
        "distance_wrist_3_joint": 0.10268623182290959,
        "smoothness": 2.2204460668324854e-16,
        "time": 0.040213711,
        "traj_len": 1.6102194270418604,
        "weighted_distance": 2.035287761448601
    },
    "planner": "BiTRRT",
    "start": {
        "state": {
            "elbow_joint": 1.971548259319323,
            "shoulder_lift_joint": -1.1394851275133948,
            "shoulder_pan_joint": 0.1228115487234821,
            "wrist_1_joint": -0.7804723859257726,
            "wrist_2_joint": 0.12958671773740124,
            "wrist_3_joint": -3.192489227718131
        }
    },
    "waypoints": [
        {
            "positions": [
                0.1228115487234821,
                -1.1394851275133948,
                1.971548259319323,
                -0.7804723859257726,
                0.12958671773740124,
                -3.192489227718131
            ]
        },
        {
            "positions": [
                0.05684641014793966,
                -1.1729057797057716,
                2.0358629208894734,
                -0.8157418044223872,
                0.286348328531304,
                -3.177819766029144
            ]
        },
        {
            "positions": [
                -0.009118728427602779,
                -1.2063264318981486,
                2.1001775824596236,
                -0.8510112229190018,
                0.4431099393252067,
                -3.163150304340157
            ]
        },
        {
            "positions": [
                -0.0750838670031452,
                -1.2397470840905254,
                2.164492244029774,
                -0.8862806414156164,
                0.5998715501191094,
                -3.14848084265117
            ]
        },
        {
            "positions": [
                -0.14104900557868766,
                -1.2731677362829024,
                2.228806905599924,
                -0.9215500599122309,
                0.7566331609130122,
                -3.133811380962183
            ]
        },
        {
            "positions": [
                -0.20701414415423014,
                -1.3065883884752791,
                2.293121567170074,
                -0.9568194784088455,
                0.9133947717069151,
                -3.1191419192731957
            ]
        },
        {
            "positions": [
                -0.2729792827297725,
                -1.3400090406676561,
                2.3574362287402244,
                -0.9920888969054601,
                1.0701563825008176,
                -3.1044724575842086
            ]
        },
        {
            "positions": [
                -0.338944421305315,
                -1.373429692860033,
                2.4217508903103746,
                -1.0273583154020747,
                1.2269179932947205,
                -3.0898029958952216
            ]
        }
    ]
}{
    "goal": {
        "global_pose": {
            "orientation": {
                "w": 0.5084816217422485,
                "x": -0.49083608388900757,
                "y": 0.5182115435600281,
                "z": -0.4816462993621826
            },
            "position": {
                "x": 0.5540239810943604,
                "y": 0.030875300988554955,
                "z": 0.16403168439865112
            }
        },
        "name": "move_to_storage_A"
    },
    "id": "BiTRRT_move_to_storage_A_113",
    "joint_names": [
        "shoulder_pan_joint",
        "shoulder_lift_joint",
        "elbow_joint",
        "wrist_1_joint",
        "wrist_2_joint",
        "wrist_3_joint"
    ],
    "metrics": {
        "cart_traj_len": 0.3530031872667909,
        "distance_elbow_joint": 0.4478763998838029,
        "distance_shoulder_lift_joint": 0.23637730786287858,
        "distance_shoulder_pan_joint": 0.46364326688999385,
        "distance_wrist_1_joint": 0.23329648182966367,
        "distance_wrist_2_joint": 1.0903692786283137,
        "distance_wrist_3_joint": 0.08808194984196493,
        "smoothness": 1.1102230263833737e-15,
        "time": 0.042971808,
        "traj_len": 1.5998889601896182,
        "weighted_distance": 2.0148137246600553
    },
    "planner": "BiTRRT",
    "start": {
        "state": {
            "elbow_joint": 1.97154746011099,
            "shoulder_lift_joint": -1.13948474672311,
            "shoulder_pan_joint": 0.12281154466712228,
            "wrist_1_joint": -0.7804688027058302,
            "wrist_2_joint": 0.12958655903071145,
            "wrist_3_joint": 3.0906928834467795
        }
    },
    "waypoints": [
        {
            "positions": [
                0.12281154466712228,
                -1.13948474672311,
                1.97154746011099,
                -0.7804688027058302,
                0.12958655903071145,
                3.0906928834467795
            ]
        },
        {
            "positions": [
                0.056576792254266026,
                -1.173252933560664,
                2.035529802951533,
                -0.8137968715386393,
                0.28535359883475625,
                3.1032760191384887
            ]
        },
        {
            "positions": [
                -0.009657960158590231,
                -1.2070211203982182,
                2.0995121457920765,
                -0.8471249403714484,
                0.441120638638801,
                3.115859154830198
            ]
        },
        {
            "positions": [
                -0.07589271257144649,
                -1.2407893072357723,
                2.1634944886326197,
                -0.8804530092042575,
                0.5968876784428458,
                3.128442290521907
            ]
        },
        {
            "positions": [
                -0.14212746498430273,
                -1.2745574940733262,
                2.227476831473163,
                -0.9137810780370665,
                0.7526547182468907,
                3.141025426213617
            ]
        },
        {
            "positions": [
                -0.20836221739715904,
                -1.3083256809108803,
                2.2914591743137063,
                -0.9471091468698757,
                0.9084217580509355,
                3.153608561905326
            ]
        },
        {
            "positions": [
                -0.27459696981001525,
                -1.3420938677484344,
                2.3554415171542495,
                -0.9804372157026847,
                1.0641887978549802,
                3.1661916975970352
            ]
        },
        {
            "positions": [
                -0.34083172222287156,
                -1.3758620545859885,
                2.419423859994793,
                -1.0137652845354939,
                1.2199558376590252,
                3.1787748332887444
            ]
        }
    ]
}{
    "goal": {
        "global_pose": {
            "orientation": {
                "w": 0.5084816217422485,
                "x": -0.49083608388900757,
                "y": 0.5182115435600281,
                "z": -0.4816462993621826
            },
            "position": {
                "x": 0.5540239810943604,
                "y": 0.030875300988554955,
                "z": 0.16403168439865112
            }
        },
        "name": "move_to_storage_A"
    },
    "id": "BiTRRT_move_to_storage_A_113",
    "joint_names": [
        "shoulder_pan_joint",
        "shoulder_lift_joint",
        "elbow_joint",
        "wrist_1_joint",
        "wrist_2_joint",
        "wrist_3_joint"
    ],
    "metrics": {
        "cart_traj_len": 0.3534299586093148,
        "distance_elbow_joint": 0.4485382888665126,
        "distance_shoulder_lift_joint": 0.23366899702336874,
        "distance_shoulder_pan_joint": 0.46332106140264323,
        "distance_wrist_1_joint": 0.23613597282356613,
        "distance_wrist_2_joint": 1.0941273486327618,
        "distance_wrist_3_joint": 0.09396960754800388,
        "smoothness": 1.3322676295501878e-15,
        "time": 0.037563828,
        "traj_len": 1.6030474965817003,
        "weighted_distance": 2.0218713640707198
    },
    "planner": "BiTRRT",
    "start": {
        "state": {
            "elbow_joint": 1.9715472970024885,
            "shoulder_lift_joint": -1.1394870060712896,
            "shoulder_pan_joint": 0.12281152778156021,
            "wrist_1_joint": -0.780463741449964,
            "wrist_2_joint": 0.12958659822042276,
            "wrist_3_joint": 3.090690232415272
        }
    },
    "waypoints": [
        {
            "positions": [
                0.12281152778156021,
                -1.1394870060712896,
                1.9715472970024885,
                -0.780463741449964,
                0.12958659822042276,
                3.090690232415272
            ]
        },
        {
            "positions": [
                0.05662280472403976,
                -1.1728682913603423,
                2.0356241954119905,
                -0.8141974518533306,
                0.28589050516796016,
                3.1041144620649868
            ]
        },
        {
            "positions": [
                -0.009565918333480694,
                -1.206249576649395,
                2.099701093821492,
                -0.8479311622566972,
                0.4421944121154976,
                3.1175386917147017
            ]
        },
        {
            "positions": [
                -0.07575464139100113,
                -1.2396308619384477,
                2.163777992230994,
                -0.8816648726600638,
                0.598498319063035,
                3.1309629213644166
            ]
        },
        {
            "positions": [
                -0.1419433644485216,
                -1.2730121472275002,
                2.227854890640496,
                -0.9153985830634304,
                0.7548022260105723,
                3.144387151014131
            ]
        },
        {
            "positions": [
                -0.2081320875060421,
                -1.306393432516553,
                2.2919317890499977,
                -0.949132293466797,
                0.9111061329581098,
                3.157811380663846
            ]
        },
        {
            "positions": [
                -0.2743208105635625,
                -1.3397747178056056,
                2.356008687459499,
                -0.9828660038701635,
                1.0674100399056472,
                3.171235610313561
            ]
        },
        {
            "positions": [
                -0.340509533621083,
                -1.3731560030946584,
                2.420085585869001,
                -1.0165997142735301,
                1.2237139468531846,
                3.1846598399632757
            ]
        }
    ]
}