{
    "goal": {
        "global_pose": {
            "orientation": {
                "w": 0.7047431468963623,
                "x": -0.7094548344612122,
                "y": 0.0024358443915843964,
                "z": -0.0022348060738295317
            },
            "position": {
                "x": 0.6094750761985779,
                "y": 0.3671506643295288,
                "z": 0.19426114857196808
            }
        },
        "name": "move_to_magneteinheit_A"
    },
    "id": "BiTRRT_move_to_magneteinheit_A_7",
    "joint_names": [
        "shoulder_pan_joint",
        "shoulder_lift_joint",
        "elbow_joint",
        "wrist_1_joint",
        "wrist_2_joint",
        "wrist_3_joint"
    ],
    "metrics": {
        "cart_traj_len": 3.389240666364916,
        "distance_elbow_joint": 3.930289176018029,
        "distance_shoulder_lift_joint": 0.59373903952002,
        "distance_shoulder_pan_joint": 2.9637268301107396,
        "distance_wrist_1_joint": 3.527373033886228,
        "distance_wrist_2_joint": 1.5776318974296186,
        "distance_wrist_3_joint": 1.0470592582533176,
        "smoothness": 0.18146876194673145,
        "time": 0.171968276,
        "traj_len": 3.693212590038374,
        "weighted_distance": 4.564969077993896
    },
    "planner": "BiTRRT",
    "start": {
        "state": {
            "elbow_joint": -1.9196185241190666,
            "shoulder_lift_joint": -1.2443396400964142,
            "shoulder_pan_joint": 2.6996025414629847,
            "wrist_1_joint": -1.5485510000780065,
            "wrist_2_joint": -1.5709468930060704,
            "wrist_3_joint": 0.4420197071253992
        }
    },
    "waypoints": [
        {
            "positions": [
                2.6996025414629847,
                -1.2443396400964142,
                -1.9196185241190666,
                -1.5485510000780065,
                -1.5709468930060704,
                0.4420197071253992
            ]
        },
        {
            "positions": [
                2.599924582538429,
                -1.2245021706110895,
                -1.8299920053294685,
                -1.459800461858285,
                -1.5137839871849896,
                0.410254031710337
            ]
        },
        {
            "positions": [
                2.5002466236138736,
                -1.204664701125765,
                -1.7403654865398703,
                -1.3710499236385636,
                -1.4566210813639089,
                0.37848835629527483
            ]
        },
        {
            "positions": [
                2.4005686646893176,
                -1.1848272316404402,
                -1.650738967750272,
                -1.2822993854188423,
                -1.3994581755428284,
                0.34672268088021263
            ]
        },
        {
            "positions": [
                2.300890705764762,
                -1.1649897621551157,
                -1.5611124489606738,
                -1.1935488471991207,
                -1.3422952697217476,
                0.3149570054651505
            ]
        },
        {
            "positions": [
                2.2012127468402065,
                -1.145152292669791,
                -1.4714859301710757,
                -1.1047983089793991,
                -1.2851323639006669,
                0.28319133005008823
            ]
        },
        {
            "positions": [
                2.101534787915651,
                -1.1253148231844663,
                -1.3818594113814773,
                -1.0160477707596778,
                -1.2279694580795861,
                0.2514256546350261
            ]
        },
        {
            "positions": [
                2.0018568289910954,
                -1.1054773536991418,
                -1.2922328925918791,
                -0.9272972325399563,
                -1.1708065522585054,
                0.21965997921996389
            ]
        },
        {
            "positions": [
                1.9021788700665399,
                -1.085639884213817,
                -1.202606373802281,
                -0.8385466943202349,
                -1.1136436464374246,
                0.18789430380490174
            ]
        },
        {
            "positions": [
                1.802500911141984,
                -1.0658024147284924,
                -1.1129798550126828,
                -0.7497961561005134,
                -1.056480740616344,
                0.15612862838983954
            ]
        },
        {
            "positions": [
                1.7028229522174283,
                -1.0459649452431679,
                -1.0233533362230847,
                -0.661045617880792,
                -0.9993178347952633,
                0.12436295297477734
            ]
        },
        {
            "positions": [
                1.603144993292873,
                -1.0261274757578431,
                -0.9337268174334864,
                -0.5722950796610705,
                -0.9421549289741826,
                0.0925972775597152
            ]
        },
        {
            "positions": [
                1.5034670343683172,
                -1.0062900062725184,
                -0.8441002986438881,
                -0.48354454144134906,
                -0.8849920231531019,
                0.060831602144652996
            ]
        },
        {
            "positions": [
                1.4037890754437616,
                -0.9864525367871939,
                -0.75447377985429,
                -0.3947940032216277,
                -0.8278291173320212,
                0.029065926729590852
            ]
        },
        {
            "positions": [
                1.3041111165192059,
                -0.9666150673018692,
                -0.6648472610646916,
                -0.30604346500190616,
                -0.7706662115109404,
                -0.0026997486854714037
            ]
        },
        {
            "positions": [
                1.2044331575946503,
                -0.9467775978165446,
                -0.5752207422750935,
                -0.2172929267821846,
                -0.7135033056898598,
                -0.03446542410053355
            ]
        },
        {
            "positions": [
                1.1047551986700948,
                -0.92694012833122,
                -0.4855942234854953,
                -0.12854238856246325,
                -0.6563403998687791,
                -0.06623109951559569
            ]
        },
        {
            "positions": [
                1.005077239745539,
                -0.9071026588458952,
                -0.3959677046958969,
                -0.039791850342741686,
                -0.5991774940476983,
                -0.09799677493065795
            ]
        },
        {
            "positions": [
                0.9053992808209834,
                -0.8872651893605707,
                -0.306341185906299,
                0.048958687876979656,
                -0.5420145882266176,
                -0.1297624503457201
            ]
        },
        {
            "positions": [
                0.8057213218964279,
                -0.867427719875246,
                -0.21671466711670084,
                0.137709226096701,
                -0.4848516824055369,
                -0.16152812576078224
            ]
        },
        {
            "positions": [
                0.7060433629718721,
                -0.8475902503899214,
                -0.12708814832710247,
                0.22645976431642256,
                -0.42768877658445614,
                -0.1932938011758445
            ]
        },
        {
            "positions": [
                0.6063654040473163,
                -0.8277527809045968,
                -0.037461629537504315,
                0.3152103025361439,
                -0.3705258707633756,
                -0.22505947659090664
            ]
        },
        {
            "positions": [
                0.5066874451227612,
                -0.8079153114192721,
                0.05216488925209384,
                0.40396084075586547,
                -0.3133629649422949,
                -0.2568251520059688
            ]
        },
        {
            "positions": [
                0.4070094861982052,
                -0.7880778419339475,
                0.14179140804169243,
                0.49271137897558703,
                -0.25620005912121413,
                -0.28859082742103104
            ]
        },
        {
            "positions": [
                0.30733152727364943,
                -0.7682403724486229,
                0.23141792683129017,
                0.5814619171953086,
                -0.19903715330013338,
                -0.3203565028360932
            ]
        },
        {
            "positions": [
                0.24888111838514698,
                -0.7689297715437331,
                0.37684988037907863,
                0.7004731608926944,
                -0.18396740732143751,
                -0.32378450320901386
            ]
        },
        {
            "positions": [
                0.21341721481595943,
                -0.7763578661622269,
                0.5502729604238616,
                0.8224752352412849,
                -0.17067635616385887,
                -0.2941030265693776
            ]
        },
        {
            "positions": [
                0.17795331124677188,
                -0.7837859607807207,
                0.7236960404686448,
                0.9444773095898753,
                -0.15738530500628023,
                -0.2644215499297413
            ]
        },
        {
            "positions": [
                0.14248940767758436,
                -0.7912140553992144,
                0.8971191205134278,
                1.0664793839384656,
                -0.14409425384870161,
                -0.23474007329010504
            ]
        },
        {
            "positions": [
                0.10702550410839681,
                -0.7986421500177082,
                1.0705422005582108,
                1.1884814582870562,
                -0.13080320269112294,
                -0.20505859665046877
            ]
        },
        {
            "positions": [
                0.07156160053920926,
                -0.806070244636202,
                1.243965280602994,
                1.3104835326356468,
                -0.11751215153354432,
                -0.17537712001083247
            ]
        },
        {
            "positions": [
                0.03609769697002174,
                -0.8134983392546958,
                1.4173883606477768,
                1.4324856069842369,
                -0.10422110037596569,
                -0.1456956433711962
            ]
        },
        {
            "positions": [
                0.000633793400834165,
                -0.8209264338731895,
                1.5908114406925602,
                1.5544876813328274,
                -0.09093004921838703,
                -0.1160141667315599
            ]
        },
        {
            "positions": [
                -0.034830110168353356,
                -0.8283545284916833,
                1.764234520737343,
                1.676489755681418,
                -0.0776389980608084,
                -0.08633269009192365
            ]
        },
        {
            "positions": [
                -0.07029401373754088,
                -0.8357826231101771,
                1.937657600782126,
                1.7984918300300083,
                -0.06434794690322976,
                -0.05665121345228735
            ]
        },
        {
            "positions": [
                0.026621123717566614,
                -0.8107338625048399,
                1.9741641263405443,
                1.8886569319191153,
                -0.09986442256661902,
                -0.06371209253337644
            ]
        },
        {
            "positions": [
                0.12353626117267409,
                -0.7856851018995027,
                2.0106706518989625,
                1.978822033808222,
                -0.1353808982300083,
                -0.07077297161446552
            ]
        }
    ]
}