{
    "goal": {
        "global_pose": {
            "orientation": {
                "w": 0.7047431493862688,
                "x": -0.7094548369677653,
                "y": 0.0024358444001904,
                "z": -0.0022348060817251984
            },
            "position": {
                "x": -0.39052492380142206,
                "y": 0.3671506643295288,
                "z": 0.19426114857196808
            }
        },
        "name": "move_to_magneteinheit_D"
    },
    "id": "BiTRRT_move_to_magneteinheit_D_49",
    "joint_names": [
        "shoulder_pan_joint",
        "shoulder_lift_joint",
        "elbow_joint",
        "wrist_1_joint",
        "wrist_2_joint",
        "wrist_3_joint"
    ],
    "metrics": {
        "cart_traj_len": 3.9415870323625497,
        "distance_elbow_joint": 3.1250957236328043,
        "distance_shoulder_lift_joint": 2.017817119259165,
        "distance_shoulder_pan_joint": 3.284677877972716,
        "distance_wrist_1_joint": 2.89379508192086,
        "distance_wrist_2_joint": 3.282307055128557,
        "distance_wrist_3_joint": 3.1349585767016603,
        "smoothness": 0.4573898652610624,
        "time": 0.20518583499999998,
        "traj_len": 4.21172784431945,
        "weighted_distance": 5.494057764991964
    },
    "planner": "BiTRRT",
    "start": {
        "state": {
            "elbow_joint": 0.749534889911806,
            "shoulder_lift_joint": -0.6476975780787326,
            "shoulder_pan_joint": -2.711696901376241,
            "wrist_1_joint": -0.07506478083263063,
            "wrist_2_joint": 0.43296659715538205,
            "wrist_3_joint": -3.14703540197715
        }
    },
    "waypoints": [
        {
            "positions": [
                -2.711696901376241,
                -0.6476975780787326,
                0.749534889911806,
                -0.07506478083263063,
                0.43296659715538205,
                -3.14703540197715
            ]
        },
        {
            "positions": [
                -2.7253182145878476,
                -0.6094772883065074,
                0.692153067697561,
                -0.1553726644422851,
                0.40819724199621465,
                -3.0017498768831423
            ]
        },
        {
            "positions": [
                -2.7389395277994537,
                -0.571256998534282,
                0.6347712454833161,
                -0.23568054805193955,
                0.38342788683704726,
                -2.856464351789134
            ]
        },
        {
            "positions": [
                -2.7525608410110602,
                -0.5330367087620568,
                0.5773894232690711,
                -0.315988431661594,
                0.35865853167787987,
                -2.7111788266951264
            ]
        },
        {
            "positions": [
                -2.7661821542226663,
                -0.4948164189898314,
                0.5200076010548261,
                -0.3962963152712485,
                0.33388917651871247,
                -2.5658933016011183
            ]
        },
        {
            "positions": [
                -2.779803467434273,
                -0.4565961292176062,
                0.4626257788405812,
                -0.47660419888090294,
                0.3091198213595451,
                -2.4206077765071106
            ]
        },
        {
            "positions": [
                -2.791576290302198,
                -0.4729295345529069,
                0.41921280843078307,
                -0.324760719348834,
                0.4159840961001262,
                -2.3703026435925483
            ]
        },
        {
            "positions": [
                -2.8033491131701225,
                -0.48926293988820774,
                0.375799838020985,
                -0.172917239816765,
                0.5228483708407073,
                -2.319997510677986
            ]
        },
        {
            "positions": [
                -2.8151219360380475,
                -0.5055963452235085,
                0.33238686761118685,
                -0.021073760284695986,
                0.6297126455812885,
                -2.2696923777634237
            ]
        },
        {
            "positions": [
                -2.826894758905972,
                -0.5219297505588093,
                0.2889738972013888,
                0.13076971924737296,
                0.7365769203218695,
                -2.2193872448488614
            ]
        },
        {
            "positions": [
                -2.838667581773897,
                -0.53826315589411,
                0.2455609267915906,
                0.28261319877944197,
                0.8434411950624506,
                -2.169082111934299
            ]
        },
        {
            "positions": [
                -2.8504404046418217,
                -0.5545965612294108,
                0.2021479563817925,
                0.43445667831151097,
                0.9503054698030318,
                -2.118776979019737
            ]
        },
        {
            "positions": [
                -2.8622132275097467,
                -0.5709299665647116,
                0.15873498597199442,
                0.5863001578435798,
                1.0571697445436128,
                -2.068471846105175
            ]
        },
        {
            "positions": [
                -2.8739860503776713,
                -0.5872633719000124,
                0.11532201556219629,
                0.7381436373756489,
                1.164034019284194,
                -2.0181667131906127
            ]
        },
        {
            "positions": [
                -2.8857588732455963,
                -0.6035967772353131,
                0.07190904515239821,
                0.8899871169077178,
                1.270898294024775,
                -1.9678615802760504
            ]
        },
        {
            "positions": [
                -2.897531696113521,
                -0.6199301825706139,
                0.02849607474260002,
                1.041830596439787,
                1.3777625687653563,
                -1.9175564473614881
            ]
        },
        {
            "positions": [
                -2.909304518981446,
                -0.6362635879059146,
                -0.01491689566719806,
                1.1936740759718558,
                1.484626843505937,
                -1.8672513144469258
            ]
        },
        {
            "positions": [
                -2.9210773418493705,
                -0.6525969932412155,
                -0.058329866076996195,
                1.345517555503925,
                1.5914911182465183,
                -1.8169461815323635
            ]
        },
        {
            "positions": [
                -2.9328501647172955,
                -0.6689303985765163,
                -0.10174283648679427,
                1.4973610350359938,
                1.6983553929870996,
                -1.7666410486178012
            ]
        },
        {
            "positions": [
                -2.8026301068670283,
                -0.7042910269540554,
                -0.18459396631407335,
                1.4862106766509062,
                1.6248738173259085,
                -1.7135919290898658
            ]
        },
        {
            "positions": [
                -2.6724100490167606,
                -0.7396516553315946,
                -0.2674450961413524,
                1.4750603182658188,
                1.5513922416647175,
                -1.6605428095619303
            ]
        },
        {
            "positions": [
                -2.5421899911664934,
                -0.7750122837091337,
                -0.3502962259686315,
                1.4639099598807312,
                1.4779106660035266,
                -1.607493690033995
            ]
        },
        {
            "positions": [
                -2.411969933316226,
                -0.8103729120866728,
                -0.43314735579591057,
                1.4527596014956436,
                1.4044290903423355,
                -1.5544445705060594
            ]
        },
        {
            "positions": [
                -2.281749875465959,
                -0.845733540464212,
                -0.5159984856231896,
                1.4416092431105563,
                1.3309475146811445,
                -1.5013954509781242
            ]
        },
        {
            "positions": [
                -2.151529817615691,
                -0.8810941688417512,
                -0.5988496154504688,
                1.4304588847254687,
                1.2574659390199536,
                -1.4483463314501888
            ]
        },
        {
            "positions": [
                -2.021309759765424,
                -0.9164547972192904,
                -0.6817007452777478,
                1.4193085263403813,
                1.1839843633587626,
                -1.3952972119222533
            ]
        },
        {
            "positions": [
                -1.8910897019151565,
                -0.9518154255968294,
                -0.7645518751050269,
                1.4081581679552937,
                1.1105027876975715,
                -1.3422480923943179
            ]
        },
        {
            "positions": [
                -1.760869644064889,
                -0.9871760539743686,
                -0.847403004932306,
                1.397007809570206,
                1.0370212120363806,
                -1.2891989728663824
            ]
        },
        {
            "positions": [
                -1.6306495862146217,
                -1.0225366823519078,
                -0.930254134759585,
                1.3858574511851187,
                0.9635396363751896,
                -1.236149853338447
            ]
        },
        {
            "positions": [
                -1.5004295283643543,
                -1.057897310729447,
                -1.0131052645868641,
                1.3747070928000311,
                0.8900580607139985,
                -1.1831007338105115
            ]
        },
        {
            "positions": [
                -1.370209470514087,
                -1.093257939106986,
                -1.0959563944141433,
                1.3635567344149435,
                0.8165764850528076,
                -1.1300516142825763
            ]
        },
        {
            "positions": [
                -1.2399894126638193,
                -1.1286185674845253,
                -1.1788075242414224,
                1.3524063760298561,
                0.7430949093916165,
                -1.0770024947546406
            ]
        },
        {
            "positions": [
                -1.109769354813552,
                -1.1639791958620644,
                -1.2616586540687014,
                1.3412560176447685,
                0.6696133337304255,
                -1.0239533752267054
            ]
        },
        {
            "positions": [
                -0.9795492969632849,
                -1.1993398242396034,
                -1.3445097838959803,
                1.3301056592596812,
                0.5961317580692345,
                -0.9709042556987698
            ]
        },
        {
            "positions": [
                -0.8493292391130174,
                -1.2347004526171426,
                -1.4273609137232595,
                1.3189553008745936,
                0.5226501824080434,
                -0.9178551361708344
            ]
        },
        {
            "positions": [
                -0.7191091812627501,
                -1.2700610809946817,
                -1.5102120435505386,
                1.307804942489506,
                0.44916860674685255,
                -0.8648060166428989
            ]
        },
        {
            "positions": [
                -0.5888891234124825,
                -1.305421709372221,
                -1.5930631733778178,
                1.2966545841044184,
                0.3756870310856615,
                -0.8117568971149635
            ]
        },
        {
            "positions": [
                -0.4586690655622152,
                -1.34078233774976,
                -1.6759143032050967,
                1.285504225719331,
                0.3022054554244704,
                -0.7587077775870281
            ]
        },
        {
            "positions": [
                -0.32844900771194796,
                -1.3761429661272992,
                -1.7587654330323756,
                1.2743538673342434,
                0.22872387976327957,
                -0.7056586580590927
            ]
        },
        {
            "positions": [
                -0.19822894986168027,
                -1.4115035945048384,
                -1.841616562859655,
                1.263203508949156,
                0.15524230410208828,
                -0.6526095385311572
            ]
        },
        {
            "positions": [
                -0.068008892011413,
                -1.4468642228823776,
                -1.924467692686934,
                1.2520531505640684,
                0.08176072844089748,
                -0.5995604190032217
            ]
        },
        {
            "positions": [
                -0.05804861778558775,
                -1.5761491202936666,
                -2.025021199312984,
                1.3069918975767427,
                0.07578611891782196,
                -0.5107251903248237
            ]
        },
        {
            "positions": [
                -0.048088343559762506,
                -1.7054340177049556,
                -2.1255747059390346,
                1.3619306445894173,
                0.06981150939474644,
                -0.42188996164642567
            ]
        },
        {
            "positions": [
                -0.03812806933393727,
                -1.8347189151162449,
                -2.2261282125650848,
                1.4168693916020918,
                0.0638368998716709,
                -0.3330547329680277
            ]
        },
        {
            "positions": [
                -0.028167795108112022,
                -1.9640038125275339,
                -2.326681719191135,
                1.4718081386147661,
                0.05786229034859539,
                -0.24421950428962966
            ]
        },
        {
            "positions": [
                -0.08111521011560509,
                -2.0704398082235707,
                -2.342974757367756,
                1.4895506577591213,
                0.10077282537081607,
                -0.16683861128491667
            ]
        },
        {
            "positions": [
                -0.13406262512309816,
                -2.1768758039196077,
                -2.359267795544377,
                1.5072931769034768,
                0.14368336039303675,
                -0.08945771828020369
            ]
        },
        {
            "positions": [
                -0.18701004013059122,
                -2.2833117996156447,
                -2.375560833720998,
                1.525035696047832,
                0.18659389541525742,
                -0.012076825275490675
            ]
        }
    ]
}