{
    "goal": {
        "global_pose": {
            "orientation": {
                "w": -0.00223480608172531,
                "x": 0.0024358444001904467,
                "y": 0.7094548369677653,
                "z": -0.704743149386269
            },
            "position": {
                "x": 0.6205249238014221,
                "y": -0.6371506643295288,
                "z": 0.19426114857196808
            }
        },
        "name": "move_to_magneteinheit_B"
    },
    "id": "BiTRRT_move_to_magneteinheit_B_53",
    "joint_names": [
        "shoulder_pan_joint",
        "shoulder_lift_joint",
        "elbow_joint",
        "wrist_1_joint",
        "wrist_2_joint",
        "wrist_3_joint"
    ],
    "metrics": {
        "cart_traj_len": 3.436078997151189,
        "distance_elbow_joint": 4.381005799106482,
        "distance_shoulder_lift_joint": 1.3152161704562415,
        "distance_shoulder_pan_joint": 2.477821930953717,
        "distance_wrist_1_joint": 1.3678013983594441,
        "distance_wrist_2_joint": 1.1811763064652017,
        "distance_wrist_3_joint": 0.9717141446380861,
        "smoothness": 0.2354797701104255,
        "time": 0.176824478,
        "traj_len": 3.419756679937795,
        "weighted_distance": 4.023324712731995
    },
    "planner": "BiTRRT",
    "start": {
        "state": {
            "elbow_joint": 2.6216224122426386,
            "shoulder_lift_joint": -1.4174107377796124,
            "shoulder_pan_joint": 0.7066234856936794,
            "wrist_1_joint": 1.9546482284002225,
            "wrist_2_joint": -0.7096286983471962,
            "wrist_3_joint": 0.005740856962016249
        }
    },
    "waypoints": [
        {
            "positions": [
                0.7066234856936794,
                -1.4174107377796124,
                2.6216224122426386,
                1.9546482284002225,
                -0.7096286983471962,
                0.005740856962016249
            ]
        },
        {
            "positions": [
                0.6362585729849939,
                -1.3750391636714778,
                2.5987232425314013,
                1.820922711988903,
                -0.6989215918690656,
                0.06500121836851319
            ]
        },
        {
            "positions": [
                0.5658936602763085,
                -1.3326675895633435,
                2.5758240728201645,
                1.687197195577584,
                -0.688214485390935,
                0.12426157977501014
            ]
        },
        {
            "positions": [
                0.495528747567623,
                -1.290296015455209,
                2.552924903108927,
                1.5534716791662646,
                -0.6775073789128043,
                0.1835219411815071
            ]
        },
        {
            "positions": [
                0.5013797450621132,
                -1.3161903226706932,
                2.365374139792526,
                1.42916511645883,
                -0.6744968665603368,
                0.2144895508813234
            ]
        },
        {
            "positions": [
                0.5072307425566036,
                -1.3420846298861775,
                2.1778233764761246,
                1.304858553751395,
                -0.6714863542078693,
                0.2454571605811397
            ]
        },
        {
            "positions": [
                0.5130817400510939,
                -1.367978937101662,
                1.9902726131597233,
                1.1805519910439604,
                -0.6684758418554018,
                0.27642477028095597
            ]
        },
        {
            "positions": [
                0.5189327375455842,
                -1.3938732443171462,
                1.802721849843322,
                1.0562454283365255,
                -0.6654653295029342,
                0.3073923799807723
            ]
        },
        {
            "positions": [
                0.5247837350400745,
                -1.4197675515326305,
                1.6151710865269207,
                0.9319388656290908,
                -0.6624548171504667,
                0.33835998968058856
            ]
        },
        {
            "positions": [
                0.6360968014390451,
                -1.4541736098970601,
                1.4099258364240321,
                0.9394520935666304,
                -0.6509898254817464,
                0.35340526831036534
            ]
        },
        {
            "positions": [
                0.7474098678380158,
                -1.4885796682614898,
                1.2046805863211438,
                0.9469653215041701,
                -0.639524833813026,
                0.3684505469401421
            ]
        },
        {
            "positions": [
                0.8587229342369864,
                -1.5229857266259195,
                0.9994353362182553,
                0.9544785494417097,
                -0.6280598421443058,
                0.38349582556991885
            ]
        },
        {
            "positions": [
                0.970036000635957,
                -1.5573917849903491,
                0.7941900861153668,
                0.9619917773792493,
                -0.6165948504755854,
                0.39854110419969563
            ]
        },
        {
            "positions": [
                1.0813490670349277,
                -1.5917978433547786,
                0.5889448360124785,
                0.9695050053167891,
                -0.6051298588068651,
                0.4135863828294724
            ]
        },
        {
            "positions": [
                1.1926621334338983,
                -1.6262039017192083,
                0.38369958590958997,
                0.9770182332543287,
                -0.5936648671381447,
                0.4286316614592492
            ]
        },
        {
            "positions": [
                1.3039751998328688,
                -1.660609960083638,
                0.17845433580670145,
                0.9845314611918684,
                -0.5821998754694244,
                0.443676940089026
            ]
        },
        {
            "positions": [
                1.4152882662318396,
                -1.6950160184480676,
                -0.026790914296187074,
                0.992044689129408,
                -0.570734883800704,
                0.4587222187188027
            ]
        },
        {
            "positions": [
                1.5266013326308103,
                -1.7294220768124973,
                -0.2320361643990756,
                0.9995579170669476,
                -0.5592698921319837,
                0.4737674973485795
            ]
        },
        {
            "positions": [
                1.6379143990297806,
                -1.763828135176927,
                -0.43728141450196367,
                1.0070711450044874,
                -0.5478049004632635,
                0.48881277597835626
            ]
        },
        {
            "positions": [
                1.7492274654287514,
                -1.7982341935413566,
                -0.6425266646048522,
                1.014584372942027,
                -0.5363399087945431,
                0.503858054608133
            ]
        },
        {
            "positions": [
                1.8695079950670568,
                -1.8693039776218223,
                -0.7751653835660773,
                1.0289003537540062,
                -0.5043952972931082,
                0.4827725217926584
            ]
        },
        {
            "positions": [
                1.9897885247053622,
                -1.940373761702288,
                -0.9078041025273025,
                1.0432163345659857,
                -0.47245068579167326,
                0.46168698897718374
            ]
        },
        {
            "positions": [
                2.1100690543436675,
                -2.011443545782754,
                -1.0404428214885275,
                1.057532315377965,
                -0.4405060742902384,
                0.4406014561617091
            ]
        },
        {
            "positions": [
                2.2303495839819725,
                -2.08251332986322,
                -1.1730815404497528,
                1.0718482961899443,
                -0.4085614627888035,
                0.41951592334623444
            ]
        },
        {
            "positions": [
                2.3506301136202783,
                -2.1535831139436854,
                -1.3057202594109778,
                1.0861642770019235,
                -0.3766168512873686,
                0.3984303905307598
            ]
        },
        {
            "positions": [
                2.4709106432585832,
                -2.2246528980241513,
                -1.4383589783722028,
                1.1004802578139028,
                -0.34467223978593375,
                0.3773448577152852
            ]
        },
        {
            "positions": [
                2.5911911728968886,
                -2.295722682104617,
                -1.570997697333428,
                1.1147962386258823,
                -0.31272762828449885,
                0.35625932489981055
            ]
        },
        {
            "positions": [
                2.711471702535194,
                -2.3667924661850828,
                -1.7036364162946531,
                1.1291122194378616,
                -0.28078301678306394,
                0.3351737920843359
            ]
        },
        {
            "positions": [
                2.699157956691568,
                -2.405242186757903,
                -1.7089913942863892,
                1.0873058478693993,
                -0.09350598337880506,
                0.2560646101014959
            ]
        },
        {
            "positions": [
                2.686844210847943,
                -2.4436919073307224,
                -1.7143463722781254,
                1.045499476300937,
                0.09377105002545383,
                0.1769554281186559
            ]
        },
        {
            "positions": [
                2.6737658377615237,
                -2.4610446854588846,
                -1.6918278649852658,
                1.0133465069796286,
                0.28265932907172964,
                0.1036082678674098
            ]
        },
        {
            "positions": [
                2.6606874646751044,
                -2.478397463587047,
                -1.6693093576924063,
                0.98119353765832,
                0.47154760811800545,
                0.030261107616163713
            ]
        }
    ]
}