{
    "goal": {
        "global_pose": {
            "orientation": {
                "w": 0.005598929693374612,
                "x": 0.007748599140229565,
                "y": 0.7110244013736278,
                "z": -0.7031023480610252
            },
            "position": {
                "x": -0.8858502320852131,
                "y": -0.7141253447532654,
                "z": 0.3711530566215515
            }
        },
        "name": "move_to_auspresseinheit_C"
    },
    "id": "BiTRRT_move_to_auspresseinheit_C_100",
    "joint_names": [
        "shoulder_pan_joint",
        "shoulder_lift_joint",
        "elbow_joint",
        "wrist_1_joint",
        "wrist_2_joint",
        "wrist_3_joint"
    ],
    "metrics": {
        "cart_traj_len": 0.49353485718413903,
        "distance_elbow_joint": 0.9926659953069202,
        "distance_shoulder_lift_joint": 0.32165950575056246,
        "distance_shoulder_pan_joint": 0.2570989457913684,
        "distance_wrist_1_joint": 0.6574419038502021,
        "distance_wrist_2_joint": 1.3109915520634527,
        "distance_wrist_3_joint": 0.05300894145423962,
        "smoothness": 8.074349282788172e-16,
        "time": 0.044201238999999996,
        "traj_len": 1.895485912428986,
        "weighted_distance": 2.3806129847244972
    },
    "planner": "BiTRRT",
    "start": {
        "state": {
            "elbow_joint": 1.7527959577737207,
            "shoulder_lift_joint": -0.9740617694225068,
            "shoulder_pan_joint": -2.967991417825858,
            "wrist_1_joint": -0.759517768980727,
            "wrist_2_joint": 1.7443932448377408,
            "wrist_3_joint": -3.0840537646736568
        }
    },
    "waypoints": [
        {
            "positions": [
                -2.967991417825858,
                -0.9740617694225068,
                1.7527959577737207,
                -0.759517768980727,
                1.7443932448377408,
                -3.0840537646736568
            ]
        },
        {
            "positions": [
                -2.942281523246721,
                -0.9418958188474505,
                1.6535293582430286,
                -0.6937735785957068,
                1.6132940896313956,
                -3.089354658819081
            ]
        },
        {
            "positions": [
                -2.9165716286675845,
                -0.9097298682723943,
                1.5542627587123365,
                -0.6280293882106865,
                1.4821949344250502,
                -3.094655552964505
            ]
        },
        {
            "positions": [
                -2.8908617340884475,
                -0.877563917697338,
                1.4549961591816447,
                -0.5622851978256663,
                1.351095779218705,
                -3.099956447109929
            ]
        },
        {
            "positions": [
                -2.8651518395093105,
                -0.8453979671222818,
                1.3557295596509524,
                -0.49654100744064616,
                1.2199966240123596,
                -3.105257341255353
            ]
        },
        {
            "positions": [
                -2.839441944930174,
                -0.8132320165472255,
                1.2564629601202606,
                -0.43079681705562595,
                1.0888974688060145,
                -3.1105582354007764
            ]
        },
        {
            "positions": [
                -2.813732050351037,
                -0.7810660659721693,
                1.1571963605895685,
                -0.36505262667060573,
                0.9577983135996692,
                -3.1158591295462004
            ]
        },
        {
            "positions": [
                -2.7880221557719,
                -0.7489001153971131,
                1.0579297610588765,
                -0.29930843628558557,
                0.826699158393324,
                -3.1211600236916244
            ]
        },
        {
            "positions": [
                -2.762312261192763,
                -0.7167341648220569,
                0.9586631615281844,
                -0.23356424590056535,
                0.6956000031869787,
                -3.1264609178370484
            ]
        },
        {
            "positions": [
                -2.7366023666136265,
                -0.6845682142470005,
                0.8593965619974925,
                -0.16782005551554513,
                0.5645008479806333,
                -3.1317618119824724
            ]
        },
        {
            "positions": [
                -2.7108924720344896,
                -0.6524022636719443,
                0.7601299624668004,
                -0.10207586513052494,
                0.433401692774288,
                -3.1370627061278964
            ]
        }
    ]
}