{
    "goal": {
        "global_pose": {
            "orientation": {
                "w": -0.00223480608172531,
                "x": 0.0024358444001904467,
                "y": 0.7094548369677653,
                "z": -0.704743149386269
            },
            "position": {
                "x": -0.37947507619857795,
                "y": -0.6371506643295288,
                "z": 0.19426114857196808
            }
        },
        "name": "move_to_magneteinheit_C"
    },
    "id": "BiTRRT_move_to_magneteinheit_C_30",
    "joint_names": [
        "shoulder_pan_joint",
        "shoulder_lift_joint",
        "elbow_joint",
        "wrist_1_joint",
        "wrist_2_joint",
        "wrist_3_joint"
    ],
    "metrics": {
        "cart_traj_len": 6.994653108871559,
        "distance_elbow_joint": 1.0638332852953103,
        "distance_shoulder_lift_joint": 2.914390672724007,
        "distance_shoulder_pan_joint": 10.362409752933912,
        "distance_wrist_1_joint": 3.2325837905739645,
        "distance_wrist_2_joint": 2.142606447582455,
        "distance_wrist_3_joint": 4.705325903211515,
        "smoothness": 0.5537264943485832,
        "time": 0.29097180500000003,
        "traj_len": 4.941775981600252,
        "weighted_distance": 6.261548681987599
    },
    "planner": "BiTRRT",
    "start": {
        "state": {
            "elbow_joint": 1.9565354010623817,
            "shoulder_lift_joint": -1.4165861575791021,
            "shoulder_pan_joint": -1.6717766225146293,
            "wrist_1_joint": -0.5286633292919765,
            "wrist_2_joint": 1.472756589071564,
            "wrist_3_joint": -3.1238370188695823
        }
    },
    "waypoints": [
        {
            "positions": [
                -1.6717766225146293,
                -1.4165861575791021,
                1.9565354010623817,
                -0.5286633292919765,
                1.472756589071564,
                -3.1238370188695823
            ]
        },
        {
            "positions": [
                -1.5175823523072824,
                -1.4594670732458008,
                1.9401942433835722,
                -0.4813920761426042,
                1.4251871499729916,
                -3.048277273397441
            ]
        },
        {
            "positions": [
                -1.3633880820999356,
                -1.5023479889124995,
                1.9238530857047627,
                -0.43412082299323196,
                1.3776177108744192,
                -2.9727175279252993
            ]
        },
        {
            "positions": [
                -1.2091938118925887,
                -1.5452289045791985,
                1.9075119280259532,
                -0.38684956984385976,
                1.3300482717758468,
                -2.8971577824531582
            ]
        },
        {
            "positions": [
                -1.0549995416852418,
                -1.5881098202458972,
                1.8911707703471436,
                -0.3395783166944875,
                1.2824788326772745,
                -2.8215980369810167
            ]
        },
        {
            "positions": [
                -0.9008052714778949,
                -1.630990735912596,
                1.8748296126683341,
                -0.29230706354511526,
                1.2349093935787023,
                -2.7460382915088752
            ]
        },
        {
            "positions": [
                -0.746611001270548,
                -1.6738716515792946,
                1.8584884549895246,
                -0.24503581039574301,
                1.18733995448013,
                -2.6704785460367337
            ]
        },
        {
            "positions": [
                -0.5924167310632011,
                -1.7167525672459933,
                1.8421472973107151,
                -0.19776455724637082,
                1.1397705153815576,
                -2.5949188005645922
            ]
        },
        {
            "positions": [
                -0.43822246085585426,
                -1.7596334829126923,
                1.8258061396319056,
                -0.15049330409699857,
                1.0922010762829852,
                -2.519359055092451
            ]
        },
        {
            "positions": [
                -0.28402819064850715,
                -1.802514398579391,
                1.8094649819530961,
                -0.10322205094762632,
                1.0446316371844129,
                -2.4437993096203097
            ]
        },
        {
            "positions": [
                -0.1298339204411605,
                -1.8453953142460897,
                1.7931238242742866,
                -0.05595079779825407,
                0.9970621980858405,
                -2.368239564148168
            ]
        },
        {
            "positions": [
                0.024360349766186618,
                -1.8882762299127887,
                1.7767826665954771,
                -0.008679544648881876,
                0.9494927589872683,
                -2.292679818676027
            ]
        },
        {
            "positions": [
                0.17855461997353328,
                -1.9311571455794874,
                1.7604415089166676,
                0.03859170850049043,
                0.9019233198886959,
                -2.2171200732038856
            ]
        },
        {
            "positions": [
                0.3327488901808804,
                -1.974038061246186,
                1.7441003512378581,
                0.08586296164986262,
                0.8543538807901235,
                -2.141560327731744
            ]
        },
        {
            "positions": [
                0.48694316038822705,
                -2.016918976912885,
                1.7277591935590486,
                0.13313421479923482,
                0.8067844416915513,
                -2.0660005822596026
            ]
        },
        {
            "positions": [
                0.6411374305955742,
                -2.0597998925795835,
                1.7114180358802393,
                0.18040546794860712,
                0.7592150025929789,
                -1.9904408367874613
            ]
        },
        {
            "positions": [
                0.7953317008029208,
                -2.1026808082462822,
                1.6950768782014296,
                0.22767672109797932,
                0.7116455634944066,
                -1.9148810913153198
            ]
        },
        {
            "positions": [
                0.9495259710102675,
                -2.145561723912981,
                1.6787357205226203,
                0.2749479742473515,
                0.6640761243958343,
                -1.8393213458431785
            ]
        },
        {
            "positions": [
                1.103720241217615,
                -2.18844263957968,
                1.6623945628438106,
                0.3222192273967238,
                0.6165066852972618,
                -1.763761600371037
            ]
        },
        {
            "positions": [
                1.2579145114249617,
                -2.231323555246379,
                1.6460534051650013,
                0.369490480546096,
                0.5689372461986896,
                -1.6882018548988955
            ]
        },
        {
            "positions": [
                1.4121087816323084,
                -2.2742044709130775,
                1.6297122474861918,
                0.4167617336954683,
                0.5213678071001172,
                -1.6126421094267542
            ]
        },
        {
            "positions": [
                1.566303051839655,
                -2.3170853865797763,
                1.6133710898073823,
                0.4640329868448405,
                0.47379836800154496,
                -1.537082363954613
            ]
        },
        {
            "positions": [
                1.7204973220470026,
                -2.359966302246475,
                1.5970299321285728,
                0.5113042399942127,
                0.4262289289029726,
                -1.4615226184824714
            ]
        },
        {
            "positions": [
                1.8746915922543492,
                -2.4028472179131737,
                1.5806887744497633,
                0.5585754931435849,
                0.37865948980440023,
                -1.38596287301033
            ]
        },
        {
            "positions": [
                2.0288858624616957,
                -2.4457281335798724,
                1.5643476167709538,
                0.6058467462929573,
                0.33109005070582787,
                -1.3104031275381887
            ]
        },
        {
            "positions": [
                2.1830801326690423,
                -2.488609049246571,
                1.5480064590921443,
                0.6531179994423295,
                0.2835206116072557,
                -1.2348433820660474
            ]
        },
        {
            "positions": [
                2.33727440287639,
                -2.53148996491327,
                1.5316653014133348,
                0.7003892525917017,
                0.23595117250868314,
                -1.1592836365939057
            ]
        },
        {
            "positions": [
                2.4914686730837365,
                -2.574370880579969,
                1.5153241437345253,
                0.7476605057410739,
                0.18838173341011077,
                -1.0837238911217644
            ]
        },
        {
            "positions": [
                2.645662943291083,
                -2.6172517962466673,
                1.4989829860557158,
                0.7949317588904461,
                0.14081229431153863,
                -1.0081641456496229
            ]
        },
        {
            "positions": [
                2.79985721349843,
                -2.6601327119133664,
                1.4826418283769063,
                0.8422030120398183,
                0.09324285521296627,
                -0.9326044001774818
            ]
        },
        {
            "positions": [
                2.9540514837057774,
                -2.703013627580065,
                1.4663006706980968,
                0.8894742651891907,
                0.045673416114393905,
                -0.8570446547053403
            ]
        },
        {
            "positions": [
                3.108245753913124,
                -2.745894543246764,
                1.4499595130192873,
                0.9367455183385629,
                -0.0018960229841784582,
                -0.7814849092331988
            ]
        },
        {
            "positions": [
                2.933796148397307,
                -2.696360721776253,
                1.467373806683419,
                0.881521301371581,
                0.018977534376031318,
                -0.8553278402824218
            ]
        },
        {
            "positions": [
                2.75934654288149,
                -2.6468269003057423,
                1.4847881003475507,
                0.8262970844045991,
                0.039851091736241094,
                -0.9291707713316447
            ]
        },
        {
            "positions": [
                2.5848969373656723,
                -2.5972930788352313,
                1.5022023940116824,
                0.7710728674376173,
                0.06072464909645087,
                -1.0030137023808676
            ]
        },
        {
            "positions": [
                2.410447331849855,
                -2.5477592573647208,
                1.5196166876758141,
                0.7158486504706353,
                0.08159820645666065,
                -1.0768566334300906
            ]
        },
        {
            "positions": [
                2.235997726334038,
                -2.4982254358942098,
                1.537030981339946,
                0.6606244335036534,
                0.10247176381687043,
                -1.1506995644793137
            ]
        },
        {
            "positions": [
                2.0615481208182205,
                -2.4486916144236988,
                1.5544452750040778,
                0.6054002165366715,
                0.12334532117708019,
                -1.2245424955285364
            ]
        },
        {
            "positions": [
                1.8870985153024034,
                -2.399157792953188,
                1.5718595686682095,
                0.5501759995696895,
                0.14421887853728999,
                -1.2983854265777595
            ]
        },
        {
            "positions": [
                1.7126489097865862,
                -2.349623971482677,
                1.5892738623323412,
                0.4949517826027077,
                0.16509243589749975,
                -1.3722283576269825
            ]
        },
        {
            "positions": [
                1.5381993042707691,
                -2.300090150012166,
                1.606688155996473,
                0.43972756563572585,
                0.18596599325770952,
                -1.4460712886762055
            ]
        },
        {
            "positions": [
                1.3637496987549518,
                -2.2505563285416557,
                1.6241024496606047,
                0.3845033486687439,
                0.2068395506179193,
                -1.5199142197254285
            ]
        },
        {
            "positions": [
                1.1893000932391344,
                -2.2010225070711447,
                1.6415167433247364,
                0.32927913170176204,
                0.22771310797812908,
                -1.5937571507746513
            ]
        },
        {
            "positions": [
                1.0148504877233173,
                -2.151488685600634,
                1.6589310369888683,
                0.27405491473478016,
                0.24858666533833884,
                -1.6676000818238743
            ]
        },
        {
            "positions": [
                0.8404008822075002,
                -2.101954864130123,
                1.676345330653,
                0.2188306977677983,
                0.26946022269854863,
                -1.7414430128730973
            ]
        },
        {
            "positions": [
                0.6659512766916826,
                -2.0524210426596126,
                1.6937596243171318,
                0.1636064808008163,
                0.29033378005875843,
                -1.8152859439223201
            ]
        },
        {
            "positions": [
                0.4915016711758655,
                -2.0028872211891016,
                1.7111739179812635,
                0.10838226383383442,
                0.31120733741896817,
                -1.8891288749715431
            ]
        },
        {
            "positions": [
                0.3170520656600484,
                -1.9533533997185906,
                1.7285882116453952,
                0.05315804686685255,
                0.33208089477917796,
                -1.9629718060207662
            ]
        },
        {
            "positions": [
                0.14260246014423128,
                -1.90381957824808,
                1.746002505309527,
                -0.0020661701001293276,
                0.35295445213938775,
                -2.036814737069989
            ]
        },
        {
            "positions": [
                -0.03184714537158584,
                -1.854285756777569,
                1.7634167989736587,
                -0.057290387067111204,
                0.3738280094995975,
                -2.110657668119212
            ]
        },
        {
            "positions": [
                -0.2062967508874034,
                -1.8047519353070582,
                1.7808310926377904,
                -0.11251460403409319,
                0.3947015668598073,
                -2.1845005991684348
            ]
        },
        {
            "positions": [
                -0.3807463564032205,
                -1.7552181138365475,
                1.798245386301922,
                -0.16773882100107507,
                0.4155751242200171,
                -2.258343530217658
            ]
        },
        {
            "positions": [
                -0.5551959619190376,
                -1.7056842923660365,
                1.8156596799660538,
                -0.22296303796805694,
                0.4364486815802268,
                -2.332186461266881
            ]
        },
        {
            "positions": [
                -0.7296455674348552,
                -1.6561504708955257,
                1.8330739736301858,
                -0.2781872549350388,
                0.4573222389404366,
                -2.406029392316104
            ]
        },
        {
            "positions": [
                -0.9040951729506723,
                -1.606616649425015,
                1.8504882672943175,
                -0.3334114719020207,
                0.4781957963006464,
                -2.479872323365327
            ]
        },
        {
            "positions": [
                -1.0785447784664894,
                -1.5570828279545041,
                1.8679025609584492,
                -0.38863568886900257,
                0.49906935366085614,
                -2.55371525441455
            ]
        },
        {
            "positions": [
                -1.2529943839823066,
                -1.5075490064839934,
                1.885316854622581,
                -0.44385990583598445,
                0.5199429110210659,
                -2.627558185463773
            ]
        },
        {
            "positions": [
                -1.4274439894981237,
                -1.4580151850134824,
                1.9027311482867126,
                -0.4990841228029663,
                0.5408164683812757,
                -2.701401116512996
            ]
        },
        {
            "positions": [
                -1.6018935950139408,
                -1.4084813635429716,
                1.9201454419508446,
                -0.5543083397699484,
                0.5616900257414855,
                -2.775244047562219
            ]
        },
        {
            "positions": [
                -1.7763432005297588,
                -1.3589475420724608,
                1.9375597356149763,
                -0.6095325567369303,
                0.5825635831016953,
                -2.8490869786114414
            ]
        },
        {
            "positions": [
                -1.950792806045576,
                -1.30941372060195,
                1.954974029279108,
                -0.6647567737039122,
                0.603437140461905,
                -2.9229299096606645
            ]
        },
        {
            "positions": [
                -2.125242411561393,
                -1.259879899131439,
                1.9723883229432397,
                -0.719980990670894,
                0.6243106978221148,
                -2.9967728407098875
            ]
        },
        {
            "positions": [
                -2.29969201707721,
                -1.2103460776609283,
                1.9898026166073715,
                -0.7752052076378759,
                0.6451842551823246,
                -3.0706157717591105
            ]
        },
        {
            "positions": [
                -2.474141622593027,
                -1.1608122561904175,
                2.007216910271503,
                -0.8304294246048578,
                0.6660578125425344,
                -3.1444587028083335
            ]
        }
    ]
}