{
    "goal": {
        "global_pose": {
            "orientation": {
                "w": -0.00223480608172531,
                "x": 0.0024358444001904467,
                "y": 0.7094548369677653,
                "z": -0.704743149386269
            },
            "position": {
                "x": -0.37947507619857795,
                "y": -0.6371506643295288,
                "z": 0.19426114857196808
            }
        },
        "name": "move_to_magneteinheit_C"
    },
    "id": "BiTRRT_move_to_magneteinheit_C_85",
    "joint_names": [
        "shoulder_pan_joint",
        "shoulder_lift_joint",
        "elbow_joint",
        "wrist_1_joint",
        "wrist_2_joint",
        "wrist_3_joint"
    ],
    "metrics": {
        "cart_traj_len": 4.703143025706634,
        "distance_elbow_joint": 4.514846643750212,
        "distance_shoulder_lift_joint": 1.5200378563699857,
        "distance_shoulder_pan_joint": 3.9122493047584936,
        "distance_wrist_1_joint": 1.640667125169696,
        "distance_wrist_2_joint": 2.1202952239222936,
        "distance_wrist_3_joint": 3.497582684460113,
        "smoothness": 0.6579737915358628,
        "time": 0.129554281,
        "traj_len": 4.147972858931311,
        "weighted_distance": 5.2878924494020305
    },
    "planner": "BiTRRT",
    "start": {
        "state": {
            "elbow_joint": 1.9565354010623817,
            "shoulder_lift_joint": -1.4165861575791021,
            "shoulder_pan_joint": -1.6717766225146293,
            "wrist_1_joint": -0.5286633292919765,
            "wrist_2_joint": 1.472756589071564,
            "wrist_3_joint": -3.1238370188695823
        }
    },
    "waypoints": [
        {
            "positions": [
                -1.6717766225146293,
                -1.4165861575791021,
                1.9565354010623817,
                -0.5286633292919765,
                1.472756589071564,
                -3.1238370188695823
            ]
        },
        {
            "positions": [
                -1.5489076177191312,
                -1.4295530480313139,
                2.0036234919291713,
                -0.5844052665656851,
                1.379535038949528,
                -3.0914612344132344
            ]
        },
        {
            "positions": [
                -1.4260386129236333,
                -1.4425199384835257,
                2.050711582795961,
                -0.6401472038393937,
                1.286313488827492,
                -3.059085449956887
            ]
        },
        {
            "positions": [
                -1.3031696081281352,
                -1.4554868289357374,
                2.0977996736627507,
                -0.6958891411131024,
                1.1930919387054564,
                -3.026709665500539
            ]
        },
        {
            "positions": [
                -1.180300603332637,
                -1.468453719387949,
                2.1448877645295403,
                -0.751631078386811,
                1.0998703885834205,
                -2.9943338810441915
            ]
        },
        {
            "positions": [
                -1.057431598537139,
                -1.4814206098401608,
                2.19197585539633,
                -0.8073730156605197,
                1.0066488384613845,
                -2.9619580965878436
            ]
        },
        {
            "positions": [
                -0.934562593741641,
                -1.4943875002923726,
                2.239063946263119,
                -0.8631149529342284,
                0.9134272883393487,
                -2.9295823121314957
            ]
        },
        {
            "positions": [
                -0.8116935889461429,
                -1.5073543907445843,
                2.2861520371299093,
                -0.918856890207937,
                0.8202057382173128,
                -2.897206527675148
            ]
        },
        {
            "positions": [
                -0.6888245841506448,
                -1.520321281196796,
                2.3332401279966986,
                -0.9745988274816456,
                0.726984188095277,
                -2.8648307432188003
            ]
        },
        {
            "positions": [
                -0.5659555793551467,
                -1.5332881716490077,
                2.380328218863488,
                -1.0303407647553544,
                0.6337626379732411,
                -2.832454958762453
            ]
        },
        {
            "positions": [
                -0.4430865745596486,
                -1.5462550621012194,
                2.427416309730278,
                -1.086082702029063,
                0.5405410878512052,
                -2.800079174306105
            ]
        },
        {
            "positions": [
                -0.3202175697641507,
                -1.5592219525534312,
                2.4745044005970676,
                -1.1418246393027716,
                0.44731953772916944,
                -2.7677033898497574
            ]
        },
        {
            "positions": [
                -0.1973485649686526,
                -1.572188843005643,
                2.5215924914638572,
                -1.1975665765764802,
                0.3540979876071335,
                -2.7353276053934095
            ]
        },
        {
            "positions": [
                -0.273164790187764,
                -1.5522796292315566,
                2.3763857297228155,
                -1.1595382470351576,
                0.3706243536977101,
                -2.6517389523611
            ]
        },
        {
            "positions": [
                -0.34898101540687543,
                -1.5323704154574704,
                2.231178967981774,
                -1.1215099174938352,
                0.38715071978828663,
                -2.5681502993287904
            ]
        },
        {
            "positions": [
                -0.4247972406259869,
                -1.512461201683384,
                2.0859722062407324,
                -1.0834815879525126,
                0.4036770858788632,
                -2.4845616462964806
            ]
        },
        {
            "positions": [
                -0.5006134658450982,
                -1.4925519879092979,
                1.940765444499691,
                -1.04545325841119,
                0.42020345196943976,
                -2.4009729932641712
            ]
        },
        {
            "positions": [
                -0.5764296910642097,
                -1.4726427741352115,
                1.7955586827586494,
                -1.0074249288698676,
                0.4367298180600163,
                -2.317384340231862
            ]
        },
        {
            "positions": [
                -0.6522459162833212,
                -1.4527335603611253,
                1.6503519210176079,
                -0.9693965993285449,
                0.4532561841505929,
                -2.233795687199552
            ]
        },
        {
            "positions": [
                -0.7280621415024325,
                -1.432824346587039,
                1.5051451592765663,
                -0.9313682697872224,
                0.46978255024116944,
                -2.1502070341672423
            ]
        },
        {
            "positions": [
                -0.803878366721544,
                -1.4129151328129528,
                1.3599383975355246,
                -0.8933399402458999,
                0.486308916331746,
                -2.066618381134933
            ]
        },
        {
            "positions": [
                -0.8796945919406555,
                -1.3930059190388664,
                1.214731635794483,
                -0.8553116107045773,
                0.5028352824223226,
                -1.9830297281026235
            ]
        },
        {
            "positions": [
                -0.9555108171597668,
                -1.3730967052647802,
                1.0695248740534415,
                -0.8172832811632549,
                0.5193616485128991,
                -1.899441075070314
            ]
        },
        {
            "positions": [
                -1.0313270423788783,
                -1.3531874914906938,
                0.9243181123124,
                -0.7792549516219323,
                0.5358880146034757,
                -1.8158524220380043
            ]
        },
        {
            "positions": [
                -1.1608431936274273,
                -1.2802771385849498,
                0.8507905976681122,
                -0.7711088119279291,
                0.499124781435607,
                -1.7629905137182509
            ]
        },
        {
            "positions": [
                -1.290359344875976,
                -1.2073667856792056,
                0.7772630830238243,
                -0.762962672233926,
                0.46236154826773834,
                -1.7101286053984972
            ]
        },
        {
            "positions": [
                -1.4198754961245248,
                -1.1344564327734616,
                0.7037355683795365,
                -0.7548165325399228,
                0.4255983150998697,
                -1.6572666970787435
            ]
        },
        {
            "positions": [
                -1.5493916473730738,
                -1.0615460798677177,
                0.6302080537352487,
                -0.7466703928459196,
                0.388835081932001,
                -1.60440478875899
            ]
        },
        {
            "positions": [
                -1.6789077986216228,
                -0.9886357269619734,
                0.5566805390909608,
                -0.7385242531519165,
                0.35207184876413233,
                -1.5515428804392366
            ]
        },
        {
            "positions": [
                -1.8084239498701715,
                -0.9157253740562294,
                0.483153024446673,
                -0.7303781134579133,
                0.31530861559626366,
                -1.498680972119483
            ]
        },
        {
            "positions": [
                -1.9379401011187203,
                -0.8428150211504853,
                0.4096255098023852,
                -0.7222319737639101,
                0.278545382428395,
                -1.4458190637997292
            ]
        },
        {
            "positions": [
                -2.0674562523672693,
                -0.7699046682447412,
                0.3360979951580974,
                -0.714085834069907,
                0.24178214926052635,
                -1.3929571554799758
            ]
        },
        {
            "positions": [
                -2.169157253890394,
                -0.7284776846666478,
                0.31240195206272836,
                -0.6768936435503111,
                0.21721946445223866,
                -1.4385173895595345
            ]
        },
        {
            "positions": [
                -2.2708582554135184,
                -0.6870507010885543,
                0.28870590896735926,
                -0.6397014530307152,
                0.19265677964395095,
                -1.484077623639093
            ]
        },
        {
            "positions": [
                -2.2972499077872652,
                -0.6860407070135599,
                0.3659129447325289,
                -0.6161432153393618,
                0.20526492091028736,
                -1.5702677339544455
            ]
        },
        {
            "positions": [
                -2.323641560161012,
                -0.6850307129385655,
                0.4431199804976986,
                -0.5925849776480082,
                0.21787306217662378,
                -1.6564578442697984
            ]
        },
        {
            "positions": [
                -2.356450760011174,
                -0.6897463233145062,
                0.5744503616277448,
                -0.56940767470845,
                0.23781252188212507,
                -1.7859630704222904
            ]
        },
        {
            "positions": [
                -2.389259959861336,
                -0.6944619336904468,
                0.7057807427577909,
                -0.5462303717688918,
                0.25775198158762636,
                -1.9154682965747825
            ]
        },
        {
            "positions": [
                -2.4220691597114983,
                -0.6991775440663875,
                0.8371111238878371,
                -0.5230530688293336,
                0.27769144129312767,
                -2.0449735227272745
            ]
        },
        {
            "positions": [
                -2.4441703725503454,
                -0.7363810609068435,
                0.9679638734478256,
                -0.5461787026984641,
                0.28156330926412376,
                -2.158987348566456
            ]
        },
        {
            "positions": [
                -2.4662715853891926,
                -0.7735845777472995,
                1.098816623007814,
                -0.5693043365675947,
                0.2854351772351199,
                -2.2730011744056378
            ]
        },
        {
            "positions": [
                -2.4883727982280397,
                -0.8107880945877555,
                1.2296693725678027,
                -0.5924299704367253,
                0.289307045206116,
                -2.387015000244819
            ]
        },
        {
            "positions": [
                -2.510474011066887,
                -0.8479916114282114,
                1.360522122127791,
                -0.6155556043058559,
                0.2931789131771121,
                -2.5010288260840006
            ]
        },
        {
            "positions": [
                -2.532575223905734,
                -0.8851951282686674,
                1.4913748716877797,
                -0.6386812381749865,
                0.29705078114810823,
                -2.6150426519231824
            ]
        },
        {
            "positions": [
                -2.554676436744581,
                -0.9223986451091234,
                1.6222276212477682,
                -0.661806872044117,
                0.3009226491191043,
                -2.729056477762364
            ]
        },
        {
            "positions": [
                -2.5385777616572636,
                -0.9703804668502851,
                1.6989038729621337,
                -0.6935061854287695,
                0.3745925473244729,
                -2.8151771775199874
            ]
        },
        {
            "positions": [
                -2.5224790865699456,
                -1.018362288591447,
                1.7755801246764993,
                -0.7252054988134219,
                0.4482624455298414,
                -2.901297877277611
            ]
        },
        {
            "positions": [
                -2.506380411482628,
                -1.0663441103326088,
                1.8522563763908648,
                -0.7569048121980744,
                0.5219323437352099,
                -2.9874185770352346
            ]
        },
        {
            "positions": [
                -2.49028173639531,
                -1.1143259320737704,
                1.9289326281052304,
                -0.7886041255827267,
                0.5956022419405785,
                -3.073539276792858
            ]
        },
        {
            "positions": [
                -2.4741830613079925,
                -1.1623077538149322,
                2.005608879819596,
                -0.8203034389673792,
                0.669272140145947,
                -3.159659976550482
            ]
        }
    ]
}