{
    "goal": {
        "global_pose": {
            "orientation": {
                "w": 0.7047431493862688,
                "x": -0.7094548369677653,
                "y": 0.0024358444001904,
                "z": -0.0022348060817251984
            },
            "position": {
                "x": -0.39052492380142206,
                "y": 0.3671506643295288,
                "z": 0.19426114857196808
            }
        },
        "name": "move_to_magneteinheit_D"
    },
    "id": "BiTRRT_move_to_magneteinheit_D_147",
    "joint_names": [
        "shoulder_pan_joint",
        "shoulder_lift_joint",
        "elbow_joint",
        "wrist_1_joint",
        "wrist_2_joint",
        "wrist_3_joint"
    ],
    "metrics": {
        "cart_traj_len": 4.324688944731429,
        "distance_elbow_joint": 3.1128041308272136,
        "distance_shoulder_lift_joint": 1.7571858798202034,
        "distance_shoulder_pan_joint": 3.287451271956335,
        "distance_wrist_1_joint": 2.1886353829872185,
        "distance_wrist_2_joint": 2.516546152521408,
        "distance_wrist_3_joint": 1.9485207381025305,
        "smoothness": 0.38678349478076507,
        "time": 0.127055569,
        "traj_len": 3.8485248545663455,
        "weighted_distance": 4.838736050657093
    },
    "planner": "BiTRRT",
    "start": {
        "state": {
            "elbow_joint": 0.749534889911806,
            "shoulder_lift_joint": -0.6476975780787326,
            "shoulder_pan_joint": -2.711696901376241,
            "wrist_1_joint": -0.07506478083263063,
            "wrist_2_joint": 0.43296659715538205,
            "wrist_3_joint": -3.14703540197715
        }
    },
    "waypoints": [
        {
            "positions": [
                -2.711696901376241,
                -0.6476975780787326,
                0.749534889911806,
                -0.07506478083263063,
                0.43296659715538205,
                -3.14703540197715
            ]
        },
        {
            "positions": [
                -2.7436234665177093,
                -0.5925742758965648,
                0.6673761855792161,
                -0.06927778674518087,
                0.3304344156035256,
                -3.0323074557950074
            ]
        },
        {
            "positions": [
                -2.7755500316591775,
                -0.5374509737143969,
                0.5852174812466262,
                -0.06349079265773112,
                0.22790223405166912,
                -2.917579509612865
            ]
        },
        {
            "positions": [
                -2.8074765968006457,
                -0.48232767153222894,
                0.5030587769140363,
                -0.057703798570281364,
                0.12537005249981265,
                -2.8028515634307225
            ]
        },
        {
            "positions": [
                -2.8394031619421143,
                -0.42720436935006106,
                0.42090007258144646,
                -0.05191680448283161,
                0.022837870947956196,
                -2.68812361724858
            ]
        },
        {
            "positions": [
                -2.8713297270835825,
                -0.37208106716789313,
                0.33874136824885653,
                -0.04612981039538185,
                -0.07969431060390036,
                -2.5733956710664376
            ]
        },
        {
            "positions": [
                -2.9032562922250507,
                -0.31695776498572525,
                0.25658266391626666,
                -0.0403428163079321,
                -0.1822264921557567,
                -2.458667724884295
            ]
        },
        {
            "positions": [
                -2.8477677778168715,
                -0.34654854051736667,
                0.14156230034572326,
                -0.03805482142483323,
                -0.2942991933946225,
                -2.4007480325320105
            ]
        },
        {
            "positions": [
                -2.792279263408693,
                -0.3761393160490081,
                0.026541936775179853,
                -0.03576682654173435,
                -0.4063718946334884,
                -2.3428283401797256
            ]
        },
        {
            "positions": [
                -2.7367907490005137,
                -0.40573009158064943,
                -0.0884784267953635,
                -0.03347883165863547,
                -0.5184445958723543,
                -2.284908647827441
            ]
        },
        {
            "positions": [
                -2.681302234592335,
                -0.43532086711229084,
                -0.20349879036590696,
                -0.0311908367755366,
                -0.6305172971112201,
                -2.2269889554751563
            ]
        },
        {
            "positions": [
                -2.625813720184156,
                -0.46491164264393225,
                -0.31851915393645025,
                -0.028902841892437726,
                -0.7425899983500859,
                -2.169069263122872
            ]
        },
        {
            "positions": [
                -2.499913903975017,
                -0.5033711879070648,
                -0.3948909466325884,
                -0.118092756254741,
                -0.6949001713273307,
                -2.1788355865834057
            ]
        },
        {
            "positions": [
                -2.374014087765878,
                -0.5418307331701974,
                -0.47126273932872653,
                -0.20728267061704428,
                -0.6472103443045756,
                -2.18860191004394
            ]
        },
        {
            "positions": [
                -2.2481142715567386,
                -0.5802902784333299,
                -0.5476345320248647,
                -0.2964725849793476,
                -0.5995205172818204,
                -2.198368233504474
            ]
        },
        {
            "positions": [
                -2.1222144553475997,
                -0.6187498236964624,
                -0.6240063247210028,
                -0.38566249934165087,
                -0.5518306902590653,
                -2.2081345569650077
            ]
        },
        {
            "positions": [
                -1.9963146391384607,
                -0.6572093689595949,
                -0.700378117417141,
                -0.47485241370395415,
                -0.5041408632363101,
                -2.217900880425542
            ]
        },
        {
            "positions": [
                -1.8704148229293216,
                -0.6956689142227275,
                -0.7767499101132791,
                -0.5640423280662574,
                -0.456451036213555,
                -2.227667203886076
            ]
        },
        {
            "positions": [
                -1.7445150067201827,
                -0.73412845948586,
                -0.8531217028094172,
                -0.6532322424285607,
                -0.40876120919079983,
                -2.2374335273466097
            ]
        },
        {
            "positions": [
                -1.6186151905110435,
                -0.7725880047489926,
                -0.9294934955055554,
                -0.742422156790864,
                -0.3610713821680447,
                -2.247199850807144
            ]
        },
        {
            "positions": [
                -1.4927153743019044,
                -0.811047550012125,
                -1.0058652882016936,
                -0.8316120711531673,
                -0.31338155514528954,
                -2.256966174267678
            ]
        },
        {
            "positions": [
                -1.3668155580927654,
                -0.8495070952752577,
                -1.0822370808978317,
                -0.9208019855154705,
                -0.2656917281225344,
                -2.2667324977282117
            ]
        },
        {
            "positions": [
                -1.2409157418836263,
                -0.8879666405383901,
                -1.15860887359397,
                -1.009991899877774,
                -0.21800190109977924,
                -2.276498821188746
            ]
        },
        {
            "positions": [
                -1.1150159256744874,
                -0.9264261858015227,
                -1.234980666290108,
                -1.099181814240077,
                -0.1703120740770241,
                -2.28626514464928
            ]
        },
        {
            "positions": [
                -0.9891161094653482,
                -0.9648857310646552,
                -1.3113524589862462,
                -1.1883717286023805,
                -0.12262224705426894,
                -2.296031468109814
            ]
        },
        {
            "positions": [
                -0.8632162932562095,
                -1.0033452763277877,
                -1.3877242516823842,
                -1.2775616429646837,
                -0.07493242003151379,
                -2.305797791570348
            ]
        },
        {
            "positions": [
                -0.7373164770470702,
                -1.0418048215909204,
                -1.4640960443785225,
                -1.3667515573269868,
                -0.027242593008758642,
                -2.315564115030882
            ]
        },
        {
            "positions": [
                -0.6114166608379312,
                -1.080264366854053,
                -1.5404678370746605,
                -1.4559414716892902,
                0.020447234013996507,
                -2.325330438491416
            ]
        },
        {
            "positions": [
                -0.4855168446287923,
                -1.1187239121171855,
                -1.6168396297707985,
                -1.5451313860515934,
                0.06813706103675166,
                -2.33509676195195
            ]
        },
        {
            "positions": [
                -0.35961702841965293,
                -1.157183457380318,
                -1.6932114224669368,
                -1.6343213004138968,
                0.1158268880595068,
                -2.344863085412484
            ]
        },
        {
            "positions": [
                -0.23371721221051445,
                -1.1956430026434504,
                -1.7695832151630748,
                -1.7235112147762,
                0.16351671508226195,
                -2.354629408873018
            ]
        },
        {
            "positions": [
                -0.10781739600137488,
                -1.234102547906583,
                -1.845955007859213,
                -1.8127011291385033,
                0.21120654210501705,
                -2.364395732333552
            ]
        },
        {
            "positions": [
                -0.079927595633877,
                -1.2818532731402177,
                -1.9393019605568935,
                -1.8542931803813747,
                0.17824629007367238,
                -2.4588154987708686
            ]
        },
        {
            "positions": [
                -0.052037795266379125,
                -1.3296039983738526,
                -2.0326489132545738,
                -1.8958852316242458,
                0.1452860380423277,
                -2.5532352652081847
            ]
        },
        {
            "positions": [
                -0.024147994898881253,
                -1.3773547236074872,
                -2.1259958659522544,
                -1.9374772828671172,
                0.11232578601098303,
                -2.6476550316455008
            ]
        },
        {
            "positions": [
                0.0037418054686166307,
                -1.425105448841122,
                -2.2193428186499347,
                -1.9790693341099885,
                0.07936553397963834,
                -2.7420747980828173
            ]
        },
        {
            "positions": [
                -0.019227285407378267,
                -1.4827146731745253,
                -2.2596002560266557,
                -2.016879277485033,
                0.03423595991159184,
                -2.8206882250989684
            ]
        },
        {
            "positions": [
                -0.042196376283373166,
                -1.5403238975079288,
                -2.299857693403377,
                -2.0546892208600775,
                -0.010893614156454658,
                -2.8993016521151196
            ]
        },
        {
            "positions": [
                -0.08984824350399596,
                -1.608017208909593,
                -2.320994875907388,
                -2.0935849092198726,
                -0.06592456758957543,
                -2.9794090555337878
            ]
        },
        {
            "positions": [
                -0.13750011072461876,
                -1.675710520311257,
                -2.3421320584113987,
                -2.132480597579668,
                -0.12095552102269622,
                -3.059516458952456
            ]
        },
        {
            "positions": [
                -0.18515197794524157,
                -1.7434038317129212,
                -2.3632692409154097,
                -2.171376285939463,
                -0.175986474455817,
                -3.139623862371124
            ]
        }
    ]
}