{
    "goal": {
        "global_pose": {
            "orientation": {
                "w": -0.00223480608172531,
                "x": 0.0024358444001904467,
                "y": 0.7094548369677653,
                "z": -0.704743149386269
            },
            "position": {
                "x": 0.6205249238014221,
                "y": -0.6371506643295288,
                "z": 0.19426114857196808
            }
        },
        "name": "move_to_magneteinheit_B"
    },
    "id": "BiTRRT_move_to_magneteinheit_B_7",
    "joint_names": [
        "shoulder_pan_joint",
        "shoulder_lift_joint",
        "elbow_joint",
        "wrist_1_joint",
        "wrist_2_joint",
        "wrist_3_joint"
    ],
    "metrics": {
        "cart_traj_len": 1.7025319857741554,
        "distance_elbow_joint": 0.9611363158322728,
        "distance_shoulder_lift_joint": 0.8439013750886061,
        "distance_shoulder_pan_joint": 1.7439483017203539,
        "distance_wrist_1_joint": 1.6668603934967057,
        "distance_wrist_2_joint": 3.5235256849652523,
        "distance_wrist_3_joint": 0.4764166398315713,
        "smoothness": 0.8625940350102964,
        "time": 0.112907815,
        "traj_len": 3.035751753838703,
        "weighted_distance": 3.919057038250383
    },
    "planner": "BiTRRT",
    "start": {
        "state": {
            "elbow_joint": 2.6216224122426386,
            "shoulder_lift_joint": -1.4174107377796124,
            "shoulder_pan_joint": 0.7066234856936794,
            "wrist_1_joint": 1.9546482284002225,
            "wrist_2_joint": -0.7096286983471962,
            "wrist_3_joint": 0.005740856962016249
        }
    },
    "waypoints": [
        {
            "positions": [
                0.7066234856936794,
                -1.4174107377796124,
                2.6216224122426386,
                1.9546482284002225,
                -0.7096286983471962,
                0.005740856962016249
            ]
        },
        {
            "positions": [
                0.7375443621943812,
                -1.4388870515764922,
                2.6213900097421305,
                1.8768851246510962,
                -0.6102610781686901,
                0.06403506636343305
            ]
        },
        {
            "positions": [
                0.7684652386950831,
                -1.460363365373372,
                2.6211576072416225,
                1.7991220209019703,
                -0.5108934579901839,
                0.12232927576484985
            ]
        },
        {
            "positions": [
                0.723703324339376,
                -1.4597838164784775,
                2.5559351097784275,
                1.7013032340767196,
                -0.37815737557014,
                0.14235241386711947
            ]
        },
        {
            "positions": [
                0.6789414099836689,
                -1.4592042675835828,
                2.490712612315232,
                1.6034844472514689,
                -0.2454212931500961,
                0.16237555196938908
            ]
        },
        {
            "positions": [
                0.6341794956279618,
                -1.4586247186886883,
                2.425490114852037,
                1.5056656604262182,
                -0.11268521073005211,
                0.1823986900716587
            ]
        },
        {
            "positions": [
                0.5894175812722547,
                -1.4580451697937937,
                2.360267617388842,
                1.4078468736009673,
                0.020050871689991756,
                0.20242182817392831
            ]
        },
        {
            "positions": [
                0.5446556669165477,
                -1.457465620898899,
                2.2950451199256467,
                1.3100280867757166,
                0.15278695411003584,
                0.22244496627619792
            ]
        },
        {
            "positions": [
                0.49989375256084057,
                -1.4568860720040044,
                2.2298226224624518,
                1.212209299950466,
                0.28552303653007977,
                0.24246810437846755
            ]
        },
        {
            "positions": [
                0.41674463123232836,
                -1.4099759864672117,
                2.196332238577035,
                1.2665870331885216,
                0.13679515711314,
                0.22836872835404873
            ]
        },
        {
            "positions": [
                0.33359550990381615,
                -1.3630659009304187,
                2.162841854691618,
                1.3209647664265776,
                -0.01193272230379977,
                0.2142693523296299
            ]
        },
        {
            "positions": [
                0.2504463885753039,
                -1.316155815393626,
                2.1293514708062014,
                1.3753424996646335,
                -0.1606606017207396,
                0.20016997630521108
            ]
        },
        {
            "positions": [
                0.16729726724679173,
                -1.269245729856833,
                2.0958610869207845,
                1.4297202329026892,
                -0.3093884811376793,
                0.18607060028079225
            ]
        },
        {
            "positions": [
                0.08414814591827946,
                -1.2223356443200402,
                2.0623707030353677,
                1.484097966140745,
                -0.4581163605546191,
                0.1719712242563734
            ]
        },
        {
            "positions": [
                0.00099902458976725,
                -1.1754255587832472,
                2.028880319149951,
                1.538475699378801,
                -0.606844239971559,
                0.1578718482319546
            ]
        },
        {
            "positions": [
                -0.08215009673874485,
                -1.1285154732464544,
                1.9953899352645341,
                1.5928534326168566,
                -0.7555721193884986,
                0.14377247220753578
            ]
        },
        {
            "positions": [
                -0.16529921806725711,
                -1.0816053877096614,
                1.9618995513791173,
                1.6472311658549126,
                -0.9042999988054383,
                0.12967309618311695
            ]
        },
        {
            "positions": [
                -0.24844833939576938,
                -1.0346953021728686,
                1.9284091674937005,
                1.7016088990929683,
                -1.053027878222378,
                0.1155737201586981
            ]
        },
        {
            "positions": [
                -0.33159746072428165,
                -0.9877852166360758,
                1.8949187836082835,
                1.7559866323310243,
                -1.2017557576393179,
                0.10147434413427928
            ]
        },
        {
            "positions": [
                -0.4147465820527938,
                -0.9408751310992829,
                1.8614283997228667,
                1.8103643655690802,
                -1.3504836370562576,
                0.08737496810986045
            ]
        },
        {
            "positions": [
                -0.49789570338130607,
                -0.89396504556249,
                1.8279380158374499,
                1.864742098807136,
                -1.4992115164731976,
                0.07327559208544163
            ]
        },
        {
            "positions": [
                -0.5810448247098182,
                -0.8470549600256972,
                1.794447631952033,
                1.9191198320451917,
                -1.647939395890137,
                0.05917621606102283
            ]
        },
        {
            "positions": [
                -0.6641939460383303,
                -0.8001448744889044,
                1.7609572480666162,
                1.9734975652832474,
                -1.796667275307077,
                0.045076840036604005
            ]
        },
        {
            "positions": [
                -0.7473430673668425,
                -0.7532347889521115,
                1.7274668641811994,
                2.0278752985213035,
                -1.9453951547240167,
                0.030977464012185152
            ]
        },
        {
            "positions": [
                -0.8304921886953548,
                -0.7063247034153186,
                1.6939764802957826,
                2.0822530317593593,
                -2.0941230341409565,
                0.016878087987766327
            ]
        },
        {
            "positions": [
                -0.9136413100238671,
                -0.6594146178785257,
                1.6604860964103658,
                2.136630764997415,
                -2.2428509135578962,
                0.002778711963347498
            ]
        }
    ]
}