{
    "goal": {
        "global_pose": {
            "orientation": {
                "w": 0.005598929693374612,
                "x": 0.007748599140229565,
                "y": 0.7110244013736278,
                "z": -0.7031023480610252
            },
            "position": {
                "x": 0.1141497679147869,
                "y": -0.7141253447532654,
                "z": 0.3711530566215515
            }
        },
        "name": "move_to_auspresseinheit_B"
    },
    "id": "BiTRRT_move_to_auspresseinheit_B_76",
    "joint_names": [
        "shoulder_pan_joint",
        "shoulder_lift_joint",
        "elbow_joint",
        "wrist_1_joint",
        "wrist_2_joint",
        "wrist_3_joint"
    ],
    "metrics": {
        "cart_traj_len": 0.5651184845550647,
        "distance_elbow_joint": 0.06036295232618549,
        "distance_shoulder_lift_joint": 0.29545558912436376,
        "distance_shoulder_pan_joint": 0.57903594643399,
        "distance_wrist_1_joint": 0.32033980127797657,
        "distance_wrist_2_joint": 0.9878341689890648,
        "distance_wrist_3_joint": 0.003309002844996467,
        "smoothness": 0.0,
        "time": 0.040565057,
        "traj_len": 1.4987786564388277,
        "weighted_distance": 1.8870955028703797
    },
    "planner": "BiTRRT",
    "start": {
        "state": {
            "elbow_joint": 2.0193083361928714,
            "shoulder_lift_joint": -1.1220246554650708,
            "shoulder_pan_joint": -1.0952077554168747,
            "wrist_1_joint": -0.8559753972642168,
            "wrist_2_joint": 0.4759566250798843,
            "wrist_3_joint": -3.1240929996934557
        }
    },
    "waypoints": [
        {
            "positions": [
                -1.0952077554168747,
                -1.1220246554650708,
                2.0193083361928714,
                -0.8559753972642168,
                0.4759566250798843,
                -3.1240929996934557
            ]
        },
        {
            "positions": [
                -1.1917137464892062,
                -1.1712672536524646,
                2.0092478441385073,
                -0.802585430384554,
                0.6405956532447284,
                -3.124644500167622
            ]
        },
        {
            "positions": [
                -1.288219737561538,
                -1.2205098518398587,
                1.999187352084143,
                -0.7491954635048913,
                0.8052346814095726,
                -3.125196000641788
            ]
        },
        {
            "positions": [
                -1.3847257286338697,
                -1.2697524500272528,
                1.9891268600297787,
                -0.6958054966252285,
                0.9698737095744168,
                -3.1257475011159537
            ]
        },
        {
            "positions": [
                -1.4812317197062013,
                -1.3189950482146466,
                1.9790663679754144,
                -0.6424155297455658,
                1.1345127377392608,
                -3.12629900159012
            ]
        },
        {
            "positions": [
                -1.577737710778533,
                -1.3682376464020405,
                1.9690058759210503,
                -0.5890255628659029,
                1.299151765904105,
                -3.1268505020642863
            ]
        },
        {
            "positions": [
                -1.6742437018508647,
                -1.4174802445894346,
                1.958945383866686,
                -0.5356355959862402,
                1.4637907940689492,
                -3.127402002538452
            ]
        }
    ]
}