{
    "goal": {
        "global_pose": {
            "orientation": {
                "w": -0.00223480608172531,
                "x": 0.0024358444001904467,
                "y": 0.7094548369677653,
                "z": -0.704743149386269
            },
            "position": {
                "x": 0.6205249238014221,
                "y": -0.6371506643295288,
                "z": 0.19426114857196808
            }
        },
        "name": "move_to_magneteinheit_B"
    },
    "id": "BiTRRT_move_to_magneteinheit_B_136",
    "joint_names": [
        "shoulder_pan_joint",
        "shoulder_lift_joint",
        "elbow_joint",
        "wrist_1_joint",
        "wrist_2_joint",
        "wrist_3_joint"
    ],
    "metrics": {
        "cart_traj_len": 4.121227745701304,
        "distance_elbow_joint": 4.641886547529587,
        "distance_shoulder_lift_joint": 0.9793596157112932,
        "distance_shoulder_pan_joint": 2.585699437965677,
        "distance_wrist_1_joint": 4.627333131230298,
        "distance_wrist_2_joint": 0.9907705912829141,
        "distance_wrist_3_joint": 3.4924808658189326,
        "smoothness": 0.1498788602113005,
        "time": 0.21499796399999999,
        "traj_len": 4.161433669967443,
        "weighted_distance": 5.469972179425578
    },
    "planner": "BiTRRT",
    "start": {
        "state": {
            "elbow_joint": 2.6216224122426386,
            "shoulder_lift_joint": -1.4174107377796124,
            "shoulder_pan_joint": 0.7066234856936794,
            "wrist_1_joint": 1.9546482284002225,
            "wrist_2_joint": -0.7096286983471962,
            "wrist_3_joint": 0.005740856962016249
        }
    },
    "waypoints": [
        {
            "positions": [
                0.7066234856936794,
                -1.4174107377796124,
                2.6216224122426386,
                1.9546482284002225,
                -0.7096286983471962,
                0.005740856962016249
            ]
        },
        {
            "positions": [
                0.6885702181111839,
                -1.3933412722643397,
                2.622122257474456,
                1.9224642873939217,
                -0.6864148253636272,
                -0.020397977142083468
            ]
        },
        {
            "positions": [
                0.6191278892565265,
                -1.3664042253153437,
                2.5501110957798696,
                1.8244562721839641,
                -0.6337303573852329,
                -0.06121623779118601
            ]
        },
        {
            "positions": [
                0.5496855604018692,
                -1.3394671783663479,
                2.478099934085283,
                1.7264482569740067,
                -0.5810458894068384,
                -0.10203449844028856
            ]
        },
        {
            "positions": [
                0.4802432315472118,
                -1.3125301314173519,
                2.4060887723906967,
                1.6284402417640491,
                -0.5283614214284441,
                -0.1428527590893911
            ]
        },
        {
            "positions": [
                0.4674943550238481,
                -1.3223654271311653,
                2.2675707457258962,
                1.486055510578328,
                -0.48527431914966385,
                -0.1471099033606225
            ]
        },
        {
            "positions": [
                0.45474547850048447,
                -1.3322007228449786,
                2.1290527190610953,
                1.343670779392607,
                -0.4421872168708836,
                -0.15136704763185388
            ]
        },
        {
            "positions": [
                0.44199660197712076,
                -1.342036018558792,
                1.9905346923962948,
                1.201286048206886,
                -0.39910011459210337,
                -0.15562419190308527
            ]
        },
        {
            "positions": [
                0.42924772545375706,
                -1.3518713142726055,
                1.8520166657314938,
                1.058901317021165,
                -0.35601301231332305,
                -0.15988133617431666
            ]
        },
        {
            "positions": [
                0.41649884893039335,
                -1.361706609986419,
                1.7134986390666933,
                0.9165165858354437,
                -0.31292591003454284,
                -0.16413848044554807
            ]
        },
        {
            "positions": [
                0.4037499724070297,
                -1.3715419057002323,
                1.5749806124018926,
                0.7741318546497227,
                -0.2698388077557626,
                -0.16839562471677946
            ]
        },
        {
            "positions": [
                0.391001095883666,
                -1.3813772014140457,
                1.4364625857370918,
                0.6317471234640015,
                -0.22675170547698234,
                -0.17265276898801085
            ]
        },
        {
            "positions": [
                0.4460639794799661,
                -1.3920913045618657,
                1.323668490571243,
                0.5216531512398557,
                -0.2221201255031598,
                -0.07742516915585258
            ]
        },
        {
            "positions": [
                0.5011268630762662,
                -1.4028054077096854,
                1.210874395405394,
                0.4115591790157099,
                -0.21748854552933722,
                0.017802430676305686
            ]
        },
        {
            "positions": [
                0.5561897466725664,
                -1.4135195108575054,
                1.0980803002395452,
                0.301465206791564,
                -0.21285696555551464,
                0.11303003050846394
            ]
        },
        {
            "positions": [
                0.6112526302688664,
                -1.4242336140053253,
                0.9852862050736962,
                0.19137123456741822,
                -0.2082253855816921,
                0.20825763034062222
            ]
        },
        {
            "positions": [
                0.6663155138651666,
                -1.434947717153145,
                0.8724921099078473,
                0.08127726234327237,
                -0.20359380560786952,
                0.3034852301727805
            ]
        },
        {
            "positions": [
                0.7213783974614667,
                -1.445661820300965,
                0.7596980147419985,
                -0.02881670988087348,
                -0.19896222563404697,
                0.39871283000493873
            ]
        },
        {
            "positions": [
                0.7764412810577668,
                -1.456375923448785,
                0.6469039195761495,
                -0.13891068210501933,
                -0.1943306456602244,
                0.4939404298370971
            ]
        },
        {
            "positions": [
                0.831504164654067,
                -1.4670900265966047,
                0.5341098244103006,
                -0.24900465432916508,
                -0.18969906568640185,
                0.5891680296692553
            ]
        },
        {
            "positions": [
                0.8865670482503671,
                -1.4778041297444247,
                0.4213157292444516,
                -0.35909862655331093,
                -0.18506748571257928,
                0.6843956295014136
            ]
        },
        {
            "positions": [
                0.9416299318466672,
                -1.4885182328922446,
                0.3085216340786028,
                -0.4691925987774568,
                -0.18043590573875673,
                0.7796232293335719
            ]
        },
        {
            "positions": [
                0.9966928154429673,
                -1.4992323360400643,
                0.19572753891275396,
                -0.5792865710016026,
                -0.17580432576493416,
                0.87485082916573
            ]
        },
        {
            "positions": [
                1.0517556990392674,
                -1.5099464391878843,
                0.08293344374690514,
                -0.6893805432257485,
                -0.1711727457911116,
                0.9700784289978883
            ]
        },
        {
            "positions": [
                1.1068185826355674,
                -1.5206605423357042,
                -0.029860651418943895,
                -0.7994745154498943,
                -0.16654116581728903,
                1.0653060288300467
            ]
        },
        {
            "positions": [
                1.1618814662318677,
                -1.531374645483524,
                -0.14265474658479294,
                -0.9095684876740402,
                -0.16190958584346649,
                1.160533628662205
            ]
        },
        {
            "positions": [
                1.2169443498281678,
                -1.542088748631344,
                -0.25544884175064175,
                -1.019662459898186,
                -0.1572780058696439,
                1.2557612284943633
            ]
        },
        {
            "positions": [
                1.2720072334244679,
                -1.5528028517791639,
                -0.36824293691649057,
                -1.1297564321223317,
                -0.15264642589582136,
                1.3509888283265215
            ]
        },
        {
            "positions": [
                1.327070117020768,
                -1.5635169549269836,
                -0.4810370320823394,
                -1.2398504043464775,
                -0.14801484592199882,
                1.4462164281586796
            ]
        },
        {
            "positions": [
                1.3821330006170682,
                -1.5742310580748036,
                -0.5938311272481887,
                -1.3499443765706234,
                -0.14338326594817624,
                1.5414440279908381
            ]
        },
        {
            "positions": [
                1.4371958842133683,
                -1.5849451612226233,
                -0.7066252224140372,
                -1.460038348794769,
                -0.13875168597435367,
                1.6366716278229962
            ]
        },
        {
            "positions": [
                1.4922587678096684,
                -1.5956592643704433,
                -0.8194193175798863,
                -1.570132321018915,
                -0.1341201060005311,
                1.7318992276551546
            ]
        },
        {
            "positions": [
                1.5473216514059684,
                -1.6063733675182632,
                -0.9322134127457353,
                -1.6802262932430607,
                -0.12948852602670854,
                1.827126827487313
            ]
        },
        {
            "positions": [
                1.6023845350022685,
                -1.617087470666083,
                -1.045007507911584,
                -1.7903202654672068,
                -0.124856946052886,
                1.9223544273194708
            ]
        },
        {
            "positions": [
                1.6574474185985688,
                -1.627801573813903,
                -1.157801603077433,
                -1.9004142376913529,
                -0.12022536607906342,
                2.0175820271516294
            ]
        },
        {
            "positions": [
                1.7125103021948689,
                -1.6385156769617228,
                -1.2705956982432816,
                -2.0105082099154985,
                -0.11559378610524086,
                2.1128096269837875
            ]
        },
        {
            "positions": [
                1.767573185791169,
                -1.6492297801095426,
                -1.3833897934091306,
                -2.120602182139644,
                -0.11096220613141831,
                2.2080372268159456
            ]
        },
        {
            "positions": [
                1.822636069387469,
                -1.6599438832573625,
                -1.4961838885749796,
                -2.23069615436379,
                -0.10633062615759574,
                2.303264826648104
            ]
        },
        {
            "positions": [
                1.877698952983769,
                -1.6706579864051825,
                -1.6089779837408282,
                -2.340790126587936,
                -0.10169904618377318,
                2.3984924264802623
            ]
        },
        {
            "positions": [
                1.9327618365800694,
                -1.6813720895530024,
                -1.7217720789066777,
                -2.450884098812082,
                -0.0970674662099506,
                2.493720026312421
            ]
        },
        {
            "positions": [
                1.9878247201763695,
                -1.6920861927008222,
                -1.8345661740725263,
                -2.5609780710362275,
                -0.09243588623612806,
                2.588947626144579
            ]
        },
        {
            "positions": [
                2.1322626095943216,
                -1.7925034648362508,
                -1.806966286949713,
                -2.5411903509609424,
                -0.12414727008559513,
                2.601891680125762
            ]
        },
        {
            "positions": [
                2.276700499012274,
                -1.8929207369716794,
                -1.7793663998268998,
                -2.5214026308856576,
                -0.1558586539350622,
                2.6148357341069453
            ]
        },
        {
            "positions": [
                2.3603322640589393,
                -1.9558983768682692,
                -1.7532966817436892,
                -2.5064402083823385,
                -0.21485769438513297,
                2.7109179121243745
            ]
        },
        {
            "positions": [
                2.4439640291056044,
                -2.018876016764859,
                -1.7272269636604785,
                -2.4914777858790194,
                -0.2738567348352038,
                2.8070000901418037
            ]
        },
        {
            "positions": [
                2.52759579415227,
                -2.0818536566614485,
                -1.7011572455772677,
                -2.4765153633757,
                -0.33285577528527455,
                2.9030822681592325
            ]
        },
        {
            "positions": [
                2.611227559198935,
                -2.1448312965580385,
                -1.675087527494057,
                -2.461552940872381,
                -0.3918548157353453,
                2.999164446176662
            ]
        },
        {
            "positions": [
                2.6610781440393296,
                -2.1870091407663845,
                -1.6498679033217367,
                -2.4492712392423766,
                -0.46601366540797373,
                3.1414344708808946
            ]
        }
    ]
}