{
    "goal": {
        "global_pose": {
            "orientation": {
                "w": -0.00223480608172531,
                "x": 0.0024358444001904467,
                "y": 0.7094548369677653,
                "z": -0.704743149386269
            },
            "position": {
                "x": 0.6205249238014221,
                "y": -0.6371506643295288,
                "z": 0.19426114857196808
            }
        },
        "name": "move_to_magneteinheit_B"
    },
    "id": "BiTRRT_move_to_magneteinheit_B_80",
    "joint_names": [
        "shoulder_pan_joint",
        "shoulder_lift_joint",
        "elbow_joint",
        "wrist_1_joint",
        "wrist_2_joint",
        "wrist_3_joint"
    ],
    "metrics": {
        "cart_traj_len": 3.788255464988222,
        "distance_elbow_joint": 4.816626750808127,
        "distance_shoulder_lift_joint": 1.0783412465595812,
        "distance_shoulder_pan_joint": 3.2555385445711074,
        "distance_wrist_1_joint": 1.5933745867629354,
        "distance_wrist_2_joint": 2.063396984801801,
        "distance_wrist_3_joint": 0.6465055963599067,
        "smoothness": 0.7853850857865603,
        "time": 0.10929807,
        "traj_len": 3.6679399817695293,
        "weighted_distance": 4.289937817049101
    },
    "planner": "BiTRRT",
    "start": {
        "state": {
            "elbow_joint": 2.6216224122426386,
            "shoulder_lift_joint": -1.4174107377796124,
            "shoulder_pan_joint": 0.7066234856936794,
            "wrist_1_joint": 1.9546482284002225,
            "wrist_2_joint": -0.7096286983471962,
            "wrist_3_joint": 0.005740856962016249
        }
    },
    "waypoints": [
        {
            "positions": [
                0.7066234856936794,
                -1.4174107377796124,
                2.6216224122426386,
                1.9546482284002225,
                -0.7096286983471962,
                0.005740856962016249
            ]
        },
        {
            "positions": [
                0.6025718485954177,
                -1.4264058025140063,
                2.629004956266846,
                1.9795920838653054,
                -0.6775219151825134,
                0.13555349416779836
            ]
        },
        {
            "positions": [
                0.4985202114971561,
                -1.4354008672484,
                2.636387500291053,
                2.0045359393303883,
                -0.6454151320178305,
                0.26536613137358045
            ]
        },
        {
            "positions": [
                0.5062409219882303,
                -1.4335725111351696,
                2.4305483383298614,
                1.9367998974233653,
                -0.5401966720649621,
                0.27045569799404234
            ]
        },
        {
            "positions": [
                0.5139616324793046,
                -1.431744155021939,
                2.2247091763686697,
                1.8690638555163424,
                -0.4349782121120937,
                0.27554526461450424
            ]
        },
        {
            "positions": [
                0.521682342970379,
                -1.4299157989087086,
                2.0188700144074776,
                1.8013278136093192,
                -0.3297597521592253,
                0.28063483123496613
            ]
        },
        {
            "positions": [
                0.5294030534614532,
                -1.428087442795478,
                1.813030852446286,
                1.7335917717022962,
                -0.22454129220635688,
                0.285724397855428
            ]
        },
        {
            "positions": [
                0.5371237639525275,
                -1.4262590866822475,
                1.6071916904850942,
                1.6658557297952732,
                -0.11932283225348846,
                0.2908139644758899
            ]
        },
        {
            "positions": [
                0.6525619233602556,
                -1.4521258198883216,
                1.433640870738934,
                1.6239164543466773,
                -0.1412914162572078,
                0.29286037165641726
            ]
        },
        {
            "positions": [
                0.7680000827679838,
                -1.4779925530943954,
                1.260090050992774,
                1.5819771788980812,
                -0.16326000026092716,
                0.29490677883694455
            ]
        },
        {
            "positions": [
                0.8834382421757121,
                -1.5038592863004694,
                1.0865392312466136,
                1.5400379034494853,
                -0.1852285842646465,
                0.2969531860174719
            ]
        },
        {
            "positions": [
                0.9988764015834403,
                -1.5297260195065434,
                0.9129884115004534,
                1.4980986280008892,
                -0.20719716826836587,
                0.29899959319799924
            ]
        },
        {
            "positions": [
                1.1143145609911684,
                -1.5555927527126172,
                0.7394375917542932,
                1.4561593525522933,
                -0.22916575227208522,
                0.3010460003785266
            ]
        },
        {
            "positions": [
                1.2297527203988965,
                -1.5814594859186912,
                0.5658867720081331,
                1.4142200771036975,
                -0.25113433627580456,
                0.30309240755905387
            ]
        },
        {
            "positions": [
                1.3451908798066248,
                -1.607326219124765,
                0.39233595226197293,
                1.3722808016551014,
                -0.27310292027952393,
                0.3051388147395812
            ]
        },
        {
            "positions": [
                1.460629039214353,
                -1.633192952330839,
                0.21878513251581255,
                1.3303415262065055,
                -0.2950715042832433,
                0.30718522192010855
            ]
        },
        {
            "positions": [
                1.5760671986220813,
                -1.659059685536913,
                0.045234312769652396,
                1.2884022507579096,
                -0.3170400882869626,
                0.30923162910063584
            ]
        },
        {
            "positions": [
                1.6915053580298094,
                -1.6849264187429869,
                -0.12831650697650776,
                1.2464629753093135,
                -0.339008672290682,
                0.3112780362811632
            ]
        },
        {
            "positions": [
                1.8069435174375377,
                -1.710793151949061,
                -0.30186732672266814,
                1.2045236998607176,
                -0.36097725629440136,
                0.3133244434616905
            ]
        },
        {
            "positions": [
                1.9223816768452657,
                -1.736659885155135,
                -0.4754181464688281,
                1.1625844244121217,
                -0.3829458402981207,
                0.3153708506422178
            ]
        },
        {
            "positions": [
                2.037819836252994,
                -1.7625266183612087,
                -0.6489689662149885,
                1.1206451489635256,
                -0.40491442430184005,
                0.31741725782274516
            ]
        },
        {
            "positions": [
                2.153257995660722,
                -1.7883933515672827,
                -0.8225197859611484,
                1.0787058735149297,
                -0.42688300830555936,
                0.3194636650032725
            ]
        },
        {
            "positions": [
                2.2686961550684503,
                -1.8142600847733568,
                -0.9960706057073088,
                1.0367665980663339,
                -0.44885159230927874,
                0.3215100721837998
            ]
        },
        {
            "positions": [
                2.384134314476179,
                -1.8401268179794306,
                -1.1696214254534691,
                0.9948273226177378,
                -0.4708201763129981,
                0.32355647936432713
            ]
        },
        {
            "positions": [
                2.499572473883907,
                -1.8659935511855046,
                -1.343172245199629,
                0.9528880471691418,
                -0.4927887603167174,
                0.3256028865448545
            ]
        },
        {
            "positions": [
                2.615010633291635,
                -1.8918602843915786,
                -1.5167230649457895,
                0.9109487717205458,
                -0.5147573443204368,
                0.3276492937253818
            ]
        },
        {
            "positions": [
                2.730448792699363,
                -1.9177270175976524,
                -1.6902738846919494,
                0.8690094962719499,
                -0.5367259283241561,
                0.3296957009059091
            ]
        },
        {
            "positions": [
                2.845886952107091,
                -1.9435937508037264,
                -1.8638247044381098,
                0.8270702208233539,
                -0.5586945123278755,
                0.33174210808643645
            ]
        },
        {
            "positions": [
                2.7720756615998274,
                -2.0044002859958487,
                -1.8726880024940342,
                0.870859284083824,
                -0.462254633715835,
                0.2835803376263568
            ]
        },
        {
            "positions": [
                2.6982643710925642,
                -2.0652068211879713,
                -1.8815513005499587,
                0.914648347344294,
                -0.36581475510379446,
                0.23541856716627724
            ]
        },
        {
            "positions": [
                2.624453080585301,
                -2.126013356380094,
                -1.8904145986058833,
                0.958437410604764,
                -0.2693748764917539,
                0.18725679670619763
            ]
        },
        {
            "positions": [
                2.5506417900780374,
                -2.1868198915722163,
                -1.8992778966618078,
                1.002226473865234,
                -0.1729349978797134,
                0.13909502624611803
            ]
        },
        {
            "positions": [
                2.4768304995707737,
                -2.247626426764339,
                -1.9081411947177322,
                1.046015537125704,
                -0.07649511926767283,
                0.09093325578603842
            ]
        },
        {
            "positions": [
                2.4030192090635105,
                -2.3084329619564614,
                -1.9170044927736567,
                1.089804600386174,
                0.01994475934436769,
                0.04277148532595883
            ]
        },
        {
            "positions": [
                2.467319405743778,
                -2.3506918272690682,
                -1.8548870753499065,
                1.0639829059454455,
                0.1337148010847333,
                0.03488805470720661
            ]
        },
        {
            "positions": [
                2.531619602424045,
                -2.392950692581675,
                -1.7927696579261563,
                1.0381612115047167,
                0.2474848428250989,
                0.027004624088454388
            ]
        },
        {
            "positions": [
                2.595919799104312,
                -2.435209557894282,
                -1.730652240502406,
                1.0123395170639882,
                0.3612548845654645,
                0.019121193469702168
            ]
        },
        {
            "positions": [
                2.6602199957845793,
                -2.4774684232068886,
                -1.6685348230786559,
                0.9865178226232595,
                0.4750249263058301,
                0.01123776285094995
            ]
        }
    ]
}