{
    "goal": {
        "global_pose": {
            "orientation": {
                "w": 0.7031023480610252,
                "x": -0.7110244013736278,
                "y": 0.0077485991402295624,
                "z": 0.005598929693374583
            },
            "position": {
                "x": -0.8841497679147869,
                "y": 0.44412534475326537,
                "z": 0.3711530566215515
            }
        },
        "name": "move_to_auspresseinheit_D"
    },
    "id": "BiTRRT_move_to_auspresseinheit_D_4",
    "joint_names": [
        "shoulder_pan_joint",
        "shoulder_lift_joint",
        "elbow_joint",
        "wrist_1_joint",
        "wrist_2_joint",
        "wrist_3_joint"
    ],
    "metrics": {
        "cart_traj_len": 0.34351999514525405,
        "distance_elbow_joint": 0.6390630263352592,
        "distance_shoulder_lift_joint": 0.12145503938014235,
        "distance_shoulder_pan_joint": 0.13383530699658042,
        "distance_wrist_1_joint": 0.5257153222912936,
        "distance_wrist_2_joint": 1.4471351509096608,
        "distance_wrist_3_joint": 0.017600478529602448,
        "smoothness": 1.9737298371844314e-16,
        "time": 0.053657242,
        "traj_len": 1.6984711726851707,
        "weighted_distance": 2.2119800529622093
    },
    "planner": "BiTRRT",
    "start": {
        "state": {
            "elbow_joint": -1.8275523626775212,
            "shoulder_lift_joint": -2.126789852344167,
            "shoulder_pan_joint": -0.03513704404078235,
            "wrist_1_joint": -2.347782403156801,
            "wrist_2_joint": -1.6058999987535132,
            "wrist_3_joint": -3.0880379163319196
        }
    },
    "waypoints": [
        {
            "positions": [
                -0.03513704404078235,
                -2.126789852344167,
                -1.8275523626775212,
                -2.347782403156801,
                -1.6058999987535132,
                -3.0880379163319196
            ]
        },
        {
            "positions": [
                -0.0518664574153549,
                -2.1419717322666845,
                -1.7476694843856138,
                -2.4134968184432126,
                -1.4250081048898056,
                -3.09023797614812
            ]
        },
        {
            "positions": [
                -0.06859587078992746,
                -2.1571536121892025,
                -1.6677866060937063,
                -2.4792112337296244,
                -1.244116211026098,
                -3.09243803596432
            ]
        },
        {
            "positions": [
                -0.0853252841645,
                -2.17233549211172,
                -1.587903727801799,
                -2.544925649016036,
                -1.0632243171623905,
                -3.0946380957805206
            ]
        },
        {
            "positions": [
                -0.10205469753907256,
                -2.187517372034238,
                -1.5080208495098915,
                -2.610640064302448,
                -0.8823324232986828,
                -3.096838155596721
            ]
        },
        {
            "positions": [
                -0.1187841109136451,
                -2.202699251956756,
                -1.4281379712179842,
                -2.676354479588859,
                -0.7014405294349751,
                -3.099038215412921
            ]
        },
        {
            "positions": [
                -0.13551352428821767,
                -2.2178811318792735,
                -1.3482550929260768,
                -2.742068894875271,
                -0.5205486355712676,
                -3.1012382752291217
            ]
        },
        {
            "positions": [
                -0.1522429376627902,
                -2.2330630118017916,
                -1.2683722146341694,
                -2.8077833101616827,
                -0.33965674170756,
                -3.103438335045322
            ]
        },
        {
            "positions": [
                -0.16897235103736277,
                -2.248244891724309,
                -1.188489336342262,
                -2.8734977254480945,
                -0.15876484784385242,
                -3.105638394861522
            ]
        }
    ]
}