{
    "goal": {
        "global_pose": {
            "orientation": {
                "w": 0.7047431493862688,
                "x": -0.7094548369677653,
                "y": 0.0024358444001904,
                "z": -0.0022348060817251984
            },
            "position": {
                "x": -0.39052492380142206,
                "y": 0.3671506643295288,
                "z": 0.19426114857196808
            }
        },
        "name": "move_to_magneteinheit_D"
    },
    "id": "BiTRRT_move_to_magneteinheit_D_94",
    "joint_names": [
        "shoulder_pan_joint",
        "shoulder_lift_joint",
        "elbow_joint",
        "wrist_1_joint",
        "wrist_2_joint",
        "wrist_3_joint"
    ],
    "metrics": {
        "cart_traj_len": 4.574359710716088,
        "distance_elbow_joint": 3.550432386563209,
        "distance_shoulder_lift_joint": 1.6312366714491982,
        "distance_shoulder_pan_joint": 3.1998842515955594,
        "distance_wrist_1_joint": 1.8622290752225534,
        "distance_wrist_2_joint": 0.8655921560010179,
        "distance_wrist_3_joint": 3.4431072468814046,
        "smoothness": 1.224875141312763,
        "time": 0.16686420200000002,
        "traj_len": 3.8147715249688217,
        "weighted_distance": 4.915945230848217
    },
    "planner": "BiTRRT",
    "start": {
        "state": {
            "elbow_joint": 0.749534889911806,
            "shoulder_lift_joint": -0.6476975780787326,
            "shoulder_pan_joint": -2.711696901376241,
            "wrist_1_joint": -0.07506478083263063,
            "wrist_2_joint": 0.43296659715538205,
            "wrist_3_joint": -3.14703540197715
        }
    },
    "waypoints": [
        {
            "positions": [
                -2.711696901376241,
                -0.6476975780787326,
                0.749534889911806,
                -0.07506478083263063,
                0.43296659715538205,
                -3.14703540197715
            ]
        },
        {
            "positions": [
                -2.7027291051747184,
                -0.687954626005749,
                0.7792383693973453,
                -0.03064348926905639,
                0.3724961600959384,
                -3.100523482045446
            ]
        },
        {
            "positions": [
                -2.6422626130830738,
                -0.6929091915973827,
                0.8384207434825856,
                0.045400640932346574,
                0.2977215599715785,
                -3.01134418505117
            ]
        },
        {
            "positions": [
                -2.5817961209914286,
                -0.6978637571890164,
                0.8976031175678258,
                0.12144477113374955,
                0.22294695984721863,
                -2.9221648880568942
            ]
        },
        {
            "positions": [
                -2.521329628899784,
                -0.7028183227806502,
                0.9567854916530661,
                0.1974889013351525,
                0.14817235972285872,
                -2.8329855910626183
            ]
        },
        {
            "positions": [
                -2.5970036211809155,
                -0.7591036696336084,
                0.9090469823612239,
                0.1478744352860013,
                0.1665733025109632,
                -2.8935258093388523
            ]
        },
        {
            "positions": [
                -2.6726776134620476,
                -0.8153890164865667,
                0.8613084730693819,
                0.09825996923685007,
                0.18497424529906764,
                -2.954066027615086
            ]
        },
        {
            "positions": [
                -2.6028863326042937,
                -0.8543915485643856,
                0.7712868183687285,
                0.08139885672691713,
                0.16957784755208485,
                -2.8611337569015953
            ]
        },
        {
            "positions": [
                -2.53309505174654,
                -0.8933940806422045,
                0.6812651636680751,
                0.06453774421698419,
                0.1541814498051021,
                -2.768201486188105
            ]
        },
        {
            "positions": [
                -2.463303770888786,
                -0.9323966127200234,
                0.5912435089674217,
                0.047676631707051255,
                0.1387850520581193,
                -2.6752692154746143
            ]
        },
        {
            "positions": [
                -2.3620584942202205,
                -0.9479824073636683,
                0.5057631232676189,
                0.08125978956183763,
                0.15752507870407126,
                -2.559802919519151
            ]
        },
        {
            "positions": [
                -2.2608132175516555,
                -0.9635682020073134,
                0.420282737567816,
                0.11484294741662401,
                0.17626510535002318,
                -2.444336623563688
            ]
        },
        {
            "positions": [
                -2.15956794088309,
                -0.9791539966509584,
                0.3348023518680131,
                0.1484261052714104,
                0.19500513199597513,
                -2.3288703276082248
            ]
        },
        {
            "positions": [
                -2.0583226642145247,
                -0.9947397912946034,
                0.24932196616821017,
                0.18200926312619678,
                0.21374515864192706,
                -2.2134040316527615
            ]
        },
        {
            "positions": [
                -1.9570773875459595,
                -1.0103255859382485,
                0.1638415804684073,
                0.21559242098098316,
                0.23248518528787898,
                -2.0979377356972986
            ]
        },
        {
            "positions": [
                -1.8558321108773943,
                -1.0259113805818934,
                0.07836119476860448,
                0.24917557883576952,
                0.25122521193383096,
                -1.9824714397418353
            ]
        },
        {
            "positions": [
                -1.7545868342088289,
                -1.0414971752255384,
                -0.007119190931198505,
                0.28275873669055596,
                0.2699652385797829,
                -1.8670051437863722
            ]
        },
        {
            "positions": [
                -1.6533415575402635,
                -1.0570829698691835,
                -0.09259957663100138,
                0.31634189454534234,
                0.2887052652257348,
                -1.751538847830909
            ]
        },
        {
            "positions": [
                -1.552096280871698,
                -1.0726687645128286,
                -0.17807996233080425,
                0.3499250524001287,
                0.3074452918716868,
                -1.6360725518754458
            ]
        },
        {
            "positions": [
                -1.450851004203133,
                -1.0882545591564734,
                -0.26356034803060713,
                0.3835082102549151,
                0.32618531851763866,
                -1.5206062559199827
            ]
        },
        {
            "positions": [
                -1.3496057275345676,
                -1.1038403538001185,
                -0.34904073373041006,
                0.4170913681097015,
                0.34492534516359064,
                -1.4051399599645196
            ]
        },
        {
            "positions": [
                -1.2655731063236142,
                -1.1602989066438099,
                -0.45211954266059523,
                0.47137956677236176,
                0.34954123010074745,
                -1.3156108767514383
            ]
        },
        {
            "positions": [
                -1.181540485112661,
                -1.2167574594875012,
                -0.5551983515907803,
                0.525667765435022,
                0.3541571150379042,
                -1.2260817935383572
            ]
        },
        {
            "positions": [
                -1.0975078639017075,
                -1.2732160123311926,
                -0.6582771605209656,
                0.5799559640976822,
                0.358772999975061,
                -1.136552710325276
            ]
        },
        {
            "positions": [
                -1.0134752426907543,
                -1.329674565174884,
                -0.7613559694511507,
                0.6342441627603426,
                0.3633888849122178,
                -1.0470236271121947
            ]
        },
        {
            "positions": [
                -0.9294426214798008,
                -1.3861331180185756,
                -0.864434778381336,
                0.6885323614230028,
                0.36800476984937464,
                -0.9574945438991135
            ]
        },
        {
            "positions": [
                -0.8454100002688475,
                -1.442591670862267,
                -0.967513587311521,
                0.742820560085663,
                0.3726206547865314,
                -0.8679654606860323
            ]
        },
        {
            "positions": [
                -0.7613773790578942,
                -1.4990502237059584,
                -1.0705923962417063,
                0.7971087587483233,
                0.3772365397236882,
                -0.778436377472951
            ]
        },
        {
            "positions": [
                -0.6773447578469408,
                -1.5555087765496498,
                -1.1736712051718914,
                0.8513969574109835,
                0.381852424660845,
                -0.6889072942598699
            ]
        },
        {
            "positions": [
                -0.5933121366359874,
                -1.6119673293933414,
                -1.2767500141020767,
                0.9056851560736439,
                0.3864683095980018,
                -0.5993782110467886
            ]
        },
        {
            "positions": [
                -0.509279515425034,
                -1.6684258822370328,
                -1.3798288230322617,
                0.9599733547363041,
                0.3910841945351586,
                -0.5098491278337074
            ]
        },
        {
            "positions": [
                -0.4252468942140808,
                -1.7248844350807242,
                -1.4829076319624468,
                1.0142615533989643,
                0.3957000794723154,
                -0.4203200446206261
            ]
        },
        {
            "positions": [
                -0.34121427300312734,
                -1.7813429879244156,
                -1.585986440892632,
                1.0685497520616245,
                0.40031596440947215,
                -0.33079096140754505
            ]
        },
        {
            "positions": [
                -0.2571816517921739,
                -1.837801540768107,
                -1.6890652498228174,
                1.122837950724285,
                0.40493184934662896,
                -0.24126187819446376
            ]
        },
        {
            "positions": [
                -0.17314903058122058,
                -1.8942600936117984,
                -1.7921440587530024,
                1.1771261493869452,
                0.40954773428378577,
                -0.1517327949813826
            ]
        },
        {
            "positions": [
                -0.11514885691723523,
                -1.9679443420266354,
                -1.8954067744919607,
                1.2288749927885478,
                0.39819914748150187,
                -0.08925448030682634
            ]
        },
        {
            "positions": [
                -0.05714868325324987,
                -2.0416285904414724,
                -1.998669490230919,
                1.2806238361901507,
                0.38685056067921797,
                -0.026776165632270088
            ]
        },
        {
            "positions": [
                0.0008514904107354976,
                -2.115312838856309,
                -2.1019322059698773,
                1.3323726795917534,
                0.37550197387693407,
                0.03570214904228616
            ]
        },
        {
            "positions": [
                -0.023387192376943054,
                -2.188444933522307,
                -2.1709967553873977,
                1.359947626969447,
                0.333280066851839,
                0.022199498743352794
            ]
        },
        {
            "positions": [
                -0.10358779632513143,
                -2.2336895915251187,
                -2.27869652427814,
                1.423743691051584,
                0.2578918218049769,
                0.024552584972403188
            ]
        },
        {
            "positions": [
                -0.18378840027331983,
                -2.2789342495279308,
                -2.386396293168883,
                1.4875397551337206,
                0.18250357675811482,
                0.026905671201453586
            ]
        }
    ]
}