{
    "goal": {
        "global_pose": {
            "orientation": {
                "w": 0.7047431468963623,
                "x": -0.7094548344612122,
                "y": 0.0024358443915843964,
                "z": -0.0022348060738295317
            },
            "position": {
                "x": 0.6094750761985779,
                "y": 0.3671506643295288,
                "z": 0.19426114857196808
            }
        },
        "name": "move_to_magneteinheit_A"
    },
    "id": "BiTRRT_move_to_magneteinheit_A_44",
    "joint_names": [
        "shoulder_pan_joint",
        "shoulder_lift_joint",
        "elbow_joint",
        "wrist_1_joint",
        "wrist_2_joint",
        "wrist_3_joint"
    ],
    "metrics": {
        "cart_traj_len": 3.4720736894691946,
        "distance_elbow_joint": 3.9063445691053302,
        "distance_shoulder_lift_joint": 0.6249710907377197,
        "distance_shoulder_pan_joint": 2.585034764097019,
        "distance_wrist_1_joint": 3.458239777450739,
        "distance_wrist_2_joint": 1.8722161280578078,
        "distance_wrist_3_joint": 0.44414626912575506,
        "smoothness": 0.06598600833255029,
        "time": 0.090453723,
        "traj_len": 3.5903972758699516,
        "weighted_distance": 4.371464404788679
    },
    "planner": "BiTRRT",
    "start": {
        "state": {
            "elbow_joint": -1.9196185241190666,
            "shoulder_lift_joint": -1.2443396400964142,
            "shoulder_pan_joint": 2.6996025414629847,
            "wrist_1_joint": -1.5485510000780065,
            "wrist_2_joint": -1.5709468930060704,
            "wrist_3_joint": 0.4420197071253992
        }
    },
    "waypoints": [
        {
            "positions": [
                2.6996025414629847,
                -1.2443396400964142,
                -1.9196185241190666,
                -1.5485510000780065,
                -1.5709468930060704,
                0.4420197071253992
            ]
        },
        {
            "positions": [
                2.597444058645409,
                -1.2215495741976974,
                -1.8259594444756295,
                -1.4688132249562702,
                -1.5055102066434094,
                0.4248563999097261
            ]
        },
        {
            "positions": [
                2.4952855758278325,
                -1.1987595082989808,
                -1.7323003648321924,
                -1.389075449834534,
                -1.4400735202807482,
                0.40769309269405307
            ]
        },
        {
            "positions": [
                2.393127093010256,
                -1.175969442400264,
                -1.6386412851887553,
                -1.3093376747127978,
                -1.3746368339180872,
                0.39052978547838
            ]
        },
        {
            "positions": [
                2.2909686101926803,
                -1.1531793765015474,
                -1.5449822055453182,
                -1.2295998995910615,
                -1.3092001475554262,
                0.37336647826270697
            ]
        },
        {
            "positions": [
                2.1888101273751044,
                -1.1303893106028307,
                -1.451323125901881,
                -1.1498621244693252,
                -1.2437634611927653,
                0.35620317104703386
            ]
        },
        {
            "positions": [
                2.086651644557528,
                -1.107599244704114,
                -1.357664046258444,
                -1.070124349347589,
                -1.178326774830104,
                0.3390398638313608
            ]
        },
        {
            "positions": [
                1.984493161739952,
                -1.0848091788053973,
                -1.264004966615007,
                -0.9903865742258526,
                -1.112890088467443,
                0.32187655661568776
            ]
        },
        {
            "positions": [
                1.8823346789223758,
                -1.0620191129066807,
                -1.17034588697157,
                -0.9106487991041164,
                -1.047453402104782,
                0.3047132494000147
            ]
        },
        {
            "positions": [
                1.7801761961047997,
                -1.039229047007964,
                -1.0766868073281328,
                -0.8309110239823801,
                -0.982016715742121,
                0.2875499421843416
            ]
        },
        {
            "positions": [
                1.6780177132872236,
                -1.0164389811092471,
                -0.9830277276846956,
                -0.7511732488606438,
                -0.9165800293794599,
                0.27038663496866855
            ]
        },
        {
            "positions": [
                1.5758592304696475,
                -0.9936489152105306,
                -0.8893686480412586,
                -0.6714354737389077,
                -0.851143343016799,
                0.2532233277529955
            ]
        },
        {
            "positions": [
                1.4737007476520714,
                -0.9708588493118138,
                -0.7957095683978215,
                -0.5916976986171714,
                -0.7857066566541379,
                0.23606002053732245
            ]
        },
        {
            "positions": [
                1.3715422648344953,
                -0.9480687834130972,
                -0.7020504887543844,
                -0.5119599234954351,
                -0.7202699702914769,
                0.2188967133216494
            ]
        },
        {
            "positions": [
                1.2693837820169191,
                -0.9252787175143804,
                -0.6083914091109472,
                -0.43222214837369877,
                -0.6548332839288157,
                0.20173340610597632
            ]
        },
        {
            "positions": [
                1.167225299199343,
                -0.9024886516156637,
                -0.5147323294675101,
                -0.35248437325196247,
                -0.5893965975661547,
                0.1845700988903033
            ]
        },
        {
            "positions": [
                1.065066816381767,
                -0.879698585716947,
                -0.42107324982407324,
                -0.2727465981302264,
                -0.5239599112034938,
                0.16740679167463024
            ]
        },
        {
            "positions": [
                0.9629083335641908,
                -0.8569085198182302,
                -0.3274141701806359,
                -0.1930088230084901,
                -0.45852322484083263,
                0.15024348445895713
            ]
        },
        {
            "positions": [
                0.8607498507466147,
                -0.8341184539195137,
                -0.233755090537199,
                -0.1132710478867538,
                -0.39308653847817165,
                0.13308017724328408
            ]
        },
        {
            "positions": [
                0.7585913679290386,
                -0.811328388020797,
                -0.1400960108937619,
                -0.0335332727650175,
                -0.3276498521155107,
                0.11591687002761103
            ]
        },
        {
            "positions": [
                0.6564328851114625,
                -0.7885383221220803,
                -0.046436931250324553,
                0.0462045023567188,
                -0.2622131657528495,
                0.09875356281193792
            ]
        },
        {
            "positions": [
                0.5542744022938861,
                -0.7657482562233635,
                0.04722214839311234,
                0.12594227747845488,
                -0.1967764793901885,
                0.08159025559626487
            ]
        },
        {
            "positions": [
                0.45211591947631025,
                -0.7429581903246468,
                0.14088122803654946,
                0.20568005260019118,
                -0.13133979302752752,
                0.06442694838059188
            ]
        },
        {
            "positions": [
                0.3499574366587339,
                -0.7201681244259301,
                0.2345403076799868,
                0.2854178277219275,
                -0.06590310666486632,
                0.04726364116491877
            ]
        },
        {
            "positions": [
                0.24779895384115802,
                -0.6973780585272135,
                0.3281993873234236,
                0.36515560284366366,
                -0.00046642030220524905,
                0.03010033394924574
            ]
        },
        {
            "positions": [
                0.2119588748769624,
                -0.697606877191957,
                0.4968116770391906,
                0.4929838800393067,
                0.02976347036383957,
                0.0217318811296732
            ]
        },
        {
            "positions": [
                0.17611879591276677,
                -0.6978356958567007,
                0.6654239667549576,
                0.6208121572349498,
                0.05999336102988439,
                0.01336342831010066
            ]
        },
        {
            "positions": [
                0.14027871694857114,
                -0.6980645145214442,
                0.8340362564707247,
                0.7486404344305928,
                0.09022325169592921,
                0.004994975490528122
            ]
        },
        {
            "positions": [
                0.13477165786707188,
                -0.7082933808964242,
                1.0006344341405284,
                0.9128036414116447,
                0.06516306974807101,
                0.0050124800386281325
            ]
        },
        {
            "positions": [
                0.1292645987855726,
                -0.7185222472714043,
                1.1672326118103324,
                1.0769668483926966,
                0.0401028878002128,
                0.005029984586728143
            ]
        },
        {
            "positions": [
                0.12375753970407333,
                -0.7287511136463845,
                1.3338307894801362,
                1.2411300553737488,
                0.015042705852354593,
                0.0050474891348281535
            ]
        },
        {
            "positions": [
                0.11825048062257405,
                -0.7389799800213644,
                1.50042896714994,
                1.4052932623548007,
                -0.010017476095503602,
                0.005064993682928164
            ]
        },
        {
            "positions": [
                0.11947804837477652,
                -0.7511158425794872,
                1.6625279930953814,
                1.5734251006941113,
                -0.04695256128362887,
                0.007415500115756127
            ]
        },
        {
            "positions": [
                0.12070561612697898,
                -0.7632517051376098,
                1.8246270190408225,
                1.7415569390334222,
                -0.08388764647175413,
                0.00976600654858409
            ]
        },
        {
            "positions": [
                0.12193318387918145,
                -0.7753875676957325,
                1.9867260449862638,
                1.909688777372733,
                -0.1208227316598794,
                0.012116512981412053
            ]
        }
    ]
}