{
    "goal": {
        "global_pose": {
            "orientation": {
                "w": 0.5084816262002911,
                "x": -0.4908360881923452,
                "y": 0.5182115481033761,
                "z": -0.48164630358495003
            },
            "position": {
                "x": 0.5540239810943604,
                "y": -0.46912469901144505,
                "z": 0.16403168439865112
            }
        },
        "name": "move_to_storage_B"
    },
    "id": "BiTRRT_move_to_storage_B_89",
    "joint_names": [
        "shoulder_pan_joint",
        "shoulder_lift_joint",
        "elbow_joint",
        "wrist_1_joint",
        "wrist_2_joint",
        "wrist_3_joint"
    ],
    "metrics": {
        "cart_traj_len": 0.7264382616520374,
        "distance_elbow_joint": 0.563587217784562,
        "distance_shoulder_lift_joint": 0.4601056260884433,
        "distance_shoulder_pan_joint": 0.44595100353513517,
        "distance_wrist_1_joint": 2.984736162497606,
        "distance_wrist_2_joint": 2.701501502696629,
        "distance_wrist_3_joint": 3.256179704353352,
        "smoothness": 0.15441413171296944,
        "time": 0.091791445,
        "traj_len": 3.2267725697600267,
        "weighted_distance": 4.755066591632201
    },
    "planner": "BiTRRT",
    "start": {
        "state": {
            "elbow_joint": 1.664937868594044,
            "shoulder_lift_joint": -0.661644460510453,
            "shoulder_pan_joint": -0.9139846352900073,
            "wrist_1_joint": 2.146753192139373,
            "wrist_2_joint": -2.2341966793290973,
            "wrist_3_joint": 0.005466555786416001
        }
    },
    "waypoints": [
        {
            "positions": [
                -0.9139846352900073,
                -0.661644460510453,
                1.664937868594044,
                2.146753192139373,
                -2.2341966793290973,
                0.005466555786416001
            ]
        },
        {
            "positions": [
                -0.8943985029074437,
                -0.6769480542896035,
                1.6627142237576664,
                2.118901705388377,
                -2.2119875907823863,
                0.02588050232843765
            ]
        },
        {
            "positions": [
                -0.8382769064483199,
                -0.7067220777925121,
                1.6103537028733959,
                2.0194222394293133,
                -2.1089496347059735,
                0.04585825728675941
            ]
        },
        {
            "positions": [
                -0.782155309989196,
                -0.7364961012954208,
                1.5579931819891255,
                1.919942773470249,
                -2.0059116786295608,
                0.06583601224508118
            ]
        },
        {
            "positions": [
                -0.794720177118569,
                -0.7519062607075597,
                1.5762588832363114,
                1.8096257437171097,
                -1.906983018549677,
                -0.06199639767070633
            ]
        },
        {
            "positions": [
                -0.8072850442479419,
                -0.7673164201196988,
                1.594524584483497,
                1.6993087139639704,
                -1.8080543584697935,
                -0.18982880758649384
            ]
        },
        {
            "positions": [
                -0.8198499113773149,
                -0.7827265795318378,
                1.6127902857306828,
                1.5889916842108311,
                -1.7091256983899097,
                -0.3176612175022813
            ]
        },
        {
            "positions": [
                -0.8324147785066879,
                -0.7981367389439769,
                1.6310559869778685,
                1.4786746544576919,
                -1.6101970383100261,
                -0.44549362741806886
            ]
        },
        {
            "positions": [
                -0.8449796456360608,
                -0.8135468983561158,
                1.6493216882250543,
                1.3683576247045526,
                -1.5112683782301424,
                -0.5733260373338565
            ]
        },
        {
            "positions": [
                -0.8575445127654338,
                -0.8289570577682549,
                1.66758738947224,
                1.2580405949514133,
                -1.4123397181502586,
                -0.7011584472496438
            ]
        },
        {
            "positions": [
                -0.8701093798948067,
                -0.844367217180394,
                1.6858530907194258,
                1.147723565198274,
                -1.3134110580703748,
                -0.8289908571654314
            ]
        },
        {
            "positions": [
                -0.8826742470241797,
                -0.859777376592533,
                1.7041187919666114,
                1.0374065354451347,
                -1.2144823979904913,
                -0.9568232670812189
            ]
        },
        {
            "positions": [
                -0.8952391141535526,
                -0.8751875360046719,
                1.7223844932137973,
                0.9270895056919954,
                -1.1155537379106075,
                -1.0846556769970064
            ]
        },
        {
            "positions": [
                -0.9078039812829256,
                -0.890597695416811,
                1.740650194460983,
                0.8167724759388562,
                -1.016625077830724,
                -1.212488086912794
            ]
        },
        {
            "positions": [
                -0.9203688484122985,
                -0.90600785482895,
                1.7589158957081688,
                0.7064554461857169,
                -0.9176964177508402,
                -1.3403204968285813
            ]
        },
        {
            "positions": [
                -0.9329337155416715,
                -0.921418014241089,
                1.7771815969553544,
                0.5961384164325776,
                -0.8187677576709567,
                -1.4681529067443688
            ]
        },
        {
            "positions": [
                -0.9454985826710445,
                -0.936828173653228,
                1.7954472982025402,
                0.4858213866794383,
                -0.7198390975910727,
                -1.5959853166601565
            ]
        },
        {
            "positions": [
                -0.9580634498004175,
                -0.9522383330653671,
                1.8137129994497259,
                0.3755043569262988,
                -0.6209104375111889,
                -1.723817726575944
            ]
        },
        {
            "positions": [
                -0.9706283169297903,
                -0.9676484924775061,
                1.8319787006969117,
                0.26518732717315974,
                -0.5219817774313056,
                -1.8516501364917313
            ]
        },
        {
            "positions": [
                -0.9831931840591633,
                -0.9830586518896451,
                1.8502444019440973,
                0.15487029742002045,
                -0.4230531173514218,
                -1.979482546407519
            ]
        },
        {
            "positions": [
                -0.9957580511885363,
                -0.9984688113017841,
                1.8685101031912832,
                0.04455326766688095,
                -0.32412445727153805,
                -2.1073149563233065
            ]
        },
        {
            "positions": [
                -1.0083229183179092,
                -1.013878970713923,
                1.8867758044384688,
                -0.06576376208625812,
                -0.2251957971916545,
                -2.2351473662390937
            ]
        },
        {
            "positions": [
                -1.0208877854472822,
                -1.0292891301260623,
                1.9050415056856547,
                -0.1760807918393974,
                -0.12626713711177073,
                -2.362979776154882
            ]
        },
        {
            "positions": [
                -1.0334526525766552,
                -1.0446992895382012,
                1.9233072069328405,
                -0.2863978215925367,
                -0.027338477031886965,
                -2.490812186070669
            ]
        },
        {
            "positions": [
                -1.046017519706028,
                -1.0601094489503402,
                1.9415729081800261,
                -0.39671485134567597,
                0.0715901830479968,
                -2.6186445959864564
            ]
        },
        {
            "positions": [
                -1.058582386835401,
                -1.0755196083624792,
                1.9598386094272118,
                -0.5070318810988153,
                0.17051884312788035,
                -2.7464770059022436
            ]
        },
        {
            "positions": [
                -1.071147253964774,
                -1.0909297677746181,
                1.9781043106743976,
                -0.6173489108519545,
                0.26944750320776434,
                -2.874309415818032
            ]
        },
        {
            "positions": [
                -1.083712121094147,
                -1.1063399271867573,
                1.9963700119215835,
                -0.7276659406050938,
                0.36837616328764744,
                -3.002141825733819
            ]
        },
        {
            "positions": [
                -1.09627698822352,
                -1.1217500865988963,
                2.014635713168769,
                -0.837982970358233,
                0.4673048233675313,
                -3.1299742356496063
            ]
        }
    ]
}