{
    "goal": {
        "global_pose": {
            "orientation": {
                "w": -0.4816463035849501,
                "x": 0.5182115481033762,
                "y": 0.4908360881923453,
                "z": -0.5084816262002911
            },
            "position": {
                "x": -0.8240239810943604,
                "y": -0.300875300988555,
                "z": 0.16403168439865112
            }
        },
        "name": "move_to_storage_C"
    },
    "id": "BiTRRT_move_to_storage_C_96",
    "joint_names": [
        "shoulder_pan_joint",
        "shoulder_lift_joint",
        "elbow_joint",
        "wrist_1_joint",
        "wrist_2_joint",
        "wrist_3_joint"
    ],
    "metrics": {
        "cart_traj_len": 0.5768953651499291,
        "distance_elbow_joint": 0.2584504639744545,
        "distance_shoulder_lift_joint": 0.18986075236044764,
        "distance_shoulder_pan_joint": 0.49407304181524037,
        "distance_wrist_1_joint": 0.0727954796857726,
        "distance_wrist_2_joint": 1.069441881053057,
        "distance_wrist_3_joint": 0.07075699174335837,
        "smoothness": 0.0,
        "time": 0.050719025,
        "traj_len": 1.468120775219917,
        "weighted_distance": 1.8544891358155424
    },
    "planner": "BiTRRT",
    "start": {
        "state": {
            "elbow_joint": 2.010868314990456,
            "shoulder_lift_joint": -1.1634956873337592,
            "shoulder_pan_joint": -2.4736205022346125,
            "wrist_1_joint": -0.8367026794202681,
            "wrist_2_joint": 0.6746043897044499,
            "wrist_3_joint": -3.1496632123970403
        }
    },
    "waypoints": [
        {
            "positions": [
                -2.4736205022346125,
                -1.1634956873337592,
                2.010868314990456,
                -0.8367026794202681,
                0.6746043897044499,
                -3.1496632123970403
            ]
        },
        {
            "positions": [
                -2.5559660092038192,
                -1.1318522286070178,
                1.96779323766138,
                -0.8245700994726394,
                0.8528447032132928,
                -3.137870380439814
            ]
        },
        {
            "positions": [
                -2.638311516173026,
                -1.1002087698802767,
                1.9247181603323043,
                -0.8124375195250105,
                1.0310850167221357,
                -3.1260775484825873
            ]
        },
        {
            "positions": [
                -2.7206570231422327,
                -1.0685653111535354,
                1.8816430830032287,
                -0.8003049395773818,
                1.2093253302309783,
                -3.1142847165253613
            ]
        },
        {
            "positions": [
                -2.8030025301114394,
                -1.036921852426794,
                1.838568005674153,
                -0.7881723596297531,
                1.3875656437398214,
                -3.102491884568135
            ]
        },
        {
            "positions": [
                -2.885348037080646,
                -1.005278393700053,
                1.7954929283450771,
                -0.7760397796821242,
                1.565805957248664,
                -3.0906990526109084
            ]
        },
        {
            "positions": [
                -2.967693544049853,
                -0.9736349349733115,
                1.7524178510160013,
                -0.7639071997344955,
                1.744046270757507,
                -3.078906220653682
            ]
        }
    ]
}