{
    "goal": {
        "global_pose": {
            "orientation": {
                "w": 0.7031023480610252,
                "x": -0.7110244013736278,
                "y": 0.0077485991402295624,
                "z": 0.005598929693374583
            },
            "position": {
                "x": -0.8841497679147869,
                "y": 0.44412534475326537,
                "z": 0.3711530566215515
            }
        },
        "name": "move_to_auspresseinheit_D"
    },
    "id": "BiTRRT_move_to_auspresseinheit_D_112",
    "joint_names": [
        "shoulder_pan_joint",
        "shoulder_lift_joint",
        "elbow_joint",
        "wrist_1_joint",
        "wrist_2_joint",
        "wrist_3_joint"
    ],
    "metrics": {
        "cart_traj_len": 0.34494425294187303,
        "distance_elbow_joint": 0.6636465036486405,
        "distance_shoulder_lift_joint": 0.1344016308239322,
        "distance_shoulder_pan_joint": 0.13432582957393124,
        "distance_wrist_1_joint": 0.6214880439698054,
        "distance_wrist_2_joint": 1.4306142174634313,
        "distance_wrist_3_joint": 0.0753509750940351,
        "smoothness": 0.0,
        "time": 0.037912894,
        "traj_len": 1.7492361763277637,
        "weighted_distance": 2.294042591626207
    },
    "planner": "BiTRRT",
    "start": {
        "state": {
            "elbow_joint": -1.8275523626775212,
            "shoulder_lift_joint": -2.126789852344167,
            "shoulder_pan_joint": -0.03513704404078235,
            "wrist_1_joint": -2.347782403156801,
            "wrist_2_joint": -1.6058999987535132,
            "wrist_3_joint": -3.0880379163319196
        }
    },
    "waypoints": [
        {
            "positions": [
                -0.03513704404078235,
                -2.126789852344167,
                -1.8275523626775212,
                -2.347782403156801,
                -1.6058999987535132,
                -3.0880379163319196
            ]
        },
        {
            "positions": [
                -0.051927772737523754,
                -2.1435900561971586,
                -1.744596549721441,
                -2.4254684086530265,
                -1.4270732215705844,
                -3.078619044445165
            ]
        },
        {
            "positions": [
                -0.06871850143426517,
                -2.16039026005015,
                -1.661640736765361,
                -2.503154414149252,
                -1.2482464443876553,
                -3.0692001725584106
            ]
        },
        {
            "positions": [
                -0.08550923013100656,
                -2.177190463903141,
                -1.578684923809281,
                -2.5808404196454777,
                -1.0694196672047265,
                -3.0597813006716565
            ]
        },
        {
            "positions": [
                -0.10229995882774798,
                -2.193990667756133,
                -1.495729110853201,
                -2.6585264251417033,
                -0.8905928900217975,
                -3.050362428784902
            ]
        },
        {
            "positions": [
                -0.11909068752448937,
                -2.2107908716091247,
                -1.4127732978971208,
                -2.7362124306379294,
                -0.7117661128388686,
                -3.0409435568981475
            ]
        },
        {
            "positions": [
                -0.1358814162212308,
                -2.227591075462116,
                -1.329817484941041,
                -2.813898436134155,
                -0.5329393356559398,
                -3.0315246850113935
            ]
        },
        {
            "positions": [
                -0.15267214491797218,
                -2.2443912793151073,
                -1.2468616719849608,
                -2.8915844416303806,
                -0.3541125584730107,
                -3.022105813124639
            ]
        },
        {
            "positions": [
                -0.1694628736147136,
                -2.261191483168099,
                -1.1639058590288807,
                -2.9692704471266063,
                -0.17528578129008188,
                -3.0126869412378845
            ]
        }
    ]
}