{
    "goal": {
        "global_pose": {
            "orientation": {
                "w": 0.005598929693374612,
                "x": 0.007748599140229565,
                "y": 0.7110244013736278,
                "z": -0.7031023480610252
            },
            "position": {
                "x": 0.1141497679147869,
                "y": -0.7141253447532654,
                "z": 0.3711530566215515
            }
        },
        "name": "move_to_auspresseinheit_B"
    },
    "id": "BiTRRT_move_to_auspresseinheit_B_149",
    "joint_names": [
        "shoulder_pan_joint",
        "shoulder_lift_joint",
        "elbow_joint",
        "wrist_1_joint",
        "wrist_2_joint",
        "wrist_3_joint"
    ],
    "metrics": {
        "cart_traj_len": 0.5642364990554581,
        "distance_elbow_joint": 0.06287237525204681,
        "distance_shoulder_lift_joint": 0.2949808506602296,
        "distance_shoulder_pan_joint": 0.5773435395110025,
        "distance_wrist_1_joint": 0.3262643275980519,
        "distance_wrist_2_joint": 0.9862512383435418,
        "distance_wrist_3_joint": 0.004642378673365144,
        "smoothness": 2.5376526478085547e-16,
        "time": 0.083767648,
        "traj_len": 1.500784698095712,
        "weighted_distance": 1.8905435814406824
    },
    "planner": "BiTRRT",
    "start": {
        "state": {
            "elbow_joint": 2.0193083361928714,
            "shoulder_lift_joint": -1.1220246554650708,
            "shoulder_pan_joint": -1.0952077554168747,
            "wrist_1_joint": -0.8559753972642168,
            "wrist_2_joint": 0.4759566250798843,
            "wrist_3_joint": -3.1240929996934557
        }
    },
    "waypoints": [
        {
            "positions": [
                -1.0952077554168747,
                -1.1220246554650708,
                2.0193083361928714,
                -0.8559753972642168,
                0.4759566250798843,
                -3.1240929996934557
            ]
        },
        {
            "positions": [
                -1.1914316786687085,
                -1.171188130575109,
                2.008829606984197,
                -0.8015980093312082,
                0.6403318314704746,
                -3.1233192699145613
            ]
        },
        {
            "positions": [
                -1.287655601920542,
                -1.2203516056851473,
                1.9983508777755226,
                -0.7472206213981994,
                0.8047070378610648,
                -3.1225455401356674
            ]
        },
        {
            "positions": [
                -1.383879525172376,
                -1.2695150807951856,
                1.987872148566848,
                -0.6928432334651908,
                0.9690822442516551,
                -3.121771810356773
            ]
        },
        {
            "positions": [
                -1.4801034484242095,
                -1.3186785559052239,
                1.9773934193581735,
                -0.6384658455321822,
                1.1334574506422455,
                -3.1209980805778788
            ]
        },
        {
            "positions": [
                -1.5763273716760433,
                -1.3678420310152621,
                1.9669146901494992,
                -0.5840884575991735,
                1.2978326570328358,
                -3.120224350798985
            ]
        },
        {
            "positions": [
                -1.6725512949278771,
                -1.4170055061253004,
                1.9564359609408246,
                -0.5297110696661649,
                1.4622078634234261,
                -3.1194506210200905
            ]
        }
    ]
}