{
    "goal": {
        "global_pose": {
            "orientation": {
                "w": 0.7031023502349854,
                "x": -0.7110244035720825,
                "y": 0.007748599164187908,
                "z": 0.005598929710686207
            },
            "position": {
                "x": 0.11585023208521307,
                "y": 0.44412534475326537,
                "z": 0.3711530566215515
            }
        },
        "name": "move_to_auspresseinheit_A"
    },
    "id": "BiTRRT_move_to_auspresseinheit_A_106",
    "joint_names": [
        "shoulder_pan_joint",
        "shoulder_lift_joint",
        "elbow_joint",
        "wrist_1_joint",
        "wrist_2_joint",
        "wrist_3_joint"
    ],
    "metrics": {
        "cart_traj_len": 0.6920595980908006,
        "distance_elbow_joint": 0.041398650587129104,
        "distance_shoulder_lift_joint": 0.5369660210867737,
        "distance_shoulder_pan_joint": 1.0458535740498145,
        "distance_wrist_1_joint": 0.55598156692263,
        "distance_wrist_2_joint": 0.5199172458219633,
        "distance_wrist_3_joint": 0.027815913384533708,
        "smoothness": 0.041343493966598144,
        "time": 0.052250832999999997,
        "traj_len": 1.6516455345663137,
        "weighted_distance": 1.9645517583831953
    },
    "planner": "BiTRRT",
    "start": {
        "state": {
            "elbow_joint": 2.4225746658250005,
            "shoulder_lift_joint": -1.3736534386056498,
            "shoulder_pan_joint": -0.3378633547517467,
            "wrist_1_joint": -1.0288598680537169,
            "wrist_2_joint": 1.233022673432363,
            "wrist_3_joint": -3.0940220416140027
        }
    },
    "waypoints": [
        {
            "positions": [
                -0.3378633547517467,
                -1.3736534386056498,
                2.4225746658250005,
                -1.0288598680537169,
                1.233022673432363,
                -3.0940220416140027
            ]
        },
        {
            "positions": [
                -0.2115440323320912,
                -1.457938150943238,
                2.4168069061414053,
                -0.9540306732828674,
                1.1538970002684434,
                -3.098282239373071
            ]
        },
        {
            "positions": [
                -0.08522470991243569,
                -1.5422228632808264,
                2.41103914645781,
                -0.879201478512018,
                1.0747713271045236,
                -3.102542437132139
            ]
        },
        {
            "positions": [
                0.04109461250721985,
                -1.6265075756184149,
                2.405271386774215,
                -0.8043722837411685,
                0.995645653940604,
                -3.1068026348912072
            ]
        },
        {
            "positions": [
                0.16741393492687534,
                -1.7107922879560031,
                2.3995036270906196,
                -0.7295430889703192,
                0.9165199807766844,
                -3.1110628326502754
            ]
        },
        {
            "positions": [
                0.29373325734653094,
                -1.7950770002935914,
                2.3937358674070244,
                -0.6547138941994697,
                0.8373943076127646,
                -3.1153230304093436
            ]
        },
        {
            "positions": [
                0.4200525797661864,
                -1.8793617126311797,
                2.387968107723429,
                -0.5798846994286202,
                0.758268634448845,
                -3.1195832281684117
            ]
        },
        {
            "positions": [
                0.564021399532127,
                -1.8949905861618017,
                2.391364153966208,
                -0.5263815002798535,
                0.7356870310296224,
                -3.120710591583474
            ]
        },
        {
            "positions": [
                0.7079902192980676,
                -1.9106194596924235,
                2.394760200208987,
                -0.4728783011310869,
                0.7131054276103997,
                -3.1218379549985364
            ]
        }
    ]
}