{
    "goal": {
        "global_pose": {
            "orientation": {
                "w": 0.005598929693374612,
                "x": 0.007748599140229565,
                "y": 0.7110244013736278,
                "z": -0.7031023480610252
            },
            "position": {
                "x": -0.8858502320852131,
                "y": -0.7141253447532654,
                "z": 0.3711530566215515
            }
        },
        "name": "move_to_auspresseinheit_C"
    },
    "id": "BiTRRT_move_to_auspresseinheit_C_30",
    "joint_names": [
        "shoulder_pan_joint",
        "shoulder_lift_joint",
        "elbow_joint",
        "wrist_1_joint",
        "wrist_2_joint",
        "wrist_3_joint"
    ],
    "metrics": {
        "cart_traj_len": 0.4928057812985918,
        "distance_elbow_joint": 0.9928027288121765,
        "distance_shoulder_lift_joint": 0.32102132687599794,
        "distance_shoulder_pan_joint": 0.2557554390845147,
        "distance_wrist_1_joint": 0.6585563125802423,
        "distance_wrist_2_joint": 1.3181225321994305,
        "distance_wrist_3_joint": 0.04788600301307255,
        "smoothness": 1.6148698667872622e-16,
        "time": 0.054276713000000004,
        "traj_len": 1.895822866874813,
        "weighted_distance": 2.3804611304054624
    },
    "planner": "BiTRRT",
    "start": {
        "state": {
            "elbow_joint": 1.7527959577737207,
            "shoulder_lift_joint": -0.9740617694225068,
            "shoulder_pan_joint": -2.967991417825858,
            "wrist_1_joint": -0.759517768980727,
            "wrist_2_joint": 1.7443932448377408,
            "wrist_3_joint": -3.0840537646736568
        }
    },
    "waypoints": [
        {
            "positions": [
                -2.967991417825858,
                -0.9740617694225068,
                1.7527959577737207,
                -0.759517768980727,
                1.7443932448377408,
                -3.0840537646736568
            ]
        },
        {
            "positions": [
                -2.9424158739174064,
                -0.941959636734907,
                1.653515684892503,
                -0.6936621377227028,
                1.6125809916177978,
                -3.088842364974964
            ]
        },
        {
            "positions": [
                -2.916840330008955,
                -0.9098575040473071,
                1.5542354120112853,
                -0.6278065064646785,
                1.4807687383978547,
                -3.0936309652762715
            ]
        },
        {
            "positions": [
                -2.8912647861005034,
                -0.8777553713597074,
                1.4549551391300677,
                -0.5619508752066543,
                1.3489564851779117,
                -3.0984195655775784
            ]
        },
        {
            "positions": [
                -2.865689242192052,
                -0.8456532386721076,
                1.35567486624885,
                -0.4960952439486301,
                1.2171442319579686,
                -3.1032081658788857
            ]
        },
        {
            "positions": [
                -2.8401136982836004,
                -0.8135511059845077,
                1.2563945933676324,
                -0.43023961269060584,
                1.0853319787380256,
                -3.107996766180193
            ]
        },
        {
            "positions": [
                -2.8145381543751493,
                -0.781448973296908,
                1.1571143204864147,
                -0.3643839814325816,
                0.9535197255180825,
                -3.1127853664815004
            ]
        },
        {
            "positions": [
                -2.788962610466698,
                -0.7493468406093082,
                1.0578340476051973,
                -0.2985283501745574,
                0.8217074722981396,
                -3.1175739667828077
            ]
        },
        {
            "positions": [
                -2.7633870665582463,
                -0.7172447079217084,
                0.9585537747239794,
                -0.23267271891653318,
                0.6898952190781964,
                -3.1223625670841146
            ]
        },
        {
            "positions": [
                -2.7378115226497948,
                -0.6851425752341086,
                0.8592735018427619,
                -0.1668170876585089,
                0.5580829658582533,
                -3.127151167385422
            ]
        },
        {
            "positions": [
                -2.7122359787413433,
                -0.6530404425465088,
                0.7599932289615442,
                -0.10096145640048465,
                0.42627071263831035,
                -3.1319397676867293
            ]
        }
    ]
}