{
    "goal": {
        "global_pose": {
            "orientation": {
                "w": -0.4816463035849501,
                "x": 0.5182115481033762,
                "y": 0.4908360881923453,
                "z": -0.5084816262002911
            },
            "position": {
                "x": -0.8240239810943604,
                "y": -0.300875300988555,
                "z": 0.16403168439865112
            }
        },
        "name": "move_to_storage_C"
    },
    "id": "BiTRRT_move_to_storage_C_12",
    "joint_names": [
        "shoulder_pan_joint",
        "shoulder_lift_joint",
        "elbow_joint",
        "wrist_1_joint",
        "wrist_2_joint",
        "wrist_3_joint"
    ],
    "metrics": {
        "cart_traj_len": 0.5765497729500684,
        "distance_elbow_joint": 0.25847029292484236,
        "distance_shoulder_lift_joint": 0.18769019494694417,
        "distance_shoulder_pan_joint": 0.4957691847814716,
        "distance_wrist_1_joint": 0.08423157737925813,
        "distance_wrist_2_joint": 1.0616578042292297,
        "distance_wrist_3_joint": 0.07260867131399928,
        "smoothness": 0.0,
        "time": 0.054609698,
        "traj_len": 1.469839353662755,
        "weighted_distance": 1.8578305761861689
    },
    "planner": "BiTRRT",
    "start": {
        "state": {
            "elbow_joint": 2.010868314990456,
            "shoulder_lift_joint": -1.1634956873337592,
            "shoulder_pan_joint": -2.4736205022346125,
            "wrist_1_joint": -0.8367026794202681,
            "wrist_2_joint": 0.6746043897044499,
            "wrist_3_joint": -3.1496632123970403
        }
    },
    "waypoints": [
        {
            "positions": [
                -2.4736205022346125,
                -1.1634956873337592,
                2.010868314990456,
                -0.8367026794202681,
                0.6746043897044499,
                -3.1496632123970403
            ]
        },
        {
            "positions": [
                -2.556248699698191,
                -1.1322139881759352,
                1.9677899328363155,
                -0.8226640831903917,
                0.8515473570759882,
                -3.1375617671780405
            ]
        },
        {
            "positions": [
                -2.6388768971617695,
                -1.100932289018111,
                1.924711550682175,
                -0.8086254869605154,
                1.0284903244475265,
                -3.1254603219590407
            ]
        },
        {
            "positions": [
                -2.721505094625348,
                -1.069650589860287,
                1.8816331685280345,
                -0.794586890730639,
                1.2054332918190647,
                -3.1133588767400404
            ]
        },
        {
            "positions": [
                -2.804133292088927,
                -1.038368890702463,
                1.8385547863738942,
                -0.7805482945007627,
                1.382376259190603,
                -3.1012574315210406
            ]
        },
        {
            "positions": [
                -2.8867614895525056,
                -1.007087191544639,
                1.795476404219754,
                -0.7665096982708863,
                1.5593192265621414,
                -3.089155986302041
            ]
        },
        {
            "positions": [
                -2.969389687016084,
                -0.975805492386815,
                1.7523980220656135,
                -0.75247110204101,
                1.7362621939336798,
                -3.077054541083041
            ]
        }
    ]
}