{
    "goal": {
        "global_pose": {
            "orientation": {
                "w": 0.5084816217422485,
                "x": -0.49083608388900757,
                "y": 0.5182115435600281,
                "z": -0.4816462993621826
            },
            "position": {
                "x": 0.5540239810943604,
                "y": 0.030875300988554955,
                "z": 0.16403168439865112
            }
        },
        "name": "move_to_storage_A"
    },
    "id": "BiTRRT_move_to_storage_A_96",
    "joint_names": [
        "shoulder_pan_joint",
        "shoulder_lift_joint",
        "elbow_joint",
        "wrist_1_joint",
        "wrist_2_joint",
        "wrist_3_joint"
    ],
    "metrics": {
        "cart_traj_len": 0.3528145752346124,
        "distance_elbow_joint": 0.4539483210594508,
        "distance_shoulder_lift_joint": 0.23350404994865692,
        "distance_shoulder_pan_joint": 0.46274092177922665,
        "distance_wrist_1_joint": 0.25944293728636436,
        "distance_wrist_2_joint": 1.092443609446266,
        "distance_wrist_3_joint": 0.09842483027008653,
        "smoothness": 0.0,
        "time": 0.041521335,
        "traj_len": 1.612608033525212,
        "weighted_distance": 2.0369685508281306
    },
    "planner": "BiTRRT",
    "start": {
        "state": {
            "elbow_joint": 1.971548259319323,
            "shoulder_lift_joint": -1.1394851275133948,
            "shoulder_pan_joint": 0.1228115487234821,
            "wrist_1_joint": -0.7804723859257726,
            "wrist_2_joint": 0.12958671773740124,
            "wrist_3_joint": -3.192489227718131
        }
    },
    "waypoints": [
        {
            "positions": [
                0.1228115487234821,
                -1.1394851275133948,
                1.971548259319323,
                -0.7804723859257726,
                0.12958671773740124,
                -3.192489227718131
            ]
        },
        {
            "positions": [
                0.05670570275502115,
                -1.1728428489346314,
                2.0363980194706732,
                -0.8175356626809676,
                0.2856500905154392,
                -3.1784285376795474
            ]
        },
        {
            "positions": [
                -0.009400143213439793,
                -1.2062005703558683,
                2.1012477796220232,
                -0.8545989394361624,
                0.44171346329347716,
                -3.1643678476409636
            ]
        },
        {
            "positions": [
                -0.07550598918190074,
                -1.2395582917771049,
                2.1660975397733733,
                -0.8916622161913573,
                0.5977768360715152,
                -3.15030715760238
            ]
        },
        {
            "positions": [
                -0.1416118351503617,
                -1.2729160131983417,
                2.2309472999247233,
                -0.9287254929465523,
                0.7538402088495532,
                -3.136246467563796
            ]
        },
        {
            "positions": [
                -0.20771768111882266,
                -1.3062737346195783,
                2.2957970600760738,
                -0.9657887697017471,
                0.9099035816275912,
                -3.122185777525212
            ]
        },
        {
            "positions": [
                -0.2738235270872836,
                -1.3396314560408151,
                2.360646820227424,
                -1.0028520464569421,
                1.0659669544056292,
                -3.1081250874866284
            ]
        },
        {
            "positions": [
                -0.33992937305574455,
                -1.3729891774620517,
                2.425496580378774,
                -1.039915323212137,
                1.2220303271836672,
                -3.0940643974480446
            ]
        }
    ]
}{
    "goal": {
        "global_pose": {
            "orientation": {
                "w": 0.5084816217422485,
                "x": -0.49083608388900757,
                "y": 0.5182115435600281,
                "z": -0.4816462993621826
            },
            "position": {
                "x": 0.5540239810943604,
                "y": 0.030875300988554955,
                "z": 0.16403168439865112
            }
        },
        "name": "move_to_storage_A"
    },
    "id": "BiTRRT_move_to_storage_A_96",
    "joint_names": [
        "shoulder_pan_joint",
        "shoulder_lift_joint",
        "elbow_joint",
        "wrist_1_joint",
        "wrist_2_joint",
        "wrist_3_joint"
    ],
    "metrics": {
        "cart_traj_len": 0.3535755274259043,
        "distance_elbow_joint": 0.44908974497934917,
        "distance_shoulder_lift_joint": 0.23658093304587458,
        "distance_shoulder_pan_joint": 0.46503544551931403,
        "distance_wrist_1_joint": 0.2345928631304277,
        "distance_wrist_2_joint": 1.0892478599720576,
        "distance_wrist_3_joint": 0.09099628353160494,
        "smoothness": 4.440892098500626e-16,
        "time": 0.043356229999999996,
        "traj_len": 1.601731291502613,
        "weighted_distance": 2.0177652044636716
    },
    "planner": "BiTRRT",
    "start": {
        "state": {
            "elbow_joint": 1.97154746011099,
            "shoulder_lift_joint": -1.13948474672311,
            "shoulder_pan_joint": 0.12281154466712228,
            "wrist_1_joint": -0.7804688027058302,
            "wrist_2_joint": 0.12958655903071145,
            "wrist_3_joint": 3.0906928834467795
        }
    },
    "waypoints": [
        {
            "positions": [
                0.12281154466712228,
                -1.13948474672311,
                1.97154746011099,
                -0.7804688027058302,
                0.12958655903071145,
                3.0906928834467795
            ]
        },
        {
            "positions": [
                0.056377909592934566,
                -1.1732820228725207,
                2.0357031379651827,
                -0.8139820688673198,
                0.28519339616957684,
                3.103692352522723
            ]
        },
        {
            "positions": [
                -0.01005572548125315,
                -1.2070792990219312,
                2.0998588158193754,
                -0.8474953350288095,
                0.4408002333084422,
                3.1166918215986668
            ]
        },
        {
            "positions": [
                -0.07648936055544085,
                -1.240876575171342,
                2.164014493673568,
                -0.8810086011902992,
                0.5964070704473076,
                3.1296912906746104
            ]
        },
        {
            "positions": [
                -0.14292299562962857,
                -1.2746738513207525,
                2.228170171527761,
                -0.9145218673517889,
                0.7520139075861729,
                3.1426907597505536
            ]
        },
        {
            "positions": [
                -0.20935663070381633,
                -1.3084711274701633,
                2.2923258493819536,
                -0.9480351335132786,
                0.9076207447250384,
                3.155690228826497
            ]
        },
        {
            "positions": [
                -0.275790265778004,
                -1.3422684036195738,
                2.3564815272361463,
                -0.9815483996747683,
                1.0632275818639036,
                3.168689697902441
            ]
        },
        {
            "positions": [
                -0.34222390085219173,
                -1.3760656797689845,
                2.420637205090339,
                -1.015061665836258,
                1.2188344190027691,
                3.1816891669783844
            ]
        }
    ]
}{
    "goal": {
        "global_pose": {
            "orientation": {
                "w": 0.5084816217422485,
                "x": -0.49083608388900757,
                "y": 0.5182115435600281,
                "z": -0.4816462993621826
            },
            "position": {
                "x": 0.5540239810943604,
                "y": 0.030875300988554955,
                "z": 0.16403168439865112
            }
        },
        "name": "move_to_storage_A"
    },
    "id": "BiTRRT_move_to_storage_A_96",
    "joint_names": [
        "shoulder_pan_joint",
        "shoulder_lift_joint",
        "elbow_joint",
        "wrist_1_joint",
        "wrist_2_joint",
        "wrist_3_joint"
    ],
    "metrics": {
        "cart_traj_len": 0.35313585310588136,
        "distance_elbow_joint": 0.4490648993178392,
        "distance_shoulder_lift_joint": 0.23307100171963602,
        "distance_shoulder_pan_joint": 0.4636414779569994,
        "distance_wrist_1_joint": 0.23974573077140393,
        "distance_wrist_2_joint": 1.0902256725356225,
        "distance_wrist_3_joint": 0.10343896865253965,
        "smoothness": 2.2204460668324854e-16,
        "time": 0.044240202,
        "traj_len": 1.6059849784334974,
        "weighted_distance": 2.0288018857360486
    },
    "planner": "BiTRRT",
    "start": {
        "state": {
            "elbow_joint": 1.9715472970024885,
            "shoulder_lift_joint": -1.1394870060712896,
            "shoulder_pan_joint": 0.12281152778156021,
            "wrist_1_joint": -0.780463741449964,
            "wrist_2_joint": 0.12958659822042276,
            "wrist_3_joint": 3.090690232415272
        }
    },
    "waypoints": [
        {
            "positions": [
                0.12281152778156021,
                -1.1394870060712896,
                1.9715472970024885,
                -0.780463741449964,
                0.12958659822042276,
                3.090690232415272
            ]
        },
        {
            "positions": [
                0.056577030930560296,
                -1.172782863459809,
                2.0356994254764658,
                -0.8147131315601646,
                0.2853331228683688,
                3.1054672279370634
            ]
        },
        {
            "positions": [
                -0.009657465920439617,
                -1.2060787208483286,
                2.0998515539504425,
                -0.8489625216703651,
                0.4410796475163149,
                3.1202442234588545
            ]
        },
        {
            "positions": [
                -0.07589196277143953,
                -1.239374578236848,
                2.1640036824244198,
                -0.8832119117805657,
                0.5968261721642609,
                3.135021218980646
            ]
        },
        {
            "positions": [
                -0.14212645962243944,
                -1.2726704356253673,
                2.2281558108983965,
                -0.9174613018907662,
                0.752572696812207,
                3.1497982145024372
            ]
        },
        {
            "positions": [
                -0.20836095647343936,
                -1.3059662930138867,
                2.2923079393723738,
                -0.9517106920009668,
                0.9083192214601531,
                3.164575210024229
            ]
        },
        {
            "positions": [
                -0.27459545332443924,
                -1.3392621504024063,
                2.3564600678463505,
                -0.9859600821111674,
                1.0640657461080991,
                3.17935220554602
            ]
        },
        {
            "positions": [
                -0.34082995017543916,
                -1.3725580077909256,
                2.4206121963203278,
                -1.020209472221368,
                1.2198122707560453,
                3.1941292010678115
            ]
        }
    ]
}