{
    "goal": {
        "global_pose": {
            "orientation": {
                "w": -0.4816463035849501,
                "x": 0.5182115481033762,
                "y": 0.4908360881923453,
                "z": -0.5084816262002911
            },
            "position": {
                "x": -0.8240239810943604,
                "y": -0.300875300988555,
                "z": 0.16403168439865112
            }
        },
        "name": "move_to_storage_C"
    },
    "id": "BiTRRT_move_to_storage_C_68",
    "joint_names": [
        "shoulder_pan_joint",
        "shoulder_lift_joint",
        "elbow_joint",
        "wrist_1_joint",
        "wrist_2_joint",
        "wrist_3_joint"
    ],
    "metrics": {
        "cart_traj_len": 0.5777021327455867,
        "distance_elbow_joint": 0.262209731753402,
        "distance_shoulder_lift_joint": 0.19079958733460411,
        "distance_shoulder_pan_joint": 0.49419710449626786,
        "distance_wrist_1_joint": 0.08616373626984053,
        "distance_wrist_2_joint": 1.074437945844641,
        "distance_wrist_3_joint": 0.07250749412391944,
        "smoothness": 0.0,
        "time": 0.033044663,
        "traj_len": 1.4765891777412818,
        "weighted_distance": 1.8670651488860788
    },
    "planner": "BiTRRT",
    "start": {
        "state": {
            "elbow_joint": 2.010868314990456,
            "shoulder_lift_joint": -1.1634956873337592,
            "shoulder_pan_joint": -2.4736205022346125,
            "wrist_1_joint": -0.8367026794202681,
            "wrist_2_joint": 0.6746043897044499,
            "wrist_3_joint": -3.1496632123970403
        }
    },
    "waypoints": [
        {
            "positions": [
                -2.4736205022346125,
                -1.1634956873337592,
                2.010868314990456,
                -0.8367026794202681,
                0.6746043897044499,
                -3.1496632123970403
            ]
        },
        {
            "positions": [
                -2.5559866863173237,
                -1.1316957561113252,
                1.9671666930315554,
                -0.822342056708628,
                0.8536773806785567,
                -3.1375786300430537
            ]
        },
        {
            "positions": [
                -2.638352870400035,
                -1.099895824888891,
                1.923465071072655,
                -0.807981433996988,
                1.0327503716526636,
                -3.125494047689067
            ]
        },
        {
            "positions": [
                -2.720719054482746,
                -1.068095893666457,
                1.8797634491137547,
                -0.7936208112853478,
                1.2118233626267703,
                -3.1134094653350806
            ]
        },
        {
            "positions": [
                -2.803085238565458,
                -1.0362959624440231,
                1.8360618271548546,
                -0.7792601885737077,
                1.3908963536008772,
                -3.101324882981094
            ]
        },
        {
            "positions": [
                -2.885451422648169,
                -1.0044960312215891,
                1.7923602051959542,
                -0.7648995658620676,
                1.569969344574984,
                -3.0892403006271074
            ]
        },
        {
            "positions": [
                -2.9678176067308804,
                -0.9726960999991551,
                1.7486585832370538,
                -0.7505389431504276,
                1.749042335549091,
                -3.077155718273121
            ]
        }
    ]
}