{
    "goal": {
        "global_pose": {
            "orientation": {
                "w": 0.5084816262002911,
                "x": -0.4908360881923452,
                "y": 0.5182115481033761,
                "z": -0.48164630358495003
            },
            "position": {
                "x": 0.5540239810943604,
                "y": -0.46912469901144505,
                "z": 0.16403168439865112
            }
        },
        "name": "move_to_storage_B"
    },
    "id": "BiTRRT_move_to_storage_B_37",
    "joint_names": [
        "shoulder_pan_joint",
        "shoulder_lift_joint",
        "elbow_joint",
        "wrist_1_joint",
        "wrist_2_joint",
        "wrist_3_joint"
    ],
    "metrics": {
        "cart_traj_len": 0.8596758176204717,
        "distance_elbow_joint": 0.7547138678207261,
        "distance_shoulder_lift_joint": 0.45973080323847504,
        "distance_shoulder_pan_joint": 0.7574110754669553,
        "distance_wrist_1_joint": 2.987915322531726,
        "distance_wrist_2_joint": 2.7114504648971023,
        "distance_wrist_3_joint": 3.1318948050606803,
        "smoothness": 0.12329729924213811,
        "time": 0.120681873,
        "traj_len": 3.2868094467151066,
        "weighted_distance": 4.771401443660537
    },
    "planner": "BiTRRT",
    "start": {
        "state": {
            "elbow_joint": 1.664937868594044,
            "shoulder_lift_joint": -0.661644460510453,
            "shoulder_pan_joint": -0.9139846352900073,
            "wrist_1_joint": 2.146753192139373,
            "wrist_2_joint": -2.2341966793290973,
            "wrist_3_joint": 0.005466555786416001
        }
    },
    "waypoints": [
        {
            "positions": [
                -0.9139846352900073,
                -0.661644460510453,
                1.664937868594044,
                2.146753192139373,
                -2.2341966793290973,
                0.005466555786416001
            ]
        },
        {
            "positions": [
                -0.8418878342819207,
                -0.6751979872902183,
                1.6144350129121567,
                2.031735304995789,
                -2.1191332894047483,
                -0.019829826794403465
            ]
        },
        {
            "positions": [
                -0.769791033273834,
                -0.6887515140699835,
                1.5639321572302696,
                1.9167174178522046,
                -2.0040698994804,
                -0.04512620937522293
            ]
        },
        {
            "positions": [
                -0.6976942322657474,
                -0.7023050408497487,
                1.5134293015483822,
                1.8016995307086205,
                -1.8890065095560509,
                -0.07042259195604239
            ]
        },
        {
            "positions": [
                -0.6255974312576609,
                -0.7158585676295139,
                1.462926445866495,
                1.6866816435650362,
                -1.773943119631702,
                -0.09571897453686186
            ]
        },
        {
            "positions": [
                -0.6451400925674362,
                -0.7327550966344896,
                1.485955714412044,
                1.581354819650145,
                -1.680143248581714,
                -0.22199852765092026
            ]
        },
        {
            "positions": [
                -0.6646827538772117,
                -0.7496516256394651,
                1.5089849829575932,
                1.4760279957352538,
                -1.5863433775317264,
                -0.3482780807649787
            ]
        },
        {
            "positions": [
                -0.684225415186987,
                -0.7665481546444407,
                1.532014251503142,
                1.3707011718203626,
                -1.4925435064817385,
                -0.47455763387903716
            ]
        },
        {
            "positions": [
                -0.7037680764967623,
                -0.7834446836494163,
                1.5550435200486912,
                1.2653743479054715,
                -1.3987436354317508,
                -0.6008371869930955
            ]
        },
        {
            "positions": [
                -0.7233107378065378,
                -0.8003412126543918,
                1.5780727885942403,
                1.1600475239905803,
                -1.304943764381763,
                -0.7271167401071541
            ]
        },
        {
            "positions": [
                -0.7428533991163131,
                -0.8172377416593675,
                1.6011020571397894,
                1.054720700075689,
                -1.211143893331775,
                -0.8533962932212125
            ]
        },
        {
            "positions": [
                -0.7623960604260884,
                -0.8341342706643431,
                1.6241313256853385,
                0.9493938761607977,
                -1.1173440222817872,
                -0.9796758463352709
            ]
        },
        {
            "positions": [
                -0.7819387217358638,
                -0.8510307996693186,
                1.6471605942308873,
                0.8440670522459066,
                -1.0235441512317995,
                -1.1059553994493292
            ]
        },
        {
            "positions": [
                -0.8014813830456392,
                -0.8679273286742942,
                1.6701898627764364,
                0.7387402283310154,
                -0.9297442801818117,
                -1.2322349525633878
            ]
        },
        {
            "positions": [
                -0.8210240443554147,
                -0.8848238576792699,
                1.6932191313219855,
                0.6334134044161241,
                -0.8359444091318238,
                -1.3585145056774464
            ]
        },
        {
            "positions": [
                -0.84056670566519,
                -0.9017203866842454,
                1.7162483998675346,
                0.5280865805012329,
                -0.7421445380818361,
                -1.4847940587915045
            ]
        },
        {
            "positions": [
                -0.8601093669749653,
                -0.918616915689221,
                1.7392776684130835,
                0.4227597565863417,
                -0.6483446670318482,
                -1.611073611905563
            ]
        },
        {
            "positions": [
                -0.8796520282847407,
                -0.9355134446941966,
                1.7623069369586326,
                0.3174329326714507,
                -0.5545447959818606,
                -1.7373531650196214
            ]
        },
        {
            "positions": [
                -0.8991946895945161,
                -0.9524099736991722,
                1.7853362055041817,
                0.21210610875655922,
                -0.46074492493187247,
                -1.86363271813368
            ]
        },
        {
            "positions": [
                -0.9187373509042914,
                -0.9693065027041478,
                1.8083654740497308,
                0.10677928484166799,
                -0.3669450538818848,
                -1.9899122712477384
            ]
        },
        {
            "positions": [
                -0.9382800122140668,
                -0.9862030317091233,
                1.83139474259528,
                0.0014524609267769772,
                -0.27314518283189715,
                -2.1161918243617968
            ]
        },
        {
            "positions": [
                -0.9578226735238422,
                -1.003099560714099,
                1.854424011140829,
                -0.10387436298811448,
                -0.17934531178190904,
                -2.2424713774758556
            ]
        },
        {
            "positions": [
                -0.9773653348336175,
                -1.0199960897190745,
                1.8774532796863779,
                -0.2092011869030055,
                -0.08554544073192138,
                -2.368750930589914
            ]
        },
        {
            "positions": [
                -0.9969079961433929,
                -1.0368926187240501,
                1.900482548231927,
                -0.3145280108178967,
                0.008254430318066275,
                -2.4950304837039723
            ]
        },
        {
            "positions": [
                -1.0164506574531682,
                -1.0537891477290258,
                1.923511816777476,
                -0.41985483473278795,
                0.10205430136805438,
                -2.621310036818031
            ]
        },
        {
            "positions": [
                -1.0359933187629435,
                -1.0706856767340014,
                1.946541085323025,
                -0.5251816586476792,
                0.19585417241804204,
                -2.747589589932089
            ]
        },
        {
            "positions": [
                -1.0555359800727189,
                -1.0875822057389768,
                1.969570353868574,
                -0.6305084825625704,
                0.2896540434680297,
                -2.8738691430461474
            ]
        },
        {
            "positions": [
                -1.0750786413824944,
                -1.1044787347439524,
                1.9925996224141231,
                -0.7358353064774616,
                0.3834539145180176,
                -3.000148696160206
            ]
        },
        {
            "positions": [
                -1.0946213026922698,
                -1.121375263748928,
                2.0156288909596722,
                -0.8411621303923528,
                0.4772537855680053,
                -3.1264282492742645
            ]
        }
    ]
}