{
    "goal": {
        "global_pose": {
            "orientation": {
                "w": -0.00223480608172531,
                "x": 0.0024358444001904467,
                "y": 0.7094548369677653,
                "z": -0.704743149386269
            },
            "position": {
                "x": -0.37947507619857795,
                "y": -0.6371506643295288,
                "z": 0.19426114857196808
            }
        },
        "name": "move_to_magneteinheit_C"
    },
    "id": "BiTRRT_move_to_magneteinheit_C_97",
    "joint_names": [
        "shoulder_pan_joint",
        "shoulder_lift_joint",
        "elbow_joint",
        "wrist_1_joint",
        "wrist_2_joint",
        "wrist_3_joint"
    ],
    "metrics": {
        "cart_traj_len": 1.0412410655160609,
        "distance_elbow_joint": 0.9759209720549071,
        "distance_shoulder_lift_joint": 0.614021396506369,
        "distance_shoulder_pan_joint": 1.2426929197150496,
        "distance_wrist_1_joint": 0.7534499181620088,
        "distance_wrist_2_joint": 1.822427315322932,
        "distance_wrist_3_joint": 1.512242392934676,
        "smoothness": 1.5342528079802662,
        "time": 0.07769063400000001,
        "traj_len": 2.630732771433834,
        "weighted_distance": 3.5385190311838413
    },
    "planner": "BiTRRT",
    "start": {
        "state": {
            "elbow_joint": 1.9565354010623817,
            "shoulder_lift_joint": -1.4165861575791021,
            "shoulder_pan_joint": -1.6717766225146293,
            "wrist_1_joint": -0.5286633292919765,
            "wrist_2_joint": 1.472756589071564,
            "wrist_3_joint": -3.1238370188695823
        }
    },
    "waypoints": [
        {
            "positions": [
                -1.6717766225146293,
                -1.4165861575791021,
                1.9565354010623817,
                -0.5286633292919765,
                1.472756589071564,
                -3.1238370188695823
            ]
        },
        {
            "positions": [
                -1.5868570043830657,
                -1.3488640304552437,
                1.9593118959968945,
                -0.559588723459038,
                1.361430558773768,
                -3.032363721026557
            ]
        },
        {
            "positions": [
                -1.5536705228333547,
                -1.3042129929560238,
                1.9693114810440833,
                -0.5591976410112028,
                1.2271968550674726,
                -2.9027534764977556
            ]
        },
        {
            "positions": [
                -1.5204840412836436,
                -1.259561955456804,
                1.979311066091272,
                -0.5588065585633677,
                1.0929631513611773,
                -2.7731432319689544
            ]
        },
        {
            "positions": [
                -1.5767212846826835,
                -1.2703528610887005,
                1.9949404849092163,
                -0.5228244830483646,
                0.9908454164235179,
                -2.679730134768789
            ]
        },
        {
            "positions": [
                -1.6329585280817236,
                -1.281143766720597,
                2.0105699037271605,
                -0.4868424075333616,
                0.8887276814858583,
                -2.586317037568624
            ]
        },
        {
            "positions": [
                -1.6891957714807635,
                -1.2919346723524934,
                2.0261993225451045,
                -0.4508603320183585,
                0.7866099465481988,
                -2.4929039403684587
            ]
        },
        {
            "positions": [
                -1.7454330148798034,
                -1.3027255779843898,
                2.041828741363049,
                -0.41487825650335547,
                0.6844922116105394,
                -2.3994908431682935
            ]
        },
        {
            "positions": [
                -1.8540394981657693,
                -1.3497663636044628,
                2.0604384611710636,
                -0.3762843321501338,
                0.6082619505888047,
                -2.3901300624906137
            ]
        },
        {
            "positions": [
                -1.962645981451735,
                -1.3968071492245357,
                2.079048180979078,
                -0.3376904077969122,
                0.53203168956707,
                -2.380769281812934
            ]
        },
        {
            "positions": [
                -2.0592811939760796,
                -1.4040619977911892,
                2.1446645107710633,
                -0.41998978404256604,
                0.6176627409398163,
                -2.38020224893621
            ]
        },
        {
            "positions": [
                -2.1559164065004244,
                -1.4113168463578427,
                2.210280840563049,
                -0.50228916028822,
                0.7032937923125626,
                -2.3796352160594867
            ]
        },
        {
            "positions": [
                -2.252551619024769,
                -1.4185716949244962,
                2.275897170355034,
                -0.5845885365338739,
                0.7889248436853089,
                -2.379068183182763
            ]
        },
        {
            "positions": [
                -2.349186831549114,
                -1.4258265434911495,
                2.3415135001470193,
                -0.6668879127795277,
                0.8745558950580552,
                -2.378501150306039
            ]
        },
        {
            "positions": [
                -2.445822044073459,
                -1.433081392057803,
                2.407129829939005,
                -0.7491872890251817,
                0.9601869464308015,
                -2.377934117429316
            ]
        },
        {
            "positions": [
                -2.5424572565978036,
                -1.4403362406244564,
                2.47274615973099,
                -0.8314866652708356,
                1.0458179978035478,
                -2.377367084552592
            ]
        },
        {
            "positions": [
                -2.528571831963823,
                -1.3850916587811728,
                2.38080411705373,
                -0.8328526554426152,
                0.9722347762871558,
                -2.5305215762761293
            ]
        },
        {
            "positions": [
                -2.514686407329842,
                -1.329847076937889,
                2.2888620743764707,
                -0.8342186456143948,
                0.8986515547707637,
                -2.6836760679996665
            ]
        },
        {
            "positions": [
                -2.5008009826958615,
                -1.2746024950946053,
                2.196920031699211,
                -0.8355846357861744,
                0.8250683332543718,
                -2.8368305597232033
            ]
        },
        {
            "positions": [
                -2.4869155580618805,
                -1.2193579132513215,
                2.1049779890219513,
                -0.836950625957954,
                0.7514851117379797,
                -2.9899850514467405
            ]
        },
        {
            "positions": [
                -2.4730301334279,
                -1.1641133314080379,
                2.0130359463446914,
                -0.8383166161297336,
                0.6779018902215878,
                -3.1431395431702778
            ]
        }
    ]
}