{
    "goal": {
        "global_pose": {
            "orientation": {
                "w": 0.005598929693374612,
                "x": 0.007748599140229565,
                "y": 0.7110244013736278,
                "z": -0.7031023480610252
            },
            "position": {
                "x": 0.1141497679147869,
                "y": -0.7141253447532654,
                "z": 0.3711530566215515
            }
        },
        "name": "move_to_auspresseinheit_B"
    },
    "id": "BiTRRT_move_to_auspresseinheit_B_37",
    "joint_names": [
        "shoulder_pan_joint",
        "shoulder_lift_joint",
        "elbow_joint",
        "wrist_1_joint",
        "wrist_2_joint",
        "wrist_3_joint"
    ],
    "metrics": {
        "cart_traj_len": 0.5650791802335249,
        "distance_elbow_joint": 0.0631346197079381,
        "distance_shoulder_lift_joint": 0.2953756253345232,
        "distance_shoulder_pan_joint": 0.5764070651993298,
        "distance_wrist_1_joint": 0.32566462629749926,
        "distance_wrist_2_joint": 0.9966086685984457,
        "distance_wrist_3_joint": 0.0070903050560531256,
        "smoothness": 5.075305295617109e-16,
        "time": 0.040637642,
        "traj_len": 1.5047527737784003,
        "weighted_distance": 1.8975602270288656
    },
    "planner": "BiTRRT",
    "start": {
        "state": {
            "elbow_joint": 2.0193083361928714,
            "shoulder_lift_joint": -1.1220246554650708,
            "shoulder_pan_joint": -1.0952077554168747,
            "wrist_1_joint": -0.8559753972642168,
            "wrist_2_joint": 0.4759566250798843,
            "wrist_3_joint": -3.1240929996934557
        }
    },
    "waypoints": [
        {
            "positions": [
                -1.0952077554168747,
                -1.1220246554650708,
                2.0193083361928714,
                -0.8559753972642168,
                0.4759566250798843,
                -3.1240929996934557
            ]
        },
        {
            "positions": [
                -1.191275599616763,
                -1.171253926354158,
                2.0087858995748817,
                -0.801697959547967,
                0.6420580698462919,
                -3.1229112821841136
            ]
        },
        {
            "positions": [
                -1.2873434438166513,
                -1.2204831972432453,
                1.998263462956892,
                -0.747420521831717,
                0.8081595146126994,
                -3.121729564674771
            ]
        },
        {
            "positions": [
                -1.3834112880165397,
                -1.2697124681323324,
                1.9877410263389024,
                -0.6931430841154671,
                0.9742609593791072,
                -3.120547847165429
            ]
        },
        {
            "positions": [
                -1.4794791322164278,
                -1.3189417390214195,
                1.9772185897209127,
                -0.6388656463992173,
                1.1403624041455147,
                -3.119366129656087
            ]
        },
        {
            "positions": [
                -1.5755469764163161,
                -1.3681710099105069,
                1.966696153102923,
                -0.5845882086829675,
                1.3064638489119225,
                -3.1181844121467446
            ]
        },
        {
            "positions": [
                -1.6716148206162045,
                -1.417400280799594,
                1.9561737164849333,
                -0.5303107709667175,
                1.47256529367833,
                -3.1170026946374025
            ]
        }
    ]
}