{
    "goal": {
        "global_pose": {
            "orientation": {
                "w": 0.7031023480610252,
                "x": -0.7110244013736278,
                "y": 0.0077485991402295624,
                "z": 0.005598929693374583
            },
            "position": {
                "x": -0.8841497679147869,
                "y": 0.44412534475326537,
                "z": 0.3711530566215515
            }
        },
        "name": "move_to_auspresseinheit_D"
    },
    "id": "BiTRRT_move_to_auspresseinheit_D_78",
    "joint_names": [
        "shoulder_pan_joint",
        "shoulder_lift_joint",
        "elbow_joint",
        "wrist_1_joint",
        "wrist_2_joint",
        "wrist_3_joint"
    ],
    "metrics": {
        "cart_traj_len": 0.34254894371924166,
        "distance_elbow_joint": 0.6350982818966271,
        "distance_shoulder_lift_joint": 0.1191386691050651,
        "distance_shoulder_pan_joint": 0.1330233392453873,
        "distance_wrist_1_joint": 0.524482107944571,
        "distance_wrist_2_joint": 1.4351816364154049,
        "distance_wrist_3_joint": 0.0005624145827285432,
        "smoothness": 3.9474596431116675e-16,
        "time": 0.046735437,
        "traj_len": 1.6874496878988077,
        "weighted_distance": 2.1927779237112035
    },
    "planner": "BiTRRT",
    "start": {
        "state": {
            "elbow_joint": -1.8275523626775212,
            "shoulder_lift_joint": -2.126789852344167,
            "shoulder_pan_joint": -0.03513704404078235,
            "wrist_1_joint": -2.347782403156801,
            "wrist_2_joint": -1.6058999987535132,
            "wrist_3_joint": -3.0880379163319196
        }
    },
    "waypoints": [
        {
            "positions": [
                -0.03513704404078235,
                -2.126789852344167,
                -1.8275523626775212,
                -2.347782403156801,
                -1.6058999987535132,
                -3.0880379163319196
            ]
        },
        {
            "positions": [
                -0.05176496144645576,
                -2.1416821859823,
                -1.7481650774404427,
                -2.4133426666498723,
                -1.4265022942015877,
                -3.0879676145090786
            ]
        },
        {
            "positions": [
                -0.06839287885212918,
                -2.156574519620433,
                -1.6687777922033644,
                -2.4789029301429437,
                -1.247104589649662,
                -3.0878973126862377
            ]
        },
        {
            "positions": [
                -0.0850207962578026,
                -2.171466853258566,
                -1.5893905069662861,
                -2.544463193636015,
                -1.0677068850977363,
                -3.0878270108633963
            ]
        },
        {
            "positions": [
                -0.101648713663476,
                -2.1863591868966994,
                -1.5100032217292076,
                -2.6100234571290866,
                -0.8883091805458108,
                -3.0877567090405553
            ]
        },
        {
            "positions": [
                -0.11827663106914943,
                -2.2012515205348326,
                -1.4306159364921291,
                -2.6755837206221575,
                -0.7089114759938852,
                -3.0876864072177144
            ]
        },
        {
            "positions": [
                -0.13490454847482283,
                -2.216143854172966,
                -1.3512286512550509,
                -2.741143984115229,
                -0.5295137714419595,
                -3.087616105394873
            ]
        },
        {
            "positions": [
                -0.15153246588049624,
                -2.2310361878110987,
                -1.2718413660179726,
                -2.8067042476083004,
                -0.35011606689003383,
                -3.087545803572032
            ]
        },
        {
            "positions": [
                -0.16816038328616967,
                -2.245928521449232,
                -1.192454080780894,
                -2.872264511101372,
                -0.17071836233810833,
                -3.087475501749191
            ]
        }
    ]
}