{
    "goal": {
        "global_pose": {
            "orientation": {
                "w": -0.00223480608172531,
                "x": 0.0024358444001904467,
                "y": 0.7094548369677653,
                "z": -0.704743149386269
            },
            "position": {
                "x": -0.37947507619857795,
                "y": -0.6371506643295288,
                "z": 0.19426114857196808
            }
        },
        "name": "move_to_magneteinheit_C"
    },
    "id": "BiTRRT_move_to_magneteinheit_C_93",
    "joint_names": [
        "shoulder_pan_joint",
        "shoulder_lift_joint",
        "elbow_joint",
        "wrist_1_joint",
        "wrist_2_joint",
        "wrist_3_joint"
    ],
    "metrics": {
        "cart_traj_len": 0.6166795512299441,
        "distance_elbow_joint": 0.05186696501093646,
        "distance_shoulder_lift_joint": 0.28499129887945185,
        "distance_shoulder_pan_joint": 0.8922946397917377,
        "distance_wrist_1_joint": 0.7498418631069005,
        "distance_wrist_2_joint": 1.3850875676628185,
        "distance_wrist_3_joint": 1.9336930183155312,
        "smoothness": 1.0145176703904177,
        "time": 0.072373503,
        "traj_len": 2.3016896734284957,
        "weighted_distance": 3.361560771452475
    },
    "planner": "BiTRRT",
    "start": {
        "state": {
            "elbow_joint": 1.9565354010623817,
            "shoulder_lift_joint": -1.4165861575791021,
            "shoulder_pan_joint": -1.6717766225146293,
            "wrist_1_joint": -0.5286633292919765,
            "wrist_2_joint": 1.472756589071564,
            "wrist_3_joint": -3.1238370188695823
        }
    },
    "waypoints": [
        {
            "positions": [
                -1.6717766225146293,
                -1.4165861575791021,
                1.9565354010623817,
                -0.5286633292919765,
                1.472756589071564,
                -3.1238370188695823
            ]
        },
        {
            "positions": [
                -1.7616825551753215,
                -1.4185145952127989,
                1.9612760162673275,
                -0.5008045753098566,
                1.3358261435489363,
                -3.004405745953409
            ]
        },
        {
            "positions": [
                -1.8515884878360134,
                -1.4204430328464959,
                1.9660166314722733,
                -0.47294582132773677,
                1.1988956980263086,
                -2.8849744730372358
            ]
        },
        {
            "positions": [
                -1.9414944204967055,
                -1.4223714704801926,
                1.9707572466772192,
                -0.44508706734561687,
                1.061965252503681,
                -2.7655432001210625
            ]
        },
        {
            "positions": [
                -2.0314003531573976,
                -1.4242999081138894,
                1.975497861882165,
                -0.4172283133634971,
                0.9250348069810533,
                -2.646111927204889
            ]
        },
        {
            "positions": [
                -2.1213062858180898,
                -1.4262283457475864,
                1.9802384770871109,
                -0.3893695593813772,
                0.7881043614584257,
                -2.526680654288716
            ]
        },
        {
            "positions": [
                -2.2112122184787815,
                -1.4281567833812832,
                1.9849790922920567,
                -0.36151080539925734,
                0.6511739159357981,
                -2.4072493813725426
            ]
        },
        {
            "positions": [
                -2.3011181511394736,
                -1.4300852210149801,
                1.9897197074970026,
                -0.3336520514171375,
                0.5142434704131704,
                -2.2878181084563693
            ]
        },
        {
            "positions": [
                -2.3910240838001657,
                -1.432013658648677,
                1.9944603227019484,
                -0.30579329743501765,
                0.37731302489054275,
                -2.168386835540196
            ]
        },
        {
            "positions": [
                -2.4770654527935583,
                -1.3750449779226752,
                1.9962518666020812,
                -0.3801487030036651,
                0.39951007865050925,
                -2.2724226802231398
            ]
        },
        {
            "positions": [
                -2.497814757950252,
                -1.340718005341829,
                1.9969071611298326,
                -0.4321912095481858,
                0.43717543783514884,
                -2.354274121109043
            ]
        },
        {
            "positions": [
                -2.518564063106946,
                -1.3063910327609831,
                1.997562455657584,
                -0.4842337160927065,
                0.47484079701978843,
                -2.4361255619949462
            ]
        },
        {
            "positions": [
                -2.507187263307091,
                -1.2704057397804374,
                2.0002724332615176,
                -0.5713665692407697,
                0.5228698548579263,
                -2.613751589127795
            ]
        },
        {
            "positions": [
                -2.4958104635072353,
                -1.2344204467998914,
                2.0029824108654513,
                -0.658499422388833,
                0.5708989126960641,
                -2.7913776162606436
            ]
        },
        {
            "positions": [
                -2.48443366370738,
                -1.1984351538193456,
                2.0056923884693845,
                -0.7456322755368961,
                0.6189279705342019,
                -2.969003643393492
            ]
        },
        {
            "positions": [
                -2.4730568639075248,
                -1.1624498608387999,
                2.008402366073318,
                -0.8327651286849593,
                0.6669570283723397,
                -3.146629670526341
            ]
        }
    ]
}