{
    "goal": {
        "global_pose": {
            "orientation": {
                "w": 0.5084816262002911,
                "x": -0.4908360881923452,
                "y": 0.5182115481033761,
                "z": -0.48164630358495003
            },
            "position": {
                "x": 0.5540239810943604,
                "y": -0.46912469901144505,
                "z": 0.16403168439865112
            }
        },
        "name": "move_to_storage_B"
    },
    "id": "BiTRRT_move_to_storage_B_66",
    "joint_names": [
        "shoulder_pan_joint",
        "shoulder_lift_joint",
        "elbow_joint",
        "wrist_1_joint",
        "wrist_2_joint",
        "wrist_3_joint"
    ],
    "metrics": {
        "cart_traj_len": 0.9833022429831645,
        "distance_elbow_joint": 0.7394637497849605,
        "distance_shoulder_lift_joint": 0.47802772425955786,
        "distance_shoulder_pan_joint": 0.662356950907694,
        "distance_wrist_1_joint": 2.98560585340521,
        "distance_wrist_2_joint": 2.7054910664017022,
        "distance_wrist_3_joint": 3.1412106734280267,
        "smoothness": 0.036313841781489664,
        "time": 0.073541334,
        "traj_len": 3.2729430209197274,
        "weighted_distance": 4.762948066570758
    },
    "planner": "BiTRRT",
    "start": {
        "state": {
            "elbow_joint": 1.664937868594044,
            "shoulder_lift_joint": -0.661644460510453,
            "shoulder_pan_joint": -0.9139846352900073,
            "wrist_1_joint": 2.146753192139373,
            "wrist_2_joint": -2.2341966793290973,
            "wrist_3_joint": 0.005466555786416001
        }
    },
    "waypoints": [
        {
            "positions": [
                -0.9139846352900073,
                -0.661644460510453,
                1.664937868594044,
                2.146753192139373,
                -2.2341966793290973,
                0.005466555786416001
            ]
        },
        {
            "positions": [
                -0.8540229347574194,
                -0.665812147832057,
                1.6217676298647539,
                2.0230368826921303,
                -2.091234917784387,
                0.025559214608072037
            ]
        },
        {
            "positions": [
                -0.7940612342248314,
                -0.669979835153661,
                1.5785973911354638,
                1.899320573244887,
                -1.9482731562396776,
                0.045651873429728075
            ]
        },
        {
            "positions": [
                -0.7340995336922436,
                -0.674147522475265,
                1.5354271524061738,
                1.775604263797644,
                -1.8053113946949675,
                0.06574453225138412
            ]
        },
        {
            "positions": [
                -0.7038854965806258,
                -0.6691640988928507,
                1.5031573278246613,
                1.6633945734773137,
                -1.68261251155506,
                0.10644764172499757
            ]
        },
        {
            "positions": [
                -0.6736714594690082,
                -0.6641806753104362,
                1.4708875032431488,
                1.5511848831569834,
                -1.5599136284151527,
                0.14715075119861104
            ]
        },
        {
            "positions": [
                -0.6763335106176038,
                -0.6740804581518521,
                1.4708016012117382,
                1.418957182159902,
                -1.4347850907996453,
                0.25622020046023786
            ]
        },
        {
            "positions": [
                -0.6789955617661994,
                -0.683980240993268,
                1.4707156991803274,
                1.2867294811628205,
                -1.309656553184138,
                0.3652896497218646
            ]
        },
        {
            "positions": [
                -0.6816576129147949,
                -0.693880023834684,
                1.4706297971489168,
                1.1545017801657391,
                -1.1845280155686306,
                0.4743590989834914
            ]
        },
        {
            "positions": [
                -0.6843196640633905,
                -0.7037798066761,
                1.4705438951175063,
                1.0222740791686578,
                -1.0593994779531233,
                0.5834285482451183
            ]
        },
        {
            "positions": [
                -0.6869817152119861,
                -0.7136795895175159,
                1.4704579930860955,
                0.8900463781715762,
                -0.9342709403376158,
                0.6924979975067451
            ]
        },
        {
            "positions": [
                -0.6896437663605817,
                -0.7235793723589318,
                1.470372091054685,
                0.7578186771744947,
                -0.8091424027221086,
                0.8015674467683718
            ]
        },
        {
            "positions": [
                -0.6923058175091772,
                -0.7334791552003477,
                1.4702861890232741,
                0.6255909761774132,
                -0.6840138651066011,
                0.9106368960299986
            ]
        },
        {
            "positions": [
                -0.6949678686577728,
                -0.7433789380417636,
                1.4702002869918636,
                0.49336327518033185,
                -0.5588853274910939,
                1.0197063452916253
            ]
        },
        {
            "positions": [
                -0.6976299198063685,
                -0.7532787208831795,
                1.470114384960453,
                0.36113557418325026,
                -0.4337567898755863,
                1.1287757945532522
            ]
        },
        {
            "positions": [
                -0.700291970954964,
                -0.7631785037245955,
                1.4700284829290422,
                0.2289078731861689,
                -0.30862825226007895,
                1.237845243814879
            ]
        },
        {
            "positions": [
                -0.7029540221035595,
                -0.7730782865660113,
                1.4699425808976316,
                0.09668017218908731,
                -0.1834997146445716,
                1.3469146930765057
            ]
        },
        {
            "positions": [
                -0.7056160732521551,
                -0.7829780694074273,
                1.469856678866221,
                -0.035547528807994055,
                -0.05837117702906447,
                1.4559841423381323
            ]
        },
        {
            "positions": [
                -0.7082781244007508,
                -0.7928778522488432,
                1.4697707768348103,
                -0.16777522980507564,
                0.0667573605864431,
                1.5650535915997594
            ]
        },
        {
            "positions": [
                -0.7109401755493463,
                -0.8027776350902591,
                1.4696848748033997,
                -0.3000029308021571,
                0.19188589820195046,
                1.674123040861386
            ]
        },
        {
            "positions": [
                -0.7536929598833859,
                -0.8379955079069362,
                1.530152736580546,
                -0.3598751230758994,
                0.22293128585424554,
                1.8377401729006146
            ]
        },
        {
            "positions": [
                -0.7964457442174255,
                -0.8732133807236134,
                1.5906205983576922,
                -0.4197473153496417,
                0.25397667350654063,
                2.001357304939843
            ]
        },
        {
            "positions": [
                -0.8391985285514652,
                -0.9084312535402905,
                1.6510884601348386,
                -0.47961950762338396,
                0.28502206115883577,
                2.1649744369790715
            ]
        },
        {
            "positions": [
                -0.8819513128855049,
                -0.9436491263569676,
                1.7115563219119847,
                -0.5394916998971262,
                0.31606744881113086,
                2.3285915690183003
            ]
        },
        {
            "positions": [
                -0.9247040972195445,
                -0.9788669991736448,
                1.772024183689131,
                -0.5993638921708686,
                0.34711283646342594,
                2.4922087010575287
            ]
        },
        {
            "positions": [
                -0.9674568815535841,
                -1.014084871990322,
                1.8324920454662772,
                -0.6592360844446108,
                0.37815822411572103,
                2.655825833096757
            ]
        },
        {
            "positions": [
                -1.0102096658876238,
                -1.0493027448069991,
                1.8929599072434236,
                -0.7191082767183532,
                0.4092036117680161,
                2.819442965135986
            ]
        },
        {
            "positions": [
                -1.0529624502216635,
                -1.0845206176236761,
                1.9534277690205697,
                -0.7789804689920954,
                0.44024899942031126,
                2.9830600971752146
            ]
        },
        {
            "positions": [
                -1.095715234555703,
                -1.1197384904403533,
                2.013895630797716,
                -0.8388526612658377,
                0.47129438707260635,
                3.146677229214443
            ]
        }
    ]
}