{
    "goal": {
        "global_pose": {
            "orientation": {
                "w": 0.7047431493862688,
                "x": -0.7094548369677653,
                "y": 0.0024358444001904,
                "z": -0.0022348060817251984
            },
            "position": {
                "x": -0.39052492380142206,
                "y": 0.3671506643295288,
                "z": 0.19426114857196808
            }
        },
        "name": "move_to_magneteinheit_D"
    },
    "id": "BiTRRT_move_to_magneteinheit_D_71",
    "joint_names": [
        "shoulder_pan_joint",
        "shoulder_lift_joint",
        "elbow_joint",
        "wrist_1_joint",
        "wrist_2_joint",
        "wrist_3_joint"
    ],
    "metrics": {
        "cart_traj_len": 4.210482033420416,
        "distance_elbow_joint": 3.5491038921307263,
        "distance_shoulder_lift_joint": 1.9161543166446184,
        "distance_shoulder_pan_joint": 3.1079566392651565,
        "distance_wrist_1_joint": 1.641861336648528,
        "distance_wrist_2_joint": 1.441450924786406,
        "distance_wrist_3_joint": 3.488175707184081,
        "smoothness": 0.842854277986133,
        "time": 0.120029984,
        "traj_len": 3.891619562169396,
        "weighted_distance": 5.020395053425837
    },
    "planner": "BiTRRT",
    "start": {
        "state": {
            "elbow_joint": 0.749534889911806,
            "shoulder_lift_joint": -0.6476975780787326,
            "shoulder_pan_joint": -2.711696901376241,
            "wrist_1_joint": -0.07506478083263063,
            "wrist_2_joint": 0.43296659715538205,
            "wrist_3_joint": -3.14703540197715
        }
    },
    "waypoints": [
        {
            "positions": [
                -2.711696901376241,
                -0.6476975780787326,
                0.749534889911806,
                -0.07506478083263063,
                0.43296659715538205,
                -3.14703540197715
            ]
        },
        {
            "positions": [
                -2.709580930149863,
                -0.7535456803002648,
                0.82039304764089,
                -0.044609886638702335,
                0.5356228377749911,
                -3.109024374692027
            ]
        },
        {
            "positions": [
                -2.7074649589234845,
                -0.8593937825217969,
                0.8912512053699742,
                -0.014154992444774042,
                0.6382790783946002,
                -3.0710133474069043
            ]
        },
        {
            "positions": [
                -2.705348987697106,
                -0.9652418847433291,
                0.9621093630990583,
                0.016299901749154258,
                0.7409353190142093,
                -3.0330023201217813
            ]
        },
        {
            "positions": [
                -2.6042494160219527,
                -0.982841510532083,
                0.8706567618732673,
                0.05308931810705408,
                0.7112530384999255,
                -2.9170675023497252
            ]
        },
        {
            "positions": [
                -2.5031498443467997,
                -1.000441136320837,
                0.7792041606474764,
                0.0898787344649539,
                0.6815707579856416,
                -2.8011326845776696
            ]
        },
        {
            "positions": [
                -2.402050272671646,
                -1.0180407621095908,
                0.6877515594216856,
                0.1266681508228537,
                0.6518884774713578,
                -2.6851978668056136
            ]
        },
        {
            "positions": [
                -2.3009507009964927,
                -1.035640387898345,
                0.5962989581958946,
                0.16345756718075355,
                0.622206196957074,
                -2.5692630490335575
            ]
        },
        {
            "positions": [
                -2.1998511293213396,
                -1.0532400136870987,
                0.5048463569701038,
                0.20024698353865333,
                0.5925239164427902,
                -2.4533282312615015
            ]
        },
        {
            "positions": [
                -2.098751557646186,
                -1.0708396394758528,
                0.4133937557443129,
                0.23703639989655317,
                0.5628416359285064,
                -2.337393413489446
            ]
        },
        {
            "positions": [
                -1.9976519859710327,
                -1.0884392652646067,
                0.321941154518522,
                0.273825816254453,
                0.5331593554142225,
                -2.22145859571739
            ]
        },
        {
            "positions": [
                -1.8965524142958796,
                -1.1060388910533607,
                0.2304885532927311,
                0.3106152326123528,
                0.5034770748999388,
                -2.1055237779453337
            ]
        },
        {
            "positions": [
                -1.7954528426207261,
                -1.1236385168421146,
                0.1390359520669402,
                0.34740464897025264,
                0.4737947943856549,
                -1.989588960173278
            ]
        },
        {
            "positions": [
                -1.6943532709455729,
                -1.1412381426308684,
                0.0475833508411494,
                0.3841940653281524,
                0.44411251387137113,
                -1.873654142401222
            ]
        },
        {
            "positions": [
                -1.5932536992704196,
                -1.1588377684196225,
                -0.04386925038464162,
                0.42098348168605226,
                0.4144302333570873,
                -1.7577193246291662
            ]
        },
        {
            "positions": [
                -1.4921541275952661,
                -1.1764373942083763,
                -0.13532185161043242,
                0.45777289804395205,
                0.3847479528428035,
                -1.6417845068571102
            ]
        },
        {
            "positions": [
                -1.3910545559201128,
                -1.1940370199971304,
                -0.22677445283622322,
                0.49456231440185183,
                0.3550656723285197,
                -1.5258496890850544
            ]
        },
        {
            "positions": [
                -1.2899549842449594,
                -1.2116366457858843,
                -0.31822705406201424,
                0.5313517307597518,
                0.3253833918142358,
                -1.4099148713129983
            ]
        },
        {
            "positions": [
                -1.188855412569806,
                -1.229236271574638,
                -0.40967965528780526,
                0.5681411471176516,
                0.295701111299952,
                -1.2939800535409425
            ]
        },
        {
            "positions": [
                -1.0877558408946528,
                -1.2468358973633922,
                -0.501132256513596,
                0.6049305634755514,
                0.26601883078566824,
                -1.1780452357688866
            ]
        },
        {
            "positions": [
                -0.9866562692194996,
                -1.264435523152146,
                -0.5925848577393868,
                0.6417199798334512,
                0.23633655027138445,
                -1.0621104179968308
            ]
        },
        {
            "positions": [
                -0.8855566975443461,
                -1.2820351489409,
                -0.6840374589651779,
                0.6785093961913511,
                0.20665426975710055,
                -0.9461756002247745
            ]
        },
        {
            "positions": [
                -0.7844571258691928,
                -1.299634774729654,
                -0.7754900601909687,
                0.7152988125492509,
                0.17697198924281676,
                -0.8302407824527189
            ]
        },
        {
            "positions": [
                -0.6833575541940395,
                -1.317234400518408,
                -0.8669426614167595,
                0.7520882289071507,
                0.14728970872853298,
                -0.7143059646806629
            ]
        },
        {
            "positions": [
                -0.5822579825188865,
                -1.3348340263071619,
                -0.9583952626425505,
                0.7888776452650504,
                0.11760742821424919,
                -0.5983711469086073
            ]
        },
        {
            "positions": [
                -0.481158410843733,
                -1.352433652095916,
                -1.0498478638683415,
                0.8256670616229503,
                0.08792514769996529,
                -0.4824363291365512
            ]
        },
        {
            "positions": [
                -0.3800588391685794,
                -1.3700332778846698,
                -1.1413004650941325,
                0.8624564779808501,
                0.05824286718568149,
                -0.3665015113644953
            ]
        },
        {
            "positions": [
                -0.3225099576642037,
                -1.4244210718443913,
                -1.2418523006813975,
                0.9338386906680445,
                0.03435916619367976,
                -0.3216831270643183
            ]
        },
        {
            "positions": [
                -0.264961076159828,
                -1.4788088658041127,
                -1.3424041362686625,
                1.0052209033552388,
                0.010475465201678032,
                -0.27686474276414125
            ]
        },
        {
            "positions": [
                -0.20741219465545227,
                -1.5331966597638342,
                -1.4429559718559275,
                1.0766031160424332,
                -0.0134082357903237,
                -0.2320463584639642
            ]
        },
        {
            "positions": [
                -0.14986331315107657,
                -1.5875844537235557,
                -1.5435078074431927,
                1.1479853287296276,
                -0.037291936782325424,
                -0.18722797416378717
            ]
        },
        {
            "positions": [
                -0.09231443164670083,
                -1.6419722476832774,
                -1.6440596430304577,
                1.219367541416822,
                -0.06117563777432716,
                -0.14240958986361013
            ]
        },
        {
            "positions": [
                -0.03476555014232513,
                -1.696360041642999,
                -1.7446114786177227,
                1.2907497541040163,
                -0.08505933876632889,
                -0.09759120556343309
            ]
        },
        {
            "positions": [
                0.02278333136205057,
                -1.7507478356027204,
                -1.8451633142049877,
                1.3621319667912106,
                -0.10894303975833063,
                -0.05277282126325608
            ]
        },
        {
            "positions": [
                0.043514451874589896,
                -1.885276837766158,
                -1.941133254482435,
                1.4051593271553136,
                -0.10100723205585059,
                -0.09720140780051989
            ]
        },
        {
            "positions": [
                0.06424557238712922,
                -2.0198058399295955,
                -2.037103194759882,
                1.4481866875194167,
                -0.09307142435337055,
                -0.14162999433778373
            ]
        },
        {
            "positions": [
                0.08497669289966854,
                -2.154334842093033,
                -2.133073135037329,
                1.4912140478835196,
                -0.08513561665089052,
                -0.18605858087504754
            ]
        },
        {
            "positions": [
                0.10570781341220786,
                -2.2888638442564706,
                -2.229043075314776,
                1.5342414082476226,
                -0.07719980894841048,
                -0.23048716741231134
            ]
        },
        {
            "positions": [
                -0.0019383857547775052,
                -2.2178536200352656,
                -2.2629148452093095,
                1.5383175798019757,
                -0.0037641157348026755,
                -0.12613628863987908
            ]
        },
        {
            "positions": [
                -0.10958458492176286,
                -2.146843395814061,
                -2.296786615103843,
                1.5423937513563288,
                0.06967157747880513,
                -0.021785409867446842
            ]
        },
        {
            "positions": [
                -0.1472143479931313,
                -2.2133271968262966,
                -2.3356033354741292,
                1.5301923491265446,
                0.12216619093775707,
                -0.018036898479313425
            ]
        },
        {
            "positions": [
                -0.18484411106449972,
                -2.279810997838532,
                -2.3744200558444155,
                1.5179909468967603,
                0.174660804396709,
                -0.014288387091180006
            ]
        }
    ]
}