{
    "goal": {
        "global_pose": {
            "orientation": {
                "w": 0.7047431468963623,
                "x": -0.7094548344612122,
                "y": 0.0024358443915843964,
                "z": -0.0022348060738295317
            },
            "position": {
                "x": 0.6094750761985779,
                "y": 0.3671506643295288,
                "z": 0.19426114857196808
            }
        },
        "name": "move_to_magneteinheit_A"
    },
    "id": "BiTRRT_move_to_magneteinheit_A_12",
    "joint_names": [
        "shoulder_pan_joint",
        "shoulder_lift_joint",
        "elbow_joint",
        "wrist_1_joint",
        "wrist_2_joint",
        "wrist_3_joint"
    ],
    "metrics": {
        "cart_traj_len": 3.5378481966437367,
        "distance_elbow_joint": 5.162811530636466,
        "distance_shoulder_lift_joint": 1.3347573563674306,
        "distance_shoulder_pan_joint": 4.315623786176182,
        "distance_wrist_1_joint": 2.0936679765561643,
        "distance_wrist_2_joint": 2.1906404367886436,
        "distance_wrist_3_joint": 2.575393640567258,
        "smoothness": 0.436771944896464,
        "time": 0.075733157,
        "traj_len": 4.203914215001556,
        "weighted_distance": 5.2065334361330535
    },
    "planner": "BiTRRT",
    "start": {
        "state": {
            "elbow_joint": -1.9196185241190666,
            "shoulder_lift_joint": -1.2443396400964142,
            "shoulder_pan_joint": 2.6996025414629847,
            "wrist_1_joint": -1.5485510000780065,
            "wrist_2_joint": -1.5709468930060704,
            "wrist_3_joint": 0.4420197071253992
        }
    },
    "waypoints": [
        {
            "positions": [
                2.6996025414629847,
                -1.2443396400964142,
                -1.9196185241190666,
                -1.5485510000780065,
                -1.5709468930060704,
                0.4420197071253992
            ]
        },
        {
            "positions": [
                2.6011393158208356,
                -1.2617273281671555,
                -1.790554772170963,
                -1.5065004975932588,
                -1.5154614331609138,
                0.48597565465262876
            ]
        },
        {
            "positions": [
                2.502676090178687,
                -1.2791150162378968,
                -1.6614910202228592,
                -1.4644499951085113,
                -1.4599759733157571,
                0.5299316021798584
            ]
        },
        {
            "positions": [
                2.4042128645365377,
                -1.296502704308638,
                -1.5324272682747555,
                -1.4223994926237635,
                -1.4044905134706005,
                0.573887549707088
            ]
        },
        {
            "positions": [
                2.305749638894389,
                -1.3138903923793792,
                -1.4033635163266518,
                -1.380348990139016,
                -1.3490050536254439,
                0.6178434972343175
            ]
        },
        {
            "positions": [
                2.20728641325224,
                -1.3312780804501205,
                -1.274299764378548,
                -1.3382984876542683,
                -1.2935195937802872,
                0.6617994447615472
            ]
        },
        {
            "positions": [
                2.108823187610091,
                -1.3486657685208618,
                -1.1452360124304442,
                -1.2962479851695208,
                -1.2380341339351306,
                0.7057553922887767
            ]
        },
        {
            "positions": [
                2.010359961967942,
                -1.3660534565916032,
                -1.0161722604823402,
                -1.254197482684773,
                -1.1825486740899738,
                0.7497113398160064
            ]
        },
        {
            "positions": [
                1.9118967363257933,
                -1.3834411446623442,
                -0.8871085085342367,
                -1.2121469802000253,
                -1.1270632142448171,
                0.793667287343236
            ]
        },
        {
            "positions": [
                1.8134335106836441,
                -1.4008288327330856,
                -0.758044756586133,
                -1.1700964777152778,
                -1.0715777543996607,
                0.8376232348704655
            ]
        },
        {
            "positions": [
                1.7149702850414954,
                -1.4182165208038269,
                -0.6289810046380293,
                -1.1280459752305303,
                -1.016092294554504,
                0.8815791823976951
            ]
        },
        {
            "positions": [
                1.6165070593993462,
                -1.4356042088745682,
                -0.4999172526899254,
                -1.0859954727457826,
                -0.9606068347093474,
                0.9255351299249247
            ]
        },
        {
            "positions": [
                1.5180438337571973,
                -1.4529918969453095,
                -0.37085350074182166,
                -1.0439449702610348,
                -0.9051213748641908,
                0.9694910774521543
            ]
        },
        {
            "positions": [
                1.4195806081150484,
                -1.4703795850160506,
                -0.24178974879371795,
                -1.001894467776287,
                -0.849635915019034,
                1.013447024979384
            ]
        },
        {
            "positions": [
                1.3211173824728992,
                -1.487767273086792,
                -0.11272599684561402,
                -0.9598439652915396,
                -0.7941504551738774,
                1.0574029725066136
            ]
        },
        {
            "positions": [
                1.2226541568307505,
                -1.5051549611575332,
                0.01633775510248947,
                -0.917793462806792,
                -0.7386649953287209,
                1.1013589200338432
            ]
        },
        {
            "positions": [
                1.1241909311886016,
                -1.5225426492282745,
                0.14540150705059318,
                -0.8757429603220444,
                -0.6831795354835641,
                1.1453148675610727
            ]
        },
        {
            "positions": [
                1.0257277055464527,
                -1.5399303372990159,
                0.2744652589986969,
                -0.8336924578372967,
                -0.6276940756384075,
                1.1892708150883022
            ]
        },
        {
            "positions": [
                0.9272644799043037,
                -1.557318025369757,
                0.4035290109468006,
                -0.7916419553525491,
                -0.572208615793251,
                1.2332267626155318
            ]
        },
        {
            "positions": [
                0.8288012542621548,
                -1.5747057134404983,
                0.5325927628949043,
                -0.7495914528678015,
                -0.5167231559480943,
                1.2771827101427613
            ]
        },
        {
            "positions": [
                0.7303380286200059,
                -1.5920934015112396,
                0.661656514843008,
                -0.7075409503830539,
                -0.46123769610293763,
                1.321138657669991
            ]
        },
        {
            "positions": [
                0.6318748029778569,
                -1.6094810895819809,
                0.7907202667911122,
                -0.6654904478983061,
                -0.405752236257781,
                1.3650946051972208
            ]
        },
        {
            "positions": [
                0.5334115773357078,
                -1.6268687776527222,
                0.9197840187392159,
                -0.6234399454135585,
                -0.3502667764126244,
                1.4090505527244503
            ]
        },
        {
            "positions": [
                0.43494835169355905,
                -1.6442564657234633,
                1.0488477706873196,
                -0.5813894429288109,
                -0.29478131656746775,
                1.4530065002516799
            ]
        },
        {
            "positions": [
                0.3364851260514099,
                -1.6616441537942046,
                1.1779115226354233,
                -0.5393389404440632,
                -0.23929585672231113,
                1.4969624477789094
            ]
        },
        {
            "positions": [
                0.23802190040926074,
                -1.679031841864946,
                1.306975274583527,
                -0.49728843795931565,
                -0.18381039687715428,
                1.540918395306139
            ]
        },
        {
            "positions": [
                0.13955867476711203,
                -1.6964195299356872,
                1.4360390265316307,
                -0.4552379354745679,
                -0.12832493703199765,
                1.584874342833369
            ]
        },
        {
            "positions": [
                0.04109544912496288,
                -1.7138072180064285,
                1.565102778479735,
                -0.4131874329898202,
                -0.07283947718684103,
                1.6288302903605985
            ]
        },
        {
            "positions": [
                -0.057367776517186275,
                -1.7311949060771696,
                1.6941665304278386,
                -0.3711369305050727,
                -0.017354017341684402,
                1.672786237887828
            ]
        },
        {
            "positions": [
                -0.15583100215933499,
                -1.7485825941479112,
                1.8232302823759423,
                -0.32908642802032495,
                0.038131442503472224,
                1.7167421854150575
            ]
        },
        {
            "positions": [
                -0.2542942278014837,
                -1.7659702822186523,
                1.9522940343240456,
                -0.28703592553557744,
                0.09361690234862863,
                1.760698132942287
            ]
        },
        {
            "positions": [
                -0.35275745344363285,
                -1.7833579702893934,
                2.0813577862721497,
                -0.24498542305082993,
                0.14910236219378525,
                1.8046540804695166
            ]
        },
        {
            "positions": [
                -0.45122067908578156,
                -1.800745658360135,
                2.210421538220253,
                -0.2029349205660822,
                0.2045878220389421,
                1.8486100279967461
            ]
        },
        {
            "positions": [
                -0.5496839047279307,
                -1.818133346430876,
                2.339485290168357,
                -0.16088441808133447,
                0.26007328188409873,
                1.8925659755239757
            ]
        },
        {
            "positions": [
                -0.6481471303700794,
                -1.8355210345016173,
                2.4685490421164604,
                -0.11883391559658696,
                0.31555874172925535,
                1.9365219230512056
            ]
        },
        {
            "positions": [
                -0.7466103560122287,
                -1.8529087225723586,
                2.597612794064564,
                -0.07678341311183923,
                0.371044201574412,
                1.9804778705784352
            ]
        },
        {
            "positions": [
                -0.6675730024939588,
                -1.7868916067640417,
                2.538923683841579,
                -0.13331981216547534,
                0.34843971591912454,
                2.0747447321342736
            ]
        },
        {
            "positions": [
                -0.588535648975689,
                -1.7208744909557248,
                2.4802345736185942,
                -0.18985621121911145,
                0.3258352302638371,
                2.169011593690112
            ]
        },
        {
            "positions": [
                -0.5094982954574192,
                -1.6548573751474078,
                2.421545463395609,
                -0.24639261027274753,
                0.30323074460854965,
                2.2632784552459504
            ]
        },
        {
            "positions": [
                -0.43046094193914924,
                -1.588840259339091,
                2.3628563531726243,
                -0.30292900932638367,
                0.2806262589532622,
                2.357545316801789
            ]
        },
        {
            "positions": [
                -0.35142358842087945,
                -1.522823143530774,
                2.304167242949639,
                -0.3594654083800197,
                0.25802177329797477,
                2.4518121783576268
            ]
        },
        {
            "positions": [
                -0.2723862349026096,
                -1.456806027722457,
                2.245478132726654,
                -0.41600180743365583,
                0.23541728764268732,
                2.546079039913465
            ]
        },
        {
            "positions": [
                -0.1933488813843397,
                -1.3907889119141401,
                2.1867890225036692,
                -0.47253820648729195,
                0.21281280198739988,
                2.6403459014693036
            ]
        },
        {
            "positions": [
                -0.1143115278660698,
                -1.3247717961058232,
                2.128099912280684,
                -0.5290746055409281,
                0.19020831633211244,
                2.734612763025142
            ]
        },
        {
            "positions": [
                -0.0352741743478,
                -1.2587546802975063,
                2.069410802057699,
                -0.5856110045945642,
                0.167603830676825,
                2.8288796245809804
            ]
        },
        {
            "positions": [
                0.04376317917046979,
                -1.1927375644891893,
                2.010721691834714,
                -0.6421474036482002,
                0.14499934502153755,
                2.923146486136819
            ]
        },
        {
            "positions": [
                0.12280053268873967,
                -1.1267204486808724,
                1.9520325816117292,
                -0.6986838027018364,
                0.12239485936625011,
                3.0174133476926572
            ]
        }
    ]
}