{
    "goal": {
        "global_pose": {
            "orientation": {
                "w": 0.5084816262002911,
                "x": -0.4908360881923452,
                "y": 0.5182115481033761,
                "z": -0.48164630358495003
            },
            "position": {
                "x": 0.5540239810943604,
                "y": -0.46912469901144505,
                "z": 0.16403168439865112
            }
        },
        "name": "move_to_storage_B"
    },
    "id": "BiTRRT_move_to_storage_B_129",
    "joint_names": [
        "shoulder_pan_joint",
        "shoulder_lift_joint",
        "elbow_joint",
        "wrist_1_joint",
        "wrist_2_joint",
        "wrist_3_joint"
    ],
    "metrics": {
        "cart_traj_len": 1.0313645477868565,
        "distance_elbow_joint": 0.3497398777506193,
        "distance_shoulder_lift_joint": 0.9679355254719522,
        "distance_shoulder_pan_joint": 0.4789144601168972,
        "distance_wrist_1_joint": 2.9896355824504077,
        "distance_wrist_2_joint": 2.7030390375268993,
        "distance_wrist_3_joint": 3.1328756531789335,
        "smoothness": 0.09495926881659851,
        "time": 0.09303668600000001,
        "traj_len": 3.2591624900418377,
        "weighted_distance": 4.751901310300003
    },
    "planner": "BiTRRT",
    "start": {
        "state": {
            "elbow_joint": 1.664937868594044,
            "shoulder_lift_joint": -0.661644460510453,
            "shoulder_pan_joint": -0.9139846352900073,
            "wrist_1_joint": 2.146753192139373,
            "wrist_2_joint": -2.2341966793290973,
            "wrist_3_joint": 0.005466555786416001
        }
    },
    "waypoints": [
        {
            "positions": [
                -0.9139846352900073,
                -0.661644460510453,
                1.664937868594044,
                2.146753192139373,
                -2.2341966793290973,
                0.005466555786416001
            ]
        },
        {
            "positions": [
                -0.9052263944886184,
                -0.703610687474266,
                1.684668319948752,
                2.0282519380619206,
                -2.109003319714955,
                -0.07026641616293426
            ]
        },
        {
            "positions": [
                -0.8964681536872295,
                -0.745576914438079,
                1.7043987713034598,
                1.909750683984468,
                -1.9838099601008121,
                -0.14599938811228452
            ]
        },
        {
            "positions": [
                -0.8877099128858406,
                -0.7875431414018921,
                1.724129222658168,
                1.7912494299070154,
                -1.8586166004866698,
                -0.2217323600616348
            ]
        },
        {
            "positions": [
                -0.8789516720844517,
                -0.8295093683657051,
                1.7438596740128758,
                1.6727481758295628,
                -1.733423240872527,
                -0.297465332010985
            ]
        },
        {
            "positions": [
                -0.8701934312830628,
                -0.8714755953295181,
                1.7635901253675839,
                1.5542469217521102,
                -1.6082298812583846,
                -0.37319830396033526
            ]
        },
        {
            "positions": [
                -0.8614351904816739,
                -0.9134418222933312,
                1.783320576722292,
                1.4357456676746574,
                -1.483036521644242,
                -0.44893127590968557
            ]
        },
        {
            "positions": [
                -0.8526769496802851,
                -0.9554080492571441,
                1.8030510280769998,
                1.317244413597205,
                -1.3578431620300995,
                -0.5246642478590359
            ]
        },
        {
            "positions": [
                -0.8439187088788962,
                -0.9973742762209571,
                1.8227814794317079,
                1.1987431595197522,
                -1.232649802415957,
                -0.6003972198083861
            ]
        },
        {
            "positions": [
                -0.8351604680775072,
                -1.03934050318477,
                1.8425119307864157,
                1.0802419054422996,
                -1.1074564428018145,
                -0.6761301917577364
            ]
        },
        {
            "positions": [
                -0.8264022272761183,
                -1.081306730148583,
                1.8622423821411238,
                0.961740651364847,
                -0.982263083187672,
                -0.7518631637070866
            ]
        },
        {
            "positions": [
                -0.8176439864747295,
                -1.123272957112396,
                1.8819728334958317,
                0.8432393972873942,
                -0.8570697235735294,
                -0.827596135656437
            ]
        },
        {
            "positions": [
                -0.8088857456733406,
                -1.165239184076209,
                1.9017032848505397,
                0.7247381432099416,
                -0.7318763639593868,
                -0.9033291076057872
            ]
        },
        {
            "positions": [
                -0.8001275048719517,
                -1.207205411040022,
                1.9214337362052478,
                0.6062368891324892,
                -0.6066830043452445,
                -0.9790620795551374
            ]
        },
        {
            "positions": [
                -0.7913692640705629,
                -1.2491716380038351,
                1.9411641875599557,
                0.4877356350550366,
                -0.4814896447311019,
                -1.0547950515044877
            ]
        },
        {
            "positions": [
                -0.7826110232691739,
                -1.2911378649676482,
                1.9608946389146638,
                0.36923438097758376,
                -0.3562962851169593,
                -1.130528023453838
            ]
        },
        {
            "positions": [
                -0.773852782467785,
                -1.3331040919314612,
                1.9806250902693718,
                0.25073312690013116,
                -0.23110292550281653,
                -1.2062609954031882
            ]
        },
        {
            "positions": [
                -0.7650945416663961,
                -1.3750703188952742,
                2.0003555416240797,
                0.13223187282267845,
                -0.10590956588867419,
                -1.2819939673525385
            ]
        },
        {
            "positions": [
                -0.7950967568021494,
                -1.3519330764328077,
                2.0016575602350417,
                0.04358512162870455,
                -0.05365939097172169,
                -1.4497589791743548
            ]
        },
        {
            "positions": [
                -0.8250989719379027,
                -1.3287958339703414,
                2.002959578846004,
                -0.04506162956526935,
                -0.001409216054769194,
                -1.617523990996171
            ]
        },
        {
            "positions": [
                -0.8551011870736559,
                -1.3056585915078749,
                2.004261597456966,
                -0.13370838075924324,
                0.0508409588621833,
                -1.7852890028179873
            ]
        },
        {
            "positions": [
                -0.8851034022094092,
                -1.2825213490454084,
                2.005563616067928,
                -0.22235513195321716,
                0.1030911337791358,
                -1.9530540146398034
            ]
        },
        {
            "positions": [
                -0.9151056173451625,
                -1.2593841065829419,
                2.0068656346788902,
                -0.311001883147191,
                0.1553413086960883,
                -2.1208190264616196
            ]
        },
        {
            "positions": [
                -0.9451078324809158,
                -1.2362468641204756,
                2.0081676532898527,
                -0.39964863434116493,
                0.2075914836130408,
                -2.288584038283436
            ]
        },
        {
            "positions": [
                -0.9751100476166691,
                -1.213109621658009,
                2.0094696719008147,
                -0.48829538553513885,
                0.2598416585299933,
                -2.4563490501052523
            ]
        },
        {
            "positions": [
                -1.0051122627524223,
                -1.1899723791955426,
                2.0107716905117767,
                -0.5769421367291128,
                0.3120918334469458,
                -2.6241140619270684
            ]
        },
        {
            "positions": [
                -1.0351144778881756,
                -1.166835136733076,
                2.0120737091227388,
                -0.6655888879230867,
                0.36434200836389835,
                -2.791879073748885
            ]
        },
        {
            "positions": [
                -1.0651166930239289,
                -1.1436978942706097,
                2.013375727733701,
                -0.7542356391170605,
                0.4165921832808508,
                -2.9596440855707007
            ]
        },
        {
            "positions": [
                -1.0951189081596822,
                -1.1205606518081432,
                2.0146777463446632,
                -0.8428823903110344,
                0.46884235819780323,
                -3.1274090973925173
            ]
        }
    ]
}