{
    "goal": {
        "global_pose": {
            "orientation": {
                "w": 0.7047431493862688,
                "x": -0.7094548369677653,
                "y": 0.0024358444001904,
                "z": -0.0022348060817251984
            },
            "position": {
                "x": -0.39052492380142206,
                "y": 0.3671506643295288,
                "z": 0.19426114857196808
            }
        },
        "name": "move_to_magneteinheit_D"
    },
    "id": "BiTRRT_move_to_magneteinheit_D_95",
    "joint_names": [
        "shoulder_pan_joint",
        "shoulder_lift_joint",
        "elbow_joint",
        "wrist_1_joint",
        "wrist_2_joint",
        "wrist_3_joint"
    ],
    "metrics": {
        "cart_traj_len": 4.44429200192406,
        "distance_elbow_joint": 3.2158027531093585,
        "distance_shoulder_lift_joint": 2.5390820217354495,
        "distance_shoulder_pan_joint": 3.2372480942314414,
        "distance_wrist_1_joint": 1.5776065036106275,
        "distance_wrist_2_joint": 2.8279716870871856,
        "distance_wrist_3_joint": 5.133088850109705,
        "smoothness": 0.6262828676924905,
        "time": 0.14560593900000002,
        "traj_len": 4.30474156133487,
        "weighted_distance": 5.762165894939246
    },
    "planner": "BiTRRT",
    "start": {
        "state": {
            "elbow_joint": 0.749534889911806,
            "shoulder_lift_joint": -0.6476975780787326,
            "shoulder_pan_joint": -2.711696901376241,
            "wrist_1_joint": -0.07506478083263063,
            "wrist_2_joint": 0.43296659715538205,
            "wrist_3_joint": -3.14703540197715
        }
    },
    "waypoints": [
        {
            "positions": [
                -2.711696901376241,
                -0.6476975780787326,
                0.749534889911806,
                -0.07506478083263063,
                0.43296659715538205,
                -3.14703540197715
            ]
        },
        {
            "positions": [
                -2.7058070954315334,
                -0.6986499368881945,
                0.687181270388109,
                0.034356829297169836,
                0.5140509746491025,
                -3.1053707988779036
            ]
        },
        {
            "positions": [
                -2.699917289486826,
                -0.7496022956976564,
                0.6248276508644119,
                0.1437784394269703,
                0.595135352142823,
                -3.063706195778657
            ]
        },
        {
            "positions": [
                -2.6940274835421185,
                -0.8005546545071183,
                0.5624740313407149,
                0.2532000495567708,
                0.6762197296365434,
                -3.0220415926794106
            ]
        },
        {
            "positions": [
                -2.5914285831583697,
                -0.8437747491704437,
                0.4815956092325361,
                0.2726969334176702,
                0.6451724929804498,
                -2.9047790741856825
            ]
        },
        {
            "positions": [
                -2.4888296827746204,
                -0.8869948438337693,
                0.4007171871243572,
                0.2921938172785696,
                0.6141252563243561,
                -2.7875165556919543
            ]
        },
        {
            "positions": [
                -2.3862307823908715,
                -0.9302149384970947,
                0.3198387650161783,
                0.311690701139469,
                0.5830780196682623,
                -2.6702540371982266
            ]
        },
        {
            "positions": [
                -2.2836318820071226,
                -0.9734350331604202,
                0.23896034290799945,
                0.3311875850003684,
                0.5520307830121687,
                -2.5529915187044985
            ]
        },
        {
            "positions": [
                -2.181032981623374,
                -1.0166551278237457,
                0.15808192079982053,
                0.3506844688612678,
                0.520983546356075,
                -2.4357290002107703
            ]
        },
        {
            "positions": [
                -2.0784340812396245,
                -1.0598752224870711,
                0.07720349869164167,
                0.37018135272216723,
                0.48993630969998136,
                -2.318466481717042
            ]
        },
        {
            "positions": [
                -1.9758351808558756,
                -1.1030953171503968,
                -0.0036749234165373013,
                0.38967823658306666,
                0.45888907304388765,
                -2.201203963223314
            ]
        },
        {
            "positions": [
                -1.8732362804721268,
                -1.1463154118137222,
                -0.08455334552471605,
                0.40917512044396603,
                0.42784183638779394,
                -2.083941444729586
            ]
        },
        {
            "positions": [
                -1.7706373800883777,
                -1.1895355064770476,
                -0.1654317676328949,
                0.4286720043048654,
                0.39679459973170034,
                -1.966678926235858
            ]
        },
        {
            "positions": [
                -1.6680384797046286,
                -1.232755601140373,
                -0.24631018974107388,
                0.44816888816576483,
                0.3657473630756066,
                -1.8494164077421298
            ]
        },
        {
            "positions": [
                -1.5654395793208797,
                -1.2759756958036985,
                -0.32718861184925274,
                0.46766577202666426,
                0.33470012641951297,
                -1.7321538892484016
            ]
        },
        {
            "positions": [
                -1.4628406789371307,
                -1.319195790467024,
                -0.4080670339574316,
                0.48716265588756363,
                0.30365288976341925,
                -1.6148913707546737
            ]
        },
        {
            "positions": [
                -1.3602417785533818,
                -1.3624158851303494,
                -0.48894545606561046,
                0.506659539748463,
                0.2726056531073256,
                -1.4976288522609456
            ]
        },
        {
            "positions": [
                -1.2576428781696327,
                -1.405635979793675,
                -0.5698238781737895,
                0.5261564236093625,
                0.24155841645123188,
                -1.3803663337672174
            ]
        },
        {
            "positions": [
                -1.1550439777858839,
                -1.4488560744570005,
                -0.6507023002819682,
                0.5456533074702619,
                0.21051117979513823,
                -1.2631038152734895
            ]
        },
        {
            "positions": [
                -1.0524450774021348,
                -1.4920761691203261,
                -0.731580722390147,
                0.5651501913311613,
                0.1794639431390445,
                -1.1458412967797613
            ]
        },
        {
            "positions": [
                -0.9498461770183857,
                -1.5352962637836516,
                -0.8124591444983261,
                0.5846470751920607,
                0.1484167064829508,
                -1.0285787782860332
            ]
        },
        {
            "positions": [
                -0.8472472766346368,
                -1.578516358446977,
                -0.8933375666065048,
                0.60414395905296,
                0.11736946982685725,
                -0.9113162597923052
            ]
        },
        {
            "positions": [
                -0.7446483762508878,
                -1.6217364531103025,
                -0.9742159887146838,
                0.6236408429138595,
                0.08632223317076348,
                -0.7940537412985771
            ]
        },
        {
            "positions": [
                -0.6420494758671387,
                -1.664956547773628,
                -1.0550944108228628,
                0.6431377267747589,
                0.05527499651466983,
                -0.6767912228048489
            ]
        },
        {
            "positions": [
                -0.5394505754833898,
                -1.7081766424369533,
                -1.1359728329310412,
                0.6626346106356582,
                0.02422775985857617,
                -0.5595287043111212
            ]
        },
        {
            "positions": [
                -0.43685167509964096,
                -1.7513967371002788,
                -1.2168512550392205,
                0.6821314944965577,
                -0.0068194767975174875,
                -0.44226618581739263
            ]
        },
        {
            "positions": [
                -0.33425277471589165,
                -1.7946168317636044,
                -1.2977296771473994,
                0.7016283783574571,
                -0.037866713453611256,
                -0.3250036673236645
            ]
        },
        {
            "positions": [
                -0.2316538743321428,
                -1.8378369264269299,
                -1.3786080992555783,
                0.7211252622183565,
                -0.06891395010970491,
                -0.20774114882993677
            ]
        },
        {
            "positions": [
                -0.1290549739483938,
                -1.8810570210902553,
                -1.459486521363757,
                0.7406221460792559,
                -0.09996118676579856,
                -0.09047863033620869
            ]
        },
        {
            "positions": [
                -0.1018528938049392,
                -1.8397795147000617,
                -1.543558971136974,
                0.7826540945428272,
                -0.16939348482675629,
                0.007749320266940141
            ]
        },
        {
            "positions": [
                -0.0746508136614846,
                -1.798502008309868,
                -1.6276314209101912,
                0.8246860430063985,
                -0.238825782887714,
                0.10597727087008897
            ]
        },
        {
            "positions": [
                -0.04744873351803,
                -1.7572245019196744,
                -1.7117038706834082,
                0.8667179914699698,
                -0.30825808094867174,
                0.20420522147323777
            ]
        },
        {
            "positions": [
                -0.020246653374575402,
                -1.7159469955294808,
                -1.7957763204566253,
                0.908749939933541,
                -0.3776903790096295,
                0.30243317207638665
            ]
        },
        {
            "positions": [
                0.006955426768879197,
                -1.674669489139287,
                -1.8798487702298425,
                0.9507818883971122,
                -0.4471226770705872,
                0.40066112267953546
            ]
        },
        {
            "positions": [
                0.034157506912333796,
                -1.6333919827490935,
                -1.9639212200030596,
                0.9928138368606836,
                -0.5165549751315449,
                0.4988890732826842
            ]
        },
        {
            "positions": [
                0.061359587055788395,
                -1.5921144763589,
                -2.0479936697762766,
                1.0348457853242548,
                -0.5859872731925027,
                0.5971170238858331
            ]
        },
        {
            "positions": [
                0.088561667199243,
                -1.5508369699687061,
                -2.132066119549494,
                1.0768777337878261,
                -0.6554195712534604,
                0.6953449744889819
            ]
        },
        {
            "positions": [
                0.11576374734269762,
                -1.5095594635785123,
                -2.216138569322711,
                1.1189096822513973,
                -0.7248518693144183,
                0.7935729250921307
            ]
        },
        {
            "positions": [
                0.1429658274861522,
                -1.468281957188319,
                -2.300211019095928,
                1.1609416307149685,
                -0.7942841673753759,
                0.8918008756952795
            ]
        },
        {
            "positions": [
                0.17016790762960676,
                -1.4270044507981252,
                -2.384283468869145,
                1.2029735791785399,
                -0.8637164654363336,
                0.9900288262984285
            ]
        },
        {
            "positions": [
                0.13708565828652403,
                -1.5205403074919588,
                -2.3795341058170356,
                1.2272553826143315,
                -0.7575793551181934,
                0.8801783445509409
            ]
        },
        {
            "positions": [
                0.10400340894344128,
                -1.6140761641857924,
                -2.3747847427649256,
                1.251537186050123,
                -0.6514422448000532,
                0.7703278628034534
            ]
        },
        {
            "positions": [
                0.07092115960035854,
                -1.7076120208796257,
                -2.370035379712816,
                1.2758189894859147,
                -0.545305134481913,
                0.6604773810559659
            ]
        },
        {
            "positions": [
                0.03783891025727579,
                -1.8011478775734595,
                -2.365286016660706,
                1.3001007929217063,
                -0.43916802416377276,
                0.5506268993084784
            ]
        },
        {
            "positions": [
                0.0047566609141930505,
                -1.8946837342672929,
                -2.3605366536085963,
                1.3243825963574978,
                -0.33303091384563244,
                0.44077641756099073
            ]
        },
        {
            "positions": [
                -0.028325588428889686,
                -1.9882195909611264,
                -2.3557872905564863,
                1.3486643997932894,
                -0.22689380352749233,
                0.33092593581350327
            ]
        },
        {
            "positions": [
                -0.06140783777197245,
                -2.08175544765496,
                -2.3510379275043767,
                1.3729462032290811,
                -0.120756693209352,
                0.2210754540660157
            ]
        },
        {
            "positions": [
                -0.09449008711505519,
                -2.175291304348794,
                -2.3462885644522666,
                1.3972280066648726,
                -0.014619582891211902,
                0.11122497231852824
            ]
        },
        {
            "positions": [
                -0.12757233645813792,
                -2.268827161042627,
                -2.341539201400157,
                1.4215098101006642,
                0.09151752742692842,
                0.0013744905710406938
            ]
        },
        {
            "positions": [
                -0.1852153775959869,
                -2.2786744592299226,
                -2.3807793282595764,
                1.502541722777997,
                0.18106589409681376,
                0.008744776677778007
            ]
        }
    ]
}