{
    "goal": {
        "global_pose": {
            "orientation": {
                "w": -0.4816463035849501,
                "x": 0.5182115481033762,
                "y": 0.4908360881923453,
                "z": -0.5084816262002911
            },
            "position": {
                "x": -0.8240239810943604,
                "y": -0.300875300988555,
                "z": 0.16403168439865112
            }
        },
        "name": "move_to_storage_C"
    },
    "id": "BiTRRT_move_to_storage_C_94",
    "joint_names": [
        "shoulder_pan_joint",
        "shoulder_lift_joint",
        "elbow_joint",
        "wrist_1_joint",
        "wrist_2_joint",
        "wrist_3_joint"
    ],
    "metrics": {
        "cart_traj_len": 0.5767146211998261,
        "distance_elbow_joint": 0.2619041021309163,
        "distance_shoulder_lift_joint": 0.18976940727392522,
        "distance_shoulder_pan_joint": 0.4950458231759285,
        "distance_wrist_1_joint": 0.09036408563132381,
        "distance_wrist_2_joint": 1.0613147540461045,
        "distance_wrist_3_joint": 0.06777670957656756,
        "smoothness": 2.5376526478085547e-16,
        "time": 0.027295478999999997,
        "traj_len": 1.4717930839064186,
        "weighted_distance": 1.8583345072040525
    },
    "planner": "BiTRRT",
    "start": {
        "state": {
            "elbow_joint": 2.010868314990456,
            "shoulder_lift_joint": -1.1634956873337592,
            "shoulder_pan_joint": -2.4736205022346125,
            "wrist_1_joint": -0.8367026794202681,
            "wrist_2_joint": 0.6746043897044499,
            "wrist_3_joint": -3.1496632123970403
        }
    },
    "waypoints": [
        {
            "positions": [
                -2.4736205022346125,
                -1.1634956873337592,
                2.010868314990456,
                -0.8367026794202681,
                0.6746043897044499,
                -3.1496632123970403
            ]
        },
        {
            "positions": [
                -2.5561281394306006,
                -1.131867452788105,
                1.9672176313019698,
                -0.8216419984817142,
                0.8514901820454673,
                -3.138367094134279
            ]
        },
        {
            "positions": [
                -2.6386357766265887,
                -1.1002392182424507,
                1.9235669476134838,
                -0.8065813175431602,
                1.0283759743864849,
                -3.1270709758715176
            ]
        },
        {
            "positions": [
                -2.7211434138225767,
                -1.0686109836967965,
                1.8799162639249976,
                -0.7915206366046061,
                1.205261766727502,
                -3.1157748576087565
            ]
        },
        {
            "positions": [
                -2.803651051018565,
                -1.0369827491511423,
                1.8362655802365115,
                -0.7764599556660522,
                1.3821475590685197,
                -3.1044787393459954
            ]
        },
        {
            "positions": [
                -2.886158688214553,
                -1.005354514605488,
                1.7926148965480255,
                -0.7613992747274982,
                1.559033351409537,
                -3.093182621083234
            ]
        },
        {
            "positions": [
                -2.968666325410541,
                -0.973726280059834,
                1.7489642128595395,
                -0.7463385937889443,
                1.7359191437505543,
                -3.0818865028204727
            ]
        }
    ]
}