{
    "goal": {
        "global_pose": {
            "orientation": {
                "w": -0.00223480608172531,
                "x": 0.0024358444001904467,
                "y": 0.7094548369677653,
                "z": -0.704743149386269
            },
            "position": {
                "x": -0.37947507619857795,
                "y": -0.6371506643295288,
                "z": 0.19426114857196808
            }
        },
        "name": "move_to_magneteinheit_C"
    },
    "id": "BiTRRT_move_to_magneteinheit_C_49",
    "joint_names": [
        "shoulder_pan_joint",
        "shoulder_lift_joint",
        "elbow_joint",
        "wrist_1_joint",
        "wrist_2_joint",
        "wrist_3_joint"
    ],
    "metrics": {
        "cart_traj_len": 2.2922903693636982,
        "distance_elbow_joint": 1.3529893657109064,
        "distance_shoulder_lift_joint": 1.6079059819569292,
        "distance_shoulder_pan_joint": 2.458861939605039,
        "distance_wrist_1_joint": 1.5640198766504183,
        "distance_wrist_2_joint": 3.034411198252316,
        "distance_wrist_3_joint": 2.228615008211364,
        "smoothness": 1.0232712000693303,
        "time": 0.132672248,
        "traj_len": 3.49954330883145,
        "weighted_distance": 4.615459290440382
    },
    "planner": "BiTRRT",
    "start": {
        "state": {
            "elbow_joint": 1.9565354010623817,
            "shoulder_lift_joint": -1.4165861575791021,
            "shoulder_pan_joint": -1.6717766225146293,
            "wrist_1_joint": -0.5286633292919765,
            "wrist_2_joint": 1.472756589071564,
            "wrist_3_joint": -3.1238370188695823
        }
    },
    "waypoints": [
        {
            "positions": [
                -1.6717766225146293,
                -1.4165861575791021,
                1.9565354010623817,
                -0.5286633292919765,
                1.472756589071564,
                -3.1238370188695823
            ]
        },
        {
            "positions": [
                -1.6214735649809529,
                -1.4025596707795387,
                1.9625732748893472,
                -0.4184158708755266,
                1.3600505357917876,
                -3.0279290177573035
            ]
        },
        {
            "positions": [
                -1.5711705074472766,
                -1.388533183979975,
                1.9686111487163127,
                -0.3081684124590768,
                1.2473444825120112,
                -2.932021016645025
            ]
        },
        {
            "positions": [
                -1.5208674499136001,
                -1.3745066971804116,
                1.974649022543278,
                -0.19792095404262694,
                1.134638429232235,
                -2.8361130155327468
            ]
        },
        {
            "positions": [
                -1.4705643923799236,
                -1.3604802103808482,
                1.9806868963702435,
                -0.08767349562617709,
                1.0219323759524586,
                -2.740205014420468
            ]
        },
        {
            "positions": [
                -1.5870356572266109,
                -1.4077154990003815,
                1.9342636958587545,
                -0.07416385960941062,
                0.9168928765841395,
                -2.6889793215740667
            ]
        },
        {
            "positions": [
                -1.7035069220732981,
                -1.4549507876199146,
                1.8878404953472652,
                -0.06065422359264415,
                0.8118533772158204,
                -2.637753628727665
            ]
        },
        {
            "positions": [
                -1.8199781869199854,
                -1.5021860762394479,
                1.841417294835776,
                -0.04714458757587768,
                0.7068138778475013,
                -2.586527935881264
            ]
        },
        {
            "positions": [
                -1.9364494517666726,
                -1.5494213648589812,
                1.794994094324287,
                -0.03363495155911121,
                0.6017743784791822,
                -2.535302243034862
            ]
        },
        {
            "positions": [
                -2.05292071661336,
                -1.5966566534785145,
                1.748570893812798,
                -0.020125315542344743,
                0.4967348791108631,
                -2.484076550188461
            ]
        },
        {
            "positions": [
                -2.169391981460047,
                -1.6438919420980476,
                1.7021476933013087,
                -0.006615679525578275,
                0.3916953797425441,
                -2.4328508573420597
            ]
        },
        {
            "positions": [
                -2.2858632463067345,
                -1.6911272307175809,
                1.6557244927898196,
                0.006893956491188194,
                0.28665588037422496,
                -2.381625164495658
            ]
        },
        {
            "positions": [
                -2.4023345111534216,
                -1.7383625193371142,
                1.6093012922783305,
                0.020403592507954663,
                0.18161638100590594,
                -2.330399471649257
            ]
        },
        {
            "positions": [
                -2.518805776000109,
                -1.7855978079566475,
                1.5628780917668412,
                0.033913228524721145,
                0.07657688163758669,
                -2.279173778802855
            ]
        },
        {
            "positions": [
                -2.6352770408467965,
                -1.8328330965761805,
                1.5164548912553522,
                0.0474228645414876,
                -0.02846261773073233,
                -2.227948085956454
            ]
        },
        {
            "positions": [
                -2.7517483056934835,
                -1.8800683851957138,
                1.470031690743863,
                0.06093250055825407,
                -0.13350211709905135,
                -2.1767223931100523
            ]
        },
        {
            "positions": [
                -2.8682195705401705,
                -1.927303673815247,
                1.423608490232374,
                0.07444213657502054,
                -0.23854161646737038,
                -2.125496700263651
            ]
        },
        {
            "positions": [
                -2.984690835386858,
                -1.9745389624347802,
                1.3771852897208847,
                0.087951772591787,
                -0.3435811158356896,
                -2.0742710074172495
            ]
        },
        {
            "positions": [
                -3.1011621002335454,
                -2.0217742510543135,
                1.3307620892093956,
                0.10146140860855346,
                -0.4486206152040086,
                -2.0230453145708482
            ]
        },
        {
            "positions": [
                -3.0540903311661616,
                -1.9544955074023016,
                1.3819520657647135,
                0.04296539547092745,
                -0.3685789427817002,
                -2.100736285781056
            ]
        },
        {
            "positions": [
                -3.007018562098778,
                -1.8872167637502897,
                1.4331420423200314,
                -0.015530617666698554,
                -0.2885372703593919,
                -2.178427256991264
            ]
        },
        {
            "positions": [
                -2.9599467930313943,
                -1.819938020098278,
                1.4843320188753493,
                -0.07402663080432456,
                -0.2084955979370836,
                -2.256118228201472
            ]
        },
        {
            "positions": [
                -2.9128750239640104,
                -1.752659276446266,
                1.5355219954306671,
                -0.13252264394195057,
                -0.12845392551477525,
                -2.3338091994116796
            ]
        },
        {
            "positions": [
                -2.865803254896627,
                -1.6853805327942541,
                1.586711971985985,
                -0.1910186570795766,
                -0.04841225309246694,
                -2.4115001706218875
            ]
        },
        {
            "positions": [
                -2.818731485829243,
                -1.6181017891422422,
                1.6379019485413027,
                -0.24951467021720258,
                0.03162941932984137,
                -2.4891911418320953
            ]
        },
        {
            "positions": [
                -2.7716597167618593,
                -1.5508230454902305,
                1.6890919250966205,
                -0.30801068335482856,
                0.11167109175214968,
                -2.566882113042303
            ]
        },
        {
            "positions": [
                -2.7245879476944754,
                -1.4835443018382186,
                1.7402819016519384,
                -0.3665066964924546,
                0.1917127641744581,
                -2.644573084252511
            ]
        },
        {
            "positions": [
                -2.677516178627092,
                -1.4162655581862067,
                1.7914718782072563,
                -0.4250027096300806,
                0.2717544365967663,
                -2.722264055462719
            ]
        },
        {
            "positions": [
                -2.630444409559708,
                -1.3489868145341948,
                1.8426618547625742,
                -0.48349872276770667,
                0.3517961090190747,
                -2.7999550266729267
            ]
        },
        {
            "positions": [
                -2.5833726404923247,
                -1.2817080708821829,
                1.893851831317892,
                -0.5419947359053325,
                0.431837781441383,
                -2.8776459978831346
            ]
        },
        {
            "positions": [
                -2.536300871424941,
                -1.214429327230171,
                1.94504180787321,
                -0.6004907490429586,
                0.5118794538636913,
                -2.9553369690933424
            ]
        },
        {
            "positions": [
                -2.489229102357557,
                -1.1471505835781592,
                1.9962317844285278,
                -0.6589867621805846,
                0.5919211262859997,
                -3.0330279403035503
            ]
        },
        {
            "positions": [
                -2.481669600487195,
                -1.1550917468826871,
                2.00295346844006,
                -0.7457102461609599,
                0.6281672525293668,
                -3.091948279393514
            ]
        },
        {
            "positions": [
                -2.474110098616834,
                -1.163032910187215,
                2.0096751524515923,
                -0.8324337301413351,
                0.6644133787727339,
                -3.150868618483478
            ]
        }
    ]
}