{
    "goal": {
        "global_pose": {
            "orientation": {
                "w": 0.7047431468963623,
                "x": -0.7094548344612122,
                "y": 0.0024358443915843964,
                "z": -0.0022348060738295317
            },
            "position": {
                "x": 0.6094750761985779,
                "y": 0.3671506643295288,
                "z": 0.19426114857196808
            }
        },
        "name": "move_to_magneteinheit_A"
    },
    "id": "BiTRRT_move_to_magneteinheit_A_134",
    "joint_names": [
        "shoulder_pan_joint",
        "shoulder_lift_joint",
        "elbow_joint",
        "wrist_1_joint",
        "wrist_2_joint",
        "wrist_3_joint"
    ],
    "metrics": {
        "cart_traj_len": 3.191881039105375,
        "distance_elbow_joint": 3.9143465079000093,
        "distance_shoulder_lift_joint": 0.46669245162308304,
        "distance_shoulder_pan_joint": 2.795989652792165,
        "distance_wrist_1_joint": 3.4749746683323686,
        "distance_wrist_2_joint": 1.4375977421659445,
        "distance_wrist_3_joint": 0.4437518130044335,
        "smoothness": 0.07761222848323311,
        "time": 0.163536446,
        "traj_len": 3.54024756702381,
        "weighted_distance": 4.281755349424484
    },
    "planner": "BiTRRT",
    "start": {
        "state": {
            "elbow_joint": -1.9196185241190666,
            "shoulder_lift_joint": -1.2443396400964142,
            "shoulder_pan_joint": 2.6996025414629847,
            "wrist_1_joint": -1.5485510000780065,
            "wrist_2_joint": -1.5709468930060704,
            "wrist_3_joint": 0.4420197071253992
        }
    },
    "waypoints": [
        {
            "positions": [
                2.6996025414629847,
                -1.2443396400964142,
                -1.9196185241190666,
                -1.5485510000780065,
                -1.5709468930060704,
                0.4420197071253992
            ]
        },
        {
            "positions": [
                2.588776662644901,
                -1.23018081955105,
                -1.8169483781511409,
                -1.445819276045247,
                -1.5160597029295493,
                0.4315087627079687
            ]
        },
        {
            "positions": [
                2.4779507838268175,
                -1.2160219990056855,
                -1.7142782321832153,
                -1.3430875520124874,
                -1.461172512853028,
                0.4209978182905382
            ]
        },
        {
            "positions": [
                2.3671249050087337,
                -1.2018631784603213,
                -1.6116080862152895,
                -1.240355827979728,
                -1.4062853227765069,
                0.4104868738731077
            ]
        },
        {
            "positions": [
                2.25629902619065,
                -1.1877043579149569,
                -1.508937940247364,
                -1.1376241039469683,
                -1.3513981326999855,
                0.3999759294556772
            ]
        },
        {
            "positions": [
                2.1454731473725666,
                -1.1735455373695927,
                -1.4062677942794382,
                -1.034892379914209,
                -1.2965109426234644,
                0.3894649850382467
            ]
        },
        {
            "positions": [
                2.0346472685544827,
                -1.1593867168242282,
                -1.3035976483115124,
                -0.9321606558814494,
                -1.2416237525469431,
                0.3789540406208163
            ]
        },
        {
            "positions": [
                1.923821389736399,
                -1.145227896278864,
                -1.2009275023435868,
                -0.8294289318486898,
                -1.186736562470422,
                0.3684430962033858
            ]
        },
        {
            "positions": [
                1.8129955109183151,
                -1.1310690757334996,
                -1.098257356375661,
                -0.7266972078159303,
                -1.1318493723939007,
                0.3579321517859553
            ]
        },
        {
            "positions": [
                1.7021696321002313,
                -1.1169102551881354,
                -0.9955872104077352,
                -0.6239654837831706,
                -1.0769621823173796,
                0.3474212073685248
            ]
        },
        {
            "positions": [
                1.591343753282148,
                -1.1027514346427711,
                -0.8929170644398097,
                -0.5212337597504113,
                -1.0220749922408583,
                0.3369102629510943
            ]
        },
        {
            "positions": [
                1.4805178744640641,
                -1.0885926140974067,
                -0.7902469184718839,
                -0.41850203571765165,
                -0.9671878021643372,
                0.3263993185336638
            ]
        },
        {
            "positions": [
                1.3696919956459805,
                -1.0744337935520425,
                -0.6875767725039583,
                -0.3157703116848922,
                -0.9123006120878161,
                0.31588837411623333
            ]
        },
        {
            "positions": [
                1.2588661168278967,
                -1.060274973006678,
                -0.5849066265360323,
                -0.21303858765213257,
                -0.8574134220112948,
                0.3053774296988028
            ]
        },
        {
            "positions": [
                1.1480402380098131,
                -1.0461161524613138,
                -0.48223648056810675,
                -0.11030686361937314,
                -0.8025262319347736,
                0.2948664852813723
            ]
        },
        {
            "positions": [
                1.0372143591917296,
                -1.0319573319159494,
                -0.3795663346001812,
                -0.0075751395866137106,
                -0.7476390418582525,
                0.2843555408639419
            ]
        },
        {
            "positions": [
                0.9263884803736457,
                -1.0177985113705852,
                -0.2768961886322554,
                0.09515658444614594,
                -0.6927518517817312,
                0.2738445964465114
            ]
        },
        {
            "positions": [
                0.8155626015555619,
                -1.0036396908252208,
                -0.17422604266432962,
                0.1978883084789056,
                -0.6378646617052101,
                0.2633336520290809
            ]
        },
        {
            "positions": [
                0.7047367227374781,
                -0.9894808702798565,
                -0.07155589669640383,
                0.30062003251166525,
                -0.5829774716286887,
                0.2528227076116504
            ]
        },
        {
            "positions": [
                0.5939108439193945,
                -0.9753220497344921,
                0.031114249271521732,
                0.4033517565444247,
                -0.5280902815521675,
                0.2423117631942199
            ]
        },
        {
            "positions": [
                0.48308496510131116,
                -0.9611632291891279,
                0.1337843952394473,
                0.5060834805771839,
                -0.47320309147564643,
                0.2318008187767894
            ]
        },
        {
            "positions": [
                0.37225908628322735,
                -0.9470044086437636,
                0.2364545412073733,
                0.6088152046099438,
                -0.4183159013991251,
                0.2212898743593589
            ]
        },
        {
            "positions": [
                0.2614332074651435,
                -0.9328455880983992,
                0.3391246871752989,
                0.7115469286427032,
                -0.3634287113226039,
                0.21077892994192843
            ]
        },
        {
            "positions": [
                0.2295789639918919,
                -0.9209765022440248,
                0.49438437164542137,
                0.8168337082330468,
                -0.35130111020715254,
                0.20447390811482946
            ]
        },
        {
            "positions": [
                0.19772472051864032,
                -0.9091074163896505,
                0.6496440561155439,
                0.9221204878233903,
                -0.3391735090917012,
                0.1981688862877305
            ]
        },
        {
            "positions": [
                0.16587047704538874,
                -0.8972383305352762,
                0.8049037405856663,
                1.0274072674137338,
                -0.3270459079762499,
                0.19186386446063153
            ]
        },
        {
            "positions": [
                0.13401623357213716,
                -0.8853692446809018,
                0.9601634250557888,
                1.1326940470040774,
                -0.3149183068607985,
                0.18555884263353256
            ]
        },
        {
            "positions": [
                0.10981816360272813,
                -0.871062538625741,
                1.1520087524737563,
                1.2595285153872096,
                -0.3012787509126134,
                0.17378427471587046
            ]
        },
        {
            "positions": [
                0.0856200936333191,
                -0.8567558325705803,
                1.3438540798917238,
                1.3863629837703417,
                -0.2876391949644283,
                0.16200970679820836
            ]
        },
        {
            "positions": [
                0.06142202366391007,
                -0.8424491265154195,
                1.535699407309691,
                1.5131974521534737,
                -0.27399963901624325,
                0.15023513888054624
            ]
        },
        {
            "positions": [
                0.03722395369450103,
                -0.8281424204602588,
                1.7275447347276587,
                1.640031920536606,
                -0.26036008306805813,
                0.13846057096288414
            ]
        },
        {
            "positions": [
                0.01302588372509201,
                -0.8138357144050979,
                1.9193900621456261,
                1.766866388919738,
                -0.24672052711987302,
                0.12668600304522204
            ]
        },
        {
            "positions": [
                0.054055756870444234,
                -0.8002650171806853,
                1.9476417827588701,
                1.8267003686702221,
                -0.20420626101496783,
                0.07852921219862591
            ]
        },
        {
            "positions": [
                0.09508563001579645,
                -0.7866943199562728,
                1.975893503372114,
                1.8865343484207062,
                -0.16169199491006264,
                0.030372421352029763
            ]
        },
        {
            "positions": [
                0.1224388787793646,
                -0.7776471884733311,
                1.994727983780943,
                1.9264236682543625,
                -0.13334915084012583,
                -0.0017321058790343224
            ]
        }
    ]
}