{
    "goal": {
        "global_pose": {
            "orientation": {
                "w": -0.00223480608172531,
                "x": 0.0024358444001904467,
                "y": 0.7094548369677653,
                "z": -0.704743149386269
            },
            "position": {
                "x": -0.37947507619857795,
                "y": -0.6371506643295288,
                "z": 0.19426114857196808
            }
        },
        "name": "move_to_magneteinheit_C"
    },
    "id": "BiTRRT_move_to_magneteinheit_C_110",
    "joint_names": [
        "shoulder_pan_joint",
        "shoulder_lift_joint",
        "elbow_joint",
        "wrist_1_joint",
        "wrist_2_joint",
        "wrist_3_joint"
    ],
    "metrics": {
        "cart_traj_len": 0.9209271277073219,
        "distance_elbow_joint": 0.5265712228835211,
        "distance_shoulder_lift_joint": 0.4738737409413014,
        "distance_shoulder_pan_joint": 1.329055355322655,
        "distance_wrist_1_joint": 0.8247533946449009,
        "distance_wrist_2_joint": 0.8645892431977726,
        "distance_wrist_3_joint": 1.069889440489157,
        "smoothness": 1.9424289784313122,
        "time": 0.10080627,
        "traj_len": 2.255821889573578,
        "weighted_distance": 2.9862776020156425
    },
    "planner": "BiTRRT",
    "start": {
        "state": {
            "elbow_joint": 1.9565354010623817,
            "shoulder_lift_joint": -1.4165861575791021,
            "shoulder_pan_joint": -1.6717766225146293,
            "wrist_1_joint": -0.5286633292919765,
            "wrist_2_joint": 1.472756589071564,
            "wrist_3_joint": -3.1238370188695823
        }
    },
    "waypoints": [
        {
            "positions": [
                -1.6717766225146293,
                -1.4165861575791021,
                1.9565354010623817,
                -0.5286633292919765,
                1.472756589071564,
                -3.1238370188695823
            ]
        },
        {
            "positions": [
                -1.6074066561718232,
                -1.4344843857094896,
                1.9370305921055193,
                -0.4705740574453493,
                1.3719445135338477,
                -3.1583851144095982
            ]
        },
        {
            "positions": [
                -1.543036689829017,
                -1.4523826138398772,
                1.9175257831486567,
                -0.4124847855987221,
                1.2711324379961315,
                -3.1929332099496137
            ]
        },
        {
            "positions": [
                -1.695135923337391,
                -1.463192387869584,
                1.9591132823530677,
                -0.3918182384958033,
                1.1819790255770934,
                -3.117964484111136
            ]
        },
        {
            "positions": [
                -1.8472351568457652,
                -1.4740021618992911,
                2.000700781557479,
                -0.3711516913928844,
                1.0928256131580554,
                -3.042995758272658
            ]
        },
        {
            "positions": [
                -1.9993343903541392,
                -1.484811935928998,
                2.04228828076189,
                -0.3504851442899656,
                1.0036722007390173,
                -2.96802703243418
            ]
        },
        {
            "positions": [
                -2.151433623862513,
                -1.4956217099587048,
                2.083875779966301,
                -0.3298185971870467,
                0.9145187883199792,
                -2.8930583065957016
            ]
        },
        {
            "positions": [
                -2.3035328573708873,
                -1.5064314839884116,
                2.1254632791707118,
                -0.3091520500841279,
                0.8253653759009412,
                -2.8180895807572237
            ]
        },
        {
            "positions": [
                -2.455632090879261,
                -1.5172412580181187,
                2.1670507783751227,
                -0.288485502981209,
                0.7362119634819031,
                -2.743120854918746
            ]
        },
        {
            "positions": [
                -2.607731324387635,
                -1.5280510320478256,
                2.2086382775795337,
                -0.2678189558782902,
                0.647058551062865,
                -2.668152129080268
            ]
        },
        {
            "positions": [
                -2.58060716677195,
                -1.45556925875331,
                2.16934845547175,
                -0.38060076012453314,
                0.6548367921006798,
                -2.7633545627882237
            ]
        },
        {
            "positions": [
                -2.5534830091562655,
                -1.3830874854587945,
                2.130058633363966,
                -0.4933825643707761,
                0.6626150331384946,
                -2.85855699649618
            ]
        },
        {
            "positions": [
                -2.5263588515405804,
                -1.3106057121642787,
                2.090768811256182,
                -0.6061643686170191,
                0.6703932741763092,
                -2.9537594302041357
            ]
        },
        {
            "positions": [
                -2.4992346939248957,
                -1.2381239388697631,
                2.051478989148398,
                -0.718946172863262,
                0.678171515214124,
                -3.048961863912092
            ]
        },
        {
            "positions": [
                -2.4721105363092106,
                -1.1656421655752476,
                2.0121891670406145,
                -0.8317279771095049,
                0.6859497562519388,
                -3.1441642976200477
            ]
        }
    ]
}