{
    "goal": {
        "global_pose": {
            "orientation": {
                "w": -0.4816463035849501,
                "x": 0.5182115481033762,
                "y": 0.4908360881923453,
                "z": -0.5084816262002911
            },
            "position": {
                "x": -0.8240239810943604,
                "y": 0.19912469901144506,
                "z": 0.16403168439865112
            }
        },
        "name": "move_to_storage_D"
    },
    "id": "BiTRRT_move_to_storage_D_84",
    "joint_names": [
        "shoulder_pan_joint",
        "shoulder_lift_joint",
        "elbow_joint",
        "wrist_1_joint",
        "wrist_2_joint",
        "wrist_3_joint"
    ],
    "metrics": {
        "cart_traj_len": 3.659036671381316,
        "distance_elbow_joint": 5.701470000923558,
        "distance_shoulder_lift_joint": 1.2639565547152336,
        "distance_shoulder_pan_joint": 2.8139787748402654,
        "distance_wrist_1_joint": 2.306890734777639,
        "distance_wrist_2_joint": 1.895106057950014,
        "distance_wrist_3_joint": 3.2563625153449314,
        "smoothness": 0.2874898962451172,
        "time": 0.153782595,
        "traj_len": 4.151838705748532,
        "weighted_distance": 5.2870111085536005
    },
    "planner": "BiTRRT",
    "start": {
        "state": {
            "elbow_joint": -2.384821988534728,
            "shoulder_lift_joint": -2.2788054721415256,
            "shoulder_pan_joint": -0.1854694642142757,
            "wrist_1_joint": 1.4845938289331202,
            "wrist_2_joint": 0.17898776772866878,
            "wrist_3_joint": 0.037105688729662994
        }
    },
    "waypoints": [
        {
            "positions": [
                -0.1854694642142757,
                -2.2788054721415256,
                -2.384821988534728,
                1.4845938289331202,
                0.17898776772866878,
                0.037105688729662994
            ]
        },
        {
            "positions": [
                -0.09652383717161535,
                -2.272106387186115,
                -2.3685307150267354,
                1.506345662654081,
                0.0854879507069825,
                0.0929755711019818
            ]
        },
        {
            "positions": [
                -0.06128940591091233,
                -2.254240176570421,
                -2.1627066229175282,
                1.457352117257747,
                0.07682274592686258,
                0.026501037131667363
            ]
        },
        {
            "positions": [
                -0.02605497465020931,
                -2.2363739659547277,
                -1.9568825308083206,
                1.4083585718614131,
                0.06815754114674268,
                -0.03997349683864708
            ]
        },
        {
            "positions": [
                0.009179456610493714,
                -2.2185077553390338,
                -1.7510584386991135,
                1.3593650264650794,
                0.05949233636662276,
                -0.10644803080896155
            ]
        },
        {
            "positions": [
                0.044413887871196725,
                -2.2006415447233403,
                -1.545234346589906,
                1.3103714810687455,
                0.05082713158650285,
                -0.17292256477927598
            ]
        },
        {
            "positions": [
                0.07964831913189975,
                -2.1827753341076463,
                -1.3394102544806987,
                1.2613779356724115,
                0.042161926806382935,
                -0.23939709874959048
            ]
        },
        {
            "positions": [
                0.11488275039260278,
                -2.164909123491953,
                -1.1335861623714913,
                1.2123843902760776,
                0.033496722026263026,
                -0.3058716327199049
            ]
        },
        {
            "positions": [
                0.1501171816533058,
                -2.147042912876259,
                -0.927762070262284,
                1.1633908448797436,
                0.02483151724614311,
                -0.3723461666902194
            ]
        },
        {
            "positions": [
                0.1853516129140088,
                -2.1291767022605654,
                -0.7219379781530768,
                1.11439729948341,
                0.016166312466023208,
                -0.43882070066053375
            ]
        },
        {
            "positions": [
                0.22058604417471184,
                -2.1113104916448715,
                -0.5161138860438692,
                1.0654037540870758,
                0.007501107685903299,
                -0.5052952346308482
            ]
        },
        {
            "positions": [
                0.25582047543541486,
                -2.0934442810291776,
                -0.31028979393466205,
                1.016410208690742,
                -0.0011640970942166234,
                -0.5717697686011627
            ]
        },
        {
            "positions": [
                0.2910549066961179,
                -2.075578070413484,
                -0.10446570182545489,
                0.9674166632944081,
                -0.009829301874336532,
                -0.6382443025714771
            ]
        },
        {
            "positions": [
                0.3262893379568209,
                -2.05771185979779,
                0.10135839028375271,
                0.9184231178980742,
                -0.01849450665445644,
                -0.7047188365417916
            ]
        },
        {
            "positions": [
                0.3615237692175239,
                -2.0398456491820967,
                0.30718248239295987,
                0.8694295725017404,
                -0.02715971143457635,
                -0.771193370512106
            ]
        },
        {
            "positions": [
                0.39675820047822696,
                -2.0219794385664027,
                0.5130065745021675,
                0.8204360271054063,
                -0.03582491621469627,
                -0.8376679044824206
            ]
        },
        {
            "positions": [
                0.43199263173892993,
                -2.0041132279507092,
                0.7188306666113746,
                0.7714424817090725,
                -0.04449012099481618,
                -0.9041424384527349
            ]
        },
        {
            "positions": [
                0.46722706299963296,
                -1.9862470173350153,
                0.9246547587205818,
                0.7224489363127387,
                -0.05315532577493608,
                -0.9706169724230492
            ]
        },
        {
            "positions": [
                0.502461494260336,
                -1.9683808067193216,
                1.1304788508297894,
                0.6734553909164046,
                -0.061820530555056,
                -1.037091506393364
            ]
        },
        {
            "positions": [
                0.537695925521039,
                -1.9505145961036279,
                1.336302942938997,
                0.6244618455200708,
                -0.0704857353351759,
                -1.1035660403636784
            ]
        },
        {
            "positions": [
                0.572930356781742,
                -1.9326483854879342,
                1.5421270350482041,
                0.575468300123737,
                -0.07915094011529582,
                -1.1700405743339928
            ]
        },
        {
            "positions": [
                0.608164788042445,
                -1.9147821748722405,
                1.7479511271574113,
                0.5264747547274029,
                -0.08781614489541574,
                -1.2365151083043073
            ]
        },
        {
            "positions": [
                0.643399219303148,
                -1.8969159642565465,
                1.9537752192666185,
                0.47748120933106897,
                -0.09648134967553564,
                -1.3029896422746217
            ]
        },
        {
            "positions": [
                0.678633650563851,
                -1.8790497536408528,
                2.1595993113758256,
                0.42848766393473525,
                -0.10514655445565556,
                -1.3694641762449362
            ]
        },
        {
            "positions": [
                0.7138680818245541,
                -1.861183543025159,
                2.3654234034850337,
                0.3794941185384013,
                -0.11381175923577548,
                -1.4359387102152508
            ]
        },
        {
            "positions": [
                0.7491025130852571,
                -1.8433173324094654,
                2.571247495594241,
                0.3305005731420674,
                -0.12247696401589536,
                -1.502413244185565
            ]
        },
        {
            "positions": [
                0.8476180905389559,
                -1.8243801467412424,
                2.5282898975983925,
                0.22216742529173916,
                -0.1429372061231572,
                -1.5801076840711252
            ]
        },
        {
            "positions": [
                0.9461336679926546,
                -1.8054429610730196,
                2.485332299602544,
                0.11383427744141095,
                -0.16339744823041902,
                -1.6578021239566854
            ]
        },
        {
            "positions": [
                1.0446492454463534,
                -1.7865057754047966,
                2.442374701606696,
                0.005501129591082732,
                -0.18385769033768085,
                -1.7354965638422455
            ]
        },
        {
            "positions": [
                1.1431648229000522,
                -1.7675685897365738,
                2.3994171036108476,
                -0.10283201825924548,
                -0.2043179324449427,
                -1.8131910037278058
            ]
        },
        {
            "positions": [
                1.2416804003537507,
                -1.7486314040683508,
                2.3564595056149997,
                -0.2111651661095737,
                -0.22477817455220453,
                -1.890885443613366
            ]
        },
        {
            "positions": [
                1.3401959778074497,
                -1.7296942184001278,
                2.3135019076191514,
                -0.3194983139599019,
                -0.24523841665946636,
                -1.968579883498926
            ]
        },
        {
            "positions": [
                1.4387115552611482,
                -1.710757032731905,
                2.270544309623303,
                -0.42783146181023013,
                -0.26569865876672816,
                -2.0462743233844862
            ]
        },
        {
            "positions": [
                1.5372271327148472,
                -1.691819847063682,
                2.227586711627455,
                -0.5361646096605583,
                -0.28615890087399004,
                -2.1239687632700464
            ]
        },
        {
            "positions": [
                1.6357427101685458,
                -1.6728826613954593,
                2.1846291136316065,
                -0.6444977575108866,
                -0.30661914298125187,
                -2.2016632031556065
            ]
        },
        {
            "positions": [
                1.7342582876222445,
                -1.6539454757272363,
                2.141671515635758,
                -0.7528309053612149,
                -0.3270793850885137,
                -2.2793576430411666
            ]
        },
        {
            "positions": [
                1.8155538351680396,
                -1.5958457886089685,
                2.1129601941052027,
                -0.7551911174558861,
                -0.200803120985529,
                -2.3546448629347543
            ]
        },
        {
            "positions": [
                1.8968493827138346,
                -1.537746101490701,
                2.0842488725746477,
                -0.7575513295505574,
                -0.07452685688254429,
                -2.429932082828342
            ]
        },
        {
            "positions": [
                1.9781449302596295,
                -1.4796464143724333,
                2.0555375510440923,
                -0.7599115416452286,
                0.05174940722044036,
                -2.5052193027219296
            ]
        },
        {
            "positions": [
                2.0594404778054245,
                -1.4215467272541655,
                2.026826229513537,
                -0.7622717537398997,
                0.17802567132342512,
                -2.5805065226155173
            ]
        },
        {
            "positions": [
                2.1407360253512193,
                -1.363447040135898,
                1.9981149079829816,
                -0.7646319658345709,
                0.30430193542640976,
                -2.655793742509105
            ]
        },
        {
            "positions": [
                2.2220315728970146,
                -1.3053473530176303,
                1.9694035864524264,
                -0.7669921779292422,
                0.4305781995293944,
                -2.7310809624026926
            ]
        },
        {
            "positions": [
                2.3033271204428094,
                -1.2472476658993625,
                1.940692264921871,
                -0.7693523900239134,
                0.5568544636323791,
                -2.8063681822962803
            ]
        },
        {
            "positions": [
                2.3846226679886047,
                -1.189147978781095,
                1.9119809433913157,
                -0.7717126021185846,
                0.683130727735364,
                -2.881655402189868
            ]
        },
        {
            "positions": [
                2.4659182155343995,
                -1.1310482916628273,
                1.8832696218607605,
                -0.7740728142132558,
                0.8094069918383486,
                -2.9569426220834556
            ]
        },
        {
            "positions": [
                2.5472137630801948,
                -1.0729486045445595,
                1.854558300330205,
                -0.7764330263079271,
                0.9356832559413333,
                -3.0322298419770433
            ]
        },
        {
            "positions": [
                2.6285093106259896,
                -1.014848917426292,
                1.8258469787996499,
                -0.7787932384025983,
                1.061959520044318,
                -3.107517061870631
            ]
        }
    ]
}