{
    "goal": {
        "global_pose": {
            "orientation": {
                "w": 0.7047431468963623,
                "x": -0.7094548344612122,
                "y": 0.0024358443915843964,
                "z": -0.0022348060738295317
            },
            "position": {
                "x": 0.6094750761985779,
                "y": 0.3671506643295288,
                "z": 0.19426114857196808
            }
        },
        "name": "move_to_magneteinheit_A"
    },
    "id": "BiTRRT_move_to_magneteinheit_A_67",
    "joint_names": [
        "shoulder_pan_joint",
        "shoulder_lift_joint",
        "elbow_joint",
        "wrist_1_joint",
        "wrist_2_joint",
        "wrist_3_joint"
    ],
    "metrics": {
        "cart_traj_len": 3.1266924518011563,
        "distance_elbow_joint": 3.924365512479624,
        "distance_shoulder_lift_joint": 0.46181670003210773,
        "distance_shoulder_pan_joint": 2.787375468700572,
        "distance_wrist_1_joint": 3.5148977163857626,
        "distance_wrist_2_joint": 1.564711641388279,
        "distance_wrist_3_joint": 0.6325155655615552,
        "smoothness": 0.22978228529662592,
        "time": 0.128152374,
        "traj_len": 3.5896632996073454,
        "weighted_distance": 4.385239228758798
    },
    "planner": "BiTRRT",
    "start": {
        "state": {
            "elbow_joint": -1.9196185241190666,
            "shoulder_lift_joint": -1.2443396400964142,
            "shoulder_pan_joint": 2.6996025414629847,
            "wrist_1_joint": -1.5485510000780065,
            "wrist_2_joint": -1.5709468930060704,
            "wrist_3_joint": 0.4420197071253992
        }
    },
    "waypoints": [
        {
            "positions": [
                2.6996025414629847,
                -1.2443396400964142,
                -1.9196185241190666,
                -1.5485510000780065,
                -1.5709468930060704,
                0.4420197071253992
            ]
        },
        {
            "positions": [
                2.5996744126848617,
                -1.2356838323644062,
                -1.8145908692712533,
                -1.4458516654603204,
                -1.518247610330088,
                0.4295457745228051
            ]
        },
        {
            "positions": [
                2.4997462839067386,
                -1.227028024632398,
                -1.70956321442344,
                -1.3431523308426343,
                -1.4655483276541055,
                0.4170718419202111
            ]
        },
        {
            "positions": [
                2.3998181551286155,
                -1.2183722169003899,
                -1.604535559575627,
                -1.2404529962249482,
                -1.412849044978123,
                0.404597909317617
            ]
        },
        {
            "positions": [
                2.299890026350493,
                -1.2097164091683816,
                -1.4995079047278137,
                -1.137753661607262,
                -1.3601497623021406,
                0.39212397671502297
            ]
        },
        {
            "positions": [
                2.19996189757237,
                -1.2010606014363736,
                -1.3944802498800004,
                -1.035054326989576,
                -1.3074504796261581,
                0.3796500441124289
            ]
        },
        {
            "positions": [
                2.1000337687942467,
                -1.1924047937043656,
                -1.2894525950321871,
                -0.9323549923718899,
                -1.2547511969501757,
                0.36717611150983487
            ]
        },
        {
            "positions": [
                2.0001056400161237,
                -1.1837489859723573,
                -1.1844249401843738,
                -0.8296556577542038,
                -1.2020519142741932,
                0.3547021789072408
            ]
        },
        {
            "positions": [
                1.9001775112380008,
                -1.1750931782403493,
                -1.0793972853365608,
                -0.7269563231365177,
                -1.149352631598211,
                0.34222824630464677
            ]
        },
        {
            "positions": [
                1.8002493824598778,
                -1.1664373705083413,
                -0.9743696304887474,
                -0.6242569885188316,
                -1.0966533489222283,
                0.3297543137020527
            ]
        },
        {
            "positions": [
                1.7003212536817547,
                -1.157781562776333,
                -0.869341975640934,
                -0.5215576539011455,
                -1.043954066246246,
                0.31728038109945866
            ]
        },
        {
            "positions": [
                1.6003931249036318,
                -1.149125755044325,
                -0.7643143207931209,
                -0.4188583192834594,
                -0.9912547835702635,
                0.3048064484968646
            ]
        },
        {
            "positions": [
                1.5004649961255088,
                -1.140469947312317,
                -0.6592866659453076,
                -0.3161589846657733,
                -0.9385555008942811,
                0.29233251589427056
            ]
        },
        {
            "positions": [
                1.400536867347386,
                -1.1318141395803087,
                -0.5542590110974945,
                -0.2134596500480872,
                -0.8858562182182987,
                0.2798585832916765
            ]
        },
        {
            "positions": [
                1.3006087385692626,
                -1.1231583318483007,
                -0.449231356249681,
                -0.1107603154304011,
                -0.8331569355423162,
                0.26738465068908246
            ]
        },
        {
            "positions": [
                1.2006806097911398,
                -1.1145025241162925,
                -0.34420370140186796,
                -0.008060980812715002,
                -0.7804576528663337,
                0.2549107180864884
            ]
        },
        {
            "positions": [
                1.100752481013017,
                -1.1058467163842844,
                -0.23917604655405467,
                0.0946383538049711,
                -0.7277583701903514,
                0.24243678548389436
            ]
        },
        {
            "positions": [
                1.0008243522348936,
                -1.0971909086522764,
                -0.13414839170624115,
                0.1973376884226572,
                -0.6750590875143688,
                0.2299628528813003
            ]
        },
        {
            "positions": [
                0.9008962234567708,
                -1.0885351009202682,
                -0.029120736858428087,
                0.3000370230403433,
                -0.6223598048383865,
                0.21748892027870625
            ]
        },
        {
            "positions": [
                0.8009680946786479,
                -1.0798792931882601,
                0.07590691798938498,
                0.4027363576580294,
                -0.569660522162404,
                0.2050149876761122
            ]
        },
        {
            "positions": [
                0.7010399659005246,
                -1.071223485456252,
                0.18093457283719871,
                0.5054356922757155,
                -0.5169612394864216,
                0.19254105507351815
            ]
        },
        {
            "positions": [
                0.6011118371224016,
                -1.0625676777242439,
                0.2859622276850118,
                0.6081350268934014,
                -0.46426195681043914,
                0.1800671224709241
            ]
        },
        {
            "positions": [
                0.5011837083442789,
                -1.0539118699922359,
                0.39098988253282485,
                0.7108343615110877,
                -0.4115626741344567,
                0.16759318986833005
            ]
        },
        {
            "positions": [
                0.4012555795661559,
                -1.0452560622602276,
                0.49601753738063836,
                0.813533696128774,
                -0.35886339145847423,
                0.155119257265736
            ]
        },
        {
            "positions": [
                0.3013274507880328,
                -1.0366002545282196,
                0.6010451922284514,
                0.9162330307464598,
                -0.3061641087824918,
                0.14264532466314195
            ]
        },
        {
            "positions": [
                0.2581119370921626,
                -1.0272080888007467,
                0.7035054136918265,
                0.9941715812500883,
                -0.2765831381252046,
                0.12443148935861079
            ]
        },
        {
            "positions": [
                0.21489642339629245,
                -1.0178159230732737,
                0.8059656351552015,
                1.0721101317537167,
                -0.24700216746791734,
                0.10621765405407962
            ]
        },
        {
            "positions": [
                0.17168090970042227,
                -1.0084237573458008,
                0.9084258566185766,
                1.1500486822573452,
                -0.2174211968106301,
                0.08800381874954845
            ]
        },
        {
            "positions": [
                0.14966935690694738,
                -0.9866350300342466,
                1.0488788661402233,
                1.255594872109288,
                -0.19604085986008354,
                0.058270884146257904
            ]
        },
        {
            "positions": [
                0.1276578041134725,
                -0.9648463027226925,
                1.1893318756618703,
                1.3611410619612307,
                -0.17466052290953699,
                0.02853794954296735
            ]
        },
        {
            "positions": [
                0.10564625131999762,
                -0.9430575754111382,
                1.329784885183517,
                1.4666872518131737,
                -0.1532801859589904,
                -0.0011949850603232004
            ]
        },
        {
            "positions": [
                0.08363469852652274,
                -0.921268848099584,
                1.4702378947051638,
                1.5722334416651165,
                -0.13189984900844387,
                -0.030927919663613745
            ]
        },
        {
            "positions": [
                0.06162314573304785,
                -0.8994801207880297,
                1.6106909042268107,
                1.6777796315170592,
                -0.11051951205789728,
                -0.060660854266904304
            ]
        },
        {
            "positions": [
                0.039611592939572976,
                -0.8776913934764756,
                1.7511439137484572,
                1.7833258213690022,
                -0.08913917510735073,
                -0.09039378887019485
            ]
        },
        {
            "positions": [
                0.01760004014609808,
                -0.8559026661649214,
                1.8915969232701042,
                1.888872011220945,
                -0.06775883815680417,
                -0.12012672347348538
            ]
        },
        {
            "positions": [
                0.07028652383794033,
                -0.819212803114614,
                1.948171955815331,
                1.9276093637643503,
                -0.09852063142631064,
                -0.08494215599215005
            ]
        },
        {
            "positions": [
                0.12297300752978257,
                -0.7825229400643064,
                2.0047469883605578,
                1.9663467163077557,
                -0.1292824246958171,
                -0.0497575885108147
            ]
        }
    ]
}