{
    "goal": {
        "global_pose": {
            "orientation": {
                "w": 0.005598929693374612,
                "x": 0.007748599140229565,
                "y": 0.7110244013736278,
                "z": -0.7031023480610252
            },
            "position": {
                "x": 0.1141497679147869,
                "y": -0.7141253447532654,
                "z": 0.3711530566215515
            }
        },
        "name": "move_to_auspresseinheit_B"
    },
    "id": "BiTRRT_move_to_auspresseinheit_B_9",
    "joint_names": [
        "shoulder_pan_joint",
        "shoulder_lift_joint",
        "elbow_joint",
        "wrist_1_joint",
        "wrist_2_joint",
        "wrist_3_joint"
    ],
    "metrics": {
        "cart_traj_len": 0.5648844344391456,
        "distance_elbow_joint": 0.06303692518267656,
        "distance_shoulder_lift_joint": 0.2938224627607702,
        "distance_shoulder_pan_joint": 0.576671857670169,
        "distance_wrist_1_joint": 0.33057736326426146,
        "distance_wrist_2_joint": 1.0007653208529241,
        "distance_wrist_3_joint": 0.005230947868593017,
        "smoothness": 0.0,
        "time": 0.053854793,
        "traj_len": 1.5066867217837272,
        "weighted_distance": 1.9005024223751377
    },
    "planner": "BiTRRT",
    "start": {
        "state": {
            "elbow_joint": 2.0193083361928714,
            "shoulder_lift_joint": -1.1220246554650708,
            "shoulder_pan_joint": -1.0952077554168747,
            "wrist_1_joint": -0.8559753972642168,
            "wrist_2_joint": 0.4759566250798843,
            "wrist_3_joint": -3.1240929996934557
        }
    },
    "waypoints": [
        {
            "positions": [
                -1.0952077554168747,
                -1.1220246554650708,
                2.0193083361928714,
                -0.8559753972642168,
                0.4759566250798843,
                -3.1240929996934557
            ]
        },
        {
            "positions": [
                -1.1913197316952362,
                -1.170995065925199,
                2.0088021819957587,
                -0.8008791700535065,
                0.6427508452220383,
                -3.124964824338221
            ]
        },
        {
            "positions": [
                -1.2874317079735977,
                -1.2199654763853276,
                1.998296027798646,
                -0.7457829428427963,
                0.8095450653641922,
                -3.1258366489829865
            ]
        },
        {
            "positions": [
                -1.383543684251959,
                -1.2689358868454559,
                1.9877898736015331,
                -0.6906867156320861,
                0.9763392855063464,
                -3.126708473627752
            ]
        },
        {
            "positions": [
                -1.4796556605303206,
                -1.3179062973055842,
                1.9772837194044204,
                -0.6355904884213759,
                1.1431335056485004,
                -3.127580298272518
            ]
        },
        {
            "positions": [
                -1.5757676368086821,
                -1.3668767077657127,
                1.9667775652073076,
                -0.5804942612106656,
                1.3099277257906545,
                -3.1284521229172833
            ]
        },
        {
            "positions": [
                -1.6718796130870437,
                -1.415847118225841,
                1.9562714110101949,
                -0.5253980339999553,
                1.4767219459328085,
                -3.1293239475620487
            ]
        }
    ]
}