{
    "goal": {
        "global_pose": {
            "orientation": {
                "w": 0.7031023502349854,
                "x": -0.7110244035720825,
                "y": 0.007748599164187908,
                "z": 0.005598929710686207
            },
            "position": {
                "x": 0.11585023208521307,
                "y": 0.44412534475326537,
                "z": 0.3711530566215515
            }
        },
        "name": "move_to_auspresseinheit_A"
    },
    "id": "BiTRRT_move_to_auspresseinheit_A_35",
    "joint_names": [
        "shoulder_pan_joint",
        "shoulder_lift_joint",
        "elbow_joint",
        "wrist_1_joint",
        "wrist_2_joint",
        "wrist_3_joint"
    ],
    "metrics": {
        "cart_traj_len": 0.6885800662635984,
        "distance_elbow_joint": 0.033814924755257714,
        "distance_shoulder_lift_joint": 0.5331016187924711,
        "distance_shoulder_pan_joint": 1.0437030167533683,
        "distance_wrist_1_joint": 0.5769332668530369,
        "distance_wrist_2_joint": 0.5283865021227871,
        "distance_wrist_3_joint": 0.05889963017335065,
        "smoothness": 6.908054371052768e-16,
        "time": 0.054880676,
        "traj_len": 1.6657847878553436,
        "weighted_distance": 1.9994894320232846
    },
    "planner": "BiTRRT",
    "start": {
        "state": {
            "elbow_joint": 2.4225746658250005,
            "shoulder_lift_joint": -1.3736534386056498,
            "shoulder_pan_joint": -0.3378633547517467,
            "wrist_1_joint": -1.0288598680537169,
            "wrist_2_joint": 1.233022673432363,
            "wrist_3_joint": -3.0940220416140027
        }
    },
    "waypoints": [
        {
            "positions": [
                -0.3378633547517467,
                -1.3736534386056498,
                2.4225746658250005,
                -1.0288598680537169,
                1.233022673432363,
                -3.0940220416140027
            ]
        },
        {
            "positions": [
                -0.20740047765757566,
                -1.4402911409547088,
                2.418347800230593,
                -0.9567432096970873,
                1.1669743606670147,
                -3.1013844953856715
            ]
        },
        {
            "positions": [
                -0.0769376005634046,
                -1.5069288433037675,
                2.414120934636186,
                -0.8846265513404576,
                1.1009260479016663,
                -3.1087469491573403
            ]
        },
        {
            "positions": [
                0.0535252765307665,
                -1.5735665456528265,
                2.409894069041779,
                -0.812509892983828,
                1.0348777351363179,
                -3.116109402929009
            ]
        },
        {
            "positions": [
                0.18398815362493753,
                -1.6402042480018855,
                2.4056672034473716,
                -0.7403932346271984,
                0.9688294223709695,
                -3.123471856700678
            ]
        },
        {
            "positions": [
                0.31445103071910857,
                -1.7068419503509442,
                2.4014403378529643,
                -0.6682765762705688,
                0.9027811096056211,
                -3.130834310472347
            ]
        },
        {
            "positions": [
                0.4449139078132797,
                -1.7734796527000032,
                2.3972134722585574,
                -0.5961599179139392,
                0.8367327968402727,
                -3.138196764244016
            ]
        },
        {
            "positions": [
                0.5753767849074507,
                -1.840117355049062,
                2.39298660666415,
                -0.5240432595573096,
                0.7706844840749243,
                -3.1455592180156846
            ]
        },
        {
            "positions": [
                0.7058396620016217,
                -1.906755057398121,
                2.3887597410697428,
                -0.45192660120067996,
                0.7046361713095759,
                -3.1529216717873534
            ]
        }
    ]
}