{
    "goal": {
        "global_pose": {
            "orientation": {
                "w": 0.005598929693374612,
                "x": 0.007748599140229565,
                "y": 0.7110244013736278,
                "z": -0.7031023480610252
            },
            "position": {
                "x": 0.1141497679147869,
                "y": -0.7141253447532654,
                "z": 0.3711530566215515
            }
        },
        "name": "move_to_auspresseinheit_B"
    },
    "id": "BiTRRT_move_to_auspresseinheit_B_83",
    "joint_names": [
        "shoulder_pan_joint",
        "shoulder_lift_joint",
        "elbow_joint",
        "wrist_1_joint",
        "wrist_2_joint",
        "wrist_3_joint"
    ],
    "metrics": {
        "cart_traj_len": 0.5646287232856929,
        "distance_elbow_joint": 0.0661258106253082,
        "distance_shoulder_lift_joint": 0.2927224422529864,
        "distance_shoulder_pan_joint": 0.5776644877859081,
        "distance_wrist_1_joint": 0.3362885283785779,
        "distance_wrist_2_joint": 0.9873750331323172,
        "distance_wrist_3_joint": 0.005009897828516241,
        "smoothness": 0.0,
        "time": 0.039919041,
        "traj_len": 1.505053553865647,
        "weighted_distance": 1.8970686748696108
    },
    "planner": "BiTRRT",
    "start": {
        "state": {
            "elbow_joint": 2.0193083361928714,
            "shoulder_lift_joint": -1.1220246554650708,
            "shoulder_pan_joint": -1.0952077554168747,
            "wrist_1_joint": -0.8559753972642168,
            "wrist_2_joint": 0.4759566250798843,
            "wrist_3_joint": -3.1240929996934557
        }
    },
    "waypoints": [
        {
            "positions": [
                -1.0952077554168747,
                -1.1220246554650708,
                2.0193083361928714,
                -0.8559753972642168,
                0.4759566250798843,
                -3.1240929996934557
            ]
        },
        {
            "positions": [
                -1.1914851700478593,
                -1.1708117291739017,
                2.00828736775532,
                -0.7999273092011204,
                0.6405191306019371,
                -3.123258016722036
            ]
        },
        {
            "positions": [
                -1.287762584678844,
                -1.219598802882733,
                1.9972663993177686,
                -0.7438792211380242,
                0.8050816361239901,
                -3.122423033750617
            ]
        },
        {
            "positions": [
                -1.3840399993098287,
                -1.268385876591564,
                1.9862454308802173,
                -0.6878311330749278,
                0.9696441416460428,
                -3.1215880507791978
            ]
        },
        {
            "positions": [
                -1.4803174139408133,
                -1.317172950300395,
                1.975224462442666,
                -0.6317830450118316,
                1.1342066471680958,
                -3.120753067807778
            ]
        },
        {
            "positions": [
                -1.5765948285717981,
                -1.365960024009226,
                1.9642034940051145,
                -0.5757349569487351,
                1.2987691526901486,
                -3.1199180848363586
            ]
        },
        {
            "positions": [
                -1.6728722432027827,
                -1.4147470977180572,
                1.9531825255675632,
                -0.5196868688856389,
                1.4633316582122016,
                -3.1190831018649394
            ]
        }
    ]
}