{
    "goal": {
        "global_pose": {
            "orientation": {
                "w": -0.00223480608172531,
                "x": 0.0024358444001904467,
                "y": 0.7094548369677653,
                "z": -0.704743149386269
            },
            "position": {
                "x": -0.37947507619857795,
                "y": -0.6371506643295288,
                "z": 0.19426114857196808
            }
        },
        "name": "move_to_magneteinheit_C"
    },
    "id": "BiTRRT_move_to_magneteinheit_C_60",
    "joint_names": [
        "shoulder_pan_joint",
        "shoulder_lift_joint",
        "elbow_joint",
        "wrist_1_joint",
        "wrist_2_joint",
        "wrist_3_joint"
    ],
    "metrics": {
        "cart_traj_len": 2.925717518873182,
        "distance_elbow_joint": 2.518519159631863,
        "distance_shoulder_lift_joint": 1.6727418352581744,
        "distance_shoulder_pan_joint": 1.009808694445513,
        "distance_wrist_1_joint": 7.8853457130742495,
        "distance_wrist_2_joint": 0.8095921268898896,
        "distance_wrist_3_joint": 3.229705620678196,
        "smoothness": 0.7971944847928958,
        "time": 0.189511339,
        "traj_len": 4.138322504346162,
        "weighted_distance": 5.681554561147715
    },
    "planner": "BiTRRT",
    "start": {
        "state": {
            "elbow_joint": 1.9565354010623817,
            "shoulder_lift_joint": -1.4165861575791021,
            "shoulder_pan_joint": -1.6717766225146293,
            "wrist_1_joint": -0.5286633292919765,
            "wrist_2_joint": 1.472756589071564,
            "wrist_3_joint": -3.1238370188695823
        }
    },
    "waypoints": [
        {
            "positions": [
                -1.6717766225146293,
                -1.4165861575791021,
                1.9565354010623817,
                -0.5286633292919765,
                1.472756589071564,
                -3.1238370188695823
            ]
        },
        {
            "positions": [
                -1.747525030473281,
                -1.4454234525716978,
                1.9841836728222095,
                -0.5014205246222038,
                1.3916819831256517,
                -3.04494255945355
            ]
        },
        {
            "positions": [
                -1.823273438431933,
                -1.4742607475642933,
                2.0118319445820374,
                -0.4741777199524311,
                1.3106073771797397,
                -2.9660481000375176
            ]
        },
        {
            "positions": [
                -1.8990218463905846,
                -1.503098042556889,
                2.039480216341865,
                -0.4469349152826584,
                1.2295327712338275,
                -2.8871536406214853
            ]
        },
        {
            "positions": [
                -1.9747702543492363,
                -1.5319353375494844,
                2.067128488101693,
                -0.41969211061288564,
                1.1484581652879156,
                -2.808259181205453
            ]
        },
        {
            "positions": [
                -2.050518662307888,
                -1.56077263254208,
                2.094776759861521,
                -0.39244930594311295,
                1.0673835593420034,
                -2.7293647217894206
            ]
        },
        {
            "positions": [
                -2.0782990051796655,
                -1.590542116636985,
                2.02986674804652,
                -0.20015320941154255,
                1.0498029182409432,
                -2.6657367631848237
            ]
        },
        {
            "positions": [
                -2.1060793480514426,
                -1.6203116007318903,
                1.964956736231519,
                -0.00785711287997215,
                1.0322222771398828,
                -2.6021088045802268
            ]
        },
        {
            "positions": [
                -2.13385969092322,
                -1.6500810848267953,
                1.900046724416518,
                0.18443898365159833,
                1.0146416360388226,
                -2.53848084597563
            ]
        },
        {
            "positions": [
                -2.1616400337949973,
                -1.6798505689217005,
                1.8351367126015172,
                0.37673508018316865,
                0.9970609949377623,
                -2.474852887371033
            ]
        },
        {
            "positions": [
                -2.189420376666775,
                -1.7096200530166055,
                1.7702267007865162,
                0.5690311767147391,
                0.9794803538367021,
                -2.4112249287664365
            ]
        },
        {
            "positions": [
                -2.217200719538552,
                -1.7393895371115105,
                1.7053166889715152,
                0.7613272732463097,
                0.9618997127356419,
                -2.3475969701618395
            ]
        },
        {
            "positions": [
                -2.2449810624103295,
                -1.7691590212064157,
                1.6404066771565144,
                0.95362336977788,
                0.9443190716345816,
                -2.2839690115572426
            ]
        },
        {
            "positions": [
                -2.272761405282107,
                -1.7989285053013206,
                1.5754966653415134,
                1.1459194663094503,
                0.9267384305335213,
                -2.2203410529526457
            ]
        },
        {
            "positions": [
                -2.300541748153884,
                -1.8286979893962259,
                1.5105866535265124,
                1.3382155628410208,
                0.9091577894324612,
                -2.156713094348049
            ]
        },
        {
            "positions": [
                -2.3283220910256617,
                -1.8584674734911308,
                1.4456766417115117,
                1.5305116593725911,
                0.8915771483314009,
                -2.093085135743452
            ]
        },
        {
            "positions": [
                -2.356102433897439,
                -1.888236957586036,
                1.3807666298965107,
                1.7228077559041617,
                0.8739965072303406,
                -2.029457177138855
            ]
        },
        {
            "positions": [
                -2.3838827767692163,
                -1.918006441680941,
                1.3158566180815097,
                1.9151038524357322,
                0.8564158661292803,
                -1.965829218534258
            ]
        },
        {
            "positions": [
                -2.411663119640994,
                -1.9477759257758462,
                1.2509466062665089,
                2.1073999489673025,
                0.83883522502822,
                -1.9022012599296612
            ]
        },
        {
            "positions": [
                -2.439443462512771,
                -1.9775454098707512,
                1.186036594451508,
                2.2996960454988726,
                0.8212545839271599,
                -1.8385733013250645
            ]
        },
        {
            "positions": [
                -2.4672238053845486,
                -2.007314893965656,
                1.1211265826365069,
                2.491992142030443,
                0.8036739428260996,
                -1.7749453427204676
            ]
        },
        {
            "positions": [
                -2.4950041482563257,
                -2.037084378060561,
                1.056216570821506,
                2.6842882385620133,
                0.7860933017250393,
                -1.7113173841158709
            ]
        },
        {
            "positions": [
                -2.522784491128103,
                -2.066853862155466,
                0.9913065590065051,
                2.8765843350935842,
                0.7685126606239792,
                -1.647689425511274
            ]
        },
        {
            "positions": [
                -2.5505648339998803,
                -2.0966233462503716,
                0.9263965471915043,
                3.0688804316251543,
                0.7509320195229189,
                -1.584061466906677
            ]
        },
        {
            "positions": [
                -2.578345176871658,
                -2.1263928303452766,
                0.8614865353765033,
                3.261176528156725,
                0.7333513784218586,
                -1.5204335083020801
            ]
        },
        {
            "positions": [
                -2.573428979724587,
                -2.080538774988515,
                0.9161049913930608,
                3.0661524397936035,
                0.7300091443151832,
                -1.5978764659263989
            ]
        },
        {
            "positions": [
                -2.5685127825775167,
                -2.034684719631753,
                0.9707234474096182,
                2.871128351430482,
                0.7266669102085077,
                -1.6753194235507176
            ]
        },
        {
            "positions": [
                -2.563596585430446,
                -1.988830664274991,
                1.0253419034261757,
                2.676104263067361,
                0.7233246761018323,
                -1.7527623811750364
            ]
        },
        {
            "positions": [
                -2.558680388283375,
                -1.942976608918229,
                1.0799603594427332,
                2.48108017470424,
                0.7199824419951568,
                -1.830205338799355
            ]
        },
        {
            "positions": [
                -2.5537641911363043,
                -1.897122553561467,
                1.1345788154592906,
                2.2860560863411186,
                0.7166402078884814,
                -1.9076482964236738
            ]
        },
        {
            "positions": [
                -2.548847993989234,
                -1.8512684982047052,
                1.1891972714758479,
                2.091031997977997,
                0.7132979737818059,
                -1.9850912540479926
            ]
        },
        {
            "positions": [
                -2.543931796842163,
                -1.8054144428479433,
                1.2438157274924053,
                1.8960079096148759,
                0.7099557396751305,
                -2.062534211672311
            ]
        },
        {
            "positions": [
                -2.5390155996950923,
                -1.7595603874911814,
                1.2984341835089628,
                1.7009838212517545,
                0.706613505568455,
                -2.13997716929663
            ]
        },
        {
            "positions": [
                -2.534099402548022,
                -1.7137063321344195,
                1.3530526395255202,
                1.5059597328886332,
                0.7032712714617796,
                -2.217420126920949
            ]
        },
        {
            "positions": [
                -2.529183205400951,
                -1.6678522767776576,
                1.4076710955420777,
                1.3109356445255118,
                0.6999290373551041,
                -2.2948630845452676
            ]
        },
        {
            "positions": [
                -2.5242670082538803,
                -1.6219982214208957,
                1.4622895515586352,
                1.1159115561623905,
                0.6965868032484288,
                -2.3723060421695865
            ]
        },
        {
            "positions": [
                -2.5193508111068095,
                -1.5761441660641338,
                1.5169080075751924,
                0.9208874677992691,
                0.6932445691417534,
                -2.449748999793905
            ]
        },
        {
            "positions": [
                -2.514434613959739,
                -1.5302901107073719,
                1.57152646359175,
                0.7258633794361478,
                0.6899023350350779,
                -2.527191957418224
            ]
        },
        {
            "positions": [
                -2.5095184168126683,
                -1.48443605535061,
                1.6261449196083073,
                0.5308392910730269,
                0.6865601009284025,
                -2.6046349150425425
            ]
        },
        {
            "positions": [
                -2.5046022196655975,
                -1.438581999993848,
                1.6807633756248648,
                0.33581520270990506,
                0.683217866821727,
                -2.6820778726668615
            ]
        },
        {
            "positions": [
                -2.499686022518527,
                -1.3927279446370862,
                1.7353818316414222,
                0.14079111434678415,
                0.6798756327150516,
                -2.75952083029118
            ]
        },
        {
            "positions": [
                -2.4947698253714563,
                -1.3468738892803243,
                1.7900002876579797,
                -0.0542329740163372,
                0.6765333986083761,
                -2.836963787915499
            ]
        },
        {
            "positions": [
                -2.4898536282243855,
                -1.3010198339235624,
                1.8446187436745372,
                -0.24925706237945855,
                0.6731911645017007,
                -2.914406745539818
            ]
        },
        {
            "positions": [
                -2.4849374310773147,
                -1.2551657785668004,
                1.8992371996910946,
                -0.4442811507425799,
                0.6698489303950252,
                -2.9918497031641365
            ]
        },
        {
            "positions": [
                -2.4800212339302443,
                -1.2093117232100385,
                1.953855655707652,
                -0.6393052391057013,
                0.6665066962883498,
                -3.069292660788455
            ]
        },
        {
            "positions": [
                -2.4751050367831735,
                -1.1634576678532766,
                2.0084741117242095,
                -0.8343293274688223,
                0.6631644621816744,
                -3.146735618412774
            ]
        }
    ]
}