{
    "goal": {
        "global_pose": {
            "orientation": {
                "w": 0.005598929693374612,
                "x": 0.007748599140229565,
                "y": 0.7110244013736278,
                "z": -0.7031023480610252
            },
            "position": {
                "x": 0.1141497679147869,
                "y": -0.7141253447532654,
                "z": 0.3711530566215515
            }
        },
        "name": "move_to_auspresseinheit_B"
    },
    "id": "BiTRRT_move_to_auspresseinheit_B_39",
    "joint_names": [
        "shoulder_pan_joint",
        "shoulder_lift_joint",
        "elbow_joint",
        "wrist_1_joint",
        "wrist_2_joint",
        "wrist_3_joint"
    ],
    "metrics": {
        "cart_traj_len": 0.5637443257951376,
        "distance_elbow_joint": 0.0617322597326837,
        "distance_shoulder_lift_joint": 0.2948272175953244,
        "distance_shoulder_pan_joint": 0.5773091535715489,
        "distance_wrist_1_joint": 0.3252563055750901,
        "distance_wrist_2_joint": 0.9861740276825364,
        "distance_wrist_3_joint": 0.0070046300166581865,
        "smoothness": 0.0,
        "time": 0.10151886700000001,
        "traj_len": 1.5007676682864146,
        "weighted_distance": 1.8914923175801652
    },
    "planner": "BiTRRT",
    "start": {
        "state": {
            "elbow_joint": 2.0193083361928714,
            "shoulder_lift_joint": -1.1220246554650708,
            "shoulder_pan_joint": -1.0952077554168747,
            "wrist_1_joint": -0.8559753972642168,
            "wrist_2_joint": 0.4759566250798843,
            "wrist_3_joint": -3.1240929996934557
        }
    },
    "waypoints": [
        {
            "positions": [
                -1.0952077554168747,
                -1.1220246554650708,
                2.0193083361928714,
                -0.8559753972642168,
                0.4759566250798843,
                -3.1240929996934557
            ]
        },
        {
            "positions": [
                -1.1914259476787994,
                -1.1711625250642914,
                2.009019626237424,
                -0.8017660130017018,
                0.6403189630269737,
                -3.122925561357346
            ]
        },
        {
            "positions": [
                -1.2876441399407244,
                -1.2203003946635123,
                1.9987309162819769,
                -0.7475566287391867,
                0.804681300974063,
                -3.121758123021236
            ]
        },
        {
            "positions": [
                -1.383862332202649,
                -1.269438264262733,
                1.9884422063265297,
                -0.6933472444766717,
                0.9690436389211525,
                -3.1205906846851263
            ]
        },
        {
            "positions": [
                -1.4800805244645738,
                -1.3185761338619537,
                1.9781534963710823,
                -0.6391378602141567,
                1.1334059768682418,
                -3.119423246349017
            ]
        },
        {
            "positions": [
                -1.5762987167264988,
                -1.3677140034611743,
                1.967864786415635,
                -0.5849284759516417,
                1.2977683148153314,
                -3.1182558080129072
            ]
        },
        {
            "positions": [
                -1.6725169089884235,
                -1.4168518730603952,
                1.9575760764601877,
                -0.5307190916891267,
                1.4621306527624207,
                -3.1170883696767975
            ]
        }
    ]
}