{
    "goal": {
        "global_pose": {
            "orientation": {
                "w": 0.7031023480610252,
                "x": -0.7110244013736278,
                "y": 0.0077485991402295624,
                "z": 0.005598929693374583
            },
            "position": {
                "x": -0.8841497679147869,
                "y": 0.44412534475326537,
                "z": 0.3711530566215515
            }
        },
        "name": "move_to_auspresseinheit_D"
    },
    "id": "BiTRRT_move_to_auspresseinheit_D_41",
    "joint_names": [
        "shoulder_pan_joint",
        "shoulder_lift_joint",
        "elbow_joint",
        "wrist_1_joint",
        "wrist_2_joint",
        "wrist_3_joint"
    ],
    "metrics": {
        "cart_traj_len": 0.3431419670192104,
        "distance_elbow_joint": 0.6311597342913478,
        "distance_shoulder_lift_joint": 0.11685512482886029,
        "distance_shoulder_pan_joint": 0.13435433472984246,
        "distance_wrist_1_joint": 0.5143036526600002,
        "distance_wrist_2_joint": 1.4296096425442406,
        "distance_wrist_3_joint": 0.023266142057274397,
        "smoothness": 3.9474596431116675e-16,
        "time": 0.038673076,
        "traj_len": 1.6880606123926845,
        "weighted_distance": 2.1999986841883237
    },
    "planner": "BiTRRT",
    "start": {
        "state": {
            "elbow_joint": -1.8275523626775212,
            "shoulder_lift_joint": -2.126789852344167,
            "shoulder_pan_joint": -0.03513704404078235,
            "wrist_1_joint": -2.347782403156801,
            "wrist_2_joint": -1.6058999987535132,
            "wrist_3_joint": -3.0880379163319196
        }
    },
    "waypoints": [
        {
            "positions": [
                -0.03513704404078235,
                -2.126789852344167,
                -1.8275523626775212,
                -2.347782403156801,
                -1.6058999987535132,
                -3.0880379163319196
            ]
        },
        {
            "positions": [
                -0.05193133588201265,
                -2.1413967429477743,
                -1.7486573958911027,
                -2.412070359739301,
                -1.427198793435483,
                -3.090946184089079
            ]
        },
        {
            "positions": [
                -0.06872562772324296,
                -2.156003633551382,
                -1.6697624291046842,
                -2.476358316321801,
                -1.248497588117453,
                -3.093854451846238
            ]
        },
        {
            "positions": [
                -0.08551991956447327,
                -2.1706105241549896,
                -1.5908674623182657,
                -2.540646272904301,
                -1.069796382799423,
                -3.0967627196033973
            ]
        },
        {
            "positions": [
                -0.10231421140570357,
                -2.185217414758597,
                -1.5119724955318472,
                -2.604934229486801,
                -0.8910951774813929,
                -3.0996709873605566
            ]
        },
        {
            "positions": [
                -0.1191085032469339,
                -2.1998243053622044,
                -1.4330775287454287,
                -2.669222186069301,
                -0.7123939721633628,
                -3.1025792551177163
            ]
        },
        {
            "positions": [
                -0.1359027950881642,
                -2.214431195965812,
                -1.3541825619590104,
                -2.733510142651801,
                -0.5336927668453328,
                -3.1054875228748755
            ]
        },
        {
            "positions": [
                -0.1526970869293945,
                -2.2290380865694197,
                -1.275287595172592,
                -2.797798099234301,
                -0.3549915615273027,
                -3.1083957906320347
            ]
        },
        {
            "positions": [
                -0.1694913787706248,
                -2.243644977173027,
                -1.1963926283861734,
                -2.862086055816801,
                -0.17629035620927253,
                -3.111304058389194
            ]
        }
    ]
}