{
    "goal": {
        "global_pose": {
            "orientation": {
                "w": -0.00223480608172531,
                "x": 0.0024358444001904467,
                "y": 0.7094548369677653,
                "z": -0.704743149386269
            },
            "position": {
                "x": 0.6205249238014221,
                "y": -0.6371506643295288,
                "z": 0.19426114857196808
            }
        },
        "name": "move_to_magneteinheit_B"
    },
    "id": "BiTRRT_move_to_magneteinheit_B_141",
    "joint_names": [
        "shoulder_pan_joint",
        "shoulder_lift_joint",
        "elbow_joint",
        "wrist_1_joint",
        "wrist_2_joint",
        "wrist_3_joint"
    ],
    "metrics": {
        "cart_traj_len": 1.5248857165544532,
        "distance_elbow_joint": 0.9551645186634243,
        "distance_shoulder_lift_joint": 1.329535595628448,
        "distance_shoulder_pan_joint": 1.6207889301786762,
        "distance_wrist_1_joint": 0.21221400747026564,
        "distance_wrist_2_joint": 1.521495561739923,
        "distance_wrist_3_joint": 0.7133626499639844,
        "smoothness": 0.49767326230323866,
        "time": 0.075599478,
        "traj_len": 2.5204287856721366,
        "weighted_distance": 3.084314532077245
    },
    "planner": "BiTRRT",
    "start": {
        "state": {
            "elbow_joint": 2.6216224122426386,
            "shoulder_lift_joint": -1.4174107377796124,
            "shoulder_pan_joint": 0.7066234856936794,
            "wrist_1_joint": 1.9546482284002225,
            "wrist_2_joint": -0.7096286983471962,
            "wrist_3_joint": 0.005740856962016249
        }
    },
    "waypoints": [
        {
            "positions": [
                0.7066234856936794,
                -1.4174107377796124,
                2.6216224122426386,
                1.9546482284002225,
                -0.7096286983471962,
                0.005740856962016249
            ]
        },
        {
            "positions": [
                0.656888856160533,
                -1.4544850490507077,
                2.605566729067787,
                2.006440311270781,
                -0.7712434631909093,
                0.09182171491950254
            ]
        },
        {
            "positions": [
                0.5691597094120358,
                -1.5170155920144197,
                2.578644403609734,
                2.0040946542136453,
                -0.8337673566824435,
                0.15938199532104946
            ]
        },
        {
            "positions": [
                0.48143056266353845,
                -1.579546134978132,
                2.5517220781516805,
                2.0017489971565094,
                -0.8962912501739778,
                0.22694227572259634
            ]
        },
        {
            "positions": [
                0.3937014159150412,
                -1.6420766779418439,
                2.5247997526936277,
                1.9994033400993731,
                -0.9588151436655121,
                0.2945025561241433
            ]
        },
        {
            "positions": [
                0.3059722691665439,
                -1.7046072209055558,
                2.4978774272355744,
                1.9970576830422373,
                -1.0213390371570463,
                0.36206283652569016
            ]
        },
        {
            "positions": [
                0.2121155219625792,
                -1.624427289174594,
                2.4339220784927775,
                2.0086760904554035,
                -1.114399438920898,
                0.33459816957182015
            ]
        },
        {
            "positions": [
                0.11825877475861454,
                -1.544247357443632,
                2.3699667297499807,
                2.02029449786857,
                -1.2074598406847499,
                0.3071335026179501
            ]
        },
        {
            "positions": [
                0.024402027554649874,
                -1.46406742571267,
                2.3060113810071834,
                2.0319129052817364,
                -1.3005202424486018,
                0.2796688356640801
            ]
        },
        {
            "positions": [
                -0.06945471964931482,
                -1.383887493981708,
                2.2420560322643865,
                2.043531312694903,
                -1.3935806442124534,
                0.25220416871021006
            ]
        },
        {
            "positions": [
                -0.16331146685327952,
                -1.3037075622507464,
                2.1781006835215897,
                2.0551497201080693,
                -1.486641045976305,
                0.22473950175634003
            ]
        },
        {
            "positions": [
                -0.25716821405724416,
                -1.2235276305197844,
                2.114145334778793,
                2.0667681275212355,
                -1.579701447740157,
                0.19727483480247
            ]
        },
        {
            "positions": [
                -0.3510249612612088,
                -1.1433476987888225,
                2.050189986035996,
                2.078386534934402,
                -1.6727618495040086,
                0.16981016784859998
            ]
        },
        {
            "positions": [
                -0.44488170846517355,
                -1.0631677670578605,
                1.986234637293199,
                2.0900049423475684,
                -1.7658222512678605,
                0.14234550089472994
            ]
        },
        {
            "positions": [
                -0.5387384556691381,
                -0.9829878353268987,
                1.9222792885504019,
                2.1016233497607346,
                -1.8588826530317122,
                0.11488083394085993
            ]
        },
        {
            "positions": [
                -0.632595202873103,
                -0.9028079035959368,
                1.858323939807605,
                2.1132417571739013,
                -1.951943054795564,
                0.0874161669869899
            ]
        },
        {
            "positions": [
                -0.7264519500770676,
                -0.8226279718649748,
                1.7943685910648082,
                2.1248601645870675,
                -2.0450034565594155,
                0.05995150003311989
            ]
        },
        {
            "positions": [
                -0.8203086972810323,
                -0.7424480401340129,
                1.730413242322011,
                2.136478572000234,
                -2.1380638583232674,
                0.03248683307924982
            ]
        },
        {
            "positions": [
                -0.9141654444849969,
                -0.6622681084030512,
                1.6664578935792143,
                2.1480969794134004,
                -2.2311242600871193,
                0.005022166125379832
            ]
        }
    ]
}