{
    "goal": {
        "global_pose": {
            "orientation": {
                "w": 0.005598929693374612,
                "x": 0.007748599140229565,
                "y": 0.7110244013736278,
                "z": -0.7031023480610252
            },
            "position": {
                "x": 0.1141497679147869,
                "y": -0.7141253447532654,
                "z": 0.3711530566215515
            }
        },
        "name": "move_to_auspresseinheit_B"
    },
    "id": "BiTRRT_move_to_auspresseinheit_B_94",
    "joint_names": [
        "shoulder_pan_joint",
        "shoulder_lift_joint",
        "elbow_joint",
        "wrist_1_joint",
        "wrist_2_joint",
        "wrist_3_joint"
    ],
    "metrics": {
        "cart_traj_len": 0.5652307052556451,
        "distance_elbow_joint": 0.0658547660043649,
        "distance_shoulder_lift_joint": 0.2928202647714231,
        "distance_shoulder_pan_joint": 0.5771933091774315,
        "distance_wrist_1_joint": 0.3353808200237549,
        "distance_wrist_2_joint": 0.9953214651225855,
        "distance_wrist_3_joint": 0.004381428403468668,
        "smoothness": 5.075305295617109e-16,
        "time": 0.076920929,
        "traj_len": 1.5069678342629045,
        "weighted_distance": 1.9001097851061939
    },
    "planner": "BiTRRT",
    "start": {
        "state": {
            "elbow_joint": 2.0193083361928714,
            "shoulder_lift_joint": -1.1220246554650708,
            "shoulder_pan_joint": -1.0952077554168747,
            "wrist_1_joint": -0.8559753972642168,
            "wrist_2_joint": 0.4759566250798843,
            "wrist_3_joint": -3.1240929996934557
        }
    },
    "waypoints": [
        {
            "positions": [
                -1.0952077554168747,
                -1.1220246554650708,
                2.0193083361928714,
                -0.8559753972642168,
                0.4759566250798843,
                -3.1240929996934557
            ]
        },
        {
            "positions": [
                -1.1914066402797798,
                -1.1708280329269747,
                2.0083325418588105,
                -0.8000785939269243,
                0.6418435359336485,
                -3.1233627616262107
            ]
        },
        {
            "positions": [
                -1.2876055251426852,
                -1.2196314103888786,
                1.9973567475247498,
                -0.7441817905896319,
                0.8077304467874127,
                -3.1226325235589663
            ]
        },
        {
            "positions": [
                -1.3838044100055904,
                -1.2684347878507825,
                1.986380953190689,
                -0.6882849872523393,
                0.9736173576411771,
                -3.1219022854917213
            ]
        },
        {
            "positions": [
                -1.4800032948684956,
                -1.3172381653126861,
                1.9754051588566282,
                -0.6323881839150469,
                1.1395042684949412,
                -3.1211720474244764
            ]
        },
        {
            "positions": [
                -1.576202179731401,
                -1.36604154277459,
                1.9644293645225672,
                -0.5764913805777543,
                1.3053911793487056,
                -3.120441809357232
            ]
        },
        {
            "positions": [
                -1.6724010645943062,
                -1.4148449202364939,
                1.9534535701885065,
                -0.5205945772404619,
                1.4712780902024698,
                -3.119711571289987
            ]
        }
    ]
}