{
    "goal": {
        "global_pose": {
            "orientation": {
                "w": 0.7047431493862688,
                "x": -0.7094548369677653,
                "y": 0.0024358444001904,
                "z": -0.0022348060817251984
            },
            "position": {
                "x": -0.39052492380142206,
                "y": 0.3671506643295288,
                "z": 0.19426114857196808
            }
        },
        "name": "move_to_magneteinheit_D"
    },
    "id": "BiTRRT_move_to_magneteinheit_D_63",
    "joint_names": [
        "shoulder_pan_joint",
        "shoulder_lift_joint",
        "elbow_joint",
        "wrist_1_joint",
        "wrist_2_joint",
        "wrist_3_joint"
    ],
    "metrics": {
        "cart_traj_len": 4.026944977771176,
        "distance_elbow_joint": 3.1348595470276597,
        "distance_shoulder_lift_joint": 1.6301469721575794,
        "distance_shoulder_pan_joint": 3.036593306385139,
        "distance_wrist_1_joint": 1.5528913154136517,
        "distance_wrist_2_joint": 1.1268923256636316,
        "distance_wrist_3_joint": 3.1831734350584706,
        "smoothness": 0.24716683829007016,
        "time": 0.154804619,
        "traj_len": 3.696560144472984,
        "weighted_distance": 4.765573146317278
    },
    "planner": "BiTRRT",
    "start": {
        "state": {
            "elbow_joint": 0.749534889911806,
            "shoulder_lift_joint": -0.6476975780787326,
            "shoulder_pan_joint": -2.711696901376241,
            "wrist_1_joint": -0.07506478083263063,
            "wrist_2_joint": 0.43296659715538205,
            "wrist_3_joint": -3.14703540197715
        }
    },
    "waypoints": [
        {
            "positions": [
                -2.711696901376241,
                -0.6476975780787326,
                0.749534889911806,
                -0.07506478083263063,
                0.43296659715538205,
                -3.14703540197715
            ]
        },
        {
            "positions": [
                -2.7296058808624366,
                -0.771026198118145,
                0.6570167733206409,
                -0.043523827231932086,
                0.5023655984624167,
                -3.114116187971309
            ]
        },
        {
            "positions": [
                -2.7385603706055344,
                -0.8326905081378512,
                0.6107577150250585,
                -0.027753350431582814,
                0.537065099115934,
                -3.097656580968388
            ]
        },
        {
            "positions": [
                -2.63647011680898,
                -0.865371882957569,
                0.5148580937925377,
                0.0065883741072784024,
                0.5110270179679326,
                -3.0022703752644824
            ]
        },
        {
            "positions": [
                -2.5343798630124255,
                -0.8980532577772868,
                0.41895847256001695,
                0.04093009864613962,
                0.48498893681993105,
                -2.906884169560577
            ]
        },
        {
            "positions": [
                -2.4322896092158715,
                -0.9307346325970046,
                0.3230588513274961,
                0.07527182318500084,
                0.45895085567192956,
                -2.811497963856672
            ]
        },
        {
            "positions": [
                -2.330199355419317,
                -0.9634160074167224,
                0.22715923009497535,
                0.10961354772386206,
                0.43291277452392807,
                -2.7161117581527665
            ]
        },
        {
            "positions": [
                -2.2281091016227625,
                -0.9960973822364403,
                0.13125960886245452,
                0.14395527226272328,
                0.4068746933759266,
                -2.620725552448861
            ]
        },
        {
            "positions": [
                -2.126018847826208,
                -1.028778757056158,
                0.03535998762993375,
                0.1782969968015845,
                0.3808366122279251,
                -2.5253393467449556
            ]
        },
        {
            "positions": [
                -2.0239285940296536,
                -1.0614601318758758,
                -0.06053963360258696,
                0.2126387213404457,
                0.3547985310799236,
                -2.42995314104105
            ]
        },
        {
            "positions": [
                -1.9218383402330994,
                -1.0941415066955937,
                -0.1564392548351078,
                0.24698044587930693,
                0.3287604499319221,
                -2.334566935337145
            ]
        },
        {
            "positions": [
                -1.8197480864365452,
                -1.1268228815153114,
                -0.2523388760676285,
                0.2813221704181681,
                0.3027223687839206,
                -2.2391807296332398
            ]
        },
        {
            "positions": [
                -1.7176578326399907,
                -1.1595042563350293,
                -0.34823849730014944,
                0.31566389495702935,
                0.2766842876359191,
                -2.1437945239293343
            ]
        },
        {
            "positions": [
                -1.6155675788434363,
                -1.192185631154747,
                -0.44413811853267005,
                0.35000561949589054,
                0.25064620648791763,
                -2.048408318225429
            ]
        },
        {
            "positions": [
                -1.5134773250468818,
                -1.2248670059744649,
                -0.540037739765191,
                0.3843473440347518,
                0.22460812533991614,
                -1.9530221125215235
            ]
        },
        {
            "positions": [
                -1.4113870712503276,
                -1.2575483807941827,
                -0.6359373609977117,
                0.418689068573613,
                0.19857004419191465,
                -1.8576359068176183
            ]
        },
        {
            "positions": [
                -1.3092968174537734,
                -1.2902297556139004,
                -0.7318369822302324,
                0.4530307931124742,
                0.17253196304391316,
                -1.762249701113713
            ]
        },
        {
            "positions": [
                -1.207206563657219,
                -1.3229111304336183,
                -0.8277366034627531,
                0.4873725176513353,
                0.14649388189591173,
                -1.6668634954098076
            ]
        },
        {
            "positions": [
                -1.1051163098606644,
                -1.3555925052533362,
                -0.9236362246952741,
                0.5217142421901967,
                0.12045580074791018,
                -1.5714772897059022
            ]
        },
        {
            "positions": [
                -1.00302605606411,
                -1.3882738800730539,
                -1.0195358459277948,
                0.5560559667290579,
                0.09441771959990869,
                -1.4760910840019967
            ]
        },
        {
            "positions": [
                -0.9009358022675558,
                -1.4209552548927717,
                -1.1154354671603155,
                0.5903976912679191,
                0.0683796384519072,
                -1.3807048782980915
            ]
        },
        {
            "positions": [
                -0.7988455484710015,
                -1.4536366297124896,
                -1.2113350883928362,
                0.6247394158067803,
                0.042341557303905764,
                -1.2853186725941863
            ]
        },
        {
            "positions": [
                -0.6967552946744471,
                -1.4863180045322073,
                -1.3072347096253574,
                0.6590811403456416,
                0.016303476155904217,
                -1.1899324668902806
            ]
        },
        {
            "positions": [
                -0.5946650408778926,
                -1.5189993793519252,
                -1.4031343308578779,
                0.6934228648845028,
                -0.009734604992097329,
                -1.0945462611863754
            ]
        },
        {
            "positions": [
                -0.4925747870813382,
                -1.551680754171643,
                -1.4990339520903986,
                0.727764589423364,
                -0.035772686140098764,
                -0.99916005548247
            ]
        },
        {
            "positions": [
                -0.39048453328478416,
                -1.5843621289913608,
                -1.5949335733229193,
                0.7621063139622252,
                -0.0618107672881002,
                -0.903773849778565
            ]
        },
        {
            "positions": [
                -0.28839427948822927,
                -1.6170435038110786,
                -1.6908331945554405,
                0.7964480385010865,
                -0.08784884843610175,
                -0.8083876440746591
            ]
        },
        {
            "positions": [
                -0.18630402569167526,
                -1.6497248786307965,
                -1.7867328157879612,
                0.8307897630399477,
                -0.11388692958410329,
                -0.7130014383707541
            ]
        },
        {
            "positions": [
                -0.0842137718951208,
                -1.6824062534505142,
                -1.882632437020482,
                0.8651314875788089,
                -0.13992501073210473,
                -0.6176152326668487
            ]
        },
        {
            "positions": [
                -0.02018645624266427,
                -1.745546435865479,
                -1.9631194896164228,
                0.9234462638160188,
                -0.14799807527327202,
                -0.5965613365164921
            ]
        },
        {
            "positions": [
                0.04384085940979228,
                -1.808686618280444,
                -2.0436065422123635,
                0.9817610400532288,
                -0.15607113981443935,
                -0.5755074403661357
            ]
        },
        {
            "positions": [
                0.005043198766551842,
                -1.8847405168250315,
                -2.114928321730254,
                1.0797179689443153,
                -0.1387538210899014,
                -0.5161231681570683
            ]
        },
        {
            "positions": [
                -0.033754461876688596,
                -1.960794415369619,
                -2.186250101248144,
                1.1776748978354017,
                -0.12143650236536346,
                -0.4567388959480009
            ]
        },
        {
            "positions": [
                -0.07255212251992904,
                -2.0368483139142066,
                -2.2575718807660343,
                1.2756318267264881,
                -0.10411918364082551,
                -0.3973546237389335
            ]
        },
        {
            "positions": [
                -0.10028602882262871,
                -2.097097372994733,
                -2.289510074853489,
                1.3261805036901213,
                -0.034692776491052374,
                -0.2889814595338699
            ]
        },
        {
            "positions": [
                -0.1280199351253284,
                -2.1573464320752596,
                -2.321448268940944,
                1.3767291806537545,
                0.03473363065872076,
                -0.18060829532880632
            ]
        },
        {
            "positions": [
                -0.1557538414280281,
                -2.2175954911557856,
                -2.3533864630283987,
                1.4272778576173877,
                0.1041600378084939,
                -0.07223513112374275
            ]
        },
        {
            "positions": [
                -0.18348774773072776,
                -2.277844550236312,
                -2.3853246571158535,
                1.4778265345810209,
                0.17358644495826706,
                0.036138033081320874
            ]
        }
    ]
}