{
    "goal": {
        "global_pose": {
            "orientation": {
                "w": 0.7047431493862688,
                "x": -0.7094548369677653,
                "y": 0.0024358444001904,
                "z": -0.0022348060817251984
            },
            "position": {
                "x": -0.39052492380142206,
                "y": 0.3671506643295288,
                "z": 0.19426114857196808
            }
        },
        "name": "move_to_magneteinheit_D"
    },
    "id": "BiTRRT_move_to_magneteinheit_D_45",
    "joint_names": [
        "shoulder_pan_joint",
        "shoulder_lift_joint",
        "elbow_joint",
        "wrist_1_joint",
        "wrist_2_joint",
        "wrist_3_joint"
    ],
    "metrics": {
        "cart_traj_len": 3.9177072522969194,
        "distance_elbow_joint": 3.146569483896672,
        "distance_shoulder_lift_joint": 1.6253868967785505,
        "distance_shoulder_pan_joint": 3.592136121186927,
        "distance_wrist_1_joint": 1.5191087620947457,
        "distance_wrist_2_joint": 1.1146564844912727,
        "distance_wrist_3_joint": 3.2379426908622797,
        "smoothness": 0.26012799401584313,
        "time": 0.129703584,
        "traj_len": 3.7730359711127126,
        "weighted_distance": 4.831713057252161
    },
    "planner": "BiTRRT",
    "start": {
        "state": {
            "elbow_joint": 0.749534889911806,
            "shoulder_lift_joint": -0.6476975780787326,
            "shoulder_pan_joint": -2.711696901376241,
            "wrist_1_joint": -0.07506478083263063,
            "wrist_2_joint": 0.43296659715538205,
            "wrist_3_joint": -3.14703540197715
        }
    },
    "waypoints": [
        {
            "positions": [
                -2.711696901376241,
                -0.6476975780787326,
                0.749534889911806,
                -0.07506478083263063,
                0.43296659715538205,
                -3.14703540197715
            ]
        },
        {
            "positions": [
                -2.717992679481907,
                -0.6561214493250427,
                0.7385486315146084,
                -0.020869756622713495,
                0.41527813766940586,
                -2.9372331539597574
            ]
        },
        {
            "positions": [
                -2.7242884575875728,
                -0.6645453205713527,
                0.7275623731174107,
                0.03332526758720364,
                0.3975896781834297,
                -2.7274309059423647
            ]
        },
        {
            "positions": [
                -2.730584235693239,
                -0.6729691918176628,
                0.716576114720213,
                0.08752029179712079,
                0.3799012186974535,
                -2.5176286579249716
            ]
        },
        {
            "positions": [
                -2.736880013798905,
                -0.6813930630639728,
                0.7055898563230154,
                0.1417153160070379,
                0.36221275921147733,
                -2.307826409907579
            ]
        },
        {
            "positions": [
                -2.627636969414508,
                -0.7160438483696763,
                0.5948483369870139,
                0.17679304897702652,
                0.34038582679350315,
                -2.232951099711453
            ]
        },
        {
            "positions": [
                -2.5183939250301113,
                -0.7506946336753796,
                0.48410681765101227,
                0.21187078194701514,
                0.3185588943755289,
                -2.158075789515326
            ]
        },
        {
            "positions": [
                -2.409150880645715,
                -0.785345418981083,
                0.37336529831501075,
                0.24694851491700376,
                0.29673196195755475,
                -2.0832004793192
            ]
        },
        {
            "positions": [
                -2.299907836261318,
                -0.8199962042867864,
                0.2626237789790092,
                0.2820262478869924,
                0.2749050295395805,
                -2.0083251691230735
            ]
        },
        {
            "positions": [
                -2.1906647918769213,
                -0.8546469895924897,
                0.1518822596430076,
                0.317103980856981,
                0.25307809712160634,
                -1.933449858926947
            ]
        },
        {
            "positions": [
                -2.0814217474925245,
                -0.8892977748981932,
                0.041140740307006096,
                0.3521817138269696,
                0.23125116470363213,
                -1.8585745487308207
            ]
        },
        {
            "positions": [
                -1.972178703108128,
                -0.9239485602038966,
                -0.06960077902899553,
                0.38725944679695823,
                0.20942423228565793,
                -1.7836992385346946
            ]
        },
        {
            "positions": [
                -1.8629356587237313,
                -0.9585993455096,
                -0.18034229836499704,
                0.42233717976694685,
                0.18759729986768373,
                -1.708823928338568
            ]
        },
        {
            "positions": [
                -1.7536926143393345,
                -0.9932501308153034,
                -0.2910838177009988,
                0.45741491273693546,
                0.16577036744970952,
                -1.6339486181424419
            ]
        },
        {
            "positions": [
                -1.6444495699549377,
                -1.0279009161210069,
                -0.4018253370370002,
                0.4924926457069241,
                0.14394343503173532,
                -1.5590733079463153
            ]
        },
        {
            "positions": [
                -1.5352065255705412,
                -1.06255170142671,
                -0.5125668563730017,
                0.5275703786769127,
                0.12211650261376114,
                -1.4841979977501891
            ]
        },
        {
            "positions": [
                -1.4259634811861444,
                -1.0972024867324135,
                -0.6233083757090032,
                0.5626481116469013,
                0.10028957019578694,
                -1.4093226875540628
            ]
        },
        {
            "positions": [
                -1.3167204368017476,
                -1.131853272038117,
                -0.734049895045005,
                0.5977258446168899,
                0.0784626377778127,
                -1.3344473773579364
            ]
        },
        {
            "positions": [
                -1.207477392417351,
                -1.1665040573438203,
                -0.8447914143810065,
                0.6328035775868786,
                0.05663570535983853,
                -1.25957206716181
            ]
        },
        {
            "positions": [
                -1.0982343480329544,
                -1.2011548426495238,
                -0.955532933717008,
                0.6678813105568672,
                0.03480877294186435,
                -1.1846967569656837
            ]
        },
        {
            "positions": [
                -0.9889913036485576,
                -1.235805627955227,
                -1.0662744530530095,
                0.7029590435268558,
                0.01298184052389012,
                -1.1098214467695573
            ]
        },
        {
            "positions": [
                -0.879748259264161,
                -1.2704564132609306,
                -1.177015972389011,
                0.7380367764968444,
                -0.008845091894084056,
                -1.0349461365734312
            ]
        },
        {
            "positions": [
                -0.770505214879764,
                -1.3051071985666338,
                -1.287757491725013,
                0.773114509466833,
                -0.030672024312058288,
                -0.9600708263773046
            ]
        },
        {
            "positions": [
                -0.6612621704953674,
                -1.3397579838723375,
                -1.3984990110610145,
                0.8081922424368216,
                -0.052498956730032464,
                -0.8851955161811782
            ]
        },
        {
            "positions": [
                -0.5520191261109706,
                -1.3744087691780407,
                -1.5092405303970158,
                0.8432699754068103,
                -0.0743258891480067,
                -0.8103202059850518
            ]
        },
        {
            "positions": [
                -0.4427760817265738,
                -1.409059554483744,
                -1.6199820497330175,
                0.8783477083767989,
                -0.09615282156598087,
                -0.7354448957889255
            ]
        },
        {
            "positions": [
                -0.33353303734217743,
                -1.4437103397894475,
                -1.7307235690690188,
                0.9134254413467875,
                -0.11797975398395505,
                -0.6605695855927993
            ]
        },
        {
            "positions": [
                -0.22428999295778063,
                -1.4783611250951507,
                -1.8414650884050205,
                0.9485031743167761,
                -0.13980668640192928,
                -0.585694275396673
            ]
        },
        {
            "positions": [
                -0.11504694857338382,
                -1.5130119104008544,
                -1.9522066077410218,
                0.9835809072867647,
                -0.16163361881990346,
                -0.5108189652005466
            ]
        },
        {
            "positions": [
                -0.005803904188987019,
                -1.5476626957065576,
                -2.062948127077024,
                1.0186586402567532,
                -0.18346055123787774,
                -0.43594365500442
            ]
        },
        {
            "positions": [
                0.10343914019540978,
                -1.5823134810122612,
                -2.1736896464130253,
                1.053736373226742,
                -0.20528748365585192,
                -0.36106834480829386
            ]
        },
        {
            "positions": [
                0.21268218457980614,
                -1.6169642663179644,
                -2.284431165749027,
                1.0888141061967307,
                -0.2271144160738261,
                -0.2861930346121673
            ]
        },
        {
            "positions": [
                0.32192522896420317,
                -1.6516150516236678,
                -2.3951726850850283,
                1.1238918391667192,
                -0.24894134849180027,
                -0.21131772441604113
            ]
        },
        {
            "positions": [
                0.23723393463067727,
                -1.7551932888292705,
                -2.395483003235001,
                1.1772505295159519,
                -0.17681659201778527,
                -0.16094688886584585
            ]
        },
        {
            "positions": [
                0.15254264029715134,
                -1.858771526034873,
                -2.395793321384974,
                1.2306092198651843,
                -0.10469183554377023,
                -0.11057605331565055
            ]
        },
        {
            "positions": [
                0.06785134596362541,
                -1.9623497632404754,
                -2.396103639534947,
                1.283967910214417,
                -0.0325670790697552,
                -0.06020521776545526
            ]
        },
        {
            "positions": [
                -0.016839948369900493,
                -2.0659280004460783,
                -2.39641395768492,
                1.3373266005636497,
                0.039557677404259806,
                -0.009834382215259979
            ]
        },
        {
            "positions": [
                -0.10153124270342645,
                -2.1695062376516807,
                -2.396724275834893,
                1.3906852909128822,
                0.11168243387827487,
                0.04053645333493533
            ]
        },
        {
            "positions": [
                -0.18622253703695235,
                -2.273084474857283,
                -2.397034593984866,
                1.4440439812621149,
                0.1838071903522899,
                0.09090728888513062
            ]
        }
    ]
}