{
    "goal": {
        "global_pose": {
            "orientation": {
                "w": 0.7047431493862688,
                "x": -0.7094548369677653,
                "y": 0.0024358444001904,
                "z": -0.0022348060817251984
            },
            "position": {
                "x": -0.39052492380142206,
                "y": 0.3671506643295288,
                "z": 0.19426114857196808
            }
        },
        "name": "move_to_magneteinheit_D"
    },
    "id": "BiTRRT_move_to_magneteinheit_D_113",
    "joint_names": [
        "shoulder_pan_joint",
        "shoulder_lift_joint",
        "elbow_joint",
        "wrist_1_joint",
        "wrist_2_joint",
        "wrist_3_joint"
    ],
    "metrics": {
        "cart_traj_len": 4.189836775422114,
        "distance_elbow_joint": 3.140492445144288,
        "distance_shoulder_lift_joint": 1.6308624923917543,
        "distance_shoulder_pan_joint": 2.9913420662951857,
        "distance_wrist_1_joint": 2.202380671841763,
        "distance_wrist_2_joint": 0.6551020032994869,
        "distance_wrist_3_joint": 3.381541112205037,
        "smoothness": 0.49156967816287045,
        "time": 0.152961315,
        "traj_len": 3.741887330101952,
        "weighted_distance": 4.860276297776582
    },
    "planner": "BiTRRT",
    "start": {
        "state": {
            "elbow_joint": 0.749534889911806,
            "shoulder_lift_joint": -0.6476975780787326,
            "shoulder_pan_joint": -2.711696901376241,
            "wrist_1_joint": -0.07506478083263063,
            "wrist_2_joint": 0.43296659715538205,
            "wrist_3_joint": -3.14703540197715
        }
    },
    "waypoints": [
        {
            "positions": [
                -2.711696901376241,
                -0.6476975780787326,
                0.749534889911806,
                -0.07506478083263063,
                0.43296659715538205,
                -3.14703540197715
            ]
        },
        {
            "positions": [
                -2.706156458390038,
                -0.6760391659360123,
                0.6772805642400351,
                -0.1446231170026075,
                0.4617001057303264,
                -3.0047975733603747
            ]
        },
        {
            "positions": [
                -2.7006160154038352,
                -0.704380753793292,
                0.6050262385682643,
                -0.21418145317258433,
                0.49043361430527066,
                -2.8625597447435993
            ]
        },
        {
            "positions": [
                -2.6950755724176325,
                -0.7327223416505717,
                0.5327719128964935,
                -0.28373978934256117,
                0.519167122880215,
                -2.720321916126824
            ]
        },
        {
            "positions": [
                -2.6895351294314294,
                -0.7610639295078514,
                0.4605175872247227,
                -0.35329812551253803,
                0.5479006314551593,
                -2.5780840875100486
            ]
        },
        {
            "positions": [
                -2.590169998293828,
                -0.8014536893643291,
                0.3782409272566391,
                -0.2880293164181571,
                0.5364837458341633,
                -2.4817505452714284
            ]
        },
        {
            "positions": [
                -2.490804867156226,
                -0.8418434492208069,
                0.2959642672885555,
                -0.22276050732377614,
                0.5250668602131673,
                -2.385417003032808
            ]
        },
        {
            "positions": [
                -2.391439736018625,
                -0.8822332090772846,
                0.21368760732047187,
                -0.15749169822939518,
                0.5136499745921712,
                -2.2890834607941883
            ]
        },
        {
            "positions": [
                -2.292074604881023,
                -0.9226229689337624,
                0.13141094735238829,
                -0.09222288913501425,
                0.5022330889711752,
                -2.192749918555568
            ]
        },
        {
            "positions": [
                -2.1927094737434216,
                -0.9630127287902401,
                0.04913428738430464,
                -0.026954080040633266,
                0.49081620335017917,
                -2.096416376316948
            ]
        },
        {
            "positions": [
                -2.0933443426058203,
                -1.0034024886467179,
                -0.033142372583778945,
                0.038314729053747665,
                0.47939931772918315,
                -2.0000828340783277
            ]
        },
        {
            "positions": [
                -1.9939792114682184,
                -1.0437922485031956,
                -0.11541903255186248,
                0.1035835381481286,
                0.46798243210818713,
                -1.9037492918397079
            ]
        },
        {
            "positions": [
                -1.8946140803306168,
                -1.0841820083596736,
                -0.19769569251994612,
                0.16885234724250953,
                0.45656554648719105,
                -1.8074157496010876
            ]
        },
        {
            "positions": [
                -1.7952489491930153,
                -1.1245717682161511,
                -0.27997235248802965,
                0.23412115633689046,
                0.44514866086619503,
                -1.7110822073624674
            ]
        },
        {
            "positions": [
                -1.6958838180554139,
                -1.164961528072629,
                -0.3622490124561134,
                0.2993899654312715,
                0.433731775245199,
                -1.6147486651238472
            ]
        },
        {
            "positions": [
                -1.5965186869178123,
                -1.2053512879291066,
                -0.44452567242419694,
                0.36465877452565243,
                0.422314889624203,
                -1.5184151228852272
            ]
        },
        {
            "positions": [
                -1.4971535557802107,
                -1.2457410477855846,
                -0.5268023323922806,
                0.42992758362003336,
                0.410898004003207,
                -1.422081580646607
            ]
        },
        {
            "positions": [
                -1.397788424642609,
                -1.2861308076420621,
                -0.6090789923603641,
                0.4951963927144143,
                0.3994811183822109,
                -1.325748038407987
            ]
        },
        {
            "positions": [
                -1.2984232935050075,
                -1.32652056749854,
                -0.6913556523284476,
                0.5604652018087952,
                0.38806423276121493,
                -1.229414496169367
            ]
        },
        {
            "positions": [
                -1.1990581623674061,
                -1.3669103273550176,
                -0.7736323122965312,
                0.6257340109031762,
                0.37664734714021886,
                -1.133080953930747
            ]
        },
        {
            "positions": [
                -1.0996930312298043,
                -1.4073000872114956,
                -0.8559089722646149,
                0.6910028199975571,
                0.3652304615192228,
                -1.0367474116921265
            ]
        },
        {
            "positions": [
                -1.000327900092203,
                -1.447689847067973,
                -0.9381856322326985,
                0.756271629091938,
                0.3538135758982268,
                -0.9404138694535065
            ]
        },
        {
            "positions": [
                -0.9009627689546014,
                -1.488079606924451,
                -1.020462292200782,
                0.8215404381863189,
                0.34239669027723074,
                -0.8440803272148865
            ]
        },
        {
            "positions": [
                -0.8015976378169998,
                -1.5284693667809286,
                -1.1027389521688655,
                0.8868092472806999,
                0.3309798046562348,
                -0.7477467849762662
            ]
        },
        {
            "positions": [
                -0.7022325066793982,
                -1.5688591266374066,
                -1.1850156121369495,
                0.952078056375081,
                0.3195629190352387,
                -0.651413242737646
            ]
        },
        {
            "positions": [
                -0.6028673755417966,
                -1.6092488864938843,
                -1.267292272105033,
                1.017346865469462,
                0.3081460334142427,
                -0.555079700499026
            ]
        },
        {
            "positions": [
                -0.5035022444041952,
                -1.649638646350362,
                -1.3495689320731166,
                1.0826156745638429,
                0.29672914779324666,
                -0.45874615826040577
            ]
        },
        {
            "positions": [
                -0.4041371132665934,
                -1.6900284062068396,
                -1.4318455920412,
                1.1478844836582238,
                0.28531226217225064,
                -0.362412616021786
            ]
        },
        {
            "positions": [
                -0.30477198212899204,
                -1.7304181660633176,
                -1.5141222520092839,
                1.2131532927526048,
                0.27389537655125457,
                -0.2660790737831653
            ]
        },
        {
            "positions": [
                -0.20540685099139022,
                -1.7708079259197953,
                -1.5963989119773674,
                1.2784221018469857,
                0.26247849093025855,
                -0.16974553154454552
            ]
        },
        {
            "positions": [
                -0.10604171985378881,
                -1.811197685776273,
                -1.6786755719454507,
                1.3436909109413666,
                0.2510616053092625,
                -0.07341198930592518
            ]
        },
        {
            "positions": [
                -0.06775905552148384,
                -1.877800319384318,
                -1.817461373503388,
                1.3873674669668055,
                0.27286784777396883,
                -0.018155444060709243
            ]
        },
        {
            "positions": [
                -0.02947639118917887,
                -1.944402952992363,
                -1.956247175061325,
                1.4310440229922445,
                0.2946740902386751,
                0.0371011011845067
            ]
        },
        {
            "positions": [
                0.008806273143126098,
                -2.011005586600408,
                -2.095032976619262,
                1.4747205790176836,
                0.3164803327033814,
                0.09235764642972263
            ]
        },
        {
            "positions": [
                0.04708893747543105,
                -2.077608220208453,
                -2.2338187781771994,
                1.5183971350431225,
                0.3382865751680877,
                0.14761419167493858
            ]
        },
        {
            "positions": [
                -0.052308692924275604,
                -2.1653690908039676,
                -2.302459678039293,
                1.497649346490914,
                0.2705296546363598,
                0.10920690107690455
            ]
        },
        {
            "positions": [
                -0.15170632332398226,
                -2.253129961399482,
                -2.3711005779013865,
                1.4769015579387055,
                0.20277273410463187,
                0.07079961047887051
            ]
        },
        {
            "positions": [
                -0.1854672899680824,
                -2.278560070470487,
                -2.3909575552324815,
                1.465945068436927,
                0.18218260217309992,
                0.06072267312198942
            ]
        }
    ]
}