{
    "goal": {
        "global_pose": {
            "orientation": {
                "w": 0.005598929693374612,
                "x": 0.007748599140229565,
                "y": 0.7110244013736278,
                "z": -0.7031023480610252
            },
            "position": {
                "x": 0.1141497679147869,
                "y": -0.7141253447532654,
                "z": 0.3711530566215515
            }
        },
        "name": "move_to_auspresseinheit_B"
    },
    "id": "BiTRRT_move_to_auspresseinheit_B_85",
    "joint_names": [
        "shoulder_pan_joint",
        "shoulder_lift_joint",
        "elbow_joint",
        "wrist_1_joint",
        "wrist_2_joint",
        "wrist_3_joint"
    ],
    "metrics": {
        "cart_traj_len": 0.5639727052169237,
        "distance_elbow_joint": 0.0622846037977709,
        "distance_shoulder_lift_joint": 0.29382687013581954,
        "distance_shoulder_pan_joint": 0.5779583552410301,
        "distance_wrist_1_joint": 0.32854405659018837,
        "distance_wrist_2_joint": 0.9867084954317618,
        "distance_wrist_3_joint": 0.007916235920252035,
        "smoothness": 5.075305255429287e-16,
        "time": 0.034924777000000004,
        "traj_len": 1.5024109348366788,
        "weighted_distance": 1.8942871062696058
    },
    "planner": "BiTRRT",
    "start": {
        "state": {
            "elbow_joint": 2.0193083361928714,
            "shoulder_lift_joint": -1.1220246554650708,
            "shoulder_pan_joint": -1.0952077554168747,
            "wrist_1_joint": -0.8559753972642168,
            "wrist_2_joint": 0.4759566250798843,
            "wrist_3_joint": -3.1240929996934557
        }
    },
    "waypoints": [
        {
            "positions": [
                -1.0952077554168747,
                -1.1220246554650708,
                2.0193083361928714,
                -0.8559753972642168,
                0.4759566250798843,
                -3.1240929996934557
            ]
        },
        {
            "positions": [
                -1.1915341479570463,
                -1.1709958004877075,
                2.008927568893243,
                -0.8012180544991854,
                0.6404080409851779,
                -3.1227736270400803
            ]
        },
        {
            "positions": [
                -1.287860540497218,
                -1.219966945510344,
                1.9985468015936145,
                -0.746460711734154,
                0.8048594568904714,
                -3.121454254386705
            ]
        },
        {
            "positions": [
                -1.3841869330373897,
                -1.2689380905329806,
                1.988166034293986,
                -0.6917033689691225,
                0.9693108727957651,
                -3.1201348817333296
            ]
        },
        {
            "positions": [
                -1.4805133255775613,
                -1.3179092355556172,
                1.9777852669943574,
                -0.6369460262040912,
                1.1337622887010588,
                -3.1188155090799543
            ]
        },
        {
            "positions": [
                -1.5768397181177332,
                -1.3668803805782537,
                1.967404499694729,
                -0.5821886834390597,
                1.2982137046063524,
                -3.117496136426579
            ]
        },
        {
            "positions": [
                -1.6731661106579048,
                -1.4158515256008903,
                1.9570237323951005,
                -0.5274313406740284,
                1.462665120511646,
                -3.1161767637732036
            ]
        }
    ]
}