{
    "goal": {
        "global_pose": {
            "orientation": {
                "w": 0.5084816262002911,
                "x": -0.4908360881923452,
                "y": 0.5182115481033761,
                "z": -0.48164630358495003
            },
            "position": {
                "x": 0.5540239810943604,
                "y": -0.46912469901144505,
                "z": 0.16403168439865112
            }
        },
        "name": "move_to_storage_B"
    },
    "id": "BiTRRT_move_to_storage_B_130",
    "joint_names": [
        "shoulder_pan_joint",
        "shoulder_lift_joint",
        "elbow_joint",
        "wrist_1_joint",
        "wrist_2_joint",
        "wrist_3_joint"
    ],
    "metrics": {
        "cart_traj_len": 0.7325455946958485,
        "distance_elbow_joint": 0.3542292367555846,
        "distance_shoulder_lift_joint": 0.45963425641214384,
        "distance_shoulder_pan_joint": 0.4495583126641164,
        "distance_wrist_1_joint": 3.092896136693794,
        "distance_wrist_2_joint": 2.7037818511934475,
        "distance_wrist_3_joint": 3.122269322798879,
        "smoothness": 0.17248109734822328,
        "time": 0.105489843,
        "traj_len": 3.1909824688515553,
        "weighted_distance": 4.714189829652913
    },
    "planner": "BiTRRT",
    "start": {
        "state": {
            "elbow_joint": 1.664937868594044,
            "shoulder_lift_joint": -0.661644460510453,
            "shoulder_pan_joint": -0.9139846352900073,
            "wrist_1_joint": 2.146753192139373,
            "wrist_2_joint": -2.2341966793290973,
            "wrist_3_joint": 0.005466555786416001
        }
    },
    "waypoints": [
        {
            "positions": [
                -0.9139846352900073,
                -0.661644460510453,
                1.664937868594044,
                2.146753192139373,
                -2.2341966793290973,
                0.005466555786416001
            ]
        },
        {
            "positions": [
                -0.7800995329543303,
                -0.7391608794445219,
                1.6695265573890092,
                2.189120875265193,
                -2.1405910239625268,
                -0.025081777089863103
            ]
        },
        {
            "positions": [
                -0.7927264613674679,
                -0.7544455929436449,
                1.683512179307434,
                2.067099737122474,
                -2.036183976129452,
                -0.1487506166867671
            ]
        },
        {
            "positions": [
                -0.8053533897806054,
                -0.7697303064427679,
                1.6974978012258588,
                1.9450785989797552,
                -1.9317769282963766,
                -0.2724194562836711
            ]
        },
        {
            "positions": [
                -0.8179803181937431,
                -0.7850150199418909,
                1.7114834231442835,
                1.8230574608370362,
                -1.8273698804633014,
                -0.39608829588057504
            ]
        },
        {
            "positions": [
                -0.8306072466068807,
                -0.8002997334410139,
                1.7254690450627084,
                1.7010363226943173,
                -1.7229628326302264,
                -0.519757135477479
            ]
        },
        {
            "positions": [
                -0.8432341750200182,
                -0.8155844469401369,
                1.739454666981133,
                1.5790151845515983,
                -1.6185557847971515,
                -0.643425975074383
            ]
        },
        {
            "positions": [
                -0.8558611034331558,
                -0.8308691604392598,
                1.753440288899558,
                1.4569940464088793,
                -1.5141487369640763,
                -0.767094814671287
            ]
        },
        {
            "positions": [
                -0.8684880318462933,
                -0.8461538739383829,
                1.7674259108179826,
                1.3349729082661603,
                -1.409741689131001,
                -0.890763654268191
            ]
        },
        {
            "positions": [
                -0.8811149602594309,
                -0.8614385874375059,
                1.7814115327364073,
                1.2129517701234414,
                -1.305334641297926,
                -1.014432493865095
            ]
        },
        {
            "positions": [
                -0.8937418886725685,
                -0.8767233009366289,
                1.7953971546548322,
                1.0909306319807226,
                -1.2009275934648511,
                -1.1381013334619987
            ]
        },
        {
            "positions": [
                -0.906368817085706,
                -0.8920080144357518,
                1.8093827765732569,
                0.9689094938380034,
                -1.096520545631776,
                -1.2617701730589028
            ]
        },
        {
            "positions": [
                -0.9189957454988437,
                -0.9072927279348749,
                1.8233683984916818,
                0.8468883556952844,
                -0.992113497798701,
                -1.3854390126558067
            ]
        },
        {
            "positions": [
                -0.9316226739119813,
                -0.9225774414339979,
                1.8373540204101064,
                0.7248672175525657,
                -0.8877064499656258,
                -1.5091078522527108
            ]
        },
        {
            "positions": [
                -0.9442496023251188,
                -0.9378621549331209,
                1.8513396423285313,
                0.6028460794098465,
                -0.7832994021325508,
                -1.6327766918496147
            ]
        },
        {
            "positions": [
                -0.9568765307382564,
                -0.9531468684322439,
                1.865325264246956,
                0.4808249412671275,
                -0.6788923542994756,
                -1.7564455314465188
            ]
        },
        {
            "positions": [
                -0.969503459151394,
                -0.9684315819313669,
                1.879310886165381,
                0.35880380312440874,
                -0.5744853064664006,
                -1.8801143710434227
            ]
        },
        {
            "positions": [
                -0.9821303875645315,
                -0.9837162954304899,
                1.8932965080838056,
                0.23678266498168954,
                -0.4700782586333254,
                -2.003783210640327
            ]
        },
        {
            "positions": [
                -0.9947573159776691,
                -0.9990010089296129,
                1.9072821300022302,
                0.11476152683897078,
                -0.3656712108002502,
                -2.127452050237231
            ]
        },
        {
            "positions": [
                -1.0073842443908068,
                -1.0142857224287358,
                1.9212677519206551,
                -0.00725961130374797,
                -0.2612641629671755,
                -2.2511208898341346
            ]
        },
        {
            "positions": [
                -1.0200111728039443,
                -1.0295704359278588,
                1.9352533738390798,
                -0.12928074944646717,
                -0.15685711513410028,
                -2.374789729431039
            ]
        },
        {
            "positions": [
                -1.0326381012170818,
                -1.044855149426982,
                1.9492389957575047,
                -0.25130188758918637,
                -0.05245006730102508,
                -2.498458569027943
            ]
        },
        {
            "positions": [
                -1.0452650296302195,
                -1.0601398629261047,
                1.9632246176759294,
                -0.3733230257319051,
                0.05195698053204989,
                -2.6221274086248467
            ]
        },
        {
            "positions": [
                -1.057891958043357,
                -1.075424576425228,
                1.9772102395943543,
                -0.4953441638746243,
                0.15636402836512486,
                -2.7457962482217506
            ]
        },
        {
            "positions": [
                -1.0705188864564947,
                -1.090709289924351,
                1.991195861512779,
                -0.6173653020173431,
                0.2607710761982003,
                -2.869465087818655
            ]
        },
        {
            "positions": [
                -1.0831458148696322,
                -1.1059940034234739,
                2.005181483431204,
                -0.7393864401600618,
                0.36517812403127525,
                -2.993133927415559
            ]
        },
        {
            "positions": [
                -1.0957727432827697,
                -1.1212787169225968,
                2.0191671053496285,
                -0.8614075783027811,
                0.4695851718643501,
                -3.1168027670124627
            ]
        }
    ]
}