{
    "goal": {
        "global_pose": {
            "orientation": {
                "w": 0.7047431468963623,
                "x": -0.7094548344612122,
                "y": 0.0024358443915843964,
                "z": -0.0022348060738295317
            },
            "position": {
                "x": 0.6094750761985779,
                "y": 0.3671506643295288,
                "z": 0.19426114857196808
            }
        },
        "name": "move_to_magneteinheit_A"
    },
    "id": "BiTRRT_move_to_magneteinheit_A_52",
    "joint_names": [
        "shoulder_pan_joint",
        "shoulder_lift_joint",
        "elbow_joint",
        "wrist_1_joint",
        "wrist_2_joint",
        "wrist_3_joint"
    ],
    "metrics": {
        "cart_traj_len": 3.746160073743054,
        "distance_elbow_joint": 3.8909717903551257,
        "distance_shoulder_lift_joint": 0.8950378699073762,
        "distance_shoulder_pan_joint": 2.8900444198104704,
        "distance_wrist_1_joint": 1.021529071814441,
        "distance_wrist_2_joint": 2.0444510901854933,
        "distance_wrist_3_joint": 3.6635792928490747,
        "smoothness": 0.35020026297696993,
        "time": 0.140227654,
        "traj_len": 3.795472768301991,
        "weighted_distance": 4.979834563780212
    },
    "planner": "BiTRRT",
    "start": {
        "state": {
            "elbow_joint": -1.9196185241190666,
            "shoulder_lift_joint": -1.2443396400964142,
            "shoulder_pan_joint": 2.6996025414629847,
            "wrist_1_joint": -1.5485510000780065,
            "wrist_2_joint": -1.5709468930060704,
            "wrist_3_joint": 0.4420197071253992
        }
    },
    "waypoints": [
        {
            "positions": [
                2.6996025414629847,
                -1.2443396400964142,
                -1.9196185241190666,
                -1.5485510000780065,
                -1.5709468930060704,
                0.4420197071253992
            ]
        },
        {
            "positions": [
                2.609319961866954,
                -1.2295842582140797,
                -1.814650048548326,
                -1.5160687502469858,
                -1.5137128744276966,
                0.34975389903283777
            ]
        },
        {
            "positions": [
                2.519037382270923,
                -1.2148288763317452,
                -1.709681572977585,
                -1.4835865004159654,
                -1.456478855849323,
                0.25748809094027636
            ]
        },
        {
            "positions": [
                2.428754802674892,
                -1.2000734944494107,
                -1.6047130974068442,
                -1.4511042505849447,
                -1.399244837270949,
                0.165222282847715
            ]
        },
        {
            "positions": [
                2.3384722230788606,
                -1.1853181125670762,
                -1.4997446218361035,
                -1.4186220007539243,
                -1.3420108186925752,
                0.0729564747551536
            ]
        },
        {
            "positions": [
                2.2481896434828297,
                -1.1705627306847417,
                -1.3947761462653627,
                -1.3861397509229036,
                -1.2847768001142015,
                -0.019309333337407752
            ]
        },
        {
            "positions": [
                2.1579070638867988,
                -1.1558073488024072,
                -1.2898076706946218,
                -1.3536575010918832,
                -1.2275427815358277,
                -0.11157514142996916
            ]
        },
        {
            "positions": [
                2.067624484290768,
                -1.1410519669200727,
                -1.184839195123881,
                -1.3211752512608625,
                -1.170308762957454,
                -0.2038409495225305
            ]
        },
        {
            "positions": [
                1.977341904694737,
                -1.1262965850377382,
                -1.0798707195531403,
                -1.2886930014298419,
                -1.1130747443790803,
                -0.296106757615092
            ]
        },
        {
            "positions": [
                1.887059325098706,
                -1.1115412031554037,
                -0.9749022439823993,
                -1.2562107515988215,
                -1.0558407258007065,
                -0.38837256570765333
            ]
        },
        {
            "positions": [
                1.796776745502675,
                -1.0967858212730692,
                -0.8699337684116586,
                -1.2237285017678008,
                -0.9986067072223327,
                -0.4806383738002147
            ]
        },
        {
            "positions": [
                1.706494165906644,
                -1.0820304393907347,
                -0.7649652928409179,
                -1.1912462519367804,
                -0.9413726886439588,
                -0.5729041818927761
            ]
        },
        {
            "positions": [
                1.616211586310613,
                -1.0672750575084002,
                -0.6599968172701769,
                -1.1587640021057597,
                -0.8841386700655851,
                -0.6651699899853375
            ]
        },
        {
            "positions": [
                1.5259290067145819,
                -1.0525196756260657,
                -0.5550283416994362,
                -1.126281752274739,
                -0.8269046514872114,
                -0.7574357980778988
            ]
        },
        {
            "positions": [
                1.435646427118551,
                -1.0377642937437312,
                -0.4500598661286954,
                -1.0937995024437186,
                -0.7696706329088375,
                -0.8497016061704602
            ]
        },
        {
            "positions": [
                1.3453638475225198,
                -1.0230089118613965,
                -0.34509139055795446,
                -1.061317252612698,
                -0.7124366143304637,
                -0.9419674142630218
            ]
        },
        {
            "positions": [
                1.255081267926489,
                -1.0082535299790623,
                -0.24012291498721372,
                -1.0288350027816775,
                -0.6552025957520901,
                -1.0342332223555832
            ]
        },
        {
            "positions": [
                1.164798688330458,
                -0.9934981480967275,
                -0.13515443941647276,
                -0.9963527529506568,
                -0.5979685771737161,
                -1.1264990304481444
            ]
        },
        {
            "positions": [
                1.074516108734427,
                -0.9787427662143932,
                -0.030185963845732022,
                -0.9638705031196363,
                -0.5407345585953425,
                -1.218764838540706
            ]
        },
        {
            "positions": [
                0.9842335291383959,
                -0.9639873843320586,
                0.07478251172500894,
                -0.9313882532886156,
                -0.4835005400169685,
                -1.3110306466332675
            ]
        },
        {
            "positions": [
                0.8939509495423652,
                -0.949232002449724,
                0.17975098729574945,
                -0.8989060034575952,
                -0.426266521438595,
                -1.4032964547258286
            ]
        },
        {
            "positions": [
                0.8036683699463341,
                -0.9344766205673896,
                0.2847194628664904,
                -0.8664237536265745,
                -0.36903250286022105,
                -1.4955622628183902
            ]
        },
        {
            "positions": [
                0.7133857903503031,
                -0.9197212386850551,
                0.38968793843723093,
                -0.833941503795554,
                -0.3117984842818473,
                -1.5878280709109514
            ]
        },
        {
            "positions": [
                0.6231032107542722,
                -0.9049658568027206,
                0.4946564140079719,
                -0.8014592539645334,
                -0.2545644657034736,
                -1.680093879003513
            ]
        },
        {
            "positions": [
                0.5328206311582413,
                -0.8902104749203861,
                0.5996248895787128,
                -0.7689770041335129,
                -0.19733044712509984,
                -1.772359687096074
            ]
        },
        {
            "positions": [
                0.44253805156220993,
                -0.8754550930380516,
                0.7045933651494538,
                -0.7364947543024922,
                -0.14009642854672588,
                -1.8646254951886356
            ]
        },
        {
            "positions": [
                0.352255471966179,
                -0.8606997111557171,
                0.8095618407201943,
                -0.7040125044714718,
                -0.08286240996835237,
                -1.9568913032811968
            ]
        },
        {
            "positions": [
                0.2619728923701481,
                -0.8459443292733826,
                0.9145303162909353,
                -0.6715302546404511,
                -0.02562839138997837,
                -2.0491571113737583
            ]
        },
        {
            "positions": [
                0.22499823240704642,
                -0.8952546113621548,
                1.0463661605268806,
                -0.6678859599430953,
                0.015200386552770222,
                -2.1581046494975964
            ]
        },
        {
            "positions": [
                0.18802357244394477,
                -0.944564893450927,
                1.1782020047628259,
                -0.6642416652457396,
                0.05602916449551881,
                -2.2670521876214345
            ]
        },
        {
            "positions": [
                0.15104891248084312,
                -0.9938751755396993,
                1.3100378489987714,
                -0.6605973705483839,
                0.09685794243826741,
                -2.3759997257452725
            ]
        },
        {
            "positions": [
                0.11407425251774145,
                -1.0431854576284714,
                1.4418736932347167,
                -0.656953075851028,
                0.13768672038101598,
                -2.4849472638691106
            ]
        },
        {
            "positions": [
                0.07709959255463977,
                -1.0924957397172437,
                1.573709537470662,
                -0.6533087811536722,
                0.17851549832376457,
                -2.5938948019929486
            ]
        },
        {
            "positions": [
                0.040124932591538126,
                -1.141806021806016,
                1.7055453817066075,
                -0.6496644864563165,
                0.2193442762665132,
                -2.7028423401167867
            ]
        },
        {
            "positions": [
                0.003150272628436479,
                -1.191116303894788,
                1.8373812259425528,
                -0.6460201917589607,
                0.2601730542092618,
                -2.8117898782406248
            ]
        },
        {
            "positions": [
                -0.03382438733466518,
                -1.2404265859835604,
                1.9692170701784981,
                -0.6423758970616049,
                0.3010018321520104,
                -2.920737416364463
            ]
        },
        {
            "positions": [
                0.018381443002941172,
                -1.206373151858838,
                1.968505004825978,
                -0.6808272199942847,
                0.2435010438095393,
                -3.0210114728175337
            ]
        },
        {
            "positions": [
                0.07058727334054753,
                -1.1723197177341158,
                1.9677929394734577,
                -0.7192785429269645,
                0.18600025546706822,
                -3.1212855292706045
            ]
        },
        {
            "positions": [
                0.12279310367815388,
                -1.1382662836093935,
                1.9670808741209376,
                -0.7577298658596443,
                0.12849946712459712,
                -3.2215595857236754
            ]
        }
    ]
}