{
    "goal": {
        "global_pose": {
            "orientation": {
                "w": -0.4816463035849501,
                "x": 0.5182115481033762,
                "y": 0.4908360881923453,
                "z": -0.5084816262002911
            },
            "position": {
                "x": -0.8240239810943604,
                "y": 0.19912469901144506,
                "z": 0.16403168439865112
            }
        },
        "name": "move_to_storage_D"
    },
    "id": "BiTRRT_move_to_storage_D_102",
    "joint_names": [
        "shoulder_pan_joint",
        "shoulder_lift_joint",
        "elbow_joint",
        "wrist_1_joint",
        "wrist_2_joint",
        "wrist_3_joint"
    ],
    "metrics": {
        "cart_traj_len": 3.5148042565054425,
        "distance_elbow_joint": 4.210330582930391,
        "distance_shoulder_lift_joint": 1.2637896986108175,
        "distance_shoulder_pan_joint": 2.813013602641294,
        "distance_wrist_1_joint": 2.3696494086239217,
        "distance_wrist_2_joint": 1.3742064412182573,
        "distance_wrist_3_joint": 3.130372768943448,
        "smoothness": 0.07810717961936597,
        "time": 0.116098779,
        "traj_len": 3.8937594305462864,
        "weighted_distance": 5.0165689361053545
    },
    "planner": "BiTRRT",
    "start": {
        "state": {
            "elbow_joint": -2.384821988534728,
            "shoulder_lift_joint": -2.2788054721415256,
            "shoulder_pan_joint": -0.1854694642142757,
            "wrist_1_joint": 1.4845938289331202,
            "wrist_2_joint": 0.17898776772866878,
            "wrist_3_joint": 0.037105688729662994
        }
    },
    "waypoints": [
        {
            "positions": [
                -0.1854694642142757,
                -2.2788054721415256,
                -2.384821988534728,
                1.4845938289331202,
                0.17898776772866878,
                0.037105688729662994
            ]
        },
        {
            "positions": [
                -0.12313623778533922,
                -2.238826942292139,
                -2.357134320078651,
                1.510209454949237,
                0.10129933370841554,
                0.025204276878005406
            ]
        },
        {
            "positions": [
                -0.060803011356402745,
                -2.1988484124427523,
                -2.3294466516225745,
                1.5358250809653542,
                0.023610899688162296,
                0.013302865026347817
            ]
        },
        {
            "positions": [
                0.0386352177758543,
                -2.152288347206824,
                -2.2140390881434344,
                1.4699326547297131,
                0.018482844324583782,
                -0.04140584738164854
            ]
        },
        {
            "positions": [
                0.13807344690811135,
                -2.105728281970896,
                -2.0986315246642944,
                1.4040402284940723,
                0.013354788961005264,
                -0.0961145597896449
            ]
        },
        {
            "positions": [
                0.23751167604036838,
                -2.059168216734968,
                -1.983223961185154,
                1.3381478022584312,
                0.008226733597426747,
                -0.15082327219764127
            ]
        },
        {
            "positions": [
                0.3369499051726254,
                -2.0126081514990397,
                -1.8678163977060138,
                1.2722553760227902,
                0.003098678233848233,
                -0.20553198460563762
            ]
        },
        {
            "positions": [
                0.4363881343048825,
                -1.9660480862631118,
                -1.7524088342268738,
                1.206362949787149,
                -0.002029377129730288,
                -0.260240697013634
            ]
        },
        {
            "positions": [
                0.5358263634371395,
                -1.9194880210271839,
                -1.6370012707477337,
                1.140470523551508,
                -0.007157432493308802,
                -0.31494940942163036
            ]
        },
        {
            "positions": [
                0.6352645925693966,
                -1.8729279557912557,
                -1.5215937072685934,
                1.0745780973158672,
                -0.012285487856887316,
                -0.36965812182962676
            ]
        },
        {
            "positions": [
                0.7347028217016536,
                -1.8263678905553276,
                -1.4061861437894532,
                1.008685671080226,
                -0.01741354322046583,
                -0.42436683423762306
            ]
        },
        {
            "positions": [
                0.8341410508339107,
                -1.7798078253193994,
                -1.2907785803103131,
                0.942793244844585,
                -0.02254159858404435,
                -0.47907554664561947
            ]
        },
        {
            "positions": [
                0.9335792799661677,
                -1.7332477600834713,
                -1.1753710168311728,
                0.876900818608944,
                -0.02766965394762287,
                -0.5337842590536158
            ]
        },
        {
            "positions": [
                1.033017509098425,
                -1.686687694847543,
                -1.0599634533520328,
                0.8110083923733029,
                -0.032797709311201385,
                -0.5884929714616123
            ]
        },
        {
            "positions": [
                1.132455738230682,
                -1.6401276296116152,
                -0.9445558898728927,
                0.7451159661376621,
                -0.0379257646747799,
                -0.6432016838696085
            ]
        },
        {
            "positions": [
                1.231893967362939,
                -1.593567564375687,
                -0.8291483263937525,
                0.679223539902021,
                -0.04305382003835842,
                -0.6979103962776049
            ]
        },
        {
            "positions": [
                1.331332196495196,
                -1.5470074991397589,
                -0.7137407629146124,
                0.6133311136663799,
                -0.04818187540193693,
                -0.7526191086856013
            ]
        },
        {
            "positions": [
                1.4307704256274532,
                -1.5004474339038307,
                -0.5983331994354721,
                0.5474386874307389,
                -0.05330993076551545,
                -0.8073278210935977
            ]
        },
        {
            "positions": [
                1.53020865475971,
                -1.4538873686679028,
                -0.4829256359563321,
                0.481546261195098,
                -0.058437986129093955,
                -0.8620365335015939
            ]
        },
        {
            "positions": [
                1.629646883891967,
                -1.4073273034319747,
                -0.36751807247719204,
                0.41565383495945696,
                -0.06356604149267248,
                -0.9167452459095904
            ]
        },
        {
            "positions": [
                1.7290851130242242,
                -1.3607672381960465,
                -0.25211050899805193,
                0.3497614087238158,
                -0.068694096856251,
                -0.9714539583175867
            ]
        },
        {
            "positions": [
                1.7740080642943639,
                -1.3434796649627796,
                -0.14822955382836595,
                0.2931436845063083,
                -0.012367868024584117,
                -1.0775446144123966
            ]
        },
        {
            "positions": [
                1.8189310155645035,
                -1.3261920917295127,
                -0.04434859865867996,
                0.23652596028880077,
                0.043958360807082764,
                -1.1836352705072066
            ]
        },
        {
            "positions": [
                1.8638539668346432,
                -1.3089045184962458,
                0.059532356511006024,
                0.17990823607129328,
                0.10028458963874964,
                -1.2897259266020165
            ]
        },
        {
            "positions": [
                1.908776918104783,
                -1.2916169452629789,
                0.163413311680692,
                0.12329051185378576,
                0.15661081847041652,
                -1.3958165826968265
            ]
        },
        {
            "positions": [
                1.9536998693749226,
                -1.274329372029712,
                0.267294266850378,
                0.06667278763627826,
                0.2129370473020834,
                -1.5019072387916363
            ]
        },
        {
            "positions": [
                1.9986228206450622,
                -1.257041798796445,
                0.371175222020064,
                0.010055063418770771,
                0.2692632761337503,
                -1.6079978948864464
            ]
        },
        {
            "positions": [
                2.043545771915202,
                -1.2397542255631782,
                0.47505617718974996,
                -0.04656266079873672,
                0.32558950496541716,
                -1.714088550981256
            ]
        },
        {
            "positions": [
                2.0884687231853416,
                -1.2224666523299113,
                0.5789371323594359,
                -0.10318038501624427,
                0.38191573379708404,
                -1.820179207076066
            ]
        },
        {
            "positions": [
                2.1333916744554813,
                -1.2051790790966441,
                0.6828180875291219,
                -0.15979810923375182,
                0.438241962628751,
                -1.9262698631708761
            ]
        },
        {
            "positions": [
                2.178314625725621,
                -1.1878915058633774,
                0.7866990426988079,
                -0.21641583345125925,
                0.4945681914604178,
                -2.032360519265686
            ]
        },
        {
            "positions": [
                2.223237576995761,
                -1.1706039326301103,
                0.8905799978684938,
                -0.2730335576687668,
                0.5508944202920847,
                -2.138451175360496
            ]
        },
        {
            "positions": [
                2.2681605282659003,
                -1.1533163593968434,
                0.9944609530381798,
                -0.32965128188627424,
                0.6072206491237515,
                -2.244541831455306
            ]
        },
        {
            "positions": [
                2.3130834795360404,
                -1.1360287861635765,
                1.0983419082078658,
                -0.3862690061037818,
                0.6635468779554186,
                -2.350632487550116
            ]
        },
        {
            "positions": [
                2.3580064308061797,
                -1.1187412129303096,
                1.2022228633775518,
                -0.4428867303212892,
                0.7198731067870854,
                -2.4567231436449255
            ]
        },
        {
            "positions": [
                2.40292938207632,
                -1.1014536396970427,
                1.3061038185472378,
                -0.49950445453879677,
                0.7761993356187522,
                -2.5628137997397356
            ]
        },
        {
            "positions": [
                2.4478523333464595,
                -1.0841660664637758,
                1.4099847737169238,
                -0.5561221787563043,
                0.832525564450419,
                -2.6689044558345456
            ]
        },
        {
            "positions": [
                2.492775284616599,
                -1.0668784932305089,
                1.5138657288866098,
                -0.6127399029738118,
                0.8888517932820859,
                -2.774995111929355
            ]
        },
        {
            "positions": [
                2.537698235886739,
                -1.049590919997242,
                1.6177466840562957,
                -0.6693576271913194,
                0.9451780221137529,
                -2.8810857680241653
            ]
        },
        {
            "positions": [
                2.5826211871568785,
                -1.032303346763975,
                1.7216276392259817,
                -0.7259753514088266,
                1.0015042509454197,
                -2.9871764241189753
            ]
        },
        {
            "positions": [
                2.627544138427018,
                -1.0150157735307082,
                1.825508594395668,
                -0.7825930756263344,
                1.0578304797770866,
                -3.093267080213785
            ]
        }
    ]
}