{
    "goal": {
        "global_pose": {
            "orientation": {
                "w": -0.4816463035849501,
                "x": 0.5182115481033762,
                "y": 0.4908360881923453,
                "z": -0.5084816262002911
            },
            "position": {
                "x": -0.8240239810943604,
                "y": 0.19912469901144506,
                "z": 0.16403168439865112
            }
        },
        "name": "move_to_storage_D"
    },
    "id": "BiTRRT_move_to_storage_D_45",
    "joint_names": [
        "shoulder_pan_joint",
        "shoulder_lift_joint",
        "elbow_joint",
        "wrist_1_joint",
        "wrist_2_joint",
        "wrist_3_joint"
    ],
    "metrics": {
        "cart_traj_len": 3.6497164343290778,
        "distance_elbow_joint": 4.214985996122934,
        "distance_shoulder_lift_joint": 1.2626629959791449,
        "distance_shoulder_pan_joint": 2.813025450474966,
        "distance_wrist_1_joint": 2.285477698864919,
        "distance_wrist_2_joint": 0.9763611218547876,
        "distance_wrist_3_joint": 3.135326094837558,
        "smoothness": 0.021657519771376466,
        "time": 0.112676002,
        "traj_len": 3.832471703500798,
        "weighted_distance": 4.9214154842412094
    },
    "planner": "BiTRRT",
    "start": {
        "state": {
            "elbow_joint": -2.384821988534728,
            "shoulder_lift_joint": -2.2788054721415256,
            "shoulder_pan_joint": -0.1854694642142757,
            "wrist_1_joint": 1.4845938289331202,
            "wrist_2_joint": 0.17898776772866878,
            "wrist_3_joint": 0.037105688729662994
        }
    },
    "waypoints": [
        {
            "positions": [
                -0.1854694642142757,
                -2.2788054721415256,
                -2.384821988534728,
                1.4845938289331202,
                0.17898776772866878,
                0.037105688729662994
            ]
        },
        {
            "positions": [
                -0.13964667557695673,
                -2.156304180123864,
                -2.35153722722218,
                1.4751297739212919,
                0.12998440689081264,
                0.02973966073511065
            ]
        },
        {
            "positions": [
                -0.05998242493297258,
                -2.1267964636730783,
                -2.23303422564049,
                1.4027148800234668,
                0.1383117324207189,
                -0.05102295496001073
            ]
        },
        {
            "positions": [
                0.01968182571101157,
                -2.097288747222293,
                -2.1145312240587995,
                1.3302999861256417,
                0.14663905795062515,
                -0.13178557065513213
            ]
        },
        {
            "positions": [
                0.09934607635499573,
                -2.067781030771508,
                -1.9960282224771093,
                1.2578850922278164,
                0.15496638348053138,
                -0.21254818635025355
            ]
        },
        {
            "positions": [
                0.17901032699897987,
                -2.0382733143207226,
                -1.877525220895419,
                1.1854701983299913,
                0.16329370901043763,
                -0.2933108020453749
            ]
        },
        {
            "positions": [
                0.2586745776429641,
                -2.008765597869937,
                -1.7590222193137288,
                1.1130553044321663,
                0.1716210345403439,
                -0.37407341774049635
            ]
        },
        {
            "positions": [
                0.33833882828694817,
                -1.979257881419152,
                -1.6405192177320385,
                1.0406404105343412,
                0.17994836007025014,
                -0.45483603343561774
            ]
        },
        {
            "positions": [
                0.41800307893093236,
                -1.9497501649683666,
                -1.522016216150348,
                0.968225516636516,
                0.1882756856001564,
                -0.5355986491307391
            ]
        },
        {
            "positions": [
                0.49766732957491644,
                -1.9202424485175813,
                -1.4035132145686577,
                0.8958106227386909,
                0.19660301113006262,
                -0.6163612648258604
            ]
        },
        {
            "positions": [
                0.5773315802189007,
                -1.890734732066796,
                -1.2850102129869674,
                0.8233957288408658,
                0.2049303366599689,
                -0.697123880520982
            ]
        },
        {
            "positions": [
                0.6569958308628848,
                -1.8612270156160107,
                -1.1665072114052772,
                0.7509808349430407,
                0.21325766218987513,
                -0.7778864962161033
            ]
        },
        {
            "positions": [
                0.736660081506869,
                -1.8317192991652254,
                -1.0480042098235869,
                0.6785659410452155,
                0.2215849877197814,
                -0.8586491119112247
            ]
        },
        {
            "positions": [
                0.8163243321508531,
                -1.80221158271444,
                -0.9295012082418965,
                0.6061510471473904,
                0.22991231324968764,
                -0.9394117276063461
            ]
        },
        {
            "positions": [
                0.8959885827948373,
                -1.7727038662636547,
                -0.8109982066602062,
                0.5337361532495652,
                0.2382396387795939,
                -1.0201743433014676
            ]
        },
        {
            "positions": [
                0.9756528334388215,
                -1.7431961498128694,
                -0.692495205078516,
                0.4613212593517402,
                0.24656696430950015,
                -1.100936958996589
            ]
        },
        {
            "positions": [
                1.0553170840828057,
                -1.713688433362084,
                -0.5739922034968257,
                0.3889063654539149,
                0.2548942898394064,
                -1.1816995746917105
            ]
        },
        {
            "positions": [
                1.1349813347267896,
                -1.6841807169112988,
                -0.4554892019151353,
                0.31649147155609003,
                0.26322161536931266,
                -1.2624621903868316
            ]
        },
        {
            "positions": [
                1.2146455853707738,
                -1.6546730004605135,
                -0.3369862003334454,
                0.24407657765826496,
                0.2715489408992189,
                -1.343224806081953
            ]
        },
        {
            "positions": [
                1.2943098360147582,
                -1.6251652840097282,
                -0.2184831987517546,
                0.17166168376043967,
                0.2798762664291251,
                -1.4239874217770747
            ]
        },
        {
            "positions": [
                1.3739740866587422,
                -1.5956575675589428,
                -0.09998019717006423,
                0.09924678986261459,
                0.2882035919590314,
                -1.504750037472196
            ]
        },
        {
            "positions": [
                1.4536383373027264,
                -1.5661498511081575,
                0.018522804411625682,
                0.02683189596478952,
                0.2965309174889377,
                -1.5855126531673174
            ]
        },
        {
            "positions": [
                1.5333025879467104,
                -1.5366421346573722,
                0.13702580599331604,
                -0.04558299793303555,
                0.3048582430188439,
                -1.6662752688624387
            ]
        },
        {
            "positions": [
                1.6129668385906948,
                -1.507134418206587,
                0.2555288075750064,
                -0.11799789183086085,
                0.3131855685487501,
                -1.7470378845575603
            ]
        },
        {
            "positions": [
                1.6926310892346788,
                -1.4776267017558016,
                0.37403180915669676,
                -0.19041278572868592,
                0.32151289407865635,
                -1.8278005002526816
            ]
        },
        {
            "positions": [
                1.772295339878663,
                -1.4481189853050163,
                0.4925348107383871,
                -0.262827679626511,
                0.32984021960856263,
                -1.908563115947803
            ]
        },
        {
            "positions": [
                1.851959590522647,
                -1.418611268854231,
                0.611037812320077,
                -0.33524257352433606,
                0.3381675451384689,
                -1.9893257316429243
            ]
        },
        {
            "positions": [
                1.9316238411666313,
                -1.3891035524034456,
                0.7295408139017678,
                -0.40765746742216136,
                0.34649487066837514,
                -2.0700883473380456
            ]
        },
        {
            "positions": [
                2.0112880918106155,
                -1.3595958359526603,
                0.8480438154834582,
                -0.48007236131998643,
                0.35482219619828137,
                -2.1508509630331667
            ]
        },
        {
            "positions": [
                2.0909523424546,
                -1.330088119501875,
                0.9665468170651481,
                -0.5524872552178115,
                0.3631495217281876,
                -2.2316135787282882
            ]
        },
        {
            "positions": [
                2.170616593098584,
                -1.3005804030510897,
                1.0850498186468385,
                -0.6249021491156368,
                0.3714768472580939,
                -2.3123761944234094
            ]
        },
        {
            "positions": [
                2.2502808437425683,
                -1.2710726866003044,
                1.2035528202285288,
                -0.6973170430134621,
                0.37980417278800016,
                -2.3931388101185314
            ]
        },
        {
            "positions": [
                2.3299450943865523,
                -1.241564970149519,
                1.3220558218102192,
                -0.769731936911287,
                0.3881314983179064,
                -2.4739014258136525
            ]
        },
        {
            "positions": [
                2.3795469096989086,
                -1.203994554484996,
                1.4067405194398837,
                -0.7749239257480389,
                0.4996666099162127,
                -2.5779545891960263
            ]
        },
        {
            "positions": [
                2.429148725011265,
                -1.166424138820473,
                1.4914252170695483,
                -0.7801159145847909,
                0.6112017215145189,
                -2.6820077525784
            ]
        },
        {
            "positions": [
                2.478750540323621,
                -1.12885372315595,
                1.5761099146992128,
                -0.7853079034215428,
                0.7227368331128252,
                -2.786060915960774
            ]
        },
        {
            "positions": [
                2.528352355635978,
                -1.0912833074914268,
                1.6607946123288773,
                -0.7904998922582946,
                0.8342719447111315,
                -2.8901140793431472
            ]
        },
        {
            "positions": [
                2.5779541709483342,
                -1.0537128918269039,
                1.745479309958542,
                -0.7956918810950466,
                0.9458070563094378,
                -2.994167242725521
            ]
        },
        {
            "positions": [
                2.6275559862606905,
                -1.0161424761623807,
                1.8301640075882064,
                -0.8008838699317985,
                1.0573421679077442,
                -3.098220406107895
            ]
        }
    ]
}