{
    "goal": {
        "global_pose": {
            "orientation": {
                "w": 0.5084816217422485,
                "x": -0.49083608388900757,
                "y": 0.5182115435600281,
                "z": -0.4816462993621826
            },
            "position": {
                "x": 0.5540239810943604,
                "y": 0.030875300988554955,
                "z": 0.16403168439865112
            }
        },
        "name": "move_to_storage_A"
    },
    "id": "BiTRRT_move_to_storage_A_90",
    "joint_names": [
        "shoulder_pan_joint",
        "shoulder_lift_joint",
        "elbow_joint",
        "wrist_1_joint",
        "wrist_2_joint",
        "wrist_3_joint"
    ],
    "metrics": {
        "cart_traj_len": 0.35262550940138654,
        "distance_elbow_joint": 0.45026864538215494,
        "distance_shoulder_lift_joint": 0.23674116733008854,
        "distance_shoulder_pan_joint": 0.46218770029476136,
        "distance_wrist_1_joint": 0.23728039999078454,
        "distance_wrist_2_joint": 1.0948062387242483,
        "distance_wrist_3_joint": 0.10202684680760621,
        "smoothness": 4.440892133664971e-16,
        "time": 0.043658222999999996,
        "traj_len": 1.6072681787833802,
        "weighted_distance": 2.0296431535764827
    },
    "planner": "BiTRRT",
    "start": {
        "state": {
            "elbow_joint": 1.971548259319323,
            "shoulder_lift_joint": -1.1394851275133948,
            "shoulder_pan_joint": 0.1228115487234821,
            "wrist_1_joint": -0.7804723859257726,
            "wrist_2_joint": 0.12958671773740124,
            "wrist_3_joint": -3.192489227718131
        }
    },
    "waypoints": [
        {
            "positions": [
                0.1228115487234821,
                -1.1394851275133948,
                1.971548259319323,
                -0.7804723859257726,
                0.12958671773740124,
                -3.192489227718131
            ]
        },
        {
            "positions": [
                0.05678473439565905,
                -1.173305294274836,
                2.035872351516774,
                -0.8143695859244561,
                0.28598760898372244,
                -3.1779139638884732
            ]
        },
        {
            "positions": [
                -0.009242079932163999,
                -1.2071254610362772,
                2.1001964437142244,
                -0.8482667859231396,
                0.4423885002300436,
                -3.163338700058815
            ]
        },
        {
            "positions": [
                -0.07526889425998703,
                -1.2409456277977184,
                2.164520535911675,
                -0.8821639859218231,
                0.5987893914763648,
                -3.148763436229157
            ]
        },
        {
            "positions": [
                -0.1412957085878101,
                -1.2747657945591597,
                2.2288446281091256,
                -0.9160611859205067,
                0.755190282722686,
                -3.134188172399499
            ]
        },
        {
            "positions": [
                -0.2073225229156332,
                -1.308585961320601,
                2.2931687203065767,
                -0.9499583859191901,
                0.9115911739690072,
                -3.119612908569841
            ]
        },
        {
            "positions": [
                -0.27334933724345617,
                -1.342406128082042,
                2.3574928125040273,
                -0.9838555859178737,
                1.0679920652153283,
                -3.105037644740183
            ]
        },
        {
            "positions": [
                -0.33937615157127926,
                -1.3762262948434834,
                2.421816904701478,
                -1.0177527859165572,
                1.2243929564616496,
                -3.090462380910525
            ]
        }
    ]
}{
    "goal": {
        "global_pose": {
            "orientation": {
                "w": 0.5084816217422485,
                "x": -0.49083608388900757,
                "y": 0.5182115435600281,
                "z": -0.4816462993621826
            },
            "position": {
                "x": 0.5540239810943604,
                "y": 0.030875300988554955,
                "z": 0.16403168439865112
            }
        },
        "name": "move_to_storage_A"
    },
    "id": "BiTRRT_move_to_storage_A_90",
    "joint_names": [
        "shoulder_pan_joint",
        "shoulder_lift_joint",
        "elbow_joint",
        "wrist_1_joint",
        "wrist_2_joint",
        "wrist_3_joint"
    ],
    "metrics": {
        "cart_traj_len": 0.35260723640411823,
        "distance_elbow_joint": 0.4501788062853924,
        "distance_shoulder_lift_joint": 0.23630492745155407,
        "distance_shoulder_pan_joint": 0.4626839195434917,
        "distance_wrist_1_joint": 0.2379721225833138,
        "distance_wrist_2_joint": 1.0922590446323217,
        "distance_wrist_3_joint": 0.10014018277420034,
        "smoothness": 6.661338200497456e-16,
        "time": 0.029679282,
        "traj_len": 1.6060943319961856,
        "weighted_distance": 2.027325957026721
    },
    "planner": "BiTRRT",
    "start": {
        "state": {
            "elbow_joint": 1.97154746011099,
            "shoulder_lift_joint": -1.13948474672311,
            "shoulder_pan_joint": 0.12281154466712228,
            "wrist_1_joint": -0.7804688027058302,
            "wrist_2_joint": 0.12958655903071145,
            "wrist_3_joint": 3.0906928834467795
        }
    },
    "waypoints": [
        {
            "positions": [
                0.12281154466712228,
                -1.13948474672311,
                1.97154746011099,
                -0.7804688027058302,
                0.12958655903071145,
                3.0906928834467795
            ]
        },
        {
            "positions": [
                0.056713841875194904,
                -1.1732425935019033,
                2.0358587181517604,
                -0.8144648202177321,
                0.2856235654067574,
                3.1049986238430938
            ]
        },
        {
            "positions": [
                -0.009383860916732475,
                -1.2070004402806969,
                2.1001699761925305,
                -0.8484608377296341,
                0.4416605717828034,
                3.119304364239408
            ]
        },
        {
            "positions": [
                -0.07548156370865987,
                -1.2407582870594902,
                2.164481234233301,
                -0.882456855241536,
                0.5976975781588493,
                3.1336101046357223
            ]
        },
        {
            "positions": [
                -0.14157926650058722,
                -1.2745161338382838,
                2.228792492274071,
                -0.916452872753438,
                0.7537345845348953,
                3.147915845032037
            ]
        },
        {
            "positions": [
                -0.2076769692925146,
                -1.3082739806170771,
                2.2931037503148417,
                -0.9504488902653401,
                0.9097715909109413,
                3.1622215854283513
            ]
        },
        {
            "positions": [
                -0.273774672084442,
                -1.3420318273958705,
                2.357415008355612,
                -0.984444907777242,
                1.065808597286987,
                3.1765273258246656
            ]
        },
        {
            "positions": [
                -0.3398723748763694,
                -1.375789674174664,
                2.4217262663963823,
                -1.018440925289144,
                1.2218456036630332,
                3.19083306622098
            ]
        }
    ]
}{
    "goal": {
        "global_pose": {
            "orientation": {
                "w": 0.5084816217422485,
                "x": -0.49083608388900757,
                "y": 0.5182115435600281,
                "z": -0.4816462993621826
            },
            "position": {
                "x": 0.5540239810943604,
                "y": 0.030875300988554955,
                "z": 0.16403168439865112
            }
        },
        "name": "move_to_storage_A"
    },
    "id": "BiTRRT_move_to_storage_A_90",
    "joint_names": [
        "shoulder_pan_joint",
        "shoulder_lift_joint",
        "elbow_joint",
        "wrist_1_joint",
        "wrist_2_joint",
        "wrist_3_joint"
    ],
    "metrics": {
        "cart_traj_len": 0.35356134492419183,
        "distance_elbow_joint": 0.4486683476228772,
        "distance_shoulder_lift_joint": 0.23615863925371072,
        "distance_shoulder_pan_joint": 0.4604251567190197,
        "distance_wrist_1_joint": 0.23693569596250463,
        "distance_wrist_2_joint": 1.1084616150971518,
        "distance_wrist_3_joint": 0.09052439536495926,
        "smoothness": 8.881784197001252e-16,
        "time": 0.024462952,
        "traj_len": 1.6066032024181403,
        "weighted_distance": 2.0267264126689124
    },
    "planner": "BiTRRT",
    "start": {
        "state": {
            "elbow_joint": 1.9715472970024885,
            "shoulder_lift_joint": -1.1394870060712896,
            "shoulder_pan_joint": 0.12281152778156021,
            "wrist_1_joint": -0.780463741449964,
            "wrist_2_joint": 0.12958659822042276,
            "wrist_3_joint": 3.090690232415272
        }
    },
    "waypoints": [
        {
            "positions": [
                0.12281152778156021,
                -1.1394870060712896,
                1.9715472970024885,
                -0.780463741449964,
                0.12958659822042276,
                3.090690232415272
            ]
        },
        {
            "positions": [
                0.057036505393128836,
                -1.1732239545361054,
                2.035642775234328,
                -0.8143116980160361,
                0.2879382575200159,
                3.10362228889598
            ]
        },
        {
            "positions": [
                -0.008738516995302537,
                -1.2069609030009212,
                2.099738253466168,
                -0.8481596545821082,
                0.44628991681960894,
                3.116554345376689
            ]
        },
        {
            "positions": [
                -0.0745135393837339,
                -1.240697851465737,
                2.1638337316980074,
                -0.8820076111481803,
                0.6046415761192021,
                3.129486401857397
            ]
        },
        {
            "positions": [
                -0.14028856177216528,
                -1.2744347999305528,
                2.227929209929847,
                -0.9158555677142524,
                0.7629932354187952,
                3.142418458338106
            ]
        },
        {
            "positions": [
                -0.2060635841605967,
                -1.3081717483953688,
                2.2920246881616864,
                -0.9497035242803245,
                0.9213448947183883,
                3.155350514818814
            ]
        },
        {
            "positions": [
                -0.27183860654902803,
                -1.3419086968601845,
                2.3561201663935263,
                -0.9835514808463965,
                1.0796965540179815,
                3.168282571299523
            ]
        },
        {
            "positions": [
                -0.33761362893745944,
                -1.3756456453250003,
                2.4202156446253658,
                -1.0173994374124686,
                1.2380482133175745,
                3.181214627780231
            ]
        }
    ]
}