{
    "goal": {
        "global_pose": {
            "orientation": {
                "w": 0.005598929693374612,
                "x": 0.007748599140229565,
                "y": 0.7110244013736278,
                "z": -0.7031023480610252
            },
            "position": {
                "x": 0.1141497679147869,
                "y": -0.7141253447532654,
                "z": 0.3711530566215515
            }
        },
        "name": "move_to_auspresseinheit_B"
    },
    "id": "BiTRRT_move_to_auspresseinheit_B_147",
    "joint_names": [
        "shoulder_pan_joint",
        "shoulder_lift_joint",
        "elbow_joint",
        "wrist_1_joint",
        "wrist_2_joint",
        "wrist_3_joint"
    ],
    "metrics": {
        "cart_traj_len": 0.5642208137983996,
        "distance_elbow_joint": 0.06102124927453079,
        "distance_shoulder_lift_joint": 0.2946989666305926,
        "distance_shoulder_pan_joint": 0.5786213857003393,
        "distance_wrist_1_joint": 0.32560882252390233,
        "distance_wrist_2_joint": 0.9860062697219714,
        "distance_wrist_3_joint": 0.0026563436902273807,
        "smoothness": 5.075305295617109e-16,
        "time": 0.043214598,
        "traj_len": 1.4995376079117069,
        "weighted_distance": 1.8882639691441163
    },
    "planner": "BiTRRT",
    "start": {
        "state": {
            "elbow_joint": 2.0193083361928714,
            "shoulder_lift_joint": -1.1220246554650708,
            "shoulder_pan_joint": -1.0952077554168747,
            "wrist_1_joint": -0.8559753972642168,
            "wrist_2_joint": 0.4759566250798843,
            "wrist_3_joint": -3.1240929996934557
        }
    },
    "waypoints": [
        {
            "positions": [
                -1.0952077554168747,
                -1.1220246554650708,
                2.0193083361928714,
                -0.8559753972642168,
                0.4759566250798843,
                -3.1240929996934557
            ]
        },
        {
            "positions": [
                -1.1916446530335978,
                -1.171141149903503,
                2.0091381279804494,
                -0.8017072601768997,
                0.6402910033668795,
                -3.1245357236418267
            ]
        },
        {
            "positions": [
                -1.2880815506503211,
                -1.220257644341935,
                1.998967919768028,
                -0.7474391230895827,
                0.8046253816538746,
                -3.1249784475901983
            ]
        },
        {
            "positions": [
                -1.3845184482670443,
                -1.2693741387803672,
                1.988797711555606,
                -0.6931709860022657,
                0.9689597599408699,
                -3.1254211715385694
            ]
        },
        {
            "positions": [
                -1.4809553458837674,
                -1.3184906332187991,
                1.9786275033431842,
                -0.6389028489149486,
                1.1332941382278652,
                -3.1258638954869404
            ]
        },
        {
            "positions": [
                -1.5773922435004908,
                -1.3676071276572312,
                1.9684572951307624,
                -0.5846347118276315,
                1.2976285165148604,
                -3.126306619435312
            ]
        },
        {
            "positions": [
                -1.673829141117214,
                -1.4167236220956634,
                1.9582870869183406,
                -0.5303665747403145,
                1.4619628948018557,
                -3.126749343383683
            ]
        }
    ]
}