{
    "goal": {
        "global_pose": {
            "orientation": {
                "w": 0.7047431468963623,
                "x": -0.7094548344612122,
                "y": 0.0024358443915843964,
                "z": -0.0022348060738295317
            },
            "position": {
                "x": 0.6094750761985779,
                "y": 0.3671506643295288,
                "z": 0.19426114857196808
            }
        },
        "name": "move_to_magneteinheit_A"
    },
    "id": "BiTRRT_move_to_magneteinheit_A_62",
    "joint_names": [
        "shoulder_pan_joint",
        "shoulder_lift_joint",
        "elbow_joint",
        "wrist_1_joint",
        "wrist_2_joint",
        "wrist_3_joint"
    ],
    "metrics": {
        "cart_traj_len": 3.6349157660707854,
        "distance_elbow_joint": 3.8881944110063937,
        "distance_shoulder_lift_joint": 0.4083356587139668,
        "distance_shoulder_pan_joint": 3.1396179850158763,
        "distance_wrist_1_joint": 1.1783185687613509,
        "distance_wrist_2_joint": 1.7100660417482096,
        "distance_wrist_3_joint": 3.7806439771273754,
        "smoothness": 0.2653726418396797,
        "time": 0.124594111,
        "traj_len": 3.7556859083758813,
        "weighted_distance": 4.955284977389039
    },
    "planner": "BiTRRT",
    "start": {
        "state": {
            "elbow_joint": -1.9196185241190666,
            "shoulder_lift_joint": -1.2443396400964142,
            "shoulder_pan_joint": 2.6996025414629847,
            "wrist_1_joint": -1.5485510000780065,
            "wrist_2_joint": -1.5709468930060704,
            "wrist_3_joint": 0.4420197071253992
        }
    },
    "waypoints": [
        {
            "positions": [
                2.6996025414629847,
                -1.2443396400964142,
                -1.9196185241190666,
                -1.5485510000780065,
                -1.5709468930060704,
                0.4420197071253992
            ]
        },
        {
            "positions": [
                2.59822912743104,
                -1.2418504952963563,
                -1.8161341734580099,
                -1.5038632816929407,
                -1.517166740414651,
                0.36683102053990246
            ]
        },
        {
            "positions": [
                2.4968557133990945,
                -1.2393613504962984,
                -1.712649822796953,
                -1.459175563307875,
                -1.4633865878232315,
                0.2916423339544057
            ]
        },
        {
            "positions": [
                2.3954822993671496,
                -1.2368722056962407,
                -1.6091654721358961,
                -1.414487844922809,
                -1.4096064352318118,
                0.21645364736890899
            ]
        },
        {
            "positions": [
                2.2941088853352047,
                -1.2343830608961828,
                -1.5056811214748393,
                -1.3698001265377433,
                -1.3558262826403924,
                0.14126496078341222
            ]
        },
        {
            "positions": [
                2.19273547130326,
                -1.2318939160961249,
                -1.4021967708137826,
                -1.3251124081526777,
                -1.302046130048973,
                0.06607627419791551
            ]
        },
        {
            "positions": [
                2.091362057271315,
                -1.229404771296067,
                -1.2987124201527258,
                -1.280424689767612,
                -1.2482659774575535,
                -0.009112412387581204
            ]
        },
        {
            "positions": [
                1.9899886432393696,
                -1.2269156264960093,
                -1.195228069491669,
                -1.2357369713825461,
                -1.1944858248661339,
                -0.08430109897307791
            ]
        },
        {
            "positions": [
                1.8886152292074248,
                -1.2244264816959514,
                -1.091743718830612,
                -1.1910492529974803,
                -1.1407056722747144,
                -0.15948978555857474
            ]
        },
        {
            "positions": [
                1.7872418151754796,
                -1.2219373368958935,
                -0.9882593681695553,
                -1.1463615346124145,
                -1.086925519683295,
                -0.23467847214407145
            ]
        },
        {
            "positions": [
                1.6858684011435348,
                -1.2194481920958355,
                -0.8847750175084985,
                -1.1016738162273487,
                -1.0331453670918755,
                -0.30986715872956816
            ]
        },
        {
            "positions": [
                1.5844949871115896,
                -1.2169590472957776,
                -0.7812906668474418,
                -1.056986097842283,
                -0.979365214500456,
                -0.38505584531506487
            ]
        },
        {
            "positions": [
                1.4831215730796448,
                -1.21446990249572,
                -0.677806316186385,
                -1.0122983794572171,
                -0.9255850619090366,
                -0.4602445319005616
            ]
        },
        {
            "positions": [
                1.3817481590476997,
                -1.211980757695662,
                -0.574321965525328,
                -0.9676106610721514,
                -0.871804909317617,
                -0.5354332184860584
            ]
        },
        {
            "positions": [
                1.2803747450157545,
                -1.2094916128956041,
                -0.47083761486427145,
                -0.9229229426870856,
                -0.8180247567261976,
                -0.610621905071555
            ]
        },
        {
            "positions": [
                1.1790013309838097,
                -1.2070024680955462,
                -0.3673532642032147,
                -0.87823522430202,
                -0.7642446041347781,
                -0.6858105916570517
            ]
        },
        {
            "positions": [
                1.0776279169518646,
                -1.2045133232954885,
                -0.2638689135421577,
                -0.833547505916954,
                -0.7104644515433586,
                -0.7609992782425486
            ]
        },
        {
            "positions": [
                0.9762545029199197,
                -1.2020241784954306,
                -0.16038456288110092,
                -0.7888597875318883,
                -0.656684298951939,
                -0.8361879648280451
            ]
        },
        {
            "positions": [
                0.8748810888879746,
                -1.1995350336953727,
                -0.05690021222004393,
                -0.7441720691468225,
                -0.6029041463605195,
                -0.9113766514135421
            ]
        },
        {
            "positions": [
                0.7735076748560297,
                -1.1970458888953148,
                0.046584138441012835,
                -0.6994843507617567,
                -0.5491239937691001,
                -0.9865653379990388
            ]
        },
        {
            "positions": [
                0.6721342608240848,
                -1.1945567440952571,
                0.1500684891020696,
                -0.6547966323766911,
                -0.4953438411776807,
                -1.0617540245845354
            ]
        },
        {
            "positions": [
                0.5707608467921395,
                -1.1920675992951992,
                0.2535528397631266,
                -0.6101089139916251,
                -0.44156368858626105,
                -1.136942711170032
            ]
        },
        {
            "positions": [
                0.46938743276019446,
                -1.1895784544951413,
                0.35703719042418325,
                -0.5654211956065595,
                -0.3877835359948416,
                -1.212131397755529
            ]
        },
        {
            "positions": [
                0.4210886148917439,
                -1.1739443922132138,
                0.46324909659613783,
                -0.5781838947394755,
                -0.3501550290434903,
                -1.3707229361669242
            ]
        },
        {
            "positions": [
                0.3727897970232933,
                -1.1583103299312862,
                0.5694610027680924,
                -0.5909465938723917,
                -0.31252652209213894,
                -1.5293144745783191
            ]
        },
        {
            "positions": [
                0.3244909791548427,
                -1.1426762676493587,
                0.6756729089400471,
                -0.6037092930053077,
                -0.2748980151407876,
                -1.6879060129897143
            ]
        },
        {
            "positions": [
                0.27619216128639207,
                -1.1270422053674314,
                0.7818848151120017,
                -0.6164719921382238,
                -0.23726950818943626,
                -1.8464975514011095
            ]
        },
        {
            "positions": [
                0.22789334341794149,
                -1.1114081430855038,
                0.8880967212839562,
                -0.62923469127114,
                -0.19964100123808493,
                -2.0050890898125044
            ]
        },
        {
            "positions": [
                0.1795945255494909,
                -1.0957740808035763,
                0.9943086274559109,
                -0.641997390404056,
                -0.1620124942867336,
                -2.1636806282239
            ]
        },
        {
            "positions": [
                0.13129570768104032,
                -1.0801400185216488,
                1.1005205336278654,
                -0.6547600895369721,
                -0.12438398733538225,
                -2.322272166635295
            ]
        },
        {
            "positions": [
                0.08299688981258968,
                -1.0645059562397212,
                1.20673243979982,
                -0.6675227886698882,
                -0.08675548038403091,
                -2.4808637050466897
            ]
        },
        {
            "positions": [
                0.03469807194413915,
                -1.0488718939577937,
                1.3129443459717747,
                -0.6802854878028043,
                -0.04912697343267958,
                -2.6394552434580847
            ]
        },
        {
            "positions": [
                -0.013600745924311486,
                -1.0332378316758661,
                1.419156252143729,
                -0.6930481869357203,
                -0.01149846648132824,
                -2.79804678186948
            ]
        },
        {
            "positions": [
                -0.06189956379276207,
                -1.0176037693939388,
                1.5253681583156835,
                -0.7058108860686364,
                0.026130040470023097,
                -2.956638320280875
            ]
        },
        {
            "positions": [
                -0.11019838166121265,
                -1.0019697071120113,
                1.6315800644876384,
                -0.7185735852015526,
                0.06375854742137443,
                -3.1152298586922704
            ]
        },
        {
            "positions": [
                -0.15849719952966324,
                -0.9863356448300837,
                1.7377919706595928,
                -0.7313362843344686,
                0.10138705437272577,
                -3.2738213971036654
            ]
        },
        {
            "positions": [
                -0.06465778485525424,
                -1.0364461993126293,
                1.8147199427355047,
                -0.7410941761884668,
                0.1139644191625303,
                -3.252220439470895
            ]
        },
        {
            "positions": [
                0.02918162981915476,
                -1.0865567537951746,
                1.8916479148114167,
                -0.750852068042465,
                0.12654178395233484,
                -3.2306194818381244
            ]
        },
        {
            "positions": [
                0.1230210444935638,
                -1.1366673082777201,
                1.9685758868873287,
                -0.7606099598964632,
                0.13911914874213938,
                -3.209018524205354
            ]
        }
    ]
}