{
    "goal": {
        "global_pose": {
            "orientation": {
                "w": 0.7047431468963623,
                "x": -0.7094548344612122,
                "y": 0.0024358443915843964,
                "z": -0.0022348060738295317
            },
            "position": {
                "x": 0.6094750761985779,
                "y": 0.3671506643295288,
                "z": 0.19426114857196808
            }
        },
        "name": "move_to_magneteinheit_A"
    },
    "id": "BiTRRT_move_to_magneteinheit_A_110",
    "joint_names": [
        "shoulder_pan_joint",
        "shoulder_lift_joint",
        "elbow_joint",
        "wrist_1_joint",
        "wrist_2_joint",
        "wrist_3_joint"
    ],
    "metrics": {
        "cart_traj_len": 3.48316503595751,
        "distance_elbow_joint": 4.145501260151386,
        "distance_shoulder_lift_joint": 1.4398568468830855,
        "distance_shoulder_pan_joint": 3.0533232378393955,
        "distance_wrist_1_joint": 3.4639023566814826,
        "distance_wrist_2_joint": 2.228298784870318,
        "distance_wrist_3_joint": 0.9177957954527879,
        "smoothness": 0.44930709745963004,
        "time": 0.118101065,
        "traj_len": 3.90495560562197,
        "weighted_distance": 4.772470116651946
    },
    "planner": "BiTRRT",
    "start": {
        "state": {
            "elbow_joint": -1.9196185241190666,
            "shoulder_lift_joint": -1.2443396400964142,
            "shoulder_pan_joint": 2.6996025414629847,
            "wrist_1_joint": -1.5485510000780065,
            "wrist_2_joint": -1.5709468930060704,
            "wrist_3_joint": 0.4420197071253992
        }
    },
    "waypoints": [
        {
            "positions": [
                2.6996025414629847,
                -1.2443396400964142,
                -1.9196185241190666,
                -1.5485510000780065,
                -1.5709468930060704,
                0.4420197071253992
            ]
        },
        {
            "positions": [
                2.5819039822720726,
                -1.2209594015561516,
                -1.8275704796298693,
                -1.4688967343755046,
                -1.5233874146332966,
                0.41468878559267675
            ]
        },
        {
            "positions": [
                2.4642054230811605,
                -1.197579163015889,
                -1.735522435140672,
                -1.389242468673003,
                -1.475827936260523,
                0.38735786405995437
            ]
        },
        {
            "positions": [
                2.346506863890249,
                -1.1741989244756263,
                -1.6434743906514746,
                -1.309588202970501,
                -1.4282684578877494,
                0.36002694252723194
            ]
        },
        {
            "positions": [
                2.2288083046993368,
                -1.1508186859353637,
                -1.5514263461622773,
                -1.2299339372679992,
                -1.3807089795149758,
                0.33269602099450957
            ]
        },
        {
            "positions": [
                2.1111097455084247,
                -1.1274384473951011,
                -1.45937830167308,
                -1.1502796715654975,
                -1.333149501142202,
                0.30536509946178714
            ]
        },
        {
            "positions": [
                1.9934111863175126,
                -1.1040582088548385,
                -1.3673302571838826,
                -1.0706254058629956,
                -1.2855900227694286,
                0.2780341779290647
            ]
        },
        {
            "positions": [
                1.8757126271266005,
                -1.080677970314576,
                -1.2752822126946852,
                -0.9909711401604938,
                -1.2380305443966548,
                0.2507032563963423
            ]
        },
        {
            "positions": [
                1.7580140679356886,
                -1.0572977317743133,
                -1.1832341682054877,
                -0.9113168744579919,
                -1.190471066023881,
                0.2233723348636199
            ]
        },
        {
            "positions": [
                1.6403155087447765,
                -1.0339174932340507,
                -1.0911861237162903,
                -0.83166260875549,
                -1.1429115876511076,
                0.19604141333089747
            ]
        },
        {
            "positions": [
                1.5226169495538646,
                -1.010537254693788,
                -0.999138079227093,
                -0.7520083430529884,
                -1.0953521092783338,
                0.1687104917981751
            ]
        },
        {
            "positions": [
                1.4049183903629525,
                -0.9871570161535255,
                -0.9070900347378956,
                -0.6723540773504865,
                -1.04779263090556,
                0.14137957026545267
            ]
        },
        {
            "positions": [
                1.2872198311720406,
                -0.9637767776132629,
                -0.8150419902486983,
                -0.5926998116479847,
                -1.0002331525327866,
                0.1140486487327303
            ]
        },
        {
            "positions": [
                1.1695212719811283,
                -0.9403965390730002,
                -0.7229939457595009,
                -0.5130455459454828,
                -0.9526736741600128,
                0.08671772720000781
            ]
        },
        {
            "positions": [
                1.0518227127902164,
                -0.9170163005327376,
                -0.6309459012703036,
                -0.4333912802429811,
                -0.9051141957872393,
                0.059386805667285436
            ]
        },
        {
            "positions": [
                0.9341241535993046,
                -0.893636061992475,
                -0.5388978567811062,
                -0.35373701454047923,
                -0.8575547174144657,
                0.03205588413456306
            ]
        },
        {
            "positions": [
                0.8164255944083925,
                -0.8702558234522124,
                -0.4468498122919087,
                -0.27408274883797734,
                -0.8099952390416919,
                0.004724962601840632
            ]
        },
        {
            "positions": [
                0.6987270352174804,
                -0.8468755849119498,
                -0.35480176780271155,
                -0.19442848313547567,
                -0.7624357606689183,
                -0.022605958930881798
            ]
        },
        {
            "positions": [
                0.5810284760265683,
                -0.8234953463716872,
                -0.262753723313514,
                -0.11477421743297356,
                -0.7148762822961445,
                -0.04993688046360423
            ]
        },
        {
            "positions": [
                0.46332991683565616,
                -0.8001151078314246,
                -0.17070567882431664,
                -0.03511995173047189,
                -0.6673168039233709,
                -0.07726780199632666
            ]
        },
        {
            "positions": [
                0.3456313576447445,
                -0.776734869291162,
                -0.0786576343351193,
                0.04453431397202978,
                -0.6197573255505974,
                -0.10459872352904898
            ]
        },
        {
            "positions": [
                0.2279327984538324,
                -0.7533546307508994,
                0.013390410154078047,
                0.1241885796745319,
                -0.5721978471778236,
                -0.1319296450617714
            ]
        },
        {
            "positions": [
                0.11023423926292021,
                -0.7299743922106368,
                0.10543845464327518,
                0.20384284537703362,
                -0.52463836880505,
                -0.15926056659449378
            ]
        },
        {
            "positions": [
                0.09412450541678925,
                -0.7647151071578397,
                0.2485482135028323,
                0.3230824604955276,
                -0.46846962576443096,
                -0.14217559572598418
            ]
        },
        {
            "positions": [
                0.07801477157065831,
                -0.7994558221050426,
                0.3916579723623894,
                0.4423220756140215,
                -0.41230088272381193,
                -0.12509062485747457
            ]
        },
        {
            "positions": [
                0.06190503772452735,
                -0.8341965370522456,
                0.5347677312219465,
                0.5615616907325154,
                -0.3561321396831929,
                -0.10800565398896494
            ]
        },
        {
            "positions": [
                0.04579530387839639,
                -0.8689372519994485,
                0.6778774900815037,
                0.6808013058510094,
                -0.2999633966425739,
                -0.09092068312045534
            ]
        },
        {
            "positions": [
                0.029685570032265435,
                -0.9036779669466515,
                0.8209872489410608,
                0.8000409209695034,
                -0.24379465360195485,
                -0.07383571225194573
            ]
        },
        {
            "positions": [
                0.01357583618613449,
                -0.9384186818938544,
                0.9640970078006179,
                0.9192805360879972,
                -0.18762591056133582,
                -0.056750741383436124
            ]
        },
        {
            "positions": [
                -0.0025338976599964674,
                -0.9731593968410573,
                1.107206766660175,
                1.0385201512064912,
                -0.1314571675207168,
                -0.03966577051492651
            ]
        },
        {
            "positions": [
                -0.018643631506127425,
                -1.0079001117882602,
                1.2503165255197322,
                1.1577597663249852,
                -0.07528842448009776,
                -0.022580799646416905
            ]
        },
        {
            "positions": [
                -0.034753365352258384,
                -1.0426408267354632,
                1.3934262843792893,
                1.2769993814434792,
                -0.01911968143947873,
                -0.0054958287779072745
            ]
        },
        {
            "positions": [
                -0.05086309919838934,
                -1.0773815416826662,
                1.5365360432388464,
                1.396238996561973,
                0.0370490616011403,
                0.011589142090602328
            ]
        },
        {
            "positions": [
                -0.06697283304452027,
                -1.1121222566298692,
                1.6796458020984035,
                1.515478611680467,
                0.09321780464175933,
                0.02867411295911193
            ]
        },
        {
            "positions": [
                -0.08308256689065123,
                -1.146862971577072,
                1.8227555609579607,
                1.6347182267989608,
                0.14938654768237836,
                0.04575908382762153
            ]
        },
        {
            "positions": [
                -0.09919230073678219,
                -1.181603686524275,
                1.9658653198175178,
                1.753957841917455,
                0.20555529072299739,
                0.06284405469613116
            ]
        },
        {
            "positions": [
                -0.11530203458291316,
                -1.216344401471478,
                2.108975078677075,
                1.8731974570359489,
                0.2617240337636164,
                0.07992902556464077
            ]
        },
        {
            "positions": [
                -0.05569736913453943,
                -1.1065640040373612,
                2.0797481643382647,
                1.8837359319278308,
                0.1628170692384587,
                0.06059754317120061
            ]
        },
        {
            "positions": [
                0.003907296313834296,
                -0.9967836066032445,
                2.050521249999454,
                1.8942744068197128,
                0.063910104713301,
                0.04126606077776046
            ]
        },
        {
            "positions": [
                0.06351196176220802,
                -0.8870032091691277,
                2.0212943356606434,
                1.9048128817115946,
                -0.03499685981185674,
                0.021934578384320308
            ]
        },
        {
            "positions": [
                0.12311662721058174,
                -0.777222811735011,
                1.992067421321833,
                1.9153513566034766,
                -0.13390382433701445,
                0.0026030959908801615
            ]
        }
    ]
}