{
    "goal": {
        "global_pose": {
            "orientation": {
                "w": 0.005598929693374612,
                "x": 0.007748599140229565,
                "y": 0.7110244013736278,
                "z": -0.7031023480610252
            },
            "position": {
                "x": -0.8858502320852131,
                "y": -0.7141253447532654,
                "z": 0.3711530566215515
            }
        },
        "name": "move_to_auspresseinheit_C"
    },
    "id": "BiTRRT_move_to_auspresseinheit_C_114",
    "joint_names": [
        "shoulder_pan_joint",
        "shoulder_lift_joint",
        "elbow_joint",
        "wrist_1_joint",
        "wrist_2_joint",
        "wrist_3_joint"
    ],
    "metrics": {
        "cart_traj_len": 0.4918900324594373,
        "distance_elbow_joint": 0.9896160668035723,
        "distance_shoulder_lift_joint": 0.3206183243106493,
        "distance_shoulder_pan_joint": 0.25599182533897746,
        "distance_wrist_1_joint": 0.6576077002858347,
        "distance_wrist_2_joint": 1.308407308986812,
        "distance_wrist_3_joint": 0.045829366377033054,
        "smoothness": 3.2297397080004555e-16,
        "time": 0.036059279,
        "traj_len": 1.8915788622478522,
        "weighted_distance": 2.3739722690312943
    },
    "planner": "BiTRRT",
    "start": {
        "state": {
            "elbow_joint": 1.7527959577737207,
            "shoulder_lift_joint": -0.9740617694225068,
            "shoulder_pan_joint": -2.967991417825858,
            "wrist_1_joint": -0.759517768980727,
            "wrist_2_joint": 1.7443932448377408,
            "wrist_3_joint": -3.0840537646736568
        }
    },
    "waypoints": [
        {
            "positions": [
                -2.967991417825858,
                -0.9740617694225068,
                1.7527959577737207,
                -0.759517768980727,
                1.7443932448377408,
                -3.0840537646736568
            ]
        },
        {
            "positions": [
                -2.94239223529196,
                -0.9419999369914418,
                1.6538343510933635,
                -0.6937569989521435,
                1.6135525139390596,
                -3.0886367013113603
            ]
        },
        {
            "positions": [
                -2.9167930527580626,
                -0.9099381045603769,
                1.5548727444130062,
                -0.62799622892356,
                1.4827117830403784,
                -3.0932196379490633
            ]
        },
        {
            "positions": [
                -2.8911938702241646,
                -0.877876272129312,
                1.455911137732649,
                -0.5622354588949766,
                1.3518710521416972,
                -3.0978025745867668
            ]
        },
        {
            "positions": [
                -2.865594687690267,
                -0.845814439698247,
                1.3569495310522917,
                -0.49647468886639307,
                1.221030321243016,
                -3.10238551122447
            ]
        },
        {
            "positions": [
                -2.8399955051563692,
                -0.8137526072671821,
                1.2579879243719345,
                -0.43071391883780963,
                1.0901895903443348,
                -3.1069684478621733
            ]
        },
        {
            "positions": [
                -2.8143963226224713,
                -0.7816907748361173,
                1.1590263176915774,
                -0.3649531488092262,
                0.9593488594456536,
                -3.111551384499877
            ]
        },
        {
            "positions": [
                -2.788797140088574,
                -0.7496289424050523,
                1.0600647110112202,
                -0.2991923787806427,
                0.8285081285469725,
                -3.11613432113758
            ]
        },
        {
            "positions": [
                -2.763197957554676,
                -0.7175671099739873,
                0.9611031043308628,
                -0.23343160875205915,
                0.6976673976482912,
                -3.1207172577752833
            ]
        },
        {
            "positions": [
                -2.7375987750207784,
                -0.6855052775429225,
                0.8621414976505056,
                -0.16767083872347577,
                0.56682666674961,
                -3.1253001944129863
            ]
        },
        {
            "positions": [
                -2.7119995924868805,
                -0.6534434451118575,
                0.7631798909701484,
                -0.10191006869489232,
                0.43598593585092876,
                -3.12988313105069
            ]
        }
    ]
}