{
    "goal": {
        "global_pose": {
            "orientation": {
                "w": -0.00223480608172531,
                "x": 0.0024358444001904467,
                "y": 0.7094548369677653,
                "z": -0.704743149386269
            },
            "position": {
                "x": 0.6205249238014221,
                "y": -0.6371506643295288,
                "z": 0.19426114857196808
            }
        },
        "name": "move_to_magneteinheit_B"
    },
    "id": "BiTRRT_move_to_magneteinheit_B_150",
    "joint_names": [
        "shoulder_pan_joint",
        "shoulder_lift_joint",
        "elbow_joint",
        "wrist_1_joint",
        "wrist_2_joint",
        "wrist_3_joint"
    ],
    "metrics": {
        "cart_traj_len": 3.391265752660557,
        "distance_elbow_joint": 4.685167027893442,
        "distance_shoulder_lift_joint": 0.7674026013093327,
        "distance_shoulder_pan_joint": 2.018103910940852,
        "distance_wrist_1_joint": 4.393864695766287,
        "distance_wrist_2_joint": 0.31304640144599244,
        "distance_wrist_3_joint": 3.1420689623204208,
        "smoothness": 0.28093813094183556,
        "time": 0.17601011,
        "traj_len": 3.914032907331814,
        "weighted_distance": 5.129395931445481
    },
    "planner": "BiTRRT",
    "start": {
        "state": {
            "elbow_joint": 2.6216224122426386,
            "shoulder_lift_joint": -1.4174107377796124,
            "shoulder_pan_joint": 0.7066234856936794,
            "wrist_1_joint": 1.9546482284002225,
            "wrist_2_joint": -0.7096286983471962,
            "wrist_3_joint": 0.005740856962016249
        }
    },
    "waypoints": [
        {
            "positions": [
                0.7066234856936794,
                -1.4174107377796124,
                2.6216224122426386,
                1.9546482284002225,
                -0.7096286983471962,
                0.005740856962016249
            ]
        },
        {
            "positions": [
                0.7896023246390467,
                -1.4339194684664749,
                2.635974107714818,
                1.9401735256972774,
                -0.7263105373033909,
                -0.07362474266697361
            ]
        },
        {
            "positions": [
                0.906925916145079,
                -1.4752494010988895,
                2.6225229007546056,
                1.8666969477878186,
                -0.7146567588568539,
                -0.190388011480266
            ]
        },
        {
            "positions": [
                0.9742463740825583,
                -1.5065668742541227,
                2.5464160764821164,
                1.7590455564499352,
                -0.6942366678462684,
                -0.26592497584741503
            ]
        },
        {
            "positions": [
                1.0415668320200377,
                -1.5378843474093562,
                2.470309252209627,
                1.6513941651120518,
                -0.673816576835683,
                -0.3414619402145641
            ]
        },
        {
            "positions": [
                1.108887289957517,
                -1.5692018205645897,
                2.3942024279371377,
                1.5437427737741687,
                -0.6533964858250975,
                -0.4169989045817131
            ]
        },
        {
            "positions": [
                1.1762077478949964,
                -1.600519293719823,
                2.3180956036646485,
                1.4360913824362853,
                -0.632976394814512,
                -0.49253586894886214
            ]
        },
        {
            "positions": [
                1.2264363464787376,
                -1.607773080385971,
                2.1781109702060166,
                1.312852588880544,
                -0.6290004984476377,
                -0.5546373767436055
            ]
        },
        {
            "positions": [
                1.2766649450624787,
                -1.6150268670521193,
                2.0381263367473847,
                1.1896137953248027,
                -0.6250246020807635,
                -0.6167388845383488
            ]
        },
        {
            "positions": [
                1.32689354364622,
                -1.6222806537182672,
                1.8981417032887526,
                1.0663750017690614,
                -0.6210487057138893,
                -0.6788403923330921
            ]
        },
        {
            "positions": [
                1.377122142229961,
                -1.6295344403844154,
                1.7581570698301205,
                0.9431362082133201,
                -0.617072809347015,
                -0.7409419001278355
            ]
        },
        {
            "positions": [
                1.4273507408137023,
                -1.6367882270505636,
                1.6181724363714887,
                0.8198974146575788,
                -0.6130969129801408,
                -0.8030434079225788
            ]
        },
        {
            "positions": [
                1.4775793393974435,
                -1.6440420137167118,
                1.4781878029128568,
                0.6966586211018376,
                -0.6091210166132666,
                -0.8651449157173221
            ]
        },
        {
            "positions": [
                1.5278079379811846,
                -1.65129580038286,
                1.338203169454225,
                0.5734198275460963,
                -0.6051451202463923,
                -0.9272464235120654
            ]
        },
        {
            "positions": [
                1.5780365365649258,
                -1.658549587049008,
                1.1982185359955928,
                0.45018103399035503,
                -0.6011692238795181,
                -0.9893479313068088
            ]
        },
        {
            "positions": [
                1.628265135148667,
                -1.665803373715156,
                1.058233902536961,
                0.3269422404346136,
                -0.5971933275126439,
                -1.0514494391015523
            ]
        },
        {
            "positions": [
                1.6784937337324082,
                -1.6730571603813043,
                0.9182492690783288,
                0.20370344687887232,
                -0.5932174311457696,
                -1.1135509468962956
            ]
        },
        {
            "positions": [
                1.7287223323161491,
                -1.6803109470474524,
                0.7782646356196972,
                0.08046465332313124,
                -0.5892415347788954,
                -1.1756524546910387
            ]
        },
        {
            "positions": [
                1.7789509308998905,
                -1.6875647337136006,
                0.6382800021610651,
                -0.04277414023261006,
                -0.5852656384120212,
                -1.2377539624857823
            ]
        },
        {
            "positions": [
                1.8291795294836315,
                -1.6948185203797486,
                0.49829536870243296,
                -0.16601293378835136,
                -0.5812897420451469,
                -1.2998554702805256
            ]
        },
        {
            "positions": [
                1.879408128067373,
                -1.7020723070458967,
                0.3583107352438011,
                -0.28925172734409266,
                -0.5773138456782727,
                -1.361956978075269
            ]
        },
        {
            "positions": [
                1.9296367266511139,
                -1.709326093712045,
                0.21832610178516898,
                -0.4124905208998342,
                -0.5733379493113986,
                -1.4240584858700123
            ]
        },
        {
            "positions": [
                1.9798653252348553,
                -1.716579880378193,
                0.0783414683265371,
                -0.5357293144555753,
                -0.5693620529445242,
                -1.4861599936647556
            ]
        },
        {
            "positions": [
                2.030093923818596,
                -1.723833667044341,
                -0.061643165132094335,
                -0.6589681080113163,
                -0.5653861565776501,
                -1.5482615014594987
            ]
        },
        {
            "positions": [
                2.0803225224023376,
                -1.7310874537104892,
                -0.20162779859072666,
                -0.7822069015670581,
                -0.5614102602107759,
                -1.6103630092542423
            ]
        },
        {
            "positions": [
                2.1305511209860786,
                -1.7383412403766374,
                -0.34161243204935854,
                -0.9054456951227989,
                -0.5574343638439017,
                -1.6724645170489854
            ]
        },
        {
            "positions": [
                2.18077971956982,
                -1.7455950270427856,
                -0.48159706550799086,
                -1.0286844886785407,
                -0.5534584674770274,
                -1.734566024843729
            ]
        },
        {
            "positions": [
                2.231008318153561,
                -1.7528488137089338,
                -0.6215816989666227,
                -1.1519232822342815,
                -0.5494825711101532,
                -1.7966675326384722
            ]
        },
        {
            "positions": [
                2.281236916737302,
                -1.7601026003750817,
                -0.7615663324252542,
                -1.2751620757900228,
                -0.545506674743279,
                -1.8587690404332153
            ]
        },
        {
            "positions": [
                2.3314655153210433,
                -1.7673563870412299,
                -0.9015509658838865,
                -1.3984008693457641,
                -0.5415307783764047,
                -1.9208705482279589
            ]
        },
        {
            "positions": [
                2.3816941139047847,
                -1.774610173707378,
                -1.0415355993425184,
                -1.5216396629015054,
                -0.5375548820095305,
                -1.9829720560227022
            ]
        },
        {
            "positions": [
                2.4319227124885257,
                -1.7818639603735262,
                -1.1815202328011503,
                -1.6448784564572467,
                -0.5335789856426563,
                -2.0450735638174455
            ]
        },
        {
            "positions": [
                2.4821513110722666,
                -1.7891177470396744,
                -1.3215048662597826,
                -1.768117250012988,
                -0.529603089275782,
                -2.107175071612189
            ]
        },
        {
            "positions": [
                2.532379909656008,
                -1.7963715337058224,
                -1.461489499718414,
                -1.8913560435687293,
                -0.5256271929089078,
                -2.169276579406932
            ]
        },
        {
            "positions": [
                2.5826085082397494,
                -1.8036253203719705,
                -1.6014741331770463,
                -2.014594837124471,
                -0.5216512965420336,
                -2.2313780872016755
            ]
        },
        {
            "positions": [
                2.6328371068234904,
                -1.8108791070381187,
                -1.7414587666356784,
                -2.1378336306802117,
                -0.5176754001751593,
                -2.293479594996419
            ]
        },
        {
            "positions": [
                2.6624555662238256,
                -1.8293250246978072,
                -1.7930671719335733,
                -2.190141559163498,
                -0.5315281630146916,
                -2.346120670298607
            ]
        },
        {
            "positions": [
                2.6920740256241613,
                -1.8477709423574957,
                -1.844675577231468,
                -2.242449487646784,
                -0.5453809258542239,
                -2.398761745600795
            ]
        },
        {
            "positions": [
                2.6839106828715686,
                -1.9320315415403582,
                -1.7971341653627235,
                -2.2916412325766045,
                -0.5303749509335985,
                -2.583153335540197
            ]
        },
        {
            "positions": [
                2.675747340118976,
                -2.0162921407232206,
                -1.749592753493979,
                -2.340832977506425,
                -0.5153689760129732,
                -2.7675449254795996
            ]
        },
        {
            "positions": [
                2.6675839973663837,
                -2.1005527399060826,
                -1.7020513416252345,
                -2.390024722436245,
                -0.5003630010923478,
                -2.951936515419002
            ]
        },
        {
            "positions": [
                2.659420654613791,
                -2.184813339088945,
                -1.65450992975649,
                -2.4392164673660655,
                -0.48535702617172233,
                -3.1363281053584044
            ]
        }
    ]
}