{
    "goal": {
        "global_pose": {
            "orientation": {
                "w": 0.5084816262002911,
                "x": -0.4908360881923452,
                "y": 0.5182115481033761,
                "z": -0.48164630358495003
            },
            "position": {
                "x": 0.5540239810943604,
                "y": -0.46912469901144505,
                "z": 0.16403168439865112
            }
        },
        "name": "move_to_storage_B"
    },
    "id": "BiTRRT_move_to_storage_B_33",
    "joint_names": [
        "shoulder_pan_joint",
        "shoulder_lift_joint",
        "elbow_joint",
        "wrist_1_joint",
        "wrist_2_joint",
        "wrist_3_joint"
    ],
    "metrics": {
        "cart_traj_len": 1.342982953200732,
        "distance_elbow_joint": 0.47618770098451346,
        "distance_shoulder_lift_joint": 0.4588915518232448,
        "distance_shoulder_pan_joint": 1.503350665887509,
        "distance_wrist_1_joint": 4.309531064583719,
        "distance_wrist_2_joint": 2.7663001228252395,
        "distance_wrist_3_joint": 3.135886400026898,
        "smoothness": 0.3555160880111369,
        "time": 0.103885958,
        "traj_len": 3.556704585164633,
        "weighted_distance": 5.0987990246325525
    },
    "planner": "BiTRRT",
    "start": {
        "state": {
            "elbow_joint": 1.664937868594044,
            "shoulder_lift_joint": -0.661644460510453,
            "shoulder_pan_joint": -0.9139846352900073,
            "wrist_1_joint": 2.146753192139373,
            "wrist_2_joint": -2.2341966793290973,
            "wrist_3_joint": 0.005466555786416001
        }
    },
    "waypoints": [
        {
            "positions": [
                -0.9139846352900073,
                -0.661644460510453,
                1.664937868594044,
                2.146753192139373,
                -2.2341966793290973,
                0.005466555786416001
            ]
        },
        {
            "positions": [
                -0.8195060336701459,
                -0.7102074437264839,
                1.7239330071803531,
                2.241297944183993,
                -2.2385307316679746,
                0.07175311816369719
            ]
        },
        {
            "positions": [
                -0.7250274320502844,
                -0.7587704269425148,
                1.7829281457666624,
                2.335842696228613,
                -2.242864784006852,
                0.13803968054097837
            ]
        },
        {
            "positions": [
                -0.630548830430423,
                -0.8073334101585458,
                1.8419232843529716,
                2.4303874482732324,
                -2.247198836345729,
                0.20432624291825954
            ]
        },
        {
            "positions": [
                -0.5360702288105615,
                -0.8558963933745767,
                1.9009184229392808,
                2.5249322003178523,
                -2.251532888684607,
                0.27061280529554077
            ]
        },
        {
            "positions": [
                -0.4415916271907001,
                -0.9044593765906077,
                1.9599135615255903,
                2.619476952362472,
                -2.255866941023484,
                0.33689936767282197
            ]
        },
        {
            "positions": [
                -0.3471130255708387,
                -0.9530223598066385,
                2.0189087001118993,
                2.714021704407092,
                -2.2602009933623615,
                0.4031859300501031
            ]
        },
        {
            "positions": [
                -0.25263442395097724,
                -1.0015853430226695,
                2.0779038386982087,
                2.808566456451712,
                -2.2645350457012388,
                0.4694724924273843
            ]
        },
        {
            "positions": [
                -0.2850190568182264,
                -1.0061603687654015,
                2.075472233664349,
                2.668269617979736,
                -2.1593057473761195,
                0.5722371256345354
            ]
        },
        {
            "positions": [
                -0.3174036896854756,
                -1.0107353945081332,
                2.0730406286304897,
                2.52797277950776,
                -2.0540764490510006,
                0.6750017588416866
            ]
        },
        {
            "positions": [
                -0.34978832255272474,
                -1.0153104202508652,
                2.07060902359663,
                2.3876759410357833,
                -1.9488471507258813,
                0.7777663920488378
            ]
        },
        {
            "positions": [
                -0.3821729554199739,
                -1.0198854459935969,
                2.0681774185627706,
                2.2473791025638072,
                -1.843617852400762,
                0.8805310252559888
            ]
        },
        {
            "positions": [
                -0.4145575882872231,
                -1.0244604717363288,
                2.065745813528911,
                2.107082264091831,
                -1.738388554075643,
                0.98329565846314
            ]
        },
        {
            "positions": [
                -0.4469422211544723,
                -1.0290354974790608,
                2.0633142084950515,
                1.9667854256198551,
                -1.633159255750524,
                1.0860602916702913
            ]
        },
        {
            "positions": [
                -0.4793268540217214,
                -1.0336105232217925,
                2.0608826034611916,
                1.826488587147879,
                -1.5279299574254046,
                1.188824924877442
            ]
        },
        {
            "positions": [
                -0.5117114868889706,
                -1.0381855489645244,
                2.058450998427332,
                1.6861917486759028,
                -1.4227006591002853,
                1.2915895580845933
            ]
        },
        {
            "positions": [
                -0.5440961197562197,
                -1.0427605747072564,
                2.0560193933934725,
                1.5458949102039268,
                -1.3174713607751665,
                1.3943541912917445
            ]
        },
        {
            "positions": [
                -0.576480752623469,
                -1.047335600449988,
                2.053587788359613,
                1.4055980717319507,
                -1.2122420624500472,
                1.4971188244988958
            ]
        },
        {
            "positions": [
                -0.6088653854907181,
                -1.05191062619272,
                2.0511561833257534,
                1.2653012332599747,
                -1.107012764124928,
                1.5998834577060468
            ]
        },
        {
            "positions": [
                -0.6412500183579674,
                -1.0564856519354517,
                2.048724578291894,
                1.1250043947879984,
                -1.0017834657998088,
                1.702648090913198
            ]
        },
        {
            "positions": [
                -0.6736346512252165,
                -1.0610606776781837,
                2.0462929732580344,
                0.9847075563160224,
                -0.8965541674746897,
                1.805412724120349
            ]
        },
        {
            "positions": [
                -0.7060192840924656,
                -1.0656357034209156,
                2.043861368224175,
                0.8444107178440463,
                -0.7913248691495707,
                1.9081773573275
            ]
        },
        {
            "positions": [
                -0.7384039169597147,
                -1.0702107291636473,
                2.0414297631903153,
                0.7041138793720703,
                -0.6860955708244516,
                2.010941990534651
            ]
        },
        {
            "positions": [
                -0.770788549826964,
                -1.0747857549063793,
                2.038998158156456,
                0.5638170409000938,
                -0.5808662724993321,
                2.1137066237418027
            ]
        },
        {
            "positions": [
                -0.8031731826942132,
                -1.079360780649111,
                2.0365665531225963,
                0.4235202024281177,
                -0.475636974174213,
                2.2164712569489535
            ]
        },
        {
            "positions": [
                -0.8355578155614624,
                -1.083935806391843,
                2.0341349480887367,
                0.28322336395614167,
                -0.37040767584909395,
                2.3192358901561043
            ]
        },
        {
            "positions": [
                -0.8679424484287115,
                -1.088510832134575,
                2.031703343054877,
                0.14292652548416562,
                -0.2651783775239749,
                2.4220005233632556
            ]
        },
        {
            "positions": [
                -0.9003270812959607,
                -1.0930858578773066,
                2.0292717380210172,
                0.0026296870121895743,
                -0.1599490791988556,
                2.5247651565704072
            ]
        },
        {
            "positions": [
                -0.9327117141632099,
                -1.0976608836200386,
                2.0268401329871577,
                -0.13766715145978647,
                -0.0547197808737363,
                2.627529789777558
            ]
        },
        {
            "positions": [
                -0.965096347030459,
                -1.1022359093627705,
                2.024408527953298,
                -0.2779639899317625,
                0.050509517451382546,
                2.7302944229847093
            ]
        },
        {
            "positions": [
                -0.9974809798977082,
                -1.1068109351055022,
                2.0219769229194386,
                -0.41826082840373857,
                0.15573881577650184,
                2.83305905619186
            ]
        },
        {
            "positions": [
                -1.0298656127649575,
                -1.1113859608482342,
                2.019545317885579,
                -0.5585576668757151,
                0.26096811410162113,
                2.9358236893990117
            ]
        },
        {
            "positions": [
                -1.0622502456322067,
                -1.1159609865909659,
                2.0171137128517196,
                -0.6988545053476911,
                0.36619741242674,
                3.0385883226061625
            ]
        },
        {
            "positions": [
                -1.0946348784994557,
                -1.1205360123336978,
                2.01468210781786,
                -0.8391513438196673,
                0.4714267107518593,
                3.1413529558133138
            ]
        }
    ]
}