{
    "goal": {
        "global_pose": {
            "orientation": {
                "w": 0.5084816217422485,
                "x": -0.49083608388900757,
                "y": 0.5182115435600281,
                "z": -0.4816462993621826
            },
            "position": {
                "x": 0.5540239810943604,
                "y": 0.030875300988554955,
                "z": 0.16403168439865112
            }
        },
        "name": "move_to_storage_A"
    },
    "id": "BiTRRT_move_to_storage_A_82",
    "joint_names": [
        "shoulder_pan_joint",
        "shoulder_lift_joint",
        "elbow_joint",
        "wrist_1_joint",
        "wrist_2_joint",
        "wrist_3_joint"
    ],
    "metrics": {
        "cart_traj_len": 0.35209455550936025,
        "distance_elbow_joint": 0.44783622400686895,
        "distance_shoulder_lift_joint": 0.23524237854858332,
        "distance_shoulder_pan_joint": 0.45936304721954746,
        "distance_wrist_1_joint": 0.23425069523972264,
        "distance_wrist_2_joint": 1.1015469985048736,
        "distance_wrist_3_joint": 0.09970521490460849,
        "smoothness": 1.5543122362334363e-15,
        "time": 0.036696701,
        "traj_len": 1.6055978819194439,
        "weighted_distance": 2.0280908958865767
    },
    "planner": "BiTRRT",
    "start": {
        "state": {
            "elbow_joint": 1.971548259319323,
            "shoulder_lift_joint": -1.1394851275133948,
            "shoulder_pan_joint": 0.1228115487234821,
            "wrist_1_joint": -0.7804723859257726,
            "wrist_2_joint": 0.12958671773740124,
            "wrist_3_joint": -3.192489227718131
        }
    },
    "waypoints": [
        {
            "positions": [
                0.1228115487234821,
                -1.1394851275133948,
                1.971548259319323,
                -0.7804723859257726,
                0.12958671773740124,
                -3.192489227718131
            ]
        },
        {
            "positions": [
                0.05718825626354675,
                -1.173091181591764,
                2.0355248627488756,
                -0.8139367709600187,
                0.2869505746666689,
                -3.1782456255889016
            ]
        },
        {
            "positions": [
                -0.008435036196388607,
                -1.2066972356701329,
                2.0995014661784284,
                -0.8474011559942648,
                0.44431443159593653,
                -3.1640020234596715
            ]
        },
        {
            "positions": [
                -0.07405832865632395,
                -1.240303289748502,
                2.163478069607981,
                -0.8808655410285109,
                0.6016782885252042,
                -3.149758421330442
            ]
        },
        {
            "positions": [
                -0.1396816211162593,
                -1.273909343826871,
                2.227454673037534,
                -0.914329926062757,
                0.7590421454544719,
                -3.135514819201212
            ]
        },
        {
            "positions": [
                -0.20530491357619468,
                -1.30751539790524,
                2.2914312764670868,
                -0.9477943110970031,
                0.9164060023837396,
                -3.1212712170719823
            ]
        },
        {
            "positions": [
                -0.27092820603613,
                -1.341121451983609,
                2.355407879896639,
                -0.9812586961312492,
                1.0737698593130072,
                -3.1070276149427523
            ]
        },
        {
            "positions": [
                -0.33655149849606536,
                -1.3747275060619781,
                2.419384483326192,
                -1.0147230811654953,
                1.2311337162422749,
                -3.0927840128135227
            ]
        }
    ]
}{
    "goal": {
        "global_pose": {
            "orientation": {
                "w": 0.5084816217422485,
                "x": -0.49083608388900757,
                "y": 0.5182115435600281,
                "z": -0.4816462993621826
            },
            "position": {
                "x": 0.5540239810943604,
                "y": 0.030875300988554955,
                "z": 0.16403168439865112
            }
        },
        "name": "move_to_storage_A"
    },
    "id": "BiTRRT_move_to_storage_A_82",
    "joint_names": [
        "shoulder_pan_joint",
        "shoulder_lift_joint",
        "elbow_joint",
        "wrist_1_joint",
        "wrist_2_joint",
        "wrist_3_joint"
    ],
    "metrics": {
        "cart_traj_len": 0.352464686086593,
        "distance_elbow_joint": 0.4488608370706224,
        "distance_shoulder_lift_joint": 0.23272862327971544,
        "distance_shoulder_pan_joint": 0.4615695686785605,
        "distance_wrist_1_joint": 0.24193227915960924,
        "distance_wrist_2_joint": 1.0936894620937634,
        "distance_wrist_3_joint": 0.0967002105817496,
        "smoothness": 1.3322676295501878e-15,
        "time": 0.040134809,
        "traj_len": 1.6048305146849684,
        "weighted_distance": 2.025957339945956
    },
    "planner": "BiTRRT",
    "start": {
        "state": {
            "elbow_joint": 1.97154746011099,
            "shoulder_lift_joint": -1.13948474672311,
            "shoulder_pan_joint": 0.12281154466712228,
            "wrist_1_joint": -0.7804688027058302,
            "wrist_2_joint": 0.12958655903071145,
            "wrist_3_joint": 3.0906928834467795
        }
    },
    "waypoints": [
        {
            "positions": [
                0.12281154466712228,
                -1.13948474672311,
                1.97154746011099,
                -0.7804688027058302,
                0.12958655903071145,
                3.0906928834467795
            ]
        },
        {
            "positions": [
                0.056873034855899354,
                -1.1727316929059264,
                2.0356704368353644,
                -0.8150305568714886,
                0.2858279107583919,
                3.104507199244172
            ]
        },
        {
            "positions": [
                -0.009065474955323574,
                -1.205978639088743,
                2.0997934135597394,
                -0.849592311037147,
                0.44206926248607237,
                3.1183215150415653
            ]
        },
        {
            "positions": [
                -0.0750039847665465,
                -1.2392255852715595,
                2.163916390284114,
                -0.8841540652028056,
                0.5983106142137529,
                3.132135830838958
            ]
        },
        {
            "positions": [
                -0.14094249457776942,
                -1.2724725314543759,
                2.2280393670084884,
                -0.918715819368464,
                0.7545519659414334,
                3.1459501466363506
            ]
        },
        {
            "positions": [
                -0.20688100438899237,
                -1.3057194776371923,
                2.292162343732863,
                -0.9532775735341226,
                0.9107933176691139,
                3.1597644624337433
            ]
        },
        {
            "positions": [
                -0.2728195142002153,
                -1.338966423820009,
                2.356285320457238,
                -0.987839327699781,
                1.0670346693967943,
                3.1735787782311364
            ]
        },
        {
            "positions": [
                -0.33875802401143823,
                -1.3722133700028254,
                2.4204082971816123,
                -1.0224010818654394,
                1.2232760211244749,
                3.187393094028529
            ]
        }
    ]
}{
    "goal": {
        "global_pose": {
            "orientation": {
                "w": 0.5084816217422485,
                "x": -0.49083608388900757,
                "y": 0.5182115435600281,
                "z": -0.4816462993621826
            },
            "position": {
                "x": 0.5540239810943604,
                "y": 0.030875300988554955,
                "z": 0.16403168439865112
            }
        },
        "name": "move_to_storage_A"
    },
    "id": "BiTRRT_move_to_storage_A_82",
    "joint_names": [
        "shoulder_pan_joint",
        "shoulder_lift_joint",
        "elbow_joint",
        "wrist_1_joint",
        "wrist_2_joint",
        "wrist_3_joint"
    ],
    "metrics": {
        "cart_traj_len": 0.352605888547761,
        "distance_elbow_joint": 0.44760961603051985,
        "distance_shoulder_lift_joint": 0.23342655668370638,
        "distance_shoulder_pan_joint": 0.46207571748665177,
        "distance_wrist_1_joint": 0.23663904001109493,
        "distance_wrist_2_joint": 1.092678228336273,
        "distance_wrist_3_joint": 0.09943905294724287,
        "smoothness": 4.440892098500626e-16,
        "time": 0.045394251,
        "traj_len": 1.6037045274911115,
        "weighted_distance": 2.024861374449457
    },
    "planner": "BiTRRT",
    "start": {
        "state": {
            "elbow_joint": 1.9715472970024885,
            "shoulder_lift_joint": -1.1394870060712896,
            "shoulder_pan_joint": 0.12281152778156021,
            "wrist_1_joint": -0.780463741449964,
            "wrist_2_joint": 0.12958659822042276,
            "wrist_3_joint": 3.090690232415272
        }
    },
    "waypoints": [
        {
            "positions": [
                0.12281152778156021,
                -1.1394870060712896,
                1.9715472970024885,
                -0.780463741449964,
                0.12958659822042276,
                3.090690232415272
            ]
        },
        {
            "positions": [
                0.056800710997752815,
                -1.1728336570261049,
                2.0354915278639916,
                -0.8142693185944061,
                0.28568348798274745,
                3.104895811407735
            ]
        },
        {
            "positions": [
                -0.009210105786054579,
                -1.20618030798092,
                2.099435758725494,
                -0.8480748957388482,
                0.4417803777450722,
                3.1191013904001985
            ]
        },
        {
            "positions": [
                -0.07522092256986196,
                -1.2395269589357352,
                2.163379989586997,
                -0.8818804728832904,
                0.5978772675073969,
                3.133306969392662
            ]
        },
        {
            "positions": [
                -0.14123173935366937,
                -1.2728736098905504,
                2.2273242204484998,
                -0.9156860500277325,
                0.7539741572697216,
                3.1475125483851247
            ]
        },
        {
            "positions": [
                -0.2072425561374768,
                -1.3062202608453657,
                2.291268451310003,
                -0.9494916271721747,
                0.9100710470320463,
                3.161718127377588
            ]
        },
        {
            "positions": [
                -0.27325337292128415,
                -1.3395669118001807,
                2.3552126821715054,
                -0.9832972043166168,
                1.066167936794371,
                3.1759237063700514
            ]
        },
        {
            "positions": [
                -0.33926418970509153,
                -1.372913562754996,
                2.4191569130330084,
                -1.017102781461059,
                1.2222648265566958,
                3.1901292853625147
            ]
        }
    ]
}