{
    "goal": {
        "global_pose": {
            "orientation": {
                "w": 0.7047431493862688,
                "x": -0.7094548369677653,
                "y": 0.0024358444001904,
                "z": -0.0022348060817251984
            },
            "position": {
                "x": -0.39052492380142206,
                "y": 0.3671506643295288,
                "z": 0.19426114857196808
            }
        },
        "name": "move_to_magneteinheit_D"
    },
    "id": "BiTRRT_move_to_magneteinheit_D_4",
    "joint_names": [
        "shoulder_pan_joint",
        "shoulder_lift_joint",
        "elbow_joint",
        "wrist_1_joint",
        "wrist_2_joint",
        "wrist_3_joint"
    ],
    "metrics": {
        "cart_traj_len": 4.131502514900112,
        "distance_elbow_joint": 3.131620781303473,
        "distance_shoulder_lift_joint": 1.9264747451832205,
        "distance_shoulder_pan_joint": 3.01077634540494,
        "distance_wrist_1_joint": 1.8284686813831679,
        "distance_wrist_2_joint": 1.1362293518218054,
        "distance_wrist_3_joint": 3.1309187846974282,
        "smoothness": 0.3493464213551178,
        "time": 0.14586080099999998,
        "traj_len": 3.7635739251134734,
        "weighted_distance": 4.836426810403924
    },
    "planner": "BiTRRT",
    "start": {
        "state": {
            "elbow_joint": 0.749534889911806,
            "shoulder_lift_joint": -0.6476975780787326,
            "shoulder_pan_joint": -2.711696901376241,
            "wrist_1_joint": -0.07506478083263063,
            "wrist_2_joint": 0.43296659715538205,
            "wrist_3_joint": -3.14703540197715
        }
    },
    "waypoints": [
        {
            "positions": [
                -2.711696901376241,
                -0.6476975780787326,
                0.749534889911806,
                -0.07506478083263063,
                0.43296659715538205,
                -3.14703540197715
            ]
        },
        {
            "positions": [
                -2.718017444448897,
                -0.6111443708874931,
                0.71257327667842,
                -0.10434949501947761,
                0.4439094807527596,
                -2.9180050376550835
            ]
        },
        {
            "positions": [
                -2.724337987521553,
                -0.5745911636962535,
                0.675611663445034,
                -0.1336342092063246,
                0.45485236435013715,
                -2.6889746733330173
            ]
        },
        {
            "positions": [
                -2.7306585305942095,
                -0.538037956505014,
                0.638650050211648,
                -0.1629189233931716,
                0.4657952479475147,
                -2.459944309010951
            ]
        },
        {
            "positions": [
                -2.7369790736668653,
                -0.5014847493137744,
                0.601688436978262,
                -0.19220363758001857,
                0.47673813154489225,
                -2.2309139446888846
            ]
        },
        {
            "positions": [
                -2.744351573229074,
                -0.5257139518191869,
                0.5900777818937859,
                -0.15765453204151172,
                0.45519382026175387,
                -2.012402483387839
            ]
        },
        {
            "positions": [
                -2.7517240727912826,
                -0.5499431543245994,
                0.5784671268093098,
                -0.12310542650300486,
                0.43364950897861543,
                -1.7938910220867927
            ]
        },
        {
            "positions": [
                -2.759096572353491,
                -0.574172356830012,
                0.5668564717248337,
                -0.088556320964498,
                0.41210519769547704,
                -1.5753795607857468
            ]
        },
        {
            "positions": [
                -2.7664690719156995,
                -0.5984015593354245,
                0.5552458166403575,
                -0.054007215425991156,
                0.39056088641233866,
                -1.3568680994847009
            ]
        },
        {
            "positions": [
                -2.7739418986051776,
                -0.6687169034380844,
                0.5602040491201394,
                0.036827179767978196,
                0.35731110734009774,
                -1.1681650610216683
            ]
        },
        {
            "positions": [
                -2.650076826096695,
                -0.714223616849901,
                0.45507111387206034,
                0.09261088567033025,
                0.3324890841512498,
                -1.1343704784239856
            ]
        },
        {
            "positions": [
                -2.5262117535882123,
                -0.7597303302617177,
                0.3499381786239813,
                0.1483945915726823,
                0.30766706096240176,
                -1.1005758958263032
            ]
        },
        {
            "positions": [
                -2.4023466810797296,
                -0.8052370436735342,
                0.24480524337590226,
                0.20417829747503435,
                0.2828450377735538,
                -1.0667813132286206
            ]
        },
        {
            "positions": [
                -2.278481608571247,
                -0.8507437570853509,
                0.13967230812782316,
                0.2599620033773864,
                0.2580230145847058,
                -1.032986730630938
            ]
        },
        {
            "positions": [
                -2.1546165360627647,
                -0.8962504704971674,
                0.03453937287974418,
                0.31574570927973844,
                0.23320099139585782,
                -0.9991921480332554
            ]
        },
        {
            "positions": [
                -2.030751463554282,
                -0.941757183908984,
                -0.07059356236833492,
                0.3715294151820905,
                0.20837896820700982,
                -0.9653975654355729
            ]
        },
        {
            "positions": [
                -1.9068863910457994,
                -0.9872638973208007,
                -0.175726497616414,
                0.4273131210844425,
                0.18355694501816183,
                -0.9316029828378902
            ]
        },
        {
            "positions": [
                -1.7830213185373167,
                -1.0327706107326173,
                -0.2808594328644931,
                0.4830968269867947,
                0.15873492182931384,
                -0.8978084002402076
            ]
        },
        {
            "positions": [
                -1.6591562460288338,
                -1.078277324144434,
                -0.3859923681125722,
                0.5388805328891467,
                0.13391289864046582,
                -0.8640138176425249
            ]
        },
        {
            "positions": [
                -1.5352911735203514,
                -1.1237840375562504,
                -0.4911253033606511,
                0.5946642387914988,
                0.10909087545161786,
                -0.8302192350448425
            ]
        },
        {
            "positions": [
                -1.4114261010118687,
                -1.169290750968067,
                -0.5962582386087303,
                0.6504479446938508,
                0.08426885226276987,
                -0.7964246524471599
            ]
        },
        {
            "positions": [
                -1.2875610285033863,
                -1.2147974643798838,
                -0.7013911738568093,
                0.7062316505962029,
                0.0594468290739219,
                -0.7626300698494773
            ]
        },
        {
            "positions": [
                -1.1636959559949034,
                -1.2603041777917003,
                -0.8065241091048885,
                0.762015356498555,
                0.034624805885073884,
                -0.7288354872517947
            ]
        },
        {
            "positions": [
                -1.039830883486421,
                -1.305810891203517,
                -0.9116570443529675,
                0.8177990624009069,
                0.00980278269622592,
                -0.6950409046541122
            ]
        },
        {
            "positions": [
                -0.9159658109779383,
                -1.3513176046153335,
                -1.0167899796010464,
                0.873582768303259,
                -0.015019240492622044,
                -0.6612463220564296
            ]
        },
        {
            "positions": [
                -0.7921007384694556,
                -1.39682431802715,
                -1.1219229148491257,
                0.9293664742056111,
                -0.03984126368147006,
                -0.627451739458747
            ]
        },
        {
            "positions": [
                -0.6682356659609732,
                -1.4423310314389668,
                -1.2270558500972046,
                0.9851501801079631,
                -0.06466328687031808,
                -0.5936571568610644
            ]
        },
        {
            "positions": [
                -0.5443705934524901,
                -1.4878377448507836,
                -1.3321887853452838,
                1.0409338860103152,
                -0.0894853100591661,
                -0.5598625742633817
            ]
        },
        {
            "positions": [
                -0.42050552094400784,
                -1.5333444582626,
                -1.4373217205933628,
                1.0967175919126673,
                -0.11430733324801406,
                -0.5260679916656992
            ]
        },
        {
            "positions": [
                -0.2966404484355252,
                -1.5788511716744167,
                -1.5424546558414416,
                1.1525012978150193,
                -0.13912935643686203,
                -0.49227340906801664
            ]
        },
        {
            "positions": [
                -0.1727753759270425,
                -1.6243578850862332,
                -1.6475875910895212,
                1.2082850037173714,
                -0.16395137962571005,
                -0.458478826470334
            ]
        },
        {
            "positions": [
                -0.0489103034185598,
                -1.6698645984980498,
                -1.7527205263376,
                1.2640687096197234,
                -0.188773402814558,
                -0.42468424387265147
            ]
        },
        {
            "positions": [
                -0.005866525730331501,
                -1.6869259668930596,
                -1.8394380153544785,
                1.293365841379152,
                -0.22279119630496746,
                -0.40877467602752143
            ]
        },
        {
            "positions": [
                -0.022896413577476845,
                -1.7772224808611847,
                -1.94337768709137,
                1.3263680968302993,
                -0.17560400907541257,
                -0.33741523645544
            ]
        },
        {
            "positions": [
                -0.03992630142462219,
                -1.86751899482931,
                -2.0473173588282614,
                1.3593703522814466,
                -0.12841682184585768,
                -0.2660557968833586
            ]
        },
        {
            "positions": [
                -0.05695618927176753,
                -1.9578155087974352,
                -2.151257030565153,
                1.392372607732594,
                -0.08122963461630275,
                -0.1946963573112772
            ]
        },
        {
            "positions": [
                -0.07398607711891288,
                -2.0481120227655603,
                -2.2551967023020443,
                1.4253748631837413,
                -0.034042447386747866,
                -0.1233369177391958
            ]
        },
        {
            "positions": [
                -0.11143155175643811,
                -2.125990237087719,
                -2.2941876103453973,
                1.4566253044744146,
                0.03401746616799082,
                -0.08759681758603684
            ]
        },
        {
            "positions": [
                -0.14887702639396333,
                -2.203868451409878,
                -2.3331785183887503,
                1.487875745765088,
                0.10207737972272951,
                -0.05185671743287787
            ]
        },
        {
            "positions": [
                -0.1863225010314886,
                -2.2817466657320367,
                -2.3721694264321034,
                1.5191261870557613,
                0.1701372932774682,
                -0.0161166172797189
            ]
        }
    ]
}