{
    "goal": {
        "global_pose": {
            "orientation": {
                "w": 0.7031023480610252,
                "x": -0.7110244013736278,
                "y": 0.0077485991402295624,
                "z": 0.005598929693374583
            },
            "position": {
                "x": -0.8841497679147869,
                "y": 0.44412534475326537,
                "z": 0.3711530566215515
            }
        },
        "name": "move_to_auspresseinheit_D"
    },
    "id": "BiTRRT_move_to_auspresseinheit_D_51",
    "joint_names": [
        "shoulder_pan_joint",
        "shoulder_lift_joint",
        "elbow_joint",
        "wrist_1_joint",
        "wrist_2_joint",
        "wrist_3_joint"
    ],
    "metrics": {
        "cart_traj_len": 0.34311984005812396,
        "distance_elbow_joint": 0.6450217956990245,
        "distance_shoulder_lift_joint": 0.12548104528139437,
        "distance_shoulder_pan_joint": 0.13405587901183072,
        "distance_wrist_1_joint": 0.5574643545577382,
        "distance_wrist_2_joint": 1.4370526857188517,
        "distance_wrist_3_joint": 0.026242175332670925,
        "smoothness": 0.0,
        "time": 0.036192379000000004,
        "traj_len": 1.7103560844460166,
        "weighted_distance": 2.2298698003568376
    },
    "planner": "BiTRRT",
    "start": {
        "state": {
            "elbow_joint": -1.8275523626775212,
            "shoulder_lift_joint": -2.126789852344167,
            "shoulder_pan_joint": -0.03513704404078235,
            "wrist_1_joint": -2.347782403156801,
            "wrist_2_joint": -1.6058999987535132,
            "wrist_3_joint": -3.0880379163319196
        }
    },
    "waypoints": [
        {
            "positions": [
                -0.03513704404078235,
                -2.126789852344167,
                -1.8275523626775212,
                -2.347782403156801,
                -1.6058999987535132,
                -3.0880379163319196
            ]
        },
        {
            "positions": [
                -0.05189402891726119,
                -2.142474983004341,
                -1.746924638215143,
                -2.417465447476518,
                -1.4262684130386567,
                -3.084757644415336
            ]
        },
        {
            "positions": [
                -0.06865101379374003,
                -2.1581601136645157,
                -1.666296913752765,
                -2.487148491796235,
                -1.2466368273238002,
                -3.081477372498752
            ]
        },
        {
            "positions": [
                -0.08540799867021887,
                -2.17384524432469,
                -1.585669189290387,
                -2.556831536115953,
                -1.067005241608944,
                -3.0781971005821678
            ]
        },
        {
            "positions": [
                -0.1021649835466977,
                -2.189530374984864,
                -1.5050414648280088,
                -2.62651458043567,
                -0.8873736558940873,
                -3.074916828665584
            ]
        },
        {
            "positions": [
                -0.11892196842317654,
                -2.205215505645038,
                -1.424413740365631,
                -2.696197624755387,
                -0.7077420701792309,
                -3.0716365567490005
            ]
        },
        {
            "positions": [
                -0.1356789532996554,
                -2.2209006363052124,
                -1.3437860159032529,
                -2.7658806690751048,
                -0.5281104844643745,
                -3.0683562848324164
            ]
        },
        {
            "positions": [
                -0.15243593817613424,
                -2.236585766965387,
                -1.2631582914408748,
                -2.835563713394822,
                -0.348478898749518,
                -3.0650760129158323
            ]
        },
        {
            "positions": [
                -0.16919292305261308,
                -2.252270897625561,
                -1.1825305669784967,
                -2.905246757714539,
                -0.1688473130346615,
                -3.0617957409992487
            ]
        }
    ]
}