{
    "goal": {
        "global_pose": {
            "orientation": {
                "w": -0.4816463035849501,
                "x": 0.5182115481033762,
                "y": 0.4908360881923453,
                "z": -0.5084816262002911
            },
            "position": {
                "x": -0.8240239810943604,
                "y": -0.300875300988555,
                "z": 0.16403168439865112
            }
        },
        "name": "move_to_storage_C"
    },
    "id": "BiTRRT_move_to_storage_C_128",
    "joint_names": [
        "shoulder_pan_joint",
        "shoulder_lift_joint",
        "elbow_joint",
        "wrist_1_joint",
        "wrist_2_joint",
        "wrist_3_joint"
    ],
    "metrics": {
        "cart_traj_len": 0.5768825141143534,
        "distance_elbow_joint": 0.26149945131020313,
        "distance_shoulder_lift_joint": 0.18972021536201922,
        "distance_shoulder_pan_joint": 0.49400510380189155,
        "distance_wrist_1_joint": 0.08779471160103802,
        "distance_wrist_2_joint": 1.0716263646334099,
        "distance_wrist_3_joint": 0.07003526779231617,
        "smoothness": 2.5376526478085547e-16,
        "time": 0.086107038,
        "traj_len": 1.4746800041028825,
        "weighted_distance": 1.8639132829399436
    },
    "planner": "BiTRRT",
    "start": {
        "state": {
            "elbow_joint": 2.010868314990456,
            "shoulder_lift_joint": -1.1634956873337592,
            "shoulder_pan_joint": -2.4736205022346125,
            "wrist_1_joint": -0.8367026794202681,
            "wrist_2_joint": 0.6746043897044499,
            "wrist_3_joint": -3.1496632123970403
        }
    },
    "waypoints": [
        {
            "positions": [
                -2.4736205022346125,
                -1.1634956873337592,
                2.010868314990456,
                -0.8367026794202681,
                0.6746043897044499,
                -3.1496632123970403
            ]
        },
        {
            "positions": [
                -2.5559546862015945,
                -1.1318756514400894,
                1.9672850731054219,
                -0.8220702274867617,
                0.8532087838100182,
                -3.1379906677649876
            ]
        },
        {
            "positions": [
                -2.6382888701685765,
                -1.1002556155464194,
                1.9237018312203882,
                -0.8074377755532555,
                1.0318131779155866,
                -3.126318123132935
            ]
        },
        {
            "positions": [
                -2.720623054135558,
                -1.0686355796527496,
                1.8801185893353543,
                -0.7928053236197491,
                1.210417572021155,
                -3.114645578500882
            ]
        },
        {
            "positions": [
                -2.80295723810254,
                -1.0370155437590798,
                1.8365353474503203,
                -0.7781728716862427,
                1.3890219661267231,
                -3.1029730338688295
            ]
        },
        {
            "positions": [
                -2.885291422069522,
                -1.0053955078654098,
                1.7929521055652866,
                -0.7635404197527365,
                1.5676263602322915,
                -3.091300489236777
            ]
        },
        {
            "positions": [
                -2.967625606036504,
                -0.97377547197174,
                1.7493688636802527,
                -0.7489079678192301,
                1.74623075433786,
                -3.079627944604724
            ]
        }
    ]
}