{
    "goal": {
        "global_pose": {
            "orientation": {
                "w": 0.005598929693374612,
                "x": 0.007748599140229565,
                "y": 0.7110244013736278,
                "z": -0.7031023480610252
            },
            "position": {
                "x": -0.8858502320852131,
                "y": -0.7141253447532654,
                "z": 0.3711530566215515
            }
        },
        "name": "move_to_auspresseinheit_C"
    },
    "id": "BiTRRT_move_to_auspresseinheit_C_63",
    "joint_names": [
        "shoulder_pan_joint",
        "shoulder_lift_joint",
        "elbow_joint",
        "wrist_1_joint",
        "wrist_2_joint",
        "wrist_3_joint"
    ],
    "metrics": {
        "cart_traj_len": 0.4922306332821332,
        "distance_elbow_joint": 0.9959195948058739,
        "distance_shoulder_lift_joint": 0.32270852983153286,
        "distance_shoulder_pan_joint": 0.25564844643008655,
        "distance_wrist_1_joint": 0.6733278161320931,
        "distance_wrist_2_joint": 1.3133507865710787,
        "distance_wrist_3_joint": 0.04820705157890215,
        "smoothness": 6.459479416000911e-16,
        "time": 0.066433151,
        "traj_len": 1.8997795201942693,
        "weighted_distance": 2.385844699725978
    },
    "planner": "BiTRRT",
    "start": {
        "state": {
            "elbow_joint": 1.7527959577737207,
            "shoulder_lift_joint": -0.9740617694225068,
            "shoulder_pan_joint": -2.967991417825858,
            "wrist_1_joint": -0.759517768980727,
            "wrist_2_joint": 1.7443932448377408,
            "wrist_3_joint": -3.0840537646736568
        }
    },
    "waypoints": [
        {
            "positions": [
                -2.967991417825858,
                -0.9740617694225068,
                1.7527959577737207,
                -0.759517768980727,
                1.7443932448377408,
                -3.0840537646736568
            ]
        },
        {
            "positions": [
                -2.9424265731828494,
                -0.9417909164393535,
                1.6532039982931332,
                -0.6921849873675177,
                1.613058166180633,
                -3.088874469831547
            ]
        },
        {
            "positions": [
                -2.916861728539841,
                -0.9095200634562002,
                1.5536120388125458,
                -0.6248522057543083,
                1.481723087523525,
                -3.093695174989437
            ]
        },
        {
            "positions": [
                -2.891296883896832,
                -0.8772492104730469,
                1.4540200793319584,
                -0.557519424141099,
                1.3503880088664173,
                -3.0985158801473274
            ]
        },
        {
            "positions": [
                -2.8657320392538232,
                -0.8449783574898936,
                1.354428119851371,
                -0.49018664252788974,
                1.2190529302093092,
                -3.1033365853052177
            ]
        },
        {
            "positions": [
                -2.8401671946108147,
                -0.8127075045067403,
                1.2548361603707838,
                -0.4228538609146804,
                1.0877178515522015,
                -3.108157290463108
            ]
        },
        {
            "positions": [
                -2.814602349967806,
                -0.7804366515235871,
                1.1552442008901962,
                -0.3555210793014711,
                0.9563827728950937,
                -3.112977995620998
            ]
        },
        {
            "positions": [
                -2.7890375053247976,
                -0.7481657985404337,
                1.055652241409609,
                -0.2881882976882618,
                0.8250476942379857,
                -3.1177987007788883
            ]
        },
        {
            "positions": [
                -2.7634726606817885,
                -0.7158949455572805,
                0.9560602819290215,
                -0.2208555160750525,
                0.6937126155808777,
                -3.1226194059367787
            ]
        },
        {
            "positions": [
                -2.73790781603878,
                -0.6836240925741273,
                0.8564683224484342,
                -0.15352273446184317,
                0.56237753692377,
                -3.1274401110946686
            ]
        },
        {
            "positions": [
                -2.7123429713957714,
                -0.6513532395909739,
                0.7568763629678468,
                -0.08618995284863387,
                0.431042458266662,
                -3.132260816252559
            ]
        }
    ]
}