{
    "goal": {
        "global_pose": {
            "orientation": {
                "w": 0.005598929693374612,
                "x": 0.007748599140229565,
                "y": 0.7110244013736278,
                "z": -0.7031023480610252
            },
            "position": {
                "x": 0.1141497679147869,
                "y": -0.7141253447532654,
                "z": 0.3711530566215515
            }
        },
        "name": "move_to_auspresseinheit_B"
    },
    "id": "BiTRRT_move_to_auspresseinheit_B_100",
    "joint_names": [
        "shoulder_pan_joint",
        "shoulder_lift_joint",
        "elbow_joint",
        "wrist_1_joint",
        "wrist_2_joint",
        "wrist_3_joint"
    ],
    "metrics": {
        "cart_traj_len": 0.564682231617776,
        "distance_elbow_joint": 0.06516087068819454,
        "distance_shoulder_lift_joint": 0.29311438629839737,
        "distance_shoulder_pan_joint": 0.5787168235957176,
        "distance_wrist_1_joint": 0.3372858435093459,
        "distance_wrist_2_joint": 0.985940144826629,
        "distance_wrist_3_joint": 0.005192566949393296,
        "smoothness": 1.0150610551046396e-15,
        "time": 0.036782163,
        "traj_len": 1.5051281127756793,
        "weighted_distance": 1.8971087892112142
    },
    "planner": "BiTRRT",
    "start": {
        "state": {
            "elbow_joint": 2.0193083361928714,
            "shoulder_lift_joint": -1.1220246554650708,
            "shoulder_pan_joint": -1.0952077554168747,
            "wrist_1_joint": -0.8559753972642168,
            "wrist_2_joint": 0.4759566250798843,
            "wrist_3_joint": -3.1240929996934557
        }
    },
    "waypoints": [
        {
            "positions": [
                -1.0952077554168747,
                -1.1220246554650708,
                2.0193083361928714,
                -0.8559753972642168,
                0.4759566250798843,
                -3.1240929996934557
            ]
        },
        {
            "positions": [
                -1.1916605593494942,
                -1.1708770531814703,
                2.0084481910781724,
                -0.7997610900126592,
                0.6402799825509891,
                -3.123227571868557
            ]
        },
        {
            "positions": [
                -1.2881133632821138,
                -1.21972945089787,
                1.9975880459634732,
                -0.7435467827611015,
                0.804603340022094,
                -3.1223621440436578
            ]
        },
        {
            "positions": [
                -1.3845661672147336,
                -1.2685818486142695,
                1.9867279008487742,
                -0.6873324755095438,
                0.9689266974931987,
                -3.121496716218759
            ]
        },
        {
            "positions": [
                -1.481018971147353,
                -1.317434246330669,
                1.9758677557340751,
                -0.6311181682579863,
                1.1332500549643036,
                -3.1206312883938603
            ]
        },
        {
            "positions": [
                -1.5774717750799727,
                -1.3662866440470687,
                1.965007610619376,
                -0.5749038610064285,
                1.2975734124354084,
                -3.119765860568961
            ]
        },
        {
            "positions": [
                -1.6739245790125923,
                -1.4151390417634682,
                1.9541474655046769,
                -0.5186895537548709,
                1.4618967699065133,
                -3.1189004327440624
            ]
        }
    ]
}