{
    "goal": {
        "global_pose": {
            "orientation": {
                "w": -0.00223480608172531,
                "x": 0.0024358444001904467,
                "y": 0.7094548369677653,
                "z": -0.704743149386269
            },
            "position": {
                "x": -0.37947507619857795,
                "y": -0.6371506643295288,
                "z": 0.19426114857196808
            }
        },
        "name": "move_to_magneteinheit_C"
    },
    "id": "BiTRRT_move_to_magneteinheit_C_61",
    "joint_names": [
        "shoulder_pan_joint",
        "shoulder_lift_joint",
        "elbow_joint",
        "wrist_1_joint",
        "wrist_2_joint",
        "wrist_3_joint"
    ],
    "metrics": {
        "cart_traj_len": 4.232576604603347,
        "distance_elbow_joint": 3.9865710437455784,
        "distance_shoulder_lift_joint": 0.932812754509029,
        "distance_shoulder_pan_joint": 2.888012421562143,
        "distance_wrist_1_joint": 1.7534440090347627,
        "distance_wrist_2_joint": 0.763868990018687,
        "distance_wrist_3_joint": 3.1121362467590283,
        "smoothness": 0.05087147505570321,
        "time": 0.131822276,
        "traj_len": 3.6656302958194287,
        "weighted_distance": 4.709398152439517
    },
    "planner": "BiTRRT",
    "start": {
        "state": {
            "elbow_joint": 1.9565354010623817,
            "shoulder_lift_joint": -1.4165861575791021,
            "shoulder_pan_joint": -1.6717766225146293,
            "wrist_1_joint": -0.5286633292919765,
            "wrist_2_joint": 1.472756589071564,
            "wrist_3_joint": -3.1238370188695823
        }
    },
    "waypoints": [
        {
            "positions": [
                -1.6717766225146293,
                -1.4165861575791021,
                1.9565354010623817,
                -0.5286633292919765,
                1.472756589071564,
                -3.1238370188695823
            ]
        },
        {
            "positions": [
                -1.5388577338951774,
                -1.431084500409024,
                1.9365406109519283,
                -0.4901346414548401,
                1.4329793887866347,
                -3.02740834679319
            ]
        },
        {
            "positions": [
                -1.4059388452757258,
                -1.4455828432389457,
                1.916545820841475,
                -0.4516059536177037,
                1.3932021885017054,
                -2.9309796747167978
            ]
        },
        {
            "positions": [
                -1.2730199566562739,
                -1.4600811860688676,
                1.8965510307310214,
                -0.4130772657805674,
                1.353424988216776,
                -2.834551002640406
            ]
        },
        {
            "positions": [
                -1.140101068036822,
                -1.4745795288987895,
                1.876556240620568,
                -0.37454857794343105,
                1.3136477879318467,
                -2.7381223305640137
            ]
        },
        {
            "positions": [
                -1.0694610729007663,
                -1.5035891389976823,
                1.7494881209721893,
                -0.32131489524534346,
                1.3334320129673498,
                -2.6536390027019663
            ]
        },
        {
            "positions": [
                -0.9988210777647104,
                -1.5325987490965751,
                1.6224200013238108,
                -0.2680812125472559,
                1.353216238002853,
                -2.569155674839919
            ]
        },
        {
            "positions": [
                -0.9281810826286547,
                -1.5616083591954677,
                1.495351881675432,
                -0.21484752984916833,
                1.3730004630383563,
                -2.4846723469778715
            ]
        },
        {
            "positions": [
                -0.8575410874925989,
                -1.5906179692943605,
                1.3682837620270534,
                -0.16161384715108076,
                1.3927846880738595,
                -2.400189019115824
            ]
        },
        {
            "positions": [
                -0.7869010923565432,
                -1.6196275793932533,
                1.2412156423786747,
                -0.1083801644529932,
                1.4125689131093626,
                -2.3157056912537772
            ]
        },
        {
            "positions": [
                -0.7162610972204874,
                -1.648637189492146,
                1.114147522730296,
                -0.05514648175490561,
                1.4323531381448658,
                -2.23122236339173
            ]
        },
        {
            "positions": [
                -0.6456211020844316,
                -1.677646799591039,
                0.9870794030819174,
                -0.0019127990568180708,
                1.452137363180369,
                -2.1467390355296825
            ]
        },
        {
            "positions": [
                -0.5749811069483759,
                -1.7066564096899315,
                0.8600112834335387,
                0.05132088364126952,
                1.4719215882158723,
                -2.062255707667635
            ]
        },
        {
            "positions": [
                -0.5043411118123201,
                -1.7356660197888243,
                0.7329431637851602,
                0.10455456633935706,
                1.4917058132513754,
                -1.9777723798055877
            ]
        },
        {
            "positions": [
                -0.4337011166762643,
                -1.764675629887717,
                0.6058750441367815,
                0.15778824903744465,
                1.5114900382868786,
                -1.8932890519435404
            ]
        },
        {
            "positions": [
                -0.36306112154020864,
                -1.79368523998661,
                0.4788069244884028,
                0.21102193173553213,
                1.5312742633223817,
                -1.808805724081493
            ]
        },
        {
            "positions": [
                -0.29242112640415274,
                -1.8226948500855027,
                0.35173880484002407,
                0.26425561443361983,
                1.551058488357885,
                -1.7243223962194456
            ]
        },
        {
            "positions": [
                -0.22178113126809695,
                -1.8517044601843953,
                0.22467068519164535,
                0.3174892971317074,
                1.5708427133933882,
                -1.6398390683573982
            ]
        },
        {
            "positions": [
                -0.15114113613204128,
                -1.880714070283288,
                0.09760256554326685,
                0.3707229798297949,
                1.5906269384288914,
                -1.555355740495351
            ]
        },
        {
            "positions": [
                -0.08050114099598549,
                -1.9097236803821809,
                -0.02946555410511187,
                0.4239566625278825,
                1.6104111634643945,
                -1.4708724126333037
            ]
        },
        {
            "positions": [
                -0.00986114585992981,
                -1.9387332904810737,
                -0.1565336737534906,
                0.4771903452259701,
                1.6301953884998976,
                -1.3863890847712563
            ]
        },
        {
            "positions": [
                0.06077884927612609,
                -1.9677429005799665,
                -0.2836017934018693,
                0.5304240279240575,
                1.6499796135354008,
                -1.3019057569092092
            ]
        },
        {
            "positions": [
                0.13141884441218177,
                -1.996752510678859,
                -0.4106699130502476,
                0.5836577106221452,
                1.669763838570904,
                -1.2174224290471618
            ]
        },
        {
            "positions": [
                0.20205883954823745,
                -2.0257621207777516,
                -0.5377380326986263,
                0.6368913933202327,
                1.6895480636064073,
                -1.1329391011851144
            ]
        },
        {
            "positions": [
                0.27269883468429335,
                -2.0547717308766447,
                -0.664806152347005,
                0.6901250760183204,
                1.7093322886419104,
                -1.048455773323067
            ]
        },
        {
            "positions": [
                0.343338829820349,
                -2.0837813409755372,
                -0.7918742719953837,
                0.7433587587164079,
                1.7291165136774136,
                -0.9639724454610199
            ]
        },
        {
            "positions": [
                0.4139788249564047,
                -2.1127909510744303,
                -0.9189423916437625,
                0.7965924414144954,
                1.7489007387129167,
                -0.8794891175989725
            ]
        },
        {
            "positions": [
                0.4846188200924608,
                -2.141800561173323,
                -1.0460105112921412,
                0.8498261241125833,
                1.76868496374842,
                -0.7950057897369249
            ]
        },
        {
            "positions": [
                0.5552588152285165,
                -2.170810171272216,
                -1.17307863094052,
                0.9030598068106708,
                1.7884691887839232,
                -0.7105224618748776
            ]
        },
        {
            "positions": [
                0.6258988103645722,
                -2.1998197813711085,
                -1.3001467505888986,
                0.9562934895087583,
                1.8082534138194264,
                -0.6260391340128302
            ]
        },
        {
            "positions": [
                0.6965388055006281,
                -2.2288293914700015,
                -1.4272148702372773,
                1.009527172206846,
                1.8280376388549295,
                -0.5415558061507828
            ]
        },
        {
            "positions": [
                0.7671788006366838,
                -2.257839001568894,
                -1.554282989885656,
                1.0627608549049334,
                1.8478218638904327,
                -0.4570724782887359
            ]
        },
        {
            "positions": [
                0.8378187957727394,
                -2.2868486116677866,
                -1.6813511095340343,
                1.115994537603021,
                1.8676060889259358,
                -0.3725891504266885
            ]
        },
        {
            "positions": [
                0.9084587909087953,
                -2.315858221766679,
                -1.808419229182413,
                1.1692282203011086,
                1.8873903139614392,
                -0.2881058225646411
            ]
        },
        {
            "positions": [
                0.9790987860448512,
                -2.3448678318655722,
                -1.9354873488307918,
                1.222461902999196,
                1.9071745389969423,
                -0.2036224947025938
            ]
        },
        {
            "positions": [
                1.0976672925461828,
                -2.3471333719768515,
                -1.9827614957569941,
                1.2213025146274012,
                1.9127912579038795,
                -0.10766163340657386
            ]
        },
        {
            "positions": [
                1.2162357990475143,
                -2.349398912088131,
                -2.0300356426831967,
                1.2201431262556062,
                1.9184079768108164,
                -0.011700772110553929
            ]
        }
    ]
}