{
    "goal": {
        "global_pose": {
            "orientation": {
                "w": 0.5084816262002911,
                "x": -0.4908360881923452,
                "y": 0.5182115481033761,
                "z": -0.48164630358495003
            },
            "position": {
                "x": 0.5540239810943604,
                "y": -0.46912469901144505,
                "z": 0.16403168439865112
            }
        },
        "name": "move_to_storage_B"
    },
    "id": "BiTRRT_move_to_storage_B_54",
    "joint_names": [
        "shoulder_pan_joint",
        "shoulder_lift_joint",
        "elbow_joint",
        "wrist_1_joint",
        "wrist_2_joint",
        "wrist_3_joint"
    ],
    "metrics": {
        "cart_traj_len": 0.7963217007848824,
        "distance_elbow_joint": 0.43590500889073835,
        "distance_shoulder_lift_joint": 0.46069873346070267,
        "distance_shoulder_pan_joint": 0.5246665522282349,
        "distance_wrist_1_joint": 3.079111011352871,
        "distance_wrist_2_joint": 2.7840920226958272,
        "distance_wrist_3_joint": 3.2063211039229143,
        "smoothness": 0.3576995101146619,
        "time": 0.171830438,
        "traj_len": 3.23894958783728,
        "weighted_distance": 4.771440000088633
    },
    "planner": "BiTRRT",
    "start": {
        "state": {
            "elbow_joint": 1.664937868594044,
            "shoulder_lift_joint": -0.661644460510453,
            "shoulder_pan_joint": -0.9139846352900073,
            "wrist_1_joint": 2.146753192139373,
            "wrist_2_joint": -2.2341966793290973,
            "wrist_3_joint": 0.005466555786416001
        }
    },
    "waypoints": [
        {
            "positions": [
                -0.9139846352900073,
                -0.661644460510453,
                1.664937868594044,
                2.146753192139373,
                -2.2341966793290973,
                0.005466555786416001
            ]
        },
        {
            "positions": [
                -0.8281521267403906,
                -0.7322930834976891,
                1.6453729746215822,
                2.1613201659582453,
                -2.2546035920123852,
                0.030397769239563957
            ]
        },
        {
            "positions": [
                -0.7423196181907739,
                -0.8029417064849251,
                1.6258080806491204,
                2.175887139777117,
                -2.2750105046956732,
                0.055328982692711914
            ]
        },
        {
            "positions": [
                -0.75589660031112,
                -0.8152263790805494,
                1.6410686660701133,
                2.0585803296342275,
                -2.169499804798394,
                -0.06607327411561956
            ]
        },
        {
            "positions": [
                -0.7694735824314662,
                -0.8275110516761737,
                1.656329251491106,
                1.9412735194913378,
                -2.0639891049011156,
                -0.18747553092395103
            ]
        },
        {
            "positions": [
                -0.7830505645518124,
                -0.8397957242717979,
                1.671589836912099,
                1.8239667093484484,
                -1.9584784050038366,
                -0.3088777877322825
            ]
        },
        {
            "positions": [
                -0.7966275466721587,
                -0.8520803968674221,
                1.686850422333092,
                1.7066598992055588,
                -1.8529677051065576,
                -0.43028004454061397
            ]
        },
        {
            "positions": [
                -0.8102045287925049,
                -0.8643650694630464,
                1.7021110077540849,
                1.5893530890626693,
                -1.7474570052092786,
                -0.5516823013489455
            ]
        },
        {
            "positions": [
                -0.8237815109128511,
                -0.8766497420586706,
                1.7173715931750777,
                1.47204627891978,
                -1.6419463053119998,
                -0.673084558157277
            ]
        },
        {
            "positions": [
                -0.8373584930331973,
                -0.8889344146542949,
                1.7326321785960705,
                1.3547394687768906,
                -1.536435605414721,
                -0.7944868149656082
            ]
        },
        {
            "positions": [
                -0.8509354751535435,
                -0.9012190872499192,
                1.7478927640170634,
                1.2374326586340008,
                -1.430924905517442,
                -0.9158890717739399
            ]
        },
        {
            "positions": [
                -0.8645124572738897,
                -0.9135037598455434,
                1.7631533494380562,
                1.1201258484911114,
                -1.3254142056201632,
                -1.0372913285822711
            ]
        },
        {
            "positions": [
                -0.878089439394236,
                -0.9257884324411676,
                1.7784139348590493,
                1.0028190383482218,
                -1.2199035057228842,
                -1.1586935853906029
            ]
        },
        {
            "positions": [
                -0.8916664215145822,
                -0.9380731050367919,
                1.7936745202800422,
                0.8855122282053323,
                -1.1143928058256054,
                -1.2800958421989341
            ]
        },
        {
            "positions": [
                -0.9052434036349284,
                -0.9503577776324161,
                1.808935105701035,
                0.7682054180624427,
                -1.0088821059283264,
                -1.4014980990072659
            ]
        },
        {
            "positions": [
                -0.9188203857552746,
                -0.9626424502280404,
                1.8241956911220278,
                0.6508986079195533,
                -0.9033714060310476,
                -1.5229003558155971
            ]
        },
        {
            "positions": [
                -0.9323973678756208,
                -0.9749271228236647,
                1.8394562765430207,
                0.533591797776664,
                -0.7978607061337688,
                -1.6443026126239284
            ]
        },
        {
            "positions": [
                -0.945974349995967,
                -0.9872117954192889,
                1.8547168619640135,
                0.4162849876337744,
                -0.69235000623649,
                -1.76570486943226
            ]
        },
        {
            "positions": [
                -0.9595513321163132,
                -0.9994964680149132,
                1.8699774473850064,
                0.2989781774908846,
                -0.5868393063392108,
                -1.8871071262405916
            ]
        },
        {
            "positions": [
                -0.9731283142366595,
                -1.0117811406105375,
                1.8852380328059994,
                0.18167136734799527,
                -0.481328606441932,
                -2.008509383048923
            ]
        },
        {
            "positions": [
                -0.9867052963570057,
                -1.0240658132061617,
                1.9004986182269923,
                0.06436455720510592,
                -0.3758179065446532,
                -2.129911639857254
            ]
        },
        {
            "positions": [
                -1.0002822784773517,
                -1.036350485801786,
                1.9157592036479851,
                -0.05294225293778343,
                -0.2703072066473742,
                -2.251313896665586
            ]
        },
        {
            "positions": [
                -1.0138592605976982,
                -1.0486351583974103,
                1.931019789068978,
                -0.17024906308067322,
                -0.16479650675009516,
                -2.3727161534739176
            ]
        },
        {
            "positions": [
                -1.0274362427180443,
                -1.0609198309930346,
                1.9462803744899708,
                -0.2875558732235626,
                -0.05928580685281659,
                -2.494118410282249
            ]
        },
        {
            "positions": [
                -1.0410132248383905,
                -1.0732045035886586,
                1.9615409599109637,
                -0.40486268336645237,
                0.04622489304446242,
                -2.61552066709058
            ]
        },
        {
            "positions": [
                -1.0545902069587367,
                -1.0854891761842829,
                1.9768015453319565,
                -0.5221694935093417,
                0.15173559294174144,
                -2.7369229238989115
            ]
        },
        {
            "positions": [
                -1.068167189079083,
                -1.0977738487799071,
                1.9920621307529496,
                -0.6394763036522315,
                0.25724629283902045,
                -2.8583251807072436
            ]
        },
        {
            "positions": [
                -1.0817441711994291,
                -1.1100585213755314,
                2.0073227161739426,
                -0.7567831137951209,
                0.362756992736299,
                -2.979727437515575
            ]
        },
        {
            "positions": [
                -1.0953211533197753,
                -1.1223431939711557,
                2.0225833015949353,
                -0.8740899239380102,
                0.468267692633578,
                -3.101129694323906
            ]
        }
    ]
}