{
    "goal": {
        "global_pose": {
            "orientation": {
                "w": 0.7047431493862688,
                "x": -0.7094548369677653,
                "y": 0.0024358444001904,
                "z": -0.0022348060817251984
            },
            "position": {
                "x": -0.39052492380142206,
                "y": 0.3671506643295288,
                "z": 0.19426114857196808
            }
        },
        "name": "move_to_magneteinheit_D"
    },
    "id": "BiTRRT_move_to_magneteinheit_D_35",
    "joint_names": [
        "shoulder_pan_joint",
        "shoulder_lift_joint",
        "elbow_joint",
        "wrist_1_joint",
        "wrist_2_joint",
        "wrist_3_joint"
    ],
    "metrics": {
        "cart_traj_len": 3.9084312206021994,
        "distance_elbow_joint": 3.5890588174030658,
        "distance_shoulder_lift_joint": 1.631522242942341,
        "distance_shoulder_pan_joint": 2.8743771396617768,
        "distance_wrist_1_joint": 2.0873339534323785,
        "distance_wrist_2_joint": 1.8099102173050703,
        "distance_wrist_3_joint": 3.355539081254313,
        "smoothness": 0.4090850840820068,
        "time": 0.193063073,
        "traj_len": 3.917619360274674,
        "weighted_distance": 5.094709391638058
    },
    "planner": "BiTRRT",
    "start": {
        "state": {
            "elbow_joint": 0.749534889911806,
            "shoulder_lift_joint": -0.6476975780787326,
            "shoulder_pan_joint": -2.711696901376241,
            "wrist_1_joint": -0.07506478083263063,
            "wrist_2_joint": 0.43296659715538205,
            "wrist_3_joint": -3.14703540197715
        }
    },
    "waypoints": [
        {
            "positions": [
                -2.711696901376241,
                -0.6476975780787326,
                0.749534889911806,
                -0.07506478083263063,
                0.43296659715538205,
                -3.14703540197715
            ]
        },
        {
            "positions": [
                -2.7316570582182793,
                -0.6623600264942122,
                0.8229432736939029,
                -0.167880813877593,
                0.47119416882393605,
                -3.063709877412057
            ]
        },
        {
            "positions": [
                -2.751617215060317,
                -0.6770224749096918,
                0.8963516574759998,
                -0.26069684692255535,
                0.5094217404924901,
                -2.9803843528469636
            ]
        },
        {
            "positions": [
                -2.756272491160127,
                -0.7369569398323799,
                0.9146827363908843,
                -0.28076953496268403,
                0.5627448088324787,
                -2.8192140725857797
            ]
        },
        {
            "positions": [
                -2.760927767259936,
                -0.7968914047550679,
                0.9330138153057688,
                -0.3008422230028127,
                0.6160678771724672,
                -2.6580437923245963
            ]
        },
        {
            "positions": [
                -2.7655830433597455,
                -0.856825869677756,
                0.9513448942206533,
                -0.3209149110429414,
                0.6693909455124558,
                -2.4968735120634125
            ]
        },
        {
            "positions": [
                -2.7702383194595552,
                -0.916760334600444,
                0.9696759731355378,
                -0.3409875990830701,
                0.7227140138524444,
                -2.3357032318022286
            ]
        },
        {
            "positions": [
                -2.7411430378985604,
                -0.9768297836140084,
                0.9187312675713183,
                -0.25068231871824653,
                0.616601703223003,
                -2.3322791366374656
            ]
        },
        {
            "positions": [
                -2.712047756337565,
                -1.0368992326275728,
                0.8677865620070988,
                -0.16037703835342296,
                0.5104893925935616,
                -2.3288550414727025
            ]
        },
        {
            "positions": [
                -2.6829524747765703,
                -1.0969686816411373,
                0.8168418564428793,
                -0.07007175798859938,
                0.4043770819641202,
                -2.3254309463079395
            ]
        },
        {
            "positions": [
                -2.6538571932155754,
                -1.1570381306547017,
                0.7658971508786598,
                0.020233522376224167,
                0.2982647713346788,
                -2.322006851143177
            ]
        },
        {
            "positions": [
                -2.62476191165458,
                -1.2171075796682662,
                0.7149524453144404,
                0.11053880274104777,
                0.1921524607052374,
                -2.318582755978414
            ]
        },
        {
            "positions": [
                -2.5956666300935853,
                -1.2771770286818305,
                0.6640077397502209,
                0.20084408310587132,
                0.08604015007579605,
                -2.3151586608136507
            ]
        },
        {
            "positions": [
                -2.4907160447965055,
                -1.2884570627332284,
                0.5492120590260202,
                0.2451472747678783,
                0.10642043298404212,
                -2.2181394662062752
            ]
        },
        {
            "positions": [
                -2.3857654594994258,
                -1.299737096784626,
                0.43441637830181956,
                0.28945046642988526,
                0.1268007158922882,
                -2.1211202715988997
            ]
        },
        {
            "positions": [
                -2.280814874202346,
                -1.311017130836024,
                0.3196206975776189,
                0.33375365809189217,
                0.14718099880053429,
                -2.024101076991524
            ]
        },
        {
            "positions": [
                -2.1758642889052666,
                -1.3222971648874216,
                0.20482501685341825,
                0.37805684975389914,
                0.16756128170878037,
                -1.9270818823841487
            ]
        },
        {
            "positions": [
                -2.070913703608187,
                -1.3335771989388194,
                0.0900293361292176,
                0.4223600414159061,
                0.18794156461702644,
                -1.8300626877767732
            ]
        },
        {
            "positions": [
                -1.965963118311107,
                -1.344857232990217,
                -0.02476634459498306,
                0.4666632330779131,
                0.20832184752527252,
                -1.7330434931693977
            ]
        },
        {
            "positions": [
                -1.8610125330140272,
                -1.356137267041615,
                -0.1395620253191837,
                0.51096642473992,
                0.2287021304335186,
                -1.6360242985620221
            ]
        },
        {
            "positions": [
                -1.7560619477169475,
                -1.3674173010930126,
                -0.25435770604338437,
                0.555269616401927,
                0.24908241334176467,
                -1.5390051039546468
            ]
        },
        {
            "positions": [
                -1.6511113624198677,
                -1.3786973351444105,
                -0.3691533867675849,
                0.599572808063934,
                0.26946269625001074,
                -1.4419859093472713
            ]
        },
        {
            "positions": [
                -1.5461607771227879,
                -1.3899773691958082,
                -0.4839490674917857,
                0.6438759997259409,
                0.28984297915825685,
                -1.3449667147398956
            ]
        },
        {
            "positions": [
                -1.4412101918257083,
                -1.401257403247206,
                -0.5987447482159862,
                0.6881791913879478,
                0.3102232620665029,
                -1.2479475201325203
            ]
        },
        {
            "positions": [
                -1.3362596065286285,
                -1.412537437298604,
                -0.713540428940187,
                0.7324823830499548,
                0.330603544974749,
                -1.1509283255251448
            ]
        },
        {
            "positions": [
                -1.231309021231549,
                -1.4238174713500016,
                -0.8283361096643875,
                0.7767855747119617,
                0.3509838278829951,
                -1.0539091309177693
            ]
        },
        {
            "positions": [
                -1.126358435934469,
                -1.4350975054013995,
                -0.9431317903885883,
                0.8210887663739688,
                0.3713641107912412,
                -0.9568899363103938
            ]
        },
        {
            "positions": [
                -1.0214078506373894,
                -1.4463775394527971,
                -1.057927471112789,
                0.8653919580359757,
                0.3917443936994872,
                -0.8598707417030182
            ]
        },
        {
            "positions": [
                -0.9164572653403096,
                -1.457657573504195,
                -1.1727231518369896,
                0.9096951496979826,
                0.41212467660773333,
                -0.762851547095643
            ]
        },
        {
            "positions": [
                -0.8115066800432298,
                -1.4689376075555927,
                -1.2875188325611904,
                0.9539983413599896,
                0.43250495951597945,
                -0.6658323524882672
            ]
        },
        {
            "positions": [
                -0.70655609474615,
                -1.4802176416069905,
                -1.4023145132853907,
                0.9983015330219966,
                0.45288524242422545,
                -0.5688131578808919
            ]
        },
        {
            "positions": [
                -0.6016055094490704,
                -1.4914976756583882,
                -1.5171101940095917,
                1.0426047246840036,
                0.47326552533247157,
                -0.4717939632735164
            ]
        },
        {
            "positions": [
                -0.4966549241519904,
                -1.502777709709786,
                -1.6319058747337922,
                1.0869079163460107,
                0.4936458082407177,
                -0.3747747686661407
            ]
        },
        {
            "positions": [
                -0.39170433885491107,
                -1.5140577437611837,
                -1.7467015554579928,
                1.1312111080080176,
                0.5140260911489637,
                -0.2777555740587654
            ]
        },
        {
            "positions": [
                -0.2867537535578313,
                -1.5253377778125816,
                -1.8614972361821933,
                1.1755142996700245,
                0.5344063740572098,
                -0.18073637945138987
            ]
        },
        {
            "positions": [
                -0.1818031682607515,
                -1.5366178118639793,
                -1.9762929169063943,
                1.2198174913320314,
                0.5547866569654559,
                -0.08371718484401436
            ]
        },
        {
            "positions": [
                -0.07685258296367184,
                -1.5478978459153772,
                -2.091088597630595,
                1.2641206829940383,
                0.5751669398737019,
                0.013302009763361329
            ]
        },
        {
            "positions": [
                -0.07538087715979709,
                -1.6855328678570372,
                -2.1514833052141076,
                1.306637042079992,
                0.49999020303290953,
                -0.0035696015797927853
            ]
        },
        {
            "positions": [
                -0.07390917135592233,
                -1.8231678897986974,
                -2.2118780127976203,
                1.3491534011659456,
                0.4248134661921171,
                -0.0204412129229469
            ]
        },
        {
            "positions": [
                -0.07243746555204758,
                -1.9608029117403574,
                -2.272272720381133,
                1.3916697602518995,
                0.34963672935132467,
                -0.03731282426610101
            ]
        },
        {
            "positions": [
                -0.07096575974817282,
                -2.0984379336820176,
                -2.3326674279646458,
                1.4341861193378531,
                0.2744599925105322,
                -0.05418443560925513
            ]
        },
        {
            "positions": [
                -0.06949405394429807,
                -2.2360729556236776,
                -2.3930621355481585,
                1.4767024784238068,
                0.19928325566973984,
                -0.07105604695240925
            ]
        },
        {
            "positions": [
                -0.18458551000750312,
                -2.2792198210210737,
                -2.38688251005252,
                1.4804235360988693,
                0.18080479284024722,
                0.03978756584562302
            ]
        }
    ]
}