{
    "goal": {
        "global_pose": {
            "orientation": {
                "w": 0.5084816217422485,
                "x": -0.49083608388900757,
                "y": 0.5182115435600281,
                "z": -0.4816462993621826
            },
            "position": {
                "x": 0.5540239810943604,
                "y": 0.030875300988554955,
                "z": 0.16403168439865112
            }
        },
        "name": "move_to_storage_A"
    },
    "id": "BiTRRT_move_to_storage_A_135",
    "joint_names": [
        "shoulder_pan_joint",
        "shoulder_lift_joint",
        "elbow_joint",
        "wrist_1_joint",
        "wrist_2_joint",
        "wrist_3_joint"
    ],
    "metrics": {
        "cart_traj_len": 0.3520526584505502,
        "distance_elbow_joint": 0.4478855317883965,
        "distance_shoulder_lift_joint": 0.23486360952740015,
        "distance_shoulder_pan_joint": 0.4587535846872937,
        "distance_wrist_1_joint": 0.23464844245846594,
        "distance_wrist_2_joint": 1.1037224080635968,
        "distance_wrist_3_joint": 0.09032094255707213,
        "smoothness": 0.0,
        "time": 0.031885158999999996,
        "traj_len": 1.6031826218750704,
        "weighted_distance": 2.022178838460741
    },
    "planner": "BiTRRT",
    "start": {
        "state": {
            "elbow_joint": 1.971548259319323,
            "shoulder_lift_joint": -1.1394851275133948,
            "shoulder_pan_joint": 0.1228115487234821,
            "wrist_1_joint": -0.7804723859257726,
            "wrist_2_joint": 0.12958671773740124,
            "wrist_3_joint": -3.192489227718131
        }
    },
    "waypoints": [
        {
            "positions": [
                0.1228115487234821,
                -1.1394851275133948,
                1.971548259319323,
                -0.7804723859257726,
                0.12958671773740124,
                -3.192489227718131
            ]
        },
        {
            "positions": [
                0.057275322339583004,
                -1.1730370717315948,
                2.035531906717665,
                -0.8139935919912678,
                0.2872613474607722,
                -3.1795862359242637
            ]
        },
        {
            "positions": [
                -0.008260904044316092,
                -1.206589015949795,
                2.0995155541160075,
                -0.8475147980567629,
                0.4449359771841431,
                -3.1666832441303963
            ]
        },
        {
            "positions": [
                -0.0737971304282152,
                -1.240140960167995,
                2.16349920151435,
                -0.881036004122258,
                0.6026106069075141,
                -3.153780252336529
            ]
        },
        {
            "positions": [
                -0.13933335681211428,
                -1.2736929043861949,
                2.2274828489126923,
                -0.9145572101877532,
                0.7602852366308851,
                -3.1408772605426614
            ]
        },
        {
            "positions": [
                -0.2048695831960134,
                -1.307244848604395,
                2.2914664963110347,
                -0.9480784162532483,
                0.9179598663542561,
                -3.127974268748794
            ]
        },
        {
            "positions": [
                -0.2704058095799125,
                -1.340796792822595,
                2.355450143709377,
                -0.9815996223187434,
                1.075634496077627,
                -3.1150712769549265
            ]
        },
        {
            "positions": [
                -0.3359420359638116,
                -1.374348737040795,
                2.4194337911077195,
                -1.0151208283842386,
                1.233309125800998,
                -3.102168285161059
            ]
        }
    ]
}{
    "goal": {
        "global_pose": {
            "orientation": {
                "w": 0.5084816217422485,
                "x": -0.49083608388900757,
                "y": 0.5182115435600281,
                "z": -0.4816462993621826
            },
            "position": {
                "x": 0.5540239810943604,
                "y": 0.030875300988554955,
                "z": 0.16403168439865112
            }
        },
        "name": "move_to_storage_A"
    },
    "id": "BiTRRT_move_to_storage_A_135",
    "joint_names": [
        "shoulder_pan_joint",
        "shoulder_lift_joint",
        "elbow_joint",
        "wrist_1_joint",
        "wrist_2_joint",
        "wrist_3_joint"
    ],
    "metrics": {
        "cart_traj_len": 0.3536157266473792,
        "distance_elbow_joint": 0.4503244944490037,
        "distance_shoulder_lift_joint": 0.23227509660665535,
        "distance_shoulder_pan_joint": 0.4591168622883398,
        "distance_wrist_1_joint": 0.2486379880971581,
        "distance_wrist_2_joint": 1.1128807728780683,
        "distance_wrist_3_joint": 0.08927201593000955,
        "smoothness": 4.440892098500626e-16,
        "time": 0.040090317,
        "traj_len": 1.6101264640546824,
        "weighted_distance": 2.0328723577943792
    },
    "planner": "BiTRRT",
    "start": {
        "state": {
            "elbow_joint": 1.97154746011099,
            "shoulder_lift_joint": -1.13948474672311,
            "shoulder_pan_joint": 0.12281154466712228,
            "wrist_1_joint": -0.7804688027058302,
            "wrist_2_joint": 0.12958655903071145,
            "wrist_3_joint": 3.0906928834467795
        }
    },
    "waypoints": [
        {
            "positions": [
                0.12281154466712228,
                -1.13948474672311,
                1.97154746011099,
                -0.7804688027058302,
                0.12958655903071145,
                3.0906928834467795
            ]
        },
        {
            "positions": [
                0.057223421483073744,
                -1.1726669033812036,
                2.035879530746562,
                -0.8159885152911385,
                0.28856952658472124,
                3.103446028579638
            ]
        },
        {
            "positions": [
                -0.008364701700974794,
                -1.2058490600392973,
                2.1002116013821337,
                -0.8515082278764468,
                0.447552494138731,
                3.1161991737124963
            ]
        },
        {
            "positions": [
                -0.07395282488502335,
                -1.239031216697391,
                2.1645436720177056,
                -0.887027940461755,
                0.6065354616927408,
                3.128952318845355
            ]
        },
        {
            "positions": [
                -0.13954094806907186,
                -1.2722133733554843,
                2.228875742653278,
                -0.9225476530470633,
                0.7655184292467505,
                3.1417054639782136
            ]
        },
        {
            "positions": [
                -0.2051290712531204,
                -1.305395530013578,
                2.29320781328885,
                -0.9580673656323717,
                0.9245013968007603,
                3.1544586091110722
            ]
        },
        {
            "positions": [
                -0.27071719443716896,
                -1.3385776866716717,
                2.3575398839244217,
                -0.99358707821768,
                1.08348436435477,
                3.1672117542439304
            ]
        },
        {
            "positions": [
                -0.3363053176212175,
                -1.3717598433297653,
                2.4218719545599936,
                -1.0291067908029883,
                1.2424673319087798,
                3.179964899376789
            ]
        }
    ]
}{
    "goal": {
        "global_pose": {
            "orientation": {
                "w": 0.5084816217422485,
                "x": -0.49083608388900757,
                "y": 0.5182115435600281,
                "z": -0.4816462993621826
            },
            "position": {
                "x": 0.5540239810943604,
                "y": 0.030875300988554955,
                "z": 0.16403168439865112
            }
        },
        "name": "move_to_storage_A"
    },
    "id": "BiTRRT_move_to_storage_A_135",
    "joint_names": [
        "shoulder_pan_joint",
        "shoulder_lift_joint",
        "elbow_joint",
        "wrist_1_joint",
        "wrist_2_joint",
        "wrist_3_joint"
    ],
    "metrics": {
        "cart_traj_len": 0.35249395376744763,
        "distance_elbow_joint": 0.447107717518171,
        "distance_shoulder_lift_joint": 0.23526046078080065,
        "distance_shoulder_pan_joint": 0.45740314006105043,
        "distance_wrist_1_joint": 0.23463040091533616,
        "distance_wrist_2_joint": 1.1126032840741846,
        "distance_wrist_3_joint": 0.08632592950442275,
        "smoothness": 0.0,
        "time": 0.031661143,
        "traj_len": 1.604160507198069,
        "weighted_distance": 2.0231699080532835
    },
    "planner": "BiTRRT",
    "start": {
        "state": {
            "elbow_joint": 1.9715472970024885,
            "shoulder_lift_joint": -1.1394870060712896,
            "shoulder_pan_joint": 0.12281152778156021,
            "wrist_1_joint": -0.780463741449964,
            "wrist_2_joint": 0.12958659822042276,
            "wrist_3_joint": 3.090690232415272
        }
    },
    "waypoints": [
        {
            "positions": [
                0.12281152778156021,
                -1.1394870060712896,
                1.9715472970024885,
                -0.780463741449964,
                0.12958659822042276,
                3.090690232415272
            ]
        },
        {
            "positions": [
                0.05746822205855301,
                -1.1730956433256896,
                2.035419828076513,
                -0.8139823701521549,
                0.28852992451673487,
                3.103022508058761
            ]
        },
        {
            "positions": [
                -0.007875083664454191,
                -1.2067042805800898,
                2.0992923591505375,
                -0.8475009988543457,
                0.4474732508130469,
                3.1153547837022497
            ]
        },
        {
            "positions": [
                -0.07321838938746139,
                -1.2403129178344898,
                2.1631648902245617,
                -0.8810196275565366,
                0.606416577109359,
                3.127687059345739
            ]
        },
        {
            "positions": [
                -0.1385616951104686,
                -1.27392155508889,
                2.2270374212985864,
                -0.9145382562587275,
                0.7653599034056711,
                3.1400193349892276
            ]
        },
        {
            "positions": [
                -0.20390500083347582,
                -1.30753019234329,
                2.2909099523726106,
                -0.9480568849609183,
                0.9243032297019832,
                3.1523516106327167
            ]
        },
        {
            "positions": [
                -0.269248306556483,
                -1.34113882959769,
                2.354782483446635,
                -0.9815755136631092,
                1.0832465559982953,
                3.1646838862762054
            ]
        },
        {
            "positions": [
                -0.3345916122794902,
                -1.3747474668520903,
                2.4186550145206596,
                -1.0150941423653002,
                1.2421898822946074,
                3.1770161619196946
            ]
        }
    ]
}