{
    "goal": {
        "global_pose": {
            "orientation": {
                "w": 0.5084816262002911,
                "x": -0.4908360881923452,
                "y": 0.5182115481033761,
                "z": -0.48164630358495003
            },
            "position": {
                "x": 0.5540239810943604,
                "y": -0.46912469901144505,
                "z": 0.16403168439865112
            }
        },
        "name": "move_to_storage_B"
    },
    "id": "BiTRRT_move_to_storage_B_90",
    "joint_names": [
        "shoulder_pan_joint",
        "shoulder_lift_joint",
        "elbow_joint",
        "wrist_1_joint",
        "wrist_2_joint",
        "wrist_3_joint"
    ],
    "metrics": {
        "cart_traj_len": 0.6495716782200402,
        "distance_elbow_joint": 0.4064416092237817,
        "distance_shoulder_lift_joint": 0.4595983134707282,
        "distance_shoulder_pan_joint": 0.32545711466466953,
        "distance_wrist_1_joint": 2.984481174058303,
        "distance_wrist_2_joint": 2.7020539803422894,
        "distance_wrist_3_joint": 3.167516310163728,
        "smoothness": 0.14973263436122694,
        "time": 0.097648774,
        "traj_len": 3.1694713284589753,
        "weighted_distance": 4.697564930541306
    },
    "planner": "BiTRRT",
    "start": {
        "state": {
            "elbow_joint": 1.664937868594044,
            "shoulder_lift_joint": -0.661644460510453,
            "shoulder_pan_joint": -0.9139846352900073,
            "wrist_1_joint": 2.146753192139373,
            "wrist_2_joint": -2.2341966793290973,
            "wrist_3_joint": 0.005466555786416001
        }
    },
    "waypoints": [
        {
            "positions": [
                -0.9139846352900073,
                -0.661644460510453,
                1.664937868594044,
                2.146753192139373,
                -2.2341966793290973,
                0.005466555786416001
            ]
        },
        {
            "positions": [
                -0.8883306541980812,
                -0.6884939880090063,
                1.6665024737688345,
                2.093546316813552,
                -2.1770645707277825,
                0.017081567856802836
            ]
        },
        {
            "positions": [
                -0.8421647731323678,
                -0.7079517825903832,
                1.6379358492784322,
                1.9867499420106494,
                -2.065875567784171,
                0.0038117782718333857
            ]
        },
        {
            "positions": [
                -0.852310263232649,
                -0.724483422246015,
                1.6529882644607756,
                1.8737708250534661,
                -1.9645262530322765,
                -0.1218934820685015
            ]
        },
        {
            "positions": [
                -0.8624557533329302,
                -0.741015061901647,
                1.6680406796431193,
                1.760791708096283,
                -1.863176938280382,
                -0.2475987424088364
            ]
        },
        {
            "positions": [
                -0.8726012434332114,
                -0.7575467015572789,
                1.6830930948254628,
                1.6478125911391,
                -1.7618276235284873,
                -0.37330400274917125
            ]
        },
        {
            "positions": [
                -0.8827467335334926,
                -0.7740783412129109,
                1.6981455100078064,
                1.5348334741819167,
                -1.6604783087765929,
                -0.49900926308950616
            ]
        },
        {
            "positions": [
                -0.8928922236337739,
                -0.7906099808685427,
                1.71319792519015,
                1.4218543572247335,
                -1.5591289940246984,
                -0.624714523429841
            ]
        },
        {
            "positions": [
                -0.9030377137340551,
                -0.8071416205241747,
                1.7282503403724934,
                1.3088752402675503,
                -1.457779679272804,
                -0.7504197837701758
            ]
        },
        {
            "positions": [
                -0.9131832038343363,
                -0.8236732601798067,
                1.743302755554837,
                1.195896123310367,
                -1.3564303645209095,
                -0.8761250441105108
            ]
        },
        {
            "positions": [
                -0.9233286939346175,
                -0.8402048998354386,
                1.7583551707371805,
                1.0829170063531839,
                -1.2550810497690148,
                -1.0018303044508456
            ]
        },
        {
            "positions": [
                -0.9334741840348987,
                -0.8567365394910704,
                1.7734075859195242,
                0.9699378893960009,
                -1.1537317350171206,
                -1.1275355647911804
            ]
        },
        {
            "positions": [
                -0.9436196741351799,
                -0.8732681791467024,
                1.7884600011018676,
                0.8569587724388175,
                -1.0523824202652259,
                -1.2532408251315155
            ]
        },
        {
            "positions": [
                -0.9537651642354611,
                -0.8897998188023343,
                1.803512416284211,
                0.7439796554816345,
                -0.9510331055133314,
                -1.3789460854718503
            ]
        },
        {
            "positions": [
                -0.9639106543357423,
                -0.9063314584579663,
                1.8185648314665548,
                0.6310005385244513,
                -0.849683790761437,
                -1.504651345812185
            ]
        },
        {
            "positions": [
                -0.9740561444360234,
                -0.9228630981135981,
                1.8336172466488982,
                0.518021421567268,
                -0.7483344760095423,
                -1.63035660615252
            ]
        },
        {
            "positions": [
                -0.9842016345363047,
                -0.9393947377692301,
                1.848669661831242,
                0.40504230461008484,
                -0.6469851612576478,
                -1.7560618664928551
            ]
        },
        {
            "positions": [
                -0.9943471246365858,
                -0.955926377424862,
                1.8637220770135854,
                0.29206318765290185,
                -0.5456358465057534,
                -1.8817671268331897
            ]
        },
        {
            "positions": [
                -1.0044926147368671,
                -0.972458017080494,
                1.8787744921959288,
                0.1790840706957184,
                -0.4442865317538589,
                -2.0074723871735247
            ]
        },
        {
            "positions": [
                -1.0146381048371482,
                -0.9889896567361258,
                1.8938269073782725,
                0.0661049537385352,
                -0.3429372170019642,
                -2.1331776475138597
            ]
        },
        {
            "positions": [
                -1.0247835949374295,
                -1.0055212963917577,
                1.908879322560616,
                -0.04687416321864757,
                -0.24158790225006999,
                -2.2588829078541943
            ]
        },
        {
            "positions": [
                -1.0349290850377106,
                -1.0220529360473898,
                1.9239317377429597,
                -0.15985328017583122,
                -0.1402385874981753,
                -2.3845881681945293
            ]
        },
        {
            "positions": [
                -1.045074575137992,
                -1.0385845757030217,
                1.9389841529253031,
                -0.27283239713301444,
                -0.038889272746280845,
                -2.5102934285348644
            ]
        },
        {
            "positions": [
                -1.055220065238273,
                -1.0551162153586535,
                1.9540365681076466,
                -0.3858115140901972,
                0.06246004200561339,
                -2.635998688875199
            ]
        },
        {
            "positions": [
                -1.0653655553385544,
                -1.0716478550142854,
                1.9690889832899903,
                -0.4987906310473804,
                0.16380935675750807,
                -2.761703949215534
            ]
        },
        {
            "positions": [
                -1.0755110454388355,
                -1.0881794946699173,
                1.9841413984723337,
                -0.6117697480045636,
                0.26515867150940275,
                -2.887409209555869
            ]
        },
        {
            "positions": [
                -1.0856565355391168,
                -1.1047111343255493,
                1.9991938136546774,
                -0.7247488649617468,
                0.366507986261297,
                -3.0131144698962036
            ]
        },
        {
            "positions": [
                -1.0958020256393979,
                -1.1212427739811812,
                2.014246228837021,
                -0.8377279819189299,
                0.4678573010131918,
                -3.1388197302365386
            ]
        }
    ]
}