{
    "goal": {
        "global_pose": {
            "orientation": {
                "w": 0.005598929693374612,
                "x": 0.007748599140229565,
                "y": 0.7110244013736278,
                "z": -0.7031023480610252
            },
            "position": {
                "x": 0.1141497679147869,
                "y": -0.7141253447532654,
                "z": 0.3711530566215515
            }
        },
        "name": "move_to_auspresseinheit_B"
    },
    "id": "BiTRRT_move_to_auspresseinheit_B_108",
    "joint_names": [
        "shoulder_pan_joint",
        "shoulder_lift_joint",
        "elbow_joint",
        "wrist_1_joint",
        "wrist_2_joint",
        "wrist_3_joint"
    ],
    "metrics": {
        "cart_traj_len": 0.5641344252663515,
        "distance_elbow_joint": 0.06508636120197275,
        "distance_shoulder_lift_joint": 0.2936244699547337,
        "distance_shoulder_pan_joint": 0.5754178535873251,
        "distance_wrist_1_joint": 0.33606455351666953,
        "distance_wrist_2_joint": 0.9987964965403651,
        "distance_wrist_3_joint": 0.003258516389473609,
        "smoothness": 0.0,
        "time": 0.051716977,
        "traj_len": 1.507397841046132,
        "weighted_distance": 1.9009540588942495
    },
    "planner": "BiTRRT",
    "start": {
        "state": {
            "elbow_joint": 2.0193083361928714,
            "shoulder_lift_joint": -1.1220246554650708,
            "shoulder_pan_joint": -1.0952077554168747,
            "wrist_1_joint": -0.8559753972642168,
            "wrist_2_joint": 0.4759566250798843,
            "wrist_3_joint": -3.1240929996934557
        }
    },
    "waypoints": [
        {
            "positions": [
                -1.0952077554168747,
                -1.1220246554650708,
                2.0193083361928714,
                -0.8559753972642168,
                0.4759566250798843,
                -3.1240929996934557
            ]
        },
        {
            "positions": [
                -1.1911107310147622,
                -1.1709620671241932,
                2.008460609325876,
                -0.7999646383447718,
                0.6424227078366118,
                -3.124636085758368
            ]
        },
        {
            "positions": [
                -1.2870137066126497,
                -1.2198994787833153,
                1.9976128824588806,
                -0.743953879425327,
                0.8088887905933393,
                -3.12517917182328
            ]
        },
        {
            "positions": [
                -1.3829166822105372,
                -1.2688368904424376,
                1.986765155591885,
                -0.687943120505882,
                0.9753548733500668,
                -3.1257222578881922
            ]
        },
        {
            "positions": [
                -1.4788196578084247,
                -1.31777430210156,
                1.9759174287248895,
                -0.6319323615864372,
                1.1418209561067942,
                -3.1262653439531047
            ]
        },
        {
            "positions": [
                -1.5747226334063122,
                -1.3667117137606821,
                1.9650697018578942,
                -0.5759216026669922,
                1.308287038863522,
                -3.1268084300180172
            ]
        },
        {
            "positions": [
                -1.6706256090041998,
                -1.4156491254198045,
                1.9542219749908987,
                -0.5199108437475473,
                1.4747531216202494,
                -3.1273515160829293
            ]
        }
    ]
}