{
    "goal": {
        "global_pose": {
            "orientation": {
                "w": 0.005598929693374612,
                "x": 0.007748599140229565,
                "y": 0.7110244013736278,
                "z": -0.7031023480610252
            },
            "position": {
                "x": -0.8858502320852131,
                "y": -0.7141253447532654,
                "z": 0.3711530566215515
            }
        },
        "name": "move_to_auspresseinheit_C"
    },
    "id": "BiTRRT_move_to_auspresseinheit_C_62",
    "joint_names": [
        "shoulder_pan_joint",
        "shoulder_lift_joint",
        "elbow_joint",
        "wrist_1_joint",
        "wrist_2_joint",
        "wrist_3_joint"
    ],
    "metrics": {
        "cart_traj_len": 0.4925314137674239,
        "distance_elbow_joint": 0.9879552959748757,
        "distance_shoulder_lift_joint": 0.3185538973600086,
        "distance_shoulder_pan_joint": 0.2562771934772612,
        "distance_wrist_1_joint": 0.6545690685963521,
        "distance_wrist_2_joint": 1.3104892054305757,
        "distance_wrist_3_joint": 0.049913651599110764,
        "smoothness": 9.68921913573737e-16,
        "time": 0.05253853,
        "traj_len": 1.8914963157347635,
        "weighted_distance": 2.3754249913780345
    },
    "planner": "BiTRRT",
    "start": {
        "state": {
            "elbow_joint": 1.7527959577737207,
            "shoulder_lift_joint": -0.9740617694225068,
            "shoulder_pan_joint": -2.967991417825858,
            "wrist_1_joint": -0.759517768980727,
            "wrist_2_joint": 1.7443932448377408,
            "wrist_3_joint": -3.0840537646736568
        }
    },
    "waypoints": [
        {
            "positions": [
                -2.967991417825858,
                -0.9740617694225068,
                1.7527959577737207,
                -0.759517768980727,
                1.7443932448377408,
                -3.0840537646736568
            ]
        },
        {
            "positions": [
                -2.9423636984781316,
                -0.9422063796865059,
                1.654000428176233,
                -0.6940608621210917,
                1.6133443242946832,
                -3.089045129833568
            ]
        },
        {
            "positions": [
                -2.9167359791304057,
                -0.910350989950505,
                1.5552048985787454,
                -0.6286039552614565,
                1.4822954037516256,
                -3.094036494993479
            ]
        },
        {
            "positions": [
                -2.89110825978268,
                -0.8784956002145042,
                1.4564093689812578,
                -0.5631470484018214,
                1.3512464832085682,
                -3.09902786015339
            ]
        },
        {
            "positions": [
                -2.8654805404349535,
                -0.8466402104785034,
                1.3576138393837702,
                -0.4976901415421861,
                1.2201975626655104,
                -3.104019225313301
            ]
        },
        {
            "positions": [
                -2.839852821087227,
                -0.8147848207425025,
                1.2588183097862828,
                -0.4322332346825509,
                1.089148642122453,
                -3.109010590473212
            ]
        },
        {
            "positions": [
                -2.8142251017395012,
                -0.7829294310065016,
                1.1600227801887952,
                -0.36677632782291575,
                0.9580997215793955,
                -3.1140019556331233
            ]
        },
        {
            "positions": [
                -2.7885973823917753,
                -0.7510740412705008,
                1.0612272505913076,
                -0.3013194209632805,
                0.8270508010363379,
                -3.1189933207930345
            ]
        },
        {
            "positions": [
                -2.762969663044049,
                -0.7192186515344998,
                0.96243172099382,
                -0.23586251410364523,
                0.6960018804932802,
                -3.123984685952945
            ]
        },
        {
            "positions": [
                -2.7373419436963227,
                -0.687363261798499,
                0.8636361913963325,
                -0.1704056072440101,
                0.5649529599502228,
                -3.1289760511128564
            ]
        },
        {
            "positions": [
                -2.7117142243485968,
                -0.6555078720624982,
                0.7648406617988449,
                -0.10494870038437484,
                0.4339040394071652,
                -3.1339674162727675
            ]
        }
    ]
}